The Knight & Her Liege - Part 3 

# BITSY VERSION 5.1

! ROOM_FORMAT 1

PAL 0
NAME Forest
130,96,61
92,156,90
194,202,255

PAL 1
NAME The Lake
217,198,103
129,172,255
161,134,80

PAL 2
NAME Village
76,150,110
170,171,134
181,240,247

PAL 3
NAME Mine external
199,162,119
43,43,43
255,255,255

PAL 4
NAME Title Screen
0,0,0
170,168,184
255,80,71

ROOM 0
0,0,0,g,0,0,a,0,0,b,0,0,0,0,0,0
0,g,0,h,0,g,a,0,0,b,g,0,0,0,g,0
0,h,0,0,g,h,a,0,0,b,h,0,g,0,h,0
g,0,g,0,h,0,d,0,0,b,g,0,h,0,0,0
h,0,h,g,0,d,0,2x,0,b,h,0,0,g,0,0
d,c,0,h,a,0,0,0,d,0,0,g,0,h,0,g
b,2x,c,e,d,0,0,0,b,g,0,h,0,g,0,h
b,0,0,0,0,0,0,0,c,h,0,g,0,h,g,0
b,0,d,f,c,0,2x,0,0,c,0,h,0,0,h,0
c,d,0,0,g,c,0,0,0,d,0,0,g,0,0,g
0,0,g,0,h,d,0,0,0,c,0,0,h,0,0,h
g,0,h,g,a,0,0,0,2x,0,b,0,0,g,0,0
h,g,0,h,a,0,0,0,0,0,b,g,0,h,g,0
0,h,0,g,a,0,0,0,0,0,b,h,0,0,h,0
g,0,0,h,g,c,0,0,0,d,0,g,0,g,0,g
h,0,0,0,h,0,c,0,0,c,0,h,0,h,0,h
NAME R1 - The forest
EXT 7,0 1 7,15
EXT 8,0 1 8,15
PAL 0

ROOM 1
g,0,0,0,0,0,d,0,0,c,0,0,0,g,0,0
h,0,g,0,0,a,0,0,0,0,b,g,0,h,0,g
0,g,h,0,g,a,0,2x,0,0,b,h,0,g,0,h
0,h,g,0,h,a,0,0,0,0,b,g,0,h,g,0
0,0,h,0,0,d,0,0,0,0,c,h,0,0,h,0
0,e,e,e,d,0,0,0,0,0,0,c,e,e,e,0
d,0,0,0,0,0,0,0,2x,0,0,2x,0,0,0,c
0,0,0,0,0,0,0,0,0,0,0,0,0,0,0,0
0,0,0,0,0,2x,0,0,0,0,2x,0,0,0,0,0
c,0,0,2x,0,0,0,2x,0,0,0,0,0,2x,0,d
0,f,f,f,c,0,0,0,0,0,0,d,f,f,f,0
0,g,0,g,0,c,2x,0,0,0,d,0,0,g,0,0
0,h,g,h,0,a,0,0,0,0,b,0,0,h,g,0
g,0,h,g,0,a,0,0,2x,0,b,g,0,g,h,0
h,g,0,h,g,a,0,0,0,0,b,h,0,h,0,g
0,h,0,0,h,0,c,0,0,d,0,0,0,g,0,h
NAME R2 - Crossroad
ITM 8 7,15
ITM 8 8,15
EXT 0,7 2 15,8
EXT 0,8 2 15,9
EXT 15,8 3 0,8
EXT 15,7 3 0,7
EXT 7,0 5 7,15
EXT 8,0 5 8,15
PAL 0

ROOM 2
i,i,i,k,i,i,i,i,i,i,k,i,i,m,j,0
i,i,i,l,i,i,l,k,i,i,i,i,m,j,0,0
k,i,i,i,i,k,i,i,k,i,l,m,j,0,0,0
i,i,k,i,i,i,l,i,i,i,m,j,0,0,0,0
i,l,i,i,k,i,k,i,m,j,0,0,0,0,0,0
i,i,i,l,i,i,m,j,0,0,0,0,0,0,0,0
i,k,i,i,i,m,j,0,0,0,0,0,0,0,0,0
i,i,i,l,m,j,0,0,0,0,0,0,0,0,0,0
i,l,i,m,j,0,0,0,0,0,0,0,0,0,0,0
i,i,m,j,0,0,0,0,0,0,0,0,0,0,0,0
i,m,j,0,0,0,0,0,0,0,0,0,0,0,0,0
m,j,0,0,0,0,0,0,0,0,0,0,0,0,0,0
j,0,0,0,0,0,0,0,0,0,0,0,0,0,0,0
0,0,0,0,0,0,0,0,0,0,0,0,0,0,0,0
0,0,0,0,0,0,0,0,0,0,0,0,0,0,0,0
0,0,0,0,0,0,0,0,0,0,0,0,0,0,0,0
NAME R3 - The Lake
ITM b 9,7
ITM b 8,7
ITM b 8,6
EXT 15,8 1 0,7
EXT 15,9 1 0,8
END 0 9,6
PAL 1

ROOM 3
v,w,0,0,1h,0,0,g,0,0,1h,0,0,0,0,0
0,0,q,r,t,u,s,h,0,q,t,s,0,16,16,16
g,v,x,x,x,x,z,w,v,x,x,z,w,16,16,16
h,0,p,11,p,10,p,0,0,p,11,p,0,16,16,16
0,0,g,12,12,14,13,g,0,11,10,p,0,g,0,0
0,0,h,0,0,15,0,h,0,12,14,13,0,h,0,d
c,e,e,e,e,e,e,e,e,e,e,e,e,e,d,0
0,0,0,0,0,0,0,0,0,0,0,0,0,0,0,0
0,0,0,0,0,0,0,0,0,0,0,0,0,0,0,0
d,f,f,f,f,c,0,0,d,f,f,f,f,f,c,0
0,g,0,0,15,1h,0,0,0,16,16,16,16,16,0,c
0,h,0,q,r,t,u,s,0,16,16,16,16,16,0,0
g,0,v,x,x,x,x,z,w,16,16,16,16,16,0,g
h,0,0,p,p,p,11,p,0,16,16,16,16,16,0,h
0,g,0,12,12,12,12,13,0,16,16,16,16,16,0,0
0,h,0,0,0,0,0,0,0,0,0,0,0,0,0,0
NAME R4 - The Village
EXT 15,7 4 7,15
EXT 15,8 4 8,15
EXT 0,7 1 15,7
EXT 0,8 1 15,8
PAL 2

ROOM 4
x,x,z,w,16,16,16,16,16,16,16,0,q,r,t,u
11,p,10,0,16,16,16,16,16,16,16,v,x,x,x,x
12,12,1o,0,16,16,16,16,16,16,16,0,11,p,10,p
16,0,1l,0,0,0,0,0,0,0,0,0,12,12,14,0
16,0,1l,0,0,0,1z,0,0,1z,0,0,0,0,15,0
16,0,1l,0,0,1u,1w,1w,1w,1w,1x,0,0,0,15,0
0,0,1l,0,0,1o,0,0,0,0,1o,1k,1k,1k,1i,0
1k,1k,1m,1n,1k,1o,0,1p,1s,0,1o,0,0,0,1h,0
s,0,0,0,0,1o,0,1q,1r,0,1o,0,q,r,t,u
z,w,0,0,0,1o,0,0,0,0,1o,0,x,x,x,x
11,0,0,0,0,1m,1w,1w,1w,1w,1y,0,10,p,11,p
1k,1k,1k,1k,1k,1i,0,0,0,1m,1k,1k,1i,12,12,12
0,1h,0,20,0,1j,c,0,0,d,0,0,0,16,16,16
r,t,u,s,0,1j,a,0,0,b,0,0,0,16,16,16
x,x,x,z,w,1j,a,0,0,b,0,0,0,1h,0,0
p,p,10,p,0,1j,a,0,0,b,0,q,r,t,u,s
NAME R6 - Village Square
ITM 9 12,3
ITM 9 13,4
ITM 9 11,4
ITM 9 12,5
ITM a 4,9
ITM a 3,8
ITM a 2,9
ITM a 3,10
ITM a 4,10
ITM a 4,8
ITM a 2,10
ITM a 2,8
ITM a 6,11
ITM a 7,11
ITM a 8,11
ITM a 8,12
ITM a 7,12
ITM a 7,13
ITM a 8,13
ITM a 7,14
ITM a 8,14
EXT 7,15 3 15,7
EXT 8,15 3 15,8
PAL 2

ROOM 5
0,0,0,0,0,0,0,0,0,0,0,0,0,0,0,0
0,2j,0,0,0,0,0,0,0,0,0,2k,0,0,0,0
0,0,0,0,0,0,23,2b,2b,22,0,0,0,0,0,0
0,0,0,0,0,0,29,21,2c,2a,0,0,0,0,0,0
0,0,0,0,0,0,29,2d,21,2a,0,0,2m,2l,2n,0
0,0,2r,0,0,25,2c,21,2c,2d,26,0,0,0,0,0
2o,2p,2q,0,0,24,21,2d,21,2d,27,0,0,0,0,0
0,0,0,0,17,28,28,28,28,28,28,c,0,2s,0,0
c,e,e,17,0,0,0,2f,0,0,0,0,c,e,e,d
0,f,f,0,0,2e,0,0,0,0,0,0,0,0,f,0
0,0,2t,0,0,0,0,2f,0,0,0,0,0,0,0,0
0,0,0,0,0,2e,0,0,0,0,0,0,2u,2v,0,0
0,0,0,g,0,0,0,2f,0,0,0,0,0,0,0,0
0,g,0,h,0,2e,c,0,0,d,0,0,0,0,g,0
0,h,0,0,0,0,a,2f,0,b,g,0,g,0,h,0
0,0,g,0,0,2e,a,0,0,b,h,0,h,0,0,0
NAME R5 - The Mine
EXT 8,15 1 8,0
EXT 7,15 1 7,0
PAL 3

ROOM 6
0,0,0,0,0,0,0,0,0,0,0,0,0,0,0,0
0,0,0,0,0,37,3f,3h,3i,3f,3g,0,0,0,0,0
0,0,0,0,31,38,38,38,38,38,38,36,0,0,0,0
0,0,0,31,38,38,38,38,38,38,38,38,36,0,0,0
0,0,0,3e,3j,3j,3j,3e,38,3j,3j,3j,38,0,0,0
0,0,0,3e,38,38,38,38,38,38,38,38,38,0,0,0
0,0,0,3e,38,38,3a,3m,38,38,38,38,38,0,0,0
0,0,0,3e,38,38,3k,38,38,38,38,38,38,0,0,0
0,0,0,3e,38,38,3l,38,38,38,38,38,38,0,0,0
0,0,0,3e,38,38,38,38,38,38,38,38,38,0,0,0
0,0,0,3e,3e,3e,3e,3e,3n,3n,3n,3n,38,0,0,0
0,0,0,3c,3e,3e,3e,3e,3n,3n,3n,3n,3d,0,0,0
0,0,0,0,30,3e,3e,3e,3n,3n,3n,3b,0,0,0,0
0,0,0,0,0,30,3e,3e,3n,3n,3b,0,0,0,0,0
0,0,0,0,0,0,30,3e,3n,3b,0,0,0,0,0,0
0,0,0,0,0,0,0,30,33,0,0,0,0,0,0,0
NAME Title Screen
PAL 4

TIL 10
11111111
11100001
11100001
11100001
11100001
11100001
11100001
11111111
NAME home 4
WAL true

TIL 11
11101111
11000111
10000011
11000111
11101111
11111111
11111111
11111111
NAME home 5
WAL true

TIL 12
11111111
10101010
00000000
00000000
00000000
00000000
00000000
00000000
NAME home 7
WAL true

TIL 13
11111111
01010101
00000000
00000000
00000000
00000000
00000000
00000000
NAME home 8
WAL true

TIL 14
00101100
00011010
00101001
00111110
00001100
00010111
00001011
00001101
NAME gravel 1
WAL false

TIL 15
00000110
00001111
00001010
00000111
00000101
00001101
00001010
00000101
NAME gravel 2
WAL false

TIL 16
00000000
01000100
01010101
01010101
01010101
01010101
11111111
11111111
>
00000000
00010001
00101010
01010101
01010101
01010101
11111111
11111111
NAME farm 1

TIL 17
00000101
00001011
00001111
00101110
00101111
01111100
01111110
11000000
>
00010101
00001011
01001100
00101110
00101100
01111000
01101100
11000000
NAME path 7

TIL 18
01110000
11001000
10000100
01000010
00100011
00011111
00000111
00000111
NAME windmill blade

TIL 19
00001110
00010011
00100001
01000010
11000100
11101000
11110000
11100000
NAME windmill blade 2

TIL 20
00000000
00000000
00000000
00000000
00011111
00010101
00011011
00011111
NAME box
WAL true

TIL 21
11111111
11111111
11111111
11111111
11111111
11111111
11111111
11111111
>
11111111
11111111
11111011
11111111
11111111
11111111
11111111
11111111
NAME mine entrance

TIL 22
00000000
00100000
10110000
10111000
11011100
10011110
11111111
11111111
NAME mine e 2

TIL 23
00000010
00000110
00001100
00011100
00111101
01111111
11111111
11111111
NAME mine e 3

TIL 24
00000111
00001111
00001111
00001111
00011111
00011111
00111111
01111111
NAME mine e 4

TIL 25
00000000
00000000
00000001
00000001
00000011
00000011
00000011
00000111
NAME mine e 5

TIL 26
00000000
00000000
10000000
10000000
11000000
11000000
11000000
11100000
NAME mine e 6

TIL 27
11100000
11110000
11110000
11110000
11111000
11111000
11111100
11111110
NAME mine e7

TIL 28
11111111
01111111
01011001
00010000
00000000
00000000
00000000
00000000
NAME mine e 8

TIL 29
11111111
10111111
11111111
01111111
11011111
00111111
01111111
11011111
NAME mine e 9

TIL 30
11111111
11111111
01111111
00111111
00011111
00001111
00001111
00000011
NAME k3

TIL 31
00000001
00000011
00000111
00001111
00011111
00111111
01111111
11111111
NAME k5

TIL 32
11101011
11111111
00101100
00011000
00000000
00000000
00000000
00000000
NAME k6

TIL 33
11111111
11111111
11111110
11111100
11111000
11110000
11110000
11000000
NAME k7

TIL 34
00000001
00000001
00000001
00000001
00000001
00000001
00000001
00000001
NAME k8

TIL 35
11111000
11111100
11111100
11111110
11111110
11111111
11111111
00011111
NAME k9

TIL 36
10000000
11000000
11100000
11110000
11111000
11111100
11111110
11111111
NAME k10

TIL 37
00000000
00000000
00000000
00000111
00011111
00111111
01111111
11111111
NAME k11

TIL 38
11111111
11111111
11111111
11111111
11111111
11111111
11111111
11111111
NAME k12

TIL 39
11101010
11111111
11101010
11111111
11101010
11111111
11101010
11111111
NAME k13

TIL a
00000110
00000011
00000010
00000110
00000111
00000011
00001100
00000111
>
00000110
00001011
00000111
00000110
00000010
00000111
00000100
00000011
NAME path 1
WAL true

TIL b
11000000
01000000
01100000
10100000
11000000
00100000
11010000
01000000
>
11000000
01100000
01100000
10010000
11100000
00100000
11011000
01000000
NAME path 2
WAL true

TIL c
11100000
01110100
01111000
00111110
00010000
00011111
00001111
00000001
>
11010000
01110000
01111010
00111100
00010001
00011111
00001111
00000001
NAME path 3
WAL true

TIL d
00001001
00111111
00111000
10110000
01100000
01100000
11100000
10000000
>
00010101
00011111
01111000
00110000
11100000
01100000
11100000
10000000
NAME path 4
WAL true

TIL e
00000000
00000000
00000000
01000000
01000000
01101001
11101101
11111111
>
00000000
00000000
00000000
01100100
01001000
01101001
11101101
11111111
NAME path 5
WAL true

TIL f
11111111
11110110
01010010
01000000
00000000
00000000
00000000
00000000
>
11111111
11010010
01011011
00000000
00000000
00000000
00000000
00000000
NAME path 6
WAL true

TIL g
00000000
00011100
00011110
00111110
01111111
01111111
11111111
11111111
>
00011000
00011000
00111100
01111110
01111110
11111111
11111111
11111111
NAME tree 1

TIL h
00100100
00100100
00100100
00101100
00100100
00100100
01100110
10000011
NAME tree trunk

TIL i
11111111
11111111
11111111
11111111
11111111
11111111
11111111
11111111
>
11111111
11111111
11111111
11111111
11111111
11111111
11111111
11111111
NAME lake
WAL true

TIL j
11111110
11111110
11111100
11110000
11100000
11100000
00000000
00000000
>
00000000
00000000
00000000
00000000
00000000
00000000
00000000
00000000
NAME lake surf

TIL k
11111111
11111111
11111101
11111011
11100111
11111111
11111111
11111111
>
11111111
11111111
11111111
11111111
11111111
11111111
11111111
11111111
NAME lake 2
WAL true

TIL l
11111111
11111111
11111111
11111111
11111111
11111111
11111111
11111111
>
11111111
11111111
11111111
11111011
11110011
11110111
11001111
11111111
NAME lake 3
WAL true

TIL m
11111111
11111111
11111111
11111111
11111111
11111111
11111111
11111111
>
11111111
11111111
11111111
11111110
11111110
11111100
11111000
11100000
NAME surf 2

TIL o
11111111
11111111
11111111
00111110
00000000
00000000
00000000
00000000
>
11111111
11111111
11111111
11111110
11110000
10000000
00000000
00000000
NAME surf 3

TIL p
11111111
11111111
11111111
11111111
11111111
11111111
11111111
11111111
NAME home 1
WAL true

TIL q
00000000
00000000
00000000
00000000
00111111
01111111
11111111
11111111
NAME home roof 1
WAL true

TIL r
00000000
00000000
00000111
01111111
11111111
11111111
11111111
11111111
NAME home roof 2
WAL true

TIL s
00000000
00000000
00000000
00000000
11111100
11111110
11111111
11111111
NAME home roof 3
WAL true

TIL t
00000000
00111100
11111111
11111111
11111111
11111111
11111111
11111111
NAME home roof 4
WAL true

TIL u
00000000
00000000
11110000
11111111
11111111
11111111
11111111
11111111
NAME home roof 5
WAL true

TIL v
00000001
00000011
00000111
00000010
00000010
00000000
00000000
00000000
NAME home roof 6
WAL true

TIL w
10000000
11000000
11100000
01000000
01000000
00000000
00000000
00000000
NAME home roof 7
WAL true

TIL x
10101010
10101010
10101010
10101010
11111111
11111111
11111111
11111111
NAME home 2
WAL true

TIL z
10101011
10101011
10101011
10101011
11111111
11111111
11111111
11111111
NAME home 3
WAL true

TIL 1a
11100000
11110000
11001000
01000100
00100010
00010001
00001011
00000110
NAME windmill blade 3

TIL 1b
00000000
00000000
00000000
00000000
00000000
00000000
00000000
00000000
NAME windmill blade four 4

TIL 1c
00000000
00000000
00000000
00000000
11111111
11111111
11111111
11111111
NAME home roof 5
WAL true

TIL 1d
11111111
11111111
11111111
00000000
00000000
00000000
00000000
00000000
NAME home roof 6
WAL true

TIL 1e
11111111
01111111
00111111
00000000
00000000
00000000
00000000
00000000
NAME home roof 7
WAL true

TIL 1f
11111111
11111110
11111100
00000000
00000000
00000000
00000000
00000000
NAME home roof 8
WAL true

TIL 1g
11111111
11111111
10110111
11011011
11101011
11101101
11010101
11100011
>
11111111
11111100
11011011
11101101
11101110
11011100
11100101
11100011
NAME chimney smoke

TIL 1h
00000000
00100000
00010100
00010010
00100010
00100100
00100010
00010100
>
00000000
00010010
00100010
00100100
00010100
00100010
00010100
00010100
NAME chimney smoke 2

TIL 1i
00001111
00001011
00001101
10110111
11100101
01011011
11110110
00000000
NAME gravel 3

TIL 1j
00001110
00001011
00000101
00001011
00000101
00000111
00001001
00001101
NAME gravel 4

TIL 1k
00000000
00000000
00000000
01010101
11011010
11110111
01001010
00000000
NAME gravel 5

TIL 1l
11101000
00111000
11100000
01011000
11101000
01010000
11101000
10111000
NAME gravel 6

TIL 1m
11011000
01111101
01011010
11110110
01011011
00110100
00011011
00001101
NAME gravel 7

TIL 1n
00000000
00000000
00000000
00000000
11010110
01101101
10100110
11011011
NAME gravel8

TIL 1o
01111110
00010010
01101010
01011100
01110110
01010110
11111100
01100100
NAME gravel 9

TIL 1p
00000000
00000000
00000000
00000111
00001000
00010000
00010000
00011111
>
00000000
00000000
00000000
00000111
00001000
00010000
00010001
00011111
NAME well
WAL true

TIL 1q
00011111
00010001
00010000
00001000
00000111
00000000
00000000
00000000
>
00011111
00010000
00010000
00001000
00000111
00000000
00000000
00000000
NAME well 2
WAL true

TIL 1r
11111000
10001000
00001000
00010000
11100000
00000000
00000000
00000000
>
11111000
00001000
00001000
00010000
11100000
00000000
00000000
00000000
NAME well 3
WAL true

TIL 1s
00000000
00000000
00000000
11100000
00010000
00001000
00001000
11111000
>
00000000
00000000
00000000
11100000
00010000
00001000
10001000
11111000
NAME well 4

TIL 1t
10101010
10101010
10101010
10101010
10101010
10101010
10101010
10101010
>
10101010
10101010
10101010
10101010
10101010
10101010
10101010
10101010
NAME farm 2

TIL 1u
00000000
00000111
00011101
00010111
00111101
01001011
01110110
01011010
NAME gravel 10

TIL 1v
01010110
01111110
01000111
01010110
01110111
00111011
00000111
00000000
NAME gravel 11

TIL 1w
00000000
11011100
01101111
11011010
00111100
11100111
11010110
00000000
NAME gravel 12

TIL 1x
00000000
11110000
10101100
11011110
01101100
11101010
11111110
01100010
NAME gravel 12

TIL 1y
01110110
11000110
11011010
11111110
10010100
11011000
11110000
00000000
NAME gravel 13

TIL 1z
00100010
01010010
11111111
10000001
11000011
11111111
01111110
01100110
NAME cart

TIL 2a
11111100
11111101
11111100
11111010
11111110
11111011
11111100
11111110
NAME mine e 10

TIL 2b
00000000
10000100
11010101
10011001
11110001
11111100
11111111
11111111
NAME mine e 11

TIL 2c
11111111
11111111
11111111
11111111
11011111
11111111
11111111
11111111
>
11111111
11111111
11111111
11111111
11111111
11111111
11111111
11111111
NAME mine e12

TIL 2d
11111111
11111111
11111111
11111111
11111111
11111111
11111111
11111111
>
11111111
11111111
11111111
11111111
11111111
11111111
11111111
11111111
NAME mine e 13

TIL 2e
00000000
00101000
10000010
00111000
01111100
00111000
00000000
00000000
NAME bear paw 1

TIL 2f
00000000
00010100
01000001
00011100
00111110
00011100
00000000
00000000
NAME bear paw 2

TIL 2g
00100000
00001000
01011100
00011100
01011100
00001000
00100000
00000000
NAME bear 3

TIL 2h
00000000
00100000
00001000
01011100
00011100
01011100
00001000
00100000
NAME bear 4

TIL 2i
00000000
00001010
00100000
00001110
01001110
00001110
00000000
00000000
NAME bear 5

TIL 2j
10000000
01100000
00011000
00110011
00100010
00111111
00000100
00000000
NAME crack 1

TIL 2k
00000000
00000110
00101000
00011100
00001000
01111000
00100000
00010000
NAME crack 2

TIL 2l
00000000
00000011
00000100
00001100
11111100
01100100
00000000
00000000
NAME crack 3

TIL 2m
00000000
01100000
00111001
00001010
00011111
00000110
00001100
00001000
NAME crack 4

TIL 2n
00000010
10001100
01011000
00100100
00110000
00010000
00001110
00000001
NAME crack 5

TIL 2o
00000000
00010000
00110000
01100000
01100011
00111010
00001110
00000000
NAME crack 6

TIL 2p
00000000
00000000
00000000
00000001
10000010
01000101
00111100
00000000
NAME crack 7

TIL 2q
00001100
00010000
00100000
11000000
00000000
11100000
00010110
00001001
NAME crack 8

TIL 2r
00000010
00000100
00000100
00001000
00001110
00000010
00000100
00000100
NAME crack 9

TIL 2s
00000000
00000001
00000010
00110110
00011100
00101100
01000110
00000000
NAME crack 10

TIL 2t
00000000
01110000
00001000
00001100
00010010
00100010
01000010
10000000
NAME pickaxe

TIL 2u
00000000
11000000
01001100
01001110
01011110
01111111
00110000
00110000
NAME minecart
WAL true

TIL 2v
00000000
00010011
00111010
00111010
01111110
11111110
00001100
00001100
NAME minecart 2
WAL true

TIL 2w
00011000
00100100
01101010
10010101
10100101
01001010
00100100
00011000
>
00011000
00100100
01001010
10100011
11001001
01010010
00100100
00011000
NAME campfire

TIL 2x
00000000
00000010
00100101
01010010
00100000
00000100
00001010
00000100
NAME stones

TIL 2y
00011111
00111111
01111111
01111111
11111111
11111111
11111111
11111000
NAME k1

TIL 2z
10000000
10000000
10000000
10000000
10000000
10000000
10000000
10000000
NAME k2

TIL 3a
11111111
11001111
11000011
11011001
11011100
11011111
11011111
11011111
NAME k14

TIL 3b
11111111
11111111
11111110
11111100
11111000
11110000
11110000
11000000
NAME k14

TIL 3c
11111111
01111111
00111111
00111111
00001111
00001111
00000011
00000001
NAME k15

TIL 3d
11111111
11111110
11111110
11111000
11111000
11100000
11000000
10000000
NAME k16

TIL 3e
11111111
11111111
11111111
11111111
11111111
11111111
11111111
11111111
NAME k17

TIL 3f
00000000
00000000
00000000
11111111
11111111
11111111
11111111
11111111
NAME k18

TIL 3g
00000000
00000000
00000000
11100000
11111000
11111100
11111110
11111111
NAME k19

TIL 3h
00001111
01111111
11111111
11111111
11111111
11111111
11111111
11111111
NAME k19

TIL 3i
11111000
11111110
11111111
11111111
11111111
11111111
11111111
11111111
NAME k20

TIL 3j
11111111
11111111
11111111
00000000
00000000
11111111
11111111
11111111
NAME k20

TIL 3k
11011111
11011111
11011111
11011111
11011111
11011111
11011111
11011111

TIL 3l
11011111
11011111
11011111
11001111
11100111
11110011
11111001
11111101

TIL 3m
11111111
11111111
11111111
11111111
01111111
00011111
11001111
11100111

TIL 3n
11111111
10011001
10011001
11111111
11111111
10011001
10011001
11111111

SPR 10
00000000
01110000
11111000
00100010
01110101
10101100
01110100
01010000
>
00000000
01110000
11111000
00100000
01110000
10101110
01110001
01010010
NAME peasant 6
DLG SPR_f
POS 4 9,1

SPR 11
00000000
01110000
11111000
00100010
01110101
10101100
01110100
11111000
>
00000000
01110000
11111000
00100000
01110000
10101110
01110001
11111010
NAME peasant 7
DLG SPR_g
POS 4 15,13

SPR 13
00111000
01111100
00010000
00111000
01010110
01010000
00111000
00101000
>
00111000
01111100
00010000
00111010
01010100
01010000
00111000
00101000
NAME peasant 9
DLG SPR_d
POS 4 8,4

SPR 14
00000000
01110000
11111000
00100000
01111110
10100100
10101010
10110001
NAME peasant 10
DLG SPR_s
POS 2 11,8

SPR 16
00011000
00100100
01010010
10101101
10010101
01010010
00100100
00011000
NAME campfire
DLG SPR_1
POS 1 6,5

SPR 17
00000001
00000011
00000101
00001001
00010001
00100000
01000000
10000000
NAME tent 1
POS 1 4,6

SPR 18
10000000
11000000
10100000
10100000
10100000
10010000
10001100
10000010
NAME tent 2
DLG SPR_0
POS 1 5,6

SPR 19
01100000
01010000
01001000
01000100
01000100
01001000
01010000
01100000
NAME bow
POS 1 10,5

SPR A
10111100
10100100
10111111
10011011
11111111
00011000
00111100
01100110
>
00111100
10100100
10111100
10011011
11111111
10011011
00111100
00100100
POS 5 9,8

SPR a
00000000
00000000
00000000
00000000
00000000
00001001
11101011
11111110
NAME body 2
DLG SPR_7
POS 0 9,11

SPR b
00000000
00111000
01111100
00010000
00111000
01010100
00111000
00101000
NAME Peasant
DLG SPR_8
POS 1 6,6

SPR c
00000000
11110000
01110100
01110110
01111111
11111111
11110100
01100001
NAME broken cart 1
DLG SPR_2
POS 0 8,13

SPR d
00000000
00000111
00011110
01111110
11111110
11101111
00001111
01100110
NAME broken cart 2
DLG SPR_3
POS 0 9,13

SPR e
00000000
00000000
00000000
00000000
00000000
00110000
01010011
10011111
NAME body 1
DLG SPR_4
POS 0 8,8

SPR f
00000000
00111000
00111000
10100000
11100000
00100100
01111100
11000000
NAME body 3
DLG SPR_5
POS 0 0,5

SPR g
00000001
11000010
00111100
00001000
00000000
10000000
01111110
00011001
NAME body 4
DLG SPR_6
POS 0 1,8

SPR h
00000000
00000000
00111100
00100100
00100100
00100100
00011000
00000000
NAME shield 1
POS 0 12,11

SPR i
00000000
00000000
00000000
00100000
11111111
00100000
00000000
00000000
NAME sword 1
POS 0 11,10

SPR j
00111000
00111000
00010000
01111100
10010000
10111100
00100100
01100000
NAME body 5
DLG SPR_q
POS 0 5,5

SPR k
00000000
00001000
00010001
11010111
11111100
11010111
00010001
00100000
NAME body 6
POS 0 14,9

SPR l
00000000
00000000
00000000
10000000
11000000
01111111
00111111
00011111
NAME boat
DLG SPR_h
POS 2 9,5

SPR m
00000000
00000000
00000000
00000100
00001100
11111000
11111000
11110100
NAME boat 2
DLG SPR_i
POS 2 10,5

SPR n
00000000
01000000
00100000
00010000
00001100
00001110
00000110
00000000
NAME oar
POS 2 10,6

SPR o
00000000
01110000
01000111
11011100
01000100
01111111
00111110
11111111
>
00100000
01100010
01000110
01110111
01000100
01111111
00111110
11111111
NAME bush
DLG SPR_j
POS 2 6,10

SPR p
00000000
00000000
00000100
00011100
00000100
00111111
00001110
11111111
>
00000000
00010000
00001000
00000100
00000100
00111111
00001110
11111111
NAME bush 2
DLG SPR_k
POS 2 10,11

SPR q
00000000
01110000
01000111
11011100
01000100
01111111
00111110
11111111
>
00100000
01100010
01000110
01110111
01000100
01111111
00111110
11111111
NAME bush 3
DLG SPR_l
POS 2 4,12

SPR r
00000000
01110000
01000111
11011100
01000100
01111111
00001110
11111111
>
00100000
01100010
01000110
01110111
01000100
01111111
00001110
11111111
NAME bush 4
DLG SPR_m
POS 2 7,14

SPR s
00000000
01110000
01000111
11011100
01000100
01111111
00100110
11111111
>
00100000
01100010
01000110
01110111
01000100
01111111
00100110
11111111
NAME bush 5
DLG SPR_n
POS 2 7,12

SPR t
00000000
01100000
01001111
11001100
01000100
01101111
00101110
11111111
>
00100000
01100010
01001110
01101111
01000100
01101111
00101110
11111111
NAME bush 6
DLG SPR_o
POS 2 7,10

SPR u
00000000
01110000
01111111
11111100
01110100
11110111
00100010
11111111
>
00100000
01100010
11111110
01111111
01111100
11101111
00100010
11111111
NAME bush 7
DLG SPR_p
POS 2 10,13

SPR v
00000000
01110000
11111000
00100010
01110101
10101100
01110100
01010000
>
00000000
01110000
11111000
00100000
01110000
10101110
01110001
01010010
NAME peasant 2
DLG SPR_9
POS 3 10,13

SPR w
00001100
00011110
00001100
00100100
01011100
00100100
11010100
01100110
>
00001100
00011110
00001100
00000100
00111100
01000100
10110100
01100110
NAME peasant 3
DLG SPR_a
POS 3 14,2

SPR x
00000000
00000000
11000000
11100000
10000000
11000000
10100000
10000000
NAME peasant 4
POS 3 7,3

SPR y
00000000
00000000
00000011
00000111
00000001
00000011
00000101
00000000
NAME peasant 5
DLG SPR_e
POS 3 8,3

SPR z
00011000
00111100
00111010
00010001
01111100
10111010
01111100
11111110
>
00011000
00111110
00111001
00010000
01111100
10111010
01111100
11111110
NAME mother
DLG SPR_b
POS 4 12,4

SPR 1a
00000000
01110000
11111000
00100010
01110101
10101101
01110100
01010100
DLG SPR_r
POS 4 3,9

ITM 8
00000000
00000000
00000000
00000000
00000000
00000000
00000000
00000000
NAME campire
DLG ITM_2

ITM 9
00000000
00000000
00000000
00000000
00000000
00000000
00000000
00000000
NAME talked to mother

ITM a
00000000
00000000
00000000
00000000
00000000
00000000
00000000
00000000
NAME talked to peasant

ITM b
00000000
00000000
00000000
00000000
00000000
00000000
00000000
00000000
DLG ITM_0

DLG SPR_2
One of the carts from the caravan. It's been completely smashed to pieces. 

DLG SPR_3
One of the carts from the caravan. It's been completely smashed to pieces. 

DLG SPR_4
One of Lord Hadridge's guards. A broken arrow juts out from his left eye socket.

DLG SPR_5
Lord Hadridge's personal acrobat. They've been twisted and contorted into a terrible state... how ironic. 

DLG SPR_6
One of Lord Hadridge's servants. He's practically been cut in half.

DLG SPR_7
Lord Hadridge's lead guard. She was one of the toughest fighters you knew. She's been run right through. 

DLG ITM_2
"""
{sequence
  - You look down the trail, smoke still smoulders from the wreckage of your caravan. The smell of death is carried by the wind, and the feeling of emptiness returns to you. There's no point going down this route.
  - 
}
"""

DLG SPR_9
"""
{sequence
  - Oh, why are you back?!
 - I mean...
  - {clr3}*This peasant pretends that he hasn't heard you...*{clr3}
  - 
}
"""

DLG SPR_a
"""
{sequence
  - Hail! What brings you to our humble village?
  - ...nothing sinister I hope.
  - 
}
"""

DLG SPR_b
"""
{sequence
  - Knight! You've returned! 
  - Where's Fredrick? ... What's... what's in that sack? 
  - {shk}AGGGH!{shk}
 - My boy! My baby! {clr3}*The mother begins to hyperventilate*{clr3}
 - Why did he go into those cursed mines? Why wouldn't he listen to me?!
 - {clr3}*The mother slumps down beside the sack. Her wails turn to sobs, and she says no more.*{clr3}
 - {clr3}*The mother caresses what's left of her son's face.*{clr3}
 -
}
"""

DLG SPR_d
"""
{sequence
  - Hmm, where's that {shk}witch {shk}run off to??
  - I bet she's putting stones in my bread again!
  - I'll show her! I'll put dog turds in her's!
  - 
}
"""

DLG SPR_e
"""
{sequence
  - Oh... hello, Knight. How did you see me back here?
  - What am I doing? ... erm, just... checking for rot?
  - 
}
"""

DLG SPR_f
"""
{sequence
  - There was a lot of noise in the woods last night. Right horrible sounds they were. Woke up my dog. 
  - Not sure what all that was about. 
}
"""

DLG SPR_g
"""
{sequence
  - It's very kind of Lord Hadridge to send a Knight to check on us...
  - That is why you're here, {shk}right{shk}?
}
"""

DLG SPR_h
A solitary row boat. It looks like it's still in use. 

DLG SPR_i
A solitary row boat. It looks like it's still in use. 

DLG SPR_j
A dry, prickly bush.

DLG SPR_k
A dry, prickly bush.

DLG SPR_l
A dry, prickly bush.

DLG SPR_m
A dry, prickly bush.

DLG SPR_n
A dry, prickly bush.

DLG SPR_o
A dry, prickly bush.

DLG SPR_p
A dry, prickly bush.

DLG SPR_q
Lord Hadridge's physician. She's clutching her bleeding knife in her remaining hand. It looks like she went down fighting.

DLG SPR_0
The tent has been torn apart by some kind of creature. It's useless now.

DLG SPR_1
The campfire's embers have extinguished. There is only a thin layer of dust left.

DLG SPR_8
"""
{sequence
 - Look at this, something has destroyed my tent. Have you had any luck finding Fredrick? I'll wring his ears for running away like that.
 - My... my son...
 - Oh, Knight, thank you for retrieving his body. If only I hadn't left him alone. 
 - What could have done this to him - a bear?
 - I don't know what to do. I can't go back and tell my wife about this. I'm not strong enough.
 - Could you do it, Knight? I... I need to think. 
 - Oh, what am I going to do?
 -
}
"""

DLG SPR_r
"""
{
 - {item "talked to mother"} == 1 ?
 {sequence
 - What happened to Fredrick is a real shame, but at least Geraldine knows the fate of her son. Thank you, Knight. 
 - Now, a deal's a deal. I know what happened to Lord Hadridge. The caravan was ambushed by a large group of mercenaries. They were dressed up like bandits, but their gear was too good. They had to be mercs. 
 - I don't know who they were working for, but I saw the direction they headed. I'm sure they actually went to Lord Hadridge's castle.
 - No, of course I don't know why that would be! I was just out gathering fire wood when all this took place. Ain't worth me sticking my nose in this sort of affair. 
 - That's all I know. Do with it what you will. 
 - 
}
 - else ?
 {sequence
 - Hmm, it's as I feared. Poor Fredrick. You should hurry and tell Geraldine what's happened to her boy. I'll be waiting here with your information once you're done.
 - 
}

"""

DLG SPR_s
"""
{
 - {item "talked to peasant"} == 1 ?
 {sequence
 - Hail, Knight. You need me to ferry you over to that castle? 
 - I guess I don't get a say in this, eh? 
 - Well, so long as you've got the coin...
 - Actually, even if you don't, I guess you'll be getting in regardless, eh? 
 - All right, are you ready to sail? Just hop in the boat. 
 - 
}
 - else ?
 {sequence
 - Hail, Knight. 
 - Don't mind me, I'm just a humble fisherman. 
 - The fish seem to be growing more smarter recently. It's been harder to fish in these waters. 
 - Tricky creatures...
 -
}
"""

DLG ITM_0
"""
{sequence
 - Are you sure you wish to board the boat? If so, step into the bow.
 -
}
"""

END 0
And so you set off, destined for Lord Hadridge's castle. You don't know what you'll discover, only that you're prepared to do whatever it takes to secure his release. 

END undefined
You take one last breath of clean air before venturing into the mine. If this is what it takes to find Lord Hadridge, so be it. Hopefully, Fredrick hasn't wandered too far into this death trap. 

END undefinee
You take one last breath of clean air before venturing into the mine. If this is what it takes to find Lord Hadridge, so be it. Hopefully, Fredrick hasn't wandered too far into this death trap. 

