
Struggle

# BITSY VERSION 4.5

! ROOM_FORMAT 1

PAL 0
0,0,0
255,4,10
255,247,249

PAL 1
0,0,0
5,255,254
255,255,255

PAL 2
0,0,0
28,255,2
255,255,255

PAL 3
0,0,0
255,3,186
255,255,255

PAL 4
0,0,0
174,167,179
255,255,255

PAL 5
0,0,0
255,255,255
255,255,255

PAL 6
0,0,0
254,125,130
255,255,255

PAL 7
0,0,0
140,255,254
255,255,255

PAL 8
0,0,0
134,255,119
255,255,255

PAL 9
0,0,0
255,140,225
255,255,255

PAL a
0,0,0
189,189,189
255,255,255

PAL b
33,33,33
255,255,255
255,255,255

PAL c
71,71,71
255,255,255
255,255,255

PAL d
138,138,138
255,255,255
255,255,255

PAL e
196,196,196
255,255,255
255,255,255

PAL f
240,240,240
255,255,255
255,255,255

PAL g
255,255,255
24,255,4
24,255,4

ROOM 0
a,a,a,a,a,a,a,a,a,a,a,a,a,a,a,a
d,d,d,d,0,0,0,0,0,0,0,0,d,d,d,d
d,b,b,d,0,0,0,0,0,0,0,0,d,b,b,d
d,b,b,d,0,0,0,0,0,0,0,0,d,b,b,d
d,d,d,d,0,0,0,j,k,0,0,0,d,d,d,d
q,p,q,0,0,0,0,l,m,0,0,0,0,q,p,q
q,p,q,0,0,0,0,0,0,0,0,0,0,q,p,q
q,p,q,0,0,0,0,e,f,0,0,0,0,q,p,q
q,p,q,0,0,0,0,i,g,0,c,0,0,q,p,q
q,p,q,0,0,0,0,0,0,0,0,0,0,q,p,q
q,p,q,0,0,0,0,j,k,0,0,0,0,q,p,q
d,d,d,d,0,0,0,l,m,0,0,0,d,d,d,d
d,b,b,d,0,0,0,c,0,0,0,0,d,b,b,d
d,b,b,d,0,0,0,0,0,0,0,0,d,b,b,d
d,d,d,d,0,0,0,0,0,0,0,0,d,d,d,d
a,a,a,a,a,a,1l,0,0,1m,a,a,a,a,a,a
ITM 1 10,8
ITM 2 7,12
ITM f 7,15
ITM f 8,15
EXT 8,15 1 4,1
EXT 7,15 1 4,1
PAL 0

ROOM 1
a,a,a,a,a,a,a,a,a,a,a,a,a,a,a,a
15,16,15,0,0,0,0,0,0,0,0,0,0,15,16,15
14,17,14,0,0,0,0,0,0,0,0,r,r,14,17,14
14,17,14,0,0,0,0,0,0,0,0,r,r,14,17,14
14,17,14,0,0,r,r,0,0,0,0,0,0,14,17,14
14,17,14,0,0,r,r,0,0,0,0,0,0,14,17,14
14,17,14,0,0,0,0,0,0,0,0,0,0,14,17,14
14,17,14,0,0,0,0,0,0,0,0,0,0,14,17,14
14,17,14,0,0,0,0,0,0,0,c,0,0,14,17,14
14,17,14,0,0,0,0,0,0,0,0,0,0,14,17,14
14,17,14,r,r,0,0,0,0,0,r,r,0,14,17,14
14,17,14,r,r,0,0,0,0,0,r,r,0,14,17,14
14,17,14,0,0,0,0,c,0,0,0,0,0,14,17,14
14,17,14,0,0,0,0,0,0,0,0,0,0,14,17,14
15,16,15,0,0,0,0,0,0,0,0,0,0,15,16,15
a,a,a,a,a,a,1l,0,0,1m,a,a,a,a,a,a
ITM 3 7,12
ITM 4 10,8
ITM g 7,15
ITM g 8,15
EXT 7,15 2 4,1
EXT 8,15 2 4,1
PAL 1

ROOM 2
a,a,a,a,a,a,a,a,a,a,a,a,a,a,a,a
13,10,13,0,0,0,0,0,0,0,0,0,0,13,10,13
w,0,x,0,0,0,0,0,0,0,0,s,s,w,0,x
13,12,13,0,0,0,0,0,0,0,0,s,s,13,12,13
x,0,w,0,0,s,s,0,0,0,0,u,v,w,0,x
w,0,x,0,0,s,s,0,0,0,0,0,0,x,0,w
x,0,w,0,0,u,v,0,0,0,0,0,0,w,0,x
w,0,x,0,0,0,0,0,0,0,0,0,0,x,0,w
x,0,w,0,0,0,0,0,0,0,11,0,0,w,0,x
w,0,x,0,0,0,0,0,0,0,0,0,0,x,0,w
x,0,w,0,0,0,0,0,0,0,s,s,0,w,0,x
w,0,x,0,0,0,0,0,0,0,s,s,0,x,0,w
13,10,13,0,0,0,0,11,0,0,u,v,0,13,10,13
w,0,x,0,0,0,0,0,0,0,0,0,0,w,0,x
13,12,13,0,0,0,0,0,0,0,0,0,0,13,12,13
a,a,a,a,a,a,1l,0,0,1m,a,a,a,a,a,a
ITM 5 10,8
ITM 6 7,12
ITM h 7,15
ITM h 8,15
EXT 7,15 3 4,1
EXT 8,15 3 4,1
PAL 2

ROOM 3
a,a,a,a,a,a,a,a,a,a,a,a,a,a,a,a
1a,1a,1a,0,0,0,0,0,0,0,0,0,0,1a,1a,1a
1a,1b,1a,0,0,0,0,0,0,0,0,0,0,1a,1b,1a
1a,1a,1a,0,0,0,0,1c,1d,0,0,0,0,1a,1a,1a
18,19,18,0,0,0,0,1c,1d,0,0,0,0,18,19,18
18,19,18,0,0,0,0,1c,1d,0,0,0,0,18,19,18
18,19,18,0,0,0,0,0,0,0,0,0,0,18,19,18
18,19,18,0,0,0,0,0,0,0,0,0,0,18,19,18
18,19,18,0,0,0,0,0,0,0,1e,0,0,18,19,18
18,19,18,0,0,0,0,1c,1d,0,0,0,0,18,19,18
18,19,18,0,0,0,0,1c,1d,0,0,0,0,18,19,18
18,19,18,0,0,0,0,1c,1d,0,0,0,0,18,19,18
1a,1a,1a,0,0,0,0,1e,0,0,0,0,0,1a,1a,1a
1a,1b,1a,0,0,0,0,0,0,0,0,0,0,1a,1b,1a
1a,1a,1a,0,0,0,0,0,0,0,0,0,0,1a,1a,1a
a,a,a,a,a,a,1l,0,0,1m,a,a,a,a,a,a
ITM 8 10,8
ITM 7 7,12
ITM i 7,15
ITM i 8,15
EXT 7,15 4 0,7
EXT 8,15 4 0,7
PAL 3

ROOM 4
0,0,0,0,0,0,0,0,0,0,0,0,0,0,0,0
0,0,0,0,0,0,0,0,0,0,0,0,0,0,0,0
0,0,0,0,0,0,0,0,0,0,0,0,0,0,0,0
0,0,0,0,1i,0,0,0,0,0,0,0,0,0,0,0
0,0,0,0,0,0,0,0,0,0,0,0,0,0,0,0
a,a,a,a,a,a,a,a,a,a,a,a,a,a,a,a
0,0,0,0,0,0,0,1h,0,0,1h,0,0,0,1h,0
0,0,0,0,0,0,0,0,0,1h,0,0,1h,0,0,0
0,0,0,0,0,0,0,0,0,0,0,0,0,1h,0,0
0,0,0,0,0,0,0,0,1h,0,0,1h,1h,0,0,0
a,a,a,a,a,a,a,a,a,a,a,a,a,a,a,a
0,0,0,0,0,0,0,0,0,0,0,0,0,0,0,0
0,0,0,0,0,0,0,0,0,0,0,0,0,0,0,0
0,0,0,0,0,0,0,0,0,0,0,1j,0,0,0,0
0,0,0,0,0,0,0,0,0,0,0,0,0,0,0,0
0,0,0,0,0,0,0,0,0,0,0,0,0,0,0,0
ITM 9 8,9
ITM 9 12,7
ITM a 9,7
ITM a 11,9
ITM a 14,6
ITM b 7,6
ITM b 13,8
ITM c 10,6
ITM c 12,9
ITM j 15,7
EXT 15,7 5 0,8
PAL 4

ROOM 5
0,0,0,0,0,0,0,0,0,0,0,0,0,0,0,0
0,0,0,0,0,0,0,0,0,0,0,0,0,0,0,0
0,0,0,0,0,0,0,0,0,0,0,0,0,0,0,0
0,0,0,0,1k,0,0,0,0,0,0,0,0,0,0,0
0,0,0,0,0,0,0,0,0,0,0,0,0,0,0,0
a,a,a,a,a,a,a,a,a,a,a,a,a,a,a,a
0,0,0,0,0,0,0,1h,0,0,1h,0,0,0,1h,0
0,0,0,0,0,0,0,0,0,1h,0,0,1h,0,0,0
0,0,0,0,0,0,0,0,0,0,0,0,0,1h,0,0
0,0,0,0,0,0,0,0,1h,0,0,1h,1h,0,0,0
a,a,a,a,a,a,a,a,a,a,a,a,a,a,a,a
0,0,0,0,0,0,0,0,0,0,0,0,0,0,0,0
0,0,0,0,0,0,0,0,0,0,0,0,0,0,0,0
0,0,0,0,0,0,0,0,0,0,0,1k,0,0,0,0
0,0,0,0,0,0,0,0,0,0,0,0,0,0,0,0
0,0,0,0,0,0,0,0,0,0,0,0,0,0,0,0
ITM d 8,9
ITM d 9,7
ITM d 12,7
ITM d 13,8
ITM d 12,9
ITM e 10,6
ITM e 11,9
ITM e 14,6
ITM e 7,6
EXT 15,7 6 0,7
PAL 5

ROOM 6
0,0,0,0,0,0,0,0,0,0,0,0,0,0,0,0
0,0,0,0,0,0,0,0,0,0,0,0,0,0,0,0
0,0,0,0,0,0,0,0,0,0,0,0,0,0,0,0
0,0,0,0,1k,0,0,0,0,0,0,0,0,0,0,0
0,0,0,0,0,0,0,0,0,0,0,0,0,0,0,0
b,b,b,b,b,b,b,b,b,b,b,b,b,b,b,b
a,a,a,a,a,a,a,a,a,a,a,a,a,a,a,a
0,0,0,0,0,0,0,0,0,0,0,0,0,0,0,0
a,a,a,a,a,a,a,a,a,a,a,a,a,a,a,a
b,b,b,b,b,b,b,b,b,b,b,b,b,b,b,b
0,0,0,0,0,0,0,0,0,0,0,0,0,0,0,0
0,0,0,0,0,0,0,0,0,0,0,0,0,0,0,0
0,0,0,0,0,0,0,0,0,0,0,0,0,0,0,0
0,0,0,0,0,0,0,0,0,0,0,1k,0,0,0,0
0,0,0,0,0,0,0,0,0,0,0,0,0,0,0,0
0,0,0,0,0,0,0,0,0,0,0,0,0,0,0,0
ITM k 10,7
ITM l 12,7
ITM m 8,7
EXT 15,7 7 0,7
PAL 6

ROOM 7
0,0,0,0,0,0,0,0,0,0,0,0,0,0,0,0
0,0,0,0,0,0,0,0,0,0,0,0,0,0,0,0
0,0,0,0,0,0,0,1n,0,0,0,0,0,0,0,0
0,0,0,0,1k,0,0,0,0,0,0,0,0,0,1n,0
0,0,0,0,0,0,0,0,0,0,0,0,0,0,0,0
r,r,r,r,r,r,r,r,r,r,r,r,r,r,r,r
a,a,a,a,a,a,a,a,a,a,a,a,a,a,a,a
0,0,0,0,0,0,0,0,0,0,0,0,0,0,0,0
a,a,a,a,a,a,a,a,a,a,a,a,a,a,a,a
r,r,r,r,r,r,r,r,r,r,r,r,r,r,r,r
0,0,0,0,0,0,0,0,0,0,0,0,0,0,0,0
0,0,0,0,0,0,0,0,0,0,0,0,0,0,0,0
0,0,0,0,0,0,0,0,0,0,0,0,0,0,0,0
0,0,0,0,0,0,0,0,0,0,0,1k,0,0,0,0
0,0,1n,0,0,0,0,0,0,0,0,0,0,0,0,0
0,0,0,0,0,0,0,0,0,0,0,0,0,0,0,0
ITM n 8,7
ITM o 10,7
ITM p 12,7
EXT 15,7 8 0,7
PAL 7

ROOM 8
0,0,0,0,0,0,0,0,0,0,0,0,0,0,0,0
0,0,0,0,0,0,0,0,0,0,0,0,0,0,0,0
0,0,1n,0,0,0,0,1n,0,0,0,0,0,0,0,0
0,0,0,0,1k,0,0,0,0,0,0,1n,0,0,1n,0
0,0,0,0,0,0,0,0,0,0,0,0,0,0,0,0
s,s,s,s,s,s,s,s,s,s,s,s,s,s,s,s
a,a,a,a,a,a,a,a,a,a,a,a,a,a,a,a
0,0,0,0,0,0,0,0,0,0,0,0,0,0,0,0
a,a,a,a,a,a,a,a,a,a,a,a,a,a,a,a
s,s,s,s,s,s,s,s,s,s,s,s,s,s,s,s
0,0,0,0,0,0,0,0,0,0,0,0,0,0,0,0
0,0,0,0,0,0,0,0,0,0,0,0,0,0,0,0
0,0,0,0,0,0,0,0,0,0,0,0,0,0,0,0
0,0,0,0,0,0,0,0,0,0,0,1k,0,0,0,0
0,0,1n,0,0,0,0,0,1n,0,0,0,0,0,0,0
0,0,0,0,0,0,0,0,0,0,0,0,0,0,0,0
ITM q 10,7
EXT 15,7 9 0,7
PAL 8

ROOM 9
0,0,0,0,0,0,0,0,0,0,0,0,0,0,0,0
0,0,0,0,0,0,0,0,0,0,0,0,0,0,0,0
0,0,1n,0,0,0,0,1n,0,0,0,0,0,0,0,0
0,0,0,0,1k,0,0,0,0,0,0,1n,0,0,1n,0
0,0,0,0,0,0,0,0,0,0,0,0,0,0,0,0
1a,1a,1a,1a,1a,1a,1a,1a,1a,1a,1a,1a,1a,1a,1a,1a
a,a,a,a,a,a,a,a,a,a,a,a,a,a,a,a
0,0,0,0,0,0,0,0,0,0,0,0,0,0,0,0
a,a,a,a,a,a,a,a,a,a,a,a,a,a,a,a
1a,1a,1a,1a,1a,1a,1a,1a,1a,1a,1a,1a,1a,1a,1a,1a
0,0,0,0,0,0,0,0,0,0,0,0,0,0,0,0
0,0,0,0,0,0,0,0,0,0,0,0,0,1o,0,0
0,0,0,0,0,0,0,0,0,0,0,0,0,0,0,0
0,0,0,0,0,0,0,0,0,0,0,1k,0,0,0,0
0,0,1n,0,0,0,0,0,1n,0,0,0,0,0,0,0
0,0,0,0,0,0,0,0,0,0,0,0,0,0,0,0
ITM r 10,7
EXT 15,7 a 0,7
PAL 9

ROOM a
0,0,0,0,0,0,0,0,0,0,0,0,0,0,0,0
0,0,0,0,0,0,0,0,0,0,0,0,0,0,0,0
0,0,1k,0,0,0,0,1k,0,0,0,0,0,0,0,0
0,0,0,0,1k,0,0,0,0,0,0,1n,0,0,1n,0
0,0,0,0,0,0,0,0,0,0,0,0,0,0,0,0
0,0,0,0,0,0,0,0,0,0,0,0,0,0,0,0
a,a,a,a,a,a,a,a,a,a,a,a,a,a,a,a
0,0,0,0,0,0,0,0,0,0,0,0,0,0,0,0
a,a,a,a,a,a,a,a,a,a,a,a,a,a,a,a
0,0,0,0,0,0,0,0,0,0,0,0,0,0,0,0
0,0,0,0,0,0,0,0,0,0,0,0,0,0,0,0
0,0,0,0,0,0,0,0,0,0,0,0,0,1o,0,0
0,0,0,0,1j,0,0,0,0,0,0,0,0,0,0,0
0,0,0,0,0,0,0,0,0,0,0,1k,0,0,0,0
0,0,1n,0,0,0,0,0,1n,0,0,0,0,0,0,0
0,0,0,0,0,0,0,0,0,0,0,0,0,0,0,0
ITM s 11,7
EXT 15,7 b 0,7
PAL a

ROOM b
0,0,0,0,0,0,0,0,0,0,0,0,0,0,0,0
0,0,0,0,0,0,0,0,0,1n,0,0,0,0,0,0
0,0,1k,0,0,0,0,1k,0,0,0,0,0,0,0,0
0,0,0,0,1k,0,0,0,0,0,0,1n,0,0,1n,0
0,0,0,0,0,0,0,0,0,0,0,0,0,0,0,0
0,0,0,0,0,0,0,0,0,0,0,0,0,0,0,0
a,a,a,a,a,a,a,a,a,a,a,a,a,a,a,a
0,0,0,0,0,0,0,0,0,0,0,0,0,0,0,0
a,a,a,a,a,a,a,a,a,a,a,a,a,a,a,a
0,0,0,0,0,0,0,0,0,0,0,0,0,0,0,0
0,0,0,0,0,0,0,0,0,0,0,0,0,0,0,0
0,0,0,0,0,0,0,0,0,0,1n,0,0,1o,0,0
0,0,0,0,1j,0,0,1n,0,0,0,0,0,0,0,0
0,0,0,0,0,0,0,0,0,0,0,1k,0,0,0,0
0,0,1n,0,0,0,0,0,1n,0,0,0,0,0,0,0
0,0,0,0,0,0,0,0,0,0,0,0,0,0,0,0
EXT 15,7 c 0,7
PAL b

ROOM c
0,0,0,0,0,0,0,0,0,0,0,0,0,0,0,0
0,0,0,0,0,0,0,0,0,1n,0,0,1n,0,1k,0
0,0,1k,0,0,0,0,1k,0,0,0,0,0,0,0,0
0,0,0,0,1k,0,0,0,0,0,0,1n,0,0,1n,0
0,1n,0,0,0,0,0,0,1n,0,0,0,0,0,0,0
0,0,0,0,0,0,0,0,0,0,0,0,0,0,0,0
a,a,a,a,a,a,a,a,a,a,a,a,a,a,a,a
0,0,0,0,0,0,0,0,0,0,0,0,0,0,0,0
a,a,a,a,a,a,a,a,a,a,a,a,a,a,a,a
0,0,0,0,0,0,0,0,0,0,0,0,0,0,0,0
0,0,0,0,0,1n,0,0,0,0,0,0,0,0,0,0
0,1n,0,0,0,0,0,0,0,0,1n,0,0,1o,0,0
0,0,0,0,1j,0,0,1n,0,0,0,0,0,0,0,0
0,0,0,0,0,0,0,0,0,0,0,1k,0,0,0,0
0,0,1n,0,0,1k,0,0,1n,0,0,0,0,0,0,0
0,0,0,0,0,0,0,0,0,0,0,0,0,0,0,0
EXT 15,7 d 0,7
PAL c

ROOM d
0,0,0,0,0,0,0,0,0,0,0,0,0,0,0,0
0,0,0,0,1n,0,0,0,0,1n,0,0,1n,0,1k,0
0,0,1k,0,0,0,0,1k,0,0,0,0,0,0,0,0
0,0,0,0,1k,0,0,0,0,0,0,1n,0,0,1n,0
0,1n,0,0,0,0,0,0,1n,0,0,0,0,0,0,0
0,0,0,0,0,0,0,0,0,0,0,0,1n,0,0,0
a,a,a,a,a,a,a,a,a,a,a,a,a,a,a,a
0,0,0,0,0,0,0,0,0,0,0,0,0,0,0,0
a,a,a,a,a,a,a,a,a,a,a,a,a,a,a,a
0,0,0,0,0,0,0,0,0,0,0,0,0,0,0,1k
0,0,0,0,0,1n,0,0,0,0,0,0,0,0,0,0
0,1n,0,0,0,0,0,0,0,0,1n,0,0,1o,0,0
0,0,0,0,1j,0,0,1n,0,0,0,0,0,0,0,0
0,0,0,0,0,0,0,0,0,0,0,1k,0,0,0,0
0,0,1n,0,0,1k,0,0,1n,0,0,0,0,0,0,0
0,0,0,0,0,0,0,0,0,0,0,0,0,1k,0,0
EXT 15,7 e 0,7
PAL d

ROOM e
0,0,0,0,0,0,0,0,0,0,1k,0,0,0,0,0
0,1n,0,0,1n,0,0,0,0,1n,0,0,1n,0,1k,0
0,0,1k,0,0,0,0,1k,0,0,0,0,0,0,0,0
0,0,0,0,1k,0,0,0,0,0,0,1n,0,0,1n,0
0,1n,0,0,0,0,1k,0,1n,0,0,0,0,0,0,0
0,0,0,0,0,0,0,0,0,0,0,0,1n,0,0,0
a,a,a,a,a,a,a,a,a,a,a,a,a,a,a,a
0,0,0,0,0,0,0,0,0,0,0,0,0,0,0,0
a,a,a,a,a,a,a,a,a,a,a,a,a,a,a,a
0,0,1k,0,0,0,0,0,1k,0,0,0,0,0,0,1k
0,0,0,0,0,1n,0,0,0,0,0,0,1n,0,0,0
0,1n,0,0,0,0,0,0,0,0,1n,0,0,1o,0,0
0,0,0,0,1j,0,0,1n,0,0,0,0,0,0,0,0
1n,0,0,0,0,0,0,0,0,0,0,1k,0,0,1k,0
0,0,1n,0,0,1k,0,0,1n,0,0,0,0,0,0,0
0,0,0,0,0,0,0,0,0,0,0,0,0,1k,0,0
EXT 15,7 f 0,7
PAL e

ROOM f
0,0,0,0,0,0,1n,0,0,0,1k,0,0,0,0,0
0,1n,0,0,1n,0,0,0,0,1n,0,0,1n,0,1k,0
0,0,1k,0,0,0,0,1k,0,0,0,0,0,0,0,0
0,0,0,0,1k,0,0,0,0,0,0,1n,0,0,1n,0
0,1n,0,0,0,0,1k,0,1n,0,0,0,0,0,0,0
0,0,0,1k,0,0,0,0,0,0,0,0,1n,0,0,0
a,a,a,a,a,a,a,a,a,a,a,a,a,a,a,a
0,0,0,0,0,0,0,0,0,0,0,0,0,0,0,0
a,a,a,a,a,a,a,a,a,a,a,a,a,a,a,a
0,0,1k,0,0,0,0,0,1k,0,0,0,0,0,0,1k
0,0,0,0,0,1n,0,0,0,0,0,0,1n,0,0,0
0,1n,0,0,0,0,0,0,0,0,1n,0,0,1o,0,0
0,0,0,0,1j,0,0,1n,0,0,0,0,0,0,0,0
1n,0,0,1k,0,0,0,0,0,0,0,1k,0,0,1k,0
0,0,1n,0,0,1k,0,0,1n,0,0,0,0,0,0,0
0,0,0,0,0,0,0,0,0,0,0,0,1n,1k,0,0
EXT 15,7 g 2,1
PAL f

ROOM g
0,0,0,0,0,0,1n,0,0,0,1k,0,0,0,0,0
0,1n,0,0,1n,0,0,0,0,1n,0,0,1n,0,1k,0
0,0,1k,0,0,0,0,1k,0,0,0,0,0,0,0,0
0,0,0,0,1k,0,0,0,0,0,0,1n,0,0,1n,0
0,1n,0,0,0,0,1k,0,1n,0,0,0,0,0,0,0
0,0,0,1k,0,0,0,0,0,s,s,0,1n,0,0,0
0,0,0,0,0,0,0,0,0,s,s,0,0,0,0,0
1k,0,s,s,0,0,0,0,0,u,v,0,0,0,1n,0
0,0,s,s,0,0,0,0,0,0,0,0,0,0,0,0
0,0,u,v,0,0,0,0,1k,0,0,0,0,0,0,1n
0,0,0,0,0,1n,0,0,0,0,0,0,1n,0,0,0
0,1n,0,0,0,0,0,0,0,0,1n,0,0,1o,0,0
0,0,0,0,1j,0,0,1n,0,0,0,0,0,0,0,0
1n,0,0,1k,0,0,0,0,0,0,0,1k,0,0,1n,0
0,0,1n,0,0,1k,0,0,1n,0,0,0,0,0,0,0
0,0,0,0,0,0,0,0,0,0,0,0,1n,1k,0,0
END undefined 13,11
PAL g

TIL 10
00000000
00000000
11111111
11111111
11111111
11111111
00000000
00000000
>
00000000
00000000
00000000
11111111
11111111
11111111
11111111
00000000
WAL true

TIL 11
00000000
00000000
00000000
00000000
00000000
00011000
00011000
00111000

TIL 12
00000000
00000000
11111111
11111111
11111111
11111111
00000000
00000000
>
00000000
00000000
00000000
11111111
11111111
11111111
11111111
00000000
WAL true

TIL 13
00111100
01000010
10000001
10111101
10111101
10000001
01000010
00111100
>
00111100
01000010
10011001
10011001
10011001
10011001
01000010
00111100
WAL true

TIL 14
00000000
00011000
00011000
00011000
00011000
00011000
00011000
00011000
>
00011000
00011000
00011000
00011000
00011000
00011000
00011000
00000000
WAL true

TIL 15
00000000
00000000
00111100
00101100
00110100
00111100
00000000
00000000
>
00000000
00000000
00111100
00110100
00101100
00111100
00000000
00000000
WAL true

TIL 16
00000000
01111110
01111010
01110110
01101110
01011110
01111110
00000000
>
00000000
01111110
01011110
01101110
01110110
01111010
01111110
00000000
WAL true

TIL 17
00111100
00000000
00000000
00111100
00111100
00000000
00000000
00111100
>
00000000
00111100
00111100
00000000
00000000
00111100
00111100
00000000
WAL true

TIL 18
01000010
00011000
00011000
01000010
00011000
00011000
01000010
00011000
>
00011000
01000010
01000010
00011000
01000010
01000010
00011000
01000010
WAL true

TIL 19
00111100
00011000
00000000
00000000
00000000
00000000
00011000
00111100
>
00000000
00000000
00011000
00111100
00111100
00011000
00000000
00000000
WAL true

TIL a
10101010
00000000
01100110
10011001
10011001
01100110
00000000
10101010
>
01010101
00000000
10011001
01100110
01100110
10011001
00000000
01010101
WAL true

TIL b
01000010
10000001
00100100
00000000
00000000
00100100
10000001
01000010
>
10000001
00011000
00000000
01000010
01000010
00000000
00011000
10000001
WAL true

TIL c
00001000
00011100
00001000
00001000
00000000
00000000
00000011
11111111

TIL d
11111111
10000001
10111101
10100101
10100101
10111101
10000001
11111111
>
00000000
01111110
01000010
01011010
01011010
01000010
01111110
00000000
WAL true

TIL e
00000000
00000000
00111111
00111111
00111111
00111000
00111000
00111000
>
00000000
01111111
01000000
01000000
01000000
01000111
01000100
01000100
WAL true

TIL f
00000000
00000000
11111100
11111100
11111100
00011100
00011100
00011100
>
00000000
11111110
00000010
00000010
00000010
11100010
00100010
00100010
WAL true

TIL g
00011100
00011100
00011100
11111100
11111100
11111100
00000000
00000000
>
00100010
00100010
11100010
00000010
00000010
00000010
11111110
00000000
WAL true

TIL h
00000000
00000000
00000000
00000000
00000000
00000000
00000000
00000000

TIL i
00111000
00111000
00111000
00111111
00111111
00111111
00000000
00000000
>
01000100
01000100
01000111
01000000
01000000
01000000
01111111
00000000
WAL true

TIL j
11111111
10000000
10111111
10100000
10101111
10101000
10101011
10101010
>
00000000
01111111
01000000
01011111
01010000
01010111
01010100
01010101
WAL true

TIL k
11111111
00000001
11111101
00000101
11110101
00010101
11010101
01010101
>
00000000
11111110
00000010
11111010
00001010
11101010
00101010
10101010
WAL true

TIL l
10101010
10101011
10101000
10101111
10100000
10111111
10000000
11111111
>
01010101
01010100
01010111
01010000
01011111
01000000
01111111
00000000
WAL true

TIL m
01010101
11010101
00010101
11110101
00000101
11111101
00000001
11111111
>
10101010
00101010
11101010
00001010
11111010
00000010
11111110
00000000
WAL true

TIL n
01010101
01010101
01010101
01010101
01010101
01010101
01010101
01010101
>
10101010
10101010
10101010
10101010
10101010
10101010
10101010
10101010
WAL true

TIL o
01010101
01010101
01010101
01010101
01010101
01010101
01010101
01010101
>
10101010
10101010
10101010
10101010
10101010
10101010
10101010
10101010
WAL true

TIL p
00100100
01000010
01000010
00100100
00100100
00011000
00011000
00100100
>
00100100
00011000
00011000
00100100
00100100
01000010
01000010
00100100
WAL true

TIL q
00001100
00000110
00001100
00011000
00110000
01100000
00110000
00011000
>
00110000
01100000
00110000
00011000
00001100
00000110
00001100
00011000
WAL true

TIL r
01100110
11001100
10011001
00110011
01100110
11001100
10011001
00110011
>
10011001
00110011
01100110
11001100
10011001
00110011
01100110
11001100
WAL true

TIL s
11010000
10000110
00110100
10100001
00001101
01101000
01000011
00011010
>
00001100
01101000
01000011
00011010
11010000
10000110
00110100
00100001
WAL true

TIL t
01001001
10010010
01001001
00000000
01001001
10010010
01001001
00000000
>
10010010
00100100
10010010
00000000
10010010
00100100
10010010
00000000
WAL true

TIL u
00000010
00000010
00000010
00000010
00000010
00000010
00000100
00011000
WAL true

TIL v
01000000
01000000
01000000
01000000
01000000
01000000
00100000
00011000
WAL true

TIL w
01111000
01111000
01111000
01111000
01111000
01111000
01111000
01111000
>
00111100
00111100
00111100
00111100
00111100
00111100
00111100
00111100
WAL true

TIL x
00011110
00011110
00011110
00011110
00011110
00011110
00011110
00011110
>
00111100
00111100
00111100
00111100
00111100
00111100
00111100
00111100
WAL true

TIL 1a
11000011
10000001
00011000
00111100
00111100
00011000
10000001
11000011
>
10000001
00111100
01011010
01111110
01111110
01011010
00111100
10000001
WAL true

TIL 1b
00011000
01000010
00100100
10011001
10011001
00100100
01000010
00011000
>
10000001
00111100
01011010
01100110
01100110
01011010
00111100
10000001
WAL true

TIL 1c
11111111
10000000
10111111
10100001
10100101
10111101
10000001
11111111
>
00000000
01111111
01000000
01011110
01011010
01000010
01111110
00000000
WAL true

TIL 1d
00000000
11111110
00000010
01111010
01011010
01000010
01111110
00000000
>
11111111
00000001
11111101
10000101
10100101
10111101
10000001
11111111
WAL true

TIL 1e
00000000
00000000
00000000
00000000
00000000
00000001
01000010
10111101

TIL 1f
00000000
01000000
00000000
01000000
00000000
01000000
00000000
10000000
>
10000000
00000000
01000000
00000000
01000000
00000000
01000000
00000000

TIL 1g
00000000
00000010
00000000
00000010
00000000
00000010
00000000
00000001
>
00000001
00000000
00000010
00000000
00000010
00000000
00000010
00000000

TIL 1h
00000000
00000000
00000000
00000000
00110000
11100110
10101111
01100110

TIL 1i
00000000
00000000
00100000
00101000
01010000
00010000
00001000
00001000

TIL 1j
00000000
00100000
00010110
00001000
00010000
00010000
00100000
00100000

TIL 1k
01010000
00111000
01110000
00101000
01000000
01101100
10110010
00010000
>
00101000
01110000
00111000
01010000
00000000
01101100
10110010
00010000

TIL 1l
10101010
00000000
01100001
10010100
10010101
01100000
00000001
10101010
>
01010100
00000001
10011000
01100101
01100100
10011001
00000000
01010100
WAL true

TIL 1m
00101010
10000000
00000110
10101001
00101001
10000110
00000000
00101010
>
01010101
00000000
10011001
00100110
10100110
00011001
10000000
01010101
WAL true

TIL 1n
00101000
01110000
00111000
01010000
00000000
01101100
10110010
00010000
>
01010000
00111000
01110000
00101000
01000000
01101100
10110010
00010000

TIL 1o
00000000
00000000
00000000
00010000
01110000
01111010
00011100
00011100
>
00000000
00000000
00000000
00010000
01110000
01111000
00011110
00011100

SPR A
00000000
00000000
00000100
00001110
01100111
01101010
11110000
01100000
>
00000000
00011100
00011100
00001000
01101000
01111000
11101000
01100000
POS 0 4,1

SPR b
00011000
00011000
00111100
01011010
10011001
00111100
00100100
00100100
>
00000000
10011001
01011010
00111100
00011000
00011000
00111100
00100100
DLG SPR_0
POS 0 3,8

SPR c
00000000
00000000
00001100
00001100
00010000
00110000
00011100
01110100
>
00000000
00000000
00000000
00001100
00011100
00110000
00011100
01110100
DLG SPR_1
POS 1 3,8

SPR d
00000000
00000000
00000000
00001000
00001110
01011110
00111000
00111000
>
00000000
00000000
00000000
00001000
00001110
00011110
01111000
00111000
DLG SPR_2
POS 2 3,8

SPR e
00111100
00111100
01111110
11111111
01111110
01111110
01000010
01000010
>
00000000
00111100
10111101
01111110
01111110
01111110
01111110
01000010
DLG SPR_3
POS 3 3,8

SPR f
00000000
00000000
00001100
00001100
00010000
00110000
00011100
01110100
>
00000000
00000000
00000000
00001100
00011100
00110000
00011100
01110100
DLG SPR_4
POS 4 2,8

SPR g
00000000
00000000
00000000
00001000
00001110
01011110
00111000
00111000
>
00000000
00000000
00000000
00001000
00001110
00011110
01111000
00111000
DLG SPR_5
POS 5 2,8

ITM 1
00011000
00011000
10001011
01011111
00101011
00010100
00100100
00100100
>
00000000
01011000
01011011
01001011
01111111
00001000
00010100
00100100
DLG ITM_1

ITM 2
00011000
00011000
10001011
01011111
00101011
00010100
00100100
00100100
>
00011000
10011000
01001000
00101110
00011110
00011110
00100100
00100100
DLG ITM_2

ITM 3
00000000
00000000
00000000
00001111
00011111
00011100
00010010
01110010
>
00000000
00000000
00000011
00001111
00011100
00011100
00010010
01110010
DLG ITM_3

ITM 4
00000000
00000011
00001111
00011100
00011100
00010100
00010010
01110010
>
00000000
00000000
00000011
00001111
00011100
00011100
00010010
01110010
DLG ITM_4

ITM 5
01000100
01000100
11101001
00110110
00011100
00011000
00011000
00111000
DLG ITM_5

ITM 6
00000100
01000100
11101000
00110110
00011100
00011000
00011000
00111000
DLG ITM_6

ITM 7
00000000
00101000
00010000
01101100
01101100
00000000
01101100
01101100
DLG ITM_7

ITM 8
00000000
00010100
00001000
00110110
00110110
00000000
00110110
00110110
DLG ITM_8

ITM 9
00000000
00000010
00011010
01011010
11010110
00101010
00011000
00100100
>
00000000
00000000
01011000
01011001
01010110
01101100
00011000
00100100
DLG ITM_0

ITM a
00110000
00001000
01100100
01101100
00010010
00101000
11010100
00110100
>
01110000
00001000
00000100
01101000
01101000
10010000
11001000
00110100
DLG ITM_9

ITM b
00000000
00000000
00000000
00010000
11100000
01111100
00101010
01100101
>
00000000
00000000
10000000
01010000
00100000
11111100
00101011
00110010
DLG ITM_a

ITM c
11001110
00101001
01110000
01101000
00001000
00001000
00010100
00100010
>
01000000
10100000
00011100
01110010
01101001
00001000
00010110
00010000
DLG ITM_b

ITM d
00000000
00000000
00000000
00000000
00110000
11100110
10101111
01100110
DLG ITM_c

ITM e
00000000
00000000
00000000
00000000
00110000
11100110
10101111
01100110
DLG ITM_d

ITM f
00000000
00000000
00000000
00000000
00000000
00000000
00000000
00000000
DLG ITM_e

ITM g
00000000
00000000
00000000
00000000
00000000
00000000
00000000
00000000
DLG ITM_f

ITM h
00000000
00000000
00000000
00000000
00000000
00000000
00000000
00000000
DLG ITM_g

ITM i
00000000
00000000
00000000
00000000
00000000
00000000
00000000
00000000
DLG ITM_h

ITM j
00000000
00000000
00000000
00000000
00000000
00000000
00000000
00000000
DLG ITM_i

ITM k
00011000
00011000
10001011
01011111
00101011
00010100
00100100
00100100
>
00000000
01011000
01011011
01001011
01111111
00001000
00010100
00100100
DLG ITM_j

ITM l
00011000
00011000
10001011
01011111
00101011
00010100
00100100
00100100
>
00011000
10011000
01001000
00101110
00011110
00011110
00100100
00100100
DLG ITM_k

ITM m
00000000
10011001
01011010
00111100
00011000
00011000
00111100
00100100
>
00011000
00011000
00111100
01011010
10011001
00111100
00100100
00100100
DLG ITM_l

ITM n
00000000
00000000
00001100
00001100
00010000
00110000
00011100
01110100
>
00000000
00000000
00000000
00001100
00011100
00110000
00011100
01110100
DLG ITM_m

ITM o
00000000
00000000
00000000
00001111
00011111
00011100
00010010
01110010
>
00000000
00000000
00000011
00001111
00011100
00011100
00010010
01110010
DLG ITM_n

ITM p
00000000
00000011
00001111
00011100
00011100
00010100
00010010
01110010
>
00000000
00000000
00000011
00001111
00011100
00011100
00010010
01110010
DLG ITM_o

ITM q
00000000
00000000
00000000
00010000
01110000
01111010
00011100
00011100
>
00000000
00000000
00000000
00010000
01110000
01111000
00011110
00011100
DLG ITM_p

ITM r
00111100
00111100
01111110
11111111
01111110
01111110
01000010
01000010
>
00000000
00111100
10111101
01111110
01111110
01111110
01111110
01000010
DLG ITM_q

ITM s
00011000
00011000
00000100
00000100
00000110
00001100
00010100
00010100
>
00000000
00011000
00011100
00000100
00000110
00001100
00010100
00010100
DLG ITM_r

ITM t
00000000
00000000
00000000
00000000
00000000
00000000
00000000
00000000

DLG ITM_1
You strike a deadly blow!

DLG ITM_2
You slay him with a single strike!

DLG SPR_0
"""
{
  - {item "2"} == 1 ?
    Thank you!
  - else ?
    Please! Save me from these men!
}
"""

DLG ITM_3
No, please! NO!

DLG ITM_5
The withered tree didn't stand a chance.

DLG ITM_6
A mighty chop reduces the tree to splinters!

DLG SPR_1
"""
{
  - {item "4"} == 1 ?
    No! Why? Why?!
  - else ?
    Please! Please don't!
}
"""

DLG SPR_3
"""
{
  - {item "8"} == 1 ?
    {shk}{wvy}Hahahahahahahahahahahaha!{wvy}{shk}
  - else ?
    Hahahaha! Presents for everyone!
}
"""

DLG ITM_7
Whatever was in this box has been dead for a long time.

DLG ITM_8
It's filled with a sticky, dark red liquid.

DLG SPR_2
"""
{
  - {item "6"} == 1 ?
    Arf.
  - else ?
    Arf! Arf!
}
"""

DLG ITM_4
Please...

DLG SPR_4
"""
{
  - {item "9"} == 0 ?
    Back, you fiends! I will never let you take my homeland!
  - {item "9"} > 1 ?
    Thank you! Thank you so much!
}
"""

DLG ITM_0
It screeches and dies.

DLG ITM_9
With a horrifying scream it falls still.

DLG ITM_a
It breathes its last breath and crumples to the ground.

DLG ITM_b
It stumbles backwards, its eyes dulled.

DLG SPR_5
"""
{sequence
  - Arf?
  - {shk}YOU DID THIS{shk}
  - Arf?
}
"""

DLG ITM_c
It has been killed violently.

DLG ITM_d
It has pain etched into its dead features.

DLG ITM_e
No, that's not how it went.  He wasn't a hero, he was a murderer!

DLG ITM_f
No, you've got it all wrong. He was a gentle soul who lived in the woods.

DLG ITM_g
No, he was an undercover detective! He only took the toughest cases.

DLG ITM_h
Well, which one is it?

DLG ITM_i
Well?

DLG ITM_j
Thank you for stopping me. I was blind in my rage.

DLG ITM_k
I couldn't stop. 

DLG ITM_l
You saved my life.

DLG ITM_m
We never meant to hurt anyone.

DLG ITM_n
Everything got out of hand.

DLG ITM_o
We're sorry.

DLG ITM_p
Arf!

DLG ITM_q
{shk}...{shk}

DLG ITM_r
You saved my entire kingdom, young warrior.  You have my eternal gratitude.

END 0


END undefined
Arf!

VAR a
42


