Moth Senses

# BITSY VERSION 3.5

! ROOM_FORMAT 1

PAL 0
0,0,0
0,64,128
255,255,255

PAL 1
0,128,64
0,128,128
255,255,255

ROOM 0
a,a,a,a,a,a,a,a,a,a,a,a,a,a,a,a
a,a,a,a,a,a,a,a,a,a,a,a,a,a,a,a
a,a,b,0,0,0,0,0,0,0,0,0,0,b,a,a
a,a,0,0,0,0,0,0,0,0,0,0,0,0,a,a
a,a,0,0,0,0,0,0,0,0,0,0,0,0,a,a
a,a,0,0,0,0,0,0,0,0,0,0,0,0,a,a
a,a,0,0,0,0,0,0,0,0,0,0,0,0,a,a
a,a,0,0,0,0,0,0,0,0,0,0,0,0,0,0
a,a,0,0,0,0,0,0,0,0,0,0,0,0,a,a
a,a,0,0,0,0,0,0,0,0,0,0,0,0,a,a
a,a,0,0,0,0,0,0,0,0,0,0,0,0,a,a
a,a,0,0,0,0,0,0,0,0,0,0,0,0,a,a
a,a,0,0,0,0,0,0,0,0,0,0,0,0,a,a
a,a,b,0,0,0,0,0,0,0,0,0,0,b,a,a
a,a,a,a,a,a,a,a,a,a,a,a,a,a,a,a
a,a,a,a,a,a,a,a,a,a,a,a,a,a,a,a
WAL a,d,e,f
EXT 14,7 1 1,7
PAL 0

ROOM 1
a,a,a,a,a,a,a,a,a,a,a,a,a,a,a,a
a,a,a,a,a,a,a,a,a,a,a,a,a,a,a,a
a,a,0,0,0,0,0,0,0,0,0,0,0,0,0,0
a,a,0,0,0,0,0,0,0,0,0,0,0,0,a,a
a,a,0,0,0,0,0,0,0,0,0,0,0,0,a,a
a,a,0,0,0,0,0,0,0,0,0,0,0,0,a,a
a,a,0,0,0,0,0,0,0,0,0,0,0,0,a,a
0,0,0,0,0,0,0,0,0,0,0,0,0,0,a,a
a,a,0,0,0,0,0,0,0,0,0,0,0,0,a,a
a,a,0,0,0,0,0,0,0,0,0,0,0,0,a,a
a,a,0,0,0,0,0,0,0,0,0,0,0,0,a,a
a,a,0,0,0,0,0,0,0,0,0,0,0,0,a,a
a,a,0,0,0,0,0,0,0,0,0,0,0,0,a,a
a,a,0,0,0,0,0,0,0,0,0,0,0,0,a,a
a,a,a,a,a,a,a,a,a,a,a,a,a,a,a,a
a,a,a,a,a,a,a,a,a,a,a,a,a,a,a,a
WAL a,d,e,f
EXT 14,2 2 0,2
PAL 0

ROOM 2
a,a,a,a,a,a,a,a,a,a,a,a,a,a,a,a
a,0,0,0,0,0,0,0,0,0,0,0,0,0,0,a
0,0,0,0,0,0,0,0,0,0,0,0,0,0,0,a
a,0,0,0,0,0,0,0,0,0,0,0,0,0,0,a
a,0,0,0,0,0,0,0,0,0,0,0,0,0,0,a
a,0,0,0,0,0,0,0,0,0,0,0,0,0,0,a
a,0,0,0,0,0,0,0,0,0,0,0,0,0,0,a
a,0,0,0,0,0,0,0,0,0,0,0,0,0,0,0
a,0,0,0,0,0,0,0,0,0,0,0,0,0,0,a
a,0,0,0,0,0,0,0,0,0,0,0,0,0,0,a
a,0,0,0,0,0,0,0,0,0,0,0,0,0,0,a
a,0,0,0,0,0,0,0,0,0,0,0,0,0,0,a
a,0,0,0,0,0,0,0,0,0,0,0,0,0,0,a
a,0,0,0,0,0,0,0,0,0,0,0,0,0,0,a
a,0,0,0,0,0,0,0,0,0,0,0,0,0,0,a
a,a,a,a,a,a,a,a,a,a,a,a,a,a,a,a
WAL a,d,e,f
EXT 15,7 3 0,7
PAL 0

ROOM 3
a,a,a,a,a,a,a,a,a,a,a,a,a,a,a,a
a,d,d,d,d,d,d,d,d,d,d,d,d,d,d,a
a,e,e,e,e,e,e,e,e,e,e,e,e,e,e,a
a,d,d,d,d,d,d,d,d,d,d,d,d,d,d,a
a,e,e,e,e,e,e,e,e,e,e,e,e,e,e,a
a,d,e,e,d,d,e,e,d,d,e,e,d,d,e,e
0,0,0,0,0,0,0,0,0,0,0,0,0,0,0,0
0,0,0,0,0,0,0,0,0,0,0,0,0,0,0,0
0,0,0,0,0,0,0,0,0,0,0,0,0,0,0,0
0,0,0,0,0,0,0,0,0,0,0,0,0,0,0,0
a,d,e,e,d,d,e,e,d,d,e,e,d,d,e,e
a,d,d,d,d,d,d,d,d,d,d,d,d,d,d,a
a,e,e,e,e,e,e,e,e,e,e,e,e,e,e,a
a,d,d,d,d,d,d,d,d,d,d,d,d,d,d,a
a,e,e,e,e,e,e,e,e,e,e,e,e,e,e,a
a,a,a,a,a,a,a,a,a,a,a,a,a,a,a,a
WAL e,d,a,f
EXT 15,7 4 0,7
EXT 15,6 4 0,6
EXT 15,8 4 0,8
EXT 15,9 4 0,9
PAL 0

ROOM 4
a,a,a,a,a,a,a,a,a,a,a,a,a,a,a,a
a,e,e,e,e,e,e,e,e,e,e,e,e,e,e,a
a,d,d,d,d,d,d,d,d,d,d,d,d,d,d,a
a,e,e,e,e,e,e,e,e,e,e,e,e,e,e,a
a,d,d,d,d,d,d,d,d,d,d,d,d,d,d,a
a,e,e,d,d,e,e,d,d,e,e,d,d,e,e,a
0,0,0,0,0,0,0,0,0,0,0,0,0,0,0,a
0,0,0,0,0,0,0,0,0,0,0,0,0,0,0,0
0,0,0,0,0,0,0,0,0,0,0,0,0,0,0,a
0,0,0,0,0,0,0,0,0,0,0,0,0,0,0,a
a,e,e,d,d,e,e,d,d,e,e,d,d,e,e,a
a,e,e,e,e,e,e,e,e,e,e,e,e,e,e,a
a,d,d,d,d,d,d,d,d,d,d,d,d,d,d,0
a,e,e,e,e,e,e,e,e,e,e,e,e,e,e,a
a,d,d,d,d,d,d,d,d,d,d,d,d,d,d,a
a,a,a,a,a,a,a,a,a,a,a,a,a,a,a,a
WAL a,d,e,f
EXT 15,7 5 0,8
PAL 0

ROOM 5
a,a,a,a,a,a,a,a,a,a,a,a,a,a,a,a
a,a,a,a,a,a,a,a,a,a,a,a,a,a,a,a
a,a,a,a,a,a,a,a,a,a,a,a,a,a,a,a
a,a,a,a,a,a,a,a,a,a,a,a,a,a,a,a
a,a,a,a,a,a,a,a,a,a,a,a,a,a,a,a
f,f,f,f,f,f,f,f,f,f,f,f,f,f,f,f
0,0,0,0,0,0,0,0,0,0,0,0,0,0,0,0
0,0,0,0,0,0,0,0,0,0,0,0,0,0,0,0
0,0,0,0,0,0,0,0,0,0,0,0,0,0,0,0
0,0,0,0,0,0,0,0,0,0,0,0,0,0,0,0
f,f,f,f,f,f,f,f,f,f,f,f,f,f,f,f
a,a,a,a,a,a,a,a,a,a,a,a,a,a,a,a
a,a,a,a,a,a,a,a,a,a,a,a,a,a,a,a
a,a,a,a,a,a,a,a,a,a,a,a,a,a,a,a
a,a,a,a,a,a,a,a,a,a,a,a,a,a,a,a
a,a,a,a,a,a,a,a,a,a,a,a,a,a,a,a
WAL a,d,e,f
EXT 15,6 6 0,6
EXT 15,7 6 0,7
EXT 15,8 6 0,8
EXT 15,9 6 0,9
PAL 0

ROOM 6
0,0,0,0,0,0,0,0,0,0,0,0,0,0,0,0
0,0,0,0,0,0,0,0,0,0,0,0,0,0,0,0
0,0,0,0,0,0,0,0,0,0,0,0,0,0,0,0
0,0,0,0,0,0,0,0,0,0,0,0,0,0,0,0
0,0,0,0,0,0,0,0,0,0,0,0,0,0,0,0
0,0,0,0,0,0,0,0,0,0,0,0,0,0,0,0
0,0,0,0,0,0,0,0,0,0,0,0,0,0,0,0
0,0,0,0,0,0,0,0,0,0,0,0,0,0,0,0
0,0,0,0,0,0,0,0,0,0,0,0,0,0,0,0
0,0,0,0,0,0,0,0,0,0,0,0,0,0,0,0
0,0,0,0,0,0,0,0,0,0,0,0,0,0,0,0
0,0,0,0,0,0,0,0,0,0,0,0,0,0,0,0
0,0,0,0,0,0,0,0,0,0,0,0,0,0,0,0
0,0,0,0,0,0,0,0,0,0,0,0,0,0,0,0
0,0,0,0,0,0,0,0,0,0,0,0,0,0,0,0
0,0,0,0,0,0,0,0,0,0,0,0,0,0,0,0
WAL a,d,e,f
PAL 0

TIL a
11111111
10000001
10000001
10011001
10011001
10000001
10000001
11111111

TIL b
00000011
00000111
00001110
00011100
00111000
01110000
11100000
11000000

TIL c
00000000
00000000
00000000
00000000
00000000
00000000
00000000
00000000

TIL d
11000011
11000011
01100110
01100110
01100110
00100100
00111100
00011000

TIL e
00000000
00000000
11111111
11111111
00000000
00000000
00000000
00000000

TIL f
00000000
00000000
00000000
11111111
10011001
11111111
00000000
00000000

SPR 10
00000000
00000000
00000000
00000000
00000000
01101100
01010100
00101000
>
00000000
00000000
00000000
00000000
01101100
01010100
00101000
00000000
POS 3 13,6

SPR 11
00000000
00000000
00000000
00000000
00100000
00000000
00000000
00000000
>
00000000
00000000
00010000
00000000
00000000
00000000
00000000
00000000
POS 3 14,9

SPR 12
00011000
00011000
00011000
00111100
01111110
10111101
00111100
00100100
>
00011000
00011000
00011000
01111110
10111101
00111100
00111100
00100100
POS 3 4,7

SPR 13
00011011
00010101
00001010
00000000
00000000
00000000
00000000
00000000
>
00000000
00011011
00010101
00001010
00000000
00000000
00000000
00000000
POS 4 12,6

SPR 14
00000000
00000000
00000000
00000000
00000000
00000100
00000000
00000000
>
00000000
00000000
00000000
00010000
00000000
00000000
00000000
00000000
POS 4 14,9

SPR 15
00011000
00011000
00011000
00111100
01111110
10111101
00111100
00100100
>
00011000
00011000
00011000
01111110
10111101
00111100
00111100
00100100
POS 6 13,10

SPR A
11000011
10000001
10000001
10011001
10011001
00011000
00000000
01000010
>
01100110
01000010
01011010
01011010
01011010
00000000
00100100
00000000
POS 0 3,4

SPR b
11000011
10000001
10000001
10011001
10011001
00011000
00000000
01000010
>
01100110
01000010
01011010
01011010
01011010
00000000
00100100
00000000
POS 5 11,6

SPR c
00000000
00000000
00000000
00000000
00000000
01101100
01010100
00101000
>
00000000
00000000
00000000
00000000
01101100
01010100
00101000
00000000
POS 1 13,11

SPR d
00011000
00011000
00011000
00111100
01111110
10111101
00111100
00100100
>
00011000
00011000
00011000
01111110
10111101
00111100
00111100
00100100
POS 0 11,10

SPR e
00011000
00011000
00011000
00111100
01111110
10111101
00111100
00100100
>
00011000
00011000
00011000
01111110
10111101
00111100
00111100
00100100
POS 1 11,12

SPR f
00000000
00000000
00000000
00000000
00000000
00011011
00010101
00001010
>
00000000
00000000
00000000
00000000
00011011
00010101
00001010
00000000
POS 1 2,2

SPR g
00000000
00000000
00000000
00000000
00100000
00000000
00000000
00000000
>
00000000
00000000
00010000
00000000
00000000
00000000
00000000
00000000
POS 2 13,1

SPR h
00000000
00000000
00011110
00010010
00010000
00010000
00010000
00010000
POS 2 1,3

SPR i
00000000
00011100
00011100
00111110
00111110
00111110
00011100
00001000
>
00011100
00011100
00111110
00111110
00111110
00111110
00011100
00001000
POS 2 1,14

SPR j
00000000
00000000
00011110
00010010
00010000
00010000
00010000
00010000
POS 2 2,4

SPR k
00000000
00000000
00011110
00010010
00010000
00010000
00010000
00010000
POS 2 3,5

SPR l
00000000
00000000
00011110
00010010
00010000
00010000
00010000
00010000
POS 2 4,13

SPR m
00000000
00000000
00011110
00010010
00010000
00010000
00010000
00010000
POS 2 3,10

SPR n
00000000
00000000
00011110
00010010
00010000
00010000
00010000
00010000
POS 2 12,3

SPR o
00000000
00000000
00011110
00010010
00010000
00010000
00010000
00010000
POS 2 9,2

SPR p
00000000
00000000
00011110
00010010
00010000
00010000
00010000
00010000
POS 2 7,8

SPR q
00000000
00000000
00011110
00010010
00010000
00010000
00010000
00010000
POS 2 10,14

SPR r
00000000
00000000
00011110
00010010
00010000
00010000
00010000
00010000
POS 2 6,5

SPR s
00000000
00000000
00011110
00010010
00010000
00010000
00010000
00010000
POS 2 4,1

SPR t
00000000
00000000
00011110
00010010
00010000
00010000
00010000
00010000
POS 2 12,10

SPR u
00000000
00000000
00011110
00010010
00010000
00010000
00010000
00010000
POS 2 13,7

SPR v
00011000
00011000
00011000
00111100
01111110
10111101
00111100
00100100
>
00011000
00011000
00011000
01111110
10111101
00111100
00111100
00100100
POS 2 12,12

SPR w
00000000
00000000
00000000
00000000
00000000
00011011
00010101
00001010
>
00000000
00000000
00000000
00000000
00011011
00010101
00001010
00000000
POS 2 13,11

SPR x
00000000
00000000
00000000
00000000
00000000
00000000
00000000
00000000

SPR y
00000000
00000000
00000000
00000000
00000000
00000000
00000000
00000000

SPR z
00000000
00000000
00000000
00000000
00000000
00011011
00010101
00001010
>
00000000
00000000
00000000
00000000
00011011
00010101
00001010
00000000

DLG 10
Knit stitches look like little V shapes.

DLG 11
Purls are just lines.

DLG 12
I never got very good at knitting. Mostly just the knit and purl stitches. But I did learn to see the stitches. 

DLG 13
Purls are knit stitches from the other side.

DLG 14
Knits are purl stitches from the other side.

DLG 15
I never tried eating it, though.

DLG a
I'm a cat

DLG d
When I first learned to knit it changed my senses. I learned to see clothes and feel clothes. I thought I was already.

DLG e
Moths eat sweaters. I never tried that. You can taste clothes.

DLG c
It's actually the tiny larva of a moth that eats a sweater, not the thing you usually think of. You know, the flying thing.

DLG f
We'll eat human hair too but they don't tend to make that into very dense woven little packages.

DLG g
Sometimes we're called fairies and I think that's a very good idea.

DLG i
When we get bigger, we make little cocoons out of dust. We have to drag them around, which can be hard.

DLG v
I remember the last room I lived in before I got my first proper apartment had a lot of moths. They never ate my clothes, though. Animal fibers are pricey.

DLG w
We were eating his hair.

DLG b
Yarn shops are like museums of touch.

