
Bacteriophage Training Day

# BITSY VERSION 4.6

! ROOM_FORMAT 1

PAL 0
NAME Greenboi
79,148,47
148,255,118
255,255,255

PAL 1
NAME Office Jam
184,154,83
255,249,175
255,255,255

PAL 2
NAME Turquoise
54,142,101
62,255,149
255,255,255

PAL 3
NAME skyblue
43,138,207
101,208,255
255,255,255

PAL 4
NAME dark and moody
43,0,0
97,15,1
150,22,1

PAL 5
NAME cornflower
132,65,251
221,175,255
255,255,255

PAL 6
NAME indigo
98,100,247
175,180,255
255,255,255

PAL 7
NAME purp
174,37,207
245,166,255
255,255,255

PAL 8
NAME redbois
181,38,55
255,179,173
255,255,255

PAL 9
NAME orrrange
186,93,39
255,207,150
255,255,255

PAL a
255,199,145
196,114,5
255,255,255

PAL b
212,167,75
255,226,167
255,255,255

PAL c
NAME dimlit
56,56,56
150,146,76
150,146,76

PAL d
NAME darkconfront
0,0,0
99,44,28
100,37,30

PAL e
NAME justdark
0,0,0
224,16,6
0,0,0

PAL f
NAME orangedark
46,35,8
145,107,70
145,107,70

PAL g
51,24,8
135,82,70
135,82,70

ROOM 0
0,0,0,0,0,0,0,0,w,w,w,0,0,0,0,0
k,k,k,k,k,k,k,k,k,i,k,k,k,k,k,k
0,0,0,0,0,0,v,0,0,0,0,0,0,0,0,0
0,0,0,0,0,0,0,0,0,0,0,0,0,0,0,0
0,0,0,0,0,0,0,0,0,0,0,0,0,0,0,0
0,0,0,0,0,0,0,0,0,0,0,0,0,0,0,0
0,0,0,0,0,0,0,0,0,0,0,0,0,0,0,0
0,0,0,0,0,0,0,0,0,0,0,0,0,0,0,0
e,g,0,g,e,0,0,g,0,0,e,g,0,e,0,g
a,a,a,j,a,a,a,a,a,a,a,a,a,a,a,a
0,0,0,0,0,0,0,0,0,0,0,0,0,0,c,0
0,0,0,b,0,0,0,0,0,0,0,0,0,0,0,0
0,0,0,0,0,0,h,0,0,0,0,0,0,0,0,0
0,0,c,0,0,0,0,0,0,0,0,0,0,d,b,0
0,0,0,0,0,0,0,0,0,0,0,f,0,0,0,0
0,0,0,0,d,0,0,0,0,0,0,0,0,0,0,0
NAME BacteriaCellWall
ITM 4 3,7
ITM 3 10,7
ITM 2 6,7
EXT 3,9 3 6,3
PAL 0

ROOM 1
0,0,0,0,0,0,0,0,0,0,0,0,0,0,0,0
0,0,o,m,m,m,m,m,m,m,m,m,m,n,0,0
0,0,l,0,0,0,0,p,0,0,w,w,w,l,0,0
0,0,l,k,k,k,k,k,k,k,k,i,k,l,0,0
0,0,l,0,v,0,0,0,0,0,0,0,0,l,0,0
0,0,l,0,0,0,0,0,0,0,0,0,0,l,0,0
0,0,l,0,q,r,0,0,0,0,0,0,0,l,0,0
0,0,l,0,0,0,0,0,0,u,0,u,0,l,0,0
0,0,l,0,0,0,0,u,0,u,0,u,0,l,0,0
0,0,l,0,0,0,0,0,0,u,0,u,0,l,0,0
0,0,l,0,0,0,0,0,0,0,0,0,0,l,0,0
0,0,s,m,m,m,m,m,m,m,m,m,m,t,0,0
0,0,0,0,0,0,0,0,0,0,0,0,0,0,0,0
0,0,0,0,0,0,0,0,0,0,0,0,0,0,0,0
0,0,0,0,0,0,0,0,0,0,0,0,0,0,0,0
0,0,0,0,0,0,0,0,0,0,0,0,0,0,0,0
NAME OfficeSpace
ITM 1 11,3
EXT 11,3 0 9,1
PAL 1

ROOM 3
0,0,0,0,0,0,0,0,0,0,0,0,0,0,0,0
0,h,0,0,0,0,0,0,0,0,0,0,0,0,0,0
0,0,0,0,0,0,0,0,0,0,v,0,0,0,0,0
0,0,0,0,0,0,0,0,0,0,0,0,i,0,0,0
0,0,0,0,0,0,0,0,0,0,0,0,0,0,0,0
0,0,0,0,0,0,0,0,0,0,0,0,0,0,0,0
0,0,0,0,0,0,0,0,0,0,0,0,0,0,0,0
w,w,w,w,w,w,18,1d,16,w,w,w,w,w,w,w
x,x,x,x,x,x,19,w,19,x,x,x,x,x,x,x
z,y,z,z,y,z,19,0,19,z,y,z,z,y,z,y
11,10,12,12,10,12,19,0,19,11,12,10,11,10,10,12
x,x,x,x,x,x,19,0,19,x,x,x,x,x,x,x
0,0,0,0,0,0,17,1a,15,0,0,0,0,0,0,0
0,b,0,0,0,0,0,0,0,0,0,0,0,f,0,0
0,0,0,0,0,0,0,0,0,0,0,0,c,0,0,0
0,0,0,0,0,d,0,0,0,0,0,0,0,0,0,0
NAME Up Close!
ITM 5 7,7
EXT 7,7 4 7,7
PAL 2

ROOM 4
0,0,0,0,0,0,0,0,0,0,0,0,0,0,0,0
0,h,0,0,0,0,0,0,0,0,0,0,0,0,0,0
0,0,0,0,0,0,0,0,0,0,v,0,0,0,0,0
0,0,0,0,0,0,0,0,0,0,0,0,i,0,0,0
0,0,0,0,0,0,0,0,0,0,0,0,0,0,0,0
0,0,0,0,0,0,0,0,0,0,0,0,0,0,0,0
0,0,0,0,0,0,0,0,0,0,0,0,0,0,0,0
w,w,w,w,w,w,18,1d,16,w,w,w,w,w,w,w
x,x,x,x,x,x,19,w,19,x,x,x,x,x,x,x
z,y,z,z,y,z,19,0,19,z,y,z,z,y,z,y
11,10,12,12,10,12,19,0,19,11,12,10,11,10,10,12
x,x,x,x,x,x,19,0,19,x,x,x,x,x,x,x
0,0,0,0,0,0,17,1a,15,0,0,0,0,0,0,0
0,b,0,0,0,0,0,0,0,0,0,0,0,f,0,0
0,0,0,0,0,0,0,0,0,0,0,0,c,0,0,0
0,0,0,0,0,d,0,0,0,0,0,0,0,0,0,0
NAME leaveUpClose!
ITM 6 12,3
ITM 9 7,8
EXT 12,3 5 0,10
PAL 2

ROOM 5
0,0,0,0,0,0,0,0,0,0,0,20,0,0,0,0
2a,1p,1d,1d,1d,1n,26,0,27,0,1w,1z,29,0,0,0
0,1m,0,0,0,1o,1q,1r,1r,1r,1x,1u,24,0,0,0
0,1n,0,0,0,1p,1s,1t,1t,1t,1y,1v,25,0,0,0
0,1o,1a,1a,1a,1m,0,0,0,0,21,22,0,0,0,0
0,0,0,0,0,0,0,0,0,0,28,23,0,0,0,0
k,k,k,k,k,k,k,k,k,k,k,k,k,k,k,k
v,1e,1e,1e,1e,1e,1e,1e,1e,1e,1e,1e,1e,1e,1e,1e
1f,1f,1f,1f,29,1f,1f,1f,1f,1f,1f,1f,1f,1f,2r,1f
0,1g,1h,1h,1h,1h,1h,1h,1h,1h,1h,1h,1h,1h,1h,1h
0,1l,0,0,0,0,0,0,0,0,0,0,0,0,0,2b
0,1j,1k,1k,1k,1k,1k,1k,1k,1k,1k,1k,1k,1k,1k,1k
0,0,0,0,0,0,0,0,0,0,0,0,0,0,0,0
1e,1e,1e,1e,1e,1e,1e,1e,1e,1e,1e,1e,1e,1e,1e,1e
1f,1f,1f,1f,1f,1f,1f,1f,1f,1f,1f,1f,1f,1f,1f,1f
0,0,0,0,0,0,0,0,0,0,0,0,0,0,0,0
ITM 7 11,12
ITM b 4,2
ITM c 4,3
ITM d 2,3
ITM e 3,3
ITM f 14,8
ITM g 3,2
ITM h 2,2
EXT 15,10 8 0,10
PAL 3

ROOM 6
0,0,0,39,37,0,0,2a,2o,26,32,27,2o,0,0,0
0,0,0,3a,36,2m,3f,0,2o,0,32,0,2o,0,0,0
35,34,34,34,34,2l,2k,0,2o,0,32,0,2o,0,0,0
0,0,0,3d,3b,2n,3f,0,2o,0,32,0,2o,0,0,0
0,0,0,3c,3e,0,0,0,2o,0,32,0,2o,0,0,0
2i,2i,2i,2i,2i,2i,2i,2i,2i,2i,2i,2i,2i,2i,2j,2i
0,0,0,0,1e,1e,1e,1e,1e,1e,1e,1e,1e,0,0,0
1e,1e,1e,1e,2g,1f,1f,1f,1f,1f,1f,1f,2g,1e,1e,1e
1f,1f,1f,1f,1f,0,0,0,0,0,2h,0,1f,1f,1f,1f
1h,1h,1h,1h,2d,0,0,0,0,0,0,0,1g,1h,1h,1h
0,0,0,0,2e,0,0,0,2h,0,0,0,1l,0,0,0
1k,1k,1k,1k,1i,0,0,0,0,0,0,0,1j,1k,1k,1k
0,0,0,0,0,0,2h,0,0,0,2h,0,0,0,0,0
1e,1e,1e,1e,1e,0,0,0,0,0,0,0,1e,1e,1e,1e
1f,1f,1f,1f,2g,1e,1e,1e,1e,1e,1e,1e,2g,1f,1f,1f
0,0,0,0,1f,1f,1f,1f,1f,1f,1f,1f,1f,0,0,0
NAME room6-1
ITM 8 6,8
ITM 9 5,8
ITM 9 5,9
ITM 9 5,10
ITM 9 5,11
ITM 9 5,12
ITM 9 5,13
EXT 6,8 a 6,8
PAL 7

ROOM 8
0,0,0,0,0,b,0,0,0,0,0,0,0,0,0,0
0,0,2y,23,2v,2p,2p,2p,2p,2p,2t,2x,0,0,0,0
0,0,2y,0,2s,0,0,0,0,0,2s,0,2y,2y,2y,0
0,0,2y,0,2s,2r,0,0,0,0,2s,24,0,0,0,0
0,0,0,2x,2w,2p,2p,2p,2u,2p,2q,2z,2y,0,0,0
0,0,0,0,0,0,0,0,33,0,0,0,0,0,0,0
2i,2i,2i,2i,2i,2i,2i,2i,2i,2i,2i,2i,2i,2i,2j,2i
1e,1e,1e,1e,1e,1e,1e,1e,1e,1e,1e,1e,1e,1e,1e,1e
1f,1f,1f,1f,1f,1f,1f,2r,1f,1f,1f,2r,1f,1f,1f,1f
1h,1h,1h,1h,1h,1h,1h,1h,1h,1h,1h,1h,1h,1h,1h,1h
2c,0,0,0,0,0,0,0,0,0,0,0,0,0,0,2b
1k,1k,1k,1k,1k,1k,1k,1k,1k,1k,1k,1k,1k,1k,1k,1k
0,0,0,0,0,0,0,0,0,0,0,0,0,0,0,0
1e,1e,1e,1e,1e,1e,1e,1e,1e,1e,1e,1e,1e,1e,1e,1e
1f,1f,1f,1f,1f,1f,1f,1f,1f,1f,1f,1f,1f,1f,1f,1f
0,0,0,0,0,0,0,0,0,0,0,0,0,0,0,0
NAME bacteriaroom
ITM h 5,2
ITM d 5,3
ITM i 6,2
ITM l 6,3
ITM m 7,2
ITM n 9,2
ITM o 8,3
ITM k 7,3
ITM f 7,8
ITM f 11,8
EXT 15,10 9 0,10
EXT 0,10 5 15,10
PAL 6

ROOM 9
0,0,0,0,0,0,0,0,0,0,0,20,2a,0,0,0
0,27,1p,1d,1d,1d,1n,0,28,0,1w,1z,0,0,31,0
0,0,1m,0,0,0,1o,1q,1r,1r,1x,1u,24,0,31,0
0,0,1n,0,0,0,1p,1s,1t,1t,1y,1v,25,0,31,0
0,31,1o,1a,26,1a,1m,0,0,0,21,22,29,0,0,0
0,0,0,0,0,0,0,0,0,0,0,23,0,0,0,0
k,k,k,k,k,k,k,k,k,k,k,k,k,k,k,k
1e,1e,1e,1e,1e,1e,1e,1e,1e,1e,1e,1e,1e,1e,1e,1e
1f,1f,1f,1f,1f,2r,2r,2r,2r,2r,1f,2r,1f,1f,1f,1f
1h,1h,1h,1h,2r,2r,2r,2r,2r,2r,2r,1h,2r,1h,1h,1h
2c,0,0,0,0,0,2r,2r,2r,2r,2r,2r,2r,2r,0,2b
1k,1k,1k,1k,2r,2r,2r,2r,2r,2r,2r,2r,1k,1k,1k,1k
0,0,0,0,0,0,2r,2r,2r,2r,2r,2r,2r,0,0,0
1e,1e,1e,1e,1e,1e,1e,1e,1e,1e,1e,1e,1e,1e,1e,1e
1f,1f,1f,1f,1f,1f,1f,1f,1f,1f,1f,1f,1f,1f,1f,1f
0,0,0,0,0,0,0,0,0,0,0,0,0,0,0,0
NAME signroom
ITM f 4,11
ITM f 4,9
ITM f 5,8
ITM f 5,9
ITM f 6,8
ITM f 6,9
ITM f 6,10
ITM f 6,11
ITM f 6,12
ITM f 7,12
ITM f 7,11
ITM f 7,10
ITM f 7,9
ITM f 7,8
ITM f 8,8
ITM f 8,9
ITM f 8,10
ITM f 8,11
ITM f 8,12
ITM f 9,12
ITM f 9,11
ITM f 10,11
ITM f 10,12
ITM f 11,11
ITM f 11,12
ITM f 12,12
ITM f 13,10
ITM f 12,10
ITM f 12,9
ITM f 11,8
ITM f 9,8
ITM f 9,9
ITM f 10,9
ITM f 9,10
ITM f 10,10
ITM f 11,10
ITM f 5,10
ITM f 5,11
ITM d 3,3
ITM h 3,2
ITM b 5,2
ITM g 4,2
ITM e 4,3
ITM c 5,3
ITM j 0,9
ITM j 1,10
ITM j 0,11
EXT 15,10 6 0,10
EXT 0,10 8 15,10
PAL 5

ROOM a
0,0,0,0,0,0,0,0,3h,2o,0,c,0,0,0,0
0,0,0,0,0,0,0,0,3i,2o,0,0,0,0,b,0
0,0,0,0,0,0,0,3g,3h,18,0,0,0,0,0,0
0,0,0,0,0,0,3g,0,3i,17,0,0,h,0,0,0
0,0,0,0,0,3g,0,3g,0,2o,f,0,0,0,0,c
2i,2i,2i,2i,2i,2i,2i,2i,2i,2i,2i,2i,2i,2i,2j,0
0,0,0,0,1e,1e,1e,1e,1e,1e,1e,1e,1e,0,0,0
1e,1e,1e,1e,2g,1f,1f,1f,1f,1f,1f,1f,2g,1e,1e,1e
1f,1f,1f,1f,1f,0,2h,0,0,0,2h,0,1f,1f,1f,1f
1h,1h,1h,1h,2d,0,0,0,0,0,0,0,1g,1h,1h,1h
0,0,0,0,2e,0,0,0,2h,0,0,0,1l,0,0,0
1k,1k,1k,1k,1i,0,0,0,0,0,0,0,1j,1k,1k,1k
0,0,0,0,0,0,2h,0,0,0,2h,0,0,0,0,0
1e,1e,1e,1e,1e,0,0,0,0,0,0,0,1e,1e,1e,1e
1f,1f,1f,1f,2g,1e,1e,1e,1e,1e,1e,1e,2g,1f,1f,1f
0,0,0,0,1f,1f,1f,1f,1f,1f,1f,1f,1f,0,0,0
NAME room6-2
ITM 8 10,8
EXT 10,8 b 10,8
PAL 7

ROOM b
0,0,0,0,39,37,0,3h,2o,0,32,0,2o,0,0,0
3n,0,0,0,23,36,2m,3j,2o,0,32,0,2o,0,0,0
3l,35,34,34,34,34,2l,2k,2o,0,32,0,2o,0,0,0
3m,0,0,0,20,3b,2n,3j,2o,0,32,0,2o,0,0,0
0,0,0,0,3c,3e,0,3k,2o,0,32,0,2o,0,0,0
2i,2i,2i,2i,2i,2i,2i,2i,2i,2i,2i,2i,2i,2i,2j,2i
0,0,0,0,1e,1e,1e,1e,1e,1e,1e,1e,1e,0,0,0
1e,1e,1e,1e,2g,1f,1f,1f,1f,1f,1f,1f,2g,1e,1e,1e
1f,1f,1f,1f,1f,0,2h,0,0,0,2h,0,1f,1f,1f,1f
1h,1h,1h,1h,2d,0,0,0,0,0,0,0,1g,1h,1h,1h
0,0,0,0,2e,0,0,0,2h,0,0,0,1l,0,0,0
1k,1k,1k,1k,1i,0,0,0,0,0,0,0,1j,1k,1k,1k
0,0,0,0,0,0,2h,0,0,0,2h,0,0,0,0,0
1e,1e,1e,1e,1e,0,0,0,0,0,0,0,1e,1e,1e,1e
1f,1f,1f,1f,2g,1e,1e,1e,1e,1e,1e,1e,2g,1f,1f,1f
0,0,0,0,1f,1f,1f,1f,1f,1f,1f,1f,1f,0,0,0
NAME room6-3
ITM 8 6,12
EXT 6,12 c 6,12
PAL 7

ROOM c
0,0,0,0,0,39,37,0,2o,0,32,0,2o,0,0,0
0,3n,0,0,0,23,36,2m,2o,c,3o,0,2o,0,0,0
0,3l,34,34,34,34,34,2l,2k,0,c,0,2o,0,0,0
0,3m,0,0,0,20,3b,2n,2o,c,3p,0,2o,0,0,0
0,0,0,0,0,3c,3e,0,2o,0,32,0,2o,0,0,0
2i,2i,2i,2i,2i,2i,2i,2i,2i,2i,2i,2i,2i,2i,2j,2i
0,0,0,0,1e,1e,1e,1e,1e,1e,1e,1e,1e,0,0,0
1e,1e,1e,1e,2g,1f,1f,1f,1f,1f,1f,1f,2g,1e,1e,1e
1f,1f,1f,1f,1f,0,2h,0,0,0,2h,0,1f,1f,1f,1f
1h,1h,1h,1h,2d,0,0,0,0,0,0,0,1g,1h,1h,1h
0,0,0,0,2e,0,0,0,2h,0,0,0,1l,0,0,0
1k,1k,1k,1k,1i,0,0,0,0,0,0,0,1j,1k,1k,1k
0,0,0,0,0,0,2h,0,0,0,2h,0,0,0,0,0
1e,1e,1e,1e,1e,0,0,0,0,0,0,0,1e,1e,1e,1e
1f,1f,1f,1f,2g,1e,1e,1e,1e,1e,1e,1e,2g,1f,1f,1f
0,0,0,0,1f,1f,1f,1f,1f,1f,1f,1f,1f,0,0,0
NAME room6-4
ITM c 0,3
ITM b 0,2
ITM 8 10,12
EXT 10,12 d 10,12
PAL 7

ROOM d
0,0,0,0,0,39,37,0,2o,0,32,0,2o,0,0,0
0,3n,0,0,0,23,36,2m,2o,c,3o,0,2o,0,0,0
0,3l,34,34,34,34,34,2l,2k,0,c,0,2o,0,0,0
0,3m,0,0,0,20,3b,2n,2o,c,3p,0,2o,0,0,0
0,0,0,0,0,3c,3e,0,2o,0,32,0,2o,0,0,0
2i,2i,2i,2i,2i,2i,2i,2i,2i,2i,2i,2i,2i,2i,2j,2i
0,0,0,0,1e,1e,1e,1e,1e,1e,1e,1e,1e,0,0,0
1e,1e,1e,1e,2g,1f,1f,1f,1f,1f,1f,1f,2g,1e,1e,1e
1f,1f,1f,1f,1f,0,2h,0,0,0,2h,0,1f,1f,1f,1f
1h,1h,1h,1h,2d,0,0,0,0,0,0,0,1g,1h,1h,1h
0,0,0,0,2e,0,0,0,2h,0,0,0,1l,0,0,0
1k,1k,1k,1k,1i,0,0,0,0,0,0,0,1j,1k,1k,1k
0,0,0,0,0,0,2h,0,0,0,2h,0,0,0,0,0
1e,1e,1e,1e,1e,0,0,0,0,0,0,0,1e,1e,1e,1e
1f,1f,1f,1f,2g,1e,1e,1e,1e,1e,1e,1e,2g,1f,1f,1f
0,0,0,0,1f,1f,1f,1f,1f,1f,1f,1f,1f,0,0,0
NAME room6-5
ITM p 9,2
ITM p 10,2
ITM p 11,2
ITM p 12,2
ITM p 14,3
ITM p 15,3
ITM p 14,1
ITM p 13,1
ITM 8 8,10
ITM c 0,3
ITM b 0,2
EXT 8,10 e 8,10
PAL 7

ROOM e
0,0,0,0,0,39,37,0,2o,0,32,0,2o,0,0,0
0,3n,0,0,0,23,36,2m,2o,c,3o,0,2o,0,0,0
0,3l,34,34,34,34,34,2l,2k,0,c,0,2o,0,0,0
0,3m,0,0,0,20,3b,2n,2o,c,3p,0,2o,0,0,0
0,0,0,0,0,3c,3e,0,2o,0,32,0,2o,0,0,0
2i,2i,2i,2i,2i,2i,2i,2i,2i,2i,2i,2i,2i,2i,2j,2i
0,0,0,0,1e,1e,1e,1e,1e,1e,1e,1e,1e,0,0,0
1e,1e,1e,1e,2g,1f,1f,1f,1f,1f,1f,1f,2g,1e,1e,1e
1f,1f,1f,1f,1f,0,2h,0,0,0,2h,0,1f,1f,1f,1f
1h,1h,1h,1h,2d,0,0,0,0,0,0,0,1g,1h,1h,1h
0,0,0,0,2e,0,0,0,2h,0,0,0,1l,0,0,2b
1k,1k,1k,1k,1i,0,0,0,0,0,0,0,1j,1k,1k,1k
0,0,0,0,0,0,2h,0,0,0,2h,0,0,0,0,0
1e,1e,1e,1e,1e,0,0,0,0,0,0,0,1e,1e,1e,1e
1f,1f,1f,1f,2g,1e,1e,1e,1e,1e,1e,1e,2g,1f,1f,1f
0,0,0,0,1f,1f,1f,1f,1f,1f,1f,1f,1f,0,0,0
NAME room6-6
ITM q 14,1
ITM q 13,3
ITM q 15,3
ITM q 14,4
ITM q 15,1
ITM q 13,0
ITM q 14,0
ITM q 1,4
ITM r 2,4
ITM r 15,2
ITM r 2,0
ITM r 6,10
ITM r 7,9
ITM r 8,8
ITM r 10,10
ITM r 9,9
ITM q 6,9
ITM q 3,10
ITM q 8,12
ITM q 3,6
ITM q 3,3
ITM q 4,1
ITM q 11,2
ITM r 9,4
ITM r 7,0
ITM r 1,6
ITM r 3,12
ITM r 13,12
ITM r 7,13
ITM r 10,13
ITM q 8,13
ITM q 5,8
ITM q 11,8
ITM q 4,4
ITM q 13,6
ITM q 11,4
ITM r 12,0
ITM q 1,10
ITM q 1,12
ITM q 3,15
ITM q 14,14
ITM q 14,10
ITM r 9,2
ITM r 0,1
ITM q 0,2
ITM q 3,0
ITM q 9,11
ITM q 3,9
ITM q 11,12
ITM q 9,0
ITM q 7,4
EXT 15,10 f 0,10
PAL 7

ROOM f
0,0,0,0,0,0,0,0,0,0,0,0,0,0,0,0
0,0,2a,0,0,0,0,0,0,0,0,0,0,0,0,0
0,0,3q,3q,0,0,0,26,0,c,0,0,27,0,0,0
0,0,0,0,0,0,0,0,0,0,0,0,0,0,0,0
0,0,0,0,0,0,c,0,0,c,0,0,0,0,0,0
0,0,0,0,0,0,0,0,0,0,0,0,0,0,0,0
2i,2i,2i,2i,2i,2i,2i,2i,2i,2i,2i,2i,2i,2i,2j,2i
1e,1e,1e,1e,1e,1e,1e,1e,1e,1e,1e,1e,1e,1e,1e,1e
1f,1f,1f,1f,1f,1f,1f,1f,1f,1f,1f,1f,1f,a,1f,1f
1h,1h,1h,1h,1h,1h,1h,1h,1h,1h,1h,1h,1h,1h,1h,1h
2c,0,0,0,0,0,0,0,0,0,0,0,0,0,0,2b
1k,1k,1k,1k,1k,1k,1k,1k,1k,1k,1k,1k,1k,1k,1k,1k
0,0,0,0,0,0,0,0,0,0,0,0,0,0,0,0
1e,1e,1e,1e,1e,1e,1e,1e,1e,1e,1e,1e,1e,1e,1e,1e
1f,1f,1f,1f,1f,1f,1f,1f,1f,1f,1f,1f,1f,1f,1f,1f
0,0,0,0,0,0,0,0,0,0,0,0,0,0,0,0
NAME room7
ITM s 1,2
ITM s 4,2
ITM s 2,2
ITM s 5,2
ITM s 4,1
ITM t 3,1
ITM h 7,3
ITM d 7,4
ITM l 8,4
ITM k 9,4
ITM i 8,3
ITM u 9,3
ITM p 11,1
ITM p 13,1
ITM s 14,1
ITM s 12,1
ITM s 12,3
ITM s 15,3
ITM p 14,3
ITM p 13,3
EXT 0,10 e 15,10
EXT 15,10 g 0,10
PAL 8

ROOM g
0,0,0,0,0,0,0,3t,0,3r,0,0,0,0,0,0
0,41,0,0,0,3s,0,0,3x,0,0,0,3u,3u,3u,0
0,41,0,0,0,3y,3r,0,3v,0,0,3u,3u,3u,3u,0
40,3z,40,0,2b,0,3w,3s,0,0,2b,3u,3u,3u,3u,0
0,0,0,0,0,3x,0,0,3t,3r,0,3u,3u,3u,3u,0
0,0,0,0,0,0,0,3w,0,3y,0,0,3u,3u,3u,0
2i,2i,2i,2i,2i,2i,2i,2i,2i,2i,2i,2i,2i,2i,2j,2i
1e,1e,1e,1e,1e,1e,1e,1e,1e,1e,1e,1e,1e,1e,1e,1e
1f,1f,1f,1f,1f,1f,1f,1f,1f,1f,1f,1f,1f,1f,1f,1f
1h,1h,1h,1h,1h,1h,1h,1h,1h,1h,1h,1h,1h,1h,1h,1h
2c,0,0,0,0,0,0,0,0,0,0,0,0,0,0,2b
1k,1k,1k,1k,1k,1k,1k,1k,1k,1k,1k,1k,1k,1k,1k,1k
0,0,0,0,0,0,0,0,0,0,0,0,0,0,0,0
1e,1e,1e,1e,1e,1e,1e,1e,1e,1e,1e,1e,1e,1e,1e,1e
1f,1f,1f,1f,1f,1f,1f,1f,1f,1f,1f,1f,1f,1f,1f,1f
0,0,0,0,0,0,0,0,0,0,0,0,0,0,0,0
NAME room9
EXT 0,10 f 15,10
EXT 15,10 i 0,10
PAL 9

ROOM h
0,0,0,0,0,0,0,0,0,0,0,0,0,0,0,0
0,0,0,0,0,0,0,0,0,0,0,0,0,0,0,0
0,0,0,0,0,0,0,0,0,0,0,0,0,0,0,0
m,m,m,m,m,m,m,m,m,m,m,m,n,0,0,0
0,0,0,0,0,0,0,43,0,42,0,0,l,0,0,0
0,0,0,0,0,0,43,0,42,43,0,0,l,0,0,0
k,k,k,k,k,k,k,k,0,k,k,k,s,m,m,n
1e,1e,1e,1e,0,0,0,0,0,0,0,0,44,0,0,l
1f,1f,1f,1f,0,0,0,0,0,0,0,0,44,0,0,l
1h,1h,1h,2d,0,0,0,0,0,0,0,0,45,0,k,l
0,0,0,2e,0,0,0,0,0,0,0,0,0,0,0,l
1k,1k,1k,1i,0,0,0,0,0,0,0,0,0,0,0,l
0,0,0,0,0,0,0,0,0,0,0,0,0,0,0,l
1e,1e,1e,1e,o,m,m,m,m,m,m,m,m,m,m,t
1f,1f,1f,1f,l,0,0,0,0,0,0,0,0,0,0,0
m,m,m,m,t,0,0,0,0,0,0,0,0,0,0,0
NAME endroom
ITM v 8,6
ITM 1 13,9
ITM y 4,9
ITM y 4,10
ITM y 4,11
ITM y 4,12
EXT 0,10 j 15,10
EXT 13,9 k 5,5
PAL 1

ROOM i
0,0,0,2v,2p,2p,2p,2p,2p,2p,2p,2p,2p,2t,0,0
0,0,0,2s,3u,c,33,c,46,d,3u,c,46,2s,0,0
0,0,0,2s,46,b,46,c,3s,c,d,46,33,2s,0,0
0,0,0,2s,3r,c,33,h,3u,3y,46,c,3u,2s,0,0
0,0,0,2s,46,3u,h,46,c,33,46,3u,3w,2s,0,0
0,0,0,2w,2p,2p,2p,2p,2p,2p,2p,2p,2p,2q,0,0
2i,2i,2i,2i,2i,2i,2i,2i,2i,2i,2i,2i,2i,2i,2j,2i
1e,1e,1e,1e,1e,1e,1e,1e,1e,1e,1e,1e,1e,1e,1e,1e
1f,1f,1f,1f,1f,1f,1f,1f,1f,1f,1f,1f,1f,1f,1f,1f
1h,1h,1h,1h,1h,1h,1h,1h,1h,1h,1h,1h,1h,1h,1h,1h
2c,0,0,0,0,0,0,0,0,0,0,0,0,0,0,2b
1k,1k,1k,1k,1k,1k,1k,1k,1k,1k,1k,1k,1k,1k,1k,1k
w,w,w,w,w,w,w,w,w,w,w,w,w,w,w,w
1e,1e,1e,1e,1e,1e,1e,1e,1e,1e,1e,1e,1e,1e,1e,1e
1f,1f,1f,1f,1f,1f,1f,1f,1f,1f,1f,1f,1f,1f,1f,1f
0,0,0,0,0,0,0,0,0,0,0,0,0,0,0,0
ITM x 8,9
ITM x 8,10
ITM x 8,11
ITM w 0,11
ITM w 1,10
ITM w 0,9
EXT 0,10 g 15,10
EXT 8,9 j 8,9
EXT 8,10 j 8,10
EXT 8,11 j 8,11
PAL b

ROOM j
0,0,0,2s,3w,33,0,3v,33,0,h,46,c,2s,0,0
0,0,0,2w,2p,2t,3u,46,c,0,46,2v,2p,2q,0,0
0,0,0,0,3k,f,46,0,0,33,d,0,0,0,0,0
0,0,0,0,0,0,c,3u,33,0,3u,46,0,0,0,0
0,0,0,0,46,0,h,0,h,46,0,c,0,3u,0,0
0,0,c,3s,0,33,0,b,3u,0,33,0,33,0,d,0
2i,2i,2i,2i,2i,2i,2i,2i,2i,2i,2i,2i,2i,2i,2j,2i
1e,1e,1e,1e,1e,1e,1e,1e,1e,1e,1e,1e,1e,1e,1e,1e
1f,1f,1f,1f,1f,1f,1f,1f,1f,1f,1f,1f,1f,1f,1f,1f
1h,1h,1h,1h,1h,1h,1h,1h,1h,1h,1h,1h,1h,1h,1h,1h
0,0,0,0,0,0,0,0,0,0,0,0,0,0,0,2b
1k,1k,1k,1k,1k,1k,1k,1k,1k,1k,1k,1k,1k,1k,1k,1k
w,w,w,w,w,w,w,w,0,w,w,w,w,w,w,w
1e,1e,1e,1e,1e,1e,1e,1e,1e,1e,1e,1e,1e,1e,1e,1e
1f,1f,1f,1f,1f,1f,1f,1f,1f,1f,1f,1f,1f,1f,1f,1f
0,0,0,0,0,0,0,0,0,0,0,0,0,0,0,0
EXT 15,10 h 0,10
PAL b

ROOM k
0,0,0,0,0,0,0,0,0,0,0,0,0,0,0,0
0,0,0,0,0,0,0,0,0,0,0,0,0,0,0,0
0,0,o,m,m,m,m,m,m,m,m,m,m,n,0,0
0,0,l,0,0,0,0,0,0,0,0,0,0,l,0,0
0,0,l,k,k,i,k,k,k,k,k,k,k,l,0,0
0,0,l,0,0,0,0,0,0,1g,1h,1h,1h,l,0,0
0,0,l,48,0,0,0,0,0,1l,u,0,u,l,0,0
0,0,l,48,0,q,r,0,0,1l,u,0,u,l,0,0
0,0,l,48,0,0,0,0,0,1l,u,0,u,l,0,0
0,0,l,0,0,0,0,0,0,1j,1k,1k,1k,l,0,0
0,0,s,m,m,m,m,m,m,m,m,m,m,t,0,0
0,0,0,0,0,0,0,0,0,0,0,0,0,0,0,0
0,0,0,0,0,0,0,0,0,0,0,0,0,0,0,0
0,0,0,0,0,0,0,0,0,0,0,0,0,0,0,0
0,0,0,0,0,0,0,0,0,0,0,0,0,0,0,0
0,0,0,0,0,0,0,0,0,0,0,0,0,0,0,0
NAME secret room key
ITM 1 5,4
ITM z 4,8
ITM z 4,7
ITM z 4,6
ITM z 4,5
ITM z 3,5
ITM z 5,6
ITM z 6,6
ITM z 6,5
ITM z 7,5
ITM z 8,5
ITM z 11,6
ITM z 11,7
ITM z 11,8
ITM z 8,6
ITM z 7,6
ITM z 7,7
ITM z 8,7
ITM z 8,8
ITM z 6,8
ITM z 5,8
ITM z 7,8
ITM z 8,9
ITM z 7,9
ITM z 6,9
ITM z 5,9
ITM z 4,9
ITM z 3,9
EXT 5,4 l 13,9
PAL 1

ROOM l
0,0,0,0,0,0,0,0,0,0,0,0,0,0,0,0
0,0,0,0,0,0,0,0,0,0,0,0,0,0,0,0
0,0,0,0,0,0,0,0,0,0,0,0,0,0,0,0
m,m,m,m,m,m,m,m,m,m,m,m,n,0,0,0
0,0,0,0,0,0,0,43,0,42,0,0,l,0,0,0
0,0,0,0,0,0,43,0,42,43,0,0,l,0,0,0
k,k,k,k,k,k,k,k,0,k,k,k,s,m,m,n
1e,1e,1e,1e,0,0,0,0,0,0,0,0,44,0,0,l
1f,1f,1f,1f,0,0,0,0,0,0,0,0,44,0,0,l
1h,1h,1h,2d,0,0,0,0,0,0,0,0,45,i,k,l
0,0,0,2e,0,0,0,0,0,0,0,0,0,0,0,l
1k,1k,1k,1i,0,0,0,0,0,0,0,0,0,0,0,l
0,0,0,0,0,0,0,0,0,0,0,0,0,0,0,l
1e,1e,1e,1e,o,m,m,m,m,m,m,m,m,m,m,t
1f,1f,1f,1f,l,0,0,0,0,0,0,0,0,0,0,0
m,m,m,m,t,0,0,0,0,0,0,0,0,0,0,0
NAME secret room1
ITM v 8,6
EXT 13,9 k 5,5
EXT 8,6 m 8,15
PAL 1

ROOM m
0,0,0,0,0,0,w,0,4a,w,0,0,0,0,0,0
0,0,0,0,0,0,w,0,4b,4d,0,0,0,0,0,0
0,0,0,0,0,0,w,0,4c,w,0,0,0,0,0,0
0,0,0,0,0,0,w,0,0,w,0,0,0,0,0,0
0,0,0,0,0,0,w,0,4a,w,0,0,0,0,0,0
0,0,0,0,0,0,w,0,4b,4d,0,0,0,0,0,0
0,0,0,0,0,0,w,0,4c,w,0,0,0,0,0,0
0,0,0,0,0,0,w,0,0,w,0,0,0,0,0,0
0,0,0,0,0,0,w,0,4a,w,0,0,0,0,0,0
0,0,0,0,0,0,w,0,4b,4d,0,0,0,0,0,0
0,0,0,0,0,0,w,0,4c,w,0,0,0,0,0,0
0,0,0,0,0,0,w,0,0,w,0,0,0,0,0,0
0,0,0,0,0,0,w,0,0,w,0,0,0,0,0,0
0,0,0,0,0,0,w,0,0,w,0,0,0,0,0,0
0,0,0,0,0,0,w,0,0,w,0,0,0,0,0,0
0,0,0,0,0,0,w,4e,4e,w,0,0,0,0,0,0
EXT 8,0 n 2,15
EXT 7,0 n 1,15
PAL c

ROOM n
0,0,4i,0,0,0,0,0,0,0,0,4h,0,4j,0,0
0,0,4i,0,0,0,0,0,0,0,0,0,0,4j,0,0
0,0,4i,0,0,0,0,0,0,0,0,0,0,4j,0,0
0,0,4i,0,0,0,0,0,0,0,0,0,0,4j,0,0
0,0,4i,0,0,0,0,0,0,0,0,0,0,4j,0,0
0,0,49,2i,2i,2i,2i,2i,2i,2i,2i,2i,2i,49,0,0
w,w,k,k,k,k,k,k,k,k,k,k,k,k,w,w
w,0,4c,49,49,49,49,49,49,49,49,49,49,4g,0,0
w,0,0,4c,49,49,49,49,49,49,49,49,4g,0,0,w
w,0,0,0,4c,49,49,49,49,49,49,4g,0,0,0,w
w,0,0,0,0,4c,4f,4f,4f,4f,4g,0,0,0,0,w
w,0,0,0,0,0,0,0,0,0,0,0,0,0,0,w
w,0,0,0,0,0,0,0,0,0,0,0,0,0,0,w
w,0,0,0,0,0,0,0,0,0,0,0,0,0,0,w
w,0,0,0,0,0,0,0,0,0,0,0,0,0,0,w
w,0,0,w,w,w,w,w,w,w,w,w,w,w,w,w
NAME proj1
ITM 10 8,8
EXT 8,8 o 8,8
PAL c

ROOM o
0,0,4i,0,0,0,0,0,0,0,0,4h,0,4j,0,0
0,0,4i,0,0,0,0,0,0,0,0,0,0,4j,0,0
0,0,4i,0,0,0,4m,0,4k,4l,0,0,0,4j,0,0
0,0,4i,0,0,0,0,0,0,0,0,0,0,4j,0,0
0,0,4i,0,0,0,0,0,0,0,0,0,0,4j,0,0
0,0,49,2i,2i,2i,2i,2i,2i,2i,2i,2i,2i,49,0,0
w,w,k,k,k,k,k,k,k,k,k,k,k,k,w,w
w,0,4c,49,49,49,49,49,4n,49,49,49,49,4g,0,0
w,0,0,4c,49,49,49,4n,43,0,49,49,4g,0,0,w
w,0,0,0,4c,49,49,49,4n,49,49,4g,0,0,0,w
w,0,0,0,0,4c,4f,4f,4f,4f,4g,0,0,0,0,w
w,0,0,0,0,0,0,0,0,0,0,0,0,0,0,w
w,0,0,0,0,0,0,0,0,0,0,0,0,0,0,w
w,0,0,0,0,0,0,0,0,0,0,0,0,0,0,w
w,0,0,0,0,0,0,0,0,0,0,0,0,0,0,w
w,0,0,w,w,w,w,w,w,w,w,w,w,w,w,w
NAME proj2
ITM 11 9,8
EXT 9,8 p 8,8
PAL c

ROOM p
0,0,4i,0,0,0,0,0,0,3u,0,4h,0,4j,0,0
0,0,4i,0,0,2v,2p,2p,2p,4o,2t,0,0,4j,0,0
0,0,4i,0,0,2s,0,0,0,4p,2s,0,0,4j,0,0
0,0,4i,0,0,2s,0,0,0,0,2s,0,0,4j,0,0
0,0,4i,0,0,2w,2p,2p,2p,2p,2q,0,0,4j,0,0
0,0,49,2i,2i,2i,2i,2i,2i,2i,2i,2i,2i,49,0,0
w,w,k,k,k,k,k,k,k,k,k,k,k,k,w,w
w,0,4c,49,49,49,49,49,4n,49,49,49,49,4g,0,0
w,0,0,4c,49,49,49,4n,43,49,49,49,4g,0,0,w
w,0,0,0,4c,49,49,49,4n,49,49,4g,0,0,0,w
w,0,0,0,0,4c,4f,4f,4f,4f,4g,0,0,0,0,w
w,0,0,0,0,0,0,0,0,0,0,0,0,0,0,w
w,0,0,0,0,0,0,0,0,0,0,0,0,0,0,w
w,0,0,0,0,0,0,0,0,0,0,0,0,0,0,w
w,0,0,0,0,0,0,0,0,0,0,0,0,0,0,w
w,0,0,w,w,w,w,w,w,w,w,w,w,w,w,w
NAME proj3
ITM h 6,2
ITM m 8,2
ITM l 7,3
ITM k 8,3
ITM i 7,2
ITM d 6,3
ITM n 9,3
ITM 13 9,8
EXT 9,8 q 8,8
PAL f

ROOM q
0,0,4i,0,0,4q,0,0,0,4q,0,4h,0,4j,0,0
0,0,4i,d,4r,0,0,4q,0,4r,0,0,0,4j,0,0
0,0,4i,0,0,h,0,0,0,h,0,4q,0,4j,0,0
0,0,4i,0,4q,0,h,0,0,4q,0,4r,0,4j,0,0
0,0,4i,0,0,4r,0,4q,0,0,4r,f,0,4j,0,0
0,0,49,2i,2i,2i,2i,2i,2i,2i,2i,2i,2i,49,0,0
w,w,k,k,k,k,k,k,k,k,k,k,k,k,w,w
w,0,4c,49,49,49,49,49,4n,49,49,49,49,4g,0,0
w,0,0,4c,49,49,49,4n,43,49,49,49,4g,0,0,w
w,0,0,0,4c,49,49,49,4n,49,49,4g,0,0,0,w
w,0,0,0,0,4c,4f,4f,4f,4f,4g,0,0,0,0,w
w,0,0,0,0,0,0,0,0,0,0,0,0,0,0,w
w,0,0,0,0,0,0,0,0,0,0,0,0,0,0,w
w,0,0,0,0,0,0,0,0,0,0,0,0,0,0,w
w,0,0,0,0,0,0,0,0,0,0,0,0,0,0,w
w,0,0,w,w,w,w,w,w,w,w,w,w,w,w,w
NAME proj4
ITM 14 9,8
EXT 9,8 r 8,8
PAL f

ROOM r
0,0,4i,0,0,3u,3u,3u,3u,3u,3u,4h,0,4j,0,0
0,0,4i,0,0,0,3u,3u,3u,3u,0,0,0,4j,0,0
0,0,4i,0,c,0,3u,3u,3u,3u,0,0,0,4j,0,0
0,0,4i,0,0,0,0,3u,3u,0,0,c,0,4j,0,0
0,0,4i,0,0,2v,2q,3u,3u,2w,2t,0,0,4j,0,0
0,0,49,2i,2i,2i,2i,2i,2i,2i,2i,2i,2i,49,0,0
w,w,k,k,k,k,k,k,k,k,k,k,k,k,w,w
w,0,4c,49,49,49,49,49,4n,49,49,49,49,4g,0,0
w,0,0,4c,49,49,49,4n,43,49,49,49,4g,0,0,w
w,0,0,0,4c,49,49,49,4n,49,49,4g,0,0,0,w
w,0,0,0,0,4c,4f,4f,4f,4f,4g,0,0,0,0,w
w,0,0,0,0,0,0,0,0,0,0,0,0,0,0,w
w,0,0,0,0,0,0,0,0,0,0,0,0,0,0,w
w,0,0,0,0,0,0,0,0,0,0,0,0,0,0,w
w,0,0,0,0,0,0,0,0,0,0,0,0,0,0,w
w,0,0,w,w,w,w,w,w,w,w,w,w,w,w,w
NAME proj5
ITM 15 9,8
EXT 9,8 s 8,8
PAL g

ROOM s
0,0,4i,4s,4t,4s,4s,4s,4t,4s,4s,4t,4s,4j,0,0
0,0,4i,4s,4s,4t,4s,4s,4s,4s,4s,4s,4t,4j,0,0
0,0,4i,4s,4t,4s,4t,4t,4s,4t,4s,4s,4s,4j,0,0
0,0,4i,4s,4s,4s,4s,4s,4s,4t,4s,4t,4s,4j,0,0
0,0,4i,4s,4s,4t,4t,4s,4t,4s,4t,4s,4t,4j,0,0
0,0,49,2i,2i,2i,2i,2i,2i,2i,2i,2i,2i,49,0,0
w,w,k,k,k,k,k,k,k,k,k,k,k,k,w,w
w,0,4c,49,49,49,49,49,49,49,49,49,49,4g,0,2b
w,0,0,4c,49,49,49,49,49,49,49,49,4g,0,0,w
w,0,0,0,4c,49,49,49,49,49,49,4g,0,0,0,w
w,0,0,0,0,4c,4f,4f,4f,4f,4g,0,0,0,0,w
w,0,0,0,0,0,0,0,0,0,0,0,0,0,0,w
w,0,0,0,0,0,0,0,0,0,0,0,0,0,0,w
w,0,0,0,0,0,0,0,0,0,0,0,0,0,0,w
w,0,0,0,0,0,0,0,0,0,0,0,0,0,0,w
w,0,0,w,w,w,w,w,w,w,w,w,w,w,w,w
NAME proj6
EXT 15,7 t 0,13
PAL g

ROOM t
0,0,0,0,0,0,w,0,0,w,0,0,0,0,0,0
0,0,0,0,0,0,w,0,0,w,0,0,0,0,0,0
0,0,0,0,0,0,w,0,4a,w,0,0,0,0,0,0
0,0,0,0,0,0,w,0,4b,4d,0,0,0,0,0,0
0,0,0,0,0,0,w,0,4c,w,0,0,0,0,0,0
0,0,0,0,0,0,w,0,0,w,0,0,0,0,0,0
0,0,0,0,0,0,w,0,4a,w,0,0,0,0,0,0
0,0,0,0,0,0,w,0,4b,4d,0,0,0,0,0,0
0,0,0,0,0,0,w,0,4c,w,0,0,0,0,0,0
0,0,0,0,0,0,w,0,0,w,0,0,0,0,0,0
0,0,0,0,0,0,w,0,4a,w,0,0,0,0,0,0
0,0,0,0,0,0,w,0,4b,4d,0,0,0,0,0,0
k,k,k,k,k,4u,w,0,4c,w,0,0,0,0,0,0
0,4c,4f,4g,0,0,0,0,0,w,0,0,0,0,0,0
0,0,0,0,0,0,0,0,0,w,0,0,0,0,0,0
w,w,w,w,w,w,w,w,w,w,0,0,0,0,0,0
EXT 7,0 u 7,15
EXT 8,0 u 8,15
PAL g

ROOM u
0,0,4s,4t,4s,4t,4s,4t,4s,4t,4s,4t,4s,4s,0,0
0,0,4t,4s,4t,4s,4t,4s,4t,4s,4t,4t,4t,4t,0,0
0,0,4s,4t,4s,4t,4s,4t,4s,4t,4s,4s,4s,4t,0,0
0,0,4t,4s,4t,4s,4t,4s,4t,4s,4t,4s,4t,4s,0,0
0,0,4c,4n,4n,4n,4n,4n,4n,4n,4n,4n,4n,4g,0,0
0,0,0,4c,4n,4n,4n,4n,4n,4n,4n,4n,4g,0,0,0
0,0,0,0,4c,4f,4f,4f,4f,4f,4f,4g,0,0,0,0
0,0,0,0,0,0,0,0,0,0,0,0,0,0,0,0
w,w,w,w,w,w,w,0,0,w,w,w,w,w,w,w
0,0,0,0,0,0,w,0,0,w,0,0,0,0,0,0
0,0,0,0,0,0,w,0,0,w,0,0,0,0,0,0
0,0,0,0,0,0,w,0,0,w,0,0,0,0,0,0
0,0,0,0,0,0,w,0,0,w,0,0,0,0,0,0
0,0,0,0,0,0,w,0,0,w,0,0,0,0,0,0
0,0,0,0,0,0,w,0,0,w,0,0,0,0,0,0
0,0,0,0,0,0,w,4e,4e,w,0,0,0,0,0,0
ITM 16 7,8
ITM 16 8,8
EXT 7,8 v 8,8
EXT 8,8 v 8,8
PAL d

ROOM v
0,0,0,0,0,0,0,0,0,0,0,0,0,0,0,0
0,0,0,0,0,0,0,0,0,0,0,0,0,0,0,0
0,0,0,0,0,0,0,0,0,0,0,0,0,0,0,0
0,0,0,0,0,0,0,0,0,0,0,0,0,0,0,0
0,0,0,0,0,0,0,0,0,0,0,0,0,0,0,0
0,0,0,0,0,0,0,0,0,0,0,0,0,0,0,0
0,0,0,0,0,0,0,0,0,0,0,0,0,0,0,0
0,0,0,0,0,0,0,0,0,0,0,0,0,0,0,0
0,0,0,0,0,0,0,0,0,0,0,0,0,0,0,0
0,0,0,0,0,0,0,0,0,0,0,0,0,0,0,0
0,0,0,0,0,0,0,0,0,0,0,0,0,0,0,0
0,0,0,0,0,0,0,0,0,0,0,0,0,0,0,0
0,0,0,0,0,0,0,0,0,0,0,0,0,0,0,0
0,0,0,0,0,0,0,0,0,0,0,0,0,0,0,0
0,0,0,0,0,0,0,0,0,0,0,0,0,0,0,0
0,0,0,0,0,0,0,0,0,0,0,0,0,0,0,0
PAL e

TIL 10
00000000
00100100
00100010
00100010
00010010
00010010
00010100
00010100
NAME phospholipidtail

TIL 11
00100000
01000000
01000100
01000100
00100010
00100010
00010010
00010100

TIL 12
00000000
01000000
01000010
00100100
00100100
00101000
00101000
00101000

TIL 15
11010101
10101011
11010101
10101011
11010110
10101010
11010100
01111000
NAME porin
WAL true

TIL 16
01111000
10101100
11010110
10101010
11010101
10101011
11010101
10101011
NAME porin
WAL true

TIL 17
11010101
10101011
11010101
10101011
01010101
01101011
00110101
00011110
NAME porin
WAL true

TIL 18
00011110
00101011
01010101
01101011
11010101
10101011
11010101
10101011
NAME porin
WAL true

TIL 19
11010101
10101011
11010101
10101011
11010101
10101011
11010101
10101011
NAME porin
WAL true

TIL 20
00000000
00000000
00000000
00000000
00000011
00001100
00110000
11000000
NAME bigvirus

TIL 21
00110100
00011110
00010001
00100000
01000000
00110000
00001100
00000011
NAME bigvirus

TIL 22
00000000
00000000
11110000
00001111
00000000
00000000
00000000
00000000
NAME bigvirus

TIL 23
11000000
00110000
00001100
00000011
00000000
00000000
00000000
00000000
NAME bigvirus

TIL 24
00000000
00000000
00000000
00000000
00000000
11000000
00100000
00010000
NAME bigvirus

TIL 25
00010000
00100000
11000000
00000000
00000000
00000000
00000000
00000000
NAME bigvirus

TIL 26
00000000
00011000
00100100
00001000
00010000
00111100
00000000
00000000

TIL 27
00000000
00111000
00000100
00011000
00000100
00111000
00000000
00000000

TIL 28
00000000
00100100
00100100
00111100
00000100
00000100
00000000
00000000

TIL 29
00000000
00111100
00100000
00111000
00000100
00111000
00000000
00000000

TIL 30
00001000
00011100
00101010
01110111
00101010
00011100
00001000
00000000

TIL 31
11111011
00000000
11011010
00000000
11110111
00000000
11111011
00000000

TIL 32
01110110
01101110
01110110
01101110
01110110
01101110
01110110
01101110
WAL true

TIL 33
01000001
01011101
00101010
00001000
00010100
00010100
00010100
00001000
>
01011101
01101011
00001000
00010100
00010100
00010100
00001000
00000000

TIL 34
11111111
10101010
10101010
10101010
10101010
10101010
10101010
11111111

TIL 35
00011111
01101010
10101010
10101010
10101010
10101010
01101010
00111111

TIL 36
10000000
01000000
00100000
00010000
11001000
00110100
00001110
00000001

TIL 37
00000110
00011000
01100000
10000000
00000000
00000000
00000000
00000000

TIL 38
00000000
00000000
00000000
00000000
00000000
00000011
00011100
11100000

TIL 39
10000000
01000000
00100000
00010001
00001110
00011100
01100010
10000001

TIL 40
00000000
00000000
00000000
00000000
00000000
00110011
11001100
00000000
>
00000000
00000000
00000000
00000000
00000000
11001100
00110011
00000000

TIL 41
00000110
00000110
00000011
00000011
00000110
00000110
00001100
00001100
>
00000011
00000011
00000110
00000110
00001100
00001100
00000110
00000110

TIL 42
00010000
00101000
00111000
01010100
01000100
10010010
11111110
00000000

TIL 43
00000000
00000000
00100010
00010100
00001000
00010100
00100010
00000000

TIL 44
10000000
10000000
10000000
10000000
10000000
10000000
10000000
10000000
WAL true

TIL 45
10000000
10000000
10000000
10000000
10000000
11111111
10000000
11111111
WAL true

TIL 46
00000011
00000100
01110010
10001110
01110010
00000100
00000011
00000000

TIL 47
00000000
00000000
11101010
11111111
10010100
00000000
00000000
00000000
>
00000000
00000000
00000000
00000000
10011010
11111111
11111111
01010100

TIL 48
10000000
10000000
10000000
11111100
10000100
10000100
11111100
10000100

TIL 49
11111111
11111111
11111111
11111111
11111111
11111111
11111111
11111111

TIL a
01100110
11101111
11111111
11111111
11101111
00000000
00000000
00000000
WAL true

TIL b
00000000
00111100
01000010
01000010
01000010
01000010
00111100
00000000
>
00000000
00000000
00011000
00100100
00100100
00011000
00000000
00000000

TIL c
00000000
00000000
00000100
00001110
00000100
10100000
01000000
10100000
>
00000000
00000000
00001010
00000100
00001010
01000000
11100000
01000000

TIL d
00000000
00011000
00100100
00100100
00011000
00000000
00000000
00000000
>
00000000
00001100
00010010
00010010
00001100
00000000
00000000
00000000

TIL e
00000000
00000000
00000000
00000000
00000000
00100000
01100100
01100110

TIL f
00000000
00001100
00010010
00010010
00001100
00000000
00000000
00000000
>
00000000
00000000
00011000
00100100
00100100
00011000
00000000
00000000

TIL g
00000000
00000000
00000010
00000110
00000110
01000110
01100110
01100110

TIL h
00000000
00011000
00100100
00100100
00011000
00000000
00000000
00000000
>
00000000
00111100
01000010
01000010
00111100
00000000
00000000
00000000

TIL i
11111111
10000001
10000001
10000001
10000111
10000001
10000001
10000001
NAME Door

TIL j
01100110
11101111
11111111
11111111
11101111
00000000
00000000
00000000

TIL k
00000000
00000000
00000000
00000000
00000000
11111111
00000000
11111111
NAME wall
WAL true

TIL l
10000001
10000001
10000001
10000001
10000001
10000001
10000001
10000001
NAME Wall
WAL true

TIL m
11111111
00000000
00000000
00000000
11111111
00000000
00000000
00000000
NAME Top of Wall
WAL true

TIL n
11111111
00000001
00000001
00000001
10000001
10000001
10000001
10000001
NAME wall

TIL o
11111111
10000000
10000000
10000000
10000001
10000001
10000001
10000001
NAME wall
WAL true

TIL p
00010000
00101000
01000100
11111110
10000010
10000010
10000010
11111110

TIL q
01111111
01000000
01000000
01000000
01111111
00100000
00111111
00100000

TIL r
11111110
00000010
00000010
00000010
11111110
00000100
11111100
00000100

TIL s
10000001
10000000
10000000
10000000
11111111
00000000
00000000
00000000

TIL t
10000001
00000001
00000001
00000001
11111111
00000000
00000000
00000000

TIL u
00000001
00000001
00000001
00111111
00100001
00100001
00111111
00100001
NAME chair

TIL v
00000000
01111110
01000010
01000010
01111110
00000100
00000000
00000000
>
00000000
00000000
01111110
01000010
01000010
01111110
00000100
00000000
NAME speech

TIL w
00000000
00000000
00000000
00000000
00000000
00000000
00000000
00000000
NAME Invisible Wall
WAL true

TIL x
00111100
01000010
10000001
10000001
10000001
10000001
01000010
00111100

TIL y
00010100
00010100
00010100
00100100
00100100
00100100
01000010
00000010

TIL z
00100100
00100100
00100100
00100100
01000100
01000100
01000010
00100000

TIL 1a
00000000
00000000
00000000
00000000
00000000
00000000
00000000
11111111

TIL 1d
11111111
00000000
00000000
00000000
00000000
00000000
00000000
00000000

TIL 1e
00000000
00011100
00110110
11010101
00010100
00010100
00010100
00010100
NAME railing
WAL true

TIL 1f
00110110
01000001
00111110
00000000
00000000
00000000
00000000
00000000
NAME railing
WAL true

TIL 1g
10101010
01111111
11000000
01000000
11000000
01000000
11000000
01000000
NAME carpet

TIL 1h
10101010
11111111
00000000
00000000
00000000
00000000
00000000
00000000
NAME carpet

TIL 1i
00000010
00000011
00000010
00000011
00000010
00000011
11111110
01010101
NAME carpet

TIL 1j
11000000
01000000
11000000
01000000
11000000
01000000
11111111
01010101
NAME carpet

TIL 1k
00000000
00000000
00000000
00000000
00000000
00000000
11111111
01010101
NAME carpet

TIL 1l
11000000
01000000
11000000
01000000
11000000
01000000
11000000
01000000
NAME carpet

TIL 1m
00010000
00010000
00100000
00100000
01000000
01000000
10000000
10000000
NAME bigvirus

TIL 1n
10000000
10000000
01000000
01000000
00100000
00100000
00010000
00010000
NAME bigvirus

TIL 1o
00001000
00001000
00000100
00000100
00000010
00000010
00000001
00000001
NAME bigvirus

TIL 1p
00000001
00000001
00000010
00000010
00000100
00000100
00001000
00001000
NAME bigvirus

TIL 1q
00000001
00000010
00000100
00001000
00010000
00101111
01101010
10101010
NAME bigvirus

TIL 1r
00000000
00000000
00000000
00000000
00000000
11111111
10101010
10101010
NAME bigvirus

TIL 1s
10101010
01101010
00101111
00010000
00001000
00000100
00000010
00000001
NAME bigvirus

TIL 1t
10101010
10101010
11111111
00000000
00000000
00000000
00000000
00000000
NAME bigvirus

TIL 1u
00010011
00011101
10010001
01010001
10110001
11010001
00110001
00010001
NAME bigvirus

TIL 1v
00010001
00110001
11010001
00110001
01010001
10010001
00011101
00010011
NAME bigvirus

TIL 1w
00000011
00001100
00110000
01000000
00100000
00010001
00011110
00110100
NAME bigvirus

TIL 1x
00001010
00000101
00000010
00000001
00000000
11111111
10101010
10101010
NAME bigvirus

TIL 1y
10101010
10101010
11111111
00000000
00000001
00000010
00000101
00001010
NAME bigvirus

TIL 1z
00000000
00000000
00000000
00000000
00001111
11110000
00000000
00000000
NAME bigvirus

TIL 2a
00000000
00001000
00011000
00001000
00001000
00011100
00000000
00000000

TIL 2b
00000000
00001000
01111100
01111110
01111100
00001000
00000000
00000000

TIL 2c
00000000
00010000
00111110
01111110
00111110
00010000
00000000
00000000

TIL 2d
10101010
11111111
00000010
00000011
00000010
00000011
00000010
00000011
NAME carpet

TIL 2e
00000010
00000011
00000010
00000011
00000010
00000011
00000010
00000011
NAME carpet

TIL 2g
00110110
01011101
00110110
11010101
00010100
00010100
00010100
00010100
NAME railing
WAL true

TIL 2h
00000000
00000000
00000000
00111100
11000011
11000011
10111101
11111111
NAME buttonpushed

TIL 2i
00000000
10111011
00000000
00000000
00000000
00000000
11111111
11111111
>
00000000
11011101
00000000
00000000
00000000
00000000
11111111
11111111
NAME tv

TIL 2j
00000000
10111011
00000000
01110101
00100101
00100010
11111111
11111111
>
00000000
11011101
00000000
01110101
00100101
00100010
11111111
11111111
NAME tv

TIL 2k
11111000
00000100
00000010
00000001
00000001
00000010
00000100
11111000
NAME gridvirus

TIL 2l
10000001
10000001
10000001
10000001
10000001
10000001
10000001
10000001
NAME gridvirus

TIL 2m
00000011
11000101
10111001
10000001
10000001
10000001
10000001
10000001
NAME gridvirus

TIL 2n
10000001
10000001
10000001
10000001
10000001
11111001
10000101
00000011
NAME gridvirus

TIL 2o
01001000
01001000
00100100
00100100
01001000
01001000
00100100
00100100
>
00100100
01001000
01001000
00100100
00100100
01001000
01001000
00100100
WAL false

TIL 2p
00000000
00000000
10011010
11111111
11111111
01010001
00000000
00000000
NAME cellwall

TIL 2q
00011000
10110100
11110000
11100000
10100000
00000000
00000000
00000000
NAME cellwall

TIL 2r
00000000
00000000
00111111
01000010
11111100
10010000
00000000
00000000
NAME knockover

TIL 2s
00111000
00111100
00011000
00011000
00111100
00011100
00111000
00011000
NAME cellwall

TIL 2t
00000000
00000000
01000000
11110000
11100000
01111000
00110000
01111000
NAME cellwall

TIL 2u
11000011
01100110
00111100
00011000
00111100
01100110
11000011
00000000
>
00000000
01100110
00111100
00011000
00111100
01100110
00000000
00000000

TIL 2v
00000000
00000000
00000001
00010111
00001111
00011110
00111100
00011110
NAME cellwall

TIL 2w
00111100
00011010
00111100
00001111
00000111
00000010
00000000
00000000
NAME cellwall

TIL 2x
00001000
00011100
00101010
01110111
00101010
00011100
00001000
00000000
>
00000000
00011100
00100010
00100010
00100010
00011100
00000000
00000000
NAME target

TIL 2y
01111011
00000000
11011010
00000000
11110111
00000000
01111011
00000000
>
10011110
00000000
01111101
00000000
11101110
00000000
11011101
00000000

TIL 2z
10000000
01000000
00100000
00011110
00000000
00000000
00000000
00000000

TIL 3a
11000000
00110000
00001100
00000011
00000000
00000000
00000000
00000000

TIL 3b
00000001
00001110
00110100
11001000
00010000
00100000
01000000
10000000

TIL 3c
10000001
01100010
00011100
00001110
00010001
00100000
01000000
10000000

TIL 3d
00000000
00000000
00000000
00000000
00000011
00001100
00110000
11000000

TIL 3e
00000000
00000000
00000000
00000000
10000000
01100000
00011000
00000110

TIL 3f
00000000
00000000
11000000
11110000
11000000
00000000
00000000
00000000

TIL 3g
00000011
00000111
00001110
00011100
00111000
01110000
11100000
11000000

TIL 3h
00000000
00000000
00000001
00010001
00001001
00000100
00000000
00011100
>
00000000
00000001
00100001
00010001
00001000
00000000
00000000
00111000

TIL 3i
00000000
00000110
00001110
00011100
00111000
01110000
11100000
11000000
>
00000011
00000111
00001110
00011100
00111000
01110000
11100000
11000000

TIL 3j
00000000
00000000
11110000
11111110
11110000
00000000
00000000
00000000
>
00000000
00000000
11110000
11111111
11110000
00000000
00000000
00000000

TIL 3k
00011100
00000000
00000101
00001001
00010001
00000000
00000000
00000000
>
00111000
00000000
00000000
00001001
00010001
00100001
00000000
00000000

TIL 3l
00000100
00000010
00000010
00000001
00000001
00000010
00000010
00000100

TIL 3m
00000100
00000100
00001000
00001000
00010000
00010000
00100000
00100000

TIL 3n
00100000
00100000
00010000
00010000
00001000
00001000
00000100
00000100

TIL 3o
01110110
01101110
01110110
00101100
00010100
00100000
01110000
00100000
>
01110110
01101110
01110110
00101100
00010100
01010000
00100000
01010000
WAL true

TIL 3p
00000000
00101100
00110110
01101110
01110110
01101110
01110110
01101110
WAL true

TIL 3q
01100110
11111111
11111111
11111111
11101111
00000000
00000000
00000000
>
00000110
01111111
11111111
11111111
11111111
11100000
00000000
00000000
NAME dnapolymerase
WAL true

TIL 3r
00001000
00010100
00010100
00010100
00001000
00000000
00000000
00000000
>
00000000
00010000
00101000
00101000
00101000
00010000
00000000
00000000

TIL 3s
00000000
00000110
00001010
00010100
00011000
00000000
00000000
00000000
>
00000000
00000000
00001100
00010100
00101000
00110000
00000000
00000000

TIL 3t
00000000
01000000
00100000
00010000
00001000
00111000
00000000
00000000
>
00000000
00100000
00010000
00001000
00000100
00011100
00000000
00000000

TIL 3u
00010000
00101000
00101000
00101000
00010000
01010100
10111010
10000010
>
00000000
00010000
00101000
00101000
00101000
00010000
11010110
10111010

TIL 3v
00000000
00001000
00010000
00100100
00101010
00100010
00011100
00000000
>
00000000
00010010
00010101
00100001
00100010
00011100
00000000
00000000

TIL 3w
00000000
00000100
00001000
10010000
01100000
00100000
00010000
00000000
>
00000000
00000010
00000100
01001000
00110000
00010000
00001000
00000000

TIL 3x
00000000
00000000
00000000
00011000
01100110
00000000
00000000
00000000
>
00000000
00000000
00000000
01100110
00011000
00000000
00000000
00000000

TIL 3y
00001100
00110000
01000000
00100000
00010000
00001000
00000000
00000000
>
00000000
00001100
00110000
01000000
00100000
00010000
00001000
00000000

TIL 3z
00111100
01111110
01111110
01111110
01111110
00000000
01111110
01111110

TIL 4a
00000011
00001011
00001111
00010111
00111111
00101111
01011111
00101111
>
00001011
00010101
00101111
01011111
00111111
01011111
10111111
01011111

TIL 4b
01011111
00111111
01011111
00111111
01011111
00101111
00011111
01011111
>
10101111
01111111
10111111
01111111
11111111
01111111
10111111
01111111

TIL 4c
00111111
01011111
00111111
00010111
00101111
00010111
00001101
00000011
>
01111111
10111111
00111111
01011111
00101111
01010111
00101111
00001011

TIL 4d
00010000
00110000
01010000
01010000
01010000
01010000
00110000
00010000
>
00010000
00110000
01110000
01110000
01110000
01110000
00110000
00010000
WAL true

TIL 4e
01000100
00010010
10001000
01010101
10101010
11111111
11111111
11111111

TIL 4f
11111111
11111111
11111111
11111111
11111111
11101111
01010101
10001011
>
11111111
11111111
11111111
11111111
11110111
01011101
10100110
00001000

TIL 4g
11111111
11111110
11111101
11111110
11110100
11111010
11010000
10101000
>
11111010
11111100
11111010
11101000
11110100
11101000
11010000
10000000

TIL 4h
11111011
10110010
11111010
11010010
10111011
00000000
00000000
00000000
>
00000000
00000000
00000000
00000000
00000000
00000000
00000000
00000000

TIL 4i
00110001
00110001
00110000
00110001
00110001
00110001
00110000
00110001
>
00110001
00110000
00110001
00110001
00110001
00110000
00110001
00110001

TIL 4j
10000110
10000110
00000110
10000110
10000110
10000110
00000110
10000110
>
10000110
10000110
10000110
00000110
10000110
10000110
10000110
00000110

TIL 4k
00000000
00110010
01000101
01000101
01000101
01000101
01000101
00110010

TIL 4l
00000000
01100110
01010101
01010101
01100110
01010100
01010100
01010100

TIL 4m
00111000
01111000
00011100
00011100
00110110
01100110
11000011
11000011

TIL 4n
11111111
11111111
11111111
11111111
11111111
11111111
11111111
11111111
WAL true

TIL 4o
00010000
00010000
00001000
00001000
00010000
00010000
00001000
00001000
>
00001000
00001000
00010000
00010000
00001000
00001000
00010000
00010000

TIL 4p
00010000
00010000
00001000
00000100
01000010
01000010
00100010
00011100
>
00001000
00001000
00101000
01000100
01000010
01000010
00100010
00011100

TIL 4q
00000000
01110110
10001001
10001001
01110110
00000000
00000000
00000000
>
00000000
01111110
10000001
10000001
01111110
00000000
00000000
00000000

TIL 4r
00000000
00000000
01111110
10000001
10000001
01111110
00000000
00000000

TIL 4s
00110001
10101011
11000101
01011110
10111010
01101010
10101011
01000101
>
01000101
11001000
01110110
10001101
01010010
00111110
11101001
10101010

TIL 4t
10100100
01011110
00110011
10100101
01110110
11101100
00110111
01101010
>
01010010
11011111
00001100
11101101
00110011
10100101
10011011
00100101

TIL 4u
00000000
00000000
00000000
00000000
00000000
11101101
00000000
11111010
WAL true

TIL 4v
01000100
00010010
10001000
01010101
10101010
11111111
11111111
11111111
WAL true

TIL 4w
11111111
10000001
10000001
10000001
10000111
10000001
10000001
10000001
WAL true

SPR 10
00000000
00000000
00000000
00000000
00000000
00000000
00000000
00000000

SPR 11
01111110
01000010
01000010
01000010
01111110
00100100
00100100
00000000
NAME knockoversignsign
DLG SPR_0

SPR 12
01111110
01000010
01000010
01000010
01111110
00100100
00100100
00000000
NAME room8sign1
DLG SPR_f
POS 8 3,8

SPR 13
01111110
01000010
01000010
01000010
01111110
00100100
00100100
00000000
NAME room7sign1
DLG SPR_g
POS f 3,8

SPR 14
01111110
01000010
01000010
01000010
01111110
00100100
00100100
00000000
NAME room7sign2
DLG SPR_h
POS f 8,8

SPR 15
01111110
01000010
01000010
01000010
01111110
00100100
00100100
00000000
DLG SPR_i
POS f 13,8

SPR 16
00001000
00010100
00100010
00010100
00001000
00101010
01011101
01000001
>
00000000
00001000
00010100
00100010
00010100
00001000
01101011
01011101
DLG SPR_j
POS h 8,7

SPR 17
00111110
00100010
00100010
00111110
00000000
11111111
00000000
11111111
DLG SPR_k
POS h 7,6

SPR 18
01111110
01000010
01000010
01000010
01111110
00100100
00100100
00000000
NAME room9sign
DLG SPR_l
POS g 4,8

SPR 19
01111110
01000010
01000010
01000010
01111110
00100100
00100100
00000000
NAME room9sign2
DLG SPR_m
POS g 10,8

SPR A
00001000
00010100
00010100
00010100
00001000
00101010
01011101
01000001
>
00000000
00001000
00010100
00010100
00010100
00001000
01101011
01011101
POS 1 9,8

SPR c
00000000
00000100
00001110
01011100
01111000
01110000
01111000
00000000
>
00000010
00000111
00101110
00111100
00111000
00111100
00000000
00000000

SPR d
00001000
00010000
00010000
00001000
00001000
00010000
00010000
00001000
>
00010000
00001000
00001000
00010000
00010000
00001000
00001000
00010000

SPR e
00001000
00010100
00100010
00010100
00001000
00101010
01011101
01000001
>
00000000
00001000
00010100
00100010
00010100
00001000
01101011
01011101
NAME Room1Mentor
DLG SPR_1
POS 1 4,5

SPR g
01000100
00101000
11011110
00111001
01111100
01000100
01000100
00111000
NAME PottedPlant
DLG SPR_2
POS 1 3,8

SPR h
00001000
00010100
00100010
00010100
00001000
00101010
01011101
01000001
>
00000000
00001000
00010100
00100010
00010100
00001000
01101011
01011101
NAME Room2Mentor
DLG SPR_3
POS 0 6,3

SPR i
00001000
00010100
00100010
00010100
00001000
00101010
01011101
01000001
>
00000000
00001000
00010100
00100010
00010100
00001000
01101011
01011101
NAME room3Mentor
DLG SPR_4
POS 3 10,3

SPR j
00001000
00010100
00100010
00010100
00001000
00101010
01011101
01000001
>
00000000
00001000
00010100
00100010
00010100
00001000
01101011
01011101
NAME room4mentor
DLG SPR_5
POS 4 10,3

SPR k
00000000
00000000
00000000
00000000
00000000
00000000
00000000
00000000
NAME Invis_Mentor
DLG SPR_6
POS 4 7,8

SPR l
00001000
00010100
00100010
00010100
00001000
00101010
01011101
01000001
>
00000000
00001000
00010100
00100010
00010100
00001000
01101011
01011101
NAME room5mentor
DLG SPR_7
POS 5 0,8

SPR m
01111110
01000010
01000010
01000010
01111110
00100100
00100100
00000000
NAME sign1
DLG SPR_8
POS 5 4,8

SPR r
01111110
01000010
01000010
01000010
01111110
00100100
00100100
00000000
NAME welcomesign
DLG SPR_9
POS 5 2,8

SPR u
01111110
01000010
01000010
01000010
01111110
00100100
00100100
00000000
NAME sign2
DLG SPR_a
POS 5 6,8

SPR v
01111110
01000010
01000010
01000010
01111110
00100100
00100100
00000000
NAME sign3
DLG SPR_b
POS 5 8,8

SPR w
01111110
01000010
01000010
01000010
01111110
00100100
00100100
00000000
NAME buttonsign
DLG SPR_c

SPR x
01111110
01000010
01000010
01000010
01111110
00100100
00100100
00000000
NAME sign4
DLG SPR_d
POS 5 10,8

SPR y
01111110
01000010
01000010
01000010
01111110
00100100
00100100
00000000
NAME sign5
DLG SPR_e
POS 5 12,8

SPR 1a
00000000
00000000
00000000
00000000
00000000
00000000
00000000
00000000
DLG SPR_n

SPR 1b
00111110
00100010
00100010
00111110
00000000
11111111
00000000
11111111
DLG SPR_o
POS l 7,6

SPR 1c
11110111
11100011
11000001
11100011
11110111
11010101
10100010
10111110
>
11111111
11110111
11100011
11000001
11100011
11110111
10010100
10100010
POS u 7,3

ITM 0
00011100
00100010
00100010
00000010
00000100
00001000
00000000
00001000
>
00111000
01000100
01000100
00000100
00001000
00010000
00000000
00010000
NAME tea
DLG ITM_0

ITM 1
11111111
10000001
10000001
10000001
10000111
10000001
10000001
10000001

ITM 2
00000000
00011100
00011100
00011100
00011100
00111110
00011100
00001000
>
00011100
00011100
00011100
00011100
00111110
00011100
00001000
00000000
NAME wrongarrow1
DLG ITM_1

ITM 3
00000000
00011100
00011100
00011100
00011100
00111110
00011100
00001000
>
00011100
00011100
00011100
00011100
00111110
00011100
00001000
00000000
NAME wrongarrow
DLG ITM_2

ITM 4
00000000
00011100
00011100
00011100
00011100
00111110
00011100
00001000
>
00011100
00011100
00011100
00011100
00111110
00011100
00001000
00000000
NAME correctarrow
DLG ITM_3

ITM 5
00000000
00000000
00000000
00000000
00000000
00000000
00000000
00000000
NAME invis_porin_trigger
DLG ITM_4

ITM 6
11111111
10000001
10000001
10000001
10000111
10000001
10000001
10000001
NAME invis_room5
DLG ITM_5

ITM 7
00000000
00000000
00000000
00000000
00100100
00111010
00000100
00000000
DLG ITM_6

ITM 8
00000000
00000000
00111100
01000010
11000011
10111101
10000001
11111111
NAME button
DLG ITM_8

ITM 9
00000000
00000000
00000000
00000000
00000000
00000000
00000000
00000000
NAME invis_announcement_room6
DLG ITM_7

ITM 10
11111111
11110111
11000111
11010111
11000111
11000111
11000111
11111111
>
11111111
11110111
11000111
11000111
11000111
11000111
11000111
11111111
DLG ITM_i

ITM 11
11111111
11111111
11111111
11111111
11111111
11111111
11111111
11111111
DLG ITM_j

ITM 12
11111111
11111111
11111111
11111111
11111111
11111111
11111111
11111111
DLG ITM_k

ITM 13
11111111
11111111
11111111
11111111
11111111
11111111
11111111
11111111
DLG ITM_l

ITM 14
11111111
11111111
11111111
11111111
11111111
11111111
11111111
11111111
DLG ITM_m

ITM 15
11111111
11111111
11111111
11111111
11111111
11111111
11111111
11111111
DLG ITM_n

ITM 16
00000000
00000000
00000000
00000000
00000000
00000000
00000000
00000000
DLG ITM_o

ITM a
00000000
00000000
00000000
00000000
00000000
00000000
00000000
00000000

ITM b
00000000
10110000
01001000
10100100
10010100
00010010
00001001
00001000
NAME dna3

ITM c
00001000
00000100
00000000
00111000
11000100
00000010
00000010
00000000
NAME dna6

ITM d
00010010
00010001
00100001
00100001
00100001
00010010
00001100
00000000
NAME dna4

ITM e
00101010
00101010
00100100
00010011
00001100
00000000
00000000
00000000
NAME dna5

ITM f
01111110
01000010
01000010
01000010
01111110
00100100
00100100
00000000
NAME knockover sign
DLG ITM_9

ITM g
00100000
01000001
01000010
10000100
10000100
01001001
01001001
01001001
NAME dna2

ITM h
00000000
00000110
00001001
00001001
00010010
00010010
00010010
00010010
NAME dna1

ITM i
00000000
00110001
01001010
10000100
10000110
01001001
01001001
01001001

ITM j
00000000
00000000
00000000
00000000
00000000
00000000
00000000
00000000
NAME invissignannounce
DLG ITM_a

ITM k
00001000
00000100
00000100
10001000
01110000
00000000
00000000
00000000
NAME dna6b

ITM l
00101010
00100100
00100000
00010011
00001100
00000000
00000000
00000000
NAME dna5b

ITM m
00000000
10000000
01000000
00100000
00010000
00010000
00001000
00001000
NAME dna3b

ITM n
00000000
01111000
10000100
10000010
10000010
01100010
00010010
00001100
NAME plasmiddna

ITM o
00001100
00010010
00010010
00001100
00000000
00000000
00000000
00000000
NAME plasmiddna

ITM p
00000000
00000000
00000000
10000111
01111000
00000000
00000000
00000000
>
00000000
00000000
00110000
01001000
10000100
00000011
00000000
00000000

ITM q
00000010
10000001
01000010
10001001
01010000
00001000
00010000
00000000
>
01000000
10000001
01000010
10000001
00010010
00001000
00010000
00001000
DLG ITM_b

ITM r
10000000
01000100
00000010
00000000
00010000
00100001
00000010
00000000
>
01000000
10000010
00000100
00000000
00100000
00010010
00000001
00000000
DLG ITM_c

ITM s
00000000
00000000
00000000
10000111
01111000
00000000
00000000
00000000
>
00000000
00000000
00000000
01111000
10000111
00000000
00000000
00000000

ITM t
00000000
00000000
00000000
00000000
00000111
00001000
00010000
00010000
>
00000000
00000000
00000000
00000011
00000100
00001000
00010000
00010000

ITM u
00000000
10001000
01011100
00001000
00000000
00010000
00001000
00001000
>
00000000
10010100
01001000
00010100
00000000
00010000
00001000
00001000

ITM v
11111111
10000001
10111001
10101001
10111011
10010001
10010001
10000001
DLG ITM_h

ITM w
00000000
00000000
00000000
00000000
00000000
00000000
00000000
00000000
NAME invisannounce
DLG ITM_d

ITM x
00000000
00000000
00000000
00000000
00000000
00000000
00000000
00000000
DLG ITM_e

ITM y
00000000
00000000
00000000
00000000
00000000
00000000
00000000
00000000
DLG ITM_f

ITM z
00000000
00000000
00000000
00000000
00000000
00000000
00000000
00000000
DLG ITM_g

DLG ITM_0
You're a {clr2}bacteriophage{clr2}!

DLG SPR_1
"""
{sequence
  - Ah, you're the {clr2}new recruit{clr2}, right?
    Welcome to {wvy}{rbw}BACTERIOPHAGE CORP{rbw}!{wvy}
    
    Because it's your first day on the job, we're going to need to walk through a little {clr2}training{clr2} first.
    Step through {clr2}that door{clr2} when you're ready to begin!
  - Step through {clr2}that door{clr2} when you're ready to begin!

}
"""

DLG SPR_2
"""
{sequence
  - It's a potted plant.
    
    You lean in closer to the plant, and hear it rustle...
    *{wvy}photosynthesize{wvy}*
  - It's a potted plant.
}
"""

DLG SPR_3
"""
{sequence
  - As a bacteriophage, your first task is to find a way into this cell wall. 
  - 
}
"""

DLG ITM_1
"""
{sequence
  - Hmm, that's not quite right. See how there isn't a receptor there? You won't be able to enter without one.
    Try again.
}
"""

DLG ITM_2
No, no, no. That's not right. Remember, we bacteriophages have {clr2}specificity{clr2}, we can't just attach to just any receptor!

DLG ITM_3
Perfect! That's the one! I'll spot you as you bind to this receptor-- you're the perfect fit for it, so it should be a breeze.

DLG ITM_4
"""
{shk}WHOAH, I DIDN'T MEAN THAT CLOSE!{shk}

I'm loving the enthusiasm, but we have safety training manuals for a reason! I think we should move to some models, because that was a {shk}little close for comfort.{shk}
"""

DLG SPR_5
Right this way, please!

DLG SPR_4
"""
{sequence
  - This right here is a hearty {clr2}E. coli{clr2}, which is what we {clr2}T4 viruses{clr2} work best on!
    Now, this is a {clr2}porin{clr2} protein that we'll be working with. Take a closer look!
  - Take a closer look!
}
"""

DLG SPR_6
"""
{sequence
  - That's really dangerous, don't go any closer! Please head through the door.
  - What did I just say??
  - {clr2}(why won't this guy take a hint?){clr2}
  - Please. The door.
  - *ahem* The door?
  - {shk}*AHEM* THE DOOR???{shk}
}
"""

DLG SPR_7
"""
Go ahead and take a look around. 

I actually don't like this room too much because it makes me think too hard about my insides.
"""

DLG ITM_5
Okay, this is much better. Just keep walking along the carpeted path.

DLG ITM_6
"""
It's a key.

Behind you, you hear the manager saying,
"{shk}WHAT DID YOU THINK I MEANT WHEN I SAID TO STAY ON THE PATH?{shk}"
"""

DLG SPR_8
"""
{cycle
  - It's a sign.
    
    "1. {clr2}The Head{clr2}: The {clr2}head{clr2} ({clr2}or capsid{clr2}) of a bacteriophage is a large isocahedron made up of a hollow protein hull. 
    It holds the {clr2}viral DNA{clr2}!"
  - You go to touch your head, and feel slightly uncomfortable.
}
"""

DLG SPR_9
"""
Welcome to the {clr2}Bacteriophage Corp.{clr2} {wvy}{rbw}Self-Service Training Center!{rbw}{wvy}

By reading this sign, you have agreed to waive {clr2}Bacteriophage Corp.{clr2} of all responsibility for any reading-related injuries you may sustain within the {rbw}{wvy}Center{wvy}{rbw}.
Thank you! -B. C. Legal Team
"""

DLG SPR_a
"2. The {clr2}Collar{clr2}: The {clr2}collar{clr2} (also known as the {clr2}neck{clr2} of the bacteriophage has a number of {clr2}whiskers{clr2} and is a hollow tube of protein. This forms the {wvy}whisker/collar complex{wvy}!

DLG SPR_b
"3. The {clr2}Tail{clr2}: The {clr2}tail{clr2} of the bacteriophage is a hollow protein tube ({clr2}the core{clr2}) surrounded by a {clr2}sheath{clr2}, and allows {clr2}viral DNA{clr2} to pass through.

DLG ITM_7
"""
{sequence
  - {shk}*kshhhhkk*{shk}
    
    You hear an intercom crackle with a pre-recorded message.
    "Welcome {shk}EMPLOYEE NAME HERE{shk} to the Bacteriophage Corp. Simulation Room!
    Shown here is the {clr2}outer membrane{clr2} (1), the {clr2}peptidoglycan layer{clr2} (2), and the {clr2}inner membrane{clr2} (3). Press the button to advance."
  - 
}
"""

DLG SPR_c
"""
Please push all buttons gently; {clr2}Bacteriophage Corp{clr2} is not responsible for any button-related injuries. 
{clr2}-B. C. Legal{clr2}
"""

DLG ITM_8
"""
{sequence
  - "The {clr2}long tail fibers{clr2} of the virus bonds to porin proteins and other cell-surface markers, sending a signal to the {clr2}baseplate {clr2}of the bacteriophage."
  - "Next, the {clr2}short tail fibers{clr2} bind to markers on the cell surface ({clr2}lipopolysaccharides{clr2}, an {clr2}endotoxin{clr2}) irreversibly."
  - "This allows the {clr2}tail{clr2} to punch through the {clr2}outer membrane{clr2}, which then uses specialized proteins ({clr2}lysozymes{clr2}) to break down the {clr2}peptidoglycan layer{clr2}."
  - "The bacteriophage then injects its DNA into the interior of the cell, and its task is complete! Note that the bacteriophage never actually enters the cell itself."
    
    You feel extremely uncomfortable watching this.
  - From the ceiling, a ridiculous amount of confetti flutters out and begins to fill the air.
    
    "{rbw}CONGRATULATIONS{rbw}, {shk}EMPLOYEE NAME HERE{shk}! You have successfully initiated the {clr2}Eclipse Phase!{clr2}"
    You feel... {shk}really scandalized{shk} after watching that.
}
"""

DLG SPR_d
"4. The {clr2}Tail Fibers{clr2}: The {clr2}tail fibers{clr2} are long proteins that assist in binding to the {clr2}cell surface{clr2}.

DLG SPR_e
"5. The {clr2}Baseplate{clr2}: the {clr2}baseplate{clr2} is a protein complex that has both {clr2}spikes{clr2} and {clr2}short tail fibers{clr2}, responsible for breaching the cell.

DLG ITM_9
"""
{sequence
  - You go to read the sign, and instantly knock it over.
    {shk}.....................
    .....................{shk}
    ...Hopefully that won't happen again.
  - whoops.
  - WHOOPS.
  - 
  - {shk}WHO DID THIS?{shk}
  - 
  - 
  - {shk}W H Y ? ? ? ?{shk}
  - 
  - 
  - {shk}??????????????????????{shk}
  - 
  - 
  - You touch the sign, expecting it to fall over, and two signs tip over instead.
  - 
  - is this all there is
  - 
  - 
  - {shk}life is suffering{shk}
  - 
}
"""

DLG SPR_0
Please be gentle with all signs in the Self Service Training Center! {clr2}-B. C. Legal{clr2}

DLG SPR_f
This is an {clr2}E. coli{clr2} bacteria, the target of your mission. {clr2}E. coli{clr2} is {clr2}gram-negative{clr2}, meaning that it has an {clr2}outer membrane{clr2}, a {clr2}protein (peptidoglycan) layer{clr2}, and an {clr2}inner membrane{clr2}. You must get through all three when inserting DNA!

DLG ITM_a
"""
{sequence
  - {shk}*ksssshk*{shk}
    A loudspeaker turns on.
    "Please be careful with the all signs, as they are very delicate! Any sign-related damages will be docked from your pay. Thank you! -B.C. Legal"

  - 
}
"""

DLG SPR_g
"1. Viral {clr2}proteins{clr2} are synthesized from the injected DNA. Not only do they encode for bacteriophage structures, but other proteins (like {clr2}DNA polymerases{clr2}) are produced. These only target and replicate {clr2}viral DNA{clr2}, which are formed from a specific {clr2}chemical variant of cytosine{clr2}."

DLG ITM_b
"""
{sequence
  - 
  - You're covered in confetti and everything is terrible.
  - 
  - It smells like celebration.
  - 
  - You dance in rhythm with the confetti while no one is watching.
  - 
}
"""

DLG ITM_c
"""
{sequence
  - 
  - 
  - You wonder if the confetti is a metaphor for something deeper, more intangible. Is the confetti itself a victory, or is it representative of a deeper victory of learning?
  - 
  - Can you eat confetti? you wonder aloud.
  - 
  - 
}
"""

DLG SPR_h
"2. It's thought that T4 viruses also produce {clr2}nucleases{clr2} and {clr2}DNases{clr2} to break down bacterial DNA, freeing up {clr2}nucleotides {clr2}and crippling the host."

DLG SPR_i
"3. {clr2}Viral mRNA{clr2} is synthesized by both host proteins and newly-formed viral proteins, quickly synthesizing {clr2}structural viral components{clr2}.{clr2} Replicated DNA {clr2}also begins to fill the host. This begins the {clr2}Intracellular Accumulation Phase.{clr2}"

DLG SPR_j
"""
{sequence
  - Congratulations! You've made it all the way through training! I need to finish up some paperwork before I give you your certificate, so why don't you wait in the office on the right?
  - Go wait in the office while I take care of a few things, please!
}
"""

DLG SPR_k
"""
NO ENTRY WITHOUT AUTHORIZATION.
THIS MEANS YOU! 
-B.C. Legal
"""

DLG SPR_l
"During the {clr2}Intracellular Accumulation Phase{clr2} ({clr2}IAP{clr2} for short), bacteriophage parts begin to be {clr2}synthesized {clr2}and assembled by other {clr2}viral enzymes{clr2}. The {clr2}head{clr2} closes around the viral genome and attaches to the {clr2}neck{clr2} and {clr2}tail{clr2}."

DLG SPR_m
"""
"The fully-assembled bacteriophages begin to accumulate within the E. Coli cell."
............
............
{shk}is this how babies are made???{shk}
"""

DLG SPR_n
"Among the 

DLG ITM_d
"""
{sequence
  - You hear the loudspeaker again.
    
    "Among the proteins produced by the bacteiophage genes are {clr2}lysozymes{clr2}, which begin to accumulate in the cell along with the bacteriophages."
  - 
}
"""

DLG ITM_e
"""
{sequence
  - "These {clr2}lysozymes {clr2}cause the entire bacteria to burst open (or {clr2}lyse{clr2}), killing the host and releasing 100-150 {wvy}{rbw}brand new bacteriophages{clr2}{rbw}! This completes the final, or {clr2}Lysis{clr2}, phase of the infection.
  - 
}
"""

DLG ITM_f
"""
{sequence
  - "Thank you for completing the {clr2}Bacteirophage Corp.{clr2} {wvy}{rbw}Self-Service Training Center{rbw}{wvy}! We hope {shk}not {shk}to see you again soon!"
  - 
}
"""

DLG ITM_g
"""
{sequence
  - 
  - 
  - Wow, waiting in an office sure is boring.
  - 
  - You try to come up with a little game for yourself while you wait. You can't.
  - 
  - 
  - 
  - You strike a cool pose while no one is watching.
  - 
  - 
  - 
  - is this just your life now
  - 
  - ugh this is really boring
  - 
}
"""

DLG SPR_o
"""
NO ENTRY WITHOUT AUTHORIZATION.
THIS MEANS YOU! 
-B.C. Legal
"""

DLG ITM_h
"""
{
  - {item "7"} == 1 ?
    You try sliding the key you picked up earlier into the lock on the door.
    
    The door swings open before you even twist the key, unlocked.
    {rbw}Nailed it.{rbw}
    
    Behind you, the door swings shut.
    .............
    .............
    {rbw}{shk}ALSO NAILED IT.{shk}{rbw}
  - else ?
    Using your elite hacking and computing skills, you push down on the door handle and watch the door swing open.
    {rbw}Nailed it.{rbw}
    
    Behind you, the door swings shut.
    .............
    .............
    {rbw}{shk}ALSO NAILED IT.{shk}{rbw}

}
"""

DLG ITM_i
"""
It's a small remote. 

You pick it up and press play.

"We've infiltrated the headquarters of {clr2}LAMBDA INC.{clr2} and recovered plans on their next project. It's unlike anything we've ever seen.

They call it the {shk}{clr2}LYSOGENIC CYCLE,{clr2}{shk} and our proprietary {clr2}LYTIC CYCLE?{clr2} It doesn't hold a candle to it."
<press -> to continue>
"""

DLG ITM_j
"{clr2}Lambda Inc.{clr2} is going in it for the long game; their viruses can use enzymes to {clr2}hide their DNA in a bacteria's genome.{clr2} If too many bacteriophages infect at once, they seal DNA into circular plasmid loops within the bacteria." 

DLG ITM_k
"They integrate that DNA into the bacteria's DNA a-and then they install {clr2}repressors{clr2} to keep the DNA from being used, like a time capsule."

DLG ITM_l
"""
"And... t-the most horrifying thing of all, is... {shk}every single new bacteria will have the same bacteriophage DNA inside it.{shk}
They could be right under our noses, stealing our business, and we wouldn't even know."
"""

DLG ITM_m
"""
"And if that bacteria gets stressed, it'll start making that bacteriophage all over again! Maybe {shk}years{shk} later, even!
...............
...............
{shk}I-it's the perfect plan.{shk}"
"""

DLG ITM_n
"""
"That's it from me... this line won't be secure for much longer, so I have to go before my cover's blown. Agent 2A88B7 signing--

Wait. {shk}What was that?{shk}

{shk}H-hello? Who's there? Hello?{shk}

{shk}W-wait, no, NO, NO, STO--{shk}

The recording cuts off there.
"""

DLG ITM_o
"""
{shk}"You weren't supposed to have seen that."
{shk}Everything goes dark.

.....................
.....................
.....................
.....................
.....................
.....................
"The escaped employee has been neutralized. They will not be a problem again."

{clr2}"Another escaped employee? You're getting sloppy."{clr2}
"They're expendable to the company."
{clr2}"May I remind you that {shk}YOU{shk} are expendable to the company?"{clr2}
"{shk}Yes sir. Thank you sir.{shk}"

{clr2}"Excellent. We proceed as planned."{clr2}


{wvy}==============================={wvy}
End.
"""

VAR a
42

