It's loud, you're dancing, you don't remember when you started.

# BITSY VERSION 3.7

! ROOM_FORMAT 1

PAL 0
251,102,251
157,250,255
0,0,0

PAL 1
255,0,0
15,13,14
255,255,255

PAL 2
0,0,0
255,255,255
0,255,0

PAL 3
0,0,0
128,0,128
255,255,255

PAL 4
128,128,255
255,128,64
255,0,0

PAL 5
255,255,0
0,0,0
0,0,255

PAL 6
255,255,255
0,0,0
255,0,0

PAL 7
255,255,255
255,255,255
255,255,255

ROOM 0
e,a,a,a,a,a,a,a,a,a,a,a,a,a,a,e
e,l,l,l,l,l,l,l,l,l,i,l,l,l,l,e
e,l,l,l,l,l,l,l,l,l,j,l,l,l,l,e
e,l,l,l,l,l,l,l,l,l,g,f,f,f,f,e
e,l,l,l,l,l,l,l,l,0,l,l,l,l,0,e
e,l,l,l,l,l,l,l,l,l,l,l,l,l,0,e
e,l,l,l,l,l,l,l,l,l,l,l,l,l,l,0
e,l,l,l,l,0,l,l,l,l,l,l,0,l,l,0
e,k,k,k,k,k,k,k,k,k,k,k,k,k,k,e
e,k,k,k,k,k,k,k,k,k,k,k,k,k,k,e
e,k,k,k,k,k,k,k,k,k,k,k,k,k,k,e
e,k,k,k,k,k,k,k,k,k,k,k,k,k,k,e
e,k,k,k,k,k,k,k,k,k,k,k,k,k,k,e
e,k,k,k,k,k,k,k,k,k,k,k,k,k,k,e
e,k,k,k,k,k,k,k,k,k,k,k,k,k,k,e
e,e,e,e,e,e,e,e,e,e,e,e,e,e,e,e
WAL a,e,g,f,h
EXT 15,6 1 3,3
EXT 15,7 1 3,3
PAL 0

ROOM 1
e,a,a,a,a,a,a,a,a,a,a,a,a,a,a,e
e,l,l,l,l,l,l,l,l,l,i,l,l,l,l,e
e,l,l,l,l,l,l,l,l,l,j,l,l,l,l,e
e,l,l,l,l,l,l,l,l,l,g,f,f,f,f,e
e,l,l,l,l,l,l,l,l,0,l,l,l,l,0,e
e,l,l,l,l,l,l,l,l,l,l,l,l,l,0,e
e,l,l,l,l,l,l,l,l,l,l,l,l,l,l,0
e,l,l,l,l,0,l,l,l,l,l,l,0,l,l,0
e,k,k,k,k,k,k,k,k,k,k,k,k,k,k,e
e,k,k,k,k,k,k,k,k,k,k,k,k,k,k,e
e,k,k,k,k,k,k,k,k,k,k,k,k,k,k,e
e,k,k,k,k,k,k,k,k,k,k,k,k,k,k,e
e,k,k,k,k,k,k,k,k,k,k,k,k,k,k,e
e,k,k,k,k,k,k,k,k,k,k,k,k,k,k,e
e,k,k,k,k,k,k,k,k,k,k,k,k,k,k,e
e,e,e,e,e,e,e,e,e,e,e,e,e,e,e,e
WAL a,e,g,f,h,j
EXT 15,6 2 0,7
EXT 15,7 2 0,8
PAL 1

ROOM 2
0,0,0,0,0,0,0,0,0,0,0,0,0,0,0,0
0,0,0,0,0,0,0,0,0,0,0,0,0,0,0,0
0,0,0,0,0,0,0,0,r,s,s,s,s,s,t,0
0,0,0,0,0,0,0,0,p,q,x,c,y,z,u,0
0,0,0,0,0,0,0,0,p,q,12,y,b,14,u,0
0,0,0,0,0,0,0,0,o,w,w,w,w,w,v,0
10,10,10,10,10,10,10,10,10,10,10,10,10,10,10,10
k,k,k,k,k,k,k,k,k,k,k,k,k,k,k,k
k,k,k,k,k,k,k,k,k,k,k,k,k,k,k,k
10,10,10,10,10,10,10,10,10,10,10,10,10,10,10,10
0,0,0,0,0,0,0,0,0,0,0,0,0,0,0,0
0,0,0,0,0,0,0,0,0,0,0,0,0,0,0,0
0,0,0,0,0,0,0,0,0,0,0,0,0,0,0,0
0,0,0,0,0,0,0,0,0,0,0,0,0,0,0,0
0,0,0,0,0,0,0,0,0,0,0,0,0,0,0,0
0,0,0,0,0,0,0,0,0,0,0,0,0,0,0,0
WAL 10
EXT 15,7 3 3,3
EXT 15,8 3 3,3
PAL 2

ROOM 3
e,a,a,a,a,a,a,a,a,a,a,a,a,a,a,e
e,l,l,l,l,l,l,l,l,l,i,l,l,l,l,e
e,l,l,l,l,l,l,l,l,l,j,l,l,l,l,e
e,l,l,l,l,l,l,l,l,l,g,f,f,f,f,e
e,l,l,l,l,l,l,l,l,0,l,l,l,l,0,e
e,l,l,l,l,l,l,l,l,l,l,l,l,l,0,e
e,l,l,l,l,l,l,l,l,l,l,l,l,l,l,0
e,l,l,l,l,0,l,l,l,l,l,l,0,l,l,0
e,k,k,k,k,k,k,k,k,k,k,k,k,k,k,e
e,k,k,k,k,k,k,k,k,k,k,k,k,k,k,e
e,k,k,k,k,k,k,k,k,k,k,k,k,k,k,e
e,k,k,k,k,k,k,k,k,k,k,k,k,k,k,e
e,k,k,k,k,k,k,k,k,k,k,k,k,k,k,e
e,k,k,k,k,k,k,k,k,k,k,k,k,k,k,e
e,k,k,k,k,k,k,k,k,k,k,k,k,k,k,e
e,e,e,e,e,e,e,e,e,e,e,e,e,e,e,e
WAL a,e,g,f,h,j
EXT 15,6 4 0,7
EXT 15,7 4 0,8
PAL 3

ROOM 4
0,0,0,0,0,0,0,0,0,0,0,0,0,0,0,0
0,0,0,0,0,0,0,0,0,0,0,0,0,0,0,0
0,0,0,0,0,0,0,0,r,s,s,s,s,s,t,0
0,0,0,0,0,0,0,0,p,q,x,c,y,z,u,0
0,0,0,0,0,0,0,0,p,q,x,c,15,14,u,0
0,0,0,0,0,0,0,0,o,w,w,w,w,w,v,0
10,10,10,10,10,10,10,10,10,10,10,10,10,10,10,10
k,k,k,k,k,k,k,k,k,k,k,k,k,k,k,k
k,k,k,k,k,k,k,k,k,k,k,k,k,k,k,k
10,10,10,10,10,10,10,10,10,10,10,10,10,10,10,10
0,0,0,0,0,0,0,0,0,0,0,0,0,0,0,0
0,0,0,0,0,0,0,0,0,0,0,0,0,0,0,0
0,0,0,0,0,0,0,0,0,0,0,0,0,0,0,0
0,0,0,0,0,0,0,0,0,0,0,0,0,0,0,0
0,0,0,0,0,0,0,0,0,0,0,0,0,0,0,0
0,0,0,0,0,0,0,0,0,0,0,0,0,0,0,0
WAL 10
EXT 15,7 5 7,9
EXT 15,8 5 5,9
PAL 4

ROOM 5
e,e,e,e,e,e,e,e,e,e,e,e,e,e,e,e
e,e,e,e,e,e,e,e,e,e,e,e,e,e,e,e
e,e,e,e,e,e,e,e,e,e,e,e,e,e,e,e
e,e,e,e,e,e,e,e,e,e,e,e,e,e,e,e
e,e,e,e,e,e,e,e,e,e,e,e,e,e,e,e
e,e,e,e,e,e,e,e,e,e,e,e,e,e,e,e
e,e,e,a,a,a,a,a,a,a,a,0,m,e,e,e
e,e,e,0,0,0,0,0,0,0,0,0,0,e,e,e
e,e,e,0,0,0,0,0,0,0,0,0,0,e,e,e
e,e,e,0,0,0,0,0,0,0,0,0,0,e,e,e
e,e,e,0,0,0,0,0,0,0,0,0,0,e,e,e
e,e,e,0,0,0,0,0,0,0,0,0,0,m,e,e
e,e,e,0,0,0,0,0,0,0,0,0,0,0,e,e
e,e,e,e,e,e,e,e,e,e,e,e,e,e,e,e
e,e,e,e,e,e,e,e,e,e,e,e,e,e,e,e
e,e,e,e,e,e,e,e,e,e,e,e,e,e,e,e
EXT 13,12 0 3,3
EXT 11,6 6 6,9
PAL 5

ROOM 6
18,18,18,18,18,18,18,18,18,18,18,18,18,18,18,18
18,18,18,18,18,18,18,18,18,18,18,18,18,18,18,18
18,18,18,18,18,18,18,18,18,18,18,18,18,18,18,18
18,18,18,18,18,18,18,18,18,18,18,18,18,18,18,18
18,18,18,0,0,0,0,0,0,0,0,0,18,18,18,18
18,18,18,0,0,18,18,18,1a,0,0,0,18,18,18,18
0,0,0,0,0,18,18,18,18,18,0,0,18,18,18,18
0,0,0,0,0,16,17,17,16,19,0,0,18,18,18,18
18,18,18,0,0,0,0,0,0,0,0,0,18,18,18,18
18,18,18,0,0,0,0,0,0,0,0,0,18,18,18,18
18,18,18,0,0,0,0,0,0,0,0,0,18,18,18,18
18,18,18,18,18,18,18,18,18,18,18,18,18,18,18,18
18,18,18,18,18,18,18,18,18,18,18,18,18,18,18,18
18,18,18,18,18,18,18,18,18,18,18,18,18,18,18,18
18,18,18,18,18,18,18,18,18,18,18,18,18,18,18,18
18,18,18,18,18,18,18,18,18,18,18,18,18,18,18,18
WAL 18
END undefined 0,6
END undefined 0,7
PAL 6

TIL 10
00000000
00000000
00000000
00000000
00000000
00000000
00000000
00000000

TIL 11
00000000
00000000
00000000
00000000
00000000
00000000
00000001
00000000

TIL 12
00000000
00011000
00100100
00100100
00111100
00100100
00100100
00000000

TIL 13
00000000
00000000
00000000
00000000
00000000
00000000
00000000
00000000

TIL 14
00000000
01111100
01000000
01111100
01000000
01000000
01111100
00000000

TIL 15
00000000
00000000
00100010
00100010
00100010
00010100
00001000
00000000

TIL 16
11111111
11111111
11111111
11111111
10000011
10111011
10101011
00111000

TIL 17
11111111
11111111
11111111
11111111
11111111
11111111
11111111
00000000

TIL 18
11111111
11111111
11111111
11111111
11111111
11111111
11111111
11111111

TIL 19
11111110
11111110
11111110
11111111
11111111
11111111
11111110
00000000

TIL a
11111111
11111111
11111111
00000000
11111111
11111111
11111111
11111111

TIL b
00000000
00011100
00100000
00100000
00100000
00100000
00011100
00000000

TIL c
00000000
00011000
00011000
00011000
00011000
00011000
00011000
00000000

TIL e
11111111
11111111
11111111
11111111
11111111
11111111
11111111
11111111

TIL f
00000000
00000000
00000000
11111111
11111111
11111111
11111111
11111111

TIL g
11110000
11110000
11110000
11111111
11111111
11111111
11111111
11111111

TIL h
11110000
11110000
11110000
11110000
11110000
11110000
11110000
11110000

TIL i
00000000
00000000
00000000
00000000
00000000
11111100
11110110
11110011

TIL j
11110001
11110000
11110000
11110000
11110000
11110000
11110000
11110000

TIL k
11000011
10000001
00000000
00000000
00000000
00000000
10000001
11000011
>
00100100
01000010
10000001
00000000
00000000
10000001
01000010
00100100

TIL l
00000001
00000000
00000000
00000000
00000000
00000000
00000000
10000000

TIL m
11111111
11111111
11111111
00000000
11111111
11111111
11111111
11111111

TIL n
00000000
00000000
00000000
00000000
00000000
00000000
00000000
00000000

TIL o
10000000
10000000
10000000
10000000
10000000
10000000
11111111
00000000

TIL p
10000000
10000000
10000000
10000000
10000000
10000000
10000000
10000000

TIL q
00000000
01111100
01000010
01000010
01000010
01000010
01111100
00000000

TIL r
00000000
11111111
10000000
10000000
10000000
10000000
10000000
10000000

TIL s
00000000
11111111
00000000
00000000
00000000
00000000
00000000
00000000

TIL t
00000000
11111111
00000001
00000001
00000001
00000001
00000001
00000001

TIL u
00000001
00000001
00000001
00000001
00000001
00000001
00000001
00000001

TIL v
00000001
00000001
00000001
00000001
00000001
00000001
11111111
00000000

TIL w
00000000
00000000
00000000
00000000
00000000
00000000
11111111
00000000

TIL x
00000000
01111000
01000100
01000100
01111000
01001000
01000100
00000000

TIL y
00000000
01000010
01100010
01010010
01001010
01000110
01000010
00000000

TIL z
00000000
01000100
01101000
01110000
01110000
01101000
01000100
00000000

TIL 1a
11000000
00100000
00010000
00001000
00000100
00000010
00000011
00000011

SPR 10
00000000
00011000
00011010
10111101
01011000
00011100
00110100
00100100
>
00000000
00011000
00011000
00111110
11011001
00011000
00100100
01000100
DLG SPR_o
POS 2 4,8

SPR 11
00000000
00000000
00111100
00111100
00111100
00111100
00111100
00111100
DLG SPR_p
POS 4 8,6

SPR 12
00000000
01100110
01100110
00000000
00000000
00111100
01000010
00000000
DLG SPR_q
POS 2 3,6

SPR 13
00011000
00111100
00011000
00111100
01011010
00011000
00100100
00100100
DLG SPR_r
POS 3 4,1

SPR 14
00011000
00011000
00111100
01111110
01100110
01000010
01000010
00000000

SPR 15
10000000
01011000
00111000
00011100
00011010
00011001
00011000
00011000
>
00000000
00011001
00011010
00111100
01011000
10011000
00100100
00100100
DLG SPR_s
POS 3 11,10

SPR 16
00000000
00000110
00000110
00000001
00000011
00000001
00000011
00000011
DLG SPR_t
POS 0 14,4

SPR 17
00000110
00000110
00000001
00000111
00000001
00000011
00000101
00000011
DLG SPR_u
POS 3 14,4

SPR 18
00000000
00000000
00000000
01111110
10111101
00010000
00000000
00000000
>
00000000
00000000
00000000
01111111
10111100
00001000
00000000
00000000
DLG SPR_v
POS 3 12,2

SPR 19
00000000
00011000
00011010
10111101
01011000
00011100
00110100
00100100
>
00000000
00011000
00011000
01111101
10011011
00011000
00101000
00010100
DLG SPR_w
POS 3 6,10

SPR A
00000000
00011000
00011000
01111100
10111110
10111101
01000100
01000100
>
00000000
00011000
00011000
01111110
10111101
01111100
00100100
00101000
POS 0 3,3

SPR a
00000000
00011000
01011010
00111110
00011000
00011000
00011000
00011000
>
00000000
00011000
00011000
00111110
01011010
00011000
00100100
00100100
DLG SPR_0
POS 0 8,13

SPR d
00000000
00011000
00011000
01111100
10011010
00011010
00011000
00011000
>
00000000
00011000
00011000
00111110
01011010
00011000
00100100
00100100
DLG SPR_d

SPR e
00000000
00011000
01011010
00111110
00011000
00011000
00011000
00011000
>
00000000
00011000
00011000
00111110
01011010
00011000
00100100
00100100
DLG SPR_1
POS 0 7,4

SPR f
00000000
00011100
00011100
00111100
01011000
00011000
00011000
00011000
>
00000000
00011000
00011010
00111110
01011000
00011000
00010100
00001010
DLG SPR_2
POS 0 5,7

SPR g
01100000
01100000
10000000
11100000
10000000
11000000
10100000
01100000
DLG SPR_3
POS 0 1,1

SPR h
10000000
01011000
00111000
00011100
00011010
00011001
00011000
00011000
>
00000000
00011001
00011010
00111100
01011000
10011000
00100100
00100100
DLG SPR_4
POS 0 12,12

SPR i
00000000
00011000
11111000
00011100
00011010
00011001
00010100
00100010
>
00000000
00011000
00011000
11111101
00011010
00011000
00101000
01000100
DLG SPR_5
POS 0 1,14

SPR j
00000000
00000000
00000000
01111110
10111101
00010000
00000000
00000000
>
00000000
00000000
00000000
01111111
10111100
00001000
00000000
00000000
DLG SPR_6
POS 0 12,2

SPR k
00000000
00011001
00011010
00111100
01011000
10011100
00110100
00100010
>
00000000
00011000
00011000
00111101
11011010
00011000
00101000
01000100
DLG SPR_7
POS 0 9,10

SPR l
00000000
00011000
01011000
10111101
00011010
00011100
00110100
00100100
>
00000000
10011000
01011001
00111110
00011000
00011000
00100100
01000100
DLG SPR_8
POS 0 12,9

SPR m
00000110
00000110
00000001
00000111
00000001
00000011
00000101
00000011
DLG SPR_9
POS 0 14,5

SPR n
00000000
00000110
00000110
00000001
00000011
00000001
00000011
00000011
DLG SPR_a
POS 3 14,5

SPR o
00000000
00011000
00011010
10111101
01011000
00011100
00110100
00100100
>
00000000
00011000
00011000
00111110
11011001
00011000
00100100
01000100
DLG SPR_b
POS 0 5,11

SPR p
00000000
00011000
00011010
10111101
01011000
00011100
00110100
00100100
>
00000000
00011000
00011000
01111101
10011011
00011000
00101000
00010100
DLG SPR_c
POS 0 2,9

SPR q
01100000
01100000
10000000
11100000
10000000
11000000
10100000
01100000
DLG SPR_e
POS 1 1,1

SPR r
00000000
00000000
00000000
01111110
10111101
00010000
00000000
00000000
>
00000000
00000000
00000000
01111111
10111100
00001000
00000000
00000000
DLG SPR_f
POS 1 12,2

SPR s
00000000
00011100
00011100
00111100
01011000
00011000
00011000
00011000
>
00000000
00011000
00011010
00111110
01011000
00011000
00010100
00001010
DLG SPR_g
POS 1 3,6

SPR t
00000110
00000110
00000001
00000111
00000001
00000011
00000101
00000011
DLG SPR_h
POS 1 14,5

SPR u
00000000
00000110
00000110
00000001
00000011
00000001
00000011
00000011
DLG SPR_i
POS 1 14,4

SPR v
00000000
00011000
00011010
10111101
01011000
00011100
00110100
00100100
>
00000000
00011000
00011000
01111101
10011011
00011000
00101000
00010100
DLG SPR_j
POS 1 9,11

SPR w
00000000
00011000
00011010
10111101
01011000
00011100
00110100
00100100
>
00000000
00011000
00011000
00111110
11011001
00011000
00100100
01000100
DLG SPR_k
POS 1 4,10

SPR x
10000000
01011000
00111000
00011100
00011010
00011001
00011000
00011000
>
00000000
00011001
00011010
00111100
01011000
10011000
00100100
00100100
DLG SPR_l
POS 1 13,13

SPR y
00000000
00011000
11111000
00011100
00011010
00011001
00010100
00100010
>
00000000
00011000
00011000
11111101
00011010
00011000
00101000
01000100
DLG SPR_m
POS 1 4,13

SPR z
00000000
10011001
01011010
00111100
00011000
00011000
00100100
01000010
>
00100100
00111100
00111100
00011000
00011000
00011000
00011000
00011000
DLG SPR_n
POS 1 7,14

SPR 1a
00000000
00011000
00011010
10111101
01011000
00011100
00110100
00100100
>
00000000
00011000
00011000
00111110
11011001
00011000
00100100
01000100
DLG SPR_x
POS 3 3,6

SPR 1b
01100000
01100000
10000000
11100000
10000000
11000000
10100000
01100000
DLG SPR_y
POS 3 1,3

SPR 1c
10000000
01011000
00111000
00011100
00011010
00011001
00011000
00011000
>
00000000
00011001
00011010
00111100
01011000
10011000
00100100
00100100
DLG SPR_z
POS 3 2,12

SPR 1d
00000000
00011100
00011100
00111100
01011000
00011000
00011000
00011000
>
00000000
00011000
00011010
00111110
01011000
00011000
00010100
00001010
DLG SPR_10
POS 3 14,11

SPR 1e
00000000
10011001
01011010
00111100
00011000
00011000
00100100
01000010
>
00100100
00111100
00111100
00011000
00011000
00011000
00011000
00011000
DLG SPR_11
POS 4 3,8

SPR 1f
00000000
00000000
00111100
00111100
00111100
00111100
00111100
00111100
DLG SPR_12
POS 2 8,6

SPR 1g
00000000
00011000
01011010
00111110
00011000
00011000
00011000
00011000
>
00000000
00011000
00011000
00111110
01011010
00011000
00100100
00100100

SPR 1h
00000000
00011000
00011000
01111110
01011010
00011000
00100100
00100100
DLG SPR_13
POS 5 3,7

SPR 1i
00000000
00011000
01011010
00111110
00011000
00011000
00011000
00011000
DLG SPR_14
POS 5 4,7

SPR 1j
00000000
10011001
01011010
00111100
00011000
00011000
00100100
01000010
DLG SPR_15
POS 5 5,7

SPR 1k
00000000
00011000
00011000
00011100
00011010
00011001
00011000
00011000
DLG SPR_16
POS 5 6,7

SPR 1l
00011000
00111100
00011000
00111100
01011010
00011000
00100100
00100100
DLG SPR_17
POS 5 12,9

SPR 1m
01100000
01100000
10000000
11100000
10000000
11000000
10100000
01100000
DLG SPR_18
POS 5 3,11

SPR 1n
00000000
00000110
00000110
00000001
00000011
00000001
00000011
00000011
DLG SPR_19
POS 5 12,11

SPR 1o
00000110
00000110
00000001
00000111
00000001
00000011
00000101
00000011
DLG SPR_1a
POS 5 12,7

SPR 1p
00000000
00000000
00000000
01111110
10111101
00010000
00000000
00000000
>
00000000
00000000
00000000
01111111
10111100
00001000
00000000
00000000
DLG SPR_1b
POS 5 7,7

SPR 1q
00000000
00011000
11111000
00011100
00011010
00011001
00010100
00100010
DLG SPR_1c
POS 5 8,7

SPR 1r
00000000
00011000
00011010
10111101
01011000
00011100
00110100
00100100
DLG SPR_1d
POS 5 9,7

SPR 1s
00000000
00011100
00011100
00111100
01011000
00011000
00011000
00011000
DLG SPR_1e
POS 5 6,10

SPR 1t
00000000
00011000
00011000
00111100
01011010
00011000
00010100
00010100
DLG SPR_1f
POS 6 6,8

ITM 0
00000000
00000000
00000000
00111100
01100100
00100100
00011000
00000000
DLG ITM_0

DLG SPR_0
What am I doing here? Why can't I stop dancing? 

DLG ITM_0
You got a cup of tea! Nice.

DLG SPR_1
What happened? All I remember is the crash... 

DLG SPR_2
What is this place? All I remember is the crash. 

DLG SPR_3
Don't talk to me. I don't interact with the meat.  

DLG SPR_4
This isn't right, this isn't right! *cries* 

DLG SPR_5
Please, just let the music stop. 

DLG SPR_6
Can I get you a drink? You're going to be here a long while. 

DLG SPR_7
Why are you here? Why are we here? Where is anyone here? 

DLG SPR_8
I love to dance! 

DLG SPR_9
It only gets worse, the further you go. 

DLG SPR_a
You always get this far. 

DLG SPR_b
It's so loud, but so beautiful 

DLG SPR_c
I can't breathe, I can't think. What are you?!? 

DLG SPR_d
... (blood gushes from his mouth. He appears to be chewing on his own tongue.) 

DLG SPR_e
I. Don't. Talk. To. Meat. 

DLG SPR_f
Is your mouth dry? Are you thinking about a drink?

DLG SPR_g
The driver, he jumped the central barrier, he came straight for me. 

DLG SPR_h
The deeper you go, the more you have to think about things. 

DLG SPR_i
How many times do you want to keep trying to remember? 

DLG SPR_j
They are hyperventilating, breath coming quick and fast

DLG SPR_k
I love to consume! 

DLG SPR_l
You again. Why do you keep doing this? 

DLG SPR_m
I remember crossing a road, headlights coming out of nowhere...

DLG SPR_n
He is laying on the ground. "I'm an angel!" 

DLG SPR_o
I love to... to... bleed! 

DLG SPR_p
You stagger into the bin, and vomit. Your head feels light. 

DLG SPR_q
Someone has sprayed a sad face on the vast, seemingly infinite wall.

DLG SPR_r
Some things you need to work out for yourself. 

DLG SPR_s
My intestines taste like meat!

DLG SPR_t
From here, it's just pain. 

DLG SPR_u
I always love watching what happens next, when the penny drops. 

DLG SPR_v
It's not often you decline a drink, is it? Are you already drunk? 

DLG SPR_w
The music, it sounds like, it sounds like a siren! 

DLG SPR_x
Their chest is slick with blood, they look at you. One eye is burst in its socket, ichor runs down their face. They dance on. 

DLG SPR_y
Your grand reveal is here, meat. 

DLG SPR_z
I just want to get home to my family! *sobs* 

DLG SPR_10
She has a pole through her chest. It scrapes on the ground loosely as she dances. 

DLG SPR_11
He is convulsing on the ground. Somewhere on the edge of hearing, you can pick up an electric whine. Their tongue, bitten off, is on the ground beside them. 

DLG SPR_12
Looking into the bin, you see vomit. Gross. 

DLG SPR_13
You did this, you do this to us. Again and again. 

DLG SPR_14
The car, it was yours. You were drunk, weren't you?

DLG SPR_15
We were in the car opposite, the four of us. We died instantly. We're here to remind you of what you did, to suffer for your enjoyment. 

DLG SPR_16
An arm is missing, carved up. "My baby, what did you do to my baby?!?" 

DLG SPR_17
Boy, seems to me you've got a problem. Now you know what you've done, you killed 20 people when you got drunk and ploughed a car through that fireworks show. 

DLG SPR_18
See you next time, meat. 

DLG SPR_19
Go this way, you'll forget it all. Next time, maybe have a drink and stop exploring eh? 

DLG SPR_1a
Go this way, and you can get back to your life. If you can wash the blood off your hands. 

DLG SPR_1b
You'll be wanting that drink now, I suppose? You've had enough.

DLG SPR_1c
I was going to propose tonight.We were going to be together forever. 

DLG SPR_1d
She's holding human detritus that's spilling forth from a wound in her stomach and crying uncontrollably. 

DLG SPR_1e
She doesn't respond. She's coated in blood. 

DLG SPR_1f
You okay buddy? Can you walk? You look mostly unhurt, better than I can say for the others.

END 0


END undefined
You never talk about what you saw that day again. The police clear you, mercifully the breathalizer at the scene was broken, so no one asks any further questions. 

