       V A C A N C Y

# BITSY VERSION 5.1

! ROOM_FORMAT 1

PAL 0
NAME normal
232,148,128
143,88,37
143,88,37

PAL 1
NAME indoorsDark
112,124,143
95,93,106
95,93,106

PAL 2
NAME indoorsLight
223,224,208
182,154,73
182,154,73

PAL 3
NAME night
110,102,173
70,49,122
255,249,235

PAL 4
NAME explode
255,255,255
222,190,172
255,255,255

PAL 5
NAME nightdark
110,102,173
70,49,122
70,49,122

ROOM 0
a,a,a,a,a,a,a,a,a,a,a,a,a,a,a,a
a,a,a,a,a,22,22,1a,1a,1b,a,a,a,a,a,a
a,a,a,a,22,10,z,y,i,a,a,k,a,a,a,a
a,a,23,20,0,11,0,w,a,a,j,1p,g,a,a,a
a,a,1z,21,25,11,0,x,a,a,o,o,o,a,a,a
a,a,24,25,25,12,13,14,a,a,q,r,s,a,a,a
a,a,18,25,0,0,1n,1l,1m,1q,25,0,0,a,a,a
a,a,t,25,25,0,0,1n,1l,1r,p,1s,1w,1x,a,a
a,a,1c,t,0,0,0,0,0,1e,1e,1t,1v,15,a,a
a,a,a,a,t,0,0,0,0,0,1o,1e,1u,1y,a,a
a,a,a,1c,a,t,0,0,0,0,0,1e,1e,17,a,a
a,a,a,a,a,1c,t,0,0,1k,0,0,1o,16,a,a
a,a,a,a,a,a,a,t,0,0,0,1j,0,17,a,a
a,a,a,a,a,a,a,1c,t,v,u,u,v,1d,a,a
a,a,a,a,a,a,a,a,a,a,a,a,a,a,a,a
a,a,a,a,a,a,a,a,a,a,a,a,a,a,a,a
NAME HotelExterior001
ITM 1 12,9
ITM 4 5,6
EXT 9,7 4 5,9
EXT 9,6 4 5,9
EXT 11,13 1 3,5
EXT 12,13 1 3,5
EXT 10,13 1 3,5
EXT 9,13 1 3,5
EXT 13,13 1 3,5
EXT 8,13 1 3,5
PAL 0

ROOM 1
a,a,a,a,a,a,a,a,2d,2e,2f,a,a,a,a,a
a,a,a,a,a,a,a,h,2c,28,28,g,a,a,a,a
a,a,a,19,1u,1y,a,a,a,p,p,0,g,a,a,a
a,a,2x,1e,1e,0,0,a,a,h,d,d,d,27,a,a
a,19,2t,0,1e,1e,2r,a,2g,a,28,o,o,28,a,a
a,2w,2t,0,0,1o,1e,a,2i,2h,28,o,o,28,a,a
a,2v,2u,0,0,1n,1l,1m,1q,a,28,h,2q,2p,g,a
a,t,2t,0,0,0,1n,1l,1r,a,28,a,h,d,d,27
a,1c,2s,0,0,0,0,1n,1l,1m,p,2g,a,2n,0,1d
a,a,1c,t,0,0,0,0,0,1e,1e,2i,2h,2o,17,a
a,a,a,a,t,0,0,0,0,1n,1l,1m,1q,25,17,a
a,a,a,a,a,t,1k,0,0,0,1n,1l,1r,2j,2l,a
a,a,a,a,a,a,t,0,0,0,0,0,2z,2k,2m,a
a,a,a,a,a,a,a,t,u,v,0,1j,0,16,1c,a
a,a,a,a,a,a,1c,a,a,1c,t,u,u,1d,a,a
a,a,a,a,a,a,a,a,a,a,a,a,a,a,a,a
NAME Street001
ITM 7 5,8
EXT 5,4 0 10,12
EXT 4,4 0 10,12
EXT 3,4 0 10,12
EXT 6,4 0 10,12
EXT 8,6 6 7,11
EXT 8,7 6 7,11
EXT 12,10 7 7,11
EXT 12,11 7 7,11
EXT 11,14 2 4,5
EXT 12,14 2 4,5
EXT 13,14 2 4,5
PAL 0

ROOM 2
a,a,a,a,a,a,a,a,a,a,a,a,a,a,a,a
a,a,a,a,a,a,a,a,a,a,a,a,a,a,a,a
a,a,a,a,a,a,a,a,a,a,a,a,a,a,a,a
a,a,3k,1a,1a,1a,1a,1a,15,1c,a,a,a,a,a,a
a,a,18,1o,1e,2r,2r,2y,2y,15,a,a,a,a,a,a
a,a,18,2r,3j,0,2q,0,2y,0,15,a,a,a,a,a
a,a,t,2q,2r,0,2r,0,2q,2r,2y,15,1c,a,a,a
a,a,1c,18,2q,2r,0,2r,0,0,2y,0,15,a,a,a
a,a,a,18,2y,0,0,0,2r,0,0,2r,2r,15,a,a
a,a,a,t,0,2y,2r,0,0,2q,2q,2r,2y,16,a,a
a,a,a,a,t,0,2y,2y,0,2y,0,2q,2r,16,1c,a
a,a,a,a,1c,t,2q,2y,2r,2y,2y,2r,2y,16,a,a
a,a,a,a,a,a,t,3g,3g,v,3g,v,u,1d,a,a
a,a,a,a,a,a,a,a,1c,a,a,a,a,a,a,a
a,a,a,a,a,a,a,a,a,a,a,a,a,a,a,a
a,a,a,a,a,a,a,a,a,a,a,a,a,a,a,a
NAME Field001
ITM 2 10,8
EXT 7,12 3 5,5
EXT 8,12 3 5,5
EXT 9,12 3 5,5
EXT 10,12 3 5,5
EXT 11,12 3 5,5
EXT 12,12 3 5,5
EXT 13,12 3 5,5
EXT 4,4 1 11,13
EXT 3,4 1 11,13
EXT 5,4 1 11,13
PAL 0

ROOM 3
a,a,a,a,a,a,a,a,a,a,a,a,a,a,a,a
a,a,a,a,a,a,a,a,a,a,a,a,a,a,a,a
a,a,a,a,a,a,a,a,a,a,a,a,a,a,a,a
a,a,19,1a,1a,1a,1a,15,3e,3d,a,a,a,a,a,a
a,a,18,2y,0,2y,2r,2y,3f,3c,3b,3a,a,a,a,a
a,a,18,2y,2y,0,2q,2r,30,3h,25,39,38,a,a,a
a,a,t,2q,2y,2y,2r,2r,2q,31,3i,37,36,a,a,a
a,a,1c,18,2y,2y,0,2r,2r,34,32,33,35,a,a,a
a,a,a,t,2y,2y,2y,0,2y,2r,2r,2y,2r,15,a,a
a,a,a,a,t,2y,2y,2y,2y,2q,2y,2y,2y,16,a,a
a,a,a,a,a,t,u,u,3g,u,3g,u,3g,1d,a,a
a,a,a,a,a,a,a,a,a,a,a,a,a,a,a,a
a,a,a,a,a,a,a,a,a,a,a,a,a,a,a,a
a,a,a,a,a,a,a,a,a,a,a,a,a,a,a,a
a,a,a,a,a,a,a,a,a,a,a,a,a,a,a,a
a,a,a,a,a,a,a,a,a,a,a,a,a,a,a,a
NAME CarField001
ITM 3 9,5
EXT 3,4 2 10,11
EXT 4,4 2 10,11
EXT 5,4 2 10,11
EXT 6,4 2 10,11
PAL 0

ROOM 4
a,a,a,a,a,a,a,a,a,a,a,a,a,a,a,a
a,a,a,a,a,a,a,a,a,a,a,a,a,a,a,a
a,a,a,a,a,a,a,a,a,a,a,a,a,a,a,a
a,a,a,a,a,a,a,a,a,a,a,a,a,a,a,a
a,a,a,a,a,a,a,j,3o,40,43,a,a,a,a,a
a,a,a,a,a,a,j,25,3o,41,42,a,a,a,a,a
a,a,a,a,a,j,25,45,3n,3w,3x,a,a,a,a,a
a,a,a,a,j,3u,3t,44,3y,3z,3z,a,a,a,a,a
a,a,a,j,3r,3s,3v,0,0,46,47,a,a,a,a,a
a,a,a,25,3q,3l,0,0,46,47,47,a,a,a,a,a
a,a,a,25,3p,25,0,46,47,47,47,a,a,a,a,a
a,a,a,a,a,a,a,a,a,a,a,a,a,a,a,a
a,a,a,a,a,a,a,a,a,a,a,a,a,a,a,a
a,a,a,a,a,a,a,a,a,a,a,a,a,a,a,a
a,a,a,a,a,a,a,a,a,a,a,a,a,a,a,a
a,a,a,a,a,a,a,a,a,a,a,a,a,a,a,a
NAME hotelInt
ITM 6 6,9
EXT 4,9 0 8,7
EXT 4,10 0 8,7
PAL 2

ROOM 5
a,a,a,a,a,a,a,a,a,a,a,a,a,a,a,a
a,a,a,a,a,a,a,a,a,a,a,a,a,a,a,a
a,a,a,a,a,a,a,a,a,a,a,a,a,a,a,a
a,a,a,a,a,a,a,a,a,a,a,a,a,a,a,a
a,a,a,a,a,a,a,j,3o,40,43,a,a,a,a,a
a,a,a,a,a,a,j,5w,3o,41,42,a,a,a,a,a
a,a,a,a,a,j,25,5v,3n,3w,3x,a,a,a,a,a
a,a,a,a,j,3u,3t,44,3y,3z,3z,a,a,a,a,a
a,a,a,j,3r,3s,3v,0,0,46,47,a,a,a,a,a
a,a,a,25,3q,3l,0,0,46,47,47,a,a,a,a,a
a,a,a,25,3p,0,0,46,47,47,47,a,a,a,a,a
a,a,a,a,a,a,a,a,a,a,a,a,a,a,a,a
a,a,a,a,a,a,a,a,a,a,a,a,a,a,a,a
a,a,a,a,a,a,a,a,a,a,a,a,a,a,a,a
a,a,a,a,a,a,a,a,a,a,a,a,a,a,a,a
a,a,a,a,a,a,a,a,a,a,a,a,a,a,a,a
NAME hotelInt3
EXT 4,10 a 8,7
EXT 4,9 a 8,7
PAL 1

ROOM 6
a,a,a,a,a,a,a,a,a,a,a,a,a,a,a,a
a,a,a,a,a,a,a,a,a,a,a,a,a,a,a,a
a,a,a,a,a,a,a,a,a,a,a,a,a,a,a,a
a,a,a,0,0,4b,4e,0,4f,g,a,a,a,a,a,a
a,a,a,0,0,4a,4b,4e,4f,0,g,a,a,a,a,a
a,a,a,56,57,4a,4a,4d,4r,4y,0,g,a,a,a,a
a,a,a,58,59,4a,4a,4d,4f,0,50,0,g,a,a,a
a,a,a,4t,4t,49,4a,4d,4s,4z,53,51,0,a,a,a
a,a,a,48,55,0,49,4c,0,4g,54,52,0,a,a,a
a,a,a,a,48,55,0,0,4h,4l,4g,0,0,a,a,a
a,a,a,a,a,48,4v,4w,4j,4i,4l,4g,0,a,a,a
a,a,a,a,a,a,4u,4x,0,4k,4i,4n,4o,a,a,a
a,a,a,a,a,a,a,48,0,0,4k,4p,4q,a,a,a
a,a,a,a,a,a,a,a,a,a,a,a,a,a,a,a
a,a,a,a,a,a,a,a,a,a,a,a,a,a,a,a
a,a,a,a,a,a,a,a,a,a,a,a,a,a,a,a
NAME BrewInt
EXT 6,11 1 7,7
EXT 6,10 1 7,7
PAL 2

ROOM 7
a,a,a,a,a,a,a,a,a,a,a,a,a,a,a,a
a,a,a,a,a,a,a,a,a,a,a,a,a,a,a,a
a,a,a,a,a,a,a,a,a,a,a,a,a,a,a,a
a,a,a,a,a,a,a,a,a,a,a,a,a,a,a,a
a,a,a,a,a,a,a,a,a,a,a,a,a,a,a,a
a,a,a,5k,5k,5k,5k,5j,5m,a,a,a,a,a,a,a
a,a,a,5h,5h,5h,5h,5i,3o,g,a,a,a,a,a,a
a,a,a,5f,5f,5l,5f,5e,3o,5n,g,a,a,a,a,a
a,a,a,5g,5c,5c,5c,5d,4g,5o,5n,g,a,a,a,a
a,a,a,a,48,5a,5b,0,5a,5b,5o,5n,g,a,a,a
a,a,a,a,a,48,4v,4w,0,0,5s,5p,5q,a,a,a
a,a,a,a,a,a,4u,4x,0,5a,5b,5t,5r,a,a,a
a,a,a,a,a,a,a,48,0,0,0,0,4g,a,a,a
a,a,a,a,a,a,a,a,a,a,a,a,a,a,a,a
a,a,a,a,a,a,a,a,a,a,a,a,a,a,a,a
a,a,a,a,a,a,a,a,a,a,a,a,a,a,a,a
NAME CofInt
EXT 6,11 1 11,11
EXT 6,10 1 11,11
PAL 2

ROOM 8
a,a,a,a,a,a,a,a,a,a,a,a,a,a,a,a
a,a,a,a,a,a,a,a,a,a,a,a,a,a,a,a
a,a,a,a,a,a,a,a,a,a,a,a,a,a,a,a
a,a,a,a,a,a,a,a,a,a,a,a,a,a,a,a
a,a,a,a,a,a,a,j,3o,40,43,a,a,a,a,a
a,a,a,a,a,a,j,0,3o,41,42,a,a,a,a,a
a,a,a,a,a,j,25,45,3n,3w,3x,a,a,a,a,a
a,a,a,a,j,3u,3t,44,3y,3z,3z,a,a,a,a,a
a,a,a,j,3r,3s,3v,0,0,46,47,a,a,a,a,a
a,a,a,25,3q,3l,0,0,46,47,47,a,a,a,a,a
a,a,a,25,3p,0,0,46,47,47,47,a,a,a,a,a
a,a,a,a,a,a,a,a,a,a,a,a,a,a,a,a
a,a,a,a,a,a,a,a,a,a,a,a,a,a,a,a
a,a,a,a,a,a,a,a,a,a,a,a,a,a,a,a
a,a,a,a,a,a,a,a,a,a,a,a,a,a,a,a
a,a,a,a,a,a,a,a,a,a,a,a,a,a,a,a
NAME hotelInt2
EXT 4,9 9 7,7
EXT 4,10 9 7,7
PAL 2

ROOM 9
a,a,a,a,a,a,a,a,a,a,a,a,a,a,a,a
a,a,a,a,a,22,22,1a,1a,1b,a,a,a,a,a,a
a,a,a,a,22,10,z,y,i,a,a,k,a,a,a,a
a,a,23,20,0,11,0,w,a,a,j,1p,g,a,a,a
a,a,1z,21,25,11,0,x,a,a,o,o,o,a,a,a
a,a,24,25,25,12,13,14,a,a,q,r,s,a,a,a
a,a,18,25,0,0,1n,1l,1m,1q,25,0,0,a,a,a
a,a,t,25,25,0,0,1n,1l,1r,p,1s,1w,1x,a,a
a,a,1c,t,0,0,0,0,0,1e,1e,1t,1v,15,a,a
a,a,a,a,t,0,0,0,0,0,1o,1e,1u,1y,a,a
a,a,a,1c,a,t,0,0,0,0,0,1e,1e,17,a,a
a,a,a,a,a,1c,t,0,0,1k,0,0,1o,16,a,a
a,a,a,a,a,a,a,t,0,0,0,1j,0,17,a,a
a,a,a,a,a,a,a,1c,t,v,u,u,v,1d,a,a
a,a,a,a,a,a,a,a,a,a,a,a,a,a,a,a
a,a,a,a,a,a,a,a,a,a,a,a,a,a,a,a
NAME HotelExt002
ITM 5 6,6
PAL 3

ROOM a
a,a,a,a,a,a,a,a,a,a,a,a,a,a,a,a
a,a,a,a,a,22,22,1a,1a,1b,a,a,a,a,a,a
a,a,a,a,22,10,z,y,i,a,a,k,a,a,a,a
a,a,23,20,0,11,0,w,a,a,j,1p,g,a,a,a
a,a,1z,21,25,11,0,x,a,a,o,o,o,a,a,a
a,a,24,25,25,12,13,14,a,a,q,r,s,a,a,a
a,a,18,25,0,0,1n,1l,1m,1q,25,0,0,a,a,a
a,a,t,25,25,0,0,1n,1l,1r,p,1s,1w,1x,a,a
a,a,1c,t,0,0,0,0,0,1e,1e,1t,1v,15,a,a
a,a,a,a,t,0,0,0,0,0,1o,1e,1u,1y,a,a
a,a,a,1c,a,t,0,0,0,0,0,1e,1e,17,a,a
a,a,a,a,a,1c,t,0,0,1k,0,0,1o,16,a,a
a,a,a,a,a,a,a,t,0,0,0,1j,0,17,a,a
a,a,a,a,a,a,a,1c,t,v,u,u,v,1d,a,a
a,a,a,a,a,a,a,a,a,a,a,a,a,a,a,a
a,a,a,a,a,a,a,a,a,a,a,a,a,a,a,a
NAME HotelExt003
EXT 9,7 5 5,10
EXT 9,6 5 5,10
EXT 9,13 b 4,5
EXT 10,13 b 4,5
EXT 11,13 b 4,5
EXT 12,13 b 4,5
EXT 13,13 b 4,5
PAL 5

ROOM b
a,a,a,a,a,a,a,a,2d,2e,2f,a,a,a,a,a
a,a,a,a,a,a,a,h,2c,28,28,g,a,a,a,a
a,a,a,19,1u,1y,a,a,a,p,p,0,g,a,a,a
a,a,2x,1e,1e,0,0,a,a,h,d,d,d,27,a,a
a,19,2t,0,1e,1e,2r,a,2g,a,28,o,o,28,a,a
a,2w,2t,0,0,1o,1e,a,2i,2h,28,o,o,28,a,a
a,2v,2u,0,0,1n,1l,1m,1q,a,28,h,2q,2p,g,a
a,t,2t,0,0,0,1n,1l,1r,a,28,a,h,d,d,27
a,1c,2s,0,0,0,0,1n,1l,1m,p,2g,a,2n,0,1d
a,a,1c,t,0,0,0,0,0,1e,1e,2i,2h,2o,17,a
a,a,a,a,t,0,0,0,0,1n,1l,1m,1q,25,17,a
a,a,a,a,a,t,1k,0,0,0,1n,1l,1r,2j,2l,a
a,a,a,a,a,a,t,0,0,0,0,0,2z,2k,2m,a
a,a,a,a,a,a,a,t,u,v,0,1j,0,16,1c,a
a,a,a,a,a,a,1c,a,a,1c,t,u,u,1d,a,a
a,a,a,a,a,a,a,a,a,a,a,a,a,a,a,a
NAME Street02
EXT 5,4 a 9,12
EXT 4,4 a 9,12
EXT 6,4 a 9,12
EXT 8,6 e 7,11
EXT 8,7 e 7,11
EXT 12,10 f 7,11
EXT 12,11 f 7,11
EXT 11,14 c 4,5
EXT 12,14 c 4,5
EXT 13,14 c 4,5
EXT 3,4 a 9,12
PAL 5

ROOM c
a,a,a,a,a,a,a,a,a,a,a,a,a,a,a,a
a,a,a,a,a,a,a,a,a,a,a,a,a,a,a,a
a,a,a,a,a,a,a,a,a,a,a,a,a,a,a,a
a,a,3k,1a,1a,1a,1a,1a,15,1c,a,a,a,a,a,a
a,a,18,1o,1e,2r,2r,2q,6a,15,a,a,a,a,a,a
a,a,18,2r,3j,0,2q,0,2q,0,15,a,a,a,a,a
a,a,t,2q,2r,0,2r,0,2q,2r,2y,15,1c,a,a,a
a,a,1c,18,2q,2r,0,2r,0,0,69,0,15,a,a,a
a,a,a,18,1k,60,0,5y,2r,5z,0,61,2r,15,a,a
a,a,a,t,0,2q,2r,0,5x,2q,62,2r,2y,16,a,a
a,a,a,a,t,0,68,2q,0,64,63,2q,2r,16,1c,a
a,a,a,a,1c,t,66,67,65,2q,2y,2r,2q,16,a,a
a,a,a,a,a,a,t,3g,3g,u,3g,v,u,1d,a,a
a,a,a,a,a,a,a,a,1c,a,a,a,a,a,a,a
a,a,a,a,a,a,a,a,a,a,a,a,a,a,a,a
a,a,a,a,a,a,a,a,a,a,a,a,a,a,a,a
NAME Field002
END undefined 4,5
END undefined 4,4
END undefined 3,4
PAL 3

ROOM e
a,a,a,a,a,a,a,a,a,a,a,a,a,a,a,a
a,a,a,a,a,a,a,a,a,a,a,a,a,a,a,a
a,a,a,a,a,a,a,a,a,a,a,a,a,a,a,a
a,a,a,0,0,4b,4e,0,4f,g,a,a,a,a,a,a
a,a,a,0,0,4a,4b,4e,4f,0,g,a,a,a,a,a
a,a,a,56,57,4a,4a,4d,4r,4y,0,g,a,a,a,a
a,a,a,58,59,4a,4a,4d,4f,0,50,0,g,a,a,a
a,a,a,4t,4t,49,4a,4d,4s,4z,53,51,0,a,a,a
a,a,a,48,55,0,49,4c,0,4g,54,52,0,a,a,a
a,a,a,a,48,55,0,0,4h,4l,4g,0,0,a,a,a
a,a,a,a,a,48,4v,4w,4j,4i,4l,4g,0,a,a,a
a,a,a,a,a,a,4u,4x,0,4k,4i,4n,4o,a,a,a
a,a,a,a,a,a,a,48,0,0,4k,4p,4q,a,a,a
a,a,a,a,a,a,a,a,a,a,a,a,a,a,a,a
a,a,a,a,a,a,a,a,a,a,a,a,a,a,a,a
a,a,a,a,a,a,a,a,a,a,a,a,a,a,a,a
NAME BrewInt02
EXT 6,11 b 7,7
EXT 6,10 b 7,7
PAL 1

ROOM f
a,a,a,a,a,a,a,a,a,a,a,a,a,a,a,a
a,a,a,a,a,a,a,a,a,a,a,a,a,a,a,a
a,a,a,a,a,a,a,a,a,a,a,a,a,a,a,a
a,a,a,a,a,a,a,a,a,a,a,a,a,a,a,a
a,a,a,a,a,a,a,a,a,a,a,a,a,a,a,a
a,a,a,5k,5k,5k,5k,5j,5m,a,a,a,a,a,a,a
a,a,a,5h,5h,5h,5h,5i,3o,g,a,a,a,a,a,a
a,a,a,5f,5f,5l,5f,5e,3o,5n,g,a,a,a,a,a
a,a,a,5g,5c,5c,5c,5d,4g,5o,5n,g,a,a,a,a
a,a,a,a,48,5a,5b,0,5a,5b,5o,5n,g,a,a,a
a,a,a,a,a,48,4v,4w,0,0,5s,5p,5q,a,a,a
a,a,a,a,a,a,4u,4x,0,5a,5b,5t,5r,a,a,a
a,a,a,a,a,a,a,48,0,0,0,0,4g,a,a,a
a,a,a,a,a,a,a,a,a,a,a,a,a,a,a,a
a,a,a,a,a,a,a,a,a,a,a,a,a,a,a,a
a,a,a,a,a,a,a,a,a,a,a,a,a,a,a,a
NAME CofInt02
EXT 6,11 b 11,11
EXT 6,10 b 11,11
PAL 1

ROOM g
a,a,a,a,a,a,a,a,a,a,a,a,a,a,a,a
a,a,a,a,a,22,22,1a,1a,1b,a,a,a,a,a,a
a,a,a,a,22,10,z,y,i,a,a,k,a,a,a,a
a,a,23,20,0,11,0,w,a,a,j,1p,g,a,a,a
a,a,1z,21,25,11,0,x,a,a,o,o,o,a,a,a
a,a,24,25,25,12,13,14,a,a,q,r,s,a,a,a
a,a,18,25,0,0,1n,1l,1m,1q,25,0,0,a,a,a
a,a,t,25,25,0,0,1n,1l,1r,p,1s,1w,1x,a,a
a,a,1c,t,0,0,0,0,0,1e,1e,1t,1v,15,a,a
a,a,a,a,t,0,0,0,0,0,1o,1e,1u,1y,a,a
a,a,a,1c,a,t,0,0,0,0,0,1e,1e,17,a,a
a,a,a,a,a,1c,t,0,0,1k,0,0,1o,16,a,a
a,a,a,a,a,a,a,t,0,0,0,1j,0,17,a,a
a,a,a,a,a,a,a,1c,t,v,u,u,v,1d,a,a
a,a,a,a,a,a,a,a,a,a,a,a,a,a,a,a
a,a,a,a,a,a,a,a,a,a,a,a,a,a,a,a
NAME explode001
EXT 9,7 5 5,10
EXT 9,6 5 5,10
PAL 4

TIL 10
00000000
00000000
00000000
00000000
00000001
00000000
00000001
00000011

TIL 11
10000011
01000011
00000011
00010011
00000011
00000011
00000011
00000011

TIL 12
00000011
00000001
00000000
00000000
00000000
00000000
00000000
00000000
WAL true

TIL 13
11111111
11111111
00000000
00010000
00001000
00000100
00000010
00000001
WAL true

TIL 14
11000000
10000000
00000000
00010000
00001000
00000100
00000010
00000001
WAL true

TIL 15
11111111
01011011
01101101
00010111
01100111
00011011
00001011
00000011
WAL true

TIL 16
00001011
00000001
00001011
00000101
00001011
00000010
00000011
00000001
WAL true

TIL 17
00000001
00000100
00000111
00000011
00000001
00001001
00000011
00000001
WAL true

TIL 18
01100000
11010000
11101000
11000000
11110000
11100000
01000000
11100000
WAL true

TIL 19
11110111
10110111
10100101
11110000
10001000
11000000
11100000
11000000
WAL true

TIL 20
11111110
11111111
01111101
00011000
00111000
01110000
11100000
11000000
WAL true

TIL 21
11000000
10000000
00000000
00000000
00000000
00000000
00000000
00000000

TIL 22
11111110
11111111
11111111
11111110
10111100
11000000
10110000
00000000
>
11111110
11111111
11111111
11111110
10111100
11000010
10100000
00010000
WAL true

TIL 23
11011111
01010111
00010001
00010011
00011110
00111100
00111001
00110000
WAL true

TIL 24
11111100
11111000
11110000
11100000
11100000
11100000
11000000
11000000
WAL true

TIL 25
00000000
00000000
00000000
00000000
00000000
00000000
00000000
00000000
NAME blank wall
WAL true

TIL 26
10000000
01000000
00100000
00010000
00001000
00000100
11111110
11111111

TIL 27
01111111
00111111
00011111
00001111
00000111
00000011
11111111
11111111

TIL 28
00110110
10000001
11011000
00001100
10110001
00000000
01100110
00000000
WAL true

TIL 29
00000000
00000000
00000000
00000000
00000000
00000000
00000000
11111111

TIL 30
10000000
01100000
01100000
01110000
01111000
01111100
00110010
00000001

TIL 31
11000100
01011000
00111000
00010000
00001000
00000100
00001110
00001111

TIL 32
10001000
11010100
00101010
00010101
00001010
00001010
00001000
00000000
>
10000010
11001010
00101010
00010101
00001010
00001010
00001000
00000000
WAL true

TIL 33
00111100
00111100
00000000
11111111
00000000
00000000
00000000
00000000
WAL true

TIL 34
00000111
00000111
00000000
00000000
00000000
00000000
00000000
00000000

TIL 35
00000100
00000100
00000100
11111100
00000000
00000000
00000000
00000000
WAL true

TIL 36
00111111
00111111
00111111
00011111
10001111
00000111
00000111
00000111

TIL 37
10111011
11110101
11001111
00000000
10101010
00000000
00000000
00000000

TIL 38
11111111
11111111
11111111
11111111
01111111
00111111
00111111
00111111

TIL 39
00000111
00000011
00000001
00000000
00000000
00000000
00000000
00000000

TIL 40
00000000
00000000
00000000
00011111
00011000
00010000
00010000
00010000
NAME int16

TIL 41
00010000
00010000
00011000
00011111
00000000
00000000
00000000
00000000
NAME int17

TIL 42
00010000
00010000
00110000
11110000
00000000
00000000
00000000
00000000
NAME int18

TIL 43
00000000
00000000
00000000
11110000
00110000
00010000
00010000
00010000
NAME int19

TIL 44
00111101
00111010
00110100
00001000
00010000
00100000
01000000
10000000
NAME int fusebox

TIL 45
00000000
00001100
00011100
00110100
00110100
00111100
00111100
00111100
>
00000000
00001100
00011100
00111100
00111100
00111100
00111100
00111100
NAME int fusebox 2
WAL false

TIL 46
00000000
00000101
00000000
00011111
00000000
00101010
00000000
11111111
NAME int20

TIL 47
00000000
01010101
00000000
11111111
00000000
10101010
00000000
11111111
NAME int21

TIL 48
10000000
11000000
11100000
11110000
11111000
11111100
11111110
11111111
NAME brew1
WAL true

TIL 49
01000000
01000000
01000000
01000000
01000000
01000000
01100000
00111111
NAME brew2
WAL true

TIL 50
10000000
11000000
10100000
10010000
10001000
10100100
10110010
10101001

TIL 51
10000000
01000000
00100000
00010000
01001000
01100100
01010100
01100100

TIL 52
01010100
01010100
00010100
10000100
01000100
00100100
00010100
00001100

TIL 53
10110000
10101010
10101011
10011010
01000011
00100010
00010001
00001000

TIL 54
00000100
00000010
00000001
00000000
00000000
00000000
00000000
00000000

TIL 55
00000000
01111100
10000010
10000010
11111110
00010000
00101000
01000100
WAL true

TIL 56
00011111
00011000
00010001
00010110
00010100
00010111
00010010
00010011

TIL 57
11111000
00011000
11001000
01001000
10101000
11101000
11001000
01001000

TIL 58
00010010
00010011
00010011
00010011
00010000
00010000
00011000
00011111

TIL 59
11001000
11001000
11001000
11001000
00001000
00001000
00011000
11111000

TIL 60
00000000
00000000
00000000
00000000
00000000
00000000
01010011
10111111

TIL 61
00001000
00001000
00000000
00000000
00000000
00000000
11110101
11111010

TIL 62
00000000
00000000
00000000
00010010
00000000
00000000
10000000
11100000

TIL 63
11100000
11110000
11111000
01111000
01111000
00001110
00011110
00011100

TIL 64
00000011
00000001
00000000
00000000
00000000
01000000
00001000
00000000

TIL 65
00011110
00011110
00011110
00111110
01011010
00011010
00010000
00101010

TIL 66
00000011
00000111
00001111
00011110
11111000
11100000
01101000
00000000

TIL 67
11100000
11000000
10000000
00000010
00010010
00001010
00001010
00000000
>
11100000
11000000
10000000
00000001
00001010
00001010
00001010
00000000

TIL 68
00000000
00000000
00000000
00000000
00000000
00000000
00000001
00000011

TIL 69
00000000
00101101
11111100
11111000
11100000
11000000
10000000
00000000

TIL a
11111111
11111111
11111111
11111111
11111111
11111111
11111111
11111111
NAME fill wall
WAL true

TIL b
00000011
00000011
00000011
00000011
00000011
00000011
00000011
00000011

TIL c
11000000
11100000
01110000
00111000
00011100
00001110
00000111
00000011

TIL d
00000000
00000000
00000000
00000000
00000000
00000000
11111111
11111111

TIL e
00000011
00000001
00000000
00000000
00000000
00000000
00000000
00000000

TIL f
11000000
11000000
11000000
11000000
11000000
11000000
11000000
11000000

TIL g
01111111
00111111
00011111
00001111
00000111
00000011
00000001
00000000

TIL h
11000000
11100000
11110000
11111000
11111100
11111110
11111111
11111111

TIL i
00000001
00000011
00000111
00001111
00011111
00111111
01111111
11111111

TIL j
11111110
11111100
11111000
11110000
11100000
11000000
10000000
00000000

TIL k
11111111
11111111
11111111
11111111
11100111
11000011
10000001
00000000

TIL o
00000000
00100010
01010101
01010101
01010101
01010101
01110111
00000000

TIL p
00110110
10000001
11011000
00001100
10110001
00011000
11111111
11111111
WAL true

TIL q
00000000
00001111
00001000
00001010
00001011
00001010
00001000
00001111

TIL r
00000000
11111111
00000000
10111010
10010010
10010011
00000000
11111111

TIL s
00000000
11110000
00010000
00010000
00010000
10010000
00010000
11110000

TIL t
00100000
10100000
01000000
11100100
01010010
11001010
10110011
11111101
WAL true

TIL u
00000000
00000000
00000000
00000000
00100101
10001000
11010010
11111111

TIL v
00000000
00000000
00000000
00000000
01000101
10101100
10111010
11101101

TIL w
11000000
11111111
11111111
11000000
11000000
11000000
11000000
11000000

TIL x
11000000
11000000
11000000
11000000
11000000
11111111
11111111
11000000

TIL y
00000000
00000000
00000000
00000000
10000000
00000000
10000000
11000000

TIL z
00000000
00000000
00011000
10100101
01100110
10011001
11111111
11111111

TIL 1a
11110111
10111111
10100110
11110000
00000010
00000000
00000000
00000000
WAL true

TIL 1b
11110111
10111111
10100111
11111111
00011111
00011111
00111111
11111111

TIL 1c
11111111
11110110
11111110
11111111
11111011
10111111
11111111
11111111
WAL true

TIL 1d
00000001
00000001
00100100
00010011
00011001
00000101
01011001
11111111

TIL 1e
10000000
01000000
00100000
00010000
00001000
00000100
00000010
00000001

TIL 1j
11000000
00000000
00000000
00101100
00000000
00000000
00000000
00000000

TIL 1k
00000000
00000110
01000000
00000000
00000000
00110000
00000000
00000000

TIL 1l
11111111
01000000
10111111
00010000
11001111
00000100
01101011
00000001

TIL 1m
01111111
00111111
11111111
00001111
11111111
00000011
11111111
00000001

TIL 1n
10101010
00000000
10100100
00000000
00001001
00000000
00000001
00000000

TIL 1o
11111111
01000000
00100000
00010000
00001000
00000100
00000010
00000001

TIL 1p
00000000
00000000
00011000
00100100
00100100
00011000
00000000
00000000

TIL 1q
11111111
10111111
10001111
10000111
10000111
10000111
10010111
10010111

TIL 1r
01000111
00100111
11110111
00001111
11111111
00000011
11111111
00000001

TIL 1s
00110110
10000001
11111111
00110000
10111111
00111100
11111111
11111111
WAL true

TIL 1t
00111111
00111111
00111111
00011111
00011111
00000111
00000011
00000001

TIL 1u
11110000
01110000
01110000
00011111
00000000
00000000
00000000
00000000

TIL 1v
11111111
11000000
11100000
11111111
11110000
11110000
11110000
11110000
WAL true

TIL 1w
00110011
10011000
11111101
00000010
11111111
00000000
11111111
00000000
WAL true

TIL 1x
11111111
11111111
11111111
11111111
11111111
11111111
01111111
00111111

TIL 1y
00000111
00111111
00100011
11100011
00100011
00100011
00100011
00011100
WAL true

TIL 1z
01110001
11110011
11100111
11101111
11011110
11111110
11111110
11111100
WAL true

TIL 2a
00000001
00000001
00000001
00000001
00000001
00000001
00000001
00000001

TIL 2b
00000001
00000001
00000001
00000001
00000001
00000001
00000001
11111111

TIL 2c
11111111
11100111
11000011
11010011
11001011
11100111
11111111
11111111

TIL 2d
11111111
11100000
11001111
10011100
00111110
01111111
11111111
11111111

TIL 2e
11101011
00000000
11111111
01000100
00100010
00010001
00001000
11111111

TIL 2f
11011111
00001111
11111111
01000111
00100111
00010011
00001001
11111111

TIL 2g
11111111
11111111
11111111
11101111
11100111
11100011
11101001
11100100

TIL 2h
01111111
00111111
10011111
01001111
00101111
10001111
11001111
11101111

TIL 2i
11110010
11111000
11111100
11111110
11111111
11111111
11111111
11111111
WAL true

TIL 2j
00000000
01111111
01110001
00111110
00110010
00110010
00110010
11110011
WAL true

TIL 2k
00110010
01110010
11011100
10100000
00000000
00000000
00000000
00000000
WAL true

TIL 2l
00000011
01001111
00110111
00110111
00111011
00101101
00111111
11111110

TIL 2m
00111111
00111111
00111111
00110111
01111011
01111111
00101111
00111111

TIL 2n
00000000
00000000
00000000
00111110
00110110
00100010
00100010
00110110

TIL 2o
00110110
00110110
00100010
00101010
00100010
00111110
00000000
00000000

TIL 2p
00000000
00000000
00000000
11111100
01000010
00111111
00000000
00000000

TIL 2q
00000000
00000000
00000000
00000000
01000000
00000000
00010000
00000000

TIL 2r
00100000
00100000
00000010
00000100
00100000
00100000
00000000
00000000
>
01000000
00100000
00000100
00000100
01000000
00100000
00000000
00000000

TIL 2s
10011100
10011100
01111100
10111100
11011101
11111100
11101110
11111111
WAL true

TIL 2t
00011100
00011100
00011100
00011100
00011100
00011100
00011100
00011100
WAL true

TIL 2u
00011100
00011100
11011100
11111100
01111100
01111100
00111100
00111100
WAL true

TIL 2v
11000110
11100011
11000101
10101001
10000000
11110010
01000000
01000100
>
11000110
11100011
11000101
10100101
10000000
11110001
01000000
01000100

TIL 2w
00010000
10010100
11011000
11010000
01110010
00110100
00011000
00001100
>
00010000
10010000
11011100
11010000
01110000
00110110
00011000
00001100

TIL 2x
11111101
11011111
01111100
11111100
11111100
10011100
10011100
00011100
WAL true

TIL 2y
00010000
00001000
00000000
01000100
00100100
00010010
00010010
10000000
>
00000100
00000010
00100010
00010010
00010010
00010010
00010010
10000000
NAME grass2

TIL 2z
10000000
01011011
00101110
00011011
00001000
00000100
00000010
00000001

TIL 3a
11111111
11101101
11111111
11111110
01111011
00111111
00011111
00001111

TIL 3b
11111111
11111111
11111111
11111111
00000000
00000000
00000000
00000000

TIL 3c
00000011
00000001
00000001
00000111
00011000
00110000
01000000
01000000
WAL true

TIL 3d
11111111
11111111
11111111
11111111
11111111
00000111
00000111
00000011

TIL 3e
11111111
11111111
11111111
11111111
11111111
11100000
11110000
11110000

TIL 3f
11111000
11111000
11111100
11000010
10010001
10001000
10000100
10000011
WAL true

TIL 3g
00000000
00100000
00100000
00100010
00100010
10101110
11111011
11111111
>
00000000
10000000
01000000
00100100
00100010
10101110
11111011
11111111

TIL 3h
00000000
00001110
00011111
00111111
01010100
11111111
11111111
11111110

TIL 3i
00000101
00000101
00000101
00000100
00000110
00000000
00000000
00000000
WAL true

TIL 3j
10000000
01000000
00100000
00000000
00000000
00000100
00000000
00000001

TIL 3k
11011101
11111111
11111011
01110110
11001000
11011100
00110010
10100001
WAL true

TIL 3l
00000001
00000010
00000100
00001000
00010000
00100000
01000000
10000000
NAME int1

TIL 3m
00000000
00000000
00000000
00000000
00000000
00000000
00000000
11111111
NAME int2

TIL 3n
10000000
10000000
10000000
10000000
10000000
10000000
10000000
11111111
NAME int3
WAL true

TIL 3o
10000000
10000000
10000000
10000000
10000000
10000000
10000000
10000000
NAME int4
WAL true

TIL 3p
01111111
01111110
01111100
01111000
01110000
01100000
01000000
10000000
NAME int5

TIL 3q
00011110
00111110
01111110
01111110
01111110
01111010
01111110
01111110
NAME int6

TIL 3r
00000000
00000000
00000000
00000000
00000000
00000000
00000010
00001110
NAME int7
WAL true

TIL 3s
00000100
00001000
00001001
00001010
00001100
00001000
00000000
00000000
NAME int8
WAL true

TIL 3t
00000000
00001000
00011000
00101000
01001000
10001000
00010000
00100000
NAME int9
WAL true

TIL 3u
00000000
00000000
00000000
00000000
00000000
00000000
00000001
00000010
NAME int10

TIL 3v
01000001
10000010
00000100
00001000
00010000
00100000
01000000
10000000
NAME int11
WAL true

TIL 3w
00000000
00000000
00000000
00000000
00111111
01000000
10000000
00000000
NAME int12

TIL 3x
00000000
00000000
00000000
00000000
11111111
00000000
00000000
00000000
NAME int13
WAL false

TIL 3y
00000010
00000100
00001000
00011111
00000100
00000100
00000100
00000000
NAME int14
WAL true

TIL 3z
00000000
00000000
00000000
11111111
00000000
00000000
00000000
00000000
NAME int15
WAL true

TIL 4a
01000000
01000000
01000000
01000000
01000000
01000000
01000000
01000000

TIL 4b
00000000
00001111
00111000
00100000
01100000
01000000
01001000
01000010

TIL 4c
00000001
00000001
00000001
00000001
00000001
00000001
00000010
11111100
NAME brew
WAL true

TIL 4d
00000001
00000001
00000001
00000001
00000001
00000001
00000001
00000001

TIL 4e
00000000
11111000
00000100
00000010
00000001
00000001
00000101
01001001

TIL 4f
00000001
00000001
00000001
00000001
00000001
00000001
00000001
00000001
NAME brew4

TIL 4g
10000000
01000000
00100000
00010000
00001000
00000100
00000010
00000001
NAME brew6
WAL true

TIL 4h
00000000
00000000
00111111
00110000
00111000
00110100
00110010
00110001
NAME brew7
WAL true

TIL 4i
10000010
01000001
00100000
00110000
00101000
10100100
01100010
00100001
NAME brew8

TIL 4j
00110000
00111000
00110100
00000010
00000001
00000000
00000000
00000000

TIL 4k
00010000
00001000
00000100
00000010
00000001
00000000
00000000
00000000

TIL 4l
01110000
01010000
11000000
01001110
00101010
00111000
00001000
00000100
WAL true

TIL 4m
00001000
00000100
00000010
00000001
00000000
00000000
00000000
00000000

TIL 4n
00011010
00011000
10011000
01111111
00000000
00000000
00000000
00000000
WAL true

TIL 4o
00000000
01000000
00100000
11111111
00000000
00100100
00100100
00000000

TIL 4p
11111111
11000000
11000000
11000000
11000000
11111111
11000000
00000000
WAL true

TIL 4q
11111111
00000000
00000000
00000000
00000000
11111111
00000000
00000000

TIL 4r
00000001
00000001
11100001
00100111
00100101
00100101
00111101
00000001

TIL 4s
11100001
00100111
00100101
00100101
00010101
00001001
00000001
11111111

TIL 4t
00000000
00000000
00000000
00000000
00000000
00000000
00000000
11111111

TIL 4u
10011110
11011110
11111111
11111111
11111111
11111111
11111111
11111111

TIL 4v
00011000
00011110
00011111
00011111
00011111
00011111
00011111
00011111

TIL 4w
00000000
00000000
00000000
10000000
10000000
10000000
10000000
10000000

TIL 4x
10000000
10000000
10000000
10000000
10000000
10000000
10000000
10000000

TIL 4y
00000000
01111000
01001000
11101000
01001000
01111000
00000000
00000000

TIL 4z
01111000
11101000
01001000
01111000
00100000
00100000
00100000
00000000

TIL 5a
00001110
00001110
01111111
01100000
01010000
01001111
00001000
00001000
NAME cof1
WAL true

TIL 5b
00000000
00000011
11110011
00001011
00000111
11111111
00001001
00001001
WAL true

TIL 5c
00000000
11111111
00000000
00000000
00000000
11111111
00000000
00000000

TIL 5d
00000100
11111110
00000010
00000010
00000010
11111110
00000000
00000000

TIL 5e
00000000
00000000
00000000
00000000
00000000
00000000
11110000
00001000
WAL true

TIL 5f
00000000
00000000
00000000
00000000
00000000
00000000
11111111
00000000
WAL true

TIL 5g
10000000
11111111
11100000
11110000
11111000
11111111
11111110
11111111

TIL 5h
01111000
00000000
11111111
00000000
11111111
01010010
00000000
00000000

TIL 5i
11101010
00001010
11111010
00000010
11111110
01010100
00000000
00000000

TIL 5j
00000010
00000010
11111010
00001010
11101010
00001010
10101010
00001010

TIL 5k
00000000
00000000
11111111
00000000
01111000
01111110
01111010
01111110

TIL 5l
00110000
00110000
01111110
01111110
01111100
01111100
11111111
01111100
WAL true

TIL 5m
11111111
11111111
10111111
10011111
10001111
10000111
10000011
10000001

TIL 5n
01000000
10100100
01001110
00101010
00111110
00101100
00000100
00000010

TIL 5o
00000001
00000000
00000000
00011100
00011100
00001000
00001000
00001000
WAL true

TIL 5p
00000000
00110000
00001000
00010100
00100100
01000000
00000000
00000000
WAL true

TIL 5q
00000000
00010000
01110000
00100000
00100000
00100000
00000000
00000000

TIL 5r
00000000
00010000
00010100
01101000
10010000
00010000
00010000
00000000

TIL 5s
10001000
01001000
00100000
00010000
00001000
00000100
00000010
00000001

TIL 5t
10000000
01000000
00100000
00010000
00001000
00000100
00000010
00000001

TIL 5u
00000000
00000000
00010100
00010100
00010100
00000000
00000000
00000000
WAL true

TIL 5v
00000000
01000010
00100010
10000001
01000010
00100110
00110110
00111100

TIL 5w
00001000
00000110
00001100
00111000
00100000
00110000
00010000
00000000
>
00000000
00011000
00110000
00100000
00110000
00000000
00001000
00000000

TIL 5x
01111111
11010111
11100011
01000000
00000000
00000000
00000000
00000000

TIL 5y
00000000
00000000
00000000
00000000
00000000
00000011
00000111
00000001

TIL 5z
00000000
00000000
00000000
00000000
00000000
01000000
11100000
11000000

TIL 6a
00000000
00000000
00001000
00010000
00000000
00000010
01000000
00000000

SPR 10
11111111
11111111
00000000
00010000
00001000
00000100
00000010
00000001
NAME SignText2
DLG SPR_f
POS a 6,5

SPR 11
00011010
00011000
10011000
01111111
00000000
00000000
00000000
00000000
NAME beerManDARK
DLG SPR_g
POS e 11,11

SPR 12
00111000
01111000
00111000
00001000
00011100
00111110
00111010
01011010
NAME beermanDARK
POS e 11,10

SPR 13
00000000
00011000
00011000
10000000
01111100
00111100
11111111
00000000
>
00000000
00011000
00011000
00000000
00111100
11111100
11111111
00000000
NAME CofMan2
DLG SPR_h
POS f 6,7

SPR 14
01001111
10011110
00111100
11111111
00000000
00000000
00000000
00000000
NAME table
DLG SPR_p
POS 4 9,7

SPR 15
01001111
10011110
00111100
11111111
00000000
00000000
00000000
00000000
POS 8 9,7

SPR A
00011100
00011100
00001000
00011100
00011100
00011100
00010100
00010100
POS 0 4,6

SPR c
00000000
00001100
00011100
00111100
00110100
00110100
00111100
00111100
>
00000000
00001100
00011100
00111100
00111100
00111100
00111100
00111100
NAME fuseBox
DLG SPR_0
POS 4 7,6

SPR d
00111000
01111000
00111000
00001000
00011100
00111110
00111010
01011010
>
00111000
01111000
00111000
00001000
10011100
01111110
00011010
00011010
NAME beerMan
DLG SPR_e
POS 6 11,10

SPR e
00011010
00011000
10011000
01111111
00000000
00000000
00000000
00000000
NAME BeerManDiag
DLG SPR_1
POS 6 11,11

SPR f
00000000
00011000
00011000
10000000
01111100
00111100
11111111
00000000
>
00000000
00011000
00011000
00000000
00111100
11111100
11111111
00000000
NAME CofMan
DLG SPR_2
POS 7 6,7

SPR g
00000000
00010000
00010100
01101000
10010000
00010000
00010000
00010000
DLG SPR_3
POS 7 12,11

SPR h
00000000
00000000
00110000
00001000
00010100
00100100
01000000
00000000
DLG SPR_4
POS 7 11,10

SPR i
11111111
11111111
00000000
00010000
00001000
00000100
00000010
00000001
NAME SignText
DLG SPR_5
POS 0 6,5

SPR j
11000000
01100000
01100000
01110000
01111000
01111100
00110010
00000001
NAME carText
DLG SPR_6
POS 3 8,5

SPR k
00000101
00000101
00000101
00000100
00010110
00000000
00000000
00000000
NAME carText2
DLG SPR_7
POS 3 10,6

SPR l
01100000
01100000
01101000
01111100
01111110
01111100
00001000
00000000
>
01100000
01100000
01100100
01111110
01111111
01111110
00000100
00000000
NAME light1
POS 9 6,4

SPR m
00000000
01101010
00001010
01101110
01101010
01101010
01100000
01100000
>
00000000
00001010
01101010
00001110
01101000
01101010
01100000
01100000
NAME light2
POS 9 6,3

SPR n
00000000
01000000
00100011
10000010
11100010
01110110
00111100
00111100
NAME blownBox
DLG SPR_8
POS 5 7,6

SPR o
00001000
00010000
00001000
00100110
00111110
01111110
01111110
00011000
>
00010000
00001000
00000000
00011010
01111000
00111100
01111000
00111000
NAME flame
DLG SPR_9
POS c 8,8

SPR p
00011100
00011100
00000100
00001110
00001110
00111110
01111110
01000010
DLG SPR_n
POS c 10,8

SPR q
00111000
00111000
10000010
01111100
00111000
00111000
00101000
00101000
>
00111000
00111000
00000000
01111100
10111010
00111000
00101000
00101000
DLG SPR_i
POS c 6,8

SPR r
00000111
00000111
00000001
00000111
00001011
00000111
00000011
00000101
DLG SPR_o
POS c 9,9

SPR s
00000000
00000000
00011100
00011100
01001000
00111110
00011110
00011110
>
00000000
00000000
00011100
00011100
00001000
00011110
00111110
01011110
DLG SPR_m
POS c 8,10

SPR t
01110000
01110000
01001000
11101000
11110000
11100000
10100000
10100000
>
01110000
01110000
01000000
11101000
11111000
11100000
10100000
10100000
DLG SPR_j
POS c 7,10

SPR u
00000000
00000111
00000111
00000010
00001101
10010001
11110111
00000000
DLG SPR_l
POS c 9,7

SPR v
01110000
01110000
01001000
11101000
11110000
11100000
10100000
10100000
>
01110000
01110000
01000000
11101000
11111000
11100000
10100000
10100000
DLG SPR_a
POS c 7,5

SPR w
01110000
01110000
00010000
00111100
00111010
00111100
00101000
00101000
DLG SPR_k
POS c 8,5

SPR x
00000000
00001100
00011100
00111100
00110100
00110100
00111100
00111100
>
00000000
00001100
00011100
00111100
00111100
00111100
00111100
00111100
NAME dupeFuse
DLG SPR_b
POS 8 7,6

SPR y
00000001
00000001
00000001
00000001
00000001
00000001
00000010
11111100
NAME brewInfo
DLG SPR_c
POS 6 7,8

SPR z
01000000
01000000
01000000
01000000
01000000
01000000
00100000
00011111
NAME brewInfo2
DLG SPR_d
POS 6 6,8

ITM 1
01110000
01110000
00110000
00011111
00000000
00011110
00110010
00011110
NAME oldFuse
DLG ITM_1

ITM 2
00000000
00000000
00111100
01000100
01111100
00000000
00000000
00000000
NAME can
DLG ITM_0

ITM 3
00000000
00001110
00011111
00111111
01010100
11110111
11111111
11111110
NAME carFuse
DLG ITM_2

ITM 4
00000000
00000000
00000000
00000000
00000000
00000000
00000000
00000000
NAME Story001
DLG ITM_3

ITM 5
00000000
00000000
00000000
00100000
00000100
01001010
00001000
10011001
>
00000000
00000000
00000000
00000000
01000000
00001010
00000000
10011001
NAME story02
DLG ITM_4

ITM 6
00000000
00000000
00000000
00000000
00000000
00000000
00000000
00000000
NAME story003
DLG ITM_5

ITM 7
00000000
00010000
00101111
01001001
00100001
00011110
00000000
00000000
>
00000000
00001100
00010111
00101001
00100001
00011110
00000000
00000000
NAME paper
DLG ITM_6

DLG ITM_1
 {oldFuseOwned = oldFuseOwned + 1}Looks like I missed the dumpster when I threw the last fuse away. I suppose I could try this one again.

DLG ITM_0
"""
"Hernst Beer." I don't remember this brand. This can has been here awhile. 

That's right, though! People used to hang out in this field back in the day. 

The grass has gotten so long out here.
"""

DLG SPR_1
"""
{
  - fuseHunt == 1 ?
    {sequence
      - "Excuse me, wasn't this the library? I'm looking for a book on electrical engineering? See I have this fuse --"
        
        {clr2}BREWER: "Library?! Hur! Hur! This hasn't been the library for months! It's my micro brewery now. What would you like to try?"{clr2}
        
        "Uh. No - no thanks, I'm not here for.."
        
        {clr2}BREWER: "What kind of beers do you like? Want to try a flight? People love a good micro brewery! Here let me set you up with a sampler!"{clr2}
        
        "No, no thanks! I'll be going, but thank you."
        
        {clr2}BREWER: "Your loss! This place is going to get REAL busy - soon as word gets out. This dinky town is so lucky. People LOVE a good micro brewery!"{clr2}

      - {clr2}BREWER: "There will be a line out the door soon, I'm sure of it!"{clr2}

      - {clr2}BREWER: "People LOVE a good micro brewery!"{clr2}

    }
  - else ?
    {sequence
      - This is weird. This is the library building, but... it seems to be some kind of brewery or something now?

      - That man behind the bar seems busy.

    }
}
"""

DLG SPR_2
"""
{
  - fuseHunt == 1 ?
    {sequence
      - "Excuse me, I'm looking for a fuse for a neon si--"
        
        {clr2}BARISTA: "A fuse? Never heard of that. How about a Depth Charge? That'll wake you up."{clr2}
        
        "Uh. No. I'm sorry?"
        
        {clr2}BARISTA: "Just a pour-over, then? I could tell you had classic tastes! Soon as you walked in. What's your bean?"{clr2}
        
        "Wait. Isn't this the hardware store?"
        
        {clr2}BARISTA: "What?! No - I turned this into a coffee shop WEEKS ago, friend. Who goes to hardware stores? But check out those one-of-a-kind vintage tools I left on the walls. You can't find those many places. Gives it an authenticity that I was really going for."{clr2}
        
        "Uh. Ok, cool. I guess I'll go."
        
        {clr2}BARISTA: "Wait! How about a tasting sampler? If you could taste it and hashtag #HARDWARESTORECOFFEE #AUTHENTIC and #TOOLWALL, that would really help me out! Really need to drive some traffic in here."{clr2}

      - {clr2}BARISTA: "Once this authentic vibe gets out there: Look out!"{clr2}

      - {clr2}BARISTA: "It's gonna be so busy, I won't be able to keep up with all the latte art demands!"{clr2}

      - {clr2}BARISTA: "Want a photo with the Tool Wall? Remember #TOOLWALL."{clr2} 

      - {clr2}BARISTA: "#AXE2GRIND
        
        You get it, right? Grind? 
        
        Like, beans."{clr2}

      - {clr2}BARISTA: "Did you want to know who made this killer playlist? 
        
        I did, friend. All me." {clr2}

      - {clr2}BARISTA: "Maybe don't sit too close to the Tool Wall. A big wrench fell off it this morning.
        
        ...
        
        
        #TOOLWALL."{clr2}

      - {clr2}BARISTA: "Wait, are you more of a cold brew?"{clr2}

      - {clr2}BARISTA: "Any minute now, this place will blow up on insta and the line will be OUT THE DOOR."{clr2}

      - {clr2}BARISTA: "Did you need the wifi password? It's AUTH3NT!CT00lWa11"{clr2}

      - {clr2}BARISTA: "Maybe a Nitro? Dang, I just can't get a READ on you."{clr2}

      - {clr2}*whiirrrrrrrrrrr*{clr2}

    }
  - else ?
    {sequence
      - Did they rearrange the hardware store? This doesn't look right.

      - That guy looks like he's making coffee. Wait, is this a coffee shop now?

      - Why would they close the hardware store?

    }
}
"""

DLG SPR_3
This wall is covered in old tools.

DLG SPR_4
The wall is covered in old tools.

DLG SPR_5
The bulbs look ok, must be the fuse.

DLG ITM_3
"""
Dang it.

How long has the sign been broken like this? 

No wonder bookings are down. I feel like if it's not one thing, it's the next.

I'm so sick of trying to fix this thing. I better go in and check the fuse box.
"""

DLG SPR_0
"""
{
  - {item "carFuse"} == 0 ?
    {
      - oldFuseOwned == 1 ?
        Pretty sure this isn't going to work, but let me try this old fuse again.
        
        {shk}Click!{shk}
        
        Yeah. Nothing.
        {oldFuseOwned = oldFuseOwned - 1}
      - else ?
        {sequence
          - I'm really getting sick of digging in this fuse box. 
            
            This whole system needs upgrading.
            
            {shk}Click!{shk}   
            Ah, yes. Another blown fuse.  
            {fuseHunt = fuseHunt + 1}    

          - I used up my last fuse, I'll have to go to town for another I guess. 

          - Maybe I should get an electrician's manual from the library, too. Maybe I can fix this stupid thing.

          - I better go get a new fuse.
        }
    }
  - {item "carFuse"} == 1 ?
    {sequence
      - This car fuse seems about the right shape at least. Let's see if it fits -- ah! It does fit!
        
        Hold on to your butts.
        
        {shk}Click!{shk}
        {wvy}buzzzzzzzzz{wvy}
        
        (exit "hotelInt2,7,7")
        {carFuse = carFuse - 1}
      - Oh, it's working!
    }

}
"""

DLG ITM_4
"""
There we go! 

{wvy}{clr2}V A C A N C Y{clr2}{wvy}


Keeping this hotel afloat is such a strain most days, but looking at these gently buzzing neon tubes - I don't know. It feels like it is worth--

Wait.

That doesn't sound right.

Uh, oh.

{shk}BZZZZZZZZZZZZZZ!{shk}
(exitNow "explode001,6,6")
(exit "HotelExt003,6,6")
"""

DLG SPR_8
"""
{sequence
  - Oh, geez. I really blew this thing up. That's gonna be expensive. 
    
    Looks like I blew out the power too. 
    
    I wonder if the town was affected...
  - {sequence
      - This is toast.
      - Super toast.
    }
}
"""

DLG SPR_9
{shk}*crackle*{shk}

DLG SPR_a
"I just love nights like this, don't you?"

DLG SPR_b
It seems to be working now?

DLG ITM_5
"""
It's so quiet in the lobby these days. 

What I wouldn't give for a guest asking for extra towels, or complaining about the mini bar. 
"""

DLG SPR_c
"""
{sequence
  - These large tanks must hold a lot of beer.
  - It still kinda smells like old books in here.
    
    Or is that hops?
  - It's so quiet in here.
}
"""

DLG SPR_d
"""
{sequence
  - How did he even get these tanks in here?
  - I think this used to be the Fiction section. 
  - Why is no one in here?
}
"""

DLG SPR_e
"""
{
  - fuseHunt == 1 ?
    {sequence
      - "Excuse me, wasn't this the library? I'm looking for a book on electrical engineering? See I have this fuse-"
        
        {clr1}BREWER: "Library?! Hur! Hur! This hasn't been the library for months, mate! It's my micro brewery now. What would you like to try?"{clr1}
        
        "Uh. No - no thanks, I'm not here for.."
        
        {clr1}BREWER: "What kind of beers do you like? Want to try a flight? People love a good micro brewery! Here let me set you up with a sampler!"{clr1}
        
        "No, no thanks! I'll be going, but thank you."
        
        {clr1}BREWER: "Better taste it now, this place is going to get REAL busy - soon as word gets out. People LOVE a good micro brewery!"

      - {clr1}BREWER: "There will be a line out the door soon, I'm sure of it, mate!"{clr1}

      - {clr1}BREWER: "People LOVE a good micro brewery!"{clr1}

    }
  - else ?
    {sequence
      - This is weird. This is the library building, but... it seems to be some kind of brewery or something now?

      - That man behind the bar seems busy.

    }
}
"""

DLG SPR_f
"""
{sequence
  - {shk}UGH!{shk} That blew out the sign again! 
  - It seems extra dark out here now.
}
"""

DLG SPR_g
"""
{sequence
  - {clr2}BREWER: "What happened? My power blew out! How are people going to enjoy my micro brewery now?"{clr2}
  - {clr2}BREWER: "This is not good. I can't even see the taps!"{clr2}
  - {clr2}BREWER: "Maybe I should never have moved to this dinky town - the power grid is so unreliable!"{clr2}
  - {clr2}BREWER: {shk}grumble!{shk}
}
"""

DLG SPR_h
"""
{sequence
  - {clr2}BARISTA: "Man, it's so dark in here! I can't even see the Tool Wall! How are people going to photograph it?"{clr2}
  - {clr2}BARISTA: "I can't even see the foam on this latte! Does this look like a heart to you?"{clr2}
  - {clr2}BARISTA: "I threw out all the lanterns and flashlights when I bought the place. Why did I do that?"{clr2}
  - {clr2}BARISTA: "The playlist was in the middle of this amazing indie track too."{clr2}
  - {clr2}BARISTA: "Maybe people will come in anyway just to feel the authenticity? 
    
    Who am I kidding?! This is not cool!"{clr2}
  - {clr2}BARISTA:"Can you light up the Tool Wall with your phone?"{clr2}

}
"""

DLG ITM_2
"""
Oh, hey - there's a fuse still in the dash.

I wonder if I can remove it - 

{shk}plink!{shk}

Got it! Looks in ok shape, and it seems to be about the right size!
"""

DLG SPR_6
"""
{sequence
  - Oh, wow. Someone just dumped their car here? I feel like this town is literally going to the dumps now.
  - So much rust.
}
"""

DLG SPR_7
The interior smells like old leather.

DLG SPR_i
"Did you see what they did to my hardware store? I ran that for 35 years! Sheesh!"

DLG SPR_j
"From the Micro Brewery? Ha! No, I got this from my fridge at home! There's more in the cooler, help yourself!"

DLG SPR_k
"The power all over town is out, so we decided to throw a little party like the old days!"

DLG SPR_l
"We invited that new guy who runs the coffee shop, but he was too busy trying to light up his tool wall with his phone!"

DLG SPR_m
"Things in town are changing so fast - it's nice to all be together for a bit!"

DLG SPR_n
"Most of my friends have moved away, but this is a nice excuse to make some new ones! Have a seat!"

DLG SPR_o
"The power in my house went out - so I decided to build a fire out here like when I was younger. I guess the word spread!"

DLG ITM_6
"""
Trash just blowing in the street. *sigh*

Sometimes it feels like this town is abandoned. So many people have moved away.
"""

DLG SPR_p
"""
{sequence
  - I don't know why I even keep the guest sign-in book out, no one has checked in for weeks!
  - So many blank pages.
  - I should probably go digital with this.
  - Maybe I should put in a swimming pool.
  - The hotel may be empty, but it sure stays clean this way!
  - Does it smell musty in here?
}
"""

END 0


END undefined
I think that sign can probably wait a little bit.

VAR a
42

VAR oldFuseOwned
0

VAR fuseHunt
0
