Pigeon Quest

# BITSY VERSION 3.6

! ROOM_FORMAT 1

PAL 0
214,214,214
128,128,128
107,107,107

PAL 1
233,232,236
160,193,197
157,136,176

PAL 2
214,254,243
136,199,225
204,141,220

PAL 3
122,252,216
60,163,206
153,54,177

ROOM 0
2d,2c,2c,2c,2e,d,d,d,d,d,d,d,d,d,d,e
26,2a,2a,2a,1i,0,0,0,0,0,0,0,2a,2a,2a,f
26,2a,2a,2a,1i,1b,1b,1b,1b,0,0,0,2a,2a,2a,f
26,2a,2a,2a,1i,2l,2m,2l,2m,0,0,0,2a,2a,2a,f
26,2a,2b,2a,1i,2n,2p,2q,2o,0,0,0,2r,l,l,f
a,0,0,0,0,0,0,0,0,0,0,0,0,0,0,f
a,0,0,0,0,0,0,0,0,0,0,0,0,0,0,f
a,0,0,0,0,0,0,0,0,0,0,0,0,0,0,0
a,0,0,0,0,0,0,0,0,0,0,0,0,0,0,f
a,0,0,0,0,0,0,0,0,0,0,0,0,0,0,f
a,0,0,0,0,0,0,0,0,0,0,0,0,0,0,f
a,0,0,n,0,0,0,0,0,0,0,0,0,0,0,f
a,2g,o,m,p,2k,0,0,0,0,0,0,0,0,0,f
a,2f,k,l,j,2j,0,0,0,0,0,0,0,0,0,f
a,0,2h,1h,2i,0,0,0,0,0,0,0,0,0,0,f
i,h,h,h,h,h,h,h,h,h,h,h,h,h,h,g
WAL a,c,d,e,f,g,h,i,l
EXT 15,7 1 0,8
PAL 0

ROOM 1
c,d,d,d,z,d,d,d,d,d,d,d,d,d,d,e
u,r,s,t,10,0,0,c,d,d,d,e,0,0,0,f
v,w,w,x,10,0,0,2w,2t,2u,2v,2x,0,0,0,f
i,12,y,h,11,0,0,2s,h,h,h,g,0,0,0,f
a,0,0,0,0,0,0,0,0,0,0,0,0,0,0,f
a,0,0,0,0,0,0,0,0,0,0,0,0,0,0,f
a,0,0,0,0,0,0,0,0,0,0,0,0,0,0,f
a,0,0,0,0,0,0,0,0,0,0,0,0,0,0,f
0,0,0,0,0,0,0,0,0,0,0,0,0,0,0,0
a,0,0,0,0,0,0,0,0,0,0,0,0,0,0,f
a,0,0,33,35,0,33,35,0,0,0,0,0,0,0,f
a,0,0,32,34,0,32,34,0,0,0,30,31,0,0,f
a,0,0,0,0,0,0,0,0,0,0,2z,2y,0,0,f
a,0,33,35,0,33,35,0,0,0,0,2z,2y,0,0,f
a,0,32,34,0,32,34,0,0,0,0,0,0,0,0,f
i,h,h,h,h,h,h,h,h,h,h,h,h,h,h,g
WAL a,c,d,e,f,g,h,i,z,10,12,11,y,x,w,v,u,t,s,r,p,o,m,l,k,j
EXT 0,8 0 15,7
EXT 15,8 2 0,8
PAL 1

ROOM 2
c,d,d,d,d,d,d,d,d,d,d,d,d,d,d,e
a,30,31,0,30,31,0,0,0,0,0,0,0,0,0,f
a,2z,2y,0,2z,2y,0,30,31,0,0,0,3b,3c,0,f
a,2z,2y,0,2z,2y,0,2z,2y,0,0,0,3a,3d,0,f
a,0,0,0,0,0,0,0,0,0,0,0,39,0,0,f
a,0,0,0,0,0,0,0,0,0,0,0,0,2k,0,f
a,0,0,0,0,0,0,0,0,0,0,0,0,2j,0,f
a,0,0,0,0,0,0,0,0,0,0,0,0,0,0,f
0,0,0,0,0,15,16,17,0,0,0,0,0,0,0,0
a,0,0,0,38,14,1b,18,38,0,0,0,0,0,0,f
a,0,0,0,38,13,1a,19,38,0,0,0,0,0,0,f
a,0,0,0,0,38,38,38,0,0,0,0,0,0,0,f
a,0,0,0,0,0,0,0,0,0,0,0,0,0,0,f
a,0,0,0,0,0,0,0,0,0,0,0,0,0,0,f
a,33,35,0,33,35,0,0,0,0,0,0,0,0,0,f
i,37,36,h,37,36,h,h,h,h,h,h,h,h,h,g
EXT 15,8 3 0,8
EXT 0,8 1 15,8
PAL 2

ROOM 3
c,d,d,d,d,d,d,d,d,d,d,d,d,d,d,e
a,0,0,0,0,0,0,0,0,0,0,0,0,0,0,f
a,0,0,0,0,0,0,0,0,0,0,0,0,0,0,f
a,0,0,0,0,0,0,0,0,0,0,0,0,0,0,f
u,r,s,t,0,0,0,0,0,0,0,0,0,0,0,f
v,w,w,x,0,0,0,0,0,0,0,0,0,0,0,f
a,0,0,0,0,0,0,0,0,0,0,0,0,0,0,f
a,0,0,0,0,0,0,0,0,0,0,0,0,0,0,f
0,0,0,0,0,0,0,0,0,0,0,0,0,0,0,f
a,0,0,0,0,0,0,0,0,0,0,0,0,0,0,f
a,0,0,0,0,0,0,0,0,0,0,0,0,0,0,f
a,0,0,0,0,0,0,0,0,0,0,0,0,0,0,f
a,0,0,0,0,0,0,0,0,0,0,0,0,0,0,f
a,0,0,0,0,0,0,0,0,0,0,0,0,0,0,f
a,0,0,0,0,0,0,0,0,0,0,0,0,0,0,f
i,h,h,h,h,h,h,0,h,h,h,h,h,h,h,g
EXT 0,8 2 15,8
EXT 7,15 4 7,0
PAL 3

ROOM 4
c,d,d,d,d,d,d,0,d,d,d,d,d,d,d,e
a,0,0,1d,1h,1e,0,0,0,0,0,0,0,0,0,f
a,0,1d,1f,0,1g,1e,0,0,0,0,0,0,0,0,f
a,0,1n,1e,1q,0,1k,0,0,0,0,0,0,0,0,f
a,1j,1o,1f,0,0,1j,0,0,0,0,0,0,0,0,f
a,0,1j,0,0,0,1g,1e,0,0,0,0,0,0,0,f
a,0,1j,0,0,0,0,1g,1e,0,0,0,0,0,0,f
a,0,1j,0,1d,1l,1l,1k,1g,1e,0,0,0,0,0,f
a,0,1i,1d,1f,0,0,0,1k,1g,1e,0,0,0,0,f
0,0,1i,1i,0,0,0,0,0,1k,1g,1e,0,0,0,f
a,0,1i,1k,0,0,0,0,0,0,1k,1g,1e,0,0,f
a,0,1j,0,1l,1h,0,0,0,0,0,1k,1g,1e,0,f
a,0,0,1k,0,0,1l,1l,1h,1h,1h,1h,1r,1g,1e,f
a,0,0,0,1k,1h,1h,1h,1h,1h,1h,1h,1h,1h,1n,f
a,0,0,0,0,1b,0,1b,0,0,1g,1e,0,1j,0,f
i,h,h,h,1h,1c,1h,1c,1s,h,h,1t,1u,1v,h,g
WAL f,h,g,a,c,d,e,i
EXT 7,0 3 7,15
EXT 0,9 5 15,9
PAL 3

ROOM 5
c,d,d,d,d,d,d,d,d,d,d,d,d,d,d,e
a,0,0,0,0,0,0,0,0,0,0,0,0,0,0,f
a,0,1d,1l,1l,1o,1d,0,0,0,0,0,0,0,0,f
a,1d,1f,0,1z,0,1i,0,0,0,0,0,0,0,0,f
a,1p,1i,0,0,0,1i,0,0,0,0,0,0,0,0,f
a,0,1i,0,0,0,1g,1e,0,0,0,0,0,0,0,f
a,0,1i,0,0,0,0,1g,1y,0,0,0,0,0,0,f
a,0,1i,0,1d,1l,1l,1k,1g,1e,0,0,0,0,0,f
a,0,1i,1d,1f,0,0,1j,0,1g,1e,0,0,0,0,f
0,0,1i,1i,0,0,0,0,1k,0,1g,1y,0,0,0,0
a,0,1i,1k,0,0,0,0,0,1k,0,1g,1e,0,0,f
a,0,1j,0,1l,1h,0,0,0,0,1k,0,1g,1e,0,f
a,0,0,1k,0,0,1l,1l,1h,1h,1h,1r,0,1g,1e,20
a,0,0,0,1k,1h,1h,1h,1h,1h,1h,1h,1h,1h,1n,f
a,0,0,0,0,1b,0,1b,0,0,1g,1e,0,1j,0,f
i,h,h,h,1h,1c,1h,1c,1s,h,h,1t,1u,1v,h,g
WAL f,h,g,a,c,d,e,i
EXT 15,9 4 0,9
EXT 0,9 6 15,9
PAL 2

ROOM 6
c,d,d,d,d,d,d,d,d,d,d,d,d,d,d,e
a,0,0,0,0,0,0,0,0,0,0,0,0,0,0,f
a,0,0,0,0,0,0,0,0,0,0,0,0,0,0,f
a,0,1d,1h,1y,0,0,0,0,0,0,0,0,0,0,f
a,1j,1f,0,1g,1e,0,0,0,0,0,0,0,0,0,f
a,1i,0,21,0,1k,0,0,1e,0,0,0,0,0,0,f
a,1k,0,0,0,0,1l,1l,1e,0,0,0,0,0,0,f
a,1n,0,0,1d,1h,1h,0,1g,1e,0,0,0,0,0,f
a,1l,1i,1d,1f,0,0,1k,0,1g,1e,1e,0,0,0,f
0,0,1i,1i,0,0,0,1j,0,0,1j,0,0,0,0,0
a,0,1i,1k,0,0,0,0,1k,0,0,1k,0,0,0,f
a,0,1j,0,1l,1h,0,0,0,1k,0,0,1k,0,0,f
a,0,0,1k,0,0,1l,1l,1h,1h,1k,0,0,1k,1f,f
a,0,0,0,1k,0,0,0,0,0,0,0,0,1j,0,f
a,0,0,0,0,1b,1l,1b,1l,1l,1l,1p,1l,1o,1e,f
i,h,h,h,1h,1c,1h,1c,1s,h,h,1t,1u,1v,h,g
WAL f,h,g,a,c,d,e,i
EXT 15,9 5 0,9
EXT 0,9 7 15,9
PAL 1

ROOM 7
c,d,d,d,d,d,d,d,d,d,d,d,d,d,d,e
a,0,0,0,0,0,0,0,0,0,0,0,0,0,0,f
a,0,0,0,0,0,0,0,0,0,0,0,0,0,0,f
a,0,0,0,0,0,0,0,0,0,0,0,0,0,0,f
a,0,0,0,0,0,0,0,0,0,0,0,0,0,0,f
a,0,0,0,0,0,0,0,0,0,0,0,0,0,0,f
a,0,0,0,0,0,0,0,0,0,0,0,0,0,0,f
a,0,0,0,0,0,0,0,0,0,0,0,0,0,0,f
a,0,0,0,0,0,0,0,0,0,0,0,0,0,0,f
a,0,0,0,1d,0,0,0,0,1e,0,0,0,0,0,0
a,0,0,0,1h,1l,1l,1l,1l,1h,1h,0,1e,0,0,f
a,0,0,1n,0,0,0,0,0,0,0,1l,1h,0,1e,f
a,1k,1h,1f,0,0,1l,1l,1l,1h,0,0,0,1l,1e,f
26,1f,0,0,0,0,0,0,0,0,1l,1h,0,0,1j,f
27,0,1j,0,0,0,0,0,0,0,0,0,1l,1h,0,23
28,h,h,h,h,h,h,h,h,h,h,h,h,25,h,29
WAL f,h,g,a,c,d,e,i
EXT 15,9 6 0,9
END undefined 7,9
PAL 0

TIL 10
00110000
00110000
00110000
00110000
00110000
00110000
00110000
00110000

TIL 11
00110000
00110000
00110000
00110000
00110000
00110000
11110000
11110000

TIL 12
00000000
00000000
00000001
00000001
00000001
00000001
11111111
11111111

TIL 13
01100000
01100000
01100000
01100000
01110000
00111111
00011111
00000000

TIL 14
01100001
01100011
01100111
01100111
01100111
01100011
01100001
01100001

TIL 15
00000000
00001111
00011111
00111000
01110000
01100000
01100000
01100001

TIL 16
00000000
11111111
11111111
00000000
00000000
00010000
00111011
11111111

TIL 17
00000000
11111000
11111100
00001110
00000110
00000110
10000110
11000110

TIL 18
11000110
10000110
10000110
11000110
11100110
11100110
11100110
11000110

TIL 19
11000110
10000110
00000110
00001110
00011100
11111000
11110000
00000000

TIL 20
00001111
00001111
00001111
00001111
11110011
11110011
11110011
11110011

TIL 21
00000000
00000000
00000000
00000000
00001111
00001111
11111111
11111111

TIL 22
11110000
11110000
11110000
11110000
00000000
00000000
11111111
11111111

TIL 23
11110011
11110011
11110011
11110011
11110011
11110011
11110011
11110011

TIL 24
11111111
11111111
11111111
11111111
00000000
00000000
11111111
11111111

TIL 25
00001111
00001111
00001111
00001111
11111111
11111111
11111111
11111111

TIL 26
11001111
11001111
11001111
11001111
11001111
11001111
11001111
11001111

TIL 27
11111100
11111100
11111100
11111100
11111100
11111100
11111100
11111100

TIL 28
11110000
11110000
11110000
11110000
11110000
11110000
11111111
11111111

TIL 29
11110011
11110011
11110011
11110011
11110011
11110011
11111111
11111111

TIL 30
00010010
01110001
00111001
11011111
00001111
00010111
00100011
01000011

TIL 31
01001000
01001100
10011100
10111010
11111001
111010001
11000100
11000011

TIL 32
11111111
11111111
11111111
01111111
01111111
00111111
00011111
00001111

TIL 33
00000111
00001111
00011111
00111111
01111111
01111111
11111111
11111111

TIL 34
11111111
11111111
11111111
11111110
11111110
11111100
11111000
11110000

TIL 35
11100000
11110000
11111000
11111100
11111110
11111110
11111111
11111111

TIL 36
11111111
11111111
11111111
11111110
11111110
11111100
11111111
11111111

TIL 37
11111111
11111111
11111111
01111111
01111111
00111111
11111111
11111111

TIL 38
00000000
000110000
00111100
01111110
01111110
01111110
00111100
00000000

TIL 39
00000110
00001001
00000110
00000000
00000100
00001010
00000100
00000000

TIL a
11000000
11000000
11000000
11000000
11000000
11000000
11000000
11000000

TIL b
00000000
00111100
00111100
00111100
01111110
01111110
01111110
01111110

TIL c
11111111
11111111
11000000
11000000
11000000
11000000
11000000
11000000

TIL d
11111111
11111111
00000000
00000000
00000000
00000000
00000000
00000000

TIL e
11111111
11111111
00000011
00000011
00000011
00000011
00000011
00000011

TIL f
00000011
00000011
00000011
00000011
00000011
00000011
00000011
00000011

TIL g
00000011
00000011
00000011
00000011
00000011
00000011
11111111
11111111

TIL h
00000000
00000000
00000000
00000000
00000000
00000000
11111111
11111111

TIL i
11000000
11000000
11000000
11000000
11000000
11000000
11111111
11111111

TIL j
11100000
11110000
11111000
11111100
11111110
11111110
11111110
11111110

TIL k
00000111
00001111
00011111
00111111
01111111
01111111
01111111
01111111

TIL l
11111111
11111111
11111111
11111111
11111111
11111111
11111111
11111111

TIL m
00100010
01010101
10001001
01011010
10011001
01111110
11111111
11111111
>
00100010
01010101
00001000
00011000
00011000
01111110
11111111
11111111

TIL n
00000000
00000000
00000000
00000000
00000000
00000000
00000000
00000000
>
00000000
00000000
00000000
00000000
10000001
00000000
00100100
00000000

TIL o
00000000
00000000
00000000
00000000
00000000
00000000
00000001
00000011

TIL p
00000000
00000000
00000000
00000000
00000000
00000000
10000000
11000000

TIL q
00000000
00000000
00000000
00000000
00000000
00000000
00000000
00000000

TIL r
11111111
00000000
11101110
10101010
11001100
10101010
11101010
00000000

TIL s
11111111
00000000
11101110
10001010
11001110
10001010
11101010
00000000

TIL t
11111000
00001000
11001000
10101000
10101000
10101000
11001000
00001000

TIL u
11000011
11000010
11000010
11000010
11000010
11000010
11000010
11000010

TIL v
11000011
11000000
11000000
11000000
11000000
11000000
11000000
11000000

TIL w
11111111
00000000
00000000
00000000
00000000
00000000
00000000
00000000

TIL x
11111000
00000000
00000000
00000000
00000000
00000000
00000000
00000000

TIL y
00000000
11110000
00001000
00001000
00001000
00001000
11111111
11111111

TIL z
11111111
11111111
00110000
00110000
00110000
00110000
00110000
00110000

TIL 1a
11111111
01111001
00110000
00000000
00000000
11111111
11111111
00000000

TIL 1b
11111111
11111111
11111111
11111111
11111111
11111111
11111111
11111111

TIL 1c
11111111
11111111
11111111
11111111
11111111
11111111
11111111
11111111

TIL 1d
00000000
00000000
00000000
00000000
00001111
00001111
00001111
00001111

TIL 1e
00000000
00000000
00000000
00000000
11110000
11110000
11110000
11110000

TIL 1f
11110000
11110000
11110000
11110000
00000000
00000000
00000000
00000000

TIL 1g
00001111
00001111
00001111
00001111
00000000
00000000
00000000
00000000

TIL 1h
00000000
00000000
00000000
00000000
11111111
11111111
11111111
11111111

TIL 1i
11110000
11110000
11110000
11110000
11110000
11110000
11110000
11110000

TIL 1j
00001111
00001111
00001111
00001111
00001111
00001111
00001111
00001111

TIL 1k
11110000
11110000
11110000
11110000
00001111
00001111
00001111
00001111

TIL 1l
11111111
11111111
11111111
11111111
00000000
00000000
00000000
00000000

TIL 1m
00000000
00000000
00000000
00000000
00000000
00000000
00000000
00000000

TIL 1n
00001111
00001111
00001111
00001111
11111111
11111111
11111111
11111111

TIL 1o
11111111
11111111
11111111
11111111
00001111
00001111
00001111
00001111

TIL 1p
11111111
11111111
11111111
11111111
11110000
11110000
11110000
11110000

TIL 1q
00111000
01111000
11111100
11111111
11111111
11111111
01111110
00111100

TIL 1r
11110000
11110000
11110000
11110000
11111111
11111111
11111111
11111111

TIL 1s
00000000
00000000
00000000
00000000
11110000
11110000
11111111
11111111

TIL 1t
00001111
00001111
00001111
00001111
00000000
00000000
11111111
11111111

TIL 1u
11111111
11111111
11111111
11111111
00000000
00000000
11111111
11111111

TIL 1v
11110000
11110000
11110000
11110000
00000000
00000000
11111111
11111111

TIL 1w
11110000
11110000
11110000
11110000
00000000
00000000
11111111
11111111

TIL 1x
11111111
11111111
11111111
01111110
00111100
00000000
00000000
00000000

TIL 1y
00001111
00001111
00001111
00001111
11110000
11110000
11110000
11110000

TIL 1z
00000000
00000000
00000000
00000000
11111111
11111111
01111110
00111100

TIL 2a
11111111
11111111
10011001
10011001
10011001
10011001
11111111
11111111

TIL 2b
11111111
11111111
11111111
11000011
11000011
11000011
11000011
11000011

TIL 2c
11111111
11111111
00000000
00000000
11111111
11111111
11111111
11111111

TIL 2d
11111111
11111111
11000000
11000000
11001111
11001111
11001111
11001111

TIL 2e
11111111
11111111
00000000
00000000
11110000
11110000
11110000
11110000

TIL 2f
11110000
11110000
11110000
11110000
11110000
11110000
11110000
11111100

TIL 2g
11111100
11110000
11110000
11110000
11110000
11110000
11110000
11110000

TIL 2h
00000000
00000000
10000000
10000000
11111111
11111111
11111111
11111111

TIL 2i
00000000
00000000
00000001
00000001
11111111
11111111
11111111
11111111

TIL 2j
00001111
00001111
00001111
00001111
00001111
00001111
00001111
00111111

TIL 2k
00111111
00001111
00001111
00001111
00001111
00001111
00001111
00001111

TIL 2l
11111111
11111111
11111111
11111111
11111111
11111000
11111000
11111000

TIL 2m
11111111
11111111
11111111
11111111
11111111
00011111
00011111
00011111

TIL 2n
11111000
11111000
11111000
11111111
11111111
11111111
11111111
11111111

TIL 2o
00011111
00011111
00011111
11111111
11111111
11111111
11111111
11111111

TIL 2p
00011111
00011111
00011111
11111100
11111100
11111100
11111100
11111100

TIL 2q
11111000
11111000
11111000
00111111
00111111
00111111
00111111
00111111

TIL 2r
11111111
00011111
00011111
00011111
00011111
00011111
00011111
00011111

TIL 2s
11100000
00010000
00010000
00010000
00010000
00010000
00011111
11111111

TIL 2t
11111111
00000000
11011101
00010101
00011101
11010101
00000000
11111111

TIL 2u
11111111
00000000
00101100
10101010
01101010
00101100
00000000
11111111

TIL 2v
11111111
00000000
10101010
10101010
01000000
01001010
00000000
11111111

TIL 2w
11000111
11000100
11000101
11000101
11000101
11000101
11000100
11000111

TIL 2x
10000011
10000011
10000011
10000011
10000011
10000011
10000011
10000011

TIL 2y
11000000
11000000
11000000
11000000
11000000
11000000
11000000
11000000

TIL 2z
00000011
00000011
00000011
00000011
00000011
00000011
00000011
00000011

TIL 3a
00101010
01001011
01001000
01000111
00100000
00010001
00001110
00000000

TIL 3b
01110011
10001100
10000000
01001110
01010001
10010000
10001011
01001010

TIL 3c
11110000
00001100
00000010
11100010
00010001
00010001
10100010
10100010

TIL 3d
10100010
10100010
00100010
11000100
00000100
11000100
00111000
00000000

SPR 10
11111111
11111111
11111111
11111111
11101111
11111111
11111111
11111111

SPR 11
11111111
11111111
11111111
11111111
11111111
11111111
11111111
11111111
POS 3 13,8

SPR 12
11111111
11111111
11111111
11111111
11111111
11111111
11111111
11111111
POS 3 12,8

SPR 13
11111111
11111111
11111111
11111111
11111111
11111111
11111111
11111111
POS 3 11,8

SPR 14
11111111
11111111
11111111
11111111
11101111
11111111
11111111
11111111

SPR 15
11111111
11111111
11111111
11111111
11111111
11111111
11111111
11111111
POS 3 10,8

SPR 16
11111111
11111111
11111111
11111111
11111111
11111111
11111111
11111111
POS 3 13,9

SPR 17
11111111
11111111
11111111
11111111
11111111
11111111
11111111
11111111
POS 3 10,7

SPR 18
11111111
11111111
11111111
11111111
11111111
11111111
11111111
11111111
POS 3 13,7

SPR 19
11111111
11111111
11111111
11111111
11111111
11101111
11111111
11111111

SPR 20
00001110
10001010
11001111
11111100
11111100
01111100
00111100
00010100
>
00011100
10010100
10011110
11111100
11111100
01111100
00111100
00010100
DLG SPR_e
POS 3 4,5

SPR 21
00001110
10001010
11001111
11111100
11111100
01111100
00111100
00010100
>
00011100
10010100
10011110
11111100
11111100
01111100
00111100
00010100
DLG SPR_f
POS 3 5,10

SPR 22
00001110
10001010
11001111
11111100
11111100
01111100
00111100
00010100
>
00011100
10010100
10011110
11111100
11111100
01111100
00111100
00010100
DLG SPR_t
POS 3 1,13

SPR 23
00001110
10001010
11001111
11111100
11111100
01111100
00111100
00010100
>
00011100
10010100
10011110
11111100
11111100
01111100
00111100
00010100
DLG SPR_g
POS 3 6,2

SPR 24
00001110
10001010
10001111
11111100
11111100
01111100
00111100
00010100
>
00111000
00101001
01111001
00111111
00111111
00111110
00111100
00101000
DLG SPR_h
POS 3 9,13

SPR 25
00001110
10001010
10001111
11111100
11111100
01111100
00111100
00010100
>
00111000
00101001
01111001
00111111
00111111
00111110
00111100
00101000
DLG SPR_i
POS 3 10,2

SPR 26
00001110
10001010
10001111
11111100
11111100
01111100
00111100
00010100
>
00111000
00101001
01111001
00111111
00111111
00111110
00111100
00101000
DLG SPR_j
POS 3 2,8

SPR 27
00001110
10001010
10001111
11111100
11111100
01111100
00111100
00010100
>
00111000
00101001
01111001
00111111
00111111
00111110
00111100
00101000
DLG SPR_k
POS 3 13,14

SPR 28
00001110
10001010
10001111
11111100
11111100
01111100
00111100
00010100
>
00111000
00101001
01111001
00111111
00111111
00111110
00111100
00101000
DLG SPR_l
POS 3 1,9

SPR 29
01110000
01010001
11110011
01111111
00111111
00111110
00111100
00101000
>
00111000
00101001
01111001
00111111
00111111
00111110
00111100
00101000
DLG SPR_m
POS 3 14,1

SPR 30
00011000
00011001
00000000
01101000
01100000
00000011
00010011
00000000
POS 1 10,14

SPR 31
00011000
00011001
00000000
01101000
01100000
00000011
00010011
00000000
POS 1 11,14

SPR 32
00000000
00001001
00000000
01100000
01100100
00000000
00010010
00000000
DLG SPR_17
POS 2 10,6

SPR 33
00000000
00000000
00100000
00000100
00010000
01000001
00000000
00001000
DLG SPR_18
POS 2 11,6

SPR 34
00100000
00000100
10010001
00000000
00000000
00000000
00000000
00000000
POS 2 11,7

SPR 35
01110000
01010001
11110011
01111111
00111111
00111110
00111100
00101000
>
00111000
00101001
01111001
00111111
00111111
00111110
00111100
00101000
DLG SPR_19
POS 2 9,12

SPR 36
00001110
10001010
10001111
11111100
11111100
01111100
00111100
00010100
>
00111000
00101001
01111001
00111111
00111111
00111110
00111100
00101000
DLG SPR_1a
POS 2 8,14

SPR 37
00011000
00011001
00000000
01101000
01100000
00000011
00010011
00000000
DLG SPR_1h
POS 2 2,4

SPR 38
00011000
00011001
00000000
01101000
01100000
00000011
00010011
00000000
DLG SPR_1g
POS 2 6,3

SPR 39
00011000
00011001
00000000
01101000
01100000
00000011
00010011
00000000
DLG SPR_1f
POS 2 8,4

SPR A
00011100
10010100
10011110
11111100
11111100
01111100
00111000
00101000
>
00001110
10001010
11001111
11111110
11111100
01111100
00111000
00101000
DLG SPR_b
POS 0 5,7

SPR a
00000000
00000010
00010000
01000000
00001000
00000010
00100000
00000000
POS 0 10,10

SPR b
00000000
00001001
00000000
01100000
01100100
00000000
00010010
00000000
DLG SPR_0
POS 1 4,5

SPR c
00000000
00111000
00111000
00010000
00111000
00010000
00101000
00101000
>
00000000
00011100
00011100
00001000
00001100
00001000
00010100
00010100
DLG SPR_1
POS 1 6,3

SPR d
01110000
01010001
11110011
01111111
00111111
00111110
00111100
00101000
>
00111000
00101001
01111001
00111111
00111111
00111110
00111100
00101000
DLG SPR_2
POS 3 4,2

SPR e
01110000
01010001
11110011
01111111
00111111
00111110
00111100
00101000
>
00111000
00101001
01111001
00111111
00111111
00111110
00111100
00101000
DLG SPR_3
POS 1 2,4

SPR f
00000000
00000000
00000000
00000000
00000000
00000000
00000000
00000000

SPR g
00000000
00111000
00111000
00010000
00111000
00010000
00101000
00101000
>
00000000
00001110
00001110
00000100
00000110
00000100
00001010
00001010
DLG SPR_4
POS 0 11,4

SPR h
00000000
00000000
00000000
00000000
00000000
00000000
00000000
00000000
>
00000000
00000000
00000000
00000000
10000001
00000000
00100100
00000000
DLG SPR_5
POS 0 3,11

SPR i
00011000
00011001
00000000
01101000
01100000
00000011
00010011
00000000
DLG SPR_6
POS 2 3,3

SPR j
00101000
00000000
00101000
01111100
01111100
11111110
10101010
11111110
>
00000000
00000000
00101000
01111100
01111100
11111110
10101010
11111110
DLG SPR_7
POS 2 8,12

SPR k
00000000
00111000
00111000
00010000
00111000
00010000
00101000
00101000
>
00000000
00111000
00111000
00010000
00110000
10010000
00101000
00101000
DLG SPR_8
POS 2 12,5

SPR l
00000000
00000000
00000000
00000000
00000000
00000000
00000000
00000000
>
00000000
00000000
00000000
00000000
00000000
00000000
00100010
10001000
DLG SPR_9
POS 2 11,5

SPR m
00000000
00000000
00000000
01111100
01000100
01111100
00010000
00010000
DLG SPR_a
POS 2 6,7

SPR n
11111111
11111111
11111111
11111111
11111111
11111111
11111111
11111111
>
00000000
00000000
00000000
00000000
00000000
00000000
00000000
00000000
POS 3 12,3

SPR o
11111111
11111111
11111111
11111111
11111111
11111111
11111111
11111111
POS 3 11,3

SPR p
11111111
11111111
11111111
11111111
11111111
11111111
11111111
11111111
>
00000000
00000000
00000000
00000000
00000000
00000000
00000000
00000000
POS 3 12,4

SPR q
11111111
11111111
11111111
11111111
11110111
11111111
11111111
11111111

SPR r
11111111
11111111
11111111
11111111
11111111
11111111
11111111
11111111
POS 3 10,5

SPR s
11111111
11111111
11111111
11111111
11111111
11111111
11111111
11111111
POS 3 11,5

SPR t
11111111
11111111
11111111
11111111
11111111
11111111
11111111
11111111
>
00000000
00000000
00000000
00000000
00000000
00000000
00000000
00000000
POS 3 12,5

SPR u
11111111
11111111
11111111
11111111
11111111
11111111
11111111
11111111
POS 3 11,6

SPR v
11111111
11111111
11111111
11111111
11111111
11111111
11111111
11111111
>
00000000
00000000
00000000
00000000
00000000
00000000
00000000
00000000
POS 3 12,6

SPR w
11111111
11111111
11111111
11111111
11111111
11111111
11111111
11111111
POS 3 11,7

SPR x
11111111
11111111
11111111
11111111
11111111
11111111
11111111
11111111
POS 3 12,7

SPR y
11111111
11111111
11111111
11111111
11101111
11111111
11111111
11111111

SPR z
11111111
11111111
11111111
11111111
11111111
11111111
11111111
11111111
POS 3 14,8

SPR 1a
11111111
11111111
11111111
11111111
11111111
11111111
11111111
11111111
POS 3 10,10

SPR 1b
11111111
11111111
11111111
11111111
11111111
11111111
11111111
11111111
POS 3 10,9

SPR 1c
11111111
11111111
11111111
11111111
11111111
11111111
11111111
11111111
POS 3 11,9

SPR 1d
11111111
11111111
11111111
11111111
11111111
11111111
11111111
11111111
POS 3 10,3

SPR 1e
11111111
11111111
11111111
11111111
11111111
11110111
11111111
11111111

SPR 1f
11111111
11111111
11111111
11111111
11111111
11110111
11111111
11111111

SPR 1g
11111111
11111111
11111111
11111111
11111111
11111111
11111111
11111111
>
00000000
00000000
00000000
00000000
00000000
00000000
00000000
00000000
POS 3 10,4

SPR 1h
11111111
11111111
11111111
11111111
11111111
11111111
11111111
11111111
POS 3 9,5

SPR 1i
11111111
11111111
11111111
11111111
11111111
11101111
11111111
11111111

SPR 1j
11111111
11111111
11111111
11111111
11111111
11111111
11110111
11111111

SPR 1k
11111111
11111111
11111111
11111111
11111111
11111111
11111111
11111111
POS 3 10,6

SPR 1l
11111111
11111111
11111111
11111111
11111111
11111111
11111111
11111111
POS 3 12,9

SPR 1m
11111111
11111111
11111111
11111111
11111111
11111111
11111111
11111111
POS 3 12,10

SPR 1n
11111111
11111111
11111111
11111111
11111111
11111111
11111111
11111111
POS 3 15,7

SPR 1o
11111111
11111111
11111111
11111111
11111111
11111111
11111111
11111111
POS 3 15,6

SPR 1p
11111111
11111111
11111111
11111111
11111111
11111111
11111111
11111111
POS 3 15,5

SPR 1q
11111111
11111111
11111111
11111111
11111111
11111111
11111111
11111111
POS 3 14,7

SPR 1r
00000000
00000000
00000000
00000000
00000000
00000000
00000000
00000000
>
11111111
11111111
11111111
11111111
11111111
11111111
11111111
11111111

SPR 1s
00000000
00000000
00000000
00000000
00000000
00000000
00000000
00000000
>
11111111
11111111
11111111
11111111
11111111
11111111
11111111
11111111
POS 3 9,3

SPR 1t
00000000
00000000
00000000
00000000
00000000
00000000
00000000
00000000
>
11111111
11111111
11111111
11111111
11111111
11111111
11111111
11111111
POS 3 9,6

SPR 1u
00000000
00000000
00000000
00000000
00000000
00000000
00000000
00000000
>
11111111
11111111
11111111
11111111
11111111
11111111
11111111
11111111
POS 3 9,4

SPR 1v
00000000
00000000
00000000
00000000
00000000
00000000
00000000
00000000
>
11111111
11111111
11111111
11111111
11111111
11111111
11111111
11111111
POS 3 8,5

SPR 1w
00000000
00000000
00000000
00000000
00000000
00000000
00000000
00000000
>
11111111
11111111
11111111
11111111
11111111
11111111
11111111
11111111

SPR 1x
00000000
00000000
00000000
00000000
00000000
00000000
00000000
00000000
>
11111111
11111111
11111111
11111111
11111111
11111111
11111111
11111111
POS 3 14,6

SPR 1y
00000000
00000000
00000000
00000000
00000000
00000000
00000000
00000000
>
11111111
11111111
11111111
11111111
11111111
11111111
11111111
11111111
POS 3 11,4

SPR 1z
00001110
10001010
10001111
11111100
11111100
01111100
00111100
00010100
>
00111000
00101001
01111001
00111111
00111111
00111110
00111100
00101000
DLG SPR_d
POS 3 3,2

SPR 2a
01110000
01010001
11110011
01111111
00111111
00111110
00111100
00101000
>
00111000
00101001
01111001
00111111
00111111
00111110
00111100
00101000
DLG SPR_n
POS 3 6,8

SPR 2b
01110000
01010001
11110011
01111111
00111111
00111110
00111100
00101000
>
00111000
00101001
01111001
00111111
00111111
00111110
00111100
00101000
DLG SPR_o
POS 3 5,14

SPR 2c
00000000
00000000
00000000
01111100
01000100
01111100
00010000
00010000
POS 7 6,9

SPR 2d
00000000
00000000
00000000
01111100
01000100
01111100
00010000
00010000
DLG SPR_c
POS 3 8,10

SPR 2e
00000000
00000010
00010000
01000000
00001000
00000010
00100000
00000000
DLG SPR_p
POS 3 1,3

SPR 2f
00000000
00000010
00010000
01000000
00001000
00000010
00100000
00000000
DLG SPR_q
POS 3 2,6

SPR 2g
00000000
00000000
00000000
00000000
00000000
00000000
00000000
00000000

SPR 2h
00011000
00011001
00000000
01101000
01100000
00000011
00010011
00000000
DLG SPR_r
POS 3 2,11

SPR 2i
00011000
00011001
00000000
01101000
01100000
00000011
00010011
00000000
POS 3 1,11

SPR 2j
00011000
00011001
00000000
01101000
01100000
00000011
00010011
00000000
POS 3 1,12

SPR 2k
00011000
00011001
00000000
01101000
01100000
00000011
00010011
00000000
POS 3 2,12

SPR 2l
00011000
00011001
00000000
01101000
01100000
00000011
00010011
00000000
POS 3 2,13

SPR 2m
00000000
00000010
00010000
01000000
00001000
00000010
00100000
00000000
DLG SPR_s
POS 3 4,4

SPR 2n
00000000
00111000
00111000
00010000
00111000
00010000
00101000
00101000
DLG SPR_u
POS 0 10,13

SPR 2o
00000000
00001110
00001110
00000100
00001110
00000100
00001010
00001010
DLG SPR_v
POS 0 9,13

SPR 2p
00000000
00001110
00001111
00000101
00001110
00000100
00001010
00001010
>
00000000
01001110
00101111
00000101
00101110
01000100
00001010
00001010
DLG SPR_w
POS 0 13,12

SPR 2q
00000000
00111000
00111100
00010100
00111000
00010000
00101000
00101000
>
00000010
00111000
00111101
00010100
00111010
00010000
00101000
00101000
DLG SPR_x
POS 0 12,14

SPR 2r
00000000
00000010
00010000
01000000
00001000
00000010
00100000
00000000
DLG SPR_y
POS 1 1,4

SPR 2s
00000000
00000000
00000000
01100000
01100000
00000000
00000000
00000000
DLG SPR_z
POS 1 8,5

SPR 2t
00000000
00000000
00000000
00000000
10000000
11000000
11000000
00000000
DLG SPR_10
POS 1 13,11

SPR 2u
10000000
11000000
11000000
00000000
00000000
00000000
00000000
00000000
DLG SPR_11
POS 1 13,12

SPR 2v
00000000
00000000
00000000
00000000
00000000
00001100
11011100
11011100
DLG SPR_12
POS 1 12,10

SPR 2w
00000000
00000000
00000000
00000000
00000000
00000000
00110000
00110010
DLG SPR_15
POS 1 11,10

SPR 2x
00000000
00000000
00000000
00000001
00000011
00000011
00000000
00000000
DLG SPR_14
POS 1 10,11

SPR 2y
00000001
00000011
00000011
00000000
00000000
00000000
00000000
00000000
DLG SPR_13
POS 1 10,12

SPR 2z
00011000
00011001
00000000
01101000
01100000
00000011
00010011
00000000
DLG SPR_16
POS 1 10,13

SPR 3a
00011000
00011001
00000000
01101000
01100000
00000011
00010011
00000000
DLG SPR_1e
POS 2 1,4

SPR 3b
00011000
00011001
00000000
01101000
01100000
00000011
00010011
00000000
DLG SPR_1d
POS 2 7,4

SPR 3c
00011000
00011001
00000000
01101000
01100000
00000011
00010011
00000000
DLG SPR_1c
POS 2 5,4

SPR 3d
00011000
00011001
00000000
01101000
01100000
00000011
00010011
00000000
DLG SPR_1b
POS 2 4,4

SPR 3e
00000000
00000000
00100000
00000100
00010000
01000001
00000000
00001000
POS 3 1,6

SPR 3f
00000000
00000000
00000000
00000000
00000000
00100001
10001000
00000010
POS 3 2,3

SPR 3g
00000000
00000000
00100000
00000100
00010000
01000001
00000000
00001000
POS 3 3,3

DLG a
... It's pebbles.

DLG SPR_0
Ooh! Bread crumbs! 

DLG SPR_1
Whoops! 

DLG SPR_2
Hello! Find any good crumbs lately?

DLG SPR_3
Don't steal my crumbs!!

DLG SPR_4
EW! 

DLG SPR_5
Splash splash!

DLG SPR_6
Berries??

DLG SPR_7
A whole cake? Wow! 

DLG SPR_8
How nice!

DLG SPR_9
More crumbs!!

DLG SPR_a
Pigeons welcome.

DLG SPR_b
It's party time!

DLG SPR_c
Respect the Pigeon.

DLG SPR_d
Pigeon party! Yeah!

DLG SPR_e
Unlimited bread crumbs! 

DLG SPR_f
Man, being a pigeon is great!

DLG SPR_g
Bob your head with me! 

DLG SPR_h
Hey don't go down there.

DLG SPR_i
I'm dancing on his head!

DLG SPR_j
Welcome to Pigeon Party!

DLG SPR_k
And not a human in sight!

DLG SPR_l
Dance with us!

DLG SPR_m
*peck peck*

DLG SPR_n
Respect the Pigeon!

DLG SPR_o
I wouldn't go down there if I were you.

DLG SPR_p
Bread crumbs!

DLG SPR_q
Aw yiss! Bread crumbs!!

DLG SPR_r
These berries are delicious!

DLG SPR_s
Rye bread? Yum!

DLG SPR_t
Most pigeons prefer bread crumbs, but I LOVE berries! 

DLG SPR_u
Agh a pigeon!

DLG SPR_v
I hate pigeons!

DLG SPR_w
I thought I told you NOT to sell!

DLG SPR_x
No honey, it's gonna be another long night. 

DLG SPR_y
Bread crumbs!

DLG SPR_z
Berry? ...No, just a jawbreaker.

DLG SPR_10
YUM!

DLG SPR_11
These are the best berries!

DLG SPR_12
Ooh a big one!

DLG SPR_13
What a delicious tree full of berries!

DLG SPR_14
*peck peck*

DLG SPR_15
Mmmm.

DLG SPR_16
Berries???

DLG SPR_17
Yum yum!

DLG SPR_18
*peck peck*

DLG SPR_19
I'm 2 years old!

DLG SPR_1a
Have some cake!

DLG SPR_1b
These berries must have fallen from the trees!

DLG SPR_1c
These berries must have fallen from the trees!

DLG SPR_1d
These berries must have fallen from the trees!

DLG SPR_1e
These berries must have fallen from the trees!

DLG SPR_1f
These berries must have fallen from the trees!

DLG SPR_1g
These berries must have fallen from the trees!

DLG SPR_1h
These berries must have fallen from the trees!

END 0


END undefined
Fly free.

