Ins and Outs

# BITSY VERSION 3.1

! ROOM_FORMAT 1

PAL 0
65,65,65
182,203,192
255,255,255

PAL 1
163,245,241
0,128,0
128,64,0

ROOM 0
a,a,a,a,a,a,a,a,a,a,a,a,a,a,a,f
p,p,p,p,p,p,p,p,p,p,p,p,p,p,p,c
b,a,a,a,a,a,a,a,a,a,g,a,a,g,a,j
c,p,p,p,p,p,p,p,p,p,c,p,p,c,p,c
c,p,b,a,g,a,a,a,f,p,d,g,a,e,p,c
c,p,c,p,c,p,0,p,c,p,p,c,p,p,p,c
i,a,j,p,c,p,p,p,c,p,p,c,p,b,a,j
c,p,l,p,d,a,a,a,k,a,a,e,p,c,p,c
c,p,p,p,p,p,p,p,c,p,p,p,p,c,p,c
d,a,a,a,a,a,a,a,h,a,a,f,p,c,p,c
p,p,p,p,p,p,p,p,p,p,0,c,p,i,a,e
b,a,a,a,a,a,g,a,a,a,a,h,a,j,p,p
c,p,p,p,p,p,c,p,p,p,p,p,p,c,p,p
c,p,m,a,a,a,h,a,a,a,a,f,p,c,p,p
c,p,p,p,p,p,p,p,p,p,p,c,p,c,0,p
d,a,a,a,a,a,a,a,a,a,a,e,p,d,a,a
WAL p,t
EXT 15,3 0 0,0
EXT 2,13 0 13,14
EXT 13,11 0 6,4
EXT 2,7 1 7,12
END 0 15,15
PAL 0

ROOM 1
0,0,0,0,0,0,0,0,0,0,0,0,0,0,0,0
0,0,0,0,0,0,0,0,0,0,0,0,0,0,0,0
0,0,0,0,0,0,0,0,0,0,0,0,0,0,0,0
0,0,0,0,0,0,0,0,0,0,0,0,0,0,0,0
0,0,0,0,0,0,0,0,0,0,0,0,0,0,0,0
0,0,0,0,0,0,0,0,0,0,0,0,0,0,0,0
0,0,0,0,0,0,0,0,0,0,0,0,0,0,0,0
0,0,0,0,0,0,0,0,0,0,0,0,0,0,0,0
0,0,0,0,0,0,0,0,0,0,0,0,0,0,0,0
0,0,0,0,0,0,0,0,0,0,0,0,0,0,0,0
t,t,t,t,t,0,0,t,t,t,t,t,s,t,t,t
q,q,q,q,q,0,0,q,q,q,q,q,r,q,q,0
0,0,0,0,0,0,0,0,a,a,a,a,e,0,0,0
0,0,0,0,0,0,0,0,0,0,0,0,0,0,0,0
0,0,0,0,0,0,0,0,0,0,0,0,0,0,0,0
0,0,0,0,0,0,0,0,0,0,0,0,0,0,0,0
WAL p,t
END 1 12,10
PAL 1

TIL a
00000000
11111111
11111111
00000000
00000000
11111111
11111111
00000000

TIL b
00000000
01111111
01111111
01100000
01100000
01100111
01100111
01100110

TIL c
01100110
01100110
01100110
01100110
01100110
01100110
01100110
01100110

TIL d
01100110
01100111
01100111
01100000
01100000
01111111
01111111
00000000

TIL e
01100110
11100110
11100110
00000110
00000110
11111110
11111110
00000000

TIL f
00000000
11111110
11111110
00000110
00000110
11100110
11100110
01100110

TIL g
00000000
11111111
11111111
00000000
00000000
11100111
11100111
01100110

TIL h
01100110
11100111
11100111
00000000
00000000
11111111
11111111
00000000

TIL i
01100110
01100111
01100111
01100000
01100000
01100111
01100111
01100110

TIL j
01100110
11100110
11100110
00000110
00000110
11100110
11100110
01100110

TIL k
01100110
11100111
11100111
00000000
00000000
11100111
11100111
01100110

TIL l
01100110
01100110
01100110
01100110
01100110
01111110
01111110
00000000

TIL m
00000000
01111111
01111111
01100000
01100000
01111111
01111111
00000000

TIL n
00000000
01111110
01111110
01100110
01100110
01100110
01100110
01100110

TIL o
00000000
11111110
11111110
00000110
00000110
11111110
11111110
00000000

TIL p
00000000
00000000
00000000
00000000
00000000
00000000
00000000
00000000

TIL q
10100101
10100101
11111111
00000000
00000000
00000000
00000000
00000000

TIL r
10000001
10000001
11111111
01100110
01100110
01100110
01100110
01100110

TIL s
01111110
10000001
11111111
10000001
10000001
10000001
10000001
10000001

TIL t
00000000
00000000
00010000
00010000
00011000
01011001
10101011
10100101

SPR 10
00100000
00100000
00100000
00100000
01000000
01000000
01000000
01000000
POS 1 5,9

SPR 11
01000000
10000000
10000000
10000000
10000000
10000000
10000000
10000000
POS 1 5,10

SPR 12
00000001
00000001
00000001
00000001
00000001
00000001
00000001
00000001
POS 1 4,11

SPR 13
00000001
00000001
00000010
00000010
00000010
00000010
00000001
00000000
POS 1 4,12

SPR 14
00000000
00000000
00000000
00000000
00000000
00000000
00000000
10000000
POS 1 5,12

SPR 15
01110000
00001111
00000000
00000000
00000000
00000000
00000000
00000000
POS 1 5,13

SPR 16
00001100
11110000
00000000
00000000
00000000
00000000
00000000
00000000
POS 1 6,13

SPR 17
00000000
00000000
00000000
00000000
00000000
00000000
00000000
00000011
POS 1 6,12

SPR 18
01000000
01000000
00100000
00100000
00100000
00100000
11000000
00000000
POS 1 7,12

SPR 19
00000000
00000000
00000000
10000000
10000000
10000000
10000000
10000000
POS 1 7,11

SPR A
00000000
00000000
00011000
00111100
00111100
00011000
00000000
00000000
POS 0 0,0

SPR a
00111100
01000010
10011001
10100101
10100101
10011001
01000010
00111100
>
00000000
00111100
01100110
01011010
01011010
01100110
00111100
00000000
POS 0 6,5

SPR b
00011000
00100100
01000010
10011001
10011001
01000010
00100100
00011000
>
00011000
00100100
01100110
10000001
10000001
01100110
00100100
00011000
POS 0 10,10

SPR c
00100100
01011010
10000001
01000010
01000010
10000001
01011010
00100100
>
00000000
01111110
01011010
01100110
01100110
01011010
01111110
00000000
POS 0 14,14

SPR d
00000000
00000000
00000000
00000000
00000000
00000000
00000011
11111100
POS 1 4,4

SPR e
00000000
00000000
00000000
00000000
00000000
00000000
11111111
00000000
POS 1 5,4

SPR f
00000000
00000000
00000000
00000000
00000000
00000000
11111110
00000001
POS 1 6,4

SPR g
00000000
00000000
00000000
00000000
00000000
00000000
00000000
11110000
POS 1 7,4

SPR h
00001111
00000000
00000000
00000000
00000000
00000000
00000000
00000000
POS 1 7,5

SPR i
00000000
11000000
00110000
00001100
00000010
00000001
00000000
00000000
POS 1 8,5

SPR j
00000000
00000000
00000000
00000000
00000000
10000000
01000000
00100000
POS 1 9,5

SPR k
00010000
00001000
00000100
00000100
00000010
00000010
00000001
00000001
POS 1 9,6

SPR l
00000001
00000001
00000001
11110001
00001101
00000011
00000010
00000100
POS 1 9,7

SPR m
00000000
00000000
11110000
00001111
00000000
00000000
00000000
00000000
POS 1 8,7

SPR n
00000000
11111000
00000111
00000000
00000000
00000000
00000000
00000000
POS 1 7,7

SPR o
11111100
00000011
00000000
00000000
00000000
00000000
11110000
00001100
POS 1 6,7

SPR p
00111111
11000000
00000000
00000000
00000000
00000000
00000111
00011000
POS 1 5,7

SPR q
00000000
00111111
11000000
00000000
00000000
00000000
00000000
00000000
POS 1 4,7

SPR r
00000000
00000000
00001111
11110000
00000000
00000000
00000000
00000000
POS 1 3,7

SPR s
10000000
10000000
10000000
10000000
10000011
10011100
01100000
00100000
POS 1 2,7

SPR t
00010000
00100000
00100000
01000000
10000000
10000000
10000000
10000000
POS 1 2,6

SPR u
00000000
00000000
00000000
00000000
00000000
00000011
00000100
00001000
POS 1 2,5

SPR v
00000000
00000111
00011000
01100000
10000000
00000000
00000000
00000000
POS 1 3,5

SPR w
00010000
00001100
00000011
00000000
00000000
00000000
00000000
00000000
POS 1 2,8

SPR x
00000000
00000000
00000000
11110000
00001111
00000000
00000000
00000000
POS 1 3,8

SPR y
00000000
00000000
00000000
00000000
11100000
00011111
00000000
00000000
POS 1 4,8

SPR z
01100000
10100000
00100000
00100000
00100000
11100000
00100000
00100000
POS 1 5,8

SPR 1a
00000001
00000001
00000001
00000000
00000000
00000000
00000000
00000000
POS 1 6,11

SPR 1b
00000010
00000010
00000010
00000010
00000010
00000010
00000001
00000001
POS 1 6,10

SPR 1c
00000100
00000100
00000100
00000100
00000100
00000100
00000100
00000100
POS 1 6,9

SPR 1d
00000011
00000010
00000010
00000100
00000100
00000100
00000111
00000100
POS 1 6,8

SPR 1e
00000000
00000000
00000000
00000000
00000000
11111111
00000000
00000000
POS 1 7,8

SPR 1f
00000000
00000000
00000000
00000001
00001110
11110000
00000000
00000000
POS 1 8,8

SPR 1g
00001000
00110000
11000000
00000000
00000000
00000000
00000000
00000000
POS 1 9,8

SPR 1h
00000000
00000000
01111110
00011000
00011000
00011000
00011000
00000000
POS 1 7,2

SPR 1i
00000000
00000000
01100110
01100110
01111110
01100110
01100110
00000000
POS 1 8,2

SPR 1j
00000000
00000000
01111110
01100000
01111000
01100000
01111110
00000000
POS 1 9,2

SPR 1k
00000000
00000000
01111110
01100000
01111000
01100000
01111110
00000000
POS 1 11,2

SPR 1l
00000000
00000000
01100110
01110110
01101110
01100110
01100110
00000000
POS 1 12,2

SPR 1m
00000000
00000000
01111000
01100110
01100110
01100110
01111000
00000000
POS 1 13,2

DLG a
The long way around

DLG b
Things are not what they seem

DLG c
Are you sure you've looked everywhere?

END 0
You have successfully navigated the maze... at least, most of it.

END 1
Congratulations! You have reached the end of this tiny game.

