I'm recording some sounds that remind me of you

# BITSY VERSION 5.1

! ROOM_FORMAT 1

PAL 0
117,233,167
224,255,200
242,245,151

PAL 1
24,48,35
134,153,120
133,135,83

PAL 2
0,0,0
142,152,142
128,135,108

ROOM 0
0,0,0,0,0,0,0,0,0,0,0,0,0,0,0,0
0,a,l,k,l,k,l,k,l,k,l,k,l,k,x,0
0,x,0,0,0,0,0,0,0,0,0,0,0,0,a,0
0,a,0,0,0,0,0,w,0,0,0,0,0,0,x,0
0,x,0,w,0,0,0,w,0,0,0,0,w,0,a,0
0,a,0,w,0,w,0,0,0,0,0,0,w,0,x,0
0,x,0,0,0,w,0,0,0,0,w,0,0,0,a,0
0,a,0,0,0,0,0,0,0,0,w,0,0,0,x,0
n,n,n,n,n,n,n,n,n,n,n,n,n,n,n,n
k,k,k,k,k,k,k,k,k,k,k,k,k,k,k,k
n,n,n,n,n,n,n,n,n,n,n,n,n,n,n,n
0,a,0,0,0,0,0,0,0,0,0,0,0,0,x,0
0,x,0,w,0,0,0,0,0,0,0,0,w,0,a,0
0,a,0,w,0,0,0,w,0,0,0,0,w,0,x,0
0,x,k,l,k,l,k,w,k,l,k,l,k,l,a,0
0,0,0,0,0,0,0,0,0,0,0,0,0,0,0,0
ITM 8 10,5
ITM 8 12,3
ITM 8 3,3
ITM 8 5,4
ITM 8 3,11
ITM 8 7,12
ITM 8 12,11
ITM 8 7,2
ITM 2 9,11
ITM b 4,9
ITM b 8,9
ITM b 12,9
EXT 15,9 1 7,15
PAL 0

ROOM 1
0,0,0,0,0,0,0,0,y,g,0,0,0,0,0,0
0,e,s,s,s,s,s,s,s,g,s,s,s,s,e,0
0,e,0,0,0,0,0,0,y,g,y,0,0,0,e,0
0,e,0,0,0,0,0,y,y,g,y,0,0,0,e,0
0,e,0,0,0,0,0,y,k,k,y,0,0,0,e,0
0,e,0,0,0,0,0,y,g,y,y,0,0,0,e,0
0,e,0,0,0,0,0,y,g,y,0,0,0,0,e,0
0,e,0,0,0,0,0,0,g,y,0,0,0,0,e,0
0,e,0,0,0,0,y,y,g,y,0,0,0,0,e,0
0,e,0,0,0,0,y,k,k,y,0,0,0,0,e,0
0,e,0,0,0,0,y,g,y,y,0,0,0,0,e,0
0,e,0,0,0,0,y,g,y,0,0,0,0,0,e,0
0,e,0,0,0,0,y,g,y,0,0,0,0,0,e,0
0,e,0,0,0,0,y,g,y,0,0,0,0,0,e,0
0,e,s,s,s,s,s,g,s,s,s,s,s,s,e,0
0,0,0,0,0,0,y,g,y,0,0,0,0,0,0,0
ITM a 4,7
ITM a 3,7
ITM a 11,3
ITM a 11,6
ITM a 10,6
ITM a 11,12
ITM a 11,11
ITM a 12,8
ITM a 10,5
ITM a 11,2
ITM a 12,2
ITM a 4,10
ITM a 4,12
ITM a 3,12
ITM a 3,13
ITM a 4,3
ITM a 5,3
ITM a 5,4
ITM a 5,10
ITM c 7,11
ITM c 8,6
ITM c 9,1
ITM a 4,9
ITM a 4,6
ITM a 11,9
ITM a 10,11
ITM 5 10,12
ITM a 12,9
ITM a 11,8
ITM a 11,5
ITM a 12,3
ITM a 4,4
ITM a 3,6
ITM a 5,9
ITM a 4,13
EXT 9,0 2 3,15
PAL 0

ROOM 2
0,0,0,0,0,0,0,0,0,0,0,0,0,0,0,0
0,p,u,p,u,p,u,p,u,p,u,p,u,p,u,0
0,j,0,0,0,0,0,0,0,0,0,0,0,0,d,0
0,d,0,0,0,0,0,0,0,0,0,0,0,0,j,0
0,j,0,0,0,0,0,b,b,b,b,b,0,0,d,0
0,d,0,0,0,0,0,b,i,i,i,b,0,0,j,0
0,j,0,0,0,0,0,b,0,i,0,b,0,0,d,0
0,d,0,0,0,0,0,b,i,i,i,b,0,0,j,0
0,j,0,0,0,0,0,b,b,k,b,b,0,0,d,0
0,d,0,0,0,0,0,0,c,0,c,0,0,0,j,0
0,j,y,y,y,y,y,y,y,v,y,0,0,0,d,0
0,d,y,t,q,q,q,q,q,t,y,0,0,0,j,0
0,j,y,v,y,y,y,y,y,y,y,0,0,0,d,0
0,d,y,v,y,0,0,0,0,0,0,0,0,0,j,0
0,u,p,v,p,u,p,u,p,u,p,u,p,u,p,0
0,0,y,t,y,0,0,0,0,0,0,0,0,0,0,0
ITM 6 9,8
ITM 4 8,6
ITM 4 10,6
ITM e 9,9
ITM d 4,11
ITM d 6,11
ITM d 8,11
EXT 9,7 3 9,0
PAL 0

ROOM 3
0,0,0,0,0,0,0,0,0,0,0,0,0,0,0,0
0,p,u,p,u,p,u,b,b,b,b,b,u,p,u,0
0,j,0,0,0,0,0,b,i,i,i,b,0,0,d,0
0,d,0,0,0,0,0,b,i,i,i,b,0,0,j,0
0,j,0,0,0,0,0,b,i,i,i,b,0,0,d,0
0,d,0,0,0,0,0,b,b,i,b,b,0,0,j,0
0,j,0,0,0,0,0,0,c,0,c,0,0,0,d,0
0,d,0,0,0,0,0,0,0,0,0,0,0,0,j,0
0,j,0,0,0,0,0,0,0,0,0,0,0,0,d,0
0,d,0,0,0,0,0,0,0,0,0,0,0,0,j,0
0,j,y,y,y,y,y,y,y,v,y,0,0,0,d,0
0,d,y,t,q,q,q,q,q,t,y,0,0,0,j,0
0,j,y,v,y,y,y,y,y,y,y,0,0,0,d,0
0,d,y,v,y,0,0,0,0,0,0,0,0,0,j,0
0,u,p,v,p,u,p,u,p,u,p,u,p,u,p,0
0,0,y,t,y,0,0,0,0,0,0,0,0,0,0,0
ITM 6 9,5
ITM 4 8,3
ITM 4 10,3
ITM 7 8,7
ITM 7 10,7
EXT 9,0 4 10,12
EXT 8,0 4 10,12
EXT 10,0 4 10,12
PAL 0

ROOM 4
0,0,0,0,0,0,0,0,0,0,0,0,0,0,0,0
0,0,0,0,0,0,0,0,0,0,0,0,0,0,0,0
0,0,0,0,0,0,0,0,0,0,0,0,0,0,0,0
0,0,0,0,0,0,0,0,0,0,0,0,0,0,0,0
0,0,0,0,0,0,0,0,0,0,0,0,0,0,0,0
0,0,0,0,0,0,0,0,0,0,0,0,0,0,0,0
0,0,0,0,0,0,0,0,0,0,0,0,0,0,0,0
0,0,0,0,0,0,0,0,0,0,0,0,0,0,0,0
0,0,0,0,0,0,0,0,0,0,0,0,0,0,0,0
0,0,0,0,0,0,0,0,0,0,0,0,0,0,0,0
0,0,0,0,0,0,0,0,0,0,0,0,0,0,0,0
0,0,0,0,0,0,0,0,0,0,0,0,0,0,0,0
0,0,0,0,0,0,0,0,0,0,0,0,0,0,0,0
0,0,0,0,0,0,0,0,b,b,b,b,b,0,0,0
0,0,0,0,0,0,0,0,b,i,i,i,b,0,0,0
0,0,0,0,0,0,0,0,b,i,i,i,b,0,0,0
ITM 4 9,15
ITM 4 11,15
PAL 1

ROOM 5
0,0,0,0,0,0,0,0,0,0,0,0,0,0,0,0
0,0,0,0,0,0,0,0,0,0,0,0,0,0,0,0
0,0,0,0,0,0,0,0,0,0,0,0,0,0,0,0
0,0,0,0,0,0,0,0,0,0,0,0,0,0,0,0
0,0,0,0,0,0,0,0,0,0,0,0,0,0,0,0
0,0,0,0,0,0,0,0,b,b,b,b,b,0,0,0
0,0,0,0,0,0,0,0,b,i,i,i,b,0,0,0
0,0,0,0,0,0,0,0,b,i,i,i,b,0,0,0
0,0,0,0,0,0,0,0,b,i,i,i,b,0,0,0
0,0,0,0,0,0,0,0,b,b,b,b,b,0,0,0
0,0,0,0,0,0,0,0,0,c,0,c,0,0,0,0
0,0,0,0,0,0,0,0,0,0,0,0,0,0,0,0
0,0,0,0,0,0,0,0,0,0,0,0,0,0,0,0
0,0,0,0,0,0,0,0,0,0,0,0,0,0,0,0
0,0,0,0,0,0,0,0,0,0,0,0,0,0,0,0
0,0,0,0,0,0,0,0,0,0,0,0,0,0,0,0
NAME lastroom
ITM 4 9,7
ITM 4 11,7
ITM 6 10,9
ITM 7 11,11
ITM 7 9,11
PAL 2

TIL a
01011010
01000010
11011011
00011000
00011000
11011011
01000010
01011010
NAME border v room 1
WAL true

TIL b
11111111
01000010
01111110
01111110
01111110
01111110
01000010
11111111
NAME spaceship-1
WAL true

TIL c
10111101
10100101
10111101
10111101
00000000
00100100
00000000
01111110
NAME spaceship
WAL true

TIL d
11100111
10100101
10100101
11000011
11000011
10100101
10100101
11100111
NAME border v room 3
WAL true

TIL e
10100101
00111100
10000001
11100111
11100111
10000001
00111100
10100101
NAME border v room 2
WAL true

TIL g
11100111
01111110
01100110
00111100
00111100
01100110
01111110
11100111
NAME steps room 2

TIL i
11111111
10000001
00100100
01100110
01100110
00100100
10000001
11111111
NAME spaceship - 2

TIL j
00100100
00100100
11011011
10111101
10111101
11011011
00100100
00100100
NAME border v room 3
WAL true

TIL k
11100111
00000000
00100100
01111110
01111110
00100100
00000000
11100111
NAME road room 1
WAL false

TIL l
01111110
00000000
10000001
10111101
10111101
10000001
00000000
01111110
NAME border h room 1
WAL true

TIL n
11111111
10111101
00000000
00000000
00000000
00000000
10111101
11111111
NAME road edge room 1 
WAL true

TIL p
11100111
00100100
11000011
00011000
00011000
11000011
00100100
11100111
NAME border h room 3
WAL true

TIL q
10100101
01000010
00011000
11000011
11000011
00011000
01000010
10100101
NAME path room 3 h

TIL s
10011001
00111100
11000011
11011011
11011011
11000011
00111100
10011001
NAME border h room 2
WAL true

TIL t
01011010
10000001
11111111
10000001
10000001
11111111
10000001
01011010
NAME path room 3 c

TIL u
00100100
11011011
11100111
00011000
00011000
11100111
11011011
00100100
NAME border h room 3
WAL true

TIL v
01000010
00000000
01000010
00011000
00011000
01000010
00000000
01000010
NAME path room 3 v

TIL w
01000010
11000011
10100101
11000011
11000011
10100101
11000011
01000010
NAME tree trunk room 1

TIL x
11011011
00011000
01111110
10000001
10000001
01111110
00011000
11011011
NAME border v room 1
WAL true

TIL y
00000000
00000000
00000000
00000000
00000000
00000000
00000000
00000000
NAME blank wall
WAL true

SPR A
00111100
01011010
10000001
10111101
11011011
01111110
11100111
01111110
POS 0 0,9

SPR a
10111101
11110111
10100110
11110100
11110100
10100110
11110111
10111101
NAME friend room 2
DLG SPR_0
POS 1 7,7

SPR b
01011010
11000011
10111101
01111110
00011000
00111100
01011010
00011000
NAME spaceship friend
DLG SPR_3
POS 2 3,10

SPR d
01100110
10100101
11011011
00011000
00100100
11100111
11011011
10100101
NAME hidden mountain friend
POS 1 4,9

SPR i
10000001
11011011
01011010
00111100
01111110
10011001
01011010
01111110
NAME alien gf
DLG SPR_2
POS 0 1,9

SPR l
00100100
10100101
01000010
10111101
11111111
10111101
11100111
11111111
NAME room 1 buddy
DLG SPR_1
POS 0 9,10

SPR m
01011010
11000011
10111101
01111110
00011000
00111100
01011010
00011000
NAME spaceship friend room 4
POS 3 3,10

SPR n
10000001
11011011
01011010
00111100
01111110
10011001
01011010
01111110
NAME alien gf room 4
POS 3 9,10

SPR o
00000000
00000000
00000000
00000000
00000000
00000000
00000000
00000000
DLG ITM_5
POS 4 9,12

SPR p
00000000
00000000
00000000
00000000
00000000
00000000
00000000
00000000
DLG ITM_5
POS 4 10,11

SPR q
00000000
00000000
00000000
00000000
00000000
00000000
00000000
00000000
DLG ITM_5
POS 4 11,12

SPR r
00000000
00000000
00000000
00000000
00000000
00000000
00000000
00000000
DLG ITM_6
POS 5 9,4

SPR s
00000000
00000000
00000000
00000000
00000000
00000000
00000000
00000000
DLG ITM_6
POS 5 10,3

SPR t
00000000
00000000
00000000
00000000
00000000
00000000
00000000
00000000
DLG ITM_6
POS 5 11,4

ITM 2
00111100
10011001
11000011
10111101
10111101
10100101
00100100
00011000

ITM 4
01100110
01000010
10111101
11100111
11100111
10111101
01000010
01100110
NAME spaceship window

ITM 5
10100101
01000010
11111111
10000001
01000010
11011011
01100110
01011010
NAME hidden mountain friend

ITM 6
00000000
11100111
11100111
10100101
10100101
11100111
11100111
00000000
NAME spaceship doors

ITM 7
10000001
10011001
01011010
00111100
00011000
01111110
10100101
01011010
>
10000001
10011001
01011010
00111100
00011000
01111110
10100101
10100101
NAME spaceship-flame

ITM 8
01000010
10100101
01111110
00100100
00100100
01111110
10100101
01000010
>
01000010
10100101
01111110
00100100
00100100
01111110
10100101
01000010
NAME tree leaves room 1

ITM a
00011000
01100110
01011010
01011010
01100110
10100101
00111100
00000000
NAME mountain rocks room 2

ITM b
11100111
00000000
00100100
01111110
01111110
00100100
00000000
11100111
NAME text room 1
DLG ITM_1

ITM c
11100111
01111110
01100110
00111100
00111100
01100110
01111110
11100111
NAME text room 2
DLG ITM_2

ITM d
10100101
01000010
00011000
11000011
11000011
00011000
01000010
10100101
DLG ITM_4

ITM e
00000000
00000000
00000000
00000000
00000000
00000000
00000000
00000000
DLG ITM_3

DLG ITM_1
"""
{sequence
  - Like the fshhhing of wind 
  - through the trees by your house
  - which sound like your antenna rubbing together
}
"""

DLG SPR_1
"""
{sequence
  - I'm gathering lichen for dinner!
  - Next time I think I'll just go to the store.
}
"""

DLG SPR_0
"""
{sequence
  - Help? Oh, no thanks. I'm just taking a break.
  - It's a long climb!
}
"""

DLG ITM_2
"""
{sequence
  - Like the zzzzzing of bugs
  - that live on the mountain
  - which sound like the way that you laugh
}
"""

DLG SPR_2
"""
{
  - {item "d"} == 3 ?
    I'll miss you.
  - else ?
    We'd better get going. You don't want to miss your flight. (follow "alien gf")
}
"""

DLG SPR_3
"""
{sequence
  - I came to watch the launch.
  - Isn't this exciting!
}
"""

DLG ITM_3
(unfollow "alien gf")

DLG ITM_4
"""
{sequence
  - Or the hrmmm of the engines
  - which sound like your sigh
  - as the spaceship gets ready to leave
}
"""

DLG ITM_5
So that when I am gone (exit "lastroom,10,4")

DLG ITM_6
And I start to feel lonely (end "At least I can always press play.")

