
A Presentation

# BITSY VERSION 4.4

! ROOM_FORMAT 1

PAL 0
21,21,43
248,255,240
255,255,255

PAL 1
234,252,186
66,61,9
0,0,77

PAL 2
30,53,45
219,217,251
255,255,255

ROOM 1
0,0,0,0,0,0,0,0,0,0,0,0,0,0,10,0
0,a,a,a,a,0,a,a,a,a,a,a,a,a,a,0
0,a,0,0,0,0,0,0,0,0,0,0,0,0,a,0
0,a,0,0,0,0,0,0,0,0,0,0,0,0,a,0
0,a,0,0,0,0,0,0,0,0,0,0,0,0,a,0
0,a,0,0,0,0,0,0,0,0,0,0,0,0,a,0
0,a,i,0,0,0,0,0,z,w,v,u,z,0,z,u
0,0,j,0,0,0,0,0,0,y,t,0,0,0,0,0
0,a,j,0,0,0,0,0,0,0,0,0,0,0,0,0
a,a,j,a,a,a,a,a,1b,0,0,0,0,0,a,0
11,11,k,13,13,16,0,0,1c,1g,1h,0,0,0,0,0
19,11,11,11,13,15,0,0,a,1p,1i,1j,1k,1l,1m,0
1a,18,17,17,14,0,0,a,0,0,0,0,0,0,1o,1f
a,a,a,a,a,a,a,0,0,0,0,0,0,0,a,0
0,0,0,0,0,0,0,0,a,a,0,0,0,0,a,0
0,0,0,0,0,0,0,0,0,0,0,0,0,0,0,0
EXT 0,10 4 15,10
EXT 0,11 4 15,11
EXT 0,12 4 15,12
PAL 0

ROOM 2
0,0,0,0,0,0,0,0,0,0,0,0,0,0,0,0
0,0,0,0,0,0,0,0,0,0,0,0,0,0,0,0
0,0,0,0,0,0,0,0,0,0,0,0,0,0,y,0
0,0,0,0,0,0,0,0,0,0,0,0,0,0,0,0
0,2a,2a,0,0,0,2a,2a,0,0,0,0,0,0,0,0
0,2a,2a,0,0,0,2a,2a,0,0,0,0,0,0,0,0
0,0,0,0,0,0,0,0,0,0,0,0,0,0,0,0
0,0,0,0,0,0,0,0,0,0,0,0,0,0,0,0
0,0,0,0,0,0,0,0,0,0,0,0,0,0,0,0
0,2a,2a,0,0,0,2a,2a,0,0,0,0,0,0,0,0
0,2a,2a,0,0,0,2a,2a,0,0,0,0,0,0,0,0
0,0,0,29,28,27,0,0,0,0,0,0,0,0,0,0
a,a,a,22,21,26,a,a,a,a,a,a,a,a,a,a
0,0,0,25,24,23,0,0,0,0,0,0,0,0,0,0
0,0,0,0,0,0,0,0,0,0,0,0,0,0,0,0
0,0,0,0,0,0,0,0,0,0,0,0,0,0,0,0
EXT 15,13 4 0,10
EXT 15,14 4 0,11
EXT 15,15 4 0,12
EXT 3,12 6 8,10
PAL 0

ROOM 4
0,0,0,0,0,0,0,0,0,0,0,0,0,0,10,0
0,a,a,a,a,a,a,a,a,a,a,a,a,a,a,0
0,a,0,0,0,0,0,0,0,0,0,0,0,0,a,0
0,a,0,0,0,0,0,0,0,0,0,0,0,0,a,0
0,a,0,0,0,0,0,0,0,0,0,0,0,0,a,0
0,a,0,0,0,0,0,0,0,0,0,0,0,0,a,0
0,a,i,0,0,0,0,0,0,0,0,i,0,0,0,0
0,0,j,0,0,0,0,0,0,0,0,j,0,0,0,0
0,a,j,0,0,0,0,0,0,0,0,j,0,0,0,0
a,a,1z,a,a,a,a,a,a,a,a,1z,a,a,a,a
13,11,k,13,13,16,0,0,12,11,11,k,11,11,16,0
19,11,11,11,13,15,0,0,1x,19,11,11,11,11,15,0
1a,18,17,17,14,0,0,0,0,1a,17,17,17,14,0,0
a,a,a,a,a,a,a,a,a,a,a,a,a,a,a,a
0,0,0,0,0,0,0,0,0,0,0,0,0,0,0,0
0,0,0,0,0,0,0,0,0,0,0,0,0,0,0,0
EXT 15,10 1 0,10
EXT 15,11 1 0,11
EXT 15,12 1 0,12
EXT 0,10 2 15,13
EXT 0,11 2 15,14
EXT 0,12 2 15,15
PAL 0

ROOM 6
0,0,0,0,0,0,0,0,0,0,0,0,0,0,0,0
0,0,0,0,0,0,0,0,0,0,0,0,0,0,0,0
0,0,0,0,0,0,0,0,0,0,0,0,0,0,0,0
0,0,0,0,0,0,0,0,0,0,0,0,0,0,0,0
0,0,0,2s,33,c,c,c,c,f,2t,0,0,0,0,0
0,0,2s,2r,j,0,0,0,0,e,0,2t,0,0,0,0
0,2s,2r,0,2n,2m,2m,2m,2i,2g,0,0,2t,0,0,0
0,3a,0,0,2o,2l,2l,2l,2k,2b,0,0,e,0,0,0
0,39,0,2w,3f,0,0,0,0,0,2t,0,e,0,0,0
0,39,2w,2v,0,0,0,0,0,0,0,2t,e,0,0,0
0,38,2v,0,0,0,0,2z,2x,2y,0,0,2u,0,0,0
0,31,c,c,c,c,c,c,c,c,c,c,c,0,0,0
0,0,0,0,0,0,0,0,0,0,0,0,0,0,0,0
0,0,0,0,0,0,0,0,0,0,0,0,0,0,0,0
0,0,0,0,0,0,0,0,0,0,0,0,0,0,0,0
0,0,0,0,0,0,0,0,0,0,0,0,0,0,0,0
EXT 8,10 2 3,13
EXT 9,7 7 10,12
PAL 1

ROOM 7
0,0,0,0,0,0,0,0,0,0,0,0,0,0,0,0
0,0,0,0,0,0,0,0,0,0,0,0,0,0,0,0
0,0,0,0,0,0,0,0,0,0,0,0,0,0,0,0
0,0,0,0,0,0,0,0,0,0,0,0,0,0,0,0
0,0,0,0,0,0,0,0,0,0,0,0,0,0,0,0
0,0,0,0,0,0,0,0,0,0,0,0,0,0,0,0
0,0,0,0,0,0,0,0,0,0,0,0,0,0,0,0
0,0,0,0,0,0,0,0,0,0,0,0,0,0,0,0
0,0,0,0,0,0,0,0,0,0,0,0,0,0,0,0
0,29,28,27,0,0,0,29,28,27,0,0,0,0,0,0
a,22,21,26,a,a,a,3g,21,26,a,a,a,a,0,0
0,25,24,23,0,0,0,25,24,23,0,0,0,a,0,0
0,0,0,0,0,0,0,0,0,0,0,0,a,0,0,0
a,a,a,a,a,a,a,a,a,a,a,a,0,0,0,0
0,0,0,0,0,0,0,0,0,0,0,0,0,0,0,0
0,0,0,0,0,0,0,0,0,0,0,0,0,0,0,0
EXT 1,10 8 4,15
PAL 2

ROOM 8
0,0,0,0,0,0,0,0,0,0,0,0,0,0,0,0
0,0,0,0,0,0,0,0,0,0,0,0,0,0,0,0
0,0,0,0,0,0,0,0,0,0,0,0,0,10,0,0
0,0,0,0,0,0,0,0,0,0,0,0,0,0,0,0
0,0,0,0,0,0,0,0,0,0,0,0,0,0,0,0
0,0,0,0,0,0,0,0,0,0,0,0,0,0,0,0
0,0,0,0,0,0,0,0,0,3m,w,v,u,0,0,u
0,0,0,0,0,0,0,0,0,0,0,0,0,0,0,0
0,0,0,0,0,0,0,0,0,0,0,0,0,0,0,0
0,0,0,0,0,0,0,0,0,0,0,0,0,0,0,0
0,0,0,0,0,0,0,0,0,0,0,0,0,0,0,0
0,0,0,3k,3h,3h,3h,3h,3h,3h,3h,3i,0,0,0,0
0,0,3k,3l,0,0,0,0,0,0,0,3j,3i,0,0,0
0,3k,3l,0,0,0,0,0,0,0,0,0,3j,3i,0,0
3k,3l,0,0,0,0,0,0,0,0,0,0,0,3j,3i,0
3l,0,0,0,3n,0,0,0,0,0,0,0,0,0,3j,3i
END 0 4,15
PAL 0

TIL 10
00000000
00000000
00000000
00010000
00000000
00000000
00000000
00000000

TIL 11
11111111
11111111
11111111
11111111
11111111
11111111
11111111
11111111

TIL 12
00001111
00011111
00011111
00011111
00011111
00011111
00011111
00011111
>
00011111
00111111
00111111
00111111
00111111
00111111
00111111
00111111

TIL 13
11111111
11111111
11111111
11111111
11111111
11111111
11111111
11111111

TIL 14
11111110
11111100
11111000
11100000
00000000
00000000
00000000
00000000
>
11111111
11111110
11111100
11111000
11100000
00000000
00000000
00000000

TIL 15
11110000
11110000
11110000
11100000
11100000
11000000
10000000
00000000
>
11111000
11111000
11111000
11110000
11110000
11100000
11000000
10000000

TIL 16
11110000
11111000
11111000
11111000
11111000
11111000
11111000
11111000
>
11111000
11111100
11111100
11111100
11111100
11111100
11111100
11111100

TIL 17
11111111
11111111
11111111
11111111
00000000
00000000
00000000
00000000
>
11111111
11111111
11111111
11111111
11111111
00000000
00000000
00000000

TIL 18
11111111
11111111
11111111
11111111
00000000
00000000
00000000
00000000
>
11111111
11111111
11111111
11111111
11111111
00000000
00000000
00000000

TIL 19
11111111
11111111
11111111
11111111
11111111
11111111
11111111
01111111
>
11111111
11111111
11111111
11111111
11111111
11111111
11111111
11111111

TIL 20
00000000
00000000
11111111
11111111
11111111
11111111
11111111
11111111
WAL true

TIL 21
00010001
01111101
00101001
10101011
10111011
10000011
11111111
11111111
>
00010001
01111101
00101001
10111011
10111011
10000011
11111111
11111111
WAL true

TIL 22
00000000
00111110
00111110
00111110
00111010
00111110
00111110
00111110
>
00000000
01111110
01111110
01111110
01111010
01111110
01111110
01111110

TIL 23
00000000
11111110
11111100
11110000
00000000
00000000
00000000
00000000
>
00000000
11111111
11111110
11111100
11111000
00000000
00000000
00000000

TIL 24
00000000
11111111
11111111
11111111
00000000
00000000
00000000
00000000
>
00000000
11111111
11111111
11111111
11111111
00000000
00000000
00000000

TIL 25
00000000
00111111
00011111
00000111
00000000
00000000
00000000
00000000
>
00000000
01111111
00111111
00011111
00000111
00000000
00000000
00000000

TIL 26
11111110
11111110
11111110
11111110
11111110
11111110
11111110
11111110
>
11111111
11111111
11111111
11111111
11111111
11111111
11111111
11111111
WAL true

TIL 27
00000000
00000000
11000000
11110000
11111000
11111100
11111100
11111110
>
00000000
11000000
11110000
11111000
11111100
11111110
11111110
11111111

TIL 28
00000000
11111111
11111111
11111111
11111111
11111111
11111111
11000111
>
01111110
11111111
11111111
11111111
11111111
11111111
11111111
11000111

TIL 29
00000000
00000001
00000111
00001111
00011111
00011111
00111111
00111111
>
00000000
00000011
00001111
00011111
00111111
00111111
01111111
01111111

TIL 30
01000000
01000000
01000001
01000010
01000100
01001000
01010000
01100000
WAL true

TIL 31
00111111
00000000
00000000
00000000
00000000
00000000
00000000
00000000
WAL true

TIL 32
01000000
01000000
01000000
01000000
01000000
01000000
01000000
01000000

TIL 33
00001111
00011000
00101000
01001000
10001000
00001000
00001000
00001000

TIL 34
00001000
00010000
00100000
01000000
01000000
01000000
01000000
01000000

TIL 35
00100000
01000000
01000000
01000000
01000000
01000000
01000000
01000000

TIL 36
00000000
00000000
00000000
00000000
00000000
00000000
00000000
00000000

TIL 37
00000100
00000100
00000100
00000100
00000100
00000100
00000100
00000100

TIL 38
00100000
00100000
00100001
00100010
00100100
00101000
00110000
00100000
WAL true

TIL 39
00100000
00100000
00100000
00100000
00100000
00100000
00100000
00100000

TIL a
00000000
00000000
00000000
00000000
00000000
00000000
00000000
00000000
WAL true

TIL b
11111111
00000011
00000101
00001001
00010001
00100001
01000001
10000001

TIL c
11111111
00000000
00000000
00000000
00000000
00000000
00000000
00000000
WAL true

TIL d
00000001
00000010
00000100
00001000
00010000
00100000
01000000
10000000

TIL e
00000001
00000001
00000001
00000001
00000001
00000001
00000001
00000001

TIL f
11111111
00000001
00000001
00000001
00000001
00000001
00000001
00000001

TIL i
00000000
00000000
00001000
00111110
00111110
00100010
00101010
00011100
>
00000000
00000000
00001000
00111110
00111110
00101010
00111110
00011100

TIL j
00001000
00001000
00001000
00001000
00001000
00001000
00001000
00001000
WAL true

TIL k
11110111
11110111
11110111
11110111
11110111
11110111
11100011
11000001
WAL true

TIL l
00000000
00000000
11111111
10000000
01000000
00100000
00011111
00000000

TIL n
00000000
00000000
00000000
00000001
00000001
00000010
00000100
00001000

TIL p
00000000
00000000
00000000
00000000
00001000
00011000
00110000
01100000

TIL q
00000000
00000000
11111111
00000000
00000000
00000000
11111111
00000000

TIL r
00000000
00000000
11111111
00000001
00000010
00000100
11111000
00000000

TIL s
00000000
00000000
00000000
00000000
00000000
00000000
00000000
00000000
WAL true

TIL t
00100100
00000000
00000000
00000000
00000000
00000000
00000000
00000000
>
01001000
00000000
00000000
00000000
00000000
00000000
00000000
00000000

TIL u
00000000
00000000
00000000
00000000
00010000
00010000
01011000
10101010
>
00000000
00000000
00000000
00000000
00010000
00010000
01011000
10110100

TIL v
00000000
00100000
00100010
00100010
01100010
01101010
01101010
01101001
>
00000000
00100000
00100010
00100010
01100010
01101010
01101010
10110100

TIL w
00000000
00000000
00000000
00000001
00000001
00010011
01011011
10101010
>
00000000
00000000
00000000
00000001
00000001
00010011
01011011
01110101

TIL x
01000100
00000000
00000000
00000000
00000000
00000000
00000000
00000000
>
00010001
00000000
00000000
00000000
00000000
00000000
00000000
00000000

TIL y
00010000
00000000
00000000
00000000
00000000
00000000
00000000
00000000

TIL z
00000000
00000000
00000000
00000000
00000000
00000000
00000000
10010000
>
00000000
00000000
00000000
00000000
00000000
00000000
00000000
01100100

TIL 1a
00111111
00011111
00000111
00000000
00000000
00000000
00000000
00000000
>
01111111
00111111
00011111
00000111
00000000
00000000
00000000
00000000

TIL 1b
00000000
00000000
00000000
00000000
00111000
00110000
00110000
00110000
>
00000000
00000000
00000000
00000000
00111000
00110000
00110000
00110000
WAL true

TIL 1c
00110000
01111000
01111110
00110001
00000000
00000000
00000000
00000000
WAL true

TIL 1d
00110000
00110000
00110000
00110000
00000000
00000000
00000000
00000000

TIL 1e
00000000
00000000
00000000
00000000
00111000
00110000
00110000
00110000
WAL true

TIL 1f
11000000
01111111
00100000
00100000
00010000
00010000
00001100
00000011
>
00000000
11000000
01111111
00100000
00100000
00010000
00010000
00001100

TIL 1g
00000000
00000000
00000000
11100000
00011000
00000100
00000011
00000000
>
00000000
00000000
00000000
11100000
00010000
00001000
00000100
00000011
WAL true

TIL 1h
00000000
00000000
00000000
00000000
00000000
00000000
10000000
01111000
>
00000000
00000000
00000000
00000000
00000000
00000000
00000000
10000000

TIL 1i
00000111
00000000
00000000
00000000
00000000
00000000
00000000
00000000
>
01111000
00000111
00000000
00000000
00000000
00000000
00000000
00000000

TIL 1j
10000000
01111000
00000111
00000000
00000000
00000000
00000000
00000000
>
00000000
10000000
01111000
00000111
00000000
00000000
00000000
00000000

TIL 1k
00000000
00000000
10000000
01111100
00000011
00000000
00000000
00000000
>
00000000
00000000
00000000
10000000
01111100
00000011
00000000
00000000

TIL 1l
00000000
00000000
00000000
00000000
11100000
00011111
00000000
00000000
>
00000000
00000000
00000000
00000000
00000000
11100000
00011111
00000000

TIL 1m
00000000
00000000
00000000
00000000
00000000
00000000
11110000
00001111
>
00000000
00000000
00000000
00000000
00000000
00000000
00000000
11110000

TIL 1n
00000000
00000000
00000000
00000000
00000000
00000000
00000000
00000000

TIL 1o
00000000
00000000
00000000
00000000
00000000
00000000
00000000
00000000
>
00001111
00000000
00000000
00000000
00000000
00000000
00000000
00000000

TIL 1p
00000000
00000000
00000000
00000000
00000000
00000000
00000000
00000000
>
00000000
00000000
00000000
00000000
00000000
00000000
00000000
00000000
WAL true

TIL 1q
01111111
00000001
00000001
00000001
00000001
00000001
00000001
00000001
WAL true

TIL 1r
00000000
00000000
00000000
00000000
00010000
00100000
01000000
10000000
WAL true

TIL 1s
00001001
00000000
00000000
00000000
00000000
00000000
00000000
00000000
>
01000010
00000000
00000000
00000000
00000000
00000000
00000000
00000000
WAL true

TIL 1t
11111111
00000000
00000000
00000000
00000000
00000000
00000000
00000000
WAL true

TIL 1u
11111111
00000000
00000000
00000000
00000000
00000000
00000000
00000000

TIL 1v
00000001
00000010
00000100
00001000
00010000
00100000
01000000
10000000
WAL true

TIL 1w
11111111
11111111
11111111
11111111
11111111
11111111
11111111
11111111

TIL 1x
00001111
00001111
00001111
00000111
00000011
00000001
00000000
00000000
>
00011111
00011111
00011111
00001111
00000111
00000011
00000001
00000000

TIL 1y
00000000
00000000
11111111
00000000
00000000
00000000
00000000
00000000
WAL true

TIL 1z
00001000
00001000
00001000
00001000
00001000
00001000
00001000
00001000
WAL true

TIL 2a
00000000
01101100
01101100
00000000
01101100
01101100
00000000
00000000

TIL 2b
10000001
11100001
10000001
11110001
10000001
11111001
10000001
11111101

TIL 2c
11111111
10000000
10101110
10101110
11111111
10000000
10101011
10101011

TIL 2d
11111100
00000100
11011100
11101100
11111100
00000100
10111100
10111100

TIL 2e
11111100
00000100
11011100
11101100
11111100
00000100
10111100
11111100

TIL 2f
11111111
10000000
10101110
10101110
11111111
10000000
10101011
10101011

TIL 2g
11111111
10000001
10000001
10000001
10000001
10000001
10000001
11000001

TIL 2h
11111111
11000000
10111111
10100000
10101101
10101101
10111111
10100000
WAL true

TIL 2i
11111000
00000110
11111110
00000010
01010110
01010110
11111110
00000010

TIL 2j
10101011
10101011
10111111
10100000
10101010
10101010
01101010
00111111
WAL true

TIL 2k
01010110
01010110
11111110
00000010
10110110
10110110
10110110
11111110
WAL true

TIL 2l
10101011
10101011
11111111
00000000
10001010
10101010
10101010
11111111
WAL true

TIL 2m
11111111
00000000
11111111
00000000
10001010
10101010
11111111
00000000
WAL true

TIL 2n
00001111
00010000
00111111
00100000
00101101
00101101
00111111
00100000

TIL 2o
00101011
00101011
00111111
00100000
00101010
00101010
00101010
00111111
WAL true

TIL 2p
00001000
00001000
00001000
00001000
00001000
00001000
00001000
00001000

TIL 2q
00001111
00011000
00101000
01001000
10001000
00001000
00001000
00001000

TIL 2r
00001000
00010000
00100000
01000000
10000000
00000000
00000000
00000000

TIL 2s
00000000
00000000
00000000
00000000
00000000
00000001
00000010
00000100

TIL 2t
10000000
01000000
00100000
00010000
00001000
00000100
00000010
00000001
WAL true

TIL 2u
10000001
01000001
00100001
00010001
00001001
00000101
00000011
00000001
WAL true

TIL 2v
01000000
10000000
00000000
00000000
00000000
00000000
00000000
00000000

TIL 2w
00000000
00000000
00000001
00000010
00000100
00001000
00010000
00100000
WAL true

TIL 2x
00000000
00000000
00000000
11111111
01010101
10101010
01010101
10101010

TIL 2y
00000000
00000000
00000000
10000000
01000000
10100000
01010000
10101000

TIL 2z
00000000
00000000
00000000
00000000
00000001
00000010
00000101
00001010

TIL 3a
00001000
00010000
00100000
00100000
00100000
00100000
00100000
00100000

TIL 3f
01000000
10000000
00000000
00000000
00000000
00000000
00000000
00000000
WAL true

TIL 3g
00111111
00111111
00111111
00111111
00111111
00111111
00111111
00111111
>
01111111
01111111
01111111
01111111
01111111
01111111
01111111
01111111
WAL true

TIL 3h
00000000
00000000
00000000
00000000
11111111
10101010
10101010
10101010
WAL true

TIL 3i
00000000
00000000
00000000
00000000
00000000
10000000
11000000
10100000

TIL 3j
10110000
00101000
00101100
00001010
00000011
00000010
00000010
00000000

TIL 3k
00000000
00000000
00000000
00000000
00000001
00000010
00000110
00001010

TIL 3l
00011010
00101000
01101000
10100000
10100000
10000000
10000000
00000000

TIL 3m
00000000
00000000
00000010
00000010
00010010
00010011
01011011
10101010
>
00000000
00000000
00000010
00000010
00010010
00010011
01011011
10110101

TIL 3n
00000000
00000000
00000000
00000000
00000000
00000000
00000000
11111111

SPR A
00000000
00011000
00011000
00011000
00011000
00011000
00011000
00011000
POS 4 7,11

SPR a
00000000
00011000
00011000
00011000
00011000
00011000
00011000
00011000
>
00000000
00000000
00011000
00011000
00011000
00011000
00011000
00011000
DLG SPR_0
POS 6 5,8

SPR b
00000000
00011000
00011000
00111100
01011010
01011000
00010100
00010100

SPR c
00000000
00000000
00000000
00000000
00000000
00000000
00000000
00000000

SPR d
00000000
00011000
00011000
00011000
00011000
00011000
00011000
00011000
>
00000000
00000000
00011000
00011000
00011000
00011000
00011000
00011000
DLG SPR_1
POS 8 7,12

ITM 0
00000000
00000000
00000000
00111100
01100100
00100100
00011000
00000000
NAME tea
DLG ITM_0

DLG SPR_0
"""
{sequence
  - Hello, I am the author. Very nice to meet you.
  - I have devoted my life to an odd study, and it is now accomplished. I am going to tell you the result. 
  - Please come upstairs, I will tell you the result there.
}
"""

DLG ITM_0
You found a nice warm cup of tea

DLG SPR_1
"""
{sequence
  - I don't know you... and you don't know me neither... but aren't there some mutual friends? What I am going to tell you is something of those mutual friends; some of them are my friends from childhood, but may be they are also yours.
  - What you are going to see is not important by itself. It is the pattern behind it that is important.
  - In the next dialogue box, I will tell you the result. After that, you can step out from here to end the game; I think I will delete this game sometime soon. Thank you for coming here.
  - www.albumangelorum.com
}
"""

END 0
Thank you for playing.

VAR a
42


