
Welcome to the Zoo!

# BITSY VERSION 4.8

! ROOM_FORMAT 1

PAL 0
81,94,90
128,159,255
243,253,254

ROOM 0
0,0,0,0,0,0,0,0,0,0,0,0,0,0,0,0
0,0,0,0,0,0,0,0,0,0,0,0,0,0,0,0
0,0,0,0,0,0,0,0,0,0,0,0,0,0,0,0
0,0,0,0,0,0,0,0,0,0,0,0,0,0,0,0
0,0,0,0,0,0,0,0,0,0,0,0,a,g,c,0
0,0,0,0,0,0,0,0,0,0,0,0,b,0,e,0
0,0,0,0,0,0,0,0,0,0,0,0,b,0,e,0
0,0,0,0,0,0,0,0,0,0,0,0,b,0,e,0
0,0,0,0,0,0,0,0,0,0,0,0,a,i,c,0
0,0,0,0,0,0,0,0,0,0,0,0,0,0,0,0
0,0,0,0,0,0,0,0,0,0,0,0,0,0,0,0
0,0,0,0,0,0,0,0,0,0,0,0,0,0,0,0
0,0,0,0,0,0,0,h,0,0,0,0,0,0,0,0
0,0,0,0,0,0,0,0,0,0,0,0,0,0,0,0
0,0,0,0,0,0,0,0,0,0,0,0,0,0,0,0
0,0,0,0,0,0,0,0,0,0,0,0,0,0,0,0
NAME Room
ITM 0 7,13
EXT 7,13 2 7,13
PAL 0

ROOM 2
0,0,0,0,0,0,0,0,0,0,0,0,0,0,0,0
0,0,0,0,0,0,0,0,0,0,0,0,0,0,0,0
0,0,0,0,0,0,0,0,0,0,0,0,0,0,0,0
0,0,0,0,0,0,0,0,0,0,0,0,0,0,0,0
0,0,0,0,0,0,0,0,0,0,0,0,a,g,c,0
0,0,0,0,0,0,0,0,0,0,0,0,b,0,e,0
0,0,0,0,0,0,0,0,0,0,0,0,b,0,e,0
0,0,0,0,0,0,0,0,0,0,0,0,b,0,e,0
0,0,0,0,0,0,0,0,0,0,0,0,a,0,c,0
0,0,0,0,0,0,0,0,0,0,0,0,0,0,0,0
0,0,0,0,0,0,0,0,0,0,0,0,0,0,0,0
0,0,0,0,0,0,0,0,0,0,0,0,0,0,0,0
0,0,0,0,0,0,0,h,0,0,0,0,0,0,0,0
0,0,0,0,0,0,0,0,0,0,0,0,0,0,0,0
0,0,0,0,0,0,0,0,0,0,0,0,0,0,0,0
0,0,0,0,0,0,0,0,0,0,0,0,0,0,0,0
PAL 0

TIL a
11000000
11000000
11000000
11000000
11000001
11011011
11011011
11111111
NAME FenceFrontL
WAL true

TIL b
11000000
11000000
11000000
11000000
11000000
11000000
11000000
11000000
NAME FenceSideL
WAL true

TIL c
00000011
00000011
00000011
00000011
10000011
11011011
11011011
11111111
NAME FenceFrontR
WAL true

TIL e
00000011
00000011
00000011
00000011
00000011
00000011
00000011
00000011
NAME FenceSideR
WAL true

TIL g
00000000
00000000
00000000
00000000
10000001
11011011
11011011
11111111
NAME FenceFront
WAL true

TIL h
00000000
01111110
01000010
01000010
01111110
00011000
00011000
00011000
NAME Sign
WAL true

TIL i
11111111
10000001
10011001
10100101
10111101
10111101
10000001
11111111
NAME Gate
WAL true

SPR A
00011000
00011000
00011000
00111100
01111110
10111101
00100100
00100100
>
00000000
00011000
00011000
00011000
00111100
01111110
01111110
00100100
POS 0 5,8

SPR a
00000000
00000000
01010001
01110001
01110010
01111100
00111100
00100100
>
00000000
00000000
01010001
01110010
01110010
01111100
00111100
00100100
NAME Kitty
DLG SPR_0
POS 0 13,6

SPR b
00011000
00001000
00011000
10111101
01100110
00111100
00100100
00100100
>
00011000
00001000
00011000
01111110
01100110
00111100
00100100
00100100
NAME Thief
DLG SPR_1
POS 0 13,9

SPR c
00000000
00000000
01010001
01110001
01110010
01111100
00111100
00100100
>
00000000
00000000
01010001
01110010
01110010
01111100
00111100
00100100
NAME Kitty3
DLG SPR_3

SPR d
00000000
00000000
01010001
01110001
01110010
01111100
00111110
00010010
>
00000000
00000000
01010001
01110010
01110010
01111100
00111100
00100100
NAME Kitty2
DLG SPR_4

ITM 0
00000000
00000000
01000000
10100000
10111111
10100101
01000101
00000000
NAME Key
DLG ITM_0

DLG SPR_0
Meow

DLG ITM_0
"""
You found a key next to a sign reading "DO NOT TAKE KEY"
Whoops...
Wait where'd they go?...
Well at the least the door is unlocked.
"""

DLG SPR_1
"""
{
  - {item "Key"} == 0 ?
    Gah this lock is impossible to break! If only I had something to open this with...
  - {item "Key"} == 1 ?
    SUCCESS! MWAHAHA {t = t + 1}
}{
  - t == 1 ?
    {}
  - else ?

}
"""

DLG SPR_2
Meow

DLG SPR_3
Meow!(Which means thank you so much for releasing me now I'm your friend forever <3)

DLG SPR_4
Meow!(Which means thank you so much for releasing me now I'm your friend forever <3)

VAR a
42

VAR t
0


W