             The Pit

# BITSY VERSION 3.5

! ROOM_FORMAT 1

PAL 0
61,40,15
126,76,58
255,191,103

PAL 1
188,168,148
105,63,51
153,126,62

PAL 2
126,76,55
61,40,9
173,136,54

PAL 3
98,61,47
50,31,13
153,121,50

PAL 4
76,53,41
43,35,19
145,88,38

PAL 5
76,48,51
43,34,33
145,96,57

ROOM 0
0,0,0,0,0,0,0,0,0,0,0,0,0,0,0,0
0,0,0,0,a,a,a,0,0,a,a,a,0,0,0,0
0,0,0,0,a,0,0,0,0,0,0,a,0,0,0,0
0,0,0,0,a,0,0,0,0,b,c,a,0,0,0,0
0,0,0,0,a,0,0,0,0,0,0,a,0,0,0,0
0,0,0,0,a,0,0,0,0,0,0,a,0,0,0,0
0,0,0,0,a,0,0,0,0,0,0,a,0,0,0,0
0,0,0,0,a,0,0,0,0,0,0,a,0,0,0,0
0,0,0,0,a,a,a,a,a,a,a,a,0,0,0,0
0,0,0,0,0,0,0,0,0,0,0,0,0,0,0,0
0,0,0,0,0,0,0,0,0,0,0,0,0,0,0,0
0,0,0,0,0,0,0,0,0,0,0,0,0,0,0,0
0,0,0,0,0,0,0,0,0,0,0,0,0,0,0,0
0,0,0,0,0,0,0,0,0,0,0,0,0,0,0,0
0,0,0,0,0,0,0,0,0,0,0,0,0,0,0,0
0,0,0,0,0,0,0,0,0,0,0,0,0,0,0,0
WAL d,r,m,a
EXT 7,1 1 7,14
EXT 8,1 1 8,14
PAL 0

ROOM 1
0,s,0,s,s,m,n,0,0,g,q,0,r,m,n,h
m,n,s,r,0,p,o,0,0,g,s,r,q,p,o,h
p,o,0,0,0,s,q,0,0,g,0,0,0,q,0,h
s,0,0,q,s,0,h,0,0,m,n,0,0,0,s,h
0,m,n,0,0,0,h,0,0,p,o,0,i,s,l,h
0,p,o,0,0,0,h,0,0,g,s,0,s,s,s,h
0,0,s,0,0,0,h,0,0,e,d,d,d,d,d,d
0,0,0,s,0,l,h,0,0,i,i,k,0,0,0,0
0,k,k,0,0,k,h,0,0,0,0,0,0,0,i,0
d,d,d,d,d,d,f,0,0,e,d,d,d,d,d,d
0,k,i,0,0,0,0,0,0,g,0,0,0,i,l,0
0,0,0,0,k,l,0,0,0,g,l,i,l,l,l,0
d,d,d,d,d,d,f,0,0,g,0,0,r,0,i,0
0,0,0,0,q,i,h,0,0,g,l,0,l,l,q,0
q,0,l,l,0,0,h,0,0,g,0,l,l,0,0,0
0,0,0,0,a,a,a,0,0,a,a,a,0,0,0,0
WAL g,h,f,e,d,m,o,n,q,r,p,a
EXT 7,15 0 7,2
EXT 8,15 0 8,2
EXT 8,0 2 8,14
EXT 0,10 7 15,7
EXT 0,11 7 15,8
EXT 15,7 8 0,6
EXT 15,8 8 0,7
PAL 1

ROOM 2
t,t,t,t,t,t,t,t,t,t,t,t,t,t,t,t
t,t,t,y,0,0,0,0,s,0,0,0,0,r,0,0
t,t,y,0,0,0,0,0,0,0,0,0,0,0,0,10
t,y,0,0,0,0,0,0,w,t,t,x,0,0,0,0
t,r,0,0,0,w,t,t,t,t,t,t,t,x,s,0
t,0,0,0,s,t,t,t,t,t,t,t,t,t,t,t
t,0,0,0,q,t,t,t,t,t,t,t,t,t,t,t
t,0,0,0,0,t,t,t,t,t,t,t,t,t,t,t
t,0,0,0,0,v,t,t,t,t,t,t,t,t,t,t
t,x,0,0,0,0,0,u,t,t,t,t,t,t,t,t
t,t,x,0,0,0,0,0,r,u,t,t,t,t,t,t
t,t,t,0,0,0,0,0,0,0,u,t,t,t,t,t
t,t,t,q,0,0,0,0,0,0,0,0,u,t,t,t
t,t,t,m,n,0,0,0,0,0,0,s,s,u,t,t
t,t,t,p,o,0,0,0,0,0,0,0,s,0,u,t
t,t,y,0,0,0,0,0,z,0,0,0,0,0,0,t
WAL v,w,x,y,u,r,q,p,o,n,m,t
EXT 8,15 1 8,1
EXT 15,2 3 1,11
PAL 2

ROOM 3
0,0,s,0,r,q,0,0,0,0,m,n,0,0,q,0
0,0,0,0,0,0,0,0,0,0,p,o,0,0,r,q
0,q,0,0,0,0,w,t,t,t,t,t,x,0,s,0
0,0,q,0,w,t,t,t,t,t,t,t,t,0,0,q
0,0,0,0,t,t,t,t,t,t,t,t,t,0,0,0
s,0,0,w,t,t,t,t,t,t,t,t,t,x,0,0
m,n,0,t,t,t,t,t,t,t,t,t,t,t,0,0
p,o,0,t,t,t,t,t,t,t,t,t,t,t,r,0
0,0,r,t,t,t,t,t,t,t,t,t,t,t,0,0
0,0,q,v,t,t,t,t,t,t,t,t,t,t,0,0
0,0,0,q,t,t,t,t,t,t,t,t,t,t,0,0
1b,0,0,0,t,t,t,t,t,t,t,t,t,1a,0,0
0,0,0,0,v,t,t,t,t,t,t,t,1a,0,0,0
0,0,0,0,0,0,11,11,11,t,t,1a,0,s,0,0
0,0,0,0,0,0,0,0,m,n,0,0,0,0,0,r
0,0,0,s,0,0,0,0,p,o,0,0,0,0,0,0
WAL t,u,v,w,x,1a,m,n,o,p,q,r
EXT 0,11 2 14,2
EXT 8,13 4 9,13
PAL 2

ROOM 4
t,t,t,t,t,t,t,t,t,t,t,t,t,t,t,t
t,t,t,t,t,t,t,t,t,t,t,t,t,t,t,t
t,t,t,t,t,16,0,0,0,0,0,0,u,t,t,t
t,t,t,t,16,0,w,t,t,t,t,0,0,t,t,t
t,t,t,t,0,15,t,t,t,y,m,n,0,t,t,t
t,t,t,t,12,t,t,t,t,y,p,o,0,19,t,t
t,t,t,t,12,t,t,t,t,t,t,t,x,0,t,t
t,t,t,t,12,t,t,t,t,t,t,t,t,0,t,t
t,t,t,t,t,t,t,t,t,t,t,t,t,0,t,t
t,t,t,t,t,t,t,t,t,t,t,t,t,0,t,t
t,t,t,t,t,t,t,t,t,t,t,t,t,0,t,t
t,t,t,t,t,t,t,t,t,t,t,t,t,0,t,t
t,t,t,t,t,t,t,t,t,t,t,t,16,15,t,t
t,t,t,t,t,t,t,t,t,11,11,11,15,t,t,t
t,t,t,t,t,t,t,t,t,t,t,t,t,t,t,t
t,t,t,t,t,t,t,t,t,t,t,t,t,t,t,t
WAL t,m,n,o,p,v,u,x,w
EXT 9,13 3 8,13
EXT 4,7 5 4,5
PAL 3

ROOM 5
t,t,t,t,t,t,t,t,t,t,t,t,t,t,t,t
t,t,t,t,t,t,t,t,t,t,t,t,t,t,t,t
t,t,t,t,t,t,t,t,t,t,t,t,t,t,t,t
t,t,t,t,t,t,t,t,t,t,t,t,t,t,t,t
t,t,t,t,t,t,t,t,t,t,t,t,t,t,t,t
t,t,t,t,12,t,t,t,t,t,t,t,t,t,t,t
t,t,t,t,12,t,t,t,t,t,t,t,t,t,t,t
t,t,t,t,12,t,t,t,t,t,t,12,t,t,t,t
t,t,t,t,0,t,t,t,t,t,t,12,t,t,t,t
t,t,t,t,0,t,t,t,t,t,t,12,t,t,t,t
t,t,t,t,17,11,0,q,t,16,11,15,t,t,t,t
t,t,t,t,t,t,17,0,11,15,t,t,t,t,t,t
t,t,t,t,t,t,t,t,t,t,t,t,t,t,t,t
t,t,t,t,t,t,t,t,t,t,t,t,t,t,t,t
t,t,t,t,t,t,t,t,t,t,t,t,t,t,t,t
t,t,t,t,t,t,t,t,t,t,t,t,t,t,t,t
WAL t,m,q
EXT 4,5 4 4,7
EXT 11,7 6 11,6
PAL 4

ROOM 6
t,t,t,t,t,t,t,t,t,t,t,t,t,t,t,t
t,t,t,t,t,t,t,t,t,t,t,t,t,t,t,t
t,t,t,t,t,t,t,t,t,t,t,t,t,t,t,t
t,t,t,t,t,t,t,t,t,t,t,t,t,t,t,t
t,t,t,t,t,t,t,t,t,t,t,t,t,t,t,t
t,t,t,t,t,t,t,t,16,0,11,12,t,t,t,t
t,t,t,t,t,t,11,11,15,14,t,12,t,t,t,t
t,t,t,t,t,t,12,t,18,13,t,t,t,t,t,t
t,t,t,t,t,t,12,t,0,0,t,t,t,t,t,t
t,t,t,t,t,t,17,11,0,15,t,t,t,t,t,t
t,t,t,t,t,t,t,t,t,t,t,t,t,t,t,t
t,t,t,t,t,t,t,t,t,t,t,t,t,t,t,t
t,t,t,t,t,t,t,t,t,t,t,t,t,t,t,t
t,t,t,t,t,t,t,t,t,t,t,t,t,t,t,t
t,t,t,t,t,t,t,t,t,t,t,t,t,t,t,t
t,t,t,t,t,t,t,t,t,t,t,t,t,t,t,t
WAL t,14,18,m
EXT 11,6 5 11,7
END 0 9,7
PAL 5

ROOM 7
0,0,0,0,0,0,0,0,0,0,0,0,0,0,0,0
0,0,l,0,0,0,0,0,0,0,0,0,0,0,0,0
0,0,0,0,0,0,0,0,0,0,0,0,0,0,0,0
0,0,0,0,0,0,0,0,l,0,0,0,0,0,0,0
0,0,0,0,0,0,0,0,0,0,0,0,0,0,0,0
0,0,0,0,0,0,0,0,0,0,0,0,0,i,0,0
d,d,d,d,d,d,d,d,q,d,d,d,d,d,d,d
0,0,0,0,0,0,0,0,0,0,0,0,0,0,0,0
0,0,0,0,0,0,0,0,0,0,0,0,0,0,0,0
d,d,d,d,d,d,d,d,d,d,d,d,d,d,d,d
0,0,0,0,0,0,0,0,0,0,0,0,0,0,0,0
0,0,i,0,0,0,0,0,0,0,0,0,0,0,0,0
0,0,0,0,0,0,0,0,0,0,0,0,l,0,0,0
0,0,0,0,0,0,0,0,0,0,0,0,0,0,0,0
0,0,0,l,0,0,0,0,0,0,0,0,0,0,0,0
0,0,0,0,0,0,0,0,0,0,0,0,0,0,0,0
WAL d,q
EXT 0,7 7 15,7
EXT 0,8 7 15,8
EXT 15,7 1 0,10
EXT 15,8 1 0,11
PAL 1

ROOM 8
0,0,0,0,g,0,0,0,0,0,0,h,m,n,s,0
0,0,0,0,g,0,1g,1f,1k,1l,0,h,p,o,0,0
0,l,0,0,g,1g,1d,1e,1h,1j,1l,h,s,0,r,0
0,0,r,0,g,1c,1d,1e,1h,1j,1i,h,0,0,s,q
0,0,0,0,g,1c,1d,1e,1h,1j,1i,h,0,0,0,0
d,d,d,d,d,1c,1d,1e,1h,1j,1i,f,k,0,0,e
0,0,0,0,0,0,0,0,0,0,0,h,0,0,0,0
0,0,0,0,0,0,0,0,0,0,0,h,0,s,i,0
d,d,d,d,f,0,0,0,0,0,0,h,0,0,0,0
0,0,0,0,e,d,d,d,d,d,d,f,q,0,0,k
0,r,0,s,0,0,0,0,0,0,0,0,0,0,0,0
0,0,0,0,0,0,0,0,i,0,0,0,0,k,0,0
0,0,0,0,0,0,q,0,s,0,0,0,0,l,0,r
0,i,0,0,s,0,0,e,d,f,0,0,k,0,0,0
0,0,0,r,0,0,0,0,k,0,0,l,0,0,0,0
0,0,0,0,0,0,0,0,0,0,0,0,0,0,0,0
WAL d,e,f,h,g,1c,1d,1e,1f,1g,1h,1i,1j,1k,1l
EXT 0,6 1 15,7
EXT 0,7 1 15,8
PAL 1

TIL 10
00000000
00001000
00001100
00001110
00001110
00001100
00001000
00000000

TIL 11
11101011
01001001
01001001
00101001
00100010
00001010
01001010
11101101

TIL 12
00000001
01100000
10011111
10000000
11000111
00110000
00100000
11001111

TIL 13
00000011
00100001
00110000
00010000
00011000
00001000
00011100
00011100

TIL 14
00110001
01111111
11111111
11111111
11111111
11111111
11100011
11000001

TIL 15
00000000
00000000
00000000
00000000
00000000
00000000
00000001
00000011

TIL 16
11000000
10000000
00000000
00000000
00000000
00000000
00000000
00000000

TIL 17
00000000
00000000
00000000
00000000
00000000
00000000
10000000
11000000

TIL 18
10000111
11111111
11111110
11111110
11111110
11111110
11000000
00000000

TIL 19
00000011
00000001
00000000
00000000
00000000
00000000
00000000
00000000

TIL a
10000111
01101110
00011001
11110111
00101100
11111111
10010001
01101110

TIL b
01111111
00100000
00100000
00100000
00000000
00000000
00000000
00000000

TIL c
11111110
00000100
00000100
00000100
00000000
00000000
00000000
00000000

TIL d
00011000
11111111
11111111
00011000
11111111
11111111
00011000
00011000

TIL e
00011000
00011111
00011111
00011000
00011111
00011111
00011000
00011000

TIL f
00011000
11111000
11111000
00011000
11111000
11111000
00011000
00011000

TIL g
00010000
00010000
00010000
00011000
00011000
00010000
00010000
00010000

TIL h
00001000
00001000
00001000
00011000
00011000
00001000
00001000
00001000

TIL i
00100000
01010000
00101000
01010100
10101000
01000010
00000101
00000010

TIL k
00000000
00000100
01001010
10100100
01000010
00000101
00000010
00000000

TIL l
00000100
01001010
10100100
01000000
00010000
00101000
00010000
00000000

TIL m
00000000
00000000
00000111
00011000
00100000
00100000
01000000
01000000

TIL n
00000000
00000000
11110000
00011000
00101100
00011100
00101100
01011100

TIL o
10111110
11111111
11111111
11111111
11111110
00000000
00000000
00000000

TIL p
01100010
01010101
00111111
00001111
00000011
00000000
00000000
00000000

TIL q
00000000
00111100
01000010
10000010
10010111
01101111
00111110
00000000

TIL r
00011000
00100100
00101110
01111110
10001100
10111100
01111000
00000000

TIL s
00000000
00001001
00001010
01010010
00100010
00101000
00000100
00000100

TIL t
11111111
11111111
11111111
11111111
11111111
11111111
11111111
11111111

TIL u
11111111
00011111
00001111
00000111
00000111
00000111
00000011
00000001

TIL v
11111111
11111111
11111111
01111111
01111111
00111111
00001111
00000011

TIL w
00000000
00001111
00111111
00111111
01111111
01111111
01111111
11111111

TIL x
10000000
11000000
11110000
11111000
11111000
11111100
11111100
11111110

TIL y
11111110
11000000
11000000
11100000
11100000
11000000
11000000
11100000

TIL z
00000000
00000000
00000000
00000000
01111110
00111100
00011000
00000000

TIL 1a
11111111
11111111
11111111
11111110
11111110
11111000
11000000
10000000

TIL 1b
00000000
00010000
00110000
01110000
01110000
00110000
00010000
00000000

TIL 1c
11110100
01010100
11110100
01000100
01000100
01111111
01000100
01000100

TIL 1d
01000100
01000100
01000100
01000100
01000100
11111111
01000100
01000100

TIL 1e
01000110
01000110
01000110
01000101
01000110
11111110
01000110
01000100

TIL 1f
01000100
01000100
11101110
01000100
01000100
11111100
01000100
01000100

TIL 1g
00000000
00000100
00000100
00001110
01000100
01000111
11100100
01000100

TIL 1h
01100010
01100010
01100010
10100010
01100010
01111111
01100010
00100010

TIL 1i
00101111
00101010
00101111
00100010
00100010
11111111
00100010
00100010

TIL 1j
00100010
00100010
00100010
00100010
00100010
11111111
00100010
00100010

TIL 1k
00100010
00100010
01110111
00100010
00100010
00111111
00100010
00100010

TIL 1l
00000000
00100000
00100000
01110000
00100010
11100111
00100010
00100010

SPR 10
11111111
10000001
10001001
10110101
10000001
11111111
00011000
00011000
POS 3 3,12

SPR A
00111100
01000010
01100110
11000011
10111101
11111111
00111100
01100110
POS 0 7,5

SPR a
11111111
10011111
10101100
10110100
10100110
10100101
10111011
11111111
POS 0 9,2

SPR b
11111111
00000001
10000001
10000001
10000001
10000001
10000001
11111111
POS 0 10,2

SPR c
01111111
10100000
10010000
10010000
10010011
10100100
11111111
01111111
POS 0 5,7

SPR d
11111100
00010010
00010010
00110010
11000010
00000110
11111110
11111100
POS 0 6,7

SPR e
11010011
10101101
10101001
01011010
00111100
00100100
00100100
00011000
POS 0 5,2

SPR f
11111111
10000001
10010101
10100101
10000001
11111111
00011000
00011000
POS 1 6,10

SPR g
11000011
01100110
00111100
00011000
00111100
01111110
11011011
00011000
POS 1 7,5

SPR h
11000011
01100110
00111100
00011000
00111100
01111110
11011011
00011000
POS 1 8,2

SPR i
11000011
01100110
00111100
00011000
00111100
01111110
11011011
00011000
POS 1 7,0

SPR j
11111111
10000001
10100011
10101101
10000001
11111111
00011000
00011000
POS 1 9,7

SPR k
00010000
00101000
01000100
10000100
01000010
00110001
00001001
00000111
>
00000111
00000100
00000100
00000100
00000010
11110010
10001111
10000011
POS 1 13,10

SPR l
00001000
00010100
00100010
00100001
01000010
10001100
10010000
11100000
>
11100000
00100000
00100000
00100000
01000000
01001111
11110001
11000001
POS 1 14,10

SPR m
11100000
11110000
11001100
01000010
01100011
01101110
01111100
00111000
>
11000011
11111111
11101111
01100000
00100000
01100000
11110000
11110000
POS 1 14,11

SPR n
00000111
00001001
00110001
01000010
10000100
01000100
00101000
00011000
>
10000011
10001111
11110110
00000110
00000100
00000100
00001100
00001111
POS 1 13,11

SPR o
00001000
00001001
00010010
00010010
00010010
00011111
00001111
00000000
POS 1 13,12

SPR p
00110011
10110111
01111111
01111111
01111111
11111110
11111111
11100111
>
00111100
10111100
01111100
01111111
01111111
11111111
11111111
00011100
POS 1 14,12

SPR q
00000000
00100000
01000000
01101100
11010011
10010010
01101110
00000000
>
10000000
01000000
01101100
11010010
10010001
01101111
01001010
00000000
POS 1 1,13

SPR v
00010100
00111110
10011100
00111110
00011100
01001001
00001000
00001000
>
00010100
00111110
00011100
10111110
00011100
00001000
00101010
00001000
POS 2 4,7

SPR w
00000000
01111100
10100010
10101001
10000010
01111100
00010000
00010000
POS 6 8,8

SPR x
11111111
10000001
10010101
10100101
10000001
11111111
00011000
00011000
POS 7 7,7

SPR y
01111110
01000010
01010110
11000010
10111101
11011011
01111111
11101110
>
01111110
01000010
01010110
01000011
10111101
11011011
11111110
01110111
POS 8 5,6

SPR z
01111110
10000001
10011001
10000001
11111111
11010101
10101011
11111111
POS 8 10,6

DLG 10
Now entering: The Work Zone.

DLG a
Day 47                       Each day I get a little bit closer. I can feel it. Then all this will be worth it. Just a little bit further...

DLG c
No time for sleep now. I need to get to work...

DLG f
           <-----            This way to the Land of Happiness!              Distance: just past the sign!

DLG g
CAUTION, HARD WORK AHEAD!

DLG h
BEWARE, IT'S A TRAP!

DLG i
DIDN'T YOU SEE THE OTHER SIGNS? YOU REALLY DON'T WANT TO GO THIS WAY!

DLG j
           ------->          This way to the Land of Prosperity!                Discover riches beyond your wildest dreams!

DLG r
The Land of Happiness sounds fun, but it's so far! Getting there sounds impossible. And I should be getting to work anyway...

DLG t
I should turn back. I have more important things to do than chase such an elusive dream.

DLG u
I should turn back. I have more important things to do than chase such an elusive dream.

DLG s
The Land of Happiness sounds fun, but it's so far! Getting there sounds impossible. And I should be getting to work anyway...

DLG d
No time for sleep now. I need to get to work...

DLG e
The leaves are dry and brown. I guess I forgot to water it...

DLG v
Insects buzz in the lamplight, barely illuminated by the dim glow. You take comfort in the familiar hum.

DLG w
DIG HERE                      ...                           Ok! Time to grab that shovel. I'm so close, I can feel it. The secret to Happiness and Prosperity is just one more day away!

DLG x
You're nearly there! The Land of Happiness is just around the bend!

DLG z
You don't have $1,000,000. If only you had spent less money on shovels and almond milk lattes. Oh well, back to work it is...

DLG y
Welcome traveller! You're just one step away from riches beyond your wildest imagination and you can have it all with a small initial investment of just $1,000,000! Drop your money in the box to open the gates to the Land of Prosperity!

END 0
You keep digging. Little by little you feel yourself getting closer. Until...      ...      ...      ...    Nope, not quite there.           Phew! I'm beat! Ah well, I'll keep at it tomorrow. I'm sure I'm only one more day away...

