
The Rooms

# BITSY VERSION 4.5

! ROOM_FORMAT 1

PAL 0
NAME start
12,3,107
153,130,150
231,248,254

PAL 1
NAME main
8,2,69
136,107,132
255,255,255

PAL 2
NAME hive
8,2,69
25,1,125
254,210,210

PAL 3
NAME freezer
255,255,255
227,228,246
213,213,255

PAL 4
NAME outside
1,87,35
85,143,91
221,254,233

PAL 5
NAME a different world
249,255,158
204,82,196
54,51,69

ROOM 0
0,0,0,0,0,0,0,0,0,0,0,0,0,0,0,0
0,0,0,0,0,0,0,0,0,0,0,0,0,0,0,0
0,0,0,0,0,0,0,0,0,0,0,0,0,0,0,0
0,0,0,0,o,a,a,s,a,a,0,0,0,0,0,0
0,0,0,0,f,0,0,0,0,f,0,0,0,0,0,0
0,0,0,0,f,0,0,0,0,f,0,0,0,0,0,0
0,0,0,0,f,0,0,0,0,f,0,0,0,0,0,0
0,0,0,0,f,0,0,0,0,f,0,0,0,0,0,0
0,0,0,0,f,0,0,0,0,f,0,0,0,0,0,0
0,0,0,0,f,0,0,0,0,f,0,0,0,0,0,0
0,0,0,0,f,0,0,0,0,f,0,0,0,0,0,0
0,0,0,0,f,0,0,0,0,f,0,0,0,0,0,0
0,0,0,0,f,0,0,0,0,f,0,0,0,0,0,0
0,0,0,0,f,0,0,0,0,f,0,0,0,0,0,0
0,0,0,0,f,0,0,0,0,f,0,0,0,0,0,0
0,0,0,0,f,a,c,a,a,i,0,0,0,0,0,0
NAME start
ITM 0 7,7
ITM 1 6,14
ITM 0 8,12
ITM 0 5,9
EXT 6,15 1 4,7
PAL 0

ROOM 1
0,0,0,0,0,0,0,0,0,0,0,0,0,0,0,0
0,0,0,0,0,0,0,0,0,0,0,0,0,0,0,0
0,0,0,0,0,0,j,q,g,0,0,0,0,0,0,0
0,0,0,0,0,0,l,0,f,0,0,0,0,0,0,0
0,0,0,0,0,o,h,c,i,a,p,0,0,0,0,0
0,0,0,0,o,i,0,0,0,0,h,p,0,0,0,0
0,0,0,0,f,0,0,0,0,0,0,l,0,0,0,0
0,0,0,0,u,0,0,0,0,0,0,r,0,0,0,0
0,0,0,0,f,0,0,0,0,0,0,l,0,0,0,0
0,0,0,0,k,g,0,0,0,0,0,l,0,0,0,0
0,0,0,0,0,f,a,a,a,a,j,n,0,0,0,0
0,0,0,0,0,0,0,0,0,0,0,0,0,0,0,0
0,0,0,0,0,0,0,0,0,0,0,0,0,0,0,0
0,0,0,0,0,0,0,0,0,0,0,0,0,0,0,0
0,0,0,0,0,0,0,0,0,0,0,0,0,0,0,0
0,0,0,0,0,0,0,0,0,0,0,0,0,0,0,0
NAME two doors
ITM 2 10,7
ITM h 7,3
EXT 11,7 2 5,7
PAL 1

ROOM 2
0,0,0,0,0,0,0,0,0,0,0,0,0,0,0,0
0,0,0,0,0,0,0,0,0,0,0,0,0,0,0,0
0,0,0,0,0,0,0,0,0,0,0,0,0,0,0,0
0,0,0,0,0,0,0,0,0,0,0,0,0,0,0,0
0,0,0,0,0,o,a,c,a,a,p,0,0,0,0,0
0,0,0,0,o,i,0,0,0,0,h,p,0,0,0,0
0,0,0,0,f,0,0,0,0,0,0,l,0,0,0,0
0,0,0,0,u,0,0,0,0,0,0,r,0,0,0,0
0,0,0,0,f,0,0,0,0,0,0,l,0,0,0,0
0,0,0,0,k,g,0,0,0,0,0,l,0,0,0,0
0,0,0,0,0,f,a,a,c,a,j,n,0,0,0,0
0,0,0,0,0,0,0,0,0,0,0,0,0,0,0,0
0,0,0,0,0,0,0,0,0,0,0,0,0,0,0,0
0,0,0,0,0,0,0,0,0,0,0,0,0,0,0,0
0,0,0,0,0,0,0,0,0,0,0,0,0,0,0,0
0,0,0,0,0,0,0,0,0,0,0,0,0,0,0,0
NAME three doors
ITM 7 6,7
ITM 6 10,7
ITM 5 7,5
ITM 2 8,9
EXT 7,4 3 9,5
EXT 11,7 6 7,1
EXT 8,10 c 4,3
PAL 1

ROOM 3
0,0,0,0,0,0,0,0,0,0,0,0,0,0,0,0
0,0,0,0,0,0,0,0,0,0,0,0,0,0,0,0
0,0,0,0,0,0,0,0,0,0,0,0,0,0,0,0
0,0,0,0,0,0,0,0,0,0,0,0,0,0,0,0
0,0,0,0,0,o,a,c,a,s,p,0,0,0,0,0
0,0,0,0,o,i,0,0,0,0,h,p,0,0,0,0
0,0,0,0,e,0,0,0,0,0,0,l,0,0,0,0
0,0,0,0,f,0,0,0,0,0,0,r,0,0,0,0
0,0,0,0,e,0,0,0,0,0,0,l,0,0,0,0
0,0,0,0,k,g,0,0,0,0,0,l,0,0,0,0
0,0,0,0,0,f,c,a,c,a,j,n,0,0,0,0
0,0,0,0,0,0,0,0,0,0,0,0,0,0,0,0
0,0,0,0,0,0,0,0,0,0,0,0,0,0,0,0
0,0,0,0,0,0,0,0,0,0,0,0,0,0,0,0
0,0,0,0,0,0,0,0,0,0,0,0,0,0,0,0
0,0,0,0,0,0,0,0,0,0,0,0,0,0,0,0
NAME six doors
ITM 9 8,9
ITM 6 5,6
ITM g 10,7
ITM e 7,5
ITM f 5,8
EXT 4,8 4 8,9
EXT 8,10 3 5,3
EXT 7,4 5 12,14
EXT 6,10 8 4,11
EXT 4,6 6 7,1
END 7 11,7
PAL 1

ROOM 4
0,0,0,0,0,0,0,0,0,0,0,0,0,0,0,0
0,0,0,0,0,0,0,0,0,0,0,0,0,0,0,0
0,0,0,0,0,0,0,0,0,0,0,0,0,0,0,0
0,0,0,0,0,0,0,0,0,0,0,0,0,0,0,0
0,0,0,0,0,o,a,c,a,c,p,0,0,0,0,0
0,0,0,0,o,i,0,0,0,0,h,p,0,0,0,0
0,0,0,0,e,0,0,0,0,0,0,r,0,0,0,0
0,0,0,0,e,0,0,0,0,0,0,r,0,0,0,0
0,0,0,0,e,0,0,0,0,0,0,r,0,0,0,0
0,0,0,0,k,g,0,0,0,0,0,r,0,0,0,0
0,0,0,0,0,f,c,c,s,c,j,n,0,0,0,0
0,0,0,0,0,0,0,0,0,0,0,0,0,0,0,0
0,0,0,0,0,0,0,0,0,0,0,0,0,0,0,0
0,0,0,0,0,0,0,0,0,0,0,0,0,0,0,0
0,0,0,0,0,0,0,0,0,0,0,0,0,0,0,0
0,0,0,0,0,0,0,0,0,0,0,0,0,0,0,0
NAME twelve doors
ITM 4 5,6
ITM 3 5,7
ITM d 9,5
ITM d 6,9
ITM g 10,9
ITM 8 10,6
ITM 2 10,7
ITM e 7,5
ITM e 9,9
EXT 7,4 5 12,14
EXT 4,8 8 4,11
EXT 9,4 a 8,4
EXT 6,10 9 8,4
EXT 9,10 5 12,14
EXT 7,10 b 10,5
EXT 11,6 7 10,1
EXT 11,7 c 4,3
END 2 4,6
END 0 4,7
END 7 11,9
PAL 1

ROOM 5
0,0,0,0,0,0,0,0,0,0,0,0,0,0,0,0
0,0,0,0,0,0,0,0,0,0,0,0,0,0,0,0
0,0,0,0,0,0,0,0,0,0,0,0,0,0,0,0
0,0,0,0,0,0,0,0,0,0,0,0,0,0,0,0
0,0,0,0,0,0,0,0,0,0,0,0,0,0,0,0
0,0,0,0,0,0,0,0,0,0,0,0,0,0,0,0
0,0,0,0,0,0,0,0,0,0,0,0,0,0,0,0
0,0,0,0,0,0,0,0,0,0,0,0,0,0,0,0
0,0,0,0,0,0,0,0,0,0,0,0,0,0,0,0
0,0,0,0,0,0,0,0,0,0,0,f,q,q,q,g
0,0,0,0,0,0,0,0,0,0,0,e,0,0,0,f
0,0,0,0,0,0,0,0,0,0,0,f,0,0,0,f
0,0,0,0,0,0,o,a,c,a,a,i,0,0,0,f
0,0,0,0,0,o,i,0,0,0,0,0,0,0,0,f
0,0,0,0,0,f,0,0,0,0,0,0,0,0,0,f
0,0,0,0,0,k,g,a,a,a,a,a,c,a,a,i
NAME respite
ITM a 6,14
EXT 12,15 3 6,9
EXT 11,10 8 4,11
EXT 8,12 b 7,2
PAL 1

ROOM 6
0,0,0,0,0,0,0,s,0,0,0,0,0,0,0,0
0,0,0,0,0,0,0,w,0,0,0,0,0,0,0,0
0,0,0,0,0,0,w,w,0,w,w,0,0,0,0,0
0,0,0,0,w,w,w,w,0,0,w,w,0,0,0,0
0,0,0,w,w,w,w,w,w,0,w,w,0,0,0,0
0,0,0,w,w,w,w,w,w,0,w,w,w,0,0,0
0,0,0,w,w,0,0,0,0,0,w,w,w,0,0,0
0,0,0,0,w,0,w,w,w,w,w,w,0,0,0,0
0,0,0,0,w,0,0,0,0,w,w,w,0,0,0,0
0,0,0,0,0,0,w,0,w,w,0,0,0,0,0,0
0,0,0,0,0,0,0,0,w,0,0,0,0,0,0,0
0,0,0,0,0,0,0,c,0,0,0,0,0,0,0,0
0,0,0,0,0,0,0,0,0,0,0,0,0,0,0,0
0,0,0,0,0,0,0,0,0,0,0,0,0,0,0,0
0,0,0,0,0,0,0,0,0,0,0,0,0,0,0,0
0,0,0,0,0,0,0,0,0,0,0,0,0,0,0,0
NAME hive
EXT 7,11 3 9,5
END 1 6,2
END 1 10,3
END 1 9,2
END 1 6,4
END 1 5,3
END 1 7,5
END 1 8,4
END 1 10,5
END 1 7,7
END 1 9,7
END 1 8,10
END 1 6,9
END 1 3,5
END 1 12,5
END 1 4,7
END 1 9,0
END 1 10,1
END 1 4,9
END 1 9,9
END 1 5,10
PAL 2

ROOM 7
0,0,0,j,q,q,q,q,q,q,g,0,0,0,0,0
0,0,0,l,0,0,0,0,0,0,0,t,0,0,0,0
0,0,0,l,0,0,o,a,a,a,i,0,0,0,0,0
0,0,0,l,0,0,f,0,0,0,0,0,0,0,0,0
0,0,0,h,a,a,i,0,0,0,0,0,0,0,0,0
0,0,0,0,0,0,0,0,0,0,0,0,0,0,0,0
0,0,0,0,0,0,0,0,0,0,0,0,0,0,0,0
0,0,0,0,0,0,0,0,0,0,0,0,0,0,0,0
0,0,0,0,0,0,0,0,0,0,0,0,0,0,0,0
0,0,0,0,0,0,0,0,0,0,0,0,0,0,0,0
0,0,0,0,0,0,0,0,0,0,0,0,0,0,0,0
0,0,o,0,0,0,0,0,0,0,0,0,0,0,0,0
0,0,0,0,0,0,0,0,0,0,0,0,0,0,0,0
0,0,0,0,0,0,0,0,0,0,0,0,0,0,0,0
0,0,0,0,0,0,0,0,0,0,0,0,0,0,0,0
0,0,0,0,0,0,0,0,0,0,0,0,0,0,0,0
NAME freezer
END 4 4,3
PAL 3

ROOM 8
0,0,0,0,0,0,0,0,0,0,0,0,0,0,0,0
0,0,0,0,0,0,0,0,0,0,0,0,0,0,0,0
0,0,0,0,0,0,0,0,0,0,0,0,0,0,0,0
0,0,0,0,0,0,0,0,0,0,0,0,0,0,0,0
0,0,0,0,0,0,0,0,0,0,0,0,0,0,0,0
0,0,0,0,0,0,0,0,0,0,0,0,0,0,0,0
0,0,0,0,0,0,0,0,0,0,0,0,0,0,0,0
0,0,0,0,0,0,0,0,0,0,0,0,0,0,0,0
0,0,0,0,0,0,0,0,0,0,0,0,0,0,0,0
0,o,a,a,a,p,0,0,0,0,0,0,0,0,0,0
0,f,0,0,0,l,0,0,0,0,0,0,0,0,0,0
0,f,0,0,0,r,0,0,0,0,0,0,0,0,0,0
0,f,a,a,a,l,0,0,0,0,0,0,0,0,0,0
0,0,0,0,0,0,0,0,0,0,0,0,0,0,0,0
0,0,0,0,0,0,0,0,0,0,0,0,0,0,0,0
0,0,0,0,0,0,0,0,0,0,0,0,0,0,0,0
NAME closet
ITM c 3,11
EXT 5,11 3 6,9
PAL 1

ROOM 9
x,0,0,0,x,x,x,x,x,x,x,x,x,0,x,x
0,0,x,x,0,o,a,a,a,a,p,0,0,0,0,0
0,0,0,0,0,f,0,0,0,0,l,0,0,0,0,0
x,0,0,0,0,f,a,a,s,a,l,0,0,o,0,0
0,0,x,0,0,0,x,x,0,0,x,0,0,0,0,0
x,0,0,0,0,0,0,x,0,0,x,x,0,x,0,0
x,0,x,0,0,0,x,0,0,0,a,x,a,x,0,0
x,x,0,0,0,0,0,0,0,0,0,0,0,x,0,0
0,x,0,0,o,0,0,x,0,x,x,0,0,0,0,x
x,x,0,0,0,0,0,0,0,0,0,0,0,0,0,0
x,0,0,0,x,0,0,0,0,0,0,0,0,0,0,0
0,0,0,0,0,0,0,0,0,0,0,0,0,0,0,0
0,0,0,0,0,0,x,0,0,0,0,0,0,x,0,0
0,0,x,0,0,0,0,0,0,0,0,0,0,0,0,0
0,0,0,0,0,x,0,0,0,x,x,0,0,0,x,0
0,0,0,0,x,x,0,0,0,0,x,x,x,x,0,0
NAME Outside
END 5 8,7
END 5 0,11
END 5 15,1
END 5 15,5
END 5 15,7
END 5 15,6
END 5 15,4
END 5 15,3
END 5 15,2
END 5 13,0
END 5 1,0
END 5 0,4
END 5 0,2
END 5 0,1
END 5 0,12
END 5 6,15
END 5 9,15
END 5 15,15
END 5 15,9
END 5 15,11
END 5 3,15
END 5 4,6
END 5 8,12
PAL 4

ROOM a
x,0,0,0,x,w,w,w,x,x,x,x,x,0,x,x
0,x,x,x,0,o,a,a,a,a,p,x,x,0,0,0
0,0,w,0,0,f,0,0,0,0,l,x,x,0,0,0
x,0,0,0,0,f,a,a,s,a,l,0,0,o,0,w
0,0,x,0,0,0,x,x,0,0,x,0,0,0,0,w
x,0,0,0,x,0,0,x,0,0,0,x,0,x,0,w
x,0,x,0,0,0,x,0,0,0,x,0,0,0,x,w
x,x,0,0,0,0,0,0,0,0,0,0,0,x,0,w
0,x,0,w,x,x,0,x,0,x,0,0,0,0,x,0
x,x,0,0,0,0,0,x,0,0,0,0,0,0,0,0
x,x,0,0,x,0,0,x,x,0,0,0,0,0,0,x
0,x,x,x,0,0,0,0,x,x,0,0,x,x,x,x
w,x,0,0,x,0,x,0,0,0,0,0,0,x,0,0
w,x,0,w,w,0,0,0,0,0,0,0,0,0,0,0
x,x,w,w,x,x,0,0,0,x,x,0,0,0,x,0
x,x,x,x,x,x,0,0,0,0,x,x,x,x,0,0
NAME a different world
END 6 9,4
END 6 9,5
END 6 8,5
PAL 5

ROOM b
0,0,0,0,0,0,0,0,0,0,0,0,0,0,0,0
0,0,0,0,0,0,a,c,a,a,a,a,0,0,0,0
0,0,0,0,0,0,l,0,0,0,v,f,0,0,0,0
0,0,0,0,0,0,l,n,0,0,0,f,0,0,0,0
0,0,0,0,0,0,l,0,0,o,0,f,0,0,0,0
0,0,0,0,0,0,l,0,0,0,0,f,0,0,0,0
0,0,0,0,0,0,h,a,a,a,c,i,0,0,0,0
0,0,0,0,0,0,0,0,0,0,0,0,0,0,0,0
0,0,0,0,0,0,0,0,0,0,0,0,0,0,0,0
0,0,0,0,0,0,0,0,0,0,0,0,0,0,0,0
0,0,0,0,0,0,0,0,0,0,0,0,0,0,0,0
0,0,0,0,0,0,0,0,0,0,0,0,0,0,0,0
0,0,0,0,0,0,0,0,0,0,0,0,0,0,0,0
0,0,0,0,0,0,0,0,0,0,0,0,0,0,0,0
0,0,0,0,0,0,0,0,0,0,0,0,0,0,0,0
0,0,0,0,0,0,0,0,0,0,0,0,0,0,0,0
NAME bedroom
ITM b 9,2
ITM b 9,3
ITM b 10,3
EXT 7,1 8 4,11
EXT 10,6 3 9,5
END 3 10,2
PAL 1

ROOM c
0,0,0,0,0,0,0,0,0,0,0,0,0,0,0,0
0,0,0,0,0,0,0,0,0,0,0,0,0,0,0,0
0,0,0,f,q,q,q,q,q,q,q,l,0,0,0,0
0,0,0,u,0,0,0,0,0,0,0,g,0,0,0,0
0,0,0,f,0,0,0,0,0,0,0,f,0,0,0,0
0,0,0,f,0,0,0,0,0,0,0,f,0,0,0,0
0,0,0,f,0,0,0,0,j,g,0,k,q,q,g,0
0,0,0,f,0,0,0,0,h,i,0,0,0,0,f,0
0,0,0,f,0,0,0,0,0,0,0,0,0,0,f,0
0,0,0,f,0,0,0,0,0,0,0,0,0,0,f,0
0,0,0,f,a,a,c,a,a,a,a,a,a,a,i,0
0,0,0,0,0,0,0,0,0,0,0,0,0,0,0,0
0,0,0,0,0,0,0,0,0,0,0,0,0,0,0,0
0,0,0,0,0,0,0,0,0,0,0,0,0,0,0,0
0,0,0,0,0,0,0,0,0,0,0,0,0,0,0,0
0,0,0,0,0,0,0,0,0,0,0,0,0,0,0,0
NAME despair
ITM 7 6,7
ITM 7 10,9
EXT 6,10 8 4,11
PAL 1

TIL a
00000000
00000000
00000000
00000000
00000000
00000000
11111111
11111111
WAL true

TIL c
00011100
00100010
01100011
01000001
01000101
01000001
11000001
11000001

TIL e
00011111
01100000
10000000
10000000
10001000
01100000
00111111
00000011

TIL f
00000011
00000011
00000011
00000011
00000011
00000011
00000011
00000011
WAL true

TIL g
11111111
11111111
00000011
00000011
00000011
00000011
00000011
00000011
WAL true

TIL h
11000000
11000000
11000000
11000000
11000000
11000000
11111111
11111111
WAL true

TIL i
00000011
00000011
00000011
00000011
00000011
00000011
11111111
11111111
WAL true

TIL j
11111111
11111111
11000000
11000000
11000000
11000000
11000000
11000000
WAL true

TIL k
00000011
00000011
00000000
00000000
00000000
00000000
00000000
00000000
WAL true

TIL l
11000000
11000000
11000000
11000000
11000000
11000000
11000000
11000000
WAL true

TIL n
11000000
11000000
00000000
00000000
00000000
00000000
00000000
00000000
WAL false

TIL o
00000000
00000000
00000000
00000000
00000000
00000000
00000011
00000011
WAL false

TIL p
00000000
00000000
00000000
00000000
00000000
00000000
11000000
11000000
WAL false

TIL q
11111111
11111111
00000000
00000000
00000000
00000000
00000000
00000000
WAL true

TIL r
11000000
11111000
00000110
00000001
00000001
00100001
00000110
11111000

TIL s
00011100
00100010
01100011
01000001
01000001
01000001
11000001
11000001
WAL true

TIL t
11000000
11111000
00000110
00000001
00000001
00000001
00000110
11111000
WAL true

TIL u
00011111
01100000
10000000
10000000
10000000
01100000
00111111
00000011
WAL true

TIL v
00111111
00100001
00101101
00100001
00111111
00111111
00111111
00111111

TIL w
10010000
01000001
01000000
00001010
00001000
01000000
00000010
10010000
>
00100101
10000000
00000000
01000101
00001000
00010010
10000000
00000001

TIL x
00000000
00011000
00001000
00111100
00011110
00111000
01111110
00011000
WAL true

SPR A
00111100
00100100
00100100
00111100
01111110
00011101
00010100
00000100
>
00111100
00100100
00100100
00111100
01111110
10011100
00010100
00010000
POS 0 7,4

SPR a
00000000
00000000
00000000
11111100
10011110
10011111
11111111
01010111
>
00000000
00000000
00000000
00000000
11111110
10011111
10011111
11110111
DLG SPR_0
POS c 10,3

SPR b
00000000
00011110
00010010
00010010
01011111
00111111
00001110
11111000
>
00000000
00000000
00111100
00100100
00100100
00111100
00001110
11111001
DLG SPR_1
POS c 13,7

SPR c
11110000
10010000
10011000
11111100
00011100
00111110
01010101
00010100
DLG SPR_2
POS c 4,6

ITM 0
00000000
00000000
00000000
00000000
00000000
00000000
00000000
00000000
NAME The whisper
DLG ITM_0

ITM 1
00000000
00000000
00000000
00000000
00000000
00000000
00000000
00000000
NAME the warning
DLG ITM_1

ITM 2
00000000
00000000
00000000
00000000
00000000
00000000
00000000
00000000
NAME A sound
DLG ITM_2

ITM 3
00000000
00000000
00000000
00000000
00000000
00000000
00000000
00000000
NAME A sound
DLG ITM_3

ITM 4
00000000
00000000
00000000
00000000
00000000
00000000
00000000
00000000
NAME a sound
DLG ITM_4

ITM 5
00000000
00000000
00000000
00000000
00000000
00000000
00000000
00000000
NAME a sound
DLG ITM_5

ITM 6
00000000
00000000
00000000
00000000
00000000
00000000
00000000
00000000
NAME a sound
DLG ITM_6

ITM 7
00000000
00000000
00000000
00000000
00000000
00000000
00000000
00000000
NAME A sensation
DLG ITM_7

ITM 8
00000000
00000000
00000000
00000000
00000000
00000000
00000000
00000000
NAME a sensation
DLG ITM_8

ITM 9
00000000
00000000
00000000
00000000
00000000
00000000
00000000
00000000
NAME A sound
DLG ITM_9

ITM a
00000000
00000000
00000000
00000000
00000000
00000000
00000000
00000000
NAME a sight
DLG ITM_a

ITM b
00000000
00000000
00000000
00000000
00000000
00000000
00000000
00000000
NAME a sight
DLG ITM_b

ITM c
00000000
00000000
00000000
00000000
00000000
00000000
00000000
00000000
NAME a sight
DLG ITM_c

ITM d
00000000
00000000
00000000
00000000
00000000
00000000
00000000
00000000
NAME A sound
DLG ITM_d

ITM e
00000000
00000000
00000000
00000000
00000000
00000000
00000000
00000000
NAME a sound
DLG ITM_e

ITM f
00000000
00000000
00000000
00000000
00000000
00000000
00000000
00000000
NAME a sound
DLG ITM_f

ITM g
00000000
00000000
00000000
00000000
00000000
00000000
00000000
00000000
NAME a sound
DLG ITM_g

ITM h
00000000
00000000
00000000
00000000
00000000
00000000
00000000
00000000
NAME a sound
DLG ITM_h

DLG ITM_0
You Shouldn't be here

DLG ITM_1
This is no place for a mortal and it's almost midnight. {shk}Leave!{shk}

DLG ITM_2
"""
drip
 drip 
drip
"""

DLG ITM_3
"""
skritch
{shk}skraaaat{shk}
skritch
skritch
skratch
"""

DLG ITM_4
"""
{rbw}Laa La {wvy}Laaaa{wvy}
La laaa {wvy}Laa{wvy}
Laaa {wvy}laa la{wvy} laaaa  {wvy}la{wvy}{rbw}
"""

DLG ITM_5
{wvy}shoooooo{wvy}

DLG ITM_6
chitter chitter chitter

DLG ITM_7
A drop of water falls on your head

DLG ITM_8
The door feels bitterly cold

DLG ITM_9
I can hear breathing

DLG ITM_a
You can see the moon out the window, you feel a little better

DLG ITM_b
It's a bed, it looks comfy, but is covered in a thick layer of dust.

DLG ITM_c
It's a closet

DLG ITM_d
Hoo hoo hoot

DLG ITM_e
k'chk

DLG ITM_f
creeeaaak

DLG ITM_g
"""
drip clomp clomp
clomp 
clomp drip
"""

DLG SPR_0
A man lies weeping on the floor

DLG SPR_1
A woman sits on the floor tearing at her hair

DLG SPR_2
This person is unresponsive, they stand not moving, eyes glassy 

DLG ITM_h
trust your ears

END 0
You feel something tear through your shirt as it rips with a loud shredding noise. Then horrible pain as something jagged tears through your stomach. You feel cold, your vision grays then fades entirely.

END 1
For a moment you almost don't realize it. The whole room is moving, writhing, covered in some kind of insect. Now you are also covered in insects. They bite you, it only hurts for a second and then you feel a spreading numbness.

END 2
The singing was so lovely, you couldn't resist it. The things in here are beautiful but the sensation of their song goes from a gentle pull, lulling you near, to a snare-like tangle on your senses. The song controls your every movement and soon the thoughts you keep trying to have won't come.

END 3
You know you shouldn't, but you're just so tired. You go to sleep. You never wake up.

END 4
It's so cold in here. There's no way out, the door is sealed behind you. 

END 5
You did it! you made it out of that place.

END 6
Well, you made it out. But, this isn't the world you came from, the sun is too big, and the trees should not be crying. You will have to adapt to this strange new place.

END 7
The lumbering beast has dripping jowls. It lunges at you. You feel blood, warm and sticky, drip down your neck. It lunges again.

VAR a
42


