One Leaf After Another By ShadowNat3

# BITSY VERSION 3.5

! ROOM_FORMAT 1

PAL 0
166,168,64
96,97,37
255,255,89

PAL 1
131,133,50
56,57,21
215,215,0

ROOM 0
i,i,i,i,i,i,i,j,i,i,i,i,i,i,i,i
0,0,0,0,0,0,k,j,k,0,0,0,0,0,0,0
u,p,0,0,0,0,k,j,k,0,1g,0,0,0,0,0
0,0,0,0,0,0,k,j,k,0,0,0,0,q,u,p
0,0,0,q,s,p,k,j,k,q,s,p,0,0,0,0
0,0,0,r,n,o,k,j,k,r,n,o,0,0,0,0
0,0,1g,0,m,0,k,j,k,0,m,0,0,0,0,0
0,0,0,0,0,0,k,j,k,q,u,p,0,0,0,0
i,i,i,i,h,h,h,f,h,h,h,i,i,i,i,i
d,d,d,d,d,g,g,g,g,g,d,k,k,k,k,k
d,g,g,g,f,c,b,g,g,g,f,l,l,l,l,k
d,0,0,g,d,g,g,g,g,g,d,k,k,k,k,k
d,g,g,g,d,e,e,e,e,e,e,0,0,0,0,0
d,d,d,d,d,0,0,0,0,0,0,0,0,0,0,0
0,0,0,0,0,0,0,0,0,1g,0,q,u,0,0,0
u,p,0,0,0,0,0,0,0,0,0,0,0,0,0,0
WAL a,d,e,i,h,k,z
EXT 7,0 1 7,14
PAL 0

ROOM 1
0,0,0,w,0,0,k,j,k,0,0,0,0,0,0,0
0,0,0,0,q,s,k,j,k,0,0,1g,0,q,s,p
q,u,p,0,r,n,k,j,k,q,u,p,0,r,n,o
0,0,0,0,0,m,k,j,k,0,0,0,0,0,m,0
0,0,0,w,w,w,w,j,k,0,0,0,0,0,0,0
q,s,p,w,0,0,k,j,k,0,q,u,p,0,0,1g
r,n,o,w,0,k,j,j,j,k,0,0,0,0,0,0
0,m,v,w,0,k,j,0,j,k,0,0,0,w,0,0
0,0,0,0,0,k,j,j,j,k,q,s,p,q,s,p
0,0,1g,0,0,0,k,j,k,0,r,n,o,r,n,o
0,0,0,q,s,p,k,j,k,0,0,m,0,0,m,0
w,0,0,r,n,o,k,j,k,0,0,q,s,p,0,0
0,0,0,0,m,0,k,j,k,w,w,r,n,o,0,0
u,p,0,0,0,0,k,j,k,0,0,0,m,0,0,q
0,0,0,0,w,0,k,j,k,0,0,0,0,0,0,0
0,0,0,0,0,0,k,j,k,0,0,0,0,0,u,0
WAL k,d,z
EXT 7,0 2 7,14
EXT 7,15 0 7,1
END undefined 2,7
PAL 0

ROOM 2
0,0,0,0,0,0,0,0,0,0,0,0,0,0,0,0
0,0,0,0,0,0,0,0,0,0,0,0,0,0,1g,0
0,0,q,s,p,0,0,w,w,w,0,0,0,0,0,0
1g,0,r,n,o,0,0,0,0,w,0,q,s,p,0,0
0,0,0,m,0,q,u,p,0,w,0,r,n,o,0,0
0,0,0,0,0,0,0,0,0,w,0,0,m,0,0,0
0,q,u,p,0,0,0,0,0,w,0,0,0,q,u,p
k,k,k,k,k,k,k,0,k,w,k,k,k,k,k,k
l,l,l,l,l,l,l,j,l,l,l,l,l,l,l,j
k,k,k,k,k,0,k,j,k,k,k,k,k,k,k,k
0,0,0,0,0,w,k,j,k,q,u,p,0,0,w,0
0,q,s,p,0,0,k,j,k,0,0,0,q,s,p,0
0,r,n,o,0,0,k,j,k,0,0,0,r,n,o,0
0,0,m,0,0,0,k,j,k,0,0,0,0,m,0,0
0,0,w,0,w,0,k,j,k,0,1g,0,0,0,0,0
0,0,0,0,0,0,k,j,k,0,0,0,0,0,0,0
WAL k,d,z
EXT 15,8 3 1,8
EXT 0,8 4 14,8
EXT 7,15 1 7,1
PAL 0

ROOM 3
0,0,0,0,0,0,0,0,0,0,0,0,0,0,0,0
0,w,0,0,0,0,0,0,q,u,p,0,q,s,p,0
0,0,0,0,0,0,w,0,1g,0,0,0,r,n,o,0
1g,0,0,0,0,0,0,0,0,0,0,0,0,m,0,0
0,0,0,11,0,0,0,0,0,11,0,0,0,0,0,11
0,0,z,y,10,0,0,0,z,y,10,0,0,0,z,y
0,0,d,d,d,0,0,0,d,d,d,17,0,0,d,d
i,i,d,f,d,i,i,i,d,f,d,i,i,i,d,f
x,x,x,x,x,x,x,x,x,x,x,x,x,x,x,x
0,0,0,0,0,0,0,0,j,k,19,0,0,0,0,w
0,w,0,0,0,1g,0,19,j,19,19,0,0,0,0,0
0,19,0,19,19,19,19,19,j,19,0,q,u,p,0,0
19,19,0,0,0,0,0,j,j,19,0,0,0,0,0,0
19,12,j,j,j,j,j,j,17,19,1g,0,0,0,w,0
19,19,18,18,18,18,18,19,19,19,0,0,0,0,0,0
0,19,19,19,19,19,19,19,q,u,p,0,0,0,0,0
WAL d,i,y,10,z,11,k,t,19
EXT 3,7 5 9,9
EXT 0,8 2 14,8
EXT 15,8 l 0,8
PAL 0

ROOM 4
0,0,0,0,0,0,0,0,0,0,0,0,0,0,0,0
0,0,0,0,0,0,0,q,s,p,0,0,0,17,0,0
0,0,0,0,0,0,0,r,n,o,0,0,18,18,18,0
0,0,q,u,p,0,0,0,m,0,0,0,q,s,p,0
0,0,0,0,0,0,0,0,0,0,0,0,r,n,o,0
0,0,0,0,0,0,0,0,0,0,0,0,0,m,0,0
0,0,0,0,0,0,z,1k,1m,0,0,0,0,0,0,0
0,0,0,0,0,z,d,1j,0,k,k,k,k,k,k,k
0,0,0,0,z,d,d,1l,j,j,j,j,j,j,j,j
0,0,0,0,0,0,0,0,k,k,k,k,k,k,k,k
0,0,0,0,0,0,0,0,0,0,0,0,0,0,0,0
0,0,0,0,0,0,0,0,q,s,p,q,u,p,0,0
0,0,0,0,q,u,p,0,r,n,o,0,0,0,0,0
0,0,0,0,0,0,0,0,0,m,0,0,0,0,0,0
0,0,0,0,0,0,0,0,0,0,0,0,0,0,0,0
0,0,0,0,0,0,0,0,0,0,0,0,0,0,0,0
WAL d,1a,k,z,1k,1j,1l,1m
EXT 8,8 8 11,7
EXT 15,8 2 1,8
PAL 0

ROOM 5
0,0,0,0,0,0,d,d,d,d,d,d,0,0,0,0
0,0,0,0,0,0,d,d,d,d,d,d,0,0,0,0
0,0,0,0,0,0,d,d,d,d,d,d,0,0,0,0
0,0,0,0,0,0,d,d,d,d,d,d,0,0,0,0
0,0,0,0,0,d,d,d,d,f,d,d,d,0,0,0
0,0,0,0,0,d,g,g,g,g,g,g,d,d,d,d
0,0,0,0,0,d,g,g,g,g,g,g,d,d,d,d
0,0,0,0,0,d,c,b,g,g,g,g,f,d,d,d
0,0,0,0,0,d,g,g,g,g,g,g,d,d,d,d
0,0,0,0,0,d,g,g,g,g,g,g,d,d,d,d
0,0,0,0,0,d,d,d,d,f,d,d,d,0,0,0
0,0,0,0,0,0,0,0,0,0,0,0,0,0,0,0
0,0,0,0,0,0,0,0,0,0,0,0,0,0,0,0
0,0,0,0,0,0,0,0,0,0,0,0,0,0,0,0
0,0,0,0,0,0,0,0,0,0,0,0,0,0,0,0
0,0,0,0,0,0,0,0,0,0,0,0,0,0,0,0
WAL d,z
EXT 9,4 6 7,8
EXT 9,10 3 3,8
EXT 12,7 7 4,8
PAL 0

ROOM 6
0,0,0,0,0,0,0,0,0,0,0,0,0,0,0,0
0,0,0,0,0,0,0,0,w,0,0,0,0,0,0,0
0,0,0,0,0,0,0,0,0,0,0,0,0,0,0,0
0,0,0,0,0,0,q,u,p,0,0,0,0,0,0,w
0,0,w,0,0,0,0,0,0,0,0,0,0,0,0,0
0,0,0,d,d,d,d,d,d,d,d,d,0,q,s,p
0,0,0,d,g,g,g,g,g,g,g,d,0,r,n,o
0,0,0,d,c,b,g,g,g,12,g,d,0,0,m,0
0,0,0,d,g,g,g,g,g,g,g,d,0,0,0,0
0,0,0,d,d,d,d,f,d,d,d,d,0,0,0,0
0,0,d,d,d,d,d,d,d,d,d,d,d,0,0,w
0,0,d,d,d,d,d,d,d,d,d,d,d,0,0,0
0,0,d,d,d,d,d,d,d,d,d,d,d,0,0,0
0,0,d,d,d,d,d,d,d,d,d,d,d,0,0,0
0,0,d,d,d,d,d,d,d,d,d,d,d,0,0,0
0,0,d,d,d,d,d,d,d,d,d,d,d,0,0,0
WAL d,z
EXT 7,9 5 9,5
PAL 0

ROOM 7
0,0,0,0,0,0,0,0,0,0,0,0,0,0,0,0
0,0,0,0,0,0,0,0,0,0,0,0,0,0,0,0
0,0,0,0,0,0,0,0,0,15,0,0,0,0,0,0
0,0,0,0,0,0,0,0,0,16,0,0,0,0,0,0
0,0,0,0,0,0,0,0,0,0,0,0,0,0,0,0
d,d,d,d,0,0,0,0,0,0,0,0,0,0,0,0
d,d,d,d,d,d,d,d,d,d,d,d,0,0,0,0
d,d,d,d,g,g,g,g,g,d,g,d,0,0,0,0
d,d,d,f,g,g,g,13,13,d,g,d,0,0,0,0
d,d,d,d,g,g,g,g,g,14,14,d,0,0,0,0
d,d,d,d,g,g,17,g,g,g,g,d,0,0,0,0
d,d,d,d,d,d,d,d,d,d,d,d,0,0,0,0
d,d,d,d,0,0,0,0,0,0,0,0,0,0,0,0
0,0,0,0,0,0,0,0,0,0,0,0,0,0,0,0
0,0,0,0,0,0,0,0,0,0,0,0,0,0,0,0
0,0,0,0,0,0,0,0,0,0,0,0,0,0,0,0
WAL d,14,z
EXT 3,8 5 11,7
PAL 0

ROOM 8
d,d,d,d,d,d,d,d,d,d,d,d,d,d,d,d
d,d,d,d,d,d,d,d,d,d,d,d,d,d,d,d
d,d,d,d,d,d,d,d,d,d,d,d,d,d,d,d
d,d,d,d,d,d,d,d,d,d,d,d,d,d,d,d
d,d,d,d,d,d,d,d,d,d,d,d,d,d,d,d
d,d,d,d,d,d,d,d,d,d,d,d,d,d,d,d
0,0,0,0,0,0,0,0,1g,0,0,0,0,d,d,d
0,0,0,0,0,1g,0,1f,0,0,0,0,0,d,d,d
1g,0,0,0,0,0,0,0,1g,0,0,0,0,d,d,d
d,d,d,d,d,d,d,d,d,d,d,d,d,d,d,d
d,d,d,d,d,d,d,d,d,d,d,d,d,d,d,d
d,d,d,d,d,d,d,d,d,d,d,d,d,d,d,d
d,d,d,d,d,d,d,d,d,d,d,d,d,d,d,d
d,d,d,d,d,d,d,d,d,d,d,d,d,d,d,d
d,d,d,d,d,d,d,d,d,d,d,d,d,d,d,d
d,d,d,d,d,d,d,d,d,d,d,d,d,d,d,d
WAL d,z
EXT 0,6 9 14,8
EXT 0,7 9 14,9
EXT 0,8 9 14,10
PAL 1

ROOM 9
d,d,d,d,d,1g,0,0,d,d,d,d,d,d,d,d
d,d,d,d,d,0,0,0,d,d,d,d,d,d,d,d
d,d,d,d,d,0,0,0,d,d,d,d,d,d,d,d
d,d,d,d,d,0,0,1g,d,d,d,d,d,d,d,d
d,d,d,d,d,0,0,0,d,d,d,d,d,d,d,d
d,d,d,d,d,1i,0,0,d,d,d,d,d,d,d,d
d,d,d,d,d,1h,0,0,d,d,d,d,d,d,d,d
d,d,d,d,d,0,0,0,d,d,d,d,d,d,d,d
d,d,d,d,d,0,1g,0,0,0,0,0,0,0,0,0
d,d,d,d,d,0,0,0,0,0,0,0,0,0,0,0
d,d,d,d,d,0,0,0,0,0,1g,0,0,0,0,0
d,d,d,d,d,d,d,d,d,d,d,d,d,d,d,d
d,d,d,d,d,d,d,d,d,d,d,d,d,d,d,d
d,d,d,d,d,d,d,d,d,d,d,d,d,d,d,d
d,d,d,d,d,d,d,d,d,d,d,d,d,d,d,d
d,d,d,d,d,d,d,d,d,d,d,d,d,d,d,d
WAL d,z
EXT 5,0 a 8,14
EXT 6,0 a 9,14
EXT 7,0 a 10,14
EXT 15,8 8 1,6
EXT 15,9 8 1,7
EXT 15,10 8 1,8
PAL 1

ROOM a
d,d,d,d,d,d,d,d,d,d,d,d,d,d,d,d
d,d,d,d,d,d,d,d,d,d,d,d,d,d,d,d
d,d,d,d,d,d,d,d,d,d,d,d,d,d,d,d
d,d,d,d,d,d,d,d,d,d,d,d,d,d,d,d
0,0,0,0,0,0,0,18,18,18,1g,d,d,d,d,d
0,0,0,0,1g,0,0,0,0,0,0,d,d,d,d,d
0,0,0,0,0,0,0,0,0,0,0,d,d,d,d,d
0,0,0,0,0,0,0,0,0,1g,0,d,d,d,d,d
d,d,d,d,d,d,d,0,0,0,0,d,d,d,d,d
d,d,d,d,d,d,d,0,0,0,0,d,d,d,d,d
d,d,d,d,d,d,d,0,0,0,0,d,d,d,d,d
d,d,d,d,d,d,d,0,0,0,0,d,d,d,d,0
d,d,d,d,d,d,d,0,0,0,1g,d,d,d,d,d
d,d,d,d,d,d,d,0,0,0,0,d,d,d,d,d
d,d,d,d,d,d,d,0,0,0,0,d,d,d,d,d
d,d,d,d,d,d,d,1g,0,0,0,d,d,d,d,0
WAL d,z
EXT 8,15 9 5,1
EXT 9,15 9 6,1
EXT 0,7 b 14,13
EXT 0,6 b 14,14
EXT 0,5 b 14,12
EXT 0,4 b 14,11
PAL 1

ROOM b
d,d,d,d,d,d,d,d,d,d,d,d,d,d,d,d
d,d,d,d,d,d,d,d,d,d,d,d,d,d,d,d
d,d,d,d,d,d,d,d,d,d,d,d,d,d,d,d
d,d,d,d,0,0,0,0,0,0,0,0,0,0,0,0
d,d,d,d,0,0,1g,0,0,0,0,0,0,1g,0,0
d,d,d,d,0,0,0,0,0,0,0,0,0,0,0,0
d,d,d,d,0,0,0,d,d,d,d,d,d,d,d,d
d,d,d,d,0,0,1i,d,d,d,d,d,d,d,d,d
d,d,d,d,1g,0,1h,d,d,d,d,d,d,d,d,d
d,d,d,d,0,0,0,d,d,d,d,d,d,d,d,d
d,d,d,d,0,0,0,d,d,d,d,d,d,d,d,d
d,d,d,d,0,0,0,0,0,0,0,0,0,0,0,0
d,d,d,d,0,0,1g,0,0,0,0,0,0,0,0,0
d,d,d,d,0,0,0,0,0,0,0,0,0,0,0,0
d,d,d,d,0,0,0,0,0,0,0,0,0,0,0,0
d,d,d,d,d,d,d,d,d,d,d,d,d,d,d,d
WAL z,d
EXT 15,14 a 1,7
EXT 15,13 a 1,6
EXT 15,12 a 1,5
EXT 15,11 a 1,4
EXT 15,3 c 0,7
EXT 15,4 c 0,8
EXT 15,5 c 0,9
PAL 1

ROOM c
d,d,d,d,d,d,d,d,d,d,d,d,d,d,d,d
d,d,d,d,d,d,d,d,d,d,d,d,d,d,d,d
d,d,d,d,d,d,d,d,d,d,d,d,d,d,d,d
d,d,d,d,d,d,d,0,0,0,0,1g,0,0,0,d
d,d,d,d,d,d,d,0,0,0,0,0,0,0,0,d
d,d,d,d,d,d,d,0,0,0,0,0,0,0,0,d
d,d,d,d,d,d,d,0,0,1n,1q,1o,1p,1n,0,d
g,g,g,g,g,g,g,1g,0,1n,r,n,o,1n,0,d
g,g,g,g,g,g,g,0,0,1n,0,m,0,1n,0,0
g,g,g,g,g,g,g,0,0,1n,1n,1n,1n,1n,0,d
d,d,d,d,d,d,d,0,0,0,0,17,0,0,0,d
d,d,d,d,d,d,d,0,0,0,0,0,0,1g,0,d
d,d,d,d,d,d,d,0,0,1g,0,0,0,0,0,d
d,d,d,d,d,d,d,0,0,0,0,0,0,0,0,d
d,d,d,d,d,d,d,d,d,d,d,d,d,d,d,d
d,d,d,d,d,d,d,d,d,d,d,d,d,d,d,d
WAL d
EXT 15,8 d 0,7
PAL 0

ROOM d
d,d,d,d,d,d,d,d,d,d,d,d,d,d,d,d
d,d,d,d,d,d,d,d,d,d,d,d,d,d,d,d
d,d,d,d,d,d,d,d,d,d,d,d,d,d,d,d
d,d,d,d,d,d,d,d,d,d,d,d,d,d,d,d
d,d,d,d,d,d,d,d,d,d,d,d,d,d,d,d
d,d,d,d,d,d,d,d,d,d,d,d,d,d,d,d
d,0,1g,0,0,0,0,0,0,0,0,0,0,0,0,d
0,0,0,0,0,0,0,0,0,1g,0,0,0,0,0,0
d,0,0,0,0,0,0,0,0,0,0,0,0,0,0,d
d,d,d,d,d,d,d,d,d,d,d,d,d,d,d,d
d,d,d,d,d,d,d,d,d,d,d,d,d,d,d,d
d,d,d,d,d,d,d,d,d,d,d,d,d,d,d,d
d,d,d,d,d,d,d,d,d,d,d,d,d,d,d,d
d,d,d,d,d,d,d,d,d,d,d,d,d,d,d,d
d,d,d,d,d,d,d,d,d,d,d,d,d,d,d,d
d,d,d,d,d,d,d,d,d,d,d,d,d,d,d,d
WAL d
EXT 15,7 e 0,7
PAL 0

ROOM e
d,d,d,d,d,d,d,d,d,d,d,d,d,d,d,d
d,d,d,d,d,d,d,d,d,d,d,d,d,d,d,d
d,d,d,d,d,d,d,d,d,d,d,d,d,d,d,d
d,d,d,d,d,d,d,d,d,d,d,d,d,d,d,d
d,d,d,d,d,d,d,d,d,d,d,d,d,d,d,d
d,d,d,d,d,d,d,d,d,d,d,d,d,d,d,d
d,0,0,0,0,0,0,0,0,0,1g,0,0,0,0,d
0,0,0,0,1g,0,0,0,0,0,0,0,0,0,0,0
d,0,0,0,0,0,0,0,0,0,0,0,0,0,0,d
d,d,d,d,d,d,d,d,d,d,d,d,d,d,d,d
d,d,d,d,d,d,d,d,d,d,d,d,d,d,d,d
d,d,d,d,d,d,d,d,d,d,d,d,d,d,d,d
d,d,d,d,d,d,d,d,d,d,d,d,d,d,d,d
d,d,d,d,d,d,d,d,d,d,d,d,d,d,d,d
d,d,d,d,d,d,d,d,d,d,d,d,d,d,d,d
d,d,d,d,d,d,d,d,d,d,d,d,d,d,d,d
WAL d
EXT 15,7 f 0,7
PAL 0

ROOM f
d,d,d,d,d,d,d,d,d,d,d,d,d,d,d,d
d,d,d,d,d,d,d,d,d,d,d,d,d,d,d,d
d,d,d,d,d,d,d,d,d,d,d,d,d,d,d,d
d,d,d,d,d,d,d,d,d,d,d,d,d,d,d,d
d,d,d,d,d,d,d,d,d,d,d,d,d,d,d,d
d,d,d,d,d,d,d,d,d,d,d,d,d,d,d,d
d,0,0,0,0,17,0,0,0,1g,0,0,0,0,0,d
0,0,0,1g,0,0,0,0,0,0,0,1g,0,0,0,0
d,0,0,0,0,0,0,0,0,0,0,0,0,0,0,d
d,d,d,d,d,d,d,d,d,d,d,d,d,d,d,d
d,d,d,d,d,d,d,d,d,d,d,d,d,d,d,d
d,d,d,d,d,d,d,d,d,d,d,d,d,d,d,d
d,d,d,d,d,d,d,d,d,d,d,d,d,d,d,d
d,d,d,d,d,d,d,d,d,d,d,d,d,d,d,d
d,d,d,d,d,d,d,d,d,d,d,d,d,d,d,d
d,d,d,d,d,d,d,d,d,d,d,d,d,d,d,d
WAL d
EXT 15,7 g 0,7
PAL 0

ROOM g
d,d,d,d,d,d,d,d,d,d,d,d,d,d,d,d
d,d,d,d,d,d,d,d,d,d,d,d,d,d,d,d
d,d,d,d,d,d,d,d,d,d,d,d,d,d,d,d
d,d,d,d,d,d,d,d,d,d,d,d,d,d,d,d
d,d,d,d,d,d,d,d,d,d,d,d,d,d,d,d
d,d,d,d,d,d,d,d,d,d,d,d,d,d,d,d
d,0,0,0,0,1g,0,0,0,0,0,0,0,0,0,d
0,0,0,0,0,0,0,0,0,0,1g,0,0,0,0,0
d,0,0,0,0,0,0,0,0,0,0,0,0,0,0,d
d,d,d,d,d,d,d,d,d,d,d,d,d,d,d,d
d,d,d,d,d,d,d,d,d,d,d,d,d,d,d,d
d,d,d,d,d,d,d,d,d,d,d,d,d,d,d,d
d,d,d,d,d,d,d,d,d,d,d,d,d,d,d,d
d,d,d,d,d,d,d,d,d,d,d,d,d,d,d,d
d,d,d,d,d,d,d,d,d,d,d,d,d,d,d,d
d,d,d,d,d,d,d,d,d,d,d,d,d,d,d,d
WAL d
EXT 15,7 h 0,7
PAL 0

ROOM h
d,d,d,d,d,d,d,d,d,d,d,d,d,d,d,d
d,d,d,d,d,d,d,d,d,d,d,d,d,d,d,d
d,d,d,d,d,d,d,d,d,d,d,d,d,d,d,d
d,d,d,d,d,d,d,d,d,d,d,d,d,d,d,d
d,d,d,d,d,d,d,d,d,d,d,d,d,d,d,d
d,d,d,d,d,d,d,d,d,d,d,d,d,d,d,d
d,0,0,0,0,1g,0,g,g,g,g,g,g,g,g,d
0,0,1g,0,0,w,0,g,g,g,g,g,g,g,g,0
d,0,0,0,0,0,0,g,g,g,g,g,g,g,g,d
d,d,d,d,d,d,d,d,d,d,d,d,d,d,d,d
d,d,d,d,d,d,d,d,d,d,d,d,d,d,d,d
d,d,d,d,d,d,d,d,d,d,d,d,d,d,d,d
d,d,d,d,d,d,d,d,d,d,d,d,d,d,d,d
d,d,d,d,d,d,d,d,d,d,d,d,d,d,d,d
d,d,d,d,d,d,d,d,d,d,d,d,d,d,d,d
d,d,d,d,d,d,d,d,d,d,d,d,d,d,d,d
WAL d
EXT 15,7 i 0,7
PAL 0

ROOM i
d,d,d,d,d,d,d,d,d,d,d,d,d,d,d,d
d,d,d,d,d,d,d,d,d,d,d,d,d,d,d,d
d,d,d,d,d,d,d,d,d,d,d,d,d,d,d,d
d,d,d,d,d,d,d,d,d,d,d,d,d,d,d,d
d,d,d,d,d,d,d,d,d,d,d,d,d,d,d,d
d,d,d,d,d,d,d,d,d,d,d,d,d,d,d,d
d,g,g,g,g,g,g,g,g,g,g,g,g,g,g,d
0,g,g,g,g,g,g,g,g,g,g,g,g,g,g,0
d,g,g,g,g,g,g,g,g,g,g,g,g,g,g,d
d,d,d,d,d,d,d,d,d,d,d,d,d,d,d,d
d,d,d,d,d,d,d,d,d,d,d,d,d,d,d,d
d,d,d,d,d,d,d,d,d,d,d,d,d,d,d,d
d,d,d,d,d,d,d,d,d,d,d,d,d,d,d,d
d,d,d,d,d,d,d,d,d,d,d,d,d,d,d,d
d,d,d,d,d,d,d,d,d,d,d,d,d,d,d,d
d,d,d,d,d,d,d,d,d,d,d,d,d,d,d,d
WAL d
EXT 15,7 j 0,7
PAL 0

ROOM j
d,d,d,d,d,d,d,d,d,d,d,d,d,d,d,d
d,0,0,0,0,0,0,0,0,0,0,0,0,0,0,d
d,0,0,0,0,0,0,0,0,0,0,0,0,0,0,d
d,0,0,0,0,0,0,0,0,0,0,0,0,0,0,d
d,0,0,0,0,0,0,0,0,0,0,0,0,0,0,d
d,0,0,0,0,0,j,j,j,j,j,0,0,0,0,d
d,0,0,0,0,0,j,1r,1r,1r,j,0,0,0,0,d
l,l,l,l,l,l,l,1r,1r,1r,j,0,0,0,0,d
d,0,0,0,0,0,j,1r,1r,1r,j,0,0,0,0,d
d,0,0,0,0,0,j,j,j,j,j,0,0,0,0,d
d,0,0,0,0,0,0,0,0,0,0,0,0,0,0,d
d,0,0,0,0,0,0,0,0,0,0,0,0,0,0,d
d,0,0,0,0,0,0,0,0,0,0,0,0,0,0,d
d,0,0,0,0,0,0,0,0,0,0,0,0,0,0,d
d,0,0,0,0,0,0,0,0,0,0,0,0,0,0,d
d,d,d,d,d,d,d,d,d,d,d,d,d,d,d,d
WAL d
EXT 7,8 k 6,6
EXT 7,7 k 6,6
EXT 7,6 k 6,6
EXT 8,6 k 6,6
EXT 9,6 k 6,6
EXT 9,7 k 6,6
EXT 9,8 k 6,6
EXT 8,8 k 6,6
PAL 0

ROOM k
0,0,0,0,0,0,0,0,0,0,0,0,0,0,0,0
0,0,0,0,0,0,0,0,0,0,0,0,0,0,0,0
0,0,0,0,0,0,0,0,0,0,0,0,0,0,0,0
0,0,0,0,0,0,0,0,0,0,0,0,0,0,0,0
0,0,0,0,d,d,d,d,d,d,d,d,d,d,0,0
0,0,0,0,d,1r,1r,g,g,c,b,g,17,d,0,0
0,0,0,0,d,1r,1r,g,g,g,g,g,g,d,0,0
0,0,0,0,d,g,g,g,g,g,g,g,g,d,0,0
0,0,0,0,d,1i,g,g,g,g,g,g,g,d,0,0
0,0,0,0,d,1h,g,g,g,g,g,g,g,d,0,0
0,0,0,0,d,g,g,g,g,g,g,g,g,d,0,0
0,0,0,0,d,d,d,d,d,f,d,d,d,d,0,0
0,0,0,0,0,0,0,0,0,0,0,0,0,0,0,0
0,0,0,0,0,0,0,0,0,0,0,0,0,0,0,0
0,0,0,0,0,0,0,0,0,0,0,0,0,0,0,0
0,0,0,0,0,0,0,0,0,0,0,0,0,0,0,0
WAL d
END undefinee 9,11
PAL 0

ROOM l
0,0,0,0,0,0,0,0,0,0,0,0,0,0,0,0
0,1g,0,0,0,0,0,0,0,q,u,p,0,0,0,0
0,0,0,0,z,10,0,0,0,0,0,0,0,0,1g,0
0,0,0,z,d,d,10,0,0,1g,0,0,0,0,0,0
0,0,z,d,d,d,d,10,0,0,0,q,s,p,0,0
0,0,d,d,y,y,d,d,0,0,0,r,n,o,0,0
0,0,d,d,d,d,d,d,0,0,0,0,m,0,0,0
i,i,d,d,f,f,d,d,i,i,i,i,i,i,i,i
x,x,x,x,x,x,x,x,x,x,x,x,x,x,x,x
1f,1f,1f,1f,1f,1f,1f,1f,1f,1f,1f,1f,1f,1f,1f,1f
0,q,s,p,0,q,u,p,0,0,0,0,0,0,0,0
0,r,n,o,0,0,0,0,0,0,0,q,u,p,0,0
0,0,m,0,0,0,0,0,0,17,0,0,0,0,15,0
0,j,j,j,0,0,0,0,0,17,0,0,0,0,0,0
0,0,0,0,0,0,0,0,0,0,0,1g,0,0,0,0
0,0,0,0,0,0,0,0,0,0,0,0,0,0,0,0
WAL i,1f,d
EXT 4,7 m 7,14
EXT 5,7 m 8,14
PAL 0

ROOM m
0,0,0,0,0,0,0,0,0,0,0,0,0,0,0,0
0,0,0,0,0,0,0,0,0,0,0,0,0,0,0,0
0,0,0,0,0,0,0,0,0,0,0,0,0,0,0,0
0,0,0,0,0,0,0,0,0,0,0,0,0,0,0,0
0,0,0,0,0,0,0,0,0,0,0,0,0,0,0,0
0,0,d,d,d,d,d,d,d,d,d,d,d,d,d,0
0,0,d,0,0,0,0,1a,1s,1s,1s,1s,1s,1s,d,0
0,0,d,17,17,17,17,1a,1s,1s,1s,0,1s,1s,d,0
0,0,d,14,14,14,14,14,0,0,0,0,0,0,d,0
0,0,d,0,0,0,0,0,0,17,0,0,0,0,d,0
0,0,d,0,0,0,0,0,0,0,0,0,0,0,d,0
0,0,d,0,0,0,0,0,0,0,0,17,0,0,d,0
0,0,d,17,0,0,0,0,0,0,0,0,0,0,d,0
0,0,d,0,0,0,0,0,0,0,0,0,0,0,d,0
0,0,d,d,d,d,d,f,f,d,d,d,d,d,d,0
0,0,0,0,0,0,0,0,0,0,0,0,0,0,0,0
WAL d
END 0 11,8
PAL 0

TIL 10
10000000
11000000
11100000
11110000
11111000
11111100
11111110
11111111

TIL 11
00000000
00000000
00000000
00000000
00011000
00111100
01111110
11111111

TIL 12
00000000
00000000
00000000
00000000
00111110
01111111
01110111
01111111

TIL 13
11111111
11111111
00011000
00011000
00011000
00011000
00011000
11111111

TIL 14
11111111
11111111
11111111
11111111
11111111
10101010
10101010
10101010

TIL 15
00000000
00011000
00111100
00111100
00111100
00011000
00001000
00000100

TIL 16
00000010
00000001
00000000
00000000
00000000
00000000
00000000
00000000

TIL 17
00000000
00000000
00011100
00011100
00111110
01011101
00011100
00010000
>
00000000
00000000
00011100
00011100
00111110
01011101
00011100
00000100

TIL 18
00000000
00000000
00011100
00111110
00100010
00111110
00111110
00111110

TIL 19
00000000
00000000
00000000
00000000
00000000
00000000
00000000
00000000

TIL a
11111111
10000001
10000001
10011001
10011001
10000001
10000001
11111111

TIL b
00000000
00000000
00000000
00000000
00000000
11111110
11111110
00000010

TIL c
00000000
00000000
00000000
00100000
00100000
00111111
00111111
00100000

TIL d
11111111
11111111
11111111
11111111
11111111
11111111
11111111
11111111
>
11111111
11111111
11111111
11111111
11111111
11111111
11111111
11111111

TIL e
11111111
11111111
11111111
11111111
00000000
00000000
00000000
00000000

TIL f
00111100
01100110
01000010
01000010
01111110
01111010
01111110
01111110

TIL g
00000000
11111111
00000000
11111111
00000000
11111111
00000000
11111111

TIL h
00000000
00000000
00000000
00000000
11111111
11111111
11111111
11111111

TIL i
00000000
00000000
00000000
10101010
11111111
10101010
10101010
10101010

TIL j
11100000
01000100
00001110
00000100
00100000
01110010
00100111
01000010

TIL k
00000000
00000000
00000000
00000000
00000000
00000000
00000000
00000000

TIL l
00000000
10000000
11001001
10011100
00001000
00000001
10000011
00000001

TIL m
00011000
00011000
00011000
00011000
00011000
00011000
00111100
11111110

TIL n
11111111
11111111
11111111
11111111
11111111
11111111
11111111
00011000

TIL o
11111000
11111000
11111000
11111000
11111000
11110000
11100000
00000000

TIL p
00000000
00000000
00000000
00000000
11100000
11110000
11111000
11111000

TIL q
00000000
00000000
00000000
00000000
00000111
00001111
00011111
00011111

TIL r
00011111
00011111
00011111
00011111
00011111
00001111
00000111
00000000

TIL s
00000000
00000000
00000000
00000000
11111111
11111111
11111111
11111111

TIL t
00000000
00000000
00000000
00000000
00000000
00000000
00000000
00000000

TIL u
00000000
00000000
00000000
01111110
11111111
11111111
11111111
11111111

TIL v
01000000
01000000
00100000
00100000
01010000
01010000
00100000
00000000

TIL w
00000000
00000000
00000000
00000000
00000000
10101010
10101010
10101010
>
00000000
00000000
00000000
00000000
00000000
10101010
10101010
10101010

TIL x
11111111
10111101
11111111
11100111
11100111
11111111
10111101
11111111

TIL y
11111111
11111111
11000011
11000011
11000011
11000011
11111111
11111111

TIL z
00000001
00000011
00000111
00001111
00011111
00111111
01111111
11111111

TIL 1a
11111110
11111110
11111110
11111110
11111110
11111110
11111110
11111110

TIL 1b
11111111
11111111
11111111
11111111
11111110
11111110
11111110
11111110

TIL 1c
11111111
11111111
11111111
11111111
00000000
00000000
00000000
00000000

TIL 1d
11111111
11111111
11111111
11111111
01111111
01111111
01111111
01111111

TIL 1e
00000000
00000000
00000000
00000000
00001111
00011111
00111111
01111111

TIL 1f
00000000
00000000
00000000
00000000
00000000
00000000
00000000
00000000

TIL 1g
00000000
00000000
00000000
00000000
00000000
00000000
00011000
00111100

TIL 1h
01111110
01111110
01111110
01111110
01111110
01111110
01111110
01111110

TIL 1i
00000000
00000000
00000000
01111110
01000010
01000010
01111110
01111110

TIL 1j
11111000
11110000
11110000
11110000
11100000
11100000
11100000
11110000

TIL 1k
11111111
11111110
11111110
11111110
11111100
11111100
11111000
11111000

TIL 1l
11110000
11110000
11110000
11100000
11100000
11100000
11100000
11000000

TIL 1m
11111111
00000000
00000000
00000000
00000000
00000000
00000000
00000000

TIL 1n
01010101
10101010
01010101
10101010
01010101
10101010
01010101
10101010

TIL 1o
01010101
10101010
01010101
10101010
11111111
11111111
11111111
11111111

TIL 1p
01010101
10101010
01010101
10101010
11110101
11110010
11111001
11111000

TIL 1q
01010101
10101010
01010101
10101010
01010111
10101111
01001111
10011111

TIL 1r
01010101
10101010
01010101
10101010
01010101
10101010
01010101
10101010
>
10101010
01010101
10101010
01010101
10101010
01010101
10101010
01010101

TIL 1s
11111111
10011001
10011001
11111111
11111111
10011001
10011001
11111111

SPR A
00000000
00011000
00011000
00111100
01011010
00011000
00011100
00100000
>
00000000
00011000
00011000
00111100
01011010
00011000
00111000
00000100
POS 0 5,9

SPR a
00000000
00000000
01010001
01110001
01110010
01111100
00111100
00100100
>
00000000
00000000
01010000
01110001
01110001
01111110
00111100
00100100
POS 0 8,10

SPR b
00000000
00000000
00000000
00000000
00000000
11111110
11111110
00000010
POS 0 2,11

SPR c
00000000
00000000
00000000
01000000
01000000
01111111
01111111
01000000
POS 0 1,11

SPR d
00000000
00000000
00011000
00011000
00111100
00011000
00011000
00111100
POS 0 14,10

SPR e
00000000
00000000
00001000
00010000
00010000
00110000
00011000
00010000
POS 1 7,7

SPR f
00000000
00000000
01111110
01111110
01111110
00011000
00011000
00011000
POS 2 7,7

SPR g
00011000
00111000
00011000
00111100
01011010
00011000
00011100
00100000
>
00011000
00011100
00011000
00111100
01011010
00011000
00111000
00000100
POS 3 9,9

SPR h
00000000
00011000
00011000
00111100
01011010
00011000
00011100
00100000
>
00000000
00011000
00011000
00111100
01011010
00011000
00111000
00000100
POS 5 9,7

SPR i
00000000
00000000
00011000
00011000
00111100
01011010
00011100
00100000
>
00000000
00000000
00011000
00011000
00111100
01011010
00111000
00001000
POS 6 7,6

SPR j
00000000
00000000
00011000
00011000
00111100
01011010
00011100
00100000
>
00000000
00000000
00011000
00011000
00111100
01011010
00111000
00000100
POS 9 6,4

SPR k
01111110
01111110
01111110
01111110
01111110
01111110
01111110
01111110
POS 9 7,2

SPR l
00000000
00000000
00000000
01111110
01000010
01000010
01111110
01111110
POS 9 7,1

SPR m
00000000
00000000
01111110
01101010
01111110
01011100
01100010
01111110
>
00000000
00000000
01111110
01010110
01111110
00111010
01000110
01111110
POS a 8,5

SPR n
00000000
00000000
00111100
01111110
01000010
01111110
01111110
01111110
POS 2 6,2

SPR o
00000000
00000000
00111100
01111110
01000010
01111110
01111110
01111110
POS 3 6,12

SPR p
00000000
00000000
00111100
01111110
01000010
01111110
01111110
01111110
POS 3 5,12

SPR q
00000000
00000000
00111100
01111110
01000010
01111110
01111110
01111110
POS 3 4,12

SPR r
00000000
00000000
00111100
01111110
01000010
01111110
01111110
01111110
POS 3 3,12

SPR s
00000000
00000000
00111100
01111110
01000010
01111110
01111110
01111110
POS 3 2,12

SPR t
00000000
00000000
11111110
10110110
11111110
00011000
00011000
00011000
>
00000000
00000000
01111111
01101101
01111111
00011000
00011000
00011000
POS b 9,4

SPR u
00000000
00011000
00011000
00111100
01011010
00011000
00011100
00100000
>
00000000
00011000
00011000
00111100
01011010
00011000
00111000
00000100
POS k 9,7

SPR v
11111111
10011001
10011001
11111111
11111111
10011001
10011001
11111111
POS m 11,7

DLG a
this is my cat

DLG b
this was my parents bed right now there in the army

DLG c
this was my parents bed right now there in the army

DLG d
this statue is over 1000 years old

DLG e
I planted the tree at the begining of summer now it,s over

DLG f
<----- Cave----Town----->

DLG h
Hello random stranger that i dont mind coming in to my house. 

DLG i
HI IM A LITTLE KID PLEASE DON'T BEAT ME LIKE MY PARENTS DO

DLG g
hey kiddo theres a letter at the post office for you......

DLG j
.............oh.........I did not see you there did you fall down too i fell down two days ago i have not found my wayout.......

DLG k
it seens to be the lost kid's makeshift bed

DLG l
it seens to be the lost kid's makeshift bed

DLG m
hello this is a cameo

DLG n
This was the grave for my sister she died from the war......

DLG o
Keren lost in the caves 

DLG p
enerd said to be a face mosnter but we all know thats not true

DLG q
keney hung him self because of abuse 

DLG r
jeff killed by friendly fire in war

DLG s
saul killed by a cat with a secret

DLG t
I think im in the wrong game

DLG u
hello I see you found the portal I made It was supposed to help people get out of the caves but your the first to survive...........

END 0
as you read the letter you find out that your parents died in the war they go on saying that they are sorry for your lose....................Later that day you are found dead out side of the post office...........THE END

END undefined
knowing you parents will never come back from the war, you hang your self to join them............The End

END undefinee
As you walk out side you feel you skin starting to burn fall to the ground you are happy for death you are going to meet your parents..........THE END

