Talkative Plants

# BITSY VERSION 2.1

! ROOM_FORMAT 1

PAL 0
247,248,222
240,142,169
145,230,225

ROOM 0
15,15,15,15,15,15,15,l,15,15,15,15,15,15,15,15
15,0,0,0,0,0,0,l,0,0,0,0,0,0,0,15
15,0,b,b,b,b,b,l,b,b,b,b,b,0,0,15
15,0,b,0,0,0,0,l,0,0,0,0,b,0,0,15
15,0,b,0,0,0,0,l,0,0,0,0,b,0,0,15
15,0,b,0,0,0,0,l,0,0,0,0,b,0,0,15
15,0,b,0,0,0,0,l,l,0,0,0,b,0,0,15
15,0,a,a,a,a,a,a,f,a,a,a,a,a,0,15
15,0,a,0,d,d,0,0,0,0,0,0,0,a,0,15
15,0,a,e,i,j,c,0,0,0,0,0,0,a,0,15
15,0,a,e,g,h,c,0,0,0,0,0,0,a,0,15
15,0,a,0,d,d,0,0,0,0,0,0,0,a,0,15
15,0,a,0,0,0,0,a,a,a,f,a,a,a,0,15
15,0,a,a,a,a,a,a,0,e,0,0,0,a,0,15
15,0,0,0,0,0,0,a,0,0,0,0,0,a,0,15
15,0,0,0,0,0,0,a,a,a,a,a,a,a,0,15
WAL b,a,c,d,e,g,h,i,m,n,k,j,p,w,x,11,13
EXT 7,0 1 7,15

ROOM 1
0,k,i,m,0,15,15,15,l,15,0,0,0,n,0,0
k,i,i,i,m,l,l,l,l,0,n,k,i,i,i,m
0,0,a,0,0,l,0,0,0,k,i,i,i,i,i,m
0,0,a,0,0,l,0,0,k,i,i,i,i,i,i,m
0,0,a,0,0,l,0,0,0,0,a,0,0,a,0,15
0,n,0,0,0,l,0,0,0,0,a,0,0,a,0,15
k,i,m,0,0,l,l,l,l,0,0,0,0,a,0,15
i,i,i,m,0,0,0,0,l,0,0,0,0,0,0,15
k,i,m,n,0,0,0,0,l,0,0,0,0,0,o,15
0,a,k,i,m,0,0,0,l,l,l,l,l,l,l,l
0,0,k,i,m,0,0,0,l,0,0,n,0,0,o,15
0,k,i,i,i,m,0,l,l,0,k,i,m,0,0,15
0,0,0,a,0,0,0,l,0,k,i,i,i,m,0,15
0,0,0,a,0,0,0,l,0,0,0,a,0,0,0,15
0,0,0,a,0,0,0,l,0,0,0,a,0,0,0,15
0,0,0,15,15,15,15,l,15,15,15,15,15,15,15,15
WAL k,o,n,m,a,i
EXT 15,9 2 0,9
EXT 7,15 0 7,0
EXT 8,0 3 8,15

ROOM 2
0,x,x,0,0,0,x,x,15,15,p,p,p,p,p,p
x,x,x,x,x,x,x,0,0,s,p,p,p,p,p,p
x,x,x,x,x,x,x,v,p,p,p,p,p,p,p,p
x,x,x,x,x,x,x,q,p,p,p,p,p,p,p,p
15,x,x,0,x,0,x,t,p,p,p,p,p,p,p,p
15,0,0,0,0,0,0,0,u,p,p,p,p,p,p,p
15,0,0,0,0,0,0,0,0,r,p,p,p,p,p,p
15,0,0,0,0,0,0,0,0,t,p,p,p,p,p,p
15,0,o,0,0,0,0,0,w,0,r,p,p,p,p,p
l,l,l,l,l,l,0,0,0,0,q,p,p,p,p,p
15,0,o,0,0,l,0,0,0,0,t,p,p,p,p,p
15,0,0,0,0,l,l,l,l,l,0,r,p,p,p,p
15,0,0,0,0,0,0,0,0,0,0,q,p,p,p,p
15,0,0,0,0,0,0,0,0,0,e,q,p,p,p,p
15,0,0,0,0,0,0,0,0,0,w,t,p,p,p,p
15,15,15,15,15,15,15,15,15,15,15,15,r,p,p,p
WAL p,w,x,p,e,o
EXT 0,9 1 15,9

ROOM 3
15,15,15,15,15,15,15,15,l,15,15,15,15,15,15,15
15,0,0,0,0,0,0,0,l,0,0,0,0,0,0,15
15,0,0,0,0,0,0,0,l,0,0,0,0,0,0,15
15,0,0,0,0,0,0,0,0,0,0,0,0,0,0,15
15,0,0,0,0,0,0,0,0,0,0,0,0,0,0,15
a,a,a,a,a,a,a,a,a,a,y,a,a,a,a,a
a,a,a,a,a,a,a,a,a,a,y,a,a,a,a,a
15,0,0,0,0,0,0,0,0,0,0,0,0,0,0,15
15,0,0,0,0,0,0,0,0,0,0,0,0,0,n,0
15,0,0,0,n,0,0,0,0,0,0,0,0,k,i,m
15,0,0,k,i,m,0,0,0,0,0,0,k,i,i,i
15,0,k,i,i,i,m,0,0,0,0,0,k,i,i,i
15,k,i,m,a,0,0,0,l,0,0,0,0,0,a,0
k,i,i,i,m,0,0,0,l,0,0,0,0,0,a,0
0,0,a,0,a,0,0,0,l,0,0,0,0,0,a,0
0,0,a,15,15,15,15,15,l,15,15,15,15,15,15,15
WAL a,i,k,m,n
EXT 8,15 1 8,0
EXT 8,0 4 8,15

ROOM 4
i,i,i,m,15,15,15,15,l,15,15,k,i,i,i,i
0,a,0,0,0,0,0,0,l,0,0,0,0,a,k,i
0,a,0,n,0,0,0,0,l,0,0,0,0,a,0,a
0,0,k,i,m,0,n,0,l,0,0,0,0,0,0,a
0,k,i,i,i,i,i,m,l,l,l,l,l,l,0,15
15,0,0,a,k,i,i,i,m,0,0,0,0,l,0,15
15,0,0,a,0,0,a,0,0,0,0,0,0,l,0,15
15,0,0,a,0,0,a,0,0,0,0,0,0,l,0,15
15,0,0,0,0,0,0,0,0,0,0,0,0,l,0,15
15,0,l,l,l,l,l,l,l,l,l,l,l,l,0,15
15,0,l,0,0,0,0,0,0,0,n,0,0,n,0,15
15,0,l,0,0,0,0,0,0,k,i,m,k,i,m,0
15,0,l,0,0,0,0,0,k,i,i,i,i,i,i,m
15,0,l,l,l,l,l,l,l,0,a,k,i,i,i,m
m,0,0,0,0,0,0,0,l,0,a,0,0,a,0,0
i,m,15,15,15,15,15,15,l,15,15,15,15,a,0,0
WAL n,m,k,i,a
EXT 8,15 3 8,0
EXT 8,0 5 8,15

ROOM 5
0,0,n,0,0,k,i,m,0,k,i,m,k,i,m,0
0,k,i,m,0,0,a,0,0,0,a,0,k,i,m,0
0,k,i,m,0,0,a,0,0,0,a,0,0,a,0,0
0,0,a,0,0,0,15,15,15,15,15,0,0,a,0,0
0,0,a,0,0,15,10,10,10,10,10,15,15,0,0,0
0,0,a,0,15,10,10,11,11,11,10,10,12,15,n,0
0,n,0,15,10,10,10,10,10,10,10,10,10,k,i,m
k,i,m,15,10,10,10,10,10,10,10,10,10,k,i,m
0,a,0,n,z,z,z,z,z,z,z,z,z,n,a,0
0,a,k,i,m,0,z,z,z,z,z,0,k,i,m,0
0,a,k,i,m,0,0,z,z,z,0,0,k,i,m,0
0,0,0,a,0,0,o,0,l,0,o,0,0,a,0,0
0,0,0,a,0,0,0,0,l,0,0,0,0,a,0,0
b,b,b,b,b,b,b,o,l,o,b,b,b,b,b,b
15,0,0,0,0,0,0,0,l,0,0,0,0,0,0,15
15,15,15,15,15,15,15,15,l,15,15,15,15,15,15,15
WAL 15,b,a,k,j,i,m,n,o,11
EXT 8,15 4 8,0
EXT 12,5 6 7,9

ROOM 6
i,i,i,i,i,i,i,i,i,i,i,i,i,i,i,i
i,i,i,i,i,i,i,i,i,i,i,i,i,i,i,i
i,i,i,i,i,i,i,i,i,i,i,i,i,i,i,i
i,i,i,i,i,i,i,i,i,i,i,i,i,i,i,i
i,i,i,i,i,i,i,i,i,i,i,i,i,i,i,i
i,i,i,i,i,i,i,i,i,i,i,i,i,i,i,i
i,i,i,i,14,14,14,14,14,14,14,14,i,i,i,i
i,i,i,i,14,14,14,14,14,0,14,14,i,i,i,i
i,i,i,i,14,o,14,14,14,14,o,14,i,i,i,i
i,i,i,i,14,14,14,14,14,14,14,14,i,i,i,i
i,i,i,i,i,i,i,i,i,i,i,i,i,i,i,i
i,i,i,i,i,i,i,i,i,i,i,i,i,i,i,i
i,i,i,i,i,i,i,i,i,i,i,i,i,i,i,i
i,i,i,i,i,i,i,i,i,i,i,i,i,i,i,i
i,i,i,i,i,i,i,i,i,i,i,i,i,i,i,i
i,i,i,i,i,i,i,i,i,i,i,i,i,i,i,i
WAL i,13,o

TIL 10
11011011
10000001
00000000
10011001
10011001
00000000
10000001
11011011

TIL 11
00000000
11111111
10100101
10100101
11111111
10000001
10100101
11111111

TIL 12
11111111
01011111
01010111
01010101
01010101
01010101
11111111
11111111

TIL 13
11111111
11111111
11111111
11111111
11111111
11111111
11111111
11111111

TIL 14
00000000
10000000
00000010
00000000
00100100
00000000
10000001
00000000

TIL 15
00000000
00000000
00000000
00000000
00000000
00000000
00000000
00000000

TIL a
11011011
10100101
11011011
10100101
11011011
10100101
11011011
10100101

TIL b
00000000
00000000
00100100
11111111
00100100
11111111
00100100
00100100

TIL c
00000000
00000010
00000010
00000010
00000100
01111110
00100100
00100100

TIL d
00000000
01111110
01111110
01111110
00100100
01111110
00100100
00100100

TIL e
00000000
01000000
01000000
01000000
00100000
01111110
00100100
00100100

TIL f
01111110
11111110
01111110
01111110
01111010
01111110
11111110
01111110

TIL g
11111111
11111111
11111111
11111111
11111111
11111111
00100000
00100000

TIL h
11111111
11111111
11111111
11111111
11111111
11111111
00000010
00000010

TIL i
11111111
11111111
11111111
11111111
11111111
11111111
11111111
11111111

TIL j
11111111
11101111
11010111
11101111
11110111
11000011
11100111
11111111
>
11111111
11110111
11101011
11110111
11101111
11000011
11100111
11111111

TIL k
00011111
00111111
01111111
01111111
01111111
01111111
00111111
00011111

TIL l
00000000
00000000
00000110
01100000
00000000
00000110
01100000
00000000

TIL m
11111000
11111100
11111110
11111110
11111110
11111110
11111100
11111000

TIL n
00000000
00111100
01111110
11111111
11111111
11111111
11111111
11111111

TIL o
00011000
00100100
00011000
00011000
00011000
00011000
00011000
00000000

TIL p
11111111
11111011
11110101
11111111
11011111
10101101
11111010
11111111

TIL q
00000111
00000111
00000111
00000111
00000111
00000111
00000111
00000111

TIL r
00111111
00011111
00001111
00000111
00000111
00000111
00000111
00000111

TIL s
00000111
00000111
00000111
00000111
00000111
00001111
00011111
00111111

TIL t
00000111
00000111
00000111
00000111
00000111
00000011
00000001
00000000

TIL u
00011111
00001111
00000111
00000111
00000111
00000011
00000001
00000000

TIL v
00000001
00000011
00000111
00000111
00000111
00000111
00000111
00000111

TIL w
00000000
00000001
00000010
00000100
00001000
00010100
00000100
00000000

TIL x
00000000
01000100
10101010
10101010
01000100
01000100
01000100
01000100

TIL y
11011011
10100001
11011011
10000101
11001011
10100001
11011011
10100101

TIL z
00000000
11111111
11111111
00000000
00000000
11111111
11111111
00000000

SPR A
00011000
00111100
00011000
00111100
01111110
10111101
00100100
00100100
POS 0 12,13

SPR a
00000000
00000000
00000000
11111000
01110010
01111100
00111100
00100100
POS 0 6,11

SPR b
00000000
00111100
10111101
10011001
11111111
01111110
00100100
00100100
>
00000000
00111100
00111100
00011000
11111111
11111111
10100101
00100100
POS 0 10,9

SPR c
00001000
00010000
00111100
01111010
01111110
01111110
00111100
00000000
POS 0 4,5

SPR d
00100000
00011000
01111110
11011011
11111111
11011011
01111110
00000000
POS 0 5,4

SPR e
00000000
00101000
01010100
00101000
00010100
01011000
00110000
00010000
POS 0 8,4

SPR f
00000100
00111010
00000110
00001110
00011100
00111000
01110000
01100000
POS 0 10,4

SPR g
00000000
00101000
01010100
00101000
00010100
01011000
00110000
00010000
POS 0 9,5

SPR h
00000000
01111110
01000010
01000010
01111110
00011000
00011000
00011000
POS 1 9,8

SPR i
00000000
01111110
01000010
01000010
01111110
00011000
00011000
00011000
POS 2 8,10

SPR j
00001110
10111110
10111000
10111000
01111100
11111100
01001010
01001010
POS 2 8,7

SPR k
00000000
01000100
10101010
10101010
01000100
01000100
01000100
01000100
POS 2 5,4

SPR l
00000000
01000100
10101010
10101010
01000100
01000100
01000100
01000100
POS 2 3,3

SPR m
00000000
01111110
01000010
01000010
01111110
00011000
00011000
00011000
POS 3 10,10

SPR n
00000000
00111100
10111101
10011001
11111111
01111110
00100100
00100100
>
00000000
00111100
00111100
00011000
11111111
11111111
10100101
00100100
POS 3 6,8

SPR o
00000000
00101000
01010100
00101000
00010100
01011000
00110000
00010000
POS 4 10,7

SPR p
00000000
00101000
01010100
00101000
00010100
01011000
00110000
00010000
POS 5 8,5

SPR q
00000000
01111110
01000010
01000010
01111110
00011000
00011000
00011000
POS 6 9,7

DLG a
Hello, it is I, the dog.

DLG b
Hello player, I am in need of assistance. Please go outside and talk to my plants.

DLG c
It is I, the apple. Pleasure to meet you.

DLG d
It may not be obvious, but I am supposed to represent a pumpkin.

DLG e
Greetings, I am a very cool flower.

DLG f
I am a badly rendered carrot.

DLG g
I am a lesser cool flower.

DLG h
Go to the right for a very cool lake. Continue ahead if you are a boring person.

DLG i
Welcome to Cool Lake. The #1 place to fish and talk to fishermen.

DLG j
I've been a fisherman my whole life. I've always come to this lake. Yet still, I'm too scared to talk to those plants up there...

DLG k
Boo!

DLG l
Scare!

DLG m
There is nothing here, just a boring wall.

DLG n
I heard of legends that there is a way to get past this wall. But they're probably not true. Hence why they're called legends.

DLG o
You shouldn't be here. You're not one of us.

DLG p
You have discovered our secret society. I am the elder-flower. I was the first plant with the power of speech. I have made it possible for all plant-kind to be able to speak. This was thanks to my ancient magical powers. You have discovered this secret, therefore you are now the Chosen One. In order to get your cool Chosen One Badge, just head down those stairs on the right.

DLG q
FOOL! You stepped right into our trap! The secret of plant-kind will be kept just that forever: A SECRET!

