In The Silence Between Songs

# BITSY VERSION 5.1

! ROOM_FORMAT 1

PAL 0
253,213,219
131,171,198
245,84,111

PAL 1
NAME palette two
255,255,255
255,118,218
255,255,255

PAL 2
255,255,255
254,154,248
255,255,255

PAL 3
255,255,255
255,255,255
255,255,255

PAL 4
255,255,255
255,255,255
255,255,255

ROOM 0
1,0,4,4,4,4,4,0,0,0,0,1,0,0,0,1
1,0,4,4,0,4,4,0,0,0,0,1,0,0,0,1
1,0,0,0,2,0,0,0,0,0,0,1,0,0,0,1
1,0,0,0,2,0,0,0,0,0,0,1,0,0,0,1
1,0,0,0,0,0,0,0,0,0,0,1,0,0,0,1
1,1,1,1,1,1,1,1,1,1,1,1,0,0,0,1
0,0,0,0,0,0,0,0,0,0,0,0,0,0,0,1
0,0,0,0,0,0,0,0,0,0,0,0,0,0,0,1
0,0,0,0,0,0,0,0,0,0,0,0,0,0,0,1
1,1,1,1,1,1,1,1,1,1,1,1,1,1,1,1
1,0,0,0,0,0,0,0,0,0,0,0,0,0,0,0
1,0,0,0,0,0,0,0,0,0,4,4,4,4,4,0
1,0,0,4,4,4,4,4,0,0,4,4,0,4,4,0
1,0,0,4,4,0,4,4,0,0,0,0,2,0,0,0
1,0,0,0,0,2,0,0,0,0,0,0,2,0,0,0
1,0,0,0,0,2,0,0,0,0,0,0,0,0,0,0
NAME room one
ITM 1 4,7
ITM 2 11,7
ITM 3 13,2
EXT 13,0 2 2,15
EXT 12,0 2 1,15
EXT 14,0 2 3,15
PAL 0

ROOM 2
0,0,0,0,6,0,0,0,0,0,1,0,0,0,1,0
0,6,0,0,0,0,0,0,6,0,1,0,0,0,1,0
0,0,0,0,0,0,0,0,0,0,1,0,0,0,1,0
0,0,0,6,0,0,6,0,0,0,1,0,0,0,1,0
0,0,0,0,0,0,0,0,0,0,1,0,0,0,1,0
1,1,1,1,1,1,1,1,1,1,1,0,0,0,1,0
1,0,0,0,0,0,0,0,0,0,0,0,0,0,1,0
1,0,0,0,0,0,0,0,0,0,0,0,0,0,1,0
1,0,0,0,0,0,0,0,0,0,0,0,0,0,1,0
1,0,0,0,1,1,1,1,1,1,1,0,0,0,1,0
1,0,0,0,1,0,0,0,0,0,1,0,0,0,1,0
1,0,0,0,1,0,0,0,0,0,1,0,0,0,1,0
1,0,0,0,1,0,4,4,4,0,1,0,0,0,1,0
1,0,0,0,1,0,4,0,4,0,1,1,1,1,1,0
1,0,0,0,1,0,0,2,0,0,0,0,0,0,0,0
1,0,0,0,1,0,0,2,0,0,0,0,0,0,0,0
NAME room two
ITM 4 2,10
ITM 5 8,7
ITM 6 12,11
ITM 7 12,1
EXT 11,0 3 1,15
EXT 12,0 3 2,15
EXT 13,0 3 3,15
PAL 0

ROOM 3
1,1,1,1,1,1,1,1,1,1,1,1,0,0,0,0
0,0,0,0,0,0,0,0,0,0,0,1,0,0,6,0
0,0,0,0,0,0,0,0,0,0,0,1,0,0,0,0
0,0,0,0,0,0,0,0,0,0,0,1,0,0,0,0
1,1,1,1,1,1,1,1,0,0,0,1,0,0,0,0
0,0,0,0,0,0,0,1,0,0,0,1,0,0,0,0
0,0,0,0,0,0,0,1,0,0,0,1,0,4,4,4
1,1,1,1,1,1,1,1,0,0,0,1,0,4,0,4
1,0,0,0,0,0,0,0,0,0,0,1,0,0,2,0
1,0,0,0,0,0,0,0,0,0,0,1,0,0,2,0
1,0,0,0,0,0,0,0,0,0,0,1,0,0,0,0
1,0,0,0,1,1,1,1,1,1,1,1,0,0,0,0
1,0,0,0,1,0,0,0,0,0,0,0,0,0,0,0
1,0,0,0,1,0,0,0,0,0,0,0,6,0,0,0
1,0,0,0,1,0,0,0,0,0,0,0,0,0,0,0
1,0,0,0,1,0,0,6,0,0,0,0,0,0,0,0
NAME room three
ITM 8 2,9
ITM 9 9,9
ITM a 9,2
ITM b 1,2
EXT 0,3 4 15,3
EXT 0,2 4 15,2
EXT 0,1 4 15,1
PAL 0

ROOM 4
1,1,1,1,1,1,1,1,1,1,1,1,1,1,1,1
1,0,0,0,0,0,0,0,0,0,0,0,0,0,0,0
1,0,0,0,0,0,0,0,0,0,0,0,0,0,0,0
1,0,0,0,0,0,0,0,0,0,0,0,0,0,0,0
1,0,0,0,1,1,1,1,1,1,1,1,1,1,1,1
1,0,0,0,1,0,0,0,0,0,0,0,0,0,0,0
1,0,0,0,1,0,0,0,0,6,6,0,0,0,0,0
1,0,0,0,1,0,0,0,0,0,0,0,0,0,0,0
1,0,0,0,1,0,0,0,0,0,0,0,0,0,0,0
1,0,0,0,1,0,0,0,0,0,0,4,4,4,4,4
1,5,0,5,1,0,0,0,0,0,0,4,4,0,4,4
0,0,0,0,0,0,0,0,0,0,0,0,0,2,0,0
0,0,0,0,0,0,0,0,0,0,0,0,0,2,0,0
0,0,0,0,0,0,0,0,0,0,0,0,0,0,0,0
6,6,0,0,0,0,0,0,0,0,0,0,0,0,0,0
0,0,0,0,0,0,0,0,0,0,6,6,0,0,0,0
NAME room four
ITM c 10,2
ITM e 2,12
ITM d 2,4
END undefined 10,12
PAL 0

TIL 1
01111110
00111100
01000010
01000010
01000010
01000010
00111100
01111110
WAL true

TIL 2
00000000
11000011
01100110
01100110
01100110
01100110
11000011
NaNNaNNaNNaNNaNNaNNaNNaN
WAL true

TIL 3
10000001
11011011
01011010
01011010
11000011
01011010
10100101
01111110
WAL true

TIL 4
01100110
00011000
10111101
10100101
10100101
10111101
00011000
01100110
WAL true

TIL 5
00111100
00000000
11111111
00111100
11011011
00100100
11011011
01111110
WAL true

TIL 6
00000000
00111100
01011010
10100101
11111111
01111110
00011000
00011000
WAL true

SPR A
00011000
00011000
00011000
01111110
10111101
10111101
10100101
00100100
POS 0 0,7

SPR d
00011000
10011001
10011001
01111110
00111100
00111100
00100100
00100100
>
00011000
00011000
00011000
01111110
10111101
10111101
00100100
00100100
NAME sprite one
POS 4 11,12

SPR e
01000010
00100100
00011000
00111100
01000010
01000010
00111100
00000000
DLG SPR_0
POS 4 12,12

ITM 1
00000000
00001110
00001000
00001000
01111000
01001000
01111000
00000000
>
00001110
00001000
00001000
01111000
01001000
01111000
00000000
00000000
NAME one
DLG ITM_0

ITM 2
00000000
00001110
00001000
00001000
01111000
01001000
01111000
00000000
>
00001110
00001000
00001000
01111000
01001000
01111000
00000000
00000000
NAME two
DLG ITM_1

ITM 3
00000000
00001110
00001000
00001000
01111000
01001000
01111000
00000000
>
00001110
00001000
00001000
01111000
01001000
01111000
00000000
00000000
NAME three
DLG ITM_2

ITM 4
00000000
00001110
00001000
00001000
01111000
01001000
01111000
00000000
>
00001110
00001000
00001000
01111000
01001000
01111000
00000000
00000000
NAME four
DLG ITM_3

ITM 5
00000000
00001110
00001000
00001000
01111000
01001000
01111000
00000000
>
00001110
00001000
00001000
01111000
01001000
01111000
00000000
00000000
NAME five
DLG ITM_4

ITM 6
00000000
00001110
00001000
00001000
01111000
01001000
01111000
00000000
>
00001110
00001000
00001000
01111000
01001000
01111000
00000000
00000000
NAME six
DLG ITM_5

ITM 7
00000000
00001110
00001000
00001000
01111000
01001000
01111000
00000000
>
00001110
00001000
00001000
01111000
01001000
01111000
00000000
00000000
NAME seven
DLG ITM_6

ITM 8
00000000
00001110
00001000
00001000
01111000
01001000
01111000
00000000
>
00001110
00001000
00001000
01111000
01001000
01111000
00000000
00000000
NAME eight
DLG ITM_7

ITM 9
00000000
00001110
00001000
00001000
01111000
01001000
01111000
00000000
>
00001110
00001000
00001000
01111000
01001000
01111000
00000000
00000000
NAME nine
DLG ITM_8

ITM a
00000000
00001110
00001000
00001000
01111000
01001000
01111000
00000000
>
00001110
00001000
00001000
01111000
01001000
01111000
00000000
00000000
NAME ten
DLG ITM_9

ITM b
00000000
00001110
00001000
00001000
01111000
01001000
01111000
00000000
>
00001110
00001000
00001000
01111000
01001000
01111000
00000000
00000000
NAME eleven
DLG ITM_a

ITM c
00000000
00001110
00001000
00001000
01111000
01001000
01111000
00000000
>
00001110
00001000
00001000
01111000
01001000
01111000
00000000
00000000
NAME twelve
DLG ITM_b

ITM d
00000000
00001110
00001000
00001000
01111000
01001000
01111000
00000000
>
00001110
00001000
00001000
01111000
01001000
01111000
00000000
00000000
NAME thirteen
DLG ITM_c

ITM e
00000000
00001110
00001000
00001000
01111000
01001000
01111000
00000000
>
00001110
00001000
00001000
01111000
01001000
01111000
00000000
00000000
NAME fourteen
DLG ITM_d

DLG 
undefined

DLG ITM_0
"""
someone once told me i showed
love through music.
"""

DLG ITM_1
"""
i made mixtapes to show people
how much i cared for them.
"""

DLG ITM_2
"""
each song was carefully added,
with its own symbolism.
"""

DLG ITM_3
"""
i didn't know how else to tell
people i was there for them.
"""

DLG ITM_4
that, no matter what happened, i would always be there for them.

DLG ITM_5
that i loved them. 

DLG ITM_6
and how else could i have told you?

DLG ITM_7
the music could've told you without stuttering, faltering.

DLG ITM_8
it could've told you without hesitation. 

DLG ITM_9
i know i could tell you if i tried. but the words...

DLG ITM_a
...don't always manage to claw their way up my throat.

DLG ITM_b
so i make you mixtapes. i let the music say what i try to.

DLG ITM_c
maybe you don't realize. maybe you do, but don't care.

DLG ITM_d
but one day, i'll be able to say it aloud to you...

DLG SPR_0
"""
{
}
"""

END 0


END undefined
... in the silence between songs.

VAR a
42

