
Who Did This?

# BITSY VERSION 4.6

! ROOM_FORMAT 1

PAL 0
NAME StartPal
163,132,204
238,182,255
232,255,253

PAL 1
96,112,107
175,176,91
255,255,195

PAL 2
NAME Underwater
99,92,196
127,180,217
250,220,253

PAL 3
NAME Space
78,81,107
111,144,143
255,217,238

PAL 4
NAME Office
255,107,142
252,197,169
240,253,238

PAL 5
NAME Zoo
122,166,141
247,204,187
255,251,227

ROOM 0
0,p,0,g,0,c,n,d,p,0,0,c,g,0,0,c
f,q,0,g,0,c,g,0,p,0,f,l,g,0,0,c
0,p,0,g,f,l,g,0,r,d,0,c,g,0,f,l
0,p,0,g,0,c,g,i,p,0,0,c,n,d,0,c
0,r,d,g,i,c,g,0,p,i,m,c,g,0,0,c
m,p,i,j,0,i,j,0,p,0,0,c,g,i,m,c
0,o,0,w,0,0,0,0,o,0,w,i,j,0,0,c
10,10,10,z,0,0,w,0,0,0,0,0,0,0,0,c
12,12,12,11,0,0,0,0,0,0,w,0,s,t,0,i
0,0,0,0,0,0,0,0,0,0,0,0,u,v,0,0
0,w,0,s,t,0,0,0,0,0,0,0,0,0,13,10
0,0,0,u,v,0,0,0,0,0,s,t,0,0,14,12
10,10,10,10,10,z,0,0,0,0,u,v,0,w,0,0
12,12,12,12,12,11,0,1a,1a,0,0,13,10,10,10,10
0,0,0,0,0,0,0,22,22,0,0,14,12,12,12,12
w,w,w,w,w,w,0,x,y,0,w,w,w,w,w,w
NAME Start
EXT 7,15 2 7,0
EXT 8,15 2 8,0
PAL 0

ROOM 2
16,16,16,16,16,16,16,0,0,16,16,16,16,16,16,16
16,0,0,0,0,0,0,0,1y,0,0,0,0,0,0,16
16,0,1m,1n,0,0,0,0,0,0,1o,0,1m,1n,0,16
16,0,1k,1l,0,1o,0,1a,0,1j,0,0,1k,1l,0,16
16,0,0,0,0,0,0,0,0,0,1m,1n,0,0,0,16
16,0,1m,1n,0,0,1t,0,0,1y,1k,1l,1m,1n,0,16
16,0,1k,1l,0,1j,0,0,0,0,0,0,1k,1l,0,16
16,0,0,0,1s,1q,0,0,0,0,0,1z,0,0,0,16
16,0,1z,0,1p,1r,0,0,1w,1u,0,0,0,1t,0,16
16,0,1m,1n,0,0,0,0,1v,1x,0,0,1m,1n,0,16
16,0,1k,1l,0,1o,0,0,0,0,0,1k,1k,1l,0,16
16,0,0,0,0,0,0,0,1a,1s,1q,0,0,0,0,16
16,0,1m,1n,0,1y,0,0,0,1p,1r,0,1m,1n,0,16
16,0,1k,1l,0,0,0,0,1t,1y,0,0,1k,1l,0,16
16,0,0,0,0,0,0,0,0,0,0,0,0,0,0,16
16,16,16,16,16,16,16,0,0,16,16,16,16,16,16,16
NAME Office
ITM 0 6,9
EXT 7,0 0 7,15
EXT 8,0 0 8,15
EXT 7,15 3 7,0
EXT 8,15 3 8,0
PAL 4

ROOM 3
w,w,w,w,w,w,w,1h,1i,w,w,w,w,w,w,w
w,0,0,0,0,0,0,1a,1a,0,18,15,15,15,0,w
w,0,0,18,15,0,0,0,0,0,16,0,0,16,0,w
w,0,18,0,0,15,0,0,0,0,16,0,0,16,0,w
w,0,16,0,0,16,0,0,0,0,17,1a,15,16,0,w
w,0,16,1a,0,16,0,0,0,0,0,0,0,0,0,1j
w,0,16,0,0,1a,0,0,0,0,0,0,0,0,0,1j
w,0,16,0,0,0,0,0,0,0,0,0,0,0,1a,1h
w,0,16,15,15,15,0,0,0,0,0,0,0,0,1a,1i
w,0,0,w,0,0,0,0,0,0,0,0,0,0,0,1j
w,0,w,0,0,0,0,17,0,0,0,0,0,15,0,1j
w,0,0,1e,1f,1g,w,0,16,1a,0,19,0,16,0,w
w,0,0,1d,1b,1c,0,0,16,0,0,0,1a,16,0,w
w,0,w,0,0,w,0,0,16,0,0,0,0,16,0,w
w,0,0,0,0,0,0,w,16,15,15,15,15,16,0,w
w,w,w,w,w,w,w,w,w,w,w,w,w,w,w,w
NAME Zoo
ITM 1 3,14
EXT 7,0 2 7,15
EXT 8,0 2 8,15
EXT 15,8 4 0,8
EXT 15,7 4 0,7
PAL 5

ROOM 4
28,28,28,28,28,28,28,28,28,28,28,28,28,28,28,28
28,0,28,28,0,0,0,0,0,0,0,0,0,28,0,0
0,28,0,0,0,1h,1i,w,0,20,0,28,0,0,0,0
0,0,20,0,1a,1h,y,x,0,0,0,0,0,0,21,0
28,0,21,0,1h,22,0,y,0,0,0,0,0,0,20,0
0,0,0,0,1i,0,0,x,0,0,0,27,26,2m,0,0
0,0,1y,1a,1j,0,0,22,1j,0,2r,24,2l,25,0,28
x,22,1a,1y,0,0,0,1a,0,0,0,0,0,0,28,0
22,1j,0,0,27,26,0,0,1a,0,0,0,0,0,0,0
0,0,0,23,24,2s,0,1y,0,0,22,2j,1j,1a,1j,22
0,20,0,0,0,0,0,22,0,0,1a,x,1a,0,22,1h
0,0,0,0,20,0,0,x,1a,0,1a,22,0,20,0,0
28,0,0,0,21,0,0,1i,1i,1j,1i,1h,0,21,0,0
0,28,0,0,0,0,0,y,x,1h,y,1y,0,0,0,28
0,0,0,0,0,28,0,0,0,0,0,0,28,0,0,0
28,28,28,28,28,28,28,28,28,28,28,28,28,28,28,28
NAME Underwater
ITM 2 8,7
EXT 0,7 3 15,7
EXT 0,8 3 15,8
EXT 15,9 5 0,9
EXT 15,10 5 0,10
PAL 2

ROOM 5
0,29,29,0,29,0,29,29,0,29,0,0,29,0,0,29
29,29,0,0,0,29,29,0,29,0,29,29,29,0,0,29
29,0,29,0,29,0,29,0,29,0,0,2i,0,0,29,0
29,0,29,29,0,0,29,29,0,29,0,0,29,29,29,29
0,29,0,29,0,29,29,0,0,29,0,29,29,0,0,0
0,29,29,0,0,0,29,29,0,29,0,0,0,0,29,29
29,2e,29,29,29,29,29,29,2e,29,29,29,29,29,2e,29
2j,2j,2j,2k,2a,2a,2a,2a,2a,2a,2a,2a,2a,2a,2a,2a
2j,2j,2j,2k,2a,2a,2a,2a,2a,2c,2e,2e,2f,2a,2a,2a
2p,2p,2p,2p,2p,2p,2p,2p,2a,2d,2h,2h,2g,2a,2a,2a
2p,2p,2n,2j,2j,2k,2p,2p,2a,2a,2a,2a,2a,2a,2c,2e
2e,2f,2j,2j,2j,2k,2p,2p,2a,2a,2a,2a,2a,2a,2d,2h
2h,2g,2o,2j,2j,2k,2p,2p,2n,2j,2j,2k,2a,2a,2a,2a
2a,2a,2a,2a,2h,2a,2p,2p,2j,2j,2j,2k,2p,2p,2n,2j
2a,2a,2a,2a,2a,2a,2p,2p,2o,2j,2j,2k,2p,2p,2j,2j
2a,2c,2e,2e,2f,2a,2a,2a,2a,2a,2a,2a,2a,2a,2o,2j
NAME Moon
ITM 3 9,10
EXT 15,13 6 0,13
EXT 15,14 6 0,14
EXT 0,9 4 15,9
EXT 0,10 4 15,10
PAL 3

ROOM 6
r,d,p,0,g,0,c,g,f,0,g,0,p,0,0,c
p,0,p,0,n,d,c,g,0,c,n,d,p,0,0,c
p,f,q,0,g,0,c,g,0,c,g,0,r,d,0,c
p,0,p,0,g,0,c,n,d,c,g,0,p,0,0,c
r,d,r,d,g,0,c,g,0,c,g,0,p,0,f,l
p,0,p,0,g,0,c,g,0,c,g,0,p,0,0,c
p,f,q,0,g,f,l,g,0,c,g,0,p,0,0,c
p,0,p,0,g,0,c,g,0,c,g,f,q,0,0,c
p,0,p,0,g,0,c,g,f,l,g,0,p,0,f,l
p,0,p,0,n,d,c,g,0,c,n,d,p,0,0,c
p,f,q,0,g,0,c,g,0,c,g,0,p,d,0,c
p,m,p,i,j,m,c,g,m,c,g,m,p,m,m,c
o,2e,o,2e,w,0,i,j,2e,i,j,0,o,2e,2e,i
1h,1h,1h,1h,1h,1h,1h,1h,1h,1h,1h,1h,1i,22,1a,0
1i,1i,1i,1i,1i,1i,1i,1i,1i,1i,1i,1i,1i,22,1a,0
0,0,0,w,0,0,0,0,0,w,0,0,0,0,0,w
NAME End
EXT 0,13 5 15,13
EXT 0,14 5 15,14
PAL 0

ROOM 7
r,d,p,0,g,0,c,g,f,0,g,0,p,0,0,c
p,0,p,0,n,d,c,g,0,c,n,d,p,0,0,c
p,f,q,0,g,0,c,g,0,c,g,0,r,d,0,c
p,0,p,0,g,0,c,n,d,c,g,0,p,0,0,c
r,d,r,d,g,0,c,g,0,c,g,0,p,0,f,l
p,0,p,0,g,0,c,g,0,c,g,0,p,0,0,c
p,f,p,0,g,f,l,g,0,c,g,0,p,0,0,c
p,0,p,0,g,0,c,g,0,c,g,f,p,0,0,c
p,0,p,0,g,0,c,g,f,l,g,0,p,0,f,l
p,0,p,0,n,d,c,g,0,c,n,d,p,0,0,c
p,f,q,0,g,0,c,g,0,c,g,0,p,d,0,c
p,m,p,i,j,m,c,g,m,c,g,m,p,m,m,c
o,0,o,0,w,0,i,j,0,i,j,0,o,w,0,i
1h,1h,1h,1h,1h,1h,1h,1h,1h,1h,1h,1h,1i,22,1a,0
1i,1i,1i,1i,1i,1i,1i,1i,1i,1i,1i,1i,1i,22,1a,0
0,0,0,w,0,0,0,0,0,w,0,0,0,0,0,w
NAME EndCopy
EXT 0,13 5 15,13
EXT 0,14 5 15,14
PAL 3

TIL 10
11111111
00000000
00000000
00000000
00000000
00000000
00000000
00000000
NAME Tree13
WAL true

TIL 11
00000010
00000110
00000100
00001000
00001100
00000110
00000010
11111111
NAME Tree15
WAL true

TIL 12
00000000
00000000
00000000
00000000
00000000
11000101
00000000
11111111
NAME Tree14
WAL true

TIL 13
00111111
01000000
01000000
10000000
01000000
00100000
01000000
10000000
NAME Tree16
WAL true

TIL 14
10000000
01000000
01000000
00100000
00100000
00100000
01000000
11111111
NAME Tree17
WAL true

TIL 15
11111111
01010101
01010101
01010101
01010101
01010101
01010101
01010101
NAME Zoo01
WAL true

TIL 16
01010101
01010101
01010101
01010101
01010101
01010101
01010101
01010101
NAME Zoo02
WAL true

TIL 17
11111111
00000001
11111111
00000001
11111111
00000001
11111111
00000001
NAME Zoo03
WAL true

TIL 18
01111111
01010101
01010101
01010101
01010101
01010101
01010101
01010101
NAME Zoo04
WAL true

TIL 19
11111111
10000001
11111111
10000001
11111111
10000001
11111111
10000001
NAME Zoo05
WAL true

TIL 20
00000110
00001001
00001001
00000110
01000000
10100100
01000000
00000000
>
00000000
01000000
10100110
01001001
00001001
00000110
00010000
00000000
NAME Water01

TIL 21
00000000
01000100
00001010
10000100
00110000
01001010
01001000
00110000
>
01100000
10010010
10010000
01100000
00000001
01001000
00010100
00001000
NAME Water02

TIL 22
10100100
01001001
10100010
00010101
10101010
00010001
10101010
01010101
NAME Moon01

TIL 23
00000000
00000000
00000000
00000000
00001110
00010001
00100001
10111110
NAME Water03
WAL true

TIL 24
01000111
01001000
01001000
01001000
01001000
01001000
01001000
00111111
NAME Water04
WAL true

TIL 25
00011011
00000101
00000011
00000101
00000011
00010101
10101001
11111110
NAME Water05
WAL true

TIL 26
11110000
01010000
10100000
01000000
10100000
01010000
00101011
00000101
NAME Water06
WAL true

TIL 27
00000011
00000101
00000010
00000101
00101010
01010101
01000000
01000000
NAME Water07
WAL true

TIL 28
01000000
01000010
01010010
10010010
10100010
11010100
01010100
01010010
>
00100000
00100000
01001010
01010010
00101010
00101001
01001001
01010010
NAME Water08

TIL 29
00000000
00001000
00000000
00000000
00000000
00000000
00000000
10000000
NAME Moon01
WAL true

TIL a
11111111
10000001
10000001
10011001
10011001
10000001
10000001
11111111
WAL true

TIL b
00000000
00000000
00000000
00011000
00011000
00000000
00000000
00000000

TIL c
10000000
10000000
10000000
10000000
10000000
10000000
10000000
10000000
NAME Tree10
WAL true

TIL d
00111000
01001000
10010000
00100000
01000000
10000000
00000000
00000000
NAME Tree02
WAL true

TIL f
00000000
00011100
01110010
01000001
00111000
00000100
00000010
00000001
NAME Tree03
WAL true

TIL g
00000001
00000001
00000001
00000001
00000001
00000001
00000001
00000001
NAME Tree04
WAL true

TIL i
10100000
11000000
10100000
11010000
10101001
11010010
01100010
00011100
NAME TreeB01Y
WAL true

TIL j
00000001
00000001
00000001
00000001
00000001
10001101
10010011
01100000
NAME TreeB02
WAL true

TIL l
10000000
10000000
10000000
00000000
00000000
00000000
00000000
00000000
NAME Tree07
WAL true

TIL m
00000000
00000000
00000000
00000000
00000000
10001101
10010011
01100000
NAME TreeB02Alt
WAL true

TIL n
00000001
00000001
00000001
00000001
00000000
00000000
00000001
00000001
NAME Tree08
WAL true

TIL o
11000001
10100001
11000001
10100001
11011101
10100010
01000000
00000000
NAME Tree11
WAL true

TIL p
10000001
10000001
10000001
10000001
10000001
10000001
10000001
10000001
NAME Tree09
WAL true

TIL q
10000001
10000001
10000001
00000001
00000001
00000001
00000001
00000001
NAME Tree10
WAL true

TIL r
10000001
10000001
10000001
10000001
10000000
10000000
10000001
10000001
NAME Tree11
WAL true

TIL s
00001111
00110000
01000110
10001000
10000101
11000000
11111111
10101000
NAME Stump01
WAL true

TIL t
11110000
00001100
11100010
00010001
10100001
00000011
11111101
01001001
NAME Stump02
WAL true

TIL u
10101000
10101000
10011000
11100110
00000011
00000000
00000000
00000000
NAME Stump03
WAL true

TIL v
10101001
10101001
10000001
10101111
00001000
11110000
00000000
00000000
NAME Stump04
WAL true

TIL w
00000000
00100000
00010000
01010001
00101010
00101010
10101010
00000000
NAME Grass01

TIL x
10011110
11111111
01111011
01010101
01010111
01101101
11111111
10101111
NAME DirtPath01

TIL y
01111011
11101101
11111010
11010110
11111110
10111110
11111101
01011001
NAME DirtPath02

TIL z
11111000
00001100
00000011
00000001
00000010
00000111
00000001
00000001
NAME Tree12
WAL true

TIL 1a
00100000
00001000
01000000
00100001
00001000
00100000
00000100
10000000
NAME Debris01

TIL 1b
00100010
00100010
00100010
00100010
00100010
00011100
00000000
11111111
NAME Zoo07
WAL true

TIL 1c
01000101
01000101
01000101
01000101
01000101
00111001
00000001
11111111
NAME Zoo08
WAL true

TIL 1d
10000001
10000010
10000100
10001000
10010000
10111111
10000000
11111111
NAME Zoo09
WAL true

TIL 1e
00000000
00000000
11111111
11010101
11111111
10000000
10000000
10111111
NAME Zoo10
WAL true

TIL 1f
00000000
00000000
11111111
01010101
11111111
00000000
00000000
00011100
NAME Zoo11
WAL true

TIL 1g
00000000
00000000
11111111
01010101
11111111
00000001
00000001
00111001
NAME Zoo12
WAL true

TIL 1h
11100011
01111110
11111011
11111110
10111110
01101101
11101101
01110100
NAME DirtPath03

TIL 1i
11111110
10111001
11111010
11110111
11010111
10011100
11111111
10001110
NAME DirtPath04

TIL 1j
00000000
00000000
00000000
00000000
10000000
01000001
10101010
00000000
NAME Grass02

TIL 1k
10000111
10000111
10000111
10000000
11111111
10000000
11111111
10000000
NAME Office01
WAL true

TIL 1l
11100001
11100001
11100001
00000001
11111111
00000001
11111111
00000001
NAME Office02
WAL true

TIL 1m
00000111
00000100
11111111
10000000
10000111
10000111
10000111
10000111
NAME Office03
WAL true

TIL 1n
11100000
00100000
11111111
00000001
11100001
11100001
11100001
11100001
NAME Office04
WAL true

TIL 1o
00001100
00011110
00111111
01111111
11111110
11111100
01111000
00110000
NAME Office05

TIL 1p
10000000
10000000
10000000
10000000
10000000
10000000
10000000
11111111
NAME Office06
WAL true

TIL 1q
11110000
10010000
10011110
10011110
11010000
11010000
11010000
11010000
NAME Office07
WAL true

TIL 1r
11010000
11010000
11010000
11010000
11011110
10011110
10010000
11110000
NAME Office08
WAL true

TIL 1s
11111111
10000000
10000000
10000000
10000000
10000000
10000000
10000000
NAME Office09
WAL true

TIL 1t
00110100
01111010
11111101
11111110
01111111
00111111
00011110
00001100
NAME Office10

TIL 1u
11111111
00000001
00000001
00000001
00000001
00000001
00000001
00000001
NAME Office11
WAL true

TIL 1v
00001011
00001011
00001011
00001011
01111011
01111001
00001001
00001111
NAME Office13
WAL true

TIL 1w
00001111
00001001
01111001
01111011
00001011
00001011
00001011
00001011
NAME Office14
WAL true

TIL 1x
00000001
00000001
00000001
00000001
00000001
00000001
00000001
11111111
NAME Office15
WAL true

TIL 1y
00000000
00001010
00100110
00000010
01010000
01100010
01000010
00000000
NAME Debris02

TIL 1z
00000000
11111111
00111111
00111111
11100000
00100000
11100000
00000000
NAME Office16
WAL true

TIL 2a
01111101
11101111
11011110
01110111
11011101
11111110
10110101
11011111
NAME Moon02

TIL 2c
11111000
11110100
11101000
11010000
10110000
10111000
10101100
10110110
NAME Moon03
WAL true

TIL 2d
10111101
10101111
01111110
01111111
01111101
01111111
10110110
11101101
NAME Moon04
WAL true

TIL 2e
00000000
00000000
00000000
00000000
00000000
00000000
00000000
00000000
NAME Moon05
WAL true

TIL 2f
00011111
00101111
00010111
00001011
00001101
00011101
00110101
01001101
NAME Moon06
WAL true

TIL 2g
01111101
11111101
11111110
11111110
11011110
11111101
00110110
11001011
NAME Moon07
WAL true

TIL 2h
01010101
11111111
10101110
11011111
11111111
11111110
10111111
11110110
NAME Moon08
WAL true

TIL 2i
00111100
01001010
10001001
11110001
10111011
10110001
01000010
00111100
NAME Moon09

TIL 2j
00000001
00010000
10000000
00000000
01000000
00000100
00100001
00000000
NAME Moon10

TIL 2k
11111111
11010011
10000011
10100101
10001111
10101111
11111011
11111110
NAME Moon11

TIL 2l
00000000
00001100
10010010
10010010
10001100
10000000
10001010
11111111
NAME Water09
WAL true

TIL 2m
00000000
00000000
00000000
00000000
00000000
00000001
10000011
01100101
NAME Water10
WAL true

TIL 2n
11111000
11100000
11000000
10000010
10000000
00000100
00100000
00000001
NAME Moon12

TIL 2o
00000000
00010000
00000000
10000000
10000000
11000100
11100000
11111000
NAME Moon13

TIL 2p
11111111
00001101
11111111
10000110
11111111
01100001
11111111
01011000
NAME Moon14

TIL 2r
00000000
00000000
00000000
00000000
00111000
01011000
10101100
11111101
NAME Water11
WAL true

TIL 2s
00000001
10111001
10101001
10111001
10000001
10010101
10101011
11111110
NAME Water05b
WAL true

SPR 10
11111111
11111111
11111111
11111111
11111111
11111111
11111111
11111111
NAME Beast
DLG SPR_q
POS 6 10,12

SPR 11
11111111
11111111
11111111
11111111
11111111
11111111
11111111
11111111
NAME Beast
DLG SPR_r
POS 6 6,11

SPR 12
11110000
11111000
11111100
11111110
11111111
11111111
11111111
11111111
NAME Beast
DLG SPR_s
POS 6 11,12

SPR 13
00000000
00000000
00000000
00000000
11000000
11111110
11111111
11111001
NAME Beast
DLG SPR_t
POS 6 12,12

SPR 14
00000000
00000000
00000001
00000001
00000001
00000001
00000011
00000111
NAME Beast
DLG SPR_u
POS 6 5,11

SPR 15
00000000
00000000
10000000
10000000
10000000
10000000
11000000
11100000
NAME Beast
DLG SPR_v
POS 6 11,11

SPR 16
11111111
11111111
11111111
11111111
11111111
11111111
11111111
11111111
POS 6 7,11

SPR 17
11111111
11111111
11111111
11111111
11111111
11111111
11111111
11111111
POS 6 9,11

SPR 18
11111111
11111111
11111111
11111111
11111111
11111111
11111111
11111111
POS 6 10,11

SPR 19
11111111
11111111
11111111
11111111
11111111
11111111
11111111
11111111
POS 6 9,7

SPR 20
11111110
11111101
11111100
11111110
11111101
11111100
11111110
11111101
POS 6 10,7

SPR 21
11111110
11111101
11111100
11111110
11111101
11111100
11111110
11111101
POS 6 10,6

SPR 22
11111110
11111101
11111100
11111110
11111101
11111100
11111110
11111101
POS 6 10,5

SPR 23
11111110
11111101
11111100
11111110
11111101
11111100
11111110
11111101
POS 6 10,4

SPR 24
11111110
11111101
11111100
11111110
11111101
11111100
11111110
11111101
POS 6 10,3

SPR 25
11111110
11111101
11111100
11111110
11111101
11111100
11111110
11111101
POS 6 10,2

SPR 26
11111110
11111101
11111100
11111110
11111101
11111100
11111110
11111101
POS 6 10,1

SPR 27
11111110
11111101
11111100
11111110
11111101
11111100
11111110
11111101
POS 6 10,0

SPR 28
01111111
10111111
00111111
01111111
10111111
00111111
01111111
10111111
POS 6 6,8

SPR 29
01111111
10111111
00111111
01111111
10111111
00111111
01111111
10111111
POS 6 6,7

SPR A
00111100
00111100
00111100
10011001
01111110
00011000
00100100
01000010
POS 0 7,8

SPR a
00000000
00000000
00110000
11010000
00111111
00111110
00011110
00001000
>
00000000
00000000
00110000
11010000
01111111
10111110
00011110
00001000
NAME Bird01
DLG SPR_0
POS 0 10,10

SPR b
00000000
00011000
00010111
11111100
01111010
00111000
00010000
00010000
>
00000000
00011000
00010111
11111000
01111000
00111000
00010000
00010000
NAME Bird02
DLG SPR_1
POS 0 4,9

SPR c
00011000
00011000
00100100
01111110
10111101
00011000
00011000
00011000
NAME OfficePerson1
DLG SPR_2
POS 2 4,4

SPR d
00011000
00011000
00100100
01011010
01011010
00011000
00011000
00011000
NAME OfficePerson2
DLG SPR_3
POS 2 9,6

SPR e
00011000
00011000
00100100
01111110
10111101
00011000
00011000
00011000
NAME OfficePerson3
DLG SPR_4
POS 2 11,10

SPR f
00100100
00111100
01011010
01100110
00111100
00111111
00111111
00100100
NAME Tiger1
DLG SPR_e
POS 3 10,9

SPR g
01100110
01111110
11101101
11111011
11111110
11111110
11111110
01100110
NAME Bear1
DLG SPR_c
POS 3 12,6

SPR h
00000000
00000000
00000001
00011111
00001111
00001111
00001111
00001110
NAME Bear2
DLG SPR_d
POS 3 11,6

SPR i
00011000
00011000
00100100
01011010
01011010
00011000
00011000
00011000
NAME OfficePerson4
DLG SPR_5
POS 2 4,12

SPR k
00000000
00000000
00000100
00001000
00010000
11100000
11100000
00100000
>
00000000
00000000
00000000
00000000
00000000
11110000
11101000
00100100
NAME Tiger2
DLG SPR_9
POS 3 11,9

SPR l
00111110
00110010
00010011
00011100
11111100
00111100
00001000
00001000
>
00111110
00110010
00010011
00011110
11111101
00111100
00001000
00001000
NAME Bird03
DLG SPR_a
POS 3 3,7

SPR m
00111110
00110010
00010011
00011100
11111100
00111100
00001000
00001000
>
00111110
00110010
00010011
00011110
11111101
00111100
00001000
00001000
NAME Bird04
DLG SPR_b
POS 3 4,4

SPR n
00011000
00011000
00100100
01011010
01011010
00011000
00011000
00011000
NAME ZooKeeper
DLG SPR_7
POS 3 9,2

SPR o
00111100
00011000
00100100
11011011
00011000
00011000
01110000
00100000
>
00111100
00011000
00100100
11011011
00011000
00011000
00001100
00001000
NAME Mer01
DLG SPR_8
POS 4 5,6

SPR p
00011000
00011000
00111100
01011010
01011010
00011000
00001100
00001000
>
00011000
00011000
00111100
01011010
01011010
00011000
01110000
00100000
NAME Mer02
DLG SPR_g
POS 4 12,8

SPR q
00011000
00011000
00011000
00111100
01011010
00011000
01110000
00100000
>
00011000
00011000
00011000
00111100
01011010
00011000
00001110
00000100
NAME Mer03
DLG SPR_h
POS 4 9,4

SPR r
00100100
00111100
01100110
00111100
11111111
00111100
00100100
00100100
NAME Moon01
DLG SPR_j
POS 5 8,8

SPR s
00100100
00011000
00011000
00100100
01011010
00011000
00001110
00000100
>
00100100
00011000
00011000
00100100
01011010
00011000
01110000
00100000
NAME Mer04
DLG SPR_i
POS 4 6,11

SPR t
11100000
11100000
11101100
01001100
01001100
01111110
01001101
00001100
NAME Child01
DLG SPR_f

SPR u
00100100
00111100
01100110
00111100
11111111
00111100
00100100
00100100
NAME Moon02
DLG SPR_k
POS 5 5,13

SPR v
00001111
00011111
00111111
01111111
11111111
11111111
11111111
11111111
NAME BeastTxt01
DLG SPR_l
POS 6 5,12

SPR w
00000000
00000000
00000000
00000000
00000011
01111111
11111111
10011111
NAME BeastTxt02
DLG SPR_m
POS 6 4,12

SPR x
11111111
11111111
11111111
11111111
11111111
11111111
11111111
11111111
NAME BeastTxt03
DLG SPR_n
POS 6 6,12

SPR y
11111111
11111111
11111111
11111111
11111111
11111111
11111111
11111100
NAME BeastHeel01
DLG SPR_o
POS 6 7,12

SPR z
11111111
11111111
11111111
11111111
11111111
11111111
11111111
00111111
NAME BeastHeel02
DLG SPR_p
POS 6 9,12

SPR 1a
11111111
11111111
11111111
11111111
11111111
11111111
11111111
11111111
POS 6 7,10

SPR 1b
11111111
11111111
11111111
11111111
11111111
11111111
11111111
11111111
POS 6 9,10

SPR 1c
11111111
11111111
11111111
11111111
11111111
11111111
11111111
11111111
POS 6 9,6

SPR 1d
11111111
11111111
11111111
11111111
11111111
11111111
11111111
11111111
POS 6 7,7

SPR 1e
11111111
11111111
11111111
11111111
11111111
11111111
11111111
11111111
POS 6 7,9

SPR 1f
11111111
11111111
11111111
11111111
11111111
11111111
11111111
11111111
POS 6 9,9

SPR 1g
11111111
11111111
11111111
11111111
11111111
11111111
11111111
11111111
POS 6 7,8

SPR 1h
11111111
11111111
11111111
11111111
11111111
11111111
11111111
11111111
POS 6 9,8

SPR 1i
01111111
10111111
00111111
01111111
10111111
00111111
01111111
10111111
POS 6 6,9

SPR 1j
01111111
10111111
00111111
01111111
10111111
00111111
01111111
11111111
POS 6 6,10

SPR 1k
11111111
11111111
11111111
11111111
11111111
11111111
11111111
11111111
POS 6 7,6

SPR 1l
11111111
11111111
11111111
11111111
11111111
11111111
11111111
11111111
POS 6 7,5

SPR 1m
11111111
11111111
11111111
11111111
11111111
11111111
11111111
11111111
POS 6 9,5

SPR 1n
11111111
11111111
11111111
11111111
11111111
11111111
11111111
11111111
POS 6 7,4

SPR 1o
11111111
11111111
11111111
11111111
11111111
11111111
11111111
11111111
POS 6 9,4

SPR 1p
11111111
11111111
11111111
11111111
11111111
11111111
11111111
11111111
POS 6 7,3

SPR 1q
11111111
11111111
11111111
11111111
11111111
11111111
11111111
11111111
POS 6 9,3

SPR 1r
11111111
11111111
11111111
11111111
11111111
11111111
11111111
11111111
POS 6 9,2

SPR 1s
11111111
11111111
11111111
11111111
11111111
11111111
11111111
11111111
POS 6 7,2

SPR 1t
11111111
11111111
11111111
11111111
11111111
11111111
11111111
11111111
POS 6 7,1

SPR 1u
11111111
11111111
11111111
11111111
11111111
11111111
11111111
11111111
POS 6 9,1

SPR 1v
11111111
11111111
11111111
11111111
11111111
11111111
11111111
11111111
POS 6 7,0

SPR 1w
11111111
11111111
11111111
11111111
11111111
11111111
11111111
11111111
POS 6 9,0

SPR 1x
11111110
11111101
11111100
11111110
11111101
11111100
11111110
11111111
POS 6 10,10

SPR 1y
11111110
11111101
11111100
11111110
11111101
11111100
11111110
11111101
POS 6 10,9

SPR 1z
11111110
11111101
11111100
11111110
11111101
11111100
11111110
11111101
POS 6 10,8

SPR 2a
01111111
10111111
00111111
01111111
10111111
00111111
01111111
10111111
POS 6 6,6

SPR 2b
01111111
10111111
00111111
01111111
10111111
00111111
01111111
10111111
POS 6 6,5

SPR 2c
01111111
10111111
00111111
01111111
10111111
00111111
01111111
10111111
POS 6 6,4

SPR 2d
01111111
10111111
00111111
01111111
10111111
00111111
01111111
10111111
POS 6 6,3

SPR 2e
01111111
10111111
00111111
01111111
10111111
00111111
01111111
10111111
POS 6 6,2

SPR 2f
01111111
10111111
00111111
01111111
10111111
00111111
01111111
10111111
POS 6 6,1

SPR 2g
01111111
10111111
00111111
01111111
10111111
00111111
01111111
10111111
POS 6 6,0

SPR 2h
00000000
00000000
00000000
00000000
00000000
00000000
11000011
11100111
NAME Beast
DLG SPR_x
POS 6 8,12

SPR 2i
11010101
10101011
10000001
10000001
10000001
10000001
10000001
11111111
NAME Bag
DLG SPR_w
POS 6 1,12

ITM 0
00111100
01101010
11010101
10101011
11010101
10101011
01010110
00111100
NAME Head of Lettuce
DLG ITM_0

ITM 1
00000000
00011000
00111100
01001010
01000010
01000010
00111100
00000000
NAME Tomato
DLG ITM_1

ITM 2
01111110
10010001
10101001
11010001
10100001
10000001
10000001
11111111
NAME Loaf of Bread
DLG ITM_2

ITM 3
00010100
00101000
01010001
10100010
01000101
10001010
00010100
00101000
NAME Pieces of Bacon
DLG ITM_3

DLG SPR_0
This clearing needed some redecorating anyway.

DLG ITM_0
"""
You got a head of lettuce.
{a = a + 1}
"""

DLG ITM_1
"""
You picked up on a tomato.
{a = a + 1}
"""

DLG ITM_2
"""
You now have a loaf of bread.
{a = a + 1}
"""

DLG ITM_3
"""
You found some bacon.
{a = a + 1}
"""

DLG SPR_2
Oh no! Someone tromped through here and trashed the office!

DLG SPR_5
Does this mean our 11:30 meeting will have to be postponed?

DLG SPR_7
Oh no! Someone came through here and wrecked all the animal's cages!

DLG SPR_8
Oh no! I was just minding my mer-business and someone walked straight through my mer-house!

DLG SPR_4
Don't tell anyone, but I'm glad we get a break from work.

DLG SPR_3
I can't find my stapler!

DLG SPR_9
This grass feels fantastic under my feet!

DLG SPR_a
We're free!

DLG SPR_b
I'm only still here because I'm waiting for lunch.

DLG SPR_c
It's so great being out of that cramped cage!

DLG SPR_d
It's so great being out of that cramped cage!

DLG SPR_e
This grass feels fantastic under my feet!

DLG SPR_f
I get to see the animals up close!

DLG SPR_i
They were so fuzzy!

DLG SPR_j
##@#:}>$*^????

DLG SPR_k
*$$@[:?]#(**!!!

DLG SPR_l
"""
{
  - a == 4 ?
    Oh, thank you so much for finding all my groceries! I didn't notice that my shopping bag had a hole in it! Would you like to share a BLT with me?
  - a == 0 ?
    {shk}Oh no! There was hole in my grocery bag! W-where did my groceries go?{shk}
  - a == 1 ?
    Hey I lost that! Thank you! But I'm still missing three more groceries.
  - a == 2 ?
    Hey I lost that! Thank you! But I'm still missing two more groceries.
  - a == 3 ?
    Hey I lost that! Thank you! But I'm still missing one more item.
}
"""

DLG SPR_m
"""
{
  - a == 4 ?
    Oh, thank you so much for finding all my groceries! I didn't notice that my shopping bag had a hole in it! Would you like to share a BLT with me?
  - a == 0 ?
    {shk}Oh no! There was hole in my grocery bag! W-where did my groceries go?{shk}
  - a == 1 ?
    Hey I lost that! Thank you! But I'm still missing three more groceries.
  - a == 2 ?
    Hey I lost that! Thank you! But I'm still missing two more groceries.
  - a == 3 ?
    Hey I lost that! Thank you! But I'm still missing one more item.
}
"""

DLG SPR_n
"""
{
  - a == 4 ?
    Oh, thank you so much for finding all my groceries! I didn't notice that my shopping bag had a hole in it! Would you like to share a BLT with me?
  - a == 0 ?
    {shk}Oh no! There was hole in my grocery bag! W-where did my groceries go?{shk}
  - a == 1 ?
    Hey I lost that! Thank you! But I'm still missing three more groceries.
  - a == 2 ?
    Hey I lost that! Thank you! But I'm still missing two more groceries.
  - a == 3 ?
    Hey I lost that! Thank you! But I'm still missing one more item.
}
"""

DLG SPR_o
"""
{
  - a == 4 ?
    Oh, thank you so much for finding all my groceries! I didn't notice that my shopping bag had a hole in it! Would you like to share a BLT with me?
  - a == 0 ?
    {shk}Oh no! There was hole in my grocery bag! W-where did my groceries go?{shk}
  - a == 1 ?
    Hey I lost that! Thank you! But I'm still missing three more groceries.
  - a == 2 ?
    Hey I lost that! Thank you! But I'm still missing two more groceries.
  - a == 3 ?
    Hey I lost that! Thank you! But I'm still missing one more item.
}
"""

DLG SPR_p
"""
{
  - a == 4 ?
    Oh, thank you so much for finding all my groceries! I didn't notice that my shopping bag had a hole in it! Would you like to share a BLT with me?
  - a == 0 ?
    {shk}Oh no! There was hole in my grocery bag! W-where did my groceries go?{shk}
  - a == 1 ?
    Hey I lost that! Thank you! But I'm still missing three more groceries.
  - a == 2 ?
    Hey I lost that! Thank you! But I'm still missing two more groceries.
  - a == 3 ?
    Hey I lost that! Thank you! But I'm still missing one more item.
}
"""

DLG SPR_q
"""
{
  - a == 4 ?
    Oh, thank you so much for finding all my groceries! I didn't notice that my shopping bag had a hole in it! Would you like to share a BLT with me?
  - a == 0 ?
    {shk}Oh no! There was hole in my grocery bag! W-where did my groceries go?{shk}
  - a == 1 ?
    Hey I lost that! Thank you! But I'm still missing three more groceries.
  - a == 2 ?
    Hey I lost that! Thank you! But I'm still missing two more groceries.
  - a == 3 ?
    Hey I lost that! Thank you! But I'm still missing one more item.
}
"""

DLG SPR_r
"""
{
  - a == 4 ?
    Oh, thank you so much for finding all my groceries! I didn't notice that my shopping bag had a hole in it! Would you like to share a BLT with me?
  - a == 0 ?
    {shk}Oh no! There was hole in my grocery bag! W-where did my groceries go?{shk}
  - a == 1 ?
    Hey I lost that! Thank you! But I'm still missing three more groceries.
  - a == 2 ?
    Hey I lost that! Thank you! But I'm still missing two more groceries.
  - a == 3 ?
    Hey I lost that! Thank you! But I'm still missing one more item.
}
"""

DLG SPR_s
"""
{
  - a == 4 ?
    Oh, thank you so much for finding all my groceries! I didn't notice that my shopping bag had a hole in it! Would you like to share a BLT with me?
  - a == 0 ?
    {shk}Oh no! There was hole in my grocery bag! W-where did my groceries go?{shk}
  - a == 1 ?
    Hey I lost that! Thank you! But I'm still missing three more groceries.
  - a == 2 ?
    Hey I lost that! Thank you! But I'm still missing two more groceries.
  - a == 3 ?
    Hey I lost that! Thank you! But I'm still missing one more item.
}
"""

DLG SPR_t
"""
{
  - a == 4 ?
    Oh, thank you so much for finding all my groceries! I didn't notice that my shopping bag had a hole in it! Would you like to share a BLT with me?
  - a == 0 ?
    {shk}Oh no! There was hole in my grocery bag! W-where did my groceries go?{shk}
  - a == 1 ?
    Hey I lost that! Thank you! But I'm still missing three more groceries.
  - a == 2 ?
    Hey I lost that! Thank you! But I'm still missing two more groceries.
  - a == 3 ?
    Hey I lost that! Thank you! But I'm still missing one more item.
}
"""

DLG SPR_u
"""
{
  - a == 4 ?
    Oh, thank you so much for finding all my groceries! I didn't notice that my shopping bag had a hole in it! Would you like to share a BLT with me?
  - a == 0 ?
    {shk}Oh no! There was hole in my grocery bag! W-where did my groceries go?{shk}
  - a == 1 ?
    Hey I lost that! Thank you! But I'm still missing three more groceries.
  - a == 2 ?
    Hey I lost that! Thank you! But I'm still missing two more groceries.
  - a == 3 ?
    Hey I lost that! Thank you! But I'm still missing one more item.
}
"""

DLG SPR_v
"""
{
  - a == 4 ?
    Oh, thank you so much for finding all my groceries! I didn't notice that my shopping bag had a hole in it! Would you like to share a BLT with me?
  - a == 0 ?
    {shk}Oh no! There was hole in my grocery bag! W-where did my groceries go?{shk}
  - a == 1 ?
    Hey I lost that! Thank you! But I'm still missing three more groceries.
  - a == 2 ?
    Hey I lost that! Thank you! But I'm still missing two more groceries.
  - a == 3 ?
    Hey I lost that! Thank you! But I'm still missing one more item.
}
"""

DLG SPR_w
It appears to be a grocery bag.

DLG SPR_x
"""
{
  - a == 4 ?
    Oh, thank you so much for finding all my groceries! I didn't notice that my shopping bag had a hole in it! Would you like to share a BLT with me?
  - a == 0 ?
    {shk}Oh no! There was hole in my grocery bag! W-where did my groceries go?{shk}
  - a == 1 ?
    Hey I lost that! Thank you! But I'm still missing three more groceries.
  - a == 2 ?
    Hey I lost that! Thank you! But I'm still missing two more groceries.
  - a == 3 ?
    Hey I lost that! Thank you! But I'm still missing one more item.
}
"""

DLG SPR_1
Oh no! Who knocked down all these trees?

DLG SPR_g
My house was falling apart anyway. Thanks to whoever did this, I can collect the insurance now.

DLG SPR_h
What the shell was that?!

VAR a
0


