Fever dream

# BITSY VERSION 3.7

! ROOM_FORMAT 1

PAL 0
183,46,100
109,10,60
113,0,61

PAL 1
83,130,164
137,170,206
137,170,206

PAL 2
225,225,75
255,253,184
255,255,255

PAL 3
88,73,153
143,122,205
143,122,205

PAL 4
29,138,111
56,221,146
255,255,255

PAL 5
66,163,204
125,211,249
255,255,255

PAL 6
255,166,227
252,238,255
255,255,255

PAL 7
199,201,255
255,255,255
255,255,255

ROOM 0
0,0,0,0,z,0,0,0,0,0,0,0,0,0,0,0
0,y,0,0,0,0,0,0,0,0,0,0,x,0,0,0
0,0,0,0,0,0,0,0,s,0,0,0,0,0,0,0
l,l,l,l,l,l,l,l,l,l,k,j,n,m,l,l
e,f,e,f,d,e,f,e,f,e,f,i,o,e,f,e
b,c,b,c,a,b,c,b,c,b,c,h,p,b,c,b
0,0,0,0,g,0,0,0,0,0,0,h,0,0,0,0
0,0,0,0,q,0,0,0,0,0,0,0,0,r,0,0
r,0,0,0,0,0,0,r,0,0,0,0,0,0,0,0
0,0,0,r,0,0,0,0,0,0,0,r,0,0,0,0
0,0,r,0,0,0,0,0,r,0,0,0,0,0,0,0
0,0,0,0,0,0,0,0,0,0,0,0,0,r,0,0
0,12,0,0,r,0,0,0,0,0,r,0,0,0,0,0
12,12,12,0,0,0,r,0,0,0,0,0,0,0,0,0
12,13,12,0,0,0,0,0,0,0,0,0,r,0,0,0
0,14,0,0,0,0,0,r,0,0,0,0,0,0,0,r
WAL 1a
EXT 4,6 2 3,9
PAL 0

ROOM 2
0,0,0,0,0,0,0,0,0,0,0,0,0,0,0,0
0,0,0,s,0,0,v,0,0,0,x,0,0,0,0,0
0,z,0,0,0,0,0,0,0,0,0,0,0,0,y,0
0,0,0,0,z,0,0,0,s,0,0,y,0,0,0,0
0,0,0,0,0,0,0,0,0,0,0,0,0,0,0,0
1a,1a,1a,1a,1a,1a,1a,1a,1a,1a,1a,1a,1a,1a,1a,1a
1a,1a,1a,1a,1a,1a,1a,1a,1a,1a,1a,1a,1a,1a,1a,0
11,11,11,11,11,11,11,11,11,11,11,11,11,11,11,11
0,0,0,0,0,0,0,0,0,0,0,0,0,0,0,0
15,15,0,10,15,15,15,15,15,15,15,15,0,15,15,15
0,0,0,0,0,0,0,0,0,0,0,1d,0,0,0,0
1a,1a,1a,1a,1a,1a,1a,1a,1a,1a,1a,1a,1a,1a,1a,1a
19,19,19,19,19,19,19,19,19,19,19,19,19,19,19,19
16,16,16,16,16,16,16,16,16,16,16,16,16,16,16,16
1c,18,1b,17,1c,18,1b,17,1c,18,1b,17,0,0,1c,18
17,1c,18,1b,17,0,0,1b,17,0,0,1c,18,1b,17,0
WAL 1a
EXT 11,10 3 1,14
PAL 1

ROOM 3
1a,1a,1a,1a,1a,1a,1a,1a,1a,1a,1a,1a,1a,1a,1a,1a
1a,1g,1g,1g,1g,1g,1g,1g,1g,1g,1g,1a,1f,1g,1e,1a
1a,1a,1a,1a,1a,1f,1a,1f,1a,1a,1a,1a,1f,1a,1a,1a
1a,1f,1g,1f,1a,1f,1a,1f,1a,1g,1g,1g,1f,1a,1f,1a
1a,1f,1a,1f,1a,1f,1a,1a,1a,1f,1a,1a,1a,1a,1f,1a
1a,1f,1a,1f,1a,1f,1g,1g,1g,1f,1a,1g,1g,1g,1f,1a
1a,1f,1a,1f,1a,1f,1a,1a,1a,1a,1a,1a,1a,1a,1f,1a
1a,1f,1a,1a,1a,1f,1a,1a,1g,1g,1g,1g,1g,1a,1f,1a
1a,1f,1g,1g,1g,1g,1a,1a,1a,1a,1a,1a,1f,1a,1f,1a
1a,1f,1a,1a,1a,1a,1a,1a,1g,1g,1g,1g,1f,1a,1f,1a
1a,1f,1a,1g,1g,1g,1g,1g,1g,1a,1a,1a,1f,1a,1f,1a
1a,1f,1a,1a,1a,1a,1a,1a,1a,1a,1f,1g,1f,1a,1f,1a
1a,1g,1g,1g,1g,1g,1g,1g,1g,1a,1f,1a,1f,1a,1f,1a
1a,1a,1a,1a,1a,1a,1f,1a,1f,1a,1f,1a,1f,1a,1f,1a
1a,0,1g,1g,1g,1g,1f,1a,1f,1g,1g,1a,1f,1g,1g,1a
1a,1a,1a,1a,1a,1a,1a,1a,1a,1a,1a,1a,1a,1a,1a,1a
WAL 1a
EXT 14,1 4 3,11
PAL 2

ROOM 4
0,1j,1l,0,1l,0,1j,0,1j,0,1k,0,0,0,1l,0
1k,0,1l,0,0,1l,0,1k,0,1l,0,1k,0,0,1k,0
0,0,0,1l,1j,0,1l,0,1k,0,0,0,1l,0,0,1l
1l,1k,0,0,1k,0,0,0,0,1l,1l,0,1k,0,1k,0
0,0,1j,0,0,0,1j,1j,1k,0,1j,0,0,1k,0,1l
1j,0,1l,0,1k,1j,0,1j,1l,1j,0,1k,1l,0,1j,0
1l,0,1k,0,0,1j,0,0,1l,0,0,1l,0,1k,0,0
1a,1a,1a,1a,1a,1a,1a,1a,1a,1a,1a,1a,1a,1a,1a,1a
1a,1a,1a,1a,1a,1a,1a,1a,1a,1a,1a,1a,1a,1a,1a,1a
11,11,11,11,11,11,11,11,11,11,11,11,11,11,11,11
1h,1h,1h,1h,1h,1h,1h,1h,1h,1h,1h,1h,1h,1h,1h,1h
15,15,1j,0,0,15,15,15,15,15,15,15,15,15,15,15
1d,1d,1d,1i,1d,1d,1d,1d,1d,1d,1d,1d,1d,1d,1d,1d
1a,1a,1a,1a,1a,1a,1a,1a,1a,1a,1a,1a,1a,1a,1a,1a
19,19,19,19,19,19,19,19,19,19,19,19,19,19,19,19
16,16,16,16,16,16,16,16,16,16,16,16,16,16,16,16
WAL 1d,1h
EXT 3,12 5 1,1
PAL 3

ROOM 5
1a,1a,1a,1a,1a,1a,1a,1a,1a,1a,1a,1a,1a,1a,1a,1a
1a,0,1a,1f,1g,1g,1g,1g,1g,1g,1g,1g,1g,1g,1g,1a
1a,1f,1a,1f,1a,1a,1a,1a,1a,1a,1a,1a,1a,1a,1f,1a
1a,1f,1a,1f,1g,1g,1g,1g,1g,1g,1a,1g,1g,1g,1f,1a
1a,1f,1a,1a,1a,1a,1a,1a,1a,1f,1a,1a,1a,1a,1f,1a
1a,1f,1g,1g,1g,1g,1g,1g,1g,1f,1g,1a,1f,1a,1f,1a
1a,1f,1a,1a,1a,1a,1a,1f,1a,1a,1f,1a,1f,1a,1f,1a
1a,1f,1a,1g,1g,1g,1a,1f,1a,1g,1f,1g,1f,1a,1f,1a
1a,1a,1a,1f,1a,1g,1g,1f,1a,1a,1a,1a,1a,1a,1f,1a
1a,1g,1g,1f,1a,1a,1a,1f,1a,1f,1g,1g,1g,1a,1a,1a
1a,1f,1a,1f,1a,1g,1g,1g,1a,1f,1a,1a,1f,1a,1f,1a
1a,1f,1a,1a,1a,1a,1a,1a,1a,1f,1a,1a,1f,1a,1f,1a
1a,1f,1a,1g,1g,1g,1g,1g,1g,1f,1a,1a,1f,1a,1f,1a
1a,1f,1a,1f,1a,1f,1a,1a,1a,1a,1a,1a,1f,1a,1g,1a
1a,1f,1g,1f,1a,1f,1g,1g,1g,1g,1a,1a,1f,1f,1e,1a
1a,1a,1a,1a,1a,1a,1a,1a,1a,1a,1a,1a,1a,1a,1a,1a
WAL 1a
EXT 14,14 6 7,7
PAL 4

ROOM 6
1a,1a,1a,1a,1a,1a,1a,1a,1a,1a,1a,1a,1a,1a,1a,1a
1a,1g,1g,1f,1a,1g,1g,1g,1a,1g,1g,1g,1g,1g,1g,1a
1a,1f,1a,1f,1a,1a,1a,1f,1a,1f,1a,1a,1a,1a,1f,1a
1a,1f,1a,1f,1g,1g,1g,1f,1g,1f,1g,1g,1f,1a,1f,1a
1a,1f,1a,1f,1a,1a,1a,1a,1a,1a,1a,1a,1f,1a,1f,1a
1a,1a,1a,1f,1a,1f,1g,1g,1g,1g,1g,1a,1a,1a,1f,1a
1a,1f,1a,1f,1g,1f,1a,1a,1a,1a,1f,1g,1g,1a,1f,1a
1a,1f,1a,1a,1a,1f,1a,0,1f,1a,1f,1a,1a,1a,1f,1a
1a,1f,1a,1f,1g,1g,1a,1g,1f,1a,1f,1g,1g,1a,1f,1a
1a,1f,1a,1f,1a,1f,1a,1a,1f,1a,1f,1a,1f,1a,1f,1a
1a,1f,1a,1f,1a,1f,1g,1g,1g,1a,1f,1a,1f,1a,1f,1a
1a,1f,1a,1f,1a,1a,1a,1a,1a,1a,1a,1a,1f,1a,1f,1a
1a,1f,1g,1g,1g,1g,1g,1a,1f,1g,1g,1g,1f,1a,1f,1a
1a,1a,1a,1a,1a,1a,1a,1a,1f,1a,1a,1a,1a,1a,1f,1a
1a,1g,1g,1g,1g,1g,1g,1g,1g,1a,1e,1g,1g,1g,1f,1a
1a,1a,1a,1a,1a,1a,1a,1a,1a,1a,1a,1a,1a,1a,1a,1a
WAL 1a
EXT 10,14 7 2,11
PAL 5

ROOM 7
0,0,0,0,0,0,0,0,0,0,0,0,0,0,0,0
0,x,0,1p,1o,0,0,0,0,z,0,0,0,x,0,0
0,0,0,1m,1n,0,0,0,0,0,0,0,0,0,0,0
0,0,0,0,0,v,0,0,0,0,0,0,0,0,s,0
0,0,z,0,0,0,0,0,0,0,0,z,0,0,0,0
0,0,0,0,0,0,0,0,0,0,0,0,0,0,0,0
0,0,0,0,0,0,0,0,0,0,0,0,0,0,0,0
1a,1a,1a,1a,1a,1a,1a,1a,1a,1a,1a,1a,1a,1a,1a,1a
1a,1a,1a,1a,1a,1a,1a,1a,1a,1a,1a,1a,1a,1a,1a,1a
11,11,11,11,11,11,11,11,11,11,11,11,11,11,11,11
1h,1h,1h,1h,1h,1h,1h,1h,1h,1h,1h,1h,1h,1h,1h,1h
15,15,0,15,15,15,15,15,15,15,15,10,0,15,15,15
1d,1d,1d,1d,1d,1d,1d,1d,1d,1d,1d,1i,1d,1d,1d,1d
1a,1a,1a,1a,1a,1a,1a,1a,1a,1a,1a,1a,1a,1a,1a,1a
19,19,19,19,19,19,19,19,19,19,19,19,19,19,19,19
16,16,16,16,16,16,16,16,16,16,16,16,16,16,16,16
WAL 1a,1d,1h
EXT 11,12 9 4,7
PAL 6

ROOM 9
0,0,0,0,0,0,0,0,0,0,1p,1o,0,0,0,0
0,0,0,0,0,0,0,0,0,0,1m,1n,0,0,0,0
0,0,0,0,0,0,0,0,0,0,0,0,0,0,0,0
1s,1s,1s,1s,1s,1s,1s,1s,1s,1s,1u,1w,n,1t,1s,1s
21,22,21,22,2a,21,22,21,22,21,22,1v,1x,21,22,21
20,23,20,23,29,20,23,20,23,20,23,1z,1y,20,23,20
24,24,24,27,28,26,24,24,24,24,24,24,25,24,24,24
0,0,0,0,0,0,0,0,0,0,0,0,0,r,0,0
r,0,0,0,0,2c,0,0,0,2c,0,0,0,0,0,0
0,0,0,0,0,0,0,0,0,0,0,0,2c,0,0,0
0,0,r,0,0,0,0,0,2c,0,0,0,0,0,0,0
0,0,0,0,0,2c,0,0,0,0,0,0,0,0,0,0
2c,0,0,0,0,0,0,0,0,0,0,0,0,0,0,2c
0,0,0,0,0,0,2c,0,0,0,0,0,0,2c,0,0
2b,2b,2b,2b,2b,2b,2b,2g,0,2f,2b,2b,2b,2b,2b,2b
2c,2c,2c,2c,2c,2c,2c,2d,0,2e,2c,2c,2c,2c,2c,2c
WAL 1a,24,25,26,27,2b,29,2d,2e,2g,2f,2h
END undefined 8,15
END undefinee 4,6
PAL 7

TIL 10
10000010
10000010
10000010
10000010
10000010
10000010
10000010
10000010

TIL 11
00000000
11111111
00001000
10001001
00001000
00000100
00000100
00000010

TIL 12
11111111
00000000
00000000
11111111
00000000
00000000
11111111
00000000

TIL 13
00000000
11111111
00000000
00000000
11111111
00000000
00000000
11111111

TIL 14
00000000
00000000
11111111
00000000
00000000
11111111
00000000
00000001

TIL 15
01000000
01000000
01000000
01000000
01111110
01100110
01000010
01000010

TIL 16
10100010
10001010
01000100
00111000
00000000
11111111
11111111
11001100
>
10001010
10100010
01000100
00111000
00000000
11111111
11111111
00110011

TIL 17
00000000
00000000
00010000
00001001
01001010
00100010
00100000
00000000
>
00000000
00000000
00000000
00000000
00000000
00000000
00000000
00000000

TIL 18
00000000
10000010
01001001
01010001
00010000
00000000
00000000
00000000
>
00000000
00000000
00000000
00000000
00000000
00000000
00000000
00000000

TIL 19
11111111
00000000
11101111
00000000
11111110
10000011
00111001
01000100

TIL 20
11101001
11010101
11101011
11111111
11000000
11111111
11111111
11111111

TIL 21
11111111
11111111
11111111
11111111
11111111
11010001
11101001
11010001

TIL 22
11111111
11111111
11111111
11111111
11111111
00010111
00101111
00010111

TIL 23
00001111
00010111
00101111
11111111
00000111
11111111
11111111
11111111

TIL 24
11111111
11111111
11111111
00000000
11111111
11111111
10101010
01010101

TIL 25
11111111
11111111
01111111
00000000
11111111
11111111
10101010
01010101

TIL 26
11111111
11111111
11111111
00000000
11111111
11111111
10101010
11010101

TIL 27
11111111
11111111
11111111
00000000
11111111
11111111
10101011
01010111

TIL 28
10000011
11111111
10000011
11111110
10000011
11111111
00000001
00000001

TIL 29
10000011
10000011
10000011
10000011
10000011
10000011
10000011
11111111

TIL a
10000010
10000010
10000010
10000010
10000010
10000010
10000010
11111110

TIL b
01101001
01010101
01101011
01111111
00000000
00000000
00000000
00000000

TIL c
00001100
00010100
00101100
11111100
00000000
00000000
00000000
00000000

TIL d
00000000
00000000
00000000
00000000
11111110
10000010
11111110
10000010

TIL e
00000000
00000000
00000000
00000000
01111111
01010001
01101001
01010001

TIL f
00000000
00000000
00000000
00000000
11111100
00010100
00101100
00010100

TIL g
10000010
11111110
10000010
11111111
10000011
11111111
00000001
00000001

TIL h
00000010
00000010
00000010
00000001
00000001
00000001
00000001
00000001

TIL i
00100000
00010000
00010000
00001000
00001000
00000100
00000100
00000100

TIL j
00000000
00000000
00000000
00000000
00000000
00000000
10000000
01000000

TIL k
00000000
00000000
10000000
01110000
00001100
00000011
00000000
00000000

TIL l
00000000
00000000
11111111
00000000
00000000
00000000
00000000
00000000

TIL m
00000000
00000000
00000000
00000111
00011000
01100000
10000000
00000000

TIL n
00000000
00000000
00000000
00000000
00000000
00000000
00000000
00000001

TIL o
00000010
00000100
00000100
00001000
00001000
00010000
00010000
00010000

TIL p
00100000
00100000
00100000
01000000
01000000
01000000
01000000
01000000

TIL q
00010000
00111000
01010100
00010000
00010000
00000000
00000000
00000000

TIL r
00000000
00000000
00000110
00000000
01100000
00000000
00011000
00000000

TIL s
00000000
00110000
01111100
11111111
00011110
00000000
00000000
00000000
>
00000000
00001100
00111110
01111111
00001110
00000000
00000000
00000000

TIL v
00000000
00000000
00000100
00111110
01111111
00111000
00000000
00000000
>
00000000
00000000
00011000
01111000
11111100
00111110
00000000
00000000

TIL w
00000000
00000000
00000000
00000000
00111000
01111110
11111100
00000110

TIL x
01110000
11111110
00111100
00000000
00000000
00000000
00000000
00000000
>
00011100
01111111
00001110
00000000
00000000
00000000
00000000
00000000

TIL y
00000000
00000000
00110000
11111110
01111111
00000000
00000000
00000000
>
00000000
00000000
00011000
01111111
11111110
00000000
00000000
00000000

TIL z
00000000
00000000
00000000
00000000
00000000
00111000
01111100
00011110
>
00000000
00000000
00000000
00000000
00000000
00001100
00111110
01111100

TIL 1a
11111111
11111111
11111111
11111111
11111111
11111111
11111111
11111111

TIL 1b
00000000
00000000
00000000
00000000
00000000
00000000
00000000
00000000
>
00000000
00000000
00010000
00001001
01001010
00100010
00100000
00000000

TIL 1c
00000000
00000000
00000000
00000000
00000000
00000000
00000000
00000000
>
00000000
10000010
01001001
01010001
00010000
00000000
00000000
00000000

TIL 1d
11111111
11111111
10101010
01010101
00000000
00000000
10101010
01010101

TIL 1e
00000000
01000100
00101000
00010000
00101000
01000100
00000000
00000000

TIL 1f
01111110
00100100
01111110
00100100
01111110
00100100
01111110
00100100

TIL 1g
00000000
10101010
11111111
10101010
10101010
11111111
10101010
00000000

TIL 1h
11111111
00000000
00000000
00000000
00000000
00000000
00000000
00000000

TIL 1i
11111111
11111111
10101010
01010101
00000000
00000000
10110010
01001101

TIL 1j
00000000
00000000
00100000
00000000
00000000
00000000
01000010
00000000
>
00000000
00000000
00010000
00000000
00000000
01000000
00000100
00000000

TIL 1k
00000000
00000010
00000000
00100000
00000000
00000000
00000100
00000000
>
00000000
00000000
00100010
00000000
00000000
00000000
00001000
00000000

TIL 1l
00000000
00000010
00000000
00000000
00000000
01000000
00000000
00000000
>
00000000
00000000
00000010
00000000
01000000
00000000
00000000
00000000

TIL 1m
01011111
00111111
10011111
00101111
01010111
00001010
00010101
00000100
>
00011111
01111111
00011111
01011111
00101011
00010101
00001010
00000001

TIL 1n
11111100
11111010
11110101
11111000
11100010
11010000
00101000
10000000
>
11111100
11111001
11110010
11111001
11100100
11100100
01010000
10100000

TIL 1o
10100000
01010000
10010100
11100010
11110000
11110101
11111010
11111101
>
01000000
10101000
10010000
11101010
11110100
11110010
11111001
11111010

TIL 1p
00000100
00010011
00001001
01010111
01101111
10011111
01111111
10111111
>
00001011
00000100
00010001
00101111
01001111
00111111
11011111
00111111

TIL 1q
10000010
10100010
01000100
00111000
00000000
11111111
11111111
01100110

TIL 1r
00000000
11101111
00000000
11111110
10000011
00111001
01000100
10001010

TIL 1s
00000000
00000000
11111111
11111111
11111111
11111111
11111111
11111111

TIL 1t
00000000
00000000
00000000
00000111
00011111
01111111
11111111
11111111

TIL 1u
00000000
00000000
10000000
11110000
11111100
11111111
11111111
11111111

TIL 1v
11100000
11110000
11110000
11111000
11111000
11111100
11111100
11111100

TIL 1w
00000000
00000000
00000000
00000000
00000000
00000000
10000000
11000000

TIL 1x
00000011
00000111
00000111
00001111
00001111
00011111
00011111
00011111

TIL 1y
00111111
00111111
00111111
01111111
01111111
01111111
01111111
01111111

TIL 1z
11111110
11111110
11111110
11111111
11111111
11111111
11111111
11111111

TIL 2a
11111111
11111111
11111111
11111111
11111111
10000011
11111111
10000011

TIL 2b
11111111
00000000
00000110
00000000
01100000
00000000
00001100
00000000

TIL 2c
00000000
00110000
00000000
00000110
00000000
00000000
00011000
00000000

TIL 2d
00000001
01100001
00000001
00001101
00000001
00000001
00011001
00000001

TIL 2e
10000000
10110000
10000000
10000011
10000000
10000000
10001100
10000000

TIL 2f
11111111
10000000
10011000
10000000
10000000
10000000
10000110
10000000

TIL 2g
11111111
00000001
01100001
00000001
00000001
00000001
00011001
00000001

TIL 2h
00000000
111111110
00100010
00100010
11111111
00100010
00100010
00000000

SPR 10
00000000
00000000
11110000
00010000
11011111
00110001
00001101
00000011

SPR 11
00000000
00000000
11110000
00010000
11011111
00110001
00001101
00000011

SPR 12
00000000
00000000
11110000
00010000
11011111
00110001
00001101
00000011

SPR 13
00000000
00000000
11110000
00010000
11011111
00110001
00001101
00000011

SPR 14
01100000
01100000
01111111
01100000
01100000
01111111
01100000
01100000
POS 0 0,15

SPR 15
01101000
01111111
01110000
01100000
01111111
01110000
01100000
01111111
POS 0 0,14

SPR 16
01111111
01110100
01101000
01111111
01110000
01101000
01111111
01110000
POS 0 0,13

SPR 17
01110000
01110000
01101100
01100011
01100000
01100000
01100000
01100000
POS 0 0,12

SPR 18
00001110
00001110
00110110
11000110
00000110
00000110
00000110
00000110
POS 0 2,12

SPR 19
11111110
00001110
00000110
11111110
00001110
00000110
11111110
00001110
POS 0 2,13

SPR 20
11111111
00000000
00000000
00000000
11111110
10000010
11111110
10000010
POS 2 3,8

SPR 21
11111111
00000000
00000000
00000000
00000000
00000000
00000000
00000000
POS 2 5,8

SPR 22
11111111
00000000
00000000
00000000
00000000
00000000
00000000
00000000
POS 2 6,8

SPR 23
11111111
00000000
00000000
00000000
00000000
00000000
00000000
00000000
POS 2 7,8

SPR 24
11111111
00000000
00000000
00000000
00000000
00000000
00000000
00000000
POS 2 9,8

SPR 25
11111111
00000000
00000000
00000000
00000000
00000000
00000000
00000000
POS 2 8,8

SPR 26
11111111
00000000
00000000
00000000
00000000
00000000
00000000
00000000
POS 2 10,8

SPR 27
11111111
00000000
00000000
00000000
00000000
00000000
00000000
00000000
POS 2 11,8

SPR 28
11111111
00000000
00000000
00000000
00000000
00000000
00000000
00000000
POS 2 12,8

SPR 29
11111111
00000000
00000000
00000000
00000000
00000000
00000000
00000000
POS 2 13,8

SPR A
00111100
00111100
00111100
00011000
01111110
10111101
00111100
00100100
POS 0 8,12

SPR a
00000000
00000000
00000000
11111111
11111111
00000000
01010101
10101010
DLG SPR_5
POS 0 0,6

SPR b
00000000
00000000
00000000
11111111
11111111
00000000
01010101
10101010
DLG SPR_6
POS 0 6,6

SPR d
00000000
00000000
00000000
11111111
11111111
00000000
01010101
10101010
DLG SPR_7
POS 0 7,6

SPR e
00000000
00000000
00000000
11111111
11111111
00000000
01010101
10101010
DLG SPR_8
POS 0 1,6

SPR f
00000000
00000000
00000000
11111111
11111111
00000000
01010101
10101010
DLG SPR_9
POS 0 2,6

SPR g
00000000
00000000
00000000
11111111
11111111
10000000
11010101
10101010
DLG SPR_a
POS 0 5,6

SPR h
00000000
00000000
00000000
11111111
11111111
00000000
01010101
10101010
DLG SPR_b
POS 0 8,6

SPR i
00000000
00000000
00000000
11111111
11111111
00000000
01010101
10101010
DLG SPR_c
POS 0 9,6

SPR j
00000000
00000000
00000000
11111111
11111111
00000000
01010101
10101010
DLG SPR_d
POS 0 10,6

SPR k
00000001
00000111
00111000
11111111
11111111
00000000
01010101
10101010
DLG SPR_e
POS 0 11,6

SPR l
11000000
11110000
00001110
11111111
11111111
00000000
01010101
10101010
DLG SPR_f
POS 0 12,6

SPR m
00000000
00000000
00000000
11111111
11111111
00000000
01010101
10101010
DLG SPR_g
POS 0 13,6

SPR n
00000000
00000000
00000000
11111111
11111111
00000000
01010101
10101010
DLG SPR_h
POS 0 14,6

SPR o
00000000
00000000
00000000
11111111
11111111
00000000
01010101
10101010
DLG SPR_i
POS 0 15,6

SPR p
00000000
00000000
00000000
11111111
11111111
00000011
01010111
10101011
DLG SPR_j
POS 0 3,6

SPR q
00100110
00111010
00100110
00111010
00100110
00111010
00100110
00111010
DLG SPR_4
POS 0 15,9

SPR r
00000000
00111110
00100110
00111010
00100110
00111010
00100110
00111010
DLG SPR_l
POS 0 15,8

SPR s
00111110
00100110
00111010
00100110
00111010
00100110
00111010
00100110
DLG SPR_m
POS 0 15,11

SPR t
00111010
00100110
00111010
00100110
00111010
00100110
00111010
00100110
DLG SPR_3
POS 0 15,12

SPR u
00100110
00111010
00100110
00111110
00100010
00000000
00000000
00000000
DLG SPR_n
POS 0 15,10

SPR v
00111010
00100110
00111110
00100010
00000000
00000000
00000000
00000000
POS 0 15,13

SPR w
00011110
00011110
00011110
00001100
01111111
11011110
11011110
11010010
DLG SPR_0
POS 0 14,8

SPR x
00111110
00111100
00111100
10011000
01111110
00111101
00111100
00100100
DLG SPR_1
POS 0 0,10

SPR y
00000000
00000000
00000111
01111111
11111111
00000000
00000000
00000000
DLG SPR_2
POS 0 14,14

SPR z
11111000
00010000
00010000
00011111
00000010
00000010
00000011
00000000

SPR 1a
00010110
11111110
00001110
00010110
11111110
00101110
00010110
11111110
POS 0 2,14

SPR 1b
00101110
00010110
11111110
10101110
01010110
11111110
10101110
01010110
POS 0 2,15

SPR 1c
00000000
00000000
00000000
11111111
01010110
01101010
01111110
00000000
DLG SPR_k
POS 0 1,12

SPR 1d
10000100
10000000
11111100
10011100
11001100
11100100
11111100
10000100

SPR 1e
11111100
10000100
10000000
11111100
10011100
11001100
11100100
11111100

SPR 1f
00000000
00000000
10000000
10000000
11111100
10011100
11001100
11100100

SPR 1g
11111111
11111111
10101010
01010101
00000000
00000000
10101010
01010101
POS 2 0,10

SPR 1h
11111111
11111111
10101010
01010101
00000000
00000000
10101010
01010101
POS 2 1,10

SPR 1i
11111111
11111111
10101010
01010101
00000000
00000000
10101010
01010101
POS 2 2,10

SPR 1j
11111111
11111111
10101010
01010101
00000000
00000000
10101010
01010101
POS 2 3,10

SPR 1k
11111111
11111111
10101010
01010101
00000000
00000000
10101010
01010101
POS 2 4,10

SPR 1l
11111111
11111111
10101010
01010101
00000000
00000000
10101010
01010101
POS 2 5,10

SPR 1m
11111111
11111111
10101010
01010101
00000000
00000000
10101010
01010101
POS 2 6,10

SPR 1n
11111111
11111111
10101010
01010101
00000000
00000000
10101010
01010101
POS 2 7,10

SPR 1o
11111111
11111111
10101010
01010101
00000000
00000000
10101010
01010101
POS 2 8,10

SPR 1p
11111111
11111111
10101010
01010101
00000000
00000000
10101010
01010101
POS 2 9,10

SPR 1q
11111111
11111111
10101010
01010101
00000000
00000000
10101010
01010101
POS 2 10,10

SPR 1r
11111111
11111111
10101010
01010101
00000000
00000000
10101010
01010101
POS 2 12,10

SPR 1s
11111111
11111111
01010101
01010101
01010101
01010101
11111111
11111111
POS 2 15,6

SPR 1t
11111111
11111111
10101010
01010101
00000000
00000000
10101010
01010101
POS 2 13,10

SPR 1u
11111111
11111111
10101010
01010101
00000000
00000000
10101010
01010101
POS 2 14,10

SPR 1v
11111111
11111111
10101010
01010101
00000000
00000000
10101010
01010101
POS 2 15,10

SPR 1w
11111111
00000000
00000000
00000000
00000000
00000000
00000000
00000000
POS 2 0,8

SPR 1x
11111111
00000000
00000000
00000000
00000000
00000000
00000000
00000000
POS 2 1,8

SPR 1y
11111111
00000000
00000000
00000000
00000000
00000000
00000000
00000000
POS 2 2,8

SPR 1z
11111111
00000000
00000000
00000000
00000000
00000000
00000000
00000000
POS 2 4,8

SPR 2a
11111111
00000000
00000000
00000000
00000000
00000000
00000000
00000000
POS 2 15,8

SPR 2b
11111111
00000000
00000000
00000000
00000000
00000000
00000000
00000000
POS 2 14,8

SPR 2c
01000000
01000000
01000000
01000000
01111110
01100110
01000010
01000010
DLG SPR_o
POS 2 12,9

SPR 2d
01000000
01000000
01000000
01000000
01111110
01100110
01000010
01000010
DLG SPR_p
POS 4 4,11

SPR 2e
01000000
01000000
01000000
01000000
01111110
01100110
01000010
01000010
DLG SPR_q
POS 4 2,11

SPR 2f
01000000
01000000
01000000
01000000
01111110
01100110
01000010
01000010
DLG SPR_r
POS 7 12,11

SPR 2g
11111111
00000000
00000000
00000000
11111110
10000010
11111110
10000010
DLG SPR_s
POS 7 11,10

SPR 2h
00011110
00011110
00011110
00001100
01111111
11011110
11011110
11010010
DLG SPR_t
POS 9 4,9

SPR 2i
01111000
01111000
01111000
00110000
11111110
01111011
01111011
01001011
DLG SPR_u
POS 9 11,13

SPR 2j
00000111
00000111
00000111
00000011
00001111
00010111
01110111
01100101
DLG SPR_v
POS 9 15,10

SPR 2k
00000000
00000000
00000101
01000111
01000111
00111110
00111110
00100010
>
00000000
00000000
00000101
10000111
01000111
00111110
00111110
00100010
DLG SPR_w
POS 9 0,12

SPR 2l
00000000
01001000
00110000
00000000
00000000
00000110
00001001
00000000
>
00000000
00110000
01001000
00000000
00000000
00001001
00000110
00000000
POS 9 1,0

SPR 2m
00000000
01111110
01010110
01101010
01111110
00011000
00011000
00011000
DLG SPR_x
POS 9 7,7

SPR 2n
00000000
01111110
01010110
01101010
01111110
00011000
00011000
00011000
DLG SPR_y
POS 9 8,7

SPR 2o
00000000
01111110
01010110
01101010
01111110
00011000
00011000
00011000
DLG SPR_z
POS 9 9,7

ITM 0
00000000
00000000
00000000
00111100
01100100
00100100
00011000
00000000
DLG ITM_0

DLG ITM_0
You got a cup of tea! Nice.

DLG SPR_0
I've got to make it to the city by 6:00!

DLG SPR_1
Beat it, kid.

DLG SPR_2
Zzzzz...

DLG SPR_3
A bench

DLG SPR_4
A bench

DLG SPR_5
The train is here. Better get on quick

DLG SPR_6
The train is here. Better get on quick

DLG SPR_7
The train is here. Better get on quick

DLG SPR_8
The train is here. Better get on quick

DLG SPR_9
The train is here. Better get on quick

DLG SPR_a
The train is here. Better get on quick

DLG SPR_b
The train is here. Better get on quick

DLG SPR_c
The train is here. Better get on quick

DLG SPR_d
The train is here. Better get on quick

DLG SPR_e
The train is here. Better get on quick

DLG SPR_f
The train is here. Better get on quick

DLG SPR_g
The train is here. Better get on quick

DLG SPR_h
The train is here. Better get on quick

DLG SPR_i
The train is here. Better get on quick

DLG SPR_j
The train is here. Better get on quick

DLG SPR_k
Staircase blocked: Employees only

DLG SPR_l
A bench

DLG SPR_m
A bench

DLG SPR_n
A bench

DLG SPR_o
This is my seat. Better get some sleep (Down arrow to sleep).

DLG SPR_p
What a strange dream. It's pretty late... might as well continue sleeping (Down arrow).

DLG SPR_q
What a strange dream. It's pretty late... might as well continue sleeping (Down arrow).

DLG SPR_r
Ah, it's morning. I guess the ride is over. (Press Down arrow)

DLG SPR_s
The sky is pretty. Let us appreciate the effort put in by the developer. :)

DLG SPR_t
Welcome to ~~~~~~

DLG SPR_u
...?

DLG SPR_v
Zzzz...

DLG SPR_w
Meow

DLG SPR_x
A game by Austin Lu

DLG SPR_y
For the Traintracks Bitsy Jam

DLG SPR_z
Created on September 29, 2017

END 0


END undefined
You leave the train station, and in doing so say goodbye to your old life. Welcome to your new home.

END undefinee
You go back into the train and head home. This new land is too strange for you, and you miss your family.

