Disappear Gurume!

# BITSY VERSION 5.3

! ROOM_FORMAT 1

PAL 0
197,155,255
255,225,203
255,248,249

PAL 1
201,161,255
255,225,203
241,255,244

ROOM 0
0,0,0,0,0,0,0,0,0,0,0,0,0,0,0,0
0,0,0,0,0,0,0,0,0,0,0,0,0,0,0,0
0,0,0,0,0,0,0,0,0,0,0,0,0,0,0,0
0,0,0,a,a,a,a,a,a,a,a,a,a,0,0,0
0,0,0,a,h,0,0,0,0,i,l,0,a,0,0,0
0,0,0,a,0,0,0,0,0,0,g,0,a,0,0,0
0,0,0,a,0,0,0,0,0,0,m,n,a,0,0,0
0,0,0,a,k,0,0,0,0,0,0,j,a,0,0,0
0,0,0,a,k,0,0,0,0,0,0,0,a,0,0,0
0,0,0,a,0,0,0,0,0,0,0,0,a,0,0,0
0,0,0,a,h,0,0,0,0,0,0,g,a,0,0,0
0,0,0,a,a,a,a,a,a,a,a,a,a,0,0,0
0,0,0,0,0,0,0,0,c,0,0,0,0,0,0,0
0,0,0,0,0,0,0,0,0,0,0,0,0,0,0,0
0,0,0,0,0,0,0,0,0,0,0,0,0,0,0,0
0,0,0,0,0,0,0,0,0,0,0,0,0,0,0,0
NAME My room(1)
ITM 0 11,4
EXT 11,10 1 4,5
PAL 0

ROOM 1
0,0,0,0,0,0,0,0,0,0,0,0,0,0,0,0
0,0,0,0,0,0,0,0,0,0,0,0,0,0,0,0
0,0,0,0,0,0,0,0,0,0,0,0,0,0,0,0
0,0,0,a,a,a,a,a,a,a,a,a,a,0,0,0
0,0,0,a,0,0,0,0,r,s,l,t,a,0,0,0
0,0,0,a,g,0,0,0,0,0,l,u,a,0,0,0
0,0,0,a,0,0,0,0,0,0,m,n,a,0,0,0
0,0,0,a,n,o,0,0,0,0,0,0,a,0,0,0
0,0,0,a,q,l,0,0,a,g,a,g,a,0,0,0
0,0,0,a,q,l,0,0,a,0,0,0,a,0,0,0
0,0,0,a,a,a,a,0,a,a,a,a,a,0,0,0
0,0,0,0,0,0,a,0,a,0,0,0,0,0,0,0
0,0,0,0,0,0,a,0,a,0,0,0,0,0,0,0
0,0,0,0,0,0,a,g,a,0,0,0,0,0,0,0
0,0,0,0,0,0,a,a,a,0,0,0,0,0,0,0
0,0,0,0,0,0,0,0,0,0,0,0,0,0,0,0
NAME My house(2)
ITM 0 10,9
EXT 7,13 2 6,1
EXT 9,8 1 9,9
EXT 11,8 1 7,7
PAL 1

ROOM 2
0,0,0,a,a,a,a,a,a,a,0,0,0,0,0,0
0,0,0,a,0,0,g,0,0,a,0,0,0,0,0,0
0,0,0,a,0,0,0,0,0,a,0,0,0,0,0,0
0,0,0,a,0,0,0,0,0,a,0,0,0,0,0,0
0,0,0,a,p,0,0,0,0,a,0,0,0,0,0,0
0,0,0,a,0,0,0,0,0,a,0,0,0,0,0,0
0,0,0,a,0,0,0,0,0,a,a,a,a,0,0,0
0,0,0,a,p,0,0,0,0,0,0,0,a,0,0,0
0,0,0,a,0,0,0,0,0,a,a,a,a,0,0,0
0,0,0,a,0,0,0,0,0,a,0,0,0,0,0,0
0,0,0,a,p,0,0,0,0,a,0,0,0,0,0,0
0,0,0,a,0,0,0,0,g,a,0,0,0,0,0,0
0,0,0,a,v,0,0,0,0,a,0,0,0,0,0,0
0,0,0,a,0,0,0,0,0,a,0,0,0,0,0,0
0,0,0,a,0,0,g,0,0,a,0,0,0,0,0,0
0,0,0,a,a,a,a,a,a,a,0,0,0,0,0,0
NAME Hall(3)
ITM 0 11,7
EXT 6,14 3 7,8
EXT 8,11 4 9,4
PAL 0

ROOM 3
0,0,0,0,0,0,0,0,0,0,0,0,0,0,0,0
0,0,0,0,0,0,0,0,0,0,0,0,0,0,0,0
0,0,0,0,0,0,0,0,0,0,0,0,0,0,0,0
0,0,0,0,0,0,0,0,0,0,0,0,0,0,0,0
0,0,0,0,0,a,a,a,a,a,0,0,0,0,0,0
0,0,0,0,0,a,0,0,0,a,0,0,0,0,0,0
0,0,0,0,0,a,0,0,0,a,0,0,0,0,0,0
0,0,0,0,0,a,0,0,0,a,0,0,0,0,0,0
0,0,0,0,0,a,a,g,a,a,0,0,0,0,0,0
0,0,0,0,0,0,0,0,0,0,0,0,0,0,0,0
0,0,0,0,0,0,0,0,0,0,0,0,0,0,0,0
0,0,0,0,0,0,0,0,0,0,0,0,0,0,0,0
0,0,0,0,0,0,0,0,0,0,0,0,0,0,0,0
0,0,0,0,0,0,0,0,0,0,0,0,0,0,0,0
0,0,0,0,0,0,0,0,0,0,0,0,0,0,0,0
0,0,0,0,0,0,0,0,0,0,0,0,0,0,0,0
NAME Gurume room(4)
PAL 0

ROOM 4
0,0,0,0,0,0,0,0,0,0,0,0,0,0,0,0
0,0,0,0,0,0,0,0,0,0,0,0,0,0,0,0
0,0,0,0,0,0,0,0,0,0,0,0,0,0,0,0
0,0,0,0,0,0,0,0,0,0,0,0,0,0,0,0
0,0,0,0,a,a,a,a,a,g,a,0,0,0,0,0
0,0,0,0,a,0,0,0,0,0,a,0,0,0,0,0
0,0,0,0,a,0,0,0,0,0,a,0,0,0,0,0
0,0,0,0,a,0,0,0,0,0,a,0,0,0,0,0
0,0,0,0,a,0,0,0,0,0,a,0,0,0,0,0
0,0,0,0,a,g,a,a,a,a,a,0,0,0,0,0
0,0,0,0,0,0,0,0,0,0,0,0,0,0,0,0
0,0,0,0,0,0,0,0,0,0,0,0,0,0,0,0
0,0,0,0,0,0,0,0,0,0,0,0,0,0,0,0
0,0,0,0,0,0,0,0,0,0,0,0,0,0,0,0
0,0,0,0,0,0,0,0,0,0,0,0,0,0,0,0
0,0,0,0,0,0,0,0,0,0,0,0,0,0,0,0
NAME Fault room(5)
EXT 5,9 2 6,7
PAL 0

TIL a
11111111
11111111
11111111
11111111
11111111
11111111
11111111
11111111
WAL true

TIL c
00000000
00000000
00000000
00000000
00000000
00000000
00000000
00000000

TIL g
00111110
00100010
00100010
00100010
00100110
00100010
00100010
00111110
NAME door

TIL h
00000000
00000000
10000000
10000000
11111110
11111110
11111110
00000000
NAME bed

TIL i
00000000
01111110
01111110
01111110
01111110
00100100
00100100
00000000
NAME desk

TIL j
00000000
00011110
01111110
00011110
00011110
01111110
00011110
00000000
NAME desk

TIL k
00111000
00111000
00111000
00111000
00111000
00111000
00111000
00111000

TIL l
00010000
00010000
00010000
00010000
00010000
00010000
00010000
00010000
WAL true

TIL m
00010000
00010000
00010000
00010000
00011111
00000000
00000000
00000000
WAL true

TIL n
00000000
00000000
00000000
00000000
11111111
00000000
00000000
00000000
WAL true

TIL o
00000000
00000000
00000000
00000000
11110000
00010000
00010000
00010000
WAL true

TIL p
00000000
00000000
01111110
01111110
01111110
01111110
00100100
00000000

TIL q
00000000
00000000
00110000
00000000
00110000
00000000
00000000
00000000

TIL r
00010000
00011111
00000000
00000000
00000000
00000000
00000000
00000000

TIL s
00010000
11110000
00000000
00000000
00000000
00000000
00000000
00000000

TIL t
00000000
00111000
00111000
00111000
00111000
00111000
00111000
00111000

TIL u
00000000
00100010
00100010
01110111
01110111
01110111
00000000
00000000

TIL v
00011100
00011100
00011100
00001000
00111110
00111110
00111110
00111110

TIL w
00000000
00000000
00011000
00011000
00000000
00000000
00000000
00000000

SPR A
00011000
00011000
00011000
00111100
01111110
10111101
00100100
00100100
POS 0 7,7

SPR d
00011000
00111100
01011010
00111100
01111110
10111101
00100100
00100100
DLG SPR_0
POS 0 8,7

SPR e
00000000
00000000
00000000
00000000
00000000
00000000
00000000
00000000
POS 2 5,4

SPR f
00000000
01010010
01110001
01110001
00111110
00111100
00111100
00100100
>
00000000
01010010
01110100
01110010
00111110
00111100
00111100
00100100
DLG SPR_1
POS 3 7,6

SPR h
00011000
00111100
01011010
00111100
01111110
10111101
00100100
00100100
DLG SPR_2
POS 2 4,6

SPR i
00000000
00000000
00000000
00000000
00000000
00000000
00000000
00000000

SPR j
00011000
00111100
01011010
00111100
01111110
10111101
00100100
00100100
DLG SPR_3
POS 2 4,8

SPR k
00000000
11111111
11100011
11101111
11100011
11101111
11111111
00000000
DLG SPR_4
POS 4 7,6

ITM 0
00000000
00000000
00010000
00111000
01111100
00111000
00010000
00000000
NAME Chur
DLG ITM_0

DLG SPR_1
{rbw}I found a Gurume, Yeah!{rbw}

DLG SPR_0
{shk}Gurume is disappear!!{shk}

DLG ITM_0
"""
Discovered Chur!{
  - {item "Chur"} == 3 ?
    {shk}Let's go find Gurume!{shk}
  - else ?
    Is this okay?
}
"""

DLG SPR_2
That door is the answer!

DLG SPR_3
No, the other door is the answer!

DLG SPR_4
{wvy}You Fault!{wvy}

VAR a
42

