On nationalism, borders, and history

# BITSY VERSION 5.3

! ROOM_FORMAT 1

PAL 0
171,18,3
63,30,62
0,0,0

ROOM 0
a,a,a,b,b,b,b,b,b,b,b,a,a,a,a,a
a,a,a,k,f,e,g,h,i,j,l,a,a,a,a,a
b,b,b,b,b,b,b,b,b,b,b,b,b,b,b,b
0,0,0,0,0,0,0,0,0,0,0,0,0,0,d,0
0,0,0,0,0,0,0,0,0,0,0,0,0,0,0,0
0,0,0,0,0,0,0,0,0,0,0,0,0,0,0,m
0,0,0,0,0,0,0,0,0,0,0,0,0,m,m,0
0,0,0,0,0,0,0,0,0,0,0,0,m,s,r,n
0,0,0,0,0,0,0,0,0,0,0,0,0,m,m,0
q,o,p,0,0,0,0,0,0,0,0,d,0,0,0,m
0,0,0,0,0,0,0,0,0,0,0,0,0,0,m,0
0,0,0,0,0,0,0,0,0,0,0,c,c,0,0,d
0,0,0,0,m,0,d,0,0,0,c,0,0,c,0,0
0,d,m,m,0,d,0,m,0,c,m,c,0,c,d,m
a,a,a,a,a,a,a,a,a,a,a,a,a,a,a,a
a,a,a,a,a,a,a,a,a,a,a,a,a,a,a,a
ITM 0 12,8
END undefined 0,9
PAL 0

TIL a
11111111
00010000
11111111
10000100
11111111
00100001
11111111
10001000
WAL true

TIL b
11111111
00010000
11111111
10000100
11111111
00100001
11111111
11111111
WAL true

TIL c
00011000
00011000
00001000
00011100
00111110
00111110
00110110
00010100
>
00011000
10011000
01001000
00111100
00011110
00011110
00010110
00010100
NAME sig heil

TIL d
00011000
00011000
00001000
00011100
00111110
00111110
00110110
00010100
>
00011000
00011000
01001001
01011101
00111110
00011100
00010100
00010100
NAME others

TIL e
00000000
01111111
00110001
00110000
00111000
00110001
01111111
00000000

TIL f
00000000
11110111
01100010
01111110
01100010
01100010
11110111
00000000

TIL g
00000000
01111110
00011000
00011000
00011000
00011000
01111111
00000000

TIL h
00000000
11000001
11100011
11010101
11001001
11000001
11100011
00000000

TIL i
00000000
00111100
01100010
01100010
01111110
01100010
11110111
00000000

TIL j
00000000
11111100
10110100
00110000
00110000
00110000
01111000
00000000

TIL k
11000000
01000000
11110000
00010000
11110000
00100000
11111110
01000010

TIL l
00001111
00001000
00001111
00000100
01111111
01000001
01111111
00100100

TIL m
00011000
00011000
00001000
01011100
00111110
00011110
00010101
00010100
>
00011000
00011000
00001000
00011100
00111110
01011110
01010110
00010100
NAME others 2
WAL true

TIL n
00000000
00000000
00001000
00001100
01111110
00001100
00001000
00000000
NAME right

TIL o
00000000
00000000
11101110
10101010
11001110
10101010
10101010
00000000
NAME left

TIL p
00000000
00000000
10101110
10101000
10101110
10100010
11101110
00000000

TIL q
00000000
00000000
00010000
00110000
01111110
00110000
00010000
00000000

TIL r
00000000
00000000
01010010
01011010
01011010
01010110
01010010
00000000

TIL s
00000000
00000000
01110111
01010100
01100110
01010100
01010111
00000000

SPR A
00001100
00001100
00001000
00011100
00111110
00111110
01010101
00010100
POS 0 1,4

SPR b
00011000
00011000
00001000
00011100
00111110
00111110
00010100
00010100
>
00011000
10011000
01001000
00111100
00011110
00011110
00010100
00010100
DLG SPR_1
POS 0 8,10

SPR c
00111000
10011001
11111111
11111111
11111111
10111101
10011001
00100100
DLG SPR_0
POS 0 10,4

ITM 0
00000000
00000000
00000000
00000000
00000000
00000000
00000000
00000000

DLG SPR_1
"""
Großpolen! Pommern!
Raus von unsere Heimat!
Masowien! Schlesien!
Raus von unsere Heimat!
Böhmen! Siebenbürgen!
Raus von unsere Heimat!
Lüderitzland! Togoland!
Kamerun! Mahinland!
Raus! Raus! Raus!

Somaliland! Nauru!
Geh weg!
"""

DLG SPR_0
"""
{cycle
  - Heil dir im Siegerkranz,
    Herrscher des Vaterlands!
    Heil, Kaiser, dir!
    Fühl in des Thrones Glanz
    die hohe Wonne ganz,
    Liebling des Volks zu sein!
    Heil Kaiser, dir!
  - Nicht Ross nicht Reisige
    Sichern die steile Höh',
    Wo Fürsten steh'n:
    
    Liebe des Vaterlands,
    Liebe des freien Manns
    Gründen den Herrscher Thron
    Wie Fels im Meer.
  - Heilige Flamme, glüh',
    Glüh' und erlösche nie
    Fürs Vaterland!
    Wir alle stehen dann
    Mutig für einen Mann,
    Kämpfen und bluten gern
    Für Thron und Reich!
  - Handel und Wissenschaft
    Hebe mit Mut und Kraft
    Ihr Haupt empor!
    Krieger und Heldenthat
    Finde ihr Lorbeerblatt
    Treu aufgehoben dort,
    An deinem Thron!
  - Dauernder stets zu blüh'n
    Weh' unsre Flagge kühn
    Auf hoher See!
    Ha, wie so stolz und hehr
    Wirft über Land und Meer
    Weithin der deutsche Aar
    Flammenden Blick.
  - Sei, Kaiser Wilhelm, hier
    Lang' deines Volkes Zier,
    Der Menschheit Stolz!
    Fühl' in des Thrones Glanz,
    Die hohe Wonne ganz,
    Liebling des Volks zu sein!
    Heil, Kaiser, dir!
}
"""

END 0


END undefined
Kein Heimat hier für dich

VAR a
42

