ACatWalk

# BITSY VERSION 3.4

! ROOM_FORMAT 1

PAL 0
255,128,0
255,255,255
255,255,255

ROOM 1
0,0,0,0,e,e,0,0,0,0,e,e,e,e,0,0
e,0,0,e,e,e,e,e,e,e,0,e,e,e,0,0
0,e,e,e,e,e,e,e,e,e,e,e,e,0,e,0
0,e,e,0,e,e,e,e,e,e,e,e,e,e,e,0
0,e,e,e,e,e,e,e,e,e,e,e,0,e,e,e
0,e,e,e,e,e,e,e,e,e,e,e,e,e,e,e
e,e,0,e,e,e,e,e,e,e,e,e,e,e,e,0
0,e,0,e,e,e,e,e,e,0,0,0,0,0,0,0
e,e,e,e,e,e,e,e,e,e,0,e,e,e,e,0
0,e,e,e,e,e,e,e,e,e,e,e,e,e,e,0
e,e,0,e,e,e,e,e,e,e,e,e,e,e,0,0
e,e,e,e,e,e,e,e,e,e,e,e,e,e,0,0
e,e,e,e,e,e,e,e,e,e,e,e,e,0,0,0
0,e,e,e,e,e,e,e,e,e,e,e,e,e,e,0
0,0,0,e,e,e,0,e,e,e,e,e,0,0,e,e
0,0,0,0,0,0,0,0,0,e,0,e,e,0,0,0
WAL b,a
EXT 15,7 2 0,7
PAL 0

ROOM 2
0,0,0,0,0,0,0,0,0,0,0,0,0,0,0,0
e,0,0,0,0,0,e,0,0,0,0,0,0,0,0,0
0,0,e,0,0,0,0,0,0,0,0,0,0,0,0,0
e,0,0,0,0,e,0,0,0,0,0,0,0,0,0,0
e,0,0,0,0,e,0,0,0,0,0,0,e,0,0,0
0,e,e,0,0,0,0,0,0,0,0,0,0,0,v,l
e,e,e,e,0,0,0,0,0,0,0,0,0,0,l,i
0,0,0,0,0,0,0,0,0,0,0,0,0,0,x,y
e,e,e,e,0,0,0,0,0,0,0,0,0,0,k,i
e,e,e,0,0,0,0,0,0,0,0,0,0,0,s,o
e,0,0,0,0,0,0,0,0,0,0,0,0,0,0,0
0,0,0,e,0,0,0,0,e,0,0,0,0,0,0,0
e,0,0,0,0,0,e,0,0,0,0,0,0,0,0,0
0,0,0,0,0,0,0,0,0,0,0,0,0,0,0,0
0,0,0,0,e,0,0,e,0,e,0,e,0,0,0,0
0,0,0,0,0,0,e,e,0,e,e,0,0,0,0,0
WAL b,a
EXT 8,15 3 8,0
EXT 15,7 6 0,7
EXT 0,7 1 15,7
PAL 0

ROOM 3
0,0,0,0,0,0,0,0,0,0,0,0,0,0,0,0
0,0,0,0,0,0,0,0,0,0,0,0,0,0,0,0
0,0,0,0,0,0,0,e,0,e,0,0,0,0,0,0
0,0,0,0,0,e,0,0,0,0,0,e,0,0,0,0
0,0,0,0,0,0,0,e,0,e,0,0,0,0,0,0
0,0,0,0,0,e,0,0,0,0,0,e,0,0,0,0
0,0,0,0,0,0,0,e,0,e,0,0,0,0,0,0
0,0,0,0,0,0,0,0,0,0,0,0,0,0,0,0
0,0,0,0,0,e,0,e,0,e,0,e,0,0,0,0
0,0,0,0,0,0,0,0,0,0,0,0,0,0,0,0
0,0,0,0,0,0,0,e,0,e,0,0,0,0,0,0
0,0,0,0,0,e,0,0,0,0,0,e,0,0,0,0
0,0,0,0,0,0,0,e,0,e,0,0,0,0,0,0
0,0,0,0,0,e,0,0,0,0,0,e,0,0,0,0
0,0,0,0,0,0,0,e,0,e,0,0,0,0,0,0
0,b,a,a,a,a,a,a,d,a,a,a,a,a,b,0
WAL b,a
EXT 8,15 4 8,0
EXT 8,0 2 8,15
PAL 0

ROOM 4
e,b,a,a,a,a,a,a,d,a,a,a,a,a,b,e
0,b,0,0,0,0,0,0,0,0,0,0,0,0,b,e
0,b,0,0,0,0,0,0,0,0,0,0,0,0,b,0
e,b,0,0,0,0,0,0,0,0,0,0,0,0,b,e
0,b,0,0,0,0,0,0,0,0,0,0,0,0,b,0
e,b,0,0,0,0,0,0,0,0,0,0,0,0,b,e
0,b,0,0,0,0,0,0,0,b,a,a,a,a,b,0
0,b,0,0,0,0,0,0,0,b,0,0,0,0,b,0
e,b,0,0,0,0,0,0,0,d,0,0,0,0,b,e
0,b,0,0,0,0,0,0,0,b,0,0,0,0,b,0
e,b,0,0,0,0,0,0,0,b,0,0,0,0,b,e
0,b,0,0,0,0,0,0,0,b,0,0,0,0,b,0
0,b,a,a,a,a,a,a,d,a,a,b,a,a,b,0
e,b,0,0,0,0,0,0,0,0,0,d,0,g,b,e
0,b,0,0,0,0,0,0,0,0,0,b,0,0,b,0
e,a,a,a,a,a,a,a,a,a,a,a,a,a,a,e
WAL b,a
EXT 13,13 5 13,7
EXT 8,0 3 8,15
PAL 0

ROOM 5
b,b,b,b,b,b,b,b,b,b,b,b,b,b,b,b
b,b,b,b,b,b,b,b,b,b,b,b,b,b,b,b
b,b,a,a,a,a,a,a,a,a,a,a,a,a,b,b
b,b,0,0,0,0,0,0,0,0,0,0,0,0,b,b
b,b,0,0,0,0,0,0,0,0,0,0,0,0,b,b
b,b,0,0,0,0,0,0,0,0,0,0,0,0,b,b
b,b,0,0,0,0,0,0,0,0,0,0,0,0,b,b
b,b,0,f,0,0,0,0,0,0,0,0,0,0,b,b
b,b,0,0,0,0,0,0,0,0,0,0,0,0,b,b
b,b,0,0,0,0,0,0,0,0,0,0,0,0,b,b
b,b,0,0,0,0,0,0,0,0,0,0,0,0,b,b
b,b,0,0,0,0,0,0,0,0,0,0,0,0,b,b
b,b,0,0,0,0,0,0,0,0,0,0,0,0,b,b
b,b,0,0,0,0,0,0,0,0,0,0,0,0,b,b
b,b,b,b,b,b,b,b,b,b,b,b,b,b,b,b
b,b,b,b,b,b,b,b,b,b,b,b,b,b,b,b
WAL a,b
EXT 13,7 4 13,13
END undefined 3,7
PAL 0

ROOM 6
0,0,0,0,0,0,0,0,0,0,0,0,0,0,0,0
0,0,0,0,0,0,0,0,0,0,0,0,0,0,0,0
0,0,e,0,0,0,0,0,e,0,0,0,0,0,0,0
10,p,0,0,0,0,0,0,0,0,0,0,0,0,0,0
i,n,0,0,0,0,0,e,0,0,e,0,0,0,0,0
i,q,0,0,0,0,e,0,0,0,0,0,e,0,0,e
i,n,0,0,0,0,0,0,0,0,0,0,0,0,e,e
y,11,0,0,0,0,0,0,0,0,0,0,0,0,0,0
j,0,0,0,0,0,0,0,0,0,0,0,0,0,e,e
t,0,0,0,0,0,e,0,0,0,0,0,0,0,0,e
0,0,0,e,0,0,0,0,0,0,0,0,0,0,0,0
0,0,0,e,0,0,0,0,0,0,0,0,0,0,0,0
0,0,0,0,0,0,e,0,0,0,0,0,e,0,0,0
0,0,0,0,0,0,0,0,0,0,0,0,0,0,0,0
0,0,0,0,0,0,0,0,0,0,0,0,0,0,0,0
0,0,0,0,0,0,0,0,0,0,0,0,0,0,0,0
WAL 10,b,a
EXT 15,7 7 0,7
EXT 0,7 2 15,7
PAL 0

ROOM 7
0,0,0,0,0,0,0,0,0,0,0,0,0,0,0,0
0,0,0,0,0,0,0,0,0,0,0,0,0,0,0,0
0,0,0,0,0,0,0,0,0,e,0,0,e,0,0,0
0,0,0,0,0,0,0,0,0,0,0,0,0,0,0,0
0,0,0,0,0,0,0,e,0,0,0,0,0,0,0,0
e,0,0,0,0,e,0,0,e,0,0,e,0,0,e,0
e,e,0,0,0,0,0,0,0,0,0,0,0,0,e,e
0,0,0,0,0,0,0,0,0,0,0,0,0,0,0,0
e,e,0,0,0,0,0,0,0,0,0,0,e,0,e,e
e,0,0,0,e,0,0,0,e,0,0,0,0,0,0,0
0,0,0,0,e,0,0,0,0,e,0,0,0,0,0,0
0,0,0,0,0,0,e,0,0,0,0,e,0,0,0,0
0,0,0,e,0,0,0,0,e,0,0,0,0,0,0,0
0,0,0,0,0,0,0,0,0,0,0,0,0,0,0,0
0,0,0,0,0,0,0,0,0,0,0,0,0,0,0,0
0,0,0,0,0,0,0,0,0,0,0,0,0,0,0,0
WAL b,a
EXT 15,7 8 0,7
EXT 0,7 6 15,7
PAL 0

ROOM 8
0,0,0,0,0,0,0,0,0,0,0,0,0,0,0,0
0,0,0,0,0,0,0,0,0,0,0,0,0,0,0,0
0,0,0,0,0,0,0,0,0,0,0,0,0,0,0,0
0,0,0,0,0,0,0,0,0,0,0,0,0,0,0,0
0,0,0,0,0,0,0,0,0,0,0,0,0,0,0,0
0,0,0,0,0,0,0,0,0,0,0,0,0,0,0,0
e,0,0,0,0,0,0,0,0,0,0,0,0,0,0,e
0,0,0,0,0,0,0,0,0,0,0,0,0,0,0,0
e,0,0,0,0,0,0,0,0,0,0,0,0,0,0,e
0,0,0,0,0,0,0,0,0,0,0,0,0,0,0,0
0,0,0,0,0,0,0,0,0,0,0,0,0,0,0,0
0,0,0,0,0,0,0,0,0,0,0,0,0,0,0,0
0,0,0,0,0,0,0,0,0,0,0,0,0,0,0,0
0,0,0,0,0,0,0,0,0,0,0,0,0,0,0,0
0,0,0,0,0,0,0,0,0,0,0,0,0,0,0,0
0,0,0,0,0,0,0,0,0,0,0,0,0,0,0,0
WAL b,a
EXT 15,7 9 0,7
EXT 0,7 7 15,7
PAL 0

ROOM 9
0,0,e,0,e,0,0,0,h,0,0,0,0,0,0,0
0,0,0,0,0,0,0,0,h,0,0,0,0,0,0,0
0,0,0,0,0,0,0,0,h,0,0,0,0,0,0,0
0,0,0,0,0,0,0,0,h,0,0,0,0,0,0,0
0,0,0,0,0,0,0,0,h,0,0,0,0,0,0,0
0,0,0,0,0,0,0,0,h,0,0,0,0,0,0,0
e,0,0,0,0,0,0,0,h,0,0,0,0,0,0,0
0,0,0,0,0,0,0,0,h,0,0,0,0,0,0,0
e,0,0,0,0,0,0,0,h,0,0,0,0,0,0,0
0,0,0,0,0,0,0,e,0,e,0,0,0,0,0,0
0,0,0,0,0,0,0,0,e,0,0,0,0,0,0,0
0,0,0,0,0,0,0,0,0,0,0,0,0,0,0,0
0,0,0,0,0,0,0,0,0,0,0,0,0,0,0,0
0,0,0,0,0,0,0,0,0,0,0,0,0,0,0,0
0,0,0,0,0,0,0,0,0,0,0,0,0,0,0,0
0,0,0,0,0,0,0,0,0,0,0,0,0,0,0,0
WAL h,b,a
EXT 3,0 a 3,15
EXT 0,7 8 15,7
PAL 0

ROOM a
0,0,0,0,0,0,0,0,0,0,0,0,0,0,0,0
0,0,0,0,0,0,0,0,0,0,0,0,0,0,0,0
0,0,0,0,0,v,l,i,m,r,l,m,p,0,0,0
0,0,0,0,v,l,i,i,i,i,i,i,m,0,0,0
0,0,0,0,l,i,i,i,i,i,i,i,i,p,0,0
0,0,0,0,x,y,y,y,y,z,i,i,i,m,0,0
0,0,0,0,k,i,i,i,i,w,i,i,i,j,0,0
0,0,0,0,u,i,i,i,i,i,i,i,i,q,0,0
0,0,0,0,l,i,i,i,i,i,i,i,i,n,0,0
0,0,0,0,k,i,i,i,i,i,i,i,j,t,0,0
0,0,0,0,s,k,i,i,i,i,i,j,t,0,0,0
0,0,0,0,0,s,k,j,h,s,o,0,0,0,0,0
0,0,0,0,0,0,0,0,h,0,0,0,0,0,0,0
0,0,0,0,0,0,0,0,h,0,0,0,0,0,0,0
0,0,0,0,0,0,0,0,h,0,0,0,0,0,0,0
0,0,e,0,e,0,0,0,h,0,0,0,0,0,0,0
WAL h,i,j,p,q,r,s,t,o,n,m,l,k,u,v,b,a
EXT 3,15 9 3,0
END 0 9,6
PAL 0

TIL 10
00111100
01111110
11111111
11111111
11111111
11111111
11111111
11111111

TIL 11
11000000
10000000
00000000
00000000
00000000
00000000
00000000
00000000

TIL a
11111111
11111111
11111111
11111111
11111111
00000000
00000000
11111111

TIL b
11111111
11111111
11111111
11111111
11111111
11111111
11111111
11111111

TIL d
01111110
01000010
01000010
01001010
01000010
01000010
01000010
01111110
>
01111110
01000010
01000010
01000010
01001010
01000010
01000010
01111110

TIL e
00101000
01010100
00101000
01010100
00111000
00010000
00010000
00010000
>
00000000
00010100
00101010
00010100
00101010
00010100
00010000
00010000

TIL f
00000000
00111100
11000011
11111111
11000011
11000011
00111100
00111100
>
00000000
00000000
00111100
00111100
00111100
00111100
00000000
00000000

TIL g
11111111
10000001
10000011
10001111
10111111
11111111
11111111
11111111

TIL h
01010010
01000010
01001010
01000010
01010010
01010010
01000010
01001010

TIL i
11111111
11111111
11111111
11111111
11111111
11111111
11111111
11111111

TIL j
11111111
11111111
11111111
11111111
11111111
11111111
11111110
11111100

TIL k
11111111
11111111
11111111
11111111
11111111
11111111
01111111
00111111

TIL l
00111111
01111111
11111111
11111111
11111111
11111111
11111111
11111111

TIL m
11111100
11111110
11111111
11111111
11111111
11111111
11111111
11111111

TIL n
11111100
11111110
11111111
11111111
11111111
11111111
11111110
11111100

TIL o
11111111
11111111
11111111
11111111
11111111
11111111
01111110
00111100

TIL p
00000000
00000000
00000000
00000000
00000000
00000000
10000000
11000000

TIL q
11000000
10000000
00000000
00000000
00000000
00000000
10000000
11000000

TIL r
00000000
00000000
00000000
00000000
00000000
00000000
10000001
11000011

TIL s
00000011
00000001
00000000
00000000
00000000
00000000
00000000
00000000

TIL t
11000000
10000000
00000000
00000000
00000000
00000000
00000000
00000000

TIL u
00000011
00000001
00000000
00000000
00000000
00000000
00000001
00000011

TIL v
00000000
00000000
00000000
00000000
00000000
00000000
00000001
00000011

TIL w
11111111
11111111
11000011
11111111
11000011
11000011
11111111
11111111

TIL x
11111111
11111011
11111001
10000000
10000000
11111001
11111011
11111111

TIL y
11111111
11111111
11111111
11111111
11111111
11111111
11111111
11111111

TIL z
11111111
11111111
11111111
00000111
00000111
11100111
11000011
11100111

SPR A
00000000
00000000
01010001
01110001
01110010
00111100
00111100
00100100
>
00000000
00000000
00000000
01010001
01110001
01110010
00111100
00111100
POS 1 9,7

SPR a
00000000
00011000
00011000
00001000
00111110
01011101
00011100
00010100
>
00011000
00011000
00001000
00111110
01011101
00011100
00011100
00010100
POS 4 13,8

SPR b
00000000
00000000
00111100
01000010
01011010
01111110
00111100
00000000
POS 4 13,9

SPR c
01001010
01010010
01010010
01000010
01001010
01001010
01000010
00111100
POS 9 8,9

DLG a
Hello Mr.Kitty .

DLG b
"Om, Nom Nom..."

DLG c
A simple tree

DLG d
Hello...

END 0
You get in the box...

END undefined
You get in da box...

