Jung Campus

# BITSY VERSION 4.3

! ROOM_FORMAT 1

PAL 0
18,46,37
104,106,4
255,255,255

PAL 1
6,6,6
52,158,77
255,255,128

PAL 2
85,99,37
132,223,136
198,188,0

ROOM 0
0,1j,r,r,s,r,r,s,r,r,s,r,r,s,r,r
1i,36,1h,37,t,3s,0,t,3u,0,t,26,0,t,0,0
q,1h,3b,1h,t,36,w,t,0,x,t,0,y,t,0,26
q,36,1h,39,1f,0,0,t,26,0,t,0,0,t,3u,0
q,36,37,1g,39,1e,1d,0,0,0,0,0,38,0,0,0
u,v,v,v,1b,1a,19,18,25,0,0,25,0,0,25,0
q,0,11,0,3v,17,16,15,12,12,12,12,12,12,12,12
q,26,0,0,37,0,25,14,0,0,0,0,0,0,0,0
u,v,v,v,0,0,0,14,0,13,12,12,12,12,12,12
q,0,10,0,0,38,0,14,0,14,25,0,0,25,0,0
q,3u,0,0,0,0,25,14,0,14,0,3s,0,0,0,26
u,v,v,v,0,0,0,14,0,14,0,0,3v,0,0,0
q,0,z,0,0,0,0,14,0,14,3t,0,0,0,0,0
q,0,0,26,0,0,25,14,0,14,d,d,d,j,0,3u
u,v,v,v,0,0,0,0,f,e,i,k,n,p,c,0
q,0,0,0,0,0,0,0,g,a,m,l,o,a,b,i
WAL 25,5o,5p,q,r,s,u
EXT 0,0 1 7,15
PAL 0

ROOM 1
0,1t,0,3b,36,1q,1r,1r,1r,1p,0,3t,0,3v,1t,0
3v,1t,37,0,1o,1q,1r,1r,1r,1p,1h,0,0,3c,1t,0
0,1t,3t,1o,0,1q,1r,1r,1r,1p,0,1h,3v,36,1t,3u
0,36,1o,1s,0,0,3w,3w,3w,0,0,1s,1h,0,37,0
d,1o,1s,0,0,0,3w,3w,3w,0,0,0,1s,1h,d,d
3x,3x,3x,3x,3x,0,0,1z,0,0,3x,3x,3x,3x,3x,3x
3x,3x,3x,3x,3x,0,1w,41,1y,0,3x,3x,3x,3x,3x,3x
3x,3x,3x,3x,3x,1w,3y,3z,40,1y,3x,3x,3x,3x,3x,3x
0,1h,0,0,0,1x,1x,1x,1x,1x,0,0,0,1o,0,0
0,3b,1h,1s,0,0,3w,3w,3w,0,0,1s,1o,0,3v,3t
3t,0,0,1h,1s,0,3w,3w,3w,0,1s,1o,0,36,3v,0
0,3b,0,36,1h,0,3w,3w,3w,0,1o,0,0,0,0,0
36,1v,3c,0,0,1l,3w,3w,3w,1n,0,3t,0,3c,1u,0
0,1t,0,0,3t,1k,3w,3w,3w,1m,0,0,0,0,1t,0
3u,1t,37,0,0,1k,3w,3w,3w,1m,0,0,0,0,1t,3t
0,1t,0,0,3v,1k,3w,3w,3w,1m,0,3v,3v,37,1t,0
WAL 1s
EXT 7,15 0 1,1
EXT 8,15 0 1,1
EXT 6,15 0 1,1
EXT 0,7 2 15,15
EXT 0,6 2 15,15
EXT 0,5 2 15,15
EXT 15,7 4 0,7
EXT 15,6 4 0,6
EXT 15,5 4 0,5
EXT 5,0 5 5,15
EXT 6,0 5 6,15
EXT 7,0 5 7,15
EXT 8,0 5 8,15
EXT 9,0 5 9,15
PAL 0

ROOM 2
26,26,1h,0,37,36,2y,2z,2w,2v,2u,0,2m,2n,2o,2p
26,26,26,1h,0,3a,0,2x,2r,2s,2t,36,2l,2e,2f,2g
1h,26,26,26,1h,25,3b,38,2q,3b,0,0,2k,2d,2c,2b
25,1h,26,26,26,1h,0,0,2q,0,0,0,2j,2a,29,28
0,0,1h,26,26,26,1h,3a,0,0,3a,0,3b,2i,3b,27
3b,1s,1s,1h,26,26,26,1h,25,3c,0,38,37,2h,39,27
0,39,0,25,1h,26,26,26,1h,0,39,0,0,2h,3b,27
36,0,0,3c,3a,1h,26,26,26,1h,0,0,3a,0,36,27
0,0,38,0,1s,1s,1h,26,26,26,1h,25,0,39,0,27
0,37,0,0,36,0,25,1h,26,26,26,1h,0,0,0,36
39,0,1w,22,0,3b,0,0,1h,26,26,26,1h,0,3c,0
0,1w,0,0,22,0,39,0,3b,1h,26,26,26,1h,25,3a
1w,0,0,0,0,22,0,35,1s,1s,1h,26,26,26,1h,0
24,33,32,31,30,23,0,34,37,0,25,1h,26,26,26,1h
20,0,0,0,0,21,3a,34,0,0,0,39,1h,26,26,26
20,0,0,0,0,21,0,34,0,0,0,38,0,1h,26,26
EXT 15,15 1 0,7
EXT 0,0 3 15,15
PAL 0

ROOM 3
3e,3e,0,0,3e,3e,0,0,3e,3e,0,0,3e,3e,0,0
0,0,0,0,0,0,0,0,0,0,0,0,0,0,0,0
3e,3e,0,0,3e,3e,0,0,3e,3e,0,0,3e,3e,0,0
3d,3d,3d,3d,3d,3d,3d,3d,3d,3d,3d,3d,3d,3d,3d,3d
36,3a,1h,26,26,26,1h,0,3v,36,3v,3a,0,0,38,37
3v,0,37,1h,26,26,26,1h,25,0,3b,0,0,0,0,0
2w,3a,0,25,1h,26,26,26,1h,0,0,3c,0,0,0,2w
3q,0,1s,1s,38,1h,26,26,26,1h,25,0,3v,0,0,0
3r,3p,0,0,3v,25,1h,26,26,26,1h,0,0,3a,36,0
3t,3u,3o,0,1s,1s,0,1h,26,26,26,1h,25,0,0,3b
3s,3m,3n,0,0,3a,0,25,1h,26,26,26,1h,0,0,3c
3k,3l,0,0,3c,0,1s,1s,0,1h,26,26,26,1h,25,0
3j,0,3f,38,0,3b,0,0,0,25,1h,26,26,26,1h,3v
3i,37,34,36,0,0,0,3b,0,37,0,1h,26,26,26,1h
3h,0,34,0,0,3a,2w,0,0,0,0,25,1h,26,26,26
3g,3v,34,2w,0,0,0,38,0,36,3b,0,37,1h,26,0
WAL 3d
EXT 15,15 2 0,0
PAL 0

ROOM 4
3e,3e,0,0,3e,3e,0,0,3e,3e,0,0,3e,3e,0,0
0,0,0,0,0,0,0,0,0,0,0,0,0,0,0,0
3e,3e,0,0,3e,3e,0,0,3e,3e,0,0,3e,3e,0,0
60,60,60,60,60,60,42,42,60,60,60,60,60,60,60,60
38,0,0,3a,0,0,0,38,0,3c,3b,0,38,0,0,37
3x,3x,3x,3x,3x,3x,3x,3x,3x,3x,3x,3x,3x,3x,3x,3x
3x,3x,3x,3x,3x,3x,3x,3x,3x,3x,3x,3x,3x,3x,3x,3x
3x,3x,3x,3x,3x,3x,3x,3x,3x,3x,3x,3x,3x,3x,3x,3x
37,0,25,0,3c,25,36,0,25,3b,0,25,0,0,25,0
0,0,1s,1s,0,3a,1s,1s,0,0,1s,1s,0,0,1s,1s
38,0,0,0,36,0,0,0,26,0,3c,26,3a,0,38,0
0,36,0,26,0,0,37,0,38,0,0,0,3c,0,2w,37
0,26,0,3c,0,0,0,0,0,38,26,0,0,26,36,0
3b,0,0,0,2w,0,0,0,36,0,0,44,26,0,0,0
3c,38,26,0,37,0,0,0,0,2w,3b,43,0,3b,0,3c
3a,0,0,3b,0,26,0,0,0,26,0,43,36,0,0,26
WAL 60
EXT 0,7 1 15,7
EXT 0,6 1 15,6
EXT 0,5 1 15,5
PAL 0

ROOM 5
4r,0,0,0,0,0,0,0,0,0,0,0,0,0,0,0
0,0,0,0,0,0,4i,0,0,0,0,0,0,0,0,4o
0,0,0,45,0,0,0,0,0,0,4w,0,46,0,0,0
4l,0,0,0,0,0,0,0,0,0,0,0,0,0,0,0
0,0,0,0,0,0,0,0,4d,0,0,0,4z,0,4j,0
0,0,4x,0,4g,0,0,0,0,0,0,0,0,0,0,0
0,0,0,0,0,0,0,0,50,0,0,4b,0,0,0,0
0,4c,0,0,0,0,4s,0,0,0,0,0,0,0,48,0
0,0,0,0,0,0,0,0,0,4h,0,0,0,0,0,0
4v,0,0,0,47,0,0,0,0,0,0,0,0,4u,0,0
0,0,0,0,0,0,0,0,4y,0,0,0,0,0,0,0
0,0,4q,0,0,4t,0,0,0,0,0,49,0,0,0,4m
0,0,0,0,0,0,0,0,0,4p,0,0,0,0,0,0
0,4f,0,0,0,0,4a,0,0,0,0,0,0,0,0,0
0,0,0,4n,0,0,0,0,0,0,4k,0,0,4e,0,0
0,0,0,0,0,0,0,0,0,0,0,0,0,0,0,0
EXT 5,15 1 5,0
EXT 6,15 1 6,0
EXT 7,15 1 7,0
EXT 8,15 1 8,0
EXT 9,15 1 9,0
EXT 7,0 6 6,15
EXT 8,0 6 7,15
END 0 0,0
END 0 3,14
END 0 13,14
END 0 10,14
END 0 15,1
END 0 4,5
END 0 11,6
END 0 9,8
END 0 5,11
END 1 6,13
END 1 8,4
END 1 3,2
END 1 15,11
END 1 0,9
END 1 0,3
END 1 14,4
END 1 13,9
END 1 11,11
END 1 6,7
END 2 6,1
END 2 12,4
END 2 2,5
END 2 1,13
END 2 14,7
END 2 1,7
END 3 10,2
END 3 8,6
END 3 2,11
END 3 8,10
END 3 4,9
END 3 9,12
END 4 12,2
PAL 1

ROOM 6
0,0,0,0,0,0,0,0,0,0,4j,0,0,0,0,0
0,0,0,0,0,0,0,0,0,0,0,0,0,0,0,0
0,0,50,0,0,0,0,4t,0,0,0,0,4n,0,51,0
0,0,0,0,0,4i,0,0,0,0,0,0,0,0,0,0
4h,0,0,0,0,0,0,0,0,0,4y,0,0,4r,0,0
0,0,4m,0,0,0,0,4l,0,0,0,0,0,0,0,0
0,0,0,0,4u,0,0,0,0,0,0,0,0,0,0,0
0,0,0,0,0,0,0,0,0,0,4p,0,0,4v,0,0
0,4q,0,0,51,0,0,0,0,0,0,52,0,0,0,0
0,0,0,0,0,0,0,4x,0,0,0,0,0,0,0,0
0,0,0,0,0,0,0,0,0,0,0,0,0,0,0,0
0,0,4w,0,0,0,0,0,0,0,4s,0,0,4z,0,0
0,0,0,0,0,4o,0,0,0,0,0,0,0,0,0,0
0,0,0,0,0,0,0,0,0,0,0,51,0,0,4k,0
0,4h,0,0,0,0,0,0,0,0,0,0,0,0,0,0
0,0,0,0,0,0,0,0,0,0,0,0,0,4g,0,0
EXT 7,15 5 8,0
EXT 6,15 5 7,0
EXT 11,8 7 7,11
END 3 1,8
END 3 0,4
END 3 2,2
END 3 7,2
END 3 13,15
END 5 1,14
END 5 14,13
END 5 2,11
END 5 5,3
END 5 13,4
END 5 10,0
END 5 13,7
END 5 2,5
END 6 5,12
END 6 13,11
END 6 10,11
END 6 7,9
END 6 10,7
END 6 4,6
END 6 10,4
END 6 7,5
END 6 12,2
END 7 4,8
END 8 14,2
END 8 11,13
PAL 1

ROOM 7
53,53,53,53,53,53,53,0,0,53,53,53,53,53,53,53
53,53,53,0,0,0,3a,0,0,0,0,0,0,53,53,53
53,53,53,0,0,0,0,0,0,5i,0,0,0,53,53,53
53,53,53,0,0,57,5j,5k,5l,5h,58,0,0,53,53,53
53,53,53,0,3a,55,54,5o,5p,54,56,0,5v,53,53,53
53,53,53,0,0,55,59,5b,5a,59,56,0,0,53,53,53
53,53,53,0,5u,5n,0,0,0,0,5m,0,0,53,53,53
53,53,53,5t,3b,5s,0,0,0,0,0,0,0,53,53,53
53,53,53,0,0,0,0,0,0,0,0,0,0,53,53,53
53,53,53,0,3a,0,0,0,0,0,0,0,5r,53,53,53
53,53,53,0,0,0,0,0,0,0,5w,0,0,53,53,53
53,53,53,0,5x,5z,0,0,0,0,0,0,5y,53,53,53
53,53,53,53,53,53,53,53,53,53,53,53,53,53,53,53
53,53,53,53,53,53,53,53,53,53,53,53,53,53,53,53
53,53,53,53,53,53,53,53,53,53,53,53,53,53,53,53
53,53,53,53,53,53,53,53,53,53,53,53,53,53,53,53
WAL 53,5c,5d,5f,54,5q
ITM 0 12,3
END 9 7,1
END 9 8,1
PAL 2

TIL 10
00000000
00111111
00100001
00100101
00100101
00111111
00000000
00000000

TIL 11
00000000
00000111
00001010
00010010
00010010
00001010
00000111
00000000

TIL 12
00000000
00000000
00000000
11011011
00000000
00000000
00000000
00000000

TIL 13
00000000
00000000
00000000
00010110
00000000
00010000
00010000
00000000

TIL 14
00000000
00010000
00010000
00000000
00010000
00010000
00000000
00010000

TIL 15
00000100
00000010
00000001
00000000
00000000
10000000
01000000
00100000

TIL 16
00000000
00000000
00000000
10000000
01000000
00111111
00000000
00000000

TIL 17
00001000
00000100
00000010
00000001
00000000
00000000
00000000
00000000

TIL 18
00000000
00000000
00000000
10000000
01000000
00100000
00010000
00001000

TIL 19
00110000
00011000
00001100
00000011
00000000
00000000
00000000
00000000

TIL 20
10000000
10000000
10000000
10000000
10000000
10000000
10000000
10000000

TIL 21
00000001
00000001
00000001
00000001
00000001
00000001
00000001
00000001

TIL 22
10000000
01000000
00100000
00010000
00001000
00000100
00000010
00000001

TIL 23
11111111
00000001
00000001
00000001
00000001
00000001
00000001
00000001

TIL 24
11111111
10000000
10000000
10000000
10000000
10000000
10000000
10000000

TIL 25
00000000
00000000
00111100
01000010
10000001
01000010
00111100
00111100

TIL 26
00000000
01000010
00000000
01001000
00000000
00010000
00000001
00000000

TIL 27
00000100
00000111
00000110
00000111
00000100
00000111
00000111
00000100

TIL 28
10000101
10000111
10000100
01000111
00100101
01010111
10011100
00000111

TIL 29
01001000
01001000
01000100
10100100
01010100
00111000
01000111
10000000

TIL 30
11111111
00010000
00010000
00010000
11110000
00000000
00000000
00000000

TIL 31
11111111
00010000
00010000
00010000
00011111
00000000
00000000
00000000

TIL 32
11111111
00000100
00000100
00000100
11111100
00000000
00000000
00000000

TIL 33
11111111
00000100
00000100
00000100
00000111
00000000
00000000
00000000

TIL 34
00001000
00001000
00001000
00001000
00001000
00001000
00001000
00001000

TIL 35
00001111
00001111
00001000
00001000
00001000
00001000
00001000
00001000

TIL 36
00000000
00000000
00000000
00000000
00000000
00111000
00101000
00010000

TIL 37
00000000
00000000
00000000
00000110
00000100
00001100
00000100
00000100

TIL 38
00000000
00000000
00000000
00000010
00000000
00010000
00000000
00000000

TIL 39
00000001
00000000
00000000
00100000
00000000
00000010
00100000
00000000

TIL 40
10000000
01000000
00100000
00010000
00001000
00000100
00000010
11111111

TIL 41
10000001
01000010
00100100
00011000
00011000
00100100
01000010
10000001

TIL 42
00000000
00000000
00000000
00000000
00000000
00000000
11111111
11111111

TIL 43
00001000
00001000
00001000
00001000
00001000
00001000
00001000
00001000

TIL 44
00001111
00001111
00001000
00001000
00001000
00001000
00001000
00001000

TIL 45
11111111
10000001
10111101
10000101
10001001
10010001
10111101
10000001

TIL 46
11111111
10000001
10111101
10000101
10011101
10000101
10111101
10000001

TIL 47
11111111
10000001
10111101
10100101
10101101
10101001
10111001
10000001

TIL 48
11111111
10000001
10111101
10001001
10001001
10001001
10001001
10000001

TIL 49
11111111
10000001
10100001
10101001
10111101
10001001
10001001
10000001

TIL 50
11111111
10000001
10111101
10001001
10001001
10001001
10111001
10000001

TIL 51
11111111
10000001
10111101
10100001
10100001
10100001
10111101
10000001

TIL 52
11111111
10000001
10111101
10000101
10000101
10000101
10111101
10000001

TIL 53
11111111
11111111
11111111
11111111
11111111
11111111
11111111
11111111

TIL 54
01111110
01011010
01011010
01000010
01111110
01100110
01111110
01000010

TIL 55
00000001
00000001
00000001
00000001
00000001
00000001
00000001
00000001

TIL 56
10000000
10000000
10000000
10000000
10000000
10000000
10000000
10000000

TIL 57
00000000
00000000
00000000
00000000
00000000
00000000
00000000
00000001

TIL 58
00000000
00000000
00000000
00000000
00000000
00000000
00000000
10000000

TIL 59
00000000
00000000
00000000
00000000
00000000
00000000
00000000
11111111

TIL 60
00000000
00000000
00000000
00000000
00000000
00000000
11111111
11111111

TIL a
00000000
00000000
00000000
00000000
00000000
11111111
01000010
01111110

TIL b
00001000
00001000
00001000
00001110
00001010
11111111
00000000
00000000

TIL c
10000000
11000000
11100000
11110000
11111000
11111000
00001000
00001000

TIL d
00000000
00000000
00000000
00000000
00000000
00000000
00000000
11111111

TIL e
00000001
00000011
00011111
00111111
01111111
11111111
00000000
00000000

TIL f
00000000
00000000
00000000
00000000
00000000
00011111
00100000
01000000

TIL g
01000000
01000000
01111000
01101000
01011000
01111111
00000000
00000000

TIL h
00000000
00000000
00000000
00000000
00000000
11111111
00000000
00000000

TIL i
11110000
11110000
11110000
11110000
11110000
11000000
01000000
01000000

TIL j
00000011
00000011
00000001
00000001
00000001
00000001
00000001
11111111

TIL k
00100100
00100100
00100100
00100100
00100100
00100100
00100100
10100100

TIL l
10100100
00100100
01000100
10000100
00000011
11111111
00000000
00000000

TIL m
01000001
01000000
01000000
00100000
00011111
11111111
00000000
00000000

TIL n
00000100
00000100
00000100
00000100
00000100
00000111
00000100
00010100

TIL o
00110100
00000100
00001000
00010000
11100000
11111111
00000000
00000000

TIL p
00000000
00000000
00000000
00000000
00000000
11111111
00000000
00000000

TIL q
11110000
11110000
11110000
11110000
11110000
11110000
11110000
11110000

TIL r
11111111
11111111
11111111
11111111
00000000
00000000
00000000
00000000

TIL s
11111111
11111111
11111111
11111111
00001000
00001000
00001000
00001000

TIL t
00001000
00001000
00001000
00001000
00001000
00001000
00001000
00001000

TIL u
11110000
11110000
11110000
11110000
11111111
11110000
11110000
11110000

TIL v
00000000
00000000
00000000
00000000
11111111
00000000
00000000
00000000

TIL w
00000000
00000000
00011000
00101000
00001000
00001000
00001000
00111110

TIL x
00000000
00000000
00111100
00000100
00111100
00100000
00100000
00111100

TIL y
00000000
00000000
00111100
00000100
00111100
00000100
00000100
00111100

TIL z
00000000
00111111
00100001
00100001
00100001
00000000
00000000
00000000

TIL 1a
00000000
00000000
00000000
10000000
01000000
00100000
00010000
00001000

TIL 1b
00001000
00000100
00000010
00000001
00000000
00000000
00000000
00000000

TIL 1c
00000000
00000000
00000000
10000000
01000000
00100000
00010000
00001000

TIL 1d
00000000
00000000
00000000
00000000
00000000
11000000
01100000
00100000

TIL 1e
10000000
00100000
00011000
00000100
00000010
00000001
00000000
00000000

TIL 1f
00001000
00001000
10001000
01001000
00101000
00011000
00001110
00001001

TIL 1g
10000000
11000000
01110000
00001111
00000000
00000000
00000000
00000000

TIL 1h
10000000
01000000
00100000
00010000
00001000
00000100
00000010
00000001

TIL 1i
11110000
11110000
11110000
11110000
11111000
11110100
11110010
11110001

TIL 1j
11111111
11111111
11111111
11111111
00001000
00000100
00000010
00000001

TIL 1k
00100000
00100000
00100000
00100000
00100000
00100000
00100000
00100000

TIL 1l
10000000
01000000
00100000
00100000
00100000
00100000
00100000
00100000

TIL 1m
00000100
00000100
00000100
00000100
00000100
00000100
00000100
00000100

TIL 1n
00000001
00000010
00000100
00000100
00000100
00000100
00000100
00000100

TIL 1o
00000001
00000010
00000100
00001000
00010000
00100000
01000000
10000000

TIL 1p
00000001
11111111
00000001
00000001
11111111
00000001
00000001
11111111

TIL 1q
10000000
11111111
10000000
10000000
11111111
10000000
10000000
11111111

TIL 1r
00000000
11111111
00000000
00000000
11111111
00000000
00000000
11111111

TIL 1s
00000000
00000000
00000000
00000000
11111111
10000001
10000001
10000001

TIL 1t
00000100
00000100
00000100
00000100
00000100
00000100
00000100
00000100

TIL 1u
00011110
00100010
01000010
01111110
00000100
00000100
00000100
00000100

TIL 1v
00011111
00010001
00001111
00000100
00000100
00000100
00000100
00000100

TIL 1w
00000001
00000011
00000111
00001111
00011111
00111111
01111111
11111111

TIL 1x
11111111
00000000
00000000
00000000
00000000
00000000
00000000
00000000

TIL 1y
10000000
11000000
11100000
11110000
11111000
11111100
11111110
11111111

TIL 1z
00000000
00000000
00000000
00000000
00011000
00111100
01111110
11111111

TIL 2a
00010000
00001000
00000100
00000110
00000011
00000000
00000000
00000000

TIL 2b
00001000
00110000
01000110
01001001
10010000
01100000
01000000
10000000

TIL 2c
00011000
00110001
01100111
01001100
00110001
01100111
01000100
01001000

TIL 2d
00101110
10000001
10000110
00011100
10101000
00001000
10101000
11111000

TIL 2e
00000000
00000000
00000001
00000010
00000110
00011100
00100000
11110000

TIL 2f
00000000
00111110
11100011
00000000
00001100
00110011
01100110
00000000

TIL 2g
00000000
10000110
01111111
00000000
00111100
00100110
00000010
00010100

TIL 2h
00110010
00110110
00100010
00110010
00100010
00100110
00101110
00100110

TIL 2i
11100011
00111010
00110010
00100111
00100100
00100110
00110110
00100010

TIL 2j
10001000
11100000
10001000
00011010
10011000
11001101
01110110
00000011

TIL 2k
01100000
00111101
11000000
10010001
11010001
00100000
00110000
00100000

TIL 2l
00011100
00001111
00011011
00010000
00100100
11100001
11010100
11000000

TIL 2m
00000000
00000011
00000110
00000100
00001100
00011011
00010001
00010000

TIL 2n
01110000
11000000
00000000
00011111
11100001
11100000
00100000
00011000

TIL 2o
11000000
10000000
00000111
01111001
10001110
00000011
00000001
00000011

TIL 2p
00011000
11110000
00000110
00111111
01100110
01000111
10000001
00000001

TIL 2q
00110010
00100010
00101010
00100010
00100010
00100110
00111010
00100010

TIL 2r
00000000
10000001
00100110
10100010
11111111
00100110
00100110
00100110

TIL 2s
01000011
11000010
00001110
00111000
11111111
00000000
00000000
00000000

TIL 2t
00000010
00000110
00001100
00011000
11100000
00000000
00000000
00000000

TIL 2u
00000001
11000101
01100110
00010010
01110011
00100010
00110010
11100010

TIL 2v
00000000
00101100
00101000
00100010
10000100
00001000
00111000
00100000

TIL 2w
00000000
00010000
10011000
00000000
00001001
10110000
10100000
00000000

TIL 2x
10010000
11000110
01100000
00111100
00000111
00000000
00000000
00000000

TIL 2y
00011000
01110110
01011100
01000000
01100011
00111000
00001110
00000011

TIL 2z
00110000
11100010
00000010
00010110
01110000
00111100
00100110
00100000

TIL 3a
00000000
00000000
00000100
00000000
00100000
00000100
00010000
00000000

TIL 3b
00000000
00000000
00000100
00010000
00000000
00000000
00100100
00000000

TIL 3c
00000000
00000000
00000000
01100000
00100000
00110000
00100000
00100000

TIL 3d
00000000
00000000
00000000
00000000
00000000
00000000
00000000
11111111

TIL 3e
11111111
10000001
10000001
11111111
10000001
10000001
11111111
00000000

TIL 3f
00001111
00001111
00001000
00001000
00001000
00001000
00001000
00001000

TIL 3g
00000010
10111110
11011110
11011110
10111010
11100110
01101110
11111110

TIL 3h
01100100
00101100
00101100
01101010
11101100
10101100
00111110
11111010

TIL 3i
01100100
10010100
01100100
01110100
11010100
10100110
11111010
01011010

TIL 3j
11111000
01101000
11100100
01101100
10101100
10111100
11111100
11010100

TIL 3k
00000000
00000000
00001000
00011110
00010100
00110001
01100010
00000100

TIL 3l
01001100
10011000
00110000
01100000
10000000
00000000
00000000
00000000

TIL 3m
00000000
00000100
00001100
00011000
11100010
00000010
00001101
00001111

TIL 3n
00000010
00101110
00101000
01001000
11011000
10010000
00100000
11000000

TIL 3o
01001100
01110100
00000110
01100010
00000010
00000010
01100010
00000010

TIL 3p
11000000
01110000
00011000
00001000
01100100
00110100
01010110
00010011

TIL 3q
00000000
00000000
00000000
11111000
00000100
00000110
01111011
00000001

TIL 3r
00000000
00000000
00000000
00010000
00010000
00010000
00000000
00000000

TIL 3s
00000000
00000000
00000000
00000000
00000110
00011000
00100000
00000000

TIL 3t
00000000
00000000
00000000
00000000
00010000
00110000
00000000
00000000

TIL 3u
00000000
00001000
00010000
00100000
00000000
00011000
00110000
00000000

TIL 3v
00000000
00010000
00000010
01000000
00000000
00100000
00000000
00000000

TIL 3w
11101010
00111011
00101110
11101010
00111011
00101110
11101010
00111011

TIL 3x
11111111
00100001
11111111
00001000
11111111
01000100
01000100
11111111

TIL 3y
00000001
00000010
00000100
00001000
00010000
00100000
01000000
11111111

TIL 3z
10000001
01000010
00100100
00011000
00011000
00100100
01000010
11111111

TIL 4a
11111111
10000001
11000101
10101001
10010001
10010001
10010001
10010001

TIL 4b
11111111
10000001
10011001
10100001
10111001
10100101
10100101
10011001

TIL 4c
11111111
10000001
10110001
10010001
10010001
10010001
10010001
10111001

TIL 4d
11111111
10000001
10100001
10100001
10100001
10100001
10111101
10000001

TIL 4e
11111111
10000001
10111101
10000101
10000101
10000101
10000101
10000001

TIL 4f
11111111
10000001
10111101
10100101
10100101
10100101
10111101
10000001

TIL 4g
11111111
10000001
10111101
10100001
10100001
10111001
10100001
10100001

TIL 4h
11111111
10000001
10111101
10100101
10111101
10101001
10101001
10111001

TIL 4i
11111111
10000001
10001001
10010101
10100011
10111111
10100011
10100011

TIL 4j
11111111
10000001
10111001
10101001
10101001
10111001
10001001
10001001

TIL 4k
11111111
10000001
10011101
10000101
10011101
10010001
10011101
10000001

TIL 4l
11111111
10000001
10000101
10100101
10110101
10101101
10100101
10100101

TIL 4m
11111111
10000001
10111001
10100101
10100101
10100101
10100101
10111001

TIL 4n
11111111
10000001
10111001
10100101
10100101
10111001
10100001
10100001

TIL 4o
11111111
10000001
11000011
10100101
10011001
10011001
10100101
11000011

TIL 4p
11111111
10000001
10100101
10100101
10100101
10111101
10100101
10100101

TIL 4q
11111111
10000001
10000001
10011111
10000101
10000101
10011101
10000001

TIL 4r
11111111
10000001
10111111
10000011
10000101
10001001
10010001
10100001

TIL 4s
11111111
10000001
10010001
10000001
10010001
10010001
10010001
10010001

TIL 4t
11111111
10000001
10111101
10100001
10111001
10100001
10111101
10000001

TIL 4u
11111111
10000001
10111101
10100101
10001101
10001001
10000001
10001001

TIL 4v
11111111
10000001
10111101
10001001
10011001
10010001
10010001
10011101

TIL 4w
11111111
10000001
10111101
10000101
10000101
10000101
10000101
10000101

TIL 4x
11111111
10000001
10011001
10011001
10111101
10011001
10011001
10000001

TIL 4y
11111111
10000001
10000001
11000011
10100101
10100101
10011001
10000001

TIL 4z
11111111
10000001
10111101
10100101
10100101
10100101
10111101
10000001

TIL 5a
00000000
00010000
01011110
00111010
10101010
00101010
00101010
11111111

TIL 5b
00000000
00000000
01001000
00000000
00000010
00000000
00010000
11111111

TIL 5c
10000000
10000000
10000000
10000000
10000000
10000000
10000000
10000000

TIL 5d
11111111
11111111
01010101
11000101
11111111
01001000
00001010
11111111

TIL 5e
10100000
11111110
10100110
10100010
11111011
10101010
10111010
11111111

TIL 5f
11100000
00100000
00100000
00100000
11100000
00100000
00100000
11111111

TIL 5g
00111100
00100100
00111111
11100010
00100010
00111111
11100100
00111111

TIL 5h
10000100
00001000
00111000
00100000
00100000
00010100
00001010
11111111

TIL 5i
00001111
00110011
01000100
01000100
01000100
00100010
01000010
10000010

TIL 5j
00000000
00000000
00000001
00000010
00000010
00000010
00000010
11111111

TIL 5k
00000000
00000011
11000100
01001000
00110000
00000000
00000000
11111111

TIL 5l
00000011
00001101
10010001
01100010
00000100
00000010
00000100
11111111

TIL 5m
10000000
10000000
10000000
10000000
10000000
00000000
00000000
00000000

TIL 5n
00000001
00000001
00000001
00000001
00000001
00000000
00000000
00000000

TIL 5o
00000000
00000000
00111111
00100000
00100000
00111111
00000011
00000000

TIL 5p
00001000
00010000
11111100
00000100
00000100
11111100
11000000
00000000

TIL 5q
11000100
10010100
10000111
11111100
10000000
11111111
10001000
10111000

TIL 5r
00010000
00010000
00000000
00000001
00100000
01000000
00010000
00000000

TIL 5s
00000000
00000000
00000010
00000000
00001000
00100000
00001000
00000000

TIL 5t
00000000
10000000
00100000
00000000
00000000
00010000
00000000
00000000

TIL 5u
00000000
00000000
00100000
00000100
00000000
00010000
00000000
00000000

TIL 5v
00000000
00001000
00000000
00000000
00000100
00000100
00000000
10000000

TIL 5w
00000000
00000000
00000000
01000010
00000000
00100000
00000000
00000000

TIL 5x
00000000
00000000
00000000
00000000
01001000
00000000
00001000
01000000

TIL 5y
00001000
01000000
00111010
00101000
01111010
01011000
01011010
01010000

TIL 5z
00000000
01000000
00000010
10100000
01110100
11111000
11111110
11100010

SPR 10
00000000
00000000
00000100
01010010
00000000
00100000
00001000
00000000
>
00000000
01001000
00000000
00010000
00000100
00001000
00100000
00000010
POS 5 6,0

SPR 11
11111111
10100101
10111101
10000001
10000101
10000101
10000001
10000001
POS 7 7,0

SPR 12
11111111
10100101
10111101
10000001
10000101
10000101
10000001
10000001
POS 7 8,0

SPR 13
11111111
10011000
10011000
10011000
11111111
10010110
10010010
10010010
>
11111111
10011000
10011010
10011000
11111111
10010010
10010010
10010010
DLG SPR_q
POS 7 10,1

SPR 14
11111111
10101000
11101010
10101000
11111111
01001001
01001001
01001001
>
11111111
10101000
10101000
10101000
11111111
01001001
01001011
01001001
POS 7 11,1

SPR 15
11111111
00100001
00100101
00100001
11111111
00100101
00100101
00100101
>
11111111
00100001
00101001
00100001
11111111
00100101
00100101
00101101
POS 7 12,1

SPR 16
00100101
00100101
11111111
11111111
00100101
10100101
00100101
11111111
>
00101101
00100101
11111111
11111111
00100101
00101101
00100101
11111111
DLG SPR_p
POS 7 12,2

SPR 17
10010010
10010010
11111111
11111111
10101011
11101110
10101010
11111111
>
10010010
10010010
11111111
11111111
10101010
10111010
10101011
11111111
DLG SPR_o
POS 7 10,2

SPR 18
01001001
01001001
11111111
11111111
10101011
10101010
10111010
11111111
>
01001001
01001001
11111111
11111111
10111010
10101010
10101011
11111111
DLG SPR_n
POS 7 11,2

SPR 19
00010010
00000000
01010010
01111000
11001110
01001010
01101110
01001010
DLG SPR_m
POS 7 7,6

SPR A
00000000
00011000
00011000
01111110
10011001
10011001
00100100
00100100
POS 0 6,12

SPR a
00000000
00000000
00000000
00000000
00000000
01010010
10001000
00000001
>
00000000
00000000
00000000
00000000
00010001
10000100
00101001
00000000
DLG SPR_0
POS 0 15,15

SPR b
00000000
00000001
00000000
00000100
00000001
00010010
00000100
01001001
>
00000001
00000000
00000010
00000001
00001010
00000100
00101001
10010010

SPR c
01010000
10101000
01010100
00101010
00000101
00010101
00101010
01010100
POS 0 7,15

SPR d
00000000
00111000
00011000
00011000
01111110
00001110
00011100
00110100
DLG SPR_1
POS 0 8,12

SPR e
00000000
00000000
10000000
01000000
10100000
01010000
10101000
01010100
>
00000000
00000000
00000000
00000000
00000000
00000000
00000000
00000000
DLG SPR_2
POS 1 2,11

SPR f
00000000
00000000
00000000
00000001
00000010
00000101
00001010
00010101
>
00000000
00000000
00000000
00000000
00000000
00000000
00000000
00000000
DLG SPR_3
POS 1 13,11

SPR g
00000000
00000000
00000000
00000001
00000010
00000101
00001010
00010101
>
00000000
00000000
00000000
00000000
00000000
00000000
00000000
00000000
DLG SPR_4
POS 0 13,12

SPR h
11111111
10100101
10111101
10000001
10000101
10000101
10000001
10000001
DLG SPR_5
POS 2 4,15

SPR i
00000001
01000000
00000100
01001001
00000000
00000000
01011100
00011101
DLG SPR_6
POS 2 10,3

SPR j
00000000
00100000
10100100
00000010
11000000
00000100
11100000
11100000
DLG SPR_7
POS 2 9,15

SPR k
00000000
00000001
00000010
00000101
00001010
00010101
00101010
01010101
>
00000000
00000000
00000000
00000000
00000000
00000000
00000000
00000000
DLG SPR_8
POS 2 7,11

SPR l
11111111
10100101
10111101
10000001
10000001
10000011
10000111
10000001
DLG SPR_9
POS 3 5,3

SPR m
11111111
10100101
10111101
10000001
10000001
10000011
10000111
10000001
DLG SPR_a
POS 3 4,3

SPR n
11111111
10100101
10111101
10000001
10000001
10000011
10000111
10000001
DLG SPR_b
POS 3 3,3

SPR o
11111111
10100101
10111101
10000001
10000001
10000011
10000111
10000001
DLG SPR_c
POS 3 2,3

SPR p
00000000
00000001
00000010
00000101
00001010
00010101
00101010
01010101
>
00000000
00000000
00000000
00000000
00000000
00000000
00000000
00000000
DLG SPR_d
POS 3 2,11

SPR q
00000001
10100000
00000100
01001000
00000001
01011000
00011000
00011000
DLG SPR_e
POS 3 13,5

SPR r
11111111
10100101
10111101
10000001
10000101
10000101
10000001
10000001
DLG SPR_f
POS 4 6,3

SPR s
11111111
10100101
10111101
10000001
10000101
10000101
10000001
10000001
DLG SPR_g
POS 4 7,3

SPR t
01000010
00001000
01000000
00000100
10000000
00111000
00111010
00111001
DLG SPR_h
POS 4 6,13

SPR u
00000000
00000100
00100000
10001001
00000000
01011100
00011100
00011100
DLG SPR_i
POS 1 10,9

SPR v
00100000
00000100
10000000
00001000
10000010
00111000
00111000
00111000
DLG SPR_j
POS 4 15,8

SPR w
00000000
00000000
00000000
00000001
00000010
00000101
00001010
00010101
>
00000000
00000000
00000000
00000000
00000000
00000000
00000000
00000000
DLG SPR_k
POS 4 11,12

SPR x
00000000
01000000
00000000
00001000
00000000
00000001
10010000
00000000
>
00000000
00000100
00000000
00000000
00101010
00000000
00100000
00000000
POS 6 5,15

SPR y
00000000
00110000
00000000
01000011
00000001
00101000
00000000
00000000
>
00000000
00000000
00000000
01001000
00000000
00000011
00001001
00000000
POS 6 8,15

SPR z
00000000
00000000
00000001
00010000
00100010
00010000
01000000
00000000
>
00000000
10000000
10000000
00000100
01000000
00001000
00000100
00000000
POS 5 9,0

SPR 1a
00011000
00111100
01111110
11011011
00011000
00011000
00011000
00011000
POS 5 8,2

SPR 1b
00000000
00000000
00000000
00000000
00000000
00000000
00000000
00000000

ITM 0
00000000
00000000
00111111
00100001
00111101
00100001
00101101
00100011
DLG ITM_0

DLG SPR_0
Chugga, Chugga...Chugga

DLG SPR_1
Well, the radio station is still on...see if you can find a way into the broadcast room, there's some expensive equipment in there for sure...Be careful when you get inside though...this place is falling apart...good luck...

DLG SPR_2
I didn't even think terrestial radio still existed...well technically it does...although I'm surprised the broadcast CPU hasn't burnt out after all these years on autoplay...

DLG SPR_3
So this is what they call...college radio...

DLG SPR_4
The radio waves reverberate off the graphite parking lot. This place has an eerie ambience, especially at night. You can almost feel the Northwestern forest slowly surrounding you.

DLG SPR_5
Too bad...the door is locked...I don't think this is the broadcast room though...There's a lot of debris around here...A lot of old notebooks...

DLG SPR_6
"Sandra said the trick was to think of which one you wanted it to be, and then pick the wrong one anyway."

DLG SPR_7
"Billy said the key was somewhere in grounds, but I gave up looking for it."

DLG SPR_8
It's strange, none of the lights are working on campus, yet the intercom system is on...

DLG SPR_9
No...the door is locked to this building. I should try looking somewhere else.

DLG SPR_a
No luck with this door...I should probably look somewhere else...

DLG SPR_b
I guess I can't get into this building...I wonder what all that debris is all over the campus...

DLG SPR_c
I don't think this is the right way to go...

DLG SPR_d
I can't even tell if the sound is coming from these intercoms anymore...the sound is just...everywhere...

DLG SPR_e
"Ok, so Billy told me what the key was last night: 234, XC, 225, AZ, 252, X__...I've had a few ideas, but he keeps telling me I'm looking at it the wrong way..."

DLG SPR_f
Most of these side exits are chained off. The front entrance is caved open though...

DLG SPR_g
I think I can just take the front entrance. There's a lot of debris spread around this campus though...maybe I'll find something interesting...

DLG SPR_h
"I thought I had it figured out, but then Sally said only the dyslexic kids get it on their first try."

DLG SPR_i
"I told her it would help if she was dyslexic...why do engineering students have to have everything spelled out for them?"

DLG SPR_k
The sound coming from these speakers...it's almost kind of intoxicating...if it weren't so dark out, I'd be inclined to sit under one of these trees and read.

DLG SPR_j
"Penny had a great question about the key last night...'Waxing or waning?'...I'd like to think it's waxing, but I would never tell her that...she would just think of me as an optimist...who would want to be one of those these days?"

DLG SPR_l
"""
Doc's lights glare through the parking light, revealing all kinds of bushes and veins of grass escaping up from underneath the unkempt
graphite.
"""

DLG SPR_n
"""

RRRRRRrrrrrrreeEeEeEeEeEeEe... 
"""

DLG SPR_o
Chucka-chuck, ch-chucka-chuck...

DLG SPR_p
Chucka-chuck, ch-chucka-chuck...

DLG SPR_q
Wooooooozzzzz....Wooooooozzzzzz...

DLG SPR_m
"Sandra, I'm so sorry I wasn't able to make it to the last meeting. Billy told me municipal is cutting all power to the campus before they start building the pipeline. We tried to move the modular, but it's so heavy and if we take the oscillators out one at a time, we'll probably get caught...I'm sorry we had to end it this way...I'll just leave Sam running on her internal voltage...it'll fry out all her circutry eventually...but I'd like to think she would have wanted to go out that way...I'd like to think that...I'm sorry, Sandra. Don't forget to grab all your sysex files before the surveyors find this room. See you at the next meetup. 

DLG ITM_0
"""
User Manual:

Straven Technologies..............

The TC-850 is a Straven Technologies flagship collection of our modular synth technologies combining state-of-the-art supercomputing power with molecular-based "empathetic" synthesis. 

SAM's patented AI system is capable of handling significant broadcast loads, supplying over 40,000 hours of output through each of its 7 dedicated outputs, simultaneously. 

Using "direct contact," users can easily fuse consciousness with the synth and control its perimeters free of copious wires or limited human touch, easily allowing mobile access and convenient synthetic transcendence!

Surgeon General Warning: Synthetic "coupling" with AI has not been approved by the NIH as a reliably safe form of neurological activity, and so this product is not approved for use of person's under the age of 21. Person's of legal age but not yet 24, should abstain from long hours "coupling" with this interface. Research currently suggests "coupling" can lead to various dissociative disorders and physical neglect or self-harm.  
"""

END 0
I don't think you found what you were looking for...

END 1
There's more to life than just going through the motions...

END 2
If you put more into something...you tend to take more from it as well..

END 3
Things always seem so simple, once we get through the complications...

END 4
You're on to something...

END 5
Don't look at what it is...what it is doesn't matter to what it should be...

END 6
I don't think this is the way your journey should end...

END 7
"Think of the one you want and pick the wrong one anyway..."

END 8
"Dyslexia has it's advantages..."

END 9
That modular looked pretty circuit bent...I wonder how much money Doc and I can scrap off those voice chips once we get them resoldered. I also found some new cooridinates posted underneath that note he left. Guess they weren't smart enough to code that one, eh. Looks like Doc and I have a new destination...Perla, Minnesota...hmmm
