My Bitter Paranoia

# BITSY VERSION 3.4

! ROOM_FORMAT 1

PAL 0
198,97,1
0,0,0
248,184,88

PAL 1
150,72,1
0,0,0
220,136,10

PAL 2
0,0,0
125,97,45
220,136,10

ROOM 0
k,k,k,1b,c,1e,0,0,0,0,1d,c,1c,k,k,k
k,k,1b,c,1e,0,0,19,1a,0,0,1d,c,1c,k,k
k,k,1e,0,0,0,0,17,18,0,0,0,0,1d,k,k
c,c,12,16,0,16,0,0,0,0,16,0,16,13,c,c
d,d,12,m,0,m,0,0,0,0,m,0,m,13,d,d
e,e,n,o,o,o,o,14,15,o,o,o,o,p,e,e
0,0,0,0,10,10,10,10,10,10,10,10,0,0,0,0
0,0,0,0,0,0,0,10,10,10,0,0,0,0,0,0
0,0,0,0,0,0,0,10,10,10,0,0,0,0,0,0
0,0,0,0,0,0,0,10,10,0,0,0,0,0,0,0
0,0,0,0,0,0,10,10,10,0,0,0,0,0,0,0
0,0,0,0,0,0,10,10,10,10,0,0,0,0,0,0
0,0,0,0,0,0,0,10,10,10,0,0,0,0,0,0
d,d,d,d,d,d,d,d,d,d,d,d,d,d,d,d
c,c,c,c,c,c,c,c,c,c,c,c,c,c,c,c
k,k,k,k,k,k,k,k,k,k,k,k,k,k,k,k
WAL b,o,n,m,q,r,s,13,d,c,e,1d,12
EXT 7,5 1 7,7
EXT 8,5 1 8,7
PAL 0

ROOM 1
k,1b,c,c,c,c,c,c,c,c,c,c,c,c,1c,k
1b,1k,d,d,d,d,d,d,d,d,d,d,d,d,1l,1c
c,d,1m,e,e,e,e,e,e,e,e,e,e,1n,d,c
c,d,e,1r,0,0,0,0,0,0,0,0,1q,e,d,c
c,d,e,0,0,0,0,0,0,0,0,0,0,e,d,c
c,d,e,0,0,m,0,0,0,0,m,0,0,e,d,c
c,d,e,0,0,o,o,14,15,o,o,0,0,e,d,c
c,d,e,0,13,0,0,0,0,0,0,12,0,e,d,c
c,d,e,0,13,0,t,u,u,v,0,12,0,e,d,c
c,d,e,0,13,0,0,x,x,y,0,12,0,e,d,c
c,d,e,0,13,0,0,0,0,0,0,12,0,e,d,c
c,d,e,0,0,r,s,0,0,q,r,0,0,e,d,c
c,d,e,1s,0,0,13,0,0,12,0,0,1t,e,d,c
c,d,1p,e,e,e,e,e,e,e,e,e,e,1o,d,c
1g,1i,d,d,d,d,d,d,d,d,d,d,d,d,1h,1f
k,1g,c,c,c,c,c,c,c,c,c,c,c,c,1f,k
WAL o,n,p,s,r,q,14,15,k,12,13
EXT 7,13 2 7,3
EXT 8,13 2 8,3
PAL 1

ROOM 2
k,1b,c,c,c,c,c,c,c,c,c,c,c,c,1c,k
1b,1k,d,d,d,d,d,d,d,d,d,d,d,d,1l,1c
c,d,1m,e,e,e,e,e,e,e,e,e,e,1n,d,c
c,d,e,1r,0,0,13,0,0,12,0,0,1q,e,d,c
c,d,e,0,0,0,13,0,0,12,0,0,0,e,d,c
c,d,e,0,0,o,p,0,0,n,o,0,0,e,d,c
c,d,e,0,13,0,0,0,0,0,0,12,0,e,d,c
c,d,e,0,13,0,0,0,0,0,0,12,0,e,d,c
c,d,e,0,13,0,0,0,0,0,0,12,0,e,d,c
c,d,e,0,13,0,0,0,0,0,0,12,0,e,d,c
c,d,e,0,13,0,0,0,0,0,0,12,0,e,d,c
c,d,e,0,0,r,s,0,0,q,r,0,0,e,d,c
c,d,e,1s,0,0,13,0,0,12,0,0,1t,e,d,c
c,d,1p,e,e,e,e,e,e,e,e,e,e,1o,d,c
1g,1i,d,d,d,d,d,d,d,d,d,d,d,d,1h,1f
k,1g,c,c,c,c,c,c,c,c,c,c,c,c,1f,k
WAL o,n,p,s,r,q,14,15,k,12,13
EXT 7,12 3 9,3
EXT 8,12 3 10,3
PAL 1

ROOM 3
k,k,k,k,k,k,k,k,k,k,k,k,k,k,k,k
k,1b,c,c,c,c,c,c,c,c,c,c,c,c,1c,k
k,c,1k,d,d,d,d,d,d,d,d,d,d,1l,c,k
k,c,d,e,e,e,e,e,13,0,0,12,e,d,c,k
k,c,d,e,0,0,0,0,13,0,0,12,e,d,c,k
k,c,d,e,0,0,0,0,0,s,1u,12,e,d,c,k
k,c,d,e,0,0,0,0,0,13,1u,12,e,d,c,k
k,c,d,e,0,0,0,0,0,13,1u,12,e,d,c,k
k,c,d,e,0,0,0,0,0,13,1u,12,e,d,c,k
k,c,d,e,0,0,0,0,0,13,1u,0,e,d,c,k
k,c,d,o,o,o,o,o,o,p,1u,n,e,d,c,k
k,c,d,0,0,0,1w,0,0,0,0,0,12,d,c,k
k,c,d,r,r,r,r,r,r,r,r,r,0,d,c,k
k,c,1i,d,d,d,d,d,d,d,d,d,d,1h,c,k
k,1g,c,c,c,c,c,c,c,c,c,c,c,c,1f,k
k,k,k,k,k,k,k,k,k,k,k,k,k,k,k,k
WAL r,n,o,p,q,s,12,13,1v,d
EXT 6,11 4 6,11
PAL 1

ROOM 4
k,k,k,k,k,k,k,k,k,k,k,k,k,k,k,k
k,1b,c,c,c,c,c,c,c,c,c,c,c,c,1c,k
k,c,1k,d,d,d,d,d,d,d,d,d,d,1l,c,k
k,c,d,e,e,e,e,e,13,0,0,12,e,d,c,k
k,c,d,e,0,0,0,0,13,0,0,12,e,d,c,k
k,c,d,e,0,0,0,0,0,s,1u,12,e,d,c,k
k,c,d,e,0,0,0,0,0,13,1u,12,e,d,c,k
k,c,d,e,0,0,0,0,0,13,1u,12,e,d,c,k
k,c,d,e,0,0,0,0,0,13,1u,12,e,d,c,k
k,c,d,e,0,0,0,0,0,13,1u,0,e,d,c,k
k,c,d,o,o,o,o,o,o,p,1u,n,e,d,c,k
k,c,d,0,0,0,0,1v,0,0,0,0,12,d,c,k
k,c,d,r,r,r,r,r,r,r,r,r,0,d,c,k
k,c,1i,d,d,d,d,d,d,d,d,d,d,1h,c,k
k,1g,c,c,c,c,c,c,c,c,c,c,c,c,1f,k
k,k,k,k,k,k,k,k,k,k,k,k,k,k,k,k
WAL r,n,o,p,q,s,12,13,1v
EXT 5,11 5 5,11
PAL 1

ROOM 5
k,k,k,k,k,k,k,k,k,k,k,k,k,k,k,k
k,1b,c,c,c,c,c,c,c,c,c,c,c,c,1c,k
k,c,1k,d,d,d,d,d,d,d,d,d,d,1l,c,k
k,c,d,e,e,e,e,e,13,0,0,12,e,d,c,k
k,c,d,e,0,0,0,0,13,0,0,12,e,d,c,k
k,c,d,e,0,0,0,0,0,s,1u,12,e,d,c,k
k,c,d,e,0,0,0,0,0,13,1u,12,e,d,c,k
k,c,d,e,0,0,0,0,0,13,1u,12,e,d,c,k
k,c,d,e,0,0,0,0,0,13,1u,12,e,d,c,k
k,c,d,e,0,0,0,0,0,13,1u,0,e,d,c,k
k,c,d,o,o,o,o,o,o,p,1u,n,e,d,c,k
k,c,d,0,0,0,1w,0,0,0,0,0,12,d,c,k
k,c,d,r,r,r,r,r,r,r,r,r,0,d,c,k
k,c,1i,d,d,d,d,d,d,d,d,d,d,1h,c,k
k,1g,c,c,c,c,c,c,c,c,c,c,c,c,1f,k
k,k,k,k,k,k,k,k,k,k,k,k,k,k,k,k
WAL r,n,o,p,q,s,12,13,1v,1w
EXT 2,11 6 11,8
PAL 1

ROOM 6
k,k,k,k,k,k,k,k,k,k,k,k,k,k,k,k
k,1b,c,c,c,c,c,c,c,c,c,c,c,c,1c,k
k,c,1k,d,d,d,d,d,d,d,d,d,d,1l,c,k
k,c,d,1m,e,e,e,e,e,e,e,e,1n,d,c,k
k,c,d,e,0,0,0,0,0,0,0,0,e,d,c,k
k,c,d,e,0,0,0,0,0,0,0,0,e,d,c,k
k,c,d,e,1y,0,0,1y,0,0,1y,0,e,d,c,k
k,c,d,e,o,o,o,o,o,o,o,o,e,d,c,k
k,c,d,e,0,0,0,0,0,0,0,0,e,d,c,k
k,c,d,e,r,s,0,0,q,r,r,r,e,d,c,k
k,c,d,e,0,0,r,r,0,0,0,0,e,d,c,k
k,c,d,e,0,0,0,0,0,0,0,0,e,d,c,k
k,c,d,1p,e,e,e,e,e,e,e,e,1o,d,c,k
k,c,1i,d,d,d,d,d,d,d,d,d,d,1h,c,k
k,1g,c,c,c,c,c,c,c,c,c,c,c,c,1f,k
k,k,k,k,k,k,k,k,k,k,k,k,k,k,k,k
WAL r,n,o,p,s,q,e
EXT 8,8 7 8,8
PAL 1

ROOM 7
k,k,k,k,k,k,k,k,k,k,k,k,k,k,k,k
k,1b,c,c,c,c,c,c,c,c,c,c,c,c,1c,k
k,c,1k,d,d,d,d,d,d,d,d,d,d,1l,c,k
k,c,d,1m,e,e,e,e,e,e,e,e,1n,d,c,k
k,c,d,e,0,0,0,0,0,0,0,0,e,d,c,k
k,c,d,e,0,0,0,0,0,0,0,0,e,d,c,k
k,c,d,e,1y,0,0,1y,0,0,1y,0,e,d,c,k
k,c,d,e,o,o,o,o,o,o,o,o,e,d,c,k
k,c,d,e,0,0,0,0,0,0,0,0,e,d,c,k
k,c,d,e,r,s,0,0,q,r,r,r,e,d,c,k
k,c,d,e,0,0,r,r,0,0,0,0,e,d,c,k
k,c,d,e,0,0,0,0,0,0,0,0,e,d,c,k
k,c,d,1p,e,e,e,e,e,e,e,e,1o,d,c,k
k,c,1i,d,d,d,d,d,d,d,d,d,d,1h,c,k
k,1g,c,c,c,c,c,c,c,c,c,c,c,c,1f,k
k,k,k,k,k,k,k,k,k,k,k,k,k,k,k,k
WAL r,n,o,p,s,q
EXT 7,8 8 7,8
PAL 1

ROOM 8
k,k,k,k,k,k,k,k,k,k,k,k,k,k,k,k
k,1b,c,c,c,c,c,c,c,c,c,c,c,c,1c,k
k,c,1k,d,d,d,d,d,d,d,d,d,d,1l,c,k
k,c,d,1m,e,e,e,e,e,e,e,e,1n,d,c,k
k,c,d,e,0,0,0,0,0,0,0,0,e,d,c,k
k,c,d,e,0,0,0,0,0,0,0,0,e,d,c,k
k,c,d,e,1y,0,0,1y,0,0,1y,0,e,d,c,k
k,c,d,e,o,o,o,o,o,o,o,o,e,d,c,k
k,c,d,e,0,0,0,0,0,0,0,0,e,d,c,k
k,c,d,e,r,s,0,0,q,r,r,r,e,d,c,k
k,c,d,e,0,0,r,r,0,0,0,0,e,d,c,k
k,c,d,e,0,0,0,0,0,0,0,0,e,d,c,k
k,c,d,1p,e,e,e,e,e,e,e,e,1o,d,c,k
k,c,1i,d,d,d,d,d,d,d,d,d,d,1h,c,k
k,1g,c,c,c,c,c,c,c,c,c,c,c,c,1f,k
k,k,k,k,k,k,k,k,k,k,k,k,k,k,k,k
WAL r,n,o,p,s,q,e
EXT 4,8 9 12,10
PAL 1

ROOM 9
k,k,k,k,k,k,k,k,k,k,k,k,k,k,k,k
k,k,k,k,k,k,k,k,k,k,k,k,k,k,k,k
k,k,1b,c,c,c,c,c,c,c,c,c,c,1c,k,k
k,k,c,1k,d,d,d,1u,d,d,d,d,1l,c,k,k
k,k,c,d,1m,e,e,1u,e,e,e,1n,d,c,k,k
k,k,c,d,e,0,13,1u,12,0,0,e,d,c,k,k
k,k,c,d,e,0,13,1u,12,0,0,e,d,c,k,k
k,k,c,d,e,0,13,1u,12,0,0,e,d,c,k,k
k,k,c,d,e,0,13,1u,12,0,0,e,d,c,k,k
k,k,c,d,e,0,p,1u,n,o,o,o,o,c,k,k
k,k,c,d,e,13,0,0,0,0,0,0,0,c,k,k
k,k,c,d,e,e,r,r,r,r,r,r,r,c,k,k
k,k,c,1i,d,d,d,d,d,d,d,d,1h,c,k,k
k,k,1g,c,c,c,c,c,c,c,c,c,c,1f,k,k
k,k,k,k,k,k,k,k,k,k,k,k,k,k,k,k
k,k,k,k,k,k,k,k,k,k,k,k,k,k,k,k
WAL o,r,n,p
EXT 7,7 a 7,7
PAL 1

ROOM a
k,k,k,k,k,k,k,k,k,k,k,k,k,k,1z,1z
k,k,k,k,k,k,k,k,k,k,k,k,k,k,k,k
k,k,1b,c,c,c,c,c,c,c,c,c,c,1c,k,k
k,k,c,1k,d,d,d,1u,d,d,d,d,1l,c,k,k
k,k,c,d,1m,e,e,1u,e,e,e,1n,d,c,k,k
k,k,c,d,e,0,13,1u,12,0,0,e,d,c,k,k
k,k,c,d,e,0,13,1u,12,0,0,e,d,c,k,k
k,k,c,d,e,0,13,1u,12,0,0,e,d,c,k,k
k,k,c,d,e,0,13,1u,12,0,0,e,d,c,k,k
k,k,c,d,e,0,p,1u,n,o,o,o,o,c,k,k
k,k,c,d,e,13,0,0,0,0,0,0,0,c,k,k
k,k,c,d,e,e,r,r,r,r,r,r,r,c,k,k
k,k,c,1i,d,d,d,d,d,d,d,d,1h,c,k,k
k,k,1g,c,c,c,c,c,c,c,c,c,c,1f,k,k
k,k,k,k,k,k,k,k,k,k,k,k,k,k,k,k
1z,1z,k,k,k,k,k,k,k,k,k,k,k,k,k,k
WAL o,r,n,p,e,d
EXT 7,3 b 6,15
PAL 1

ROOM b
k,k,k,k,k,k,k,k,k,k,k,k,k,k,k,k
k,k,k,k,k,k,k,k,k,1u,k,k,k,k,k,k
k,k,1b,c,c,c,c,c,c,1u,c,c,c,1c,k,k
k,k,c,1k,d,d,d,d,d,1u,d,d,1l,c,k,k
k,k,c,d,1m,e,e,e,e,1u,e,1n,d,c,k,k
k,k,c,d,e,1r,0,0,13,1u,1q,e,d,c,k,k
k,k,c,d,e,0,0,0,13,1u,12,e,d,c,k,k
k,k,c,d,e,0,o,o,p,1u,12,e,d,c,k,k
k,k,c,d,e,13,0,0,0,0,12,e,d,c,k,k
k,k,c,d,e,13,0,0,0,0,12,e,d,c,k,k
k,k,c,d,e,1s,1u,q,r,r,1t,e,d,c,k,k
k,k,c,d,1p,e,1u,e,e,e,e,1o,d,c,k,k
k,k,c,1i,d,d,1u,d,d,d,d,d,1h,c,k,k
k,k,1g,c,c,c,1u,c,c,c,c,c,c,1f,k,k
k,k,k,k,k,k,1u,k,k,k,k,k,k,k,k,k
k,k,k,k,k,k,1u,k,k,k,k,k,k,k,k,k
WAL 13,12,q,e,c,d,k,1q,1s,s,r,n,o,p
EXT 6,11 c 6,11
PAL 1

ROOM c
k,k,1z,1z,k,k,1z,1z,k,k,k,k,k,k,k,k
k,k,k,k,k,k,k,k,k,1u,k,k,k,k,k,k
k,k,1b,c,c,c,c,c,c,1u,c,c,c,1c,1z,1z
k,k,c,1k,d,d,d,d,d,1u,d,d,1l,c,k,k
k,k,c,d,1m,e,e,e,e,1u,e,1n,d,c,k,k
k,k,c,d,e,0,0,0,13,1u,12,e,d,c,k,k
k,k,c,d,e,0,0,0,13,1u,12,e,d,c,k,k
1z,1z,c,d,e,0,o,o,p,1u,12,e,d,c,k,k
k,k,c,d,e,13,0,0,0,0,12,e,d,c,k,k
k,k,c,d,e,13,0,0,0,0,12,e,d,c,k,k
k,k,c,d,e,13,1u,q,r,r,0,e,d,c,k,k
k,k,c,d,1p,e,1u,e,e,e,e,1o,d,c,k,k
k,k,c,1i,d,d,1u,d,d,d,d,d,1h,c,1z,1z
k,k,1g,c,c,c,1u,c,c,c,c,c,c,1f,k,k
1z,1z,k,k,k,k,1u,k,k,k,k,k,k,k,k,k
k,k,1z,1z,k,k,1u,k,k,k,k,k,k,k,k,k
WAL 13,12,q,e,c,d,k,o,r,n,p,s
EXT 9,5 d 9,5
PAL 1

ROOM d
k,k,1z,1z,k,k,1z,1z,k,k,k,k,k,1z,1z,k
k,k,k,k,k,k,k,k,k,1u,1z,1z,k,k,k,k
1z,1z,1b,c,c,c,c,c,c,1u,c,c,c,1c,1z,1z
k,k,c,1k,d,d,d,d,d,1u,d,d,1l,c,k,k
k,k,c,d,1m,e,e,e,e,1u,e,1n,d,c,k,k
k,k,c,d,e,0,0,0,13,1u,12,e,d,c,k,k
k,k,c,d,e,0,0,0,13,1u,12,e,d,c,k,k
1z,1z,c,d,e,0,o,o,p,1u,12,e,d,c,k,k
k,k,c,d,e,13,0,0,0,0,12,e,d,c,1z,1z
k,k,c,d,e,13,0,0,0,0,12,e,d,c,k,k
1z,1z,c,d,e,13,1u,q,r,r,0,e,d,c,k,k
k,k,c,d,1p,e,1u,e,e,e,e,1o,d,c,k,k
k,k,c,1i,d,d,1u,d,d,d,d,d,1h,c,1z,1z
k,k,1g,c,c,c,1u,c,c,c,c,c,c,1f,k,k
1z,1z,k,k,k,k,1u,k,k,k,k,k,k,1z,1z,k
k,k,1z,1z,k,k,1u,k,k,k,1z,1z,k,k,k,k
WAL 13,12,q,e,c,d,k,p,o,n,r,s
EXT 9,1 e 7,15
PAL 1

ROOM e
k,k,k,1z,1z,k,k,k,k,1z,1z,k,k,k,1z,1z
1z,1z,k,k,k,k,k,k,k,k,k,k,k,k,k,k
k,k,k,k,k,k,1z,1z,k,k,k,k,k,k,1z,1z
k,k,k,1b,c,c,c,c,c,c,c,c,1c,k,k,k
1z,1z,k,c,1k,d,d,1u,d,d,d,1l,c,k,k,k
k,k,k,c,d,1m,e,1u,e,e,1n,d,c,k,1z,1z
k,k,k,c,d,e,0,1u,o,0,e,d,c,k,k,k
k,k,k,c,d,e,13,0,0,12,e,d,c,k,k,k
k,k,k,c,d,e,13,0,0,12,e,d,c,1z,1z,k
k,1z,1z,c,d,e,0,1u,r,0,e,d,c,k,k,k
k,k,k,c,d,1p,e,1u,e,e,1o,d,c,k,1z,1z
1z,1z,k,c,1i,d,d,1u,d,d,d,1h,c,k,k,k
k,k,k,1g,c,c,c,1u,c,c,c,c,1f,1z,1z,k
k,k,k,k,k,k,k,1u,k,k,k,k,k,k,k,k
k,k,1z,1z,k,k,k,1u,k,1z,1z,k,k,k,k,k
k,k,k,k,1z,1z,k,1u,k,k,k,k,k,k,1z,1z
WAL c,k,o,12,13,r,d,e
EXT 7,4 f 7,15
PAL 1

ROOM f
k,k,k,k,k,k,k,k,k,k,k,k,k,k,k,k
k,k,k,k,k,k,k,k,k,k,k,k,k,k,k,k
k,k,k,k,k,k,k,k,k,k,k,k,k,k,k,k
k,k,k,k,k,k,k,k,k,k,k,k,k,k,k,k
k,k,k,k,k,k,k,k,k,k,k,k,k,k,k,k
k,k,k,k,k,k,k,k,k,k,k,k,k,k,k,k
k,k,k,k,k,k,k,k,k,k,k,k,k,k,k,k
k,k,k,k,k,k,k,k,k,k,k,k,k,k,k,k
k,k,k,k,1b,c,c,c,c,c,c,1c,k,k,k,k
k,k,k,k,c,1k,d,d,d,d,1l,c,k,k,k,k
k,k,k,k,c,d,1m,e,e,1n,d,c,k,k,k,k
k,k,k,k,c,d,e,1u,12,e,d,c,k,k,k,k
k,k,k,k,c,d,e,1u,12,e,d,c,k,k,k,k
k,k,k,k,c,d,1p,1u,e,1o,d,c,k,k,k,k
k,k,k,k,c,1i,d,1u,d,d,1h,c,k,k,k,k
k,k,k,k,1g,c,c,1u,c,c,c,1f,k,k,k,k
WAL e,d,12,c,k
EXT 7,11 g 7,11
PAL 1

ROOM g
k,k,k,k,k,k,k,k,k,k,k,k,k,k,k,k
k,k,k,k,k,k,k,k,k,k,k,k,k,k,k,k
k,k,k,k,k,k,k,k,k,k,k,k,k,k,k,k
k,k,k,k,k,k,k,k,k,k,k,k,k,k,k,k
k,k,k,k,k,k,k,k,k,k,k,k,k,k,k,k
k,k,k,k,k,k,k,k,k,k,k,k,k,k,k,k
k,k,k,k,k,k,k,k,k,k,k,k,k,k,k,k
k,k,k,k,k,k,k,k,k,k,k,k,k,k,k,k
k,k,k,k,1b,c,c,c,c,c,c,1c,k,k,k,k
k,k,k,k,c,1k,d,d,d,d,1l,c,k,k,k,k
k,k,k,k,c,d,1m,e,e,1n,d,c,k,k,k,k
k,k,k,k,c,d,e,1u,12,e,d,c,k,k,k,k
k,k,k,k,c,d,e,1u,12,e,d,c,k,k,k,k
k,k,k,k,c,d,1p,1u,e,1o,d,c,k,k,k,k
k,k,k,k,c,1i,d,1u,d,d,1h,c,k,k,k,k
k,k,k,k,1g,c,c,1u,c,c,c,1f,k,k,k,k
WAL e,d,12,c,k
EXT 7,12 h 7,11
PAL 1

ROOM h
k,k,k,k,k,k,k,k,k,k,k,k,k,k,k,k
k,k,k,k,k,2a,2c,k,k,2a,2c,k,k,k,k,k
k,k,k,k,k,2f,2e,k,k,2f,2e,k,k,k,k,k
k,k,k,k,k,k,k,k,k,k,k,k,k,k,k,k
k,k,k,k,k,k,k,k,k,k,k,k,k,k,k,k
k,k,k,k,k,k,k,k,k,k,k,k,k,k,k,k
k,k,k,k,k,23,24,24,24,24,25,k,k,k,k,k
k,k,k,k,k,26,27,27,27,27,28,k,k,k,k,k
k,k,k,k,1b,c,c,c,c,c,c,1c,k,k,k,k
k,k,k,k,c,1k,d,d,d,d,1l,c,k,k,k,k
k,k,k,k,c,d,1m,e,e,1n,d,c,k,k,k,k
k,k,k,k,c,d,e,1u,12,e,d,c,k,k,k,k
k,k,k,k,c,d,e,1u,12,e,d,c,k,k,k,k
k,k,k,k,c,d,1p,1u,e,1o,d,c,k,k,k,k
k,k,k,k,c,1i,d,1u,d,d,1h,c,k,k,k,k
k,k,k,k,1g,c,c,1u,c,c,c,1f,k,k,k,k
WAL e,d,12,c,k
EXT 7,12 i 7,11
PAL 1

ROOM i
k,k,k,k,k,k,k,k,k,k,k,k,k,k,k,k
k,k,k,k,k,2i,2k,k,k,2i,2k,k,k,k,k,k
k,k,k,k,k,2h,2g,k,k,2h,2g,k,k,k,k,k
k,k,k,k,k,k,k,k,k,k,k,k,k,k,k,k
k,k,k,k,k,k,k,k,k,k,k,k,k,k,k,k
k,k,k,k,k,k,k,k,k,k,k,k,k,k,k,k
k,k,k,k,k,2l,24,24,24,24,2m,k,k,k,k,k
k,k,k,k,k,2o,27,27,27,27,2p,k,k,k,k,k
k,k,k,k,1b,c,c,c,c,c,c,1c,k,k,k,k
k,k,k,k,c,1k,d,d,d,d,1l,c,k,k,k,k
k,k,k,k,c,d,1m,e,e,1n,d,c,k,k,k,k
k,k,k,k,c,d,e,1u,12,e,d,c,k,k,k,k
k,k,k,k,c,d,e,1u,12,e,d,c,k,k,k,k
k,k,k,k,c,d,1p,1u,e,1o,d,c,k,k,k,k
k,k,k,k,c,1i,d,1u,d,d,1h,c,k,k,k,k
k,k,k,k,1g,c,c,1u,c,c,c,1f,k,k,k,k
WAL e,d,12,c,k
END 0 7,10
END 0 7,12
PAL 1

TIL 10
00001111
00000000
11110001
00010001
11110001
00000000
00001111
00001001

TIL 11
10000011
00000000
01110000
00000000
00001110
00000000
11000001
00000000

TIL 12
10000000
10000000
10000000
10000000
10000000
10000000
10000000
10000000

TIL 13
00000001
00000001
00000001
00000001
00000001
00000001
00000001
00000001

TIL 14
01111111
01000001
01000001
01000001
01000011
01000001
01000001
11111111

TIL 15
11111110
10000010
10000010
10000010
11000010
10000010
10000010
11111111

TIL 16
00000000
00000000
00000000
00000000
00010000
00101000
01000100
10000010

TIL 17
01000100
01000100
01000100
01000110
01000100
01000100
01000100
01111111

TIL 18
00100010
00100010
00100010
00110010
00100010
00100010
00100010
11111110

TIL 19
00000011
00000100
00001000
00010000
00100000
01000000
10000000
11111111

TIL 20
11110000
11101111
11011111
10111100
01111000
10110001
11010011
11100000

TIL 21
00001111
11110111
11111011
00111101
00011110
10001101
11001011
00000111

TIL 22
11101111
11101111
11101111
11101111
11101111
11101111
11101111
11100001

TIL 23
01111111
00111111
01000000
01110111
01110111
01110111
01110111
10110111

TIL 24
11111111
11111111
00000000
11011111
11011111
11011111
11011111
11011111

TIL 25
11111110
11111100
00000010
11101110
11101110
11101110
11101110
11101101

TIL 26
10000000
11011101
11011101
11101101
11110000
11111111
11111111
11111111

TIL 27
00000000
11110111
11110111
11110111
00000000
11111111
11111111
11111111

TIL 28
00000001
10111011
10111011
10110111
00001111
11111111
11111111
11111111

TIL b
11111111
11010101
10101001
11010001
10100001
11000001
10000001
11111111

TIL c
10101010
01010101
10101010
01010101
10101010
01010101
10101010
01010101

TIL d
10101010
00000000
10101010
00000000
10101010
00000000
10101010
00000000

TIL e
10001000
00000000
00100010
00000000
10001000
00000000
00100010
00000000

TIL f
00111100
01111110
01011010
01011010
01111110
01111110
01010100
00000000
>
00111100
01111110
01011010
01011010
01111110
01111110
00101010
00000000

TIL g
00000000
00111100
01111110
10011001
10011001
01111110
01010100
00101010
>
00111100
01111110
10011001
10011001
01111110
01010100
00000000
00101010

TIL h
00000000
00000000
00000000
00000000
10000001
11000011
00100100
00000000
>
00000000
10000001
11000011
10100101
10100101
10100101
01100110
00000000

TIL i
00111100
01111110
11111111
11111111
11111111
11111111
01111110
00111100

TIL j
00111100
01111110
00011000
01011010
00011000
11111111
01000010
00111100
>
00111100
01111110
11111111
11111111
11111111
11111111
01111110
00111100

TIL k
11111111
11111111
11111111
11111111
11111111
11111111
11111111
11111111

TIL l
01111110
01000010
01000010
01000010
01000110
01000010
01000010
11000011

TIL m
11111110
10010010
10010010
11111110
10010010
10010010
11111110
00000000

TIL n
10000000
10000000
10000000
10000000
10000000
10000000
10000000
11111111

TIL o
00000000
00000000
00000000
00000000
00000000
00000000
00000000
11111111

TIL p
00000001
00000001
00000001
00000001
00000001
00000001
00000001
11111111

TIL q
11111111
10000000
10000000
10000000
10000000
10000000
10000000
10000000

TIL r
11111111
00000000
00000000
00000000
00000000
00000000
00000000
00000000

TIL s
11111111
00000001
00000001
00000001
00000001
00000001
00000001
00000001

TIL t
11111111
10101010
11010101
10100000
11000011
10100100
11001000
10101000

TIL u
11111111
10101010
01010101
00000000
11111111
00000000
00000000
00000000

TIL v
11111111
10101011
01010101
00000011
11000101
00100011
00010101
00010011

TIL w
11001000
10101000
11000100
10100011
11000000
10101010
11010101
11111111

TIL x
00000000
00000000
00000000
11111111
00000000
10101010
01010101
11111111

TIL y
00010101
00010011
00100101
11000011
00000101
10101011
01010101
11111111

TIL z
01000000
01000000
11111111
00000100
00000100
11111111
00010000
11111111

TIL 1a
11000000
00100000
00010000
00001000
00000100
00000010
00000001
11111111

TIL 1b
11111110
11111101
11111010
11110101
11101010
11010101
10101010
01010101

TIL 1c
11111111
01111111
10111111
01011111
10101111
01010111
10101011
01010101

TIL 1d
10101010
01010101
00101010
00010101
00001010
00000101
00000010
00000001

TIL 1e
10101010
01010100
10101000
01010000
10100000
01000000
10000000
00000000

TIL 1f
10101010
01010101
10101011
01010111
10101111
01011111
10111111
01111111

TIL 1g
10101010
11010101
11101010
11110101
11111010
11111101
11111110
11111111

TIL 1h
10101010
00000001
10101010
00000101
10101010
00010101
10101010
01010101

TIL 1i
10101010
01000000
10101010
01010000
10101010
01010100
10101010
01010101

TIL 1k
10101010
01010100
10101010
01010000
10101010
01000000
10101010
00000000

TIL 1l
10101010
01010101
10101010
00010101
10101010
00000101
10101010
00000001

TIL 1m
10101010
00000000
10101010
00000000
10101000
00000000
10100010
00000000

TIL 1n
10101010
00000000
00101010
00000000
10001010
00000000
00100010
00000000

TIL 1o
10001010
00000000
00101010
00000000
10101010
00000000
10101010
00000000

TIL 1p
10101000
00000000
10100010
00000000
10101010
00000000
10101010
00000000

TIL 1q
10001000
00000000
00100010
00000000
00001000
00000000
00000010
00000000

TIL 1r
10001000
00000000
00100000
00000000
10000000
00000000
00000000
00000000

TIL 1s
10000000
00000000
00100000
00000000
10001000
00000000
00100010
00000000

TIL 1t
00000000
00000000
00000010
00000000
00001000
00000000
00100010
00000000

TIL 1u
11111111
10000001
10000001
11111111
10000001
10000001
11111111
10000001

TIL 1v
00000000
00000000
00000000
00000000
00000000
00000000
00000000
00000000

TIL 1w
00000000
00000000
00000000
00000000
00000000
00000000
00000000
00000000

TIL 1x
11111111
11111111
11111111
11111111
11111111
11111111
11111111
11111111
>
01111110
11111111
10011001
10111101
01111110
01010100
00101010
01111110

TIL 1y
00000000
01111111
01001001
01001001
01111111
01001001
01001001
01111111

TIL 1z
11111111
11111111
11000011
10111101
01100110
10111101
11000011
11111111

TIL 2a
11111000
11100111
11011111
10111111
10111111
01111111
01111111
01111111

TIL 2b
00000000
11111111
11111111
11111111
11111111
11111111
11111111
11111111

TIL 2c
00011111
11100111
11111011
11111101
11111101
11111110
11111110
11111110

TIL 2d
11111111
11111111
11111111
11111111
11111111
11111111
11111111
00000000

TIL 2e
00111110
00011110
00001110
00000101
00000101
00000011
00000111
00011111

TIL 2f
01111100
01111000
01110000
10100000
10100000
11000000
11100000
11111000

TIL 2g
00001110
00011110
00011110
01111101
11111101
11111011
11100111
00011111

TIL 2h
01110000
01111000
01111000
10111110
10111111
11011111
11100111
11111000

TIL 2i
11111000
11100111
11011111
10111111
10111110
01111000
01111000
01110000

TIL 2k
00011111
11100111
11111011
11111101
01111101
00011110
00011110
00001110

TIL 2l
01111111
00111111
01000000
01110111
10110111
10110111
11010111
11000111

TIL 2m
11111110
11111100
00000010
11101110
11101101
11101101
11101011
11100011

TIL 2n
11111111
11111111
00000000
11011111
11011111
11011111
11011111
11011111

TIL 2o
11000000
11101101
11101101
11110101
11111000
11111111
11111111
11111111

TIL 2p
00000011
10110111
10110111
10101111
00011111
11111111
11111111
11111111

SPR 10
00000000
00010000
00011000
00011000
00011000
00011000
10011001
01111110
>
00000000
00000000
00010000
00011000
00011000
00011000
10011001
01111110
POS 5 9,4

SPR 11
11111111
10000001
10011001
10111101
10111101
10011001
10111101
11111111
POS 5 4,9

SPR 12
11111111
10000001
10011001
10111101
10111101
10011001
10111101
11111111
POS 5 7,9

SPR 13
11111111
10000001
10011001
10111101
10111101
10011001
10111101
11111111
POS 5 11,9

SPR 14
00000000
00010000
00011000
00011000
00011000
00011000
10011001
01111110
>
00000000
00000000
00010000
00011000
00011000
00011000
10011001
01111110
POS 6 7,9

SPR 15
00000000
00000000
00000000
00000000
00000000
00000000
00000000
00000000

SPR 16
00000000
00010000
00011000
00011000
00011000
00011000
10011001
01111110
>
00000000
00000000
00010000
00011000
00011000
00011000
10011001
01111110
POS 8 7,9

SPR 17
00000000
00000000
00000000
00010000
00011000
00011000
10111101
01111110
>
00000000
00000000
00010000
00011000
00011000
00011000
10111101
01111110
POS a 6,10

SPR 18
10000011
10000001
10000011
10001111
10011111
10111111
10111111
11111111
POS 9 9,8

SPR 19
11000001
10000001
11000001
11110001
11111001
11111101
11111101
11111111
POS 9 10,8

SPR A
00000110
11000110
11111110
01011010
01111110
01111110
00111100
00000100
>
01100000
01100011
01111111
01011010
01111110
01111110
00111100
00100000
POS 0 7,12

SPR b
10000100
01000010
01000010
11111111
11011011
11111111
01111110
00000100
>
00100001
01000010
01000010
11111111
11011011
11111111
01111110
00100000
POS 0 5,8

SPR c
00111100
01111110
01011010
01011010
01111110
01111110
01010100
00000000
>
00111100
01111110
01011010
01011010
01111110
01111110
00101010
00000000

SPR d
00000000
00111100
01111110
10011001
10011001
01111110
01010100
00101010
>
00111100
01111110
10011001
10011001
01111110
01010100
00000000
00101010
POS 7 7,9

SPR e
00000000
00000000
00000000
00000000
10000001
11000011
00100100
00000000
>
00000000
10000001
11000011
10100101
10100101
10100101
01100110
00000000

SPR f
00111100
01111110
11111111
11111111
11111111
11111111
01111110
00111100

SPR g
00000000
00010000
00011000
00011000
00011000
00011000
10011001
01111110
>
00010000
00011000
00011000
00011000
00011000
00011000
10011001
01111110
POS 1 6,9

SPR h
00000000
00010000
00011000
00011000
00011000
00011000
10011001
01111110
>
00000000
00000000
00010000
00011000
00011000
00011000
10011001
01111110
POS 3 9,4

SPR i
00000000
00000000
00000000
00010000
00011000
00011000
10111101
01111110
>
00000000
00000000
00010000
00011000
00011000
00011000
10111101
01111110
POS 9 6,10

SPR j
00000000
00000000
00000000
00000000
00010000
00011000
11111111
01111110
>
00000000
00000000
00000000
00010000
00011000
00011000
11111111
01111110
POS a 6,10

SPR k
00000000
00000000
00000000
00000000
00000000
00010000
11111111
01111110
>
00000000
00000000
00000000
00000000
00010000
00011000
11111111
01111110

SPR l
00000000
00000000
00000000
00000000
00000000
00000000
11111111
01111110
POS g 7,10

SPR m
01111000
11011100
11111110
00001110
11111110
01111110
01111110
00100100
>
01111000
11011100
11111110
00001110
00001110
11111110
01111110
00100100

SPR n
00111100
01110110
01111110
01100000
01111100
00111110
00000110
11111110
>
00011110
00111101
00111111
00110000
00111100
00011110
10000110
01111110

SPR o
00000000
00010000
00011000
00011000
00011000
00011000
10011001
01111110
>
00010000
00011000
00011000
00011000
00011000
00011000
10011001
01111110
POS 2 9,8

SPR p
11111111
10000001
10011001
10111101
10111101
10011001
10111101
11111111
POS 2 5,4

SPR q
11111111
10000001
10011001
10111101
10111101
10011001
10111101
11111111
>
11111111
10000001
10011001
10100101
10100101
10011001
10111101
11111111

SPR r
11111111
10000001
10011001
10111101
10111101
10011001
10111101
11111111
POS 2 10,4

SPR s
00011000
00100100
00100100
00011000
00011000
00111100
00011000
00100100
POS 4 11,11

SPR t
11111111
10000001
10000001
10000001
10000001
10000001
10000001
11111111
POS 4 11,9

SPR u
11111111
10000001
10011001
10111101
10111101
10011001
10111101
11111111
POS 3 11,9

SPR v
11111111
10000001
10011001
10111101
10111101
10011001
10111101
11111111
POS 3 7,9

SPR w
11111111
10000001
10011001
10111101
10111101
10011001
10111101
11111111
POS 3 4,9

SPR x
11111111
10000001
10011001
10100101
10100101
10011001
10111101
11111111
POS 4 4,9

SPR y
11111111
10000001
10011001
10100101
10100101
10011001
10111101
11111111
POS 4 7,9

SPR z
00000000
00010000
00011000
00011000
00011000
00011000
10011001
01111110
>
00000000
00000000
00010000
00011000
00011000
00011000
10011001
01111110
POS 4 9,4

SPR 1a
11111111
10000000
10000011
10000111
10001111
10001011
10001100
10000111
POS 9 9,7

SPR 1b
11111111
00000001
11000001
11100001
11110001
11010001
00110001
11100001
POS 9 10,7

SPR 1c
10000011
10000001
10000011
10001111
10011111
10111111
10111111
11111111
POS a 9,8

SPR 1d
10000011
10000001
10000011
10001111
10011111
10111111
10111111
11111111

SPR 1e
11000001
10000001
11000001
11110001
11111001
11111101
11111101
11111111
POS a 10,8

SPR 1f
11111111
10000000
10000011
10000111
10001111
10001011
10001100
10000111
POS a 9,7

SPR 1g
11111111
00000001
11000001
11100001
11110001
11010001
00110001
11100001
POS a 10,7

SPR 1h
00000000
00000000
00000000
00000000
00010000
00011000
11111111
01111110
>
00000000
00000000
00000000
00010000
00011000
00011000
11111111
01111110
POS c 9,9

SPR 1i
00000000
00000000
00000000
00000000
00010000
00011000
11111111
01111110
>
00000000
00000000
00000000
00010000
00011000
00011000
11111111
01111110
POS b 9,9

SPR 1j
00000000
00000000
00000000
00000000
00010000
00011000
11111111
01111110
>
00000000
00000000
00000000
00010000
00011000
00011000
11111111
01111110
POS d 9,9

SPR 1k
00000000
00000000
00000000
00000000
00000000
00010000
11111111
01111110
>
00000000
00000000
00000000
00000000
00010000
00011000
11111111
01111110
POS e 8,7

SPR 1l
00000000
00000000
00000000
00000000
00000000
00000000
11111111
01111110
POS f 7,10

SPR 1m
00000000
00000000
00000000
00000000
00000000
00000000
11111111
01111110
POS h 7,10

SPR 1n
00000000
00000000
00000000
00000000
00000000
00000000
11111111
01111110

SPR 1o
00000000
00000000
00000000
00000000
00000000
00000000
00000000
00000000

DLG 14
But that fear never left me.

DLG 16
But that fear never left me.

DLG 17
YOUR ONLY SOURCE OF SAFETY IS DYING.

DLG a
I'm a cat

DLG b
Are you planning on going in there? I don't like that look on your face. You're anxious and scared and yet you're still going to do it..... Take my candle. You won't get far without a light source.

DLG g
I don't know why I got into horror in the first place but it was so enchanting that I couldn't look away.

DLG o
I found rpg maker games, I played yume nikki, and Ib and found so many more rpg horror games. I then found games that played on jump scares and shocking imagery to get their fear factor out. I had never even been a horror movie person before but I couldn't stop wanting to be scared.

DLG h
I don't think it's uncommon that after experiencing a piece of horror media, you get a little jumpy, start looking over your shoulder at shadows... Just generally carrying that fear with you for a while.

DLG i
I feared the dark, I hallucinated shadows, I froze at the sound of anything unfamiliar. And that's how I lived. for YEARS.

DLG j
YOUR ONLY SOURCE OF SAFETY IS DYING.

DLG 1h
I could never shake this paranoia, even as an adult. I constantly feared things hiding in my closet, things just beyond my vision, things that I had no idea how to comprehend or understand that had only one intention: to harm or kill me.

DLG 1j
HOW PITIFUL TO ADMIT YOU ARE AFRAID OF MONSTERS

DLG k


DLG 1k
I thought at first what I feared the most were things that were like humans, but not. A kind of uncanny valley supported fear.

DLG l
But as it turns out it was far simpler than that.

DLG 1n
I SEE YOU.

END 0
It was faces.

