Saturday night: Steve's house. All of your friends have gone to sleep. Can you find your way to bed through an unfamiliar living room, using only your shins? Welcome to...                SLEEPOVER!

PAL 0
64,0,64
74,0,74
255,255,128

SET 0
aa0aaaaaaaaaaaaa
a0000aa00000000a
a00000000000000a
a0000000a0aaa00a
aaaa000000aaa00a
aaaa00000000000a
a00000000000aaaa
a000000aaa00aaaa
a000000aaa000aaa
aaa0000aaa000aaa
aaaa00000000aaaa
aaaa00000000000a
aaaa00000000000a
a00000000000000a
aa00000aaa00000a
aaaaaaaaaaaa0aaa
WAL a

TIL a
00000000
01111110
01011010
01111110
01111110
01011010
01111110
00000000

TIL b
00000000
00000000
00000000
00000000
00000000
00000000
00000000
00000000

SPR A
00011000
00011000
00011000
00111100
01111110
10111101
00100100
00100100
POS 0 2,1

SPR a
11111111
11111111
11111111
11111111
11111111
11111111
11111111
11111111
POS 0 2,0

SPR b
00000000
00000000
00000000
00000000
00000000
00000000
00000000
00000000
POS 0 6,2

SPR c
00000000
10000000
10000000
11100001
11111111
11111111
11111111
10000001
POS 0 12,15

SPR d
00000000
00000000
00000000
00000000
00000000
00000000
00000000
00000000
POS 0 11,8

SPR e
00000000
00000000
00000000
00000000
00000000
00000000
00000000
00000000
POS 0 14,1

SPR f
00000000
00000000
00000000
00000000
00000000
00000000
00000000
00000000
POS 0 3,13

SPR g
00000000
00000000
00000000
00000000
00000000
00000000
00000000
00000000
POS 0 1,1

SPR h
00000000
00000000
00000000
00000000
00000000
00000000
00000000
00000000
POS 0 6,12

SPR i
00000000
00000000
00000000
00000000
00000000
00000000
00000000
00000000
POS 0 4,4

SPR j
00000000
00000000
00000000
00000000
00000000
00000000
00000000
00000000
POS 0 7,5

SPR k
00000000
00000000
00000000
00000000
00000000
00000000
00000000
00000000
POS 0 6,8

SPR l
00000000
00000000
00000000
00000000
00000000
00000000
00000000
00000000
POS 0 12,12

SPR m
00000000
00000000
00000000
00000000
00000000
00000000
00000000
00000000
POS 0 8,3

SPR n
00000000
00000000
00000000
00000000
00000000
00000000
00000000
00000000
POS 0 2,6

SPR o
00000000
00000000
00000000
00000000
00000000
00000000
00000000
00000000
POS 0 8,11

SPR p
00000000
00000000
00000000
00000000
00000000
00000000
00000000
00000000
POS 0 4,1

SPR q
00000000
00000000
00000000
00000000
00000000
00000000
00000000
00000000
POS 0 10,14

SPR r
00000000
00000000
00000000
00000000
00000000
00000000
00000000
00000000
POS 0 5,4

SPR s
00000000
00000000
00000000
00000000
00000000
00000000
00000000
00000000
POS 0 5,9

SPR t
00000000
00000000
00000000
00000000
00000000
00000000
00000000
00000000
POS 0 13,3

SPR u
00000000
00000000
00000000
00000000
00000000
00000000
00000000
00000000
POS 0 12,13

SPR v
00000000
00000000
00000000
00000000
00000000
00000000
00000000
00000000
POS 0 3,10

SPR w
00000000
00000000
00000000
00000000
00000000
00000000
00000000
00000000
POS 0 10,6

SPR x
00000000
00000000
00000000
00000000
00000000
00000000
00000000
00000000
POS 0 6,14

SPR y
00000000
00000000
00000000
00000000
00000000
00000000
00000000
00000000
POS 0 10,1

SPR z
00000000
00000000
00000000
00000000
00000000
00000000
00000000
00000000
POS 0 13,3

DLG a
It's the bathroom!

DLG c
Congratulations! You found the bed! But what's that? You have to go to the bathroom? Whelp, back you go...

DLG d
OUCH! You barked your shins on a coffee table.

DLG e
CLATTER! You knocked over a standing lamp...

DLG g
CLATTER! You knocked over a standing lamp...

DLG h
ARGH! You stepped on Sandra!

DLG i
ARGH! You stepped on Steve...

DLG j
SMOOSH! You stepped on something unidentifiable and squishy...

DLG k
RATTLERATTLERATTLE! Oh-oh, that sounded like a cupboard full of expensive heirlooms...

DLG l
GAH! Woops, you stepped on Sophia...

DLG m
YELP! Oh no, you stepped on Spot!

DLG n
BONK! Well, that was definitely the couch...

DLG o
WHOOSH! Wait, was that a bird?

DLG f
OUCH! You barked your shins on a coffee table...

DLG p
CRASH! Who left all these beer bottles on the floor?

DLG q
SQUISH! You stepped on something wet and worrisome...

DLG r
SCRUNCH! You stepped on a pile of chip packets...

DLG s
CRASH!           SHHHH!     You don't know what that was, but now everybody is shushing you...

DLG t
ARGH! Who puts something that pointy at shin-height??

DLG u
REEEOOOW! Oh no! Sorry fluffy...

DLG v
TWANG! Steve's electric guitar went flying...

DLG w
CRACK! You crashed into the open desk drawer...

DLG x
OOF! You stepped on Samson!

DLG y
CLATTER! Who left all these beer bottles on the floor?

DLG z
CRASH! You knocked a priceless painting off the wall...

DLG b
CLANG! You don't know what that was, but it sounded breakable...

