


# BITSY VERSION 4.8

! ROOM_FORMAT 1

PAL 0
NAME Apatia
162,163,168
108,108,110
59,59,59

PAL 1
NAME Caos
212,21,1
255,220,14
0,0,0

PAL 2
NAME Depressao
41,62,92
115,133,184
67,90,164

PAL 3
NAME Ansiedade
48,10,69
89,83,71
133,124,133

ROOM 0
0,0,0,0,0,0,0,0,0,0,0,0,0,0,0,0
0,a,a,a,a,a,a,a,a,a,a,a,a,a,a,0
0,a,0,0,i,0,0,l,0,0,0,0,0,0,a,0
0,a,0,0,k,0,0,j,0,0,0,0,0,0,a,0
0,a,0,0,0,0,0,0,0,0,0,0,0,0,a,0
0,a,0,0,0,0,0,0,0,0,0,0,0,0,a,0
0,a,0,0,0,0,0,0,0,0,0,0,0,0,a,0
0,a,0,0,0,0,0,0,0,0,0,0,0,m,a,0
0,a,0,0,0,0,0,0,0,0,0,0,0,0,a,0
0,a,0,0,0,0,0,0,0,0,0,0,0,0,a,0
0,a,0,0,0,0,0,0,0,0,0,0,0,0,a,0
0,a,0,0,0,0,0,0,0,0,0,0,0,0,a,0
0,a,0,0,0,0,0,0,0,0,0,0,0,0,0,0
0,a,0,0,0,0,0,0,0,0,0,0,0,0,a,0
0,a,a,a,a,a,a,a,a,a,a,a,a,a,a,0
0,0,0,0,0,0,0,0,0,0,0,0,0,0,0,0
NAME inicial
EXT 11,11 2 11,11
EXT 11,12 2 11,12
EXT 12,11 2 12,11
EXT 13,11 2 13,11
EXT 11,13 2 11,13
PAL 0

ROOM 1
0,0,0,0,0,0,0,0,0,0,0,0,0,0,0,0
0,d,d,d,d,d,d,d,d,d,d,d,d,d,d,0
0,d,0,0,0,0,0,0,0,0,0,0,0,0,d,0
0,d,0,0,0,0,0,0,0,0,0,0,0,c,d,0
0,d,0,0,0,c,0,0,0,0,c,0,0,0,d,0
0,d,0,0,0,0,0,0,c,0,0,c,0,0,d,0
0,d,0,0,0,0,0,0,0,0,0,0,0,0,d,0
0,d,c,0,0,0,c,0,0,0,0,0,0,c,d,0
0,d,0,0,c,0,0,0,0,c,0,c,c,c,d,0
0,d,0,0,0,0,0,0,0,0,0,0,0,c,d,0
0,d,c,0,0,c,0,0,0,0,c,0,0,0,d,0
0,d,0,0,0,0,0,0,c,0,0,0,0,c,d,0
0,d,0,0,0,o,0,o,0,0,0,c,c,c,0,0
0,d,0,c,0,0,o,0,0,c,0,0,0,c,d,0
0,d,d,d,d,d,d,d,d,d,d,d,d,d,d,0
0,0,0,0,0,0,0,0,0,0,0,0,0,0,0,0
NAME caos
END 0 15,12
PAL 1

ROOM 2
a,a,a,a,a,a,a,a,a,a,a,a,a,a,a,a
a,0,0,i,0,0,l,0,0,0,0,0,0,0,0,a
a,f,e,k,0,0,j,0,0,0,0,0,0,0,0,a
a,h,g,0,0,0,0,0,0,0,0,0,0,0,0,a
a,0,0,0,0,0,0,0,0,0,0,0,0,0,0,a
a,0,0,0,0,0,0,0,0,0,0,0,0,0,n,a
a,0,0,0,0,0,0,0,0,0,0,0,0,0,0,a
a,0,0,0,0,0,0,0,0,0,0,0,0,0,0,a
a,0,0,0,0,0,0,0,0,0,0,0,0,0,0,a
a,0,0,0,0,0,0,0,0,0,0,0,0,0,0,a
a,0,0,0,0,0,0,0,0,0,0,0,0,0,0,a
a,0,0,0,0,0,0,0,0,0,0,0,0,0,0,a
a,0,0,0,0,0,0,0,0,0,0,0,0,0,0,a
a,0,0,0,0,0,0,0,0,0,0,0,0,0,0,a
a,0,0,0,0,0,0,0,0,0,0,0,0,0,0,a
a,a,a,a,a,a,a,a,a,a,a,a,a,a,a,a
NAME depressao
EXT 2,2 3 7,7
EXT 1,3 3 7,7
EXT 2,3 3 7,7
EXT 1,2 3 7,7
PAL 2

ROOM 3
0,0,0,0,0,0,0,0,0,0,0,0,0,0,0,0
0,a,a,a,a,a,a,a,a,a,a,a,a,a,a,0
0,a,a,a,a,a,a,a,a,a,a,a,a,a,a,0
0,a,a,f,e,0,0,0,0,0,0,0,0,a,a,0
0,a,a,h,g,0,0,0,0,0,0,0,0,a,a,0
0,a,a,0,0,0,0,0,0,0,0,0,0,a,a,0
0,a,a,0,0,0,0,0,0,0,0,0,0,a,a,0
0,a,a,0,0,0,0,0,0,0,0,0,0,a,a,0
0,a,a,0,0,0,0,0,0,0,0,0,0,a,a,0
0,a,a,0,0,0,0,0,0,0,0,0,0,a,a,0
0,a,a,0,0,0,0,0,0,0,0,0,0,a,a,0
0,a,a,0,0,0,0,0,0,0,0,0,0,0,0,0
0,a,a,0,0,0,0,0,0,0,0,0,0,a,a,0
0,a,a,a,a,a,a,a,a,a,a,a,a,a,a,0
0,a,a,a,a,a,a,a,a,a,a,a,a,a,a,0
0,0,0,0,0,0,0,0,0,0,0,0,0,0,0,0
NAME Claustrofobia1
EXT 4,4 4 7,7
EXT 3,4 4 7,7
EXT 4,3 4 7,7
EXT 15,11 3 8,8
PAL 2

ROOM 4
0,0,0,0,0,0,0,0,0,0,0,0,0,0,0,0
0,a,a,a,a,a,a,a,a,a,a,a,a,a,a,0
0,a,a,a,a,a,a,a,a,a,a,a,a,a,a,0
0,a,a,a,a,a,a,a,a,a,a,a,a,a,a,0
0,a,a,a,a,a,a,a,a,a,a,a,a,a,a,0
0,a,a,a,a,f,e,0,0,0,0,a,a,a,a,0
0,a,a,a,a,h,g,0,0,0,0,a,a,a,a,0
0,a,a,a,a,0,0,0,0,0,0,a,a,a,a,0
0,a,a,a,a,0,0,0,0,0,0,a,a,a,a,0
0,a,a,a,a,0,0,0,0,0,0,0,0,0,a,0
0,a,a,a,a,0,0,0,0,0,0,0,0,0,a,0
0,a,a,a,a,a,a,a,a,a,a,a,0,0,a,0
0,a,a,a,a,a,a,a,a,a,a,a,0,0,0,0
0,a,a,a,a,a,a,a,a,a,a,a,a,a,a,0
0,a,a,a,a,a,a,a,a,a,a,a,a,a,a,0
0,0,0,0,0,0,0,0,0,0,0,0,0,0,0,0
NAME Claustrofobia2
EXT 6,6 5 7,7
EXT 5,6 5 7,7
EXT 6,5 5 7,7
EXT 15,12 4 8,8
PAL 3

ROOM 5
0,0,0,0,0,0,0,0,0,0,0,0,0,0,0,0
0,0,0,0,0,0,0,0,0,0,0,0,0,0,0,0
0,0,0,0,0,0,0,0,0,0,0,0,0,0,0,0
0,0,0,0,0,0,0,0,0,0,0,0,0,0,0,0
0,0,0,0,a,a,a,a,a,a,a,a,0,0,0,0
0,0,0,0,a,a,a,a,a,a,a,a,0,0,0,0
0,0,0,0,a,a,a,a,a,a,a,a,0,0,0,0
0,0,0,0,a,a,a,0,0,a,a,a,0,0,0,0
0,0,0,0,a,a,a,0,0,a,a,a,0,0,0,0
0,0,0,0,a,a,a,a,a,a,a,a,0,0,0,0
0,0,0,0,a,a,a,a,a,a,a,a,0,0,0,0
0,0,0,0,a,a,a,a,a,a,a,a,0,0,0,0
0,0,0,0,0,0,0,0,0,0,0,0,0,0,0,0
0,0,0,0,0,0,0,0,0,0,0,0,0,0,0,0
0,0,0,0,0,0,0,0,0,0,0,0,0,0,0,0
0,0,0,0,0,0,0,0,0,0,0,0,0,0,0,0
NAME Claustrofobia 3
ITM 1 7,8
ITM 1 8,7
EXT 8,8 1 6,5
PAL 3

TIL a
11111111
11111111
11111111
11111111
11111111
11111111
11111111
11111111
NAME Parede
WAL true

TIL b
10011111
01110101
10111010
00111101
11001110
01110101
00011011
01110101
>
00000110
11111100
00100110
10100101
01111111
10000101
00000101
10100100
NAME Blocker
WAL true

TIL c
01000000
00010010
10111100
00110010
01011110
01110110
00110100
00011000
>
00000100
10001001
00111000
01101010
01011100
00110010
01111000
00011000
NAME fogo

TIL d
10101010
01111111
11111110
01110111
11101110
01111111
11111110
01010101
>
01010101
10000000
00000001
10010000
00001001
10000000
00000001
10101010
NAME parede caos
WAL true

TIL e
00000000
11111000
00001000
11001000
11001000
00001000
11111000
11111000
NAME camaDCima

TIL f
00000000
00011111
00010000
00010011
00010011
00010000
00011111
00011111
NAME camaECima

TIL g
11111000
11111000
11111000
11111000
11111000
11111000
00001000
00001000
NAME CamaDBaixo

TIL h
00011111
00011111
00011111
00011111
00011111
00011111
00010000
00010000
NAME CamaDCima

TIL i
00000000
00000000
01000000
00000000
00010000
00000000
00000000
00000000
>
00000001
00001000
00000000
00000000
00000000
00000000
00000000
00000000
NAME poeira1

TIL j
00010000
00000000
01000000
00000000
00010000
00000000
00000000
01000000
>
00000001
00001000
00000010
00000000
00000000
00000000
00010000
00000000
NAME poeira2

TIL k
00010000
00000010
01000000
00000000
00000000
00000010
00000000
00000000
>
00000000
00000000
00001000
00000000
00001000
00000000
00000010
00000000
NAME poeira3

TIL l
00000010
00000000
00000000
01000000
00000000
00000000
00000000
00000000
>
00000000
00000000
00000000
00000000
00001000
00000000
00000000
00000000
NAME poeira 4

TIL m
00000000
00000000
00000000
00000000
11101110
00100010
01000100
11101110
>
00000000
00000000
01110111
00010001
00100010
01110111
00000000
00000000
NAME zzzzz

TIL n
00000000
00011100
00100100
00000100
00001000
00001000
00000000
00001000
>
00000000
00000000
00000000
00000000
00000000
00000000
00000000
00000000
NAME ?

TIL o
00011000
00011000
00011000
00011000
00011000
00000000
00011000
00011000
>
00100100
00010100
00010000
00001100
00001000
00000000
00010000
00001100
NAME !

SPR 10
00000000
00000000
00000000
00000000
11100000
11100000
11100000
11100000
>
00000000
00000000
00000000
00000000
11000000
01100000
00100000
00100000
NAME ComputadorD Caos
POS 1 9,2

SPR 11
00000011
01001001
00110110
00110000
00100000
01110000
00110000
00100000
>
00000001
00000011
11111111
11110000
11000000
11000000
11000000
11000000
NAME MesaE Caos
DLG SPR_m
POS 1 8,3

SPR 12
01000000
01100000
11111111
00001111
00000011
00000011
00000011
00000011
>
10000000
11000000
11111100
00111100
00001100
00001100
00001100
00001100
NAME MesaD Caos
DLG SPR_n
POS 1 9,3

SPR 13
11111111
10000000
10101010
10101010
11111111
10010100
10010100
11111111
POS 2 4,1

SPR 14
10000000
10101010
10101010
11111111
10000000
10101010
10101010
11111111
DLG SPR_b
POS 2 4,2

SPR 15
11111111
00000001
01010101
01010101
11111111
01001001
01001001
11111111
POS 2 5,1

SPR 16
00000001
10101001
10101001
11111111
00000001
10101011
10101011
11111111
DLG SPR_a
POS 2 5,2

SPR 17
00100100
00011000
01111110
01000010
01000010
01000010
01111110
00100100
DLG SPR_c
POS 2 2,6

SPR 18
00000001
01100011
11111111
11110000
11000000
11000000
11000000
11000000
DLG SPR_9
POS 2 10,2

SPR 19
10001110
11001110
11111111
00001111
00000011
00000011
00000011
00000011
DLG SPR_8
POS 2 11,2

SPR 20
01111110
01010010
01011010
01101010
01000010
01010110
01100010
01111110
>
01101101
01010010
10000110
01101010
01001010
01011101
10010110
01111110
DLG SPR_1c
POS 1 13,5

SPR A
00011000
00011000
00011000
00111100
01111110
10111101
00100100
00100100
POS 0 4,4

SPR a
00000000
00000000
01010001
01110001
01110010
01111100
00111100
00100100
NAME gato parado
DLG SPR_0
POS 2 14,6

SPR b
00000000
11111000
00001000
11001000
11001000
00001000
11111000
11111000
NAME Cama cimaD
DLG SPR_o
POS 0 3,3

SPR c
11111000
11111000
11111000
11111000
11111000
11111000
00001000
00001000
NAME cama baixoD
DLG SPR_1d
POS 0 3,4

SPR d
11111111
10000000
10101010
10101010
11111111
10010100
10010100
11111111
NAME Estante CimaE
POS 0 5,2

SPR e
10000000
10101010
10101010
11111111
10000000
10101010
10101010
11111111
NAME Estante BaixoD
DLG SPR_3
POS 0 5,3

SPR f
11111111
00000001
01010101
01010101
11111111
01001001
01001001
11111111
NAME Estante CimaD
POS 0 6,2

SPR g
00000001
10101001
10101001
11111111
00000001
10101011
10101011
11111111
NAME Estante BaixoD
DLG SPR_2
POS 0 6,3

SPR h
00100100
00011000
01111110
01010110
01100010
01001010
01111110
00100100
>
00100100
00011000
01111110
01100010
01000110
01010010
01111110
00100100
NAME TV
DLG SPR_1
POS 0 3,6

SPR i
00011111
00011111
00011111
00011111
00011111
00011111
00010000
00010000
NAME Cama BaixoE
DLG SPR_1e
POS 0 2,4

SPR j
00000000
00011111
00010000
00010011
00010011
00010000
00011111
00011111
NAME Cama Cima E
DLG SPR_1f
POS 0 2,3

SPR k
00000001
01100011
11111111
11110000
11000000
11000000
11000000
11000000
NAME MesaE
DLG SPR_5
POS 0 8,3

SPR l
10001110
11001110
11111111
00001111
00000011
00000011
00000011
00000011
NAME MesaD
DLG SPR_4
POS 0 9,3

SPR m
00000000
00000000
00000000
00000000
00000111
00000100
00000100
00000111
NAME ComputadorE
POS 0 8,2

SPR n
00000000
00000000
00000000
00000000
11100000
00101110
00101010
11101110
NAME ComputadorD
POS 0 9,2

SPR o
00000000
00000000
00000000
00000000
01010000
01110010
01110100
00111100
>
00000000
00000000
00000000
00000000
01010000
01110010
01111100
00111100
NAME Gato Dormindo
DLG SPR_6
POS 0 13,8

SPR p
00010100
10000000
01010001
01100001
01110010
01111100
00110101
00100010
>
01000001
00000000
01010000
01110100
01110010
01011100
01111100
10000101
NAME gato animado
DLG SPR_7
POS 1 6,12

SPR q
11101101
10000000
10101010
00101010
10001111
10100100
10100100
11110111
>
11111111
10100010
10100010
10001100
11111111
11000010
11000010
11111111
NAME Estante Cima E Caos
DLG SPR_d
POS 1 5,2

SPR r
10000000
10101010
00101010
10101110
10000000
00101010
10101010
11111010
>
10000000
11000001
11011010
11111111
10101000
11001010
10000001
11111111
NAME Estante Baixo E Caos
DLG SPR_e
POS 1 5,3

SPR s
11011101
00000001
01010100
01010101
11110101
01001001
01001001
10111111
>
11111111
00000101
00011011
11000001
11111111
00001001
01100011
11111111
NAME Estante CimaD Caos
DLG SPR_f
POS 1 6,2

SPR t
00000001
10101000
10101001
10111011
00000001
10101011
10101011
01101111
>
00000011
01011001
01000011
11111111
00110101
00000001
01001011
11111111
NAME Estante BaixoD Caos
DLG SPR_g
POS 1 6,3

SPR u
00000000
00011111
00010000
00010011
00010011
00010000
00011111
00011111
>
00101111
00000000
00100100
00100010
00100010
00110101
00101001
00110111
NAME Cama Cima E Caos
DLG SPR_h
POS 1 2,3

SPR v
00011111
00011111
00011111
00011111
00011111
00011111
00010000
00010000
>
00011111
00110101
00011010
00010101
00101010
00011101
00010010
00100000
NAME Cama BaixoE Caos
DLG SPR_i
POS 1 2,4

SPR w
00000000
11111000
00001000
11001000
11001000
00001000
11111000
11111000
>
10101000
00000000
01010100
00100000
00010100
00000000
10100100
01010000
NAME Cama cimaD Caos
DLG SPR_j
POS 1 3,3

SPR x
11111000
11111000
11111000
11111000
11111000
11111000
00001000
00001000
>
10101000
01011010
11101100
11011000
01010100
11011001
00000000
11010100
NAME cama baixoD Caos
DLG SPR_k
POS 1 3,4

SPR y
00100100
00001000
01111110
01101010
01011100
01110110
00111110
00100100
>
00100000
00011000
00111010
01011110
01111010
01101110
01111110
00100000
NAME TV caos
DLG SPR_l
POS 1 3,6

SPR z
00000000
00000000
00000000
00000000
00000111
00000111
00000011
00000111
>
00000000
00000000
00000000
00000000
00000011
00000110
00000101
00000110
NAME Computador E Caos
POS 1 8,2

SPR 1a
00000000
00000000
00000000
00000000
00000111
00000100
00000100
00000111
POS 2 10,1

SPR 1b
00000000
00000000
00000000
00000000
11100000
00101110
00101010
11101110
POS 2 11,1

SPR 1c
00000000
00000000
00000000
00111100
01100100
00100100
00011000
00000000
>
00001010
00010100
00000000
00111100
01100100
00100100
00011000
00000000
NAME coffee
DLG SPR_p
POS 1 2,9

SPR 1d
00000000
00000000
00000000
00111100
01100100
00100100
00011000
00000000
NAME coffee parado
DLG SPR_q
POS 0 2,9

SPR 1e
00000111
00000101
00001010
11100111
10111101
10100101
11111111
11111111
>
00111000
00101000
01010000
11100111
10111101
10100101
11111111
11111111
NAME rÃ¡dio
DLG SPR_r
POS 0 12,3

SPR 1f
00000000
00000000
00011000
00100100
00100100
00011000
00000000
00000000
NAME pote racao
DLG SPR_t
POS 0 13,10

SPR 1g
01111110
01010010
01011010
01101010
01000010
01010110
01100010
01111110
DLG SPR_s
POS 0 13,5

SPR 1h
01110011
01110001
01110001
01111111
01111111
01110000
01110000
01110000
NAME armario Baixo E
DLG SPR_x
POS 0 2,12

SPR 1j
11001110
10001110
10001110
11111110
11111110
00001110
00001110
00001110
NAME armario baixo D
DLG SPR_w
POS 0 3,12

SPR 1k
11111110
11111110
10001110
10001110
10001110
10001110
10001110
11001110
NAME armario cima D
DLG SPR_v
POS 0 3,11

SPR 1l
01111111
01111111
01110001
01110001
01110001
01110001
01110001
01110011
NAME armario cima E
DLG SPR_u
POS 0 2,11

SPR 1m
00000000
00000000
00000000
00111100
01100100
00100100
00011000
00000000
NAME coffe depressao
DLG SPR_15
POS 2 1,10

SPR 1n
00000000
00000000
00000000
11100111
10111101
10100101
11111111
11111111
DLG SPR_14
POS 2 13,3

SPR 1o
00000000
00000000
00011000
00100100
00100100
00011000
00000000
00000000
DLG SPR_13
POS 2 14,11

SPR 1p
01111110
01010010
01011010
01101010
01000010
01010110
01100010
01111110
DLG SPR_12
POS 2 13,8

SPR 1q
01110011
01110001
01110001
01111111
01111111
01110000
01110000
01110000
DLG SPR_11
POS 2 2,13

SPR 1r
11001110
10001110
10001110
11111110
11111110
00001110
00001110
00001110
DLG SPR_10
POS 2 3,13

SPR 1s
11111110
11111110
10001110
10001110
10001110
10001110
10001110
11001110
DLG SPR_z
POS 2 3,12

SPR 1t
01111111
01111111
01110001
01110001
01110001
01110001
01110001
01110011
DLG SPR_y
POS 2 2,12

SPR 1u
01110011
01110001
01110001
01111111
01111111
01110000
01110000
01110000
>
00100011
10110001
01001001
01110111
00111100
11110000
10010101
10101000
DLG SPR_16
POS 1 2,12

SPR 1v
01111111
01111111
01110001
01110001
01110001
01110001
01110001
01110011
>
01010111
01111010
00110011
00100001
01010100
11110001
01000101
01110001
DLG SPR_17
POS 1 2,11

SPR 1w
11111110
11111110
10001110
10001110
10001110
10001110
10001110
11001110
>
00100100
11101010
10000100
00101110
10001100
10000001
00100110
10001010
DLG SPR_18
POS 1 3,11

SPR 1x
11001110
10001110
10001110
11111110
11111110
00001110
00001110
00001110
>
10000111
10000000
11111000
10011100
11110111
01001111
10100110
00001010
DLG SPR_19
POS 1 3,12

SPR 1y
00000000
00000000
00000000
11100111
10111101
10100101
11111111
11111111
>
00000000
00000000
00000100
10110010
11101101
10110111
01101101
10100111
DLG SPR_1a
POS 1 12,3

SPR 1z
00000000
00000000
00011000
00100100
00100100
00011000
00000000
00000000
>
00000000
00000000
00010000
00001100
00100000
00010100
00000000
00000000
DLG SPR_1b
POS 1 13,10

ITM 1
00000000
00000000
00000000
00000000
00000000
00000000
00000000
00000000
DLG ITM_1

DLG SPR_2
"""
Hmm... o que ler?

{shuffle
  - Derrotista - Joe Sacco
  - Maus - Art Spiegelman
  - V de Vinganca - Alan Moore
  - Watchmen - Alan Moore
  - Palestina: Uma Nacao Ocupada - Joe Sacco
  - Coringa - Brian Azzarello
  - A Piada Mortal - Alan Moore
  - A Ultima CaÃ§ada de Kraven - J. M DeMatteis
  - Namor: As Profundezas - Peter Milligan
  - Magneto: Testamento - Greg Pak
  - Scott Pilgrim Contra o Mundo - Bryan Lee O'Malley
  - Fracasso de Publico - Alex Robinson
  - Fracasso De Publico: Desencontro De Titas - Alex Robinson
  - Fracasso de Publico: Adeus - Alex Robinson
  - Superman: Entre A Foice e o Martelo - Mark Millar
  - Persepolis - Marjane Satrapi
  - Ninguem Vira Adulto de Verdade - Sarah Andersen
}
"""

DLG SPR_6
...

DLG SPR_7
{clr1}{shk}!!!!!!!!{shk}{clr1}

DLG SPR_8
Nada pra jogar.

DLG SPR_9
Nada pra jogar.

DLG SPR_a
"""
{shuffle
- Quanta poeira...
- Nada pra ler.
- Preciso arrumar essa estante.
- Para quem eu emprestei aquele livro mesmo?
- Tantos livros que parei de ler...
- Queria ter mais tempo para ler.
}
"""

DLG SPR_b
"""
{shuffle
- Quanta poeira...
- Nada pra ler.
- Preciso arrumar essa estante.
- Para quem eu emprestei aquele livro mesmo?
- Tantos livros que parei de ler...
- Queria ter mais tempo para ler.
}
"""

DLG SPR_c
Nada pra assistir.

DLG SPR_1
"""
{shuffle
- Tem tantos filmes na minha lista...
- Preciso ver meu seriado antes que falem algum spoiler.
}
"""

DLG SPR_5
"""
{
- celular == 0 ?
29 mensagens recebidas.
{celular = 1}
- celular == 1 ?
"Marcar todas como lidas"...

Resolvido.
{celular = 2}
- celular > 1 ?
E se eu jogasse um pouco?
}
"""

DLG SPR_4
"""
{sequence
- Queria poder jogar o dia todo.
- Como era o nome daquele jogo mesmo? Liaison?
- Tem um bilhete aqui...
- "Saia cedo ou vai se atrasar de novo"
- "Passe no mercado."
- "Termine de varrer a sala quando voltar."
- "Beijos."
- ...
}
"""

DLG SPR_d
{clr1}{shk}!!!!!!!!{shk}{clr1}

DLG SPR_e
{clr1}{shk}!!!!!!!!{shk}{clr1}

DLG SPR_f
{clr1}{shk}!!!!!!!!{shk}{clr1}

DLG SPR_g
{clr1}{shk}!!!!!!!!{shk}{clr1}

DLG SPR_h
{clr1}{shk}!!!!!!!!{shk}{clr1}

DLG SPR_i
{clr1}{shk}!!!!!!!!{shk}{clr1}

DLG SPR_j
{clr1}{shk}!!!!!!!!{shk}{clr1}

DLG SPR_k
{clr1}{shk}!!!!!!!!{shk}{clr1}

DLG SPR_l
{clr1}{shk}!!!!!!!!{shk}{clr1}

DLG SPR_m
{clr1}{shk}!!!!!!!!{shk}{clr1}

DLG SPR_n
{clr1}{shk}!!!!!!!!{shk}{clr1}

DLG ITM_1
"""
{
- {item "1"} > 0 ?
{say "?"}
}
"""

DLG SPR_o
"""
{shuffle
- Queria dormir mais...
- Descansei muito pouco...
- Tenho que arrumar isso...
- Espero dormir melhor nesta noite...
- Droga...
}
"""

DLG SPR_p
{clr2}This is fine.{clr2}

DLG SPR_q
"""
{shuffle
- Esqueci de deixar isso na pia...
- Quanto tempo isso ficou aqui?
- Que cheiro esquisito.
- Uma hora eu lavo isso...
}
"""

DLG SPR_s
"""
{sequence
- Preciso limpar a caixa do gato.
- Onde deixei as sacolinhas?
- ...
- Outra hora resolvo isso...
}
"""

DLG SPR_t
"""
{sequence
- Que gato esfomeado...
- Esqueci de comprar mais comida.
- Droga...
}
"""

DLG SPR_r
"""
{
- radio == 0 ?
Hey you

Out there in the cold

Getting lonely, getting old

Can you feel me?

Hey you

Standing in the aisles

With itchy feet and fading smiles
Can you feel me?

Hey you

Don't help them to bury the light
Don't give in...

...without a fight
{radio = 1}
- radio > 0 ?
...
}
"""

DLG SPR_u
"""
{shuffle
- Camiseta preta...
- Camiseta preta gasta...
- Camiseta cinza...
- Camiseta cinza gasta...
- Camiseta, digo, pijama preto...
- Camiseta furada...
- Camiseta preta e furada...
- Isso deveria estar no cesto de roupas...
}
"""

DLG SPR_v
"""
{shuffle
- Camiseta preta...
- Camiseta preta gasta...
- Camiseta cinza...
- Camiseta cinza gasta...
- Camiseta, digo, pijama preto...
- Camiseta furada...
- Camiseta preta e furada...
- Isso deveria estar no cesto de roupas...
}
"""

DLG SPR_w
"""
{shuffle
- Camiseta preta...
- Camiseta preta gasta...
- Camiseta cinza...
- Camiseta cinza gasta...
- Camiseta, digo, pijama preto...
- Camiseta furada...
- Camiseta preta e furada...
- Isso deveria estar no cesto de roupas...
}
"""

DLG SPR_x
"""
{shuffle
- Camiseta preta...
- Camiseta preta gasta...
- Camiseta cinza...
- Camiseta cinza gasta...
- Camiseta, digo, pijama preto...
- Camiseta furada...
- Camiseta preta e furada...
- Isso deveria estar no cesto de roupas...
}
"""

DLG SPR_y
...

DLG SPR_z
...

DLG SPR_10
...

DLG SPR_11
...

DLG SPR_12
Que sujeira...

DLG SPR_13
Sem comida...

DLG SPR_14
Melhor deixar desligado mesmo.

DLG SPR_15
Depois levo isso pra pia...

DLG SPR_3
"""
Hmm... o que ler?

{shuffle
  - O Alienista - Machado de Assis
  - O Caminho de Casa - Yaa Gyasi
  - Todo dia a mesma noite: a historia nao contada da Boate Kiss - Daniela Arbex
  - Rise of the Videogame Zinesters: How Freaks, Normals, Amateurs, Artists, Dreamers, Drop-outs, Queers, Housewives, and People Like You Are Taking Back an Art Form - Anna Anthropy
  - Deuses americanos - Neil Gaiman
  - Neuromancer - William Gibson
  - O Exercito de um Homem So - Moacyr Scliar
  - The Warriors: Os Selvagens da Noite - Sol Yurick
  - O Hobbit - J.R.R. Tolkien
  - Historias Extraordinarias - Edgar Allan Poe
  - Laranja Mecanica - Anthony Burgess
  - Videogames e Mitologia - Flavia Gasi
  - Os Sete - Andre Vianco
  - Clube da Luta - Chuck Palahniuk
  - Cryptonomicon - Neal Stephenson
  - O Conto da Aia - Margaret Atwood
  - O Homem que Calculava - Malba Tahan
  - A Mao Esquerda da Escuridao - Ursula K. Le Guin
  - Mulheres, raca e classe - Angela Davis
  - Americanah - Chimamanda Ngozi Adichie
  - Historia da Revolucao Cubana - Aviva Chomsky
  - Doctor Who: Shada - Gareth Roberts
  - A Guerra nao tem Rosto de Mulher - Svetlana Aleksievitch
  - Pense Pequeno: e Termine o seu Primeiro Videogame - Thais Weiller
}
"""

DLG SPR_16
{clr1}{shk}!!!!!!!!{shk}{clr1}

DLG SPR_17
{clr1}{shk}!!!!!!!!{shk}{clr1}

DLG SPR_18
{clr1}{shk}!!!!!!!!{shk}{clr1}

DLG SPR_19
{clr1}{shk}!!!!!!!!{shk}{clr1}

DLG SPR_1a
{clr1}{shk}!!!!!!!!{shk}{clr1}

DLG SPR_1b
{clr1}{shk}!!!!!!!!{shk}{clr1}

DLG SPR_1c
{clr1}{shk}!!!!!!!!{shk}{clr1}

DLG SPR_1d
"""
{shuffle
- Queria dormir mais...
- Descansei muito pouco...
- Tenho que arrumar isso...
- Espero dormir melhor nesta noite...
- Droga...
}
"""

DLG SPR_1e
"""
{shuffle
- Queria dormir mais...
- Descansei muito pouco...
- Tenho que arrumar isso...
- Espero dormir melhor nesta noite...
- Droga...
}
"""

DLG SPR_1f
"""
{shuffle
- Queria dormir mais...
- Descansei muito pouco...
- Tenho que arrumar isso...
- Espero dormir melhor nesta noite...
- Droga...
}
"""

DLG SPR_0
"""
{sequence
  - Que foi?
  - Quer comida?
  - Quer agua?
  - Quer que eu limpe a caixa?
  - ...
}
"""

END 0
Obrigado por jogar.

VAR celular
0

VAR radio
0


