
Histoire de LAPIN / Bunny's Tale

# BITSY VERSION 4.5

! ROOM_FORMAT 1

PAL 0
112,187,247
235,255,252
110,255,128

ROOM 0
b,e,b,e,b,b,e,b,b,b,c,b,b,b,e,b
b,b,b,b,c,b,c,c,b,e,b,b,c,b,b,b
b,e,c,b,b,b,c,e,b,c,b,b,b,e,c,b
b,b,b,b,b,b,c,b,c,b,b,c,b,b,b,c
e,e,b,b,b,b,b,c,b,b,b,b,b,b,b,e
0,0,0,0,0,0,0,0,0,0,0,0,0,0,0,0
0,0,0,0,0,0,0,0,0,0,0,0,0,0,0,0
0,0,0,0,0,0,0,0,0,0,0,0,0,0,0,0
0,0,0,0,0,0,0,0,0,0,0,0,0,0,0,0
0,0,0,0,0,0,0,0,0,0,0,0,0,0,0,0
0,0,0,0,0,0,0,0,0,0,0,0,0,0,0,0
0,0,0,0,0,0,0,0,0,0,0,0,0,0,0,0
0,0,0,0,0,0,0,0,0,0,0,0,0,0,0,0
0,0,0,0,0,0,0,0,0,0,0,0,0,0,0,0
0,0,0,0,0,0,0,0,0,0,0,0,0,0,0,0
0,0,0,0,0,0,0,0,0,0,0,0,0,0,0,0
ITM 0 4,10
ITM 0 3,14
ITM 0 12,13
ITM 0 10,9
ITM 0 6,6
EXT 6,6 1 6,7
PAL 0

ROOM 1
b,e,b,e,b,b,e,b,b,b,c,b,b,b,e,b
b,b,b,b,c,b,c,c,b,e,b,b,c,b,b,b
b,e,c,b,b,b,c,e,b,c,b,b,b,e,c,b
b,b,b,b,b,k,0,f,0,l,b,c,b,b,b,c
e,e,b,b,b,i,g,0,h,j,b,b,b,b,b,e
a,a,a,a,a,a,a,a,a,a,a,a,a,a,a,a
0,0,0,0,0,m,0,m,0,0,0,0,0,0,0,0
0,0,0,0,0,m,0,m,0,0,0,0,0,0,0,0
0,0,0,0,0,m,0,m,0,0,0,0,0,0,0,0
0,0,0,0,0,m,0,m,0,0,0,0,0,0,0,0
0,0,0,0,0,0,0,0,0,0,0,0,0,0,0,0
0,0,0,0,0,0,0,0,0,0,0,0,0,0,0,0
0,0,0,0,0,0,0,0,0,0,0,0,0,0,0,0
0,0,0,0,0,0,0,0,0,0,0,0,0,0,0,0
0,0,0,0,0,0,0,0,0,0,0,0,0,0,0,0
0,0,0,0,0,0,0,0,0,0,0,0,0,0,0,0
ITM 1 6,6
ITM 2 6,8
EXT 6,9 2 6,9
PAL 0

ROOM 2
b,e,b,e,b,b,e,b,b,b,c,b,b,b,e,b
b,r,r,b,c,b,c,c,b,e,b,b,c,b,b,b
b,0,0,q,b,k,0,0,0,l,b,b,b,e,c,b
b,0,0,0,b,i,g,f,h,j,b,c,b,b,b,c
e,0,0,0,b,0,0,0,0,0,b,b,b,b,b,e
b,0,0,0,0,0,n,o,p,0,b,b,b,b,b,b
a,a,a,a,a,a,a,a,a,a,a,a,a,a,a,a
0,0,0,0,0,0,0,0,0,0,0,0,0,0,0,0
0,0,0,0,0,m,m,m,0,0,0,0,0,0,0,0
0,0,0,0,0,m,0,m,0,0,0,0,0,0,0,0
0,0,0,0,0,m,0,0,m,m,m,m,0,0,0,0
0,0,0,0,0,m,0,0,m,0,0,0,m,0,0,0
0,0,0,0,0,m,0,0,0,0,0,0,0,0,0,0
0,0,0,0,0,m,m,m,m,m,m,m,0,0,0,0
0,0,0,0,0,0,0,0,0,0,0,0,0,0,0,0
0,0,0,0,0,0,0,0,0,0,0,0,0,0,0,0
ITM 3 8,12
EXT 12,12 3 12,12
PAL 0

ROOM 3
b,e,b,e,b,b,e,b,b,b,c,b,b,b,e,b
b,e,e,e,c,b,c,c,b,e,b,b,c,b,b,b
b,c,c,c,b,k,0,0,0,l,b,b,b,e,c,b
c,c,c,c,c,i,w,f,w,j,b,c,b,b,b,c
c,c,c,i,0,0,0,0,0,0,b,b,b,b,b,e
b,e,i,0,0,0,x,y,z,0,b,b,b,b,b,b
a,i,0,0,a,a,a,a,a,a,a,a,a,a,a,a
0,s,0,0,0,0,0,0,0,0,0,0,0,0,0,0
0,t,u,v,12,13,15,0,0,0,0,0,0,0,0,0
0,u,v,u,11,14,16,0,0,0,0,0,0,0,0,0
0,0,u,10,0,m,m,m,m,m,m,m,0,0,0,0
0,0,0,0,0,m,0,0,0,0,0,0,m,m,0,0
0,0,0,0,0,m,0,0,0,0,0,0,0,m,0,0
0,0,0,0,0,m,m,m,m,m,m,m,m,m,0,0
0,0,0,0,0,0,0,0,0,0,0,0,0,0,0,0
0,0,0,0,0,0,0,0,0,0,0,0,0,0,0,0
ITM 4 6,12
END undefined 6,11
PAL 0

TIL 10
00000000
00000000
00000000
00000001
00000011
11111100
00110000
00000000

TIL 11
00000010
00000110
00001111
10110111
01100010
01100100
00101000
00110000

TIL 12
00000000
00000000
00000000
00000000
00000000
00000000
00000000
00000001

TIL 13
00000000
00000000
00001111
00010110
00100110
01100110
11111001
01110001

TIL 14
00100001
01000001
10000000
00000000
00000000
00000000
00000000
00000000

TIL 15
00000000
00000000
00000000
10000000
01000000
01100000
11100000
10100000

TIL 16
00100000
00100000
11000000
00000000
00000000
00000000
00000000
00000000

TIL a
00000000
00000000
00000000
00000000
00000000
00000000
00000000
00000000
WAL true

TIL b
11111111
11111111
11111101
11011111
11111111
11111111
11111101
11111111
>
11110111
11111111
11111111
11111111
01111111
11110111
11111111
11111110
WAL true

TIL c
11111111
11111111
11111111
11111110
10111111
11110111
11111111
11111111
>
11111111
11110111
11111111
11111111
11111111
11111111
11101111
11111101
WAL true

TIL d
11110111
10111111
11111111
11111111
11111111
11101111
11111111
11111111
>
00000000
00000000
00000000
00000000
00000000
00000000
00000000
00000000
WAL true

TIL e
11110111
10111111
11111111
11111111
11111111
11101111
11111111
11111111
>
11111111
11111111
11111111
11101101
11111111
11111111
11111111
11110111
WAL true

TIL f
00000000
00000000
00000000
00000000
00000000
00000000
00000000
00000000

TIL g
00011100
01100110
00110011
01111000
01011100
01001100
00111000
00000000
WAL true

TIL h
00111100
01100000
01011000
01101100
11001100
00111000
00110000
00000000
WAL true

TIL i
11100000
10000000
10000000
10000000
10000000
10000000
00000000
00000000

TIL j
00000011
00000011
00000001
00000001
00000000
00000000
00000000
00000000

TIL k
11111111
11111110
11111100
11111000
11110000
11100000
11100000
11100000

TIL l
11111111
01111111
00111111
00011111
00001111
00001111
00000111
00000111

TIL m
00000000
00000000
00000000
00000000
00000000
00000000
00000000
00000000
WAL true

TIL n
00000000
00111111
00111111
00011111
00011111
00111111
01111100
00000000

TIL o
00000000
10000000
11111111
11111111
11111111
11111111
00000000
00000000

TIL p
00000000
00000000
11111110
11111100
11111100
11111110
00001110
00000000

TIL q
00000000
00000000
00111110
00100000
00100000
00110000
00001110
00000000

TIL r
00000000
00000000
01000100
01000100
01000100
01000100
00111100
00110000

TIL s
10000000
10000000
10000000
10000000
01000000
01000000
00100000
00100000

TIL t
00010000
00010000
00010000
00010000
00001000
00001000
00001000
00000100

TIL u
00000100
00000010
00000010
00000001
00000000
00000000
00000000
00000000

TIL v
00000000
00000000
00000000
10000000
10000000
01000000
00100000
00010000

TIL w
00000000
01111100
01000000
01000000
00011111
00011100
00000000
00000000

TIL x
00100000
00100000
00100000
00110000
00111111
00011111
00000000
00000000

TIL y
00000000
00000000
00000000
00000000
11111111
11111111
01111100
00000000

TIL z
00000000
00000010
00000010
00000110
11111110
11111110
00000000
00000000

SPR A
01101000
00101000
01111100
01010100
01111100
00110000
00111101
01011110
>
01011000
01010000
11111000
10101000
11111000
01110001
00111110
01011100
POS 0 8,15

SPR a
00000000
00000000
01010001
01110001
01110010
01111100
00111100
00100100
DLG SPR_0

ITM 0
00100000
01000000
10110000
00111100
00111100
00011100
00001100
00000110
NAME Carrot
DLG ITM_0

ITM 1
00000000
00000000
00000000
00000000
00000000
00000000
00000000
00000000

ITM 2
00000000
00000000
00000000
00000000
00000000
00000000
00000000
00000000
DLG ITM_1

ITM 3
00000000
00000000
00000000
00000000
00000000
00000000
00000000
00000000
DLG ITM_2

ITM 4
00000000
00000000
00010000
00000000
00000000
00000000
00000000
00000000
DLG ITM_3

DLG SPR_0
I'm a cat

DLG ITM_0
"""
Delicieux!
(Yum!)
"""

DLG ITM_1
"""
Aahhhhh! Qui vient la?
(Yikes! Who is it?)
"""

DLG ITM_2
"""
Oh non! C'est YETI!
(Oh no! It's YETI!)
"""

DLG ITM_3
"""
Ah, merci, vieux YETI!
(Oh, thank you Mr. YETI)
"""

END 0


END undefined
Joyeux noel et bonne annee!
Merry Christmas and happy new year!

VAR a
42


