
space wales

# BITSY VERSION 4.8

! ROOM_FORMAT 1

PAL 0
31,31,31
177,255,164
255,255,255
244,205,65

ROOM 0
0,0,0,0,0,0,0,0,0,0,0,0,0,0,0,0
0,0,0,0,0,0,0,0,0,0,0,0,0,0,0,0
0,0,0,0,0,0,0,0,0,0,0,0,0,0,0,0
0,0,0,c,0,0,0,0,0,0,0,0,0,0,0,0
0,0,0,0,0,0,0,0,0,0,0,0,0,0,0,0
0,0,0,0,0,0,0,0,0,0,0,0,0,0,c,0
0,0,0,0,0,0,0,0,0,0,0,0,0,0,0,0
0,0,0,0,0,0,0,0,0,0,0,0,0,0,0,0
0,0,c,0,0,0,0,0,0,0,0,0,0,0,0,0
0,0,0,0,0,0,0,0,0,0,0,0,0,0,0,0
0,0,0,0,0,0,0,0,0,0,0,0,0,0,0,0
0,0,0,0,0,0,0,0,0,0,0,0,0,0,0,0
e,e,e,e,e,e,e,e,e,e,e,e,e,e,e,e
0,d,0,0,0,0,0,0,0,0,0,0,0,d,0,0
a,a,a,a,a,a,a,a,a,a,a,a,a,a,a,a
b,b,b,b,b,b,b,b,b,b,b,b,b,b,b,b
PAL 0

TIL a
11111111
10101010
01010101
00000000
00100000
00000000
00000010
00000000
NAME ground a
WAL true

TIL b
00000000
00010000
00000000
00000000
00000000
00000000
00000000
00000000
NAME ground b
WAL true

TIL c
00000000
00100000
01010000
00100000
00000000
00000010
00000000
00000000
>
00000000
00000000
00100000
00000000
00000010
00000101
00000010
00000000
NAME star a
COL 3

TIL d
00000000
00000000
00000000
00000000
00000100
00011000
00101001
01101010
>
00000000
00000000
00000000
00000000
00001000
00101010
00101010
01101110
NAME grass a

TIL e
00000000
00000000
00000000
00000000
00000000
00000000
00000000
00000000
NAME wall a
WAL true

TIL f
00000000
00000000
00000010
00000000
00000000
00000000
00000000
00000000
>
00000000
00000010
00000101
00000010
00000000
00000000
00000000
00000000
NAME star b
COL 3

TIL g
00000000
00000000
00000000
00000000
00100000
01010000
00100000
00000000
>
00000000
00000000
00000000
00000000
00000000
00100000
00000000
00000000
NAME star c
COL 3

SPR A
00000000
00011000
00011000
00011000
01111110
10111101
10111101
00100100
>
00011000
00011000
00011000
01111110
10111101
10111101
00100100
00100100
POS 0 4,13

SPR a
00000000
00111100
01110110
01111010
01111010
01111110
00111100
00000000
NAME moon
DLG SPR_0
POS 0 11,3

SPR b
11111111
11111111
11111111
10111011
11111111
11111111
11111111
10000001
>
00000000
11111111
11111111
11111111
10111011
11111111
11111111
10000001
NAME spaceman
DLG SPR_1
POS 0 11,13

SPR c
00000000
00000000
01111111
01101011
01010101
01111111
00001000
00001000
>
00000000
00000000
01111111
01010101
01101011
01111111
00001000
00001000
NAME sign
DLG SPR_2
POS 0 0,13

ITM 0
00000000
00000000
00000000
00111100
01100100
00100100
00011000
00000000
NAME tea
DLG ITM_0

DLG SPR_0
I'm a cat

DLG ITM_0
You found a nice warm cup of tea

DLG SPR_1
"""
{clr2}You:{clr2} i'm beginning to wonder. are you sure they said space wales?

{clr2}Spaceman:{clr2} hmm... probably. i mean, we're out of luck if they didn't... {shk}hahaha oh no{shk}
"""

DLG SPR_2
"""
{clr2}CAUTION{clr2}
Long drop ahead (like really long, straight back down to Earth. Maybe the whole let's-send-the-whole-of-
Wales-into-space thing wasn't a good idea).
"""

VAR a
42


