
Noodle Escape!

# BITSY VERSION 4.8

! ROOM_FORMAT 1

PAL 0
NAME Default
250,252,247
255,53,97
73,136,255

PAL 1
NAME Water
138,172,255
111,37,97
27,47,166

PAL 2
NAME Yard
251,251,221
32,212,107
179,40,87

PAL 3
NAME Fire
255,230,153
255,74,68
57,65,171

ROOM 0
36,36,36,36,36,36,36,36,36,36,36,36,36,36,36,36
0,0,0,0,0,0,0,0,0,0,0,0,0,0,0,0
0,2n,2o,2p,2o,2q,2r,0,2s,2t,2u,2v,0,0,0,0
0,0,0,0,0,0,0,0,0,0,0,0,37,0,0,0
0,e,i,i,i,i,i,i,i,i,i,q,0,r,f,0
0,j,t,t,1g,t,1h,t,t,t,t,t,t,t,s,0
0,0,t,t,1i,1k,1j,t,t,t,t,t,t,t,0,37
0,j,t,t,t,t,t,t,t,t,t,t,t,t,p,0
0,j,t,t,t,t,t,t,t,t,t,t,t,t,j,0
0,j,1l,1u,1q,1q,1r,1p,t,t,t,1x,t,t,j,0
0,j,1m,1t,1n,1n,1s,1o,t,t,1v,t,1w,t,j,0
0,g,i,i,i,i,i,i,i,i,i,i,i,i,h,0
0,0,0,0,0,0,0,0,0,0,0,0,0,0,0,0
0,0,0,0,0,0,0,0,0,0,0,0,0,0,0,0
36,36,36,36,36,36,36,36,36,36,36,36,36,36,36,36
0,0,0,0,0,0,0,0,0,0,0,0,0,0,0,0
NAME Living Room
ITM 2 11,9
EXT 14,6 1 3,5
EXT 12,4 2 9,11
PAL 0

ROOM 1
36,36,36,36,36,36,36,36,36,36,36,36,36,36,36,36
0,0,0,0,0,0,0,0,0,0,0,0,0,0,0,0
0,0,0,2w,2x,2y,2s,2t,2u,2v,0,0,0,0,0,0
0,0,0,0,0,0,0,0,0,0,0,0,0,0,0,0
0,0,0,r,i,i,i,i,i,i,i,i,f,0,0,0
0,0,37,0,t,t,27,1y,1z,20,27,t,j,0,0,0
0,0,0,p,t,t,t,21,22,23,t,t,j,0,0,0
0,0,0,j,t,t,t,24,26,25,t,t,j,0,0,0
0,0,0,j,2b,t,t,t,t,t,t,t,j,0,0,0
0,0,0,j,2c,1f,t,t,t,t,t,t,j,0,0,0
0,0,0,j,2d,t,t,t,2a,28,29,t,j,0,0,0
0,0,0,g,i,i,i,i,i,i,i,i,h,0,0,0
0,0,0,0,0,0,0,0,0,0,0,0,0,0,0,0
0,0,0,0,0,0,0,0,0,0,0,0,0,0,0,0
36,36,36,36,36,36,36,36,36,36,36,36,36,36,36,36
0,0,0,0,0,0,0,0,0,0,0,0,0,0,0,0
NAME Bedroom
ITM 5 8,10
EXT 3,5 0 14,6
PAL 0

ROOM 2
36,36,36,36,36,36,36,36,36,36,36,36,36,36,36,36
0,0,0,0,0,0,0,0,0,0,0,0,0,0,0,0
0,2z,2o,30,31,32,2x,2q,0,0,0,0,0,0,0,0
0,0,0,0,0,0,0,0,0,0,0,0,0,0,0,0
0,e,i,i,i,i,i,i,i,i,i,i,i,i,f,0
0,j,u,0,13,0,15,15,0,18,u,u,u,u,0,0
0,j,u,0,12,10,14,14,17,19,u,u,u,u,j,0
0,j,u,u,u,u,u,u,u,u,u,u,u,u,j,0
0,j,u,u,u,u,u,u,u,u,u,u,u,u,j,0
0,j,u,1e,1a,1b,1f,u,u,u,r,i,i,i,m,0
0,j,u,1e,1c,1d,1f,u,u,u,v,v,v,v,v,37
0,g,i,i,i,i,i,i,q,u,r,i,i,i,i,0
0,0,0,0,0,0,0,0,0,37,0,0,0,0,0,0
0,0,0,0,0,0,0,0,0,0,0,0,0,0,0,0
36,36,36,36,36,36,36,36,36,36,36,36,36,36,36,36
0,0,0,0,0,0,0,0,0,0,0,0,0,0,0,0
NAME Kitchen
ITM 1 9,5
EXT 14,10 3 1,10
EXT 9,11 0 12,4
PAL 0

ROOM 3
36,36,36,36,36,36,36,36,36,36,36,36,36,36,36,36
0,0,0,0,0,0,0,0,0,0,0,0,0,0,0,0
0,2w,33,34,2x,2v,2x,2q,35,0,0,0,0,0,0,0
0,0,0,0,0,0,0,0,0,0,0,0,0,0,0,0
0,e,i,i,i,i,i,i,n,i,i,i,i,i,f,0
0,j,u,2e,2h,u,2i,2m,s,x,x,x,x,x,j,0
0,j,2f,2g,2j,2l,2k,u,u,x,x,x,x,x,j,0
0,j,u,u,u,u,u,u,p,x,x,x,x,x,j,0
0,j,u,u,u,u,u,u,j,x,x,x,x,x,j,0
0,g,i,i,i,i,i,i,m,q,x,x,x,x,j,0
37,v,v,v,v,v,v,v,x,x,x,x,x,x,j,0
0,i,i,i,i,i,i,i,i,i,i,i,i,i,h,0
0,0,0,0,0,0,0,0,0,0,0,0,0,0,0,0
0,0,0,0,0,0,0,0,0,0,0,0,0,0,0,0
36,36,36,36,36,36,36,36,36,36,36,36,36,36,36,36
0,0,0,0,0,0,0,0,0,0,0,0,0,0,0,0
NAME Basement
ITM 6 9,5
ITM 4 2,5
ITM 4 7,5
EXT 1,10 2 14,10
PAL 0

ROOM 4
36,36,36,36,36,36,36,36,36,36,36,36,36,36,36,36
0,0,0,0,0,0,0,0,0,0,0,0,0,0,0,0
0,2q,2u,2t,3q,2n,2x,0,2x,34,31,3r,3s,2x,2y,0
37,37,37,37,37,37,37,37,37,37,37,37,37,37,37,0
37,38,38,38,38,38,38,38,38,38,38,38,38,38,p,0
37,38,38,38,38,38,38,38,38,38,38,38,38,38,j,0
37,38,38,38,38,38,38,38,38,38,38,38,39,3c,j,0
37,38,38,38,38,38,38,38,38,38,38,38,3b,0,j,0
37,38,38,38,38,38,38,38,38,38,38,3g,3a,3f,3f,37
37,38,38,38,38,38,38,38,38,38,38,38,3b,0,j,0
37,38,38,38,38,38,38,38,38,38,38,38,3d,3e,j,0
37,38,38,38,38,38,38,38,38,38,38,38,38,38,s,0
37,37,37,37,37,37,37,37,37,37,37,37,37,37,37,0
0,3t,3u,3v,3w,3x,3y,3z,40,41,42,43,44,45,46,0
36,36,36,36,36,36,36,36,36,36,36,36,36,36,36,36
0,0,0,0,0,0,0,0,0,0,0,0,0,0,0,0
NAME Yard
ITM 7 14,8
EXT 14,10 3 1,10
END 0 14,8
PAL 2

ROOM 5
36,36,36,36,36,36,36,36,36,36,36,36,36,36,36,36
0,0,0,0,0,0,0,0,0,0,0,0,0,0,0,0
0,2w,33,34,2x,2v,2x,2q,35,0,0,0,0,0,0,0
0,0,0,0,0,0,0,0,0,0,0,0,0,0,0,0
0,e,i,i,i,i,i,i,n,i,i,i,i,i,f,0
0,j,3h,3h,3h,3h,3h,3h,s,3h,3h,3h,3h,3h,j,0
0,j,3h,3h,3h,3h,3h,3h,3h,3h,3h,3h,3h,3h,j,0
0,j,3h,3h,3h,3h,3h,3h,p,3h,3h,3h,3h,3h,j,0
0,j,3h,3h,3h,3h,3h,3h,j,3h,3h,3h,3h,3h,3i,0
0,g,i,i,i,i,i,i,m,q,3h,3h,3h,3h,j,0
37,v,v,v,v,v,v,v,3h,3h,3h,3h,3h,3h,j,0
0,i,i,i,i,i,i,i,i,i,i,i,i,i,h,0
0,0,0,0,0,0,0,0,0,0,0,0,0,0,0,0
0,0,0,0,0,0,0,0,0,0,0,0,0,0,0,0
36,36,36,36,36,36,36,36,36,36,36,36,36,36,36,36
0,0,0,0,0,0,0,0,0,0,0,0,0,0,0,0
NAME FloodBasement
EXT 1,10 2 14,10
EXT 14,8 4 11,8
PAL 1

ROOM 6
36,36,36,36,36,36,36,36,36,36,36,36,36,36,36,36
0,0,0,0,0,0,0,0,0,0,0,0,0,0,0,0
0,2z,2o,30,31,32,2x,2q,0,3k,2o,3n,2x,3m,0,0
0,0,0,0,0,0,0,0,0,0,0,0,0,0,0,0
0,e,i,i,i,i,i,i,i,i,i,i,i,i,f,0
0,j,u,0,13,0,15,15,0,3j,u,u,u,u,0,0
0,j,3j,0,12,10,14,14,17,19,u,u,u,u,j,0
0,j,u,u,u,u,u,u,u,u,u,u,u,u,j,0
0,j,u,u,u,u,u,u,u,u,u,3j,u,u,j,0
0,j,u,1e,3j,1b,1f,u,u,u,r,i,i,i,m,0
0,j,u,1e,1c,1d,1f,u,u,u,3j,v,v,v,v,37
0,g,i,i,i,i,i,i,q,3j,r,i,i,i,i,0
0,0,0,0,0,0,0,0,0,37,0,0,0,0,0,0
0,0,0,0,0,0,0,0,0,0,0,0,0,0,0,0
36,36,36,36,36,36,36,36,36,36,36,36,36,36,36,36
0,0,0,0,0,0,0,0,0,0,0,0,0,0,0,0
NAME Kitchen b
PAL 3

ROOM 7
36,36,36,36,36,36,36,36,36,36,36,36,36,36,36,36
0,0,0,0,0,0,0,0,0,0,0,0,0,0,0,0
0,2z,2o,30,31,32,2x,2q,0,0,0,0,0,0,0,0
0,0,0,0,0,0,0,0,0,0,0,0,0,0,0,0
0,e,i,i,i,i,i,i,i,i,i,i,i,i,f,0
0,j,u,0,13,0,15,15,0,18,u,3j,u,u,0,0
0,j,u,0,12,10,14,14,17,3j,u,u,3p,u,j,0
0,j,u,u,u,u,u,u,u,0,3p,u,u,3p,j,0
0,j,u,u,u,u,u,u,u,u,3j,u,3p,3p,3o,0
0,j,u,1e,1a,1b,1f,u,u,u,r,i,i,i,m,0
0,j,u,1e,1c,1d,1f,u,u,u,v,v,v,v,v,37
0,g,i,i,i,i,i,i,q,u,r,i,i,i,i,0
0,0,0,0,0,0,0,0,0,37,0,0,0,0,0,0
0,0,0,0,0,0,0,0,0,0,0,0,0,0,0,0
36,36,36,36,36,36,36,36,36,36,36,36,36,36,36,36
0,0,0,0,0,0,0,0,0,0,0,0,0,0,0,0
NAME Kitchen c
EXT 14,8 4 11,8
PAL 0

TIL 10
00000000
11111111
00000000
11111111
10000001
11111111
00000000
11111111
NAME Stove Bottom
WAL false

TIL 11
00000000
00000000
11111111
01100110
10011001
01100110
10011001
01100110
NAME Stove Top
WAL true

TIL 12
00000010
11111111
00000010
00000010
00000010
00000010
00000010
11111111
NAME Counter Bottom

TIL 13
00000000
00000000
11111111
00000010
00000010
00000010
00000010
00000010
NAME Counter Top

TIL 14
01000000
11111111
01000000
01000000
01000000
01000000
01000000
11111111
NAME Counter Bottom Left

TIL 15
00000000
00000000
11111111
01000000
01000000
01000000
01000000
01000000
NAME Counter Top Left

TIL 17
00000000
11111111
10000001
10000001
10000101
10000001
10000001
11111111
NAME Sink Bottom
WAL false

TIL 18
00000000
00000000
11111111
00000001
00000001
00000001
00000001
00000001
NAME Counter Top End

TIL 19
00000001
11111111
00000001
00000001
00000001
00000001
00000001
11111111
NAME Counter Bottom End

TIL 20
11110010
00001010
00001010
00001010
00001010
00001010
11110010
00000010
NAME Bed NE

TIL 21
01111111
01000000
01111111
01000000
01000000
01000000
01000000
01000000
NAME Bed W

TIL 22
11111111
00000000
11111111
00000000
00000000
00000000
00000000
00000000
NAME Bed MIddle

TIL 23
11111110
00000010
11111110
00000010
00000010
00000010
00000010
00000010
NAME Bed E

TIL 24
01000000
01000000
01000000
01000000
01111111
01000000
01111111
00110000
NAME Bed SW

TIL 25
00000010
00000010
00000010
00000010
11111110
00000010
11111110
00001100
NAME Bed SE

TIL 26
00000000
00000000
00000000
00000000
11111111
00000000
11111111
00000000
NAME Bed S

TIL 27
11111111
10000001
10000001
10000001
11111111
10000001
11111111
01100110
NAME Night Stand

TIL 28
00000000
11111111
00000000
00000011
00000100
00000111
00000100
00000100
NAME Dresser

TIL 29
00000000
11111110
00000010
11110010
00001010
11101010
00001010
00001010
NAME Dresser E

TIL 30
11111110
11111110
00010000
00010000
00010000
00010000
00010000
00000000
>
00000000
11111110
11111110
00010000
00010000
00010000
00010000
00010000

TIL 31
00000000
01111100
11000010
11000000
11000000
11000000
11000010
01111100
>
01111100
11000010
11000000
11000000
11000000
11000010
01111100
00000000

TIL 32
11000110
11000110
11000110
11111110
11000110
11000110
11000110
00000000
>
00000000
11000110
11000110
11000110
11111110
11000110
11000110
11000110

TIL 33
00000000
01111100
11000110
11000110
11111110
11000110
11000110
11000110
>
01111100
11000110
11000110
11111110
11000110
11000110
11000110
00000000
NAME A

TIL 34
01111100
11000110
11000000
01111100
00000110
11000110
01111100
00000000
>
00000000
01111100
11000110
11000000
01111100
00000110
11000110
01111100

TIL 35
00000000
11111110
11111110
00010000
00010000
00010000
00010000
00010000
>
11111110
11111110
00010000
00010000
00010000
00010000
00010000
00000000

TIL 36
00000000
11001100
10011001
00110011
01100110
11001100
00000000
00000000
>
00000000
00110011
01100110
11001100
10011001
00110011
00000000
00000000

TIL 37
00000000
00000000
00000000
00000000
00000000
00000000
00000000
00000000
NAME BLANK WALL
WAL true

TIL 38
00000000
00010000
00010010
00000000
00000100
01000100
01000000
00000000
NAME Grass

TIL 39
00000000
01111111
01000000
01111111
01011000
01111111
01000000
01000000
NAME Porch NW

TIL 40
00110011
00101010
10110011
00100010
00100011
00000000
00000000
00000000

TIL 41
10111011
00010010
00010011
00010010
10010011
00000000
00000000
00000000

TIL 42
10100000
00100000
00100000
00000000
10100000
00000000
00000000
00000000

TIL 43
00000000
00000001
00000001
00000000
00000000
00000000
00000000
00000000

TIL 44
10100110
11110001
11110010
11100100
01000111
00000000
00000000
00000000

TIL 45
01110101
01010101
01010101
01010101
01110101
00000000
00000000
00000000

TIL 46
11001010
01011111
11011111
01001110
11000100
00000000
00000000
00000000

TIL d
01111110
10000001
10000001
10000001
10000001
10000001
10000001
01111110
NAME Wall A
WAL true

TIL e
01111111
10000000
10000000
10000000
10000000
10000000
10000000
10000001
NAME Corner NW
WAL true

TIL f
11111110
00000001
00000001
00000001
00000001
00000001
00000001
10000001
NAME Corner NE
WAL true

TIL g
10000001
10000000
10000000
10000000
10000000
10000000
10000000
01111111
NAME Corner SW
WAL true

TIL h
10000001
00000001
00000001
00000001
00000001
00000001
00000001
11111110
NAME Corner SE
WAL true

TIL i
11111111
00000000
00000000
00000000
00000000
00000000
00000000
11111111
NAME Wall WE
WAL true

TIL j
10000001
10000001
10000001
10000001
10000001
10000001
10000001
10000001
NAME Wall NS
WAL true

TIL k
10000001
10000000
10000000
10000000
10000000
10000000
10000000
10000001
NAME Corner NES
WAL true

TIL l
10000001
00000001
00000001
00000001
00000001
00000001
00000001
10000001
NAME Corner NWS
WAL true

TIL m
10000001
00000000
00000000
00000000
00000000
00000000
00000000
11111111
NAME Corner WEN
WAL true

TIL n
11111111
00000000
00000000
00000000
00000000
00000000
00000000
10000001
NAME Corner WES
WAL true

TIL o
10000001
00000000
00000000
00000000
00000000
00000000
00000000
10000001
NAME Wall 4-Way
WAL true

TIL p
01111110
10000001
10000001
10000001
10000001
10000001
10000001
10000001
NAME Wall S
WAL true

TIL q
11111110
00000001
00000001
00000001
00000001
00000001
00000001
11111110
NAME Wall W
WAL true

TIL r
01111111
10000000
10000000
10000000
10000000
10000000
10000000
01111111
NAME Wall E
WAL true

TIL s
10000001
10000001
10000001
10000001
10000001
10000001
10000001
01111110
NAME Wall N
WAL true

TIL t
00000010
00100010
00100000
00000010
00100010
00100000
00000010
00100010
NAME Parkay Floor
WAL false

TIL u
00001000
00001000
00001000
11111111
00001000
00001000
00001000
00001000
NAME Tile
WAL false

TIL v
10011000
10001001
10011000
10001001
10011000
10001001
10011000
10001001
NAME Stars
WAL false

TIL x
00000000
00000000
00101000
00000100
00100000
00010100
00000000
00000000
NAME Basement Floor

TIL 1a
00001111
00010000
00100000
01000000
01000000
01000000
01000000
01000000
NAME Table NW

TIL 1b
11110000
00001000
00000100
00000010
00000010
00000010
00000010
00000010
NAME Table NE

TIL 1c
01000000
01000000
01000000
01000000
01000000
01000000
01000000
01000000
NAME Table SW

TIL 1d
00000010
00000010
00000010
00000010
00000010
00000010
00000010
00000010
NAME Table SE

TIL 1e
11100000
10111110
10100001
10100101
10101001
10100101
01100001
00011110
NAME Chair L

TIL 1f
00000111
01111101
10000101
10100101
10010101
10100101
10000110
01111000
NAME Chair R

TIL 1g
00000010
00000010
00000010
00000010
00000010
11111110
10000010
10000010
NAME TV left
WAL false

TIL 1h
01000000
01000000
01000000
01000000
01000000
01111111
01000001
01000001
NAME TV right
WAL false

TIL 1i
11111111
10000000
10000010
10000010
10000000
11111111
01010000
01110000
NAME TV stand
WAL false

TIL 1j
11111111
00000001
00000101
00000101
00000001
11111111
00001010
00001110
NAME TV stand R
WAL false

TIL 1k
11111111
10000001
10000101
10000101
10000001
11111111
00000000
00000000
NAME TV stand middle
WAL false

TIL 1l
00000000
00111110
01000001
01000001
01000001
01000001
01000001
01000001
NAME Couch Left

TIL 1m
01000001
01000001
01000001
01111111
01000000
01000000
01000000
01000000
NAME Couch SW

TIL 1n
00001000
00001000
00001000
11111111
00000000
00000000
00000000
00000000
NAME Couch S

TIL 1o
11000010
01000010
11000010
11111110
00000010
00000010
00000010
00000010
NAME Couch SE

TIL 1p
00000000
01111100
10000010
10000010
10000010
10000010
11000010
01000010
NAME Couch R

TIL 1q
00000000
00000000
00000000
11111111
00001000
00001000
00001000
00001000
NAME Couch Cushion

TIL 1r
00000000
00000000
00000000
11111111
00010000
00010111
00011010
00010101
NAME Couch Cushion Right

TIL 1s
00011010
00010101
00011010
11111111
00000000
00000000
00000000
00000000

TIL 1t
10000011
11000101
01101010
11111111
00000000
00000000
00000000
00000000
NAME Couch Cushion Left

TIL 1u
00000000
00000000
00000000
11111111
00000100
00111100
01010110
10100011
NAME Couch Cushion Left Pillow

TIL 1v
11111111
10001100
10010010
10010010
10011110
10010010
10001100
10000000
NAME Computer Desk Left

TIL 1w
11111111
00000001
00000001
00000001
00000001
00000001
00000001
00000001
NAME Computer Desk Right

TIL 1x
00111100
01000010
01000010
01111110
10000001
10000001
10000001
01111110
NAME Computer Chair

TIL 1y
01001111
01010000
01010000
01010000
01010000
01010000
01001111
01000000
NAME Bed NW

TIL 1z
11000011
00100100
00100100
00100100
00100100
00100100
11000011
00000000
NAME Bed N

TIL 2a
00000000
01111111
01000000
01011110
01010010
01011110
01000000
01000000
NAME Dresser W

TIL 2b
11111110
00000010
00111010
01010110
01010110
00111010
00000010
00000010
NAME Computer Desk T

TIL 2c
00000010
00000010
00000010
00000010
00000010
00000010
00000010
00000010
NAME Computer Desk M

TIL 2d
00000010
00000010
00000010
11111010
00001010
00001010
00001010
00001010
NAME Computer Desk B

TIL 2e
01001000
10101000
10101000
01011111
01011000
10101000
10101000
01001000
NAME Shower E

TIL 2f
01100110
10011001
01100110
11111111
00001000
00001000
00001000
00001000
NAME Shower S

TIL 2g
01001000
10001000
00001000
11111111
00001000
00001000
00001000
00001000
NAME Shower SE

TIL 2h
00010000
00010000
00011111
11110000
00010000
00010000
00011111
00010000
NAME Bathroom Counter

TIL 2i
00001000
00001000
11111000
00001111
00001000
00001000
11111000
00001000
NAME Bathroom Counter E

TIL 2j
00010000
00011111
00001010
11111111
00001000
00001000
00001000
00001000
NAME Bathroom Counter Bottom

TIL 2k
00001000
11111000
01010000
11111111
00001000
00001000
00001000
00001000
NAME Counter Bottom R

TIL 2l
00000000
11111111
00000000
11111111
00001000
00001000
00001000
00001000
NAME Counter Bottom Middle

TIL 2m
01111110
10000001
01111110
11111111
00001000
00001000
00001000
00001000
NAME Towel Rack

TIL 2n
11000000
11000000
11000000
11000000
11000000
11111110
11111110
00000000
>
00000000
11000000
11000000
11000000
11000000
11000000
11111110
11111110
NAME L

TIL 2o
00000000
11111110
11111110
00010000
00010000
00010000
11111110
11111110
>
11111110
11111110
00010000
00010000
00010000
11111110
11111110
00000000
NAME I

TIL 2p
11000110
11000110
11000110
01101100
01101100
01101100
00111000
00000000
>
00000000
11000110
11000110
11000110
01101100
01101100
01101100
00111000
NAME V

TIL 2q
11000110
11100110
11100110
11010110
11001110
11001110
11000110
00000000
>
00000000
11000110
11100110
11100110
11010110
11001110
11001110
11000110

TIL 2r
00000000
01111100
11000110
11000110
11000000
11011110
11000110
01111100
>
01111100
11000110
11000110
11000000
11011110
11000110
01111100
00000000

TIL 2s
00000000
11111100
11000110
11000110
11000110
11111000
11000110
11000110
>
11111100
11000110
11000110
11000110
11111000
11000110
11000110
00000000

TIL 2t
01111100
11000110
11000110
11000110
11000110
11000110
01111100
00000000
>
00000000
01111100
11000110
11000110
11000110
11000110
11000110
01111100

TIL 2u
00000000
01111100
11000110
11000110
11000110
11000110
11000110
01111100
>
01111100
11000110
11000110
11000110
11000110
11000110
01111100
00000000

TIL 2v
11000110
11101110
11010110
11000110
11000110
11000110
11000110
00000000
>
00000000
11000110
11101110
11010110
11000110
11000110
11000110
11000110

TIL 2w
11111100
11000110
11000110
11111000
11000110
11000110
11111100
00000000
>
00000000
11111100
11000110
11000110
11111000
11000110
11000110
11111100

TIL 2x
00000000
11111110
11000000
11000000
11111000
11000000
11000000
11111110
>
11111110
11000000
11000000
11111000
11000000
11000000
11111110
00000000

TIL 2y
11111100
11000010
11000010
11000010
11000010
11000010
11111100
00000000
>
00000000
11111100
11000010
11000010
11000010
11000010
11000010
11111100
NAME D

TIL 2z
11000010
11000010
11000100
11111000
11000100
11000010
11000010
00000000
>
00000000
11000010
11000010
11000100
11111000
11000100
11000010
11000010

TIL 3a
11111111
01001001
01001001
01001001
01001001
01001001
01001001
11111111
NAME Porch W Steps

TIL 3b
01000000
01000000
01000000
01000000
01000000
01000000
01000000
01000000
NAME Porch W

TIL 3c
00000000
11111111
00000000
11111111
11000110
11111111
00000000
00000000
NAME Porch N

TIL 3d
01000000
01000000
01111111
01000000
01111111
01011000
01111111
00000000
NAME Porch SW

TIL 3e
00000000
00000000
11111111
00000000
11111111
11000110
11111111
00000000
NAME Porch S

TIL 3f
00000000
00000000
00000000
00000000
00000000
00000000
00000000
00000000
NAME Porch - Blank

TIL 3g
00011111
00010010
00010010
00010010
00010010
00010010
00010010
00011111

TIL 3h
01000000
01000000
00100000
00100000
01000000
01000000
00100000
00100000
>
00000100
00000100
00001000
00001000
00000100
00000100
00001000
00001000
NAME Water

TIL 3i
11111111
01101010
01010110
01101010
01010110
01101010
01010110
11111111

TIL 3j
00000000
00000000
00100000
01010010
01010101
11010101
10011001
11111111
>
00000000
00000000
00000100
01001010
10101010
10101010
10011001
11111111
NAME Fire!
WAL true

TIL 3k
11111110
11000000
11000000
11111000
11000000
11000000
11000000
00000000
>
00000000
11111110
11000000
11000000
11111000
11000000
11000000
11000000

TIL 3m
00011100
00011100
00011000
00011000
00000000
00011000
00011000
00000000
>
00000000
00011100
00011100
00011000
00011000
00000000
00011000
00011000

TIL 3n
11111100
11000110
11000110
11000110
11111000
11000110
11000110
00000000
>
00000000
11111100
11000110
11000110
11000110
11111000
11000110
11000110

TIL 3o
10000001
01111001
01111101
01111101
01111101
01111101
01111001
10000001
WAL false

TIL 3p
00000000
00000010
01000000
00000000
00000000
00010000
00000010
00000000

TIL 3q
00000000
11111100
11000010
11000010
11000010
11000010
11000010
11111100
>
11111100
11000010
11000010
11000010
11000010
11000010
11111100
00000000
NAME D Alt

TIL 3r
01111100
11000110
11000110
11111110
11000110
11000110
11000110
00000000
>
00000000
01111100
11000110
11000110
11111110
11000110
11000110
11000110
NAME A Alt

TIL 3s
11111000
11000110
11000110
11111000
11000000
11000000
11000000
00000000
>
00000000
11111000
11000110
11000110
11111000
11000000
11000000
11000000
NAME P

TIL 3t
11001010
10101010
11001110
10100100
11000100
00000000
00000000
00000000
NAME Credits 1

TIL 3u
00100010
00110110
00101010
00100010
00100010
00000000
00000000
00000000

TIL 3v
01001100
10101010
11101100
10101010
10101010
00000000
00000000
00000000

TIL 3w
10100000
10100010
11100111
01000010
01000000
00000000
00000000
00000000

TIL 3x
00101010
00101010
00101010
00101010
00010010
00000000
00000000
00000000

TIL 3y
10010011
11010100
10110100
10010100
10010011
00000000
00000000
00000000

TIL 3z
01110000
01000001
01100011
01000001
01110000
00000000
00000000
00000000

SPR 10
00000000
01000010
11111111
01100110
11011011
01100110
10111101
01100110
>
00000000
00100100
11111111
01100110
10111101
01100110
11011011
01100110
NAME Stove Lit
DLG SPR_q
POS 6 5,5

SPR 11
00111100
01000010
01011010
01000010
01111110
01001010
01001010
00111100
NAME Trash b
DLG SPR_k
POS 6 13,8

SPR 12
10000101
10000101
10000101
10000001
10000001
10000001
10000001
11111111
NAME Fridge b
DLG SPR_p
POS 6 3,6

SPR 13
01111110
10000001
10000101
10000101
10000001
11111111
10000001
10000101
NAME Freezer b
DLG SPR_l
POS 6 3,5

SPR 14
00011000
10100101
11100111
00111100
11111111
10000001
10000001
11111111
NAME Kitchen Sink b
DLG SPR_m
POS 6 8,5

SPR 15
11111111
10000001
10000001
10000101
10000101
10000001
10000001
11111111
NAME Locked Door Living Room
DLG SPR_n
POS 0 1,6

SPR 16
00011001
01011010
00111100
00011100
00011100
00011100
00010100
00010100
>
00000000
00011000
00011000
00111110
01011101
00011100
00010100
00010100
NAME Landlord!
DLG SPR_o
POS 6 14,5

SPR 17
10000101
10000101
10000101
10000001
10000001
10000001
10000001
11111111
NAME Fridge c
POS 7 3,6

SPR 18
01111110
10000001
10000101
10000101
10000001
11111111
10000001
10000101
NAME Freezer C
POS 7 3,5

SPR 19
00011000
10100101
11100111
00111100
11111111
10000001
10000001
11111111
NAME Kitchen Sink c
DLG SPR_u
POS 7 8,5

SPR A
01000100
01111100
11111110
11010110
11111110
01111101
00111110
00100100
>
01000100
01111100
11111110
11010110
11111110
01111100
00111111
00100100
POS 0 8,8

SPR a
01000100
01111100
10000010
10101010
10000010
01111101
00111110
00100100
>
01000100
01111100
10000010
10101010
10000010
01111100
00111111
00100100
NAME Mooch
DLG SPR_a
POS 0 13,5

SPR b
11111111
10000001
10000001
10000101
10000101
10000001
10000001
11111111
NAME Locked Door
DLG SPR_0

SPR c
00111100
01000010
01011010
01000010
01111110
01001010
01001010
00111100
NAME Trash A1
DLG SPR_1
POS 2 13,8

SPR d
00000000
00000000
11111111
01100110
10011001
01100110
10011001
01100110
NAME Stove Top
DLG SPR_j
POS 2 5,5

SPR e
00011000
10100101
11100111
00111100
11111111
10000001
10000001
11111111
NAME Kitchen Sink
DLG SPR_i
POS 2 8,5

SPR f
01111110
10000001
10000101
10000101
10000001
11111111
10000001
10000101
NAME Freezer
DLG SPR_2
POS 2 3,5

SPR g
10000101
10000101
10000101
10000001
10000001
10000001
10000001
11111111
NAME Fridge
DLG SPR_r
POS 2 3,6

SPR h
00011110
00100001
01101101
10100001
11111110
10010100
10010100
01111000
NAME Trash A2
DLG SPR_t
POS 7 9,7

SPR i
00000000
11111111
10000001
10000001
10000001
10000001
11111111
00000000
NAME TV
DLG SPR_h
POS 0 5,5

SPR j
00000000
00000000
00000000
00000000
00000000
00000000
00000000
00000000

SPR k
11111111
01101010
01010110
01101010
01010110
01101010
01010110
11111111
NAME Window
DLG SPR_4
POS 0 1,9

SPR l
11111111
10101011
11111111
00000000
11111111
10000001
11111111
00000010
NAME Tai's Computer
DLG SPR_3
POS 0 11,10

SPR m
00000000
01111110
11000011
10000001
11000011
11111111
10000001
01111110
NAME Cat Bed
DLG SPR_5
POS 0 9,5

SPR n
11111111
01101010
01010110
01101010
01010110
01101010
01010110
11111111
NAME Basement Window
DLG SPR_6
POS 3 14,8

SPR o
11111111
10000001
10000001
10000101
10000101
10000001
10000001
11111111
NAME Locked Door b
DLG SPR_7
POS 2 14,5

SPR p
11101110
10101010
10111110
10101010
10101110
10101010
10101110
11101110
NAME Pete's computer
DLG SPR_9
POS 1 4,9

SPR q
11111111
01101010
01010110
01101010
01010110
01101010
01010110
11111111
NAME Bedroom Window
DLG SPR_8
POS 1 12,8

SPR r
11111111
10100001
11010001
10100001
10000001
10000001
10000001
11111111
NAME Shower
DLG SPR_e
POS 3 2,5

SPR s
11101110
10010001
11010001
10010001
10010001
10010001
10010001
11101110
NAME Toilet
DLG SPR_f
POS 3 2,7

SPR t
00011000
10100101
11100111
10111101
10000001
10011001
01111110
00000000
NAME Bathroom Sink
DLG SPR_g
POS 3 5,5

SPR u
00111100
01000010
01011010
01000010
01111110
01001010
01001010
00111100
NAME Bathroom Trash
DLG SPR_v
POS 3 7,8

SPR w
00000000
01111110
10101011
11010101
11111111
10000001
01000010
01111110
NAME Litter Box
DLG SPR_c
POS 3 13,5

SPR x
00000000
00111100
01000010
01000010
01111110
01101010
01010110
00111100
NAME Paint cans
DLG SPR_d
POS 3 9,8

SPR z
00000000
01111110
10101011
11010101
11111111
10000001
01000010
01111110
NAME Floating Junk
DLG SPR_b
POS 5 8,10

SPR 1a
00000000
00000000
11111111
01100110
10011001
01100110
10011001
01100110
NAME Stove Top c
POS 7 5,5

SPR 1b
11111111
10000001
10000001
10000101
10000101
10000001
10000001
11111111
NAME Locked Door c
DLG SPR_s
POS 7 14,5

SPR 1c
00111100
01000010
01011010
01000010
00111100
10010010
01111100
00111000
>
01111000
10000100
10110100
10000100
01111000
10010010
01111100
00111000
DLG SPR_w
POS 4 3,10

SPR 1d
00111100
01000010
01011010
01000010
00111100
10010010
01111100
00111000
>
01111000
10000100
10110100
10000100
01111000
10010010
01111100
00111000
DLG SPR_x
POS 4 6,5

SPR 1e
00111100
01000010
01011010
01000010
00111100
10010010
01111100
00111000
>
01111000
10000100
10110100
10000100
01111000
10010010
01111100
00111000
DLG SPR_y
POS 4 9,9

ITM 1
00000000
00000000
00000000
01111110
10000001
11111101
10000001
11111111
NAME Towel A
DLG ITM_1

ITM 2
00111110
01000001
01010001
01110001
10010001
10011111
10000001
01111110
NAME Towel B
DLG ITM_2

ITM 4
00111100
01000010
10000001
11110001
11110001
10010001
11110001
00011111
NAME Towel C
DLG ITM_6

ITM 5
11111100
10000010
10100101
10111101
10111101
10011001
10000001
11111111
NAME Art Print
DLG ITM_3

ITM 6
01011100
01111110
01111111
01011101
00011000
00011000
00011000
00011000
NAME Hammer
DLG ITM_5

ITM 7
11111111
10000001
10000001
10000101
10000101
10000001
10000001
11111111
NAME Back Door

DLG ITM_0
You got a towel!

DLG SPR_0
You can't open doors because you are a cat.

DLG ITM_1
"""
You got a towel!{
  - {item "Towel A"} == 1 ?
    {towel = towel + 1}
  - else ?

}
"""

DLG SPR_1
"""
{
  - bakingsoda == 0 ?
    There's some {clr2}{shk}double-strength vinegar{shk}{clr2} in the trash!
  - bakingsoda == 1 ?
    (exit "Kitchen c,12,7,sprite")You toss the baking soda on the vinegar and it {rbw}{shk}gets explodey!{shk}{rbw}
}
"""

DLG SPR_2
There's nothing in the freezer :(

DLG SPR_3
The computer has pretty drawings on screen!

DLG ITM_2
"""
You got a towel!{
  - {item "Towel B"} == 1 ?
    {towel = towel + 1}
  - else ?
"""

DLG SPR_4
"""
{
  - {item "Hammer"} == 1 ?
    (exit "Yard,13,6,sprite")Hammer time! You smash the window wide open. Time to go!
  - {item "Hammer"} == 0 ?
    You can see outside!
}
"""

DLG SPR_5
There's no time for a nap!

DLG SPR_6
The window is open, but you can't jump that high!

DLG SPR_7
You can't open the door because you are a cat.

DLG SPR_8
"""
{
  - {item "Hammer"} == 1 ?
    (exit "Yard,13,6,sprite")You hit the window with the hammer and now it's a small door.
  - {item "Hammer"} == 0 ?
    This window is stuck closed :(
}
"""

DLG SPR_9
The computer is playing a K-Pop playlist!

DLG SPR_a
"Do you have any food?"

DLG SPR_c
You don't need to use the litter box right now.

DLG SPR_d
It's just some old paint cans that need to be recycled.

DLG ITM_3
You got an unframed art print!

DLG ITM_4
You got a towel!

DLG ITM_5
You got a hammer!

DLG SPR_b
Floating junk is blocking the stairs!

DLG ITM_6
"""
You got a towel!{
  - {item "Towel C"} == 1 ?
    {towel = towel + 1}
  - else ?
"""

DLG SPR_e
"""
{
  - showerclogged == 1 ?
    You clogged that shower up real good!
  - towel > 0 ?
    You stuff a towel in the drain because why not{towel = towel - 1}{showerclogged = 1}{water = water + 1}
  - showerclogged == 0 ?
    People go in here to get wet on purpose. Weird.
}{
  - water == 3 ?
    
    (exit "FloodBasement,4,8,sprite"){shk}Water is filling the whole basement!{shk}
}
"""

DLG SPR_f
"""
{
  - toiletclogged == 1 ?
    Yeah, that toilet won't be draining right anymore.
  - towel > 0 ?
    You jam a towel in the toilet as a fun surprise for your human.{towel = towel - 1}{toiletclogged = 1}{water = water + 1}
  - toiletclogged == 0 ?
    This is a litterbox for people. People do {wvy}EVERYTHING{wvy} with water.
}{
  - water == 3 ?

    (exit "FloodBasement,4,8,sprite"){shk}Water is filling the whole basement!{shk}
}
"""

DLG SPR_g
"""
{
  - sinkclogged == 1 ?
    Oh no! The water is ruining my bed!
  - towel > 0 ?
    You add a comfy towel to make this better for naps.{towel = towel - 1}{sinkclogged = 1}{water = water + 1}
  - sinkclogged == 0 ?
    This is a place for naps. Humans put water in it.
}{
  - water == 3 ?

    (exit "FloodBasement,4,8,sprite"){shk}Water is filling the whole basement!{shk}
}
"""

DLG SPR_h
"""
{sequence
  - Oh! Real Housecats of Toronto is on!
  - {rbw}Yay!{rbw} It's time for Food Cooking Cook-Off!
  - Ooh, a Nap-Fight: X-Treme Sleep Edition marathon!
  - {clr2}Noo!{clr2} They killed off Sir Mittens on "Edgy Fantasy Serial" :(
  - YES. FISH FINDERZ. {wvy}Find those fish!{wvy}
  - (exit "Yard,5,9,sprite")This nature show is {wvy}kind of{wvy} like being outside...
}
"""

DLG SPR_i
You like to roll around in here. Nobody knows why.

DLG SPR_j
"""
{
  - {item "Art Print"} == 1 ?
    (exit "Kitchen b,5,9,sprite")Oops! You accidentally turned on the stove and dropped the art print on it and it's on fire!
  - {item "Art Print"} == 0 ?
    You've seen your human work this thing.
}
"""

DLG SPR_k
It's trash. Just leave it.

DLG SPR_l
Whatever is in here won't be cold for long.

DLG SPR_m
Turning this on won't help.

DLG SPR_n
You can't open the door because you are a cat.

DLG SPR_o
"""
(exit "Yard,5,9,sprite")The landlord smelled the smoke and opened the door!
You run past his slow dumb human legs!
"""

DLG SPR_p
Whatever is in here won't be cold for long.

DLG SPR_q
Take that, people art!

DLG SPR_r
"""
{
  - bakingsoda == 0 ?
    {bakingsoda = 1}Oh hey, there's some baking soda in here. Yoink!
  - bakingsoda == 1 ?
    Everything else in here is gross.
}
"""

DLG SPR_s
{shk}WHO NEEDS YOU, DOOR{shk}

DLG SPR_t
Sorry, trash can. I lied when I said I'd take you with me.

DLG SPR_u
Whoah, the sink still works!

DLG SPR_v
The bathroom has the worst trash: {wvy}ZERO SNACKS{wvy}

DLG SPR_w
Feels nice to be outside!

DLG SPR_x
This smells nice!

DLG SPR_y
It's a flower!

END 0
Okay, you want to go back inside now.

VAR towel
0

VAR showerclogged
0

VAR sinkclogged
0

VAR toiletclogged
0

VAR water
0

VAR bakingsoda
0


