
Escape From The Gates Of Hell. 

# BITSY VERSION 4.5

! ROOM_FORMAT 1

PAL 0
NAME Room !
158,50,34
255,199,59
255,242,233

PAL 1
255,255,255
255,213,1
255,255,255

ROOM 0
b,0,b,0,b,0,b,0,b,0,b,0,b,0,b,0
0,d,e,e,e,e,e,e,e,e,e,e,e,e,e,b
b,f,0,0,0,0,0,0,0,0,0,0,0,0,f,0
0,f,0,0,0,0,0,0,0,0,3h,0,0,0,f,b
b,f,0,0,0,0,f,0,0,0,0,0,0,0,f,0
0,f,0,0,0,0,f,0,0,d,0,0,0,0,f,b
b,f,0,3h,0,0,f,0,0,f,0,0,0,0,0,0
0,f,0,0,e,e,h,0,0,h,e,e,e,0,f,b
b,f,0,0,0,0,0,0,0,0,0,0,0,0,f,0
0,f,0,0,0,0,0,0,0,0,0,0,0,0,f,b
b,f,0,0,3h,0,0,f,0,0,0,0,0,0,f,0
0,f,0,0,0,0,g,f,0,0,0,0,d,0,f,b
b,f,0,0,e,e,e,h,0,0,0,j,i,0,f,0
0,f,0,0,0,0,0,0,0,0,0,0,0,0,f,b
b,j,i,i,i,i,i,i,i,i,i,i,i,i,i,0
0,b,0,b,0,b,0,b,0,b,0,b,0,b,0,b
NAME room 1
ITM 1 13,12
EXT 15,6 1 0,1
PAL 0

ROOM 1
b,b,b,b,b,b,e,e,e,e,e,e,e,e,e,h
0,0,0,0,0,0,0,0,0,e,0,0,0,0,0,i
b,b,b,b,b,b,0,0,f,i,0,0,0,0,0,b
0,0,0,0,0,0,0,0,f,0,0,h,e,0,0,b
0,0,0,0,0,0,0,0,f,0,0,j,i,0,0,b
g,g,g,0,0,0,0,0,f,0,0,0,0,0,0,b
0,h,i,0,0,0,0,0,f,0,0,0,0,0,0,b
g,g,g,0,0,3h,0,0,0,0,0,0,3h,0,0,b
0,0,0,0,0,0,0,0,0,0,0,0,0,0,0,b
0,0,0,0,0,e,e,e,e,e,e,0,0,0,0,b
0,3h,0,0,0,0,0,0,0,0,0,0,0,0,k,k
0,0,0,0,0,0,0,0,0,0,0,0,3h,0,k,k
0,0,h,e,0,0,3h,0,0,0,0,0,0,0,0,0
0,0,j,i,0,0,0,0,0,0,0,0,0,0,0,0
0,0,0,l,l,0,0,0,0,0,b,b,b,0,0,0
d,i,e,l,l,e,e,e,e,e,e,e,e,0,0,0
NAME room 2
ITM 1 0,6
ITM 4 11,13
ITM 5 1,13
EXT 0,1 0 0,0
EXT 4,15 3 4,0
EXT 15,11 2 0,11
EXT 15,12 2 0,12
EXT 3,15 3 3,0
PAL 0

ROOM 2
b,0,b,0,b,0,b,0,b,0,b,0,b,0,b,0
0,0,3h,0,0,d,e,e,e,0,0,0,0,0,0,b
b,0,d,d,e,i,15,16,i,i,h,i,0,0,0,0
0,0,d,h,i,0,13,14,0,1a,f,j,e,3h,0,b
b,0,h,3h,0,m,n,n,n,n,o,0,h,i,e,0
0,0,f,0,0,v,0,0,0,0,p,0,0,0,d,b
b,0,h,0,0,v,0,0,0,0,p,0,1a,d,0,0
0,h,i,0,1a,v,17,0,1g,0,q,r,19,s,t,b
b,0,18,y,1b,w,0,0,0,0,0,0,0,0,u,0
18,18,18,z,0,0,17,0,0,0,17,0,17,0,u,b
b,b,0,z,0,0,0,0,0,0,0,0,0,0,u,0
1d,1d,1e,z,0,0,0,0,0,0,0,0,0,0,u,b
1c,1c,1f,z,0,0,0,0,15,16,0,0,0,0,u,0
b,b,0,10,11,11,11,11,13,14,11,11,11,11,12,b
0,0,0,0,0,0,0,0,0,0,0,0,0,0,0,0
0,b,0,b,0,b,0,b,0,b,0,b,0,b,0,b
NAME room 3
ITM 4 8,6
EXT 0,11 1 15,11
EXT 0,12 1 15,12
PAL 0

ROOM 3
b,n,b,1h,1h,b,n,b,n,b,n,b,n,b,n,b
p,0,g,1h,1h,g,0,0,0,0,0,0,0,0,0,1i
p,0,b,0,0,b,0,1x,1y,0,0,1j,1j,1j,0,1i
p,0,0,0,0,0,0,0,0,0,0,v,v,1k,0,1i
p,0,0,0,0,0,0,0,0,0,0,v,v,1k,0,1i
p,0,0,1p,1w,1p,1s,0,0,0,0,v,v,1k,0,1i
b,0,0,1p,1p,1p,1s,0,0,0,0,1m,1l,1l,0,b
p,0,0,1p,1w,1p,1s,0,0,0,0,0,0,0,0,1i
b,0,0,1p,1p,1p,1s,0,0,0,0,0,0,0,0,b
p,0,0,1p,1p,1p,1v,1t,1t,1t,1t,1t,1u,0,0,1i
b,0,0,1p,1w,1p,1p,1w,1p,1p,1w,1p,1s,0,0,b
p,0,0,1p,1p,1p,1p,1p,1p,1p,1p,1p,1s,0,0,1i
p,0,0,1q,1q,1q,1q,1q,1q,1q,1q,1q,1r,0,k,k
p,0,0,0,0,0,0,0,0,0,0,0,0,0,k,k
p,0,0,0,0,0,0,0,0,0,0,0,0,0,0,1i
q,b,r,b,r,b,r,b,r,b,r,b,r,b,r,b
NAME room 4
ITM 1 3,13
EXT 15,13 4 0,13
EXT 3,0 1 3,15
EXT 4,0 1 4,15
EXT 15,12 4 0,11
PAL 0

ROOM 4
b,b,b,b,b,1h,1h,b,b,b,b,b,b,b,b,b
b,0,0,0,b,0,0,b,0,0,0,0,0,0,0,b
b,0,0,0,0,0,0,0,0,0,0,0,0,0,0,b
b,0,27,27,27,27,0,0,0,0,0,27,27,27,0,b
b,0,0,0,0,0,0,0,0,0,0,0,0,0,b,b
b,b,b,b,0,0,0,0,0,0,0,0,0,0,0,k
0,d,0,b,0,22,1d,1d,1d,1d,1d,1d,1e,0,0,k
0,h,0,b,0,23,20,20,20,20,20,20,21,0,b,b
j,i,0,b,0,23,20,20,20,20,20,20,21,0,0,b
0,0,0,b,0,23,20,20,20,20,20,20,21,0,0,b
b,b,b,b,0,23,20,20,20,20,20,20,21,0,0,b
1z,1z,0,0,0,23,20,20,20,20,20,20,21,0,0,b
1z,1z,0,0,0,23,20,20,20,20,20,20,21,0,0,0
0,b,b,0,0,23,20,20,20,20,20,20,21,0,0,b
0,0,0,b,0,1m,1l,25,25,25,25,25,26,0,0,b
d,e,0,b,b,b,b,b,b,b,b,b,b,b,b,b
NAME room 5
EXT 0,12 3 15,13
EXT 5,0 5 5,15
EXT 6,0 5 6,15
EXT 15,5 6 0,4
EXT 15,6 6 0,5
PAL 0

ROOM 5
b,0,b,0,b,0,b,0,b,0,b,0,b,0,b,0
0,0,0,f,0,0,0,0,f,0,0,0,f,0,0,b
b,0,0,f,0,0,0,0,f,0,0,0,f,0,0,0
0,0,0,0,0,0,0,0,0,0,0,0,0,0,0,b
b,0,0,f,0,3h,0,0,f,0,0,0,f,0,0,0
0,0,0,f,0,0,0,0,f,0,0,0,f,0,0,b
b,0,0,0,0,0,0,0,0,0,0,0,0,0,0,0
0,0,0,f,0,0,0,0,f,0,0,0,f,0,0,b
b,0,0,f,0,0,0,0,f,0,3h,0,f,0,0,0
0,0,0,0,0,0,0,0,0,0,0,0,0,0,0,b
b,0,0,f,0,0,0,0,f,0,0,0,f,0,0,0
0,0,0,f,0,0,0,0,f,0,0,0,f,0,0,b
b,0,0,f,0,0,0,0,f,0,0,0,0,0,0,0
b,0,0,0,b,0,0,b,0,0,28,29,0,0,0,b
b,0,0,0,b,l,l,b,0,0,2b,2a,0,0,0,0
0,b,0,b,b,l,l,b,b,0,0,b,0,b,0,0
NAME room 6
ITM 4 12,14
EXT 5,15 4 5,0
EXT 6,15 4 6,0
PAL 0

ROOM 6
b,0,b,0,b,1h,1h,1h,1h,1h,b,0,b,0,b,0
2c,0,2c,0,2c,1h,1h,1h,1h,1h,2c,0,2c,0,2c,0
0,0,0,0,0,0,0,0,0,0,0,0,0,0,0,d
b,2c,b,0,0,0,2i,0,0,0,2i,0,0,0,0,h
1z,1z,0,0,3h,0,2h,2e,2e,2e,2j,0,0,0,h,e
1z,1z,0,0,0,0,2f,2d,0,2d,2k,0,3h,0,i,e
b,2c,b,0,0,0,2g,0,3e,0,2l,0,0,0,0,h
0,0,0,0,0,0,2m,2o,2q,2o,2n,36,37,0,j,i
0,0,h,e,0,0,2s,2r,2r,2r,2t,35,33,0,0,d
0,h,h,i,0,0,2u,0,3g,0,2v,2z,32,0,0,h
0,j,i,i,0,39,38,2w,2y,2x,0,30,31,0,0,f
0,0,0,0,0,0,0,3a,0,3b,0,34,2f,0,0,h
0,0,3h,0,0,0,0,0,0,0,0,34,2f,0,j,i
0,0,0,0,0,0,0,0,0,0,0,3d,3c,0,0,0
b,0,b,0,b,0,b,0,b,0,b,0,b,0,b,0
2c,0,2c,0,2c,0,2c,0,2c,0,2c,0,2c,0,2c,0
NAME room 7
EXT 0,4 4 15,5
EXT 0,5 4 15,6
END undefined 5,0
END undefined 6,0
END undefined 7,0
END undefined 8,0
END undefined 9,0
PAL 0

ROOM 7
0,0,0,0,0,0,0,0,0,0,0,0,0,0,0,0
0,0,0,0,0,0,0,0,0,0,0,0,0,0,0,0
0,0,0,0,0,0,0,0,0,0,0,0,0,0,0,0
0,0,0,0,0,0,0,0,0,0,0,0,0,0,0,0
0,0,0,0,0,0,0,0,0,0,0,0,0,0,0,0
0,0,0,0,0,0,0,0,0,0,0,0,0,0,0,0
0,0,0,0,0,0,0,0,0,0,0,0,0,0,0,0
0,0,0,0,0,0,0,0,0,0,0,0,0,0,0,0
0,0,0,0,0,0,0,0,0,0,0,0,0,0,0,0
0,0,0,0,0,0,0,0,0,0,0,0,0,0,0,0
0,0,0,0,0,0,0,0,0,0,0,0,0,0,0,0
0,0,0,0,0,0,0,0,0,0,0,0,0,0,0,0
0,0,0,0,0,0,0,0,0,0,0,0,0,0,0,0
0,0,0,0,0,0,0,0,0,0,0,0,0,0,0,0
0,0,0,0,0,0,0,0,0,0,0,0,0,0,0,0
0,0,0,0,0,0,0,0,0,0,0,0,0,0,0,0
NAME room 8
PAL 0

ROOM 8
0,0,0,0,0,0,0,0,0,0,0,0,0,0,0,0
0,0,0,0,0,0,0,0,0,0,0,0,0,0,0,0
0,0,0,0,0,0,0,0,0,0,0,0,0,0,0,0
0,0,0,0,0,0,0,0,0,0,0,0,0,0,0,0
0,0,0,0,0,0,0,0,0,0,0,0,0,0,0,0
0,0,0,0,0,0,0,0,0,0,0,0,0,0,0,0
0,0,0,0,0,0,0,0,0,0,0,0,0,0,0,0
0,0,0,0,0,0,0,0,0,0,0,0,0,0,0,0
0,0,0,0,0,0,0,0,0,0,0,0,0,0,0,0
0,0,0,0,0,0,0,0,0,0,0,0,0,0,0,0
0,0,0,0,0,0,0,0,0,0,0,0,0,0,0,0
0,0,0,0,0,0,0,0,0,0,0,0,0,0,0,0
0,0,0,0,0,0,0,0,0,0,0,0,0,0,0,0
0,0,0,0,0,0,0,0,0,0,0,0,0,0,0,0
0,0,0,0,0,0,0,0,0,0,0,0,0,0,0,0
0,0,0,0,0,0,0,0,0,0,0,0,0,0,0,0
PAL 0

TIL 10
00000100
00000100
00000100
00000100
00000100
00000100
00000111
00000000
WAL true

TIL 11
00000000
00000000
00000000
00000000
00000000
00000000
11111111
00000000
WAL true

TIL 12
00001000
00001000
00001000
00001000
00001000
00001000
11111000
00000000
WAL true

TIL 13
10000000
10000000
10000000
10000110
10000110
10000000
10000000
10000000
WAL false

TIL 14
00000001
00000001
00000001
00000001
00000001
00000001
00000001
00000001
WAL false

TIL 15
00000000
00001111
00010000
00100000
01000000
10000000
10000000
10000000
WAL false

TIL 16
00000000
11110000
00001000
00000100
00000010
00000001
00000001
00000001
WAL false

TIL 17
00000000
00111100
01000010
10000001
10000001
10000001
10000001
11111111
WAL true

TIL 18
00000000
00000000
00000000
00000000
00000000
00000000
00000000
00000000
WAL true

TIL 19
00010000
00010000
01111100
01000100
11000111
00000000
00000000
00000000
WAL true

TIL 20
01010101
10101010
01010101
10101010
01010101
10101010
01010101
10101010

TIL 21
01010100
10101100
01010100
10101100
01010100
10101100
01010100
10101100

TIL 22
00000000
00000000
00000000
00111111
00111111
00101010
00110101
00101010

TIL 23
00110101
00101010
00110101
00101010
00110101
00101010
00110101
00101010

TIL 24
00111111
00000000
00000000
00000000
00000000
00000000
00000000
00000000

TIL 25
11111111
00000000
00000000
00000000
00000000
00000000
00000000
00000000

TIL 26
11111100
00000000
00000000
00000000
00000000
00000000
00000000
00000000

TIL 27
00000000
00000000
00111100
00011000
11111111
10100101
10100101
11111111

TIL 28
00000000
00000000
00000000
00000000
00111111
00100100
00100111
00100000

TIL 29
00000000
00000000
00000000
00000000
11111000
01001000
11001000
00001000

TIL 30
00001111
00000100
00000100
00000100
00000100
00000100
00000100
00000100

TIL 31
11100000
10000000
10000000
10000000
10000000
10000000
10000000
10000000

TIL 32
10000000
11100000
00100000
00100000
00100000
00100000
00100000
00100000

TIL 33
11111000
10000000
10000000
10000000
10000000
10000000
10000000
10000000

TIL 34
00000100
00000100
00000100
00000100
00000100
00000100
00000100
00000100

TIL 35
00000111
00000100
00000100
00000100
00000100
00000100
00000100
00000100

TIL 36
00000000
00000000
00000000
00000000
00011001
00011001
00011001
00011111

TIL 37
00000000
00000000
00000000
00000000
10011000
10011000
10011000
11111000

TIL 38
11111000
00010000
00010000
01010000
01010000
11110000
00000000
00000000

TIL 39
00000111
00000100
00000100
00000101
00000101
00000111
00000000
00000000

TIL b
00000000
01010000
01011010
01111110
01111110
01111110
00111100
00000000
>
00000000
01001010
01011010
00111100
01111100
01111110
00111100
00000000
WAL true

TIL d
00000000
00000000
00000000
00000000
00000100
00000111
00011100
00011011
WAL true

TIL e
00000000
00000000
00000000
00000000
00000000
10010111
10110010
11111010
WAL true

TIL f
00100100
00101100
00111100
00100100
00110100
00101100
00110100
00100100
WAL true

TIL g
00000000
01010000
01011010
01111110
01111110
01111110
00111100
00000000
>
00000000
01001010
01011010
00111100
01111100
01111110
00111100
00000000
WAL false

TIL h
00000100
00000111
00000010
00000111
00000111
00110110
11000111
10111101
WAL true

TIL i
00100010
10110010
00000110
01101001
01010100
11000100
00000000
00000000
WAL true

TIL j
00000110
00000100
00001101
00001011
00000100
00000011
00000000
00000000
WAL true

TIL k
00000000
00010000
00001000
01111100
01111100
00001000
00010000
00000000

TIL l
00000000
00011000
00011000
01011010
00111100
00011000
00000000
00000000

TIL m
00000000
00111111
00110000
00110000
00110000
00110000
00110000
00110000
WAL true

TIL n
00000000
11111111
00000000
00000000
00000000
00000000
00000000
00000000
WAL true

TIL o
00000000
11111110
00000010
00000010
00000010
00000010
00000010
00000010
WAL true

TIL p
00000010
00000010
00000010
00000010
00000010
00000010
00000010
00000010
WAL true

TIL q
00000010
00000010
00000010
00000010
00000011
00000000
00000000
00000000
WAL true

TIL r
00000000
00000000
00000000
00000000
11111111
00000000
00000000
00000000
WAL true

TIL s
00000000
00000000
01111110
01000010
11000011
00000000
00000000
00000000
WAL true

TIL t
00000000
00000000
00000000
00000000
11111000
00001000
00001000
00001000
WAL true

TIL u
00001000
00001000
00001000
00001000
00001000
00001000
00001000
00001000
WAL true

TIL v
00110000
00110000
00110000
00110000
00110000
00110000
00110000
00110000
WAL true

TIL w
00110000
00110000
00110000
11110000
00000000
00000000
00000000
00000000
WAL true

TIL x
00000000
00000000
00000000
11111111
00000000
00000000
00000000
00000000
WAL true

TIL y
00000000
00000000
00000000
00000111
00000100
00000100
00000100
00000100
WAL true

TIL z
00000100
00000100
00000100
00000100
00000100
00000100
00000100
00000100
WAL true

TIL 1a
00011100
00010010
00011010
00010110
00010110
00010000
00010000
00010000
>
00011100
00010010
00011110
00010000
00010000
00010000
00010000
00010000
WAL true

TIL 1b
00010000
00010000
00010000
11111111
00000000
00000000
00000000
00000000

TIL 1c
01010101
10101010
01010101
11111111
11111111
00000000
00000000
00000000

TIL 1d
00000000
00000000
00000000
11111111
11111111
10101010
01010101
10101010

TIL 1e
00000000
00000000
00000000
11111100
11111100
10101100
01010100
10101100

TIL 1f
01010100
10101100
01010100
11111100
11111100
00000000
00000000
00000000

TIL 1g
00000000
11111111
10000001
11111111
10000001
11111111
11111111
10000001

TIL 1h
00011000
00111100
01011010
00011000
00011000
00011000
00000000
00000000

TIL 1i
01000000
01000000
01000000
01000000
01000000
01000000
01000000
01000000
WAL true

TIL 1j
00000000
00000000
00000000
00000000
00000000
00000000
11111111
11111111

TIL 1k
00110001
00110001
00110001
00110001
00110001
00110001
00110001
00110001
WAL true

TIL 1l
11111111
00000000
00000000
00000000
00000000
00000000
00000000
00000000
WAL true

TIL 1m
00111111
00000000
00000000
00000000
00000000
00000000
00000000
00000000
WAL true

TIL 1n
00000000
00000000
01111111
01111111
01111111
01111111
01111111
01111111

TIL 1o
01111111
01111111
01111111
01111111
01111111
01111111
01111111
01111111

TIL 1p
11111111
11111111
11111111
11111111
11111111
11111111
11111111
11111111
WAL true

TIL 1q
10000001
10000001
00000000
00000000
00000000
00000000
00000000
00000000

TIL 1r
10000010
10000010
00000000
00000000
00000000
00000000
00000000
00000000

TIL 1s
11111110
11111110
11111110
11111110
11111110
11111110
11111110
11111110

TIL 1t
00000000
11111111
11111111
11111111
11111111
11111111
11111111
11111111

TIL 1u
00000000
11111110
11111110
11111110
11111110
11111110
11111110
11111110

TIL 1v
11111110
11111111
11111111
11111111
11111111
11111111
11111111
11111111

TIL 1w
11101111
11010111
11101111
11101111
11101111
11000111
11111111
11111111
>
11101111
11011111
11101111
11101111
11101111
11000111
11111111
11111111
WAL true

TIL 1x
00000000
01010000
01110000
01011101
01111011
00011111
00110000
00000000
WAL true

TIL 1y
00000000
00000000
00001100
11110100
11010100
10110000
00110000
00000000
>
00000000
00000000
00001101
10110010
01110000
11010000
00110000
00000000
WAL true

TIL 1z
00000000
00100000
01000000
11111100
11111100
01000000
00100000
00000000

TIL 2a
00001000
11111000
00000000
00000000
00000000
00000000
00000000
00000000

TIL 2b
00100000
00111111
00000000
00000000
00000000
00000000
00000000
00000000

TIL 2c
11111111
00000001
01111101
01000101
01010101
01011101
01000001
01111111
WAL true

TIL 2d
00111000
01000100
10111010
10101001
10111001
10000001
01111110
00000000

TIL 2e
00000000
00000000
11111111
00000000
00000000
00000000
00000000
00000000

TIL 2f
10000000
10000000
10000000
10000000
10000000
10000000
10000000
10000000

TIL 2g
10000000
10000000
10000000
10000000
01000000
00100000
00010000
00001000

TIL 2h
01000010
10000011
11111111
10000000
10000000
10000000
10000000
10000000

TIL 2i
00000000
00000000
00010000
00010000
00011000
00010100
00100100
01000010

TIL 2j
01000010
10000011
11111111
00000001
00000001
00000001
00000001
00000001

TIL 2k
00000001
00000001
00000001
00000001
00000001
00000001
00000001
00000001

TIL 2l
00000001
00000001
00000001
00000010
00000100
00001000
00010000
00100000

TIL 2m
00000100
00000010
00000001
00000000
00000000
00000000
00000000
00000000

TIL 2n
01000000
10000000
00000000
00000000
00000000
00000000
00000000
00000000

TIL 2o
00000000
00000000
11111111
00000000
00000000
00000000
00000000
00000000

TIL 2p
00011000
00011000
00011000
00011000
00000000
00000000
00000000
00000000

TIL 2q
00000000
00000000
11111111
00111100
00111100
00111100
00111100
00111100

TIL 2r
11111111
00000000
00000000
00000000
00000000
00000000
00000000
00000000

TIL 2s
00000011
00000110
00001100
00011000
00110001
01100011
11000101
10001001

TIL 2t
10000000
11000000
01100000
00110000
00011000
10001100
11000110
10100010

TIL 2u
10010001
10010001
10010001
10010001
10010001
10010001
10010001
10010001

TIL 2v
10010010
10010010
10010011
10010000
10010000
10010000
10011111
10000000

TIL 2w
10000000
01000000
00100000
00010000
00011000
00010100
00010110
00010101

TIL 2x
00000001
00000010
00000100
00001000
00011000
00101000
01101000
10101000

TIL 2y
00000000
00000000
00000000
00000000
00000000
00000000
00000000
11111111

TIL 2z
00000100
00001111
11111000
00010011
00010000
00010011
11111000
00001000

TIL 3a
00010100
00010100
00010100
00010100
00010100
01110010
01000001
01111111

TIL 3b
00101000
00101000
00101000
00101000
00101000
11001100
10000010
11111111

TIL 3c
10000000
00000000
00000000
00000000
00000000
00000000
00000000
00000000

TIL 3d
00000111
00000000
00000000
00000000
00000000
00000000
00000000
00000000

TIL 3e
00000000
00000000
00000000
00010000
00101000
01101100
10101010
11111111

TIL 3f
00000000
00000000
00000000
00000000
00000100
00000111
00011100
00011011
WAL true

TIL 3g
01111111
01010101
01101011
01010101
01101011
01010101
01101011
01111111

TIL 3h
00000000
00000000
00000000
00011000
01111100
10000010
01111101
01000100
>
00001000
00010100
00011100
00000000
01111100
10000010
01111101
01000100

SPR A
00000000
00111000
00111000
00010000
00111000
00010000
00111000
00101000
>
00000000
00111000
00111000
00010000
00111000
00010000
00011000
00001000
POS 0 5,4

SPR a
00000000
00111000
00111000
00010000
00111000
00010000
00111000
00101000
>
00000000
00111000
00111000
00010000
00111000
00010000
00011000
00001000
DLG SPR_0
POS 3 12,5

SPR b
00000000
00111001
00111011
00111010
00010010
00011110
00010010
01111010
DLG SPR_2
POS 0 11,5

SPR c
00000000
00000000
00101000
00010000
00111000
01111100
01000100
01000100
DLG SPR_1
POS 0 11,10

SPR d
00000000
00111000
00101000
01111000
00100000
01111000
01001000
00000000
>
00000000
00111000
00101000
00111000
00100000
01110000
01000000
00000000
DLG SPR_5
POS 1 10,13

SPR e
00000000
00111000
00101000
01111000
00100000
01111000
01001000
00000000
>
00000000
00111000
00101000
00111000
00100000
01110000
01000000
00000000
DLG SPR_6
POS 1 12,13

SPR f
00000100
01110110
01010101
01110100
11111100
01110100
01110100
01010100
>
00000100
01110110
01010101
01110100
11111100
01110100
01110100
00010100
DLG SPR_3
POS 2 10,14

SPR g
00000000
01000100
11111110
10101010
10111010
10010010
11111110
10010010
DLG SPR_4
POS 4 10,5

ITM 1
00000000
00000000
11100000
10111110
11101010
00000000
00000000
00000000
NAME Keys
DLG ITM_1

ITM 4
00000000
00001000
00001000
00111110
00001000
00001000
00001000
00000000
NAME Sacrifice
DLG ITM_0

ITM 5
00000000
00000000
00000000
00111100
00111100
00111100
00000000
00000000
NAME Letter
DLG ITM_2

DLG ITM_1
{rbw}You Have Found A Key{rbw}

DLG SPR_1
You have 3 minutes to leave this place or you shall be trapped forever. {shk}BEWARE{shk} others aren't as friendly as I.

DLG SPR_2
"""
You should leave whilst you still can.

  - else ?

}{sequence
  - 
  - 
}
"""

DLG ITM_0
You Have Found A {wvy}Sacrifice{wvy}

DLG ITM_2
"""
{rbw}You Found A Letter{rbw}

Hell is a scary place right? In order to {wvy}{shk}[Escape]{shk}{wvy} you need to collect all the 3 sacrifices and 3 keys.
"""

DLG SPR_3
You should not be here. You best {shk} NOT {shk} Have taken anything. 

DLG SPR_0
Quick, Leave. Walk through the fire in {clr2}[Room 2]{clr2} and collect the {rbw}[Key]{rbw}.

DLG SPR_4
What you seek is in {clr2}[Room 7]. {clr2}

DLG SPR_5
What you seek is sacrifice, yes?

DLG SPR_6
{shk}*GURP*{shk}

END 0


END undefined
{rbwYOU HAVE ESCAPED FROM HELL{rbw}

END undefinee


VAR a
42


