Way Out

# BITSY VERSION 5.2

! ROOM_FORMAT 1

PAL 0
9,143,16
0,0,0
236,246,255

PAL 1
237,84,8
0,0,0
255,255,255

PAL 2
255,255,255
255,255,255
255,255,255

PAL 3
6,54,16
46,2,12
112,21,21

PAL 4
46,46,46
18,18,18
0,0,0

PAL 5
56,48,17
0,0,0
255,255,255

PAL 6
255,85,220
107,31,103
42,36,255

ROOM 0
b,b,0,b,b,b,b,b,b,b,b,b,b,b,b,b
b,b,0,b,b,b,b,b,b,b,b,b,b,b,b,b
b,b,0,b,0,0,0,0,0,0,0,0,0,0,b,b
b,b,0,b,0,0,b,b,0,0,0,0,0,0,b,b
b,b,0,b,0,0,b,b,0,0,0,0,0,0,b,b
b,b,0,b,0,0,b,b,0,0,0,0,0,0,b,b
b,b,0,b,0,0,b,b,0,0,0,0,0,0,b,b
b,b,0,0,0,0,b,b,0,0,0,0,0,0,b,b
b,b,0,0,0,0,b,b,0,0,0,0,0,0,b,b
b,b,0,0,0,0,b,b,b,b,b,b,0,0,b,b
b,b,0,0,0,0,b,b,b,b,b,b,0,0,b,b
b,b,0,0,0,0,0,0,0,0,b,b,0,0,b,b
b,b,0,0,0,0,0,0,0,0,b,b,0,0,b,b
b,b,0,0,0,0,b,0,0,0,b,b,0,0,b,b
b,b,b,b,b,b,b,0,0,0,b,b,0,0,c,b
b,b,b,b,b,b,b,b,b,b,b,b,b,b,b,b
ITM 0 11,8
EXT 14,14 2 15,15
EXT 2,0 1 6,0
PAL 0

ROOM 1
b,b,b,b,b,b,0,b,b,b,b,b,b,b,b,b
b,b,b,b,b,b,0,0,b,b,b,b,b,b,b,b
b,b,b,b,0,0,0,0,0,0,b,b,b,b,b,b
b,b,0,0,0,0,0,0,0,0,0,b,b,b,b,b
b,0,0,0,0,0,0,0,0,0,0,0,0,0,b,b
b,0,0,0,0,0,0,0,0,0,0,0,0,0,0,b
b,0,0,0,0,0,0,0,0,0,0,0,0,0,0,b
b,0,0,0,0,0,0,0,0,0,0,0,0,0,0,b
b,0,0,0,0,0,0,0,0,0,0,0,0,0,0,b
b,0,0,0,0,0,0,0,0,0,0,0,0,0,0,b
b,0,0,0,0,0,0,0,0,0,0,0,0,0,0,b
b,0,0,0,0,0,0,0,0,0,0,0,0,0,0,b
b,0,0,0,0,0,d,0,d,0,0,0,0,0,0,b
b,0,0,0,0,d,0,0,0,d,0,0,0,0,0,b
b,0,0,0,0,d,0,0,0,d,0,0,0,0,0,b
b,b,b,b,b,d,0,0,0,d,b,b,b,b,b,b
ITM 1 5,1
ITM 2 6,2
EXT 6,0 0 0,0
EXT 7,15 4 8,0
EXT 6,15 4 7,0
EXT 8,15 4 7,1
PAL 1

ROOM 2
0,b,b,b,b,b,b,b,d,d,b,b,b,b,b,b
b,b,b,b,b,b,b,b,d,d,b,b,b,b,b,b
b,b,b,b,b,b,b,b,0,0,0,b,b,b,b,b
b,b,b,b,b,b,b,b,0,0,0,0,0,0,b,b
0,0,0,b,b,b,b,0,0,0,b,0,0,0,b,b
b,b,0,b,b,b,0,0,b,b,b,b,b,0,b,b
b,b,0,b,b,b,0,b,b,b,0,0,b,0,b,b
b,b,0,b,b,b,0,b,b,0,0,b,b,0,b,b
b,b,0,b,b,b,0,b,0,0,b,b,b,0,b,b
b,b,0,b,b,b,0,0,0,0,b,b,b,0,b,b
b,b,0,b,b,b,0,0,0,0,b,b,0,0,b,b
b,b,0,b,b,b,0,0,0,b,b,b,0,b,b,b
b,b,0,0,b,b,0,0,b,b,b,b,0,0,b,b
b,b,b,0,0,0,0,b,b,b,b,b,b,0,d,b
b,b,b,b,b,b,b,b,b,b,b,b,b,d,d,d
b,b,b,b,b,b,b,b,b,b,b,b,b,b,d,b
ITM 2 0,0
ITM 4 0,4
ITM 3 11,6
EXT 8,0 3 7,15
EXT 0,4 1 14,8
PAL 1

ROOM 3
f,0,0,0,b,b,0,e,0,b,0,0,b,0,0,0
b,0,0,0,b,b,0,0,0,0,0,0,b,0,0,b
b,0,b,0,0,0,0,0,0,0,b,0,0,0,b,b
0,0,b,0,0,b,0,0,b,0,0,0,b,0,0,0
b,b,b,b,0,0,0,0,0,b,0,b,b,0,0,b
0,b,b,b,0,b,0,0,0,0,b,0,0,b,0,0
b,0,b,0,0,0,0,0,0,b,0,b,0,0,0,b
0,0,b,0,b,0,0,0,b,b,0,0,b,0,0,0
b,0,b,0,0,0,0,0,0,b,b,0,0,0,0,b
0,0,0,0,b,0,0,0,0,b,0,b,0,b,0,0
b,b,0,0,0,0,0,0,0,0,0,0,0,b,0,b
0,0,0,0,b,b,b,0,b,b,b,0,0,0,0,0
0,0,b,b,b,b,b,0,b,b,b,b,b,0,0,0
b,b,b,b,b,b,b,0,b,b,b,b,b,b,0,0
b,b,b,b,b,b,b,d,b,b,b,b,b,b,b,0
b,b,b,b,b,b,b,d,b,b,b,b,b,b,b,b
ITM e 6,9
EXT 7,0 4 1,2
EXT 0,0 6 15,15
PAL 5

ROOM 4
b,b,b,b,b,b,b,0,0,b,b,b,b,b,b,b
b,b,b,b,b,b,b,0,0,b,b,b,b,b,b,b
b,0,0,0,0,0,b,0,0,b,0,b,0,0,b,b
b,0,0,0,0,0,0,0,b,0,0,0,0,0,0,0
b,0,b,b,b,b,b,b,0,0,b,b,b,b,0,0
b,0,b,b,b,b,0,0,0,b,b,b,b,b,0,0
b,0,b,b,b,b,0,0,b,b,b,b,0,0,0,0
b,0,b,b,b,b,0,0,0,b,b,b,0,0,0,b
b,0,b,b,b,b,0,0,0,b,b,b,0,0,0,b
b,0,b,b,b,b,0,0,0,0,0,b,0,0,0,0
b,0,b,b,b,b,b,b,b,0,0,b,0,0,0,0
b,0,b,b,b,b,b,b,b,0,0,b,0,0,0,b
b,0,b,b,b,b,0,0,0,0,0,b,0,0,0,b
b,0,b,b,b,0,0,0,0,0,b,b,b,0,0,b
b,0,0,0,0,0,0,b,b,b,b,b,b,b,b,b
b,b,b,b,b,b,b,b,b,b,b,b,b,b,b,b
EXT 15,5 5 1,2
EXT 15,6 5 1,6
EXT 15,10 5 13,15
EXT 15,9 5 9,4
EXT 15,3 5 4,10
EXT 15,4 5 8,9
PAL 3

ROOM 5
0,0,0,0,0,0,0,0,0,0,0,0,b,b,b,b
b,b,b,b,b,b,b,b,b,b,0,0,b,0,0,b
b,0,0,0,0,0,0,0,0,b,0,0,b,0,0,b
b,b,b,b,b,b,b,b,b,b,b,b,b,0,0,b
b,b,d,0,0,0,0,0,b,0,0,0,0,0,0,b
b,b,b,b,b,b,b,0,b,b,b,b,b,0,0,b
b,0,0,0,0,b,0,0,0,0,0,0,b,0,0,b
b,0,0,0,b,b,0,b,0,b,b,0,b,0,0,b
0,0,0,b,0,0,0,b,b,0,0,0,b,0,0,b
0,0,b,b,b,b,b,b,0,0,b,0,b,b,b,0
0,0,b,b,0,0,0,b,b,0,0,0,0,0,b,0
0,0,b,b,b,b,b,b,0,0,0,b,b,0,b,0
0,0,b,0,0,0,0,b,0,b,0,0,0,0,b,0
0,0,b,0,0,0,0,b,0,b,0,0,b,b,b,0
0,b,0,0,0,0,0,b,0,0,0,0,b,0,0,0
0,b,0,0,0,0,0,b,b,b,b,b,b,0,0,0
NAME end bad
ITM 5 4,4
ITM 6 5,10
ITM 9 3,2
ITM 8 5,2
ITM a 12,4
ITM 8 13,4
ITM c 0,14
ITM b 15,10
ITM d 6,2
EXT 2,4 0 13,2
END undefined 6,10
END undefined 0,15
END undefined 14,8
END 0 15,9
END undefined 8,2
END 0 7,2
PAL 4

ROOM 6
0,0,0,0,0,0,0,0,0,0,0,0,0,0,0,c
0,0,0,0,0,0,0,0,0,0,0,0,0,0,0,c
0,0,0,0,0,0,0,0,0,0,0,0,0,0,0,c
0,0,0,0,0,0,0,0,0,0,0,0,0,0,0,0
0,0,0,0,0,0,0,0,0,0,0,0,0,0,0,c
0,0,0,0,0,0,0,0,0,0,0,0,0,0,0,c
0,0,0,0,0,0,0,0,0,0,0,0,0,0,0,c
0,0,0,0,0,0,0,0,0,0,0,0,0,0,0,0
0,0,0,0,0,0,0,0,0,0,0,0,0,0,0,c
0,0,0,0,0,0,0,0,0,0,0,0,0,0,0,0
0,0,0,0,0,0,0,0,0,0,0,0,0,0,0,c
0,0,0,0,0,0,0,0,0,0,0,0,0,0,0,c
0,0,0,0,0,0,0,0,0,0,0,0,0,0,0,c
0,0,0,0,0,0,0,0,0,0,0,0,0,0,0,c
0,0,0,0,0,0,0,0,0,0,0,0,0,0,0,c
c,c,c,0,c,c,c,0,c,0,c,c,c,c,c,0
END undefinee 5,4
PAL 6

TIL a
11111111
10000001
10000001
10011001
10011001
10000001
10000001
11111111
WAL false

TIL b
11101111
11000111
10000011
10000011
00000001
00000001
11101111
11101111
>
11101111
11000111
11000111
10000011
10000011
00000001
11101111
11101111
WAL true

TIL c
11101111
11000111
11000111
10000011
11000111
10000011
10101011
11101111
NAME correct path room 1

TIL d
11101111
11000111
11000111
10000011
00000001
00000001
11101111
11101111
>
11000111
11000111
10000011
10000011
00000001
00000001
11101111
11101111
NAME room 2 tree pathway

TIL e
11111111
10000001
10111101
10111101
10111101
10111101
10111101
10111101
>
11100111
10000001
10111101
10111101
10111101
10111101
10111101
10111101
NAME exit
WAL false

TIL f
11111111
11111111
10111101
10000101
10011001
10101101
10010101
10111001
>
11111111
11111111
10111101
10000101
10011001
10101101
10010101
10111001
NAME correct exit

SPR A
00011000
00011000
01111110
01011010
00011000
00111100
00100100
00100100
>
01011000
01011000
01111110
00011010
00011010
00111100
00100100
00100100
POS 0 6,12
ITM 1 1

SPR a
00000000
00000000
11011000
01110011
01110010
01111110
00111100
00100100
>
00000000
01010000
01010010
01110010
01110010
01111110
00111100
00100100
DLG SPR_0
POS 0 8,12

SPR b
00000000
00000000
00000000
00000000
00000000
00000000
00000000
00000000
NAME Witch
DLG SPR_1
POS 5 13,8

SPR c
00000000
00000000
00000000
01111100
01111100
01111100
00010000
00010000
NAME sign
DLG SPR_2
POS 3 7,8

SPR d
00111100
00111100
01011010
01111110
00011000
00111100
00111100
00100100
>
00011110
00011110
00001100
00111111
00101101
00011110
00011110
00010010
NAME mom
DLG SPR_3
POS 6 7,3

SPR e
00011110
00001100
00101101
00111111
00001100
00011110
00010010
00010010
>
00111100
00011000
00011000
01111110
01011010
00111100
00100100
00100100
NAME dad
DLG SPR_4
POS 6 6,3

ITM 0
00000000
00000000
00000000
00000000
00000000
00000000
00000000
00000000
NAME tea
DLG ITM_0

ITM 1
00000000
00000000
00000000
00000000
00000000
00000000
00000000
00000000
NAME quote
DLG ITM_1

ITM 2
00000000
00000000
00000000
00000000
00000000
00000000
00000000
00000000
NAME wrong path item
DLG ITM_2

ITM 3
00000000
00000000
00000000
00000000
00000000
00000000
00000000
00000000
NAME quote room 3
DLG ITM_3

ITM 4
00000000
00000000
00000000
00000000
00000000
00000000
00000000
00000000
NAME quote room 2
DLG ITM_4

ITM 5
00000000
00000000
00000000
00000000
00000000
00000000
00000000
00000000
NAME reset qoute
DLG ITM_5

ITM 6
00000000
00000000
00000000
00000000
00000000
00000000
00000000
00000000
NAME quote room 4
DLG ITM_6

ITM 7
00000000
00000000
00000000
00000000
00000000
00000000
00000000
00000000
NAME Quote room 3
DLG ITM_7

ITM 8
00000000
00000000
00000000
00000000
00000000
00000000
00000000
00000000
NAME Quote Room 4
DLG ITM_8

ITM 9
00000000
00000000
00000000
00000000
00000000
00000000
00000000
00000000
NAME Quoteee Room 4
DLG ITM_9

ITM a
00000000
00000000
00000000
00000000
00000000
00000000
00000000
00000000
NAME Quooote Rooom 4
DLG ITM_a

ITM b
00000000
00000000
00000000
00000000
00000000
00000000
00000000
00000000
NAME Quote end room 4
DLG ITM_b

ITM c
00000000
00000000
00000000
00000000
00000000
00000000
00000000
00000000
NAME Quote room 4 end
DLG ITM_c

ITM d
00000000
00011000
00111100
00011000
00011000
00111100
00100100
00000000
NAME Room 4
DLG ITM_d

ITM e
00000000
00000000
00000000
00000000
00000000
00000000
00000000
00000000
NAME exit
DLG ITM_e

DLG ITM_0
"""
My necklace!
It must have got torn by the weird tree.
"""

DLG SPR_0
"""
"Arf!" 
"Well that was fun but I better be getting back it's getting dark"
}
"""

DLG ITM_1
"Hmmmm I think the way back was this way..."

DLG ITM_2
"Was this the way?"

DLG ITM_3
"The trees that I passed where bushier than these...."

DLG ITM_4
"This isn't the way..."

DLG ITM_5
"Ah! A familiar path!!"

DLG ITM_6
"OH NO I'M COMPLETELY LOST!!!"

DLG ITM_7
"The trees are making it darker...."

DLG ITM_8
"Hello!?...."

DLG ITM_9
"Leafs Crumbling.."

DLG ITM_a
"Tree Branches Snapping.."

DLG SPR_1
"""
"Evil Laugh"
AHHHHHHHHHH!!!!"
...........END
"""

DLG ITM_b
"""
"I just wanna go home....."
.........You are lost...
"""

DLG ITM_c
"""
MOM!DAD! Where are you!!!??
.....You are lost..
"""

DLG ITM_d
"""
"Thud!" "Im sor...WAIT NOOOO!!!"
........
"""

DLG SPR_2
Forest trail entrance ahead 

DLG ITM_e
"Oh! I think I can make out the exit ahead!"

DLG SPR_3
"OH HONEY!"

DLG SPR_4
"""
"THERE YOU ARE SON!"
"Don't go running off by yourself!"
"""

END 0


END undefined
Game Over

END undefinee
You Found Your Way Back!

END undefinef


VAR a
42

