
Passing Through the Milky Way

# BITSY VERSION 4.8

! ROOM_FORMAT 1

PAL 0
NAME Space
0,29,71
255,255,255
81,255,238

PAL 1
NAME Earth
122,61,80
161,161,161
255,255,255

ROOM 0
0,0,0,0,0,0,0,0,0,0,0,0,0,0,0,5t
0,0,39,0,0,b,0,0,3b,0,0,5q,0,5s,0,0
0,0,0,0,0,0,0,0,0,0,0,5r,5p,0,0,0
0,b,0,0,5t,0,0,0,0,0,0,0,0,0,38,0
0,0,0,0,0,0,0,14,0,0,0,5x,0,0,0,0
16,16,16,16,16,16,16,16,16,16,5s,16,16,b,16,16
0,0,15,5y,0,0,0,0,0,0,0,0,0,0,0,0
3b,16,16,16,16,16,16,16,5u,16,16,16,16,16,16,16
0,0,0,0,5r,0,0,0,0,0,0,0,0,0,0,0
0,0,0,5x,0,0,0,0,0,0,39,0,b,0,0,0
0,0,0,0,0,0,0,0,35,0,0,0,0,0,0,0
0,0,b,0,0,0,0,0,0,0,0,0,0,0,15,0
0,0,0,0,37,0,0,0,0,0,0,15,0,0,0,0
0,0,0,0,0,b,0,0,0,0,0,0,0,0,0,0
b,0,0,0,0,0,0,14,0,0,0,0,0,b,0,0
0,0,0,5r,0,0,0,0,0,0,0,0,0,0,0,0
ITM 5 13,6
ITM 0 7,6
ITM 1 10,6
EXT 15,6 1 0,6
PAL 0

ROOM 1
0,0,0,0,37,0,0,0,b,0,0,0,0,0,0,0
0,0,0,0,0,0,0,0,0,0,0,0,0,5x,0,0
0,0,39,0,3a,0,38,0,0,0,0,38,0,0,0,0
0,0,0,0,0,0,0,3f,0,0,0,0,0,0,0,a
0,0,38,0,37,0,0,0,0,0,0,0,37,0,0,0
16,3g,3e,16,3e,16,16,16,5w,16,5v,5v,5v,5v,0,0
0,0,0,0,0,0,0,0,0,0,0,0,0,1n,0,0
15,16,16,16,16,16,16,3h,16,16,5v,3a,5v,33,0,0
0,0,37,0,0,0,0,0,0,0,0,3b,34,31,0,58
0,0,0,0,0,0,3a,0,0,0,0,0,0,0,0,0
0,0,b,0,0,2w,0,0,0,3a,0,39,0,4o,39,0
0,37,0,0,0,37,3p,3o,3j,3v,3w,0,0,0,0,3f
0,0,0,0,0,43,3q,4b,4p,5m,3x,3y,0,39,0,0
0,0,0,35,0,44,5f,4a,4z,5i,5k,3z,0,0,37,0
5x,0,0,0,0,45,5e,5d,4r,5c,5j,40,0,0,0,0
0,5x,0,0,0,46,5g,5h,4s,4t,5l,41,b,0,0,0
ITM 4 10,6
ITM 3 7,6
ITM 2 4,6
END undefined 11,6
PAL 0

TIL 10
01100110
10111110
11111111
00001010
10101010
01011110
01111110
01011011

TIL 11
11111100
01000101
01111010
00111110
00011110
01000110
11100100
00011000

TIL 12
00110000
11001110
10100110
00101111
10111111
11111111
10110100
01101000

TIL 13
10000001
10011000
11010010
01111111
01011101
01111110
01110000
00000000

TIL 14
00000000
00000000
00000000
00000000
00000000
00000000
00100000
00000000
>
00000000
00000000
00000000
00000000
00000000
00100000
00000000
00000000
WAL true

TIL 15
00000000
00000000
00000010
00000000
00000000
00000000
00000000
00000000
>
00000000
00000010
00000000
00000000
00000000
00000000
00000000
00000000
WAL true

TIL 16
00000000
00000000
00000000
00000000
00000000
00000000
00000000
00000000
WAL true

TIL 17
00001100
00011000
00110000
01100000
11000000
00000000
00000000
00000000

TIL 18
00000000
00000000
00000000
00000000
00000000
00000001
00000010
00000100

TIL 19
00000100
00011000
00100000
01000000
11000000
10000000
00000000
00000000

TIL 20
00000000
00000000
00000111
00111111
11111111
11111111
11111111
11111111

TIL 21
00000000
00000000
00000000
10000000
11111111
11111111
11111111
11111111

TIL 22
00000000
00000000
00000000
00000111
00011111
11111111
11111111
11111111

TIL 23
11111111
11111111
11111111
11111111
11111111
11111111
11111111
11111111

TIL 24
11111111
11111111
11111111
11111111
11111111
11111111
11111111
11111111

TIL 25
11111111
11111111
11111111
11111111
11111111
11111111
11111111
11111111

TIL 26
11111111
11111111
11111111
11111111
11111111
11111111
11111111
11111111

TIL 27
00000000
01111000
11111100
11111110
11111111
11111111
11111111
11111111

TIL 28
00000000
00000000
00000000
00000000
11100000
11110000
11111100
11111110

TIL 29
11111110
11111110
11111111
11111111
11111111
11111111
11111111
11111111

TIL 30
00000100
00000100
00001100
00011000
00110000
11000000
00000000
00000000

TIL 31
10101100
01111100
11101010
10010010
01110100
10011100
11111000
00000000

TIL 32
00000100
00000100
00001100
00011000
00110000
11000000
00000000
00000000

TIL 33
00000000
00000000
00000000
00000000
00000000
00000000
00000000
01110000

TIL 34
00000000
00000001
00000001
00000001
00000001
00000000
00000000
00000000

TIL 35
00000000
00000000
00001000
00000000
00000000
00100000
00000010
00000000

TIL 36
00000000
00000000
00000000
00000000
00000000
00000000
00000000
00000000

TIL 37
00000000
00000000
00001000
00000000
00000000
00000000
00000000
00000001

TIL 38
00000000
01000000
00000000
00000001
00000000
00010000
00000000
00000000

TIL 39
00000000
00000000
00000000
00100000
00000000
00000000
00000000
00000000

TIL 40
00010000
00010000
00010000
00110000
00100000
00100000
00100000
01100000

TIL 41
01100000
01000000
01000000
01000000
01000000
10000000
10000000
00000000

TIL 42
11110000
11110000
11100111
10000110
00111100
00111000
11100001
00000011

TIL 43
00000000
00000000
00000000
00000000
00000000
00000000
00000001
00000001

TIL 44
00000001
00000010
00000010
00000010
00000110
00000100
00000100
00000100

TIL 45
00000100
00000100
00000100
00000100
00000100
00000100
00000010
00000010

TIL 46
00000010
00000010
00000011
00000001
00000001
00000001
00000000
00000000

TIL 47
00000000
00000000
00000000
00000000
00000000
00000000
10000000
01000000

TIL 48
00000000
00000000
00000000
00000000
00000000
00000000
00000000
00000000

TIL 49
00011011
00010011
00100011
11000011
10000011
00000001
10000000
10101000

TIL 50
00001000
00001100
10110000
10010100
00101010
01011010
10000000
01000000

TIL 51
00000000
00000000
00000000
00000000
00000000
00000000
00000000
11100000

TIL 52
00000000
00000000
00000000
00000000
00000000
00000000
00000000
00000000

TIL 53
00000000
00000000
00000000
00000000
00000000
00000000
00000000
00000000

TIL 54
00000000
00000000
00000000
00000000
00000000
00000000
00000000
00000000

TIL 55
00000000
00000000
00010000
01001001
00000000
00000110
00001100
00000000

TIL 56
00000000
00000000
00000000
00000000
00000000
00000000
00000000
00000000

TIL 57
00000000
00001000
00000000
00100100
00010100
00100000
00000100
00000000

TIL 58
00000000
00000000
00000000
00000000
00000000
00000000
00000000
00000000

TIL 59
00000000
11100000
00010000
10000000
11000100
00100010
10100010
01000000

TIL a
00000000
00000000
00000000
00001000
00011100
00001000
00000000
00000000
>
00000000
00000000
00001000
00011100
00111110
00011100
00001000
00000000

TIL b
00000000
00000000
00000000
00000000
00010000
00000000
00000000
00000000
>
00000000
00000000
00000000
00010000
00111000
00010000
00000000
00000000
WAL true

TIL c
11101000
10011100
11001100
11100110
10101110
01101101
00111101
00000111

TIL d
01010111
00111001
11011100
01111011
00001110
00000001
00000000
00000000

TIL e
01100000
10100000
01010000
00110000
01101000
10101000
11011000
10111000

TIL f
11100111
00110101
11011100
11001110
01010110
00111001
10011100
11100010

TIL g
00000110
00000011
00000001
00000000
00000000
00000000
00000000
00000000

TIL h
00000110
00001000
00001100
00000111
00001001
00001100
00001100
00000111

TIL i
00000000
00000000
00011000
00101110
00111011
00111000
00010110
00011101

TIL j
00000000
00000000
00000000
00000000
10000000
01000000
11111100
11011011

TIL k
00000000
00000011
00000010
00000110
00011110
01111010
01011101
00110101
WAL false

TIL l
00000000
00000000
00000000
00000000
00000000
00000000
00000000
00000000

TIL m
00000000
00000000
00000000
01000000
10000000
00000000
00000000
00000000

TIL n
00000000
10000000
01100000
00111000
11010100
11110100
11101100
11010100

TIL o
11011000
11111000
01010000
10100000
01100000
01000000
00000000
00000000

TIL p
01110110
00110110
00001011
00000110
00000110
00000011
00000000
00000000

TIL q
00000000
00000000
00000000
00000000
00000000
00000000
00000000
00000000

TIL r
00001100
00000110
00000011
00000000
00000000
00000000
00000000
00000000

TIL s
00000000
00000000
00000000
00000000
11110000
00111000
11010110
01101010

TIL t
01100100
10111100
11100000
00000000
00000000
00000000
00000000
00000000

TIL u
00000000
00000000
00000000
00000000
00000000
00000111
00001000
00001011

TIL v
00000000
00000100
00011100
00100110
00111010
00111110
00101100
00011100

TIL w
00111010
01111111
00100100
00010011
00001100
00000111
00000001
00000000

TIL x
11110100
00110101
00111011
00011110
00000011
00000001
00000000
00000000

TIL y
01001100
00111110
10111010
01000010
00111001
01001111
10101001
10111010

TIL z
00001101
01110110
01110110
00100100
11010101
11011000
00000000
00000000

TIL 1a
00000000
00000000
00000000
00000000
00000000
00000001
00000010
00000110

TIL 1b
00000100
00000100
00000110
00000010
00000010
00000001
00000001
00000000

TIL 1c
00010011
00010011
00010011
00010001
00011000
00001000
00001000
00001100

TIL 1d
00100000
01000000
11000000
10000000
10000000
00000000
00000000
00000000

TIL 1e
00000000
00000000
00000000
00000000
00000000
00000001
00000010
00000010

TIL 1f
00001000
00001000
00011001
00011011
00010011
00011111
00011111
00010011

TIL 1g
00000000
00000001
00000011
00000010
00000110
00000100
00000101
00001101

TIL 1h
00000001
00000011
00000101
00001100
00011000
00111110
01101110
01000110

TIL 1i
10000111
10011111
00111111
00111111
01111111
01111111
00111111
00001111

TIL 1j
00011001
00111001
01111101
01111101
00011100
10001110
11000110
01000010

TIL 1k
11000111
01100110
00110001
00001000
00001000
00000110
00000011
00000000

TIL 1l
11111100
11111011
11001111
11001110
00001100
01111000
01111001
00111010
NAME contintents1

TIL 1m
00111111
10111111
00111110
00011111
00000000
01100011
01110001
11111000
NAME continents 2

TIL 1n
00000000
00000000
00000000
00000000
00000000
00000000
00000000
00000000

TIL 1o
11111111
11111111
11111111
11111111
11111111
01111111
00011111
00000111

TIL 1p
11111111
11111111
11111111
11111111
11111111
11111111
11111111
11111111

TIL 1q
00001111
00001111
00000111
00000011
00000000
00000000
00000000
00000000

TIL 1r
11111111
11111111
11111111
11111111
00111111
00000111
00000000
00000000

TIL 1s
11111111
11111111
11111111
11111110
11111000
11000000
00000000
00000000

TIL 1t
11111110
11111100
11000000
00000000
00000000
00000000
00000000
00000000

TIL 1u
11111111
11111111
11111111
11111111
11111111
11111111
11111111
11111110

TIL 1v
11100000
11100000
11100000
11000000
11000000
00000000
00000000
00000000

TIL 1w
00000000
00000000
00000000
11000000
11110000
11110000
11110000
11110000

TIL 1x
11110000
11111100
11111110
11111111
11111111
11111111
11111111
11111111

TIL 1y
00000000
00000000
00000000
00000000
11000000
11100000
11110000
11110000

TIL 1z
00000000
00000000
11100000
11110000
11111111
11111111
11111111
11111111

TIL 2a
00000000
00000000
11000000
11100000
11110000
11111000
11111110
11111111

TIL 2b
11111111
11111111
11111110
11111110
11111100
11111000
11111000
11110000

TIL 2c
11110000
11110000
11110000
11100000
11100000
11000000
10000000
00000000

TIL 2d
11111111
11111111
11111111
11111111
11111111
01111111
00000001
00000000

TIL 2e
11111111
11111111
11111111
11111111
11111111
11110000
10000000
00000000

TIL 2f
11111111
11111111
11111111
11111111
11111111
11111111
11111111
00000000

TIL 2g
11111111
11111111
11111111
11111111
11111111
00111111
00000001
00000000

TIL 2h
11111111
11111111
11111111
01111111
00111111
00000000
00000000
00000000

TIL 2i
00001111
00001111
00000111
00000000
00000000
00000000
00000000
00000000

TIL 2j
00111111
00111111
00111111
00011111
00011111
00011111
00001111
00001111

TIL 2k
00001111
00001111
00011111
00011111
00111111
00111111
00111111
00111111

TIL 2l
00000000
00000000
00000000
00000000
00000011
00000111
00000111
00001111

TIL 2m
00000000
00000000
00000000
00000000
11111110
11111111
11111111
11111111

TIL 2n
00000000
00000000
00000000
00000011
00000111
11111111
11111111
11111111

TIL 2o
00000000
00000000
00000011
10001111
11111111
11111111
11111111
11111111

TIL 2p
00000000
00000000
00000000
01101100
00111000
00010000
00000000
00000000
>
00000000
00000000
00000000
00000000
00111000
01010100
00000000
00000000

TIL 2q
00000000
00000000
00000000
11100000
11110000
11111100
11111110
11111111

TIL 2r
00000000
00000000
00000000
00001111
00111111
11111111
11111111
11111111

TIL 2s
00000000
00000000
00000000
00000000
00000000
00111111
11111111
11111111

TIL 2t
11111111
11111111
11111111
11111111
11111111
00001111
00000011
00000000

TIL 2u
11111111
11111111
11111111
11111111
11111111
11111110
11110000
00000000

TIL 2v
11111111
11111111
01111111
00111111
00011111
00000000
00000000
00000000

TIL 2w
00000010
00110101
00111010
00011100
00101110
01010100
00100000
00000000
>
00000001
00110010
00111100
00011100
00011110
00100100
01000000
00000000

TIL 2x
00000000
00000000
11000000
00100000
00010000
00001000
00000100
00000100

TIL 2y
00000000
00000000
00000111
00011110
00111100
00101000
01111000
01010000

TIL 2z
01010000
01011000
01001100
00110110
00011011
00000110
00000011
00000000

TIL 3a
00000000
00000000
00000000
00000000
00000000
00000100
00000000
00000000

TIL 3b
00000000
00000000
00000000
00000100
00000000
00000000
01000000
00000000
>
00000000
00000000
00000000
00000100
00000000
00000000
00100000
00000000

TIL 3c
11001000
11110001
01110010
00111100
01011100
10011110
00100111
01000011

TIL 3d
11001000
11110000
01110011
01111011
01111100
10001110
00110111
00110011

TIL 3e
00000000
00000000
00000000
00000000
00000000
00000000
00000000
00000000
WAL true

TIL 3f
00000000
00000000
00000000
00000000
00000000
00010000
00000000
00000000
>
00000000
00000000
00000000
00000000
00010000
00000000
00000000
00000000

TIL 3g
00000000
00000000
00000000
01000000
00000000
00000000
00000000
00000000
WAL true

TIL 3h
00000000
00000000
00000000
00010000
00000000
00000010
01000000
00000000
WAL true

TIL 3j
00000000
11111111
11111111
11111111
11111111
11111111
11111111
11111111

TIL 3k
00000000
00000000
00000000
00000000
00000000
00000000
00000000
00000000

TIL 3l
11110000
11000000
00000000
00000000
00000000
00000000
00000000
00000000

TIL 3m
01100000
10000100
00001000
00000000
00100000
00000001
00001000
11100000

TIL 3n
00000000
00000000
00000000
00000000
00000000
00000000
00000000
00000000

TIL 3o
00000000
00000011
00001111
01111111
11111111
11111111
11111111
11111111

TIL 3p
00000000
00000000
00000000
00000000
00000001
00000011
00000111
00001111

TIL 3q
00011000
00010001
00100011
01000011
11000011
10000011
10000001
00000000

TIL 3r
00000000
00000000
00000000
00000001
00000010
00000010
00000100
00000100

TIL 3s
00001000
00001000
00010000
00010000
00010000
00010000
00100000
00100000

TIL 3t
00100000
00100000
00100000
00100000
00100000
00100000
00010000
00010000

TIL 3u
00010000
00010000
00010000
00001000
00001100
00000100
00000010
00000001

TIL 3v
00000000
00000000
11110000
11111110
11111111
11111001
11111000
11110000

TIL 3w
00000000
00000000
00000000
00000000
00000000
10000000
01000000
00100000

TIL 3x
00111000
00001100
00000110
00000010
00000011
00000001
00000000
00000000

TIL 3y
00000000
00000000
00000000
00000000
10000000
10000000
01000000
01000000

TIL 3z
01000000
01000000
00100000
00100000
00100000
00110000
00010000
00010000

TIL 4a
01110000
01111000
00111000
00111000
00111110
00001111
00000000
00000000

TIL 4b
11111111
11111111
11111111
11111111
11111111
11111111
11111100
11110000

TIL 4c
00001000
00000110
11000011
11001000
11111000
11111110
11111110
00011110

TIL 4d
00000101
00010001
11000000
00111100
00000111
11111000
11111100
11111110

TIL 4e
00011110
00001110
00001110
10001110
11000100
11100000
11100010
11100110

TIL 4f
11111111
11111111
11111111
11111111
11111111
11111111
11111111
11111111

TIL 4g
11111111
11111111
11111111
00111111
00111111
00001111
00001111
00001111

TIL 4h
00111111
00111111
00111111
00011111
00001111
00001111
00001111
00000110

TIL 4i
00000000
00000011
00110011
00110000
00100000
01100000
01000000
00000000

TIL 4j
11100000
11100000
11110000
11111000
00111000
00111001
00000011
00000100

TIL 4k
00000000
00000000
00001111
00011111
00111111
00111111
00111111
01111111

TIL 4l
00000000
00000000
11100000
11110000
11111000
11111000
11111100
11111100

TIL 4m
00000000
00000000
00000000
00000000
00000000
00000000
00000000
00000000

TIL 4n
00111111
01111111
01111111
01111111
00111111
00011111
00001111
00001100

TIL 4o
00000110
00000110
00000000
00000000
00000000
00000000
00000000
00000000

TIL 4p
11111111
11111111
11111110
11110000
11111000
11111000
10001100
00000100

TIL 4q
00000000
10110000
10001000
11000110
00110000
00011000
01100000
00111100

TIL 4r
11100000
00110000
00010000
10011000
10001000
01000100
00000110
00000111

TIL 4s
00001111
00011111
00111111
00111111
01111111
01111111
00111111
00011111

TIL 4t
11110011
11111000
11111001
11111100
11111100
11111110
11111110
11111111

TIL 4u
00000000
00000000
00000000
00000000
00000000
00000000
00000000
11100000

TIL 4v
00000000
00000000
00000001
00000000
00000100
00000000
00010100
00100001

TIL 4w
00000000
00000000
00000000
00000000
00000000
00000000
00000000
00000000

TIL 4x
00000000
00000000
00000000
00000000
00000000
00000000
00000000
00000000

TIL 4y
00000000
00000000
00000000
00000000
00000000
00000000
00000000
00000000

TIL 4z
00000000
00000000
00000000
00000000
00000000
10000000
11000000
11000000

TIL 5a
00000000
00000011
00000110
00010000
00100011
00000000
00100101
00001000

TIL 5b
00100100
00000010
00110011
00001000
00000111
00000000
00000000
11100000

TIL 5c
00010100
00001100
00000110
00000100
00000000
00000000
00000000
11100000

TIL 5d
00000000
00000000
01110000
11111000
01111100
00000110
01000011
11110000

TIL 5e
00001000
00010110
00000010
00011000
00011100
00011100
00001100
00000100

TIL 5f
00000000
01000000
01001000
00101000
00110000
00010100
00011000
00010000

TIL 5g
00000110
00000001
00000110
00000011
00000000
00000000
10000000
01000000

TIL 5h
00010100
00001000
10001100
01100010
00011000
00000000
00000000
00000000

TIL 5i
00000000
00001100
00111110
00110010
01110010
01100000
01100000
01110001

TIL 5j
00000000
00010000
11011000
01001100
00101100
00011000
00000100
00001010

TIL 5k
00000000
00000000
01011100
01001011
01100000
00111111
01000011
00100110

TIL 5l
00000000
01000100
01100100
00110100
00010000
01010010
00011000
00100101

TIL 5m
00000000
00000000
00000000
00000000
00000000
00000000
00000000
00000000

TIL 5n
00000000
00000000
00000000
00100000
00000000
00000000
00000000
01000000

TIL 5o
00000000
00000000
01000000
00001000
00000000
00010000
00000000
00000000

TIL 5p
00000000
00000000
00000000
00000000
00000000
00000000
00000000
00000000

TIL 5q
00000000
00000000
00000000
00000000
00000000
00000000
00000000
00000000

TIL 5r
00000000
00000000
00000100
00000000
00000000
00000000
00000000
00000000

TIL 5s
00000000
00000000
00000000
00000000
00001000
01000000
00000000
00000000
WAL true

TIL 5t
00000000
00000000
00000000
00100000
00000000
00000000
00000000
00000000
WAL true

TIL 5u
00000000
00000000
00000000
00000000
00000000
00000000
00000100
00000000
WAL true

TIL 5v
00000000
00000000
00000000
00000000
00000000
00000000
00000000
00000000
WAL true

TIL 5w
00000000
00000000
00100000
00000000
00000000
00000000
00000000
00000000
WAL true

TIL 5x
00000000
00000000
00000010
00000000
00000000
00000000
00000000
00000000

TIL 5y
00000000
00000000
00000000
00000000
00000000
00000000
00000000
00000000
WAL true

SPR A
10100000
01000000
01111110
00111111
00111111
00011111
00000100
00000000
POS 0 4,6

SPR a
00000000
00000000
00000000
00000000
00000000
00000000
00000000
00000000

SPR b
00000000
00000000
00000000
00000000
00000000
00000000
00000000
00000000

ITM 0
00000000
00000000
00000000
00000000
00000000
00000000
00000000
00000000
NAME cosmos
DLG ITM_0

ITM 1
00000000
00000000
00000000
00000000
00000000
00000000
00000000
00000000
NAME tongue
DLG ITM_1

ITM 2
00000000
00000000
00000000
00000000
00000000
00000000
00000000
00000000
DLG ITM_2

ITM 3
00000000
00000000
00000000
00000000
00000000
00000000
00000000
00000000
DLG ITM_3

ITM 4
00000000
00000000
00000000
00000000
00000000
00000000
00000000
00000000
DLG ITM_4

ITM 5
00000000
00000000
00000000
00000000
00000000
00000000
00000000
00000000
DLG ITM_5

DLG ITM_0
"""
It has been a long while
since I was last in this corner
of the cosmos.

Earth has dimmed more than I imagined.
"""

DLG ITM_1
The wails of my ocean-bound kin are only whispers when they reach the vastness of space...

DLG ITM_2
"""
In its youth, Earth was
the most radiant planet I have seen;
its life seemed boundless.
"""

DLG ITM_3
"""
If humanity knew the true emptiness of the universe--how singular such splendor was--
perhaps it would not have tainted its home so terribly.
"""

DLG ITM_4
"""
Alas, it is my fate to ponder
such things for eternity.
Earth will likely be dead
by my next visit.
"""

DLG ITM_5
"""
But closer now, I hear them clearly:
"Stay away. This place is poison."
"""

END 0


END undefined
Perhaps I'd best linger while I can.

VAR a
42


