bit.WAV

# BITSY VERSION 5.1

! ROOM_FORMAT 1

PAL 0
196,3,9
255,255,255
0,0,0

PAL 1
255,255,255
87,87,87
0,0,0

PAL 2
0,0,0
255,255,255
196,3,9

ROOM 0
l,l,l,l,i,b,b,b,c,c,c,j,m,m,m,m
l,l,l,h,b,0,0,0,0,0,0,c,g,m,m,m
l,l,h,b,0,0,0,0,0,0,0,0,c,g,m,m
l,h,b,0,0,0,0,0,0,0,0,0,0,c,g,m
l,b,0,0,0,0,0,0,0,0,0,0,0,0,c,m
l,b,0,0,0,0,0,0,0,0,0,0,0,0,c,m
l,b,0,0,0,0,0,0,0,0,0,0,0,0,c,m
l,b,0,0,0,0,0,0,0,0,0,0,0,0,c,m
l,b,0,0,0,0,0,0,0,0,0,0,0,0,c,m
l,b,0,0,0,0,0,0,0,0,0,0,0,0,c,m
l,b,0,0,0,0,0,0,0,0,0,0,0,0,c,m
l,b,0,0,0,0,0,0,0,0,0,0,0,0,c,m
l,b,0,0,0,0,0,0,0,0,0,0,0,0,c,m
l,b,0,0,0,0,0,0,0,0,0,0,0,0,c,m
l,b,0,0,0,0,0,0,0,0,0,0,0,0,c,m
l,b,o,o,o,o,o,n,n,o,o,o,o,o,c,m
NAME blackhole
EXT 7,15 1 7,0
EXT 8,15 1 8,0
PAL 0

ROOM 1
l,b,0,0,0,0,0,n,n,0,0,0,0,0,c,m
l,b,0,0,0,0,0,0,0,0,0,0,0,0,c,m
l,b,0,0,0,0,0,0,0,0,0,0,0,0,c,m
l,b,0,0,0,0,0,0,0,0,0,0,0,0,c,m
l,b,0,0,0,p,q,q,q,t,r,0,0,0,c,m
l,b,0,0,0,0,0,0,0,s,0,0,0,0,c,m
l,b,0,0,0,0,0,0,y,11,10,0,0,0,c,m
l,b,0,0,0,0,0,s,0,12,0,0,0,0,c,m
l,b,0,0,0,0,s,0,0,12,0,0,0,0,c,m
l,b,0,0,0,u,w,w,w,13,x,0,0,0,c,m
l,b,0,0,0,0,0,0,0,0,0,0,0,0,c,m
l,b,0,0,0,0,0,0,0,0,0,0,0,0,c,m
l,b,0,0,0,0,0,0,0,0,0,0,0,0,c,m
l,b,0,0,0,0,0,0,0,0,0,0,0,0,c,m
l,b,0,0,0,0,0,0,0,0,n,0,0,0,c,m
l,b,0,0,0,0,0,n,n,0,0,0,0,0,c,m
NAME resonance
EXT 7,0 0 7,15
EXT 8,0 0 8,15
EXT 7,15 2 7,0
EXT 8,15 2 8,0
PAL 1

ROOM 2
l,b,0,0,0,0,0,n,n,0,0,0,0,0,c,m
l,b,0,0,0,0,0,0,0,0,0,0,0,0,c,m
l,b,0,0,0,0,0,0,0,0,0,0,0,0,c,m
l,b,0,0,0,0,0,0,0,0,0,0,0,0,c,m
l,b,0,0,0,0,0,0,0,0,0,0,0,0,c,m
l,b,0,0,0,0,0,0,0,0,0,0,0,0,c,m
l,b,0,0,0,0,0,0,0,0,0,0,0,0,c,m
l,b,0,0,0,0,0,0,0,0,0,0,0,0,c,m
l,b,0,0,0,0,0,0,0,0,0,0,0,0,c,m
l,b,0,0,0,0,0,0,0,0,0,0,0,0,c,m
l,b,0,0,0,0,0,0,0,0,0,0,0,0,c,m
l,b,0,0,0,0,o,0,0,o,0,0,0,0,c,m
l,b,0,0,0,16,0,0,0,0,17,0,0,0,c,m
l,l,b,0,0,16,0,0,0,0,17,0,0,c,m,m
l,l,l,b,0,16,0,0,0,0,17,0,c,m,m,m
l,l,l,l,b,15,o,o,o,o,15,c,m,m,m,m
NAME cataclysm
ITM 1 8,11
ITM 1 7,11
EXT 7,0 1 7,15
EXT 8,0 1 8,15
END 0 7,12
END 0 8,12
PAL 2

TIL 10
00000000
00000000
00000000
00000000
11111111
11111110
11111100
00000000
NAME Zi11

TIL 11
00000000
00000000
00000000
00000000
11111111
11111111
11111111
00111100
NAME Zi12

TIL 12
00111100
00111100
00111100
00111100
00111100
00111100
00111100
00111100
NAME Zi13

TIL 13
00111100
00111100
00111100
00111100
00111100
11111111
11111111
11111111
NAME Zi14

TIL 15
11000011
10100101
01011010
01000010
01000010
01011010
10111101
11000011
>
11000011
10100101
01000010
01000010
01000010
01011010
10111101
11000011
NAME Ghost
WAL true

TIL 16
00000001
00000001
00000001
00000001
00000001
00000001
00000001
00000001
NAME solidglass
WAL true

TIL 17
10000000
10000000
10000000
10000000
10000000
10000000
10000000
10000000
NAME solidglass2
WAL true

TIL b
11111111
10000010
00000100
00001111
00010010
00100010
01000010
11111111
NAME ZiTile1
WAL true

TIL c
11111111
01000001
00100000
11110000
01001000
01000100
01000010
11111111
NAME ZiTile2
WAL true

TIL d
00000000
00000000
00000000
00000000
00000000
00000000
00000000
00000000

TIL e
11111110
11111110
11111110
11111110
11111110
11111110
11111110
11111110
NAME skyblock1
WAL true

TIL f
01111111
01111111
01111111
01111111
01111111
01111111
01111111
01111111
NAME skyblock2
WAL true

TIL g
01111111
00111111
00011111
00001111
00000111
00000011
00000001
00000000
NAME shipcorner1
WAL true

TIL h
11111110
11111100
11111000
11110000
11100000
11000000
10000000
00000000
NAME shipcorner2
WAL true

TIL i
11110111
11101111
11011100
10111000
01110000
11100000
11000000
10000000
>
11011011
10110111
01101100
11011000
11110000
01100000
11000000
10000000
NAME shipcorner3
WAL true

TIL j
10110111
11011111
00111101
00010110
00001011
00000101
00000011
00000001
>
11011011
11101101
00110110
00011011
00001101
00000110
00000011
00000001
NAME shipcorner4
WAL true

TIL k
11111111
11111111
11111111
11111111
11111111
11111111
11111111
11111111

TIL l
11001010
10010101
00101011
01001110
10011101
00110010
01100101
11011011
>
11101010
11010101
10101011
01011111
10111111
01110110
11101101
11011011
NAME starlight1
WAL true

TIL m
01010011
10101001
11010100
01110010
10111001
01001100
10100110
11011011
>
01010111
10101011
11010101
11111010
11111101
01101110
10110111
11011011
NAME starlight2
WAL true

TIL n
01000010
01000010
01000010
01011010
01011010
01000010
01000010
11000011
>
01000010
01000010
01000010
01001010
01010010
01000010
01000010
11000011
NAME exits

TIL o
00000000
00000000
00000000
00000000
00000000
00000000
00000000
11111111
NAME bottomwall
WAL true

TIL p
00000000
00000000
00000000
00000000
11111111
11111111
11111111
11000000
NAME Zi1

TIL q
00000000
00000000
00000000
00000000
11111111
11111111
11111111
00000000
NAME Zi2

TIL r
00000000
00000000
00000000
00000000
11111100
11111110
11111100
11110000
NAME Zi3

TIL s
00000011
00000111
00001110
00011100
00111000
01110000
11100000
11000000
NAME Zi4

TIL t
00000000
00000000
00000000
00000000
11111111
11111111
11111111
00000011
NAME Zi5

TIL u
00000011
00000111
00001110
00011100
00111000
01111111
01111111
11111111
NAME Zi6

TIL v
00000000
00000000
00000000
00000000
00000000
00000000
00000000
00000000

TIL w
00000000
00000000
00000000
00000000
00000000
11111111
11111111
11111111
NAME Zi7

TIL x
00000000
00000000
00000000
00000001
00000011
11111111
11111111
11111111
NAME Zi8

TIL y
00000011
00000111
00001110
00011100
00111111
01111111
11111111
11000000
NAME Zi9

TIL z
00000000
00000000
00000000
00000000
11111111
11111111
11111111
00000000
NAME Zi10

SPR 10
00111100
00101100
00011000
00111100
01111110
10111101
00111100
00100100
>
00111100
00111100
00011000
00111100
01111110
10111101
00111100
00100100
NAME Attempt6
DLG SPR_j
POS 2 11,8

SPR A
00111100
00110100
00011000
00111100
01111110
10111101
00111100
01100110
>
00111100
00111100
00011000
00111100
01111110
10111101
00111100
01100110
POS 0 10,12

SPR a
01000000
00010111
10001111
01011111
00111110
01111101
01111011
01110111
>
00010000
01000111
00101111
10011111
00111110
01111101
01111011
01110111
NAME portal1
POS 0 7,2

SPR b
00000000
11101010
11110000
11111010
01111100
10111110
11011110
11101110
>
00000100
11100000
11110101
11111000
01111100
10111110
11011110
11101110
NAME portal2
POS 0 8,2

SPR c
01110111
01111011
01111101
01111110
00111111
01011111
00101111
10001111
>
01110111
01111011
01111101
01111110
10111111
00011111
01001111
00101111
NAME portal3
DLG SPR_0
POS 0 7,3

SPR d
11101110
11011110
10111110
01111110
11111100
11111010
11110100
11110001
>
11101110
11011110
10111110
01111110
11111101
11111000
11110010
11110100
NAME portal4
DLG SPR_1
POS 0 8,3

SPR f
00000000
00011000
00011000
00100100
00111100
00011000
00011000
00011000
>
00000000
00001000
00010000
00100100
00111100
00011000
00011000
00011000
NAME psirecorder
DLG SPR_2
POS 0 11,6

SPR h
00000000
00001100
00010000
00101100
00101100
00010000
00001100
00000000
>
00000000
00001100
00010000
00100000
00100000
00010000
00001100
00000000
DLG SPR_4
POS 0 4,9

SPR j
00100100
00011000
00011000
00100100
01111110
01010100
01010100
01010100
>
00100100
00011000
00011000
00100100
01111110
01010100
01010100
01010100
DLG SPR_3
POS 0 4,6

SPR k
00000000
00001000
00010000
00000000
00111100
00011000
00011000
00011000
NAME WAVbadge
DLG SPR_5
POS 0 11,9

SPR l
00000000
01000010
00100100
00011000
00011000
00000000
00111100
01100110
NAME VekSigil
DLG SPR_6
POS 0 4,12

SPR m
00000000
00011000
00100100
00100100
00011000
00000000
00011000
00100100
>
00000000
00011000
00111100
00111100
00011000
00000000
00011000
00100100
NAME hername
DLG SPR_7
POS 0 11,12

SPR n
00000000
00000000
00011000
01000010
01011010
01111110
00100100
00100100
>
00000000
00011000
00000000
01011010
01011010
01111110
00100100
00100100
NAME resonator1
DLG SPR_8
POS 1 5,2

SPR o
00000000
00000000
00011000
01000010
01011010
01111110
00100100
00100100
>
00000000
00011000
00000000
01011010
01011010
01111110
00100100
00100100
NAME resonator2
DLG SPR_9
POS 1 10,2

SPR p
00000000
00000000
00011000
01000010
01011010
01111110
00100100
00100100
>
00000000
00011000
00000000
01011010
01011010
01111110
00100100
00100100
NAME resonator3
DLG SPR_a
POS 1 10,11

SPR q
00000000
00000000
00011000
01000010
01011010
01111110
00100100
00100100
>
00000000
00011000
00000000
01011010
01011010
01111110
00100100
00100100
NAME resonator4
DLG SPR_b
POS 1 5,11

SPR s
00000000
00000000
00011000
01000010
01011010
01111110
00100100
00100100
>
00000000
00011000
00000000
01011010
01011010
01111110
00100100
00100100
NAME resonator5
DLG SPR_c
POS 1 5,14

SPR t
00000000
00000000
00011000
01000010
01011010
01111110
00100100
00100100
>
00000000
00011000
00000000
01011010
01011010
01111110
00100100
00100100
NAME resonator6
DLG SPR_d
POS 1 10,14

SPR u
00111100
00101100
00011000
00111100
01111110
10111101
00111100
00100100
>
00111100
00111100
00011000
00111100
01111110
10111101
00111100
00100100
NAME Attempt1
DLG SPR_e
POS 2 4,2

SPR v
00111100
00101100
00011000
00111100
01111110
10111101
00111100
00100100
>
00111100
00111100
00011000
00111100
01111110
10111101
00111100
00100100
NAME Attempt2
DLG SPR_f
POS 2 4,5

SPR w
00111100
00101100
00011000
00111100
01111110
10111101
00111100
00100100
>
00111100
00111100
00011000
00111100
01111110
10111101
00111100
00100100
NAME Attempt3
DLG SPR_g
POS 2 4,8

SPR x
00111100
00101100
00011000
00111100
01111110
10111101
00111100
00100100
>
00111100
00111100
00011000
00111100
01111110
10111101
00111100
00100100
NAME Attempt4
DLG SPR_h
POS 2 11,2

SPR y
00111100
00101100
00011000
00111100
01111110
10111101
00111100
00100100
>
00111100
00111100
00011000
00111100
01111110
10111101
00111100
00100100
NAME Attempt5
DLG SPR_i
POS 2 11,5

SPR z
00111100
00101100
00011000
00111100
01111110
10111101
00111100
00100100
>
00111100
00111100
00011000
00111100
01111110
10111101
00111100
00100100
NAME ZiAlpha
POS 2 7,13

ITM 1
00000000
00000000
00000000
00000000
00000000
00000000
00000000
11111111
NAME breakableglass
DLG ITM_1

DLG SPR_0
The Black Hole. 

DLG SPR_1
The only path to your Past Self.

DLG SPR_2
{clr1}Zi, Zi, Zi!{clr1} {clr2}The psirecorder dies with the crack-echo of a bullet. It was the first time someone tried to assassinate you, but not the last.{clr2}

DLG SPR_3
The core of {clr1}the Demeter{clr1}, the last ship capable of sustaining life outside {clr1}the Vek Empire{clr1}. You pried it free from the wreckage with your bare hands.

DLG SPR_4
"""
A prototype for the {shk}Black Hole.{shk} 
After this discovery, you outlawed time travel across the Empire.
"""

DLG SPR_5
"""
A badge from {clr1}the WAV Academy{clr1}, torn from its pilot suit. 
You graduated top of your class, in another temporal epoch.
"""

DLG SPR_6
The first sigil of {clr1}the Vek Empire{clr1}, forged after the last {clr1}WAV Escalation Security{clr1} force was annihilated.  

DLG SPR_7
"""
The cybernetic heart of...
...
...you can't remember {rbw}her name{rbw} anymore.
"""

DLG ITM_1
"""
Temporal hyperstatic {wvy}ripples{wvy} through you, shattering the glass shielding the empress' cockpit.
{
  - {item "breakableglass"} >= 1 ?
    {say} It hangs in the air, suspended.
    
    Zi-{rbw}she{rbw}-{clr3}YOU{clr3} turn around, her singular eye narrowing.
    You are recognized, and hated.
    
    You never wanted this.
  - else ?

}
"""

DLG SPR_8
The resonator hums, keeping the ship in balance.

DLG SPR_9
The resonator hums louder at your presence, like an {rbw}alarm{rbw}.

DLG SPR_a
The resonator hums, and hums, and {shk}hums.{shk}

DLG SPR_b
"""
The resonator hums, out of sync with the rest. 
Wait, no, that's not right.
"""

DLG SPR_c
The resonator hums, soft and thoughtful.

DLG SPR_d
{clr2}The resonator hums.{clr2}

DLG SPR_e
Attempt 1: You died facing a barrage of repurposed {clr3}WAVs{clr3}, gleaming with VekTech. 

DLG SPR_f
Attempt 108: You saw {clr3}yourself{clr3} for the first time, but your engine was dying. Your last act was going {rbw}supernova.{rbw}

DLG SPR_g
Attempt 9X: You tried to go back further, when you were younger. You couldn't face the girl who still believed in the universe. {shk}Reset.{shk}

DLG SPR_h
Attempt Z*: The {shk}Black Hole{shk} opened, but instead of you going through, {clr3}another self{clr3} came out. She wept, and {shk}collapsed.{shk}

DLG SPR_i
Attempt 0: Chrono-cognitive failure. You went too {rbw}far.{rbw}

DLG SPR_j
Attempt ATTEMPT ATTEMPT ATTEMPT {rbw}{shk}STOP{shk}{rbw} ATTEMPT

END 0
You touch her. She{shk} flinches.{shk}{clr1}thistextishidingalineevenmore{clr1}It's instinct to apologize, but she knows what you're thinking. The {shk}Black Hole{shk} closes around your hearts, around everything. The {clr3}Vek Empire{clr3} will never be born. {clr1}hidingmorebecausethisworks{clr1}{clr3}WAVs{clr3} will fill the sky like stars again. {clr1}hidingmorebecause{clr1}{rbw}She will remember you{rbw}, even if you cannot remember her.{clr1}hiding{clr1}Good night, starlight.

VAR a
42

