Goodfishas

PAL 0
3,0,221
242,255,253
255,133,41

ROOM 0
mmmmmmmmmmmmmmmm
l000000000000000
a000000000000000
a00000n000000000
a000000000000o00
a000000000000000
a000000000000000
a000000000000000
a000o000000n0000
a000000000000000
a000000000000000
a000000000000000
a0000000n0000000
a0000000o0000000
a0pn00p000000o00
hccccccccl000000
WAL m,l,k,j,i,h,g,f,e,d,c,b,a
EXT 15,1 5 0,1
EXT 15,2 5 0,2
EXT 15,3 5 0,3
EXT 15,4 5 0,4
EXT 15,5 5 0,5
EXT 15,6 5 0,6
EXT 15,7 5 0,7
EXT 15,8 5 0,8
EXT 15,9 5 0,9
EXT 15,10 5 0,10
EXT 15,11 5 0,11
EXT 15,12 5 0,12
EXT 15,13 5 0,13
EXT 15,14 5 0,14
EXT 15,15 5 0,15
EXT 10,15 6 10,0
EXT 11,15 6 11,0
EXT 12,15 6 12,0
EXT 13,15 6 13,0
EXT 14,15 6 14,0

ROOM 2
00000000000a0b00
00000000000a0b00
0000fddddddj0b00
0000a0000o000b00
0000a00p00000b00
0000a0kccccccg00
0000a0b000000000
0000a0b000000000
0000aniddddddde0
0000a000000000b0
0000a000000000b0
0000a000000000b0
ddddj000o00n00b0
00000000p00p00b0
ccccccccccccccg0
0000000000000000
WAL l,k,j,i,h,g,f,e,d,c,b,a
EXT 12,0 7 12,15

ROOM 3
0000000000b00000
000o0000o0b00000
00000000p0b00000
0000000kccg00000
0000000b00000000
0n00000ide000000
000000000b0fdde0
000000000idj00b0
00000o00000000b0
00000000000000b0
000000000kccccg0
00000n00kg000000
00000p0kg0000000
00pkcccg00000000
cccg000000000000
0000000000000000
WAL l,k,j,i,h,g,f,e,d,c,b,a
EXT 9,0 5 9,15
EXT 8,0 5 8,15
EXT 7,0 5 7,15
EXT 6,0 5 6,15
EXT 5,0 5 5,15
EXT 4,0 5 4,15
EXT 3,0 5 3,15
EXT 2,0 5 2,15
EXT 1,0 5 1,15
EXT 0,0 5 0,15
EXT 0,1 6 15,1
EXT 0,2 6 15,2
EXT 0,3 6 15,3
EXT 0,4 6 15,4
EXT 0,5 6 15,5
EXT 0,6 6 15,6
EXT 0,7 6 15,7
EXT 0,8 6 15,8
EXT 0,9 6 15,9
EXT 0,10 6 15,10
EXT 0,11 6 15,11
EXT 0,12 6 15,12
EXT 0,13 6 15,13

ROOM 4
00a000b000000000
00an00b000000000
00ap00iddddde000
00hl00000000b000
000hl0pp000nb000
0000hcccccl0b000
0000000000aob000
0fddddddddj0b000
0a000n000p00b000
0a000kccccccg000
0a0o0b0000000000
0a000b0000000000
0a0n0idddddddddd
0a0p00000o0p00n0
0hcccccccccccccc
0000000000000000
WAL a,b,c,d,e,f,g,h,i,j,k,l
EXT 3,0 6 3,15
EXT 4,0 6 4,15
EXT 5,0 6 5,15
EXT 15,13 2 0,13

ROOM 5
mmmmmmmmmmmmmmmm
000000000000000k
000000000000000b
000000000o00000b
000000000000000b
000o00000000o0nb
000000000000p00b
00000000000kcccgb
00000000000iddde
000000000000000b
0000000000000o0b
00000n000000000b
0000000000n00p0b
0000000000p0kccg
0000o00000kcg000b
0000000000b00000
WAL m,l,k,j,i,h,g,f,e,d,c,b,a
EXT 0,1 0 15,1
EXT 0,2 0 15,2
EXT 0,3 0 15,3
EXT 0,4 0 15,4
EXT 0,5 0 15,5
EXT 0,6 0 15,6
EXT 0,7 0 15,7
EXT 0,8 0 15,8
EXT 0,9 0 15,9
EXT 0,10 0 15,10
EXT 0,11 0 15,11
EXT 0,12 0 15,12
EXT 0,13 0 15,13
EXT 0,14 0 15,14
EXT 0,15 0 15,15
EXT 1,15 3 1,0
EXT 2,15 3 2,0
EXT 3,15 3 3,0
EXT 4,15 3 4,0
EXT 5,15 3 5,0
EXT 6,15 3 6,0
EXT 7,15 3 7,0
EXT 8,15 3 8,0
EXT 9,15 3 9,0

ROOM 6
000fdddddj000000
000a000000000000
000a0o0000000000
000a0p00000000o0
000hccl000000000
000000a000000000
000000a000000000
000000a0o00n0000
000000hl00000000
0000000hlp000000
00000000hcl00000
000000000fj00000
00fddddddj0o00n0
00a000p000pp0000
00a000kccccccccc
00a000b000000000
WAL l,k,j,i,h,g,f,e,d,c,b,a
EXT 10,0 0 10,15
EXT 11,0 0 11,15
EXT 12,0 0 12,15
EXT 13,0 0 13,15
EXT 14,0 0 14,15
EXT 15,0 0 15,15
EXT 15,13 3 0,13
EXT 15,12 3 0,12
EXT 15,11 3 0,11
EXT 15,10 3 0,10
EXT 15,9 3 0,9
EXT 15,8 3 0,8
EXT 15,7 3 0,7
EXT 15,6 3 0,6
EXT 15,5 3 0,5
EXT 15,4 3 0,4
EXT 15,3 3 0,3
EXT 15,2 3 0,2
EXT 15,1 3 0,1
EXT 3,15 4 3,0
EXT 4,15 4 4,0
EXT 5,15 4 5,0

ROOM 7
00000000000b0000
00000000000b0000
00000o00000b0000
00000000kccg0000
00000000b0000000
00000000id000000
0000000000b0fdde
00n0000000idj00b
00000000n000000b
00000o000000000b
0000000000kl0kcg
000000n00kga0b00
000000p0kg0a0b00
000pkcccg00a0b00
ccccg000000a0b00
00000000000a0b00
WAL l,k,j,i,h,g,f,e,d,c,b,a
EXT 0,13 8 15,7
EXT 0,12 8 15,7
EXT 0,11 8 15,7
EXT 0,10 8 15,7
EXT 0,9 8 15,7
EXT 0,8 8 15,7
EXT 0,7 8 15,7
EXT 0,6 8 15,7
EXT 0,5 8 15,7
EXT 0,4 8 15,7
EXT 0,3 8 15,7
EXT 0,2 8 15,7
EXT 0,1 8 15,7
EXT 0,0 8 15,7
EXT 1,0 8 15,7
EXT 2,0 8 15,7
EXT 3,0 8 15,7
EXT 4,0 8 15,7
EXT 5,0 8 15,7
EXT 6,0 8 15,7
EXT 7,0 8 15,7
EXT 8,0 8 15,7
EXT 9,0 8 15,7
EXT 10,0 8 15,7

ROOM 8
mmmmmmmmmmmmmmmm
0000000000000000
0000000000000000
0000000n000000n0
00o0000000000000
0000000000000000
0000000000o00000
0000000000000000
0000000000000000
00000000000000000
0000000000000000
0000n00000000000
0000000000000000
0n00000000000000
0000000000n00000
0000000000000000
WAL l,k,j,i,h,g,f,e,d,c,b,a

TIL a
00000010
01000010
00000100
00010010
00000010
00100110
00000100
10000010

TIL b
01000000
01000010
00100000
01001000
01000000
01100100
00100000
01000001

TIL c
00000000
11011101
00100110
00000000
00010000
00000100
01000000
00000001

TIL d
00000001
01000000
00000100
00010000
00000000
00100110
11011101
00000000

TIL e
00000000
00010001
00000000
00000100
01000000
00001000
10000001
01000000

TIL f
00000000
10001000
00000000
00100000
00000010
00010000
10000001
00000010

TIL g
01000000
10000001
00001000
01000000
00000100
00000000
00010001
00000000

TIL h
00000010
10000001
00010000
00000010
00100000
00000000
10001000
00000000

TIL i
01000010
00100000
01001000
01000001
01000000
01100100
00111011
00000000

TIL j
01000010
00000100
00010010
10000010
00000010
00100110
11011100
00000000

TIL k
00000000
00111011
01100100
01000000
01000001
01001000
00100000
01000010

TIL l
00000000
11011100
00100110
00000010
10000010
00010010
00000100
01000010

TIL m
00000000
00110011
11001100
00000000
00000000
00000000
00000000
00000000
>
00000000
11001100
00110011
00000000
00000000
00000000
00000000
00000000

TIL n
00100000
00000000
00000000
00000100
00000000
00000000
00010000
00000000
>
00000100
00000000
00000000
00000000
00010000
00000000
00000000
00100000

TIL o
00000000
00010000
00000000
00000000
01000000
00000000
00000010
00000000
>
00000000
01000000
00000000
00000000
00001000
00000000
00100000
00000000

TIL p
00000000
00100100
01000100
01001000
00100100
00010100
00011000
00010000
>
00100000
01001000
01000100
00100010
00010010
00010100
00011000
00010000

SPR A
00010000
10001100
01011110
01111011
01111111
01011110
10001100
00010000
>
00001000
00001100
11011110
01111011
01111111
11011110
00001100
00001000
POS 0 3,3

SPR a
00000000
00000000
00111100
01000010
01111110
01011010
01000010
01111110
>
00111100
01000010
01111110
00100100
01111110
01011010
01000010
01111110
POS 0 8,14

SPR b
00000000
00000000
00111100
01000010
01111110
01011010
01000010
01111110
>
00111100
01000010
01111110
00100100
01111110
01011010
01000010
01111110
POS 5 14,6

SPR c
00010000
00001000
10011110
01111011
10011110
00001000
00010000
00000000
>
00001000
00001000
10011110
01111011
10011110
00001000
00001000
00000000
POS 5 3,8

SPR d
00000000
00000000
00111100
01000010
01111110
01011010
01000010
01111110
>
00111100
01000010
01111110
00100100
01111110
01011010
01000010
01111110
POS 6 8,8

SPR e
00001000
00110000
01111001
11011110
01111001
00110000
00001000
00000000
>
00010000
00110000
01111001
11011110
01111001
00110000
00010000
00000000
POS 6 12,6

SPR g
00000000
00000000
00111100
01000010
01111110
01011010
01000010
01111110
POS 3 13,9

SPR h
00000100
00011000
00111101
11101110
00111101
00011000
00000100
00000000
>
00001000
00011000
00111101
11101110
00111101
00011000
00001000
00000000
POS 3 9,8

SPR i
00001000
00110000
01111100
11011101
11111110
01111101
00011000
00000100
>
00010000
00110000
01111100
11011101
11111110
01111101
00011000
00001000
POS 3 9,9

SPR j
00000000
11100000
11110000
11011110
11110100
11110010
11111110
01111000
>
00000000
11100000
11110000
11011110
11110100
11110000
11110010
01111110
POS 4 3,10

SPR k
00000000
00001111
10011111
01111111
01100100
10111111
00001111
00000000
POS 4 2,10

SPR l
00000000
00000000
00000000
11111111
00011011
00000000
00000000
00000000
POS 2 7,10

SPR m
00000000
00000000
11000000
11111111
11011011
00000001
00000000
00000000
POS 2 9,10

SPR n
00000000
00000000
00000000
01111110
00011010
00000010
00000000
00000000
POS 2 8,10

SPR o
00000000
00000000
00000000
01111111
00011111
00000000
00000001
00000010
POS 2 10,10

SPR p
00000000
00000000
11100000
11110000
11100000
11000000
10100000
10010000
POS 2 11,10

SPR q
00100000
00010000
00111110
10111111
01110110
10000000
00000000
00000000
POS 8 12,1

SPR r
00100000
00011000
00111110
10111010
01111111
10111110
00011000
00100000
>
00100000
00011000
00111110
10111010
01111111
10111100
00011110
00100000
POS 2 0,13

SPR s
00000100
00011000
01111100
01011101
11111110
00111101
01111000
00000100
>
00000100
00011000
01111100
01011101
11111110
01111101
00111000
00000100
POS 4 9,4

SPR t
00001000
00010000
01111000
01011101
11111110
00111101
01010000
00001000
>
00010000
00010000
01111000
01011101
11111110
01111101
00010000
00010000
POS 2 7,12

SPR u
00000100
00011000
01111111
01011111
11111111
00011111
01110100
00000010
>
00000100
00011000
01111111
01011111
11111111
01111111
00001000
00000100
POS 2 9,4

SPR v
00000000
00000010
10001100
11111000
11111000
10001100
00000010
00000000
>
00000000
00000100
10001100
11111000
11111000
10001100
00000100
00000000
POS 2 10,4

SPR w
00000000
00000000
00111100
01000010
01111110
01011010
01000010
01111110
POS 7 14,9

SPR x
00000000
00010000
00001000
00111110
10111111
01110110
10000000
00000000
POS 7 4,6

SPR y
00000000
00100000
00010000
00111110
11111111
01110110
10000000
00000000
POS 8 4,1

SPR z
00100000
00010000
00111110
10111111
01110110
10000000
00000000
00000000
POS 8 7,0

DLG a
There's no dubloons here. What??

DLG b
No dubloons here either. WHAT???

DLG c
What you looking at, buddy?

DLG d
NO dubloons here... at ALL! Huh??

DLG e
Watch out, bud. We don't like ya here.

DLG h
Stay back, buddy.

DLG i
Things are changing. These dubloons aren't for you!

DLG j
Hey, kid. I heard the news. The locals are rebelling against our FISH MAFIA. We gotta FIGHT BACK. Head to the weapons locker.

DLG l
Rifle.

DLG m
Rocket-propelled grenade.

DLG n
Submachine gun.

DLG o
Machine-gun.

DLG q
Dead...!!

DLG r
No going back now, kid.

DLG s
The Boss is waiting for ya, kid.

DLG k
Leave my butt alone, funnyman.

DLG t
Pick ya weapon of choice, kid!!

DLG u
GO, GO, GO!! WE'RE HITTING THESE JOKERS WERE IT HURTS!

DLG v
GO, GO GO!! LET'S SHED SOME BLOOD!!

DLG w
Nothing here. It was empty all along.

DLG x
...dead!

DLG y
Oh my god.... DEAD!!

DLG z
WHAT HAVE WE DONE!!!!!!!!!!!

