You only watched By ShadowNat3.......this game is linked with The Dumb Secret and One leaf After Another so if you haven't played them this wont make much sense 

# BITSY VERSION 3.5

! ROOM_FORMAT 1

PAL 0
81,236,72
50,141,62
14,78,33

PAL 1
0,0,0
255,255,255
255,255,255

PAL 2
93,93,93
211,211,211
255,255,255

PAL 3
122,123,83
74,81,55
255,255,255

PAL 4
38,38,210
234,106,231
198,0,5

ROOM 0
0,0,0,0,0,0,0,0,0,0,0,0,0,0,0,0
0,0,0,0,0,0,0,0,0,0,0,0,0,0,0,0
0,0,0,0,b,g,g,g,g,g,g,g,c,0,0,0
0,0,0,0,g,0,0,0,0,0,0,0,g,0,0,0
0,0,0,0,g,0,0,0,0,0,0,0,g,0,0,0
0,0,0,0,g,0,0,0,0,0,0,0,g,0,0,0
0,0,0,0,g,0,0,0,0,0,0,0,g,0,0,0
0,0,0,0,g,0,0,0,0,0,0,0,g,0,0,0
0,0,0,0,g,0,0,0,0,0,0,0,g,0,0,0
0,0,0,0,d,g,g,g,g,g,g,g,e,0,0,0
0,0,0,0,0,0,0,0,0,0,0,0,0,0,0,0
0,0,0,0,0,0,0,0,0,0,0,0,0,0,0,0
0,0,0,0,0,0,0,0,0,0,0,0,0,0,0,0
0,0,0,0,0,0,0,0,0,0,0,0,0,0,0,0
0,0,0,0,0,0,0,0,0,0,0,0,0,0,0,0
0,0,0,0,0,0,0,0,0,0,0,0,0,0,0,0
WAL g,b,c,d,e,s,r,v,y
EXT 8,7 1 8,7
EXT 7,8 1 7,8
EXT 9,8 1 9,8
PAL 0

ROOM 1
0,0,0,0,0,0,0,0,0,0,0,0,0,0,0,0
0,0,0,0,0,0,0,0,0,0,0,0,0,0,h,0
h,0,0,0,b,g,g,g,j,g,g,g,c,0,0,0
0,0,0,0,g,0,0,0,i,0,0,0,g,0,0,0
0,0,0,0,g,0,0,0,0,0,0,0,g,0,0,0
0,0,0,0,g,0,0,0,0,0,0,0,g,0,0,0
0,0,0,0,g,0,0,0,0,0,0,0,g,0,0,0
0,0,0,0,g,0,0,0,0,0,0,0,g,0,h,0
0,h,0,0,g,0,0,0,0,0,0,0,g,0,0,0
0,0,0,0,d,g,g,g,g,g,g,g,e,0,0,0
0,0,0,0,0,0,0,0,0,0,0,0,0,0,0,0
0,0,0,0,0,0,0,0,0,0,0,0,0,0,0,0
0,0,0,0,0,0,0,h,0,0,0,0,0,0,0,0
0,0,0,0,0,0,0,0,0,0,0,0,0,h,0,0
0,h,0,0,0,0,0,0,0,0,0,0,0,0,0,0
0,0,0,0,0,0,0,0,0,0,0,0,0,0,0,0
WAL g,b,c,d,e,s,r,v,y
EXT 7,3 2 7,3
EXT 8,4 2 8,4
EXT 9,3 2 9,3
PAL 0

ROOM 2
0,0,0,0,0,0,0,0,0,0,0,0,0,0,0,0
0,0,0,0,0,0,0,0,0,0,0,0,0,0,h,0
h,0,0,0,b,g,g,g,k,g,g,g,c,0,0,0
0,0,0,0,g,0,0,0,i,0,0,0,g,0,0,0
0,0,0,0,g,0,0,0,0,0,0,0,g,0,0,0
0,0,0,0,g,0,0,0,0,0,0,0,g,0,0,0
0,0,0,0,g,0,0,0,0,0,0,0,g,0,0,0
0,0,0,0,g,0,0,0,0,0,0,0,g,0,h,0
0,h,0,0,g,0,0,0,0,0,0,0,g,0,0,0
0,0,0,0,d,g,g,g,g,g,g,g,e,0,0,0
0,0,0,0,0,0,0,0,0,0,0,0,0,0,0,0
0,0,0,0,0,0,0,0,0,0,0,0,0,0,0,0
0,0,0,0,0,0,0,h,0,0,0,0,0,0,0,0
0,0,0,0,0,0,0,0,0,0,0,0,0,h,0,0
0,h,0,0,0,0,0,0,0,0,0,0,0,0,0,0
0,0,0,0,0,0,0,0,0,0,0,0,0,0,0,0
WAL g,b,c,d,e,s,r,v,y
EXT 8,3 3 8,4
PAL 0

ROOM 3
0,0,0,0,0,0,0,0,0,0,0,0,0,0,0,0
0,0,0,0,0,0,0,0,0,0,0,0,0,0,0,0
0,0,0,0,0,0,0,0,0,0,0,0,0,0,0,0
0,0,0,0,0,0,0,0,0,0,0,0,0,0,0,0
0,0,0,0,0,0,0,g,i,g,0,0,0,0,0,0
0,0,0,0,0,g,g,g,0,g,0,0,0,0,0,0
0,0,0,0,0,g,0,0,0,g,0,0,0,0,0,0
0,0,0,0,0,g,l,g,g,g,0,0,0,0,0,0
0,0,0,0,0,g,0,g,0,0,0,0,0,0,0,0
0,0,0,0,0,g,0,g,0,0,0,0,0,0,0,0
0,0,0,g,0,0,l,g,0,0,0,0,0,0,0,0
0,0,0,g,0,0,g,g,0,g,0,0,0,0,0,0
0,0,0,g,l,g,o,n,p,g,0,0,0,0,0,0
0,0,0,g,0,0,0,m,0,g,0,0,0,0,0,0
0,0,0,g,g,0,0,0,g,g,0,0,0,0,0,0
0,0,0,0,0,0,g,0,0,0,0,0,0,0,0,0
WAL g,s,r,v,y
EXT 6,13 4 6,13
PAL 1

ROOM 4
0,0,0,0,0,0,0,0,0,0,0,0,0,0,0,0
0,0,0,0,0,0,0,0,0,0,0,0,0,0,0,0
0,0,0,0,0,0,0,0,0,0,0,0,0,0,0,0
0,0,0,0,0,0,0,0,0,0,0,0,0,0,0,0
0,0,0,0,0,0,0,g,i,g,0,0,0,0,0,0
0,0,0,0,0,g,g,g,0,g,0,0,0,0,0,0
0,0,0,0,0,g,0,0,0,g,0,0,0,0,0,0
0,0,0,0,0,g,l,g,g,g,0,0,0,0,0,0
0,0,0,0,0,g,0,g,0,0,0,0,0,0,0,0
0,0,0,0,0,g,0,g,0,0,0,0,0,0,0,0
0,0,0,g,0,0,l,g,0,0,0,0,0,0,0,0
0,0,0,g,0,0,g,g,0,g,0,0,0,0,0,0
0,0,0,g,l,g,g,g,g,g,g,g,g,g,g,g
0,0,0,g,0,0,0,l,q,l,0,l,0,l,0,l
0,0,0,g,g,0,g,g,g,g,g,g,g,g,g,g
0,0,0,0,0,0,g,0,0,0,0,0,0,0,0,0
WAL g,s,r,v,y
EXT 7,13 5 7,13
PAL 1

ROOM 5
0,0,0,0,0,0,0,0,0,0,0,0,0,0,0,0
0,0,0,0,0,0,0,0,0,0,0,0,0,0,0,0
0,0,0,0,0,0,0,0,0,0,0,0,0,0,0,0
0,0,0,0,0,0,0,0,0,0,0,0,0,0,0,0
0,0,0,0,0,0,0,g,i,g,0,0,0,0,0,0
0,0,0,0,0,g,g,g,0,g,0,0,0,0,0,0
0,0,0,0,0,g,0,0,0,g,0,0,0,0,0,0
0,0,0,0,0,g,l,g,g,g,0,0,0,0,0,0
0,0,0,0,0,g,0,g,0,0,0,0,0,0,0,0
0,0,0,0,0,g,0,g,0,0,0,0,0,0,0,0
0,0,0,g,0,0,l,g,0,0,0,0,0,0,0,0
0,0,0,g,0,0,g,g,0,g,0,0,0,0,0,0
0,0,0,g,l,g,g,g,g,g,g,g,g,g,g,g
0,0,0,g,0,0,0,l,0,q,0,l,0,l,0,l
0,0,0,g,g,0,g,g,g,g,g,g,g,g,g,g
0,0,0,0,0,0,g,0,0,0,0,0,0,0,0,0
WAL g,s,r,v,y
EXT 8,13 6 8,13
PAL 1

ROOM 6
0,0,0,0,0,0,0,0,0,0,0,0,0,0,0,0
0,0,0,0,0,0,0,0,0,0,0,0,0,0,0,0
0,0,0,0,0,0,0,0,0,0,0,0,0,0,0,0
0,0,0,0,0,0,0,0,0,0,0,0,0,0,0,0
0,0,0,0,0,0,0,g,i,g,0,0,0,0,0,0
0,0,0,0,0,g,g,g,0,g,0,0,0,0,0,0
0,0,0,0,0,g,0,0,0,g,0,0,0,0,0,0
0,0,0,0,0,g,l,g,g,g,0,0,0,0,0,0
0,0,0,0,0,g,0,g,0,0,0,0,0,0,0,0
0,0,0,0,0,g,0,g,0,0,0,0,0,0,0,0
0,0,0,g,0,0,l,g,0,0,0,0,0,0,0,0
0,0,0,g,0,0,g,g,0,g,0,0,0,0,0,0
0,0,0,g,l,g,g,g,g,g,g,g,g,g,g,g
0,0,0,g,0,0,0,l,0,l,q,l,0,l,0,l
0,0,0,g,g,0,g,g,g,g,g,g,g,g,g,g
0,0,0,0,0,0,g,0,0,0,0,0,0,0,0,0
WAL g,s,r,v,y
EXT 9,13 7 9,13
PAL 1

ROOM 7
0,0,0,0,0,0,0,0,0,0,0,0,0,0,0,0
0,0,0,0,0,0,0,0,0,0,0,0,0,0,0,0
0,0,0,0,0,0,0,0,0,0,0,0,0,0,0,0
0,0,0,0,0,0,0,0,0,0,0,0,0,0,0,0
0,0,0,0,0,0,0,g,i,g,0,0,0,0,0,0
0,0,0,0,0,g,g,g,0,g,0,0,0,0,0,0
0,0,0,0,0,g,0,0,0,g,0,0,0,0,0,0
0,0,0,0,0,g,l,g,g,g,0,0,0,0,0,0
0,0,0,0,0,g,0,g,0,0,0,0,0,0,0,0
0,0,0,0,0,g,0,g,0,0,0,0,0,0,0,0
0,0,0,g,0,0,l,g,0,0,0,0,0,0,0,0
0,0,0,g,0,0,g,g,0,g,0,0,0,0,0,0
0,0,0,g,l,g,g,g,g,g,g,g,g,g,g,g
0,0,0,g,0,0,0,l,0,l,0,q,0,l,0,l
0,0,0,g,g,0,g,g,g,g,g,g,g,g,g,g
0,0,0,0,0,0,g,0,0,0,0,0,0,0,0,0
WAL g,s,r,v,y
EXT 10,13 8 10,13
PAL 1

ROOM 8
0,0,0,0,0,0,0,0,0,0,0,0,0,0,0,0
0,0,0,0,0,0,0,0,0,0,0,0,0,0,0,0
0,0,0,0,0,0,0,0,0,0,0,0,0,0,0,0
0,0,0,0,0,0,0,0,0,0,0,0,0,0,0,0
0,0,0,0,0,0,0,g,i,g,0,0,0,0,0,0
0,0,0,0,0,g,g,g,0,g,0,0,0,0,0,0
0,0,0,0,0,g,0,0,0,g,0,0,0,0,0,0
0,0,0,0,0,g,l,g,g,g,0,0,0,0,0,0
0,0,0,0,0,g,0,g,0,0,0,0,0,0,0,0
0,0,0,0,0,g,0,g,0,0,0,0,0,0,0,0
0,0,0,g,0,0,l,g,0,0,0,0,0,0,0,0
0,0,0,g,0,0,g,g,0,g,0,0,0,0,0,0
0,0,0,g,l,g,g,g,g,g,g,g,g,g,g,g
0,0,0,g,0,0,0,l,0,l,0,l,q,l,0,l
0,0,0,g,g,0,g,g,g,g,g,g,g,g,g,g
0,0,0,0,0,0,g,0,0,0,0,0,0,0,0,0
WAL g,s,r,v,y
EXT 11,13 9 11,13
PAL 1

ROOM 9
0,0,0,0,0,0,0,0,0,0,0,0,0,0,0,0
0,0,0,0,0,0,0,0,0,0,0,0,0,0,0,0
0,0,0,0,0,0,0,0,0,0,0,0,0,0,0,0
0,0,0,0,0,0,0,0,0,0,0,0,0,0,0,0
0,0,0,0,0,0,0,g,i,g,0,0,0,0,0,0
0,0,0,0,0,g,g,g,0,g,0,0,0,0,0,0
0,0,0,0,0,g,0,0,0,g,0,0,0,0,0,0
0,0,0,0,0,g,l,g,g,g,0,0,0,0,0,0
0,0,0,0,0,g,0,g,0,0,0,0,0,0,0,0
0,0,0,0,0,g,0,g,0,0,0,0,0,0,0,0
0,0,0,g,0,0,l,g,0,0,0,0,0,0,0,0
0,0,0,g,0,0,g,g,0,g,0,0,0,0,0,0
0,0,0,g,l,g,g,g,g,g,g,g,g,g,g,g
0,0,0,g,0,0,0,l,0,l,0,l,0,q,0,l
0,0,0,g,g,0,g,g,g,g,g,g,g,g,g,g
0,0,0,0,0,0,g,0,0,0,0,0,0,0,0,0
WAL g,s,r,v,y
EXT 12,13 a 12,13
PAL 1

ROOM a
0,0,0,0,0,0,0,0,0,0,0,0,0,0,0,0
0,0,0,0,0,0,0,0,0,0,0,0,0,0,0,0
0,0,0,0,0,0,0,0,0,0,0,0,0,0,0,0
0,0,0,0,0,0,0,0,0,0,0,0,0,0,0,0
0,0,0,0,0,0,0,g,i,g,0,0,0,0,0,0
0,0,0,0,0,g,g,g,0,g,0,0,0,0,0,0
0,0,0,0,0,g,0,0,0,g,0,0,0,0,0,0
0,0,0,0,0,g,l,g,g,g,0,0,0,0,0,0
0,0,0,0,0,g,0,g,0,0,0,0,0,0,0,0
0,0,0,0,0,g,0,g,0,0,0,0,0,0,0,0
0,0,0,g,0,0,l,g,0,0,0,0,0,0,0,0
0,0,0,g,0,0,g,g,0,g,0,0,0,0,0,0
0,0,0,g,l,g,g,g,g,g,g,g,g,g,g,g
0,0,0,g,0,0,0,l,0,l,0,l,0,0,q,l
0,0,0,g,g,0,g,g,g,g,g,g,g,g,g,g
0,0,0,0,0,0,g,0,0,0,0,0,0,0,0,0
WAL g,s,r,v,y
EXT 13,13 b 13,13
PAL 1

ROOM b
0,0,0,0,0,0,0,0,0,0,0,0,0,0,0,0
0,0,0,0,0,0,0,0,0,0,0,0,0,0,0,0
0,0,0,0,0,0,0,0,0,0,0,0,0,0,0,0
0,0,0,0,0,0,0,0,0,0,0,0,0,0,0,0
0,0,0,0,0,0,0,g,i,g,0,0,0,0,0,0
0,0,0,0,0,g,g,g,0,g,0,0,0,0,0,0
0,0,0,0,0,g,0,0,0,g,0,0,0,0,0,0
0,0,0,0,0,g,l,g,g,g,0,0,0,0,0,0
0,0,0,0,0,g,0,g,0,0,0,0,0,0,0,0
0,0,0,0,0,g,0,g,0,0,0,0,0,0,0,0
0,0,0,g,0,0,l,g,0,0,0,0,0,0,0,0
0,0,0,g,0,0,g,g,0,g,0,0,0,0,0,0
0,0,0,g,l,g,g,g,g,g,g,g,g,g,g,g
0,0,0,g,0,0,0,l,0,l,0,l,0,l,0,q
0,0,0,g,g,0,g,g,g,g,g,g,g,g,g,g
0,0,0,0,0,0,g,0,0,0,0,0,0,0,0,0
WAL g,s,r,v,y
EXT 14,13 d 8,12
PAL 1

ROOM c
0,0,0,0,0,0,0,0,0,0,0,0,0,0,0,0
0,0,0,0,0,0,0,0,0,0,0,0,0,0,0,0
0,0,0,0,0,0,0,0,0,0,0,0,0,0,0,0
0,0,0,0,0,0,0,0,0,0,0,0,0,0,0,0
0,0,0,0,0,0,0,g,i,g,0,0,0,0,0,0
0,0,0,0,0,g,g,g,0,g,0,0,0,0,0,0
0,0,0,0,0,g,0,0,0,g,0,0,0,0,0,0
0,0,0,0,0,g,l,g,g,g,0,0,0,0,0,0
0,0,0,0,0,g,0,g,0,0,0,0,0,0,0,0
0,0,0,0,0,g,0,g,0,0,0,0,0,0,0,0
0,0,0,g,0,0,l,g,0,0,0,0,0,0,0,0
0,0,0,g,0,0,g,g,0,g,0,0,0,0,0,0
0,0,0,g,l,g,g,g,g,g,g,g,g,g,g,g
0,0,0,g,0,0,0,l,0,l,0,l,0,l,q,l
0,0,0,g,g,0,g,g,g,g,g,g,g,g,g,g
0,0,0,0,0,0,g,0,0,0,0,0,0,0,0,0
WAL g,s,r,v,y
EXT 13,13 d 8,12
EXT 14,13 d 8,11
PAL 1

ROOM d
0,0,0,0,0,0,0,0,0,0,0,0,0,0,0,0
0,h,0,0,0,0,0,w,y,x,h,0,0,0,0,0
0,0,0,0,0,0,0,v,v,v,0,0,0,h,0,0
0,0,0,0,0,0,0,v,v,v,0,0,0,0,0,0
0,0,0,0,0,0,0,r,0,s,0,0,0,0,0,0
0,0,0,0,0,0,t,r,0,s,t,0,0,0,0,0
0,0,h,0,0,0,0,r,0,s,0,0,0,0,0,0
0,0,0,0,0,0,t,r,0,s,t,0,0,h,0,0
0,0,0,0,0,0,0,r,0,s,0,0,0,0,0,0
0,0,0,0,0,0,t,r,0,s,t,0,0,0,0,0
0,0,0,0,0,0,0,r,0,s,0,0,0,0,0,0
0,h,0,0,0,0,t,r,0,s,t,0,0,0,0,0
0,0,0,0,0,0,0,g,0,g,0,0,0,0,0,0
0,0,0,0,0,0,0,g,g,g,0,0,h,0,0,0
0,0,0,h,0,0,0,0,0,0,0,0,0,0,0,0
0,0,0,0,0,0,0,0,0,0,0,0,0,0,0,0
WAL s,r,g,v,y
EXT 8,11 e 8,11
PAL 2

ROOM e
0,0,0,0,0,0,0,0,0,0,0,0,0,0,0,0
0,0,0,0,0,0,0,w,y,x,0,0,0,0,0,0
0,0,0,0,0,0,0,y,y,y,0,0,0,0,0,0
0,0,h,0,0,0,0,y,y,y,0,0,h,0,0,0
0,0,0,0,0,0,0,r,0,s,0,0,0,0,0,0
0,0,0,0,0,0,t,r,0,s,t,0,0,0,0,0
0,0,0,0,0,0,0,r,0,s,0,0,0,0,0,0
0,0,0,0,0,0,t,r,0,s,t,0,0,0,0,0
0,0,0,0,0,0,0,r,0,s,0,0,0,0,0,h
0,h,0,0,0,0,t,r,0,s,t,0,0,0,0,0
0,0,0,0,0,0,u,r,0,s,u,0,0,0,0,0
0,0,0,0,0,0,t,r,0,s,t,0,0,0,0,0
0,0,0,0,0,0,0,g,0,g,0,0,0,0,0,h
0,0,0,0,0,0,0,g,g,g,0,0,0,0,0,0
0,0,0,0,h,0,0,0,0,0,0,0,0,0,0,0
0,0,0,0,0,0,0,0,0,0,0,0,0,0,0,0
WAL s,r,g,v,y
EXT 8,9 f 8,9
PAL 2

ROOM f
0,0,0,0,0,0,0,0,0,0,0,0,0,0,0,0
0,0,0,0,h,0,0,w,y,x,0,0,0,h,0,0
0,0,0,0,0,0,0,y,y,y,0,0,0,0,0,0
0,0,0,0,0,0,0,y,y,y,0,0,0,0,0,0
0,0,0,0,0,0,0,r,0,s,0,0,0,0,0,0
0,0,0,0,0,0,t,r,0,s,t,0,0,h,0,0
0,0,0,0,0,0,0,r,0,s,0,0,0,0,0,0
h,0,0,0,0,0,t,r,0,s,t,0,0,0,0,0
0,0,0,0,0,0,u,r,0,s,u,0,0,0,0,0
0,0,0,0,0,0,t,r,0,s,t,0,0,0,0,0
0,0,0,0,0,0,u,r,0,s,u,0,0,0,0,0
0,0,0,0,0,0,t,r,0,s,t,0,0,0,0,0
0,0,0,0,0,0,0,g,0,g,0,0,0,h,0,0
0,0,0,h,0,0,0,g,g,g,0,0,0,0,0,0
0,0,0,0,0,0,0,0,0,0,0,0,0,0,0,0
0,0,0,0,0,0,0,0,0,0,0,0,0,0,0,0
WAL s,r,g,v,y
EXT 8,7 g 8,7
PAL 2

ROOM g
0,0,0,0,0,0,0,0,0,0,0,0,0,0,0,0
0,0,0,0,h,0,0,w,v,x,0,0,0,h,0,0
0,0,h,0,0,0,0,v,v,v,0,0,0,0,0,0
0,0,0,0,0,0,0,v,v,v,0,0,0,h,0,0
0,0,0,0,0,0,0,r,0,s,0,0,0,0,0,0
0,0,0,0,0,0,t,r,0,s,t,0,0,h,0,0
0,0,0,0,0,0,u,r,0,s,u,0,0,0,0,0
h,0,0,0,0,0,t,r,0,s,t,0,0,0,0,0
0,0,0,0,0,0,u,r,0,s,u,0,0,0,0,0
0,0,h,0,0,0,t,r,0,s,t,0,0,h,0,0
0,0,0,0,0,0,u,r,0,s,u,0,0,0,0,0
0,0,0,0,0,0,t,r,0,s,t,0,0,0,0,0
0,0,0,0,0,0,0,g,0,g,0,0,0,h,0,0
0,0,0,h,0,0,h,0,0,g,0,0,0,0,0,0
0,0,0,0,0,0,0,0,0,0,0,0,0,0,0,0
0,0,0,0,0,0,0,0,0,0,0,0,0,0,0,0
WAL s,r,g,v,y
EXT 8,5 h 8,5
PAL 2

ROOM h
0,0,0,0,0,0,0,0,0,0,0,0,0,0,0,0
0,0,0,0,h,0,0,w,v,x,0,0,0,h,0,0
0,0,h,0,0,0,0,v,0,v,0,0,0,0,0,0
0,0,0,0,0,0,0,v,0,v,0,0,0,h,0,0
0,0,0,0,0,0,u,r,0,s,u,0,0,0,0,0
0,0,0,0,0,q,t,r,0,s,t,q,0,h,0,0
0,0,0,0,0,0,u,r,0,s,u,0,0,0,0,0
h,0,0,0,0,q,t,r,0,s,t,q,0,0,0,0
0,0,0,0,0,0,u,r,0,s,u,0,0,0,0,0
0,0,h,0,0,q,t,r,0,s,t,q,0,h,0,0
0,0,0,0,0,0,u,r,0,s,u,0,0,0,0,0
0,0,0,0,0,q,t,r,0,s,t,q,0,0,0,0
0,0,0,0,0,0,0,g,0,g,0,0,0,h,0,0
0,0,0,h,0,0,h,0,0,g,0,0,0,0,0,0
0,0,0,0,0,0,0,0,0,0,0,0,0,0,0,0
0,0,0,0,0,0,0,0,0,0,0,0,0,0,0,0
WAL s,r,g,v,y
EXT 8,3 i 9,6
PAL 2

ROOM i
0,0,0,0,0,0,0,0,0,0,0,0,0,0,0,0
0,0,0,0,0,0,0,0,0,0,0,0,0,0,0,0
0,0,0,0,0,0,0,0,0,0,0,0,0,0,0,0
0,0,0,0,0,0,0,0,0,0,0,0,0,0,0,0
0,0,0,0,0,0,0,0,0,0,0,0,0,0,0,0
0,0,0,0,0,b,g,g,g,g,g,g,c,0,0,0
0,0,0,0,0,g,0,0,0,i,0,0,g,0,0,0
0,0,0,0,0,g,0,0,0,0,0,0,g,0,0,0
0,0,0,0,0,g,0,0,0,0,0,0,g,0,0,0
0,0,0,0,0,g,0,0,0,0,0,0,g,0,0,0
0,0,0,0,0,d,g,g,g,g,g,g,e,0,0,0
0,0,0,0,0,0,0,0,0,0,0,0,0,0,0,0
0,0,0,0,0,0,0,0,0,0,0,0,0,0,0,0
0,0,0,0,0,0,0,0,0,0,0,0,0,0,0,0
0,0,0,0,0,0,0,0,0,0,0,0,0,0,0,0
0,0,0,0,0,0,0,0,0,0,0,0,0,0,0,0
WAL g,d,e,b,c,v,y
EXT 8,9 j 8,9
EXT 9,8 j 9,8
EXT 10,9 j 10,9
PAL 2

ROOM j
0,0,0,0,0,0,0,0,0,0,0,0,0,0,0,0
0,0,0,0,0,0,0,0,0,0,0,0,0,0,0,0
0,0,0,0,0,0,0,0,0,0,0,0,0,0,0,0
0,0,0,0,0,0,0,0,0,0,0,0,0,0,0,0
0,0,0,0,0,0,0,0,0,0,0,0,0,0,0,0
0,0,0,0,0,0,0,0,0,0,0,0,0,0,0,0
0,0,0,0,0,0,0,0,0,0,0,0,0,0,0,0
0,0,0,0,0,0,0,0,0,0,0,0,0,0,0,0
0,0,0,0,0,0,0,0,0,0,0,0,0,0,0,0
0,0,0,0,0,0,0,0,0,0,0,0,0,0,0,0
0,0,0,0,0,0,0,0,0,0,0,0,0,0,0,0
0,0,0,0,0,0,0,0,0,0,0,0,0,0,0,0
0,0,0,0,0,0,0,0,0,0,0,0,0,0,0,0
0,0,0,0,0,0,0,0,0,0,0,0,0,0,0,0
0,0,0,0,0,0,0,0,0,0,0,0,0,0,0,0
0,i,0,0,0,0,0,0,0,0,0,0,0,0,0,0
WAL v,y
EXT 1,15 k 14,0
PAL 2

ROOM k
v,v,v,v,v,v,v,v,v,v,v,v,v,v,0,v
v,v,v,v,v,v,v,v,v,v,v,v,v,v,0,v
v,v,v,v,v,v,v,v,v,v,v,v,v,v,0,v
v,v,v,v,v,v,v,v,v,v,v,v,v,v,0,v
0,0,0,0,0,0,0,0,0,0,v,v,v,v,0,v
0,0,0,0,0,0,0,0,0,0,0,0,0,0,0,v
0,0,0,0,0,0,0,0,0,0,v,v,v,v,v,v
0,0,0,0,0,0,0,0,0,0,v,v,v,v,v,v
v,v,v,v,v,0,0,0,0,0,v,v,v,v,v,v
v,v,v,v,v,0,0,0,0,0,v,v,v,v,v,v
v,v,v,v,v,0,0,0,0,0,v,v,v,v,v,v
v,v,v,v,v,0,0,0,0,0,v,v,v,v,v,v
v,v,v,v,v,0,0,0,0,0,v,v,v,v,v,v
v,v,v,v,v,0,0,0,0,0,v,v,v,v,v,v
v,v,v,v,v,0,0,0,0,0,v,v,v,v,v,v
v,v,v,v,v,0,0,0,0,0,v,v,v,v,v,v
WAL v,y
EXT 8,6 l 8,6
EXT 7,5 l 7,5
EXT 6,6 l 6,6
EXT 7,7 l 7,7
PAL 3

ROOM l
v,v,v,v,v,v,v,v,v,v,v,v,v,v,0,v
v,v,v,v,v,v,v,v,v,v,v,v,v,v,0,v
v,v,v,v,v,v,v,v,v,v,v,v,v,v,0,v
v,v,v,v,v,v,v,v,v,v,v,v,v,v,0,v
0,0,0,0,0,0,0,0,0,0,v,v,v,v,0,v
0,0,0,0,0,0,0,0,0,0,0,0,0,0,0,v
0,0,0,0,0,0,0,0,0,0,v,v,v,v,v,v
0,0,0,0,0,0,0,0,0,0,v,v,v,v,v,v
v,v,v,v,v,0,0,0,0,0,v,v,v,v,v,v
v,v,v,v,v,0,0,0,0,0,v,v,v,v,v,v
v,v,v,v,v,0,0,0,0,0,v,v,v,v,v,v
v,v,v,v,v,0,0,0,0,0,v,v,v,v,v,v
v,v,v,v,v,0,0,0,0,0,v,v,v,v,v,v
v,v,v,v,v,0,0,0,0,0,v,v,v,v,v,v
v,v,v,v,v,0,0,i,0,0,v,v,v,v,v,v
v,v,v,v,v,0,0,0,0,0,v,v,v,v,v,v
WAL v,y
EXT 7,14 m 12,6
PAL 3

ROOM m
0,0,0,0,0,0,0,0,0,0,0,0,0,0,0,0
0,0,0,0,0,0,0,0,0,0,0,0,0,0,0,0
0,0,0,0,0,0,0,0,0,0,0,0,0,0,0,0
v,v,v,v,v,v,v,v,v,v,v,v,v,v,v,0
v,0,0,0,0,0,0,0,0,0,0,0,0,0,v,0
v,0,0,0,0,0,0,0,0,0,0,0,0,0,v,0
0,0,0,0,0,0,0,0,0,0,0,0,0,0,v,0
v,0,0,0,0,0,0,0,0,0,0,0,0,0,v,0
v,0,0,0,0,0,0,0,0,0,0,0,0,0,v,0
v,v,v,v,v,v,v,v,v,v,v,v,v,v,v,0
0,0,0,0,0,0,0,0,0,0,0,0,0,0,0,0
0,0,0,0,0,0,0,0,0,0,0,0,0,0,0,0
0,0,0,0,0,0,0,0,0,0,0,0,0,0,0,0
0,0,0,0,0,0,0,0,0,0,0,0,0,0,0,0
0,0,0,0,0,0,0,0,0,0,0,0,0,0,0,0
0,0,0,0,0,0,0,0,0,0,0,0,0,0,0,0
WAL v,y
EXT 7,6 n 7,6
EXT 6,5 n 6,5
EXT 5,6 n 5,6
EXT 6,7 n 6,7
PAL 4

ROOM n
0,0,0,0,0,0,0,0,0,0,0,0,0,0,0,0
0,0,0,0,0,0,0,0,0,0,0,0,0,0,0,0
0,0,0,0,0,0,0,0,0,0,0,0,0,0,0,0
v,v,v,v,v,v,v,v,v,v,v,v,v,v,v,0
v,0,0,0,0,0,0,0,0,0,0,0,0,0,v,0
v,0,0,0,0,0,0,0,0,0,0,0,0,0,v,0
i,0,0,0,0,0,0,0,0,0,0,0,0,0,v,0
v,0,0,0,0,0,0,0,0,0,0,0,0,0,v,0
v,0,0,0,0,0,0,0,0,0,0,0,0,0,v,0
v,v,v,v,v,v,v,v,v,v,v,v,v,v,v,0
0,0,0,0,0,0,0,0,0,0,0,0,0,0,0,0
0,0,0,0,0,0,0,0,0,0,0,0,0,0,0,0
0,0,0,0,0,0,0,0,0,0,0,0,0,0,0,0
0,0,0,0,0,0,0,0,0,0,0,0,0,0,0,0
0,0,0,0,0,0,0,0,0,0,0,0,0,0,0,0
0,0,0,0,0,0,0,0,0,0,0,0,0,0,0,0
WAL v,y
EXT 0,6 o 7,11
PAL 4

ROOM o
0,0,0,0,0,0,0,0,0,0,0,0,0,0,0,q
0,0,0,0,0,0,0,0,0,0,0,0,0,0,0,0
0,0,0,0,0,0,0,0,0,0,0,0,0,0,0,0
0,0,0,0,0,0,0,0,0,0,0,0,0,0,0,0
0,0,0,0,0,0,0,0,0,0,0,0,0,0,0,0
0,0,0,0,0,0,0,0,0,0,0,0,0,0,0,0
0,0,0,0,0,0,l,0,l,0,0,0,0,0,0,0
0,0,0,0,0,0,l,m,l,0,0,0,0,0,0,0
0,0,0,0,0,0,l,m,l,0,0,0,0,0,0,0
0,0,0,0,0,0,l,m,l,0,0,0,0,0,0,0
0,0,0,0,0,0,l,m,l,0,0,0,0,0,0,0
0,0,0,0,0,0,l,m,l,0,0,0,0,0,0,0
0,0,0,0,0,0,l,m,l,0,0,0,0,0,0,0
0,0,0,0,0,0,l,m,l,0,0,0,0,0,0,0
0,0,0,0,0,0,l,m,l,0,0,0,0,0,0,0
0,0,0,0,0,0,l,m,l,0,0,0,0,0,0,0
WAL l,v,y
EXT 7,14 p 7,14
PAL 2

ROOM p
0,0,0,0,0,0,0,0,0,0,0,0,0,0,0,q
0,0,0,0,0,0,0,0,0,0,0,0,0,0,0,0
0,0,0,0,0,0,0,0,0,0,0,0,0,0,0,0
0,0,0,0,0,0,0,0,0,0,0,0,0,0,0,0
0,0,0,0,0,0,0,0,0,0,0,0,0,0,0,0
0,0,0,0,0,0,0,0,0,0,0,0,0,0,0,0
0,0,0,0,0,0,l,0,l,0,0,0,0,0,0,0
0,0,0,0,0,0,l,m,l,0,0,0,0,0,0,0
0,0,0,0,0,0,l,m,l,0,0,0,0,0,0,0
0,0,0,0,0,0,l,m,l,0,0,0,0,0,0,0
0,0,0,0,0,0,l,m,l,0,0,0,0,0,0,0
0,0,0,0,0,0,l,m,l,0,0,0,0,0,0,0
0,0,0,0,0,0,l,m,l,0,0,0,0,0,0,0
0,0,0,0,0,0,l,m,l,0,0,0,0,0,0,0
0,0,0,0,0,0,l,m,l,0,0,0,0,0,0,0
0,0,0,0,0,0,l,i,l,0,0,0,0,0,0,0
WAL l,v,y
EXT 7,15 r 8,4
PAL 2

ROOM q
1b,1b,1b,1b,1b,1b,1b,1b,1b,1b,1b,1b,1b,1b,1b,1b
1b,1b,1b,1b,1b,1b,1b,1b,1b,1b,1b,1b,1b,1b,1b,1b
1b,1b,1b,1b,b,g,g,g,g,g,g,g,c,1b,1b,0
1b,1b,1b,1b,g,0,0,0,i,0,0,0,g,1b,1b,1b
1b,1b,1b,1b,g,0,0,0,0,0,0,0,g,1b,1b,1b
1b,1b,1b,1b,g,0,0,0,0,0,0,0,g,1b,1b,1b
1b,1b,1b,1b,15,14,13,0,0,0,0,0,g,1b,1b,1b
1b,1b,1b,1b,16,11,12,0,0,0,19,18,1a,1b,1b,1b
1b,1b,1b,1b,g,10,17,0,0,0,0,0,g,1b,1b,1b
1b,1b,1b,1b,d,g,g,g,g,g,g,g,e,1b,1b,1b
1b,1b,1b,1b,1b,1b,1b,1b,1b,1b,1b,1b,1b,1b,1b,1b
1b,1b,1b,1b,1b,1b,1b,1b,1b,1b,1b,1b,1b,1b,1b,1b
1b,1b,1b,1b,1b,1b,1b,1b,1b,1b,1b,1b,1b,1b,1b,1b
1b,1b,1b,1b,1b,1b,1b,1b,1b,1b,1b,1b,1b,1b,1b,0
1b,1b,1b,1b,1b,1b,1b,1b,1b,1b,1b,1b,1b,1b,1b,1b
1b,1b,1b,1b,1b,1b,1b,1b,1b,1b,1b,1b,1b,1b,1b,1b
WAL g,b,c,d,e,s,r,16,15,1a,v,y
PAL 0

ROOM r
0,0,0,0,0,0,0,0,0,0,0,0,0,0,0,0
0,0,0,0,0,0,0,0,0,0,0,0,0,0,0,0
0,0,0,0,b,g,g,g,g,g,g,g,c,0,0,0
0,0,0,0,g,0,0,0,0,0,0,0,g,0,0,0
0,0,0,0,g,0,0,0,0,0,0,0,g,0,0,0
0,0,0,0,g,0,0,0,0,0,0,0,g,0,0,0
0,0,0,0,g,0,0,0,0,0,0,0,g,0,0,0
0,0,0,0,g,0,0,0,0,0,0,0,g,0,0,0
0,0,0,0,g,0,0,0,0,0,0,0,g,0,0,0
0,0,0,0,d,g,g,g,g,g,g,g,e,0,0,0
0,0,0,0,0,0,0,0,0,0,0,0,0,0,0,0
0,0,0,0,0,0,0,0,0,0,0,0,0,0,0,0
0,0,15,14,13,0,0,0,0,0,0,0,0,0,0,0
0,0,16,11,12,0,1b,0,19,18,1a,0,0,0,0,0
0,0,0,10,17,0,0,0,0,0,0,0,0,0,0,0
0,0,0,0,0,0,0,0,0,0,0,0,0,0,0,0
WAL g,b,c,d,e,s,r,v,y
EXT 7,8 q 7,8
EXT 8,7 q 8,7
EXT 9,8 q 9,8
PAL 0

TIL 10
00111100
00111100
00111100
00111100
00111100
00111100
00111100
01111110

TIL 11
11111111
11111111
11111111
11111111
11111111
11111111
00111100
00111100

TIL 12
11111000
11111000
11111000
11111000
11111000
11110000
00010000
00010000

TIL 13
00000000
00000000
00000000
11110000
11111000
11111000
11111000
11111000

TIL 14
00000000
00000000
00000000
11111111
11111111
11111111
11111111
11111111

TIL 15
00000000
00000000
00000000
00001111
00011111
00011111
00011111
00011111

TIL 16
00011111
00011111
00011111
00011111
00011111
00001111
00000000
00000000

TIL 17
00010000
00111000
00111000
00111000
00110000
01110000
01110000
01010000

TIL 18
00000111
00000111
11111111
00000010
00000010
00000010
00000010
00000010

TIL 19
00000000
00000000
11111111
01000000
01000000
01000000
01000000
01000000

TIL a
11111111
10000001
10000001
10011001
10011001
10000001
10000001
11111111

TIL b
00000000
00000000
00111111
00100000
00100000
00100000
00100000
00100000

TIL c
00000000
00000000
11111100
00000100
00000100
00000100
00000100
00000100

TIL d
00100000
00100000
00100000
00100000
00100000
00111111
00000000
00000000

TIL e
00000100
00000100
00000100
00000100
00000100
11111100
00000000
00000000

TIL f
00000000
00000000
00011000
00111100
00011000
00000000
00000000
00000000

TIL g
00000000
00000000
00000000
00000000
00000000
00000000
00000000
00000000

TIL h
00000000
00000000
00000000
00000000
00000000
00000110
00001110
00000000
>
00000000
01110000
01100000
00000000
00000000
00000000
00000000
00000000

TIL i
00000000
00111100
01111110
01111110
01111110
01111110
01111110
01111110

TIL j
00000000
00000000
00011000
00111100
00111100
00011000
00000000
00000000

TIL k
00000000
00100100
01100110
01111110
01100110
00100100
00000000
00000000

TIL l
00000000
00000000
00000100
00001010
00011000
00010000
00010000
00010000

TIL m
10101011
10101011
10101011
10101011
10101011
10101011
10101011
10101011
>
11010101
11010101
11010101
11010101
11010101
11010101
11010101
11010101

TIL n
00000000
00111100
01111110
11111111
11111111
11111111
11111111
11111111

TIL o
00000000
00000000
00000000
00000000
00000001
00000011
00000111
00001111

TIL p
00000000
00000000
00000000
00000000
10000000
11000000
11100000
11110000

TIL q
00000000
00000000
01100000
01111000
00011000
01111110
01011010
01000010
>
00000000
00000000
00000000
01100000
01111000
00011000
01111110
01011010

TIL r
11000100
11000100
11000100
11000100
11000100
11000100
11000100
11000100

TIL s
00100011
00100011
00100011
00100011
00100011
00100011
00100011
00100011

TIL t
00111100
01111110
01111110
01111110
01111110
01111110
01111110
01111110

TIL u
00000000
00000000
00000100
00011100
00111110
00111110
00111100
00111100
>
00000000
00000000
00100000
00111000
01111100
01111100
00111100
00111100

TIL v
11111111
11111111
11111111
11111111
11111111
11111111
11111111
11111111

TIL w
00000001
00000011
00000111
00001111
00011111
00111111
01111111
11111111

TIL x
10000000
11000000
11100000
11110000
11111000
11111100
11111110
11111111

TIL y
11111111
11111111
11111111
11111111
11111111
11111111
11111111
11111111

TIL z
00000000
00000000
00000000
00111000
01111100
01000100
01111100
01111100

TIL 1a
11100010
11110010
00111010
00011010
00111010
00111110
00110010
00010010

TIL 1b
11111111
11111111
11011011
10111101
11111111
10111101
11000011
11111111
>
11111111
11011011
10111101
11111111
10111101
11000011
11111111
11111111

SPR A
00000000
01111110
01101010
01111110
01011100
01100010
01111110
00000000
>
00000000
01111110
01010110
01111110
00111010
01000110
01111110
00000000
POS 0 8,3

SPR a
00000000
00000000
00011000
00111100
00011000
00000000
00000000
00000000
>
00000000
00011000
00111100
01111110
00111100
00011000
00000000
00000000
POS 0 8,8

SPR b
00000000
00000000
00011000
00111100
00011000
00000000
00000000
00000000
>
00000000
00011000
00111100
01100110
00111100
00011000
00000000
00000000
POS 1 8,8

SPR c
00000000
01111110
01011010
01111110
01111110
00111100
00011000
00011000
>
00000000
00000000
01111110
01011010
01111110
01111110
00011000
00011000
POS i 9,9

SPR d
00000000
01111110
01011010
01111110
01111110
00111100
00011000
00011000
>
00000000
00000000
01111110
01011010
01111110
01111110
00011000
00011000
POS j 9,9

SPR e
00000000
01111110
01011010
01111110
01111110
00111100
00011000
00011000
>
00000000
00000000
01111110
01011010
01111110
01111110
00011000
00011000

SPR f
00000000
00000000
01111110
01101010
01111110
01100010
01011100
01111110
>
00000000
00000000
01111110
01010110
01111110
01000110
00111010
01111110
POS k 7,6

SPR g
00000000
00000000
01111110
01101010
01111110
01100010
01011100
01111110
>
00000000
00000000
01111110
01010110
01111110
01000110
00111010
01111110
POS l 7,6

SPR h
00000000
00000000
01111110
01101010
01111110
01100010
01011100
01111110
>
00000000
00000000
01111110
01010110
01111110
01000110
00111010
01111110
POS m 6,6

SPR i
00000000
00000000
01111110
01101010
01111110
01100010
01011100
01111110
>
00000000
00000000
01111110
01010110
01111110
01000110
00111010
01111110
POS n 6,6

SPR j
00000000
00000000
00000000
00111000
01111100
01000100
01111100
01111100
POS o 7,6

SPR k
00000000
00000000
00000000
00111000
01111100
01000100
01111100
01111100
POS p 7,6

SPR l
00000000
00000000
00110000
00111000
00011000
01111110
01011010
01000010
>
00000000
00000000
00000000
00110000
00111000
00011000
01111110
01011010
POS q 8,8

SPR m
00000000
00000000
00110000
00111000
00011000
01111110
01011010
01000010
>
00000000
00000000
00000000
00110000
00111000
00011000
01111110
01011010
POS r 8,8

DLG a
you are afraid.....

DLG b
You are afriad........

DLG c
your world is falling apart you will die soon

DLG d
your world is falling apart you will die soon

DLG f
I was you but I never made it out of the cave so many people died Including you....... your falling apart

DLG g
I was you but I never made it out of the cave so many people died Including you....... your falling apart

DLG i
you never did find the secret......you are falling apart.....you are dieing

DLG j
R.......I......P Enerd the face .......

DLG k
nothing

DLG l
these deaths are your fault you didn't help them at all you saw that they where going to die but you just watched ...........I hope you enjoy your life in hell

END 0
thank you for playing........ you Only watched by ShadowNat3

