Made in Bitsy. Press the arrow keys/WASD to move and interact.

# BITSY VERSION 3.5

! ROOM_FORMAT 1

PAL 0
0,64,0
64,128,128
255,255,128

PAL 1
128,0,0
255,128,0
192,192,192

PAL 2
64,0,0
255,128,64
192,192,192

PAL 3
64,0,0
128,0,0
255,255,128

PAL 4
0,0,0
21,21,21
128,128,128

PAL 5
0,0,0
0,64,128
0,128,255

ROOM 0
0,0,0,0,0,0,0,0,0,0,0,0,0,0,0,0
b,0,0,k,0,0,0,b,c,0,0,0,k,0,0,c
d,l,l,l,l,l,l,d,e,l,l,l,l,l,l,e
0,0,0,0,0,0,0,0,0,0,0,0,0,0,0,0
0,0,j,i,i,i,i,i,i,i,i,i,i,j,0,0
f,f,g,0,0,0,0,0,0,0,0,0,0,h,f,f
f,f,g,0,k,0,0,0,0,0,0,k,0,h,f,f
f,f,g,0,0,0,0,b,c,0,0,0,0,h,f,f
f,f,j,l,l,l,l,d,e,l,l,l,l,j,f,f
0,0,0,0,0,0,0,0,0,0,0,0,0,0,0,0
0,0,0,0,0,0,0,0,0,0,0,0,0,0,0,0
0,0,0,0,0,0,0,0,0,0,0,0,0,0,0,0
t,0,0,0,0,0,0,0,0,0,0,0,0,0,0,v
s,0,0,0,0,0,0,0,0,0,0,0,0,0,0,u
0,0,0,0,0,0,0,0,0,0,0,0,0,0,0,0
2f,0,0,0,0,0,0,q,r,0,0,0,0,0,0,2f
WAL l,j,i,h,g,p,o,k,y,10,11,12,19,18,17,16,15,x,1e,1f,1m,1l,1k,1j,1o,1n,1g,1b,1c,1a,w,1r,1q,1p,1s,1t,1u,1v,1w,1x,23,22,21,25,2b,2d,32,3e,3d,3c,38,33,2x,2w,2v,3k,3j,3i,3h,3g,3f,3m,3l,2o,2c,2g,30,2y,2j,2h,b,c,4r
EXT 0,12 5 15,12
EXT 0,13 5 15,13
EXT 7,15 7 7,8
EXT 8,15 7 8,8
PAL 1

ROOM 2
1f,1f,1f,1f,1f,1f,1f,1f,1f,1f,1f,1f,1f,1f,1f,1f
1f,1f,1f,1f,1f,1f,1f,1f,1f,1f,1f,1f,1f,1f,1f,1f
1g,1g,1g,1g,1f,1f,1f,1f,1f,1f,1f,1f,1g,1g,1g,1g
1f,1f,1f,1f,1f,1f,k,b,c,k,1f,1f,1f,1f,1f,1f
1e,1e,1e,1e,1e,1e,1e,d,e,1e,1e,1e,1e,1e,1e,1e
0,0,0,0,0,0,1h,1h,1h,1h,0,0,1i,0,0,0
0,1h,0,1i,0,1h,1h,1h,1h,1h,1h,0,0,0,1h,0
1h,1h,1h,1h,1h,1h,1b,1c,1c,1d,1h,1h,1h,1h,1h,1h
1h,1h,1h,1h,1h,1h,18,19,19,1a,1h,1h,1h,1h,1h,1h
0,0,0,1h,0,1h,1h,1h,1h,1h,1h,1h,0,0,0,0
0,1i,0,0,0,0,1h,1h,1h,1h,0,0,0,1i,0,0
w,w,w,w,w,w,w,w,w,w,w,w,w,w,w,w
x,x,x,x,x,15,16,16,16,17,17,x,x,x,x,x
x,x,x,x,x,16,16,16,16,16,17,x,x,x,x,x
x,x,x,x,x,17,17,17,17,16,17,x,x,x,x,x
x,x,x,x,x,17,17,17,17,16,17,x,x,x,x,x
WAL w,p,o,l,k,j,i,h,g,y,10,11,12,19,18,17,16,15,x,1a,1b,1c,1d,1e,1f,1m,1l,1k,1j,1o,1n,1g,1r,1q,1p,1s,1t,1u,1v,1w,1x,23,22,21,25,2b,2d,32,3e,3d,3c,38,33,2x,2w,2v,3k,3j,3i,3h,3g,3f,3m,3l,2o,2c,2g,30,2y,2j,2h,b,c,4r
EXT 7,4 7 7,11
EXT 8,4 7 8,11
PAL 0

ROOM 3
0,0,0,0,1f,1f,1f,1f,1f,1f,1f,1f,1f,1f,1f,1f
1m,1m,1m,1m,1f,1f,1f,1f,1f,1f,1f,1f,1f,1f,1f,1f
1l,1l,1l,1l,1f,1g,1g,1g,1g,1g,1f,1f,1g,1g,1g,1g
1l,1k,1k,1l,1f,1f,1f,1f,1f,1f,1f,1f,1f,1f,1f,1f
1k,1h,1h,1k,1e,1e,1e,1e,1e,1e,1e,1e,1e,1e,1e,1e
0,1h,1h,0,0,0,0,0,0,0,0,0,0,0,0,0
0,1h,1h,0,1h,1h,1h,1h,1h,1h,1h,1h,0,0,0,0
0,1h,1h,1h,1h,1h,1h,1h,0,0,1h,1h,1h,1h,1h,0
0,1h,1h,1h,1h,0,0,0,0,0,0,1h,1h,1h,1h,1h
0,0,0,0,0,0,0,1o,0,0,0,0,0,0,0,0
0,0,0,0,0,0,0,1n,0,0,0,0,0,0,0,0
w,w,w,w,w,w,w,w,w,w,w,w,w,w,w,w
x,x,x,x,x,x,x,x,x,x,x,x,x,x,x,x
x,x,x,x,x,x,x,x,x,x,x,x,x,x,x,x
x,x,x,x,x,x,x,x,x,x,x,x,x,x,x,x
x,x,x,x,x,x,x,x,x,x,x,x,x,x,x,x
WAL 1m,1l,1k,1j,1o,1n,1e,1g,1f,1b,1c,1a,19,18,17,16,15,x,w,g,h,i,j,k,l,o,p,1r,1q,1p,1s,1t,1u,1v,1w,1x,23,22,21,25,2b,2d,32,3e,3d,3c,38,33,2x,2w,2v,3k,3j,3i,3h,3g,3f,3m,3l,2o,2c,2g,30,2y,2j,2h,b,c,4r
PAL 0

ROOM 4
1e,1e,1e,1e,1e,1e,1e,1e,1e,1e,1e,1e,1e,1f,1f,1f
1l,1i,0,0,0,0,0,0,0,0,0,0,0,1f,1f,1f
1l,0,0,0,0,0,1h,1h,0,0,0,0,0,1f,1f,1f
1l,0,0,0,1h,1h,1h,1h,1h,1h,1h,1h,v,1f,1g,1f
1l,0,0,1h,1h,1h,1h,1h,1h,1h,1h,1h,u,1f,1g,1f
1l,0,0,1h,1h,1h,0,0,0,0,0,0,0,1f,1g,1f
1l,0,0,1h,1h,0,0,0,0,0,0,0,0,1f,1g,1f
1l,0,0,1h,1h,0,0,0,0,0,1i,0,0,1f,1f,1f
1l,0,0,1h,1h,0,0,0,0,0,0,0,0,1f,1f,1f
1l,0,0,1h,1h,0,0,0,0,0,0,0,0,1f,1g,1f
1l,0,0,1h,1h,1h,1i,0,0,0,2f,0,0,1f,1g,1f
1l,0,0,1h,1h,1h,1h,0,0,0,0,0,0,1f,1g,1f
1l,0,0,0,0,1h,1h,1h,1h,0,0,0,0,1f,1g,1f
1l,0,0,0,0,0,0,1h,1h,1h,0,0,0,1f,1f,1f
1l,1i,0,0,0,0,0,0,1h,1h,1h,1h,0,1f,1f,1f
1l,0,0,0,0,0,0,0,0,0,1h,1h,0,1e,1e,1e
WAL 1e,1l,1k,1j,1g,1f,1b,1c,1a,19,18,x,w,1n,1o,g,h,i,j,k,l,o,p,1r,1q,1p,1s,1t,1u,1v,1w,1x,23,22,21,25,2b,2d,32,3e,3d,3c,38,33,2x,2w,2v,3k,3j,3i,3h,3g,3f,3m,3l,2o,2c,2g,30,2y,2j,2h,b,c,4r
EXT 12,3 0 0,0
PAL 0

ROOM 5
0,0,0,0,0,0,0,0,0,0,0,0,0,0,0,0
0,o,0,0,b,0,0,0,0,0,b,c,0,0,p,0
l,o,l,l,d,l,l,l,l,l,d,e,l,l,p,l
0,o,0,0,0,0,0,0,0,0,1z,20,0,0,p,0
0,o,0,0,0,0,0,0,0,0,0,0,0,0,p,0
t,0,0,0,0,0,0,0,0,0,0,0,0,0,0,0
s,0,0,0,1w,1v,1u,4l,0,0,0,0,0,0,0,0
0,0,0,4m,1s,1x,1t,0,0,0,0,0,0,0,0,0
0,0,0,0,1s,1x,1t,4l,0,0,0,0,0,0,0,0
0,0,0,0,1s,1x,1t,0,0,0,0,0,0,0,0,0
0,0,0,4m,1s,1x,1t,4l,0,0,0,0,0,0,0,0
0,0,0,0,1p,1r,1q,0,0,0,0,0,0,0,0,0
0,0,0,0,1y,1y,1y,0,0,0,0,0,0,0,0,v
0,0,0,0,0,0,0,0,0,0,0,0,0,0,0,u
0,2f,0,0,0,0,0,0,0,0,0,0,0,0,0,0
0,0,0,0,0,0,0,0,0,0,0,0,0,0,0,0
WAL 1r,1q,1p,1s,1t,1u,1v,1w,1x,23,22,21,25,2b,2d,32,3e,3d,3c,38,33,2x,2w,2v,3k,3j,3i,3h,3g,3f,3m,3l,h,i,g,2o,2c,2g,30,l,2y,1j,2j,2h,p,o,x,b,c,4r
EXT 15,12 v 0,12
EXT 15,13 v 0,13
PAL 1

ROOM 6
0,0,0,0,0,0,0,0,0,0,b,c,0,0,0,0
0,0,0,0,0,0,22,l,l,l,d,e,l,l,l,23
0,0,0,0,0,0,21,0,0,0,0,0,0,0,0,25
0,0,0,0,0,0,21,0,0,0,0,0,0,0,0,25
0,0,0,0,0,0,21,0,0,0,0,0,0,0,0,25
0,0,0,0,0,0,21,0,0,0,0,0,0,0,0,25
0,0,0,0,0,0,21,0,0,0,0,0,0,0,0,25
0,0,0,0,0,0,21,0,0,0,0,0,0,0,0,25
0,0,0,0,0,0,21,0,0,0,0,0,0,0,0,25
0,0,0,0,0,0,21,0,0,0,0,0,0,0,0,25
0,0,0,0,0,0,21,2f,0,0,0,0,0,0,2f,25
0,0,0,0,0,0,21,0,0,0,0,0,0,0,0,25
0,0,0,0,0,0,21,0,0,0,0,0,0,0,0,25
0,0,0,0,0,0,21,0,0,0,0,0,0,0,0,25
0,0,0,0,0,0,21,0,0,0,0,0,0,0,0,25
0,0,0,0,0,0,21,0,0,0,q,r,0,0,0,25
WAL 23,22,21,25,2b,2d,32,3e,3d,3c,38,33,2x,2w,2v,3k,3j,3i,3h,3g,3f,3m,3l,h,i,g,2o,2c,2g,30,l,2y,1j,2j,2h,p,o,x,b,c,4r
PAL 2

ROOM 7
0,0,0,0,0,0,0,0,0,0,0,0,0,0,0,0
0,0,0,0,0,0,0,0,0,0,0,0,0,0,0,0
0,0,0,0,0,0,0,0,0,0,0,0,0,0,0,0
0,0,0,0,0,0,0,0,0,0,0,0,0,0,0,0
0,0,0,0,0,0,0,0,0,0,0,0,0,0,0,0
0,0,0,0,0,0,0,0,0,0,0,0,0,0,0,0
0,0,0,0,0,0,0,b,c,0,0,0,0,0,0,0
0,0,0,0,0,22,l,d,e,l,23,0,0,0,0,0
0,0,0,0,0,21,2f,0,0,2f,25,0,0,0,0,0
0,0,0,0,0,21,0,0,0,0,25,0,0,0,0,0
0,0,0,0,0,21,0,0,0,0,25,0,0,0,0,0
0,0,0,0,0,21,0,0,0,0,25,0,0,0,0,0
0,0,0,0,0,21,2f,b,c,2f,25,0,0,0,0,0
0,0,0,0,0,29,2b,d,e,2b,2a,0,0,0,0,0
0,0,0,0,0,0,0,0,0,0,0,0,0,0,0,0
0,0,0,0,0,0,0,0,0,0,0,0,0,0,0,0
WAL 2b,25,21,2d,32,3e,3d,3c,38,33,2x,2w,2v,3k,3j,3i,3h,3g,3f,3m,3l,h,i,g,2o,2c,2g,30,l,2y,1j,2j,2h,p,o,x,4r
EXT 7,12 2 7,5
EXT 8,12 2 8,5
EXT 7,7 0 7,15
EXT 8,7 0 8,15
PAL 2

ROOM 8
0,0,0,2e,2d,2f,0,0,0,2e,2d,0,0,0,0,2e
2f,0,0,2e,2d,0,0,0,0,2e,2d,0,0,0,0,2e
0,0,0,0,2d,0,0,0,0,0,2d,2f,0,0,0,0
0,0,0,0,2d,0,0,0,0,0,2d,0,0,0,0,0
2g,2g,2g,2g,2g,2g,2g,2g,2g,2g,2g,2g,2g,2g,2g,2g
2c,b,2c,2c,2c,2c,b,2c,2c,2c,2c,2c,b,2c,2c,2c
2c,d,2c,2c,2c,2c,d,2c,2c,2c,2c,2c,d,2c,2c,2c
t,0,0,0,0,0,0,0,0,0,0,0,0,0,0,v
s,0,0,0,0,0,0,0,0,0,0,0,0,0,0,u
2g,2g,2g,2g,2g,2g,2g,2g,2g,2g,2g,2g,2g,2g,2g,2g
2c,b,2c,2c,2d,2c,b,2c,2c,2c,2d,2c,b,2c,2c,2c
2c,d,2c,2c,2d,2c,d,2c,2c,2c,2d,2c,d,2c,2c,2c
0,0,0,0,2d,0,0,0,0,0,2d,0,0,0,0,0
0,0,0,0,2d,0,0,0,0,0,2d,0,0,0,0,2f
2e,0,0,0,2d,2e,0,0,2f,0,2d,2e,0,0,0,0
2e,2f,0,0,2d,2e,0,0,0,0,2d,2e,0,0,0,0
WAL 2b,25,21,2d,32,3e,3d,3c,38,33,2x,2w,2v,3k,3j,3i,3h,3g,3f,3m,3l,h,i,g,2o,2c,2g,30,l,2y,1j,2j,2h,p,o,x,4r
EXT 0,7 a 15,7
EXT 0,8 a 15,8
PAL 2

ROOM 9
2g,2g,2g,2i,2g,2g,2g,2g,2g,2g,2i,2g,2g,2g,2g,2g
2c,2c,2c,2i,2c,2c,2c,2c,2c,2c,2i,2c,2c,2c,2c,2d
2c,2c,2c,2i,2c,2c,2c,2c,2c,2c,2i,2c,2c,2c,2c,2d
2c,2c,2c,2i,2c,2c,2c,2c,2c,2c,2i,2c,2c,2c,2c,2d
2j,2j,2j,2h,2j,2j,2j,2j,2j,2j,2h,2j,2j,2j,2j,2d
0,0,0,0,0,0,0,0,0,0,0,0,0,0,0,2d
0,0,2p,0,0,0,0,0,0,0,0,0,0,0,0,2d
t,0,0,0,0,0,0,0,0,2p,0,0,2m,0,0,2d
s,0,0,0,2m,0,2f,0,0,0,0,0,0,0,0,2d
0,0,0,0,0,0,0,0,0,0,0,0,2l,0,0,2d
0,0,0,0,0,0,2k,0,0,0,2m,0,0,0,0,2d
0,2k,0,0,2k,2k,2l,0,0,0,0,0,0,0,0,2d
0,0,0,0,2k,2l,2l,0,0,0,0,0,0,0,2p,2d
0,0,0,0,2l,0,2m,2k,0,0,0,0,2f,0,0,2d
0,2l,0,0,0,0,0,0,0,0,0,0,0,0,0,2d
0,0,0,2m,0,0,0,0,0,0,0,q,r,0,0,2d
WAL 2k,32,3e,3d,3c,38,33,2x,2w,2v,3k,3j,3i,3h,3g,3f,3m,3l,h,i,g,2o,2c,2d,2g,30,l,2y,1j,2j,2h,p,o,x,b,c,4r
EXT 0,7 8 15,7
EXT 0,8 8 15,8
PAL 2

ROOM 10
0,0,0,0,0,0,0,0,0,0,0,0,0,0,0,0
0,0,0,0,0,0,0,0,0,0,0,0,0,0,0,0
0,0,0,0,0,0,0,0,0,0,0,0,0,0,0,0
0,0,0,0,k,0,0,0,0,0,0,k,0,0,0,0
2y,2y,2y,2y,2y,2y,2y,5l,5l,2y,2y,2y,2y,2y,2y,2y
l,l,l,l,l,l,l,44,45,l,l,l,l,4s,l,l
0,0,0,0,0,0,0,5k,5k,0,0,0,0,4r,0,1x
t,0,0,0,0,0,0,42,43,0,0,0,0,0,0,1x
s,0,0,0,0,0,0,1z,20,0,0,0,0,0,0,1x
0,0,0,0,0,0,0,0,0,0,0,0,0,0,0,1x
0,0,0,n,n,0,0,0,0,0,0,41,0,0,0,1x
0,0,0,n,n,0,0,0,0,0,4m,0,3n,0,0,1x
0,0,0,0,0,0,0,0,0,0,0,j,0,0,0,1x
t,0,0,0,0,0,0,0,0,0,0,0,0,2m,0,1x
s,0,0,0,0,0,0,2p,0,0,0,0,0,0,0,1x
0,0,0,0,0,0,0,0,0,0,0,0,0,0,0,1x
WAL l,4r,3l,3m,2o
EXT 0,14 12 15,2
PAL 1

ROOM 11
0,0,0,0,0,0,0,0,0,0,0,0,0,0,0,0
0,0,0,0,0,0,0,0,0,0,0,0,0,0,0,0
0,0,0,0,0,0,0,0,0,0,0,0,0,0,0,0
0,0,0,0,k,0,0,0,0,0,0,k,0,0,0,0
2y,2y,2y,2y,2y,2y,2y,5l,5l,2y,2y,2y,2y,2y,2y,2y
l,l,l,l,l,l,l,44,45,l,l,l,l,4s,l,l
0,0,0,0,0,0,0,5k,5k,0,0,0,0,4r,0,0
t,0,0,0,0,0,0,42,43,0,0,0,0,0,0,v
s,0,0,0,0,0,0,1z,20,0,0,0,0,0,0,u
0,0,0,0,0,0,0,0,0,0,0,0,0,0,0,0
3l,0,0,0,0,0,0,0,0,0,0,0,0,0,0,0
3m,0,0,0,0,0,0,n,n,0,0,0,0,0,0,0
3l,0,0,0,0,0,0,n,n,0,0,0,0,0,0,3l
3m,0,0,0,0,0,0,0,0,0,0,0,0,0,0,3m
2o,2o,2o,2o,2o,2o,2o,2o,2o,2o,2o,2o,2o,2o,2o,2o
2o,2o,2o,2o,2o,2o,2o,2o,2o,2o,2o,2o,2o,2o,2o,2o
WAL 45,44,l,4s,4r,3l,3m,2o
EXT 8,6 15 8,6
PAL 1

ROOM 12
0,0,0,0,0,0,0,0,0,0,0,0,0,0,0,0
b,0,0,k,0,0,0,b,c,0,0,0,k,0,0,c
d,l,l,l,l,l,l,d,e,l,l,l,l,l,l,e
0,0,0,0,0,0,0,0,0,0,0,0,0,0,0,0
0,0,j,i,i,i,i,i,i,i,i,i,i,j,0,0
f,f,g,0,0,0,0,0,0,0,0,0,0,h,f,f
f,f,g,0,k,0,0,0,0,0,0,k,0,h,f,f
f,f,g,0,0,0,0,b,c,0,0,0,0,h,f,f
f,f,j,l,l,l,l,d,e,l,l,l,l,j,f,f
0,0,0,0,0,0,0,0,0,0,0,0,0,0,0,0
0,0,0,0,0,0,0,0,0,0,0,0,0,0,0,0
0,0,0,0,0,0,0,0,0,0,0,0,0,0,0,0
t,0,0,0,0,0,0,0,0,0,0,0,0,0,0,v
s,0,0,0,0,0,0,0,0,0,0,0,0,0,0,u
0,0,0,0,0,0,0,0,0,0,0,0,0,0,0,0
2f,0,0,0,0,0,0,q,r,0,0,0,0,0,0,2f
WAL l,j,i,h,g,p,o,k,y,10,11,12,19,18,17,16,15,x,1e,1f,1m,1l,1k,1j,1o,1n,1g,1b,1c,1a,w,1r,1q,1p,1s,1t,1u,1v,1w,1x,23,22,21,25,2b,2d,32,3e,3d,3c,38,33,2x,2w,2v,3k,3j,3i,3h,3g,3f,3m,3l,2o,2c,2g,30,2y,2j,2h,b,c,4r
EXT 0,12 z 15,12
EXT 0,13 z 15,13
EXT 7,2 m 7,14
EXT 8,2 m 8,14
PAL 1

ROOM 13
0,0,0,0,0,0,0,0,0,0,0,0,0,0,0,0
b,0,0,k,0,0,0,b,c,0,0,0,k,0,0,c
d,l,l,l,l,l,l,d,e,l,l,l,l,l,l,e
0,0,0,0,0,0,0,0,0,0,0,0,0,0,0,0
0,0,j,i,i,i,i,i,i,i,i,i,i,j,0,0
f,f,g,0,0,0,0,0,0,0,0,0,0,h,f,f
f,f,g,0,k,0,0,0,0,0,0,k,0,h,f,f
f,f,g,0,0,0,0,b,c,0,0,0,0,h,f,f
f,f,j,l,l,l,l,d,e,l,l,l,l,j,f,f
0,0,0,0,0,0,0,0,0,0,0,0,0,0,0,0
0,0,0,0,0,0,0,0,0,0,0,0,0,0,0,0
0,0,0,0,0,0,0,0,0,0,0,0,0,0,0,0
t,0,0,0,0,0,0,0,0,0,0,0,0,0,0,v
s,0,0,0,0,0,0,0,0,0,0,0,0,0,0,u
0,0,0,0,0,0,0,0,0,0,0,0,0,0,0,0
2f,0,0,0,0,0,0,q,r,0,0,0,0,0,0,2f
WAL l,j,i,h,g,p,o,k,y,10,11,12,19,18,17,16,15,x,1e,1f,1m,1l,1k,1j,1o,1n,1g,1b,1c,1a,w,1r,1q,1p,1s,1t,1u,1v,1w,1x,23,22,21,25,2b,2d,32,3e,3d,3c,38,33,2x,2w,2v,3k,3j,3i,3h,3g,3f,3m,3l,2o,2c,2g,30,2y,2j,2h,b,c,4r
EXT 7,2 m 7,14
EXT 8,2 m 8,14
EXT 14,5 14 14,5
EXT 15,5 14 15,5
PAL 1

ROOM 14
0,0,0,0,0,0,0,0,0,0,0,0,0,0,0,0
b,0,0,k,0,0,0,b,c,0,0,0,k,0,0,c
d,l,l,l,l,l,l,d,e,l,l,l,l,l,l,e
0,0,0,0,0,0,0,0,0,0,0,0,0,0,0,0
0,0,j,i,i,i,i,i,i,i,i,i,i,j,0,0
f,f,g,0,0,0,0,0,0,0,0,0,0,h,f,f
f,f,g,0,k,0,0,0,0,0,0,k,0,h,f,f
f,f,g,0,0,0,0,b,c,0,0,0,0,h,f,f
f,f,j,l,l,l,l,d,e,l,l,l,l,j,f,f
0,0,0,0,0,0,0,0,0,0,0,0,0,0,0,0
0,0,0,0,0,0,0,0,0,0,0,0,0,0,0,0
0,0,0,0,0,0,0,0,0,0,0,0,0,0,0,0
t,0,0,0,0,0,0,0,0,0,0,0,0,0,0,v
s,0,0,0,0,0,0,0,0,0,0,0,0,0,0,u
0,0,0,0,0,0,0,0,0,0,0,0,0,0,0,0
2f,0,0,0,0,0,0,q,r,0,0,0,0,0,0,2f
WAL l,j,i,h,g,p,o,k,y,10,11,12,19,18,17,16,15,x,1e,1f,1m,1l,1k,1j,1o,1n,1g,1b,1c,1a,w,1r,1q,1p,1s,1t,1u,1v,1w,1x,23,22,21,25,2b,2d,32,3e,3d,3c,38,33,2x,2w,2v,3k,3j,3i,3h,3g,3f,3m,3l,2o,2c,2g,30,2y,2j,2h,b,c,4r
EXT 0,2 11 15,8
PAL 1

ROOM 15
0,0,0,0,0,0,0,0,0,0,0,0,0,0,0,0
0,0,0,0,0,0,0,0,0,0,0,0,0,0,0,0
0,0,0,0,0,0,0,0,0,0,0,0,0,0,0,0
0,0,0,0,k,0,0,0,0,0,0,k,0,0,0,0
2y,2y,2y,2y,2y,2y,2y,5l,5l,2y,2y,2y,2y,2y,2y,2y
l,l,l,l,l,l,l,44,45,l,l,l,l,4s,l,l
0,0,0,0,0,0,0,5k,5k,0,0,0,0,4r,0,0
t,0,0,0,0,0,0,42,43,0,0,0,0,0,0,v
s,0,0,0,0,0,0,1z,20,0,0,0,0,0,0,u
0,0,0,0,0,0,0,0,0,0,0,0,0,0,0,0
3l,0,0,0,0,0,0,0,0,0,0,0,0,0,0,0
3m,0,0,0,0,0,0,n,n,0,0,0,0,0,0,0
3l,0,0,0,0,0,0,n,n,0,0,0,0,0,0,3l
3m,0,0,0,0,0,0,0,0,0,0,0,0,0,0,3m
2o,2o,2o,2o,2o,2o,2o,2o,2o,2o,2o,2o,2o,2o,2o,2o
2o,2o,2o,2o,2o,2o,2o,2o,2o,2o,2o,2o,2o,2o,2o,2o
WAL l,4r,3l,3m,2o,45,44,5l
PAL 4

ROOM 16
0,0,0,0,0,0,0,0,0,0,0,0,0,0,0,0
0,0,0,0,0,0,0,0,0,0,0,0,0,0,0,0
0,0,0,0,0,0,0,0,0,0,0,0,0,0,0,0
0,0,0,0,0,0,0,0,0,0,0,0,0,0,0,0
2y,2y,2y,2y,2y,2y,2y,5l,5l,2y,2y,2y,2y,2y,2y,2y
l,l,l,l,l,l,l,44,45,l,l,l,l,4s,l,l
0,0,0,0,0,0,0,5k,5k,0,0,0,0,4r,0,0
t,0,0,0,0,0,0,42,43,0,0,0,0,0,0,v
s,0,0,0,0,0,0,1z,20,0,0,0,0,0,0,u
0,0,0,0,0,0,0,0,0,0,0,0,0,0,0,0
3l,0,0,0,0,0,0,0,0,0,0,0,0,0,0,0
3m,0,0,0,0,0,0,n,n,0,0,0,0,0,0,0
3l,0,0,0,0,0,0,n,n,0,0,0,0,0,0,3l
3m,0,0,0,0,0,0,0,0,0,0,0,0,0,0,3m
2o,2o,2o,2o,2o,2o,2o,2o,2o,2o,2o,2o,2o,2o,2o,2o
2o,2o,2o,2o,2o,2o,2o,2o,2o,2o,2o,2o,2o,2o,2o,2o
WAL l,4r,3l,3m,2o,5l
EXT 8,6 17 8,6
PAL 3

ROOM 17
0,0,0,0,0,0,0,0,0,0,0,0,0,0,0,0
0,0,0,0,0,0,0,0,0,0,0,0,0,0,0,0
0,0,0,0,0,0,0,0,0,0,0,0,0,0,0,0
0,0,0,0,0,0,0,0,0,0,0,0,0,0,0,0
2y,2y,2y,2y,2y,2y,2y,5l,5l,2y,2y,2y,2y,2y,2y,2y
l,l,l,l,l,l,l,44,45,l,l,l,l,4s,l,l
0,0,0,0,0,0,0,5k,5k,0,0,0,0,4r,0,0
t,0,0,0,0,0,0,42,43,0,0,0,0,0,0,v
s,0,0,0,0,0,0,1z,20,0,0,0,0,0,0,u
0,0,0,0,0,0,0,0,0,0,0,0,0,0,0,0
3l,0,0,0,0,0,0,0,0,0,0,0,0,0,0,0
3m,0,0,0,0,0,0,n,n,0,0,0,0,0,0,0
3l,0,0,0,0,0,0,n,n,0,0,0,0,0,0,3l
3m,0,0,0,0,0,0,0,0,0,0,0,0,0,0,3m
2o,2o,2o,2o,2o,2o,2o,2o,2o,2o,2o,2o,2o,2o,2o,2o
2o,2o,2o,2o,2o,2o,2o,2o,2o,2o,2o,2o,2o,2o,2o,2o
WAL l,4r,3l,3m,2o,5l
EXT 0,7 q 15,2
EXT 0,8 q 15,3
PAL 4

ROOM 18
0,0,0,0,0,0,0,0,0,0,0,0,0,0,0,0
0,o,0,0,b,0,0,0,0,0,b,c,0,0,p,0
l,o,l,l,d,l,l,l,l,l,d,e,l,l,p,l
0,o,0,0,0,0,0,0,0,0,1z,20,0,0,p,0
0,o,0,0,0,0,0,0,0,0,0,0,0,0,p,0
t,0,0,0,0,0,0,0,0,0,0,0,0,0,0,0
s,0,0,4m,1w,1v,1u,4l,0,0,0,0,0,0,0,0
0,0,0,4m,1s,1x,1t,4l,0,0,0,0,0,0,0,0
0,0,0,4m,1s,1x,1t,4l,0,0,0,0,0,0,0,0
0,0,0,4m,1s,1x,1t,4l,0,0,0,0,0,0,0,0
0,0,0,4m,1s,1x,1t,4l,0,0,0,0,0,0,0,0
0,0,0,4m,1p,1r,1q,4l,0,0,0,0,0,0,0,0
0,0,0,0,1y,1y,1y,0,0,0,0,0,0,0,0,v
0,0,0,0,0,0,0,0,0,0,0,0,0,0,0,u
0,2f,0,0,0,0,0,0,0,0,0,0,0,0,0,0
0,0,0,0,0,0,0,0,0,0,0,0,0,0,0,0
WAL 1r,1q,1p,1s,1t,1u,1v,1w,1x,23,22,21,25,2b,2d,32,3e,3d,3c,38,33,2x,2w,2v,3k,3j,3i,3h,3g,3f,3m,3l,h,i,g,2o,2c,2g,30,l,2y,1j,2j,2h,p,o,x,b,c,4r
EXT 4,2 9 12,15
PAL 1

ROOM a
0,2o,2o,2o,2o,2o,2o,2o,2o,2o,2o,2o,2o,2o,2o,2o
2d,2g,2g,2g,2g,2g,2g,2g,2g,2g,2g,2g,2g,2g,2g,2g
2d,2c,2c,2c,2c,2c,2c,2c,2c,2c,2c,2c,2c,2c,2c,2c
2d,2c,2c,2c,2c,2c,2c,2c,17,17,2c,2c,2c,2c,2c,2c
2d,2c,2c,2c,2c,2c,2c,2c,17,17,2c,2c,2c,2c,2c,2c
2d,0,0,0,0,0,0,0,1h,1h,0,0,0,0,0,0
2d,0,0,0,0,0,0,0,2p,1h,1h,2n,0,0,0,0
2d,0,0,2n,0,0,0,0,0,0,1h,1h,1h,1h,0,v
2d,0,0,0,0,0,2m,0,0,1h,1h,0,0,0,1h,u
17,1h,1h,1h,0,0,0,0,0,1h,0,0,0,2p,0,0
17,1h,2p,1h,1h,1h,0,1h,1h,0,0,0,0,0,0,0
2d,0,0,0,0,2k,0,0,0,0,0,0,2n,0,0,0
2d,0,0,2l,2n,2n,2l,0,0,0,0,0,0,0,0,0
2d,0,0,0,0,0,0,0,0,0,0,0,0,0,0,0
2d,0,0,0,0,0,0,0,2p,0,0,0,0,0,2m,0
2d,0,2m,0,0,0,0,0,0,0,0,0,0,0,0,0
WAL 32,3e,3d,3c,38,33,2x,2w,2v,3k,3j,3i,3h,3g,3f,3m,3l,h,i,g,2o,2c,2d,2g,30,l,2y,1j,2j,2h,p,o,x,b,c,4r
EXT 1,10 b 14,10
EXT 1,9 b 14,9
PAL 2

ROOM b
0,0,0,0,0,0,2t,0,2t,0,0,2t,0,0,0,2d
0,2t,1i,0,0,0,2t,0,2t,0,0,2t,2r,0,0,2d
0,2t,0,0,0,0,2t,0,2t,0,0,2t,2q,0,0,2d
0,2t,0,2r,0,0,2t,0,2s,0,1i,2t,0,0,0,2d
0,2t,0,2q,0,0,2t,0,0,0,0,2s,0,0,1i,2d
0,2s,0,0,0,0,2s,0,0,0,0,0,0,0,0,2d
0,0,0,0,0,0,0,0,0,0,0,0,0,0,0,2d
1h,0,0,1h,1h,0,0,0,0,0,0,0,0,0,0,2d
0,0,0,0,1h,1h,0,1h,1h,1h,1h,0,0,0,0,2d
0,0,0,0,0,0,0,0,0,1h,1h,1h,1h,1h,1h,17
0,0,0,0,0,0,0,0,0,0,1h,0,1h,1h,1h,17
0,0,0,2r,0,0,0,2t,0,0,0,0,0,0,0,2d
0,2t,0,2q,0,0,0,2t,0,0,0,0,2t,0,0,2d
0,2t,0,0,0,1i,0,2t,0,0,2r,0,2t,0,1i,2d
0,2s,0,0,0,0,0,2t,0,0,2q,0,2t,0,0,2d
0,0,0,0,1i,0,0,2s,0,0,0,0,2s,0,0,2d
WAL 32,3e,3d,3c,38,33,2x,2w,2v,3k,3j,3i,3h,3g,3f,3m,3l,h,i,g,2o,2c,2d,2g,30,l,2y,1j,2j,2h,p,o,x,b,c,4r
END 0 0,7
END 0 0,8
END 0 0,9
END 0 0,10
END 0 0,6
END 0 0,11
PAL 5

ROOM c
0,0,0,0,0,0,0,0,0,0,b,c,0,0,0,0
0,0,0,0,0,0,22,l,l,l,d,e,l,l,l,23
0,0,0,0,0,0,21,0,0,0,0,0,0,0,0,25
0,0,0,0,0,0,21,0,0,0,0,0,0,0,0,25
0,0,0,0,0,0,21,0,0,0,0,0,0,0,0,25
0,0,0,0,0,0,21,0,0,0,0,0,0,0,0,25
0,0,0,0,0,0,21,0,0,0,0,0,0,0,0,25
0,0,0,0,0,0,21,0,0,0,0,0,0,0,0,25
0,0,0,0,0,0,t,0,0,0,0,0,0,0,0,25
0,0,0,0,0,0,s,0,0,0,0,0,0,0,2f,25
0,0,0,0,0,0,21,0,0,0,0,0,0,0,0,25
0,0,0,0,0,0,21,0,0,0,0,0,0,0,0,25
0,0,0,0,0,0,21,0,0,0,0,0,0,0,0,25
0,0,0,0,0,0,21,0,0,0,0,0,0,0,0,25
0,0,0,0,0,0,21,0,0,0,0,0,0,0,0,25
0,0,0,0,0,0,21,0,0,0,q,r,0,0,0,25
WAL 23,22,21,25,2b,2d,32,3e,3d,3c,38,33,2x,2w,2v,3k,3j,3i,3h,3g,3f,3m,3l,h,i,g,2o,2c,2g,30,l,2y,1j,2j,2h,p,o,x,b,c,4r
PAL 2

ROOM d
32,32,32,32,32,32,32,32,32,32,32,32,32,32,32,32
32,32,32,32,32,35,36,36,37,32,32,32,32,32,32,32
32,32,32,32,32,34,0,0,38,32,32,32,32,32,32,32
32,32,32,32,32,33,33,33,33,32,32,32,32,32,32,32
32,32,32,32,32,32,32,32,32,32,32,32,32,32,32,32
1j,1j,1j,1j,1j,1j,1j,1j,1j,1j,1j,1j,1j,1j,1j,1j
30,0,2z,2z,0,0,0,0,0,0,0,0,0,0,0,0
31,0,0,0,2v,0,0,2u,2u,2u,0,2u,2u,2u,0,0
31,0,0,0,2w,0,0,2u,2u,2u,0,2u,2u,2u,0,v
31,0,0,0,2w,0,0,2u,2u,2u,0,2u,2u,2u,0,u
31,0,0,0,2w,0,0,2u,2u,2u,0,2u,2u,2u,0,0
31,0,0,0,2w,0,0,2u,2u,2u,0,2u,2u,2u,0,0
31,0,0,0,2w,0,0,2u,2u,2u,0,2u,2u,2u,0,0
31,0,2z,2z,2x,0,0,2u,2u,2u,0,2u,2u,2u,0,0
30,f,0,0,0,0,0,0,0,0,0,0,0,0,0,0
2y,2y,2y,2y,2y,2y,2y,2y,2y,2y,2y,2y,2y,2y,2y,2y
WAL 33,32,3e,3d,3c,38,2x,2v,3k,3j,3i,3h,3g,3f,3m,3l,h,i,g,2o,2c,2d,2g,30,l,2y,2w,1j,2z,2j,2h,p,o,x,b,c,4r
PAL 1

ROOM e
0,0,0,0,0,0,0,0,0,0,0,0,0,0,0,0
0,0,0,0,0,0,0,0,0,0,0,0,0,0,0,0
0,0,0,n,n,k,n,n,0,0,3c,3d,3e,3e,3e,3e
0,0,0,0,0,0,0,0,0,2y,0,0,0,0,0,0
0,0,0,0,0,0,0,0,0,2y,39,3a,3a,3a,3a,3a
l,l,l,l,l,l,l,l,l,l,3b,3b,3b,3b,3b,3b
0,0,0,0,0,0,0,0,0,0,0,0,0,0,0,0
0,0,0,0,0,0,0,0,0,0,0,0,0,0,0,0
0,0,0,0,0,0,0,0,0,0,0,0,0,0,0,0
0,0,0,3k,3j,3i,0,0,0,0,0,0,0,0,0,0
0,0,0,3f,3g,3h,0,0,0,0,0,0,0,0,0,0
0,0,0,0,0,0,0,0,0,0,0,0,0,0,0,0
0,0,0,0,0,0,0,0,0,0,0,0,0,0,0,0
0,0,0,0,0,0,0,0,0,0,0,0,0,0,0,0
3l,3l,3l,3l,3l,3l,3l,3l,3l,0,0,0,0,3l,3l,3l
3m,3m,3m,3m,3m,3m,3m,3m,3m,0,q,r,0,3m,3m,3m
WAL 3e,3d,3c,33,32,2x,2w,2v,3k,3j,3i,3h,3g,3f,3m,3l,h,i,g,2o,2c,2d,2g,30,l,2y,1j,2j,2h,p,o,x,b,c,4r
PAL 1

ROOM f
3l,3l,3l,3l,3l,3l,3o,3p,3p,3q,3l,3l,3l,3l,3l,3l
3m,3m,3m,3m,3m,3m,3s,3t,3t,3r,3m,3m,3m,3m,3m,3m
3l,0,0,0,0,0,0,0,0,0,0,0,0,0,0,3l
3m,0,0,0,0,0,0,2f,3n,0,0,0,0,0,0,3m
3l,0,0,0,0,0,0,0,0,0,0,0,0,0,0,3l
3m,0,0,0,0,0,0,n,n,0,0,0,0,2f,0,3m
3l,0,0,0,0,0,0,0,0,0,0,0,0,0,0,3l
3m,0,0,0,0,n,0,n,n,0,n,0,0,0,0,3m
3l,0,0,0,0,n,0,n,n,0,n,0,0,0,0,3l
3m,0,0,0,0,0,0,0,0,0,0,0,0,0,0,3m
3l,0,0,0,0,0,0,n,n,0,0,0,0,2f,0,3l
30,0,0,0,0,0,0,0,0,0,0,0,0,0,0,3m
t,0,0,0,0,0,0,0,0,0,0,0,0,0,0,3l
s,0,0,0,0,0,0,0,0,0,0,0,0,0,0,3m
30,3l,3l,3l,3l,3l,3l,3l,3l,3l,3l,3l,3l,3l,3l,3l
3m,3m,3m,3m,3m,3m,3m,3m,3m,3m,3m,3m,3m,3m,3m,3m
WAL h,i,g,3g,3f,3e,3d,3c,33,2o,2c,2d,2g,3l,3m,30,l,2y,1j,2j,2h,p,o,x,b,c,4r
PAL 1

ROOM g
0,0,0,0,2d,2g,2g,2g,2g,2g,2g,2d,0,0,0,0
0,0,0,0,2d,2c,2d,0,0,2d,2c,2d,0,0,0,0
0,0,0,0,2d,2c,2d,0,0,2d,2c,2d,0,0,0,0
0,0,0,0,2d,2c,0,1h,1h,0,2c,2d,0,0,0,0
0,0,0,0,2d,2c,0,0,0,0,2c,2d,0,0,0,0
0,0,0,0,2d,2c,0,0,0,0,2c,2d,0,0,0,0
0,0,0,0,2d,2c,0,0,0,0,2c,2d,0,0,0,0
0,0,0,0,2d,2c,0,0,0,0,2c,2d,0,0,0,0
0,0,0,0,2d,2c,0,0,0,0,2c,2d,0,0,0,0
0,0,0,0,2d,2c,0,0,0,0,2c,2d,0,0,0,0
0,0,0,0,2d,2c,0,0,0,0,2c,2d,0,0,0,0
0,0,0,0,2d,2c,0,0,0,0,2c,2d,0,0,0,0
0,0,0,0,2d,2c,0,0,0,0,2c,2d,0,0,0,0
0,0,0,0,2d,2c,0,0,0,0,2c,2d,0,0,0,0
0,0,0,0,2d,2c,0,0,0,0,2c,2d,0,0,0,0
0,0,0,0,2d,2c,0,0,0,0,2c,2d,0,0,0,0
WAL h,i,g,3g,3f,3e,3d,3c,33,2o,2c,2d,2g,3l,3m,30,l,2y,1j,2j,2h,p,o,x,b,c,4r
PAL 2

ROOM h
0,0,2o,2o,2o,2o,2o,2o,2o,2o,0,0,0,0,0,0
0,0,h,f,f,f,f,f,f,g,0,0,0,0,0,0
0,0,h,f,f,f,f,f,f,g,0,0,0,0,0,0
0,0,h,f,f,g,h,f,f,g,0,0,0,0,0,0
0,0,h,f,f,g,h,f,f,g,0,0,0,0,0,0
0,0,h,f,f,g,h,f,f,g,0,0,0,0,0,0
0,0,h,f,f,g,h,f,f,g,0,0,0,0,0,0
0,0,h,f,f,g,h,f,f,g,0,0,0,0,0,0
0,0,h,f,f,g,h,f,f,g,0,0,0,0,0,0
0,0,h,f,f,g,h,f,f,g,0,0,0,0,0,0
0,0,h,f,f,g,h,f,f,g,0,0,0,0,0,0
0,0,h,f,f,g,h,f,f,g,0,0,0,0,0,0
0,0,h,f,f,g,h,f,f,g,0,0,0,0,0,0
0,0,h,f,f,g,h,f,f,g,0,0,0,0,0,0
0,0,h,f,f,g,h,f,f,g,0,0,0,0,0,0
0,0,h,f,f,g,h,f,f,g,0,0,0,0,0,0
WAL h,i,g,3g,3f,3e,3d,3c,33,2o,2c,2d,2g,3l,3m,30,l,2y,1j,2j,2h,p,o,x,b,c,4r
PAL 2

ROOM i
0,0,2o,2o,2o,2o,2o,2o,2o,2o,h,f,f,g,0,0
0,0,h,f,f,f,f,f,f,g,h,f,f,g,0,0
0,0,h,f,f,f,f,f,f,g,h,f,f,g,0,0
0,0,h,f,f,g,h,f,f,g,h,f,f,g,0,0
0,0,h,f,f,g,h,f,f,g,h,f,f,g,0,0
0,0,h,f,f,g,h,f,f,g,h,f,f,g,0,0
0,0,h,f,f,g,h,f,f,g,h,f,f,g,0,0
0,0,h,f,f,g,h,f,f,g,h,f,f,g,0,0
0,0,h,f,f,g,h,f,f,g,h,f,f,g,0,0
0,0,h,f,f,g,h,f,f,g,h,f,f,g,0,0
0,0,h,f,f,g,h,f,f,g,h,f,f,g,0,0
0,0,h,f,f,g,h,f,f,g,h,f,f,g,0,0
0,0,h,f,f,g,h,f,f,g,h,f,f,g,0,0
0,0,h,f,f,g,h,f,f,g,h,f,f,g,0,0
0,0,h,f,f,g,h,f,f,g,h,f,f,g,0,0
0,0,h,f,f,g,h,f,f,g,h,f,f,g,0,0
WAL h,i,g,3g,3f,3e,3d,3c,33,2o,2c,2d,2g,3l,3m,30,l,2y,1j,2j,2h,p,o,x,b,c,4r
PAL 3

ROOM j
x,18,1a,x,x,x,x,x,x,x,x,x,x,x,x,x
x,0,0,0,0,0,0,0,0,0,x,x,x,x,x,x
x,0,0,0,0,0,2p,0,0,2d,0,0,x,x,x,x
x,0,0,0,0,0,0,0,0,2d,0,0,0,0,0,x
x,0,0,0,0,0,0,0,0,0,0,0,2m,0,0,1b
x,0,2p,0,0,0,0,0,0,0,0,0,0,0,0,18
x,0,0,0,0,0,0,0,0,0,3n,0,0,2p,0,x
x,x,0,0,0,0,0,0,0,0,2m,0,0,0,x,x
x,x,0,2m,0,2d,0,0,0,0,0,0,0,x,x,x
x,x,0,0,0,2d,0,0,0,0,0,0,x,x,x,x
x,x,x,0,0,0,0,0,0,0,0,2d,0,x,x,x
x,x,0,2p,0,0,0,0,0,2m,0,2d,0,x,x,x
x,x,x,0,0,0,0,0,0,0,0,0,2p,x,x,x
x,x,x,0,2m,0,0,0,0,0,0,x,x,x,x,x
x,x,x,x,x,x,0,0,0,x,x,x,x,x,x,x
x,x,x,x,x,x,1b,1d,x,x,x,x,x,x,x,x
WAL 2o,2c,2d,2g,3l,3m,30,l,2y,1j,2j,2h,p,o,x,b,c,4r
PAL 3

ROOM k
0,0,0,0,0,0,0,0,0,0,0,0,0,0,0,0
0,0,0,0,0,0,0,0,0,0,0,0,0,0,0,0
0,x,x,0,0,0,0,0,0,0,0,0,0,0,0,0
0,0,0,0,0,0,0,x,x,x,0,0,0,0,0,0
0,x,x,x,x,0,0,0,0,0,0,0,0,0,0,0
x,x,2p,x,x,x,x,x,0,0,x,0,0,0,0,0
0,0,0,0,0,0,x,x,x,x,0,x,0,x,0,0
0,2m,0,0,0,2m,0,0,0,x,x,x,0,x,0,0
1h,0,0,0,0,0,3n,3n,3n,3n,0,x,x,x,0,0
1h,0,0,0,0,0,i,i,i,i,0,0,2p,x,x,0
2p,0,0,0,0,0,3n,3n,3n,3n,0,0,0,x,x,0
0,0,0,0,2p,0,0,0,0,0,x,x,x,x,x,0
x,x,x,x,x,x,x,x,x,x,x,0,0,0,0,0
0,x,0,0,0,0,0,0,0,0,0,0,x,x,0,0
0,0,0,0,0,0,0,0,0,0,0,x,0,0,0,0
0,0,0,0,0,0,0,0,0,0,x,0,0,0,0,0
WAL x,l,b,c,4r,3l,3m,2o
PAL 3

ROOM l
0,0,0,x,0,0,0,0,0,0,x,0,0,0,0,0
0,0,x,x,0,0,0,0,0,0,x,0,0,0,0,0
0,0,x,0,0,0,0,0,1f,1f,1f,1f,x,0,0,0
0,x,x,0,0,0,0,0,1e,1e,1e,1e,x,0,0,0
0,0,x,0,0,0,0,0,0,0,0,x,x,0,0,0
x,0,x,1f,1f,1f,0,0,0,0,0,x,x,0,0,0
x,x,1e,1e,1e,1e,0,0,1f,1f,1f,x,x,x,0,0
0,x,0,0,0,0,0,0,1e,1e,1e,1e,x,0,0,0
x,x,x,0,0,0,0,0,0,0,0,x,0,0,0,0
0,x,x,0,0,0,0,0,0,0,0,x,x,x,0,0
0,0,x,1f,1f,1f,0,0,1f,1f,1f,x,x,0,0,0
0,0,x,1e,1e,1e,0,0,1e,1e,1e,x,0,0,0,0
0,0,0,x,0,0,0,0,0,0,0,x,x,0,0,0
0,0,0,x,x,x,0,0,x,x,0,x,0,0,0,0
0,0,0,x,x,x,0,x,0,x,x,0,0,0,0,0
0,0,0,0,x,x,x,x,x,x,x,0,0,0,0,0
WAL x,l,b,c,4r,3l,3m,2o
PAL 3

ROOM m
0,0,0,0,0,0,59,5a,5a,5c,0,0,0,0,0,0
0,0,0,0,0,0,57,58,5e,56,0,0,0,0,0,0
0,0,0,k,0,0,57,5d,0,56,0,0,k,0,0,0
0,0,0,0,0,0,57,5f,5g,56,0,0,0,0,0,0
2y,2y,2y,2y,2y,2y,53,54,54,55,2y,2y,2y,2y,2y,2y
l,4s,l,l,l,l,l,l,l,l,l,l,l,l,l,l
0,4r,0,0,0,0,0,0,0,0,0,0,52,52,52,4z
0,0,0,0,0,0,0,41,0,0,0,0,4u,4v,4y,4z
0,0,0,0,0,0,40,40,40,40,0,0,4t,4w,4x,4z
0,0,0,0,0,4m,3x,3y,3y,3z,0,0,0,0,0,0
0,0,0,0,0,0,0,0,0,0,0,0,0,0,0,0
0,0,0,0,0,0,0,0,0,0,0,0,0,0,0,v
1b,1c,1c,1d,0,0,0,0,0,0,0,0,0,0,0,u
5i,5j,5j,5h,0,0,0,0,0,0,0,0,0,0,0,0
18,19,19,1a,0,0,0,0,0,0,3l,3l,3l,3l,3l,3l
0,0,0,0,0,0,0,q,r,0,3m,3m,3m,3m,3m,3m
WAL l,b,c,4r,3l,3m,2o
EXT 15,11 10 0,7
EXT 15,12 10 0,8
PAL 1

ROOM q
1e,1e,1e,1e,1e,1e,1e,1e,1e,1e,1e,1e,1e,1f,1f,1f
1l,1i,0,0,0,0,0,0,0,0,0,j,i,i,i,0
1l,0,0,0,0,0,1h,1h,0,0,0,h,0,0,0,v
1l,0,0,0,1h,1h,1h,1h,1h,1h,1h,h,0,0,0,u
1l,0,0,1h,1h,1h,1h,1h,1h,1h,1h,h,0,5m,5n,0
1l,0,0,1h,1h,1h,0,0,0,0,0,j,i,i,i,i
1l,0,0,1h,1h,0,0,0,0,0,0,0,0,1f,1g,1f
1l,0,0,1h,1h,0,0,0,0,0,1i,0,0,1f,1f,1f
1l,0,0,1h,1h,0,0,0,0,0,0,0,0,1f,1f,1f
1l,0,0,1h,1h,0,0,0,0,0,0,0,0,1f,1g,1f
1l,0,0,1h,1h,1h,1i,0,0,0,2f,0,0,1f,1g,1f
1l,0,0,1h,1h,1h,1h,0,0,0,0,0,0,1f,1g,1f
1l,0,0,0,0,1h,1h,1h,1h,0,0,0,0,1f,1g,1f
1l,0,0,0,0,0,0,1h,1h,1h,0,0,0,1f,1f,1f
1l,1i,0,0,0,0,0,0,1h,1h,1h,1h,0,1f,1f,1f
1l,0,0,0,0,0,0,0,0,0,1h,1h,0,1e,1e,1e
WAL 1e,1l,1k,1j,1g,1f,1b,1c,1a,19,18,x,w,1n,1o,g,i,j,k,l,o,p,1r,1q,1p,1s,1t,1u,1v,1w,1x,23,22,21,25,2b,2d,32,3e,3d,3c,38,33,2x,2w,2v,3k,3j,3i,3h,3g,3f,3m,3l,2o,2c,2g,30,2y,2j,2h,b,c,4r
EXT 11,4 4 9,4
EXT 11,3 4 9,3
EXT 11,2 4 9,2
PAL 0

ROOM r
0,0,0,0,o,0,0,0,0,0,p,0,0,0,0,0
0,0,0,0,o,0,0,0,0,0,p,0,0,0,0,0
0,0,0,0,o,0,0,0,0,0,p,0,0,0,0,0
0,o,0,n,0,0,0,n,n,0,0,0,n,0,p,0
0,o,0,0,n,0,0,0,0,0,0,n,0,0,p,0
0,o,0,0,0,n,n,n,n,n,n,0,0,0,p,0
0,0,0,0,0,n,0,0,0,0,n,0,0,0,0,0
0,0,0,n,0,n,0,n,n,0,n,0,n,0,0,0
0,0,0,n,0,n,0,n,n,0,n,0,n,0,0,0
0,0,0,0,0,n,0,0,0,0,n,0,0,0,0,0
0,o,0,0,0,n,n,n,n,n,n,0,0,0,p,0
0,o,0,0,n,0,0,0,0,0,0,n,0,0,p,0
0,o,0,n,0,0,0,n,n,0,0,0,n,0,p,0
0,0,0,0,0,0,0,0,0,0,0,0,0,0,0,0
0,0,0,0,0,0,0,0,0,0,0,0,0,0,0,0
0,0,0,0,0,0,0,n,n,0,0,0,0,0,0,0
WAL p,o,b,c,l,4r,3l,3m,2o
PAL 1

ROOM s
0,0,0,0,0,0,48,4a,4b,49,0,2t,0,0,0,0
0,2t,1i,0,0,0,48,4a,4b,49,0,2s,0,0,2t,0
0,2t,0,0,0,0,48,4a,4b,49,0,0,0,1i,2t,0
0,2t,0,0,2t,0,48,4a,4b,49,0,0,0,0,2t,0
0,2t,0,0,2t,0,48,4a,4b,49,0,0,1h,0,2t,0
0,2s,0,0,2t,0,48,4a,4b,49,0,0,0,0,2s,0
0,0,0,0,2t,0,48,4a,4b,49,0,2t,0,0,0,0
1h,0,0,1i,2t,0,48,4a,4b,49,0,2t,0,0,1h,0
0,0,0,0,2s,0,48,4a,4b,49,0,2t,0,0,0,0
0,0,0,0,0,0,48,4a,4b,49,0,2t,0,0,0,2t
0,0,0,0,1h,0,48,4a,4b,49,0,2t,2t,0,0,2t
1h,0,2t,0,0,0,48,4a,4b,49,0,2s,2t,1h,0,2t
0,0,2t,0,0,0,48,4a,4b,49,0,0,2t,0,0,2t
0,0,2t,0,0,0,48,4a,4b,49,0,0,2t,0,0,2s
0,0,2s,1i,0,0,48,4a,4b,49,0,0,2s,0,1i,0
0,0,0,0,0,0,48,4a,4b,49,0,0,0,0,0,0
WAL 2s,2t,b,c,l,4r,3l,3m,2o
EXT 6,0 u 6,15
EXT 7,0 u 7,15
EXT 8,0 u 8,15
EXT 9,0 u 9,15
PAL 5

ROOM t
0,0,0,0,0,0,48,4a,4b,49,0,0,0,0,0,0
0,0,0,0,0,0,48,4a,4b,49,0,0,0,0,0,0
0,0,0,0,0,0,0,0,0,0,0,0,0,0,0,0
0,0,0,0,0,0,0,0,0,0,0,0,0,0,0,0
0,0,0,0,0,0,0,0,0,0,0,0,0,0,0,0
0,0,0,0,0,0,0,0,0,0,0,0,0,0,0,0
0,0,0,0,0,0,0,0,0,0,0,0,0,0,0,0
0,0,0,0,0,0,0,0,0,0,0,0,0,0,0,0
0,0,0,0,0,0,0,0,0,0,0,0,0,0,0,0
0,0,0,0,0,0,0,0,0,0,0,0,0,0,0,0
0,0,0,0,0,0,0,0,0,0,0,0,0,0,0,0
0,0,0,0,0,0,0,0,0,0,0,0,0,0,0,0
0,0,0,4h,4i,4k,0,0,0,0,0,0,0,0,0,0
0,0,0,0,0,0,0,0,0,0,0,0,0,0,0,0
0,0,0,0,0,0,0,0,0,0,0,0,0,0,0,0
0,0,0,0,0,0,0,0,0,0,0,0,0,0,0,0
WAL b,c,l,4r,3l,3m,2o
EXT 6,0 s 6,15
EXT 7,0 s 7,15
EXT 8,0 s 8,15
EXT 9,0 s 9,15
PAL 5

ROOM u
w,w,w,w,w,w,w,w,w,w,w,w,w,w,w,w
x,x,x,x,x,17,17,17,17,17,17,x,x,x,x,x
x,x,x,x,x,17,17,17,17,17,17,x,x,x,x,x
x,x,x,x,x,17,17,1h,1h,17,17,x,x,x,x,x
x,x,x,x,x,1h,1h,1h,1h,1h,1h,x,x,x,x,0
0,0,0,0,0,1h,1h,1h,1h,1h,1h,0,0,0,0,0
0,0,0,0,0,1h,1h,1h,1h,1h,1h,0,0,0,0,1i
0,1i,0,0,0,0,1h,1h,1h,1h,0,0,0,0,0,0
0,0,0,0,0,0,1h,1h,1h,1h,0,0,1i,0,0,0
0,1b,1d,0,0,0,1h,1h,1h,1h,0,0,0,0,0,0
0,18,1a,0,0,0,1h,1h,1h,1h,0,0,0,0,0,0
0,0,0,0,0,0,1h,1h,1h,1h,0,1i,0,0,2t,0
0,0,0,0,0,0,1h,1h,1h,1h,0,0,0,0,2t,0
0,0,0,1i,0,0,1h,1h,1h,1h,0,0,0,0,2t,0
0,1i,0,0,0,0,1h,1h,1h,1h,0,0,1i,0,2t,0
0,0,0,0,0,0,1h,1h,1h,1h,0,0,0,0,2s,0
WAL b,c,l,4r,3l,3m,2o,15,17,x
EXT 7,3 2 7,10
EXT 8,3 2 8,10
PAL 5

ROOM v
0,0,0,0,0,0,0,0,0,0,0,0,0,0,0,0
b,0,0,k,0,0,0,b,c,0,0,0,k,0,0,c
d,l,l,l,l,l,l,d,e,l,l,l,l,l,l,e
0,0,0,0,0,0,0,0,0,0,0,0,0,0,0,0
0,0,j,i,i,i,i,i,i,i,i,i,i,j,0,0
f,f,g,0,0,0,0,0,0,0,0,0,0,h,f,f
f,f,g,0,k,0,0,0,0,0,0,k,0,h,f,f
f,f,g,0,0,0,0,b,c,0,0,0,0,h,f,f
f,f,j,l,l,l,l,d,e,l,l,l,l,j,f,f
0,0,0,0,0,0,0,0,0,0,0,0,0,0,0,0
0,0,0,0,0,0,0,0,0,0,0,0,0,0,0,0
0,0,0,0,0,0,0,0,0,0,0,0,0,0,0,0
t,0,0,0,0,0,0,0,0,0,0,0,0,0,0,v
s,0,0,0,0,0,0,0,0,0,0,0,0,0,0,u
0,0,0,0,0,0,0,0,0,0,0,0,0,0,0,0
2f,0,0,0,0,0,0,q,r,0,0,0,0,0,0,2f
WAL l,j,i,h,g,p,o,k,y,10,11,12,19,18,17,16,15,x,1e,1f,1m,1l,1k,1j,1o,1n,1g,1b,1c,1a,w,1r,1q,1p,1s,1t,1u,1v,1w,1x,23,22,21,25,2b,2d,32,3e,3d,3c,38,33,2x,2w,2v,3k,3j,3i,3h,3g,3f,3m,3l,2o,2c,2g,30,2y,2j,2h,b,c,4r
EXT 7,15 7 7,8
EXT 8,15 7 8,8
EXT 7,8 w 7,15
EXT 8,8 w 8,15
EXT 0,12 z 15,12
EXT 0,13 z 15,13
PAL 1

ROOM w
0,0,0,0,o,0,0,0,0,0,p,0,0,0,0,0
0,0,0,0,o,0,0,0,0,0,p,0,0,0,0,0
0,0,0,0,o,0,0,0,0,0,p,0,0,0,0,0
0,o,0,n,0,0,0,n,n,0,0,0,n,0,p,0
0,o,0,0,n,0,0,0,0,0,0,n,0,0,p,0
0,o,0,0,0,n,n,n,n,n,n,0,0,0,p,0
0,0,0,0,0,n,0,0,0,0,n,0,0,0,0,0
0,0,0,n,0,n,0,n,n,0,n,0,n,0,0,0
0,0,0,n,0,n,0,n,n,0,n,0,n,0,0,0
0,0,0,0,0,n,0,0,0,0,n,0,0,0,0,0
0,o,0,0,0,n,n,n,n,n,n,0,0,0,p,0
0,o,0,0,n,0,0,0,0,0,0,n,0,0,p,0
0,o,0,n,0,0,0,n,n,0,0,0,n,0,p,0
0,0,0,0,0,0,0,0,0,0,0,0,0,0,0,0
0,0,0,0,0,0,0,0,0,0,0,0,0,0,0,0
0,0,0,0,0,0,0,n,n,0,0,0,0,0,0,0
WAL p,o,b,c,l,4r,3l,3m,2o
EXT 7,13 x 7,13
EXT 8,13 x 8,13
EXT 6,14 x 6,14
EXT 6,15 x 6,15
EXT 9,14 x 9,14
EXT 9,15 x 9,15
PAL 1

ROOM x
0,0,0,0,o,0,0,0,0,0,0,p,0,0,0,0
0,0,0,0,o,0,0,0,0,0,0,p,0,0,0,0
0,0,0,0,o,0,0,0,0,0,0,p,0,0,0,0
0,o,0,0,0,0,0,0,0,0,0,35,36,37,p,0
0,o,0,0,0,0,0,0,0,0,0,34,0,38,p,0
0,o,0,0,0,0,0,0,0,0,0,0,f,0,p,0
0,0,0,0,0,0,0,0,0,0,0,0,f,0,0,0
0,0,0,0,0,0,0,4q,4p,0,0,1h,f,1h,0,0
0,0,0,0,0,0,0,4n,4o,0,0,1h,1h,1h,0,0
0,0,0,0,0,0,0,0,0,0,0,0,0,0,0,0
0,o,0,0,0,0,0,0,0,0,0,0,0,0,p,0
0,o,0,0,0,0,0,0,0,0,0,0,0,0,p,0
0,o,0,0,0,0,0,0,0,0,0,0,0,0,p,0
0,0,0,0,0,0,0,0,0,0,0,0,0,0,0,0
0,0,0,0,0,0,0,0,0,0,0,0,0,0,0,0
0,0,0,0,0,0,0,0,0,0,0,0,0,0,0,0
WAL b,c,l,4r,3l,3m,2o
EXT 12,4 y 12,4
PAL 5

ROOM y
0,0,0,0,o,0,0,0,0,0,p,0,0,0,0,0
0,0,0,0,o,0,0,0,0,0,p,0,0,0,0,0
0,0,0,0,o,0,0,0,0,0,p,0,0,0,0,0
0,o,0,n,0,0,0,n,n,0,0,0,n,0,p,0
0,o,0,0,n,0,0,0,0,0,0,n,0,0,p,0
0,o,0,0,0,n,n,n,n,n,n,0,0,0,p,0
0,0,0,0,0,n,0,0,0,0,n,0,0,0,0,0
0,0,0,n,0,n,0,n,n,0,n,0,n,0,0,0
0,0,0,n,0,n,0,n,n,0,n,0,n,0,0,0
0,0,0,0,0,n,0,0,0,0,n,0,0,0,0,0
0,o,0,0,0,n,n,n,n,n,n,0,0,0,p,0
0,o,0,0,n,0,0,0,0,0,0,n,0,0,p,0
0,o,0,n,0,0,0,n,n,0,0,0,n,0,p,0
0,0,0,0,0,0,0,0,0,0,0,0,0,0,0,0
0,0,0,0,0,0,0,0,0,0,0,0,0,0,0,0
0,0,0,0,0,0,0,n,n,0,0,0,0,0,0,0
WAL p,o,b,c,l,4r,3l,3m,2o
EXT 7,15 v 7,9
EXT 8,15 v 8,9
PAL 1

ROOM z
0,0,0,0,0,0,0,0,0,0,0,0,0,0,0,0
0,o,0,0,b,0,0,0,0,0,b,c,0,0,p,0
l,o,l,l,d,l,l,l,l,l,d,e,l,l,p,l
0,o,0,0,0,0,0,0,0,0,1z,20,0,0,p,0
0,o,0,0,0,0,0,0,0,0,0,0,0,0,p,0
t,0,0,0,0,0,0,0,0,0,0,0,0,0,0,0
s,0,0,4m,1w,1v,1u,4l,0,0,0,0,0,0,0,0
0,0,0,4m,1s,1x,1t,4l,0,0,0,0,0,0,0,0
0,0,0,4m,1s,1x,1t,4l,0,0,0,0,0,0,0,0
0,0,0,4m,1s,1x,1t,4l,0,0,0,0,0,0,0,0
0,0,0,4m,1s,1x,1t,4l,0,0,0,0,0,0,0,0
0,0,0,4m,1p,1r,1q,4l,0,0,0,0,0,0,0,0
0,0,0,0,1y,1y,1y,0,0,0,0,0,0,0,0,v
0,0,0,0,0,0,0,0,0,0,0,0,0,0,0,u
0,2f,0,0,0,0,0,0,0,0,0,0,0,0,0,0
0,0,0,0,0,0,0,0,0,0,0,0,0,0,0,0
WAL 1r,1q,1p,1s,1t,1u,1v,1w,1x,23,22,21,25,2b,2d,32,3e,3d,3c,38,33,2x,2w,2v,3k,3j,3i,3h,3g,3f,3m,3l,h,i,g,2o,2c,2g,30,l,2y,1j,2j,2h,p,o,x,b,c,4r
EXT 15,12 0 0,0
PAL 1

TIL 15
11111111
10101010
10101010
10101010
10101010
10101010
10101010
10101010

TIL 16
11111111
10101010
10101010
10101010
10101010
10101010
10101010
10101010

TIL 17
11111110
10101010
10101010
10101010
10101010
10101010
10101010
10101010

TIL 18
10000000
10110000
10000011
10000000
10011000
10000000
01111111
00000000
>
10000000
10001100
10000000
10110000
10000011
10000000
01111111
00000000

TIL 19
00000000
01100000
00000110
00000000
00110000
00000000
11111111
00000000
>
00000000
00001100
00000000
01100000
00000110
00000000
11111111
00000000

TIL 20
00000001
01010101
00000001
01010111
11111100
00000000
00000000
00000000

TIL 21
00000011
00000011
00000011
00000011
00000011
00000011
00000011
00000011

TIL 22
00000001
00000000
00000000
00000000
00000001
00000000
00000011
00000011

TIL 23
10000000
00000000
00000000
00000000
10000000
00000000
11000000
11000000

TIL 25
11000000
11000000
11000000
11000000
11000000
11000000
11000000
11000000

TIL 29
00000011
00000011
00000000
00000000
00000000
00000000
00000000
00000000

TIL 30
11111111
11100110
11111110
11111100
11010000
10110000
11100000
11000000

TIL 31
01101100
00111100
00110100
00110100
00110100
01110100
11101100
00001100

TIL 32
00100010
00000010
00100010
01010000
00100010
00000101
00100010
00100000

TIL 33
00000000
11111111
11000011
10111101
10111101
10111101
11000011
11111111

TIL 34
10000000
10000000
10000000
10000000
10000000
10000000
10000000
10000000

TIL 35
00000000
00011111
00100000
01000000
10000000
10000000
10000000
10000000

TIL 36
00000000
11111111
00000000
00000000
00000000
00000000
00000000
00000000

TIL 37
00000000
11111000
00000100
00000010
00000001
00000001
00000001
00000001

TIL 38
00000001
00000001
00000001
00000001
00000001
00000001
00000001
00000001

TIL 39
00000000
00000000
11111111
10000000
10000000
10101001
10100101
10000000

TIL 40
00000000
00000000
00000000
00000000
00000000
11111111
11111111
11111111

TIL 41
00111100
00111100
00111100
01111110
00111100
01111110
01000010
01000010

TIL 42
11111111
11111111
11111111
11111111
11111111
11111111
11000000
11000000

TIL 43
11111111
11111111
11111111
11111111
11111111
11111111
00000011
00000011

TIL 44
11111111
10000000
10000000
10000000
11111111
10000111
10000111
11111111

TIL 45
11111111
00000001
00000001
00000001
11111111
11100001
11100001
11111111

TIL 48
11001000
11100000
11000001
11000000
11000100
11000000
11010000
11000000
>
11000100
11000000
11010000
11000001
11000000
11000010
11000000
11010000

TIL 49
00000011
00100011
00000011
00001011
01000011
00000011
10010011
00000011
>
00000011
00010011
00000011
01000011
00001011
00100011
00000011
01000011

TIL 50
00000000
00000000
00000000
00000000
00000000
00000000
00000000
00000000

TIL 51
00000000
00000000
00000000
00000000
00000000
00000000
00000000
00000000

TIL 52
11111111
11111111
11111111
11100111
10000001
00000000
00000000
00000000

TIL 53
11000000
11000000
11000000
11000000
11000000
11000000
11111111
11111111

TIL 54
00000000
00000000
00000000
00000000
00000000
00000000
11111111
11111111

TIL 55
00000011
00000011
00000011
00000011
00000011
00000011
11111111
11111111

TIL 56
00000011
00000011
00000011
00000011
00000011
00000011
00000011
00000011

TIL 57
11000000
11000000
11000000
11000000
11000000
11000000
11000000
11000000

TIL 58
00011110
01110010
11000010
10000010
11000110
01111100
00000101
00000110

TIL 59
11111111
11111111
11000000
11000000
11000000
11000000
11000000
11000000

TIL b
11111111
11001001
10010001
10110001
11000001
10000001
10000001
10000101

TIL c
11111111
10010011
10001001
10001101
10000011
10000001
10000001
10100001

TIL d
10000101
10000001
10000001
11000001
10110001
10010001
11001001
11111111

TIL e
10100001
10000001
10000001
10000011
10001101
10001001
10010011
11111111

TIL f
00000000
00000000
00000000
11111111
00000000
00000000
00000000
11111111

TIL g
00010100
00010100
00011100
11110100
00010100
00011100
00010100
11110100

TIL h
00101000
00101000
00111000
00101111
00101000
00111000
00101000
00101111

TIL i
00000000
00000000
00000000
11111111
11111111
00100100
00100100
11111111

TIL j
00011000
00110100
00111100
00011000
00111100
00111100
00111100
00111100

TIL k
10010000
00000010
01001000
01011010
01111110
00011000
00011000
00000000
>
01000000
00001000
01010010
01011010
01111110
00011000
00011000
00000000

TIL l
10000001
00000000
00000000
00000000
10000001
00000000
11111111
11111111

TIL n
00000000
01111110
01000010
01011010
01011010
01000010
01111110
00000000

TIL o
01111010
01111010
01111010
01111010
01111010
01111010
01111010
01111010

TIL p
01011110
01011110
01011110
01011110
01011110
01011110
01011110
01011110

TIL q
00000000
00000000
00000000
11111111
10000000
10011111
10100000
10100000

TIL r
00000000
00000000
00000000
11111110
00000010
11110010
00001010
00001010

TIL s
00101000
00101000
00101000
00101000
11001000
00001000
11111000
00000000

TIL t
00000000
11111000
00001000
11001000
00101000
00101000
00101000
00101000

TIL u
00010100
00010100
00010100
00010100
00010011
00010000
00011111
00000000

TIL v
00000000
00011111
00010000
00010011
00010100
00010100
00010100
00010100

TIL w
00000000
00000000
11111111
00010000
00010000
11110000
00001111
00001000

TIL x
00001000
00001000
00001000
11111000
00001000
00011111
00010000
00010000

TIL 1a
00011001
00000001
00110001
00000001
11000001
00000001
11111110
00000000
>
00001101
00000001
01100001
00000001
00001101
00000001
11111110
00000000

TIL 1b
00000000
01111111
10000000
10000110
10000000
10110000
10000110
10000000
>
00000000
01111111
10000000
10000000
10011000
10000000
10110011
10000000

TIL 1c
00000000
11111111
00000000
01100000
00000011
00000000
00110000
00000000
>
00000000
11111111
00000000
00011000
00000000
01100000
00000110
00000000

TIL 1d
00000000
11111110
00000001
00110001
00000001
00001101
11000001
00000001
>
00000000
11111110
00000001
00000001
11001101
00000001
00110001
00000001

TIL 1e
01000010
01000010
01000010
11111111
01000010
01000010
11111111
11111111

TIL 1f
01000010
01000010
01111110
11000011
01000010
11000011
01111110
01000010

TIL 1g
11111111
11111111
10000001
10000001
10000001
10000001
11111111
11111111

TIL 1h
00000000
00010010
00000000
10000000
00010100
00000000
01000001
00001000

TIL 1i
00000000
00000000
00000001
00000010
01000010
00100000
00100000
00000000

TIL 1j
00000010
00100010
01010000
00100010
00000101
00100010
00100000
11111111

TIL 1k
00010010
10010100
00100100
01000100
00100010
00101001
01000001
11111111

TIL 1l
00010010
10010100
00100010
01000010
00100100
01001001
01000100
00100010

TIL 1m
00000000
11111111
01001000
01000101
01010010
01001010
00100010
10010010

TIL 1n
00111000
00111000
00111000
01011000
11111111
10000001
10011001
10011001

TIL 1o
01111100
01000100
10000010
01000101
00111001
00111001
00111001
00111000

TIL 1p
01000000
01011100
01010100
01011100
01000000
01011100
01000000
00111111

TIL 1q
00111010
00000010
00111010
00101010
00111010
00000010
00000010
11111100

TIL 1r
00110100
00101100
00110100
00101100
00110100
00101100
00110100
11111111

TIL 1s
01000000
01000000
01011100
01010100
01011100
01000000
01011100
01000000

TIL 1t
00000010
00111010
00000010
00111010
00101010
00111010
00000010
00000010

TIL 1u
11111100
00000010
00111010
00000010
00111010
00101010
00111010
00000010

TIL 1v
11111111
00101100
00110100
00101100
00110100
00101100
00110100
00101100

TIL 1w
00111111
01000000
01011100
01010100
01011100
01000000
01011100
01000000

TIL 1x
00110100
00101100
00110100
00101100
00110100
00101100
00110100
00101100

TIL 1y
00100100
00100100
00100100
00100100
00000000
00000000
00000000
00000000

TIL 1z
10000000
11010101
10000000
11010101
00111111
00000000
00000000
00000000

TIL 2a
11000000
11000000
00000000
00000000
00000000
00000000
00000000
00000000

TIL 2b
11111111
11111111
00000000
00000000
00000000
00000000
00000000
00000000

TIL 2c
01000010
01000010
01000010
11111111
00100100
00100100
00100100
11111111

TIL 2d
00111100
00110100
00111100
00111100
00101100
00101100
00111100
00110100

TIL 2e
00111100
01000010
01000010
01111110
01111110
01111110
01111110
01000010

TIL 2f
00000000
00000000
00000000
01111110
01111110
01100110
01000010
01000010

TIL 2g
11111111
11111111
11111111
11111111
00100100
00100100
00100100
11111111

TIL 2h
00110100
00110100
11111111
10000101
10010001
10101101
10111101
11111111
>
00110100
00110100
11111111
10100011
10001001
10110101
10101101
11111111

TIL 2i
00110100
00110100
00110100
11110111
00110100
00110100
00110100
11110111

TIL 2j
01000000
10000000
11111111
10111101
11000011
11000011
10111101
11111111

TIL 2k
00000000
00010010
00001100
00011100
00101110
01011110
01111110
00111100

TIL 2l
01111110
01000010
01111110
01000110
01001010
01010010
01100010
01111110

TIL 2m
00000000
00000000
00011100
01110110
11111011
01111111
00011110
00000000
>
00000000
00000000
00011100
01101110
11110111
01111111
00011110
00000000

TIL 2n
11111111
11000011
10100101
10011001
10011001
10100101
11000011
11111111

TIL 2o
00000000
00000000
11111111
10111110
11100111
11111111
00000000
00000000

TIL 2p
00000000
00000000
00011100
01100010
10000101
01001001
00100010
00011100
>
00000000
00000000
00011100
01100010
10001001
01010001
00100010
00011100

TIL 2q
01010010
00100100
00101100
00101100
00100100
00100100
01000010
10010001

TIL 2r
01100000
11011100
10001011
10000001
01100011
01000001
01010101
01100010

TIL 2s
01000010
01000010
01000010
01000010
01000010
01000010
01000010
10000001

TIL 2t
01000010
01000010
01000010
01000010
01000010
01000010
01000010
01000010

TIL 2u
10000000
10000010
10000010
10000010
10000010
10011110
10010010
10010010

TIL 2v
00001000
00000100
00000010
00000010
00000010
00000010
00000010
00000010

TIL 2w
00000010
00000010
00000010
00000010
00000010
00000010
00000010
00000010

TIL 2x
00000010
00000010
00000010
00000010
00000010
00000010
00000100
00001000

TIL 2y
10000001
00000000
00000000
00000000
10000001
00000000
00000000
00000000

TIL 2z
00000000
00000000
00000000
00000000
00000000
00000000
00000000
11111111

TIL 3a
00000000
00000000
11111111
00000000
00000000
01010010
01001010
00000000

TIL 3b
00000000
00111100
00111100
00111100
00100100
00100100
00100100
00100100

TIL 3c
11111111
10000000
10100010
10100010
11111111
00000000
00000000
00000000

TIL 3d
11111111
00010000
01010101
01010101
11111111
00000000
00000000
00000000

TIL 3e
11111111
00000010
01001010
01001010
11111111
00000000
00000000
00000000

TIL 3f
01000000
01000000
01000000
01111000
01001000
01001000
01111111
00110000

TIL 3g
00000000
00000000
00000000
00000000
00000000
00000000
11111111
00000000

TIL 3h
00000010
00000010
00000010
00011110
00010010
00010010
11111110
00001100

TIL 3i
00000000
11111110
00010010
00010010
00011110
00000010
00000010
00000010

TIL 3j
00000000
11111111
00000000
00000000
00000000
00000000
00000000
00000000

TIL 3k
00000000
01111111
01001000
01001000
01111000
01000000
01000000
01000000

TIL 3l
11111111
10011001
11100111
10100101
10100101
11111111
10101001
10101001

TIL 3m
10101001
10101001
11111111
10100101
10111101
10101101
10101101
11111111

TIL 3n
00000110
00000110
00000110
00011110
00000110
00111110
00110110
00100010

TIL 3o
11111111
11111111
11111111
11111111
11000000
11010000
11000010
11010000
>
11111111
11111111
11111111
11111111
11010000
11000001
11000000
11001000

TIL 3p
11111111
11111111
11111111
11111111
01000000
00000000
00010100
10000000
>
11111111
11111111
11111111
11111111
00000010
00000000
01000000
00000001

TIL 3q
11111111
11111111
11111111
11111111
00000011
00001011
00000011
01000011
>
11111111
11111111
11111111
11111111
00000011
01000011
00000011
00010011

TIL 3r
00001011
00000011
01010011
00000011
00100011
01000011
10001011
11111111
>
00000111
01100011
00000011
01001011
00000011
00110011
10101011
11111111

TIL 3s
11000001
11000000
11010100
11000100
11000000
11010101
11010010
11111111
>
11100000
11000010
11001000
11000001
11100011
11000100
11010001
11111111

TIL 3t
00000100
01010001
00000100
10000000
00010001
00100100
11010111
11111111
>
00100000
10000100
00100001
10010000
00010010
01000100
11000101
11111111

TIL 3u
00000000
00000000
00000000
11111111
11111111
11111111
10000000
10000000

TIL 3v
00000001
00001111
00001111
11111111
11111111
11111111
00000001
00000001

TIL 3w
11111100
01001011
01001001
01001001
00001001
00000001
00000001
00000001

TIL 3x
11111111
11111111
11111111
11100000
11000000
10000000
10000000
10000000

TIL 3y
11111111
11111111
11111111
00000000
00000000
00000000
00000000
00000000

TIL 3z
11111111
11111111
11111111
00000111
00000011
00000001
00000001
00000001

TIL 4a
00000000
00001000
01000001
00000001
00000001
00010101
01000000
00000000
>
00000000
00100100
00000001
01000001
00000001
10001001
00000000
00000100

TIL 4b
00000000
00010001
10000000
10000010
10010000
10000000
00001000
01000000
>
00000001
00001000
10000000
10000000
10000100
10100000
00001000
00000000

TIL 4e
00000000
00000000
10000000
10000000
10000000
10000000
00000000
00000000

TIL 4f
00000000
00000000
00000001
00000001
00000001
00000001
00000000
00000000

TIL 4h
00000000
00000000
11000000
10100000
11000001
10011010
10100010
10100001

TIL 4i
00000000
00000000
00000000
00000000
00011001
10100010
00011001
10111011

TIL 4j
00000000
00000000
00001000
00011100
10111110
00001000
10001000
10001000

TIL 4k
00000000
00000000
00001000
00001100
10111110
00001100
10001000
10000000

TIL 4l
00000000
00000100
00000100
00000100
00000100
00111100
00100100
00100100

TIL 4m
00000000
00100000
00100000
00100000
00100000
00111100
00100100
00100100

TIL 4n
01011111
01011111
01011111
01011111
01011111
01100000
01111111
00000000

TIL 4o
11111010
11111010
11111010
11111010
11111010
00000110
11111110
00000000

TIL 4p
00000000
11111110
00000110
11111010
11111010
11111010
11111010
11111010

TIL 4q
00000000
01111111
01100000
01011111
01011111
01011111
01011111
01011111

TIL 4r
00100100
00100100
00100100
00100100
00100100
01111110
01111110
01111110

TIL 4s
00000000
00111100
01000010
01011010
01011010
01000010
00111100
00100100

TIL 4t
10111111
10111111
10000000
11111111
11110000
11100000
11000000
11000000

TIL 4u
11111111
10000000
10111111
10111111
10111111
10111111
10111111
10111111

TIL 4v
11111111
00000000
11111111
11111111
11111111
11111111
11111111
11111111

TIL 4w
11111111
11111111
00000000
11111111
00000000
00000000
00000000
00000000

TIL 4x
11110001
11111111
00000000
11111111
00001111
00000111
00000011
00000011

TIL 4y
11111111
00000000
11111111
11110001
11110001
11110001
11110001
11110001

TIL 4z
11101000
11111000
10111000
11101000
11111000
11011000
10111000
10111000

TIL 5a
11111111
11111111
00000000
00000000
00000000
00000000
00000000
00000000

TIL 5c
11111111
11111111
00000011
00000011
00000011
00000011
00000011
00000011

TIL 5d
00011100
01110100
11000100
10001111
00011001
00010001
00010001
00010001

TIL 5e
00010000
00010000
00010000
00010000
00111000
01010000
10010000
00000000

TIL 5f
00000000
00000011
00001111
00011110
01111111
11110111
11001111
11111111

TIL 5g
00000000
00000000
11111000
11001110
11111111
11111111
11111011
11111111

TIL 5h
00000001
01100001
00000001
00001101
00000001
00000001
01100001
00000001
>
00000001
00001101
00000001
00000001
01100001
00001101
00000001
00000001

TIL 5i
10000000
10110000
10000000
10000110
10000000
10000000
10011000
10000000
>
10000000
10001100
10000000
10000000
10110000
10000110
10000000
10000000

TIL 5j
00000000
01100000
00000000
00001100
00000000
00000000
01100000
00000000
>
00000000
00000110
00000000
00000000
01100000
00000000
00011000
00000000

TIL 5k
11111111
11111111
11111111
11111111
11111111
11111111
11111111
11111111

TIL 5l
00000000
00000000
00000000
10000001
11111111
10000001
11111111
10000001

TIL 5m
00000000
00000000
00000000
00101010
00101010
00101010
10101010
11101110

TIL 5n
00000000
00000000
00000000
11101110
11101010
11101110
10101000
10101000

SPR 10
00011000
00111100
00011000
00111100
01011011
01011000
00011000
00111100
>
00011000
00111100
00011000
00111100
01011100
01011010
00011000
00111100
POS 0 3,14

SPR 11
00000000
00000110
00000110
00001111
00010001
00000111
00001010
00001010
>
00000000
00000110
00000110
00011111
00000001
00000111
00001010
00001010
POS 0 13,9

SPR 12
00000000
00000000
00111000
00011000
00111100
01011010
00011000
00100100
>
00000000
00000000
00111000
00011010
00111100
01011000
00011000
00101000
POS 0 12,12

SPR 13
00000000
00110000
00110000
01111000
10110100
00110000
00101000
00101000
>
00000000
00110000
00100000
01111000
10110100
00110000
00101000
00101000
POS 0 6,11

SPR 14
00011000
00111100
00011000
00111100
00111010
01011100
00011000
00111100
POS 0 1,3

SPR 15
00011000
00111100
00011000
00111100
01011010
01011010
00011000
00111100
POS 0 14,3

SPR 16
00000000
00011000
00010010
00111110
01011000
01011000
00010100
00100100
>
00000000
00011000
00011010
00111110
01011000
01011000
00010100
00100100
POS 0 11,15

SPR 17
00000000
00000000
00000000
00000000
00000000
00000000
00000000
00000000
POS 0 0,3

SPR 18
00000000
00000000
00000000
00000000
00000000
00000000
00000000
00000000
POS 0 15,3

SPR 19
00011000
00111100
00011000
00111100
00111010
01011010
00011000
00111100
>
00011000
00111100
00011000
00111100
11011010
00011010
00011000
00111100
POS 0 0,11

SPR 20
10100100
00010000
01011000
01001000
10100001
01001000
10111100
01111110
>
01000000
10010100
11010000
00001000
10010100
01111000
00111110
01111110
POS x 13,6

SPR 21
10100100
00010000
01011000
01001000
10100001
01001000
10111100
01111110
>
01000000
10010100
11010000
00001000
10010100
01111000
00111110
01111110
POS x 11,5

SPR 22
10100100
00010000
01011000
01001000
10100001
01001000
10111100
01111110
>
01000000
10010100
11010000
00001000
10010100
01111000
00111110
01111110
POS x 13,5

SPR 23
00000000
00000000
00000000
01111110
01011010
01111110
00000000
00000000
POS y 3,4

SPR 24
00001100
00111110
01101100
00011110
00101101
00011110
00111111
00010010
>
00001100
00111110
01101100
00011110
00101101
00011110
00111111
00010010
POS z 7,10

SPR 25
00000000
00000000
00001111
00010001
00100010
01000100
01111000
00000000
POS t 6,2

SPR 26
00000000
11111110
00000001
01100001
00000001
00110001
00000001
11000001
>
00000000
11111110
00000001
00001101
00000001
01100001
00000001
00011001
POS m 3,12

SPR 27
11111111
10000001
10111101
10111101
10100101
10100101
10111101
11111111
POS m 13,14

SPR 28
00000000
00000000
00000000
00000000
00000000
11111111
11111111
11111111
POS m 9,8

SPR 29
00100100
00100100
00100100
00100100
00100100
00111100
01111110
01111110
POS m 1,6

SPR 30
00000000
00000000
00000000
00000000
00000000
00000000
00000000
00000000
POS 17 4,9

SPR 31
00000000
00000000
00000000
00000000
00000000
00000000
00000000
00000000
POS 17 3,9

SPR 32
00000000
00000000
00000000
00000000
00000000
00000000
00000000
00000000
POS 17 2,9

SPR 33
00000000
00000000
00000000
00000000
00000000
00000000
00000000
00000000
POS 17 1,9

SPR 34
00000000
00000000
00000000
00000000
00000000
00000000
00000000
00000000
POS 17 0,9

SPR 35
00000000
00000000
00000000
00000000
00000000
00000000
00000000
00000000
POS 17 8,9

SPR 36
00000000
00000000
00000000
00000000
00000000
00000000
00000000
00000000
POS 17 8,8

SPR 37
00000000
00000000
00000000
00000000
00000000
00000000
00000000
00000000
POS 17 7,8

SPR 38
01111110
00011010
00011000
01111110
01111110
01100110
01000010
01000010
POS 17 9,5

SPR 39
00000000
00000000
00000000
00000000
00000000
00000000
00011000
00111100
POS 17 9,4

SPR A
00000000
00011000
00011000
00111100
01011010
00011000
00100100
00100100
POS t 7,15

SPR b
01111110
00011010
00011000
01111110
01111110
01100110
01000010
01000010
POS 15 9,5

SPR c
00000000
00000000
00000000
00000000
00000000
00000000
00011000
00111100
POS 15 9,4

SPR d
00000000
00000000
00011110
00010010
00100010
01000100
01111000
00000000
>
00000000
00000000
00000000
00001110
00110010
01000110
01111000
00000000
POS s 10,11

SPR e
00000000
11111111
10011101
10001101
10010101
10100001
11111111
00011000
POS s 5,7

SPR g
00100000
01000000
01000000
11111111
11111111
01111110
01111110
01111110
POS t 6,12

SPR i
00000000
00000000
00001111
00010001
00100010
01000100
01111000
00000000
POS t 9,11

SPR j
10100100
00010000
01011000
01001000
10100001
01001000
10111100
01111110
>
01000000
10010100
11010000
00001000
10010100
01111000
00111110
01111110
POS t 6,8

SPR k
01011001
00010100
10010010
00011010
00010110
01010000
00010010
00111000
>
00011010
01010100
00010010
10011010
00110110
00010000
00010001
10111000
POS t 9,7

SPR l
00000000
00000000
00011000
00111100
01011010
01011010
00011000
00000000
POS t 6,4

SPR m
00000000
00011000
00100100
01111110
01111010
01111110
01111110
00000000
POS t 9,3

SPR n
00000000
01111110
01000010
01011010
01000010
01111110
00011000
00011000
POS u 10,7

SPR o
01000010
00001000
01010000
01011010
01111110
00011000
00011000
00000000
>
10010000
00000010
01001000
01011010
01111110
00011000
00011000
00000000
POS 2 9,3

SPR p
01000010
00001000
01010000
01011010
01111110
00011000
00011000
00000000
>
10010000
00000010
01001000
01011010
01111110
00011000
00011000
00000000
POS 2 6,3

SPR q
00000000
00011010
00011010
00111100
01011000
01011000
00101000
00101000
>
00000000
00011001
00011010
00111100
01011000
01011000
00101000
00101000
POS 2 4,6

SPR r
00001100
00111110
01101100
00011110
00101101
00011110
00111111
00010010
>
00001100
00111110
01101100
00011110
00101101
00011110
00111111
00010010
POS 0 4,10

SPR s
00000000
00100100
01011010
00011000
00111100
01011010
00011000
00100100
POS 2 0,7

SPR t
00000000
00100100
01011010
00011000
00111100
01011010
00011000
00100100
POS 2 0,8

SPR u
00000000
00100100
01011010
00011000
00111100
01011010
00011000
00100100
POS 2 15,7

SPR v
00000000
00100100
01011010
00011000
00111100
01011010
00011000
00100100
POS 2 15,8

SPR w
00011000
00111100
00011000
00111100
00111010
01011100
00011000
00111100
>
00011000
00111100
00011000
00111100
11011010
00011100
00011000
00111100
POS 2 10,5

SPR x
00011000
00111100
00011000
00111100
00111010
01011010
00011000
00111100
>
00011000
00111100
00011000
00111100
11011010
00011010
00011000
00111100
POS 7 9,8

SPR y
00000000
00110000
00110000
00111100
01011010
00011010
00101010
00101010
>
00000000
00110000
00010000
00111100
01011010
00011010
00101010
00101010
POS 0 11,12

SPR z
00010000
00111000
00010000
00111000
01111100
01111100
01111100
00101000
POS 0 4,14

SPR 1a
00011000
00111100
00011000
00111100
00111010
01011010
00011000
00111100
>
00011000
00111100
00011000
00111100
11011010
00011010
00011000
00111100
POS 0 15,11

SPR 1b
00000000
00011000
00010010
00111110
01011000
01011000
00010100
00100100
>
00000000
00011000
00011010
00111110
01011000
01011000
00010100
00100100
POS 5 3,11

SPR 1c
00000000
00000000
00111000
00011000
00111100
01011010
00011000
00100100
>
00000000
00000000
01110000
00110100
00011010
00111000
01011000
00100100
POS 5 7,9

SPR 1d
00000000
00000110
00000110
00001111
00010001
00000111
00001010
00001010
POS 5 7,7

SPR 1e
00010000
00111000
00010000
00111000
01111100
01111100
01111100
00101000
POS 5 7,8

SPR 1f
00000000
00110000
00110000
00111100
01011010
00011010
00101010
00101010
>
00000000
00110000
00010000
00111100
01011010
00011010
00101010
00101010
POS 5 7,11

SPR 1g
00001100
00111110
01101100
00011110
00101101
00011110
00111111
00010010
>
00001100
00111110
01101100
00011110
00101101
00011110
00111111
00010010
POS 5 3,6

SPR 1h
00000000
00011000
00000000
00111100
01011010
00011000
00100100
00100100
POS 5 3,10

SPR 1i
00011100
00010000
00011100
00110000
00111100
01110100
11110100
00000000
POS 5 3,8

SPR 1j
00000000
00110000
00110000
01111000
10110100
00110000
00101000
00101000
>
00000000
00110000
00100000
01111000
10110100
00110000
00101000
00101000
POS 5 3,9

SPR 1k
00000000
00011010
00011010
00111100
01011000
01011000
00101000
00101000
>
00000000
00011001
00011010
00111100
01011000
01011000
00101000
00101000
POS 5 7,10

SPR 1l
00001100
00011110
00001100
01011110
11101101
00001110
00001100
00011110
POS 5 12,6

SPR 1m
00110000
01111000
00110000
01111010
10110111
01110000
00110000
01111000
POS 5 3,3

SPR 1n
00011000
00111100
00011000
00111100
11011010
00011010
00011000
00111100
>
00011000
00111100
00011000
00111100
01011011
01011000
00011000
00111100
POS 5 7,6

SPR 1o
01000000
01000000
01011100
01010100
01011100
01000000
01011100
01000000
POS 5 4,7

SPR 1p
00000000
00011000
00000000
00111100
01000010
00011000
00100100
00100100
POS v 1,4

SPR 1q
00000000
00011000
00000000
00111100
01000010
00011000
00100100
00100100
POS v 14,4

SPR 1r
00000000
00000000
00000000
00000000
00000000
00000000
00000000
00000000
POS v 15,4

SPR 1s
00000000
00000000
00000000
00000000
00000000
00000000
00000000
00000000

SPR 1t
00000000
00000000
00000000
01111110
01011010
01111110
00000000
00000000
POS w 3,4

SPR 1u
00000001
00000001
00000011
00000101
00111001
11111111
01111111
01111111
POS x 7,6

SPR 1v
10000000
10100000
11000000
10000000
10000000
11111111
11111110
11111110
>
10000000
10000000
11000000
10100000
10000000
11111111
11111110
11111110
POS x 8,6

SPR 1w
00100000
01000000
01000000
11111111
11111111
01111110
01111110
01111110
POS x 9,8

SPR 1x
00100000
01000000
01000000
11111111
11111111
01111110
01111110
01111110
POS x 6,8

SPR 1y
00000000
00110000
00110000
01111000
10110100
00110000
00101000
00101000
POS x 6,11

SPR 1z
10100100
00010000
01011000
01001000
10100001
01001000
10111100
01111110
>
01000000
10010100
11010000
00001000
10010100
01111000
00111110
01111110
POS x 11,6

SPR 2a
11110001
11111111
00000000
11111111
00011111
00001111
00000111
00000111
POS m 14,8

SPR 2b
00000000
00000000
00000000
01111111
01000000
01001111
01010000
01010000
POS m 7,15

SPR 2c
00000000
00000000
00000000
11111110
00000010
11110010
00001010
00001010
POS m 8,15

SPR 2d
00001000
00001000
00001000
00001000
00001000
01111000
01001000
01001000
POS m 10,9

SPR 2e
00000000
00001000
00001000
00001000
00111110
00111110
00100010
00000000
POS 10 11,11

SPR 2f
00000000
00000000
00011110
00100010
01000100
01111000
00000000
00000000
POS 10 5,8

SPR 2g
00000000
00011000
00000000
00111100
01000010
00011000
00100100
00100100
POS 13 9,3

SPR 2h
00000000
00011000
00000000
00111100
01000010
00011000
00100100
00100100
POS 13 6,3

SPR 2i
00000000
00011000
00000000
00111100
01011010
00011000
00100100
00100100
POS 13 7,3

SPR 2j
00001100
00111110
01101100
00011110
00101101
00011110
00111111
00010010
POS 13 4,14

SPR 2k
00001100
00111110
01101100
00011110
00101101
00011110
00111111
00010010
POS 14 4,14

SPR 2l
00000000
00001100
00001100
00011110
00101101
00001100
00010010
00010010
POS 11 7,10

SPR 2m
01111110
00011010
00011000
01111110
01111110
01100110
01000010
01000010
POS 11 9,5

SPR 2n
00000000
00000000
00000000
00000000
00000000
00000000
00011000
00111100
POS 11 9,4

SPR 2o
00000000
00000000
00000000
00000000
00000000
00000000
00000000
00000000
POS 15 7,6

SPR 2p
00000000
00000000
00000000
00000000
00000000
00000000
00000000
00000000
POS 15 7,7

SPR 2q
00000000
00000000
00000000
00000000
00000000
00000000
00000000
00000000
POS 15 8,7

SPR 2r
01111110
00011010
00011000
01111110
01111110
01100110
01000010
01000010
POS 16 9,5

SPR 2s
00000000
00000000
00000000
00000000
00000000
00000000
00011000
00111100
POS 16 9,4

SPR 2t
00000000
00011000
00000000
00111100
01011010
00011000
00100100
00100100
POS 16 9,7

SPR 2u
00000000
00011000
00000000
00111100
01000010
00011000
00100100
00100100
POS 16 10,6

SPR 2v
00000000
00011000
00000000
00111100
01000010
00011000
00100100
00100100
POS 16 10,7

SPR 2w
00000000
00000000
00000000
00000000
00000000
00000000
00000000
00000000
POS 17 0,6

SPR 2x
00000000
00000000
00000000
00000000
00000000
00000000
00000000
00000000
POS 17 7,9

SPR 2y
00000000
00000000
00000000
00000000
00000000
00000000
00000000
00000000
POS 17 6,9

SPR 2z
00000000
00000000
00000000
00000000
00000000
00000000
00000000
00000000
POS 17 5,9

SPR 3a
00000000
00100100
01011010
00011000
00111100
01011010
00011000
00100100
>
01000010
10100101
00011000
01011010
00111100
00011000
00111100
00000000
POS 4 10,9

SPR 3b
00000000
00110000
00110000
00111100
01011010
00011010
00101010
00101010
>
00000000
00110000
00010000
00111100
01011010
00011010
00101010
00101010
POS m 1,10

SPR 3c
00011000
00111100
00011000
00111100
00111010
01011100
00011000
00111100
POS 9 11,12

SPR 3d
00001100
00111110
01101100
00011110
00101101
00011110
00111111
00010010
POS b 7,9

DLG 10
Koz Bro. 3: "Please, sir, I will keep the coat safe." - Prv: "I'm deathly allergic to even the slightest chill! Touch that silvery coat and I'll try you for attempted murder."

DLG 11
??: "My good man, I am determined to make love to that gorgeous woman across the hall." - "I'm sorry, sir, she's taken." - ??: "What? By whom?" - "They say she's desperately in love with a blood thirsty, fugitive rebel, who constantly keeps his jealous eye on her. They say he turns perverts to stone with his evil eye--" - ??: "Oh, my, say no more!"

DLG 12
Blessings come in strange forms. This is Tips, the hottest pop star since Solr Eklipz. They say that he has a new dance move for every room he enters.

DLG 13
Zby: "Can't wait for the high-quality seafood." - Holy crap this guy is boring. I turn my attention around the room. Suddenly, just behind him. -- Welock eyes, and it takes everything in me not to pop like an enamored zit. She's gorgeous, even in that ridiculous dress and hat. She's the love of my life. No really, we've been married for 5 years now. Well, one of them was spent escaping prison and a brutal civil war.

DLG 14
Koz Bro. 5: "Sorry, sir. If you'd like to see Mr. Grabover, you'll have to speak to him when he comes down for dinner."

DLG 15
Koz Bro. 4: "Sorry, sir. If you'd like to see Mr. Grabover, you'll have to speak to him when he comes down for dinner."

DLG 16
Chtrid: "Got invited because *I* am the new head of the State CHAMPS Department. We research how to look and act like a CHAMP!" - "Oh, that's..." - Chtrid: "With hesitation like that, I can tell you're still a CHUMP. Don't give up and don't do drugs, chump." - You hope the rebels win.

DLG 17
Koz Bro. 5: "Sorry, sir. If you'd like to see Mr. Grabover, you'll have to speak to him when he comes down for dinner."

DLG 18
Koz Bro. 4: "Sorry, sir. If you'd like to see Mr. Grabover, you'll have to speak to him when he comes down for dinner."

DLG 19
Koz Bro. 6: "This way to the dining hall, sir. Dinner is just about ready. Make sure to mingle first, though!"

DLG 20
... I didn't even know why ...

DLG 21
... I still don't really know ...

DLG 22
... But I won't break ...

DLG 23
In messy ink, it reads: "Keep the contract. I want to be known as a hero when the war is over." - Farther down, it reads: "I'll make you a legend." - This is both good news and bad news. Good: There is probably the signed contract between the Zelek and Grabover about the incidents at Juda. Bad: Zelek is probably going to find you and kill you. You'll have to be careful from now on.

DLG 24
She reads the letter - Vlas: "Excellent. I bet he's storing it somewhere in his personal rooms. Check on the second floor, double doors. Most of the guests have started getting ready for the opera in the theater. I'll distract the guards upstairs, and you should be able to slip in and out just fine." - "Thanks, Love." - Vlas: "Anything to set you free again..."

DLG 25
Pro Tip: Talk to everyone and investigate everything in a room before leaving, you might miss something.

DLG 26
A swimming pool? Upstairs? That can't be practical. Must've been trying to fill space. There probably isn't a sunken safe in the deepend, so I'll keep searching the room.

DLG 27
Surprisingly, it is NOT in this safe that I just expertly cracked. I learned how to do that from my time at Grabover Internment. Oh. That's... painful.

DLG 28
I pilfer 2 paperclips and a AA battery from the drawer, but no contract.

DLG 29
You poke around inside the clock for some sort of secret compartment to no effect.

DLG 30
Ouch! Was there furniture there??

DLG 31
Ouch! Was there furniture there??

DLG 32
Ouch! Was there furniture there??

DLG 33
Ouch! Was there furniture there??

DLG 34
Ouch! Was there furniture there??

DLG 35
Ouch! Was there furniture there??

DLG 36
Ouch! Was there furniture there??

DLG 37
Ouch! Was there furniture there??

DLG a
I'm a cat

DLG d
In rain-soaked ink, you read: "IN CELEBRATION OF THE RECENT VICTORIES AT WEXFORD & LOVERN, YOU ARE CORDIALLY INVITED TO A NIGHT OF FESTIVITIES." The party is based around a major victory, got it.

DLG g
2 years ago today, you were found guilty of breaking the cease fire between the New Republic and the rebels at peaceful village Juda. You were sentenced to 108 years.

DLG i
They had a written confession. That was the first time you had ever heard of the rebellion.

DLG j
You were tortured for 6 months. In the fires of that prison, an unbending will was forged in you. Never breaking, you joined with some rebels to escape the prison.

DLG k
When you crawled out of that hole, the country had been ravaged by a short, brutal civil war. The nation was in chaos. The rebels would keep you safe, but you have to clear your name.

DLG l
With the help of a distant rebel spy, you have an invitation to a party among the political elite hosted by the very man who framed you.

DLG m
Your goal: Infiltrate the party. Blend in. Enjoy the high-quality seafood. And find any connections between Mr. Grabover and the incidents at Juda.

DLG e
"The Grabover Manor just ahead." I've been walking for over a mile in the rain, you'd think the rebels could spare a car.

DLG n
"WELCOME TO GRABOVER MANOR, THE SITE OF VICTORIES FOR THE REPUBLIC SINCE THE MEDIEVAL SIEGES THAT FORMED OUR NATION. NOW A GRAND LUXURY AND THE JEWEL OF CIVILIZATION." The propaganda is weak, but at least it stopped raining.

DLG p
room2 1

DLG o
room2 2

DLG q
Nik: "Hello there, goodfellow! You look soaked. Head on inside, the party's started!" - Unfortunately, this is not Mr. Grabover, and the case is still open. I should take his advice and head inside.

DLG r
She's stoic, she's stunning, she's timeless. Vlas: "Good evening, sir. Looking forward to the high-quality shrimp and fish?" - You can tell she is trying just as hard as you are. - I whisper, "What are you doing here??" - Vlas: "I'm a rebel spy on a very important mission. What are you doing here??" Voices just under the loud murmur of the crowd. - "YOU'RE the rebel spy?? I'm the agent! I'm here to -- " - Vlas: "I know why you're here. We'll catch up later. No one can know who you are. Do you have a cover story? A fake name? You sure you can -- " - " Yeah, I've got all that. Even got a tick. Ya know, like in acting class. I hold perfectly still unless prompted. Pretty tricky, right? No one does that. They'll never know it was me." - Vlas: "Sounds great. We need to stop talking. See you at dinner." - What a girl.

DLG s
"Sorry sir, garden's closed while we set up!"

DLG t
"Sorry sir, garden's closed while we set up!"

DLG u
"Sorry sir, garden's closed while we set up!"

DLG v
"Sorry sir, garden's closed while we set up!"

DLG w
Koz Bro. 1: "This way, sir. Party's inside." - "Excuse me, but is the host, Mr. Grabover, present; I have a gift for him." - Koz: "Of course, sir. You'll find him among the guests."

DLG x
Koz Bro. 2: "I'll take your coat, sir. Enjoy the party." - "Thank you, kindly."

DLG y
Eln: "And the bloody bastard won't let an aging academic take a look at the floor plans of such a historical landmark! Mr. Grabover will hear from the Historical Society, I tell you!" He turns to another guest and repeats his plight.

DLG z
Prv: "Sure is cold in here, aye?" - "I feel fine, myself. Are you not Prv? Where is your reknowned wife, Vel?" - Prv: "Oh, she's sick. Nearly passed from the flu, I'm afraid." - That gaunt frame in that large coat is hauntingly uncanny.

DLG 1a
Koz Bro. 7: "I'm sure you'd enjoy the library, sir, but you'd best head off to dinner if you'd like to catch that hot, delicious seafood." - Mmm. Does sound good.

DLG 1c
Even in the darkness, light can be found. Another dance move, inspired only by their surroundings; Tips dances.

DLG 1i
That's him! That's Grabover! Is he... in a hooded cloak? A burlap bathrobe? What the heck is he wearing? Whatever he's wearing, I bet the story is good. Grabover: "Good evening, my guest. I hope you enjoy my legendary seafood. Only the highest caliber, my good man." - "I'll be placing my order immediately, sir. It's an honor to be here. Live long, Chariman." - The bastard doesn't even recognize me. He framed me, but he must have paid someone else to do it.

DLG 1n
Koz Bro. A: "It is an honor to represent the servants of the Grabover Manor tonight. Can't say I'm not nervous, sir." - How many of them are there?

DLG 1m
Koz Bro. 10: "Enjoy the fine food. I hear the seafood is delicious! This way to the kitchen"

DLG 1l
Koz Bro. 9: "Get it while it's hot, sir. The seafood must be eaten warm! It's just not the same." - "Agreed. Where is the ballroom, my good man?" - Koz: "Enter the main hall, then the double doors on the first floor." - "Thank you, that was very helpful."

DLG 1k
Nik: "My good man! Glad to see you are dry and comfortable. I must say, I never got your name." - "Oh, um, piss." - Nik: "...What?" - "... My name is piss. All lowercase letters." - Nik: "Is that..." - "Um- It's Latin for... antisocial." - Nik: "I see. Erm. Sorry to hear that." - Good cover! Vlas will be proud.

DLG 1j
Zby: "It's exactly like I had expected. Any hobbies? I hope to do something special with my life one day." - GODS WHAT A STIFF

DLG 1h
He's like a terrible storm frozen in time. So still, and so dangerous. It's uncanny. The fire inside me is intense. Zelek: "Having a good time, I hope. Please, I'm only a hired gun for Grabover. We have little to say. I'd like to enjoy my seafood while it's still warm. But there some things best served cold, don't you think?" - You turn around and dismiss eye contact as soon as you can break from the spell of his black gaze. This is the man responsible for your framing. And your torture. Does he recognize you?

DLG 1f
Eln: "This place was once the sight of a heroic last stand between the Ancient Empires and the Confederates. They say the fortress was impenetrable because the defenders could always outlast. But how? That's why I need those floor plans! There must be something. Bastard."

DLG 1e
Prv: "Oh my goodness I AM SO VERY HUNGRY. Please, excuse my appetite, large enough to rival even my massive coat! HA HA HA" - I just hope I'm safe, and otherwise leave him be.

DLG 1d
??: "So I've been doing some thinking, and I think that I'm safe from that nasty rebel here in the Manor. I think I'll make a move anyway." - "She's also madly in love with that dashing rebel, remember? She wouldn't consent." - ??: "Damn, another roadblock... Oh, not like that. I mean..."

DLG 1g
Vlas: "Hey, I heard that there was a bit of a mixup in the ballroom. Some messages were being swapped, but the band was playing in double time so the Republican Fire Waltz was-- Nevermind. What's important is, I bet there's something useful left in the ballroom. I'm sure a note got lost during at least the Blitzwaltz. When you've finished eating, head over there. I'll cover for you." - "Thanks, dear, you're the best." - Vlas: "We are not together, remember! Don't call me that! You could kill us both." - "Right, right."

DLG 1o
You were just being sarcastic, but damn this *is* good.

DLG 1p
Zelek's Crew 1: "No party up here."

DLG 1q
Zelek's Crew 2: "No party up here."

DLG 1r
Zelek's Crew 2: "No party up here."

DLG 1s
Zelek's Crew 1: "No party up here."

DLG 1t
In messy ink, it reads: "Keep the contract. I want to be known as a hero when the war is over." - Farther down, it reads: "I'll make you a legend." - This is both good news and bad news. Good: There is probably the signed contract between the Zelek and Grabover about the incidents at Juda. Bad: Zelek is probably going to find you and kill you. You'll have to be careful from now on.

DLG 1u
... For treason and war crimes against the New Republic ... I sentence you to 108 years of imprisonment at Grabover Internment ...

DLG 1v
... For treason and war crimes against the New Republic ... I sentence you to 108 years of imprisonment at Grabover Internment ...

DLG 1w
... There were so many people that lied ...

DLG 1x
... There were so many people that actually died at Juda ...

DLG 1y
??: "Go on, approach the judge. I've done all I can."

DLG 1z
... 6 months ...

DLG 1b
Chtrid: "It's hard to strike the balance between dilligent bureaucrat and CHAMP, ya know? Hey, you're still a CHUMP. Keep coming to me to test your mettle. One day, you'll be a CHAMP, but today, you're a CHUMP." - I know.

DLG 2a
I, hesitantly, poke around the bed. Aha! There, a small piece of paper hidden beneath the pillow. It's a folded up contract! Perfect! No to regroup with Vlas.

DLG 2b
From behind the door: "Ploughin' hussy! Tease! She was no good anyway." - Looks like Vlas' distraction is over. - Zekel: "Shape up, lecherous twits. I heard some shuffling in Grabover's room. Let's head inside." - I'd be happy to kill the bastard and his crew, but I'm not THAT good, and I'd rather not cause a scene. I'll have to find another way out.

DLG 2c
From behind the door: "Ploughin' hussy! Tease! She was no good anyway." - Looks like Vlas' distraction is over. - Zekel: "Shape up, lecherous twits. I heard some shuffling in Grabover's room. Let's head inside." - I'd be happy to kill the bastard and his crew, but I'm not THAT good, and I'd rather not cause a scene. I'll have to find another way out.

DLG 2d
Nothing under the chair. looks like there was some sort of meeting, though.

DLG 2e
I don't want to know what kind of kinky stuff these chairs saw. Not that I'm kink shaming, I'd just rather not think of my captors having the luxury to enjoy themselves in anyway.

DLG 2f
Someone was playing dirty pictionary. This must be the 'Mistress' bedroom. The future ghosts of this room will have some stories to tell.

DLG 2h
I should NOT interact with them!

DLG 2g
I should NOT interact with them!

DLG 2j
Vlas: "You got what you came for? Looks like they're distracted, and the opera will be on for another few hours. We might not see each other again for a very long time. While we have the chance, let's catch up

DLG 2k
Vlas: "You got what you came for? Looks like they're distracted, and the opera will be on for another few hours. We might not see each other again for a very long time. While we have the chance, let's catch up in my bedroom." - "Thank you." - Vlas: "Thank me when we get you safe. I'll meet you up there. Door on the left." - Holy heck she's hot

DLG 2l
Vlas: "I just wanted to say that I'm sorry. I'm sorry I couldn't do more to get you free, or tell you if I'm okay, or make sure you were okay, or if you're --" - "Hey, it's alright. This is probably the worst time in my life. When I went in the ballroom, I had a horrible flash to the trial. I blocked out the internment. But I got through it because I knew that if I ever got out, I'd be with you again. I don't know how to describe the pain I've felt. But, I mean, you've always wanted a guy with cool scars, right?" - Vlas: "That's not funny. But it's amazing to see that after all that, it's still you. Let's forget about the world for a while. Crawl in bed next to the lamp. I can't stand sleeping so close to the door. I'll join you, yeah?" - yeah...

DLG 2o
Better turn on the light! Feels like Vlas is already out of bed.

DLG 2p
Better turn on the light! Feels like Vlas is already out of bed.

DLG 2q
Better turn on the light! Feels like Vlas is already out of bed.

DLG 2t
Zelek: "I feel bad, real bad; doin' you in twice like this. But you just keep gettin' in my sights. Grab him, boys. Will take him to the *cellar*." - I might be able to shake these guys if I flash off the light and book it to the balcony on the left.

DLG 2u
Zelek's Crew 1: "Poor kid. But business is business..."

DLG 2w
Ouch! That is a wall

DLG 2x
Ouch! Was there furniture there??

DLG 2y
Ouch! Was there furniture there??

DLG 2z
Ouch! Was there furniture there??

DLG 3a
Jester: "Wahoo! Looks like you're on the run, kiddo! Better get outta here before the hooligans on the balcony catchya!" - "Yeah, thanks, sir." Better find a way out. Hopefully Vlas was smart enough to escape, too.

DLG 3b
Eln: "Trying to find the bastard's floor plans, too, huh? A heartless academic taking any means necessary to have the next big find, eh? Well, now that I know we're kindred spirits, I'll let you in on my theory about this place. The fortress that was here could last because it had a SECRET PATHWAY hidden in the kitchen, leading into the Dreaded Wood. The Dreaded Wood was safe for any who knew the way, but the invaders could never penetrate it. You see, they survived all those sieges because they could escape and resupply through the path in the wood! Hah, I can see it on your face, dumbfounded, as I expected for a man of your age." - Hmm... Might need that info later...

DLG 3c
Koz Bro. B: "Evening, sir. Welcome to the kitchen. Servant's quarters just beyond, and storage even further so." - "Wow, thank you, that was exactly what I needed right now." - Koz: "I'm good at my job."

DLG 3d
Vlas: "YOU MADE IT!! Do you still have the contract?" - "Yeah, held it my sleep." - Vlas: "Fantastic. We have just enough time to slip away into the woods. Looks like it's going to be a long walk in the rain. Wanna lead?" - "Sure."

END 0
The Grabover Manor: Abridged. Rushed for the BitsyJam "Secret"! If you liked it, please come back when I've polished it up and added more content! THANKS FOR PLAYING! IT MEANS A LOT TO ME!

