Slime Adventure.

# BITSY VERSION 3.5

! ROOM_FORMAT 1

PAL 0
233,235,239
18,183,0
70,1,186

PAL 1
0,0,0
233,235,239
124,46,254

ROOM 0
0,i,0,g,0,0,h,0,0,0,g,0,0,0,0,0
0,0,0,0,0,0,h,0,0,0,0,0,i,0,0,0
g,0,0,0,b,c,h,0,0,0,0,0,0,0,0,g
0,0,0,0,0,i,h,0,0,g,0,0,0,0,0,0
0,0,g,0,0,0,h,0,0,0,0,0,0,0,0,0
i,0,0,a,a,a,a,a,a,a,a,d,a,i,0,0
0,0,0,a,0,0,0,0,0,0,0,0,a,0,g,0
0,0,0,a,0,0,0,0,0,0,0,0,a,0,0,i
g,0,0,a,0,f,0,0,0,0,0,0,a,0,0,0
0,0,0,a,0,0,0,0,0,0,0,e,a,0,0,0
0,g,0,a,a,a,a,a,a,a,a,a,a,0,0,g
0,0,0,0,0,0,0,0,0,0,0,0,0,0,0,0
0,0,0,0,0,0,g,0,0,0,0,0,0,0,0,0
0,0,0,i,0,0,0,0,0,0,0,g,0,0,0,0
0,0,g,0,0,0,0,0,0,0,0,i,0,0,0,0
0,0,0,0,0,0,0,0,g,0,0,0,0,0,g,0
WAL a,i,p
EXT 6,0 1 6,15
EXT 11,9 3 9,8
PAL 0

ROOM 1
0,0,0,0,i,0,0,0,0,0,g,0,0,g,i,0
0,i,g,0,0,0,g,0,h,g,0,i,0,g,0,0
0,h,h,g,h,h,h,h,h,h,h,h,0,0,g,0
0,0,h,0,h,0,g,i,0,0,g,h,0,i,0,0
g,h,h,h,h,0,h,h,h,h,0,h,0,h,h,h
0,h,i,0,h,g,h,0,0,h,0,h,h,h,0,g
0,h,h,0,h,0,h,h,g,h,0,0,0,g,0,0
0,g,h,0,i,0,0,h,0,h,h,h,g,h,i,0
0,0,h,0,h,h,h,h,0,0,0,h,0,h,0,0
0,g,h,0,h,0,0,g,0,i,h,h,h,h,0,0
0,0,h,h,h,g,h,h,h,0,0,h,0,0,0,g
i,0,0,h,0,0,h,0,h,h,h,h,0,i,0,0
0,0,g,h,0,i,h,g,0,h,0,h,0,0,0,0
0,h,h,h,g,0,h,0,h,h,0,h,h,h,g,0
0,g,0,i,0,0,h,0,g,0,0,0,0,h,0,0
0,0,0,0,0,0,h,0,0,0,0,g,0,0,0,0
WAL i,p
EXT 6,15 0 6,0
EXT 15,4 2 0,4
PAL 0

ROOM 2
0,g,0,0,0,0,0,g,0,0,g,0,0,0,g,0
0,0,0,0,0,g,0,0,0,0,0,0,0,0,0,0
0,0,0,g,0,0,0,0,0,g,0,0,0,0,0,0
0,0,0,0,0,0,0,0,0,0,0,0,0,g,0,0
h,h,h,h,0,g,0,0,0,0,0,0,0,0,0,0
0,0,0,h,0,0,0,0,i,0,g,0,0,0,g,0
g,0,0,h,0,0,0,0,0,0,0,0,0,0,0,0
0,0,0,h,h,h,0,0,h,0,0,g,0,0,0,0
0,0,0,0,0,h,0,0,h,0,0,0,0,0,0,0
0,0,0,0,0,h,h,h,h,0,0,0,0,0,0,g
0,0,g,0,0,0,0,0,0,0,0,0,g,0,0,0
0,0,0,0,0,0,0,0,0,g,0,0,0,0,0,0
g,0,0,0,g,0,0,g,0,0,0,0,0,g,0,0
0,0,g,0,0,0,0,0,0,0,0,0,0,0,0,g
0,0,0,0,0,g,0,0,0,0,0,g,0,0,0,0
0,0,0,0,0,0,0,0,g,0,0,0,0,0,0,0
WAL i,p
EXT 0,4 1 15,4
PAL 0

ROOM 3
0,0,0,0,h,0,0,0,0,0,0,0,0,0,0,0
0,i,0,0,h,0,g,0,i,0,0,g,0,0,0,g
0,0,g,0,h,0,0,0,0,0,0,0,0,0,i,0
0,0,0,0,h,0,0,0,0,0,0,0,g,0,0,0
0,0,0,0,h,g,0,i,0,0,0,i,0,0,0,0
i,0,0,0,h,0,0,0,g,0,0,0,0,0,g,0
0,0,0,g,h,0,0,0,0,0,0,0,0,0,0,0
0,0,i,0,h,0,0,0,0,0,i,0,g,0,0,0
0,0,0,0,h,h,0,0,0,e,0,0,0,0,0,i
0,0,g,0,0,h,0,0,0,0,0,0,i,0,0,0
0,i,0,0,0,h,0,0,0,g,0,0,0,0,g,0
0,0,0,0,0,h,0,0,0,0,0,0,0,i,0,0
0,g,0,0,0,h,g,0,0,i,0,0,g,0,0,0
0,0,0,i,0,h,0,0,0,0,0,0,0,0,0,0
0,0,0,0,g,h,0,0,0,0,0,i,0,0,0,0
0,0,i,0,0,h,0,0,0,0,g,0,0,0,0,i
WAL i,p
EXT 5,15 4 5,0
EXT 4,0 5 4,15
PAL 0

ROOM 4
0,i,0,0,0,h,0,0,0,0,0,0,0,0,0,i
0,0,0,0,g,h,0,0,i,0,0,g,0,0,0,0
0,0,0,i,0,h,0,g,0,0,0,0,0,0,0,0
0,g,0,0,0,h,0,0,0,g,0,0,0,0,i,0
0,0,0,0,0,h,0,0,0,0,i,0,0,g,0,0
0,0,0,0,0,h,0,0,0,0,0,0,0,0,0,0
0,0,i,0,0,h,0,a,a,a,a,a,a,0,0,0
0,0,0,g,0,h,0,a,0,0,0,0,a,0,0,g
0,0,0,0,0,h,0,0,h,h,h,h,0,0,0,0
0,g,0,0,0,h,h,h,h,0,0,0,g,0,0,0
0,0,0,i,0,0,g,0,0,0,0,0,0,0,0,i
0,0,0,0,0,0,0,0,0,0,i,0,0,0,g,0
i,0,g,0,0,0,0,0,0,0,0,0,0,0,0,0
0,0,0,0,i,0,0,g,0,0,0,0,g,0,0,0
0,g,0,0,0,0,0,0,0,0,0,0,i,0,0,g
0,0,0,0,0,0,0,0,i,0,0,0,0,0,0,0
WAL i,p
EXT 5,0 3 5,15
PAL 0

ROOM 5
0,0,0,0,0,0,0,0,h,0,0,g,0,0,0,0
g,0,0,0,0,0,0,0,h,0,0,0,0,0,0,0
0,0,0,0,i,0,0,0,h,0,0,0,0,i,0,0
0,0,0,0,0,0,0,0,h,0,g,0,0,0,0,0
0,0,0,0,0,0,0,h,h,0,0,0,0,0,0,g
0,i,0,0,0,g,0,h,0,0,0,i,0,0,0,0
0,0,0,0,0,0,0,h,0,0,n,0,0,0,0,0
0,0,0,g,0,0,0,h,0,k,m,l,0,0,0,0
0,0,0,0,0,0,0,h,0,0,j,0,0,g,0,0
0,0,i,0,0,0,0,h,0,0,0,0,0,0,0,0
0,0,0,0,g,0,0,h,0,i,0,0,0,0,0,0
0,0,0,0,0,0,0,h,0,0,0,0,0,0,0,0
0,0,0,0,0,0,h,h,0,0,0,g,0,0,0,0
g,0,0,0,0,h,h,0,0,0,0,0,0,i,0,0
0,0,0,0,h,h,0,0,0,0,0,0,0,0,0,0
0,0,0,0,h,0,0,0,i,0,0,0,g,0,0,0
WAL j,k,l,m,i,p
EXT 4,15 3 4,0
EXT 8,0 7 8,15
PAL 0

ROOM 6
0,0,g,0,0,0,r,t,o,p,s,g,0,0,i,0
0,0,0,0,0,i,0,0,0,0,0,0,0,0,0,0
0,0,0,0,0,0,0,0,h,0,0,0,0,i,0,0
g,0,i,0,g,0,h,h,h,h,h,0,0,0,0,0
0,0,0,0,0,h,h,0,0,0,h,h,0,0,0,0
0,0,0,0,0,h,0,0,0,g,0,h,0,0,i,0
0,0,0,0,0,h,0,0,i,0,h,h,0,0,0,0
0,0,0,0,0,0,0,0,0,0,h,0,i,0,g,0
0,0,0,g,0,0,i,0,0,h,h,0,0,0,0,0
0,0,0,0,0,0,0,0,h,h,0,0,0,0,0,0
0,g,0,0,0,0,0,0,h,0,0,0,0,g,0,i
0,0,0,0,i,0,g,0,h,0,0,0,0,0,0,0
0,0,0,0,0,0,0,0,h,0,g,0,0,0,0,0
g,0,0,0,0,0,0,0,h,0,0,0,0,0,0,0
0,0,0,g,0,i,0,0,h,0,0,0,i,0,g,0
0,0,0,0,0,0,0,0,h,0,0,0,0,0,0,0
WAL i,q,p,m,t
EXT 8,15 7 8,0
EXT 8,0 8 7,11
PAL 0

ROOM 7
g,i,0,0,0,0,i,0,h,0,0,0,i,0,g,0
0,0,0,0,0,g,0,0,h,0,g,0,0,0,0,i
0,0,0,i,0,0,0,h,h,0,i,0,0,0,0,g
i,0,g,0,0,0,0,h,0,0,0,g,0,0,i,0
0,0,0,0,0,0,0,h,0,0,0,0,0,0,0,0
u,v,u,v,u,v,u,z,u,v,u,v,u,v,u,v
w,w,w,w,w,w,w,z,w,w,w,w,w,w,w,w
w,w,w,w,w,w,w,z,w,w,w,w,w,w,w,w
w,w,w,w,w,w,w,z,w,w,w,w,w,w,w,w
x,y,x,y,x,y,x,z,x,y,x,y,x,y,x,y
0,0,0,0,0,0,0,h,0,0,0,0,0,0,0,0
i,0,0,g,0,0,0,h,0,0,0,0,0,i,0,0
0,0,0,i,0,0,0,h,h,0,0,g,0,0,0,g
0,g,0,0,0,0,g,0,h,0,0,i,0,0,0,0
0,0,0,0,0,i,0,0,h,0,0,0,0,0,i,0
0,i,0,0,g,0,0,0,h,0,0,0,g,0,0,0
WAL v,u,x,y,w,i
EXT 8,15 5 8,0
EXT 8,0 6 8,15
PAL 0

ROOM 8
0,0,0,0,1a,0,0,0,0,0,18,0,0,1a,0,0
0,18,0,0,0,0,19,0,0,0,0,0,0,0,0,0
0,0,0,0,0,17,17,17,17,17,17,0,0,0,18,0
0,0,1a,0,16,0,1e,0,0,1e,0,15,1a,0,0,0
0,0,0,16,0,0,1b,0,0,0,0,0,15,0,0,0
0,0,12,0,0,1e,0,0,0,0,0,0,1e,14,1a,0
0,19,12,0,0,0,0,0,1e,0,0,0,0,14,0,0
0,0,12,0,1e,0,0,0,0,0,0,1e,0,14,0,18
0,0,12,0,0,0,0,1e,0,0,0,0,0,14,0,0
0,0,12,0,0,0,0,0,0,1e,0,0,0,14,0,0
0,0,0,11,0,1e,0,0,0,0,0,0,13,0,0,19
18,0,0,0,11,0,0,0,0,0,1e,13,0,0,0,0
0,0,1a,0,0,10,10,1c,10,10,10,0,1a,0,0,0
0,0,0,0,0,0,1a,1d,0,0,0,0,0,0,19,0
0,0,0,18,0,0,0,0,19,0,0,0,0,0,0,0
0,1a,0,0,0,0,0,0,0,0,0,18,0,0,0,0
WAL 10,11,12,13,14,15,16,17,1b,1d
EXT 7,12 6 8,1
EXT 7,3 9 7,3
PAL 1

ROOM 9
0,0,0,0,1a,0,0,0,0,0,18,0,0,1a,0,0
0,18,0,0,0,0,19,0,0,0,0,0,0,0,0,0
0,0,0,0,0,17,17,17,17,17,17,0,0,0,18,0
0,0,1a,0,16,0,1e,0,0,1e,0,15,1a,0,0,0
0,0,0,16,0,0,0,0,0,0,0,0,15,0,0,0
0,0,12,0,0,1e,0,0,0,0,0,0,1e,14,1a,0
0,19,12,0,0,0,0,0,1e,0,0,0,0,14,0,0
0,0,12,0,1e,0,0,0,0,0,0,1e,0,14,0,18
0,0,12,0,0,0,0,1e,0,0,0,0,0,14,0,0
0,0,12,0,0,0,0,0,0,1e,0,0,0,14,0,0
0,0,0,11,0,1e,0,0,0,0,0,0,13,0,0,19
18,0,0,0,11,0,0,0,0,0,1e,13,0,0,0,0
0,0,1a,0,0,10,10,1c,10,10,10,0,1a,0,0,0
0,0,0,0,0,0,1a,1d,0,0,0,0,0,0,19,0
0,0,0,18,0,0,0,0,19,0,0,0,0,0,0,0
0,1a,0,0,0,0,0,0,0,0,0,18,0,0,0,0
WAL 10,11,12,13,14,15,16,17,1b,1d
EXT 7,12 a 8,1
PAL 1

ROOM a
0,0,g,0,0,0,r,t,o,p,s,g,0,0,i,0
0,0,0,0,0,i,0,0,0,0,0,0,0,0,0,0
0,0,0,0,0,0,0,0,h,0,0,0,0,i,0,0
g,0,i,0,g,0,h,h,h,h,h,0,0,0,0,0
0,0,0,0,0,h,h,0,0,0,h,h,0,0,0,0
0,0,0,0,0,h,0,0,0,g,0,h,0,0,i,0
0,0,0,0,0,h,0,0,i,0,h,h,0,0,0,0
0,0,0,0,0,0,0,0,0,0,h,0,i,0,g,0
0,0,0,g,0,0,i,0,0,h,h,0,0,0,0,0
0,0,0,0,0,0,0,0,h,h,0,0,0,0,0,0
0,g,0,0,0,0,0,0,h,0,0,0,0,g,0,i
0,0,0,0,i,0,g,0,h,0,0,0,0,0,0,0
0,0,0,0,0,0,0,0,h,0,g,0,0,0,0,0
g,0,0,0,0,0,0,0,h,0,0,0,0,0,0,0
0,0,0,g,0,i,0,0,h,0,0,0,i,0,g,0
0,0,0,0,0,0,0,0,h,0,0,0,0,0,0,0
WAL i,q,p,m,t
EXT 8,0 9 7,11
EXT 8,15 b 8,0
PAL 0

ROOM b
g,i,0,0,0,0,i,0,h,0,0,0,i,0,g,0
0,0,0,0,0,g,0,0,h,0,g,0,0,0,0,i
0,0,0,i,0,0,0,h,h,0,i,0,0,0,0,g
i,0,g,0,0,0,0,h,0,0,0,g,0,0,i,0
0,0,0,0,0,0,0,h,0,0,0,0,e,0,0,0
u,v,u,v,u,v,u,1f,u,v,u,v,u,v,u,v
w,w,w,w,w,w,w,w,w,w,w,w,w,w,w,w
w,w,w,w,w,w,w,w,w,w,w,w,w,w,w,w
w,w,w,w,w,w,w,w,w,w,w,w,w,w,w,w
x,y,x,y,x,y,x,y,x,y,x,y,x,y,x,y
0,0,0,0,0,0,0,h,0,0,0,0,0,0,0,0
i,0,0,g,0,0,0,h,0,0,0,0,0,i,0,00,
0,0,0,i,0,0,0,h,h,0,0,g,0,0,0,g
0,g,0,0,0,0,g,0,h,0,0,i,0,0,0,0
0,0,0,0,0,i,0,0,h,0,0,0,0,0,i,0
0,i,0,0,g,0,0,0,h,0,0,0,g,0,0,0
WAL v,u,x,y,w,1f,i
EXT 8,0 a 8,15
EXT 12,4 c 10,3
PAL 0

ROOM c
0,0,0,0,h,0,0,0,0,0,0,0,0,0,0,0
0,0,0,0,h,0,g,0,i,0,0,g,0,0,0,g
0,0,g,0,h,0,0,0,0,0,0,0,0,0,i,0
0,0,0,0,h,0,0,0,0,0,e,0,g,0,0,0
0,0,0,0,h,g,0,i,0,0,0,i,0,0,0,0
i,0,0,0,h,0,0,0,g,0,0,0,0,0,g,0
0,0,0,g,h,0,0,0,0,0,0,0,0,0,0,0
0,0,i,0,h,0,0,0,0,0,i,0,g,0,0,0
0,0,0,0,h,h,0,0,0,e,0,0,0,0,0,i
0,0,g,0,0,h,0,0,0,0,0,0,i,0,0,0
0,i,0,0,0,h,0,0,0,g,0,0,0,0,g,0
0,0,0,0,0,h,0,0,0,0,0,0,0,i,0,0
0,g,0,0,0,h,g,0,0,i,0,0,g,0,0,0
0,0,0,i,0,h,0,0,0,0,0,0,0,0,0,0
0,0,0,0,g,h,0,0,0,0,0,i,0,0,0,0
0,0,i,0,0,h,0,0,0,0,g,0,0,0,0,i
WAL i,p
EXT 9,8 d 10,6
PAL 0

ROOM d
0,0,g,0,0,0,0,0,h,0,i,0,0,0,0,g
0,0,0,0,0,i,g,0,h,0,0,0,g,0,0,0
0,i,0,g,0,0,0,0,h,0,0,0,i,0,0,0
0,0,0,0,g,0,0,0,h,0,0,g,0,0,0,i
g,0,0,0,0,0,0,h,h,0,0,0,0,g,0,0
0,0,0,i,0,g,0,h,0,0,0,0,0,0,0,0
h,h,h,0,0,0,0,h,0,0,e,0,0,0,g,0
0,0,h,h,h,h,0,h,0,0,0,0,0,0,0,0
0,0,0,0,0,h,h,h,h,h,h,0,0,h,h,h
g,i,0,0,0,0,h,0,g,0,h,h,h,h,0,0
0,0,0,g,0,0,h,0,0,0,0,0,g,0,0,0
0,g,0,0,0,h,h,0,0,i,0,0,0,0,i,g
0,0,0,0,i,h,0,0,0,0,g,0,0,0,0,0
0,0,g,0,0,h,h,h,0,0,0,0,0,0,0,0
0,0,i,0,0,0,0,h,h,0,0,0,0,i,g,0
0,0,0,0,g,0,0,0,h,0,0,g,0,0,0,0
END undefined 0,6
END 0 8,0
END undefinee 8,15
END undefinef 15,8
PAL 0

TIL 10
11111111
00000000
00000000
00000000
00000000
00000000
00000000
00000000

TIL 11
11111110
00000001
00000001
00000001
00000001
00000001
00000001
00000001

TIL 12
00000001
00000001
00000001
00000001
00000001
00000001
00000001
00000001

TIL 13
01111111
10000000
10000000
10000000
10000000
10000000
10000000
10000000

TIL 14
10000000
10000000
10000000
10000000
10000000
10000000
10000000
10000000

TIL 15
10000000
10000000
10000000
10000000
10000000
10000000
10000000
01111111

TIL 16
00000001
00000001
00000001
00000001
00000001
00000001
00000001
11111110

TIL 17
00000000
00000000
00000000
00000000
00000000
00000000
00000000
11111111

TIL 18
00000000
00001110
01100000
00000000
00001100
00000000
01110000
00000000

TIL 19
00000000
01100000
00001100
00000000
00110000
00000000
00001110
00000000

TIL a
11111111
10000111
11100001
11111111
10000001
10001111
11100001
11111111

TIL b
00000000
00000000
00000000
00000000
00000000
00000000
01000111
11111001
>
00000000
00000000
00000000
00000000
01000000
11110000
00001111
00000001

TIL c
00000000
00000000
00000000
00000000
00000010
00001111
11110000
10000000
>
00000000
00000000
00000000
00000000
00000000
00000000
11100010
10011111

TIL d
11111111
10000111
11100001
11111111
10000001
10000111
11110001
11111111

TIL e
00000000
00000000
00111100
01000010
01011010
01000010
01000010
00111100

TIL f
00000000
00000000
00000000
00111111
01111110
11111110
01001010
01001000

TIL g
00000000
00000000
00000100
00001010
00100000
01010000
00000000
00000000

TIL h
00000000
00001100
00000000
01100000
00000110
00000000
00110000
00000000

TIL i
00000000
00111100
01111010
01110110
00111100
00011000
00011000
00111100

TIL j
11111111
00111100
00111100
00111100
00111100
00111100
00111100
01111110

TIL k
01111111
11111111
11111111
11111111
11111111
11111111
11111111
01111111

TIL l
11111110
11111111
11111111
11111111
11111111
11111111
11111111
11111110

TIL m
11111111
11111111
11111111
11111111
11111111
11111111
11111111
11111111

TIL n
00000000
00000000
00000000
00000000
00000000
00000000
00000000
11111111

TIL o
11111111
11011111
10001001
10000001
10000001
10000001
11000011
11111111

TIL p
11111111
11111111
11111111
11111111
11111111
11111110
11111000
10000000

TIL r
00000001
00000001
00000001
00000000
00000000
00000000
00000000
00000000

TIL s
10000000
10000000
10000000
00000000
00000000
00000000
00000000
00000000

TIL t
11111111
11111111
11111111
11111111
11111111
01111111
00011111
00000001

TIL u
00001111
11111010
10101010
10101010
10001010
10101010
10101000
10101010

TIL v
11111000
10101111
10101010
10101010
10001010
10101010
10101000
10101010

TIL w
10101010
10101010
10101010
10101010
10001010
10101010
10101000
10101010

TIL x
10101010
10101010
10101010
10101010
10001010
10101010
10111111
11110000

TIL y
10101010
10101010
10101010
10101010
10001010
10101010
11111010
00001111

TIL z
10000000
10110111
10000000
11101110
10000000
10111011
10000000
11101110

TIL 1a
00000000
00011000
00000000
00001110
01100000
00000000
00111000
00000000

TIL 1b
00000000
00000000
00000000
00000000
00000000
00000000
00000000
00000000
>
00000000
00111100
00011111
01111111
00111110
01111000
00000000
00000000

TIL 1c
10111101
10111101
10111101
10111101
10111101
10111101
10000001
01111110

TIL 1d
00000000
00000000
00000000
00000000
00000000
00000000
00000000
00000000

TIL 1e
00000000
00000000
00001110
00000000
00000000
00000000
01110000
00000000

TIL 1f
10000000
10110111
10000000
11101110
10000000
10111011
11010101
10101010

SPR 10
00110000
01001000
10101000
01001000
01000100
00110100
00011110
00110011
>
00110000
01001011
10101111
01001011
01000110
00110100
00011110
00110011
POS b 11,4

SPR 11
00011000
11111111
10000001
10101101
10000001
11111111
00011000
00011000
POS a 9,1

SPR 12
00000001
00000010
01010001
01110010
01111100
00111100
00100100
00100100
>
00000001
01010010
01110001
01110010
00111100
00111100
00100100
00100100
POS c 8,8

SPR 13
00011000
00011000
00111100
11111111
00111100
00111100
00100100
00100100
>
00000000
00011000
00011000
00111100
11111111
00111100
00111100
00100100
POS c 5,15

SPR 14
00011000
00011000
00111100
11111111
00111100
00111100
00100100
00100100
>
00000000
00011000
00011000
00111100
11111111
00111100
00111100
00100100
POS c 4,0

SPR 15
00110000
01001000
10101000
01001000
01000100
00110100
00011110
00110011
>
00110000
01001011
10101111
01001011
01000110
00110100
00011110
00110011
POS c 10,2

SPR 16
00000001
00000010
01010001
01110010
01111100
00111100
00100100
00100100
>
00000001
01010010
01110001
01110010
00111100
00111100
00100100
00100100
POS d 9,6

SPR 17
00011000
11111111
10000001
10101101
10000001
11111111
00011000
00011000
POS d 7,11

SPR 18
00011000
11111111
10000001
10101101
10000001
11111111
00011000
00011000
POS d 13,7

SPR 19
00011000
11111111
10000001
10101101
10000001
11111111
00011000
00011000
POS d 7,3

SPR A
00000000
00000000
00111100
01000010
10100101
10000001
01000010
00111100
>
00000000
00000000
00000000
00111100
01000010
10100101
10000001
01111110
POS 0 6,7

SPR a
00000001
00000010
01010001
01110010
01111100
00111100
00100100
00100100
>
00000001
01010010
01110001
01110010
00111100
00111100
00100100
00100100
POS 0 10,9

SPR b
00000000
00000000
00000110
00000110
00001111
00001111
00001001
00001001
>
00000000
00000000
01100110
01100110
00011111
00001111
00001001
00001001
POS 0 12,2

SPR c
00000000
10010000
01100110
01100110
11111000
11110000
10010000
10010000
>
00000000
10010000
01100000
01100000
11110000
11110000
10010000
10010000
POS 0 11,2

SPR d
11111111
11000011
10000001
10100001
10100001
10000001
10000001
11111111
POS 0 6,5

SPR e
11111111
10000001
10010001
10100001
10000101
10001001
10000001
11111111
POS 0 10,5

SPR f
00000001
00000010
01010001
01110010
01111100
00111100
00100100
00100100
>
00000001
01010010
01110001
01110010
00111100
00111100
00100100
00100100
POS 2 8,6

SPR g
00000001
00000010
01010001
01110010
01111100
00111100
00100100
00100100
>
00000001
01010010
01110001
01110010
00111100
00111100
00100100
00100100
POS 3 8,8

SPR h
00011000
11111111
10000001
10101101
10000001
11111111
00011000
00011000
POS 3 5,1

SPR i
00011000
11111111
10000001
10101101
10000001
11111111
00011000
00011000
POS 3 6,14

SPR j
01111110
10000010
10110110
10110110
10000110
10110110
10000010
11111110
POS 4 8,7

SPR k
01111110
10000010
10110110
10110110
10110010
10110010
10000010
11111110
POS 4 9,7

SPR l
00000000
00000000
11111110
10000010
10011010
10011010
01000100
01111100
POS 4 10,7

SPR m
00000000
00000000
11111110
10000010
10011010
10011010
01000100
01111100
POS 4 11,7

SPR n
01110010
01010001
00000010
00000000
00000000
00000000
00000000
00000000
>
01010010
00000001
00000010
00000000
00000000
00000000
00000000
00000000
POS 5 9,8

SPR o
00011000
11111111
10000001
10101101
10000001
11111111
00011000
00011000
POS 6 9,1

SPR p
00011000
11111111
10000001
10101101
10000001
11111111
00011000
00011000
POS 7 8,11

SPR q
00011000
11111111
10000001
10101101
10000001
11111111
00011000
00011000
POS 7 6,3

SPR r
00011100
11110100
11111101
11111111
00001111
00001111
00011100
00111000
>
00011100
11110100
00011101
00011111
11111111
00001111
00011100
00111000
POS 8 7,4

SPR s
11110011
11000110
10001110
11111100
11110000
11111000
00011000
01111000
>
11110000
11000000
10001100
11111111
11110001
11111000
00011000
01111000
POS 8 8,4

SPR t
00100100
00100100
11111111
10000001
10101101
10000001
11111111
00000000
POS 8 11,4

SPR u
00100100
00100100
11111111
10000001
10101101
10000001
11111111
00000000
POS 9 11,4

SPR v
00011100
11110100
10111101
00010111
00000110
00001100
00011000
00110000
>
00011100
11110100
10111101
00010111
00000110
00001100
00011000
00110000
POS 9 7,4

SPR w
01110010
10000100
00001000
11110000
10100000
10011000
00001000
01110000
>
01110010
10000100
00001000
11110000
10100000
10011000
00001000
01110000
POS 9 8,4

SPR x
00011000
11111111
10000001
10101101
10000001
11111111
00011000
00011000
POS b 6,3

SPR y
00011000
11111111
10000001
10101101
10000001
11111111
00011000
00011000
POS b 8,4

SPR z
00011000
11111111
10000001
10101101
10000001
11111111
00011000
00011000
POS b 8,11

SPR 1a
00011000
11111111
10000001
10101101
10000001
11111111
00011000
00011000
POS d 3,8

DLG 10
"Kaw Kaw I'll take you over this cliff, get in the bag. Kaw Kaw"

DLG 11
Evil dragon cave, really scary!

DLG 12
"You ate it? hardcore, get back in the bag."

DLG 13
"HALT, THIS PASS HAS BEEN CLOSED OFF FOR HUMANE REASONS!"

DLG 14
"Pass? on no, the bridge is gone and there isn't any other reason to go this way.

DLG 15
"Kaw Kaw I went farther than I thought. Kaw Kaw"

DLG 16
"Looks like you have a decision to make."

DLG 17
Go back home.

DLG 18
Go on sweet adventures with Hirea the cat.

DLG 19
Go with the bird and fly to france.

DLG a
"Get in the bag, we're going on an adventure."

DLG c
"Ball is fun!"

DLG b
"fun is Ball!"

DLG d
The door is locked.                                              There seems to be no escape.

DLG e
You can see children playing with a Ball from here

DLG f
"Get back to the house, there isn't any adventure here!"

DLG g
"Go kill the evil dragon up north."

DLG h
North, also an evil dragon

DLG i
Not North, also suffering, like don't go.

DLG l
It's a trash bin full of cans.

DLG m
It's a can bin full of trash.

DLG k
It's a vending machine.                                           You buy a snack and it gets stuck.

DLG j
It's a soda machine.                                            You buy a soda, it's warm and really flat but you end up drinking the whole thing.

DLG n
"I'm not watching you."

DLG o
Evil dragon cave, really scary!

DLG p
This bridge can get you safely over the chasm...              Wait maybe it's a ladder against a cliff.

DLG q
It's totally a cliff.

DLG r
"Rawr I'm a dragon! I'm going to eat you!"                        The only obviously option is to eat it first!

DLG s
"Rawr I'm a dragon! I'm going to eat you!"                        The only obviously option is to eat it first!

DLG t
Fun fact: Dragons are weakest on the top.

DLG u
Fun fact: Dragons are weakest on the top.

DLG w
Dragon bones.

DLG v
Dragon bones.

DLG x
I was wrong on this one.

DLG y
Waring! the bridge has collapsed!

DLG z
I'M JUST A POOR SIGN, NO BODY LOVES ME.                           IT'S JUST JUST A POOR SIGN, FROM A POOR SIGN FAMILY. but really how did you get to this sign?

DLG 1a
Eat a tree. Do it.

END 0
You go to france with the bird, looked at the Eiffel tower and a baget.                                                          [FRENCH ENDING]

END undefined
You ate a tree, that's it.                                                  [OKAY ENDING, I GUESS]

END undefinee
You went home to your parents, then you realised you don't have any, now your lost.                                               [BAD ENDING]

END undefinef
You go on sweet adventures with the cat.                        [TRUE ENDING]

