
zigton

# BITSY VERSION 4.6

! ROOM_FORMAT 1

PAL 0
15,59,20
26,20,255
162,171,42

ROOM 0
0,0,0,0,0,0,0,0,0,0,0,0,0,0,0,0
0,a,0,a,a,0,b,a,0,a,a,0,a,0,0,0
0,a,0,0,0,0,0,0,0,0,0,0,a,0,a,0
0,a,b,0,0,0,a,a,0,0,0,a,0,0,0,0
0,a,0,0,0,0,0,a,0,0,a,0,0,0,b,0
0,a,0,a,a,0,0,0,0,a,0,0,0,0,0,0
0,a,0,0,a,0,0,0,0,0,a,0,0,a,0,0
0,a,0,a,0,0,0,0,a,a,0,0,0,a,0,0
0,a,0,0,a,a,0,0,a,0,0,0,0,a,0,0
0,a,0,0,0,a,0,0,0,0,0,0,0,0,a,0
0,a,0,0,0,b,0,0,0,0,0,0,0,0,0,0
0,a,b,0,0,b,a,a,0,0,a,a,0,0,a,0
0,a,0,0,0,0,0,a,a,0,0,0,0,0,0,0
0,a,0,0,0,0,0,0,0,0,0,0,0,0,a,0
0,a,a,a,a,a,0,a,a,b,a,0,a,a,0,0
0,0,0,0,0,0,0,0,0,0,0,0,0,0,0,0
ITM 0 4,12
ITM 0 10,12
ITM 1 2,7
ITM 1 7,2
ITM 1 12,7
ITM 0 3,5
PAL 0

TIL a
10111111
00011101
10111000
11101101
11000111
11101101
11111000
11111101

TIL b
11111011
10111110
11111111
11010111
11111111
01111101
11101110
11111111

SPR A
00011000
00011000
00011000
00111100
11111111
00111100
00100100
01100110
POS 0 11,2

SPR a
00000000
00000000
01010001
01110001
01110010
01111100
00111100
00100100
NAME Ziggy
DLG SPR_0
POS 0 9,9

SPR b
00000000
00011000
00011000
00111100
11111111
00111100
00111100
00101000
NAME Amir
DLG SPR_1
POS 0 4,9

SPR c
00111100
00111100
00011000
11111111
00011000
00011000
00100100
00100100
NAME Zara
DLG SPR_2
POS 0 8,4

SPR d
00000000
00111100
01011010
01111110
01000010
00111100
00111100
00000000
NAME Zain
DLG SPR_3
POS 0 7,9

SPR e
11111111
00011000
00011000
00111110
11111111
00111110
00010100
00010100
NAME Tamsin
DLG SPR_4
POS 0 12,4

ITM 0
00000000
00010000
00111000
00111000
01111100
01111100
00111000
00010000
NAME diamond
DLG ITM_0

ITM 1
00000000
01111110
01111110
00111100
00011000
00000000
00000000
00000000
NAME pizza
DLG ITM_1

ITM 2
00000000
00000000
00000000
00000000
00000000
00000000
00000000
00000000

DLG SPR_0
{clr3}{shk}my name is Ziggy! I like playing with Pip in the garden!{shk}{clr3}

DLG SPR_1
{rbw}Oh hello!My name is Amir. I like playing football. What sport do you like?{rbw}

DLG SPR_2
{rbw}Hello! My name is fantastic Zara.{rbw}

DLG ITM_0
Wow! You found a diamond.

DLG ITM_1
Yum! 

DLG SPR_3
{wvy}{clr1}Hi,I am Zain. I have a sister called Zara!{clr1}{wvy}

DLG SPR_4
{rbw}Hi, I'm Tamsin and I live in Australia{rbw}

VAR a
42


