Lydia's Visit - I can't wait to see my cousin Lydia, but I need to get everything ready before she arrives and set up a few surprises for her!

# BITSY VERSION 5.1

! ROOM_FORMAT 1

PAL 0
NAME PurpleRoom
34,32,52
118,66,138
215,123,186

PAL 1
NAME Default
34,32,52
105,106,106
155,173,183

PAL 2
NAME GreenRoom
34,32,52
75,105,47
106,190,48

PAL 3
NAME YellowRoom
34,32,52
217,160,102
251,242,54

PAL 4
NAME BlueRoom
34,32,52
48,96,130
95,205,228

PAL 5
NAME PinkRoom
34,32,52
212,80,105
215,123,186

PAL 6
NAME FrontBath
34,32,52
63,63,116
91,110,225

PAL 7
NAME OrangeRoom
34,32,52
143,86,59
223,113,38

ROOM 0
0,0,0,0,0,0,0,0,0,0,0,0,0,0,0,0
0,0,0,0,0,0,0,0,0,0,0,0,0,0,0,0
0,0,0,0,0,0,0,0,0,0,0,0,0,0,0,0
0,0,0,0,b,a,c,d,e,0,0,0,0,0,0,0
0,0,0,0,j,g,h,i,f,m,n,l,e,0,0,0
0,0,0,0,k,0,0,0,0,0,0,q,j,0,0,0
0,0,0,0,j,s,0,0,0,0,0,r,j,0,0,0
0,0,0,0,j,t,0,0,0,0,0,0,j,0,0,0
0,0,0,0,j,0,0,y,z,0,a,0,j,0,0,0
0,0,0,0,j,0,0,w,x,0,0,0,j,0,0,0
0,0,0,0,j,0,10,v,u,11,0,0,j,0,0,0
0,0,0,0,f,p,l,l,l,l,l,l,o,0,0,0
0,0,0,0,0,0,0,0,0,0,0,0,0,0,0,0
0,0,0,0,0,0,0,0,0,0,0,0,0,0,0,0
0,0,0,0,0,0,0,0,0,0,0,0,0,0,0,0
0,0,0,0,0,0,0,0,0,0,0,0,0,0,0,0
NAME PurpleRoom
ITM 0 8,5
EXT 5,12 1 4,3
PAL 0

ROOM 1
0,0,0,0,0,0,0,0,0,0,0,0,0,0,0,0
0,0,0,0,0,0,0,0,0,0,0,0,0,0,0,0
0,0,b,l,p,l,l,l,l,l,l,l,l,p,e,0
0,0,p,0,0,0,0,0,0,0,0,0,0,0,k,0
0,0,j,0,0,0,0,1i,1j,1j,1j,1j,b,p,o,0
0,0,j,0,0,0,0,1h,12,17,0,1c,j,0,0,0
0,0,j,0,0,0,0,1h,12,17,1d,16,j,0,0,0
0,0,p,0,0,0,0,1g,1f,1e,1a,1b,j,0,0,0
0,0,j,0,0,0,15,16,12,17,18,0,j,0,0,0
0,0,j,13,0,0,14,16,12,17,0,19,j,0,0,0
0,0,j,0,0,0,0,b,l,l,m,n,o,0,0,0
0,0,p,0,0,0,0,j,0,0,0,0,0,0,0,0
0,0,f,l,p,l,l,o,0,0,0,0,0,0,0,0
0,0,0,0,0,0,0,0,0,0,0,0,0,0,0,0
0,0,0,0,0,0,0,0,0,0,0,0,0,0,0,0
0,0,0,0,0,0,0,0,0,0,0,0,0,0,0,0
NAME UpperHall
EXT 4,1 0 5,10
EXT 13,1 2 5,10
EXT 13,5 3 5,6
EXT 4,13 4 5,4
EXT 1,11 5 11,3
EXT 1,7 6 11,7
EXT 1,3 7 11,11
EXT 7,8 8 8,8
EXT 7,9 8 8,9
PAL 1

ROOM 2
0,0,0,0,0,0,0,0,0,0,0,0,0,0,0,0
0,0,0,0,0,0,0,0,0,0,0,0,0,0,0,0
0,0,0,0,0,0,0,0,0,0,0,0,0,0,0,0
0,0,0,0,0,0,0,0,0,0,0,0,0,0,0,0
0,0,0,0,b,l,l,l,m,n,l,l,e,0,0,0
0,0,0,0,j,1m,1n,1o,11,0,1x,1y,j,0,0,0
0,0,0,0,j,1p,1q,1r,0,0,0,0,j,0,0,0
0,0,0,0,j,1s,0,1t,0,0,0,0,1k,0,0,0
0,0,0,0,j,1u,1v,1w,0,0,0,0,1l,0,0,0
0,0,0,0,j,0,0,0,0,1z,21,22,j,0,0,0
0,0,0,0,j,0,0,0,20,b,l,l,o,0,0,0
0,0,0,0,f,p,l,l,l,o,0,0,0,0,0,0
0,0,0,0,0,0,0,0,0,0,0,0,0,0,0,0
0,0,0,0,0,0,0,0,0,0,0,0,0,0,0,0
0,0,0,0,0,0,0,0,0,0,0,0,0,0,0,0
0,0,0,0,0,0,0,0,0,0,0,0,0,0,0,0
NAME GreenRoom
ITM 0 9,7
EXT 5,12 1 13,3
PAL 2

ROOM 3
0,0,0,0,0,0,0,0,0,0,0,0,0,0,0,0
0,0,0,0,0,0,0,0,0,0,0,0,0,0,0,0
0,0,0,0,0,0,0,0,0,0,0,0,0,0,0,0
0,0,0,0,0,0,0,0,0,0,0,0,0,0,0,0
0,0,0,0,0,0,0,0,0,0,0,0,0,0,0,0
0,0,0,0,b,p,l,l,l,l,l,l,e,0,0,0
0,0,0,0,j,0,0,2g,2f,2e,2d,2c,j,0,0,0
0,0,0,0,j,1z,0,0,0,0,0,0,0,0,0,0
0,0,0,0,j,23,27,29,z,0,0,0,0,0,0,0
0,0,0,0,j,24,1x,0,1t,0,0,1q,j,0,0,0
0,0,0,0,j,25,26,28,2b,0,20,1x,j,0,0,0
0,0,0,0,f,l,l,l,l,m,n,l,o,0,0,0
0,0,0,0,0,0,0,0,0,0,0,0,0,0,0,0
0,0,0,0,0,0,0,0,0,0,0,0,0,0,0,0
0,0,0,0,0,0,0,0,0,0,0,0,0,0,0,0
0,0,0,0,0,0,0,0,0,0,0,0,0,0,0,0
NAME YellowRoom
EXT 5,4 1 13,3
PAL 3

ROOM 4
0,0,0,0,0,0,0,0,0,0,0,0,0,0,0,0
0,0,0,0,0,0,0,0,0,0,0,0,0,0,0,0
0,0,0,0,0,0,0,0,0,0,0,0,0,0,0,0
0,0,0,0,b,p,l,l,l,k,e,0,0,0,0,0
0,0,0,0,j,0,0,2g,2f,0,j,0,0,0,0,0
0,0,0,0,j,1z,0,0,0,0,j,0,0,0,0,0
0,0,0,0,j,0,0,0,0,2i,j,0,0,0,0,0
0,0,0,0,j,0,0,0,0,2h,j,0,0,0,0,0
0,0,0,0,j,11,0,0,0,0,j,0,0,0,0,0
0,0,0,0,j,23,27,z,0,0,1k,0,0,0,0,0
0,0,0,0,j,25,26,2b,0,0,1l,0,0,0,0,0
0,0,0,0,j,2j,2k,0,0,20,j,0,0,0,0,0
0,0,0,0,f,l,l,m,n,l,o,0,0,0,0,0
0,0,0,0,0,0,0,0,0,0,0,0,0,0,0,0
0,0,0,0,0,0,0,0,0,0,0,0,0,0,0,0
0,0,0,0,0,0,0,0,0,0,0,0,0,0,0,0
NAME BlueRoom
EXT 5,2 1 4,11
PAL 4

ROOM 5
0,0,0,0,0,0,0,0,0,0,0,0,0,0,0,0
0,0,0,0,0,0,0,0,0,0,0,0,0,0,0,0
0,0,0,b,p,l,l,l,l,l,l,l,e,0,0,0
0,0,0,j,0,0,2c,2e,2d,0,0,0,p,0,0,0
0,0,0,2l,0,0,0,0,0,0,0,11,j,0,0,0
0,0,0,2m,0,0,0,0,y,29,2y,2z,j,0,0,0
0,0,0,j,2n,0,0,0,1s,0,2x,30,j,0,0,0
0,0,0,j,2p,0,0,0,2a,28,2w,31,j,0,0,0
0,0,0,j,2o,0,0,0,0,0,0,11,j,0,0,0
0,0,0,j,2n,0,0,0,0,0,0,0,j,0,0,0
0,0,0,2l,0,0,0,0,0,0,0,0,k,0,0,0
0,0,0,2m,0,0,0,0,0,0,0,2t,j,0,0,0
0,0,0,j,2u,2v,0,0,2q,2r,0,2s,j,0,0,0
0,0,0,f,l,l,0,0,l,l,l,l,o,0,0,0
0,0,0,0,0,0,0,0,0,0,0,0,0,0,0,0
0,0,0,0,0,0,0,0,0,0,0,0,0,0,0,0
NAME PinkRoom
ITM 0 8,9
EXT 13,3 1 3,11
EXT 4,1 6 4,8
PAL 5

ROOM 6
0,0,0,0,0,0,0,0,0,0,0,0,0,0,0,0
0,0,0,0,0,0,0,0,0,0,0,0,0,0,0,0
0,0,0,0,0,0,0,0,0,0,0,0,0,0,0,0
0,0,0,0,0,0,0,0,0,0,0,0,0,0,0,0
0,0,0,0,0,0,0,0,0,0,0,0,0,0,0,0
0,0,0,b,l,k,l,l,l,l,l,l,e,0,0,0
0,0,0,33,3d,0,38,0,37,36,35,1z,j,0,0,0
0,0,0,34,3c,0,0,0,0,0,0,0,p,0,0,0
0,0,0,32,0,0,0,3b,3a,39,0,0,j,0,0,0
0,0,0,f,p,l,l,l,l,l,l,l,o,0,0,0
0,0,0,0,0,0,0,0,0,0,0,0,0,0,0,0
0,0,0,0,0,0,0,0,0,0,0,0,0,0,0,0
0,0,0,0,0,0,0,0,0,0,0,0,0,0,0,0
0,0,0,0,0,0,0,0,0,0,0,0,0,0,0,0
0,0,0,0,0,0,0,0,0,0,0,0,0,0,0,0
0,0,0,0,0,0,0,0,0,0,0,0,0,0,0,0
NAME FrontBath
EXT 13,7 1 3,7
EXT 4,10 5 4,3
PAL 6

ROOM 7
0,0,0,0,0,0,0,0,0,0,0,0,0,0,0,0
0,0,0,0,0,0,0,0,0,0,0,0,0,0,0,0
0,0,0,0,0,0,0,0,b,m,n,e,0,0,0,0
0,0,0,b,l,l,l,l,o,3e,h,j,0,0,0,0
0,0,0,j,1z,1m,1n,1o,1z,0,2t,j,0,0,0,0
0,0,0,2l,0,1p,1q,1r,0,0,2s,j,0,0,0,0
0,0,0,2m,0,1s,0,1t,0,0,0,j,0,0,0,0
0,0,0,j,3g,1u,1v,1w,0,0,0,k,0,0,0,0
0,0,0,j,3f,0,0,0,0,0,0,f,e,0,0,0
0,0,0,0,0,0,0,0,0,0,0,0,j,0,0,0
0,0,0,0,0,0,0,0,0,0,0,0,j,0,0,0
0,0,0,j,11,20,0,0,3i,3h,0,0,p,0,0,0
0,0,0,f,l,k,l,l,l,l,l,l,o,0,0,0
0,0,0,0,0,0,0,0,0,0,0,0,0,0,0,0
0,0,0,0,0,0,0,0,0,0,0,0,0,0,0,0
0,0,0,0,0,0,0,0,0,0,0,0,0,0,0,0
NAME OrangeRoom
EXT 13,11 1 3,3
PAL 7

ROOM 8
0,0,0,0,0,0,0,0,0,0,0,0,0,0,0,0
0,0,0,0,0,0,0,0,0,0,0,0,0,0,0,0
0,0,0,0,0,0,0,0,0,0,0,0,0,0,0,0
0,0,0,0,0,0,0,0,0,0,0,0,0,0,0,0
0,0,0,0,0,0,0,0,0,0,0,0,0,3q,0,0
0,0,3p,l,l,3j,0,0,0,0,3k,l,l,o,0,0
0,0,0,0,0,0,0,0,0,0,0,0,0,0,0,0
0,0,0,0,0,0,0,3m,3n,a6,3o,l,k,e,0,0
0,0,0,0,0,0,0,3l,1h,12,17,18,0,j,0,0
0,0,0,0,0,0,0,3l,1h,12,17,0,19,j,0,0
0,0,0,0,0,3k,l,l,l,l,l,m,n,o,0,0
0,0,0,0,0,0,0,0,0,0,0,0,0,0,0,0
0,0,0,0,0,0,0,0,0,0,0,0,0,0,0,0
0,0,0,0,0,0,0,0,0,0,0,0,0,0,0,0
0,0,0,0,0,0,0,0,0,0,0,0,0,0,0,0
0,0,0,0,0,0,0,0,0,0,0,0,0,0,0,0
NAME LowerStairs
ITM 4 9,7
ITM 7 12,7
EXT 3,10 9 11,10
EXT 3,9 9 11,9
EXT 3,8 9 11,8
EXT 3,7 9 11,7
EXT 3,6 9 11,6
EXT 11,8 1 10,8
EXT 11,9 1 10,9
EXT 6,4 b 5,12
EXT 7,4 b 6,12
EXT 8,4 b 7,12
EXT 9,4 b 8,12
EXT 14,6 d 7,8
EXT 4,11 h 7,3
EXT 3,11 h 6,3
PAL 1

ROOM 9
0,0,0,0,0,0,0,0,0,0,0,0,0,0,0,0
0,0,0,0,0,0,0,0,0,0,0,0,0,0,0,0
0,0,0,0,0,0,0,0,0,0,0,0,0,0,0,0
0,0,0,0,0,0,0,0,0,0,0,0,0,0,0,0
0,0,0,0,0,0,0,0,0,0,0,0,0,0,0,0
0,0,b,l,l,l,l,l,l,p,l,l,l,3j,0,0
0,0,3s,40,3z,3y,3x,3w,3v,0,0,0,0,0,0,0
0,0,3u,0,0,0,0,0,0,0,0,0,0,0,0,0
0,0,3t,0,0,0,0,0,0,0,0,0,0,0,0,0
0,0,3s,41,42,43,20,0,0,0,0,0,0,0,0,0
0,0,f,l,l,l,3j,0,0,0,0,0,0,3r,0,0
0,0,0,0,0,0,0,0,0,0,0,0,0,0,0,0
0,0,0,0,0,0,0,0,0,0,0,0,0,0,0,0
0,0,0,0,0,0,0,0,0,0,0,0,0,0,0,0
0,0,0,0,0,0,0,0,0,0,0,0,0,0,0,0
0,0,0,0,0,0,0,0,0,0,0,0,0,0,0,0
NAME Foyer
EXT 12,9 8 4,9
EXT 12,8 8 4,8
EXT 12,7 8 4,7
EXT 12,6 8 4,6
EXT 9,4 a 10,11
EXT 7,11 g 7,3
EXT 8,11 g 8,3
EXT 9,11 g 9,3
EXT 10,11 g 10,3
EXT 11,11 g 11,3
EXT 12,11 g 12,3
EXT 1,7 k 12,5
EXT 1,8 k 12,6
PAL 1

ROOM a
0,0,0,0,0,0,0,0,0,0,0,0,0,0,0,0
0,0,0,0,0,0,0,0,0,0,0,0,0,0,0,0
0,0,0,0,0,0,0,0,b,a,c,d,e,0,0,0
0,0,0,b,l,l,l,l,o,0,47,0,j,0,0,0
0,0,0,j,44,45,46,4a,4b,0,0,a7,j,0,0,0
0,0,0,2l,0,2c,0,4c,4d,0,0,b,o,0,0,0
0,0,0,2m,0,0,0,0,0,0,2t,j,0,0,0,0
0,0,0,j,0,0,0,0,0,0,4e,j,0,0,0,0
0,0,0,j,0,0,0,0,0,0,4e,j,0,0,0,0
0,0,0,2l,0,0,0,0,0,0,2s,j,0,0,0,0
0,0,0,2m,0,0,0,0,0,0,0,j,0,0,0,0
0,0,0,j,44,20,48,49,20,0,0,k,0,0,0,0
0,0,0,f,l,l,l,l,l,l,p,o,0,0,0,0
0,0,0,0,0,0,0,0,0,0,0,0,0,0,0,0
0,0,0,0,0,0,0,0,0,0,0,0,0,0,0,0
0,0,0,0,0,0,0,0,0,0,0,0,0,0,0,0
NAME Study
ITM 5 11,4
EXT 10,13 9 9,6
PAL 1

ROOM b
0,0,0,0,0,0,0,0,0,0,0,0,0,0,0,0
0,0,0,0,0,0,0,0,0,0,0,0,0,0,0,0
0,0,0,b,a,c,d,e,0,0,0,0,0,0,0,0
0,0,0,j,g,h,i,f,m,n,l,l,e,0,0,0
0,0,0,j,0,0,0,0,0,0,0,53,j,0,0,0
0,0,b,o,4m,0,0,4o,0,0,0,52,j,0,0,0
0,0,j,51,0,0,4p,4q,4r,0,0,4j,4f,0,0,0
0,0,j,50,0,4m,4w,0,4s,4j,0,0,0,0,0,0
0,0,j,4z,0,4m,4w,4x,4s,4j,0,0,4g,0,0,0
0,0,j,4y,0,0,4v,4u,4t,0,0,4j,j,0,0,0
0,0,f,e,0,0,0,4n,0,0,0,4i,j,0,0,0
0,0,0,j,4m,0,0,0,0,0,0,4h,j,0,0,0
0,0,0,j,4m,0,0,0,0,4l,4k,0,j,0,0,0
0,0,0,f,3j,0,0,0,0,3k,l,l,o,0,0,0
0,0,0,0,0,0,0,0,0,0,0,0,0,0,0,0
0,0,0,0,0,0,0,0,0,0,0,0,0,0,0,0
NAME DinningRoom
ITM 0 5,4
EXT 5,14 8 6,6
EXT 6,14 8 7,6
EXT 7,14 8 8,6
EXT 8,14 8 9,6
EXT 13,7 c 7,7
PAL 1

ROOM c
0,0,0,0,0,0,0,0,0,0,0,0,0,0,0,0
0,0,0,0,0,0,0,0,0,0,0,0,0,0,0,0
0,0,0,0,0,0,0,0,0,0,0,0,0,0,0,0
0,0,0,0,0,0,b,54,e,0,0,0,0,0,0,0
0,0,0,0,0,0,j,5q,j,0,0,0,0,0,0,0
0,0,0,0,0,0,j,5p,j,0,0,0,0,0,0,0
0,0,0,0,0,0,4f,0,j,0,0,0,0,0,0,0
0,0,0,0,0,0,0,0,4f,0,0,0,0,0,0,0
0,0,0,0,0,0,4g,0,0,0,0,0,0,0,0,0
0,0,0,0,0,0,j,0,4g,0,0,0,0,0,0,0
0,0,0,0,0,0,j,0,j,0,0,0,0,0,0,0
0,0,0,0,0,0,j,0,j,0,0,0,0,0,0,0
0,0,0,0,0,0,56,0,55,0,0,0,0,0,0,0
0,0,0,0,0,0,0,0,0,0,0,0,0,0,0,0
0,0,0,0,0,0,0,0,0,0,0,0,0,0,0,0
0,0,0,0,0,0,0,0,0,0,0,0,0,0,0,0
NAME KitchenHall
EXT 5,7 b 11,7
EXT 7,12 d 7,5
EXT 9,8 f 6,8
PAL 1

ROOM d
0,0,0,0,0,0,0,0,0,0,0,0,0,0,0,0
0,0,0,0,0,0,0,0,0,0,0,0,0,0,0,0
0,0,0,0,0,0,0,0,0,0,0,0,0,0,0,0
0,0,0,0,0,0,57,0,4g,0,0,0,0,0,0,0
0,0,0,0,0,0,j,0,j,0,0,0,0,0,0,0
0,0,0,0,0,0,j,0,j,0,0,0,0,0,0,0
0,0,0,0,0,0,j,0,j,0,0,0,0,0,0,0
0,0,0,0,0,3p,o,0,j,0,0,0,0,0,0,0
0,0,0,0,0,0,0,0,p,0,0,0,0,0,0,0
0,0,0,0,0,3p,e,0,j,0,0,0,0,0,0,0
0,0,0,0,0,0,j,0,j,0,0,0,0,0,0,0
0,0,0,0,0,0,j,0,j,0,0,0,0,0,0,0
0,0,0,0,0,0,f,p,o,0,0,0,0,0,0,0
0,0,0,0,0,0,0,0,0,0,0,0,0,0,0,0
0,0,0,0,0,0,0,0,0,0,0,0,0,0,0,0
0,0,0,0,0,0,0,0,0,0,0,0,0,0,0,0
NAME BackHall
ITM 6 7,10
ITM 7 7,11
EXT 7,4 c 7,10
EXT 5,8 8 12,6
EXT 9,8 e 6,6
END undefined 7,13
PAL 1

ROOM e
0,0,0,0,0,0,0,0,0,0,0,0,0,0,0,0
0,0,0,0,0,0,0,0,0,0,0,0,0,0,0,0
0,0,0,0,0,0,0,0,0,0,0,0,0,0,0,0
0,0,0,0,0,0,0,0,0,0,0,0,0,0,0,0
0,0,0,0,0,0,0,0,0,0,0,0,0,0,0,0
0,0,0,0,0,b,l,l,l,l,e,0,0,0,0,0
0,0,0,0,0,p,0,0,0,5b,j,0,0,0,0,0
0,0,0,0,0,j,59,0,0,0,j,0,0,0,0,0
0,0,0,0,0,j,5a,0,0,5d,j,0,0,0,0,0
0,0,0,0,0,j,58,0,0,5c,j,0,0,0,0,0
0,0,0,0,0,f,l,m,n,l,o,0,0,0,0,0
0,0,0,0,0,0,0,0,0,0,0,0,0,0,0,0
0,0,0,0,0,0,0,0,0,0,0,0,0,0,0,0
0,0,0,0,0,0,0,0,0,0,0,0,0,0,0,0
0,0,0,0,0,0,0,0,0,0,0,0,0,0,0,0
0,0,0,0,0,0,0,0,0,0,0,0,0,0,0,0
NAME DownstairsBath
EXT 4,6 d 7,8
PAL 1

ROOM f
0,0,0,0,0,0,0,0,0,0,0,0,0,0,0,0
0,0,0,0,0,0,0,0,0,0,0,0,0,0,0,0
0,0,0,0,0,0,0,0,0,0,0,0,0,0,0,0
0,0,0,0,0,b,m,n,m,n,e,0,0,0,0,0
0,0,0,0,0,j,j,0,0,5g,j,0,0,0,0,0
0,0,0,0,0,j,5l,0,0,5f,1k,0,0,0,0,0
0,0,0,0,0,j,j,0,0,5h,1l,0,0,0,0,0
0,0,0,0,0,4f,5k,0,0,5i,j,0,0,0,0,0
0,0,0,0,0,0,0,0,0,5j,j,0,0,0,0,0
0,0,0,0,0,4g,5o,0,0,4o,1k,0,0,0,0,0
0,0,0,0,0,j,5n,0,0,5e,1l,0,0,0,0,0
0,0,0,0,0,j,5m,a4,a5,4n,j,0,0,0,0,0
0,0,0,0,0,f,l,l,l,l,o,0,0,0,0,0
0,0,0,0,0,0,0,0,0,0,0,0,0,0,0,0
0,0,0,0,0,0,0,0,0,0,0,0,0,0,0,0
0,0,0,0,0,0,0,0,0,0,0,0,0,0,0,0
NAME Kitchen
ITM 2 7,11
ITM 3 8,11
EXT 4,8 c 7,8
PAL 1

ROOM g
0,0,0,0,0,0,0,0,0,0,0,0,0,0,0,0
0,0,0,0,0,0,0,0,0,0,0,0,0,0,0,0
0,0,b,l,l,l,3j,0,0,0,0,0,0,3r,0,0
0,0,j,5t,0,0,0,0,0,0,0,0,0,1z,0,0
0,0,2l,0,0,0,0,0,0,0,0,0,0,0,0,0
0,0,2m,11,0,0,0,0,0,67,68,69,0,0,0,0
0,0,j,5u,0,0,0,5y,5z,61,61,61,66,6b,0,0
0,0,j,5v,0,0,0,5x,60,62,63,64,65,6a,0,0
0,0,j,5w,0,0,2n,0,0,0,6c,0,0,0,5s,0
0,0,2l,11,0,0,0,0,0,0,0,0,0,0,0,0
0,0,2m,0,0,0,2n,0,0,0,0,0,0,0,5s,0
0,0,j,1z,0,0,0,6d,6e,6f,6g,6h,6i,6j,0,0
0,0,f,l,l,p,p,l,l,l,l,l,l,5r,0,0
0,0,0,0,0,0,0,0,0,0,0,0,0,0,0,0
0,0,0,0,0,0,0,0,0,0,0,0,0,0,0,0
0,0,0,0,0,0,0,0,0,0,0,0,0,0,0,0
NAME LivingroomFront
ITM 0 8,9
ITM 7 11,2
EXT 11,9 h 6,9
EXT 8,2 9 8,10
EXT 9,2 9 9,10
EXT 10,2 9 10,10
EXT 11,3 h 6,3
EXT 11,4 h 6,4
EXT 11,10 h 6,10
EXT 5,13 i 5,6
EXT 6,13 i 6,6
EXT 7,2 9 7,10
EXT 11,2 9 11,10
EXT 12,2 9 12,10
PAL 1

ROOM h
0,0,0,0,0,0,0,0,0,0,0,0,0,0,0,0
0,0,0,0,0,0,0,0,0,0,0,0,0,0,0,0
0,0,0,0,0,0,0,0,3k,l,l,l,l,e,0,0
0,0,0,0,0,0,0,0,1z,6r,6s,6q,6p,j,0,0
0,0,0,0,0,0,0,0,0,0,0,0,0,1k,0,0
0,0,0,0,67,68,69,0,0,0,0,0,0,1l,0,0
0,0,5y,5z,61,61,61,66,6b,0,0,0,6o,j,0,0
0,0,5x,60,62,63,64,65,6a,0,0,0,j,j,0,0
0,2n,0,0,0,6c,0,0,0,5s,0,0,6n,j,0,0
0,0,0,0,0,0,0,0,0,0,0,0,5s,1k,0,0
0,2n,0,0,0,0,0,0,0,5s,0,0,0,1l,0,0
0,0,6d,6e,6f,6g,6h,6i,6j,0,6l,6m,11,j,0,0
0,0,3p,l,l,l,l,l,l,k,k,l,l,o,0,0
0,0,0,0,0,0,0,0,0,0,0,0,0,0,0,0
0,0,0,0,0,0,0,0,0,0,0,0,0,0,0,0
0,0,0,0,0,0,0,0,0,0,0,0,0,0,0,0
NAME LivingroomBack
EXT 7,2 8 4,10
EXT 6,2 9 11,10
EXT 5,2 9 10,10
EXT 4,3 g 9,3
EXT 4,4 g 9,4
EXT 4,10 g 9,10
EXT 4,9 g 9,9
PAL 1

ROOM i
0,0,0,0,0,0,0,0,0,0,0,0,0,0,0,0
0,0,0,0,0,0,0,0,0,0,0,0,0,0,0,0
0,0,0,0,0,0,0,0,0,0,0,0,0,0,0,0
0,0,0,0,0,0,0,0,0,0,0,0,0,0,0,0
0,0,0,0,0,0,0,0,0,0,0,0,0,0,0,0
0,0,6w,l,l,p,p,l,l,l,l,l,l,5r,0,0
0,0,6x,2c,0,0,0,7c,75,1q,1q,1q,76,7d,0,0
0,0,6x,7e,7h,0,0,0,77,78,79,7a,7b,0,0,0
0,0,6x,7f,7g,0,0,0,0,0,0,0,0,0,0,0
0,0,6x,20,0,0,0,0,4n,7i,7j,4n,4n,7k,0,0
0,0,6y,6z,70,70,71,72,73,73,73,73,73,74,0,0
0,0,0,0,0,0,0,0,0,0,0,0,0,0,0,0
0,0,0,0,0,0,0,0,0,0,0,0,0,0,0,0
0,0,0,0,0,0,0,0,0,0,0,0,0,0,0,0
0,0,0,0,0,0,0,0,0,0,0,0,0,0,0,0
0,0,0,0,0,0,0,0,0,0,0,0,0,0,0,0
NAME SidePorchF
EXT 5,4 g 5,11
EXT 6,4 g 6,11
EXT 11,8 j 6,8
PAL 1

ROOM j
0,0,0,0,0,0,0,0,0,0,0,0,0,0,0,0
0,0,0,0,0,0,0,0,0,0,0,0,0,0,0,0
0,0,0,0,0,0,0,0,0,0,0,0,0,0,0,0
0,0,0,0,0,0,0,0,0,0,0,0,0,0,0,0
0,0,0,0,0,0,0,0,0,0,0,0,0,0,0,0
0,0,3p,l,l,l,l,l,l,k,k,l,l,7l,0,0
0,0,7c,75,1q,1q,1q,76,7d,4o,7i,0,2c,6x,0,0
0,0,0,77,78,79,7a,7b,0,0,0,7e,7h,6x,0,0
0,0,0,0,0,0,0,0,0,0,0,7f,7g,6x,0,0
0,0,0,4n,7i,7j,4n,4n,7i,7k,4n,0,20,6x,0,0
0,0,72,73,73,73,73,73,73,73,73,73,73,7m,0,0
0,0,0,0,0,0,0,0,0,0,0,0,0,0,0,0
0,0,0,0,0,0,0,0,0,0,0,0,0,0,0,0
0,0,0,0,0,0,0,0,0,0,0,0,0,0,0,0
0,0,0,0,0,0,0,0,0,0,0,0,0,0,0,0
0,0,0,0,0,0,0,0,0,0,0,0,0,0,0,0
NAME SidePorchB
ITM 0 10,8
EXT 4,8 i 9,8
PAL 1

ROOM k
0,0,a2,a2,a2,0,0,0,0,0,0,0,0,0,0,0
0,a2,a2,8n,a2,a2,a2,a2,a2,a2,a2,88,89,7n,0,0
0,0,0,0,0,0,0,8m,0,0,86,87,0,j,0,0
0,0,0,0,0,0,0,0,0,7q,7p,7o,a8,j,0,0
0,0,0,0,0,0,0,8h,8d,8c,ac,0,0,3s,0,0
0,0,8k,8k,8k,8k,8k,8i,8e,8b,7t,0,0,3u,0,0
0,0,8l,8l,8l,8l,8l,8j,8e,8b,7t,0,0,3t,0,0
0,0,0,0,0,0,0,8g,8f,8a,ab,0,0,3s,0,0
0,0,0,0,0,0,0,0,0,7r,7s,7u,7v,j,0,0
0,0,0,0,0,0,0,0,0,0,80,7z,7w,j,0,0
0,0,0,0,0,0,0,8n,0,0,0,7y,7x,j,0,0
0,0,0,0,0,0,0,0,0,0,0,81,7z,j,0,0
0,0,0,0,0,8m,0,0,0,0,0,7z,7z,j,0,0
0,0,0,0,0,0,0,0,0,0,0,83,82,j,0,0
0,a2,a2,a2,a2,a2,a2,a2,a2,a2,a2,84,85,56,0,0
0,0,0,0,0,0,0,0,0,0,0,0,0,0,0,0
NAME FrontDoor
EXT 14,5 9 3,7
EXT 14,6 9 3,8
EXT 1,5 l 13,5
EXT 1,6 l 13,6
EXT 1,13 l 13,13
EXT 1,12 l 13,12
EXT 1,11 l 13,11
EXT 1,10 l 13,10
EXT 1,9 l 13,9
EXT 1,8 l 13,8
EXT 1,7 l 13,7
EXT 1,4 l 13,4
EXT 1,3 l 13,3
EXT 1,2 l 13,2
PAL 2

ROOM l
0,0,0,0,0,0,0,0,0,0,0,0,0,0,0,0
0,0,57,a2,a2,a2,a2,a2,a2,a2,a2,a2,a2,a2,a2,0
0,0,j,8u,8t,0,0,0,0,0,0,8n,0,0,0,0
0,0,j,7z,8s,0,8m,0,0,0,0,0,0,0,0,0
0,0,j,81,7z,8r,0,0,0,0,0,0,0,0,0,0
0,0,8o,8k,8k,8k,8k,8k,8k,8k,8k,8k,8k,8k,0,0
0,0,8p,8l,8l,8l,8l,8l,8l,8l,8l,8l,8l,8l,0,0
0,0,j,8v,8w,8w,8x,0,0,0,0,0,0,0,0,0
0,0,j,8y,0,0,8z,0,0,0,0,0,0,0,0,0
0,0,j,6x,0,0,90,0,0,8n,0,0,0,0,0,0
0,0,j,6x,0,0,91,0,0,0,0,0,0,0,0,0
0,0,j,92,97,97,93,0,0,0,0,0,0,0,0,0
0,0,j,95,96,96,94,0,0,0,0,0,0,8m,0,0
0,0,j,82,7z,8q,0,0,0,0,0,0,0,0,0,0
0,0,55,84,85,a2,a2,8n,a2,a2,a2,a2,a2,a2,a2,0
0,0,0,0,0,0,a2,a2,a2,0,0,0,0,0,0,0
NAME FrontLawn
EXT 14,5 k 2,5
EXT 14,6 k 2,6
EXT 1,5 m 12,11
EXT 1,6 m 12,12
EXT 14,13 k 2,13
EXT 14,12 k 2,12
EXT 14,11 k 2,11
EXT 14,10 k 2,10
EXT 14,9 k 2,9
EXT 14,8 k 2,8
EXT 14,7 k 2,7
EXT 14,4 k 2,4
EXT 14,3 k 2,3
EXT 14,2 k 2,2
PAL 2

ROOM m
0,0,0,0,0,0,0,0,0,0,0,0,0,0,0,0
0,a2,a2,a2,a2,a2,a2,a2,a2,a2,a2,a2,a2,7n,0,0
0,a2,0,0,0,0,0,0,0,0,9d,0,0,j,0,0
0,a2,0,0,0,0,0,0,0,0,0,0,0,j,0,0
0,0,0,0,0,0,0,0,0,0,0,0,0,j,0,0
0,0,0,0,0,0,0,0,0,0,0,0,0,j,0,0
0,0,0,0,0,0,0,0,0,0,0,0,0,j,0,0
0,0,9d,0,0,0,0,0,0,0,0,0,0,j,0,0
0,0,0,0,0,0,0,0,0,0,0,0,0,j,0,0
0,0,0,0,0,0,0,0,0,0,0,0,0,j,0,0
0,0,0,0,0,0,0,0,0,0,0,0,0,j,0,0
0,0,0,0,0,0,0,0,0,9b,98,98,98,8o,0,0
0,0,0,0,0,0,0,0,0,9a,99,99,99,8p,0,0
0,0,0,0,0,0,0,0,0,0,0,0,0,j,0,0
0,a2,a2,a2,9c,a2,a2,a2,a2,a2,a2,a2,a2,56,0,0
0,0,0,a2,a2,a2,0,0,0,0,0,0,0,0,0,0
NAME Beach
ITM 1 7,6
EXT 3,13 n 10,13
EXT 3,12 n 10,12
EXT 3,11 n 10,11
EXT 3,10 n 10,10
EXT 3,9 n 10,9
EXT 3,8 n 10,8
EXT 3,7 n 10,7
EXT 3,6 n 10,6
EXT 3,5 n 10,5
EXT 3,4 n 10,4
EXT 14,11 l 3,5
EXT 14,12 l 3,6
EXT 3,3 n 11,3
EXT 3,2 n 11,2
PAL 3

ROOM n
0,0,0,0,0,0,0,0,0,0,0,0,0,0,0,0
0,0,a2,a2,a2,a2,a2,a2,a2,a2,a2,a2,a2,a2,a2,0
0,0,9i,9h,9c,0,0,9r,9e,0,0,0,0,0,0,0
0,0,9j,0,0,0,9p,9q,9s,0,0,0,0,0,0,0
0,0,9k,9l,9m,9n,9o,0,0,0,0,0,0,0,0,0
0,0,9x,9w,9v,9u,9t,0,0,0,0,0,0,0,0,0
0,0,9y,0,0,0,0,0,0,0,0,0,0,0,0,0
0,0,9f,9g,0,0,0,0,0,9c,0,0,0,0,0,0
0,0,0,a3,0,0,0,0,0,0,0,0,0,0,0,0
0,0,9z,0,0,0,0,0,0,0,0,0,0,0,0,0
0,0,a0,0,0,0,0,0,0,0,0,0,0,0,0,0
0,0,a1,0,0,0,0,0,0,0,0,0,0,0,0,0
0,0,9y,0,0,a9,aa,0,0,0,0,0,0,0,0,0
0,0,9f,9g,0,0,0,0,0,0,0,0,0,0,0,0
0,0,9i,9h,a2,a2,a2,a2,a2,a2,a2,a2,9c,a2,a2,0
0,0,0,0,0,0,0,0,0,0,0,a2,a2,a2,0,0
NAME Water
ITM 8 6,12
EXT 12,3 m 4,3
EXT 12,4 m 4,4
EXT 12,5 m 4,5
EXT 12,6 m 4,6
EXT 12,7 m 4,7
EXT 12,8 m 4,8
EXT 12,9 m 4,9
EXT 12,10 m 4,10
EXT 12,11 m 4,11
EXT 12,12 m 4,12
EXT 12,13 m 4,13
EXT 12,2 m 4,2
PAL 4

TIL 10
00000000
00000000
00000000
01111110
10000001
10000001
01111110
00100100
WAL true

TIL 11
01111110
10000001
10011001
10100101
10100101
10011001
10000001
01111110
WAL true

TIL 12
10000100
10000100
10000100
10000100
10000100
10000100
10000100
10000100

TIL 13
11111110
00000001
00001001
00000001
00000001
11111111
00000001
11111111
WAL true

TIL 14
10000000
10000010
10001110
10000000
10000000
11111111
10000000
11111111
WAL true

TIL 15
11111111
10000000
10000000
10000100
10000000
10010000
10000000
10000000
WAL true

TIL 16
11010000
11010000
11010000
11010000
11010000
11010000
11010000
11010000
WAL false

TIL 17
00100001
00100001
00100001
00100001
00100001
00100001
00100001
00100001

TIL 18
10000000
01000000
00100000
00010000
00001000
00000100
00000010
00000001

TIL 19
10000000
01000001
00100011
00010011
00001011
00000111
00000011
00000001
WAL true

TIL 20
00000000
01000010
01111110
01000010
01000110
01001010
00111100
00000000
NAME ArmchairN
WAL true

TIL 21
11111111
10000000
10000000
10010000
10000001
10000101
10000001
10000001
WAL true

TIL 22
11111111
00000000
00010000
00000000
11111111
00000000
00000110
00000000
WAL true

TIL 23
00000000
00111111
01000000
01000000
01011110
01011110
01011110
01011110
WAL true

TIL 24
01011110
01011110
01011110
01000000
01000000
01011110
01011110
01011110
WAL true

TIL 25
01011110
01011110
01011110
01011110
01000000
01000000
00111111
00000000
WAL true

TIL 26
10000000
10000000
10000000
10000000
10000000
10000000
11111111
00000000
WAL true

TIL 27
00000000
11111111
10000000
10000000
10000000
10000000
10000000
10000000
WAL true

TIL 28
00000000
00000000
00000000
00000000
00000000
00000000
11111111
00000000
WAL true

TIL 29
00000000
11111111
00000000
00000000
00000000
00000000
00000000
00000000
WAL true

TIL 30
01111010
01111010
01111010
00000010
00000010
01111010
01111010
01111010
WAL true

TIL 31
01111010
01111010
01111010
01111010
00000010
00000010
11111100
00000000
WAL true

TIL 32
11111110
00000000
10000001
10000001
10000001
10000001
10000001
10000001
WAL true

TIL 33
10000001
10000001
10000001
10000001
10000001
10000001
00000000
11111110
WAL true

TIL 34
10010010
10010010
10011010
10010110
10010010
11010010
10110010
10010010
WAL true

TIL 35
11111100
00000010
00000010
00000010
00000010
00000010
11111100
01100000
WAL true

TIL 36
11111111
00000000
00000000
00000000
00000000
00000000
11111111
00000000
WAL true

TIL 37
00111111
01000000
01000000
01000000
01000000
01000000
00111111
00000110
WAL true

TIL 38
10000001
10000001
01111110
00100100
00100100
00100100
00011000
00000000
WAL true

TIL 39
00000000
00000000
00000000
00000000
00000000
00000000
00000000
10000000
WAL true

TIL 40
11111111
01001001
00010100
00000011
00000100
00000100
00000100
00000011
WAL true

TIL 41
00000000
00000000
01100000
01101110
01101010
00001010
01001110
00000000
WAL true

TIL 42
00000000
00000000
11111111
10000000
10000000
10111110
10101010
10101010
WAL true

TIL 43
00000000
00000000
11111111
00000001
00111001
01000101
00111001
00000001
WAL true

TIL 44
00000000
00111100
01000010
01011010
01011010
01000010
00111100
00000000
WAL true

TIL 45
01000000
01000100
01010101
01010101
01111111
01000000
01111111
00000000
WAL true

TIL 46
00000100
01000100
01010100
01010100
11111100
00000100
11111100
00000000
WAL true

TIL 47
00111100
01000010
00111100
01000010
01000010
01000010
00111100
00000000
WAL true

TIL 48
00000000
00111111
01000000
01001100
01001000
01000000
00111111
00001000
WAL true

TIL 49
00000000
11111100
00000010
10100010
10010010
00000010
11111100
00010000
WAL true

TIL 50
10010001
10010001
10010001
01010101
00010001
01010101
10010001
10010001
WAL true

TIL 51
00010001
01010001
10011101
10010001
10010001
01011101
00010001
01010001
WAL true

TIL 52
10100101
10011001
10000001
10000001
10000001
10000001
10000001
01111110
WAL true

TIL 53
01111110
10000001
10000001
10000001
10000001
10000001
10011001
10100101
WAL true

TIL 54
10111101
00100100
00100100
10111101
10100101
10100101
10111101
10000001
WAL true

TIL 55
00000001
10000001
10000000
00000001
00000001
10000000
00000000
00000001
WAL true

TIL 56
10000000
10000001
00000001
10000000
10000000
00000001
00000000
10000000
WAL true

TIL 57
00000001
00000000
10000000
00000001
00000001
10000000
10000001
00000001
WAL true

TIL 58
10000000
00000000
00000000
00000000
00000000
00000000
00000000
00000000
WAL true

TIL 59
00000000
00000000
00000000
00000000
00000000
00000000
00000000
10000000
WAL true

TIL 60
10000001
10111101
11000010
10000001
10000001
11111111
10000001
11111111
WAL true

TIL 61
11111111
00000000
00000000
00000000
11111111
00000000
00000000
11111111
WAL true

TIL 62
00000000
01110000
01110000
01110000
00000001
11111111
00000000
11111111
WAL true

TIL 63
00000000
00000000
00000000
00000000
00000001
11111111
00000000
11111111
WAL true

TIL 64
00000000
00001110
00001110
00001110
00000000
11111111
00000000
11111111
WAL true

TIL 65
10000001
10111101
01000011
10000001
10000001
11111111
00000001
11111111
WAL true

TIL 66
11111100
00000010
00000001
00000001
00000001
10000001
10000001
10000001
WAL true

TIL 67
11111111
10000000
10011110
10010010
10010010
10010010
10011110
10000000
WAL true

TIL 68
11111111
00000000
00000000
00011000
00100100
00100100
00011000
00000000
WAL true

TIL 69
11111111
00000001
00000001
00110001
00011001
00100001
00000101
00000001
WAL true

TIL 70
00000000
11111111
00000000
00000000
11111111
00000000
00000000
11111111
WAL true

TIL 71
00000100
11111111
00000100
00000100
11111111
00000100
00000100
11111111
WAL true

TIL 72
00111100
01000010
10000001
10000001
10000001
10000001
01000010
00111111
WAL true

TIL 73
00000000
11111111
11000011
10100101
10011001
10100101
11000011
11111111
WAL true

TIL 74
00000000
11101000
11000000
10100000
10011000
10100100
11000000
11111101
WAL true

TIL 75
11111111
10000000
10000000
10000000
10000000
10000000
10000000
10000000
WAL true

TIL 76
11111111
00000001
00000001
00000001
00000001
00000001
00000001
00000001
WAL true

TIL 77
10000000
10000000
10000000
10000000
10000000
11111111
00000000
00000000
WAL true

TIL 78
00000000
00000000
00000000
00000000
00000000
11111111
00100000
00100000
WAL true

TIL 79
00000000
00000000
00000000
00000000
00000000
11111111
00000000
00000000
WAL true

TIL 80
11111111
01111111
00011111
00000111
00000011
00000011
00000001
00000001
WAL true

TIL 81
11111111
11111111
11111111
11101111
11010111
11101111
11111111
11111111
WAL true

TIL 82
11111111
11111011
11111101
11111111
11101111
11110111
11110111
11111111
WAL true

TIL 83
11111111
11111111
11111111
11111111
11111111
01111111
01111111
01111111
WAL true

TIL 84
01111111
00110111
00110011
00001001
00010010
00000000
00001000
00000000
WAL true

TIL 85
11111111
11111011
01011100
01001010
00000010
01000000
00001000
00000000
WAL true

TIL 86
00000001
00000001
00000011
00000011
00000111
00011111
01111111
11111111
WAL true

TIL 87
11111111
11111100
11110110
11111100
11111000
11110100
11111000
11010000
WAL true

TIL 88
10000001
00000000
00100100
10001000
10101010
01111011
11101110
11111111
WAL true

TIL 89
00001000
01000000
00000010
01001010
01011100
11111011
11111111
11100000
WAL true

TIL 90
00100100
00100100
00100100
00111111
00100001
00100001
00100001
00100001
WAL false

TIL 91
00100001
00100001
00100001
00100001
00111111
00100100
00100100
00100100

TIL 92
00100100
00100100
00100111
00100100
00100100
00100100
00100100
00100100
WAL true

TIL 93
00100100
00100100
11100100
00100100
00100100
00100100
00100100
00100100
WAL true

TIL 94
11100100
00000100
11111100
00100100
11100100
00000100
11111100
00000000
WAL true

TIL 95
00100111
00100000
00111111
00100100
00100111
00100000
00111111
00000000
WAL true

TIL 96
11111111
00000000
11111111
00000000
11111111
00000000
11111111
00000000
WAL true

TIL 97
00000000
00000000
11111111
00000000
00000000
00000000
00000000
00000000
WAL true

TIL 98
11111111
10001000
10001000
10001000
10001000
10001000
10001000
10001000

TIL 99
10001000
10001000
10001000
10001000
10001000
10001000
10001000
11111111

TIL a
01111111
01001000
01010000
01111111
01000001
01000010
01111111
00000000
WAL true

TIL b
11111111
10000000
10000000
10000001
10000001
10000001
10000001
10000001
WAL true

TIL c
11100111
00100100
00100101
11100111
00100100
00100100
11100111
00000000
WAL true

TIL d
11111110
10000010
00000010
11111110
00010010
00100010
11111110
00000000
WAL true

TIL e
11111111
00000001
00000001
10000001
10000001
10000001
10000001
10000001
WAL true

TIL f
10000001
10000000
10000000
11111111
11111111
11111111
11111111
11111111
WAL true

TIL g
11110000
11110000
11110000
11110000
00000000
11111111
00000000
11111111
WAL true

TIL h
00000000
00000000
00000000
00000000
00000000
11111111
00000000
11111111
WAL true

TIL i
00001111
00001111
00001111
00001111
00000000
11111111
00000000
11111111
WAL true

TIL j
10000001
10000001
10000001
10000001
10000001
10000001
10000001
10000001
WAL true

TIL k
01111110
01000010
01111110
01000010
01001010
01001010
01000010
01111110
NAME Closed Door
WAL true

TIL l
11111111
00000000
00000000
11111111
11111111
11111111
11111111
11111111
WAL true

TIL m
11011111
00010010
00010100
11011111
11010000
11010000
11011111
11000000
NAME window 1
WAL true

TIL n
11111011
00001000
00001000
11111011
01001011
10001011
11111011
00000011
NAME window 2
WAL true

TIL o
10000001
00000001
00000001
11111111
11111111
11111111
11111111
11111111
WAL true

TIL p
01111110
01000010
01111110
01000010
01001010
01001010
01000010
01111110
NAME Open Door

TIL q
10001000
10001011
10001000
10001011
10101001
10001000
10001000
10001111
WAL true

TIL r
10000000
10010000
10000111
11000111
10000000
11111111
10000000
11111111
WAL true

TIL s
11111111
00001001
00001001
11111001
10000001
10000101
10100001
10000001
WAL true

TIL t
10010001
10000001
11111001
00001001
00001001
11111111
00000001
11111111
WAL true

TIL u
00000010
11110010
11110010
11110010
11110010
00000010
11111100
00000000
WAL true

TIL v
01000000
01001111
01001111
01001111
01001111
01000000
00111111
00000000
WAL true

TIL w
01000000
01000000
01000000
01000000
01000000
01000000
01000000
01111111
WAL true

TIL x
00000010
00000010
00000010
00000010
00000010
00000010
00000010
11111110
WAL true

TIL y
00000000
00111111
01000000
01000000
01000000
01000000
01000000
01000000
WAL true

TIL z
00000000
11111100
00000010
00000010
00000010
00000010
00000010
00000010
WAL true

TIL 1a
11111111
00000000
00000000
00000000
00000000
00000000
00000000
11111111

TIL 1b
11111111
00000001
00000011
00000011
00000011
00000011
00000001
11111111
WAL true

TIL 1c
00000001
00000011
00000111
00001011
00010011
00100011
01000001
10000000
WAL true

TIL 1d
00000001
00000010
00000100
00001000
00010000
00100000
01000000
10000000

TIL 1e
11111111
00000001
11111101
00000101
00000101
11111101
00000001
11111111
WAL true

TIL 1f
11111111
00000000
11111111
00000000
00000000
11111111
00000000
01111111
WAL true

TIL 1g
11111111
11100000
11111111
11000000
11000000
11000101
11000000
11000001
WAL true

TIL 1h
00010000
00010000
00010000
00010000
00010000
00010000
00010000
00010000

TIL 1i
11000000
11000000
11111111
10101010
10101010
10101010
10101010
10101010
WAL true

TIL 1j
00000000
00000000
11111111
10101010
10101010
10101010
10101010
10101010
WAL true

TIL 1k
10000001
10000001
00000000
01111111
01001001
01001101
01001011
01001001
WAL true

TIL 1l
01101001
01011001
01001001
01001001
01111111
00000000
10000001
10000001
WAL true

TIL 1m
00000000
00111111
01000000
01001111
01001111
01001111
01001111
01000000
WAL true

TIL 1n
00000000
11111111
00000000
11100111
11100111
11100111
11100111
00000000
WAL true

TIL 1o
00000000
11111100
00000010
11110010
11110010
11110010
11110010
00000010
WAL true

TIL 1p
01111111
01000000
01000000
01000000
01000000
01000000
01000000
01000000
WAL true

TIL 1q
11111111
00000000
00000000
00000000
00000000
00000000
00000000
00000000
WAL true

TIL 1r
11111110
00000010
00000010
00000010
00000010
00000010
00000010
00000010
WAL true

TIL 1s
01000000
01000000
01000000
01000000
01000000
01000000
01000000
01000000
WAL true

TIL 1t
00000010
00000010
00000010
00000010
00000010
00000010
00000010
00000010
WAL true

TIL 1u
01000000
01000000
01000000
01000000
01111111
01000000
00111111
00000000
WAL true

TIL 1v
00000000
00000000
00000000
00000000
11111111
00000000
11111111
00000000
WAL true

TIL 1w
00000010
00000010
00000010
00000010
11111110
00000010
11111100
00000000
WAL true

TIL 1x
10000000
10000000
10000000
10000000
10000000
10000000
10000000
10000000
WAL true

TIL 1y
00000000
00000000
00000000
00000000
00000000
00000000
00000000
11111111
WAL true

TIL 1z
00000000
00111100
01000010
01001010
01000010
01000010
00111100
00100100
NAME SmallTable
WAL true

TIL 2a
01000000
01000000
01000000
01000000
01000000
01000000
00111111
00000000
WAL true

TIL 2b
00000010
00000010
00000010
00000010
00000010
00000010
11111100
00000000
WAL true

TIL 2c
00000000
00111100
01010010
01100010
01000010
01111110
01000010
00000000
NAME ArmchairS
WAL true

TIL 2d
11111000
00000100
00000100
00000100
00000100
11111000
00100000
00000000
WAL true

TIL 2e
00011111
00100000
00100000
00100000
00100000
00011111
00000100
00000000
WAL true

TIL 2f
11111001
00000101
01000001
00100001
00000001
11111111
00000001
11111111
WAL true

TIL 2g
10011111
10100000
10000000
10000000
10000000
11111111
10000000
11111111
WAL true

TIL 2h
10000000
10011000
10000000
10000000
10000000
11111111
10000000
11111111
WAL true

TIL 2i
01111111
10000000
10000000
10100000
10000000
10001110
10000010
10000000
WAL true

TIL 2j
00000000
11111111
11010101
11010101
11000100
10000000
10000000
10000000
WAL true

TIL 2k
00000000
11111111
01010101
01010101
01000101
00000001
00000001
00000001
WAL true

TIL 2l
10000001
10000001
00000000
11111110
10010010
10010010
10011010
10010110
WAL true

TIL 2m
10010010
11010010
10110010
10010010
11111110
00000000
10000001
10000001
WAL true

TIL 2n
00000000
00111110
01000100
01000100
01100100
01010100
00111110
00000000
NAME ArmchairE
WAL true

TIL 2o
01000001
00000001
00001001
00000101
00000001
11111111
00000001
11111111
WAL true

TIL 2p
11111111
00000001
00000001
00011001
00011001
00000001
00000001
00000001
WAL true

TIL 2q
01111111
10000000
10010000
10000000
10000000
10001100
10001000
10000000
WAL true

TIL 2r
11111110
00000001
00000001
00000001
00001001
00000001
00010001
00000001
WAL true

TIL 2s
01000000
01111000
01000000
01110000
01000000
01111111
01000000
01111111
WAL true

TIL 2t
01111111
01111000
01000000
01110000
01000000
01111000
01000000
01110000
WAL true

TIL 2u
00011111
00100000
01000010
01000000
01010000
01001000
01000111
01000000
WAL true

TIL 2v
11111000
00000100
00000010
01000010
01001010
00010010
11100010
00000010
WAL true

TIL 2w
00000001
00000001
00000001
00000001
00000001
00000001
11111111
00000000
WAL true

TIL 2x
00000001
00000001
00000001
00000001
00000001
00000001
00000001
00000001
WAL true

TIL 2y
00000000
11111111
00000001
00000001
00000001
00000001
00000001
00000001
WAL true

TIL 2z
00000000
11111100
00000010
00000010
01111010
01111010
01111010
01111010
WAL true

TIL 3a
00000000
01111110
10000001
10000001
10011001
10000001
10100101
11111111
WAL true

TIL 3b
00000000
00000000
00000000
00000000
00000000
00000000
00000000
00000001
WAL true

TIL 3c
00000001
00000001
00100001
00001001
00000001
11111111
00000001
11111111
WAL true

TIL 3d
11111111
00000001
01100001
01100001
00000001
00000101
00000001
00000001
WAL true

TIL 3e
01111000
01111000
01111000
01111000
00000000
11111111
00000000
11111111
WAL true

TIL 3f
00000010
00011110
00000010
00001110
00000010
11111110
00000010
11111110
WAL true

TIL 3g
11111110
00011110
00000010
00001110
00000010
00011110
00000010
00001110
WAL true

TIL 3h
11111111
00000001
00001001
00000001
11110001
00010011
10010001
11010001
WAL true

TIL 3i
11111111
10000000
10000000
10100000
10001111
10001000
10001010
10001010
WAL true

TIL 3j
11111111
00000001
00000001
11111111
11111111
11111111
11111111
11111111
WAL true

TIL 3k
11111111
10000000
10000000
11111111
11111111
11111111
11111111
11111111
WAL true

TIL 3l
01000010
01000010
01000010
01000010
01000010
01000010
01000010
01000010

TIL 3m
00000000
00000000
00001111
00010000
00100000
00100000
01000001
01000010

TIL 3n
00000000
00000000
10000000
01000000
00100000
11111111
11100000
11111111
WAL true

TIL 3o
00101111
00000001
10111101
00000101
00000101
11111101
00000001
11111111
WAL true

TIL 3p
00010111
00000000
00000000
00101111
00010111
01011111
00101111
10111111
WAL true

TIL 3q
00000000
00000000
10000000
00000001
10000000
10000001
10000001
10000001
WAL true

TIL 3r
11101000
10000000
10000000
11110100
11101000
11111010
11110100
11111101
WAL true

TIL 3s
10000001
00000000
11111110
10010010
10010010
11111110
00000000
10000001
WAL true

TIL 3t
10000010
10101010
10101010
10000010
10011010
10000010
11111110
00000000
WAL false

TIL 3u
00000000
11111110
10000010
10101010
10101010
10000010
10101010
10101010

TIL 3v
01010110
01010110
00010010
00000010
00000010
11111110
00000010
11111110
WAL true

TIL 3w
01010101
01010101
01010001
01000000
01000000
01111111
01000000
01111111
WAL true

TIL 3x
00000000
00111000
01000100
01000100
01000100
00111000
00000000
00000000
WAL true

TIL 3y
00000000
00000000
00111000
01000100
01000100
01000100
00111000
00000000
WAL true

TIL 3z
11111111
00100100
00001010
10000000
01000000
01000000
01000000
10000000
WAL true

TIL 4a
00000000
00000111
00001000
00010001
00100010
01000010
01001001
01000000
WAL true

TIL 4b
00000000
11100000
00010000
10001000
01000100
01000010
10000010
00000010
WAL true

TIL 4c
01000000
01001001
01000101
00100001
00010001
00001000
00000111
00000000
WAL true

TIL 4d
00011010
11010010
01000010
01000100
11001000
00010000
11100000
00000000
WAL true

TIL 4e
01000000
01111000
01000000
01110000
01000000
01111000
01000000
01110000
WAL true

TIL 4f
10000001
10000001
10000001
11111111
11111111
11111111
11111111
11111111
WAL true

TIL 4g
11111111
10000001
10000001
10000001
10000001
10000001
10000001
10000001
WAL true

TIL 4h
10000001
10111101
10100101
10100101
10100101
10111101
10000001
01111110
WAL true

TIL 4i
01111110
10000001
10111101
10100101
10100101
10100101
10111101
10000001
WAL true

TIL 4j
00000000
00000000
00110100
01001010
01001010
00110100
00000000
00000000
WAL true

TIL 4k
00000010
11111110
00001010
10001010
10001010
00001010
11111110
00000010
WAL true

TIL 4l
00000000
00111111
01000000
01000111
01000111
01000000
00111111
00000000
WAL true

TIL 4m
00000000
00000000
00101100
01010010
01010010
00101100
00000000
00000000
WAL true

TIL 4n
00000000
00011000
00100100
00100100
00011000
00100100
00011000
00000000
WAL true

TIL 4o
00000000
00011000
00100100
00011000
00100100
00100100
00011000
00000000
WAL true

TIL 4p
00111111
01000000
10000000
10000000
10000000
10000000
10000000
10000000
WAL true

TIL 4q
11111111
00000000
01111110
01000010
01000010
01111110
00000000
00000000
WAL true

TIL 4r
11111100
00000010
00000001
00000001
00000001
00000001
00000001
00000001
WAL true

TIL 4s
00111101
00100101
00100101
00100101
00100101
00111101
00000001
00000001
WAL true

TIL 4t
00000001
00000001
00000001
00000010
11111100
00000000
00000000
00000000
WAL true

TIL 4u
01000010
01000010
01111110
00000000
11111111
01000010
10000001
00000000
WAL true

TIL 4v
10000000
10000000
10000000
01000000
00111111
00000000
00000000
00000000
WAL true

TIL 4w
10111100
10100100
10100100
10100100
10100100
10111100
10000000
10000000
WAL true

TIL 4x
00000000
00000000
00000000
00000000
00000000
00000000
00000000
01111110
WAL true

TIL 4y
01010001
00010001
01011101
10010001
10010001
10011101
01010001
00010001
WAL true

TIL 4z
10010001
10010001
01010001
00011101
01011101
10011101
10011101
10010001
WAL true

TIL 5a
11111100
10000010
11000010
10010010
10010010
11000010
10000010
11111100
WAL true

TIL 5b
00000011
00000100
00111100
01000100
01000100
00111100
00000100
00000011
WAL true

TIL 5c
01000000
10000000
01000000
10000000
01000000
10001110
01000100
10000100
WAL true

TIL 5d
11111111
10000000
01011110
10000000
01000000
10000000
01000000
10000000
WAL true

TIL 5e
11111111
10000001
10000001
10000001
10000001
10000001
10000001
11111111
WAL true

TIL 5f
11111111
10000001
10000101
10001001
10000001
10000001
10000001
11111111
WAL true

TIL 5g
00111111
01000000
01010010
01000000
01000000
01010010
01000000
00111111
WAL true

TIL 5h
00000000
00111100
01000010
01000010
01000010
01000010
00111100
00000000
WAL true

TIL 5i
11111111
10000000
10100000
10000000
10001110
10001110
10000000
10000000
WAL true

TIL 5j
10001100
10000100
10100000
10000000
10000000
11111111
10000000
11111111
WAL true

TIL 5k
10000001
10000001
10000001
10000001
10000001
11111111
00000001
11111111
WAL true

TIL 5l
11111001
00000101
10000101
00100101
00100101
10000101
00000101
11111001
WAL true

TIL 5m
10010001
01010001
00010001
01010001
10010001
10010001
10010001
01010001
WAL true

TIL 5n
10010001
10010001
10010001
01010001
00010001
01010001
10010001
10010001
WAL true

TIL 5o
11111111
01010001
10010001
10010001
10010001
01010001
00010001
01010001
WAL true

TIL 5p
00001010
00001011
00001010
00001010
00001011
00001010
00001010
00001111
WAL true

TIL 5q
00001111
01101010
01101010
00001011
01001010
00001010
00001011
00001010
WAL true

TIL 5r
11101000
00000000
00000000
11110100
11101000
11111010
11110100
11111101
WAL true

TIL 5s
00000000
01111100
00101010
00100110
00100010
00100010
01111100
00000000
NAME ArmchairW
WAL true

TIL 5t
01111110
10000001
10000101
10000001
10110001
10010001
10000001
01111110
WAL true

TIL 5u
11111111
11111111
10000001
10111001
10111001
10111001
10000001
10000001
WAL true

TIL 5v
10000011
10000001
10000001
10000001
10000001
10000001
10000011
10000001
WAL true

TIL 5w
10111001
10111001
10111001
10000001
11111111
11111111
10000001
11111111
WAL true

TIL 5x
00100001
00100001
00100001
00010001
00001101
00001011
00000010
00000000
WAL true

TIL 5y
00000000
00000011
00001101
00010001
00100001
00100001
00101001
00101101
WAL true

TIL 5z
00111111
01000000
10000000
10000000
10000000
10000001
10000001
10000001
WAL true

TIL 6a
10000100
10100100
10000100
10001000
10110000
11010000
01000000
00000000
WAL true

TIL 6b
00000000
11000000
10110000
10001000
10000100
10010100
10000100
10000100
WAL true

TIL 6c
00000000
11111111
10000001
10000001
10000001
11111111
00100100
00000000
WAL true

TIL 6d
10000001
11111111
10010001
10100101
10101001
10000001
11111111
10000001
WAL true

TIL 6e
00000000
00000000
00000000
00000000
00011111
00010000
00010100
00010000
WAL true

TIL 6f
11111111
10001000
11111101
10100010
11111111
00000000
10010010
00000000
WAL true

TIL 6g
11111111
00000000
10100001
00000000
11111111
10010001
11111011
10000001
WAL true

TIL 6h
11111111
01000101
00111111
00010001
11111111
00000000
01001001
00000000
WAL true

TIL 6i
00000000
00000000
00000000
00000000
11111000
00001000
00101000
00001000
WAL true

TIL 6j
10000001
11111111
10100101
10100101
10100101
10100101
11111111
10000001
WAL true

TIL 6k
00010111
00000001
00000001
00101111
00010111
01011111
00101111
10111111

TIL 6l
11111111
10000000
10111110
10100010
10100010
10111111
10110000
10011111
WAL true

TIL 6m
11111111
00000001
00010101
00010101
00000001
11111001
00001001
11111001
WAL true

TIL 6n
10000001
10111001
10111001
10111001
10000011
11000110
01111100
00000000
WAL true

TIL 6o
00000000
01111100
11000110
10000011
10111001
10111001
10111001
10000001
WAL true

TIL 6p
01111110
10000001
10000001
10000001
10000001
10101011
10101011
01111110
WAL true

TIL 6q
11111111
00000001
00000001
01100001
00100001
00000001
00000001
11111111
WAL true

TIL 6r
11111111
10000000
10000000
10000110
10000100
10000000
10000000
11111111
WAL true

TIL 6s
11111111
00000000
00000000
00000000
00000000
11111111
10000001
11111111
WAL true

TIL 6t
00010101
00010000
00011111
00000000
00000000
00000000
00000000
00000000
WAL true

TIL 6u
01010100
00000100
11111100
00000000
00000000
00000000
00000000
00000000
WAL true

TIL 6v
01010101
00000000
11111111
00000000
00011000
00100100
00100100
00011000
WAL true

TIL 6w
11111111
10000000
10000000
11100111
11100111
11100111
11100111
11100111
WAL true

TIL 6x
00100100
00100100
00100100
00100100
00100100
00100100
00100100
00100100
WAL true

TIL 6y
00111100
01000010
10000001
10000001
10000001
10000001
01000010
00111100
WAL true

TIL 6z
00100000
11111111
00100000
00100000
11111111
00100000
00100000
11111111
WAL true

TIL 7a
00000000
00000000
00000000
00000000
00000000
11111111
00000100
00000100
WAL true

TIL 7b
00000001
00000001
00000001
00000001
00000001
11111111
00000000
00000000
WAL true

TIL 7c
00000000
00011110
00010010
00010010
00010010
00010010
00011110
00000000
WAL true

TIL 7d
00000000
01111000
01001000
01001000
01001000
01001000
01111000
00000000
WAL true

TIL 7e
00000000
00000000
00001111
00110000
00100000
01000000
01000000
01000000
WAL true

TIL 7f
01000000
01000000
01000000
00100000
00110000
00001111
00000000
00000000
WAL true

TIL 7g
00001000
00001000
00001000
00010000
00110000
11000000
00000000
00000000
WAL true

TIL 7h
00000000
00000000
11000000
00110000
00010000
00001000
00001000
00001000
WAL true

TIL 7i
00000000
00011000
00100100
01000010
01000010
00100100
00011000
00000000
WAL true

TIL 7j
00000000
01111110
01000010
01000010
01000010
01111110
00100100
00000000
WAL true

TIL 7k
00000000
00111100
00100100
00100100
00111100
00100100
00111100
00000000
WAL true

TIL 7l
11111111
00000001
00000001
11100111
11100111
11100111
11100111
11100111
WAL true

TIL 7m
00111100
01000010
10000001
10000001
10000001
10000001
01000010
11111100
WAL true

TIL 7n
10000000
00000000
00000001
10000000
10000000
00000001
10000001
10000000
WAL true

TIL 7o
11111111
00000000
00000000
00000000
00000000
00000000
00000000
00000000

TIL 7p
11111111
10000000
10111000
10101000
10111000
10000000
10111000
10101000
WAL true

TIL 7q
00011111
00010000
00010000
00010000
00010000
00010000
00010000
00010000
WAL false

TIL 7r
00010000
00010000
00010000
00010000
00010000
00010000
00010000
00011111

TIL 7s
10101000
10111000
10000000
10111000
10101000
10111000
10000000
11111111
WAL true

TIL 7t
10000000
10000000
10000000
10000000
10000000
10000000
10000000
10000000

TIL 7u
00000000
00000000
00000000
00000000
00000000
00000000
00000000
11111111

TIL 7v
00000000
00000000
00000000
00000000
00000000
00000000
11111111
10000001

TIL 7w
10000001
10000001
10000001
10000001
10000001
10000001
10000001
10000001

TIL 7x
10000001
00000001
00000001
00000001
00000001
00000001
00000001
11111111

TIL 7y
11111111
10000000
10000000
10000000
10000000
10000000
10000000
11111111

TIL 7z
11111111
11111111
11111111
11111111
11111111
11111111
11111111
11111111
WAL true

TIL 8a
01010000
01110000
01010000
11010000
01010000
01110000
01010000
11110000

TIL 8b
01010000
01110000
01010000
11010000
01010000
01110000
01010000
11010000

TIL 8c
11110000
01110000
01010000
11010000
01010000
01110000
01010000
11010000
WAL false

TIL 8d
00000000
00000011
00001101
00111101
01010101
11110111
01010101
11011101

TIL 8e
01010101
01110111
01010101
11011101
01010101
01110111
01010101
11011101

TIL 8f
01010101
01110111
11010101
01011101
00110101
00001111
00000011
00000000

TIL 8g
00011101
00000011
00000000
00000000
00000000
00000000
00000000
00000000

TIL 8h
00000000
00000000
00000000
00000000
00000000
00000000
00000011
00011101

TIL 8i
11110101
01110111
01010101
11011101
01010101
01110111
01010101
11011101

TIL 8j
01010101
01110111
01010101
11011101
01010101
01110111
01010101
11111101

TIL 8k
11111111
01110111
01010101
11011101
01010101
01110111
01010101
11011101

TIL 8l
01010101
01110111
01010101
11011101
01010101
01110111
01010101
11111111

TIL 8m
00000000
00000100
00000010
00000000
00010000
00001000
00001000
00000000

TIL 8n
00000000
00000000
00000000
00100000
01010000
00100000
00000000
00000000

TIL 8o
11100001
10000001
10000001
10000001
10000001
10000001
10000001
10000001

TIL 8p
10000001
10000001
10000001
10000001
10000001
10000001
10000001
11100001

TIL 8q
11111111
11111110
11111000
11100000
11000000
11000000
10000000
10000000
WAL true

TIL 8r
10000000
10000000
11000000
11000000
11100000
11111000
11111110
11111111
WAL true

TIL 8s
11111110
11111110
11111110
11111111
11111111
11111111
11111111
11111111
WAL true

TIL 8t
00000000
00010000
00000000
01001000
10010000
11001100
11101100
11111110
WAL true

TIL 8u
00000000
00010000
00000010
01000000
01010010
00111010
11011111
11111111
WAL true

TIL 8v
00000000
00111111
00100000
00100111
00100100
00100111
00100100
00100111
WAL true

TIL 8w
00000000
11111111
00000000
11111111
00000000
11111111
00000000
11111111
WAL true

TIL 8x
00000000
11111100
00000100
11100100
00100100
11100100
00100100
11100100
WAL true

TIL 8y
00100100
00100100
00100100
00100100
00100100
00100111
00100100
00100100
WAL true

TIL 8z
00100100
00100100
00100100
00100100
00100100
11100100
00100100
00100100
WAL true

TIL 9a
00000000
00000000
00000000
00000000
00000000
00000000
00000000
00000011

TIL 9b
00000011
00000000
00000000
00000000
00000000
00000000
00000000
00000000

TIL 9c
00000000
00000000
00000000
00000100
00001000
00000100
00000000
00000000

TIL 9d
00000000
00000000
00000100
00000100
00001010
00010000
00000000
00000000

TIL 9e
00000000
00000000
00000000
00000000
00000000
01111111
11000000
00000000
WAL true

TIL 9f
00100010
00010001
00000001
00001000
00001000
00000100
00000100
00000100
WAL true

TIL 9g
00000000
00000000
00000000
10000000
10000000
10000000
10000000
10000000
WAL true

TIL 9h
10000000
10000000
10000000
10000000
10000000
00000000
00000000
00000000
WAL true

TIL 9i
00000100
00000100
00000100
00001000
00001000
00010001
00000001
00100010
WAL true

TIL 9j
00000010
00000100
00000100
00001000
00001000
00010000
00010000
00010000
WAL true

TIL 9k
00011000
00001110
00000011
00000001
00010000
00001000
00000110
00000001
WAL true

TIL 9l
00000000
00000000
00000000
11000000
01110000
00011111
00000000
10000000
WAL true

TIL 9m
00000000
00000000
00000000
00000000
00000001
11111111
00000000
00000000
WAL true

TIL 9n
00000000
00000001
00000011
00011110
11110000
00000000
00000001
11000000
WAL true

TIL 9o
11000011
10000110
00100100
00101100
01001000
10011000
00010000
00100000

TIL 9p
00000001
00000011
00001100
00011000
00010001
00110000
01100000
01000001
WAL true

TIL 9q
11000000
00010000
01100000
10000001
00001111
00111000
11100000
10000000

TIL 9r
00000000
00000000
00000000
00000000
00000000
00000000
00001111
01110000
WAL true

TIL 9s
00111100
11000000
00011111
11110000
00000000
00000000
00000000
00000000
WAL true

TIL 9t
01100000
11000000
00000000
00000000
00000000
00000000
00000000
00000000
WAL true

TIL 9u
00000000
00000001
00001111
11111000
10000000
00000000
00000000
00000000
WAL true

TIL 9v
01011111
00000000
00000000
00000000
11111111
00000000
00000000
00000000
WAL true

TIL 9w
00000000
00000000
11110000
00011111
00000001
00000000
00000000
00000000
WAL true

TIL 9x
00000000
01111000
10001111
10000000
10000000
01000000
01000000
00100000
WAL true

TIL 9y
00100000
00010000
00010000
00001000
00001000
00000100
01000100
00000010
WAL true

TIL 9z
00000010
00000100
00000100
00001000
00001000
00010000
00010000
00100000
WAL true

TIL a0
00100000
01000000
01000000
10000000
10000000
10000000
10000000
10000000
WAL true

TIL a1
10000000
10000000
10000000
10000000
10000000
01000000
01000000
00100000
WAL true

TIL a2
00000000
00000000
00000000
00000000
00000000
00000000
00000000
00000000
WAL true

TIL a3
10000000
10000000
10000000
10000000
10000000
00000000
00000000
00000000

TIL a4
00000000
00000000
00000000
00000000
00111111
00100001
00100000
00100000
WAL false

TIL a5
00000000
00000000
00000000
00000000
11111100
10000100
00000100
00000100
WAL false

TIL a6
00000000
11111111
10000001
10001111
10101001
11111111
00000000
11111111

TIL a7
01000001
01011001
01000001
01001111
01001000
01001000
01111111
00000000

TIL a8
11111111
00000000
00000000
00000000
00000000
00000000
00000000
00000000

TIL a9
00000000
00000000
00000000
00000000
00000000
00000000
00000000
00000000

TIL aa
00000000
00100100
00100100
00000000
00111100
00100100
00011000
00000000

TIL ab
10000000
10000000
10000000
10000000
10000000
10000000
10000000
10111000

TIL ac
10111000
10000000
10000000
10000000
10000000
10000000
10000000
10000000

SPR 13
00010101
00010000
00011111
00000000
00000000
00000000
00000000
00000000
DLG SPR_s
POS h 9,4

SPR 14
01010101
00000000
11111111
00000000
00011000
00100100
00100100
00011000
DLG SPR_t
POS h 10,4

SPR 15
01010100
00000100
11111100
00000000
00000000
00000000
00000000
00000000
DLG SPR_u
POS h 11,4

SPR 16
00000000
00000000
00000001
00000000
00000011
00000000
00000001
00000000
DLG SPR_v
POS k 12,2

SPR 17
00000000
00000000
00000000
00000000
00000000
11111111
00000000
00000000
DLG SPR_w
POS l 4,8

SPR 18
00000000
00000000
00000000
00000000
00000000
11111111
00000000
00000000
DLG SPR_x
POS l 5,8

SPR 19
00000000
11111110
00000010
00000010
00000010
00000010
00000010
00000010
DLG SPR_11
POS n 10,2

SPR A
00011000
00111000
00100000
00011000
00011000
00011000
00111000
00001000
>
00011000
00111000
00100000
00011000
00011000
00011000
00011000
00010000
DLG SPR_p
POS 0 9,9

SPR a
01000000
01001111
01001111
01001111
01001111
01000000
00111111
00000000
NAME LydiaBed1
DLG SPR_0
POS 0 10,10

SPR c
00000010
11110010
11110010
11110010
11110010
00000010
11111100
00000000
NAME LydiaBed2
DLG SPR_1
POS 0 11,10

SPR d
01000000
01000000
01001000
01000100
01000100
01001100
01000000
01111111
NAME LydiaBed3
DLG SPR_2
POS 0 10,9

SPR e
00000010
00000010
00000010
00000010
00000010
00000010
00000010
11111110
NAME LydiaBed4
DLG SPR_3
POS 0 11,9

SPR f
00000000
00111111
01000000
01000000
01000000
01000000
01000000
01000000
NAME LydiaBed5
DLG SPR_4
POS 0 10,8

SPR g
00000000
11111100
00000010
00000010
00000010
00000010
00000010
00000010
NAME LydiaBed6
DLG SPR_5
POS 0 11,8

SPR h
01111111
01111000
01000000
01110000
01000000
01111000
01000000
01110000
DLG SPR_6
POS 1 6,10

SPR i
01000000
01111000
01000000
01110000
01000000
01111111
01000000
01111111
DLG SPR_7
POS 1 6,11

SPR j
01101100
00010000
00010000
00010000
00010000
00010000
00010000
01101100
DLG SPR_8
POS 1 3,5

SPR k
00000000
00000001
00000011
00000011
00000011
00000011
00000001
00000000
DLG SPR_9
POS 1 11,8

SPR l
00000000
00000001
00000011
00000011
00000011
00000011
00000001
00000000
DLG SPR_a
POS 1 11,6

SPR m
10000001
10000001
00000000
01111111
01001001
01001101
01001011
01001001
DLG SPR_b
POS 3 12,7

SPR n
01101001
01011001
01001001
01001001
01111111
00000000
10000001
10000001
DLG SPR_c
POS 3 12,8

SPR o
00000000
00111111
01000000
01000000
01011110
01011110
01011110
01011110
DLG SPR_d
POS 4 5,6

SPR p
01011110
01011110
01011110
01011110
01000000
01000000
00111111
00000000
DLG SPR_e
POS 4 5,7

SPR q
00000000
11111111
10000000
10000000
10000000
10000000
10000000
10000000
DLG SPR_f
POS 4 6,6

SPR r
10000000
10000000
10000000
10000000
10000000
10000000
11111111
00000000
DLG SPR_g
POS 4 6,7

SPR s
00000000
11111100
00000010
00000010
00000010
00000010
00000010
00000010
DLG SPR_h
POS 4 7,6

SPR t
00000010
00000010
00000010
00000010
00000010
00000010
11111100
00000000
DLG SPR_i
POS 4 7,7

SPR u
11111011
00001000
00001000
11111000
01001000
10001000
11111000
00000011
DLG SPR_j
POS 5 7,13

SPR v
11011111
00010010
00010100
00011111
00010000
00010000
00011111
11000000
DLG SPR_k
POS 5 6,13

SPR w
10000001
10000001
00000000
11111110
10010010
10010010
10011010
10010110
DLG SPR_l
POS 7 3,9

SPR x
10010010
11010010
10110010
10010010
11111110
00000000
10000001
10000001
DLG SPR_m
POS 7 3,10

SPR y
00000000
00000001
00000011
00000011
00000011
00000011
00000001
00000000
DLG SPR_n

SPR z
00000000
01111111
01001000
01001000
01001111
01100001
01000101
01000001
DLG SPR_o
POS a 11,3

SPR 1a
00000000
01111111
01000000
01000000
01000000
11000000
01000000
01000000
DLG SPR_10
POS n 9,2

SPR 1b
01000000
01000000
11000000
01000000
01111111
01000000
01111111
00000000
DLG SPR_z
POS n 9,3

SPR 1c
00000010
00000010
00000010
00000010
11111110
00000010
11111110
00000000
DLG SPR_y
POS n 10,3

SPR 1h
01001000
10110100
10000100
10000100
10000100
10110101
01001001
00000010
DLG SPR_q
POS n 2,8

SPR 1i
01111110
01000010
01111110
01000010
01001010
01001010
01000010
01111110
DLG SPR_r
POS 8 12,7

SPR 1j
00000000
00000000
11111111
10000000
10000000
10111110
10101010
10101010
DLG SPR_16
POS 9 4,9

ITM 0
00000000
00000000
00000000
00011100
00100100
00000000
00000000
00000000
NAME Cat
DLG ITM_0

ITM 1
00000000
00000000
00000000
00000100
00001000
00000100
00000000
00000000
NAME Shell
DLG ITM_1

ITM 2
00000000
00000000
00000000
00000000
00111111
00100001
00100000
00100000
NAME Bread1
DLG ITM_2

ITM 3
00000000
00000000
00000000
00000000
11111100
10000100
00000100
00000100
NAME Bread2
DLG ITM_3

ITM 4
00000000
11111111
10000001
10001111
10101001
11111111
00000000
11111111
NAME Shell2
DLG ITM_4

ITM 5
01000001
01011001
01000001
01001111
01001000
01001000
01111111
00000000
NAME Clue
DLG ITM_5

ITM 6
00000000
00000000
00000000
00000000
00000000
00000000
00000000
00000000
NAME Exit Check
DLG ITM_6

ITM 7
00000000
00000000
00000000
00000000
00000000
00000000
00000000
00000000
NAME ExitCheck2
DLG ITM_7

ITM 8
00000000
00000000
00000100
00000100
00001010
00010000
00000000
00000000
NAME Stick1
DLG ITM_8

ITM 9
00000000
00000000
00000100
00000100
00001010
00010000
00000000
00000000
NAME Stick2
DLG ITM_9

DLG SPR_0
"""
{
  - {item "Cat"} == 1 ?
    I still need to find more cats.
  - {item "Cat"} == 2 ?
    I still need to find more cats.
  - {item "Cat"} == 3 ?
    I still need to find more cats.
  - {item "Cat"} == 4 ?
    I still need to find more cats.
  - {item "Cat"} == 5 ?
    I still need to find more cats.
  - {item "Cat"} == 6 ?
    I found all of the cats! They're so cute.
  - else ?
    Lydia's bed with only one stuffed animal cat. I need to find the rest of the cats for her.
}
"""

DLG ITM_0
"""
One of the cats! Let me bring this back to Lydia's bed.
{a = a + 1}
"""

DLG SPR_1
"""
{
  - {item "Cat"} == 1 ?
    I still need to find more cats.
  - {item "Cat"} == 2 ?
    I still need to find more cats.
  - {item "Cat"} == 3 ?
    I still need to find more cats.
  - {item "Cat"} == 4 ?
    I still need to find more cats.
  - {item "Cat"} == 5 ?
    I still need to find more cats.
  - {item "Cat"} == 6 ?
    I found all of the cats! They're so cute.
  - else ?
    Lydia's bed with only one stuffed animal cat. I need to find the rest of the cats for her.
}
"""

DLG SPR_2
"""
{
  - {item "Cat"} == 1 ?
    I still need to find more cats.
  - {item "Cat"} == 2 ?
    I still need to find more cats.
  - {item "Cat"} == 3 ?
    I still need to find more cats.
  - {item "Cat"} == 4 ?
    I still need to find more cats.
  - {item "Cat"} == 5 ?
    I still need to find more cats.
  - {item "Cat"} == 6 ?
    I found all of the cats! They're so cute.
  - else ?
    Lydia's bed with only one stuffed animal cat. I need to find the rest of the cats for her.
}
"""

DLG SPR_3
"""
{
  - {item "Cat"} == 1 ?
    I still need to find more cats.
  - {item "Cat"} == 2 ?
    I still need to find more cats.
  - {item "Cat"} == 3 ?
    I still need to find more cats.
  - {item "Cat"} == 4 ?
    I still need to find more cats.
  - {item "Cat"} == 5 ?
    I still need to find more cats.
  - {item "Cat"} == 6 ?
    I found all of the cats! They're so cute.
  - else ?
    Lydia's bed with only one stuffed animal cat. I need to find the rest of the cats for her.
}
"""

DLG SPR_4
"""
{
  - {item "Cat"} == 1 ?
    I still need to find more cats.
  - {item "Cat"} == 2 ?
    I still need to find more cats.
  - {item "Cat"} == 3 ?
    I still need to find more cats.
  - {item "Cat"} == 4 ?
    I still need to find more cats.
  - {item "Cat"} == 5 ?
    I still need to find more cats.
  - {item "Cat"} == 6 ?
    I found all of the cats! They're so cute.
  - else ?
    Lydia's bed with only one stuffed animal cat. I need to find the rest of the cats for her.
}
"""

DLG SPR_5
"""
{
  - {item "Cat"} == 1 ?
    I still need to find more cats.
  - {item "Cat"} == 2 ?
    I still need to find more cats.
  - {item "Cat"} == 3 ?
    I still need to find more cats.
  - {item "Cat"} == 4 ?
    I still need to find more cats.
  - {item "Cat"} == 5 ?
    I still need to find more cats.
  - {item "Cat"} == 6 ?
    I found all of the cats! They're so cute.
  - else ?
    Lydia's bed with only one stuffed animal cat. I need to find the rest of the cats for her.
}
"""

DLG SPR_6
Our Nancy Drew book collection.

DLG SPR_7
Our Nancy Drew book collection.

DLG SPR_8
I'm not as good at making silly faces in the mirror as Lydia is.

DLG SPR_9
One of Uncle Steve's masks. This one looks sad.

DLG SPR_a
One of Uncle Steve's masks. This one looks happy.

DLG SPR_b
No sign of Lydia yet.

DLG SPR_c
No sign of Lydia yet.

DLG SPR_d
"""
{
  - {item "Clue"} == 1 ?
    There, the scavenger hunt is all set.
  - else ?
    The world's least comfortable beds.
}
"""

DLG SPR_f
"""
{
  - {item "Clue"} == 1 ?
    There, the scavenger hunt is all set.
  - else ?
    The world's least comfortable beds.
}
"""

DLG SPR_g
"""
{
  - {item "Clue"} == 1 ?
    There, the scavenger hunt is all set.
  - else ?
    The world's least comfortable beds.
}
"""

DLG SPR_h
"""
{
  - {item "Clue"} == 1 ?
    There, the scavenger hunt is all set.
  - else ?
    The world's least comfortable beds.
}
"""

DLG SPR_i
"""
{
  - {item "Clue"} == 1 ?
    There, the scavenger hunt is all set.
  - else ?
    The world's least comfortable beds.
}
"""

DLG SPR_j
You can climb out of this window to get to the second floor of the porch. But we never use it.

DLG SPR_k
You can climb out of this window to get to the second floor of the porch. But we never use it.

DLG SPR_l
The beach is so beautiful.

DLG SPR_m
The beach is so beautiful.

DLG SPR_n
One of Uncle Steve's masks. This one looks sad.

DLG SPR_o
"""
{
  - {item "Clue"} == 1 ?

  - else ?
    I need to finish this scavenger hunt. Time to place the last clue.
}
"""

DLG SPR_s
Plonk, plonk, plink, plonk.

DLG SPR_t
Plonk, plonk, plink, plonk.

DLG SPR_u
Plonk, plonk, plink, plonk.

DLG SPR_v
Remember to wash the sand off of your feet!

DLG SPR_w
I love sitting here and watching the boats.

DLG SPR_x
I love sitting here and watching the boats.

DLG SPR_y
We spent so many hours playing on the drain head.

DLG SPR_z
We spent so many hours playing on the drain head.

DLG SPR_10
We spent so many hours playing on the drain head.

DLG SPR_11
We spent so many hours playing on the drain head.

DLG ITM_1
"""
{
  - {item "Shell2"} == 1 ?
    Let me draw something cute on this shell.
    {a = a + 1}
  - else ?
    A little shell perfect for drawing on.
    {a = a + 1}
}
"""

DLG ITM_2
"""
{
  - {item "Bread2"} == 1 ?
    {a = a + 1}
  - else ?
    A slice of bread. I can put that in the minnow trap!
    {a = a + 1}
}
"""

DLG ITM_3
"""
{
  - {item "Bread1"} == 1 ?
    {a = a + 1}
  - else ?
    A slice of bread. I can put that in the minnow trap!
    {a = a + 1}
}
"""

DLG SPR_q
"""
{
  - {item "Bread1"} == 1 ?
    I should leave the trap alone for a while now so the minnows will come.
  - {item "Bread2"} == 1 ?
    I should leave the trap alone for a while now so the minnows will come.
  - else ?
    I need some bread for the minnow trap.
}
"""

DLG ITM_4
"""
{
  - {item "Shell"} == 1 ?
    Let me draw something cute on this shell.
    {a = a + 1}
  - {item "Shell"} == 0 ?
    A permanant marker. If I had a shell I could draw something on it.
    {a = a + 1}
}
"""

DLG ITM_5
"""
I need to finish this scavenger hunt. Time to place the last clue.
{a = a + 1}
"""

DLG SPR_e
"""
{
  - {item "Clue"} == 1 ?
    There, the scavenger hunt is all set.
  - else ?
    The world's least comfortable beds.
}
"""

DLG SPR_p
"""
{
  - {item "Cat"} == 1 ?

  - else ?

}
"""

DLG ITM_6
"""
{
  - a == 12 ?
    Let me see if Lydia is here yet.
    {b = b + 1}
  - else ?
    I need to keep preparing before Lydia arrives.
}
"""

DLG ITM_7
"""
{
  - b == 1 ?

  - a == 12 ?
    Let me see if Lydia is here yet.
  - else ?
    I need to keep preparing before Lydia arrives.
}
"""

DLG SPR_r
We did so many plays together. TFTY really needs a name change though.

DLG SPR_16
Sorry, Monopoly, Clue... Let's finish our Beach House clue board!

DLG ITM_8
"""
A stick, I can draw in the sand with it!
{a = a + 1}
"""

DLG ITM_9
"""
A stick, I can draw in the sand with it!
{a = a + 1}
"""

END 0


END undefined
Lydia's here!!!

VAR a
0

VAR b
0

