
Tankzbot presents: Hungry...

# BITSY VERSION 4.8

! ROOM_FORMAT 1

PAL 0
3,20,255
147,148,255
255,255,255

PAL 1
0,0,0
77,24,24
255,255,255

PAL 2
0,0,0
48,54,255
255,0,7

PAL 3
NAME VictoryColor
40,44,255
116,218,111
255,255,255

ROOM 0
1h,1h,1h,1h,1h,1h,1h,1h,1h,1h,1h,0,l,m,m,m
1j,1j,1j,1j,1j,1g,1j,1j,1j,1j,1j,0,l,0,0,0
0,0,0,0,0,0,0,0,0,0,0,0,l,b,b,b
1f,1g,1f,1f,1f,1f,1f,1f,1f,1f,1f,1f,l,b,b,b
1i,1i,1i,1i,1i,1i,1i,1i,1i,1i,1i,1i,l,b,b,b
c,c,c,c,c,c,c,e,e,c,c,c,c,c,c,c
d,e,e,e,e,e,d,e,e,f,f,f,f,f,f,f
d,e,e,e,e,e,d,e,e,e,f,f,f,f,f,f
d,e,e,e,e,e,c,c,c,c,c,c,c,f,f,f
d,e,e,e,e,e,e,e,e,e,e,e,d,f,f,f
d,e,e,e,e,e,e,e,e,e,e,e,d,f,f,f
d,e,e,e,e,e,e,e,e,e,e,e,d,f,f,f
d,e,e,e,e,e,e,e,e,e,e,e,d,f,f,f
d,e,e,e,e,e,e,e,e,e,e,e,d,c,c,c
d,e,e,e,e,e,e,e,e,e,e,e,e,e,e,e
d,c,c,c,c,c,c,c,c,c,c,c,c,c,c,c
ITM 2 5,6
EXT 15,14 1 0,14
PAL 0

ROOM 1
m,m,m,b,b,b,b,m,m,b,b,b,b,m,m,m
0,0,0,l,0,n,1k,1l,1m,1n,n,0,l,0,0,0
b,b,b,l,0,n,n,n,n,n,n,0,l,b,b,b
b,b,b,l,0,0,0,0,0,0,0,0,l,b,b,b
b,b,b,l,0,k,i,i,i,i,g,0,l,b,b,b
c,c,c,c,c,c,c,c,c,c,c,c,c,c,c,c
f,f,f,f,f,f,f,f,f,f,f,f,f,f,f,f
f,f,f,f,f,f,f,f,f,f,f,f,f,f,f,f
f,f,f,f,f,f,f,f,f,f,f,f,f,f,f,f
f,f,f,f,f,f,f,f,f,f,f,f,f,f,f,f
f,f,f,f,f,f,f,f,f,f,f,f,f,f,f,f
f,f,f,f,f,f,f,f,f,f,f,f,f,f,f,f
f,f,f,f,f,f,f,f,f,f,f,f,f,f,f,f
c,c,c,c,c,c,c,c,c,c,c,c,c,c,c,c
e,e,e,e,e,e,e,e,e,e,e,e,e,e,e,e
c,c,c,c,c,c,c,c,c,c,c,c,c,c,c,c
ITM 3 12,14
EXT 0,14 0 15,14
EXT 15,14 2 0,14
PAL 0

ROOM 2
m,m,m,l,1f,1f,1g,1f,1f,1f,1f,1f,1f,1f,1f,1g
0,0,0,l,1h,1h,1h,1h,1h,1h,1h,1h,1h,1h,1h,1h
b,b,b,l,1j,1j,1j,1j,1j,1j,1j,1g,1j,1j,1j,1j
b,b,b,l,0,0,0,0,0,0,0,0,0,0,0,0
b,b,b,l,1f,1g,1f,1f,1f,1g,1f,1f,1f,1f,1f,1f
c,c,c,c,1i,1i,1i,1i,1i,1i,1i,1i,1i,1i,1i,1i
f,f,f,f,f,0,0,0,1b,14,19,1a,0,0,0,0
f,f,f,d,f,0,0,11,z,10,0,15,y,0,0,0
f,f,f,d,0,0,0,1c,1d,19,19,19,1e,y,0,0
f,f,f,d,0,0,0,q,o,p,r,s,t,v,0,0
f,f,f,d,0,0,0,u,0,0,0,0,0,v,0,0
f,f,f,d,0,0,0,u,18,18,1o,12,18,v,0,0
f,f,f,d,0,0,0,w,x,x,1p,13,x,v,0,0
c,c,c,d,e,e,e,c,c,c,c,c,c,c,c,c
e,e,e,e,e,e,e,e,e,e,e,e,e,e,e,e
c,c,c,c,c,c,c,c,c,c,c,c,c,c,c,c
ITM 4 14,12
EXT 0,14 1 15,14
EXT 15,14 3 0,14
PAL 0

ROOM 3
1f,1g,1g,1f,1f,1g,1g,1f,1f,1g,1g,1f,1f,1f,1f,1f
1i,1i,1i,1i,1i,1i,1i,1i,1i,1i,1i,1i,1i,1i,1i,1i
0,0,0,0,0,11,z,1q,y,0,0,0,0,0,0,0
0,0,0,0,11,z,10,0,15,y,0,0,0,0,0,0
0,0,0,11,z,10,18,18,0,15,y,0,0,0,0,0
0,0,0,z,10,0,0,0,0,0,15,y,0,0,0,0
0,0,0,u,0,0,1s,1t,o,p,1r,v,0,0,0,0
0,0,0,u,18,18,0,0,0,0,0,v,0,0,0,0
0,0,0,u,18,18,0,0,18,18,18,v,0,0,0,0
0,0,0,u,0,0,0,12,0,0,0,v,0,0,0,0
0,0,0,w,x,x,x,13,x,x,x,v,0,0,0,0
0,0,0,0,0,0,d,e,d,0,0,0,0,0,0,0
0,0,0,0,0,0,d,e,d,0,0,0,0,0,0,0
c,c,c,c,c,c,c,e,c,c,c,c,c,c,c,c
e,e,e,e,e,e,e,e,e,e,e,e,e,e,e,e
c,c,c,c,c,c,c,c,c,c,c,c,c,c,c,c
EXT 7,12 4 7,12
EXT 15,14 o 0,14
EXT 0,14 2 15,14
PAL 0

ROOM 4
1f,1g,1g,1f,1f,1g,1g,1f,1f,1g,1g,1f,1f,1f,1f,1f
1i,1i,1i,1i,1i,1i,1i,1i,1i,1i,1i,1i,1i,1i,1i,1i
0,0,0,0,0,11,z,1q,y,0,0,0,0,0,0,0
0,0,0,0,11,z,10,0,15,y,0,0,0,0,0,0
0,0,0,11,z,10,18,18,0,15,y,0,0,0,0,0
0,0,0,z,10,0,0,0,0,0,15,y,0,0,0,0
0,0,0,u,0,0,1s,1u,1v,1w,1x,v,0,0,0,0
0,0,0,u,18,18,0,0,0,0,0,v,0,0,0,0
0,0,0,u,18,18,0,0,18,18,18,v,0,0,0,0
0,0,0,u,0,0,0,12,0,0,0,v,0,0,0,0
0,0,0,w,x,x,x,13,x,x,x,v,0,0,0,0
0,0,0,0,0,0,d,e,d,0,0,0,0,0,0,0
0,0,0,0,0,0,d,e,d,0,0,0,0,0,0,0
c,c,c,c,c,c,c,e,c,c,c,c,c,c,c,c
e,e,e,e,e,e,e,e,e,e,e,e,e,e,e,e
c,c,c,c,c,c,c,c,c,c,c,c,c,c,c,c
EXT 0,14 2 15,14
EXT 7,10 5 7,14
PAL 0

ROOM 5
0,0,0,0,0,0,0,0,0,0,0,0,0,0,0,0
0,0,0,0,0,0,0,0,0,0,0,0,0,0,0,0
0,0,0,0,0,0,0,0,0,0,0,0,0,0,0,0
0,0,0,0,0,0,0,0,0,0,0,0,0,0,0,0
0,0,0,0,0,0,0,0,0,0,0,0,0,0,0,0
0,0,0,0,0,0,0,0,0,0,0,0,0,0,0,0
0,0,0,0,0,0,0,0,0,0,0,0,0,0,0,0
0,0,0,0,0,0,0,0,0,0,0,0,0,0,0,0
0,0,0,0,0,0,0,0,0,0,0,0,0,0,0,0
0,0,0,0,0,0,0,0,0,0,0,0,0,0,0,0
0,0,0,0,0,0,0,0,0,0,0,0,0,0,0,0
0,0,0,0,0,0,0,0,0,0,0,0,0,0,0,0
0,0,0,0,0,0,1z,0,1z,0,0,0,0,0,0,0
0,0,0,0,0,1z,1z,0,1z,1z,0,0,0,0,0,0
0,0,0,0,0,1z,0,0,1z,1z,0,0,0,0,0,0
0,0,0,0,0,1z,1z,0,1z,1z,0,0,0,0,0,0
EXT 7,13 6 7,13
PAL 1

ROOM 6
0,0,0,0,0,0,0,0,0,0,0,0,0,0,0,0
0,0,0,0,0,0,0,0,0,0,0,0,0,0,0,0
0,0,0,0,0,0,0,0,0,0,0,0,0,0,0,0
0,0,0,0,0,0,0,0,0,0,0,0,0,0,0,0
0,0,0,0,0,0,0,0,0,0,0,0,0,0,0,0
0,0,0,0,0,0,0,0,0,0,0,0,0,0,0,0
0,0,0,0,0,0,0,0,0,0,0,0,0,0,0,0
0,0,0,0,0,0,0,0,0,0,0,0,0,0,0,0
0,0,0,0,0,0,0,0,0,0,0,0,0,0,0,0
0,0,0,0,0,0,0,0,0,0,0,0,0,0,0,0
0,0,0,0,0,0,0,0,0,0,0,0,0,0,0,0
0,0,0,0,0,0,1z,0,1z,0,0,0,0,0,0,0
0,0,0,0,0,1z,1z,0,1z,1z,0,0,0,0,0,0
0,0,0,0,0,1z,1z,0,1z,1z,0,0,0,0,0,0
0,0,0,0,0,1z,1z,0,1z,1z,0,0,0,0,0,0
0,0,0,0,0,0,1z,0,1z,0,0,0,0,0,0,0
EXT 7,12 7 7,12
EXT 7,14 5 7,14
PAL 1

ROOM 7
0,0,0,0,0,0,0,0,0,0,0,0,0,0,0,0
0,0,0,0,0,0,0,0,0,0,0,0,0,0,0,0
0,0,0,0,0,0,0,0,0,0,0,0,0,0,0,0
0,0,0,0,0,0,0,0,0,0,0,0,0,0,0,0
0,0,0,0,0,0,0,0,0,0,0,0,0,0,0,0
0,0,0,0,0,0,0,0,0,0,0,0,0,0,0,0
0,0,0,0,0,0,0,0,0,0,0,0,0,0,0,0
0,0,0,0,0,0,0,0,0,0,0,0,0,0,0,0
0,0,0,0,0,0,0,0,0,0,0,0,0,0,0,0
0,0,0,0,0,0,0,0,0,0,0,0,0,0,0,0
0,0,0,0,0,0,1z,0,1z,0,0,0,0,0,0,0
0,0,0,0,0,1z,1z,0,1z,1z,0,0,0,0,0,0
0,0,0,0,0,1z,1z,0,1z,1z,0,0,0,0,0,0
0,0,0,0,0,1z,1z,0,1z,1z,0,0,0,0,0,0
0,0,0,0,0,0,1z,0,1z,0,0,0,0,0,0,0
0,0,0,0,0,0,0,0,0,0,0,0,0,0,0,0
EXT 7,13 6 7,13
EXT 7,11 8 7,11
PAL 1

ROOM 8
0,0,0,0,0,0,0,0,0,0,0,0,0,0,0,0
0,0,0,0,0,0,0,0,0,0,0,0,0,0,0,0
0,0,0,0,0,0,0,0,0,0,0,0,0,0,0,0
0,0,0,0,0,0,0,0,0,0,0,0,0,0,0,0
0,0,0,0,0,0,0,0,0,0,0,0,0,0,0,0
0,0,0,0,0,0,0,0,0,0,0,0,0,0,0,0
0,0,0,0,0,0,0,0,0,0,0,0,0,0,0,0
0,0,0,0,0,0,0,0,0,0,0,0,0,0,0,0
0,0,0,0,0,0,0,0,0,0,0,0,0,0,0,0
0,0,0,0,0,0,1z,0,1z,0,0,0,0,0,0,0
0,0,0,0,0,1z,1z,0,1z,1z,0,0,0,0,0,0
0,0,0,0,0,1z,1z,0,1z,1z,0,0,0,0,0,0
0,0,0,0,0,1z,1z,0,1z,1z,0,0,0,0,0,0
0,0,0,0,0,0,1z,0,1z,0,0,0,0,0,0,0
0,0,0,0,0,0,0,0,0,0,0,0,0,0,0,0
0,0,0,0,0,0,0,0,0,0,0,0,0,0,0,0
EXT 7,12 7 7,12
EXT 7,10 9 7,10
PAL 1

ROOM 9
0,0,0,0,0,0,0,0,0,0,0,0,0,0,0,0
0,0,0,0,0,0,0,0,0,0,0,0,0,0,0,0
0,0,0,0,0,0,0,0,0,0,0,0,0,0,0,0
0,0,0,0,0,0,0,0,0,0,0,0,0,0,0,0
0,0,0,0,0,0,0,0,0,0,0,0,0,0,0,0
0,0,0,0,0,0,0,0,0,0,0,0,0,0,0,0
0,0,0,0,0,0,0,0,0,0,0,0,0,0,0,0
0,0,0,0,0,0,0,0,0,0,0,0,0,0,0,0
0,0,0,0,0,0,1z,0,1z,0,0,0,0,0,0,0
0,0,0,0,0,1z,1z,0,1z,1z,0,0,0,0,0,0
0,0,0,0,0,1z,1z,0,1z,1z,0,0,0,0,0,0
0,0,0,0,0,1z,1z,0,1z,1z,0,0,0,0,0,0
0,0,0,0,0,0,1z,0,1z,0,0,0,0,0,0,0
0,0,0,0,0,0,0,0,0,0,0,0,0,0,0,0
0,0,0,0,0,0,0,0,0,0,0,0,0,0,0,0
0,0,0,0,0,0,0,0,0,0,0,0,0,0,0,0
EXT 7,11 8 7,11
EXT 7,9 a 7,9
PAL 1

ROOM a
0,0,0,0,0,0,0,0,0,0,0,0,0,0,0,0
0,0,0,0,0,0,0,0,0,0,0,0,0,0,0,0
0,0,0,0,0,0,0,0,0,0,0,0,0,0,0,0
0,0,0,0,0,0,0,0,0,0,0,0,0,0,0,0
0,0,0,0,0,0,0,0,0,0,0,0,0,0,0,0
0,0,0,0,0,0,0,0,0,0,0,0,0,0,0,0
0,0,0,0,0,0,0,0,0,0,0,0,0,0,0,0
0,0,0,0,0,0,1z,0,1z,0,0,0,0,0,0,0
0,0,0,0,0,1z,1z,0,1z,1z,0,0,0,0,0,0
0,0,0,0,0,1z,1z,0,0,1z,0,0,0,0,0,0
0,0,0,0,0,1z,1z,0,1z,1z,0,0,0,0,0,0
0,0,0,0,0,0,1z,0,1z,0,0,0,0,0,0,0
0,0,0,0,0,0,0,0,0,0,0,0,0,0,0,0
0,0,0,0,0,0,0,0,0,0,0,0,0,0,0,0
0,0,0,0,0,0,0,0,0,0,0,0,0,0,0,0
0,0,0,0,0,0,0,0,0,0,0,0,0,0,0,0
EXT 7,10 9 7,10
EXT 7,8 b 7,8
PAL 1

ROOM b
0,0,0,0,0,0,0,0,0,0,0,0,0,0,0,0
0,0,0,0,0,0,0,0,0,0,0,0,0,0,0,0
0,0,0,0,0,0,0,0,0,0,0,0,0,0,0,0
0,0,0,0,0,0,0,0,0,0,0,0,0,0,0,0
0,0,0,0,0,0,0,0,0,0,0,0,0,0,0,0
0,0,0,0,0,0,0,1z,0,0,0,0,0,0,0,0
0,0,0,0,0,0,1z,0,0,0,0,0,0,0,0,0
0,0,0,0,0,1z,1z,0,1z,1z,0,0,0,0,0,0
0,0,0,0,0,1z,1z,0,1z,1z,0,0,0,0,0,0
0,0,0,0,0,1z,1z,0,1z,1z,0,0,0,0,0,0
0,0,0,0,0,0,1z,0,1z,0,0,0,0,0,0,0
0,0,0,0,0,0,0,0,0,0,0,0,0,0,0,0
0,0,0,0,0,0,0,0,0,0,0,0,0,0,0,0
0,0,0,0,0,0,0,0,0,0,0,0,0,0,0,0
0,0,0,0,0,0,0,0,0,0,0,0,0,0,0,0
0,0,0,0,0,0,0,0,0,0,0,0,0,0,0,0
EXT 7,9 a 7,9
EXT 7,7 c 7,7
PAL 1

ROOM c
0,0,0,0,0,0,0,0,0,0,0,0,0,0,0,0
0,0,0,0,0,0,0,0,0,0,0,0,0,0,0,0
0,0,0,0,0,0,0,0,0,0,0,0,0,0,0,0
0,0,0,0,0,0,0,0,0,0,0,0,0,0,0,0
0,0,0,0,0,0,0,0,0,0,0,0,0,0,0,0
0,0,0,0,0,0,1z,1z,1z,0,0,0,0,0,0,0
0,0,0,0,0,1z,1z,0,0,0,0,0,0,0,0,0
0,0,0,0,0,1z,1z,0,1z,1z,0,0,0,0,0,0
0,0,0,0,0,1z,1z,0,1z,1z,0,0,0,0,0,0
0,0,0,0,0,0,1z,0,1z,0,0,0,0,0,0,0
0,0,0,0,0,0,0,0,0,0,0,0,0,0,0,0
0,0,0,0,0,0,0,0,0,0,0,0,0,0,0,0
0,0,0,0,0,0,0,0,0,0,0,0,0,0,0,0
0,0,0,0,0,0,0,0,0,0,0,0,0,0,0,0
0,0,0,0,0,0,0,0,0,0,0,0,0,0,0,0
0,0,0,0,0,0,0,0,0,0,0,0,0,0,0,0
EXT 7,8 b 7,8
EXT 7,6 d 7,6
PAL 1

ROOM d
0,0,0,0,0,0,0,0,0,0,0,0,0,0,0,0
0,0,0,0,0,0,0,0,0,0,0,0,0,0,0,0
0,0,0,0,0,0,0,0,0,0,0,0,0,0,0,0
0,0,0,0,0,0,0,0,0,0,0,0,0,0,0,0
0,0,0,0,0,0,0,1z,1z,0,0,0,0,0,0,0
0,0,0,0,0,0,1z,1z,1z,1z,0,0,0,0,0,0
0,0,0,0,0,1z,1z,0,0,0,0,0,0,0,0,0
0,0,0,0,0,1z,1z,0,1z,1z,0,0,0,0,0,0
0,0,0,0,0,0,1z,0,1z,0,0,0,0,0,0,0
0,0,0,0,0,0,0,0,0,0,0,0,0,0,0,0
0,0,0,0,0,0,0,0,0,0,0,0,0,0,0,0
0,0,0,0,0,0,0,0,0,0,0,0,0,0,0,0
0,0,0,0,0,0,0,0,0,0,0,0,0,0,0,0
0,0,0,0,0,0,0,0,0,0,0,0,0,0,0,0
0,0,0,0,0,0,0,0,0,0,0,0,0,0,0,0
0,0,0,0,0,0,0,0,0,0,0,0,0,0,0,0
EXT 7,7 c 7,7
EXT 8,6 e 8,6
PAL 1

ROOM e
0,0,0,0,0,0,0,0,0,0,0,0,0,0,0,0
0,0,0,0,0,0,0,0,0,0,0,0,0,0,0,0
0,0,0,0,0,0,0,0,0,0,0,0,0,0,0,0
0,0,0,0,0,0,0,0,0,0,0,0,0,0,0,0
0,0,0,0,0,0,0,1z,1z,1z,0,0,0,0,0,0
0,0,0,0,0,0,1z,1z,1z,1z,1z,0,0,0,0,0
0,0,0,0,0,0,1z,0,0,0,0,0,0,0,0,0
0,0,0,0,0,0,1z,0,1z,1z,1z,0,0,0,0,0
0,0,0,0,0,0,0,0,1z,0,0,0,0,0,0,0
0,0,0,0,0,0,0,0,0,0,0,0,0,0,0,0
0,0,0,0,0,0,0,0,0,0,0,0,0,0,0,0
0,0,0,0,0,0,0,0,0,0,0,0,0,0,0,0
0,0,0,0,0,0,0,0,0,0,0,0,0,0,0,0
0,0,0,0,0,0,0,0,0,0,0,0,0,0,0,0
0,0,0,0,0,0,0,0,0,0,0,0,0,0,0,0
0,0,0,0,0,0,0,0,0,0,0,0,0,0,0,0
EXT 7,6 d 7,6
EXT 9,6 f 9,6
PAL 1

ROOM f
0,0,0,0,0,0,0,0,0,0,0,0,0,0,0,0
0,0,0,0,0,0,0,0,0,0,0,0,0,0,0,0
0,0,0,0,0,0,0,0,0,0,0,0,0,0,0,0
0,0,0,0,0,0,0,0,0,0,0,0,0,0,0,0
0,0,0,0,0,0,0,0,1z,1z,1z,0,0,0,0,0
0,0,0,0,0,0,0,1z,1z,1z,1z,1z,0,0,0,0
0,0,0,0,0,0,1z,0,0,0,0,0,0,0,0,0
0,0,0,0,0,0,0,0,1z,1z,1z,1z,0,0,0,0
0,0,0,0,0,0,0,0,1z,1z,1z,0,0,0,0,0
0,0,0,0,0,0,0,0,0,0,0,0,0,0,0,0
0,0,0,0,0,0,0,0,0,0,0,0,0,0,0,0
0,0,0,0,0,0,0,0,0,0,0,0,0,0,0,0
0,0,0,0,0,0,0,0,0,0,0,0,0,0,0,0
0,0,0,0,0,0,0,0,0,0,0,0,0,0,0,0
0,0,0,0,0,0,0,0,0,0,0,0,0,0,0,0
0,0,0,0,0,0,0,0,0,0,0,0,0,0,0,0
EXT 8,6 e 8,6
EXT 10,6 g 10,6
PAL 1

ROOM g
0,0,0,0,0,0,0,0,0,0,0,0,0,0,0,0
0,0,0,0,0,0,0,0,0,0,0,0,0,0,0,0
0,0,0,0,0,0,0,0,0,0,0,0,0,0,0,0
0,0,0,0,0,0,0,0,0,0,0,0,0,0,0,0
0,0,0,0,0,0,0,0,0,1z,1z,1z,0,0,0,0
0,0,0,0,0,0,0,0,1z,1z,1z,1z,1z,0,0,0
0,0,0,0,0,0,0,0,0,0,0,0,0,0,0,0
0,0,0,0,0,0,0,0,1z,1z,1z,1z,1z,0,0,0
0,0,0,0,0,0,0,0,0,1z,1z,1z,0,0,0,0
0,0,0,0,0,0,0,0,0,0,0,0,0,0,0,0
0,0,0,0,0,0,0,0,0,0,0,0,0,0,0,0
0,0,0,0,0,0,0,0,0,0,0,0,0,0,0,0
0,0,0,0,0,0,0,0,0,0,0,0,0,0,0,0
0,0,0,0,0,0,0,0,0,0,0,0,0,0,0,0
0,0,0,0,0,0,0,0,0,0,0,0,0,0,0,0
0,0,0,0,0,0,0,0,0,0,0,0,0,0,0,0
EXT 9,6 f 9,6
EXT 11,6 h 11,6
PAL 1

ROOM h
0,0,0,0,0,0,0,0,0,0,0,0,0,0,0,0
0,0,0,0,0,0,0,0,0,0,0,0,0,0,0,0
0,0,0,0,0,0,0,0,0,0,0,0,0,0,0,0
0,0,0,0,0,0,0,0,0,0,0,0,0,0,0,0
0,0,0,0,0,0,0,0,0,0,1z,1z,1z,0,0,0
0,0,0,0,0,0,0,0,0,1z,1z,0,1z,1z,0,0
0,0,0,0,0,0,0,0,0,0,0,0,0,0,0,0
0,0,0,0,0,0,0,0,0,1z,1z,1z,1z,1z,0,0
0,0,0,0,0,0,0,0,0,0,1z,1z,1z,0,0,0
0,0,0,0,0,0,0,0,0,0,0,0,0,0,0,0
0,0,0,0,0,0,0,0,0,0,0,0,0,0,0,0
0,0,0,0,0,0,0,0,0,0,0,0,0,0,0,0
0,0,0,0,0,0,0,0,0,0,0,0,0,0,0,0
0,0,0,0,0,0,0,0,0,0,0,0,0,0,0,0
0,0,0,0,0,0,0,0,0,0,0,0,0,0,0,0
0,0,0,0,0,0,0,0,0,0,0,0,0,0,0,0
EXT 10,6 g 10,6
EXT 12,6 i 12,6
PAL 1

ROOM i
0,0,0,0,0,0,0,0,0,0,0,0,0,0,0,0
0,0,0,0,0,0,0,0,0,0,0,0,0,0,0,0
0,0,0,0,0,0,0,0,0,0,0,0,0,0,0,0
0,0,0,0,0,0,0,0,0,0,0,0,0,0,0,0
0,0,0,0,0,0,0,0,0,0,0,1z,1z,1z,0,0
0,0,0,0,0,0,0,0,0,0,1z,1z,1z,1z,1z,0
0,0,0,0,0,0,0,0,0,0,0,0,0,0,0,20
0,0,0,0,0,0,0,0,0,0,1z,1z,1z,1z,1z,0
0,0,0,0,0,0,0,0,0,0,0,1z,1z,1z,0,0
0,0,0,0,0,0,0,0,0,0,0,0,0,0,0,0
0,0,0,0,0,0,0,0,0,0,0,0,0,0,0,0
0,0,0,0,0,0,0,0,0,0,0,0,0,0,0,0
0,0,0,0,0,0,0,0,0,0,0,0,0,0,0,0
0,0,0,0,0,0,0,0,0,0,0,0,0,0,0,0
0,0,0,0,0,0,0,0,0,0,0,0,0,0,0,0
0,0,0,0,0,0,0,0,0,0,0,0,0,0,0,0
EXT 11,6 h 11,6
EXT 13,6 j 13,6
PAL 1

ROOM j
0,0,0,0,0,0,0,0,0,0,0,0,0,0,0,0
0,0,0,0,0,0,0,0,0,0,0,0,0,0,0,0
0,0,0,0,0,0,0,0,0,0,0,0,0,0,0,0
0,0,0,0,0,0,0,0,0,0,0,0,0,0,0,0
0,0,0,0,0,0,0,0,0,0,0,0,1z,1z,1z,0
0,0,0,0,0,0,0,0,0,0,0,1z,1z,1z,1z,1z
0,0,0,0,0,0,0,0,0,0,0,0,0,0,0,20
0,0,0,0,0,0,0,0,0,0,0,1z,1z,1z,1z,1z
0,0,0,0,0,0,0,0,0,0,0,0,1z,1z,1z,0
0,0,0,0,0,0,0,0,0,0,0,0,0,0,0,0
0,0,0,0,0,0,0,0,0,0,0,0,0,0,0,0
0,0,0,0,0,0,0,0,0,0,0,0,0,0,0,0
0,0,0,0,0,0,0,0,0,0,0,0,0,0,0,0
0,0,0,0,0,0,0,0,0,0,0,0,0,0,0,0
0,0,0,0,0,0,0,0,0,0,0,0,0,0,0,0
0,0,0,0,0,0,0,0,0,0,0,0,0,0,0,0
EXT 12,6 i 12,6
EXT 14,6 k 14,6
PAL 1

ROOM k
0,0,0,0,0,0,0,0,0,0,0,0,0,0,0,0
0,0,0,0,0,0,0,0,0,0,0,0,0,0,0,0
0,0,0,0,0,0,0,0,0,0,0,0,0,0,0,0
0,0,0,0,0,0,0,0,0,0,0,0,0,0,0,0
0,0,0,0,0,0,0,0,0,0,0,0,0,1z,1z,1z
0,0,0,0,0,0,0,0,0,0,0,0,1z,1z,1z,1z
0,0,0,0,0,0,0,0,0,0,0,0,0,0,0,20
0,0,0,0,0,0,0,0,0,0,0,0,1z,1z,1z,1z
0,0,0,0,0,0,0,0,0,0,0,0,0,1z,1z,1z
0,0,0,0,0,0,0,0,0,0,0,0,0,0,0,0
0,0,0,0,0,0,0,0,0,0,0,0,0,0,0,0
0,0,0,0,0,0,0,0,0,0,0,0,0,0,0,0
0,0,0,0,0,0,0,0,0,0,0,0,0,0,0,0
0,0,0,0,0,0,0,0,0,0,0,0,0,0,0,0
0,0,0,0,0,0,0,0,0,0,0,0,0,0,0,0
0,0,0,0,0,0,0,0,0,0,0,0,0,0,0,0
EXT 13,6 j 13,6
EXT 15,6 l 1,7
PAL 1

ROOM l
0,0,0,0,0,0,0,0,0,0,0,0,0,0,0,0
0,0,0,0,0,0,0,0,0,0,0,0,0,0,0,0
0,0,0,0,0,0,0,0,0,0,0,0,0,0,0,0
0,0,0,0,0,0,0,0,0,0,0,0,0,0,0,0
0,0,0,0,0,0,0,0,0,0,0,0,0,0,0,0
0,0,0,0,0,0,0,0,0,0,0,0,0,0,0,0
0,1y,1y,1y,0,0,0,0,0,0,0,0,0,0,0,0
0,0,0,0,0,0,0,0,0,0,0,0,0,0,0,0
0,1y,1y,1y,0,0,0,0,0,0,0,0,0,0,0,0
0,0,0,0,0,0,0,0,0,0,0,0,0,0,0,0
0,0,0,0,0,0,0,0,0,0,0,0,0,0,0,0
0,0,0,0,0,0,0,0,0,0,0,0,0,0,0,0
0,0,0,0,0,0,0,0,0,0,0,0,0,0,0,0
0,0,0,0,0,0,0,0,0,0,0,0,0,0,0,0
0,0,0,0,0,0,0,0,0,0,0,0,0,0,0,0
0,0,0,0,0,0,0,0,0,0,0,0,0,0,0,0
EXT 2,7 m 2,7
PAL 1

ROOM m
0,0,0,0,0,0,0,0,0,0,0,0,0,0,0,0
0,0,0,0,0,0,0,0,0,0,0,0,0,0,0,0
0,0,0,0,0,0,0,0,0,0,0,0,0,0,0,0
0,0,0,0,0,0,0,0,0,0,0,0,0,0,0,0
0,0,0,0,0,0,0,0,0,0,0,0,0,0,0,0
0,0,0,0,0,0,0,0,0,0,0,0,0,0,0,0
0,1y,1y,1y,1y,1y,1y,1y,1y,1y,1y,1y,1y,0,0,0
0,0,0,0,0,0,0,0,0,0,0,0,0,0,0,0
0,1y,1y,1y,1y,1y,1y,1y,1y,1y,1y,1y,1y,0,0,0
0,0,0,0,0,0,0,0,0,0,0,0,0,0,0,0
0,0,0,0,0,0,0,0,0,0,0,0,0,0,0,0
0,0,0,0,0,0,0,0,0,0,0,0,0,0,0,0
0,0,0,0,0,0,0,0,0,0,0,0,0,0,0,0
0,0,0,0,0,0,0,0,0,0,0,0,0,0,0,0
0,0,0,0,0,0,0,0,0,0,0,0,0,0,0,0
0,0,0,0,0,0,0,0,0,0,0,0,0,0,0,0
NAME Guard0Room
EXT 3,7 p 3,7
PAL 2

ROOM n
0,0,0,0,0,0,0,0,0,0,0,0,0,0,0,0
0,0,0,0,0,0,0,0,0,0,0,0,0,0,0,0
0,0,0,0,0,0,0,0,0,0,0,0,0,0,0,0
0,0,0,0,0,0,0,0,0,0,0,0,0,0,0,0
0,0,0,0,0,0,0,0,0,0,0,0,0,0,0,0
0,0,0,0,0,0,0,0,0,0,0,0,0,0,0,0
0,1y,1y,1y,1y,1y,1y,1y,1y,1y,1y,1y,1y,1y,2j,0
0,0,0,0,0,0,0,0,0,0,0,0,0,2k,21,2l
0,1y,1y,1y,1y,1y,1y,1y,1y,1y,1y,1y,1y,1y,2m,0
0,0,0,0,0,0,0,0,0,0,0,0,0,0,0,0
0,0,0,0,0,0,0,0,0,0,0,0,0,0,0,0
0,0,0,0,0,0,0,0,0,0,0,0,0,0,0,0
0,0,0,0,0,0,0,0,0,0,0,0,0,0,0,0
0,0,0,0,0,0,0,0,0,0,0,0,0,0,0,0
0,0,0,0,0,0,0,0,0,0,0,0,0,0,0,0
0,0,0,0,0,0,0,0,0,0,0,0,0,0,0,0
NAME Button1Room
EXT 14,7 x 0,7
PAL 2

ROOM o
0,0,0,0,0,0,0,0,0,0,0,0,0,0,0,0
0,0,0,0,0,0,0,0,0,0,0,0,0,0,0,0
0,0,0,0,0,0,0,0,0,0,0,0,0,0,0,0
0,0,0,0,0,0,0,0,0,0,0,0,0,0,0,0
0,0,0,0,0,0,0,0,0,0,0,0,0,0,0,0
0,0,0,0,0,0,0,0,0,0,0,0,0,0,0,0
0,0,0,0,0,0,0,0,0,0,0,0,0,0,0,0
0,0,0,0,0,0,0,0,0,0,0,0,0,0,0,0
0,0,0,0,0,0,0,0,0,0,0,0,0,0,0,0
0,0,0,0,0,0,0,0,0,0,0,0,0,0,0,0
0,0,0,0,0,0,0,0,0,0,0,0,0,0,0,0
0,0,0,0,0,0,0,0,0,0,0,0,0,0,0,0
0,0,0,0,0,0,0,0,0,0,0,0,0,0,0,0
c,c,c,c,c,c,0,0,0,0,0,0,0,0,0,0
e,e,e,e,e,d,0,0,0,0,0,0,0,0,0,0
c,c,c,c,c,c,0,0,0,0,0,0,0,0,0,0
NAME SecretRoom
ITM 5 4,14
EXT 0,14 3 15,14
PAL 0

ROOM p
0,0,0,0,0,0,0,0,0,0,0,0,0,0,0,0
0,0,0,0,0,0,0,0,0,0,0,0,0,0,0,0
0,0,0,0,0,0,0,0,0,0,0,0,0,0,0,0
0,0,0,0,0,0,0,0,0,0,0,0,0,0,0,0
0,0,0,0,0,0,0,0,0,0,0,0,0,0,0,0
0,0,0,0,0,0,0,0,0,0,0,0,0,0,0,0
0,1y,1y,1y,1y,1y,1y,1y,1y,1y,1y,1y,1y,0,0,0
0,0,0,0,0,0,0,0,0,0,0,0,0,0,0,0
0,1y,1y,1y,1y,1y,1y,1y,1y,1y,1y,1y,1y,0,0,0
0,0,0,0,0,0,0,0,0,0,0,0,0,0,0,0
0,0,0,0,0,0,0,0,0,0,0,0,0,0,0,0
0,0,0,0,0,0,0,0,0,0,0,0,0,0,0,0
0,0,0,0,0,0,0,0,0,0,0,0,0,0,0,0
0,0,0,0,0,0,0,0,0,0,0,0,0,0,0,0
0,0,0,0,0,0,0,0,0,0,0,0,0,0,0,0
0,0,0,0,0,0,0,0,0,0,0,0,0,0,0,0
NAME Guard1Room
EXT 4,7 q 4,7
PAL 2

ROOM q
0,0,0,0,0,0,0,0,0,0,0,0,0,0,0,0
0,0,0,0,0,0,0,0,0,0,0,0,0,0,0,0
0,0,0,0,0,0,0,0,0,0,0,0,0,0,0,0
0,0,0,0,0,0,0,0,0,0,0,0,0,0,0,0
0,0,0,0,0,0,0,0,0,0,0,0,0,0,0,0
0,0,0,0,0,0,0,0,0,0,0,0,0,0,0,0
0,1y,1y,1y,1y,1y,1y,1y,1y,1y,1y,1y,1y,0,0,0
0,0,0,0,0,0,0,0,0,0,0,0,0,0,0,0
0,1y,1y,1y,1y,1y,1y,1y,1y,1y,1y,1y,1y,0,0,0
0,0,0,0,0,0,0,0,0,0,0,0,0,0,0,0
0,0,0,0,0,0,0,0,0,0,0,0,0,0,0,0
0,0,0,0,0,0,0,0,0,0,0,0,0,0,0,0
0,0,0,0,0,0,0,0,0,0,0,0,0,0,0,0
0,0,0,0,0,0,0,0,0,0,0,0,0,0,0,0
0,0,0,0,0,0,0,0,0,0,0,0,0,0,0,0
0,0,0,0,0,0,0,0,0,0,0,0,0,0,0,0
NAME Guard2Room
EXT 5,7 r 5,7
PAL 2

ROOM r
0,0,0,0,0,0,0,0,0,0,0,0,0,0,0,0
0,0,0,0,0,0,0,0,0,0,0,0,0,0,0,0
0,0,0,0,0,0,0,0,0,0,0,0,0,0,0,0
0,0,0,0,0,0,0,0,0,0,0,0,0,0,0,0
0,0,0,0,0,0,0,0,0,0,0,0,0,0,0,0
0,0,0,0,0,0,0,0,0,0,0,0,0,0,0,0
0,1y,1y,1y,1y,1y,1y,1y,1y,1y,1y,1y,1y,0,0,0
0,0,0,0,0,0,0,0,0,0,0,0,0,0,0,0
0,1y,1y,1y,1y,1y,1y,1y,1y,1y,1y,1y,1y,0,0,0
0,0,0,0,0,0,0,0,0,0,0,0,0,0,0,0
0,0,0,0,0,0,0,0,0,0,0,0,0,0,0,0
0,0,0,0,0,0,0,0,0,0,0,0,0,0,0,0
0,0,0,0,0,0,0,0,0,0,0,0,0,0,0,0
0,0,0,0,0,0,0,0,0,0,0,0,0,0,0,0
0,0,0,0,0,0,0,0,0,0,0,0,0,0,0,0
0,0,0,0,0,0,0,0,0,0,0,0,0,0,0,0
NAME Guard3Room
EXT 6,7 s 6,7
PAL 2

ROOM s
0,0,0,0,0,0,0,0,0,0,0,0,0,0,0,0
0,0,0,0,0,0,0,0,0,0,0,0,0,0,0,0
0,0,0,0,0,0,0,0,0,0,0,0,0,0,0,0
0,0,0,0,0,0,0,0,0,0,0,0,0,0,0,0
0,0,0,0,0,0,0,0,0,0,0,0,0,0,0,0
0,0,0,0,0,0,0,0,0,0,0,0,0,0,0,0
0,1y,1y,1y,1y,1y,1y,1y,1y,1y,1y,1y,1y,0,2j,0
0,0,0,0,0,0,0,0,0,0,0,0,0,2k,21,2l
0,1y,1y,1y,1y,1y,1y,1y,1y,1y,1y,1y,1y,0,2m,0
0,0,0,0,0,0,0,0,0,0,0,0,0,0,0,0
0,0,0,0,0,0,0,0,0,0,0,0,0,0,0,0
0,0,0,0,0,0,0,0,0,0,0,0,0,0,0,0
0,0,0,0,0,0,0,0,0,0,0,0,0,0,0,0
0,0,0,0,0,0,0,0,0,0,0,0,0,0,0,0
0,0,0,0,0,0,0,0,0,0,0,0,0,0,0,0
0,0,0,0,0,0,0,0,0,0,0,0,0,0,0,0
NAME Guard4Room
EXT 7,7 t 7,7
PAL 2

ROOM t
0,0,0,0,0,0,0,0,0,0,0,0,0,0,0,0
0,0,0,0,0,0,0,0,0,0,0,0,0,0,0,0
0,0,0,0,0,0,0,0,0,0,0,0,0,0,0,0
0,0,0,0,0,0,0,0,0,0,0,0,0,0,0,0
0,0,0,0,0,0,0,0,0,0,0,0,0,0,0,0
0,0,0,0,0,0,0,0,0,0,0,0,0,0,0,0
0,1y,1y,1y,1y,1y,1y,1y,1y,1y,1y,1y,1y,0,2j,0
0,0,0,0,0,0,0,0,0,0,0,0,0,2k,21,2l
0,1y,1y,1y,1y,1y,1y,1y,1y,1y,1y,1y,1y,0,2m,0
0,0,0,0,0,0,0,0,0,0,0,0,0,0,0,0
0,0,0,0,0,0,0,0,0,0,0,0,0,0,0,0
0,0,0,0,0,0,0,0,0,0,0,0,0,0,0,0
0,0,0,0,0,0,0,0,0,0,0,0,0,0,0,0
0,0,0,0,0,0,0,0,0,0,0,0,0,0,0,0
0,0,0,0,0,0,0,0,0,0,0,0,0,0,0,0
0,0,0,0,0,0,0,0,0,0,0,0,0,0,0,0
NAME Guard5Room
EXT 8,7 u 8,7
PAL 2

ROOM u
0,0,0,0,0,0,0,0,0,0,0,0,0,0,0,0
0,0,0,0,0,0,0,0,0,0,0,0,0,0,0,0
0,0,0,0,0,0,0,0,0,0,0,0,0,0,0,0
0,0,0,0,0,0,0,0,0,0,0,0,0,0,0,0
0,0,0,0,0,0,0,0,0,0,0,0,0,0,0,0
0,0,0,0,0,0,0,0,0,0,0,0,0,0,0,0
0,1y,1y,1y,1y,1y,1y,1y,1y,1y,1y,1y,1y,0,2j,0
0,0,0,0,0,0,0,0,0,0,0,0,0,2k,21,2l
0,1y,1y,1y,1y,1y,1y,1y,1y,1y,1y,1y,1y,0,2m,0
0,0,0,0,0,0,0,0,0,0,0,0,0,0,0,0
0,0,0,0,0,0,0,0,0,0,0,0,0,0,0,0
0,0,0,0,0,0,0,0,0,0,0,0,0,0,0,0
0,0,0,0,0,0,0,0,0,0,0,0,0,0,0,0
0,0,0,0,0,0,0,0,0,0,0,0,0,0,0,0
0,0,0,0,0,0,0,0,0,0,0,0,0,0,0,0
0,0,0,0,0,0,0,0,0,0,0,0,0,0,0,0
NAME Guard6Room
EXT 9,7 v 9,7
PAL 2

ROOM v
0,0,0,0,0,0,0,0,0,0,0,0,0,0,0,0
0,0,0,0,0,0,0,0,0,0,0,0,0,0,0,0
0,0,0,0,0,0,0,0,0,0,0,0,0,0,0,0
0,0,0,0,0,0,0,0,0,0,0,0,0,0,0,0
0,0,0,0,0,0,0,0,0,0,0,0,0,0,0,0
0,0,0,0,0,0,0,0,0,0,0,0,0,0,0,0
0,1y,1y,1y,1y,1y,1y,1y,1y,1y,1y,1y,1y,0,2j,0
0,0,0,0,0,0,0,0,0,0,0,0,0,2k,21,2l
0,1y,1y,1y,1y,1y,1y,1y,1y,1y,1y,1y,1y,0,2m,0
0,0,0,0,0,0,0,0,0,0,0,0,0,0,0,0
0,0,0,0,0,0,0,0,0,0,0,0,0,0,0,0
0,0,0,0,0,0,0,0,0,0,0,0,0,0,0,0
0,0,0,0,0,0,0,0,0,0,0,0,0,0,0,0
0,0,0,0,0,0,0,0,0,0,0,0,0,0,0,0
0,0,0,0,0,0,0,0,0,0,0,0,0,0,0,0
0,0,0,0,0,0,0,0,0,0,0,0,0,0,0,0
NAME Guard7Room
EXT 10,7 w 10,7
PAL 2

ROOM w
0,0,0,0,0,0,0,0,0,0,0,0,0,0,0,0
0,0,0,0,0,0,0,0,0,0,0,0,0,0,0,0
0,0,0,0,0,0,0,0,0,0,0,0,0,0,0,0
0,0,0,0,0,0,0,0,0,0,0,0,0,0,0,0
0,0,0,0,0,0,0,0,0,0,0,0,0,0,0,0
0,0,0,0,0,0,0,0,0,0,0,0,0,0,0,0
0,1y,1y,1y,1y,1y,1y,1y,1y,1y,1y,1y,1y,0,2j,0
0,0,0,0,0,0,0,0,0,0,0,0,0,2k,21,2l
0,1y,1y,1y,1y,1y,1y,1y,1y,1y,1y,1y,1y,0,2m,0
0,0,0,0,0,0,0,0,0,0,0,0,0,0,0,0
0,0,0,0,0,0,0,0,0,0,0,0,0,0,0,0
0,0,0,0,0,0,0,0,0,0,0,0,0,0,0,0
0,0,0,0,0,0,0,0,0,0,0,0,0,0,0,0
0,0,0,0,0,0,0,0,0,0,0,0,0,0,0,0
0,0,0,0,0,0,0,0,0,0,0,0,0,0,0,0
0,0,0,0,0,0,0,0,0,0,0,0,0,0,0,0
NAME Guard8Room
EXT 11,7 n 11,7
PAL 2

ROOM x
c,c,c,c,27,24,24,24,24,2c,e,c,c,c,c,c
d,e,e,e,25,1s,22,o,p,2a,e,e,e,e,e,d
d,e,e,e,25,2e,2f,2g,2h,2a,e,e,e,e,e,d
d,e,e,e,25,2d,2d,1o,2d,2b,e,e,e,e,e,d
d,e,e,e,28,26,26,2i,26,29,e,e,e,e,e,d
d,e,e,e,e,e,e,e,e,e,e,e,e,e,e,d
d,e,e,e,e,e,e,e,e,e,e,e,e,e,e,d
e,e,e,e,e,e,e,e,e,e,e,e,e,e,e,d
d,e,e,e,e,e,e,e,e,e,e,e,e,e,e,d
d,e,e,e,e,e,e,e,e,e,e,e,e,e,e,d
d,e,e,e,e,e,e,e,e,e,e,e,e,e,e,d
d,e,e,e,e,e,e,e,e,e,e,e,e,e,e,d
d,e,e,e,e,e,e,e,e,e,e,e,e,e,e,d
d,e,e,e,e,e,e,e,e,e,e,e,e,e,e,d
d,e,e,e,e,e,e,e,e,e,e,e,e,e,e,d
c,c,c,c,c,c,c,c,c,c,c,c,c,c,c,d
NAME VictoryRoom
ITM 4 13,5
ITM 4 13,4
ITM 4 14,4
ITM 4 14,5
ITM 4 12,5
ITM 0 13,11
EXT 10,0 y 10,15
END 0 7,4
PAL 3

ROOM y
0,0,0,0,0,0,0,0,0,0,0,0,0,0,0,0
0,0,0,0,0,0,0,0,0,0,0,0,0,0,0,0
0,0,0,0,0,0,0,0,0,0,0,0,0,0,0,0
0,0,0,0,0,0,0,0,0,0,0,0,0,0,0,0
0,0,0,0,0,0,0,0,0,0,0,0,0,0,0,0
0,0,0,0,0,0,0,0,0,0,0,0,0,0,0,0
0,0,0,0,0,0,0,0,0,0,0,0,0,0,0,0
0,0,0,0,0,0,0,0,0,0,0,0,0,0,0,0
0,0,0,0,0,0,0,0,0,0,0,0,0,0,0,0
0,0,0,0,0,0,0,0,0,0,0,0,0,0,0,0
0,0,0,0,0,0,0,0,0,d,c,d,0,0,0,0
0,0,0,0,0,0,0,0,0,d,e,d,0,0,0,0
0,0,0,0,0,0,0,0,0,d,e,d,0,0,0,0
0,0,0,0,0,0,0,0,0,d,e,d,0,0,0,0
0,0,0,0,0,0,0,0,0,d,e,d,0,0,0,0
0,0,0,0,0,0,0,0,0,d,e,d,0,0,0,0
EXT 10,15 x 10,0
PAL 3

TIL 10
11100000
11000000
10000000
00000000
00000000
00000000
00000000
00000000

TIL 11
00000000
00000000
00000000
00000000
00000000
00000000
00000000
00000001

TIL 12
01111110
01111110
01111110
01111110
01111110
01111110
01011110
01111110

TIL 13
01111110
01111110
01111110
00000000
11111111
11111111
11111111
11111111

TIL 14
00000000
00000000
00000000
00000000
00000000
01111111
11111111
11111111

TIL 15
11111000
01111100
00111110
00011111
00001111
00000111
00000011
00000001

TIL 16
00000111
00000011
00000001
00000000
00000000
00000000
00000000
00000000

TIL 17
00000000
00000000
00000000
00000000
00000000
11111000
11111110
11111111

TIL 18
11111111
10000001
10000001
10100001
11010111
10001001
10000001
11111111

TIL 19
00000000
00000000
00000000
00000000
00000000
11111111
11111111
11111111

TIL 20
00111110
00111110
00111110
00111110
00011110
00111110
00111110
00111110

TIL 21
00111100
01000010
10011001
10111101
10111101
10011001
01000010
00111100
>
00000000
00000000
00000000
00000000
00000000
00000000
00000000
00000000
NAME Button

TIL 22
11111111
00000000
10111000
10100000
10101000
10111000
00000000
11111111
NAME OGF

TIL 23
11111111
11111111
11111111
11111111
00000000
00000000
00000000
00000000

TIL 24
11111111
10101010
00000000
10101010
11111111
00000000
00000000
00000000

TIL 25
10000000
10000000
10000000
10000000
10000000
10000000
10000000
10000000
WAL true

TIL 26
00000000
00000000
00000000
00000000
11111111
11111111
11111111
11111111
WAL true

TIL 27
11111111
10101010
00000000
10101010
11111111
10000000
10000000
10000000

TIL 28
10000000
10000000
10000000
10000000
11111111
11111111
11111111
11111111
WAL true

TIL 29
00000001
00000001
00000001
00000001
11111111
11111111
11111111
11111111
WAL true

TIL a
01111110
11000011
10100101
10011001
10011001
10100101
11000011
01111110
>
01111110
11000011
10010001
10011101
10111001
10001001
11000011
01111110
NAME Fan
WAL true

TIL b
01111110
10011001
10100101
11011011
11011011
10100101
10011001
01111110
>
01111110
10000001
10011001
10111101
10111101
10011001
10000001
01111110
NAME Speaker

TIL c
11111111
10101010
00000000
10101010
10101010
00000000
10101010
11111111
NAME FenceA
WAL true

TIL d
10000001
11011011
10000001
11011011
10000001
11011011
10000001
11011011
NAME FenceB
WAL true

TIL e
11101111
10111110
11111011
11101111
01111101
11101111
10111011
11111110
NAME Grass

TIL f
00000000
00111000
00111000
00010000
00010000
01010100
00010000
00101000
>
00111000
00111000
01010100
00010000
00010000
00010000
00101000
00000000
NAME Crowd
WAL true

TIL g
11111000
11111000
11111000
00111000
00111000
00111000
00111000
00111000
NAME StageUpRight

TIL h
00000000
00000000
00000000
00000000
00000000
01111111
01111111
01111111
NAME StageAcrossLeft

TIL i
11111111
11111111
11111111
00000000
00000000
00000000
00000000
00000000
NAME StageAcross1

TIL j
00000000
00000000
00000000
00000000
00000000
11111100
11111100
11111100
NAME StageAcrossRight

TIL k
00111111
00111111
00111111
00111000
00111000
00111000
00111000
00111000
NAME StageUpLeft

TIL l
10100101
11100111
10100101
11100111
10100101
10100101
11100111
10100101
NAME StageUpright

TIL m
11111111
01001001
11111111
00000000
00000000
11111111
01001001
11111111
NAME StageAcross

TIL n
11111111
11111111
11111111
11111111
11111111
11111111
11111111
11111111
NAME FlatBG

TIL o
11111111
00000000
11101110
10001010
11001010
10001110
00000000
11111111
NAME FO

TIL p
11111111
00000000
11101100
10101010
10101010
11101100
00000000
11111111
NAME OD

TIL q
11110001
11110001
11110001
11110001
11110001
11110001
11110001
11110001
NAME LeftSideSign

TIL r
11111111
00000000
01101110
10000100
01000100
00100100
11000000
11111111
NAME ST

TIL s
11111111
00000000
11101100
10101010
10101100
11101010
00000000
11111111
NAME OR

TIL t
11111000
00001000
11101000
10001000
11101000
10001000
11101000
11111000
NAME E

TIL u
11110000
11110000
11110000
11110000
11110000
11110000
11110000
11110000
NAME LeftUp

TIL v
11110000
11110000
11110000
11110000
11110000
11110000
11110000
11110000
NAME RightUp

TIL w
11110000
11110000
11110000
11110000
11111111
11111111
11111111
11111111
NAME LeftBottom

TIL x
00000000
00000000
00000000
00000000
11111111
11111111
11111111
11111111
NAME Bottom

TIL y
00000000
00000000
00000000
00000000
10000000
11000000
11100000
11110000
NAME RightRoofCorner

TIL z
00000011
00000111
00001111
00011111
00111110
01111100
11111000
11110000
NAME LeftRoofCorner

TIL 1a
00000000
00000000
00000000
00000000
00000000
11000000
11100000
11110000

TIL 1b
00000000
00000000
00000000
00000000
00000000
00000000
00000000
00000001

TIL 1c
00000011
00000111
00001111
00011111
00111110
01111111
11111111
11111111

TIL 1d
11100000
11000000
10000000
00000000
00000000
11111111
11111111
11111111

TIL 1e
11111000
01111100
00111110
00011111
00001111
11111111
11111111
11111111

TIL 1f
00000001
00111101
00111101
00111101
00111101
01111111
00111101
00100101

TIL 1g
00000001
00000001
00000001
00000001
00000001
00000001
00000001
00000001
WAL true

TIL 1h
00000001
00000001
00000001
11111111
11111111
00000001
00000001
00000001

TIL 1i
00000001
00000001
11111111
11111111
00000000
11111111
11111111
11111111

TIL 1j
00100101
00111101
01111111
00111101
00111101
00111101
00111101
00000001

TIL 1k
11111111
10000000
10110011
10101010
10110010
10101011
10000000
11111111
NAME RO

TIL 1l
11111111
00000000
10111010
10100011
10100011
10111010
00000000
11111111
NAME CK

TIL 1m
11111111
00000000
10001110
00001010
00001010
10001110
00000000
11111111
NAME kO

TIL 1n
11111111
00000000
10101110
10100100
10100100
11100100
00000000
11111111
NAME UT

TIL 1o
00111111
00111111
00111111
00111111
00111111
00111111
00111101
00111111

TIL 1p
00111111
00111111
00111111
00000000
11111111
11111111
11111111
11111111

TIL 1q
11111000
11111100
11111110
11111111
00001111
00000111
00000011
00000001

TIL 1r
11111100
10000100
11000100
10100100
10100100
11000100
10000100
11111100

TIL 1s
11111111
10000000
10110011
10101010
10101010
10110011
10000000
11111111
NAME DO

TIL 1t
11111111
00000010
10111010
10100010
10101010
10111010
00000010
11111111
NAME OG

TIL 1u
11111111
00000000
10111001
10100001
10101001
10111001
00000000
11111111

TIL 1v
11111111
00000000
11011101
01010101
11010101
00011101
00000000
11111111

TIL 1w
11111111
00000000
01010010
01011010
01010110
11010010
00000000
11111111

TIL 1x
11111100
00000100
11000100
10100100
10100100
11000100
00000100
11111100

TIL 1y
00000000
00000000
00000000
00000000
00000000
00000000
00000000
00000000
NAME BlankWall
WAL true

TIL 1z
01111111
01010101
01010101
01010101
01111111
01010101
01010101
01010101
WAL true

TIL 2a
10000001
10000001
10000001
10000001
10000001
10000001
10000001
10000001
WAL true

TIL 2b
00000001
00000001
00000001
00000001
00000001
00000001
00000001
00000001
WAL true

TIL 2c
11111111
10101010
00000000
10101010
11111111
00000001
00000001
00000001
WAL true

TIL 2d
00000000
01111110
01111110
01011110
00101000
01110110
01111110
00000000

TIL 2e
11111111
10000000
10111011
10100010
10110011
10100010
10100010
11111111
NAME FR

TIL 2f
11111111
00000000
10111011
10100010
00110011
10100010
10111011
11111111

TIL 2g
11111111
00000000
10111011
00100010
00110011
00100010
10111011
11111111

TIL 2h
11111111
00101010
10101010
00101010
00101010
00000000
10101010
11111111

TIL 2i
00111111
00111111
00111111
00000000
11111111
11111111
11111111
11111111
WAL false

TIL 2j
00000000
00000000
00000000
00010000
00010000
00010000
00111000
00000000
>
00000000
00000000
00000000
00000000
00000000
00000000
00000000
00000000

TIL 2k
00000000
00000000
00000010
00011110
00000010
00000000
00000000
00000000
>
00000000
00000000
00000000
00000000
00000000
00000000
00000000
00000000

TIL 2l
00000000
00000000
01000000
01111000
01000000
00000000
00000000
00000000
>
00000000
00000000
00000000
00000000
00000000
00000000
00000000
00000000

TIL 2m
00000000
00111000
00010000
00010000
00010000
00000000
00000000
00000000
>
00000000
00000000
00000000
00000000
00000000
00000000
00000000
00000000

SPR 10
00110000
00110000
00100000
00111000
00100000
00100000
00110000
00101000
>
00110000
00110000
00100000
00111000
00100000
00100000
00100000
00100000
NAME Guard8
DLG SPR_j
POS w 9,7

SPR 11
00110000
00110000
00100000
00111000
00100000
00100000
00110000
00101000
>
00110000
00110000
00100000
00111000
00100000
00100000
00100000
00100000
NAME GuardButton
DLG SPR_k
POS n 10,7

SPR 12
00000000
00000000
11001000
10000110
01000111
01111100
01111100
01000100
>
00000000
10000000
10001000
10000110
01000111
01111100
01111100
01000100
NAME GenericExplain
DLG SPR_l
POS x 1,6

SPR 13
00001000
00110000
01110000
00011000
00111000
00011000
00011100
00110000
>
00000100
00011000
00111000
00001100
00011100
00001101
00001110
00010100
NAME DancingDog
DLG SPR_m
POS x 3,9

SPR 14
00000100
00001100
00001100
00010100
10000100
01111100
01111100
01000100
>
00000100
00001100
00001100
01010100
01000100
01111100
01111100
01000100
NAME HappyHowl
DLG SPR_n
POS x 3,4

SPR 15
00000000
00100010
00011100
00011100
10001000
01111000
01111000
01001000
>
00000000
00100010
00011100
00011100
01001000
01111000
01111000
01001000
NAME ButtonExplain
DLG SPR_o
POS x 4,7

SPR 16
00000000
00000000
01111000
10110100
01110001
00011111
00011111
00010001
>
00000000
00000000
01111010
10110101
01110001
00011111
00011111
00010001
NAME FourthWall
DLG SPR_p
POS x 12,11

SPR 17
00011000
00001110
10001111
01111110
01111100
01111100
01111100
01001000
>
00011000
00001110
00001111
01111111
01111100
01111100
01111100
01001000
NAME FatDog
DLG SPR_q
POS x 12,5

SPR 18
00000000
00000000
00000000
00001000
00110000
01110000
00011100
00010100
>
00000000
00000000
00000000
00001000
00110000
01110010
00011100
00010100
NAME Puppy
DLG SPR_r
POS x 8,10

SPR 19
00000000
00010000
01100000
11100000
00111110
00111110
00100010
00100010
>
00000000
00010000
01100000
11100001
00111110
00111110
00100010
00100010
NAME MommaDog
DLG SPR_s
POS x 9,10

SPR A
00110000
00011100
00011011
00011111
10001100
01111100
01111100
01000100
>
00110000
00011100
00011011
01011111
01001100
01111100
01111100
01000100
POS 0 1,6

SPR a
00000000
00000000
01010001
01110001
01110010
01111100
00111100
00100100
NAME Cat0
DLG SPR_0
POS 0 8,12

SPR b
11111111
10101010
00000000
10101010
10101010
00000000
10101010
11111111
NAME BurgerGate
DLG SPR_1
POS 2 14,13

SPR d
00000000
00111000
00111000
00010000
00010000
01010100
00010000
00101000
>
00111000
00111000
01010100
00010000
00010000
00010000
00101000
00000000
NAME Hooman
POS 1 5,3

SPR e
00000000
00111000
00111000
00010000
00010000
01010100
00010000
00101000
>
00111000
00111000
01010100
00010000
00010000
00010000
00101000
00000000
NAME Hooman1
POS 1 10,3

SPR f
00001000
00011100
01011100
00101000
00011000
00001100
00001011
00001010
>
00001000
00011100
01011100
00101000
00011010
00001100
00001011
00001010
NAME Guitarist0
POS 1 6,3

SPR g
00010000
00111000
00111010
00010100
00011000
00110000
11010000
01010000
>
00010000
00111000
00111010
00010100
01011000
00110000
11010000
01010000
NAME Guitarist1
POS 1 9,3

SPR h
00000100
00001110
00001110
00010100
00100100
00100100
00100100
01110100
>
00000100
00001110
00000110
00010101
00100100
00100100
00100100
01110100
NAME Vocalist
POS 1 8,3

SPR i
00001000
00011100
00011100
00001000
11101100
01011111
01011010
01011010
>
00001000
00011100
00011100
00101000
11101000
01001111
01011010
01011010
POS 1 7,3

SPR j
00011100
00111110
00110110
00110110
00001000
00101010
00001000
00010100
NAME ValleyGirl
DLG SPR_2
POS 2 5,13

SPR k
00000000
00010000
01111100
00111110
00101010
00101010
00101010
00111110
NAME GarbageCan
DLG SPR_3
POS 2 4,13

SPR l
00011000
00001000
00000100
00011000
00111100
00011000
00011000
00101000
NAME JerkGuy
DLG SPR_4
POS 2 6,13

SPR m
11111111
10101010
00000000
10101010
10101010
00000000
10101010
11111111
NAME PoundGate
DLG SPR_5
POS 4 7,13

SPR n
00000000
00111110
00111110
00111110
00111110
00111100
00111110
00111110
NAME PoundDoor
DLG SPR_6
POS 5 7,15

SPR o
00000000
00011000
00011000
00011000
00011000
00000000
00011000
00000000
NAME HowlAlert
DLG SPR_7
POS 5 6,14

SPR p
00000000
00011000
00011000
00011000
00011000
00000000
00011000
00000000
NAME ScratchingAlert
DLG SPR_8
POS a 8,9

SPR q
00000000
00011000
00011000
00011000
00011000
00000000
00011000
00000000
NAME GrowlAlert
DLG SPR_9
POS h 11,5

SPR r
00000000
00111110
00111110
00111110
00111110
00111100
00111110
00111110
NAME InternalPoundDoor
DLG SPR_a
POS l 0,7

SPR s
00110000
00110000
00100000
00111000
00100000
00100000
00110000
00101000
>
00110000
00110000
00100000
00111000
00100000
00100000
00100000
00100000
NAME Guard0
DLG SPR_b
POS m 1,7

SPR t
00110000
00110000
00100000
00111000
00100000
00100000
00110000
00101000
>
00110000
00110000
00100000
00111000
00100000
00100000
00100000
00100000
NAME Guard1
DLG SPR_c
POS p 2,7

SPR u
00110000
00110000
00100000
00111000
00100000
00100000
00110000
00101000
>
00110000
00110000
00100000
00111000
00100000
00100000
00100000
00100000
NAME Guard2
DLG SPR_d
POS q 3,7

SPR v
00110000
00110000
00100000
00111000
00100000
00100000
00110000
00101000
>
00110000
00110000
00100000
00111000
00100000
00100000
00100000
00100000
NAME Guard3
DLG SPR_e
POS r 4,7

SPR w
00110000
00110000
00100000
00111000
00100000
00100000
00110000
00101000
>
00110000
00110000
00100000
00111000
00100000
00100000
00100000
00100000
NAME Guard4
DLG SPR_f
POS s 5,7

SPR x
00110000
00110000
00100000
00111000
00100000
00100000
00110000
00101000
>
00110000
00110000
00100000
00111000
00100000
00100000
00100000
00100000
NAME Guard5
DLG SPR_g
POS t 6,7

SPR y
00110000
00110000
00100000
00111000
00100000
00100000
00110000
00101000
>
00110000
00110000
00100000
00111000
00100000
00100000
00100000
00100000
NAME Guard6
DLG SPR_h
POS u 7,7

SPR z
00110000
00110000
00100000
00111000
00100000
00100000
00110000
00101000
>
00110000
00110000
00100000
00111000
00100000
00100000
00100000
00100000
NAME Guard7
DLG SPR_i
POS v 8,7

SPR 1a
00010000
00001100
00001110
00001000
00011100
00111100
11111100
00110110
>
00001000
00000110
00000111
00000100
01011100
10111100
01111100
00110110
NAME WeirdDog
DLG SPR_t
POS x 6,5

SPR 1b
00000000
10010000
01100000
01100010
00111100
00111100
00100100
00000000
>
00000000
10010000
01100100
01100010
00111100
00111100
00100100
00000000
NAME SecretDog
DLG SPR_u
POS y 10,11

ITM 0
00000000
00000000
00000000
00111100
01100100
00100100
00011000
00000000
NAME tea
DLG ITM_0

ITM 1
00000000
00000000
11100000
10111110
11101010
00000000
00000000
00000000
NAME Key
DLG ITM_1

ITM 2
00000000
00001100
00001110
00011110
01111000
01110000
00110000
00000000
NAME Bone
DLG ITM_2

ITM 3
01000000
01001000
01011100
11011110
01111111
00111110
00011100
00001000
NAME BagOfChips
DLG ITM_3

ITM 4
00000000
00011000
00100100
01111110
00100100
00011000
00000000
00000000
NAME Burger
DLG ITM_5

ITM 5
00000000
00000001
00000010
00000100
11111111
01000010
00100100
00011000
NAME Soup
DLG ITM_4

DLG ITM_0
You found a nice warm cup of tea. For some reason.

DLG ITM_1
You pick up a key... with your teeth.

DLG SPR_0
"""
{sequence
  - *hiss!*
  - *growl!*
  - "No, seriously. Go away."
}
"""

DLG ITM_2
A bone! Delicious, but still leaves you hungry.

DLG ITM_3
You find a bag of chips! There were only salty crumbs left.

DLG SPR_2
"""
{sequence
  - "Hey puppy! OMG you are, like, so cute!"
  - "Kay bye. Shoo shoo."
}
"""

DLG SPR_3
"""
{sequence
  - You root through the garbage can! All you find is a rotten apple core.
  - The garbage can doesn't have any food left in it.
}
"""

DLG SPR_4
"""
{sequence
  - "Get out of here you mangy mutt!"
  - *he kicks his foot at you!*
}
"""

DLG SPR_1
"""
{sequence
  - You can see a burger on the other side of the fence. It sits there tantalizingly out of reach.
  - Your stomach rumbles.
}
"""

DLG SPR_5
"""
{sequence
  - The gate closed behind you!
  - No turning back now.
}
"""

DLG SPR_6
"""
{sequence
  - The door locked behind you!
  - No turning back now.
}
"""

DLG SPR_7
"""
{sequence
  - You hear a loud, screeching howl from somewhere in the darkness!
  - The air is dense and stale.
}
"""

DLG SPR_8
"""
{sequence
  - You can hear the frantic scrabbling of claws against metal coming from off to the side.
  - You shouldn't wait around for whatever made that noise.
}
"""

DLG SPR_9
"""
{sequence
  - A low, sharp snarl issues from deeper inside the room.
  - This is no place you want to stray for long.
}
"""

DLG SPR_a
"""
{sequence
  - Locked in again!
  - No turning back.
}
"""

DLG ITM_4
You found a leftover bowl of soup! There was only a bit of broth left in the bottom.

DLG SPR_b
"""
{sequence
  - "I'm gonna snatch you, you stinking beast!"
  - *he nearly grabs you!*
    You better run!
}
"""

DLG SPR_c
Run!

DLG SPR_d
Run!

DLG SPR_e
Run!

DLG SPR_f
Run!

DLG SPR_g
Run!

DLG SPR_h
Run!

DLG SPR_i
Run!

DLG SPR_j
Run!

DLG SPR_l
"""
{sequence
  - "Thank you for saving us from the horrible dog snatchers!"
  - *happy yip*
}
"""

DLG SPR_m
"""
{sequence
  - "I'm so excited I can't stop dancing!"
  - "Thank you!" *Woof!*
}
"""

DLG SPR_n
*she howls in jubilation!*

DLG SPR_o
"""
{sequence
  - "You're my hero! You sure did push that button!"
  - "Not sure why the dog pound would have a button that releases all its dogs at once, but I sure am glad it was there and you pushed it!"
}
"""

DLG SPR_p
"Good thing there's a room full of dogs explaining what just happened or this game wouldn't make any sense."

DLG SPR_q
"""
{shuffle
  - "Foooood!" *NOM NOM*
  - *OM NOM NOM NOM* "Thanks!" *NOM NOM NOM*
}{
  - {item "Burger"} >= 4 ?
      "You sure can eat a lot of burgers!"
}
"""

DLG ITM_5
A delicious burger!

DLG SPR_r
"""
{sequence
  - "You're so awesome! You totally outran that mean old snatcher!"
  - "I want to be like you when I grow up!" *BA-woooo!*
}
"""

DLG SPR_s
"Thank you for saving me and my little one from the pound!"

DLG SPR_t
"""
"You sure you talked to everyone? The end is just inside that door."{
  - {item "0"} == 1 ?
    "Oh, that tea? It was there when I got here. Just like the cat in the first area."
}
"""

DLG SPR_u
"""
{
  - {item "Soup"} >= 1 ?
    "You even ate the soup!"
  - {item "Soup"} <= 0 ?
    "You missed an item. But you don't have to tell anyone you couldn't even 100% a game that can be beaten in like a minute. No big."
}
"""

DLG SPR_k
"Stop! Don't even think about pressing that button!"

END 0
You saved the dogs from the pound and now you're all free and have as much food as you could ever want! That was made pretty clear, right? Anyway, thanks for playing! THE END

VAR a
42


