Welcome to the Lively Street

# BITSY VERSION 3.4

! ROOM_FORMAT 1

PAL 0
94,75,126
254,252,167
254,252,167

PAL 1
87,226,238
185,0,92
185,0,92

PAL 2
133,157,216
129,37,95
129,37,95

PAL 3
251,122,45
99,52,18
99,52,18

ROOM 0
0,0,0,0,0,0,0,0,0,0,0,0,0,0,0,0
0,0,0,0,0,0,0,0,0,0,0,0,0,0,0,0
0,0,0,0,0,0,0,0,0,0,0,0,0,0,0,0
0,0,0,1m,1l,1v,0,0,1w,0,0,e,0,0,0,0
2e,23,a,1h,1i,1u,2e,23,1x,2e,23,d,2e,23,2e,2e
2c,2f,0,1k,1j,1t,0,2f,1x,0,2f,b,2g,2f,2b,2g
20,21,22,20,21,22,20,21,22,20,21,22,20,21,22,20
2g,24,2g,2g,2g,25,2g,2g,2g,24,2g,2g,2g,24,2g,2g
0,0,0,26,0,0,0,0,0,0,0,0,0,0,0,0
0,0,0,0,0,0,0,0,0,0,0,0,0,0,0,0
0,0,0,18,0,0,0,0,0,0,1w,0,0,0,0,e
1m,1l,0,17,12,0,0,0,0,1z,1x,0,0,0,0,d
1h,1i,23,17,z,23,1o,1n,23,1u,1x,23,2e,2e,23,c
1k,1j,2f,y,y,2f,1p,1q,2f,1t,1x,2f,0,0,2f,b
20,21,22,20,21,22,20,21,22,20,21,22,20,21,22,20
0,24,0,0,0,24,0,0,0,24,0,0,0,24,0,0
WAL 2g,2f,24,23
EXT 15,6 1 0,6
PAL 1

ROOM 1
0,0,0,0,0,0,0,0,0,0,0,0,0,0,0,0
0,0,0,0,0,0,0,0,0,0,0,0,0,0,0,0
0,0,0,0,0,0,0,0,0,0,0,0,0,0,0,0
0,0,12,0,0,0,0,0,0,0,0,0,0,0,0,0
23,2e,z,23,2e,2e,2h,2i,2i,23,2e,2e,23,2e,2e,23
2f,0,y,2f,0,0,2f,0,0,2f,0,0,2f,0,2g,2f
20,21,22,20,21,22,20,21,22,20,21,22,20,21,22,20
2g,0,2g,2g,2g,0,2g,2g,2g,0,2g,2g,2g,0,2g,2g
0,0,0,0,0,0,0,0,0,0,0,0,0,0,0,0
0,0,0,0,0,0,0,0,0,0,0,0,0,0,0,0
0,0,0,0,1w,0,0,12,0,0,0,0,0,0,0,0
0,13,0,0,1x,0,18,z,0,1v,0,0,0,0,0,0
2e,z,1e,1d,1x,2e,17,z,2e,1u,1w,1r,1s,23,2e,2e
0,z,1f,1g,35,0,17,y,0,1t,1x,1p,1q,2f,0,0
20,21,22,20,21,22,20,21,22,20,21,22,20,21,22,20
0,24,0,0,0,25,0,0,0,24,0,0,0,24,0,0
WAL 24,1z,1y,1x,1w,1v,1u,2g,2f
EXT 15,6 3 0,6
PAL 2

ROOM 2
0,0,0,0,0,0,0,0,0,0,0,0,0,0,0,0
0,0,0,0,0,0,0,0,0,0,0,0,0,0,0,0
0,0,0,0,0,0,0,0,0,0,0,0,0,0,0,0
0,0,0,0,0,0,0,0,0,0,0,0,0,0,0,0
2e,2j,23,2e,2j,1z,3h,2j,23,x,2j,23,2e,2e,23,2e
2g,2g,2f,2g,2g,1t,2g,2g,2f,w,2g,2f,2g,2g,2f,2g
20,21,22,20,21,22,20,21,22,20,21,22,20,21,22,20
0,24,2g,2g,24,2g,2g,24,2g,2g,24,2g,2g,24,2g,2g
0,0,0,0,0,0,0,0,0,0,0,0,0,0,0,0
0,0,0,0,0,0,0,0,0,0,0,0,0,0,0,0
0,0,0,0,0,0,0,0,0,0,0,0,0,0,0,0
0,0,0,0,0,0,u,0,0,0,0,0,0,0,0,0
23,39,2e,23,37,2e,z,2e,3b,1m,1l,2e,23,3d,2e,23
2f,36,0,2c,38,0,y,0,3a,1p,1q,0,2f,3c,0,2f
20,21,22,20,21,22,20,21,22,20,21,22,20,21,22,20
0,24,0,0,24,0,0,24,0,0,24,0,0,24,0,0
WAL 2c,24,2g,2f
END 2 15,6
PAL 0

ROOM 3
0,0,0,0,0,0,0,0,0,0,0,0,0,0,0,0
0,0,0,0,0,0,0,0,0,0,0,0,0,0,0,0
0,0,0,0,0,0,0,0,0,0,0,0,0,0,0,0
0,0,18,0,0,1z,0,0,0,0,0,12,0,0,0,0
2m,2n,17,2o,2e,1u,23,2e,2p,23,2q,z,2r,2s,2e,23
2k,2l,y,0,0,1t,2f,0,0,2f,0,y,2f,0,0,2f
20,21,22,20,21,22,20,21,22,20,21,22,20,21,22,20
2g,0,2g,2g,2g,0,2g,2g,2g,0,2g,2g,2g,0,2g,2g
0,0,0,0,0,0,0,0,0,0,0,0,0,0,0,0
0,0,0,0,0,0,0,0,0,0,0,0,0,0,0,0
0,0,0,0,0,0,0,0,0,0,0,0,0,0,0,0
0,0,0,0,0,1z,0,0,0,0,0,0,0,0,0,0
2e,23,1h,1i,23,1u,2e,23,3g,2e,23,3g,2e,23,2e,2e
0,2f,1k,1j,2f,1t,0,2f,3e,3i,2f,3e,3f,2f,0,3j
20,21,22,20,21,22,20,21,22,20,21,22,20,21,22,20
0,24,0,0,0,24,0,0,0,24,0,0,0,25,0,0
WAL 24,2f,2g
EXT 14,6 2 0,6
END 1 5,5
END 3 2,5
PAL 3

ROOM 4
0,0,0,0,0,0,0,0,0,0,0,0,0,0,0,0
0,0,0,0,0,0,0,0,0,0,0,0,0,0,0,0
0,0,0,0,0,0,0,0,0,0,0,2w,2x,2y,34,0
0,0,0,0,0,0,0,0,0,0,0,2v,30,2z,0,0
0,0,0,0,0,0,0,0,0,0,2u,31,33,0,0,0
0,0,0,0,0,0,0,0,0,0,2t,2t,0,0,0,0
20,21,22,20,21,22,20,21,22,20,21,22,20,21,22,20
0,0,0,0,0,0,0,0,0,0,0,0,0,0,0,0
0,0,0,0,0,0,0,0,0,0,0,0,0,0,0,0
0,0,0,0,0,0,0,0,0,0,0,0,0,0,0,0
0,0,0,0,0,0,0,0,0,0,0,0,0,0,0,0
0,0,0,0,0,0,0,0,0,0,0,0,0,0,0,0
0,0,0,0,0,0,0,0,0,0,0,0,0,0,0,0
0,0,0,0,0,0,0,0,0,0,0,0,0,0,0,0
0,0,0,0,0,0,0,0,0,0,0,0,0,0,0,0
0,0,0,0,0,0,0,0,0,0,0,0,0,0,0,0
WAL 24,2g,2f
PAL 0

TIL 12
00000000
01111110
01011010
01111110
01011010
01111110
01011010
01111110

TIL 13
00000000
01111110
01011010
01111110
01011010
01111110
01011010
01111110

TIL 14
11111111
11111111
00000000
01111110
01011010
01111110
01011010
01111110

TIL 15
11111111
11111111
11111111
11111111
00000000
01111110
01011010
01111110

TIL 16
01111110
01011010
01111110
01011010
01111110
01011010
01111110
01011010

TIL 17
01111110
01001110
01111110
01110010
01111110
01001110
01111110
01110010

TIL 18
00000000
01111110
01001110
01111110
01110010
01111110
01001110
01111110

TIL 19
11111111
00000000
01111110
01001110
01111110
01110010
01111110
01001110

TIL 20
11111111
00000000
11011011
00000000
00000000
11011011
00000000
11111111

TIL 21
11111111
00000000
01101101
00000000
00000000
01101101
00000000
11111111

TIL 22
11111111
00000000
10110110
00000000
00000000
10110110
00000000
11111111

TIL 23
00011000
00100100
00100100
11011011
00011000
00011000
00011000
00011000

TIL 24
00000000
00000000
11111111
01100110
11111111
01100110
11111111
01000010

TIL 25
00000000
00000000
01111111
00000110
10011111
00000110
10101111
00000010

TIL 26
00000000
00000000
01111000
00110000
00110000
01110000
11110000
00110000

TIL 27
00000000
00011100
00011100
00011100
00011100
00011100
00001000
00010100

TIL 28
00000000
10000001
01111110
10000001
01111110
00000000
00000000
00000000

TIL 29
00000000
10000001
01111110
00000000
00000000
00000000
00000000
00000000

TIL 30
00000011
00001111
00111000
01100000
10000011
00001100
00011000
00000000

TIL 31
00001000
00010001
00110011
00100110
01100110
01001100
11001000
10011000

TIL 32
00000010
00000000
00000000
00000000
00000000
00000000
00000000
00000000

TIL 33
00000100
00011000
00010000
00000000
00000000
00000000
00000000
00000000

TIL 34
00000000
00000000
00011111
00011111
00000000
00000000
00011111
00000000

TIL 35
01000010
01001010
01000010
01000010
01000010
01011010
01011010
01011010

TIL 36
01010001
01010110
01111000
00111000
00011000
00011000
00011000
00011100

TIL 37
00000000
00010000
00010000
11111111
01010011
01111110
00111100
00011000
>
00000000
00100000
00100010
11111111
01010110
01111110
00111100
00011000

TIL 38
00011000
00011000
00011000
00111000
00011000
00011000
00011000
00011000
>
00011000
00011000
01011000
00111000
00011000
00011000
00011000
00011000

TIL 39
00000000
00000000
00000000
11111111
00000000
00000000
01000000
01010000
>
00000000
00000000
00000000
11111111
00000000
00000000
00100000
00101000

TIL a
11111111
10000001
10001101
10000001
10100001
10000101
10000001
10110001

TIL b
01111110
01110010
01011110
01111110
01100110
01000010
01011010
01011010

TIL c
01011110
01111110
01111010
01111110
01011110
01111110
01111010
01111110

TIL d
01111110
01011110
01111110
01111010
01111110
01011110
01111110
01111010

TIL e
00000000
01111110
01011110
01111110
01111010
01111110
01011110
01111110

TIL f
10000001
10111101
10101101
10111101
10110101
10111101
10101101
10111101

TIL g
10111101
10101101
10111101
10110101
10111101
10101101
10111101
10110101

TIL h
10111101
10110101
10111101
10101101
10111101
10110101
10111101
10101101

TIL i
10110101
10110101
10111101
10101101
10101101
10111101
10110101
10110101

TIL j
10111101
10110101
10111101
10101101
10101101
10111101
10111101
10110101

TIL k
11111111
10000001
10111101
10101101
10101101
10111101
10111101
10110101

TIL l
11111011
11111011
10000001
10111101
10101101
10111101
10111101
10110101

TIL m
11111111
10000001
10111101
10100101
10100101
10111101
10111101
10101101

TIL n
11111111
11111111
11111111
10000001
10111101
10110101
10111101
10111101

TIL o
11111111
11111111
11111111
10000001
10111101
10111101
10110101
10111101

TIL p
11111111
11111111
11111111
11111111
11111111
10000001
10111101
10111101

TIL q
00000000
00000000
00000000
00000000
01111110
01011010
01111110
01100110

TIL r
11111111
11111111
11111111
00000000
01111110
01001110
01111110
01110010

TIL s
00000000
00000000
00000000
00000000
01111110
01010110
01111110
01101010

TIL t
00001010
00000100
00000100
01111110
01111110
01111110
01111110
01111110

TIL u
00000000
00000000
01111110
01001110
01001110
01111110
01110010
01110010

TIL v
11111111
00000000
01111110
01000110
01010110
01000110
01111110
01010010

TIL w
01111110
00000000
01111110
01110010
01111110
01000110
01010110
01010110

TIL x
00000000
00000000
00000000
11111111
00000000
00000000
00011000
00111100

TIL y
01001110
01001110
01111110
01110010
01111110
01000010
01011010
01011010

TIL z
01011010
01111110
01011010
01111110
01011010
01111110
01011010
01111110

TIL 1a
11111111
11111111
11111111
00000000
01111110
01111010
01111110
01011110

TIL 1b
00000000
00000000
00000000
00000000
01111111
01000100
01010101
01000100

TIL 1c
00000000
00000000
00000000
00000000
11111100
01000100
01010100
01000100

TIL 1d
11111100
01000100
01010100
01000100
11111100
01000100
01010100
01000100

TIL 1e
01111111
01000100
01010101
01000100
01111111
01000100
01010101
01000100

TIL 1f
01111111
01000100
01010101
01000100
01111111
01110000
01110101
01110101

TIL 1g
11111100
01000100
01010100
01000100
11111100
01011100
01111100
01111100

TIL 1h
01111111
01001001
01001001
01111111
01001001
01001001
01111111
01001001

TIL 1i
11111110
10010010
10010010
11111110
10010010
10010010
11111110
10010010

TIL 1j
10010010
11111110
10010010
10010010
11111110
01101110
11010110
11010110

TIL 1k
01001001
01111111
01001001
01001001
01111111
01110110
01101011
01101011

TIL 1l
00000000
00000000
11111110
10010010
10010010
11111110
10010010
10010010

TIL 1m
00000000
00000000
01111111
01001001
01001001
01111111
01001001
01001001

TIL 1n
11111111
00000000
11111110
00110110
11111110
01001010
11111110
00110110

TIL 1o
11111111
00000000
01111111
01001010
01111111
01010010
01111111
01101001

TIL 1p
01111111
01101001
01111111
01001010
01111111
01010100
01111101
01111101

TIL 1q
11111110
01010010
11111110
00110110
11111110
00101010
10111110
10111110

TIL 1r
01111111
01010010
01111111
01001010
01111111
01010010
01111111
01001001

TIL 1s
11111110
01010010
11111110
00110110
11111110
01010010
11111110
10010110

TIL 1t
10000001
10001101
10100001
10000001
10011001
10111101
10100101
10100101

TIL 1u
10100001
10000001
10000101
10000001
10100001
10000001
10000101
10000001

TIL 1v
11111111
10000001
10100001
10000001
10000101
10000001
10100001
10000001

TIL 1w
00000100
00000100
01111110
01000010
01010010
01000010
01000010
01001010

TIL 1x
01000010
01001010
01000010
01010010
01010010
01000010
01000010
01001010

TIL 1y
00000000
00000000
00000000
11111111
10000001
10110001
10000001
10001101

TIL 1z
00000000
11111111
10000001
10100101
10000001
10100101
10000001
10100101

TIL 2a
00000000
00000000
01111100
01000100
01111100
00010000
00010000
00010000

TIL 2b
00000000
00000000
00111110
00100010
00111110
00001000
00001000
00001000

TIL 2c
00111000
00111000
00111000
00010000
00010000
00010000
00010000
00010000
>
00000000
00111000
00111000
00111000
00010000
00010000
00010000
00010000

TIL 2e
00000000
00000000
00000000
11111111
00000000
00000000
00000000
00000000

TIL 2f
00011000
00011000
00011000
00011000
00011000
00011000
00011000
00011000

TIL 2g
00000000
00000000
00000000
00000000
00000000
00000000
00000000
00000000

TIL 2h
01100000
10010000
10010100
11101100
11111111
11111111
10011001
10011001

TIL 2i
00000000
00000000
00000000
00000000
11111111
11111111
10011001
10011001

TIL 2j
00000000
00000000
00000000
11111111
00000000
00000000
00001000
01101010

TIL 2k
00100111
00011011
00011011
11111111
10000000
10000000
10000000
10000000

TIL 2l
00000000
01001000
01101100
11111111
00000001
00000001
00000001
00000001

TIL 2m
00000011
00000100
00000100
11111011
00000011
00000011
00011011
00100111

TIL 2n
00000000
10000000
10000000
01111111
00000000
00000000
00000000
00000000

TIL 2o
00011000
00100100
00100100
11011011
00011000
00011000
00011100
00010010

TIL 2p
00000000
00000000
00000000
11111111
00000000
00000000
00011000
00100100

TIL 2q
00000000
00000000
00000000
11111111
00000000
00000000
00000000
00001100

TIL 2r
00011000
00100100
00100100
11011011
00011000
00011000
00011011
00011100

TIL 2s
00000000
00000000
00000000
11111111
00000000
00000000
00000000
10000000

TIL 2t
00011001
00111001
00110001
00110001
01110010
01100010
01100010
01100010

TIL 2u
00000011
00000011
00000111
00000110
00001110
00001100
00011100
00011000

TIL 2v
00000111
00001111
00011100
00111000
01110000
01100001
11100010
11000100

TIL 2w
00000000
00000000
00000000
00000000
00000000
00000000
00000000
00000001

TIL 2x
00000000
00000000
00000000
00000000
00000111
00011111
01111000
11100000

TIL 2y
00000000
00000000
00000000
00111111
11111111
11100000
00000000
00001111

TIL 2z
01111000
00000000
00000000
00011111
00000000
00011111
00000000
00000000

TIL 3a
00010010
00010100
00001100
00001100
00011000
00011000
00011000
00011000
>
00100010
00100100
00011100
00011000
00011000
00011000
00011000
00011000

TIL 3b
00000000
00000000
00000000
11111111
00000010
00010010
00011010
00010010
>
00000000
00000000
00000000
11111111
00001010
00100100
00110100
00010100

TIL 3c
11111111
10000001
10100101
10000001
10000001
10011001
10100101
10100101

TIL 3d
00000000
00000000
00000000
11111111
00011000
00110100
01101010
11010101

TIL 3e
00001001
00000110
00110110
01111111
01000000
01000000
01000000
01000000

TIL 3f
00000000
00011000
00101000
11111100
00000100
00000100
00000100
00000100

TIL 3g
00000000
00000000
00000000
11111111
00000000
00000000
00000110
00001001

TIL 3h
00000000
00000000
00000100
11111111
00000100
00000000
00000000
00000000

TIL 3i
00000000
00000000
00101000
11111100
00000100
00000100
00000100
00000100

TIL 3j
00000000
00000000
00000000
00000000
00110000
00110010
00011100
00100100
>
00000000
00000000
00000000
00000000
00110000
00110000
00011110
00010100

SPR 10
00000000
11111111
01100110
11111111
01100110
11111111
01000010
00000000
POS 1 13,7

SPR 11
00111000
00111000
00010000
00111000
01010100
00010000
00101000
00101000
POS 1 10,5

SPR 12
11111111
10011001
10011001
11111111
01111110
10111101
10111101
10111101
POS 1 7,5

SPR 13
11111111
10011001
10011001
11111111
00111111
01011011
01011111
01011111
POS 1 8,5

SPR 14
11111111
10011001
10011001
11111111
11111100
11011010
11111010
11111010
POS 1 6,5

SPR 15
01011010
01111110
01011010
01111110
01000010
01011010
01011010
01011010
POS 1 2,5

SPR 16
01111110
01010010
01001010
01010010
01001010
01000010
01011010
01011010
POS 1 11,5

SPR 17
00000000
00000000
00000000
00111110
00100010
00111110
00001000
00001000
POS 1 13,5

SPR 18
00000000
00111000
00111000
00111000
00010000
00010000
00010000
00010000
>
00111000
00111000
00111000
00010000
00010000
00010000
00010000
00010000
POS 0 0,5

SPR 19
01000010
00110010
00010110
00011000
01111000
00011000
00011000
00011000
>
00100001
00010010
00010110
00011000
01111000
00011000
00011000
00011000
POS 2 7,5

SPR 20
00000000
10010000
11011000
11111110
00000010
00000010
00000010
00000010
POS 3 1,5

SPR A
11011011
00011000
11010010
00010000
00010000
11010110
00010000
11010111
>
11011011
00011000
11010010
00010000
00110000
10010110
00010000
10101011
POS 0 2,6

SPR a
10100101
10000001
10100101
10000001
10000001
10011001
10011001
10011001
>
10100101
10000001
10100101
10000001
10000001
10011001
10011001
10011001
POS 0 2,5

SPR b
00000000
00000000
00000000
00000000
01010000
01110010
01111100
00100100
>
00000000
00000000
00000000
00000000
01010000
01110000
01111110
00100100
POS 0 9,5

SPR c
00111000
00111000
00010000
00111000
01010100
00010000
00101000
00101000
POS 0 12,13

SPR d
00111000
00111000
00010000
00111000
01111100
00111000
00111000
00101000
POS 1 1,5

SPR e
00111000
00111010
00010100
00111000
00110000
01111000
00111000
00101000
>
00111000
00111000
00010010
00111100
00110000
01111000
00111000
00101000
POS 0 6,5

SPR f
00111000
10111010
01010100
00111000
00111000
00010000
00111000
00101000
>
00111000
00111000
00010000
00111000
01111100
10010010
00111000
00101000
POS 2 6,5

SPR g
00000000
00110000
00110000
00100100
00111000
00100000
00110000
00101000
>
00000000
00110000
00110000
00100000
00111100
00100000
00110000
00101000

SPR h
01000000
01100000
11100001
11100011
01111110
00111110
01111100
01001000
>
01000000
01100000
11100000
11100011
01111110
00111110
00111100
00100110

SPR i
01111111
10100000
10100000
11000000
10000000
10000000
11111111
00110001
>
00000000
01111111
10100000
11000000
10000000
10000000
11111111
00110001
POS 1 4,5

SPR j
11000000
00100000
00100000
00100100
00100000
00110000
11100000
10000000
>
00000000
11000000
00100010
00100000
00100100
00110000
11100000
10000000
POS 1 5,5

SPR k
11001010
00111100
00011000
00011000
00011000
00011000
00011000
00011000
>
11010100
00111100
00011000
00011000
00011000
00011000
00011000
00011000
POS 2 4,5

SPR l
01000010
00110010
00110100
00011000
00011110
00011000
00011000
00011000
>
01000100
01100100
00110100
00011000
00011110
00011000
00011000
00011000
POS 2 1,5

SPR m
00000000
00000000
00000000
00000000
00000000
00000000
00010010
10010100
>
00000000
00000000
00000000
00000000
00000000
00000000
00010010
11010100

SPR n
01001001
01111111
01001001
01001001
01111111
01110110
01101011
01101011
POS 0 3,5

SPR o
10010010
11111110
10010010
10010010
11111110
01101110
11010110
11010110
POS 0 4,5

SPR p
10000001
10001101
10100001
10000001
10011001
10111101
10100101
10100101
POS 0 5,5

SPR q
01001010
01000010
01010010
01000010
01000010
01011010
01011010
01011010
POS 0 8,5

SPR r
01111110
01011010
01111110
01111110
01100110
01000010
01011010
01011010
POS 0 11,5

SPR s
00000000
00000000
00000000
00111110
00100010
00111110
00001000
00001000
POS 0 14,5

SPR t
00000000
11111111
01100110
11111111
01100110
11111111
01000010
00000000
POS 0 1,7

SPR u
00000000
11111111
01100110
11111111
01100110
11111111
01000010
00000000
POS 0 13,7

SPR v
00000000
11111111
01100110
11111111
01100110
11111111
01000010
00000000
POS 0 9,7

SPR w
00000000
11001111
01100110
10011111
01100110
10101111
00000010
00000000
POS 0 5,7

SPR x
00000000
11111111
01100110
11111111
01100110
11111111
01000010
00000000
POS 1 1,7

SPR y
00000000
11111111
01100110
11111111
01100110
11111111
01000010
00000000
POS 1 5,7

SPR z
00000000
11111111
01100110
11111111
01100110
11111111
01000010
00000000
POS 1 9,7

SPR 1a
01101100
01111110
00111011
01111110
00011000
00011000
00011000
00011000
>
01101100
01111110
00101110
01111110
01011010
00011000
00011000
00011000
POS 2 10,5

SPR 1b
00011000
00111100
00011000
00111100
00011000
01111110
00011000
00011000
>
00011000
00111100
00011000
00111100
00011000
01111110
00011000
00011000
POS 2 13,5

SPR 1c
00000000
00000000
00000000
00111110
00100010
00111110
00001000
00001000
POS 2 15,5

SPR 1d
10000001
10001101
10100001
10001001
10000001
10111101
10100101
10100101
POS 2 5,5

SPR 1e
01011010
01111110
01011010
01111110
01111110
01100110
01100110
01100110

SPR 1f
01111110
00000000
01111110
01110010
01111110
01000110
01010110
01010110
POS 2 9,5

SPR 1g
00100111
00011011
00011011
11111111
10000000
10000000
10000000
10000000
POS 3 0,5

SPR 1h
00010010
00011100
00011100
11111111
10000000
10000000
10000000
10000000
POS 3 3,5

SPR 1i
00000000
00101000
10101000
11111110
00000010
00000010
00000010
00000010
POS 3 4,5

SPR 1j
00100100
00011000
00011000
11111111
00000001
00000001
00000001
00000001
POS 3 8,5

SPR 1k
00000000
00000000
00010100
00111111
00100000
00100000
00100000
00100000
POS 3 7,5

SPR 1l
00011000
00011000
00111010
01111111
01000000
01000000
01000000
01000000
>
00011000
00011000
00111010
01111111
01000000
01000000
01000000
01000000
POS 3 9,5

SPR 1m
00010010
00010010
10101100
11111110
00000010
00000010
00000010
00000010
>
00010010
00010010
10101100
11111110
00000010
00000010
00000010
00000010
POS 3 10,5

SPR 1n
00000000
00000000
00000000
00111110
00100010
00111110
00001000
00001000
POS 3 14,5

SPR 1o
00011100
00011011
00011011
01111111
01000000
01000000
01000000
01000000
POS 3 12,5

SPR 1p
10010000
00010100
00011100
11111110
00000010
00000010
00000010
00000010
POS 3 13,5

SPR 1q
00000000
11111111
01100110
11111111
01100110
11111111
01000010
00000000
POS 3 5,7

SPR 1r
00000000
11111111
01100110
11111111
01100110
11111111
01000010
00000000
POS 3 1,7

SPR 1s
00000000
11111111
01100110
11111111
01100110
11111111
01000010
00000000
POS 3 9,7

SPR 1t
00000000
11111111
01100110
11111111
01100110
11111111
01000010
00000000
POS 3 13,7

SPR 1u
10100001
10000001
10000101
10000001
10000001
10011001
10011001
10011001
>
10100001
10000001
10000101
10000001
10000001
10011001
10011001
10011001

SPR 1v
01111110
01001110
01111110
01111110
01000010
01011010
01011010
01011010
POS 3 11,5

SPR 1w
00010000
00111000
01111100
10000010
10010010
10101010
10101010
10101010
POS 4 1,5

SPR 1x
00000000
00000000
00000000
00000000
00000000
00000000
00000000
00000000

SPR 1y
00000000
00001110
00000100
00000100
00100100
00111100
01100110
01100110
POS 1 14,13

SPR 1z
00000000
00000000
00000000
00000000
00000000
00000000
00000000
00000000

DLG 10
I thought it was a bench but maybe it's a dog.

DLG 11
Student: Spending my time watching the days go by.

DLG 12
The Academy is the biggest building around.

DLG 13
The Academy is where students pretend to study while learning about life through smartphones.

DLG 14
Welcome to the local Academy.

DLG 15
A student dormitory.

DLG 16
A small house.

DLG 17
Academy Square

DLG 18
A bus stop.

DLG 19
I always heard trees are alive, so why veganism?

DLG 20
Bananas.

DLG a
Friend's apartment where I slept, at the end of Lively Street 

DLG n
The shopping mall is close to their house.

DLG o
People going home at night make a lot of noise.

DLG p
The nearby building. Maria lives there.

DLG e
Maria: Hey, Jane!

DLG r
Simply a building.

DLG c
Neighbor: What is love?

DLG b
He probably wants to eat.

DLG s
Round Square

DLG t
Benches to sit.

DLG u
Yet another bench.

DLG w
Bench, broken. These exist too.

DLG q
A business' building.

DLG x
A bench indeed.

DLG y
Undoubtedly a bench.

DLG z
Or is it a bench?

DLG i
The school bus almost whistles.

DLG j


DLG d
Fat teacher: So what if I am fat? Better to be fat and useful.. ugh ... 

DLG k
It's winter. Trees are chilly.

DLG l
The rustling branches of naked trees remind me of monsters.

DLG 1a
Somehow, one is still in full blossom. But is it more beautiful? What is beauty?

DLG 1b
A single pinetree as tired as me.

DLG 1c
A Square

DLG 1d
One of the few buildings around.

DLG 1e
Must be nice to live there.

DLG 1f
It's probably a pleasant house.

DLG g
I'm reading Waiting for Godot. It's me. 

DLG 1g
Marketer: Me, I sell bananas. I care for little else really honestly.

DLG 1h
Marketer: I sell organic bioproducts to promove world peace.

DLG 1i
Products which somehow promove peace.

DLG 1j
Marketer: My products serve a multitude of purposes For instance, uhh... I'm here just so my relatives think I'm being useful though.

DLG 1k
Barely recognizable useless kitchen utilities.

DLG 1l
Marketer: I ran here as soon as I heard Free Market.

DLG 1m
An ostensible Adam Smith collection.

DLG 1n
Fair Square

DLG 1o
Marketer: Empowerment. It's not easy to compete with bigshots ...

DLG 1p
Apples.

DLG 1q
Woof.

DLG 1r
Lovely bench.

DLG 1s
Woof woof.

DLG 1t
Is it really not a bench?

DLG 1u
Our house in the middle oof street.

DLG 1v
People are living close to the Market.

DLG 1w
A dog house.

DLG f
Woman: See those sneakers up there? Yes... I wanna.

END 0
After walking a straight path for 5 squares, you got to the end of Lively Street.

END 1
Parent: Welcome honey! Are you going to your friends' again tomorrow? So, good night!

END 2
Night has befallen you as you reach the end of Lively Street.

END 3
After trying to go inside the building, a dog attacks you badly.

