


# BITSY VERSION 4.6

! ROOM_FORMAT 1

PAL 0
0,82,204
128,159,255
255,255,255

ROOM 0
0,0,0,0,0,0,0,0,0,0,0,0,0,0,0,0
0,a,a,a,a,a,a,a,a,a,a,a,a,a,a,0
0,a,0,0,0,a,0,0,0,0,0,0,0,0,a,0
0,a,0,0,0,a,0,0,0,0,0,0,0,0,a,0
0,a,0,0,0,a,0,a,a,a,a,0,0,a,a,0
0,a,0,0,a,a,0,0,a,0,0,0,0,0,a,0
0,a,0,0,a,a,a,0,a,0,a,a,a,0,a,0
0,a,0,0,0,0,a,0,a,0,0,0,0,0,a,0
0,a,0,0,0,0,a,0,a,a,a,0,a,a,a,0
0,a,a,a,0,0,a,0,a,0,0,0,0,0,a,0
0,a,0,0,0,0,a,0,a,a,a,a,a,0,a,0
0,a,0,a,a,a,a,0,a,0,0,0,a,0,a,0
0,a,0,0,0,0,0,0,a,0,0,0,0,0,a,0
0,a,a,a,a,a,a,a,a,0,0,0,a,0,a,0
0,a,a,a,a,a,a,a,a,a,a,a,a,a,a,0
0,0,0,0,0,0,0,0,0,0,0,0,0,0,0,0
EXT 9,12 1 3,3
PAL 0

ROOM 1
0,0,0,0,0,0,0,0,0,0,0,0,0,0,0,0
0,a,a,a,a,a,a,a,a,a,a,a,a,a,a,0
0,a,0,0,0,a,0,0,0,a,0,0,0,a,a,0
0,a,0,0,0,a,0,a,0,a,0,a,0,a,a,0
0,a,0,0,0,a,0,a,0,a,0,a,0,a,a,0
0,a,a,0,a,a,0,a,0,a,0,a,0,a,a,0
0,a,0,0,0,0,0,a,0,0,0,a,0,a,a,0
0,a,a,a,a,a,a,a,a,a,a,a,0,a,a,0
0,a,a,0,0,0,0,0,0,0,0,0,0,a,a,0
0,a,a,0,0,0,0,0,0,0,0,0,a,a,a,0
0,a,a,0,0,0,0,0,0,0,0,0,a,a,a,0
0,a,a,0,a,a,a,a,a,a,a,a,a,a,a,0
0,a,a,0,0,0,a,0,0,0,a,0,0,0,a,0
0,a,a,0,a,0,0,0,a,0,0,0,0,0,a,0
0,a,a,a,a,a,a,a,a,a,a,a,a,a,a,0
0,0,0,0,0,0,0,0,0,0,0,0,0,0,0,0
EXT 13,13 2 3,3
PAL 0

ROOM 2
0,0,0,0,0,0,0,0,0,0,0,0,0,0,0,0
0,a,a,a,a,a,a,a,a,a,a,a,a,a,a,0
0,a,0,0,0,0,0,0,0,0,0,0,0,0,a,0
0,a,0,0,0,0,0,0,0,0,0,0,0,0,a,0
0,a,0,0,0,0,0,0,0,0,0,0,0,0,a,0
0,a,a,a,a,a,a,a,a,a,a,0,0,0,a,0
0,a,0,0,0,0,0,0,0,0,0,0,0,0,a,0
0,a,0,0,0,0,0,0,0,0,0,0,0,0,a,0
0,a,0,0,0,0,0,0,0,0,0,0,0,0,a,0
0,a,0,0,0,0,0,0,0,0,0,0,0,0,a,0
0,a,0,0,0,a,a,a,a,a,a,a,a,a,a,0
0,a,0,0,0,0,0,0,0,0,0,0,0,0,a,0
0,a,0,0,0,0,0,0,0,0,0,0,0,0,a,0
0,a,0,0,0,0,0,0,0,0,0,0,0,0,a,0
0,a,a,a,a,a,a,a,a,a,a,a,a,a,a,0
0,0,0,0,0,0,0,0,0,0,0,0,0,0,0,0
ITM 0 6,12
EXT 13,12 3 2,3
PAL 0

ROOM 3
0,0,0,0,0,0,0,0,0,0,0,0,0,0,0,0
0,a,a,a,a,a,a,a,a,a,a,a,a,a,a,0
0,a,0,0,0,0,0,0,0,0,0,0,0,0,a,0
0,a,0,0,0,0,0,0,0,0,0,0,0,0,a,0
0,a,a,a,a,a,a,a,a,a,a,0,0,0,a,0
0,a,0,0,0,0,0,0,0,0,0,0,0,0,a,0
0,a,0,0,0,0,0,0,0,0,0,0,0,0,a,0
0,a,0,0,0,a,a,a,a,a,a,a,a,a,a,0
0,a,0,0,0,0,0,0,0,0,0,0,0,0,a,0
0,a,0,0,0,0,0,0,0,0,0,0,0,0,a,0
0,a,a,a,a,a,a,a,a,a,a,0,0,0,a,0
0,a,0,0,0,0,0,0,0,0,0,0,0,0,a,0
0,a,0,0,0,0,0,0,0,0,0,0,0,0,a,0
0,a,0,0,0,0,0,0,0,0,0,0,0,0,a,0
0,a,a,0,0,a,a,a,a,a,a,a,a,a,a,0
0,0,0,0,0,0,0,0,0,0,0,0,0,0,0,0
EXT 0,5 4 2,2
EXT 14,15 5 2,2
PAL 0

ROOM 4
0,0,0,0,0,0,0,0,0,0,0,0,0,0,0,0
0,a,a,a,a,a,a,a,a,a,a,a,a,a,a,0
0,a,0,0,0,0,0,0,0,0,0,0,0,0,a,0
0,a,0,0,0,0,0,0,0,0,0,0,0,0,a,0
0,a,0,0,0,0,0,0,0,0,0,0,0,0,a,0
0,a,0,0,0,0,0,0,0,0,0,0,0,0,a,0
0,a,0,0,0,0,0,0,0,0,0,0,0,0,a,0
0,a,0,0,0,0,0,0,0,0,0,0,0,0,a,0
0,a,0,0,0,0,0,0,0,0,0,0,0,0,a,0
0,a,0,0,0,0,0,0,0,0,0,0,0,0,a,0
0,a,0,0,0,0,0,0,0,0,0,0,0,0,a,0
0,a,0,0,0,0,0,0,0,0,0,0,0,0,a,0
0,a,0,0,0,0,0,0,0,0,0,0,0,0,a,0
0,a,0,0,0,0,0,0,0,0,0,0,0,0,0,0
0,a,a,a,a,a,a,a,a,a,a,a,a,a,a,a
0,0,0,0,0,0,0,0,0,0,0,0,0,0,0,0
ITM 1 2,4
ITM 1 4,4
ITM 1 4,2
ITM 1 5,3
ITM 1 3,5
ITM 1 5,5
ITM 1 6,2
ITM 1 6,4
ITM 1 7,5
ITM 1 7,3
ITM 1 8,2
ITM 1 8,4
ITM 1 9,5
ITM 1 9,3
ITM 1 10,2
ITM 1 10,4
ITM 1 11,5
ITM 1 11,3
ITM 1 12,2
ITM 1 12,4
ITM 1 13,5
ITM 1 13,3
ITM 1 2,6
ITM 1 4,6
ITM 1 6,6
ITM 1 8,6
ITM 1 10,6
ITM 1 12,6
ITM 1 3,7
ITM 1 5,7
ITM 1 7,7
ITM 1 9,7
ITM 1 11,7
ITM 1 13,7
ITM 1 2,8
ITM 1 4,8
ITM 1 6,8
ITM 1 8,8
ITM 1 10,8
ITM 1 12,8
ITM 1 3,9
ITM 1 5,9
ITM 1 7,9
ITM 1 9,9
ITM 1 11,9
ITM 1 13,9
ITM 1 12,10
ITM 1 10,10
ITM 1 8,10
ITM 1 6,10
ITM 1 4,10
ITM 1 2,10
ITM 1 3,11
ITM 1 5,11
ITM 1 7,11
ITM 1 9,11
ITM 1 10,12
ITM 1 8,12
ITM 1 6,12
ITM 1 4,12
ITM 1 2,12
ITM 1 3,13
ITM 1 5,13
ITM 1 7,13
ITM 1 9,13
END 0 15,15
PAL 0

ROOM 5
0,0,0,0,0,0,0,0,0,0,0,0,0,0,0,0
0,a,a,a,a,a,a,a,a,a,a,a,a,a,a,0
0,a,0,0,b,b,0,0,0,0,b,0,0,b,a,0
0,a,0,b,0,0,0,b,0,0,b,b,b,0,a,0
0,a,b,b,b,b,b,b,b,b,b,0,0,b,a,0
0,a,0,b,0,0,0,b,b,0,0,b,b,0,a,0
0,a,b,0,0,b,b,0,0,b,0,b,0,b,a,0
0,a,0,b,b,0,b,b,b,b,b,b,b,b,a,0
0,a,0,0,0,b,0,0,0,b,0,0,b,b,a,0
0,a,b,b,b,b,b,b,b,b,0,b,b,0,a,0
0,a,0,b,0,0,0,b,0,0,0,0,b,0,a,0
0,a,b,0,b,0,b,b,b,b,b,b,b,b,a,0
0,a,0,b,0,b,b,0,b,0,b,b,0,0,a,0
0,a,0,b,0,0,b,0,0,b,0,b,0,0,a,0
0,a,a,a,a,a,a,a,a,a,a,a,a,a,a,0
0,0,0,0,0,0,0,0,0,0,0,0,0,0,0,0
END undefineg 13,13
PAL 0

TIL a
11111111
10000001
10000001
10011001
10011001
10000001
10000001
11111111
WAL true

TIL b
00000000
00011000
00011000
00111100
00111100
01111110
01111110
00011000
WAL false

SPR A
00011000
00011000
00011000
00111100
01111110
10111101
00100100
00100100
POS 0 3,3

SPR a
00000000
00000000
01010001
01110001
01110010
01111100
00111100
00100100
NAME Cat 1
DLG SPR_0
POS 0 10,12

SPR b
00000000
01111110
01010010
01100110
01111110
00011000
00011000
00000000
NAME Narrator 1
DLG SPR_1
POS 1 5,9

SPR c
00000000
00000000
01010001
01110001
01110010
01111100
00111100
00100100
NAME Cat 2
DLG SPR_2
POS 1 9,9

SPR d
00000000
00000000
01010001
01110001
01110010
01111100
00111100
00100100
NAME Cat 3
DLG SPR_3
POS 2 12,5

SPR e
00000000
01111110
01010010
01100110
01111110
00011000
00011000
00000000
NAME Narrator 2
DLG SPR_4
POS 2 3,10

SPR f
00000000
00000000
01010001
01110001
01110010
01111100
00111100
00100100
NAME Cat 4
DLG SPR_5
POS 3 12,4

SPR g
00000000
00000000
01010001
01110001
01110010
01111100
00111100
00100100
NAME Cat 5
DLG SPR_6
POS 3 3,7

SPR h
00000000
00000000
01010001
01110001
01110010
01111100
00111100
00100100
NAME Cat 6
DLG SPR_7
POS 3 12,10

SPR i
00000000
01111110
01010010
01100110
01111110
00011000
00011000
00000000
NAME Narrator 3
DLG SPR_8
POS 3 6,12

SPR j
00000000
00000000
01010001
01110001
01110010
01111100
00111100
00100100
NAME Cat 7
DLG SPR_9
POS 4 12,12

SPR k
00000000
01111110
01010010
01100110
01111110
00011000
00011000
00000000
NAME Narrator 4
DLG SPR_a
POS 5 10,9

ITM 0
00000000
00000000
00101000
00111000
00111010
00011100
00010100
00000000
NAME kitten
DLG ITM_0

ITM 1
00000000
00000000
00101000
00111000
01110100
01110000
01010000
00000000
DLG ITM_1

DLG SPR_0
I'm a cat. {wvy}Or am I?{wvy}

DLG ITM_0
You got a kitten! Lucky you!

DLG SPR_1
And thus a {rbw}{wvy}cat{wvy}{rbw} was born.

DLG SPR_2
"""
oh no


I think I might be {shk}pregnant{shk}.
"""

DLG SPR_3
{shk}I HATE MY CHILD{shk}

DLG SPR_4
So you take it's child.

DLG SPR_5
{shk}GIVE ME MY CHILD BACK{shk}

DLG SPR_6
{shk}OR I WILL HAVE TO{shk}

DLG SPR_7
{shk}{wvy}KILL YOU{wvy}{shk}

DLG SPR_8
Quick! Run away through this {wvy}{rbw}magical{rbw}{wvy} exit!

DLG ITM_1
You found a dead kitten. Looks like it was torn apart.

DLG SPR_9
You have lost, {shk}my child.{shk}

DLG SPR_a
What a beautiful forest.

END 0
You couldn't save the precious little kitten.

END undefined


END undefinee


END undefinef


END undefineg
You live happy ever after with your precious little kitten. 

VAR a
42


