
WHERE IS ANON?

# BITSY VERSION 4.5

! ROOM_FORMAT 1

PAL 0
0,0,0
50,205,50
154,205,50

ROOM 0
0,0,0,0,0,0,0,0,0,0,0,0,0,32,32,32
0,0,0,0,0,0,0,0,0,0,0,0,0,2n,2o,2p
0,0,0,0,0,0,0,0,0,0,0,0,0,0,33,0
0,0,0,0,0,0,0,0,0,0,0,0,0,32,32,0
0,0,0,0,0,0,0,0,0,0,0,0,0,32,32,32
0,0,0,0,0,0,0,0,0,0,0,0,0,32,32,32
0,0,0,0,0,0,0,0,0,0,0,0,0,32,32,32
y,1g,1g,x,x,x,x,x,x,x,x,x,x,x,x,w
z,1j,1k,1l,0,0,0,0,0,0,0,0,0,0,0,v
z,0,0,1p,1o,0,0,0,0,0,m,n,23,24,o,v
z,0,0,1m,1n,0,0,0,m,o,l,d,1h,20,k,v
z,0,0,0,0,0,0,0,t,s,l,d,1x,25,k,v
z,0,0,0,0,0,0,0,r,q,h,i,i,i,j,v
11,c,c,15,16,c,c,c,c,14,g,f,f,f,e,12
10,d,d,d,17,d,d,d,d,d,d,d,d,d,d,13
c,c,c,c,c,c,c,c,c,c,c,c,c,c,c,c
NAME Desk
ITM 0 7,13
ITM 1 13,2
EXT 12,10 1 1,1
END 0 15,2
PAL 0

ROOM 1
0,0,0,0,0,0,0,0,0,0,0,0,0,0,0,0
0,0,0,0,0,0,0,0,0,0,0,0,0,0,1i,0
0,0,0,0,0,0,0,0,0,0,0,0,0,0,0,0
0,0,0,0,0,0,0,0,0,0,0,0,0,0,0,0
19,18,18,18,18,18,18,1g,18,18,18,18,18,18,18,1a
1c,d,d,d,d,d,d,d,d,d,d,d,d,22,d,1b
1c,d,d,d,d,0,d,d,d,d,d,d,d,d,20,1b
1c,d,d,d,d,d,d,d,d,d,d,d,d,21,d,1b
1c,d,d,d,d,d,d,1r,1t,d,d,d,d,d,d,1b
1c,d,d,d,d,d,d,1s,1u,d,d,d,d,d,20,1b
1c,d,d,d,d,d,d,d,d,d,d,d,d,1x,25,1b
1c,d,d,d,d,1y,d,d,d,d,d,d,d,d,d,1b
1c,d,d,d,1z,2k,20,d,d,d,2j,d,d,d,d,1b
1c,d,d,d,d,1x,d,d,d,d,d,d,d,d,d,1b
1c,1q,c,c,c,c,c,c,c,c,c,1w,2m,2l,1v,1b
1e,1d,1d,1d,1d,1d,1d,1d,1d,1d,1d,1d,1d,1d,1d,1f
NAME Desktop
EXT 14,1 0 1,1
EXT 10,12 2 1,1
EXT 5,12 3 1,1
END 0 1,14
PAL 0

ROOM 2
0,0,0,0,0,0,0,0,0,0,0,0,0,0,0,0
0,0,0,0,0,0,0,0,0,0,0,0,0,0,0,0
0,0,0,0,0,0,0,0,0,0,0,0,0,0,0,0
0,0,0,0,0,0,0,0,0,0,0,0,0,0,0,0
19,18,18,18,18,18,18,2i,2h,18,18,18,18,18,18,1a
1c,27,1y,1y,1y,1y,1y,1y,1y,1y,1y,1y,1y,1y,26,1b
1c,1z,28,28,28,28,28,28,28,28,28,28,28,29,20,1b
1c,1z,d,d,2a,2d,2c,2f,2b,2e,2c,2g,d,d,20,1b
1c,1z,d,d,d,d,d,d,d,d,d,2g,d,d,20,1b
1c,1z,d,d,2e,2a,2b,2d,2c,2d,2c,2g,d,d,20,1b
1c,1z,d,d,d,d,d,d,d,d,d,2g,d,d,20,1b
1c,1z,d,d,2c,2c,2e,2a,2d,2b,2f,2g,d,d,20,1b
1c,1z,1y,1y,1y,1y,1y,1y,1y,1y,1y,1y,1y,1y,20,1b
1c,d,d,d,d,d,d,d,d,d,d,d,d,d,d,1b
1c,1q,c,c,c,c,c,c,c,c,1x,1w,2m,2l,1v,1b
1e,1d,1d,1d,1d,1d,1d,1d,1d,1d,1d,1d,1d,1d,1d,1f
NAME Inbox
EXT 13,6 1 11,12
PAL 0

ROOM 3
0,0,0,0,0,0,0,0,0,0,0,0,0,0,0,0
0,0,0,0,0,0,0,0,0,0,0,0,0,0,0,0
0,0,0,0,0,0,0,0,0,0,0,0,0,0,0,0
0,0,0,0,0,0,0,0,0,0,0,0,0,0,0,0
19,18,18,18,18,18,18,2i,2h,18,18,18,18,18,18,1a
1c,27,1y,1y,1y,1y,1y,1y,1y,1y,1y,1y,1y,1y,26,1b
1c,1z,28,28,28,28,28,28,28,28,28,28,28,29,20,1b
1c,1z,d,d,0,d,2c,2f,2b,2e,2c,2c,d,d,20,1b
1c,1z,1y,1y,1y,1y,1y,1y,1y,1y,1y,1y,1y,1y,20,1b
1c,d,d,d,d,d,d,d,d,d,d,d,d,d,d,1b
1c,d,d,d,d,d,d,d,d,d,d,d,d,d,d,1b
1c,d,d,d,d,d,d,d,d,d,d,d,d,d,d,1b
1c,d,d,d,d,d,d,d,d,d,d,d,d,d,d,1b
1c,d,d,d,d,d,d,d,d,d,d,d,d,d,d,1b
1c,1q,c,c,c,c,c,c,c,c,c,1w,2m,2l,1v,1b
1e,1d,1d,1d,1d,1d,1d,1d,1d,1d,1d,1d,1d,1d,1d,1f
NAME Chat
EXT 13,6 1 6,12
PAL 0

TIL 10
00111111
00111111
00111111
00111111
00111111
00111111
00111111
00111111

TIL 11
00000000
00111111
00111111
00111111
00111111
00111111
00111111
00111111

TIL 12
00000000
11111100
11111100
11111100
11111100
11111100
11111100
11111100

TIL 13
11111100
11111100
11111100
11111100
11111100
11111100
11111100
11111100

TIL 14
00000000
11101111
11110111
11110111
11101111
11101111
11101111
11110111
WAL false

TIL 15
00000000
11111111
11000000
11011111
11010000
11011111
11010000
11011111

TIL 16
00000000
11111111
00000011
11111011
00001011
11111011
00001011
11111011

TIL 17
00001011
11111011
00001011
11111011
11111011
11111011
00000011
11111111

TIL 18
00000000
00000000
11111111
00000000
00000000
00000000
00000000
11111111

TIL 19
00000000
00000000
01111111
01000000
01000000
01000000
01000000
01000000

TIL 20
01111111
01111111
01111111
01111111
01111111
01111111
01111111
01111111

TIL 21
10000000
11111111
11111111
11111111
11111111
11111111
11111111
11111111

TIL 22
11111111
11111111
11111111
11111111
11111111
11111111
11111111
10000000

TIL 23
00000000
00000000
11111111
11111111
11111111
11111111
11111111
00000000

TIL 24
00000000
00000000
11111111
11111111
11111111
11111111
11111111
01111111

TIL 25
01111111
11111111
11111111
11111111
11111111
11111111
11111111
11111111

TIL 26
11111111
11111111
11111111
11111111
11111111
11111111
11111111
01111111

TIL 27
11111111
11111111
11111111
11111111
11111111
11111111
11111111
11111110

TIL 28
11111111
00000000
11111111
00000000
11111111
11111111
11111111
11111111

TIL 29
11110101
00011011
11110101
00000000
11111111
11111111
11111111
11111111

TIL 30
10000000
10000000
10000000
10000000
10000000
10000000
10000000
10000000

TIL 31
00111000
00111000
00111000
00111000
11111110
01111100
00111000
00010000

TIL 32
00000000
00000000
00000000
00000000
00000000
00000000
00000000
00000000
WAL true

TIL 33
00000000
00001000
00001100
11111110
11111111
11111110
00001100
00001000
WAL false

TIL a
11110100
10000010
10000001
11110000
10000001
10000010
11110100
00000000
WAL false

TIL c
00000000
11111111
11111111
11111111
11111111
11111111
11111111
11111111

TIL d
11111111
11111111
11111111
11111111
11111111
11111111
11111111
11111111

TIL e
11111110
10101010
11111110
10101010
11111110
10101010
11111110
00000000

TIL f
11111111
10101010
11111111
10101010
11111111
10101010
11111111
00000000

TIL g
01111111
01101010
01111111
01101010
01111111
01101010
01111111
00000000

TIL h
01111111
01111111
01111111
01111111
01111111
01111111
00000000
00000000

TIL i
11111111
11111111
11111111
11111111
11111111
11111111
00000000
00000000

TIL j
11111110
11111110
11111110
11111110
11111110
11111110
00000000
00000000

TIL k
11111110
11111110
11111110
11111110
11111110
11111110
11111110
11111110

TIL l
01111111
01111111
01111111
01111111
01111111
01111111
01111111
01111111

TIL m
00000000
00000000
01111111
01111111
01111111
01111111
01111111
01111111

TIL n
00000000
00000000
11111111
11111111
11111111
11111111
11111111
11111111

TIL o
00000000
00000000
11111110
11111110
11111110
11111110
11111110
11111110

TIL p
00000000
01111110
01111110
01111110
01111110
01111110
01111110
00000000

TIL q
11111110
11111110
01111110
10111110
10111110
01111110
11111110
11111110

TIL r
01111111
01111111
01111110
01111101
01111101
01111110
01111111
01111111

TIL s
11111110
11111110
00000000
11111110
00000000
11111110
11111110
11111110

TIL t
01111111
01111111
00000000
01111111
00000000
01111111
01111111
01111111

TIL u
01111111
01111111
10000000
11111111
10000000
11111111
11111111
11111111

TIL v
00000011
00000011
00000011
00000011
00000011
00000011
00000011
00000011

TIL w
11111111
00000011
00000011
00000011
00000011
00000011
00000011
00000011

TIL x
11111111
00000000
00000000
00000000
00000000
00000000
00000000
00000000

TIL y
11111111
11000000
11000000
11000000
11000000
11000000
11000000
11000000

TIL z
11000000
11000000
11000000
11000000
11000000
11000000
11000000
11000000

TIL 1a
00000000
00000000
11111110
00000010
00000010
00000010
00000010
00000010

TIL 1b
00000010
00000010
00000010
00000010
00000010
00000010
00000010
00000010

TIL 1c
01000000
01000000
01000000
01000000
01000000
01000000
01000000
01000000

TIL 1d
00000000
00000000
00000000
00000000
00000000
00000000
11111111
00000000

TIL 1e
01000000
01000000
01000000
01000000
01000000
01000000
01111111
00000000

TIL 1f
00000010
00000010
00000010
00000010
00000010
00000010
11111110
00000000

TIL 1g
11111111
00000000
00000000
00000000
00000000
00000000
00000000
00000000

TIL 1h
00011100
00110110
00100010
00100010
00100010
00110110
00011100
01100011
WAL false

TIL 1i
00010000
00110000
01111111
11111111
01111111
00110000
00010000
00000000

TIL 1j
00000000
01111111
01000101
01010100
01000101
01010101
01111111
00000000

TIL 1k
00000000
11111111
10100010
10101010
00101010
10100010
11111111
00000000

TIL 1l
00000000
11111110
11011110
01011110
10011110
11010110
11111110
00000000

TIL 1m
10000000
10000000
10001001
10010110
10100000
10000000
10000000
11111111

TIL 1n
00000001
00000101
10000101
01010101
00101001
00000001
00000001
11111111

TIL 1o
00000000
00000000
00000000
11111111
00000001
10100001
00000001
00000001

TIL 1p
00000000
00000000
00000000
11111111
10000000
10000010
10000000
10000000

TIL 1q
00000000
11111111
11110111
11000001
11010101
11011101
11000001
11111111

TIL 1r
11110000
11101111
11011111
11011111
11011111
11010001
11011011
11011111

TIL 1s
11011111
11010111
11011010
11011101
11101111
11101110
11110110
11111000

TIL 1t
00001111
11110111
11111011
11111011
11111011
10001011
11011011
11111011

TIL 1u
11111011
11101011
01011011
10111011
11110111
01110111
01101111
00011111

TIL 1v
00000000
11111111
11111111
00010001
01010101
01010101
00010001
11111111

TIL 1w
00000000
11111111
11111111
11011111
00010101
00010101
11011111
11111111

TIL 1x
00000000
11111111
11111111
11111111
11111111
11111111
11111111
11111111

TIL 1y
11111111
11111111
11111111
11111111
11111111
11111111
11111111
00000000

TIL 1z
11111110
11111110
11111110
11111110
11111110
11111110
11111110
11111110

TIL 2a
11111111
10001010
11111111
10010100
11111111
10010010
11111111
11111111

TIL 2b
11111111
10010100
11111111
01001010
11111111
00100100
11111111
11111111

TIL 2c
11111111
00010100
11111111
00101010
11111111
00010100
11111111
11111111

TIL 2d
11111111
01000010
11111111
00100010
11111111
10010000
11111111
11111111

TIL 2e
11111111
00001010
11111111
00010001
11111111
01001000
11111111
11111111

TIL 2f
11111111
01000010
11111111
00110000
11111111
00101000
11111111
11111111

TIL 2g
10011111
10011111
10011111
10011111
10011111
10011111
10011111
10011111

TIL 2h
11111110
11111110
11111110
11111110
11111110
11111110
11111100
00000000

TIL 2i
01111111
01111111
01111111
01111111
01111111
01111111
00111111
00000000

TIL 2j
00000000
01111110
01000010
01111010
01000010
01011010
01011010
01000000
WAL false

TIL 2k
01111110
11000011
10000001
10000001
11000011
01111110
00110000
00100000

TIL 2l
00000000
11111111
11111111
01000101
01010111
01010101
01000111
11111111
>
00000000
11111111
111111110
01000111
01010111
01010111
01000111
11111111

TIL 2m
00000000
11111111
11111111
11111100
01111101
01111101
11111100
11111111

TIL 2n
11110100
10000010
10000001
11100001
10000001
10000010
11110100
00000000
WAL true

TIL 2o
00101110
01000100
10000100
10000100
10000100
01000100
00101110
00000000
WAL true

TIL 2p
11111000
00100000
00100000
00100000
00100000
00100000
00100000
00000000
WAL true

TIL 2q
00110000
00110000
00110000
00110000
00110000
00110000
00110000
00110000

TIL 2r
00010000
00111000
01111100
11111110
00111000
00111000
00111000
00111000

TIL 2s
00000000
00000000
00000000
11110000
11110000
00110000
00110000
00110000

TIL 2t
00000000
00000000
00000000
11111111
11111111
00000000
00000000
00000000

TIL 2u
00000000
00000000
00000000
00011111
00011111
00011000
00011000
00011000

TIL 2v
00011000
00011000
00011000
00011000
00011000
00011000
00011000
00011000

TIL 2w
00110000
00110000
00110000
11110000
11110000
00000000
00000000
00000000

TIL 2x
00000000
00000000
00000000
11111111
11111111
00000000
00000000
00000000

TIL 2y
00011000
00011000
00011000
00011111
00011111
00000000
00000000
00000000

TIL 2z
00000010
00000010
00000010
00000010
00000010
00000010
00000010
00000010

SPR 10
00000000
00001000
00001100
11111110
11111111
11111110
00001100
00001000

SPR A
00000000
01000010
00100100
00011000
00011000
00100100
01000010
00000000
>
00000000
00000000
00000000
00000000
00000000
00000000
00000000
00000000
POS 0 1,1
ITM 0 1

SPR a
00000000
00000000
00100100
00000000
00000000
00111100
00000000
00000000
DLG SPR_j
POS 3 4,7

SPR b
00111100
00111100
00111100
00100100
00111100
00011000
00000000
00000000
DLG SPR_f
POS 0 9,14

SPR c
00111100
01011010
01111110
00111100
00011000
01111110
00111100
00100100
DLG SPR_6
POS 0 1,12

SPR d
00000000
00111111
01011111
01100000
01111111
01111111
01111111
00000000
DLG SPR_d
POS 0 2,14

SPR e
00000000
11111100
11111010
00000110
11111110
11111110
11111110
00000000
DLG SPR_e
POS 0 3,14

SPR f
00111111
01111111
10111111
10111111
10111111
10111111
01111111
00111111
DLG SPR_2
POS 0 5,12

SPR g
01111111
01111111
01111111
01111111
01111111
01111111
00111111
00000000
DLG SPR_1
POS 1 7,4

SPR h
11111110
11111110
11111110
11111110
11111110
11111110
11111100
00000000
DLG SPR_0
POS 1 8,4

SPR i
11111111
10000001
10101001
10010101
10101001
10010101
10000001
11111111
DLG SPR_g
POS 0 6,9

SPR j
11111111
11001001
10110110
10111110
11011101
11101011
11110111
11111111
DLG SPR_u
POS 1 2,6

SPR l
11100111
11011011
11011011
10000001
10000001
10000001
10000001
10000001
DLG SPR_o
POS 1 2,9

SPR m
11111110
11100101
10011001
01110110
01101110
10011001
10100111
01111111
DLG SPR_t
POS 1 10,6

SPR o
11100011
11101100
11101110
10001110
00001110
10011000
11110000
11111001
DLG SPR_i
POS 1 5,6

SPR p
01011111
10111111
01010111
11101111
11010101
11111011
11110101
11111111
DLG SPR_p
POS 1 5,9

SPR r
00111110
01111111
01101011
01011101
01110111
01111111
00101010
00000000
DLG SPR_h
POS 1 13,6

SPR s
11100011
10000000
11111111
11010101
11010101
11010101
11010101
11010101
DLG SPR_k
POS 1 13,12

SPR u
00000000
00110000
01001000
01001000
00111110
00001001
00001001
00000110
DLG SPR_l
POS 1 13,9

SPR w
00000000
01111110
01011010
01110110
01101110
01011010
01111110
00000000
DLG SPR_r
POS 2 3,7

SPR x
00000000
01111110
01011010
01101110
01110110
01011010
01111110
00000000
DLG SPR_q
POS 2 3,11

SPR y
00000000
01111110
01111100
01111010
01010110
01101110
01111110
00000000
DLG SPR_m
POS 1 2,12

SPR z
11100111
11100111
11100111
11100111
11100111
11111111
11100111
11100111
DLG SPR_s
POS 2 3,9

ITM 0
00000000
01111110
01100110
01111110
01111110
01111110
01111110
01101010
NAME IDcard
DLG ITM_0

ITM 1
00000000
00000000
00000000
00000000
00000000
00000000
00000000
00000000
NAME arrow
DLG ITM_1

DLG ITM_0
"""
It's Anon's work ID. {ID = 1}

They probably won't need it anymore, given the circumstances.
"""

DLG SPR_0
The webcam has been covered with dark electrical tape.

DLG SPR_1
The webcam has been covered with dark electrical tape.

DLG SPR_2
"""
The mug is empty. 

Smells like cheap 3-in-one instant coffee.
"""

DLG SPR_3
Just a standard optical mouse on a pad with the company logo.

DLG SPR_4
It's a Bunko BOP toy figure of Taylor Burden, the anti-hero of the movie Battle Society.

DLG SPR_5
A Bunko BOP toy figure of Taylor Burden, anti-hero of the movie Battle Society.

DLG SPR_6
A Bunko Bop toy figure of Taylor Burden, anti-hero of the movie Battle Society (1999).

DLG SPR_7
It's a standard issue optical mouse on a pad with company branding.

DLG SPR_8
Meh. Just some paperwork about the recent NanoSys deal.

DLG SPR_9
"""
An invitation card for Data Sec Expo 201X. 

It has some kind of QR code on it. 

Ewww...
"""

DLG SPR_a
Meh. Just some paperwork about the recent NanoSys deal.

DLG SPR_b
"""
An invitation card for Data Sec Expo 201X. 

It has some kind of QR code on it. 

Ewww...
"""

DLG SPR_c
Just a standard optical mouse on a pad with company branding.

DLG SPR_d
Meh. Just some paperwork about the recent NanoSys deal.

DLG SPR_e
Meh. Just some paperwork about the recent NanoSys deal.

DLG SPR_f
A standard issue optical mouse on a pad with the company logo.

DLG SPR_g
"""
An invite card for Data Sec Expo 201X. 

It has some kind of QR code.

Ewww.
"""

DLG SPR_i
"""
{shuffle
  - {clr3}[NOW PLAYING]{clr3} Hedy La Jolla - "Cocktail Dress Melancholy" {clr3}[SKIP?]{clr3}
  - {clr3}[NOW PLAYING]{clr3} Nerve Holds - "Keep Giving Dumb People Smart Ideas" {clr3}[SKIP?]{clr3}
  - {clr3}[NOW PLAYING]{clr3} The Pundits - "Deadly Maniac" {clr3}[SKIP?]{clr3}
  - {clr3}[NOW PLAYING]{clr3} MC Probability - "Activity Book (feat. RNGeezus)" {clr3}[SKIP?]{clr3}
  - {clr3}[NOW PLAYING]{clr3} Todrick Levar - "Fidelity" {clr3}[SKIP?]{clr3}
  - {clr3}[NOW PLAYING]{clr3} Infantile Goombah - "Stay Woke" {clr3}[SKIP?]{clr3}
  - {clr3}[NOW PLAYING]{clr3} The Faeries - "Where's My Head At?" {clr3}[SKIP?]{clr3}
  - {clr3}[NOW PLAYING]{clr3} Zoltan Kosmos - "The Barsoom Arachnids" {clr3}[SKIP?]{clr3}
  - {clr3}[NOW PLAYING]{clr3} Pastor Jack Foggy - "Weapons of Mass Distraction" {clr3}[SKIP?]{clr3}
  - {clr3}[NOW PLAYING]{clr3} Farewell Thou! Dark Caesar - "With Strange Aeons" {clr3}[SKIP?]{clr3}
  - {clr3}[NOW PLAYING]{clr3} Dash The Gems - "The NSA Took My Waifu Away" {clr3}[SKIP?]{clr3}
  - {clr3}[NOW PLAYING]{clr3} Cally Mae Jetson - "Skynet Was Right" {clr3}[SKIP?]{clr3}
}
"""

DLG SPR_k
The files in the Recycle Bin are a jumbled mess. It would take forever to check if there's anything relevant inside. 

DLG SPR_l
Hmmm... It seems like Anon was tracking the price of EverCoin, a relatively obscure crypto exchange.

DLG SPR_n
"""
{clr3}{clr3}[BitVault]{clr3} {clr2}USER NAME: Anon
PASSWORD:  {shk}_{shk}
HINT: pet's name{clr2}{
  - petname == 1 ?
    
    
    It looks like some kind of encryption key.
    
    {clr3}zB7l8IhgumXbJrokfRBPKE3rKBU824o1MUs8iWcTmn8R36bqdyHMtLZeYpD{clr3}
  - else
    
    
    That's a dead end... for now.
}
"""

DLG SPR_m
"""
{clr3}[GeneriCorp Productivity Manager]{clr3} {clr2}Enter your employee ID number to continue.{clr2}{
  - petname == 1 ?
    
    
    Already done with that!
  - ID == 1 ?
    
    
    {clr3}You access the program using the number from Anon's badge.{clr3}
    
    WORK
    [i] UltraTel final report
    [ii] ADA-Sterling merger 
    [iii] conference call with Yutani Consortium re: offshore accounts - 4pm PST (12am UTC)  
    
    PERSONAL
    [i] Idoru's cat food {petname = 1}
    [ii] new episode of Bread And Circuits
  - else ?
    
    
    There {clr2}must{clr2} be a way to find that detail around here somewhere.
}
"""

DLG SPR_o
"""
{clr3}[ByteSafe]{clr3} {clr2}USER NAME: Anon
PASSWORD:  {shk}_{shk}
HINT: pet's name{clr2}{
  - ekey == 1 ?
    
    
    No point checking there again!
  - petname == 1 ?
    
    
    {clr3}You enter the name of Anon's cat.{clr3}
    
    It looks like some kind of encryption key. {ekey = 1}
    
    {clr2}zB7l8IhgumXbJrokfRBPKE
    3rKBU824o1MUs8iWcTmn
    8R36bqdyHMtLZeYpD{clr2}
  - else ?
    
    
    That's a dead end... for now.
}
"""

DLG SPR_p
A truly NSFW collection of clips, saved offline for repeat viewing.

DLG SPR_q
{clr3}A notice from the Umbropolis Public Library system:{clr3} Hollow-Point Cherub by Katushiro Gibson is now overdue. 

DLG SPR_r
A sternly-worded memo from the GeneriCorp I.T. department regarding inappropriate use of the company servers, addressed to the whole Operations team.

DLG SPR_h
It's a kit-bashed remake of a classic first-person shooter using only spreadsheets. Quite impressive, actually!

DLG SPR_s
{clr3}Email from INS!D3R:{clr3} Sent you a secure messaging program. It's designed to look like a dating app - you can hide it in plain sight. Of course, you'll need a key to run it. Will update you shortly.

DLG ITM_1
"""
{
  - GPS == 1 ?
    Well, here goes nothing...
  - else ?
    Perhaps nobody will find Anon until it's too late...
}
"""

DLG SPR_t
This web browser uses onion routing to hide user information. Sneaky!

DLG SPR_j
"""
{clr3}Chat message from EN1GM@:{clr3} Ah, Bitsy User...  {
  - GPS == 1 ?
    You got what you came for. We highly recommend you leave now.
  - contact == 1 ?
    Very well. You may find what you seek at 12.589074, -70.046790. {GPS = 1}
  - mission == 1 ?
    So we meet again! Please don't waste our time unless you have the intel we need.
  - else ?
    At last! It took you long enough to read this.
    
    We know that Anon met with the mole from Eris Tech in Huai Dan. If you can tell us who it is, we'll give you the details of Anon's most recent known location.
    Report back to us when you have the necessary information. {mission = 1}
}
"""

DLG SPR_u
"""
"TRYSTR". It appears to be a new app for casual encounters based on geolocation.{
  - contact == 1 ?
    
    
    No time for hanky panky!
  - ekey == 1 ?
    
    
    {clr2}You use Anon's encryption key in the credentials.{clr2} 
    Bingo! They were corresponding with Zhang Wei Martensson-Diaz, a junior executive from Eris Tech. {contact = 1}
  - else ?
    
    
    Of course, looks can be deceiving.
}
"""

END 0
REBOOTING...

END 1


END 2



