
PALACE

# BITSY VERSION 4.6

! ROOM_FORMAT 1

PAL 0
127,127,129
0,0,0
0,0,0

PAL 1
NAME palette 2
201,23,36
0,0,0
0,0,0

PAL 2
44,255,62
248,255,34
255,31,198

PAL 3
33,254,255
255,34,84
255,255,255

PAL 4
47,32,255
41,232,255
255,255,255

PAL 5
NAME kitchen palette
255,229,53
255,102,54
11,9,242

PAL 6
NAME library palette
214,70,26
255,141,34
254,247,255

ROOM 0
0,0,0,0,0,0,i,g,h,j,0,0,0,0,0,0
0,0,0,0,0,i,g,e,f,h,j,0,0,0,0,0
0,0,0,0,i,g,e,c,d,f,h,j,0,0,0,0
0,0,0,i,g,e,c,d,c,d,f,h,j,0,0,0
0,0,i,g,e,c,d,1d,1j,c,d,f,h,j,0,0
0,a,g,e,c,d,1f,1k,1l,1i,c,d,f,h,a,0
0,a,b,c,d,1c,1e,1n,1o,1h,1c,c,d,k,a,0
0,a,b,1t,0,0,0,0,0,0,0,0,0,k,a,0
0,a,b,n,n,m,n,n,n,n,n,n,n,k,a,0
0,a,b,0,0,o,0,0,0,0,0,0,1t,k,a,0
0,a,b,n,n,m,n,n,n,n,n,n,n,k,a,0
0,a,b,1t,0,o,0,2c,0,0,0,0,27,k,a,0
0,a,b,n,n,m,n,n,n,n,n,n,n,k,a,0
0,a,b,0,0,o,0,0,0,0,0,0,1t,k,a,0
0,a,a,a,0,a,a,a,a,a,a,a,a,a,a,0
0,a,l,l,l,l,l,l,l,l,l,l,l,l,a,0
NAME scary house
ITM 2 11,13
ITM 4 9,13
ITM 8 10,9
EXT 4,14 5 10,11
EXT 3,7 4 11,12
EXT 12,9 7 8,15
EXT 3,11 b 8,15
EXT 12,13 e 12,12
PAL 0

ROOM 1
l,1s,l,1s,p,l,1p,1p,1p,l,u,1s,1s,0,27,1s
1s,l,l,l,p,l,1p,l,1p,l,u,l,1s,2a,1s,1s
l,l,l,l,p,1p,1p,1p,1p,1p,u,l,l,2a,l,l
1s,10,11,1s,p,l,1p,1p,1p,l,u,l,l,2a,l,l
1s,z,0,13,p,1p,1p,l,1p,1p,u,l,l,2a,l,l
1s,15,16,14,p,l,1p,1p,1p,l,u,l,l,2a,l,l
1s,1b,17,1a,p,1p,1p,l,1p,1p,u,l,l,2a,l,l
1s,0,18,19,p,1p,1p,1p,1p,1p,u,l,l,2a,l,l
l,l,1s,1s,p,l,1p,1p,1p,l,u,l,l,2a,l,l
1s,1s,1s,1s,p,l,1p,l,1p,l,u,l,l,2a,l,l
l,l,l,r,q,0,0,0,0,0,v,w,2b,29,l,l
1s,l,l,s,1q,1q,1q,1q,1q,1q,27,0,28,l,l,l
1s,l,s,0,1q,0,0,1q,1q,0,27,0,27,l,l,l
1s,u,0,0,0,0,27,27,1q,1q,27,0,27,l,l,l
1s,u,0,0,0,0,27,27,27,27,27,0,27,l,l,l
1s,u,0,0,0,0,0,0,0,0,0,0,0,l,l,l
NAME scary underground
ITM 1 11,14
ITM l 7,15
ITM m 6,15
ITM n 5,15
ITM o 4,15
ITM p 3,15
ITM q 2,15
ITM 1 11,13
ITM 1 11,12
EXT 13,0 0 11,7
PAL 1

ROOM 2
1t,a,a,1s,1s,1s,1s,1s,1s,1s,1s,1s,1s,1s,1s,1s
1s,a,a,1s,1s,22,22,22,22,22,22,1s,1s,1s,1s,1s
1s,a,a,1s,1s,22,22,22,22,22,22,1s,1s,1s,1s,1s
1s,1s,1s,1s,1s,22,22,22,22,22,22,1s,1s,1s,1s,1s
a,1s,1s,1s,1s,22,1h,1h,1h,1h,22,1s,1s,1s,1s,1s
a,1s,1s,1s,1s,22,0,0,0,0,22,1s,1s,1s,1s,1s
1s,1s,1s,1s,1s,22,0,0,0,0,22,1s,1s,1s,1s,0
1s,1s,1s,1s,1s,22,0,0,0,0,22,1s,1s,1s,1s,1s
1s,1s,1s,1s,22,22,0,0,0,0,22,22,1s,1s,1s,1s
1s,1s,1s,1s,22,22,0,0,0,0,22,22,1s,1s,1s,1s
1s,1s,1s,22,22,22,0,0,0,0,22,22,22,1s,1s,1s
1s,1s,1s,22,22,22,0,0,0,0,22,22,22,1s,1s,1s
1s,1s,1s,22,22,22,0,0,0,0,22,22,22,1s,1s,1s
1s,1s,1s,22,22,22,24,24,24,24,22,22,22,1s,1s,1s
22,22,22,22,22,22,23,23,23,23,22,22,22,22,22,22
22,22,22,22,22,22,1h,1h,1h,1h,22,22,22,22,22,22
NAME nice garden
ITM i 12,4
ITM h 3,4
ITM g 12,11
ITM j 4,10
ITM j 3,10
ITM j 3,9
ITM j 4,9
ITM j 2,9
ITM j 2,10
ITM j 1,10
ITM j 1,9
ITM j 3,8
ITM j 2,8
ITM j 1,8
ITM j 4,8
ITM k 13,14
ITM k 13,13
ITM k 12,13
ITM k 12,14
ITM k 14,14
ITM k 14,13
ITM k 15,13
ITM k 15,14
ITM k 15,15
ITM k 12,15
ITM k 13,15
ITM k 14,15
ITM j 2,6
ITM j 1,7
ITM j 1,6
ITM j 2,5
ITM j 1,5
ITM j 1,4
ITM j 1,3
ITM j 0,3
ITM j 2,3
ITM j 3,2
ITM j 3,1
ITM j 3,0
EXT 0,0 3 4,7
PAL 2

ROOM 3
0,0,0,0,0,0,i,g,h,j,0,0,0,0,0,0
0,0,0,0,0,i,g,e,f,h,j,0,0,0,0,0
0,0,0,0,i,g,e,c,d,f,h,j,0,0,0,0
0,0,0,i,g,e,c,d,c,d,f,h,j,0,0,0
0,0,i,g,e,c,d,1x,1w,c,d,f,h,j,0,0
0,a,g,e,c,d,1v,1z,1y,0,c,d,f,h,a,0
0,a,b,c,d,0,0,0,0,1v,0,c,d,k,a,0
0,a,b,1t,0,0,0,0,0,0,0,0,0,k,a,0
0,a,b,n,n,m,n,n,n,n,n,n,n,k,a,0
0,a,b,0,0,o,0,0,0,0,0,0,1t,k,a,0
0,a,b,n,n,m,n,n,n,n,n,n,n,k,a,0
0,a,b,1t,0,o,0,0,0,0,0,0,0,k,a,0
0,a,b,n,n,m,n,n,n,n,n,n,n,k,a,0
0,a,b,2e,0,o,0,0,0,0,0,0,1t,k,a,0
0,a,a,a,2d,a,a,a,a,a,a,a,a,a,a,0
0,a,a,a,0,0,0,0,1t,a,a,a,a,a,a,0
NAME nice house
ITM b 10,7
ITM a 11,7
ITM c 9,7
ITM d 8,7
ITM e 7,7
ITM s 6,15
ITM r 5,15
ITM t 4,15
EXT 8,15 1 7,15
EXT 3,7 2 8,12
EXT 12,9 6 8,15
EXT 3,11 a 8,15
EXT 12,13 d 11,12
PAL 3

ROOM 4
1t,1s,1s,l,l,1s,1s,1s,1s,1s,1s,1s,1s,1s,1s,1s
l,l,1s,1s,l,22,22,22,22,22,l,l,l,l,l,l
1s,l,l,1s,1s,l,22,22,22,22,l,1s,1s,1s,1s,l
1s,1s,l,l,1s,22,l,22,22,22,l,1s,1s,1s,1s,l
1s,1s,1s,l,l,22,l,1h,1h,l,l,1s,l,l,l,l
1s,1s,1s,l,l,22,l,23,23,l,22,1s,l,l,l,1s
1s,1s,1s,l,1s,22,23,23,23,23,22,1s,l,1s,1s,0
1s,l,l,l,1s,l,l,l,23,23,22,1s,l,1s,1s,1s
1s,l,l,l,22,22,l,l,23,23,22,22,l,1s,1s,1s
1s,1s,1s,l,l,22,l,l,23,23,22,22,l,1s,1s,1s
1s,1s,1s,l,l,22,l,23,l,23,23,23,l,l,l,l
1s,1s,1s,l,l,22,l,23,l,23,22,22,22,l,l,l
0,l,l,l,22,22,l,l,l,l,22,22,22,l,l,l
1s,l,l,l,l,l,24,l,24,24,22,22,22,l,1s,1s
22,22,22,22,22,l,23,l,23,23,22,22,l,l,22,22
22,22,22,22,22,l,1h,1h,1h,1h,22,22,l,l,22,22
ITM 0 11,11
ITM u 10,12
ITM v 6,13
EXT 0,0 0 5,7
PAL 0

ROOM 5
0,0,0,0,0,0,i,g,h,j,0,0,0,0,0,0
0,0,0,0,0,i,g,e,f,h,j,0,0,0,0,0
0,0,0,0,i,g,e,c,d,f,h,j,0,0,0,0
0,0,0,i,g,e,c,d,c,d,f,h,j,0,0,0
0,0,i,g,e,c,d,1x,1w,c,d,f,h,j,0,0
0,a,g,e,c,d,1v,1z,1y,0,c,d,f,h,a,0
0,a,b,c,d,0,0,0,0,1v,0,c,d,k,a,0
0,a,b,1t,0,0,0,0,0,0,0,0,0,k,a,0
0,a,b,n,n,m,n,n,n,n,n,n,n,k,a,0
0,a,b,0,0,o,0,0,0,0,0,0,1t,k,a,0
0,a,b,n,n,m,n,n,n,n,n,n,n,k,a,0
0,a,b,1t,0,o,0,0,0,0,0,0,0,k,a,0
0,a,b,n,n,m,n,n,n,n,n,n,n,k,a,0
0,a,b,2e,0,o,0,0,0,0,0,0,1t,k,a,0
0,a,a,a,2d,a,a,a,a,a,a,a,a,a,a,0
0,a,a,a,0,0,0,0,1t,a,a,a,a,a,a,0
NAME final house
ITM x 5,15
ITM 1h 6,15
ITM 1i 7,15
EXT 3,7 8 7,15
EXT 12,9 9 8,15
EXT 3,11 c 8,15
EXT 12,13 f 10,11
END 1 8,15
PAL 3

ROOM 6
a,a,a,a,a,a,a,a,a,a,0,a,a,a,a,a
a,2g,0,0,0,0,0,0,0,0,0,0,0,0,2f,a
a,0,2g,0,0,0,0,0,0,0,0,0,0,2f,0,a
a,0,0,2g,0,0,0,0,0,0,0,0,2f,0,0,a
a,0,0,0,2g,0,3b,0,0,3b,0,2f,0,0,0,a
a,0,0,0,0,2g,0,0,0,0,2f,0,0,0,0,a
a,0,3b,0,0,0,2g,0,0,2f,0,0,0,3b,0,a
a,0,0,0,0,0,0,e,f,0,0,0,0,0,0,a
a,0,3b,0,0,0,0,j,i,0,0,0,0,3b,0,a
a,0,0,0,0,0,2i,0,0,2h,0,0,0,0,0,a
a,0,0,0,0,2i,0,0,0,0,2h,0,0,0,0,a
a,0,0,0,2i,0,0,0,0,0,0,2h,0,0,0,a
a,0,0,2i,0,0,3b,0,0,0,3b,0,2h,0,0,a
a,0,2i,0,0,0,0,0,0,0,0,0,0,2h,0,a
a,2i,0,0,0,0,0,a,0,a,0,0,0,0,2h,a
a,a,a,a,a,a,a,a,0,a,a,a,a,a,a,a
NAME nice pool
ITM y 8,14
ITM z 10,1
ITM 1f 11,8
ITM 1g 4,7
EXT 10,0 3 10,9
PAL 4

ROOM 7
a,a,a,a,a,a,a,a,a,a,0,a,a,a,a,a
a,2g,0,0,0,0,0,0,0,0,0,0,0,0,2f,a
a,0,2g,0,0,1n,1o,0,0,0,0,0,0,2f,0,a
a,0,0,2g,0,0,0,0,0,0,0,0,2f,0,0,a
a,0,0,0,2g,0,0,0,0,0,0,2f,10,11,12,a
a,0,0,0,0,2g,0,0,0,0,2f,0,z,0,13,a
a,0,0,0,0,0,2g,0,0,2f,0,0,15,16,14,a
a,1n,1o,0,0,0,0,e,f,0,0,0,1b,17,1a,a
a,0,0,0,0,0,0,j,i,0,0,0,0,18,19,a
a,0,0,0,0,0,2i,0,0,2h,0,0,1n,1o,0,a
a,0,0,0,0,2i,0,0,0,0,2h,0,0,0,0,a
a,0,0,0,2i,0,0,0,0,0,0,2h,0,0,0,a
a,0,0,2i,0,0,1n,1o,0,0,0,0,2h,0,0,a
a,0,2i,0,0,0,0,0,0,0,0,0,0,2h,0,a
a,2i,0,0,0,0,0,a,0,a,0,0,0,0,2h,a
a,a,a,a,a,a,a,a,0,a,a,a,a,a,a,a
NAME nasty pool
ITM 10 8,14
EXT 10,0 0 11,9
PAL 0

ROOM 8
1t,a,a,1s,1s,1s,1s,1s,1s,1s,1s,1s,1s,1s,1s,1s
1s,a,a,1s,1s,22,22,22,22,22,22,1s,1s,1s,1s,1s
1s,a,a,1s,1s,22,22,22,22,22,22,1s,1s,1s,1s,1s
1s,1s,1s,1s,1s,22,22,22,22,22,22,1s,1s,1s,1s,1s
a,1s,1s,1s,1s,22,1h,1h,1h,1h,22,1s,1s,1s,1s,1s
a,1s,1s,1s,1s,22,0,0,0,0,22,1s,1s,1s,1s,1s
1s,1s,1s,1s,1s,22,0,0,0,0,22,1s,1s,1s,1s,0
1s,1s,1s,1s,1s,22,0,0,0,0,22,1s,1s,1s,1s,1s
1s,1s,1s,1s,22,22,0,0,0,0,22,22,1s,1s,1s,1s
1s,1s,1s,1s,22,22,0,0,0,0,22,22,1s,1s,1s,1s
1s,1s,1s,22,22,22,0,0,0,0,22,22,22,1s,1s,1s
1s,1s,1s,22,22,22,0,0,0,0,22,22,22,1s,1s,1s
1s,1s,1s,22,22,22,0,0,0,0,22,22,22,1s,1s,1s
1s,1s,1s,22,22,22,24,24,24,24,22,22,22,1s,1s,1s
22,22,22,22,22,a,a,23,a,a,22,22,22,22,22,22
22,22,22,22,22,a,1h,1h,1h,a,22,22,22,22,22,22
NAME final garden
ITM 8 12,2
ITM 8 13,2
ITM 8 14,2
ITM 8 15,2
ITM 8 1,15
ITM 8 2,15
ITM 8 3,15
ITM 8 4,15
ITM 13 7,14
EXT 0,0 5 4,7
PAL 2

ROOM 9
a,a,a,a,a,a,a,a,a,a,0,a,a,a,a,a
a,2g,0,0,0,0,0,0,0,0,0,0,0,0,2f,a
a,0,2g,0,0,0,0,0,0,0,0,0,0,2f,0,a
a,0,0,2g,0,0,0,0,0,0,0,0,2f,0,0,a
a,0,0,0,2g,0,0,0,0,0,0,2f,0,0,0,a
a,0,0,0,0,2g,0,0,0,0,2f,0,0,0,0,a
a,0,0,0,0,0,2g,0,0,2f,0,0,0,0,0,a
a,0,0,0,0,0,0,e,f,0,0,0,0,0,0,a
a,0,0,0,0,0,0,j,i,0,0,0,0,0,0,a
a,0,0,0,0,0,2i,0,0,2h,0,0,0,0,0,a
a,0,0,0,0,2i,0,0,0,0,2h,0,0,0,0,a
a,0,0,0,2i,0,0,0,0,0,0,2h,0,0,0,a
a,0,0,2i,0,0,0,0,0,0,0,0,2h,0,0,a
a,0,2i,0,0,0,0,0,0,0,0,0,0,2h,0,a
a,2i,0,0,0,0,0,a,0,a,0,0,0,0,2h,a
a,a,a,a,a,a,a,a,0,a,a,a,a,a,a,a
NAME final pool
ITM 11 8,14
ITM 12 2,7
ITM 12 14,4
ITM 12 14,10
ITM 12 2,10
EXT 10,0 5 11,9
PAL 4

ROOM a
b,1s,1s,1s,1s,1s,1s,1s,1s,1s,1s,1s,1s,1s,1s,2f
i,b,1s,1s,1s,1s,1s,1s,1s,1s,1s,1s,1s,1s,2f,j
i,i,b,1s,1s,1s,1s,1s,1s,1s,1s,1s,1s,2f,j,j
i,i,i,2g,1s,1s,1s,1s,1s,1s,1s,1s,2f,j,j,j
i,i,i,p,0,0,0,0,0,0,0,0,p,j,j,j
i,i,i,p,0,0,0,0,0,0,0,0,p,j,j,j
i,i,i,p,0,0,0,0,33,34,34,35,p,j,j,j
i,i,i,p,0,3a,3a,0,2y,0,0,2y,p,j,j,j
i,i,d,p,30,31,31,32,38,37,37,36,p,c,j,j
i,d,d,p,2u,2w,2w,2x,2y,0,0,2y,p,c,c,j
d,d,d,p,2t,0,0,2y,2y,0,0,39,p,c,c,c
d,d,d,p,2t,2s,2s,2y,2y,0,0,2y,p,c,c,c
d,d,d,k,2t,0,0,2y,2y,0,0,2y,b,c,c,c
d,d,2m,2n,2m,2n,2m,2n,2q,2o,3p,2o,2p,2z,c,c
d,2v,2m,2n,2m,2n,2m,2n,2q,2o,3p,2o,3p,2o,3p,c
2m,2n,2m,2n,2m,2n,2m,2n,2q,2o,3p,2o,3p,2o,3p,2z
NAME nice kitchen
ITM 16 8,14
ITM 18 4,13
ITM 18 12,13
ITM 18 2,15
ITM 18 15,15
EXT 8,11 3 4,11
PAL 5

ROOM b
b,1s,1s,1s,1s,1s,1s,1s,1s,1s,1s,1s,1s,1s,1s,2f
i,b,1s,1s,1s,1s,1s,1s,1s,1s,1s,1s,1s,1s,2f,j
i,i,b,1s,1s,1s,1s,1s,1s,1s,1s,1s,1s,2f,j,j
i,i,i,2g,1s,1s,1s,1s,1s,1s,1s,1s,2f,j,j,j
i,i,i,p,0,0,0,0,0,0,0,0,p,j,j,j
i,i,i,p,0,0,0,0,0,0,0,0,p,j,j,j
i,i,i,p,0,0,0,0,33,3e,34,35,p,j,j,j
i,i,i,p,0,3a,3a,0,2y,0,0,2y,p,j,j,j
i,i,d,p,30,31,31,32,38,37,37,36,p,c,j,j
i,d,d,p,2u,2w,2w,2x,2y,0,0,3d,p,c,c,j
d,d,d,p,2t,0,0,2y,3c,0,0,39,p,c,c,c
d,d,d,p,2t,2s,2s,2y,2y,0,0,2y,p,c,c,c
d,d,d,2f,2t,0,0,2y,2y,0,0,2y,b,c,c,c
d,d,2m,2n,2m,2n,2m,2n,2q,2o,2p,2o,3p,2z,c,c
d,2v,2m,2n,2m,2n,2m,2n,2q,2o,2p,2o,3p,2o,3p,c
2m,2n,2m,2n,2m,2n,2m,2n,2q,2o,3p,2o,3p,2o,3p,2z
NAME scary kitchen
ITM 19 9,5
EXT 3,12 0 4,11
PAL 0

ROOM c
b,1s,1s,1s,1s,1s,1s,1s,1s,1s,1s,1s,1s,1s,1s,2f
i,b,1s,1s,1s,1s,1s,1s,1s,1s,1s,1s,1s,1s,2f,j
i,i,b,1s,1s,1s,1s,1s,1s,1s,1s,1s,1s,2f,j,j
l,i,i,2g,1s,1s,1s,1s,1s,1s,1s,1s,2f,j,j,l
l,i,i,p,0,0,0,0,0,0,0,0,p,j,j,l
l,i,i,p,0,0,0,0,0,0,0,0,p,j,j,l
l,i,i,p,0,0,0,0,33,34,34,35,p,j,j,l
l,i,i,p,0,3a,3a,0,2y,0,0,2y,p,j,j,l
l,i,d,p,30,31,31,32,38,37,37,36,p,c,j,l
l,d,d,p,2u,2w,2w,2x,2y,0,0,2y,p,c,c,l
d,d,d,p,2t,0,0,2y,2y,0,0,39,p,c,c,c
d,d,d,p,2t,2s,2s,2y,2y,0,0,2y,p,c,c,c
d,d,d,k,2t,0,0,2y,2y,0,0,2y,b,c,c,c
d,d,2m,2n,2m,2n,2m,2n,l,2o,3p,2o,3p,2z,c,c
3g,2v,2m,2n,2m,2n,2m,2n,l,2o,3p,2o,3p,2o,3p,c
2m,2n,2m,2n,2m,2n,2m,2n,0,2o,3p,2o,3p,2o,3p,2z
NAME final kitchen
ITM 1 10,5
ITM 1 5,5
ITM 1 7,4
ITM 1 8,4
ITM 1 1,12
ITM 1 15,12
ITM 1 14,10
ITM 1 1,10
ITM 1 1,3
ITM 1 1,4
ITM 1 1,5
ITM 1 1,6
ITM 1 1,7
ITM 1 1,8
ITM 1 14,3
ITM 1 14,4
ITM 1 14,5
ITM 1 14,6
ITM 1 14,7
ITM 1 14,8
EXT 0,14 5 4,11
PAL 5

ROOM d
e,e,e,e,e,c,3h,0,0,3i,d,f,f,f,f,f
e,e,e,e,e,c,3h,0,0,3i,d,f,f,f,f,f
e,e,e,e,e,c,3h,0,0,3i,d,f,f,f,f,f
e,e,e,e,e,c,3h,0,0,3i,d,f,f,f,f,f
e,e,e,e,c,c,3h,0,0,3i,d,d,f,f,f,f
c,c,c,c,c,3u,41,41,41,41,44,3u,d,d,d,e
c,c,c,3r,3u,3u,40,40,40,40,44,3u,d,d,d,d
c,c,3h,3r,3u,3u,40,40,40,40,44,3u,3u,3i,d,d
c,c,3h,3r,3u,3u,40,40,40,40,44,3u,3u,3i,d,d
c,c,3h,3r,3u,3w,3z,3z,3z,3z,44,3u,3u,3i,d,d
c,c,3h,3r,3w,3s,0,0,0,0,0,3x,3u,3i,d,d
c,c,3h,3r,3s,0,3o,3m,3n,3k,0,0,3x,3i,d,d
c,c,3h,47,0,3o,3q,3j,3j,2p,3k,0,0,3i,d,d
c,c,3h,0,3o,3q,3j,0,0,3j,2p,3k,0,3i,d,d
c,c,3h,3o,3q,3j,0,45,46,0,3j,2p,3k,3i,d,d
c,c,3h,3q,3j,0,0,0,0,0,0,3j,2p,3i,d,d
NAME nice library
ITM 1b 10,11
ITM 1c 5,11
EXT 2,13 3 11,13
PAL 6

ROOM e
e,e,e,e,e,l,3h,4b,4a,3i,l,f,f,f,f,f
l,e,e,e,e,l,3h,1n,1o,3i,l,f,f,f,f,l
e,l,e,e,e,l,3h,48,49,3i,l,f,f,f,l,f
e,e,l,e,e,l,3h,0,0,3i,l,f,f,l,f,f
e,e,e,l,c,l,3h,0,0,3i,l,d,l,f,f,f
c,c,c,c,l,3u,41,41,41,41,44,l,d,d,d,e
c,c,c,3r,3u,3u,40,40,40,40,44,3u,d,d,d,d
c,l,3h,3r,3u,3u,40,40,40,40,44,3u,3u,3i,l,d
c,l,3h,3r,3u,3u,40,40,40,40,44,3u,3u,3i,l,d
c,l,3h,3r,3u,3w,3z,3z,3z,3z,44,3u,3u,3i,l,d
c,l,3h,3r,3w,3s,0,0,0,0,0,3x,3u,3i,l,d
c,l,3h,3r,3s,0,3o,3m,3n,3k,0,0,3x,3i,l,d
c,l,3h,0,0,3o,3q,3j,3j,2p,3k,0,0,3i,l,d
c,l,3h,0,3o,3q,3j,0,0,3j,2p,3k,0,3i,l,d
c,l,3h,3o,3q,3j,0,45,46,0,3j,2p,3k,3i,l,d
c,l,3h,3q,3j,0,0,0,0,0,0,3j,2p,3i,l,d
NAME scary library
ITM 1 9,15
ITM 1 6,15
EXT 10,5 0 11,13
PAL 0

ROOM f
e,e,l,e,e,c,3h,4b,4a,3i,d,f,f,l,f,f
e,e,e,e,e,c,3h,1n,1o,3i,d,f,f,f,f,f
e,e,e,e,e,c,3h,4c,4d,3i,d,f,f,f,f,f
e,e,e,e,e,c,3h,4e,4f,3i,d,f,f,f,f,f
e,e,e,e,c,c,3h,0,0,3i,d,d,f,f,f,f
c,c,c,c,c,3u,41,41,41,41,44,3u,d,d,d,e
c,c,c,3r,3u,3u,40,40,40,40,44,3u,d,d,d,d
c,c,3h,3r,3u,3u,40,40,40,40,44,3u,3u,3i,d,d
c,c,3h,3r,3u,3u,40,40,40,40,44,3u,3u,3i,d,d
c,c,3h,3r,3u,3w,3z,3z,0,3z,44,3u,3u,3i,d,d
c,l,3h,3r,3w,3s,0,0,4g,0,0,3x,3u,3i,l,d
c,c,3h,3r,3s,0,3o,3n,3n,3k,0,0,3x,3i,d,d
c,c,3h,0,47,3o,3q,3j,3j,2p,3k,0,0,3i,d,d
c,c,3h,0,3o,3q,l,0,0,l,2p,3k,0,3i,d,d
c,c,3h,3o,3q,3j,0,45,46,0,3j,2p,3k,3i,d,d
c,l,3h,3q,l,0,0,0,0,0,0,l,2p,3i,l,d
NAME final library
ITM 1e 8,9
EXT 3,13 5 11,13
PAL 6

TIL 10
00000000
00000000
00000000
00000000
00000000
00000000
00000001
00000010
WAL true

TIL 11
00000000
00000000
00000000
00000000
00000000
00000000
11111111
00000000

TIL 12
00000000
00000000
00000000
00000000
00000000
00000000
11000000
00100000

TIL 13
00010000
00001000
00000100
00000010
00000010
00000010
00000010
00000010

TIL 14
00000010
00000010
11000010
11001010
11010010
11010010
00001010
00000010

TIL 15
00100000
00100000
00100001
00101001
00100101
00100101
00101000
00100000

TIL 16
00000000
00000000
11100011
11100011
11100011
11100011
00000000
00001000

TIL 17
00011100
00111110
00110110
00110110
00110110
00000000
11111111
10101010

TIL 18
10101010
11111111
10101010
11111111
00000000
00000000
00000000
00000000

TIL 19
10000000
10000000
10000000
10000000
00000000
00000000
00000000
00000000

TIL 20
00000000
00000000
00000000
00000000
00000000
00000000
00000000
00000000

TIL 21
00000010
01100100
00100100
01100100
00000100
01000100
00000100
01010100

TIL 22
00000000
00000000
01100110
01111110
00011000
00011000
11100111
00000000

TIL 23
01011010
10100101
10100101
10100101
01011010
00111100
00011000
00011000

TIL 24
11000011
10111101
01000010
01011010
01011010
01000010
10111101
11000011

TIL 27
00000000
00000000
00000000
00000000
00000000
00000000
00000000
00000000
WAL true

TIL 28
00000000
00011011
10001001
01001001
00010010
01101100
00001000
00000100

TIL 29
00000000
00111000
00101011
00001101
00010001
01100110
00001000
00000000

TIL 30
00000000
00000000
00000000
00000000
00000000
00000001
00000001
00000001

TIL 31
00000000
00000000
00000000
00000000
00000000
11111111
00000000
01100110

TIL 32
00000000
00000000
00000000
00000000
00000000
10000000
10000000
10000000

TIL 33
00000000
00000000
00000000
00000000
00000000
00000000
00000001
00000010

TIL 34
00000000
00000000
00000000
00000000
00000000
00000000
11111111
00000000

TIL 35
00000000
00000000
00000000
00000000
00000000
00000000
11111100
00000010

TIL 36
00000010
00000010
00000010
00000010
00011110
00011010
00000010
11111110

TIL 37
00000000
00000000
00000000
00000000
00000000
00000000
00000000
11111111

TIL 38
00000010
00000010
00000010
00000010
00000010
00000010
00000010
00000011

TIL 39
00000010
00000010
00000010
00000010
00011110
00011010
00000010
00000010

TIL 40
00100100
11111111
00100100
00100100
11111111
00100100
00100100
11111111
WAL true

TIL 41
11111111
11111111
00100100
00100100
11111111
00100100
00100100
11111111
WAL true

TIL 42
00100110
11111110
00100110
00100110
11111110
00100110
00100110
11111110
WAL true

TIL 43
10010010
01001010
00100100
10011010
01011001
00100100
11010010
01001001

TIL 44
10011010
10011011
10011010
10011110
10011011
10011011
10011111
10011110

TIL 45
00111100
01000010
01011101
01000001
01011101
01000001
01011110
00100000
WAL true

TIL 46
00111100
01000010
10111010
10000010
10111010
10000010
01111110
00000010
WAL true

TIL 47
00000000
00000000
00000000
00010000
10100000
11000000
11100000
00000000

TIL 48
00000000
00111010
01000101
10110111
01001001
01001101
00100011
00011100
>
00000000
01111010
10000101
10110111
01001001
01001101
00100011
00011100

TIL 49
00000000
01001110
10010001
11101101
10001010
10111010
11000100
00111000
>
00000000
01011100
10010010
11101001
10001010
10111010
11000100
00111000

TIL a
11111111
11000011
10100101
10011001
10011001
10100101
11000011
11111111
WAL true

TIL b
10011000
01011000
00111000
11111111
11111111
00011100
00011010
00011001
WAL true

TIL c
00000010
00101100
00000100
00101000
00110010
01000110
00000001
00000000
WAL true

TIL d
01000000
00110010
00100000
00010100
01001100
01100010
10000000
00000000
WAL true

TIL e
01001001
11000010
00010100
00110010
10000111
00101110
01011110
10001000
WAL true

TIL f
10010010
01000011
00101000
01001100
11100001
01110100
01111010
00010001
WAL true

TIL g
00000001
01000010
00100100
00001000
00010010
00100110
01001110
10000001
WAL true

TIL h
10000000
01000010
00100100
00010000
01001000
01100100
01110010
00000001
WAL true

TIL i
00000001
00000011
00000111
00001110
00011101
00111011
01110110
11101100
WAL true

TIL j
11000000
11100000
01110000
00111000
10011100
11001110
01100111
00110011
WAL true

TIL k
00011001
00011010
00011100
11111111
11111111
00111000
01011000
10011000
WAL true

TIL l
01111110
10000010
10101010
10101010
10000010
01010100
01000100
00111000
WAL true

TIL m
00111100
11100111
10111101
11100111
10100101
11111111
00100100
00111100

TIL n
00000000
11111111
01010101
11111111
10101010
11111111
00000000
00000000
WAL true

TIL o
00100100
00111100
00100100
00111100
00100100
00111100
00100100
00111100

TIL p
00111100
00111100
00111100
00111100
00111100
00111100
00111100
00111100
WAL true

TIL q
00100000
01000000
10000000
00000000
00000000
00000000
00000000
00000000
WAL true

TIL r
00000000
00000000
00000000
00000001
00000010
00000100
00001000
00010000
WAL true

TIL s
00100000
01000000
10000000
00000000
00000000
00000000
00000000
00000000
WAL true

TIL t
00000000
00000000
00000000
00000001
00000010
00000010
00000010
00000010
WAL true

TIL u
00011110
00011110
00011110
00011110
00011110
00011110
00011110
00011110
WAL true

TIL v
00000010
00000001
00000000
00000000
00000000
00000000
00000000
00000000
WAL true

TIL w
00000000
00000000
10000000
01000000
00100000
00010000
00001000
00000100
WAL true

TIL x
00000000
00000000
10000000
01000000
00100000
00100000
00100000
00100000
WAL true

TIL y
00100000
00100000
00100000
00100000
00100000
00100000
00100000
00100000
WAL true

TIL z
00000100
00001000
00010000
00100000
00100000
00100000
00100000
00100000
WAL true

TIL 1a
00000010
00000100
00001000
00011000
00101000
01010000
10100000
11000000

TIL 1b
00100000
00010000
00001000
00001100
00001010
00000101
00000010
00000001

TIL 1c
00000000
00000000
00000000
00000000
00000000
00000000
00000000
00000000

TIL 1d
00001001
00010011
00100101
01001001
10010011
00100101
01001001
10010001

TIL 1e
00100100
00010010
00001001
00010010
00100100
01001000
00100100
00010010

TIL 1f
00000010
00000100
00001001
00010010
00001001
00000100
00001001
00010010

TIL 1g
00000000
00000000
00000000
00000000
00000000
00000000
00000000
00000000

TIL 1h
00010010
00100100
01001000
00100100
00010010
00001001
00010010
00100100

TIL 1i
01001000
00100100
01001000
10010000
00100000
10010000
01001000
00100100

TIL 1j
10010010
01001001
00100100
10010010
01001001
00100100
00010010
00001000

TIL 1k
00100101
01001001
10010011
00100101
01001001
10010001
00101001
01000101

TIL 1l
01001001
00100100
10010010
01001011
00100100
00010010
00101001
01000100

TIL 1m
00000000
00000000
00000000
00000000
00000000
00000000
00000000
00000000

TIL 1n
00010010
00001001
00000111
00000011
00000111
00001001
00010010
00100100

TIL 1o
01001000
10010000
11100000
11000000
11100000
10010000
01001000
00100100

TIL 1p
01001001
01001001
01001001
01001001
01001001
01001001
01001001
01001001
WAL true

TIL 1q
00000000
00000000
00000000
00000000
00000000
00000000
00000000
00000000
NAME invisible wall
WAL true

TIL 1r
00000000
00000000
00000000
00000000
00000000
00000000
00000000
00000000

TIL 1s
10000001
01000010
00100100
00000000
00000000
00100100
01000010
10000001

TIL 1t
01111111
01100111
01000011
01000011
01110011
01000011
01100111
01111111
NAME the door

TIL 1u
00000000
00000000
00000000
00000000
00000000
00000000
00000000
00000000

TIL 1v
00000000
00000000
00000000
00000000
00000000
00000000
00000000
00000000

TIL 1w
10000000
10000000
10000000
11000000
10100000
11010000
10101000
11010100

TIL 1x
00000000
00000000
00000000
00000001
00000010
00000101
00001010
00010101

TIL 1y
11100010
10010000
10101010
10010110
11110000
00100100
11111100
10011000

TIL 1z
00100011
01000100
00101010
00110100
00000111
00010010
00011111
00001101

TIL 2a
00010100
00001010
00010010
00100100
01001000
01001000
00100100
00010010

TIL 2b
00000000
00111100
01000100
01011000
01000111
01001001
01000100
00100010

TIL 2c
00000000
00000000
00000000
00000000
00000000
00000000
00000000
00000000

TIL 2d
11100111
00111100
00100100
00111100
00100100
00111100
00100100
00111100

TIL 2e
00010000
00111000
01111100
00010000
01010100
10010010
00010000
00111000
>
00010000
00111000
01111100
00010000
00010000
00010000
00010000
00111000
WAL false

TIL 2f
00011001
00011010
00011100
11111111
11111111
00111000
01011000
10011000
NAME duplicate you can walk through
WAL false

TIL 2g
10011000
01011000
00111000
11111111
11111111
00011100
00011010
00011001
NAME duplicate you can walk through 2
WAL false

TIL 2h
00000010
00101100
00000100
00101000
00110010
01000110
00000001
00000000
NAME dublicate you can walk through
WAL false

TIL 2i
01000000
00110010
00100000
00010100
01001100
01100010
10000000
00000000
NAME duplicate you can walk through 3
WAL false

TIL 2j
00000000
00000000
00000000
00000000
00000000
00000000
00000000
00000000

TIL 2k
00011000
00011000
00011000
00011000
00011000
00011000
00011000
00011000

TIL 2l
00000001
00000010
00000100
00001000
00010000
00100000
01000000
10000000

TIL 2m
00000001
00000011
00000111
00001111
00011111
00111111
01111111
11111111

TIL 2n
11111111
11111110
11111100
11111000
11110000
11100000
11000000
10000000

TIL 2o
11111111
01111111
00111111
00011111
00001111
00000111
00000011
00000001

TIL 2p
10001010
11001010
11101010
11111010
11111100
11111100
11111110
11111111

TIL 2q
10011001
01011010
00111100
11111111
11111111
00111100
01011010
10011001

TIL 2r
10000000
01000000
00100000
00010000
00001000
00000100
00000010
00000001

TIL 2s
11111111
11111111
11111111
11111111
11111111
11111111
11111111
11111111

TIL 2t
01000000
01000000
01000000
01000000
01000000
01000000
01000000
01000000

TIL 2u
00000001
00000001
00000010
00000100
00001000
00010000
00100000
01111111

TIL 2v
00000011
00000111
00001110
00011100
00111000
01110000
11100000
11000000

TIL 2w
00000000
11111111
00000000
00111100
01111110
01111110
00111100
11111111

TIL 2x
10000000
10000000
01000000
00100000
00010000
00001000
00000100
11111110

TIL 2y
00000010
00000010
00000010
00000010
00000010
00000010
00000010
00000010

TIL 2z
11000000
11100000
01110000
00111000
00011100
00001110
00000111
00000011

TIL 3a
00100100
00010010
00001001
00010010
00100100
01001000
00100100
00010010
>
00100100
01001000
10010000
01001000
00100100
00010010
00100100
01001000
NAME smoke waft
WAL true

TIL 3b
00000000
01110000
01001000
00000100
00100010
01000001
10001100
00010010

TIL 3c
00000010
00000010
00000010
00000010
00000010
00000010
00000010
00000010

TIL 3d
00000010
00000010
00000010
00000010
00000010
00000010
00000010
00000010

TIL 3e
01111111
01111111
01000001
01000001
01000001
01000001
11111111
00000000

TIL 3f
00000000
00010000
00001000
00000100
00001100
00010000
00001000
00000100

TIL 3g
00000000
00000000
00111000
01111100
01111100
01111100
00111000
00000000

TIL 3h
11111000
10111000
10011000
10111000
11111000
10111000
10011000
10001000

TIL 3i
00011111
00011101
00011001
00011101
00011111
00011101
00011001
00010001

TIL 3j
00000000
00111000
01111100
11111110
00010000
00010000
00010000
00111000
WAL true

TIL 3k
00100010
00111110
00100010
00100010
00111110
00100010
11111110
11111110

TIL 3l
11111100
11000100
11111100
11111100
11111100
11111100
11111110
11111111
WAL true

TIL 3m
00000000
00000000
00000000
00000000
00000000
00000000
00000000
11111111

TIL 3n
00000000
00000000
00000000
00000000
00000000
00000000
00000000
11111111

TIL 3o
01000100
01111100
01000100
01000100
01111100
01000100
01111111
01111111
WAL false

TIL 3p
10000000
11000000
11100000
11110000
11111000
11111100
11111110
11111111
WAL false

TIL 3q
01010001
01010011
01010111
01011111
01011111
00111111
01111111
11111111
WAL true

TIL 3r
00011010
00011011
00011010
00011110
00011011
00011011
00011111
00011110
WAL true

TIL 3s
00111000
01110000
11100000
11000000
11000000
00000000
00000000
00000000
WAL true

TIL 3t
00001001
00001010
00001110
00001011
00001011
00001111
00001110
00001100
WAL true

TIL 3u
01011010
01011010
01011010
11111111
01011010
01011010
11111111
01011010
WAL true

TIL 3v
00000000
00000000
00000000
00000000
00000000
00000000
00000000
00000000

TIL 3w
01011010
01011010
01011011
11111111
01011011
01011110
11111100
01011000
WAL false

TIL 3x
01101110
00111011
00011010
00001110
00000110
00000011
00000001
00000000
WAL true

TIL 3y
00010010
00011011
00010110
00010010
00011011
00001110
00000111
00000011
WAL true

TIL 3z
00100100
00100100
11111111
00100100
00100100
11111111
00000000
00000000
WAL true

TIL 4a
10101001
11011110
10100000
11000000
10000000
10000000
10000000
10000000

TIL 4b
01001010
00100101
00011110
00000001
00000000
00000000
00000000
00000000

TIL 4c
00000001
00000001
00000001
00000011
00000111
00000111
00000111
00000111

TIL 4d
00000000
00000000
00000000
11000000
11100000
11100000
11100000
11100000

TIL 4e
00000011
00000001
00000000
00000000
00000000
00000000
00000000
00000000

TIL 4f
11000000
10000000
00000000
00000000
00000000
00000000
00000000
00000000

TIL 4g
00000000
00000000
00010000
00111000
01010100
00010000
00010000
00000000

TIL 4h
00000000
00000000
00000000
00000000
00000000
00000000
00000000
00000000

SPR 10
00000000
00000000
00000000
00000000
00000000
00000000
00000000
00000000

SPR 11
11111111
00011101
00100001
00111101
01011011
00111101
00000001
11111111
>
11111111
00011101
00100001
00111101
01110011
00111101
00000001
11111111
NAME Right eye
DLG SPR_i
POS b 6,11

SPR 12
00000000
00000010
00000100
00000010
00000100
00100010
01111100
00100100
>
00000000
00000100
00000010
00000100
00000010
00100100
01111100
00100100
DLG SPR_g
POS b 10,12

SPR 13
00000000
00000010
00000100
00000010
00000001
00100010
01111100
00100100
DLG SPR_j
POS c 6,12

SPR 14
00101011
00111001
00111011
00010010
11111110
11111110
11111110
11111110
>
00101011
00111010
00111011
00010001
11111111
11111110
11111110
11111110
NAME final cat
DLG SPR_k
POS c 10,12

SPR 15
00000000
00001100
00010000
00010000
00001000
01111000
01000000
11000000
>
00000000
00001100
00010010
00010000
00001000
01111000
01000000
11000000
DLG SPR_m
POS e 6,10

SPR 16
01000010
10011001
10011001
11000011
01111110
00111100
00011000
00011000
>
00011000
00111100
01111110
01111110
01111110
00111100
00011000
00011000
DLG SPR_n
POS 8 3,7

SPR A
00110000
00110000
10010000
11111110
00111010
01111000
01001000
01001110
POS 3 12,7

SPR a
00000000
00000000
00100100
00011000
11011011
01111110
00011000
00000000
>
00000000
00000000
10100101
01011010
01111110
00111100
00011000
00000000
NAME bat
DLG SPR_0
POS 1 5,13

SPR b
00000011
00000010
00000011
00100001
01100011
11111110
00111110
01100100
>
00000110
00000011
00000001
00100011
01100010
11111110
00111110
01100100
NAME rat
DLG SPR_4
POS 0 12,11

SPR c
00000000
00100100
00010110
00100100
00010110
00011100
00001110
00000111
>
00000000
00000100
00000110
00000100
00000110
01010100
10101110
00000111
DLG SPR_l
POS c 1,14

SPR e
00010000
00111000
00111000
00111000
00111000
00111000
00010000
00101000
>
00010000
00111000
10111010
10111010
01111100
00111000
00010000
00101000
NAME sleeping bat
DLG SPR_9
POS 0 3,9

SPR f
11101000
00101100
11101110
10011000
11011110
01111000
00111000
00011110
>
11101000
10001100
11001110
01011000
11011110
10011000
11111000
00011110
NAME sitting rat
DLG SPR_8
POS 0 3,13

SPR k
00000000
00000000
11101000
01110110
00111100
00011100
00000100
00000000
>
10000000
01000000
01101000
00110110
00011100
00001100
00000100
00000000
NAME flying bat
DLG SPR_7
POS 0 5,6

SPR l
00000000
00000000
00010011
01100110
00111100
00111000
00100000
00000000
>
00000000
00000010
00010110
01101100
00111000
00110000
00100000
00000000
DLG SPR_6
POS 0 10,6

SPR m
00000000
10111001
11011011
11111111
01111110
00011000
00011000
00000000
>
00000000
00111000
00011000
01111110
11111111
11011011
10011001
00000000
NAME crow
DLG SPR_5
POS 0 12,7

SPR n
00000000
00000000
00001000
00001000
00001000
01111000
01111000
01001000
DLG SPR_1
POS 3 12,11

SPR o
00000000
00000000
00000000
00000000
00000000
00111110
00100010
00100010
POS 3 11,11

SPR p
00000000
00000000
00100000
00100000
00100000
00111100
00111100
00100100
POS 3 10,11

SPR q
00000000
01111111
01010101
01111111
01010101
01111111
01010101
01111111
DLG SPR_2
POS 3 3,9

SPR r
00000000
00000000
00000000
00000000
00000000
00000000
00000000
00000000

SPR s
10000000
10000000
10001001
10000110
01111110
01111100
01100100
00110010
>
00100000
01000000
10001001
10000110
01111110
01111100
01100100
00110010
NAME dog
DLG SPR_3
POS 2 7,12

SPR t
00000000
10111001
11011011
11111111
01111110
00011000
00011000
00000000
>
00000000
00111000
00011000
01111110
11111111
11011011
10011001
00000000
NAME final crow
DLG SPR_a
POS 5 12,11

SPR u
00000000
00000000
11101000
01110110
00111100
00011100
00000100
00000000
>
10000000
01000000
01101000
00110110
00011100
00001100
00000100
00000000
NAME final bat
DLG SPR_b
POS 5 6,6

SPR v
00000000
00000000
00010011
01100110
00111100
00111000
00100000
00000000
>
00000000
00000010
00010110
01101100
00111000
00110000
00100000
00000000
NAME Final bat 2
DLG SPR_c
POS 5 9,6

SPR w
00010000
00111000
01111100
00010000
01010100
10010010
00010000
00111000
>
00010000
00111000
01111100
00010000
00010000
00010000
00010000
00111000
DLG SPR_d
POS 5 3,13

SPR x
00010000
00111000
01111100
00010000
01010100
10010010
00010000
00111000
>
00010000
00111000
01111100
00010000
00010000
00010000
00010000
00111000
NAME shower 2
DLG SPR_e
POS 3 3,13

SPR y
00101000
00111001
00111011
00010010
00111011
00111001
00111111
01111100
>
00101000
00111010
00111011
00010001
00111011
00111010
00111110
01111100
DLG SPR_f
POS a 6,15

SPR z
11111111
10111100
10000100
10111100
11011010
10111100
10000000
11111111
>
11111111
10111100
10000100
10111100
11110010
10111100
10000000
11111111
NAME left eye
DLG SPR_h
POS b 5,11

ITM 0
00111000
00000100
00000100
00011000
00010000
00000000
00010000
00000000
NAME What happened?
DLG ITM_l

ITM 1
01000010
00100100
00011000
00011000
01111110
00011000
00100100
01000010
NAME bug
DLG ITM_0

ITM 2
00000000
00000000
00000000
00000000
00010000
00000000
00000000
00000000

ITM 4
00000000
00000000
00000000
00000000
00000000
00000000
00000000
00000000
DLG ITM_2

ITM 8
00111110
01000001
01001001
01001001
01011101
01001001
01001001
01000001
NAME grave 1

ITM 9
00000000
00000000
00000000
00000000
00000000
00000000
00000000
00000000

ITM 10
00000000
00111100
00111100
00111100
00111100
00111100
01111110
01111110
NAME dark pool stairs
DLG ITM_r

ITM 11
00000000
00000000
00011000
00100100
01111110
01000010
11111111
10000001
DLG ITM_s

ITM 12
01000010
00100100
00011000
00011000
01111110
00011000
00100100
01000010
NAME final bug
DLG ITM_t

ITM 13
00000000
00000000
00000000
00000000
00011000
00100100
01000010
10000001
DLG ITM_u

ITM 14
00000000
00000000
01000010
00100100
00011000
00011000
00100100
01000010
DLG ITM_v

ITM 15
00000000
00000000
00000000
00000000
01111110
01111110
00111100
00011000

ITM 16
10011001
01011010
00111100
11111111
11111111
00111100
01011010
10011001
DLG ITM_w

ITM 17
00000000
00000000
00000000
00000000
00000000
00000000
00000000
00000000

ITM 18
00000000
00000010
00000001
00000010
00100001
01111110
00100010
00000000
NAME mice visible
DLG ITM_x

ITM 19
11010100
10011100
10011100
10111110
10111110
11111111
01111111
01111111
>
11010100
01011100
11011100
10111110
10111110
11111111
01111111
01111111

ITM a
00000000
00000000
00000000
00000000
00000000
00000000
00000000
00000000
NAME Nice 1
DLG ITM_1

ITM b
00000000
00000000
00000000
00000000
00000000
00000000
00000000
00000000
DLG ITM_6

ITM c
00000000
00000000
00000000
00000000
00000000
00000000
00000000
00000000
DLG ITM_7

ITM d
00000000
00000000
00000000
00000000
00000000
00000000
00000000
00000000
DLG ITM_8

ITM e
00000000
00000000
00000000
00000000
00000000
00000000
00000000
00000000
DLG ITM_9

ITM f
00000000
00011000
00011000
00011000
00011000
00011000
00011000
00011000
NAME wine
DLG ITM_a

ITM g
10000001
01011010
00100100
01011010
01011010
00100100
01011010
10000001
NAME flower 1
DLG ITM_b

ITM h
11111111
11011011
10100101
11011011
11011011
10100101
11011011
11111111
NAME flower 2
DLG ITM_d

ITM i
10000001
00111100
01100110
01011010
11011011
01100110
00111100
10000001
NAME flower 3
DLG ITM_c

ITM j
01011010
10011001
11100111
11111111
01111110
00111100
00011000
00011000
NAME Crocuses
DLG ITM_e

ITM k
00111000
01000100
10010010
10111010
10010010
01000100
00111000
00000000
DLG ITM_f

ITM l
00000000
00000000
00000000
00000000
00000000
00000000
00000000
00000000
NAME what is this place

ITM m
00000000
00000000
00000000
00000000
00000000
00000000
00000000
00000000
NAME smell
DLG ITM_g

ITM n
00000000
00000000
00000000
00000000
00000000
00000000
00000000
00000000
NAME smell 2
DLG ITM_h

ITM o
00000000
00000000
00000000
00000000
00000000
00000000
00000000
00000000
NAME smell 3
DLG ITM_i

ITM p
00000000
00000000
00000000
00000000
00000000
00000000
00000000
00000000
NAME smell 4
DLG ITM_j

ITM q
00000000
00000000
00000000
00000000
00000000
00000000
00000000
00000000
DLG ITM_k

ITM r
00000000
00011000
00011000
00011000
00011000
00011000
00011000
00011000
DLG ITM_3

ITM s
00000000
00011000
00011000
00011000
00011000
00011000
00011000
00011000
DLG ITM_4

ITM t
00000000
00011000
00011000
00011000
00011000
00011000
00011000
00011000
DLG ITM_5

ITM u
00111000
00000100
00000100
00011000
00010000
00000000
00010000
00000000
DLG ITM_m

ITM v
00000000
00000000
01100110
01111110
00011000
00011000
11100111
00000000
DLG ITM_n

ITM w
00000000
00000000
00000000
00000000
00000000
00000000
00000000
00000000

ITM x
00000000
00101000
10010010
01010100
00111000
01010100
10010010
00101000
DLG ITM_o

ITM y
00000000
00000000
00000000
00011000
00100100
01111110
01000010
11111111
DLG ITM_p

ITM z
00000000
00111100
00100100
01111110
10000001
11111111
00000000
00000000
DLG ITM_q

ITM 1a
00000000
00000000
00000000
00000000
00000000
00000000
00000000
00000000

ITM 1b
00000000
00000000
00000000
00000000
00000000
00000000
00000000
00000000
DLG ITM_y

ITM 1c
00000000
00000000
00000000
00000000
00000000
00000000
00000000
00000000
DLG ITM_z

ITM 1d
00000000
00000000
00000000
00000000
00000000
00000000
00000000
00000000

ITM 1e
00100100
00100100
11111111
00100100
00100100
11111111
00000000
00000000
DLG ITM_10

ITM 1f
00000000
00000000
00000000
00000000
00000000
00000000
00000000
00000000
DLG ITM_11

ITM 1g
00000000
00000000
00000000
00000000
00000000
00000000
00000000
00000000
DLG ITM_12

ITM 1h
00000000
00010000
00101000
00010000
01010100
00111000
00010000
00010000
DLG ITM_13

ITM 1i
00101010
00011100
00011100
01011101
00101010
00101010
00011100
00001000
DLG ITM_14

DLG ITM_1
Welcome home. 

DLG ITM_6
You've earned this.

DLG ITM_7
This place is beautiful. A palace.

DLG ITM_8
Bountiful. Pristine.

DLG ITM_9
Perfect for you.

DLG ITM_a
Wine! 

DLG ITM_b
It's Eden

DLG ITM_c
An orgy of flora and not a weed in sight.

DLG ITM_d
Every flower imaginable. 

DLG ITM_e
Crocuses!

DLG ITM_f
Marigolds!

DLG ITM_g
"""
The walls mortared with bodies.
The smell of rot. 
"""

DLG ITM_h
And of decay.

DLG ITM_i
And everyhting that moulders beneath

DLG ITM_j
Has been mouldering for centuries, perhaps.

DLG ITM_k
You can't stay here. 

DLG SPR_0
"""
{sequence
  - â€“You've earned this.
  - I need to get out.
  - â€“I thought you loved it here. 
  - It isn't always a gift to see in the dark.
}
"""

DLG ITM_0
"""
{sequence
  - Thank you for feeding me. 
  - How do I get out?
  - You should follow the smell
}
"""

DLG ITM_3
Scotch! 

DLG ITM_4
The finest cellar anywhere!

DLG ITM_5
Wine!

DLG ITM_2
The doors are sealed, and you have to get out.

DLG ITM_l
Where did the garden go?

DLG ITM_m
Where is Eden?

DLG ITM_n
How do I get out?

DLG SPR_1
What a lovely chair! Almost a throne.

DLG SPR_2
An armoire!

DLG SPR_3
Pick all the flowers!

DLG SPR_4
I thought you loved it here.

DLG SPR_5
Would you abandon the house to keep the color?

DLG SPR_6
Can there be grief without guilt?

DLG SPR_7
Can there be guilt without grief?

DLG SPR_8
Back out the way you came in. If you want the beauty back.

DLG SPR_9
There are the ones who walk away from this house. They are few and far between.

DLG SPR_a
Do you still like it here?

DLG SPR_b
Will you be able to forget?

DLG SPR_c
If not... there is a way to leave the house.

DLG SPR_d
You can't just wash it off.

DLG ITM_o
"""
Do you dare to leave this palace?

"""

DLG SPR_e
A gorgeous shower!

DLG ITM_p
The water is beautiful

DLG ITM_q
Time to leave the pool!

DLG ITM_r
The water is gone. Insects everywhere. Spiders devouring them.

DLG ITM_s
The water is there. 

DLG ITM_t
You didn't notice us before.

DLG ITM_u
Is something different?

DLG ITM_v
Can you still see the graves?

DLG ITM_w
A gigantic kitchen!

DLG SPR_f
"""
{
  - {item "mice visible"} == 4 ?
    You have found all the mice! The way out of the kitchen is between the fridge and the stove!
  - {item "mice visible"} < 4 ?
    Help me catch all the mice! They are hiding in the kitchen!
}
"""

DLG ITM_x
Squeak! You've caught me!

DLG SPR_g
Why did you catch us for the cat?

DLG SPR_h
Follow my gaze to escape

DLG SPR_i
We see you. Do you see us?

DLG SPR_j
We haven't forgotten.

DLG SPR_k
More mice?

DLG SPR_l
Follow my tail to leave the kitchen.

DLG ITM_y
Silence in the library please. 

DLG ITM_z
Have you ever seen so many books?

DLG SPR_m
Slither up the bookshelf to get out.

DLG ITM_10
Look who's come to dinner.

DLG ITM_11
Cool and refreshing!

DLG ITM_12
The perfect temperature!

DLG SPR_n
Why did you pick all the flowers?

DLG ITM_13
You'll miss the comfort. 

DLG ITM_14
Where will you go?

END 0


END 1
You have left the palace.

END 2


VAR a
42


