
Find me, my love.

# BITSY VERSION 4.5

! ROOM_FORMAT 1

PAL 0
NAME Love
204,151,81
237,255,149
89,48,53

PAL 1
NAME C
253,178,246
59,52,181
163,90,50

PAL 2
NAME Scream
0,0,0
144,167,173
255,17,35

PAL 3
NAME Gee
140,201,254
255,129,185
245,249,252

PAL 4
NAME Hh
161,170,254
162,255,119
168,3,204

PAL 5
NAME Plum
180,129,177
79,16,16
255,221,246

PAL 6
NAME aaaaaa
9,7,36
131,168,137
255,102,94

PAL 7
NAME Ouchies
255,131,97
255,255,255
30,11,77

ROOM 0
0,0,0,0,0,0,0,0,0,0,0,0,0,0,0,0
0,0,b,a,a,a,a,a,a,a,a,a,a,b,0,0
0,b,a,0,0,0,0,0,0,0,0,0,0,a,b,0
0,a,0,0,0,0,0,0,0,0,0,0,0,0,a,0
0,a,0,0,0,0,0,0,0,0,0,0,0,0,a,0
0,a,0,0,0,0,0,0,0,0,0,0,0,0,a,0
0,a,0,0,0,0,0,0,0,0,0,0,0,0,a,0
0,a,0,0,0,0,0,a,b,0,0,0,0,0,a,0
0,a,0,0,0,0,0,b,a,0,0,0,0,0,a,0
0,a,0,0,0,0,0,0,0,0,0,0,0,0,a,0
0,a,0,0,0,0,0,0,0,0,0,0,0,0,a,0
0,a,0,0,0,0,0,0,0,0,0,0,0,0,a,0
0,a,0,0,0,0,0,0,0,0,0,0,0,0,a,0
0,b,a,0,0,0,0,0,0,0,0,0,0,a,b,0
0,0,b,a,a,a,a,a,a,a,a,a,a,b,0,0
0,0,0,0,0,0,0,0,0,0,0,0,0,0,0,0
NAME 1
EXT 7,15 1 8,0
EXT 8,15 1 7,0
PAL 1

ROOM 1
0,0,0,0,0,a,0,0,0,0,0,0,0,0,0,0
0,0,0,0,0,a,0,0,0,0,0,0,0,0,0,0
a,a,a,a,a,a,a,a,a,a,a,a,a,a,a,a
0,0,0,0,0,a,0,0,0,0,0,0,0,0,0,0
0,0,0,0,0,a,0,0,0,0,0,0,0,0,0,0
0,0,0,0,0,a,0,0,0,0,0,0,0,0,0,0
0,0,0,0,0,a,0,0,0,0,0,0,0,0,0,0
0,0,0,0,0,a,0,0,0,0,0,0,0,0,0,0
0,0,0,0,0,a,0,0,0,0,0,0,0,0,0,0
0,0,0,0,0,a,0,0,0,0,0,0,0,0,0,0
0,0,0,0,0,a,0,0,0,0,0,0,0,0,0,0
0,0,0,0,0,a,0,0,0,0,0,0,0,0,0,0
0,0,0,0,0,a,0,0,0,0,0,0,0,0,0,0
0,0,0,0,0,a,0,0,0,0,0,0,0,0,0,0
0,0,0,0,0,a,0,0,0,0,0,0,0,0,0,0
0,0,0,0,0,a,0,0,0,0,0,0,0,0,0,0
NAME 2
EXT 7,0 0 7,15
EXT 8,0 0 8,15
EXT 7,15 2 7,0
EXT 8,15 2 8,0
PAL 0

ROOM 2
c,c,c,c,c,c,c,0,0,c,c,c,c,c,c,c
c,c,0,c,0,0,c,0,0,c,0,0,c,0,c,c
c,0,c,0,c,c,0,0,0,0,c,c,0,c,0,c
c,0,0,0,0,c,0,0,0,0,c,0,0,0,0,c
c,0,0,0,0,0,0,0,0,0,0,0,0,0,0,c
c,0,0,0,0,0,0,0,0,0,0,0,0,0,0,c
c,c,0,0,0,0,0,0,0,0,0,0,0,0,c,c
c,0,0,0,0,0,0,0,0,0,0,0,0,0,0,c
c,c,0,0,0,0,0,0,0,0,0,0,0,0,c,c
c,0,0,0,0,0,0,0,0,0,0,0,0,0,0,c
c,0,0,0,0,0,0,0,0,0,0,0,0,0,0,c
c,c,0,0,0,0,0,0,0,0,0,0,0,0,c,c
c,c,0,0,0,0,0,0,0,0,0,0,0,0,c,c
c,c,c,c,0,c,0,0,0,0,c,0,0,c,c,c
c,c,c,c,c,0,c,0,0,c,0,c,c,c,c,c
c,c,c,c,c,c,c,0,0,c,c,c,c,c,c,c
NAME 3
EXT 7,0 1 7,15
EXT 8,0 1 8,15
EXT 7,15 3 7,0
EXT 8,15 3 8,0
PAL 2

ROOM 3
d,0,0,d,d,d,d,0,0,d,d,d,d,0,0,d
d,0,d,d,d,d,d,0,0,d,d,d,d,d,0,d
d,0,d,d,d,d,0,0,0,0,d,d,d,d,0,d
d,0,d,d,d,d,d,0,0,d,d,d,d,d,0,d
d,0,d,d,d,d,0,0,0,0,d,d,d,d,0,d
d,0,d,d,0,0,0,0,0,0,0,0,d,d,0,d
d,0,d,0,0,0,0,0,0,0,0,0,0,d,0,d
d,0,d,0,0,h,0,0,0,0,0,0,0,d,0,d
d,0,d,0,0,0,0,0,0,0,0,0,0,d,0,d
d,0,d,0,0,0,0,0,0,0,e,0,0,d,0,d
d,0,d,0,0,0,0,0,0,0,0,0,0,d,0,d
d,0,d,0,f,0,0,0,0,0,0,i,0,d,0,d
d,0,d,0,0,0,0,0,0,0,0,0,0,d,0,d
d,0,d,0,0,0,0,0,0,0,0,0,0,d,0,d
d,0,d,d,0,0,0,0,0,0,0,0,d,d,0,d
d,0,d,d,d,d,0,0,0,0,d,d,d,d,0,d
NAME 4
EXT 7,0 0 0,0
EXT 8,0 0 0,0
EXT 7,15 4 7,0
EXT 8,15 4 8,0
PAL 3

ROOM 4
0,k,0,0,0,o,n,b,b,n,p,0,0,0,0,0
0,0,0,0,0,o,n,b,b,n,p,0,0,0,0,0
l,0,0,0,0,o,n,b,b,n,m,0,0,0,0,0
0,0,0,0,0,o,n,b,b,n,k,0,0,0,0,0
0,0,0,0,0,o,n,b,b,n,p,0,j,0,0,0
0,0,0,0,m,o,n,b,b,n,p,0,0,0,0,m
0,0,0,j,k,o,n,b,b,n,p,0,0,0,0,k
0,0,0,0,0,o,n,b,b,n,p,0,0,m,0,0
0,0,0,0,0,o,n,b,b,n,p,0,0,k,0,0
0,0,0,0,0,0,n,b,b,n,p,0,0,0,0,0
m,0,0,0,0,o,n,b,b,n,p,0,0,0,0,0
k,0,0,0,0,o,n,b,b,n,p,0,0,0,0,0
0,0,0,0,m,o,n,b,b,n,p,m,0,0,0,0
0,0,0,0,k,o,n,b,b,n,p,k,l,0,0,0
0,j,0,0,0,o,n,b,b,n,p,0,0,0,0,0
0,0,0,0,0,o,n,b,b,n,p,0,0,0,0,0
NAME 5
EXT 8,0 3 8,15
EXT 7,0 3 7,15
EXT 8,15 5 8,0
EXT 7,15 5 7,0
PAL 4

ROOM 5
0,0,0,0,0,0,0,0,0,0,0,0,0,0,0,0
0,0,0,0,0,0,0,0,0,0,0,0,0,0,0,0
0,0,0,0,0,0,0,0,0,0,0,0,0,0,0,0
0,0,0,0,0,0,0,0,0,0,0,0,0,0,0,0
0,0,0,0,0,0,0,0,0,0,0,0,0,0,0,0
0,0,0,0,0,0,0,0,0,0,0,0,0,0,0,0
0,0,0,0,0,0,0,0,0,0,0,0,0,0,0,0
0,0,0,0,0,0,0,0,0,0,0,0,0,0,0,0
0,0,0,0,0,0,0,0,0,0,0,0,0,0,0,0
0,0,0,0,0,0,0,0,0,0,0,0,0,0,0,0
0,0,0,0,0,0,0,0,0,0,0,0,0,0,0,0
0,0,0,0,0,0,0,0,0,0,0,0,0,0,0,0
0,0,0,0,0,0,0,0,0,0,0,0,0,0,0,0
0,0,0,0,0,0,0,0,0,0,0,0,0,0,0,0
0,0,0,0,0,0,0,0,0,0,0,0,0,0,0,0
0,0,0,0,0,0,0,0,0,0,0,0,0,0,0,0
NAME 6
EXT 7,0 4 7,15
EXT 8,0 4 8,15
EXT 7,15 6 7,0
EXT 8,15 6 8,0
PAL 5

ROOM 6
c,c,c,c,q,r,r,q,q,r,r,q,c,c,c,c
c,c,c,c,q,r,r,q,q,r,r,q,c,c,c,c
c,c,c,c,q,r,r,q,q,r,r,q,c,c,c,c
0,c,c,c,q,r,r,q,q,r,r,q,c,c,c,c
c,c,c,c,q,r,r,q,q,r,r,q,c,c,0,c
c,c,c,c,q,r,r,q,q,r,r,q,c,c,c,c
c,c,c,c,q,r,r,q,q,r,r,q,c,c,c,c
c,c,0,c,q,r,r,q,q,r,r,q,c,c,c,c
c,c,c,c,q,r,r,q,q,r,r,q,c,c,c,c
c,c,c,c,q,r,r,q,q,r,r,q,c,c,0,c
0,c,c,c,q,r,r,q,q,r,r,q,c,c,c,c
c,c,c,c,q,r,r,q,q,r,r,q,c,c,c,c
c,c,c,c,q,r,r,q,q,r,r,q,c,c,c,c
c,c,0,c,q,r,r,q,q,r,r,q,c,c,c,c
c,c,c,c,q,r,r,q,q,r,r,q,c,c,c,c
c,c,c,c,q,r,r,q,q,r,r,q,c,c,c,c
NAME 7
EXT 7,0 5 7,15
EXT 8,0 5 8,15
EXT 7,15 7 7,0
EXT 8,15 7 8,0
PAL 6

ROOM 7
s,s,s,s,p,p,p,p,p,p,p,p,s,s,s,s
s,s,s,s,s,s,r,p,p,r,s,s,s,s,s,s
s,s,s,s,s,s,s,p,p,s,s,s,s,s,s,s
s,s,s,s,r,s,s,p,p,s,s,r,s,s,s,s
s,s,s,s,s,s,p,p,p,p,s,s,s,s,s,s
s,s,s,s,s,p,p,0,0,p,p,s,s,s,s,s
s,s,s,s,s,p,p,0,0,p,p,s,s,s,s,s
s,s,s,s,s,p,0,0,0,0,p,s,s,s,s,s
s,s,s,s,s,0,0,0,0,0,0,s,s,s,s,s
s,s,s,s,s,0,0,0,0,0,0,s,s,s,s,s
s,s,s,s,s,0,0,0,0,0,0,s,s,s,s,s
s,s,s,s,s,0,s,0,0,s,0,s,s,s,s,s
s,s,s,s,0,s,0,0,0,0,s,0,s,s,s,s
0,s,s,0,0,0,0,0,0,0,0,0,0,s,s,0
0,r,s,s,0,0,0,0,0,0,0,0,s,s,r,0
0,0,r,s,s,0,0,0,0,0,0,s,s,r,0,0
NAME 8
EXT 7,0 6 7,15
EXT 8,0 6 8,15
END undefined 7,15
END undefined 8,15
PAL 7

TIL a
10011001
01000010
00000100
01011010
01011010
00100100
01000010
10011001
WAL false

TIL b
10100101
01011010
10100101
01011010
01011010
10100101
01011010
10100101

TIL c
01000100
01000001
01000101
01010101
00000100
10010001
01010010
01010000
WAL true

TIL d
01110111
11101110
01110111
11101110
01110111
11101110
01110111
11101110
WAL true

TIL e
00000000
11111111
10001111
10011000
11111100
11111111
10101010
01010101
WAL true

TIL f
00000000
11111111
11110001
00010011
10011111
11111111
10101010
01010101
WAL true

TIL h
00000000
11111111
11000111
11001111
11111000
11111111
10101010
01010101
WAL true

TIL i
00000000
11111111
00011111
11110001
11111111
11111111
10101010
01010101
WAL true

TIL j
01000000
01000000
01000000
01000000
00111000
01101100
01000100
01000100
WAL true

TIL k
00000000
11111111
11111111
11111111
11111111
11111111
10101010
01010101
WAL true

TIL l
00000100
00000100
00000100
00000100
00111000
01101100
01000100
01000100
WAL true

TIL m
10010010
01001001
00000000
01001001
00111110
00001000
00011100
00101010
>
01001001
10010010
00000000
01001001
00111110
00001000
00011100
00101010
WAL true

TIL n
01111110
01111110
01111110
01111110
01111110
01111110
01111110
01111110

TIL o
01101111
00000000
11011111
00000000
00110111
00000000
00001101
00000000

TIL p
00000000
11110110
00000000
11111011
00000000
11101100
00000000
10110000

TIL q
00000000
11111111
11111111
11111111
11111111
11111111
10101010
01010101
WAL false

TIL r
10100101
01011010
10100101
01011010
01011010
10100101
01011010
10100101
WAL true

TIL s
01000010
10011001
00100100
01011010
01011010
00100100
10011001
01000010

SPR A
00011100
00101010
00111110
00111110
00111110
01111111
00011100
00000100
>
00111000
01010100
01111100
01111100
01111100
11111110
00111000
00100000
POS 0 6,6

SPR a
00011000
00111100
01100110
00011000
00101100
01110110
01111110
00011000
DLG SPR_0
POS 0 11,11

SPR b
00011000
00111100
01100110
00011000
00101100
01110110
01111110
00011000
DLG SPR_1
POS 1 5,12

SPR c
00011000
00111100
01100110
00011000
00101100
01110110
01111110
00011000
DLG SPR_2
POS 2 2,12

SPR d
00011000
00111100
01100110
00011000
00101100
01110110
01111110
00011000
DLG SPR_3
POS 3 11,9

SPR e
00011000
00111100
01100110
00011000
00101100
01110110
01111110
00011000
DLG SPR_4
POS 3 3,11

SPR f
00011000
00111100
01100110
00011000
00101100
01110110
01111110
00011000
DLG SPR_5
POS 4 5,9

SPR g
00011000
00111100
01100110
00011000
00101100
01110110
01111110
00011000
DLG SPR_6
POS 5 7,8

SPR h
00111100
00100100
00011000
00100100
01100110
01100110
00111100
00011000

SPR i
10111101
01000010
10100101
10010001
10001001
10100101
01000010
10111101
>
10111101
01000010
10100101
10001001
10010001
10100101
01000010
10111101
POS 6 14,9

SPR j
10111101
01000010
10100101
10010001
10001001
10100101
01000010
10111101
>
10111101
01000010
10100101
10001001
10010001
10100101
01000010
10111101
POS 6 14,4

SPR k
10111101
01000010
10100101
10010001
10001001
10100101
01000010
10111101
>
10111101
01000010
10100101
10001001
10010001
10100101
01000010
10111101
POS 6 2,7

SPR l
10111101
01000010
10100101
10010001
10001001
10100101
01000010
10111101
>
10111101
01000010
10100101
10001001
10010001
10100101
01000010
10111101
POS 6 0,3

SPR m
10111101
01000010
10100101
10010001
10001001
10100101
01000010
10111101
>
10111101
01000010
10100101
10001001
10010001
10100101
01000010
10111101
POS 6 0,10

SPR n
10111101
01000010
10100101
10010001
10001001
10100101
01000010
10111101
>
10111101
01000010
10100101
10001001
10010001
10100101
01000010
10111101
POS 6 2,13

SPR o
10111101
01000010
10100101
10010001
10001001
10100101
01000010
10111101
>
10111101
01000010
10100101
10001001
10010001
10100101
01000010
10111101
POS 6 15,6

SPR p
10111101
01000010
10100101
10010001
10001001
10100101
01000010
10111101
>
10111101
01000010
10100101
10001001
10010001
10100101
01000010
10111101
POS 6 13,13

SPR q
10111101
01000010
10100101
10010001
10001001
10100101
01000010
10111101
>
10111101
01000010
10100101
10001001
10010001
10100101
01000010
10111101
POS 6 2,0

SPR r
10111101
01000010
10100101
10010001
10001001
10100101
01000010
10111101
>
10111101
01000010
10100101
10001001
10010001
10100101
01000010
10111101

SPR s
00011000
00100100
00111100
00011000
00100100
01100110
01111110
00100100
DLG SPR_7
POS 7 8,5

ITM 0
00000000
00000000
00000000
00111100
01100100
00100100
00011000
00000000
NAME tea
DLG ITM_0

DLG ITM_0
You found a nice warm cup of tea

DLG SPR_0
"""
{sequence
  - Rosario, {wvy}dear{wvy}.
  - I'm so sorry it has to be like this.
}
"""

DLG SPR_1
"""
{sequence
  - Please understand!
  - 
}
"""

DLG SPR_2
You don't have to die.

DLG SPR_3
Let's talk it over some tea, {shk}darling.{shk}

DLG SPR_4
There will always be  more women in your life. It doesn't have to be me. 

DLG SPR_5
But I hope that you can understand. Sometimes, things can't go the way one wants them to.

DLG SPR_6
It is best that you forget about her.

DLG SPR_7
"""
{sequence
  - Rosario!!!
  - Thank God... Oh, thank God you're okay.
  - I thought the worst had happened.
  - I'm sorry for getting you into all of this...
  - But it's over now, I promise.
  - Let's go home, Rosario.
  - And... I hope you know that I love you, always.
}
"""

END 0
{sequence

END undefined
Celine... I never doubted you for a second. I love you, too. Always.

VAR a
42


