


# BITSY VERSION 4.6

! ROOM_FORMAT 1

PAL 0
30,45,64
83,159,142
233,189,75

PAL 1
12,46,28
75,140,83
153,247,151

PAL 2
255,255,255
255,255,255
255,255,255

ROOM 0
b,b,b,b,b,b,b,k,b,b,b,b,b,b,i,b
c,2d,c,c,c,c,c,c,c,c,c,c,2d,c,i,c
c,c,c,c,c,c,c,2d,c,c,2d,c,c,c,i,c
c,c,c,c,o,c,c,c,c,c,c,2d,c,c,i,c
c,c,c,2d,c,c,2d,c,c,c,c,c,g,k,j,c
2d,c,c,c,c,c,c,c,c,c,c,c,c,c,2d,c
c,c,c,c,c,c,c,c,2d,c,c,c,c,2d,c,c
n,n,n,n,n,n,n,n,n,n,n,n,n,n,n,n
0,0,0,0,0,0,0,0,0,0,0,0,0,0,0,0
0,e,0,0,0,0,0,0,0,0,0,0,0,0,0,0
0,a,0,0,0,f,0,0,0,0,0,0,0,0,28,0
0,0,0,0,0,0,0,0,0,0,0,0,0,0,0,0
16,16,16,16,16,16,16,16,17,0,0,0,0,0,0,0
b,b,b,b,b,b,b,z,17,0,0,0,0,0,0,0
16,17,16,16,16,16,16,i,17,0,0,0,0,f,0,0
16,16,16,16,16,1i,16,i,17,0,0,0,0,e,0,0
NAME main
EXT 0,7 1 15,7
EXT 0,8 1 15,8
EXT 0,9 1 15,9
EXT 0,10 1 15,10
EXT 0,11 1 15,11
EXT 0,13 1 15,13
EXT 15,7 o 0,7
EXT 15,8 o 0,8
EXT 15,9 o 0,9
EXT 15,10 o 0,10
EXT 15,11 o 0,11
EXT 15,12 o 0,12
EXT 15,13 o 0,13
EXT 15,14 o 0,14
EXT 7,15 9 7,0
EXT 9,15 9 9,0
EXT 10,15 9 10,0
EXT 11,15 9 11,0
EXT 12,15 9 12,0
EXT 13,15 9 13,0
EXT 14,15 9 14,0
PAL 0

ROOM 1
b,b,b,b,b,b,b,b,b,b,b,b,b,b,k,b
2d,c,c,c,c,c,c,c,c,2d,c,c,c,c,c,2d
c,c,c,2d,c,c,c,c,c,c,25,26,27,c,c,c
c,c,c,c,c,2d,o,c,c,c,24,23,22,c,c,c
c,2d,c,c,c,c,c,c,2d,c,c,c,c,2d,c,c
c,c,1c,1c,1c,2d,c,c,c,c,c,c,c,c,2d,c
12,2q,12,12,12,12,12,18,1c,c,c,c,c,c,c,c
13,13,13,13,13,13,13,19,n,n,n,n,n,n,n,n
1b,1b,1b,1b,1b,1b,1b,1d,0,0,0,0,0,0,0,0
16,16,16,16,17,16,16,17,0,0,0,0,0,0,0,0
16,17,16,16,16,1i,16,17,0,0,0,0,0,0,0,0
16,16,16,16,16,16,16,17,0,0,0,0,0,0,0,21
16,1i,16,16,16,17,16,16,16,16,16,17,16,17,16,16
16,16,16,16,14,b,b,b,b,b,b,b,b,k,k,k
16,16,16,16,i,16,16,16,16,16,16,16,16,17,16,16
17,16,16,16,i,16,16,16,17,16,1i,16,16,16,16,16
NAME l
EXT 15,7 0 0,7
EXT 15,8 0 0,8
EXT 15,9 0 0,9
EXT 15,10 0 0,10
EXT 15,11 0 0,11
EXT 15,13 0 0,13
EXT 0,6 2 15,6
EXT 4,15 8 4,0
PAL 0

ROOM 2
b,b,b,b,b,b,b,b,b,b,b,b,b,b,k,b
c,c,c,2d,c,c,c,c,c,c,c,2a,c,c,c,c
c,c,c,c,c,2d,c,c,2d,c,c,2a,2d,c,c,c
c,c,o,c,c,c,c,c,c,c,c,2a,c,c,o,c
c,c,c,c,c,c,c,c,c,c,c,2a,c,c,2d,c
c,c,2d,c,c,1c,c,c,2d,c,c,c,c,c,c,c
12,12,12,12,12,1a,12,12,12,2q,2r,12,12,12,12,12
13,13,13,13,13,i,13,13,13,13,13,13,13,13,13,13
1b,1b,1b,1b,1b,i,1b,1b,1b,1b,1b,1b,1b,1b,1b,1b
16,16,16,16,16,i,b,b,b,b,b,b,b,z,16,16
38,0,38,17,16,16,16,16,16,16,16,1i,16,i,16,16
16,1i,38,16,16,1i,16,16,16,17,16,16,16,i,1b,16
16,1i,38,38,38,16,16,16,16,16,16,16,16,i,16,16
16,16,16,17,38,16,14,b,b,b,b,b,b,j,17,16
16,16,16,16,38,0,i,16,16,16,16,16,16,16,1i,16
16,17,16,16,16,16,i,16,16,16,16,16,17,16,16,16
NAME ll
EXT 15,6 1 0,6
EXT 0,6 3 15,6
EXT 6,15 7 6,0
EXT 5,5 12 7,14
EXT 0,10 3 15,10
PAL 0

ROOM 3
b,b,b,b,b,b,b,b,b,b,b,b,b,b,k,b
c,c,c,c,c,c,c,2d,c,c,c,c,1f,c,c,c
c,c,c,c,2d,c,c,c,c,c,c,c,11,c,c,c
c,c,c,c,c,c,c,c,o,c,c,c,11,c,2d,c
c,2d,c,c,c,c,c,c,c,c,c,c,11,c,c,c
c,c,0,0,0,0,0,0,0,0,2d,c,11,c,c,c
12,12,0,0,0,0,0,0,0,0,0,12,1e,12,12,12
13,13,13,13,13,13,13,13,13,13,13,13,13,13,13,13
1b,1b,1b,1b,1b,1b,1b,1b,1b,1b,1b,1b,1b,1b,1b,1b
16,17,16,16,16,16,16,16,16,17,16,16,16,16,16,17
16,16,14,b,b,b,b,b,b,b,z,16,16,16,16,38
16,16,i,16,16,16,16,16,16,16,i,16,16,17,16,38
17,16,i,16,16,16,16,17,16,16,i,16,16,16,38,38
16,16,i,17,16,16,16,14,b,b,j,16,16,16,38,16
16,16,i,16,17,16,16,i,16,16,16,16,16,38,0,16
16,16,i,16,16,16,16,i,16,16,17,16,16,38,16,16
NAME lll
EXT 15,6 2 0,6
EXT 0,6 4 15,6
EXT 2,15 6 2,0
EXT 7,15 6 7,0
EXT 15,10 2 0,10
EXT 13,15 6 13,0
PAL 0

ROOM 4
b,b,b,b,b,b,b,i,b,b,b,b,b,b,b,b
i,c,c,c,c,c,2d,1t,c,c,c,c,c,c,2d,c
i,c,c,c,c,c,c,c,c,c,c,c,c,c,c,c
i,c,2d,25,26,27,c,c,c,o,c,c,c,o,c,c
i,c,c,24,23,22,c,c,c,c,c,2d,c,c,c,c
i,c,c,c,c,c,c,2d,c,c,c,c,c,c,c,2d
i,c,2d,c,c,c,c,c,2d,c,c,1c,1h,12,12,12
19,n,n,n,n,n,n,n,n,n,n,n,1g,13,13,13
17,0,0,0,0,0,0,0,0,0,0,0,1j,1b,1b,1b
17,0,0,29,28,0,0,0,0,0,0,0,1i,17,16,16
17,0,0,0,0,0,0,0,0,0,0,0,1i,16,16,17
17,0,0,0,0,0,0,0,0,0,0,0,1i,16,16,16
17,0,0,28,0,0,0,0,0,29,28,0,1i,16,16,16
17,0,28,29,0,0,0,0,29,28,0,0,1i,16,17,16
17,0,0,0,0,0,0,0,0,0,0,0,1i,16,16,16
17,0,0,0,0,0,0,0,0,0,0,0,1i,16,16,16
NAME llll
EXT 1,15 5 1,0
EXT 2,15 5 2,0
EXT 3,15 5 3,0
EXT 4,15 5 4,0
EXT 15,6 3 0,6
EXT 5,15 5 5,0
EXT 6,15 5 6,0
EXT 7,15 5 7,0
EXT 8,15 5 8,0
EXT 9,15 5 9,0
EXT 10,15 5 10,0
EXT 11,15 5 11,0
PAL 0

ROOM 5
17,0,0,f,0,0,0,0,0,0,0,0,1i,16,16,16
17,0,0,e,0,0,0,0,0,0,0,0,1i,16,16,16
17,0,0,a,0,0,0,0,0,0,0,0,1i,16,16,17
17,0,0,1a,0,0,0,0,0,f,0,0,1i,16,16,16
16,17,16,i,17,0,0,0,0,0,0,0,1i,16,16,16
16,16,16,i,17,0,0,0,0,0,0,0,1i,17,16,16
17,16,16,i,17,0,0,0,0,0,0,0,1i,16,16,16
17,16,16,i,17,0,0,0,0,0,0,0,1i,16,16,16
16,16,1i,i,17,0,0,0,0,0,f,0,1i,16,16,16
16,16,16,i,17,0,21,0,0,0,0,0,1i,17,16,16
17,16,16,i,16,16,16,16,16,16,1i,16,16,16,16,16
16,16,16,i,16,16,17,16,16,16,16,17,16,16,16,16
16,16,16,i,16,16,16,16,16,16,16,16,16,y,17,16
16,16,16,i,16,16,16,16,17,16,16,16,16,16,16,16
16,16,16,i,16,16,17,16,16,16,16,16,17,17,16,16
16,16,16,i,16,16,16,16,16,16,1i,16,16,16,16,17
NAME llllb
EXT 1,0 4 1,15
EXT 2,0 4 2,15
EXT 3,0 4 3,15
EXT 4,0 4 4,15
EXT 5,0 4 5,15
EXT 6,0 4 6,15
EXT 7,0 4 7,15
EXT 8,0 4 8,15
EXT 9,0 4 9,15
EXT 10,0 4 10,15
EXT 11,0 4 11,15
EXT 3,15 e 3,0
PAL 0

ROOM 6
16,16,i,16,16,16,16,i,17,16,16,16,16,38,16,16
16,16,i,16,16,16,16,i,16,16,16,16,16,38,38,16
16,16,i,16,16,17,16,i,16,16,1l,38,38,16,38,16
17,16,i,17,16,16,16,i,16,16,16,16,38,38,38,17
16,16,i,16,16,16,16,i,16,16,16,16,16,16,16,16
16,16,i,16,16,16,16,i,16,14,k,z,16,16,16,16
16,16,i,16,0,16,16,i,16,i,16,i,16,16,16,16
16,16,i,16,16,16,16,i,16,i,16,i,16,16,16,16
16,16,i,16,16,16,16,1k,k,j,16,1k,k,k,k,k
16,16,i,16,16,16,17,16,16,16,16,16,16,16,16,16
17,16,i,17,1m,1m,1m,1m,1m,1m,1m,1m,1i,1i,16,16
16,16,i,17,0,0,0,0,0,0,0,0,1i,16,0,16
16,16,i,17,0,0,0,0,0,0,0,0,1i,16,16,16
16,17,i,17,0,0,0,0,0,0,0,0,1i,16,16,16
16,16,i,17,0,0,0,0,0,0,0,0,1i,16,16,16
16,16,i,17,0,0,0,0,0,0,0,0,1i,17,16,16
NAME lllb
ITM 4 7,13
EXT 2,0 3 2,15
EXT 7,0 3 7,15
EXT 4,15 d 4,0
EXT 5,15 d 5,0
EXT 6,15 d 6,0
EXT 7,15 d 7,0
EXT 8,15 d 8,0
EXT 9,15 d 9,0
EXT 10,15 d 10,0
EXT 11,15 d 11,0
EXT 2,15 d 2,0
EXT 15,8 7 0,8
EXT 13,0 3 13,15
EXT 10,2 r 13,4
PAL 0

ROOM 7
16,16,16,16,16,16,i,16,16,16,16,16,16,17,16,1i
16,16,1i,17,16,16,i,16,16,16,16,17,16,16,16,1i
16,16,16,16,16,16,i,16,16,16,16,16,16,16,16,16
16,16,16,16,16,16,1k,k,k,k,k,z,16,16,17,16
16,17,16,16,16,16,16,16,16,16,16,i,1i,16,16,16
16,16,16,16,16,17,1m,1m,1m,1m,1i,i,16,16,1i,16
16,16,16,16,16,17,0,0,0,0,1i,i,16,16,1i,16
16,16,1b,16,16,17,0,0,0,0,1i,i,16,16,16,16
k,k,k,k,k,k,1n,0,0,0,1i,i,16,16,16,16
16,16,17,1m,1m,1p,0,0,0,0,1i,i,16,17,16,16
16,16,17,0,0,0,0,0,0,0,1i,i,16,16,16,16
16,16,17,0,0,0,0,0,0,0,1i,1k,k,k,k,k
16,1i,17,0,0,0,0,f,0,0,1o,1m,1m,1m,1m,1m
16,16,17,0,0,0,0,1a,0,0,0,0,0,0,0,0
16,16,17,0,0,0,1i,i,17,0,0,0,0,0,0,0
16,16,17,0,0,0,1i,i,17,0,0,0,0,0,0,0
NAME llb
EXT 0,8 6 15,8
EXT 6,0 2 6,15
EXT 15,11 8 0,11
EXT 3,15 c 3,0
EXT 4,15 c 4,0
EXT 5,15 c 5,0
EXT 15,13 8 0,13
EXT 15,14 8 0,14
EXT 9,15 c 9,0
EXT 10,15 c 10,0
EXT 11,15 c 11,0
EXT 12,15 c 12,0
EXT 13,15 c 13,0
EXT 14,15 c 14,0
EXT 7,15 c 7,0
PAL 0

ROOM 8
1i,16,16,16,i,16,16,16,16,17,16,16,16,16,16,16
16,16,16,17,i,17,16,16,16,16,16,16,16,16,16,16
16,16,16,16,i,16,16,16,17,16,16,16,16,1b,16,16
16,16,16,1i,i,16,16,16,16,16,16,16,16,16,16,16
16,1i,16,16,i,17,1m,1m,1m,1m,1m,1m,1m,1m,1m,1m
16,1i,16,16,i,17,0,0,0,0,0,0,0,0,0,0
16,16,16,16,i,17,0,0,0,0,0,0,0,0,0,0
16,16,17,16,i,16,17,0,0,0,0,0,0,0,0,0
16,16,16,16,i,16,17,0,0,0,0,0,0,0,0,0
17,16,16,16,i,17,17,0,1w,0,0,0,0,0,0,0
16,16,16,16,i,17,1i,16,16,1i,17,0,0,0,0,0
b,b,b,b,1q,b,b,b,1r,k,k,1n,0,0,0,0
1m,1m,1m,1m,1m,1m,1m,1i,i,17,1p,0,0,0,0,0
0,0,0,0,0,0,0,1i,i,17,0,0,0,0,0,0
0,0,0,0,0,0,0,1i,i,17,0,0,0,0,0,0
0,0,0,0,0,0,0,1i,i,17,0,0,1i,16,16,16
NAME lb
EXT 0,11 7 15,11
EXT 0,13 7 15,13
EXT 0,14 7 15,14
EXT 4,0 1 4,15
EXT 1,15 b 1,0
EXT 2,15 b 2,0
EXT 3,15 b 3,0
EXT 4,15 b 4,0
EXT 5,15 b 5,0
EXT 6,15 b 6,0
EXT 10,15 b 10,0
EXT 11,15 b 11,0
EXT 15,5 9 0,5
EXT 15,6 9 0,6
EXT 15,7 9 0,7
EXT 15,8 9 0,8
EXT 15,9 9 0,9
EXT 15,10 9 0,10
EXT 15,11 9 0,11
EXT 15,12 9 0,12
EXT 15,13 9 0,13
EXT 15,14 9 0,14
EXT 8,15 b 8,0
PAL 0

ROOM 9
16,16,16,16,16,16,1i,i,17,0,0,0,0,0,0,0
16,17,16,16,16,16,16,i,17,0,0,0,0,0,0,0
16,16,16,1i,16,16,16,i,16,16,16,16,17,16,1i,16
16,16,16,y,16,16,16,1k,k,k,k,k,k,k,k,k
1m,1m,1m,1m,1m,1m,17,16,16,16,1i,16,16,16,16,16
0,0,0,0,0,0,1o,1m,1m,1m,1m,1m,1m,1m,17,16
0,0,0,0,0,0,0,0,0,0,0,0,0,0,1i,1i
0,0,0,0,29,28,0,0,0,0,0,0,0,0,1i,16
0,0,0,0,0,0,0,0,0,f,0,0,0,0,1i,16
0,0,0,0,0,0,0,0,0,0,0,0,0,0,1i,16
0,0,0,0,0,0,0,0,0,0,0,0,0,0,1i,16
0,0,0,0,e,0,0,0,0,0,0,0,0,0,1i,16
0,0,0,0,a,0,0,0,0,0,0,0,0,0,1i,16
0,0,0,0,0,0,0,0,0,0,0,0,0,0,1i,16
0,1x,1w,0,0,0,0,1x,0,0,1w,0,1x,0,1i,16
16,16,16,16,16,16,16,16,16,17,16,16,16,16,16,16
NAME mb
EXT 7,0 0 7,15
EXT 9,0 0 9,15
EXT 10,0 0 10,15
EXT 11,0 0 11,15
EXT 12,0 0 12,15
EXT 13,0 0 13,15
EXT 14,0 0 14,15
EXT 15,1 m 0,1
EXT 15,3 m 0,3
EXT 0,5 8 15,5
EXT 0,6 8 15,6
EXT 0,7 8 15,7
EXT 0,8 8 15,8
EXT 0,9 8 15,9
EXT 0,10 8 15,10
EXT 0,11 8 15,11
EXT 0,12 8 15,12
EXT 0,13 8 15,13
EXT 0,14 8 15,14
PAL 0

ROOM 10
16,16,16,16,i,16,16,16,17,16,16,16,16,16,16,16
16,16,16,17,i,16,16,16,16,16,16,16,16,16,y,16
16,16,16,16,i,16,16,16,16,16,16,16,16,16,16,16
16,16,16,16,1k,k,k,k,k,k,k,z,16,16,16,16
16,16,16,16,16,16,16,17,16,16,16,i,16,16,17,16
16,16,16,16,16,16,16,16,16,16,16,i,16,16,16,16
16,16,17,16,14,k,k,k,k,k,k,j,16,16,16,16
16,16,16,16,i,16,16,16,16,16,16,16,16,16,16,16
16,16,16,16,i,16,16,16,16,16,16,16,16,16,16,16
16,16,16,16,1k,k,k,k,k,k,k,z,16,17,16,17
16,16,16,16,16,16,16,16,16,16,16,i,16,16,16,16
16,16,16,16,16,16,16,16,16,17,16,i,16,16,16,16
16,16,16,16,14,k,k,k,k,k,k,j,16,16,16,16
17,16,16,16,i,16,16,16,16,16,16,16,16,16,16,16
16,16,16,16,i,17,16,16,16,16,16,16,17,16,16,16
16,16,16,16,i,16,16,16,16,16,16,16,16,16,17,16
NAME rrrrbb
EXT 4,0 z 4,15
EXT 4,15 11 4,0
PAL 0

ROOM 11
16,16,16,16,i,16,16,16,16,16,16,16,16,16,16,16
16,17,16,16,i,16,17,16,16,16,16,1i,16,16,16,1i
16,16,16,16,i,16,16,16,16,16,16,17,16,16,16,16
16,16,16,16,i,17,1m,1m,1m,1m,1m,1m,1m,1m,1m,1i
16,16,16,16,i,17,0,0,0,0,0,0,0,0,0,1i
17,16,16,17,i,17,0,0,0,0,0,0,0,0,0,1i
1m,1m,1m,1i,i,17,0,0,0,f,0,0,0,0,0,1i
0,0,0,1i,i,17,0,0,0,e,0,0,29,0,0,1i
0,0,0,1i,i,16,16,17,0,a,0,0,0,0,0,1i
0,0,0,1i,1k,k,k,k,1n,0,0,0,0,0,0,1i
0,0,0,1o,1m,1m,1m,1p,0,0,0,0,0,0,0,1i
0,0,0,0,0,0,0,0,0,0,0,0,0,0,0,1i
0,0,0,0,0,0,0,0,0,0,0,0,0,0,0,1i
0,0,0,1x,1w,0,0,1x,0,0,0,0,1w,0,0,1i
16,16,16,16,16,17,16,16,16,16,16,16,16,17,16,17
16,16,16,17,16,16,16,16,16,17,16,16,16,16,17,16
NAME rrrrbbb
EXT 4,0 10 4,15
EXT 0,7 u 15,7
EXT 0,8 u 15,8
EXT 0,9 u 15,9
EXT 0,10 u 15,10
EXT 0,11 u 15,11
EXT 0,12 u 15,12
EXT 0,13 u 15,13
PAL 0

ROOM 12
1k,b,b,b,b,b,b,b,b,b,b,b,b,b,b,z
1d,2t,2t,2t,2t,2t,2t,2t,2t,2t,2t,2t,2t,2t,2t,i
1d,2t,2t,2t,2t,2t,2t,2t,2t,2t,2t,2t,2t,2t,2t,i
1d,2t,2t,2t,2t,2t,2t,2t,2t,2t,2t,2t,2t,2t,2t,i
1d,2t,2t,2t,2t,2t,2t,2t,2t,2t,2t,2t,2t,2t,2t,i
1d,2t,2t,2t,2t,2t,2t,2t,2t,2t,2t,2t,2t,2t,2t,i
1d,2t,2t,2t,2t,2t,2t,2t,2t,2t,2t,2t,2t,2t,2t,i
1d,2t,2t,2t,2t,2t,2t,2t,2t,2t,2t,2t,2t,2t,2t,i
1d,2t,2t,2t,2t,2t,2t,2t,2t,2t,2t,2t,2t,2t,2t,i
1d,2t,2t,2t,2t,2s,2w,2u,2v,2x,2s,2t,2t,2t,2t,i
1d,2t,2t,2t,2t,2t,2t,2t,2t,2t,2t,2t,2t,2t,2t,i
1d,2t,2t,2t,2t,2t,2t,2t,2t,2t,2t,2t,2t,2t,2t,i
1d,2t,2t,2t,2t,2t,2t,2t,2t,2t,2t,2t,2t,2t,2t,i
1d,2t,2t,2t,2t,2t,2t,2t,2t,2t,2t,2t,2t,2t,2t,i
1d,2t,2t,2t,2t,2t,2t,2t,2t,2t,2t,2t,2t,2t,2t,i
z,w,w,w,w,w,w,0,w,w,w,w,w,w,w,1k
NAME mgf
ITM 3 7,5
EXT 7,13 13 7,13
EXT 6,14 2 5,6
EXT 8,14 2 5,6
PAL 0

ROOM 13
1k,k,k,k,k,k,k,k,k,k,k,k,k,k,k,z
1d,2t,2t,2t,2t,2t,2t,2t,2t,2t,2t,2t,2t,2t,2t,i
1d,2t,2t,2t,2t,2t,2t,2t,2t,2t,2t,2t,2t,2t,2t,i
1d,2t,2t,2t,2t,2t,2t,2t,2t,2t,2t,2t,2t,2t,2t,i
1d,2t,2t,2t,2t,2t,2t,2t,2t,2t,2t,2t,2t,2t,2t,i
1d,2t,2t,2t,2t,2t,2t,2t,2t,2t,2t,2t,2t,2t,2t,i
1d,2t,2t,2t,2t,2t,2t,2t,2t,2t,2t,2t,2t,2t,2t,i
1d,2t,2t,2t,2t,2t,2t,2t,2t,2t,2t,2t,2t,2t,2t,i
1d,2t,2t,2t,2t,2t,2t,2t,2t,2t,2t,2t,2t,2t,2t,i
1d,2t,2t,2t,2t,2t,2t,2t,2t,2t,2t,2t,2t,2t,2t,i
1d,2t,2t,2t,2t,2t,2t,2t,2t,2t,2t,2t,2t,2t,2t,i
1d,2t,2t,2t,2t,2t,2t,2t,2t,2t,2t,2t,2t,2t,2t,i
1d,2t,2t,2t,2t,2t,2t,2t,2t,2t,2t,2t,2t,2t,2t,i
1d,2t,2t,2t,2t,2t,2t,2t,2t,2t,2t,2t,2t,2t,2t,i
1d,2t,2t,2t,2t,2t,2t,2t,2t,2t,2t,2t,2t,2t,2t,i
z,w,w,w,w,w,w,0,w,w,w,w,w,w,w,1k
NAME mgfA
ITM 3 8,3
EXT 8,13 14 8,13
EXT 7,12 2 5,6
EXT 6,13 2 5,6
PAL 0

ROOM 14
1k,k,k,k,k,k,k,k,k,k,k,k,k,k,k,z
1d,2t,2t,2t,2t,2t,2t,2t,2t,2t,2t,2t,2t,2t,2t,i
1d,2t,2t,2t,2t,2t,2t,2t,2t,2t,2t,2t,2t,2t,2t,i
1d,2t,2t,2t,2t,2t,2t,2t,2t,2t,2t,2t,2t,2t,2t,i
1d,2t,2t,2t,2t,2t,2t,2t,2t,2t,2t,2t,2t,2t,2t,i
1d,2t,2t,2t,2t,2t,2t,2t,2t,2t,2t,2t,2t,2t,2t,i
1d,2t,2t,2t,2t,2t,2t,2t,2t,2t,2t,2t,2t,2t,2t,i
1d,2t,2t,2t,2t,2t,2t,2t,2t,2t,2t,2t,2t,2t,2t,i
1d,2t,2t,2t,2t,2t,2t,2t,2t,2t,2t,2t,2t,2t,2t,i
1d,2t,2t,2t,2t,2t,2t,2t,2t,2t,2t,2t,2t,2t,2t,i
1d,2t,2t,2t,2t,2t,2t,2t,2t,2t,2t,2t,2t,2t,2t,i
1d,2t,2t,2t,2t,2t,2t,2t,2t,2t,2t,2t,2t,2t,2t,i
1d,2t,2t,2t,2t,2t,2t,2t,2t,2t,2t,2t,2t,2t,2t,i
1d,2t,2t,2t,2t,2t,2t,2t,2t,2t,2t,2t,2t,2t,2t,i
1d,2t,2t,2t,2t,2t,2t,2t,2t,2t,2t,2t,2t,2t,2t,i
z,w,w,w,w,w,w,0,w,w,w,w,w,w,w,1k
NAME mgfA1
ITM 3 6,5
EXT 8,12 2 5,6
EXT 8,14 2 5,6
EXT 9,13 15 9,13
PAL 0

ROOM 15
1k,k,k,k,k,k,k,k,k,k,k,k,k,k,k,z
1d,2t,2t,2t,2t,2t,2t,2t,2t,2t,2t,2t,2t,2t,2t,i
1d,2t,2t,2t,2t,2t,2t,2t,2t,2t,2t,2t,2t,2t,2t,i
1d,2t,2t,2t,2t,2t,2t,2t,2t,2t,2t,2t,2t,2t,2t,i
1d,2t,2t,2t,2t,2t,2t,2t,2t,2t,2t,2t,2t,2t,2t,i
1d,2t,2t,2t,2t,2t,2t,2t,2t,2t,2t,2t,2t,2t,2t,i
1d,2t,2t,2t,2t,2t,2t,2t,2t,2t,2t,2t,2t,2t,2t,i
1d,2t,2t,2t,2t,2t,2t,2t,2t,2t,2t,2t,2t,2t,2t,i
1d,2t,2t,2t,2t,2t,2t,2t,2t,2t,2t,2t,2t,2t,2t,i
1d,2t,2t,2t,2t,2t,2t,2t,2t,2t,2t,2t,2t,2t,2t,i
1d,2t,2t,2t,2t,2t,2t,2t,2t,2t,2t,2t,2t,2t,2t,i
1d,2t,2t,2t,2t,2t,2t,2t,2t,2t,2t,2t,2t,2t,2t,i
1d,2t,2t,2t,2t,2t,2t,2t,2t,2t,2t,2t,2t,2t,2t,i
1d,2t,2t,2t,2t,2t,2t,2t,2t,2t,2t,2t,2t,2t,2t,i
1d,2t,2t,2t,2t,2t,2t,2t,2t,2t,2t,2t,2t,2t,2t,i
z,w,w,w,w,w,w,0,w,w,w,w,w,w,w,1k
NAME mgfA2
ITM 3 4,6
EXT 10,13 2 5,6
EXT 9,14 2 5,6
EXT 9,12 16 9,12
PAL 0

ROOM 16
1k,k,k,k,k,k,k,k,k,k,k,k,k,k,k,z
1d,2t,2t,2t,2t,2t,2t,2t,2t,2t,2t,2t,2t,2t,2t,i
1d,2t,2t,2t,2t,2t,2t,2t,2t,2t,2t,2t,2t,2t,2t,i
1d,2t,2t,2t,2t,2t,2t,2t,2t,2t,2t,2t,2t,2t,2t,i
1d,2t,2t,2t,2t,2t,2t,2t,2t,2t,2t,2t,2t,2t,2t,i
1d,2t,2t,2t,2t,2t,2t,2t,2t,2t,2t,2t,2t,2t,2t,i
1d,2t,2t,2t,2t,2t,2t,2t,2t,2t,2t,2t,2t,2t,2t,i
1d,2t,2t,2t,2t,2t,2t,2t,2t,2t,2t,2t,2t,2t,2t,i
1d,2t,2t,2t,2t,2t,2t,2t,2t,2t,2t,2t,2t,2t,2t,i
1d,2t,2t,2t,2t,2t,2t,2t,2t,2t,2t,2t,2t,2t,2t,i
1d,2t,2t,2t,2t,2t,2t,2t,2t,2t,2t,2t,2t,2t,2t,i
1d,2t,2t,2t,2t,2t,2t,2t,2t,2t,2t,2t,2t,2t,2t,i
1d,2t,2t,2t,2t,2t,2t,2t,2t,0,2t,2t,2t,2t,2t,i
1d,2t,2t,2t,2t,2t,2t,2t,2t,0,2t,2t,2t,2t,2t,i
1d,2t,2t,2t,2t,2t,2t,2t,2t,2t,2t,2t,2t,2t,2t,i
z,w,w,w,w,w,w,0,w,w,w,w,w,w,w,1k
NAME mgfA3
ITM 3 5,4
EXT 9,11 2 5,6
EXT 8,12 17 8,12
EXT 10,12 2 5,6
PAL 0

ROOM 17
1k,k,k,k,k,k,k,k,k,k,k,k,k,k,k,z
1d,2t,2t,2t,2t,2t,2t,2t,2t,2t,2t,2t,2t,2t,2t,i
1d,2t,2t,2t,2t,2t,2t,2t,2t,2t,2t,2t,2t,2t,2t,i
1d,2t,2t,2t,2t,2t,2t,2t,2t,2t,2t,2t,2t,2t,2t,i
1d,2t,2t,2t,2t,2t,2t,2t,2t,2t,2t,2t,2t,2t,2t,i
1d,2t,2t,2t,2t,2t,2t,2t,2t,2t,2t,2t,2t,2t,2t,i
1d,2t,2t,2t,2t,2t,2t,2t,2t,2t,2t,2t,2t,2t,2t,i
1d,2t,2t,2t,2t,2t,2t,2t,2t,2t,2t,2t,2t,2t,2t,i
1d,2t,2t,2t,2t,2t,2t,2t,2t,2t,2t,2t,2t,2t,2t,i
1d,2t,2t,2t,2t,2t,2t,2t,2t,2t,2t,2t,2t,2t,2t,i
1d,2t,2t,2t,2t,2t,2t,2t,2t,2t,2t,2t,2t,2t,2t,i
1d,2t,2t,2t,2t,2t,2t,2t,2t,2t,2t,2t,2t,2t,2t,i
1d,2t,2t,2t,2t,2t,2t,2t,2t,2t,2t,2t,2t,2t,2t,i
1d,2t,2t,2t,2t,2t,2t,2t,2t,2t,2t,2t,2t,2t,2t,i
1d,2t,2t,2t,2t,2t,2t,2t,2t,2t,2t,2t,2t,2t,2t,i
z,w,w,w,w,w,w,0,w,w,w,w,w,w,w,1k
NAME mgfA4
ITM 3 7,4
EXT 8,11 18 8,11
EXT 7,12 2 5,6
PAL 0

ROOM 18
1k,k,k,k,k,k,k,k,k,k,k,k,k,k,k,z
1d,2t,2t,2t,2t,2t,2t,2t,2t,2t,2t,2t,2t,2t,2t,i
1d,2t,2t,2t,2t,2t,2t,2t,2t,2t,2t,2t,2t,2t,2t,i
1d,2t,2t,2t,2t,2t,2t,2t,2t,2t,2t,2t,2t,2t,2t,i
1d,2t,2t,2t,2t,2t,2t,2t,2t,2t,2t,2t,2t,2t,2t,i
1d,2t,2t,2t,2t,2t,2t,2t,2t,2t,2t,2t,2t,2t,2t,i
1d,2t,2t,2t,2t,2t,2t,2t,2t,2t,2t,2t,2t,2t,2t,i
1d,2t,2t,2t,2t,2t,2t,2t,2t,2t,2t,2t,2t,2t,2t,i
1d,2t,2t,2t,2t,2t,2t,2t,2t,2t,2t,2t,2t,2t,2t,i
1d,2t,2t,2t,2t,2t,2t,2t,2t,2t,2t,2t,2t,2t,2t,i
1d,2t,2t,2t,2t,2t,2t,2t,2t,2t,2t,2t,2t,2t,2t,i
1d,2t,2t,2t,2t,2t,2t,2t,2t,2t,2t,2t,2t,2t,2t,i
1d,2t,2t,2t,2t,2t,2t,2t,0,0,2t,2t,2t,2t,2t,i
1d,2t,2t,2t,2t,2t,2t,0,0,0,2t,2t,2t,2t,2t,i
1d,2t,2t,2t,2t,2t,2t,0,2t,2t,2t,2t,2t,2t,2t,i
z,w,w,w,w,w,w,0,w,w,w,w,w,w,w,1k
NAME mgfA5
ITM 3 9,3
EXT 8,10 19 8,10
EXT 7,11 2 5,6
EXT 9,11 2 5,6
PAL 0

ROOM 19
1k,k,k,k,k,k,k,k,k,k,k,k,k,k,k,z
1d,2t,2t,2t,2t,2t,2t,2t,2t,2t,2t,2t,2t,2t,2t,i
1d,2t,2t,2t,2t,2t,2t,2t,2t,2t,2t,2t,2t,2t,2t,i
1d,2t,2t,2t,2t,2t,2t,2t,2t,2t,2t,2t,2t,2t,2t,i
1d,2t,2t,2t,2t,2t,2t,2t,2t,2t,2t,0,2t,2t,2t,i
1d,2t,2t,2t,2t,2t,2t,2t,2t,2t,2t,2t,2t,2t,2t,i
1d,2t,2t,2t,2t,2t,2t,2t,2t,2t,2t,2t,2t,2t,2t,i
1d,2t,2t,2t,2t,2t,2t,2t,2t,2t,2t,2t,2t,2t,2t,i
1d,2t,2t,2t,2t,2t,2t,2t,2t,2t,2t,2t,2t,2t,2t,i
1d,2t,2t,2t,2t,2t,2t,2t,2t,2t,2t,2t,2t,2t,2t,i
1d,2t,2t,2t,2t,2t,2t,2t,2t,2t,2t,2t,2t,2t,2t,i
1d,2t,2t,2t,2t,2t,2t,2t,0,2t,2t,2t,2t,2t,2t,i
1d,2t,2t,2t,2t,2t,2t,2t,0,0,2t,2t,2t,2t,2t,i
1d,2t,2t,2t,2t,2t,2t,0,0,0,2t,2t,2t,2t,2t,i
1d,2t,2t,2t,2t,2t,2t,0,2t,2t,2t,2t,2t,2t,2t,i
z,w,w,w,w,w,w,0,w,w,w,w,w,w,w,1k
NAME mgfA6
ITM 3 11,4
EXT 8,9 2 5,6
EXT 7,10 2 5,6
EXT 9,10 1a 9,10
PAL 0

ROOM a
16,16,16,16,16,1i,16,16,16,17,16,16,16,16,17,17
16,1i,16,16,16,17,16,16,0,16,16,1i,16,16,16,16
16,16,17,16,16,16,16,16,16,1i,16,16,16,17,16,16
k,k,k,k,k,k,k,k,k,k,1r,k,k,k,k,k
1m,1m,1m,1m,1m,1m,1m,1m,1m,1i,i,17,1m,1m,1m,1m
0,0,0,0,0,0,0,0,0,1i,i,17,0,0,0,0
0,0,0,0,0,0,0,0,0,1i,i,17,0,0,0,0
0,0,28,29,0,0,0,0,0,1i,i,16,16,16,16,16
0,0,0,0,0,0,0,0,0,1i,1k,k,k,k,k,k
0,0,0,0,0,0,0,0,0,1o,1m,1m,1m,1m,1m,1m
0,0,0,1i,16,16,16,1s,0,0,0,0,0,0,0,0
0,0,0,1i,14,k,z,17,0,0,0,0,0,0,0,0
16,16,16,16,i,16,i,17,0,0,29,0,0,0,0,0
k,k,k,k,j,16,i,17,0,0,0,0,0,0,0,0
16,16,16,16,17,16,i,16,16,16,16,16,16,16,16,16
16,17,16,16,16,16,i,17,16,16,16,16,16,16,17,16
NAME mbb
ITM 1 13,5
EXT 0,5 b 15,5
EXT 0,6 b 15,6
EXT 0,7 b 15,7
EXT 0,8 b 15,8
EXT 0,9 b 15,9
EXT 0,10 b 15,10
EXT 0,11 b 15,11
EXT 15,5 l 0,5
EXT 15,6 l 0,6
EXT 15,10 l 0,10
EXT 0,3 b 15,3
EXT 0,13 b 15,13
EXT 15,11 l 0,11
EXT 15,12 l 0,12
EXT 15,13 l 0,13
EXT 15,3 l 0,3
EXT 15,8 l 0,8
EXT 6,15 j 6,0
PAL 0

ROOM b
0,0,0,0,0,0,0,1i,i,17,0,0,1i,16,16,16
0,0,0,0,0,0,0,1i,i,17,0,1x,1i,16,16,16
0,0,0,0,0,0,0,1i,i,17,0,1i,16,16,17,16
0,0,0,1x,0,1w,0,1i,i,17,0,1i,14,k,k,k
16,16,16,16,16,16,16,1i,i,17,0,1i,i,17,1m,1m
k,k,k,k,k,k,k,k,j,17,0,1i,i,17,0,0
16,16,16,16,1m,1m,1m,1m,1m,1u,0,1i,i,17,0,0
k,k,k,k,1n,0,0,0,0,0,0,1o,i,1u,0,0
17,16,16,17,0,0,0,0,0,0,0,0,1t,0,0,0
16,y,16,17,0,0,0,0,0,0,0,0,0,0,0,0
16,16,17,17,0,0,0,0,0,0,0,0,0,0,0,0
16,16,16,17,0,0,0,0,0,1w,0,0,0,0,0,0
16,16,16,17,0,f,0,1i,16,16,16,16,16,16,16,16
16,16,16,17,0,0,g,k,k,k,k,k,k,k,k,k
16,17,16,17,0,0,0,1i,16,17,16,16,16,16,16,16
16,16,16,17,e,0,0,1i,16,16,16,16,17,16,16,16
NAME lbb
ITM 4 6,2
EXT 1,0 8 1,15
EXT 2,0 8 2,15
EXT 3,0 8 3,15
EXT 4,0 8 4,15
EXT 5,0 8 5,15
EXT 6,0 8 6,15
EXT 8,0 8 8,15
EXT 10,0 8 10,15
EXT 11,0 8 11,15
EXT 0,1 c 15,1
EXT 0,2 c 15,2
EXT 0,3 c 15,3
EXT 0,5 c 15,5
EXT 0,7 c 15,7
EXT 15,3 a 0,3
EXT 15,5 a 0,5
EXT 15,6 a 0,6
EXT 15,7 a 0,7
EXT 15,8 a 0,8
EXT 15,9 a 0,9
EXT 15,10 a 0,10
EXT 15,11 a 0,11
EXT 15,13 a 0,13
EXT 4,15 i 4,0
EXT 5,15 i 5,0
EXT 6,15 i 6,0
PAL 0

ROOM c
16,16,17,0,0,0,1i,i,17,0,0,0,0,0,0,0
1m,1m,1u,0,0,0,1i,i,17,0,0,0,0,0,0,0
0,0,0,0,0,0,1i,i,17,0,0,0,0,0,0,0
0,0,0,0,0,0,1i,i,17,0,0,1w,0,1w,0,0
16,17,0,0,0,0,1i,i,16,16,16,16,16,16,16,16
16,17,0,1x,0,0,1i,1k,k,k,k,k,k,k,k,k
16,16,16,16,16,16,16,16,16,16,16,16,16,16,16,16
k,k,k,k,k,k,k,k,k,k,k,k,k,k,k,k
16,16,16,16,16,16,16,16,16,17,16,16,16,16,16,16
16,16,1i,16,y,16,16,1i,16,16,16,16,16,16,17,16
16,16,16,16,16,16,17,16,16,16,16,16,16,16,16,16
16,16,17,16,16,16,16,17,16,16,16,16,16,16,16,16
16,16,16,y,y,y,y,y,1i,16,16,16,16,16,1i,0
16,16,16,1i,16,16,16,16,16,16,16,16,16,16,16,16
16,1i,16,16,16,16,16,16,16,16,16,16,16,17,16,16
16,16,16,16,16,16,16,17,16,16,16,16,16,16,16,16
NAME llbb
EXT 3,0 7 3,15
EXT 4,0 7 4,15
EXT 5,0 7 5,15
EXT 0,2 d 15,2
EXT 0,3 d 15,3
EXT 0,7 d 15,7
EXT 7,0 7 7,15
EXT 9,0 7 9,15
EXT 10,0 7 10,15
EXT 11,0 7 11,15
EXT 12,0 7 12,15
EXT 13,0 7 13,15
EXT 14,0 7 14,15
EXT 15,1 b 0,1
EXT 15,2 b 0,2
EXT 15,3 b 0,3
EXT 15,5 b 0,5
EXT 15,7 b 0,7
PAL 0

ROOM d
16,16,i,17,0,0,0,0,0,0,0,0,1i,16,16,16
16,16,i,17,0,0,0,0,0,0,0,0,1o,1m,1m,1m
16,17,i,17,0,0,0,0,0,0,0,0,0,0,0,0
16,16,i,1u,0,0,0,0,0,0,0,1x,0,0,0,0
16,17,1t,0,0,0,0,0,0,1i,16,16,16,16,16,16
16,17,0,0,0,0,0,0,0,1i,14,k,z,16,16,16
17,17,0,0,0,0,0,0,0,1i,i,16,i,16,16,16
16,17,0,1w,0,0,1a,0,0,1i,i,16,1k,k,k,k
16,17,16,16,1i,16,i,16,16,16,i,16,16,16,16,16
16,16,14,k,k,k,1v,16,17,16,i,16,16,16,16,16
16,16,i,17,16,16,i,16,16,16,i,16,16,17,16,16
16,16,i,16,16,16,1k,k,k,k,j,16,16,16,16,16
16,17,i,16,16,17,16,16,16,16,16,16,16,17,16,16
16,16,i,16,16,16,16,16,16,16,16,16,16,16,16,17
16,16,i,16,16,16,16,17,16,16,16,17,16,16,16,16
16,16,i,16,16,16,16,16,16,16,16,16,16,16,16,16
NAME lllbb
EXT 2,0 6 2,15
EXT 4,0 6 4,15
EXT 5,0 6 5,15
EXT 6,0 6 6,15
EXT 7,0 6 7,15
EXT 8,0 6 8,15
EXT 9,0 6 9,15
EXT 10,0 6 10,15
EXT 11,0 6 11,15
EXT 15,2 c 0,2
EXT 15,3 c 0,3
EXT 15,7 c 0,7
EXT 2,15 g 2,0
PAL 0

ROOM e
17,16,16,i,16,16,16,16,16,16,16,16,16,16,16,16
16,16,16,i,16,16,16,16,17,16,16,16,16,16,16,16
17,16,16,i,16,16,16,16,16,16,16,16,16,17,16,16
1i,1m,1i,1k,k,k,k,k,k,k,k,z,16,16,16,16
17,16,1m,1m,1m,1m,1m,1m,1m,1m,1i,i,16,16,16,16
16,1s,0,0,0,0,0,0,0,0,1i,i,16,16,16,16
17,1u,0,0,0,0,0,0,0,0,1i,i,16,16,16,16
17,0,0,0,0,0,1w,0,0,0,1i,i,16,16,16,16
17,0,0,0,0,1i,16,16,17,16,16,i,16,16,16,16
17,0,0,0,0,1i,16,16,16,16,16,i,16,16,17,16
17,0,0,0,0,1i,16,16,16,16,16,i,16,16,16,16
17,0,0,0,0,1i,17,16,17,17,16,i,16,16,0,16
17,0,0,0,0,1i,16,16,16,16,16,i,16,16,16,16
17,0,0,0,0,1i,16,14,k,k,k,j,16,16,16,16
17,0,f,0,0,1i,16,i,16,17,16,16,16,17,16,16
17,0,e,0,0,1i,16,i,16,16,16,16,16,16,16,1i
NAME llllbb
ITM 0 9,5
EXT 3,0 5 3,15
EXT 1,15 f 1,0
EXT 2,15 f 2,0
EXT 3,15 f 3,0
EXT 4,15 f 4,0
EXT 7,15 f 7,0
PAL 0

ROOM f
17,0,0,0,0,1i,16,i,16,16,16,16,16,16,17,16
17,0,0,0,0,1i,16,i,16,17,16,16,16,16,16,16
17,0,0,0,0,1i,17,i,16,16,16,1m,1m,1m,1m,1m
17,0,0,0,0,1i,16,i,16,16,17,0,0,0,0,0
17,0,0,0,0,1i,16,i,16,17,17,0,0,0,0,0
17,0,0,0,0,1i,16,i,16,16,17,0,0,0,0,0
17,0,0,0,0,1i,16,i,16,16,17,0,f,0,0,0
17,0,0,0,0,1i,16,1k,k,k,k,1n,0,0,0,0
17,0,0,0,0,1o,1m,1m,1m,1m,1u,0,0,0,0,0
17,0,0,0,0,0,0,0,0,0,0,0,0,0,0,0
17,0,0,0,0,0,0,0,0,0,0,0,0,0,0,0
17,0,0,0,0,0,28,0,0,0,0,0,0,0,0,0
17,0,0,0,0,0,0,0,0,0,0,0,0,0,0,29
17,0,0,1w,0,0,0,0,0,1w,1x,0,0,0,0,0
17,16,16,16,16,16,16,16,16,16,16,16,16,17,17,16
16,16,16,16,17,16,16,16,16,16,16,16,16,16,16,16
NAME llllbbb
EXT 1,0 e 1,15
EXT 2,0 e 2,15
EXT 3,0 e 3,15
EXT 4,0 e 4,15
EXT 7,0 e 7,15
EXT 15,3 g 0,3
EXT 15,4 g 0,4
EXT 15,5 g 0,5
EXT 15,6 g 0,6
EXT 15,7 g 0,7
EXT 15,8 g 0,8
EXT 15,9 g 0,9
EXT 15,10 g 0,10
EXT 15,11 g 0,11
EXT 15,12 g 0,12
EXT 15,13 g 0,13
PAL 0

ROOM g
16,16,i,16,16,16,16,16,16,16,16,16,16,16,16,16
16,16,1k,k,k,k,k,k,z,16,16,1i,16,16,16,16
1m,1m,1m,1m,1m,1m,1m,1i,i,17,1m,1m,1m,1m,1m,1m
0,0,0,0,0,0,0,1i,i,17,0,0,0,0,0,0
0,0,0,0,0,29,0,1i,i,17,0,0,0,0,0,0
0,0,0,0,0,0,0,1i,i,17,0,0,0,0,0,0
0,0,0,0,1i,16,16,1i,i,17,0,0,0,0,0,0
0,0,0,0,1i,14,k,k,j,17,0,28,29,28,0,0
0,0,0,0,1i,i,17,1m,1m,1u,0,0,28,0,0,0
0,0,0,0,1o,i,1u,0,0,0,0,0,0,0,0,0
0,0,0,0,0,1t,0,0,0,0,0,0,0,0,0,0
0,0,0,0,0,0,0,0,0,0,0,0,0,0,0,0
0,0,0,0,0,0,0,0,0,0,0,0,0,0,0,0
0,1w,0,1x,1w,0,0,0,0,1x,0,0,0,0,1w,0
16,16,17,16,16,16,16,16,16,16,16,16,16,16,16,16
16,16,16,16,16,16,16,17,16,16,17,16,16,16,16,16
NAME lllbbb
EXT 0,3 f 15,3
EXT 0,4 f 15,4
EXT 0,5 f 15,5
EXT 0,7 f 15,7
EXT 0,6 f 15,6
EXT 0,8 f 15,8
EXT 0,9 f 15,9
EXT 0,10 f 15,10
EXT 0,11 f 15,11
EXT 0,12 f 15,12
EXT 0,13 f 15,13
EXT 2,0 d 2,15
EXT 15,3 h 0,3
EXT 15,4 h 0,4
EXT 15,5 h 0,5
EXT 15,6 h 0,6
EXT 15,7 h 0,7
EXT 15,8 h 0,8
EXT 15,9 h 0,9
EXT 15,10 h 0,10
EXT 15,11 h 0,11
EXT 15,12 h 0,12
EXT 15,13 h 0,13
PAL 0

ROOM h
16,16,16,17,16,16,16,16,16,16,16,17,16,16,16,16
1i,16,16,16,16,16,16,16,16,16,16,16,16,16,17,16
1m,1m,1m,1m,1m,1m,1i,16,16,16,16,1m,16,16,16,16
0,0,0,0,0,0,1i,14,k,k,k,k,z,16,16,16
0,0,0,0,f,0,1i,i,1i,1i,16,16,i,16,16,16
0,0,0,0,0,g,k,j,16,1i,16,16,i,16,16,16
0,0,0,0,0,0,1o,1m,1m,1i,16,16,i,16,16,16
0,0,0,0,0,0,0,0,0,1i,16,16,i,17,1i,16
0,0,0,0,0,0,0,0,0,1i,16,16,i,16,16,16
0,0,0,0,0,0,0,28,0,1i,16,17,i,16,16,1i
0,0,0,0,0,0,0,0,0,1i,16,16,i,16,16,16
0,0,0,0,0,0,0,0,0,1i,16,16,1k,k,k,k
0,0,0,0,0,0,0,0,0,1i,16,16,16,16,16,16
0,0,1x,0,0,0,1w,0,1i,1i,16,16,1i,16,16,16
16,16,16,16,17,16,16,16,16,17,16,16,16,16,16,16
16,17,16,16,16,16,16,1i,16,16,16,16,16,16,16,16
NAME llbbb
EXT 0,3 g 15,3
EXT 0,4 g 15,4
EXT 0,5 g 15,5
EXT 0,6 g 15,6
EXT 0,7 g 15,7
EXT 0,8 g 15,8
EXT 0,9 g 15,9
EXT 0,10 g 15,10
EXT 0,11 g 15,11
EXT 0,12 g 15,12
EXT 0,13 g 15,13
EXT 15,11 i 0,11
PAL 0

ROOM i
16,16,16,17,0,0,0,1i,16,16,16,16,16,17,16,16
16,16,16,17,0,0,0,1i,16,16,17,16,16,16,16,16
16,16,16,17,0,0,0,1i,16,16,16,16,1i,16,16,17
16,16,16,17,0,0,0,1o,1m,1m,1m,1m,1m,1m,1m,1m
17,16,16,17,0,0,0,0,0,0,0,0,0,0,0,0
16,16,16,17,0,0,1x,0,0,0,0,1w,0,0,0,0
16,16,16,16,16,16,16,16,16,16,16,16,16,17,0,0
16,y,16,16,14,k,k,k,k,k,k,k,z,16,16,16
16,16,17,16,i,17,1m,1m,1m,1m,1m,1i,i,17,16,16
16,16,16,16,i,17,0,0,0,0,0,1i,i,16,16,16
16,16,14,k,j,17,0,0,0,0,0,1i,1k,k,k,k
k,k,1v,17,1m,1u,0,0,0,0,0,1o,1m,1m,1m,1m
16,16,i,17,0,0,0,0,0,0,0,0,0,0,0,0
16,16,i,17,0,1w,0,0,0,1w,0,0,0,1x,1w,0
1i,16,i,16,16,16,16,16,16,16,16,17,16,16,16,16
16,16,i,16,16,17,16,16,16,16,16,16,16,1i,16,16
NAME lbbb
EXT 0,11 h 15,11
EXT 4,0 b 4,15
EXT 5,0 b 5,15
EXT 6,0 b 6,15
EXT 15,4 j 0,4
EXT 15,5 j 0,5
EXT 15,6 j 0,6
EXT 15,10 j 0,10
EXT 15,12 j 0,12
EXT 15,13 j 0,13
END 0 2,15
PAL 0

ROOM j
16,16,17,16,16,16,i,16,16,16,16,17,16,16,16,16
16,16,1i,16,16,16,i,16,16,16,16,16,16,16,16,1i
17,16,16,16,16,16,1k,k,k,k,k,k,k,k,k,k
1m,1m,1m,1m,1m,1m,1m,1m,1m,1m,16,16,1i,16,16,16
0,0,0,29,0,0,0,0,0,0,1i,16,1i,16,16,16
0,0,0,0,0,0,0,0,0,0,1i,16,16,16,17,16
0,0,0,0,0,0,29,28,0,0,1i,14,k,k,k,k
16,17,0,0,0,0,0,0,0,0,1i,i,16,16,16,16
16,17,0,0,0,0,0,0,0,0,1o,i,1m,1m,1m,1m
16,17,0,0,0,0,0,0,0,0,0,1t,0,0,0,0
k,k,1n,0,0,0,0,0,0,0,0,0,0,0,0,0
1m,1p,0,0,0,0,0,0,0,0,0,0,0,0,0,0
0,0,0,0,0,0,0,0,0,0,0,0,0,0,0,0
0,1w,0,0,0,0,1x,0,0,0,1w,0,1x,0,0,0
16,16,16,16,16,16,16,16,16,16,16,1i,16,16,16,16
16,16,16,17,16,1i,16,16,16,16,16,16,16,16,16,17
NAME mbbb
EXT 0,4 i 15,4
EXT 0,5 i 15,5
EXT 0,6 i 15,6
EXT 0,10 i 15,10
EXT 0,12 i 15,12
EXT 0,13 i 15,13
EXT 6,0 a 6,15
EXT 15,2 k 0,2
EXT 15,6 k 0,6
EXT 15,9 k 0,9
EXT 15,10 k 0,10
EXT 15,11 k 0,11
EXT 15,12 k 0,12
EXT 15,13 k 0,13
PAL 0

ROOM k
16,16,16,17,16,16,16,16,16,16,16,i,16,16,16,16
17,16,16,16,16,16,16,16,16,17,16,i,16,16,17,16
k,k,k,k,k,k,k,k,k,k,k,j,16,16,16,1i
16,16,1i,16,16,16,16,17,16,16,16,16,17,16,16,16
16,16,16,16,16,1i,16,16,16,16,16,0,16,16,16,16
16,16,16,17,16,16,16,16,16,16,16,1i,16,16,16,17
k,k,k,k,k,k,k,k,k,k,k,k,k,k,k,k
16,16,1m,16,16,16,16,16,16,16,16,16,16,16,16,16
1m,1m,1m,1m,1m,1m,1m,16,1i,16,16,16,16,16,17,16
0,0,0,0,0,0,0,g,k,k,k,k,z,16,16,16
0,0,0,0,0,0,0,1o,1m,1m,1m,16,i,16,16,16
0,0,0,0,0,0,0,0,0,0,0,1i,i,16,16,16
0,0,0,0,0,0,0,0,0,0,0,1i,1k,k,k,k
1w,0,0,0,0,0,1w,0,1x,0,0,1i,16,16,16,16
16,16,16,16,16,16,16,16,16,16,16,16,16,16,16,16
16,17,16,16,16,16,16,16,1i,16,16,16,16,17,16,16
NAME rbbb
EXT 0,2 j 15,2
EXT 0,6 j 15,6
EXT 0,9 j 15,9
EXT 0,10 j 15,10
EXT 0,11 j 15,11
EXT 0,12 j 15,12
EXT 0,13 j 15,13
EXT 11,0 l 11,15
EXT 15,6 t 0,6
EXT 15,12 t 0,12
PAL 0

ROOM l
16,17,16,16,16,16,16,16,1i,16,16,i,16,16,16,16
16,16,17,16,16,1i,16,16,16,16,16,i,16,16,17,16
16,16,16,1i,16,16,17,16,16,16,16,i,16,16,16,16
k,k,k,k,k,k,k,k,k,k,k,1v,16,16,16,16
1m,1m,1m,1m,1m,1m,1m,1m,1m,1i,16,i,17,16,16,16
0,0,0,0,0,0,0,0,0,1i,1i,i,16,16,16,16
0,1x,0,0,0,e,0,0,0,1o,1i,i,16,16,y,16
16,16,16,17,0,a,0,0,0,0,1i,i,16,16,16,16
k,k,k,1n,0,0,0,0,0,0,1i,i,16,17,16,16
1m,1m,1m,1p,0,0,0,0,0,0,1i,i,16,16,1i,17
0,0,0,0,0,0,0,0,0,0,1i,i,16,16,16,16
0,0,0,0,0,0,0,0,0,0,1i,i,16,16,16,16
0,0,0,0,0,0,0,0,0,0,1i,i,16,16,16,16
0,0,1w,0,0,0,1w,0,0,0,1i,i,17,16,16,16
16,16,16,17,16,16,1i,16,16,16,16,i,16,16,16,17
16,16,16,16,16,17,16,16,16,1i,16,i,16,16,16,16
NAME rbb
EXT 0,3 a 15,3
EXT 0,5 a 15,5
EXT 0,6 a 15,6
EXT 0,8 a 15,8
EXT 0,10 a 15,10
EXT 0,11 a 15,11
EXT 0,12 a 15,12
EXT 0,13 a 15,13
EXT 11,0 m 11,15
EXT 11,15 k 11,0
PAL 0

ROOM m
0,0,0,0,0,0,0,0,0,a,0,0,0,1i,17,16
0,0,21,0,0,0,0,0,0,0,0,0,0,1i,16,17
16,16,16,16,17,16,17,0,0,0,0,0,0,1i,16,16
k,k,k,k,k,z,17,0,0,0,0,0,0,1i,16,16
16,16,16,16,16,i,17,0,0,0,0,0,0,1i,16,1i
16,17,16,17,1m,i,1u,0,0,0,0,0,0,1i,16,16
17,16,16,17,0,1t,0,0,0,0,0,0,0,1i,16,16
16,16,16,17,0,0,0,0,0,0,0,0,0,1i,17,17
16,16,16,17,0,0,0,0,0,0,0,f,0,1i,16,16
16,16,16,17,0,0,0,28,0,0,0,1a,0,1i,16,16
16,16,0,17,0,0,0,0,29,0,1i,i,17,16,1i,16
16,17,16,17,0,0,0,0,0,0,1i,i,16,16,17,16
16,16,16,17,0,1x,0,0,0,0,1i,1y,k,k,k,k
16,16,16,16,16,17,16,16,16,16,16,i,16,16,16,16
16,16,16,16,16,16,16,16,17,16,16,i,16,16,16,16
16,16,17,16,16,16,16,16,16,16,16,i,16,16,17,16
NAME rb
EXT 0,1 9 15,1
EXT 0,3 9 15,3
EXT 11,15 l 11,0
EXT 15,12 r 0,12
EXT 1,0 o 1,15
EXT 2,0 o 2,15
EXT 3,0 o 3,15
EXT 4,0 o 4,15
EXT 5,0 o 5,15
EXT 6,0 o 6,15
EXT 7,0 o 7,15
EXT 8,0 o 8,15
EXT 9,0 o 9,15
EXT 10,0 o 10,15
EXT 11,0 o 11,15
EXT 12,0 o 12,15
PAL 0

ROOM o
k,k,k,i,k,k,k,k,k,k,k,k,k,k,k,k
c,2d,2d,i,c,c,c,c,c,c,c,c,c,c,c,2d
c,c,c,1t,c,2d,c,25,26,27,c,c,c,c,c,c
c,2d,c,c,c,c,c,24,23,22,c,c,c,o,c,c
c,c,c,c,c,c,c,c,c,c,c,2d,c,c,c,c
c,c,c,2d,2d,c,c,c,c,c,c,c,c,c,c,c
c,c,c,c,c,c,c,c,c,2d,c,2d,1c,1h,12,12
n,n,n,n,n,n,n,n,n,n,n,n,n,1g,13,13
0,0,0,0,0,0,0,0,0,0,0,0,0,1j,1b,1b
0,28,0,0,0,0,0,0,0,0,28,29,0,1i,16,16
0,0,0,0,0,0,0,0,0,0,0,0,0,1i,17,16
0,0,0,29,0,0,0,0,0,0,0,0,0,1i,16,16
0,0,0,0,0,0,0,0,0,0,0,0,0,1i,16,17
0,0,0,0,0,0,0,0,0,0,0,0,0,1i,16,16
0,0,0,0,0,0,0,0,0,0,0,0,0,1i,16,17
0,0,0,0,0,0,0,0,0,f,0,0,0,1i,17,16
NAME r
EXT 0,7 0 15,7
EXT 0,8 0 15,8
EXT 0,9 0 15,9
EXT 0,10 0 15,10
EXT 0,11 0 15,11
EXT 0,12 0 15,12
EXT 0,13 0 15,13
EXT 0,14 0 15,14
EXT 12,15 m 12,0
EXT 11,15 m 11,0
EXT 10,15 m 10,0
EXT 9,15 m 9,0
EXT 8,15 m 8,0
EXT 7,15 m 7,0
EXT 6,15 m 6,0
EXT 5,15 m 5,0
EXT 4,15 m 4,0
EXT 3,15 m 3,0
EXT 2,15 m 2,0
EXT 1,15 m 1,0
EXT 15,6 p 0,6
PAL 0

ROOM p
k,k,k,k,k,k,k,k,k,k,k,k,k,k,k,k
c,c,c,c,2a,c,c,c,c,c,c,2d,c,c,c,1f
c,c,c,2d,2a,c,c,c,c,c,c,c,c,c,2d,11
c,o,c,c,2a,c,c,o,2d,c,c,2b,2c,c,c,11
c,2d,c,c,2a,c,c,c,c,c,c,c,c,c,c,11
c,c,c,c,c,1c,1c,1c,c,c,c,c,2d,c,c,11
12,12,12,12,12,12,12,12,12,12,12,12,12,12,2r,1e
13,13,13,13,13,13,13,13,13,13,13,13,13,13,13,13
1b,1b,1b,1b,1b,1b,1b,1b,1b,1b,1b,1b,1b,1b,1b,1b
16,16,16,17,16,16,16,16,16,16,17,16,16,16,16,16
17,16,16,16,16,16,17,16,16,16,16,16,16,16,16,16
16,16,16,16,16,17,16,16,16,38,38,38,16,16,17,16
16,17,16,16,16,16,16,16,38,38,16,38,16,16,17,16
16,16,16,16,16,y,y,16,38,17,16,0,38,1i,38,38
16,17,16,16,16,16,16,16,38,38,17,16,38,38,38,16
16,16,16,17,16,16,16,17,16,38,38,38,16,16,16,17
NAME rr
EXT 0,6 o 15,6
EXT 15,13 x 0,13
EXT 11,15 r 11,0
PAL 0

ROOM r
16,16,16,16,16,16,16,16,16,16,16,38,16,16,17,16
16,17,16,16,16,17,16,16,16,16,38,38,16,16,16,17
16,16,16,16,16,16,16,16,16,16,38,16,17,16,16,16
16,16,16,17,16,16,16,16,16,16,38,38,38,16,16,16
16,16,14,k,k,k,k,k,z,16,16,16,38,1l,16,16
16,17,i,16,16,17,16,16,i,16,16,16,16,16,16,16
16,16,i,16,16,16,16,16,i,16,16,16,16,17,16,16
16,16,i,16,17,16,16,16,1k,k,k,k,z,16,16,16
16,16,i,16,16,16,16,16,16,16,16,16,i,16,16,16
17,16,i,16,16,16,16,16,16,17,16,16,i,16,16,16
16,16,i,16,17,16,16,16,16,16,16,16,i,16,16,16
16,16,i,16,16,17,16,16,16,16,16,16,i,16,16,16
k,k,j,16,14,k,k,k,k,k,k,k,j,16,16,16
16,17,16,16,i,16,16,16,17,16,16,16,16,16,16,16
16,16,16,16,i,16,17,16,y,16,16,16,16,17,16,17
16,16,16,17,i,16,16,16,16,16,16,17,16,16,17,16
NAME rrb
EXT 0,12 m 15,12
EXT 4,15 s 4,0
EXT 11,0 p 11,15
EXT 13,4 6 10,2
PAL 0

ROOM s
16,17,16,16,i,16,16,16,16,16,16,17,16,16,16,16
16,16,16,16,i,16,17,16,16,16,16,16,16,17,16,16
16,16,16,16,1k,k,k,z,17,16,16,16,16,16,16,16
16,16,16,16,16,16,16,i,16,16,16,16,16,16,16,16
16,16,17,16,16,16,16,i,16,14,k,k,k,k,k,k
16,16,0,16,16,16,16,i,16,i,17,1m,1m,1m,1m,1m
16,16,16,16,16,16,16,i,16,i,17,0,0,0,0,0
17,16,16,16,16,16,16,i,16,i,17,0,0,0,0,0
16,16,14,k,k,k,k,j,16,i,17,0,0,0,0,0
16,16,i,16,16,16,16,16,16,i,17,0,0,0,0,0
16,16,i,16,16,14,k,k,k,j,17,0,0,0,0,0
16,16,i,17,16,i,16,16,16,16,17,0,0,0,1w,0
16,16,i,16,16,i,16,16,16,16,16,16,16,16,16,16
16,16,i,16,16,i,16,16,16,16,16,16,16,16,16,16
17,16,i,16,16,i,16,16,16,17,16,16,16,16,17,16
16,16,i,16,17,i,16,16,17,16,16,16,16,16,16,16
NAME rrbb
ITM 0 12,8
EXT 4,0 r 4,15
EXT 15,4 v 0,4
EXT 15,6 v 0,6
EXT 15,7 v 0,7
EXT 15,8 v 0,8
EXT 15,9 v 0,9
EXT 15,10 v 0,10
EXT 15,11 v 0,11
EXT 2,15 t 2,0
EXT 5,15 t 5,0
PAL 0

ROOM t
16,16,i,16,16,i,16,16,17,16,16,16,16,17,16,16
16,16,i,17,16,i,16,16,16,16,16,17,16,16,16,16
16,16,i,16,16,1k,k,k,k,z,16,16,16,16,16,17
16,17,i,16,16,16,16,16,16,i,16,16,16,16,16,16
16,16,i,16,0,16,17,16,16,i,16,16,16,16,16,16
16,16,i,16,16,16,16,16,16,i,16,16,17,16,16,16
k,k,j,17,16,16,16,16,16,i,16,16,16,16,16,16
17,16,16,16,16,17,17,16,16,1y,k,k,k,k,k,k
16,16,16,16,16,16,16,16,16,i,17,1u,1u,1u,1u,1u
16,16,16,16,16,16,16,16,16,i,17,0,0,0,0,0
16,17,16,16,16,16,16,16,16,i,17,0,0,0,0,0
16,16,16,16,16,17,16,16,16,i,17,0,0,0,0,0
k,k,k,k,k,k,k,k,k,j,17,0,0,0,0,0
16,16,16,16,16,16,16,16,16,16,17,0,0,0,0,0
16,16,17,16,16,16,16,16,16,16,16,16,16,17,16,16
16,16,16,16,16,16,17,16,16,16,16,16,16,16,16,16
NAME rrbbb
EXT 2,0 s 2,15
EXT 5,0 s 5,15
EXT 0,6 k 15,6
EXT 0,12 k 15,12
EXT 15,7 u 0,7
EXT 15,9 u 0,9
EXT 15,10 u 0,10
EXT 15,11 u 0,11
EXT 15,12 u 0,12
EXT 15,13 u 0,13
PAL 0

ROOM u
16,16,17,16,16,16,16,16,16,16,16,16,i,16,16,17
16,16,16,16,16,16,1i,16,16,16,17,16,i,16,16,16
17,16,16,16,17,1m,1m,1m,1m,1m,1m,1i,i,17,1m,16
16,16,17,16,17,0,0,0,0,0,0,1i,i,16,16,16
16,16,16,16,17,0,0,0,0,0,0,1i,i,17,16,16
16,16,16,16,17,0,0,0,0,0,0,g,j,16,16,16
16,17,16,16,16,1i,16,1s,0,0,0,0,1o,1u,1m,1m
k,k,k,k,k,k,z,17,0,0,0,0,0,0,0,0
1u,1m,1m,1u,1m,1i,i,17,0,0,0,0,0,0,0,0
0,0,0,0,0,1o,i,1u,0,0,0,0,0,0,0,0
0,0,0,0,0,0,1t,0,0,0,0,0,0,0,0,0
0,0,0,0,0,0,0,0,0,0,0,0,0,0,0,0
0,0,0,0,0,0,0,0,0,0,0,0,0,0,0,0
0,0,1x,0,0,1w,0,0,0,0,0,21,0,1w,0,0
16,16,16,17,16,16,16,16,16,16,16,16,16,16,16,16
16,16,16,16,16,16,16,16,17,16,16,16,16,17,16,1i
NAME rrrbbb
EXT 0,7 t 15,7
EXT 0,9 t 15,9
EXT 0,10 t 15,10
EXT 0,11 t 15,11
EXT 0,12 t 15,12
EXT 0,13 t 15,13
EXT 12,0 v 12,15
EXT 15,7 11 0,7
EXT 15,8 11 0,8
EXT 15,9 11 0,9
EXT 15,10 11 0,10
EXT 15,11 11 0,11
EXT 15,12 11 0,12
EXT 15,13 11 0,13
PAL 0

ROOM v
16,16,16,17,16,16,16,17,16,16,16,16,16,16,16,16
16,16,16,16,17,1m,1m,1m,1m,1m,1m,1m,1m,1m,1m,16
16,17,16,16,17,0,0,0,0,0,0,0,0,0,0,1i
16,16,16,16,17,0,0,0,0,0,0,0,29,0,0,1i
k,k,k,k,k,1n,0,0,0,0,0,0,0,0,0,1i
1m,1m,1m,1m,1p,0,0,0,0,0,1a,0,0,0,0,1i
0,0,0,0,0,0,0,0,0,1i,i,16,16,17,16,1i
0,0,0,0,0,0,0,0,0,1i,i,16,16,16,16,16
0,0,0,0,0,0,0,0,0,1i,1k,k,z,16,16,16
0,0,0,0,0,0,0,0,0,1o,16,16,i,16,16,17
0,0,0,0,0,0,0,0,0,0,1i,16,i,16,16,16
0,0,0,1x,0,0,1w,0,0,0,1i,16,i,16,16,0
16,17,16,16,16,16,17,16,16,16,16,16,i,17,16,16
16,16,16,17,16,16,16,16,16,16,17,16,i,16,16,17
16,16,16,16,16,16,16,16,16,16,16,16,i,16,16,16
17,16,16,16,16,17,16,16,16,16,16,17,i,16,16,16
NAME rrrbb
ITM 4 7,2
EXT 0,4 s 15,4
EXT 0,6 s 15,6
EXT 0,7 s 15,7
EXT 0,8 s 15,8
EXT 0,9 s 15,9
EXT 0,10 s 15,10
EXT 0,11 s 15,11
EXT 12,15 u 12,0
PAL 0

ROOM w
16,16,17,16,16,16,17,16,16,16,16,16,16,16,16,16
16,16,16,16,16,16,16,16,16,16,16,16,16,17,16,16
17,16,16,16,16,16,16,16,16,16,16,16,17,16,16,16
16,16,16,16,17,16,16,16,16,17,14,k,k,k,k,k
17,1m,1m,1m,1m,1m,1m,1m,1m,1m,i,1m,1m,1m,1m,1m
17,0,0,0,0,0,0,0,0,0,1t,0,0,0,0,0
17,0,0,0,0,0,0,0,0,0,0,0,0,0,0,0
17,0,0,0,0,0,0,0,0,0,0,0,0,0,0,0
17,0,0,0,0,0,0,0,0,0,0,0,0,0,0,0
17,0,0,0,0,0,0,0,0,0,0,0,0,0,0,0
17,0,0,f,0,0,0,0,0,0,0,1w,0,1x,0,0
17,0,0,0,0,1i,16,16,16,17,16,16,16,16,16,16
17,0,0,0,g,k,k,k,k,k,k,k,k,k,k,k
16,16,16,16,16,16,16,16,16,16,16,16,16,17,16,16
16,17,16,16,16,16,16,17,16,16,16,16,16,16,16,16
16,16,16,17,16,16,16,16,16,16,16,16,16,16,17,16
NAME rrrb
EXT 15,3 z 0,3
EXT 15,5 z 0,5
EXT 15,6 z 0,6
EXT 15,7 z 0,7
EXT 15,8 z 0,8
EXT 15,9 z 0,9
EXT 15,10 z 0,10
EXT 15,12 z 0,12
PAL 0

ROOM x
k,k,k,k,k,k,k,k,k,k,k,k,k,k,k,k
1f,c,c,c,c,2d,c,c,c,c,c,c,c,c,c,c
11,2d,c,c,c,c,2j,2k,2k,2l,c,c,2d,c,c,2d
11,c,c,o,c,c,2p,0,0,2o,c,c,2b,2c,c,c
11,c,c,c,c,c,2i,2m,2m,2f,c,c,c,c,2d,c
11,2d,2d,c,c,c,2g,2h,2h,2e,2d,c,c,c,c,c
1e,12,12,2q,2r,12,12,12,12,12,12,12,12,12,12,2q
13,13,13,13,13,13,13,13,13,13,13,13,13,13,13,13
1b,1b,1b,1b,1b,1b,1b,1b,1b,1b,1b,1b,1b,1b,1b,1b
16,16,16,16,16,17,16,16,16,16,16,17,16,16,17,16
16,17,38,38,38,16,16,16,16,17,16,16,16,16,16,16
16,16,38,16,38,0,17,16,16,16,16,17,16,16,16,16
17,17,38,0,16,16,16,16,16,16,16,17,0,16,17,16
38,38,16,38,16,16,16,16,17,16,16,16,16,16,16,16
16,38,38,38,17,16,16,16,16,16,16,16,16,16,17,16
16,16,17,16,16,16,16,17,16,16,16,17,16,16,16,16
NAME rrr
ITM 7 7,3
ITM 7 8,3
EXT 15,6 y 0,6
EXT 0,13 p 15,13
EXT 7,3 1k 7,15
EXT 8,3 1k 8,15
PAL 0

ROOM y
k,k,k,k,k,k,i,k,k,k,k,k,k,k,k,k
c,c,c,2a,c,c,i,c,2d,c,c,c,c,2d,1f,c
c,2d,c,2a,c,c,i,c,c,c,c,c,c,c,11,c
o,c,c,2a,c,2d,1k,1n,c,c,c,o,c,c,11,c
c,c,c,2a,c,c,c,c,c,c,c,c,2d,c,11,2d
c,2d,c,c,c,c,c,c,c,c,2d,c,c,c,11,c
12,12,12,12,2q,12,12,12,12,1a,12,12,12,12,1e,0
13,13,13,13,13,13,13,13,13,i,13,13,13,13,13,13
1b,1b,1b,1b,1b,1b,1b,1b,1b,i,1b,1b,1b,1b,1b,1b
16,16,17,16,16,16,16,16,16,i,16,17,16,16,16,16
16,17,16,16,17,16,16,16,17,i,16,16,16,16,16,16
16,16,16,14,k,k,k,k,k,j,16,16,16,16,17,16
16,16,16,i,16,16,16,16,17,16,16,16,16,16,16,16
16,16,17,1k,k,k,k,k,z,16,16,17,16,0,16,16
17,16,16,16,16,16,16,16,i,16,16,16,16,16,16,16
16,16,16,16,16,17,16,16,i,16,17,16,16,16,16,16
NAME rrrr
EXT 0,6 x 15,6
EXT 8,15 z 8,0
PAL 0

ROOM z
16,16,16,17,16,16,16,16,i,16,16,16,16,17,16,16
16,16,16,16,16,16,16,16,i,16,17,16,16,16,16,16
16,16,17,16,16,16,16,17,i,16,16,16,16,16,16,16
k,k,k,k,k,k,k,k,j,16,16,16,16,17,16,16
1m,1m,1m,1m,1m,1m,1m,1m,1m,1m,1m,1m,1m,1m,1i,16
0,0,0,0,0,0,0,0,0,0,0,0,0,0,1i,16
0,0,0,0,0,0,0,0,0,0,0,0,0,0,1o,1i
0,0,0,0,0,0,0,0,0,0,0,0,0,0,0,1i
0,0,0,0,0,0,0,0,0,0,0,0,0,0,0,1i
0,0,0,0,0,0,0,0,0,0,0,0,0,0,0,1i
0,0,1w,0,0,0,0,0,0,0,0,0,0,0,0,1i
16,16,16,16,16,16,17,0,0,0,0,0,0,0,0,1i
k,k,k,k,z,16,17,0,0,0,0,0,0,0,0,1i
16,17,16,16,i,16,17,0,0,21,0,0,1x,0,0,1i
16,16,16,16,i,16,16,16,16,16,16,16,16,16,16,1i
16,16,16,16,i,16,16,17,16,16,16,16,16,16,17,1i
NAME rrrrb
EXT 0,3 w 15,3
EXT 0,5 w 15,5
EXT 0,6 w 15,6
EXT 0,7 w 15,7
EXT 0,8 w 15,8
EXT 0,9 w 15,9
EXT 0,10 w 15,10
EXT 0,12 w 15,12
EXT 8,0 y 8,15
EXT 4,15 10 4,0
PAL 0

ROOM 1a
1k,k,k,k,k,k,k,k,k,k,k,k,k,k,k,z
1d,2t,2t,2t,2t,2t,2t,2t,2t,2t,2t,2t,2t,2t,2t,i
1d,2t,2t,2t,2t,2t,2t,2t,2t,2t,2t,2t,2t,2t,2t,i
1d,2t,2t,2t,2t,2t,2t,2t,2t,2t,2t,2t,2t,2t,2t,i
1d,2t,2t,2t,2t,2t,2t,2t,2t,2t,2t,2t,2t,2t,2t,i
1d,2t,2t,2t,2t,2t,2t,2t,2t,2t,2t,2t,2t,2t,2t,i
1d,2t,2t,2t,2t,2t,2t,2t,2t,2t,2t,2t,2t,2t,2t,i
1d,2t,2t,2t,2t,2t,2t,2t,2t,2t,2t,2t,2t,2t,2t,i
1d,2t,2t,2t,2t,2t,2t,2t,2t,2t,2t,2t,2t,2t,2t,i
1d,2t,2t,2t,2t,2t,2t,2t,2t,2t,2t,2t,2t,2t,2t,i
1d,2t,2t,2t,2t,2t,2t,2t,2t,2t,2t,2t,2t,2t,2t,i
1d,2t,2t,2t,2t,2t,2t,2t,2t,2t,2t,2t,2t,2t,2t,i
1d,2t,2t,2t,2t,2t,2t,2t,2t,2t,2t,2t,2t,2t,2t,i
1d,2t,2t,2t,2t,2t,2t,2t,2t,2t,2t,2t,2t,2t,2t,i
1d,2t,2t,2t,2t,2t,2t,0,2t,2t,2t,2t,2t,2t,2t,i
z,w,w,w,w,w,w,0,w,w,w,w,w,w,w,1k
NAME mgfA7
ITM 3 12,6
EXT 10,10 2 5,6
EXT 9,11 2 5,6
EXT 9,9 1b 9,9
PAL 0

ROOM 1b
1k,k,k,k,k,k,k,k,k,k,k,k,k,k,k,z
1d,2t,2t,2t,2t,2t,2t,2t,2t,2t,2t,2t,2t,2t,2t,i
1d,2t,2t,2t,2t,2t,2t,2t,2t,2t,2t,2t,2t,2t,2t,i
1d,2t,2t,2t,2t,2t,2t,2t,2t,2t,2t,2t,2t,2t,2t,i
1d,2t,2t,2t,2t,2t,2t,2t,2t,2t,2t,2t,2t,2t,2t,i
1d,2t,2t,2t,2t,2t,2t,2t,2t,2t,2t,2t,2t,2t,2t,i
1d,2t,2t,2t,2t,2t,2t,2t,2t,2t,2t,2t,2t,2t,2t,i
1d,2t,2t,2t,2t,2t,2t,2t,2t,2t,2t,2t,2t,2t,2t,i
1d,2t,2t,2t,2t,2t,2t,2t,2t,2t,2t,2t,2t,2t,2t,i
1d,2t,2t,2t,2t,2t,2t,2t,2t,2t,2t,2t,2t,2t,2t,i
1d,2t,2t,2t,2t,2t,2t,2t,2t,2t,2t,2t,2t,2t,2t,i
1d,2t,2t,2t,2t,2t,2t,2t,2t,2t,2t,2t,2t,2t,2t,i
1d,2t,2t,2t,2t,2t,2t,2t,2t,2t,2t,2t,2t,2t,2t,i
1d,2t,2t,2t,2t,2t,2t,2t,2t,2t,2t,2t,2t,2t,2t,i
1d,2t,2t,2t,2t,2t,2t,0,2t,2t,2t,2t,2t,2t,2t,i
z,w,w,w,w,w,w,0,w,w,w,w,w,w,w,1k
NAME mgfA8
ITM 3 10,5
EXT 8,9 1c 8,9
EXT 9,8 2 5,6
EXT 10,9 2 5,6
PAL 0

ROOM 1c
1k,k,k,k,k,k,k,k,k,k,k,k,k,k,k,z
1d,2t,2t,2t,2t,2t,2t,2t,2t,2t,2t,2t,2t,2t,2t,i
1d,2t,2t,2t,2t,2t,2t,2t,2t,2t,2t,2t,2t,2t,2t,i
1d,2t,2t,2t,2t,2t,2t,2t,2t,2t,2t,2t,2t,2t,2t,i
1d,2t,2t,2t,2t,2t,2t,2t,2t,2t,2t,2t,2t,2t,2t,i
1d,2t,2t,2t,2t,2t,2t,2t,2t,2t,2t,2t,2t,2t,2t,i
1d,2t,2t,2t,2t,2t,2t,2t,2t,2t,2t,2t,2t,2t,2t,i
1d,2t,2t,2t,2t,2t,2t,2t,2t,2t,2t,2t,2t,2t,2t,i
1d,2t,2t,2t,2t,2t,2t,2t,2t,2t,2t,2t,2t,2t,2t,i
1d,2t,2t,2t,2t,2t,2t,2t,2t,2t,2t,2t,2t,2t,2t,i
1d,2t,2t,2t,2t,2t,2t,2t,2t,2t,2t,2t,2t,2t,2t,i
1d,2t,2t,2t,2t,2t,2t,2t,2t,2t,2t,2t,2t,2t,2t,i
1d,2t,2t,2t,2t,2t,2t,2t,2t,2t,2t,2t,2t,2t,2t,i
1d,2t,2t,2t,2t,2t,2t,2t,2t,2t,2t,2t,2t,2t,2t,i
1d,2t,2t,2t,2t,2t,2t,0,2t,2t,2t,2t,2t,2t,2t,i
z,w,w,w,w,w,w,0,w,w,w,w,w,w,w,1k
NAME mgfA9
ITM 3 8,4
EXT 8,8 2 5,6
EXT 7,9 1d 7,9
PAL 0

ROOM 1d
1k,k,k,k,k,k,k,k,k,k,k,k,k,k,k,z
1d,2t,2t,2t,2t,2t,2t,2t,2t,2t,2t,2t,2t,2t,2t,i
1d,2t,2t,2t,2t,2t,2t,2t,2t,2t,2t,2t,2t,2t,2t,i
1d,2t,2t,2t,2t,2t,2t,2t,2t,2t,2t,2t,2t,2t,2t,i
1d,2t,2t,2t,2t,2t,2t,2t,2t,2t,2t,2t,2t,2t,2t,i
1d,2t,2t,2t,2t,2t,2t,2t,2t,2t,2t,2t,2t,2t,2t,i
1d,2t,2t,2t,2t,2t,2t,2t,2t,2t,2t,2t,2t,2t,2t,i
1d,2t,2t,2t,2t,2t,2t,2t,2t,2t,2t,2t,2t,2t,2t,i
1d,2t,2t,2t,2t,2t,2t,2t,2t,2t,2t,2t,2t,2t,2t,i
1d,2t,2t,2t,2t,2t,2t,2t,2t,2t,2t,2t,2t,2t,2t,i
1d,2t,2t,2t,2t,2t,2t,2t,2t,2t,2t,2t,2t,2t,2t,i
1d,2t,2t,2t,2t,2t,2t,2t,2t,2t,2t,2t,2t,2t,2t,i
1d,2t,2t,2t,2t,2t,2t,2t,2t,2t,2t,2t,2t,2t,2t,i
1d,2t,2t,2t,2t,2t,2t,2t,2t,2t,2t,2t,2t,2t,2t,i
1d,2t,2t,2t,2t,2t,2t,0,2t,2t,2t,2t,2t,2t,2t,i
z,w,w,w,w,w,w,0,w,w,w,w,w,w,w,1k
NAME mgfA10
ITM 3 9,2
EXT 7,8 2 5,6
EXT 7,10 2 5,6
EXT 6,9 1e 6,9
PAL 0

ROOM 1e
1k,k,k,k,k,k,k,k,k,k,k,k,k,k,k,z
1d,2t,2t,2t,2t,2t,2t,2t,2t,2t,2t,2t,2t,2t,2t,i
1d,2t,2t,2t,2t,2t,2t,2t,2t,2t,2t,2t,2t,2t,2t,i
1d,2t,2t,2t,2t,2t,2t,2t,2t,2t,2t,2t,2t,2t,2t,i
1d,2t,2t,2t,2t,2t,2t,2t,2t,2t,2t,2t,2t,2t,2t,i
1d,2t,2t,2t,2t,2t,2t,2t,2t,2t,2t,2t,2t,2t,2t,i
1d,2t,2t,2t,2t,2t,2t,2t,2t,2t,2t,2t,2t,2t,2t,i
1d,2t,2t,2t,2t,2t,2t,2t,2t,2t,2t,2t,2t,2t,2t,i
1d,2t,2t,2t,2t,2t,2t,2t,2t,2t,2t,2t,2t,2t,2t,i
1d,2t,2t,2t,2t,2t,2t,2t,2t,2t,2t,2t,2t,2t,2t,i
1d,2t,2t,2t,2t,2t,2t,2t,2t,2t,2t,2t,2t,2t,2t,i
1d,2t,2t,2t,2t,2t,2t,2t,2t,2t,2t,2t,2t,2t,2t,i
1d,2t,2t,2t,2t,2t,2t,2t,2t,2t,2t,2t,2t,2t,2t,i
1d,2t,2t,2t,2t,2t,2t,2t,2t,2t,2t,2t,2t,2t,2t,i
1d,2t,2t,2t,2t,2t,2t,0,2t,2t,2t,2t,2t,2t,2t,i
z,w,w,w,w,w,w,0,w,w,w,w,w,w,w,1k
NAME mgfA11
ITM 3 11,4
EXT 6,8 1f 6,8
EXT 5,9 2 5,6
EXT 6,10 2 5,6
PAL 0

ROOM 1f
1k,k,k,k,k,k,k,k,k,k,k,k,k,k,k,z
1d,2t,2t,2t,2t,2t,2t,2t,2t,2t,2t,2t,2t,2t,2t,i
1d,2t,2t,2t,2t,2t,2t,2t,2t,2t,2t,2t,2t,2t,2t,i
1d,2t,2t,2t,2t,2t,2t,2t,2t,2t,2t,2t,2t,2t,2t,i
1d,2t,2t,2t,2t,2t,2t,2t,2t,2t,2t,2t,2t,2t,2t,i
1d,2t,2t,2t,2t,2t,2t,2t,2t,2t,2t,2t,2t,2t,2t,i
1d,2t,2t,2t,2t,2t,2t,2t,2t,2t,2t,2t,2t,2t,2t,i
1d,2t,2t,2t,2t,2t,2t,2t,2t,2t,2t,2t,2t,2t,2t,i
1d,2t,2t,2t,2t,2t,2t,2t,2t,2t,2t,2t,2t,2t,2t,i
1d,2t,2t,2t,2t,2t,2t,2t,2t,2t,2t,2t,2t,2t,2t,i
1d,2t,2t,2t,2t,2t,2t,2t,2t,2t,2t,2t,2t,2t,2t,i
1d,2t,2t,2t,2t,2t,2t,2t,2t,2t,2t,2t,2t,2t,2t,i
1d,2t,2t,2t,2t,2t,2t,2t,2t,2t,2t,2t,2t,2t,2t,i
1d,2t,2t,2t,2t,2t,2t,2t,2t,2t,2t,2t,2t,2t,2t,i
1d,2t,2t,2t,2t,2t,2t,0,2t,2t,2t,2t,2t,2t,2t,i
z,w,w,w,w,w,w,0,w,w,w,w,w,w,w,1k
NAME mgfA12
ITM 3 12,6
EXT 6,7 2 5,6
EXT 5,8 2 5,6
EXT 7,8 1g 7,8
PAL 0

ROOM 1g
1k,k,k,k,k,k,k,k,k,k,k,k,k,k,k,z
1d,2t,2t,2t,2t,2t,2t,2t,2t,2t,2t,2t,2t,2t,2t,i
1d,2t,2t,2t,2t,2t,2t,2t,2t,2t,2t,2t,2t,2t,2t,i
1d,2t,2t,2t,2t,2t,2t,2t,2t,2t,2t,2t,2t,2t,2t,i
1d,2t,2t,2t,2t,2t,2t,2t,2t,2t,2t,2t,2t,2t,2t,i
1d,2t,2t,2t,2t,2t,2t,2t,2t,2t,2t,2t,2t,2t,2t,i
1d,2t,2t,2t,2t,2t,2t,2t,2t,2t,2t,2t,2t,2t,2t,i
1d,2t,2t,2t,2t,2t,2t,2t,2t,2t,2t,2t,2t,2t,2t,i
1d,2t,2t,2t,2t,2t,2t,2t,2t,2t,2t,2t,2t,2t,2t,i
1d,2t,2t,2t,2t,2t,2t,2t,2t,2t,2t,2t,2t,2t,2t,i
1d,2t,2t,2t,2t,2t,2t,2t,2t,2t,2t,2t,2t,2t,2t,i
1d,2t,2t,2t,2t,2t,2t,2t,2t,2t,2t,2t,2t,2t,2t,i
1d,2t,2t,2t,2t,2t,2t,2t,2t,2t,2t,2t,2t,2t,2t,i
1d,2t,2t,2t,2t,2t,2t,2t,2t,2t,2t,2t,2t,2t,2t,i
1d,2t,2t,2t,2t,2t,2t,0,2t,2t,2t,2t,2t,2t,2t,i
z,w,w,w,w,w,w,0,w,w,w,w,w,w,w,1k
NAME mgfA13
ITM 3 10,5
EXT 7,7 1h 7,7
EXT 8,8 2 5,6
PAL 0

ROOM 1h
1k,k,k,k,k,k,k,k,k,k,k,k,k,k,k,z
1d,2t,2t,2t,2t,2t,2t,2t,2t,2t,2t,2t,2t,2t,2t,i
1d,2t,2t,2t,2t,2t,2t,2t,2t,2t,2t,2t,2t,2t,2t,i
1d,2t,2t,2t,2t,2t,2t,2t,2t,2t,2t,2t,2t,2t,2t,i
1d,2t,2t,2t,2t,2t,2t,2t,2t,2t,2t,2t,2t,2t,2t,i
1d,2t,2t,2t,2t,2t,2t,2t,2t,2t,2t,2t,2t,2t,2t,i
1d,2t,2t,2t,2t,2t,2t,2t,2t,2t,2t,2t,2t,2t,2t,i
1d,2t,2t,2t,2t,2t,2t,2t,2t,2t,2t,2t,2t,2t,2t,i
1d,2t,2t,2t,2t,2t,2t,2t,2t,2t,2t,2t,2t,2t,2t,i
1d,2t,2t,2t,2t,2t,2t,2t,2t,2t,2t,2t,2t,2t,2t,i
1d,2t,2t,2t,2t,2t,2t,2t,2t,2t,2t,2t,2t,2t,2t,i
1d,2t,2t,2t,2t,2t,2t,2t,2t,2t,2t,2t,2t,2t,2t,i
1d,2t,2t,2t,2t,2t,2t,2t,2t,2t,2t,2t,2t,2t,2t,i
1d,2t,2t,2t,2t,2t,2t,2t,2t,2t,2t,2t,2t,2t,2t,i
1d,2t,2t,2t,2t,2t,2t,0,2t,2t,2t,2t,2t,2t,2t,i
z,w,w,w,w,w,w,0,w,w,w,w,w,w,w,1k
NAME mgfA14
ITM 3 8,7
EXT 7,6 2 5,6
EXT 6,7 2 5,6
EXT 8,7 1i 5,6
PAL 0

ROOM 1i
b,b,b,b,b,b,b,b,b,b,b,b,b,b,k,b
c,c,c,2d,c,c,c,c,c,c,c,2a,c,c,c,c
c,c,c,c,c,2d,c,c,2d,c,c,2a,2d,c,c,c
c,c,o,c,c,c,c,c,c,c,c,2a,c,c,o,c
c,c,c,c,c,c,c,c,c,c,c,2a,c,c,2d,c
c,c,2d,c,c,c,c,c,2d,c,c,c,c,c,c,c
12,12,12,12,12,1a,12,12,12,2q,2r,12,12,12,12,12
13,13,13,13,13,i,13,13,13,13,13,13,13,13,13,13
1b,1b,1b,1b,1b,i,1b,1b,1b,1b,1b,1b,1b,1b,1b,1b
16,16,16,16,16,i,b,b,b,b,b,b,b,z,16,16
38,0,38,17,16,16,16,16,16,16,16,1i,16,i,16,16
16,1i,38,16,16,1i,16,16,16,17,16,16,16,i,1b,16
16,1i,38,38,38,16,16,16,16,16,16,16,16,i,16,16
16,16,16,17,38,16,14,b,b,b,b,b,b,j,17,16
16,16,16,16,38,0,i,16,16,16,16,16,16,16,1i,16
16,17,16,16,16,16,i,16,16,16,16,16,17,16,16,16
NAME llcopy
EXT 15,6 1 0,6
EXT 0,6 3 15,6
EXT 6,15 7 6,0
PAL 0

ROOM 1j
14,k,k,k,k,k,k,k,k,k,k,k,k,k,k,z
i,0,2t,2t,2t,2t,0,0,0,0,2t,2t,2t,2t,0,i
i,2t,2t,2t,2t,2t,2t,0,0,2t,2t,2t,2t,2t,2t,i
i,2t,2t,0,0,0,0,0,0,0,0,0,0,2t,2t,i
i,2t,2t,2t,2t,2t,2t,0,0,2t,2t,2t,2t,2t,2t,i
i,0,2t,2t,2t,2t,0,0,0,0,2t,2t,2t,2t,0,i
i,w,w,w,w,w,w,w,w,w,w,w,w,w,w,i
i,w,w,w,w,w,w,w,w,w,w,w,w,w,w,i
i,0,2t,2t,2t,2t,2t,2t,2t,2t,2t,2t,2t,2t,0,i
i,0,2t,0,0,0,0,0,0,0,0,0,0,2t,0,i
i,0,2t,0,2w,2u,2v,34,35,36,37,0,0,2t,0,i
i,0,2t,0,0,0,0,0,0,0,0,0,0,2t,0,i
i,0,2t,2t,2t,2t,2t,2t,2t,2t,2t,2t,2t,2t,0,i
i,0,0,0,0,0,0,0,0,0,0,0,0,0,0,i
i,0,0,0,0,2y,2z,30,31,32,33,0,0,0,0,i
j,n,n,n,n,n,n,n,n,n,n,n,n,n,n,1k
NAME title
ITM 5 8,2
ITM 5 7,3
ITM 5 9,3
ITM 5 8,4
EXT 8,2 0 10,7
EXT 7,3 0 10,7
EXT 8,4 0 10,7
EXT 9,3 0 10,7
PAL 0

ROOM 1k
0,17,16,16,x,1b,1b,0,1b,1b,1b,t,16,17,16,0
0,16,16,16,x,1b,0,0,1b,1b,1b,t,17,16,16,0
0,16,16,16,x,1b,0,1b,0,0,0,t,16,16,16,0
0,16,16,16,x,1b,0,0,0,1b,0,t,16,16,16,0
0,16,17,16,x,1b,1b,1b,1b,1b,0,t,16,17,16,0
0,16,16,16,x,1b,1b,0,0,0,0,t,16,16,16,0
0,16,16,16,x,1b,1b,0,1b,1b,1b,t,16,16,16,0
0,16,16,16,x,1b,1b,0,0,1b,1b,t,16,16,16,0
0,16,16,16,x,1b,1b,1b,0,1b,1b,t,16,16,16,0
0,16,17,16,x,1b,0,0,0,1b,1b,t,17,16,16,0
0,16,16,16,x,1b,0,1b,1b,1b,1b,t,16,16,16,0
0,17,16,16,x,1b,0,0,1b,1b,1b,t,16,16,16,0
0,16,16,16,x,1b,1b,0,0,0,1b,t,16,16,16,0
0,16,16,16,x,1b,1b,1b,1b,0,1b,t,16,17,16,0
0,16,16,16,x,1b,1b,0,0,0,1b,t,16,16,16,0
0,16,17,16,x,1b,1b,0,0,1b,1b,t,16,16,16,0
ITM 6 10,3
ITM 8 6,10
EXT 7,15 x 7,3
EXT 8,15 x 8,3
END 1 7,0
PAL 0

TIL 10
00000000
11111110
11111110
11111110
11111110
11111110
11111110
11111110

TIL 11
00100100
00100100
00100100
00100100
00100100
00100100
00100100
00100100
WAL true

TIL 12
00000000
00000000
11111111
11111111
11111111
11111111
11111111
11111111

TIL 13
11111111
00000000
11111111
00000000
00000000
10111111
10111111
00000000
WAL true

TIL 14
00000000
00111111
01100000
01000000
01000000
01000011
01000111
01000110

TIL 16
11111111
00001000
00001000
00001000
11111111
01000000
01000000
01000000
WAL true

TIL 17
11111111
00001001
00001001
00001001
11111111
01000010
01000010
01000010
WAL true

TIL 18
00000000
00000000
11111110
11111110
11111110
11111110
11111110
11111110

TIL 19
11111110
00000010
11111110
00000100
00000111
10111101
10111101
00000001
WAL true

TIL 21
00000000
00000000
00111110
11000011
10100001
10101101
01101101
00000000

TIL 22
01100010
01100010
01100010
01100010
01100010
01100010
10011010
11111000

TIL 23
01100110
01100110
01100110
01100110
01100110
01100110
10011001
11111111

TIL 24
01000110
01000110
01000110
01000110
01000110
01000110
01011001
00011111

TIL 25
00000000
10000000
00111111
01111111
00000000
01000110
01000110
01000110

TIL 26
00000000
00000000
11111111
11111111
00000000
01100110
01100110
01100110

TIL 27
00000000
00000001
11111100
11111110
00000000
01100010
01100010
01100010

TIL 28
00000000
00011000
00000000
00000000
00000000
00110000
01100000
00000011
>
00000000
00000000
00000110
00000000
00110000
00100000
00000000
00000100

TIL 29
00000000
00000000
00000110
11000000
00000000
00001000
00001100
00000000
>
00000000
00000011
00000000
00000000
01100000
00000010
00000110
00000000

TIL 30
00000000
00000000
10111010
00100010
10110010
10100010
10111011
00000000

TIL 31
00000000
00000000
00100000
00100000
00100000
00100000
10111000
00000000

TIL 32
00000000
00000000
01110111
00010101
01110101
01000101
01110111
00000000

TIL 33
00000000
00000000
00100111
01100101
00100111
00100101
01110111
00000000

TIL 34
00000000
00000000
11000010
00000101
11000101
01000111
10000101
00000000
>
00000000
00000000
00000000
00000000
00000000
00000000
00000000
00000000

TIL 35
00000000
00000000
01100101
01010101
01010111
01010001
01010110
00000000
>
00000000
00000000
00000000
00000000
00000000
00000000
00000000
00000000

TIL 36
00000000
00000000
00010101
00010101
00011001
00010101
00010101
00000000
>
00000000
00000000
00000000
00000000
00000000
00000000
00000000
00000000

TIL 37
00000000
00000000
11010100
00010100
10011100
00000100
11011000
00000000
>
00000000
00000000
00000000
00000000
00000000
00000000
00000000
00000000

TIL 38
11111111
00001000
00001000
00001000
11111111
01000000
01000000
01000000
NAME dbi
WAL false

TIL a
00111100
01000010
10110001
10110001
10000001
10000001
01000010
00111100
>
00010001
00010001
00001110
00000000
00000000
00000000
00000000
00000000
NAME undefined

TIL b
00000000
11111111
00000000
00000000
00000000
11111111
11111111
00000000
NAME undefined

TIL c
00000000
11110111
11110111
11110111
00000000
10111111
10111111
10111111
NAME brick
WAL true

TIL e
00001100
00010010
00010010
00001100
00000000
00000000
00000000
00000000
>
00000000
00000000
00000000
00000000
00000000
00000000
00001110
00011001
NAME undefined

TIL f
00000000
00000000
00001000
00000000
00000000
00000000
00000000
00000000
>
00000000
00000000
00000000
00000000
00010000
00101000
00010000
00000000
NAME undefined

TIL g
00111100
01101110
01000110
01000110
01000110
01000110
01101110
00111100
NAME undefined
WAL false

TIL i
01000110
01000110
01000110
01000110
01000110
01000110
01000110
01000110

TIL j
11000110
10000110
00000110
00000110
00001110
11111110
11111100
00000000

TIL k
00000000
11111111
00000000
00000000
00000000
11111111
11111111
00000000

TIL n
11111111
00000000
11000011
00100100
00011000
00000000
00000000
00000000
>
11111111
00000000
01110000
10001000
00000111
00000000
00000000
00000000

TIL o
00000000
10000001
00111100
01100110
01000010
01000010
01100110
00111100

TIL p
00000000
00000000
11111111
00000000
11111111
11111111
00000000
00000000
WAL true

TIL q
00000000
00000000
11111111
00000000
00000000
11111111
11111111
11111111
WAL true

TIL r
11110000
11111000
00111100
10011100
11011100
01011100
01011100
01011100
WAL true

TIL s
00111111
01111111
11100000
11001111
11011000
11010000
11010000
11010000

TIL t
01011100
01011100
01011100
01011100
01011100
01011100
01011100
01011100
WAL true

TIL u
01011100
01011100
01011100
11011100
10011100
00111100
11111000
11110000
WAL true

TIL v
11010000
11010000
11010000
11011000
11001111
11100000
01111111
00111111

TIL w
00000000
11111111
00000000
00000000
00000000
00000000
00000000
00000000

TIL x
00110100
00110100
00110100
00110100
00110100
00110100
00110100
00110100
WAL true

TIL y
11111111
00000000
10000001
10000001
10000001
10000001
10000001
01111110

TIL z
00000000
11111100
00001110
00000110
00000110
10000110
11000110
01000110

TIL 1a
01111110
11000011
10000001
11000011
11111111
01111110
00000000
00000000

TIL 1b
00000000
00000000
00000000
00000000
00000000
00000000
00000000
00000000
WAL true

TIL 1c
00000000
11110111
11110111
11110111
00000000
10111111
10111111
10111111
NAME brick in

TIL 1d
00000001
00000001
00000001
00000001
00000001
00000001
00000001
00000001
WAL true

TIL 1e
00111100
00111100
00100100
00111100
00100100
00100100
00100100
01111110
WAL true

TIL 1f
00000000
00100100
00100100
00100100
00100100
00111100
00111100
00111100
WAL true

TIL 1g
01111111
01000000
01111111
00100000
11100000
10111111
10111111
10000000
WAL true

TIL 1h
00000000
00000000
01111111
01111111
01111111
01111111
01111111
01111111

TIL 1i
11111111
10001000
10001000
10001000
11111111
01000000
01000000
01000000
WAL true

TIL 1j
10000000
10000000
10000000
10000000
10000000
10000000
10000000
10000000
WAL true

TIL 1k
01000110
01000011
01000000
01000000
01100000
01111111
00111111
00000000

TIL 1l
11111111
10000001
10111101
10111101
10000001
10100101
10100101
10000001

TIL 1m
11111111
00001000
00001000
00001000
11111111
00000000
00000000
00000000
WAL true

TIL 1n
00111100
01110110
01100010
01100010
01100010
01100010
01110110
00111100

TIL 1o
01111111
00001000
00001000
00001000
00001111
00000000
00000000
00000000
WAL true

TIL 1p
11111000
00001000
00001000
00001000
11111000
00000000
00000000
00000000
WAL true

TIL 1q
01000110
11000111
01000110
00000000
00000000
11111111
11111111
00000000

TIL 1r
00000000
11111111
00000000
00000000
00000000
11000111
11000111
01000110

TIL 1s
11111000
00001000
00001000
00001000
11111111
01000001
01000001
01000001
WAL true

TIL 1t
00000000
01111110
11111111
11000011
10000001
11000011
01111110
00000000

TIL 1u
11111111
00001001
00001001
00001001
11111111
00000000
00000000
00000000
WAL true

TIL 1v
01000110
11100110
00000110
00000110
00000110
11100110
11100110
01000110

TIL 1w
00100000
01100000
01100000
00110000
00110000
00110000
01110010
00000000
>
00100000
00110000
00110000
00110000
01100000
01100010
01110010
00000000

TIL 1x
00000000
00100000
01100000
01100000
01110000
00110010
01110010
00000000
>
00100000
01100000
01100000
00110000
00110000
00110000
01110010
00000000

TIL 1y
01000110
01000111
01000000
01000000
01000000
01000111
01000111
01000110

TIL 2a
00000000
01000010
01111110
01000010
00000000
01000010
01111110
01000010

TIL 2b
00000000
00111111
01111111
01000000
01001010
01001010
01110101
00110101

TIL 2c
00000000
11111100
11111110
00000010
01010010
01010010
10101110
10101100

TIL 2d
00000000
11110111
11110111
11110111
00000000
10011111
10011111
10011111
WAL true

TIL 2e
00111100
11111001
11110011
11000111
00000000
10111111
10111111
10111111
WAL true

TIL 2f
00100110
00100110
00100110
00100110
00100110
01101110
11001110
10011100
WAL true

TIL 2g
00111100
10011111
11001111
11100011
00000000
10111111
10111111
10111111
WAL true

TIL 2h
11111111
00000000
11111111
11111111
00000000
10111111
10111111
10111111

TIL 2i
01100100
01100100
01100100
01100100
01100100
01110110
01110011
00111001
WAL true

TIL 2j
00000000
11111000
11100011
11001111
00011111
10111100
00111000
01110001

TIL 2k
00000000
00000000
11111111
11111111
00000000
00000000
00000000
11111111

TIL 2l
00000000
00011111
11000111
11110011
11111000
00111101
00011100
10001110

TIL 2m
00000000
00000000
00000000
00000000
00000000
00000000
00000000
11111111

TIL 2o
11001110
01100110
00100110
00100110
00100110
00100110
00100110
00100110

TIL 2p
01110011
01100110
01100100
01100100
01100100
01100100
01100100
01100100

TIL 2q
00000000
00000000
11111111
11111111
11100011
00110001
11111111
10000011

TIL 2r
00000000
00000000
11111111
11111111
11111111
11111111
00001111
00011111

TIL 2s
00000000
00011100
00011100
00011100
01111111
00111110
00011100
00001000

TIL 2t
00000000
01111111
01111111
01111111
01111111
01111111
01111111
01111111

TIL 2u
00000000
00000000
11011001
01010101
01010101
11011001
00010101
00000000
>
00000000
00000000
00000000
00000000
00000000
00000000
00000000
00000000

TIL 2v
00000000
00000000
11001100
00010001
10011101
00000100
11011001
00000000
>
00000000
00000000
00000000
00000000
00000000
00000000
00000000
00000000

TIL 2w
00000000
00000000
00000001
00000001
00000001
00000001
00000001
00000000
>
00000000
00000000
00000000
00000000
00000000
00000000
00000000
00000000

TIL 2x
00000000
00000000
11000000
00000000
11000000
01000000
10000000
00000000
>
00000000
00000000
00000000
00000000
00000000
00000000
00000000
00000000

TIL 2y
00000000
00000000
00101011
00101010
00101011
00101010
00010011
00000000

TIL 2z
00000000
00000000
10101011
00101010
00110011
00101000
10101011
00000000

SPR 10
01010110
01011011
01001100
01010000
01011100
01100011
00111111
00000000
DLG SPR_4
POS 2 5,9

SPR 12
00110000
00011000
00100100
00111110
01011100
11000001
11111111
01111110
DLG SPR_g
POS p 13,6

SPR 13
00000000
00000000
00011000
01101111
10110000
10000000
10101010
01010101
POS 3 2,5

SPR 14
00001111
00010000
00100110
11001001
00001001
00000110
10100000
01011000
>
00001111
00010000
00100000
11001111
00001001
00000000
10100000
01011000
POS 3 3,5

SPR 15
00100000
00011111
00000000
00000000
00000000
00000000
00000000
00000000
DLG SPR_e
POS 3 2,6

SPR 16
00000000
11111110
00011111
00000000
00000000
00000000
00000000
00000000
POS 3 3,6

SPR 17
10000000
01000000
00100111
00101100
00000000
00000000
00000000
00000000
POS 3 4,5

SPR 19
00000000
10001001
11111111
10001001
00000000
00000000
00000000
00000000
POS 3 5,5

SPR 20
00000000
00111111
01111111
01111111
01111111
01111111
01111111
01111110
POS 15 7,13

SPR 21
00000000
11111111
11111111
11111111
11111111
11111111
11111111
00000000
POS 15 8,13

SPR 22
00000000
11111000
11111100
11111100
11111100
11111100
11111000
00000000
>
00000000
11111110
11111111
11111111
11111111
11111111
11111110
00000000
NAME s2e
POS 15 9,13

SPR 23
01111110
01111110
01111110
01111110
01111110
01111110
01111110
01111110
POS 16 7,15

SPR 24
01111110
01111110
01111110
01111110
01111110
01111110
01111110
01111110
POS 16 7,14

SPR 25
00000000
00111111
01111111
01111111
01111111
01111111
01111111
01111110
POS 16 7,13

SPR 26
00000000
11111111
11111111
11111111
11111111
11111111
11111111
00000000
POS 16 8,13

SPR 27
01111110
11111110
11111110
11111110
11111110
11111110
11111100
00000000
POS 16 9,13

SPR 28
00000000
00000000
00111100
01111110
01111110
01111110
01111110
01111110
>
00111100
01111110
01111110
01111110
01111110
01111110
01111110
01111110
NAME s2t
POS 16 9,12

SPR 29
01111110
01111110
01111110
01111110
01111110
01111110
01111110
01111110
POS 17 7,15

SPR 30
00000000
11111111
11111111
11111111
11111111
11111111
11111111
00000000
POS 1a 8,13

SPR 31
01111110
11111110
11111110
11111110
11111110
11111110
11111100
00000000
POS 1b 9,10

SPR 32
00000000
11111100
11111110
11111110
11111110
11111110
11111110
01111110
POS 1a 9,12

SPR 33
01111110
01111111
01111111
01111111
01111111
01111111
00111111
00000000
POS 1a 8,12

SPR 34
01111110
01111110
01111110
01111110
01111110
01111110
01111110
01111110
POS 1a 8,11

SPR 35
00000000
00111111
01111111
01111111
01111111
01111111
01111111
01111110
POS 1a 8,10

SPR 36
00000000
11111000
11111100
11111100
11111100
11111100
11111000
00000000
>
00000000
11111110
11111111
11111111
11111111
11111111
11111110
00000000
NAME s3p
POS 1a 9,10

SPR 37
01111110
01111110
01111110
01111110
01111110
01111110
01111110
01111110
POS 1b 7,15

SPR 38
01111110
01111110
01111110
01111110
01111110
01111110
01111110
01111110
POS 1b 7,14

SPR 39
00000000
00111111
01111111
01111111
01111111
01111111
01111111
01111110
POS 1b 7,13

SPR 40
01111110
01111111
01111111
01111111
01111111
01111111
00111111
00000000
POS 1d 8,12

SPR 41
01111110
01111110
01111110
01111110
01111110
01111110
01111110
01111110
POS 1d 8,11

SPR 42
00000000
00111111
01111111
01111111
01111111
01111111
01111111
01111110
POS 1d 8,10

SPR 43
01111110
11111110
11111110
11111110
11111110
11111110
11111100
00000000
POS 1d 9,10

SPR 44
00000000
11111100
11111110
11111110
11111110
11111110
11111110
01111110
POS 1d 9,9

SPR 45
00000000
11111111
11111111
11111111
11111111
11111111
11111111
00000000
POS 1d 8,9

SPR 46
00000000
00011111
00111111
00111111
00111111
00111111
00011111
00000000
>
00000000
01111111
11111111
11111111
11111111
11111111
01111111
00000000
NAME s4d
POS 1d 7,9

SPR 47
01111110
01111110
01111110
01111110
01111110
01111110
01111110
01111110
POS 1e 7,15

SPR 48
01111110
01111110
01111110
01111110
01111110
01111110
01111110
01111110
POS 1e 7,14

SPR 49
00000000
00111111
01111111
01111111
01111111
01111111
01111111
01111110
POS 1e 7,13

SPR 50
00000000
00000000
00111100
01111110
01111110
01111110
01111110
01111110
>
00111100
01111110
01111110
01111110
01111110
01111110
01111110
01111110
NAME s5o
POS 1f 6,8

SPR 51
01111110
01111110
01111110
01111110
01111110
01111110
01111110
01111110
POS 1g 7,15

SPR 52
01111110
01111110
01111110
01111110
01111110
01111110
01111110
01111110
POS 1g 7,14

SPR 53
00000000
00111111
01111111
01111111
01111111
01111111
01111111
01111110
POS 1g 7,13

SPR 54
00000000
11111111
11111111
11111111
11111111
11111111
11111111
00000000
POS 1g 8,13

SPR 55
01111110
11111110
11111110
11111110
11111110
11111110
11111100
00000000
POS 1g 9,13

SPR 56
00000000
11111100
11111110
11111110
11111110
11111110
11111110
01111110
POS 1g 9,12

SPR 57
01111110
01111111
01111111
01111111
01111111
01111111
00111111
00000000
POS 1g 8,12

SPR 58
01111110
01111110
01111110
01111110
01111110
01111110
01111110
01111110
POS 1g 8,11

SPR 59
00000000
00111111
01111111
01111111
01111111
01111111
01111111
01111110
POS 1g 8,10

SPR 60
00000000
00000000
00010001
00010001
00010001
00010001
11011101
00000000
POS 1j 5,3

SPR 61
00000000
00000000
11010001
01010001
01010101
01010101
11001010
00000000
POS 1j 6,3

SPR 63
00000000
00000000
11101100
10001010
11101010
10001100
10001010
00000000
POS 1j 10,3

SPR 64
00000000
00000000
11101110
10101000
10101000
10101010
11101110
00000000
POS 1j 11,3

SPR 65
00000000
00000000
00000001
00000001
00000001
00000000
00000000
00000000
POS 1j 3,3

SPR A
00000000
01100110
01011010
00111100
00100100
01111110
11111111
00100100
>
11100111
10011001
01111110
01000010
11000011
11111111
10100101
00000000
POS 1j 8,3

SPR f
00000001
11000011
11000001
10010101
11101011
01111110
11111111
10100101
>
10000000
11000011
10000011
10101001
11010111
01111110
01111110
01000010
NAME crab
DLG SPR_7
POS g 11,13

SPR g
00000000
00111000
01011100
01011111
00111010
00000000
00000000
00000000
>
00111000
01001101
01011110
00111101
00000000
00000000
00000000
00000000
NAME fish
DLG SPR_9
POS o 7,11

SPR i
00000000
00000000
00000000
00111000
00101010
01111110
00111110
00111110
>
00000000
00000000
00000000
00111000
01101000
00111110
00111110
00111110
NAME duck
DLG SPR_b
POS p 6,6

SPR l
00000000
00000000
00000000
00110100
01011000
00110100
00000000
00000000
>
00000000
00000000
00000000
00000000
00110100
01101000
00110100
00000000
NAME fishl
DLG SPR_a
POS 5 9,4

SPR m
00000000
00011110
00110001
11011111
11100000
00111111
00110110
00000000
>
00000000
00000000
00011110
00110001
11011111
11100000
00111111
01100011
NAME turtle
DLG SPR_c
POS l 8,10

SPR n
00111100
01000010
01000010
00111100
01010100
01010010
00001000
00000000
>
00000000
01111110
10000001
10000001
01111110
00101001
01001001
00010000
NAME med
DLG SPR_d
POS i 8,10

SPR o
00011100
00110000
01001010
10100110
01001010
00110000
00011000
00000000
>
00001000
00011000
00110000
01001010
10100100
01001010
00110000
00010000
NAME fisht
DLG SPR_f
POS 9 10,9

SPR p
00000000
00001000
00010000
00000000
01000000
00000010
00000000
00000000
>
00000000
00000000
01000000
00001000
00000000
00100000
00010000
00000000
NAME flyes
POS 2 5,4

SPR q
00000000
00000000
00000000
00001010
00000110
10111011
01111100
00100100
>
00000000
00000000
00000000
00000100
00000110
00111010
11111101
00100100
NAME rat
DLG SPR_2
POS 1 3,6

SPR y
00111000
01000100
10110010
10101010
10001010
01110001
00000111
11111111
>
00111000
01000100
10110010
10101010
10001010
01110001
00000011
01111111
POS t 12,13

SPR z
00000000
00000010
01010111
01010010
01110000
11110010
10100010
11110010
>
00000000
01010000
01010010
01010101
11110010
10100000
11110010
11100010
DLG SPR_8
POS t 13,13

SPR 1a
00000000
00010000
11111110
00010001
00000000
00000000
00000000
00000000
POS 3 6,5

SPR 1b
00000000
00000000
00000000
10100000
01110000
00001110
00000001
00000000
POS 3 7,5

SPR 1c
00000000
00000000
00000000
00000000
00000000
01000000
11100000
00011110
POS 3 8,5

SPR 1e
11110000
00001111
11111111
00000000
00000000
00000000
00000000
00000000
POS 3 9,6

SPR 1f
00000001
00000000
11111111
00000000
00000000
00000000
00000000
00000000
POS 3 8,6

SPR 1g
00010000
00011000
00010000
01010111
10000001
11111111
11111110
00000000
>
00000000
00010000
00011100
00010000
11010110
10000001
11111111
01111111
DLG SPR_1
POS 1 10,7

SPR 1h
00000000
00001100
11010001
00010001
00010000
00010010
00100100
01000100
POS 3 4,6

SPR 1i
00000000
11001100
00110011
11111111
01111111
00000000
00000000
00000000
POS 3 5,6

SPR 1j
00000000
11001100
00110011
11111111
11111111
00000000
00000000
00000000
POS 3 6,6

SPR 1k
00000000
11011000
00100011
11100011
10100000
00100100
00100100
01001100
POS 3 7,6

SPR 1l
00000000
11111000
00000000
00000000
00000000
00000000
00000000
00000000
POS 3 10,6

SPR 1m
00000000
00000000
00000000
01111110
10010001
11111111
10010101
10010001
NAME treasure
DLG SPR_6
POS x 5,11

SPR 1n
00000000
00000000
00000000
00000000
00000000
00000000
00000000
01000000
POS 3 9,5

SPR 1o
00000000
00000000
01111010
10100111
11101100
01111000
00000000
00000000
>
00000000
00000000
00000000
11111101
10110110
11100101
01111000
00000000
DLG SPR_h
POS z 11,8

SPR 1p
00000000
00000000
00111100
01111110
01111110
01111110
01111110
01111110
>
00111100
01111110
01111110
01111110
01111110
01111110
01111110
01111110
POS 12 7,14

SPR 1q
00000000
00000000
00111100
01111110
01111110
01111110
01111110
01111110
>
00111100
01111110
01111110
01111110
01111110
01111110
01111110
01111110
POS 13 7,13

SPR 1r
01111110
01111110
01111110
01111110
01111110
01111110
01111110
01111110
DLG SPR_3
POS 12 7,15

SPR 1s
01111110
01111110
01111110
01111110
01111110
01111110
01111110
01111110
POS 13 7,14

SPR 1t
01111110
01111110
01111110
01111110
01111110
01111110
01111110
01111110
POS 13 7,15

SPR 1u
01111110
01111110
01111110
01111110
01111110
01111110
01111110
01111110
POS 14 7,15

SPR 1v
01111110
01111110
01111110
01111110
01111110
01111110
01111110
01111110
POS 14 7,14

SPR 1w
00000000
00111111
01111111
01111111
01111111
01111111
01111111
01111110
POS 14 7,13

SPR 1x
00000000
11111000
11111100
11111100
11111100
11111100
11111000
00000000
>
00000000
11111110
11111111
11111111
11111111
11111111
11111110
00000000
POS 14 8,13

SPR 1y
01111110
01111110
01111110
01111110
01111110
01111110
01111110
01111110
POS 15 7,15

SPR 1z
01111110
01111110
01111110
01111110
01111110
01111110
01111110
01111110
POS 15 7,14

SPR 2a
01111110
01111110
01111110
01111110
01111110
01111110
01111110
01111110
POS 17 7,14

SPR 2b
00000000
00111111
01111111
01111111
01111111
01111111
01111111
01111110
POS 17 7,13

SPR 2c
00000000
11111111
11111111
11111111
11111111
11111111
11111111
00000000
POS 17 8,13

SPR 2d
01111110
11111110
11111110
11111110
11111110
11111110
11111100
00000000
POS 17 9,13

SPR 2e
00000000
11111100
11111110
11111110
11111110
11111110
11111110
01111110
POS 17 9,12

SPR 2f
00000000
00011111
00111111
00111111
00111111
00111111
00011111
00000000
>
00000000
01111111
11111111
11111111
11111111
11111111
01111111
00000000
POS 17 8,12

SPR 2g
01111110
01111110
01111110
01111110
01111110
01111110
01111110
01111110
POS 18 7,15

SPR 2h
01111110
01111110
01111110
01111110
01111110
01111110
01111110
01111110
POS 18 7,14

SPR 2i
00000000
00111111
01111111
01111111
01111111
01111111
01111111
01111110
POS 18 7,13

SPR 2j
00000000
11111111
11111111
11111111
11111111
11111111
11111111
00000000
POS 18 8,13

SPR 2k
01111110
11111110
11111110
11111110
11111110
11111110
11111100
00000000
POS 18 9,13

SPR 2l
00000000
11111100
11111110
11111110
11111110
11111110
11111110
01111110
POS 18 9,12

SPR 2m
01111110
01111111
01111111
01111111
01111111
01111111
00111111
00000000
POS 18 8,12

SPR 2n
00000000
00000000
00111100
01111110
01111110
01111110
01111110
01111110
>
00111100
01111110
01111110
01111110
01111110
01111110
01111110
01111110
POS 18 8,11

SPR 2o
01111110
01111110
01111110
01111110
01111110
01111110
01111110
01111110
POS 19 7,15

SPR 2p
01111110
01111110
01111110
01111110
01111110
01111110
01111110
01111110
POS 19 7,14

SPR 2q
00000000
00111111
01111111
01111111
01111111
01111111
01111111
01111110
POS 19 7,13

SPR 2r
00000000
11111111
11111111
11111111
11111111
11111111
11111111
00000000
POS 19 8,13

SPR 2s
01111110
11111110
11111110
11111110
11111110
11111110
11111100
00000000
POS 19 9,13

SPR 2t
00000000
11111100
11111110
11111110
11111110
11111110
11111110
01111110
POS 19 9,12

SPR 2u
01111110
01111111
01111111
01111111
01111111
01111111
00111111
00000000
POS 19 8,12

SPR 2v
01111110
01111110
01111110
01111110
01111110
01111110
01111110
01111110
POS 19 8,11

SPR 2w
00000000
00000000
00111100
01111110
01111110
01111110
01111110
01111110
>
00111100
01111110
01111110
01111110
01111110
01111110
01111110
01111110
POS 19 8,10

SPR 2x
01111110
01111110
01111110
01111110
01111110
01111110
01111110
01111110
POS 1a 7,14

SPR 2y
01111110
01111110
01111110
01111110
01111110
01111110
01111110
01111110
POS 1a 7,15

SPR 2z
00000000
00111111
01111111
01111111
01111111
01111111
01111111
01111110
POS 1a 7,13

SPR 3a
00000000
11111111
11111111
11111111
11111111
11111111
11111111
00000000
POS 1b 8,13

SPR 3b
01111110
11111110
11111110
11111110
11111110
11111110
11111100
00000000
POS 1b 9,13

SPR 3c
00000000
11111100
11111110
11111110
11111110
11111110
11111110
01111110
POS 1b 9,12

SPR 3d
01111110
01111111
01111111
01111111
01111111
01111111
00111111
00000000
POS 1b 8,12

SPR 3e
01111110
01111110
01111110
01111110
01111110
01111110
01111110
01111110
POS 1b 8,11

SPR 3f
00000000
00111111
01111111
01111111
01111111
01111111
01111111
01111110
POS 1b 8,10

SPR 3g
00000000
00000000
00111100
01111110
01111110
01111110
01111110
01111110
>
00111100
01111110
01111110
01111110
01111110
01111110
01111110
01111110
POS 1b 9,9

SPR 3h
01111110
11111110
11111110
11111110
11111110
11111110
11111100
00000000
POS 1a 9,13

SPR 3i
01111110
01111110
01111110
01111110
01111110
01111110
01111110
01111110
POS 1c 7,15

SPR 3j
01111110
01111110
01111110
01111110
01111110
01111110
01111110
01111110
POS 1c 7,14

SPR 3k
00000000
00111111
01111111
01111111
01111111
01111111
01111111
01111110
POS 1c 7,13

SPR 3l
00000000
11111111
11111111
11111111
11111111
11111111
11111111
00000000
POS 1c 8,13

SPR 3m
01111110
11111110
11111110
11111110
11111110
11111110
11111100
00000000
POS 1c 9,13

SPR 3n
00000000
11111100
11111110
11111110
11111110
11111110
11111110
01111110
POS 1c 9,12

SPR 3o
00000000
00111111
01111111
01111111
01111111
01111111
01111111
01111110
POS 1c 8,10

SPR 3p
01111110
01111111
01111111
01111111
01111111
01111111
00111111
00000000
POS 1c 8,12

SPR 3q
01111110
01111110
01111110
01111110
01111110
01111110
01111110
01111110
POS 1c 8,11

SPR 3r
01111110
11111110
11111110
11111110
11111110
11111110
11111100
00000000
POS 1c 9,10

SPR 3s
00000000
11111100
11111110
11111110
11111110
11111110
11111110
01111110
POS 1c 9,9

SPR 3t
00000000
00011111
00111111
00111111
00111111
00111111
00011111
00000000
>
00000000
01111111
11111111
11111111
11111111
11111111
01111111
00000000
POS 1c 8,9

SPR 3u
01111110
01111110
01111110
01111110
01111110
01111110
01111110
01111110
POS 1d 7,15

SPR 3v
01111110
01111110
01111110
01111110
01111110
01111110
01111110
01111110
POS 1d 7,14

SPR 3w
00000000
00111111
01111111
01111111
01111111
01111111
01111111
01111110
POS 1d 7,13

SPR 3x
00000000
11111111
11111111
11111111
11111111
11111111
11111111
00000000
POS 1d 8,13

SPR 3y
01111110
11111110
11111110
11111110
11111110
11111110
11111100
00000000
POS 1d 9,13

SPR 3z
00000000
11111100
11111110
11111110
11111110
11111110
11111110
01111110
POS 1d 9,12

SPR 4a
00000000
11111111
11111111
11111111
11111111
11111111
11111111
00000000
POS 1e 8,13

SPR 4b
01111110
11111110
11111110
11111110
11111110
11111110
11111100
00000000
POS 1e 9,13

SPR 4c
00000000
11111100
11111110
11111110
11111110
11111110
11111110
01111110
POS 1e 9,12

SPR 4d
01111110
01111111
01111111
01111111
01111111
01111111
00111111
00000000
POS 1e 8,12

SPR 4e
01111110
01111110
01111110
01111110
01111110
01111110
01111110
01111110
POS 1e 8,11

SPR 4f
00000000
00111111
01111111
01111111
01111111
01111111
01111111
01111110
POS 1e 8,10

SPR 4g
01111110
11111110
11111110
11111110
11111110
11111110
11111100
00000000
POS 1e 9,10

SPR 4h
00000000
11111100
11111110
11111110
11111110
11111110
11111110
01111110
POS 1e 9,9

SPR 4i
00000000
11111111
11111111
11111111
11111111
11111111
11111111
00000000
POS 1e 8,9

SPR 4j
00000000
11111111
11111111
11111111
11111111
11111111
11111111
00000000
POS 1e 7,9

SPR 4k
00000000
00011111
00111111
00111111
00111111
00111111
00011111
00000000
>
00000000
01111111
11111111
11111111
11111111
11111111
01111111
00000000
POS 1e 6,9

SPR 4l
01111110
01111110
01111110
01111110
01111110
01111110
01111110
01111110
POS 1f 7,15

SPR 4m
01111110
01111110
01111110
01111110
01111110
01111110
01111110
01111110
POS 1f 7,14

SPR 4n
00000000
00111111
01111111
01111111
01111111
01111111
01111111
01111110
POS 1f 7,13

SPR 4o
00000000
11111111
11111111
11111111
11111111
11111111
11111111
00000000
POS 1f 8,13

SPR 4p
01111110
11111110
11111110
11111110
11111110
11111110
11111100
00000000
POS 1f 9,13

SPR 4q
00000000
11111100
11111110
11111110
11111110
11111110
11111110
01111110
POS 1f 9,12

SPR 4r
01111110
01111111
01111111
01111111
01111111
01111111
00111111
00000000
POS 1f 8,12

SPR 4s
01111110
01111110
01111110
01111110
01111110
01111110
01111110
01111110
POS 1f 8,11

SPR 4t
00000000
00111111
01111111
01111111
01111111
01111111
01111111
01111110
POS 1f 8,10

SPR 4u
01111110
11111110
11111110
11111110
11111110
11111110
11111100
00000000

SPR 4v
01111110
11111110
11111110
11111110
11111110
11111110
11111100
00000000
POS 1f 9,10

SPR 4w
00000000
11111100
11111110
11111110
11111110
11111110
11111110
01111110
POS 1f 9,9

SPR 4x
00000000
11111111
11111111
11111111
11111111
11111111
11111111
00000000
POS 1f 8,9

SPR 4y
00000000
11111111
11111111
11111111
11111111
11111111
11111111
00000000
POS 1f 7,9

SPR 4z
01111110
01111111
01111111
01111111
01111111
01111111
00111111
00000000
POS 1f 6,9

SPR 5a
01111110
11111110
11111110
11111110
11111110
11111110
11111100
00000000
POS 1g 9,10

SPR 5b
00000000
11111100
11111110
11111110
11111110
11111110
11111110
01111110
POS 1g 9,9

SPR 5c
00000000
11111111
11111111
11111111
11111111
11111111
11111111
00000000
POS 1g 8,9

SPR 5d
00000000
11111111
11111111
11111111
11111111
11111111
11111111
00000000
POS 1g 7,9

SPR 5e
01111110
01111111
01111111
01111111
01111111
01111111
00111111
00000000
POS 1g 6,9

SPR 5f
00000000
00111111
01111111
01111111
01111111
01111111
01111111
01111110
POS 1g 6,8

SPR 5g
00000000
11111000
11111100
11111100
11111100
11111100
11111000
00000000
>
00000000
11111110
11111111
11111111
11111111
11111111
11111110
00000000
POS 1g 7,8

SPR 5h
01111110
01111110
01111110
01111110
01111110
01111110
01111110
01111110
POS 1h 7,15

SPR 5i
01111110
01111110
01111110
01111110
01111110
01111110
01111110
01111110
POS 1h 7,14

SPR 5j
00000000
00111111
01111111
01111111
01111111
01111111
01111111
01111110
POS 1h 7,13

SPR 5k
00000000
11111111
11111111
11111111
11111111
11111111
11111111
00000000
POS 1h 8,13

SPR 5l
01111110
11111110
11111110
11111110
11111110
11111110
11111100
00000000
POS 1h 9,13

SPR 5m
00000000
11111100
11111110
11111110
11111110
11111110
11111110
01111110
POS 1h 9,12

SPR 5n
01111110
01111111
01111111
01111111
01111111
01111111
00111111
00000000
POS 1h 8,12

SPR 5o
01111110
01111110
01111110
01111110
01111110
01111110
01111110
01111110
POS 1h 8,11

SPR 5p
00000000
00111111
01111111
01111111
01111111
01111111
01111111
01111110
POS 1h 8,10

SPR 5q
01111110
11111110
11111110
11111110
11111110
11111110
11111100
00000000
POS 1h 9,10

SPR 5r
00000000
11111100
11111110
11111110
11111110
11111110
11111110
01111110
POS 1h 9,9

SPR 5s
00000000
11111111
11111111
11111111
11111111
11111111
11111111
00000000
POS 1h 8,9

SPR 5t
00000000
11111111
11111111
11111111
11111111
11111111
11111111
00000000
POS 1h 7,9

SPR 5u
00000000
00111111
01111111
01111111
01111111
01111111
01111111
01111110
POS 1h 6,8

SPR 5v
01111110
01111111
01111111
01111111
01111111
01111111
00111111
00000000
POS 1h 6,9

SPR 5w
01111110
11111110
11111110
11111110
11111110
11111110
11111100
00000000
POS 1h 7,8

SPR 5x
00000000
00000000
00111100
01111110
01111110
01111110
01111110
01111110
>
00111100
01111110
01111110
01111110
01111110
01111110
01111110
01111110
POS 1h 7,7

SPR 5y
01010110
01011011
01001100
01010000
01011100
01100011
00111111
00000000
DLG SPR_5
POS 1i 5,9

SPR 5z
00000000
00000000
01011101
01010001
11011001
10010001
10011101
00000000
POS 1j 4,3

ITM 0
00000000
00000000
00000000
00110000
01010100
00111100
00111100
00000000
>
00000000
00000000
00000000
00000000
00110000
01010100
00111100
00111100
NAME rduck
DLG ITM_0

ITM 1
00111000
01000100
01000100
00111000
00000000
00010000
00010000
00011000
>
00111000
00101000
00111000
00000000
00010000
00010000
00010000
00000000
NAME key
DLG ITM_3

ITM 3
00000000
11000011
10100101
10100101
01100110
00011000
00100100
01011010
>
00000000
00000000
01100110
10011001
11100111
00100100
01011010
00000000
NAME fly
DLG ITM_1

ITM 4
00000000
00000000
00000000
00000000
00010000
00000000
00000000
00000000
>
00000000
00000000
00000000
00010000
00101000
00010000
00000000
00000000
NAME magic
DLG ITM_6

ITM 5
00000000
00000000
00000000
00000000
00000000
00000000
00000000
00000000
NAME start
DLG ITM_2

ITM 6
00000000
00000000
00000000
00000000
00000000
00000000
00000000
00000000
DLG ITM_4

ITM 7
00000000
00000000
00000000
00000000
00000000
00000000
00000000
00000000
DLG ITM_5

ITM 8
00000000
00000000
00000000
00000000
00000000
00000000
00000000
00000000
DLG ITM_7

DLG SPR_0
"""
I'm a cat
"""

DLG ITM_0
{clr2}You found a rubber duck.{clr2}

DLG SPR_1
{clr3}Some garbage. It looks a bit like a boat.{clr3}

DLG SPR_2
"""
{
  - tdone == 1 ?
    {wvy}Wow!{wvy} You did it! Not bad. Do you want to join my crew, frog? (end "The rat Pirrrat and the yellow frog have become a great team since then. They bought a bigger ship and went in search of adventure.")
  - else ?
    {sequence
      - {clr3}{shk}Garbage{shk}?! {shk}YOU{shk} are {shk}garbage{shk}, but not my great {shk}ship{shk}!{clr3}
      - {clr3}And you are again wrong. I'm not a rat, I'm a {shk}Pirrrat{shk}!{clr3}
      - {clr3}What? I'm stopping you? I know you can jump over me.{clr3}
      - {clr3}Hey, if you want, you can search my treasure. I forgot where I had hidden it!{clr3}
      - {clr3}And I lost the key. First find him.{clr3}
      - {clr3}Well, did you find the treasure? {shk}Haha!{shk} I knew it.{clr3}
    }
}
"""

DLG SPR_3
"""
{clr3}Find and remember the right path to the fly! If you make a mistake, the fly will fly away and you can try again.
 Tip: The first move is "up".{clr3}
"""

DLG ITM_1
{clr3}Yummy.{clr3}

DLG SPR_4
"""
{sequence
  - {clr3}What's this? Oh no.{clr3}
  - {clr3}I can not pass here. And don't want to.{clr3}
}
"""

DLG SPR_5
{clr3}I can not pass here. And don't want to.{clr3}

DLG ITM_2
{clr3}One child had a frog. Yellow frog. He cared about the frog and they were happy together. But one day his grandmother came to visit. She did not like the frog, especially its yellow color. Then yellow frog met the unfortunate fate of being {clr3} {wvy}{clr2}flushed down the toilet...{clr2}{wvy}

DLG SPR_6
"""
{
  - {item "key"} == 1 ?
    {clr3}{wvy}Opening...{wvy}
    {br}Yes! I get it.{tdone = 1}{clr3}
  - else ?
    {clr3}Treasure found! But I need a key.{clr3}
}
"""

DLG ITM_3
{clr2}You got a key.{clr2}

DLG SPR_7
"""
{
  - ask == 1 ?
    {sequence
      - {clr3}What? Magic bubbles? You're crazy!{clr3}
      - {clr3}Hey, you! Do not bother me!{clr3}
      - {clr3}I'm sick of you!{clr3}
    }
  - else ?
    {sequence
      - {clr3}Come here, little fishes!{clr3}
      - {clr3}Hey, you! Do not bother me!{clr3}
      - {clr3}I'm sick of you!{clr3}
    }
}
"""

DLG SPR_8
"""
{
  - mb == 5 ?
    {clr3}Well. Let's start!
    {br}{wvy}...{wvy}{br}
    How do you {wvy}feel{wvy}?{clr3}(end "The next moment, the frog was back at home. Now it was not a yellow frog, but a red cat. Everyone was very happy - the frog (cat), the child, and even his grandmother. She loves cats.")
  - else ?
    {sequence
      - {clr3}I'm a big snail. More than just a snail...{clr3}
      - {clr3}And I'm also a little wizard. See this thing?{clr3}
      - {clr3}I think I can help you. Bring me 5 magic bubbles and I'll try to send you home.{clr3}
      - {clr3}Can not find all the bubbles? Ask other creatures, maybe they found it.{clr3}{ask = 1}
    }
}
"""

DLG SPR_9
"""
{
  - ask == 1 ?
    {sequence
      - {clr3}No, I did not see any strange bubbles.{clr3}
      - {clr3}This is not such a bad place, if you get used to it.{clr3}
    }
  - else ?
    {sequence
      - {clr3}Oh, the newcomer. Hi.{clr3}
      - {clr3}Wanna go back home? Forget it, it's impossible.{clr3}
      - {clr3}This is not such a bad place, if you get used to it.{clr3}
    }
}
"""

DLG ITM_4
{clr3}I hear something.{clr3}

DLG ITM_5
{clr3}It's too dark. How do I find the way?{clr3}

DLG ITM_6
{clr2}You found a strange bubble.{clr2}{mb = mb + 1}

DLG SPR_a
"""
{
  - ask == 1 ?
    {sequence
      - {clr3}I know nothing.{clr3}
      - {clr3}Don't tell anyone that I'm here.{clr3}
    }
  - else ?
    {sequence
      - {clr3}I'm hiding.{clr3}
      - {clr3}Don't tell anyone that I'm here.{clr3}
    }
}
"""

DLG SPR_b
"""
{
  - {item "rduck"} == 1 ?
    {clr3}Oh thank you! This is my child! But where is the second?{clr3}
  - {item "rduck"} == 2 ?
    {sequence
      - {clr3}My dear children! Finally they were found. Thank you very much, frog!{clr3}
      - {clr3}By the way, I heard that somewhere near there is a path to treasure.{clr3}
    }
  - else ?
    {sequence
      - {clr3}You reminded me of my children. They are yellow, like you...{clr3}
      - {clr3}I have not seen them since I got here. In this {shk}awful{shk} place.{clr3}
      - {clr3}Can you help me find them? Two small ducks.{clr3}
    }
}
"""

DLG SPR_c
"""
{
  - ask == 1 ?
    {sequence
      - {clr3}No bubbles, only the key.{clr3}
      - {wvy}{clr3}How long ago it was...{clr3}{wvy}
    }
  - else ?
    {sequence
      - {clr3}You can take the key that I found a few {wvy}days...{wvy} or {wvy}weeks...{wvy} or {wvy}months...{wvy} ago.{clr3}
      - {clr3}I {wvy}remember{wvy} the time when I lived in a pond. There were many frogs, like you, but green.{clr3}
      - {clr3}They were {wvy}so noisy.{wvy} This irritated me.{clr3}
      - {wvy}{clr3}How long ago it was...{clr3}{wvy}
    }
}
"""

DLG SPR_d
"""
{
  - ask == 1 ?
    {sequence
      - {clr3}Yes, one day I found something strange. I can give you this.{clr3}{mb = mb + 1}
        {br}{clr2}You got a strange bubble.{clr2}
      - {clr3}Fish do not like me. Afraid that I can eat them.{clr3}
      - {clr3}Well, it really can happen.{clr3}
      - {clr3}My uncle said that sometimes walls are just an illusion.{clr3}
    }
  - else ?
    {sequence
      - {clr3}Oh, you're yellow. Beautiful colour.{clr3}
      - {clr3}Fish do not like me. Afraid that I can eat them.{clr3}
      - {clr3}Well, it really can happen.{clr3}
      - {clr3}My uncle said that sometimes walls are just an illusion.{clr3}
    }
}
"""

DLG ITM_7
{clr3}It's all because of his grandma...{clr3}

DLG SPR_e
{clr3}Welcome.{br}Do you want to go home?{br}Of course, I can show you the way.{clr3}(end "They together swam away somewhere and nobody ever saw them again.")

DLG SPR_f
"""
{
  - ask == 1 ?
    {sequence
      - {clr3}Yes, I have one. I wanted to keep it for myself, but...{br}Okay, take it.{clr3}{br}
{br}{clr2}You got a strange bubble.{clr2}
      - {clr3}It's so boring here.{clr3}
    }
  - else ?
    {sequence
      - {clr3}It's so boring here...{clr3}
      - {clr3}I would like to play chess, or checkers. But...{clr3}
      - {clr3}Can you play chess? Oh yeah, you're a frog...{clr3}
      - {clr3}It's so boring here.{clr3}
    }
}
"""

DLG SPR_g
"""
{sequence
  - {clr3}Great.{clr3}
  - {clr3}I don't know what to say.{clr3}
}
"""

DLG SPR_h
"""
{
  - ask == 1 ?
    {clr3}Maybe I did find it, but I will not give it to you. {shk}Go away!{shk}{clr3}
  - else ?
    {sequence
      - {clr3}{shk}What?{shk} What do you want from me?{clr3}
      - {clr3}Leave me alone!{clr3}
    }
}
"""

END 0
Having got out of the pipe, the frog saw a round window, some clothes and a lot of water with bubbles, but there were no pipes. Where to go? {wvy}Suddenly everything around spun...{wvy}

END 1
At the end of the journey, the frog was in the pond. It was surrounded by frogs, but they were green. Who knows, maybe they will take the yellow frog into their family.

VAR a
42

VAR mb
0


