
Lemon man

# BITSY VERSION 4.8

! ROOM_FORMAT 1

PAL 0
3,204,196
128,159,255
255,255,2

PAL 1
0,0,0
161,13,3
255,255,2

PAL 2
255,255,255
255,255,255
255,255,255

ROOM 0
0,0,0,0,0,0,0,0,0,0,0,0,0,0,0,0
0,e,a,a,a,a,a,a,a,a,a,a,a,a,b,0
0,c,0,0,0,0,0,0,0,0,0,0,0,0,c,0
0,c,0,0,0,0,0,0,0,0,0,i,0,0,c,0
0,c,0,0,0,0,0,0,0,0,0,0,0,0,c,0
0,c,0,0,0,0,0,0,0,0,0,0,0,0,c,0
0,c,0,0,0,0,0,0,0,0,0,0,0,0,c,0
0,c,0,0,0,0,0,0,0,0,0,0,0,0,c,0
0,c,0,0,0,0,0,0,0,0,0,0,0,0,c,0
0,c,0,0,0,0,0,0,0,0,0,0,0,0,c,0
0,c,0,0,0,0,0,0,0,0,0,0,0,0,c,0
0,c,0,0,0,0,0,0,0,0,0,0,0,0,c,0
0,c,0,0,0,0,0,0,0,0,0,0,0,0,c,0
0,c,0,0,0,0,0,0,0,0,0,0,0,0,c,0
0,d,a,a,a,a,a,a,a,a,a,a,a,a,a,0
0,0,0,0,0,0,0,0,0,0,0,0,0,0,0,0
EXT 11,3 1 5,7
PAL 0

ROOM 1
0,0,0,0,0,0,0,0,0,0,0,0,0,0,0,0
0,0,0,0,0,0,0,0,0,0,0,0,0,0,0,0
0,0,0,0,0,0,0,0,0,0,0,0,0,0,0,0
0,0,0,0,0,0,0,0,0,0,0,0,0,0,0,0
0,0,0,0,0,0,0,0,0,0,0,0,0,0,0,0
0,0,0,e,a,a,a,a,a,a,a,a,b,0,0,0
0,0,0,c,g,g,g,g,g,g,g,g,c,0,0,0
0,0,0,c,g,g,g,g,g,g,g,g,c,0,0,0
0,0,0,c,g,g,g,g,g,g,g,g,c,0,0,0
0,0,0,d,a,a,a,a,b,g,g,g,c,0,0,0
0,0,0,0,0,0,0,0,c,g,h,g,c,0,0,0
0,0,0,0,0,0,0,0,c,g,g,g,c,0,0,0
0,0,0,0,0,0,0,0,d,a,a,a,f,0,0,0
0,0,0,0,0,0,0,0,0,0,0,0,0,0,0,0
0,0,0,0,0,0,0,0,0,0,0,0,0,0,0,0
0,0,0,0,0,0,0,0,0,0,0,0,0,0,0,0
END undefined 10,10
PAL 1

TIL a
11111111
11111111
00000000
11111111
11111111
00000000
11111111
11111111
WAL true

TIL b
11111111
11111111
00000011
11111011
11111011
00011011
11011011
11011011
WAL true

TIL c
11011011
11011011
11011011
11011011
11011011
11011011
11011011
11011011
WAL true

TIL d
11011011
11011011
11011000
11011111
11011111
11000000
11111111
11111111

TIL e
11111111
11111111
11000000
11011111
11011111
11011000
11011011
11011011

TIL f
11011011
11011011
00011011
11111011
11111011
00000011
11111111
11111111
WAL true

TIL g
10101010
01010101
10101010
01010101
10101010
01010101
10101010
01010101

TIL h
11100111
11100011
11000001
10000001
00000001
10000001
11100001
11111101

TIL i
00000000
01111110
01011010
01100110
01111110
01111110
01111110
00000000

SPR A
00000000
00000000
00111100
01011010
11111111
01111110
00111100
00100100
POS 0 4,4

SPR a
00000000
11111111
11111111
11111111
10111111
10011111
11111111
10000000
DLG SPR_0
POS 0 8,12

SPR b
00000000
11111111
11111001
11111001
11111001
11111001
11111111
00000001
DLG SPR_1
POS 0 9,12

SPR c
00000000
01111110
01101110
01110110
01000010
01110110
01101110
00111100
DLG SPR_2
POS 0 10,3

SPR d
11111111
11111111
11111111
11111111
01000010
01000010
01000010
11000110
DLG SPR_3
POS 0 11,10

SPR e
00111100
01111110
11111111
11111111
11111111
11111111
11111111
11111111
DLG SPR_4
POS 0 11,9

SPR g
00000000
00000000
10000000
01000000
00100000
00100000
00100000
00000000
DLG SPR_5
POS 0 12,9

SPR h
00000000
00000000
00000001
00000010
00000100
00000100
00000100
00000000
DLG SPR_6
POS 0 10,9

SPR i
01111100
11111110
01011010
01111110
01111110
01111110
00011000
00111100
DLG SPR_7
POS 0 11,8

ITM 0
00000000
00000000
00000000
00000000
00000000
00000000
00000000
00000000
NAME tea
DLG ITM_0

DLG ITM_0
You found a nice warm cup of tea

DLG SPR_0
Lemon man's bed

DLG SPR_1
Lemon man's bed

DLG SPR_2
To lemon man's basement

DLG SPR_3
Lemon man's best friend, huge dude

DLG SPR_4
Lemon man's best friend, huge dude

DLG SPR_5
Lemon man's best friend, huge dude

DLG SPR_6
Lemon man's best friend, huge dude

DLG SPR_7
Lemon man's best friend, huge dude

END 0


END undefined
Lemon man falls down the hole and dies. The end

VAR a
42


