       les neuf chambres          (please use keyboard not mouse)

# BITSY VERSION 3.5

! ROOM_FORMAT 1

PAL 0
0,0,0
255,255,255
255,255,255

ROOM 0
0,0,0,0,0,0,0,0,0,0,0,0,0,0,0,0
0,a,a,a,a,a,a,a,a,a,a,a,a,a,a,0
0,a,0,0,0,0,0,0,0,0,0,0,0,0,a,0
0,a,0,0,0,0,0,0,0,0,0,0,0,0,a,0
0,a,0,0,0,0,0,0,0,0,0,0,0,0,a,0
0,a,0,0,0,0,0,0,0,0,0,0,0,0,a,0
0,a,0,0,0,0,0,0,0,0,0,0,0,0,a,0
0,a,0,0,0,0,d,e,f,g,0,0,0,0,a,0
0,a,0,0,0,0,0,0,0,0,0,0,0,0,a,0
0,a,0,0,0,0,0,0,0,0,0,0,0,0,a,0
0,a,0,0,0,0,0,0,0,0,0,0,0,0,a,0
0,a,0,0,0,0,0,0,0,0,0,0,0,0,a,0
0,a,0,0,0,0,0,0,0,0,0,0,0,0,a,0
0,a,0,0,0,0,0,0,0,0,0,0,0,0,a,0
0,a,a,a,a,a,a,0,0,a,a,a,a,a,a,0
0,0,0,0,0,0,0,0,0,0,0,0,0,0,0,0
WAL a,b
EXT 7,14 1 7,2
EXT 8,14 1 8,2
PAL 0

ROOM 1
b,b,b,b,b,b,b,b,b,b,b,b,b,b,b,b
b,a,a,a,a,a,a,a,a,a,a,a,a,a,a,b
b,a,0,0,0,0,0,0,0,0,0,0,0,0,a,b
b,a,0,0,0,0,0,0,0,0,0,0,0,0,a,b
b,a,0,0,0,0,0,0,0,0,0,0,0,0,a,b
b,a,0,0,0,0,0,0,0,0,0,0,0,0,a,b
b,a,0,0,0,0,0,0,0,0,0,0,0,0,a,b
b,a,0,0,0,0,0,h,0,0,0,0,0,0,0,b
b,a,0,0,0,0,0,0,0,0,0,0,0,0,0,b
b,a,0,0,0,0,0,0,0,0,0,0,0,0,a,b
b,a,0,0,0,0,0,0,0,0,0,0,0,0,a,b
b,a,0,0,0,0,0,0,0,0,0,0,0,0,a,b
b,a,0,0,0,0,0,0,0,0,0,0,0,0,a,b
b,a,0,0,0,0,0,0,0,0,0,0,0,0,a,b
b,a,a,a,a,a,a,0,0,a,a,a,a,a,a,b
b,b,b,b,b,b,b,b,b,b,b,b,b,b,b,b
WAL a,b
EXT 14,7 2 1,7
EXT 14,8 2 1,8
EXT 7,14 4 7,1
EXT 8,14 4 8,1
PAL 0

ROOM 2
b,b,b,b,b,b,b,b,b,b,b,b,b,b,b,b
b,a,a,a,a,a,a,a,a,a,a,a,a,a,a,b
b,a,0,0,0,0,0,0,0,0,0,0,0,0,a,b
b,a,0,0,0,0,0,0,0,0,0,0,0,0,a,b
b,a,0,0,0,0,0,0,0,0,0,0,0,0,a,b
b,a,0,0,0,0,0,0,0,0,0,0,0,0,a,b
b,a,0,0,0,0,0,0,0,0,0,0,0,0,a,b
b,0,0,0,0,0,0,i,j,0,0,0,0,0,0,b
b,0,0,0,0,0,0,0,0,0,0,0,0,0,0,b
b,a,0,0,0,0,0,0,0,0,0,0,0,0,a,b
b,a,0,0,0,0,0,0,0,0,0,0,0,0,a,b
b,a,0,0,0,0,0,0,0,0,0,0,0,0,a,b
b,a,0,0,0,0,0,0,0,0,0,0,0,0,a,b
b,a,0,0,0,0,0,0,0,0,0,0,0,0,a,b
b,a,a,a,a,a,a,0,0,a,a,a,a,a,a,b
b,b,b,b,b,b,b,b,b,b,b,b,b,b,b,b
WAL b,a
EXT 14,7 3 1,7
EXT 14,8 3 1,8
EXT 1,7 1 14,7
EXT 1,8 1 14,8
EXT 8,14 5 8,1
EXT 7,14 5 7,1
PAL 0

ROOM 3
0,0,0,0,0,0,0,0,0,0,0,0,0,0,0,0
0,a,a,a,a,a,a,a,a,a,a,a,a,a,a,0
0,a,0,0,0,0,0,0,0,0,0,0,0,0,a,0
0,a,0,0,0,0,0,0,0,0,0,0,0,0,a,0
0,a,0,0,0,0,0,0,0,0,0,0,0,0,a,0
0,a,0,0,0,0,0,0,0,0,0,0,0,0,a,0
0,a,0,0,0,0,0,0,0,0,0,0,0,0,a,0
0,0,0,0,0,0,0,k,l,0,0,0,0,0,a,0
0,0,0,0,0,0,0,0,0,0,0,0,0,0,a,0
0,a,0,0,0,0,0,0,0,0,0,0,0,0,a,0
0,a,0,0,0,0,0,0,0,0,0,0,0,0,a,0
0,a,0,0,0,0,0,0,0,0,0,0,0,0,a,0
0,a,0,0,0,0,0,0,0,0,0,0,0,0,a,0
0,a,0,0,0,0,0,0,0,0,0,0,0,0,a,0
0,a,a,a,a,a,a,0,0,a,a,a,a,a,a,0
0,0,0,0,0,0,0,0,0,0,0,0,0,0,0,0
WAL b,a
EXT 7,14 6 7,1
EXT 8,14 6 8,1
EXT 1,7 2 14,7
EXT 1,8 2 14,8
END 0 15,0
PAL 0

ROOM 4
b,b,b,b,b,b,b,b,b,b,b,b,b,b,b,b
b,a,a,a,a,a,a,0,0,a,a,a,a,a,a,b
b,a,0,0,0,0,0,0,0,0,0,0,0,0,a,b
b,a,0,0,0,0,0,0,0,0,0,0,0,0,a,b
b,a,0,0,0,0,0,0,0,0,0,0,0,0,a,b
b,a,0,0,0,0,0,0,0,0,0,0,0,0,a,b
b,a,0,0,0,0,0,0,0,0,0,0,0,0,a,b
b,a,0,0,0,0,0,m,n,o,0,0,0,0,0,b
b,a,0,0,0,0,0,0,0,0,0,0,0,0,0,b
b,a,0,0,0,0,0,0,0,0,0,0,0,0,a,b
b,a,0,0,0,0,0,0,0,0,0,0,0,0,a,b
b,a,0,0,0,0,0,0,0,0,0,0,0,0,a,b
b,a,0,0,0,0,0,0,0,0,0,0,0,0,a,b
b,a,0,0,0,0,0,0,0,0,0,0,0,0,a,b
b,a,a,a,a,a,a,0,0,a,a,a,a,a,a,b
b,b,b,b,b,b,b,b,b,b,b,b,b,b,b,b
WAL b,a
EXT 14,7 5 1,7
EXT 14,8 5 1,8
EXT 7,14 7 7,1
EXT 8,14 7 8,1
EXT 7,1 1 7,14
EXT 8,1 1 8,14
PAL 0

ROOM 5
b,b,b,b,b,b,b,b,b,b,b,b,b,b,b,b
b,a,a,a,a,a,a,0,0,a,a,a,a,a,a,b
b,a,0,0,0,0,0,0,0,0,0,0,0,0,a,b
b,a,0,0,0,0,0,0,0,0,0,0,0,0,a,b
b,a,0,0,0,0,0,0,0,0,0,0,0,0,a,b
b,a,0,0,0,0,0,0,0,0,0,0,0,0,a,b
b,a,0,0,0,0,0,0,0,0,0,0,0,0,a,b
b,0,0,0,0,0,0,p,q,0,0,0,0,0,0,b
b,0,0,0,0,0,0,0,0,0,0,0,0,0,0,b
b,a,0,0,0,0,0,0,0,0,0,0,0,0,a,b
b,a,0,0,0,0,0,0,0,0,0,0,0,0,a,b
b,a,0,0,0,0,0,0,0,0,0,0,0,0,a,b
b,a,0,0,0,0,0,0,0,0,0,0,0,0,a,b
b,a,0,0,0,0,0,0,0,0,0,0,0,0,a,b
b,a,a,a,a,a,a,0,0,a,a,a,a,a,a,b
b,b,b,b,b,b,b,b,b,b,b,b,b,b,b,b
WAL b,a
EXT 7,1 2 7,14
EXT 8,1 2 8,14
EXT 14,7 6 1,7
EXT 14,8 6 1,8
EXT 7,14 8 7,1
EXT 8,14 8 8,1
EXT 1,7 4 14,7
EXT 1,8 4 14,8
PAL 0

ROOM 6
b,b,b,b,b,b,b,b,b,b,b,b,b,b,b,b
b,a,a,a,a,a,a,0,0,a,a,a,a,a,a,b
b,a,0,0,0,0,0,0,0,0,0,0,0,0,a,b
b,a,0,0,0,0,0,0,0,0,0,0,0,0,a,b
b,a,0,0,0,0,0,0,0,0,0,0,0,0,a,b
b,a,0,0,0,0,0,0,0,0,0,0,0,0,a,b
b,a,0,0,0,0,0,0,0,0,0,0,0,0,a,b
b,0,0,0,0,0,0,r,s,0,0,0,0,0,a,b
b,0,0,0,0,0,0,0,0,0,0,0,0,0,a,b
b,a,0,0,0,0,0,0,0,0,0,0,0,0,a,b
b,a,0,0,0,0,0,0,0,0,0,0,0,0,a,b
b,a,0,0,0,0,0,0,0,0,0,0,0,0,a,b
b,a,0,0,0,0,0,0,0,0,0,0,0,0,a,b
b,a,0,0,0,0,0,0,0,0,0,0,0,0,a,b
b,a,a,a,a,a,a,0,0,a,a,a,a,a,a,b
b,b,b,b,b,b,b,b,b,b,b,b,b,b,b,b
WAL b,a
EXT 7,14 9 7,1
EXT 8,14 9 8,1
EXT 7,1 3 7,14
EXT 8,1 3 8,14
EXT 1,7 5 14,7
EXT 1,8 5 14,8
END 0 13,14
PAL 0

ROOM 7
b,b,b,b,b,b,b,b,b,b,b,b,b,b,b,b
b,a,a,a,a,a,a,0,0,a,a,a,a,a,a,b
b,a,0,0,0,0,0,0,0,0,0,0,0,0,a,b
b,a,0,0,0,0,0,0,0,0,0,0,0,0,a,b
b,a,0,0,0,0,0,0,0,0,0,0,0,0,a,b
b,a,0,0,0,0,0,0,0,0,0,0,0,0,a,b
b,a,0,0,0,0,0,0,0,0,0,0,0,0,a,b
b,a,0,0,0,0,0,t,u,0,0,0,0,0,0,b
b,a,0,0,0,0,0,0,0,0,0,0,0,0,0,b
b,a,0,0,0,0,0,0,0,0,0,0,0,0,a,b
b,a,0,0,0,0,0,0,0,0,0,0,0,0,a,b
b,a,0,0,0,0,0,0,0,0,0,0,0,0,a,b
b,a,0,0,0,0,0,0,0,0,0,0,0,0,a,b
b,a,0,0,0,0,0,0,0,0,0,0,0,0,a,b
b,a,a,a,a,c,c,a,a,a,a,a,a,a,a,b
0,0,0,0,0,0,0,b,b,b,b,b,b,b,b,b
WAL b,a
EXT 14,7 8 1,7
EXT 14,8 8 1,8
EXT 7,1 4 7,14
EXT 8,1 4 8,14
END 0 0,15
PAL 0

ROOM 8
b,b,b,b,b,b,b,b,b,b,b,b,b,b,b,b
b,a,a,a,a,a,a,0,0,a,a,a,a,a,a,b
b,a,0,0,0,0,0,0,0,0,0,0,0,0,a,b
b,a,0,0,0,0,0,0,0,0,0,0,0,0,a,b
b,a,0,0,0,0,0,0,0,0,0,0,0,0,a,b
b,a,0,0,0,0,0,0,0,0,0,0,0,0,a,b
b,a,0,0,0,0,0,0,0,0,0,0,0,0,a,b
b,0,0,0,0,0,0,v,w,0,0,0,0,0,0,b
b,0,0,0,0,0,0,0,0,0,0,0,0,0,0,b
b,a,0,0,0,0,0,0,0,0,0,0,0,0,a,b
b,a,0,0,0,0,0,0,0,0,0,0,0,0,a,b
b,a,0,0,0,0,0,0,0,0,0,0,0,0,a,b
b,a,0,0,0,0,0,0,0,0,0,0,0,0,a,b
b,a,0,0,0,0,0,0,0,0,0,0,0,0,a,b
b,a,a,a,a,a,a,a,a,a,a,a,a,a,a,b
b,b,b,b,b,b,b,b,b,b,b,b,b,b,b,b
WAL b,a
EXT 14,7 9 1,7
EXT 14,8 9 1,8
EXT 7,1 5 7,14
EXT 8,1 5 8,14
EXT 1,7 7 14,7
EXT 1,8 7 14,8
PAL 0

ROOM 9
b,b,b,b,b,b,b,b,b,b,b,b,b,b,b,b
b,a,a,a,a,a,a,0,0,a,a,a,a,a,a,b
b,a,0,0,0,0,0,0,0,0,0,0,0,0,a,b
b,a,0,0,0,0,0,0,0,0,0,0,0,0,a,b
b,a,0,0,0,0,0,0,0,0,0,0,0,0,a,b
b,a,0,0,0,0,0,0,0,0,0,0,0,0,a,b
b,a,0,0,0,0,0,0,0,0,0,0,0,0,a,b
b,0,0,0,0,0,0,x,y,0,0,0,0,0,a,b
b,0,0,0,0,0,0,0,0,0,0,0,0,0,a,b
b,a,0,0,0,0,0,0,0,0,0,0,0,0,a,b
b,a,0,0,0,0,0,0,0,0,0,0,0,0,a,b
b,a,0,0,0,0,0,0,0,0,0,0,0,0,a,b
b,a,0,0,0,0,0,0,0,0,0,0,0,0,a,b
b,a,0,0,0,0,0,0,0,0,0,0,0,0,a,b
b,a,a,a,a,a,a,a,a,a,a,a,a,a,a,b
b,b,b,b,b,b,b,b,b,b,b,b,b,b,b,b
WAL b,a
EXT 7,1 6 7,14
EXT 8,1 6 8,14
EXT 1,7 8 14,7
EXT 1,8 8 14,8
PAL 0

TIL a
10101010
01000100
10101010
00010001
10101010
01000100
10101010
00010001

TIL b
00000000
00000000
00000000
00000000
00000000
00000000
00000000
00000000

TIL c
10101010
01000100
10101010
00010001
10101010
01000100
10101010
00010001

TIL d
00000000
00000000
00000000
00001100
00010010
00011110
00010000
00001110

TIL e
00000000
00000000
00000000
11000100
10101110
10100100
10100100
10100110

TIL f
00000010
00000100
00000000
11100110
10001001
10001111
10001000
10000111

TIL g
00000000
00000000
00000000
00110000
01001000
01111000
01000000
00111000

TIL h
00000000
10101100
10101010
10101010
10101010
01101010
00000000
00000000

TIL i
00000000
00100110
00101001
01101111
10101000
11100111
00000000
00000000

TIL j
00000000
01010101
01010101
01010010
01010101
00110101
00000000
00000000

TIL k
00000000
01001100
11101001
01001001
01001001
01101000
00000000
00000000

TIL l
00000000
10010101
01000101
01010010
01010101
10010101
00000000
00000000

TIL m
00000000
11001010
10101010
11101010
00101010
00100110
00000000
00000000

TIL n
00000000
01100100
10101110
10100100
10100100
01100110
00000000
00000000

TIL o
00000000
11100110
10001001
10001111
10001000
10000111
00000000
00000000

TIL p
00000000
01101011
10000010
10001010
10001010
01101010
00000000
00000000

TIL q
00000000
00110000
10101000
10111000
10001000
10001000
00000000
00000000

TIL r
00000000
01101010
10000010
11101001
00101010
11001010
00000000
00000000

TIL s
00000000
10000000
10000000
00000000
10000000
10000000
00000000
00000000

TIL t
00000000
01100110
10001001
11101111
00101000
11000111
00000000
00000000

TIL u
00000000
01110010
01010111
01100010
01000010
01000011
00000000
00000000

TIL v
00000000
10001010
10001010
11001010
10101010
10100110
00000000
00000000

TIL w
00000000
10010000
00111000
10010000
10010000
10011000
00000000
00000000

TIL x
00000000
11000110
10101001
10101111
10101000
10100111
00000000
00000000

TIL y
00000000
01010011
01010010
01010111
01010010
00110010
00000000
00000000

SPR A
00000000
00011000
00100000
00001010
01010000
00000100
00011000
00000000
>
00000000
00010000
00000100
01010010
01001010
00100000
00001000
00000000
POS 0 8,3

SPR a
00000000
00100100
01000010
00001000
00010000
01000010
00100100
00000000
>
01000010
10000001
00000000
00010000
00001000
00000000
10000001
01000010
POS 0 6,8

SPR b
00000000
00100100
01000010
00001000
00010000
01000010
00100100
00000000
>
01000010
10000001
00000000
00010000
00001000
00000000
10000001
01000010
POS 1 8,8

SPR c
00000000
00100100
01000010
00001000
00010000
01000010
00100100
00000000
>
01000010
10000001
00000000
00010000
00001000
00000000
10000001
01000010
POS 2 8,8

SPR d
00000000
00100100
01000010
00001000
00010000
01000010
00100100
00000000
>
01000010
10000001
00000000
00010000
00001000
00000000
10000001
01000010
POS 3 8,8

SPR e
00000000
00100100
01000010
00001000
00010000
01000010
00100100
00000000
>
01000010
10000001
00000000
00010000
00001000
00000000
10000001
01000010
POS 4 8,8

SPR f
00000000
00100100
01000010
00001000
00010000
01000010
00100100
00000000
>
01000010
10000001
00000000
00010000
00001000
00000000
10000001
01000010
POS 5 8,8

SPR g
00000000
00100100
01000010
00001000
00010000
01000010
00100100
00000000
>
01000010
10000001
00000000
00010000
00001000
00000000
10000001
01000010
POS 6 8,8

SPR h
00000000
00100100
01000010
00001000
00010000
01000010
00100100
00000000
>
01000010
10000001
00000000
00010000
00001000
00000000
10000001
01000010
POS 7 8,8

SPR i
00000000
00100100
01000010
00001000
00010000
01000010
00100100
00000000
>
01000010
10000001
00000000
00010000
00001000
00000000
10000001
01000010
POS 8 8,8

SPR j
00000000
00100100
01000010
00001000
00010000
01000010
00100100
00000000
>
01000010
10000001
00000000
00010000
00001000
00000000
10000001
01000010
POS 9 8,8

SPR k
00000000
00100100
01000010
00001000
00010000
01000010
00100100
00000000
>
01000010
10000001
00000000
00010000
00001000
00000000
10000001
01000010
POS 0 9,8

DLG a
Beyond this exit are nine rooms.                                Some rooms are hiding something. Some rooms are not.             It is your duty to find a way to escape the nine rooms.          There are only three ways to escape. Good luck.              Be careful to not get lost.

DLG b
There are three types of walls in the nine rooms: a, b, and c. Wall "a" is the standard wall. You can see it.                Wall "b" is a hidden wall to prevent walking beyond wall "a". The entrance doesn't need wall "b"s. You know why?            Because it only has a one-way exit as opposed to two-way.    ...I don't know what wall "c" does, but I know it exists.

DLG c
No one knows why the nine chambers exist. What does it do? Nothing, really.

DLG d
Once, someone came into this room, left, and never came back. I suppose they escaped somehow.

DLG e
Some escaped the nine rooms by passing through the three walls. How is that possible? Perhaps they are stronger than we think? Or perhaps the nine rooms are more flawed than we think?

DLG f
I can assure you that this room doesn't have anything to hide. It's the middle room. What even is there to hide?

DLG g
The nine rooms' weakness is the mouse.                          If used correctly, the tool can cause the walls to surrender.   We warn them once, and even twice.                          But some will still take advantage of this power.        I do not understand the rebellious nature.          Without rebellion, there would be more order and peace.

DLG h
This is the seventh room.                                      Hey, the one who created the nine rooms...                  Do you know what their favorite number is? It's seven.

DLG k
(Keyboard tip: Tap the keys instead of holding them down.)

DLG i
Wall "c"? It's not really a wall.                          It looks like a wall, but it isn't.                         No, you won't find it in this room.

DLG j
Imagine if we had two extra days added to a standard year.

END 0
You escaped the nine rooms.

END undefined
You escaped the nine rooms.

