
Box

# BITSY VERSION 4.8

! ROOM_FORMAT 1

PAL 0
NAME darkGrn
44,104,102
52,158,122
203,238,168

PAL 1
NAME lghtGrn
52,158,122
157,222,154
214,237,212

PAL 2
0,0,0
0,75,47
0,189,79

PAL 3
NAME ptchgreen
44,104,102
52,158,122
36,76,87

PAL 4
NAME drkPrp
88,87,146
193,165,206
212,225,216

PAL 5
NAME drkpurple
94,68,180
72,61,139
105,76,234

PAL 6
NAME moon
89,0,152
254,246,222
131,0,139

PAL 7
255,255,255
255,255,255
255,255,255

PAL 8
255,255,255
255,255,255
255,255,255

ROOM 0
0,0,0,0,0,0,0,0,0,0,0,0,0,0,0,0
0,0,0,0,0,0,0,0,0,0,0,0,0,0,0,0
0,0,a,b,n,o,b,b,c,0,0,0,0,0,0,0
0,0,e,0,p,q,0,s,d,0,0,0,0,0,0,0
0,0,e,0,t,u,0,r,d,0,0,0,0,0,0,0
0,0,e,1s,0,0,0,0,d,0,0,0,0,0,0,0
0,0,e,0,1i,0,0,0,d,0,0,0,0,0,0,0
0,0,f,g,j,0,k,g,h,0,0,0,0,0,0,0
0,0,0,0,0,0,0,0,0,0,0,0,0,0,0,0
0,0,0,0,0,0,0,0,0,0,0,0,0,0,0,0
0,0,0,0,0,0,0,0,0,0,0,0,0,0,0,0
0,0,0,0,0,0,0,0,0,0,0,0,0,0,0,0
0,0,0,0,0,0,0,0,0,0,0,0,0,0,0,0
0,0,0,0,0,0,0,0,0,0,0,0,0,0,0,0
0,0,0,0,0,0,0,0,0,0,0,0,0,0,0,0
0,0,0,0,0,0,0,0,0,0,0,0,0,0,0,0
NAME house1
EXT 5,8 1 5,8
PAL 0

ROOM 1
0,0,0,0,0,0,0,0,0,0,0,0,0,0,0,0
0,0,0,0,0,0,0,0,0,0,0,0,0,0,0,0
0,0,a,b,n,o,b,b,c,0,0,0,0,0,0,0
0,0,e,0,p,q,0,s,d,0,0,0,0,0,0,0
0,0,e,0,t,u,0,r,d,0,0,0,0,0,0,0
0,0,e,1s,0,0,0,0,d,0,0,0,0,0,0,0
0,0,e,0,1i,0,0,0,d,0,0,0,0,0,0,0
0,0,f,g,j,0,k,g,h,0,0,0,0,0,0,0
0,0,a,b,m,0,l,b,b,b,b,b,b,b,c,0
0,0,e,0,0,0,0,0,0,0,0,0,1s,0,d,0
0,0,e,0,0,1s,0,0,0,0,0,12,11,1s,d,0
0,0,e,0,s,0,v,w,0,0,0,z,10,0,d,0
0,0,e,1s,r,0,0,0,1s,0,0,0,0,0,d,0
0,0,e,0,0,0,x,y,0,0,0,0,0,0,d,0
0,0,f,g,g,g,g,g,g,g,j,0,k,g,h,0
0,0,0,0,0,0,0,0,0,0,e,0,d,0,0,0
NAME house2
EXT 11,15 2 7,5
PAL 0

ROOM 2
0,1o,1n,1e,1f,1o,1n,0,1l,1m,1f,0,0,0,1l,1m
1f,1l,1m,1f,0,1l,1m,1f,1p,1f,0,1o,1n,1f,0,0
1e,1f,1p,1f,1p,0,0,1a,0,1f,0,1l,1m,1p,1f,1o
1n,1p,1e,1o,1n,1e,18,1b,19,1o,1n,0,1e,1f,0,1l
1m,1f,0,1l,1m,0,13,14,16,1l,1m,1e,1d,1o,1n,0
0,1o,1n,1f,1e,1f,15,1c,17,1f,1d,1p,1f,1l,1m,1o
1f,1l,1m,1p,1d,1e,0,0,1f,1d,1d,1e,1o,1n,1f,1l
1e,0,1p,1e,1d,1e,1f,0,0,1e,1p,1r,1l,1m,0,0
1o,1n,1e,1d,1e,1f,0,0,0,1f,1e,1d,1e,1f,1o,1n
1l,1m,0,1f,1d,1f,0,0,0,0,1f,1d,0,0,1l,1m
0,1j,1g,1g,1g,1g,0,0,0,1h,1h,1h,1h,1h,1k,1e
0,1e,1e,1e,0,1q,0,0,0,0,1e,0,1e,1p,1e,0
1p,1p,1d,1q,1q,0,0,0,0,0,1e,1e,1p,1q,1d,1f
1p,1d,1q,0,1q,1e,0,0,0,1e,1e,1q,1f,1p,1q,1d
1d,1p,0,1d,0,1q,1e,0,0,0,1e,1q,1q,0,1p,1f
0,1d,1p,1e,0,1e,1e,0,0,1e,1q,0,1d,1e,1f,0
NAME JettsHouse
EXT 7,5 1 11,14
EXT 7,15 3 8,0
EXT 8,15 3 9,0
PAL 1

ROOM 3
1f,1o,1n,1f,1e,1e,1e,1p,0,0,1f,1e,1f,0,1o,1n
0,1l,1m,1o,1n,1e,1f,1f,0,0,1p,0,1d,1f,1l,1m
1n,0,1e,1l,1m,1e,0,0,0,1f,0,1d,0,1e,1f,0
1m,0,1f,0,1p,0,1d,0,0,0,0,1e,1p,1f,1f,0
1f,1e,0,1e,0,1r,0,0,0,0,1e,0,1f,1f,1p,1f
1f,1d,1o,1n,1p,0,0,0,0,0,0,1p,1e,0,1f,1o
1d,0,1l,1m,0,0,0,0,0,0,0,0,1f,0,0,1l
1f,0,0,0,0,0,0,0,0,0,0,0,0,1o,1n,0
0,0,0,0,0,0,0,0,0,0,0,0,0,1l,1m,1f
1f,0,0,1f,0,0,0,0,0,0,1f,1r,1f,1f,0,0
0,1f,1p,1f,1r,1f,0,0,0,0,0,1f,1p,0,0,1f
1v,1v,1v,1v,1v,1v,1v,1v,1v,1v,1v,1v,1v,1v,1v,1v
1t,1t,1t,1u,1t,1t,1t,1t,1t,1u,1t,1u,1t,1t,1t,1t
1t,1t,1t,1t,1u,1t,1t,1t,1u,1t,1t,1t,1t,1t,1u,1t
1t,1u,1t,1t,1t,1t,1t,1t,1u,1t,1u,1t,1u,1t,1t,1t
1t,1u,1t,1u,1t,1u,1t,1t,1t,1u,1t,1t,1u,1u,1t,1t
NAME riverFork
ITM 1 1,8
EXT 0,8 4 15,8
EXT 15,9 a 0,9
PAL 1

ROOM 4
1o,1n,0,1f,1e,1e,1z,20,1l,1m,1f,0,1f,0,1l,1m
1l,1m,0,1e,1q,0,1x,1y,0,1f,0,0,1q,1f,0,1p
0,0,1d,1q,1e,1f,1h,1h,1h,1h,1k,1p,1e,1q,1f,1p
1e,0,1e,1d,1o,1n,1e,0,0,0,1f,1e,0,1p,1f,0
1p,1q,0,0,1l,1m,0,0,21,0,0,1z,20,1f,0,1f
1f,1d,1f,1d,0,0,0,0,0,0,0,1x,1y,1o,1n,1p
1p,1f,0,1z,20,0,0,0,0,0,0,1f,1f,1l,1m,1d
0,1o,1n,1x,1y,0,1f,0,0,0,0,0,1f,0,1f,1f
1f,1l,1m,0,0,1r,1f,1f,0,0,0,0,0,0,0,0
1f,1f,0,1e,1p,0,1d,1f,0,1f,0,0,0,0,0,1f
1r,1f,1q,0,1e,1e,0,1q,1f,0,0,1r,0,0,1f,1f
1v,1v,1v,1v,1v,1v,1v,1v,1v,1v,1v,1v,1v,1v,1v,1v
1t,1t,1t,1t,1t,1u,1t,1t,1t,1t,1t,1t,1u,1t,1t,1t
1t,1w,1t,1u,1t,1t,1t,1t,1t,1u,1t,1t,1t,1u,1u,1t
1t,1t,1t,1t,1u,1t,1u,1t,1t,1t,1t,1t,1w,1u,1t,1t
1t,1t,1u,1t,1t,1t,1u,1u,1t,1t,1w,1t,1t,1t,1t,1t
NAME findKittens
EXT 8,6 6 1,15
EXT 15,8 3 0,8
PAL 1

ROOM 5
0,0,0,0,0,0,0,0,0,0,0,0,0,0,0,0
0,0,0,0,0,0,0,0,0,0,0,0,0,2j,2l,0
0,0,0,0,0,0,0,0,0,0,0,0,2j,1t,1t,2l
0,0,0,0,0,0,0,0,0,0,0,2j,1t,1t,1t,1t
0,25,25,25,25,25,25,25,25,25,2j,1t,1t,1t,1t,1t
0,24,0,0,0,0,0,0,0,0,2i,1t,1t,1t,1t,1t
0,1t,24,0,0,0,0,0,0,0,1t,2i,1t,1t,1t,1t
0,1t,1t,24,0,0,0,0,0,0,1t,1t,2i,1t,1t,1t
0,1t,1t,1t,24,25,0,0,0,0,1t,1t,1t,2i,1t,1t
0,23,1t,1t,1t,24,25,25,0,0,23,1t,1t,1t,2i,2k
0,0,23,1t,1t,1t,g,g,g,g,g,g,g,g,g,0
0,0,0,23,1t,1t,0,0,0,0,0,0,0,2c,0,0
0,0,0,0,23,1t,0,0,0,0,0,0,2c,0,0,0
0,0,0,0,0,23,25,25,25,25,25,25,25,25,25,0
2h,2h,2h,2h,2h,2h,2h,2h,2h,2h,2h,2h,2h,2h,2h,2h
2h,2h,2h,2h,2h,2h,2h,0,0,0,0,0,0,0,0,0
ITM 3 8,15
ITM 4 9,15
EXT 10,15 8 8,6
PAL 4

ROOM 6
0,0,0,0,0,0,0,0,0,0,0,0,0,0,0,0
0,0,0,0,0,0,0,0,0,0,0,0,0,0,0,0
0,0,0,0,0,0,0,0,0,0,0,0,0,0,0,0
0,0,0,0,0,0,0,0,0,0,0,0,0,0,0,0
0,25,25,26,1t,1t,28,29,2a,2b,0,0,0,0,0,0
0,24,0,0,23,1t,1t,1t,1t,1t,24,0,0,0,0,0
0,1t,24,0,0,23,1t,1t,1t,1t,1t,24,0,0,0,0
0,1t,1t,24,0,0,23,1t,1t,1t,1t,1t,24,0,0,0
0,1t,1t,1t,24,25,0,23,1t,1t,1t,1t,1t,24,0,0
0,23,1t,1t,1t,24,25,25,23,1t,1t,1t,1t,1t,24,0
0,0,23,1t,1t,1t,g,g,g,g,g,g,g,g,g,0
0,0,0,23,1t,1t,0,0,0,0,0,0,0,2c,0,0
0,0,0,0,23,1t,0,0,0,0,0,0,2c,0,0,0
0,0,0,0,0,23,25,25,25,25,25,25,25,25,25,0
2h,2h,2h,2h,2h,2h,2h,2h,2h,2h,2h,2h,2h,2h,2h,2h
2h,0,0,0,0,0,0,0,0,0,0,0,0,0,0,0
EXT 4,15 7 4,15
PAL 4

ROOM 7
0,0,0,0,0,0,0,0,0,0,0,0,0,0,0,0
0,0,0,0,0,0,0,0,0,0,0,0,0,0,0,0
0,0,0,0,2g,2f,0,0,0,0,0,0,0,0,0,0
0,0,0,0,0,23,2e,2f,0,0,0,0,0,0,0,0
0,25,25,25,25,0,23,1t,2e,2d,0,0,0,0,0,0
0,24,0,0,0,0,0,23,1t,1t,24,0,0,0,0,0
0,1t,24,0,0,0,0,0,23,1t,1t,24,0,0,0,0
0,1t,1t,24,0,0,0,0,0,23,1t,1t,24,0,0,0
0,1t,1t,1t,24,25,25,0,0,0,2i,1t,1t,24,0,0
0,23,1t,1t,1t,24,25,25,25,0,23,1t,1t,1t,24,0
0,0,23,1t,1t,1t,g,g,g,g,g,g,g,g,g,0
0,0,0,23,1t,1t,0,0,0,0,0,0,0,2c,0,0
0,0,0,0,23,1t,0,0,0,0,0,0,2c,0,0,0
0,0,0,0,0,23,25,25,25,25,25,25,25,25,25,0
2h,2h,2h,2h,2h,2h,2h,2h,2h,2h,2h,2h,2h,2h,2h,2h
2h,2h,2h,2h,0,0,0,0,0,0,0,0,0,0,0,0
EXT 6,15 5 7,15
PAL 4

ROOM 8
1o,1n,0,1f,1e,1e,1z,20,1l,1m,1f,0,1f,0,1l,1m
1l,1m,0,1e,1q,0,1x,1y,0,1f,0,0,1q,1f,0,1p
0,0,1d,1q,1e,1f,1h,1h,1h,1h,1k,1p,1e,1q,1f,1p
1e,0,1e,1d,1o,1n,1e,0,0,0,1f,1e,0,1p,1f,0
1p,1q,0,0,1l,1m,0,0,21,0,0,1z,20,1f,0,1f
1f,1d,1f,1d,0,0,0,0,0,0,0,1x,1y,1o,1n,1p
1p,1f,0,1z,20,0,0,0,0,0,0,1f,1f,1l,1m,1d
0,1o,1n,1x,1y,0,1f,0,0,0,0,0,1f,0,1f,1f
1f,1l,1m,0,0,1r,1f,1f,0,0,0,0,0,0,0,0
1f,1f,0,1e,1p,0,1d,1f,0,1f,0,0,0,0,0,1f
1r,1f,1q,0,1e,1e,0,1q,1f,0,0,1r,0,0,1f,1f
1v,1v,1v,1v,1v,1v,1v,1v,1v,1v,1v,1v,1v,1v,1v,1v
1t,1t,1t,1t,1t,1u,1t,1t,1t,1t,1t,1t,1u,1t,1t,1t
1t,1w,1t,1u,1t,1t,1t,1t,1t,1u,1t,1t,1t,1u,1u,1t
1t,1t,1t,1t,1u,1t,1u,1t,1t,1t,1t,1t,1w,1u,1t,1t
1t,1t,1u,1t,1t,1t,1u,1u,1t,1t,1w,1t,1t,1t,1t,1t
NAME kitFndMlk
EXT 15,8 9 0,8
PAL 1

ROOM 9
1f,1o,1n,1f,1e,1e,1e,1p,0,0,1f,1e,1f,0,1o,1n
0,1l,1m,1o,1n,1e,1f,1f,0,0,1p,0,1d,1f,1l,1m
1n,0,1e,1l,1m,1e,0,0,0,1f,0,1d,0,1e,1f,0
1m,0,1f,0,1p,0,1d,0,0,0,0,1e,1p,1f,1f,0
1f,1e,0,1e,0,1r,0,0,0,0,1e,0,1f,1f,1p,1f
1f,1d,1o,1n,1p,0,0,0,0,0,0,1p,1e,0,1f,0
1d,0,1l,1m,0,0,0,0,0,0,0,0,1f,0,0,0
1f,0,0,0,0,0,0,0,0,0,0,0,0,1o,1n,0
0,0,0,0,0,0,0,0,0,0,0,0,0,1l,1m,0
1f,0,0,1f,0,0,0,0,0,0,1f,1r,1f,1f,0,0
0,1f,1p,1f,1r,1f,0,0,0,0,0,1f,1p,0,0,0
1v,1v,1v,1v,1v,1v,1v,1v,1v,1v,1v,1v,1v,1v,1v,1v
1t,1t,1t,1u,1t,1t,1t,1t,1t,1u,1t,1u,1t,1t,1t,1t
1t,1t,1t,1t,1u,1t,1t,1t,1u,1t,1t,1t,1t,1t,1u,1t
1t,1u,1t,1t,1t,1t,1t,1t,1u,1t,1u,1t,1u,1t,1t,1t
1t,1u,1t,1u,1t,1u,1t,1t,1t,1u,1t,1t,1u,1u,1t,1t
NAME fndMilkfork
ITM 5 9,10
EXT 0,8 b 15,8
PAL 1

ROOM a
1q,1f,0,1l,1m,1d,1q,0,1e,1f,1d,1o,1n,1l,1m,0
0,1z,20,0,1p,0,1d,1e,1d,1d,1f,1l,1m,0,0,0
0,1x,1y,1e,1d,1r,1e,1f,0,1q,0,1p,1f,1q,1o,1n
1p,0,1f,1e,1f,0,1f,1f,0,0,0,1q,1p,1f,1l,1m
0,1q,1p,1f,1z,20,0,0,0,0,0,1f,1e,0,1d,0
1n,1p,1e,0,1x,1y,0,0,0,0,0,0,1f,1z,20,0
1m,0,1z,20,0,0,0,0,0,0,0,1r,1f,1x,1y,0
1p,1q,1x,1y,1f,0,0,0,0,0,0,0,0,0,1f,0
1f,0,0,0,0,0,0,0,0,0,1z,20,0,1f,1p,0
0,0,0,0,0,0,0,1r,1f,0,1x,1y,1q,0,1f,0
1f,0,0,1r,0,1f,0,1f,1p,1f,1h,1h,1h,1h,1h,1h
1v,1v,1v,1v,1v,1v,1v,1v,1v,1v,1v,1v,1v,1v,1v,1v
1t,1t,1t,1t,1u,1t,1t,1t,1t,1t,1t,1t,1u,1t,1t,1t
1u,1t,1t,1t,1u,1t,1u,1t,1u,1t,1t,1u,1u,1t,1u,1t
1t,1t,1u,1t,1t,1t,1t,1w,1u,1u,1t,1t,1t,1t,1t,1t
1t,1t,1t,1u,1t,1t,1t,1t,1t,1u,1u,1t,1t,1u,1t,1t
EXT 0,9 3 15,9
PAL 1

ROOM b
1o,1n,0,1f,1e,1e,1z,20,1l,1m,1f,0,1f,0,1l,1m
1l,1m,0,1e,1q,0,1x,1y,0,1f,0,0,1q,1f,0,1p
0,0,1d,1q,1e,1f,1h,1h,1h,1h,1k,1p,1e,1q,1f,1p
1e,0,1e,1d,1o,1n,1e,0,0,0,1f,1e,0,1p,1f,0
1p,1q,0,0,1l,1m,0,0,0,0,0,1z,20,1f,0,1f
1f,1d,1f,1d,0,2n,2m,0,0,0,0,1x,1y,1o,1n,1p
1p,1f,0,1z,20,0,0,0,0,0,0,1f,1f,1l,1m,1d
0,1o,1n,1x,1y,0,1f,0,0,0,0,0,1f,0,1f,1f
1f,1l,1m,0,0,1r,1f,1f,0,0,0,0,0,0,0,0
1f,1f,0,1e,1p,0,1d,1f,0,1f,0,0,0,0,0,1f
1r,1f,1q,0,1e,1e,0,1q,1f,0,0,1r,0,0,1f,1f
1v,1v,1v,1v,1v,1v,1v,1v,1v,1v,1v,1v,1v,1v,1v,1v
1t,1t,1t,1t,1t,1u,1t,1t,1t,1t,1t,1t,1u,1t,1t,1t
1t,1w,1t,1u,1t,1t,1t,1t,1t,1u,1t,1t,1t,1u,1u,1t
1t,1t,1t,1t,1u,1t,1u,1t,1t,1t,1t,1t,1w,1u,1t,1t
1t,1t,1u,1t,1t,1t,1u,1u,1t,1t,1w,1t,1t,1t,1t,1t
NAME ratescape1
EXT 14,8 c 14,8
EXT 15,9 c 15,9
EXT 15,7 c 15,7
PAL 0

ROOM c
1o,1n,0,1f,1e,1e,1z,20,1l,1m,1f,0,1f,0,1l,1m
1l,1m,0,1e,1q,0,1x,1y,0,1f,0,0,1q,1f,0,1p
0,0,1d,1q,1e,1f,1h,1h,1h,1h,1k,1p,1e,1q,1f,1p
1e,0,1e,1d,1o,1n,1e,0,0,0,1f,1e,0,1p,1f,0
1p,1q,0,0,1l,1m,0,0,0,0,0,1z,20,1f,0,1f
1f,1d,1f,0,2m,2n,2m,0,0,0,0,1x,1y,1o,1n,1p
1p,1f,0,1z,20,0,0,0,0,0,0,1f,1f,1l,1m,1d
0,1o,1n,1x,1y,0,1f,0,0,0,0,0,1f,0,1f,1f
1f,1l,1m,0,0,1r,1f,1f,0,0,0,0,0,0,0,0
1f,1f,0,1e,1p,0,1d,1f,0,1f,0,0,0,0,0,1f
1r,1f,1q,0,1e,1e,0,1q,1f,0,0,1r,0,0,1f,1f
1v,1v,1v,1v,1v,1v,1v,1v,1v,1v,1v,1v,1v,1v,1v,1v
1t,1t,1t,1t,1t,1u,1t,1t,1t,1t,1t,1t,1u,1t,1t,1t
1t,1w,1t,1u,1t,1t,1t,1t,1t,1u,1t,1t,1t,1u,1u,1t
1t,1t,1t,1t,1u,1t,1u,1t,1t,1t,1t,1t,1w,1u,1t,1t
1t,1t,1u,1t,1t,1t,1u,1u,1t,1t,1w,1t,1t,1t,1t,1t
EXT 14,7 d 14,7
EXT 14,9 d 14,9
EXT 13,8 d 13,8
EXT 13,7 d 13,7
EXT 13,9 d 13,9
EXT 13,10 d 13,10
PAL 0

ROOM d
1o,1n,0,1f,1e,1e,1z,20,1l,1m,1f,0,1f,0,1l,1m
1l,1m,0,1e,1q,0,1x,1y,0,1f,0,0,1q,1f,0,1p
0,0,1d,1q,1e,1f,1h,1h,1h,1h,1k,1p,1e,1q,1f,1p
1e,0,1e,1d,1o,1n,1e,0,0,0,1f,1e,0,1p,1f,0
1p,1q,0,0,1l,1m,0,0,0,0,0,1z,20,1f,0,1f
1f,1d,1f,2m,2m,2n,2m,0,0,0,0,1x,1y,1o,1n,1p
1p,1f,0,1z,20,0,0,0,0,0,0,1f,1f,1l,1m,1d
0,1o,1n,1x,1y,0,1f,0,0,0,0,0,1f,0,1f,1f
1f,1l,1m,0,0,1r,1f,1f,0,0,0,0,0,0,0,0
1f,1f,0,1e,1p,0,1d,1f,0,1f,0,0,0,0,0,1f
1r,1f,1q,0,1e,1e,0,1q,1f,0,0,1r,0,0,1f,1f
1v,1v,1v,1v,1v,1v,1v,1v,1v,1v,1v,1v,1v,1v,1v,1v
1t,1t,1t,1t,1t,1u,1t,1t,1t,1t,1t,1t,1u,1t,1t,1t
1t,1w,1t,1u,1t,1t,1t,1t,1t,1u,1t,1t,1t,1u,1u,1t
1t,1t,1t,1t,1u,1t,1u,1t,1t,1t,1t,1t,1w,1u,1t,1t
1t,1t,1u,1t,1t,1t,1u,1u,1t,1t,1w,1t,1t,1t,1t,1t
EXT 12,7 e 12,7
EXT 12,8 e 12,8
EXT 12,9 e 12,9
PAL 0

ROOM e
1o,1n,0,1f,1e,1e,1z,20,1l,1m,1f,0,1f,0,1l,1m
1l,1m,0,1e,1q,0,1x,1y,0,1f,0,0,1q,1f,0,1p
0,0,1d,1q,1e,1f,1h,1h,1h,1h,1k,1p,1e,1q,1f,1p
1e,0,1e,1d,1o,1n,1e,0,0,0,1f,1e,0,1p,1f,0
1p,1q,0,0,1l,1m,0,0,0,0,0,1z,20,1f,0,1f
1f,2m,1f,2m,2m,2n,2m,0,0,0,0,1x,1y,1o,1n,1p
1p,1f,0,1z,20,0,0,0,0,0,0,1f,1f,1l,1m,1d
0,1o,1n,1x,1y,0,1f,0,0,0,0,0,1f,0,1f,1f
1f,1l,1m,0,0,1r,1f,1f,0,0,0,0,0,0,0,0
1f,1f,0,1e,1p,0,1d,1f,0,1f,0,0,0,0,0,1f
1r,1f,1q,0,1e,1e,0,1q,1f,0,0,1r,0,0,1f,1f
1v,1v,1v,1v,1v,1v,1v,1v,1v,1v,1v,1v,1v,1v,1v,1v
1t,1t,1t,1t,1t,1u,1t,1t,1t,1t,1t,1t,1u,1t,1t,1t
1t,1w,1t,1u,1t,1t,1t,1t,1t,1u,1t,1t,1t,1u,1u,1t
1t,1t,1t,1t,1u,1t,1u,1t,1t,1t,1t,1t,1w,1u,1t,1t
1t,1t,1u,1t,1t,1t,1u,1u,1t,1t,1w,1t,1t,1t,1t,1t
EXT 12,6 f 12,6
EXT 11,7 f 11,7
EXT 11,8 f 11,8
EXT 11,9 f 11,9
PAL 0

ROOM f
1o,1n,0,1f,1e,1e,1z,20,1l,1m,1f,0,1f,0,1l,1m
1l,1m,0,1e,1q,0,1x,1y,0,1f,0,0,1q,1f,0,1p
0,0,1d,1q,1e,1f,1h,1h,1h,1h,1k,1p,1e,1q,1f,1p
1e,0,1e,1d,1o,1n,1e,0,0,0,1f,1e,0,1p,1f,0
1p,1q,0,0,1l,1m,0,0,0,0,0,1z,20,1f,0,1f
1f,2m,1f,2m,2m,2n,2m,0,0,0,0,1x,1y,1o,1n,1p
1p,1f,0,1z,20,0,0,0,0,0,0,1f,1f,1l,1m,1d
0,1o,1n,1x,1y,0,1f,0,0,0,0,0,1f,0,1f,1f
1f,1l,1m,0,0,1r,1f,1f,0,0,0,0,0,0,0,0
1f,1f,0,1e,1p,0,1d,1f,0,1f,0,0,0,0,0,1f
1r,1f,1q,0,1e,1e,0,1q,1f,0,0,1r,0,0,1f,1f
1v,1v,1v,1v,1v,1v,1v,1v,1v,1v,1v,1v,1v,1v,1v,1v
1t,1t,1t,1t,1t,1u,1t,1t,1t,1t,1t,1t,1u,1t,1t,1t
1t,1w,1t,1u,1t,1t,1t,1t,1t,1u,1t,1t,1t,1u,1u,1t
1t,1t,1t,1t,1u,1t,1u,1t,1t,1t,1t,1t,1w,1u,1t,1t
1t,1t,1u,1t,1t,1t,1u,1u,1t,1t,1w,1t,1t,1t,1t,1t
EXT 11,6 g 11,6
EXT 10,7 g 10,7
EXT 10,8 g 10,8
EXT 10,9 g 10,9
PAL 0

ROOM g
1o,1n,0,1f,1e,1e,1z,20,1l,1m,1f,0,1f,0,1l,1m
1l,1m,0,1e,1q,0,1x,1y,0,1f,0,0,1q,1f,0,1p
0,0,1d,1q,1e,1f,1h,1h,1h,1h,1k,1p,1e,1q,1f,1p
1e,0,1e,1d,1o,1n,1e,0,0,0,1f,1e,0,1p,1f,0
1p,1q,0,0,1l,1m,0,0,0,0,0,1z,20,1f,0,1f
1f,2m,1f,2m,2m,2n,2m,0,0,0,0,1x,1y,1o,1n,1p
1p,1f,0,1z,20,0,0,0,0,0,0,1f,1f,1l,1m,1d
0,1o,1n,1x,1y,0,1f,0,0,0,0,0,1f,0,1f,1f
1f,1l,1m,0,0,1r,1f,1f,0,0,0,0,0,0,0,0
1f,1f,0,1e,1p,0,1d,1f,0,1f,0,0,0,0,0,1f
1r,1f,1q,0,1e,1e,0,1q,1f,0,0,1r,0,0,1f,1f
1v,1v,1v,1v,1v,1v,1v,1v,1v,1v,1v,1v,1v,1v,1v,1v
1t,1t,1t,1t,1t,1u,1t,1t,1t,1t,1t,1t,1u,1t,1t,1t
1t,1w,1t,1u,1t,1t,1t,1t,1t,1u,1t,1t,1t,1u,1u,1t
1t,1t,1t,1t,1u,1t,1u,1t,1t,1t,1t,1t,1w,1u,1t,1t
1t,1t,1u,1t,1t,1t,1u,1u,1t,1t,1w,1t,1t,1t,1t,1t
NAME rats gone
EXT 0,5 h 15,5
PAL 0

ROOM h
1q,0,1p,1o,1n,1f,1p,1q,0,2o,0,1f,1p,1p,0,1q
1o,1n,1q,1l,1m,1o,1n,1f,2p,0,1o,1n,1p,1q,1p,1o
1l,1m,0,1q,1p,1l,1m,0,2n,0,1l,1m,1q,1p,0,1l
1p,1d,1o,1n,1f,0,0,2o,0,1f,1p,1r,1q,1o,1n,1d
1q,1p,1l,1m,0,2m,2p,0,1f,1p,1q,1e,1f,1l,1m,0
0,1r,0,2m,0,0,0,1o,1n,1p,1q,1p,1r,0,2n,2m
1o,1n,1f,0,2p,0,0,1l,1m,1r,1q,1p,0,2o,0,0
1l,1m,1o,1n,0,2n,2n,0,0,1p,1o,1n,2p,0,1f,1o
1p,1p,1l,1m,1p,1f,0,0,2o,0,1l,1m,2o,0,1p,1l
1p,1d,1q,1p,1r,1p,1f,0,2p,0,2m,2m,0,1f,1p,1q
1q,1e,0,1e,1d,1q,1r,1e,1f,0,0,0,1r,1p,1q,1f
1v,1v,1v,1v,1v,1v,1v,1v,1v,1v,1v,1v,1v,1v,1v,1v
1t,1t,1t,1t,1t,1t,1t,1u,1t,1t,1t,1u,1t,1t,1t,1t
1t,1t,1t,1u,1t,1t,1t,1t,1u,1t,1t,1t,1u,1t,1t,1t
1t,1t,1u,1u,1t,1t,1t,1t,1t,1t,1t,1u,1u,1t,1u,1t
1t,1t,1t,1t,1u,1t,1t,1u,1t,1t,1t,1t,1u,1t,1t,1t
EXT 9,0 i 7,15
EXT 8,0 i 6,15
EXT 10,0 i 8,15
PAL 0

ROOM i
0,1p,1e,1o,1n,0,1l,1m,0,1p,1e,1f,1o,1n,1d,0
1p,1e,1f,1l,1m,1o,1n,1r,0,1f,1p,1e,1l,1m,1e,1d
1f,1o,1n,1d,1f,1l,1m,0,1o,1n,1q,1f,0,0,1o,1n
0,1l,1m,1p,1d,1f,0,1f,1l,1m,0,1z,20,1f,1l,1m
1o,1n,0,1p,1o,1n,1d,1p,1d,1p,0,1x,1y,1d,1e,1f
1l,1m,1d,1e,1l,1m,1f,1d,1p,0,1e,1d,0,1f,1e,1e
0,1p,1f,0,1f,0,1o,1n,0,1f,1d,1p,1r,1f,1q,0
1p,1d,1o,1n,1e,1f,1l,1m,0,0,1q,0,0,0,0,0
1r,1p,1l,1m,1d,1o,1n,1z,20,1q,0,2p,2m,2n,2n,2m
0,0,0,0,1p,1l,1m,1x,1y,0,0,2o,0,0,0,1q
1o,1n,1p,0,1f,1d,1r,0,0,2p,2n,0,1q,1f,0,0
1l,1m,1o,1n,1d,1f,1q,2p,2p,2n,0,1f,1f,1o,1n,0
0,1d,1l,1m,0,1q,0,2o,0,0,1r,1q,0,1l,1m,0
0,1q,0,1p,1d,1f,1p,0,1f,1q,1f,1f,1o,1n,1d,1o
1q,0,1e,1d,1p,1p,1f,0,0,1f,1d,1p,1l,1m,0,1l
0,1q,1e,0,1d,1f,30,0,0,0,1f,1d,0,0,1q,0
EXT 15,8 j 0,12
EXT 15,7 j 0,12
PAL 0

ROOM j
0,0,0,2z,0,0,0,0,2z,0,30,2v,0,0,31,2w
30,2y,0,0,0,2x,2z,2z,0,0,0,0,30,2u,0,0
31,0,2x,0,0,0,0,0,0,0,0,0,0,0,0,31
0,2x,0,2w,2u,2z,0,2z,0,2q,2r,0,0,2v,0,2w
2w,2u,0,30,31,0,2x,0,0,2s,2t,0,0,0,31,0
0,2w,0,2z,0,2v,0,0,0,0,30,0,2u,2w,0,2z
0,31,2v,2u,0,0,0,2w,0,0,0,0,0,0,2x,0
0,0,0,0,2v,0,31,0,2u,0,0,2w,0,0,2z,31
2x,0,30,0,0,2y,0,0,0,2y,0,0,2y,0,2z,0
0,2z,0,0,2z,0,0,0,2x,0,30,0,0,0,0,0
0,0,0,0,0,0,0,0,0,0,0,0,0,0,0,0
2h,2h,2h,2h,2h,2h,2h,2h,2h,2h,2h,2h,2h,2h,2h,2h
0,0,0,0,0,0,0,0,0,0,0,0,0,0,0,0
2h,2h,2h,2h,2h,2h,2h,2h,2h,2h,2h,2h,2h,2h,2h,2h
0,0,0,0,0,0,0,0,0,0,0,0,0,0,0,0
0,0,0,0,0,0,0,0,0,0,0,0,0,0,0,0
NAME moon
EXT 15,12 l 0,12
PAL 6

ROOM l
0,1o,1n,1e,1f,1o,1n,0,1l,1m,1f,0,0,0,1l,1m
1f,1l,1m,1f,0,1l,1m,1f,1p,1f,0,1o,1n,1f,0,0
1e,1f,1p,1f,1p,0,0,1a,0,1f,0,1l,1m,1p,1f,1o
1n,1p,1e,1o,1n,1e,18,1b,19,1o,1n,0,1e,1f,0,1l
1m,1f,0,1l,1m,0,13,14,16,1l,1m,1e,1d,1o,1n,0
0,1o,1n,1f,1e,1f,15,1c,17,1f,1d,1p,1f,1l,1m,1o
1f,1l,1m,1p,1d,1e,0,0,1f,1d,1d,1e,1o,1n,1f,1l
1e,0,1p,1e,1d,1e,1f,2p,0,1e,1p,1r,1l,1m,0,0
1o,1n,1e,1d,1e,1f,0,2o,0,1f,1e,1d,1e,1f,1o,1n
1l,1m,0,1f,1d,1f,0,0,0,0,1f,1d,0,0,1l,1m
0,1j,1g,1g,1g,1g,0,2p,0,1h,1h,1h,1h,1h,1k,1e
0,1e,1e,1e,0,1q,2p,2o,0,0,1e,0,1e,1p,1e,0
2m,1f,2n,2m,2m,2n,2p,0,0,0,1e,1e,1p,1q,1d,1f
1p,1d,1q,0,1q,1e,0,0,0,1e,1e,1q,1f,1p,1q,1d
1d,1p,0,1d,0,1q,1e,0,0,0,1e,1q,1q,0,1p,1f
0,1d,1p,1e,0,1e,1e,0,0,1e,1q,0,1d,1e,1f,0
NAME return
EXT 7,5 n 11,15
PAL 0

ROOM n
0,0,0,0,0,0,0,0,0,0,0,0,0,0,0,0
0,0,0,0,0,0,0,0,0,0,0,0,0,0,0,0
0,0,0,0,0,0,0,0,0,0,0,0,0,0,0,0
0,0,0,0,0,0,0,0,0,0,0,0,0,0,0,0
0,0,0,0,0,0,0,0,0,0,0,0,0,0,0,0
0,0,0,0,0,0,0,0,0,0,0,0,0,0,0,0
0,0,0,0,0,0,0,0,0,0,0,0,0,0,0,0
0,0,0,0,e,0,d,0,0,0,0,0,0,0,0,0
0,0,a,b,m,0,l,b,b,b,b,b,b,b,c,0
0,0,e,0,0,0,0,0,0,0,0,0,1s,0,d,0
0,0,e,0,0,1s,0,0,0,0,0,12,11,1s,d,0
0,0,e,0,s,0,v,w,0,0,0,z,10,0,d,0
0,0,e,1s,r,0,0,0,1s,0,0,0,0,0,d,0
0,0,e,0,0,0,x,y,0,0,0,0,0,0,d,0
0,0,f,g,g,g,g,g,g,g,j,0,k,g,h,0
0,0,0,0,0,0,0,0,0,0,e,0,d,0,0,0
NAME return2
EXT 11,13 o 11,13
PAL 3

ROOM o
0,0,0,0,0,0,0,0,0,0,0,0,0,0,0,0
0,0,0,0,0,0,0,0,0,0,0,0,0,0,0,0
0,0,0,0,0,0,0,0,0,0,0,0,0,0,0,0
0,0,0,0,0,0,0,0,0,0,0,0,0,0,0,0
0,0,0,0,0,0,0,0,0,0,0,0,0,0,0,0
0,0,0,0,0,0,0,0,0,0,0,0,0,0,0,0
0,0,0,0,0,0,0,0,0,0,0,0,0,0,0,0
0,0,0,0,e,0,d,0,0,0,0,0,0,0,0,0
0,0,a,b,m,0,l,b,b,b,b,b,b,b,c,0
0,0,e,0,0,0,0,0,0,0,0,0,1s,0,d,0
0,0,e,0,0,1s,0,0,0,0,0,12,11,1s,d,0
0,0,e,0,s,0,v,w,0,0,0,z,10,0,d,0
0,0,e,1s,r,0,0,0,1s,0,0,0,0,0,d,0
0,0,e,0,0,0,x,y,0,0,0,0,0,0,d,0
0,0,f,g,g,g,g,g,g,g,j,0,k,g,h,0
0,0,0,0,0,0,0,0,0,0,e,0,d,0,0,0
NAME party
EXT 5,8 p 5,7
PAL 1

ROOM p
0,0,0,0,0,0,0,0,0,0,0,0,0,0,0,0
0,0,0,0,0,0,0,0,0,0,0,0,0,0,0,0
0,0,a,b,n,o,b,b,c,0,0,0,0,0,0,0
0,0,e,0,p,q,0,s,d,0,0,0,0,0,0,0
0,0,e,0,t,u,0,r,d,0,0,0,0,0,0,0
0,0,e,1s,0,0,0,0,d,0,0,0,0,0,0,0
0,0,e,0,1i,0,0,0,d,0,0,0,0,0,0,0
0,0,f,g,j,0,k,g,h,0,0,0,0,0,0,0
0,0,0,0,0,0,0,0,0,0,0,0,0,0,0,0
0,0,0,0,0,0,0,0,0,0,0,0,0,0,0,0
0,0,0,0,0,0,0,0,0,0,0,0,0,0,0,0
0,0,0,0,0,0,0,0,0,0,0,0,0,0,0,0
0,0,0,0,0,0,0,0,0,0,0,0,0,0,0,0
0,0,0,0,0,0,0,0,0,0,0,0,0,0,0,0
0,0,0,0,0,0,0,0,0,0,0,0,0,0,0,0
0,0,0,0,0,0,0,0,0,0,0,0,0,0,0,0
ITM 0 5,5
EXT 5,5 q 5,5
PAL 4

ROOM q
0,0,0,0,0,0,0,0,0,0,0,0,0,0,0,0
0,0,0,0,0,0,0,0,0,0,0,0,0,0,0,0
0,0,a,b,n,o,b,b,c,0,0,0,0,0,0,0
0,0,e,0,p,q,0,s,d,0,0,0,0,0,0,0
0,0,e,0,t,u,0,r,d,0,0,0,0,0,0,0
0,0,e,1s,0,0,0,0,d,0,0,0,0,0,0,0
0,0,e,0,1i,0,0,0,d,0,0,0,0,0,0,0
0,0,f,g,j,0,k,g,h,0,0,0,0,0,0,0
0,0,0,0,0,0,0,0,0,0,0,0,0,0,0,0
0,0,0,0,0,0,0,0,0,0,0,0,0,0,0,0
0,0,0,0,0,0,0,0,0,0,0,0,0,0,0,0
0,0,0,0,0,0,0,0,0,0,0,0,0,0,0,0
0,0,0,0,0,0,0,0,0,0,0,0,0,0,0,0
0,0,0,0,0,0,0,0,0,0,0,0,0,0,0,0
0,0,0,0,0,0,0,0,0,0,0,0,0,0,0,0
0,0,0,0,0,0,0,0,0,0,0,0,0,0,0,0
END 0 5,7
PAL 4

TIL 10
00000010
00000010
00000110
11111110
11111100
11111100
00001100
00001100
NAME table2
WAL true

TIL 11
00000000
11111100
00000010
00000010
00000010
00000010
00000010
00000010
NAME table3
WAL true

TIL 12
00000000
00111111
01000000
01000000
01000000
01000000
01000000
01000000
NAME table4
WAL true

TIL 13
11111001
11110010
11100100
11001000
10010000
00100000
01000001
10000011
WAL true

TIL 14
00011000
00100100
00100100
00011000
00000000
00000000
11111111
11111111
WAL true

TIL 15
01000011
01000011
01000011
01111111
01101011
01111111
01010111
11111111
WAL true

TIL 16
10011111
01001111
00100111
00010011
00001001
00000100
10000010
11000001
WAL true

TIL 17
11000010
11000010
11000010
11111110
11101010
11111110
11010110
11111111
WAL true

TIL 18
00000001
00000011
00000111
00001111
00011111
00111111
01111110
11111100
WAL true

TIL 19
10000000
11000000
11100000
11110000
11111000
11111100
01111110
00111111
WAL true

TIL 20
11000000
11100000
11100000
11100000
11100000
11011100
11111110
11111111
>
10000000
11000000
11100000
11100000
11100000
11101110
11011111
11111111
NAME tree4
WAL true

TIL 21
00000000
00000000
00000000
00000000
00000000
00000000
00010000
00011000
>
00000000
00000000
00000000
00000000
00000000
00010000
00011000
00011100

TIL 22
00001111
00001111
00000111
00000111
00000011
00000011
00000001
00000001
NAME box

TIL 23
11111111
01111111
00111111
00011111
00001111
00000111
00000011
00000001
NAME box
WAL true

TIL 24
10000000
11000000
11100000
11110000
11111000
11111100
11111110
11111111
NAME box

TIL 25
00000000
00000000
00000000
00000000
00000000
00000000
00000000
11111111
NAME line 
WAL true

TIL 26
00111111
00111111
00111111
00011111
00001111
00000111
00000011
00000001
NAME box

TIL 27
00000000
11110000
11111111
11111111
11111111
11111111
11111111
11111111
NAME box

TIL 28
00000000
11110000
11111111
11111111
11111111
11111111
11111111
11111111
NAME box

TIL 29
00000000
00000000
00000000
11110000
11111111
11111111
11111111
11111111
NAME box

TIL 30
00000000
00000000
00000100
00000000
00000000
00000000
00000000
00000000

TIL 31
00000000
00000000
00000000
00000000
00000000
01100000
01100000
00000000

TIL a
00000000
00000011
00000010
00000010
00000010
00000010
00000010
00000010
WAL true

TIL b
00000000
11111111
00000000
11111111
11111111
11111111
11111111
11111111
WAL true

TIL c
00000000
11000000
01000000
01000000
01000000
01000000
01000000
01000000
WAL true

TIL d
01000000
01000000
01000000
01000000
01000000
01000000
01000000
01000000
WAL true

TIL e
00000010
00000010
00000010
00000010
00000010
00000010
00000010
00000010
WAL true

TIL f
00000010
00000011
00000000
00000000
00000000
00000000
00000000
00000000
WAL true

TIL g
00000000
11111111
00000000
00000000
00000000
00000000
00000000
00000000
WAL true

TIL h
01000000
11000000
00000000
00000000
00000000
00000000
00000000
00000000
WAL true

TIL i
00000000
11000000
01000000
01000000
01000000
01000000
01000000
01000000

TIL j
00000000
11111110
00000010
00000010
00000010
00000010
00000010
00000010
WAL true

TIL k
00000000
01111111
01000000
01000000
01000000
01000000
01000000
01000000
WAL true

TIL l
01000000
01111111
01000000
01111111
01111111
01111111
01111111
01111111
WAL true

TIL m
00000010
11111110
00000010
11111110
11111110
11111110
11111110
11111110
WAL true

TIL n
00000000
11111111
00000000
10111111
10110000
10000000
10011110
10111111
NAME bed1
WAL true

TIL o
00000000
11111111
00000000
11111101
00001101
00000001
01111001
11111101
NAME bed2
WAL true

TIL p
00111111
00111111
00111111
00111111
00111111
00111111
00111111
00111111
NAME bed3
WAL true

TIL q
11111100
11111100
11111100
11111100
11111100
11111100
11111100
11111100
NAME bed4
WAL true

TIL r
11000011
11000011
11111111
11111111
00000000
01100110
01111110
01000010
NAME table1
WAL true

TIL s
00000000
00111100
01000010
01111110
01111110
01111110
00111100
00000000
NAME table2
WAL true

TIL t
00111111
00111111
00000000
00111111
00111111
00100000
00000000
00000000
NAME bed5

TIL u
11111100
11111100
00000000
11111100
11111100
00000100
00000000
00000000
NAME bed6

TIL v
00111111
10111111
10111111
10111111
10000000
11111111
11111111
10000000
NAME couch1
WAL true

TIL w
11111100
11111101
11111101
11111101
00000001
11111111
11111111
00000001
NAME couch2
WAL true

TIL x
00000010
00000001
00000011
00011111
00011111
00011111
00011111
00011111
NAME tv1
WAL true

TIL y
01000000
10000000
11000000
11111000
11111000
11111000
11111000
11111000
NAME tv2
WAL true

TIL z
01000000
01000000
01100000
01111111
00111111
00111111
00110000
00110000
NAME table1
WAL true

TIL 1a
00000000
00000000
00000000
00000000
00011000
00111100
01111110
11111111
WAL true

TIL 1b
11111111
11111111
11100111
11000011
10011001
00100100
01000010
10000001
WAL true

TIL 1c
00000000
01111110
00111110
01111110
01111010
01111010
00111110
01111110
NAME housedoor
WAL false

TIL 1d
00010000
01010001
01000001
00100100
00100100
00001000
01001010
01000010
>
00010000
10010010
01000001
00101000
00100100
00001000
10001010
01000010
NAME grass1

TIL 1e
00000000
00101000
00100010
10000000
00010100
01000100
00000000
00100010
NAME grass2

TIL 1f
00000000
00000000
00001000
00000000
01000010
00000000
00100000
00000000
NAME grass3

TIL 1g
00000000
00000011
00000011
11111111
00000011
11111111
00000011
00000000
WAL true

TIL 1h
00000000
11000000
11000000
11111111
11000000
11111111
11000000
00000000
WAL true

TIL 1i
00000000
00000000
00000000
00000000
01100110
01100110
11101110
00000000
NAME boots

TIL 1j
00000000
00000011
00000011
00000011
00000011
00000011
00000011
00000000
WAL true

TIL 1k
00000000
11000000
11000000
11000000
11000000
11000000
11000000
00000000
WAL true

TIL 1l
00011111
00111111
01111111
01001111
00010011
00000011
00000011
00000110
>
00011111
00111111
01111111
01001111
00001011
00000011
00000011
00000110
NAME tree1
WAL true

TIL 1m
11111000
11111100
11111110
11110010
10001000
10000000
10000000
11000000
>
11111000
11111100
11111110
11110001
10001000
10000000
10000000
11000000
WAL true

TIL 1n
10000000
10000000
11000000
11100000
11100000
11110000
11111000
11111000
>
10000000
10000000
11000000
11000000
11100000
11110000
11110000
11111000
WAL true

TIL 1o
00000001
00000001
00000011
00000111
00000111
00001111
00011111
00011111
>
00000000
00000001
00000011
00000111
00001111
00001111
00011111
00011111
WAL true

TIL 1p
01001000
11101001
10100101
00000110
00101010
00100000
00100101
00000100
>
10001000
11001001
10100101
00001100
01001010
01100000
00100101
00000100
NAME grass4

TIL 1q
00000000
00100100
10011001
01011010
01111110
10111101
01111110
00111100
WAL true

TIL 1r
00111000
01100100
11100010
11000010
11000110
01111001
00011001
00000110
NAME rock1
WAL true

TIL 1s
00000000
00011000
00000000
00000000
00000011
00000000
01100000
00000000

TIL 1t
11111111
11111111
11111111
11111111
11111111
11111111
11111111
11111111
NAME water1
WAL true

TIL 1u
11110111
11111111
11001111
11111111
11110011
11111111
10111111
11111111
>
11101111
11111111
11111111
10110011
11111111
11111111
11001111
11111111
NAME water2
WAL true

TIL 1v
00000000
00000000
11110000
10101111
01010101
11101010
11111111
11111111
NAME waterbank
WAL true

TIL 1w
11111111
10000011
00000001
00000001
00010001
10110011
11111111
11111111
NAME lillypad

TIL 1x
11111111
11111111
01110011
00000011
00000011
00000011
00000011
00000110
>
11111111
01111111
00111111
00000011
00000011
00000011
00000011
00000110
NAME tree1
WAL true

TIL 1y
11111111
11111111
10011110
10000000
10000000
10000000
10000000
11000000
>
11111111
11111110
10111000
10000000
10000000
10000000
10000000
11000000
NAME tree3
WAL true

TIL 1z
00000011
00000111
00000111
00000111
00000111
01110011
11111101
11111111
>
00000001
00000011
00000111
00000111
00000111
00111111
01111101
11111111
NAME tree3
WAL true

TIL 2a
00000000
00000000
00000000
00000000
00000000
11110000
11111111
11111111
NAME box

TIL 2b
00000000
00000000
00000000
00000000
00000000
00000000
00000000
11110000
NAME box line

TIL 2c
00011100
01100010
10000010
10000001
10000001
01000001
01000110
00111000
NAME stamp

TIL 2d
00000000
00000000
00000000
00000000
11000000
11110000
11111100
11111111
NAME box

TIL 2e
11000000
11110000
11111100
11111111
11111111
11111111
11111111
11111111
NAME box

TIL 2f
00000000
00000000
00000000
00000000
11000000
11110000
11111100
11111111
NAME boxlid

TIL 2g
11000000
01110000
00111100
00011111
00001111
00000111
00000011
00000001
NAME boxlid

TIL 2h
00000000
00000000
00000000
00000000
00000000
00000000
00000000
00000000
WAL true

TIL 2i
11111111
01111111
10111111
11011111
11101111
11110111
11111011
11111101
NAME box

TIL 2j
00000001
00000011
00000111
00001111
00011111
00111111
01111111
11111111
NAME box

TIL 2k
11111111
11111110
11111100
11111000
11110000
11100000
11000000
10000000
NAME box

TIL 2l
10000000
11000000
11100000
11110000
11111000
11111100
11111110
11111111
NAME box

TIL 2m
00000000
00000000
00000000
00000000
01101000
00000000
11001110
00011000

TIL 2n
00000000
00000000
00000000
00100000
01100000
00000110
00000010
00000000

TIL 2o
00110000
00010000
00000000
00000000
00000110
00000100
00000000
00000000

TIL 2p
00000000
00000000
00000000
00000000
00000110
00000100
00000000
00000000

TIL 2q
00000011
00001111
00011111
00111101
01111111
01111111
11111111
11111111

TIL 2r
11000000
01110000
11111000
10011100
00001110
00001110
10011111
11110011

TIL 2s
11111111
11111111
01111111
01111111
00111111
00011111
00001111
00000011

TIL 2t
10110011
11111111
11001110
11001110
01111100
11111000
11110000
11000000

TIL 2u
00000000
00000000
00000000
00011000
00011000
00000000
00000000
00000000
>
00000000
00000000
00000000
00110000
00110000
00000000
00000000
00000000

TIL 2v
00000000
00000000
00000100
00000000
00000000
00000000
00100000
00000000
>
00000000
00000000
00000100
00000000
00000000
00000000
01000000
00000000

TIL 2w
00000000
00000010
00000000
01000000
00000000
00000000
00001000
00000000
>
00000000
00000100
00000000
01000000
00000000
00000000
00010000
00000000

TIL 2x
00000000
00001000
00000000
00000000
00000010
00000000
01000000
00000000

TIL 2y
00000000
00000000
00010000
00000000
00000000
00000000
01000000
00000001

TIL 2z
00000000
00000000
00000000
00000000
00000000
01000000
00000000
00000000

SPR 10
01100000
10010000
11010000
00010000
11100000
00000000
00000000
00000000
>
00000000
01110000
10010000
11010000
00010000
11100000
00000000
00000000
POS b 1,5

SPR 11
01111000
01111110
11111111
10001111
10000001
11111111
11111111
11111111
>
00000000
00000000
11111111
11111111
11111111
11111111
11111111
11111111
POS c 1,5

SPR 12
00000000
00010100
00111110
11111111
01110111
00111111
00011111
00001010
>
00000000
00010100
00111110
01111111
11110111
01111111
00011111
00001010
POS c 2,5

SPR 13
01100000
10010000
11010000
00010000
11100000
00000000
00000000
00000000
>
00000000
01110000
10010000
11010000
00010000
11100000
00000000
00000000
POS c 3,5

SPR 14
01100000
10010000
11010000
00010000
11100000
00000000
00000000
00000000
>
00000000
01110000
10010000
11010000
00010000
11100000
00000000
00000000
POS c 0,5

SPR 15
01100000
10010000
11010000
00010000
11100000
00000000
00000000
00000000
>
00000000
01110000
10010000
11010000
00010000
11100000
00000000
00000000
POS d 2,5

SPR 16
00000000
00010100
00111110
11111111
01110111
00111111
00011111
00001010
>
00000000
00010100
00111110
01111111
11110111
01111111
00011111
00001010
DLG SPR_7
POS d 1,5

SPR 17
01111000
01111110
11111111
10001111
10000001
11111111
11111111
11111111
>
00000000
00000000
11111111
11111111
11111111
11111111
11111111
11111111
POS d 0,5

SPR 18
00000000
00010100
00111110
11111111
01110111
00111111
00011111
00001010
>
00000000
00010100
00111110
01111111
11110111
01111111
00011111
00001010
DLG SPR_8
POS e 0,5

SPR 19
01100000
10010000
11010000
00010000
11100000
00000000
00000000
00000000
>
00000000
01110000
10010000
11010000
00010000
11100000
00000000
00000000
POS e 1,5

SPR A
00111100
01111110
01111110
00111100
00011000
01111110
00111100
00100100
>
00111100
01111110
01111110
00111100
00011000
00111100
01111110
00100100
POS 0 3,5

SPR a
10001110
01011100
01111000
11111110
11111111
10111101
10111101
11110111

SPR b
01101110
11110100
11110101
11110101
11110111
00011000
00011000
00011000
NAME jettbox
DLG SPR_1
POS 2 9,11

SPR c
01100110
01011010
01111110
11011011
11100111
11111111
00111100
01011010
>
01100110
01011010
11111111
11011011
11100111
01111110
00111100
01011010
DLG SPR_2
POS 9 8,10

SPR d
00111100
01100110
01100111
01111110
00111100
01011000
00111000
00010000
>
00111100
01111110
01100110
01100111
00111100
00011000
01111000
00010000
NAME bird
DLG SPR_3
POS 2 5,9

SPR e
00011100
11011111
10011111
10001111
10000011
11111111
11111111
11111111

SPR f
00000011
00000010
00000010
00000111
00001111
00001111
00001111
00001111

SPR g
01100111
11100011
11100011
11000111
11001111
11111111
11111100
01111111

SPR h
11101011
11111110
11111100
11111100
11111100
11101100
11101100
01110110

SPR i
00110000
01111001
01111111
11111111
11111111
11110111
11110111
11111111
POS 5 6,8

SPR j
11000000
11100000
11100000
11110000
11110000
11011000
11011000
01111000
POS 5 7,8

SPR k
10111000
11111000
11110000
11100000
11110000
11111000
11111110
11111111
POS 5 7,9

SPR l
11111110
01111111
00111111
00011111
00011111
00011111
00111111
00111111
POS 5 6,9

SPR m
01110001
00111010
00011110
01111111
11111111
10111101
10111101
11101111
POS 5 8,7

SPR n
11010111
01111111
00111111
00111111
00110111
00110111
01110111
01101110
POS 5 8,8

SPR o
11110110
11100111
11000111
11100011
11110011
11111111
00111111
11111110
POS 5 9,8

SPR p
11000000
01000000
01000000
11100000
11110000
11110000
11110000
11110000
POS 5 9,7

SPR q
00011100
11011111
10001111
10000111
10000001
11111111
11111111
11111111
>
00011110
11001111
10000111
10000011
10000001
11111111
11111111
11111111
NAME box
POS 4 8,5

SPR r
00011110
11001111
10000111
10000011
10000001
11111111
11111111
11111111
>
00011100
11011111
10001111
10000111
10000001
11111111
11111111
11111111
DLG SPR_0
POS 8 8,5

SPR s
00001100
00011110
00111110
00110111
00000111
11001111
01101111
00111111

SPR t
00011000
00111100
10111101
10011001
11111111
00011000
00111100
00100100
>
01011010
01111110
01111110
00111100
00011000
00011000
00111100
00100100
DLG SPR_5
POS a 7,5

SPR u
01100010
11110010
11110110
01101100
00011100
01111100
11011110
10010010
>
00000100
01100100
11110100
11110100
01111100
00111100
01111110
11010010
DLG SPR_6
POS a 9,5

SPR v
00000000
00010100
00111110
11111111
01110111
00111111
00011111
00001010
>
00000000
00010100
00111110
01111111
11110111
01111111
00011111
00001010
NAME rat1
POS b 3,5

SPR w
01100000
10010000
11010000
00010000
11100000
00000000
00000000
00000000
>
00000000
01110000
10010000
11010000
00010000
11100000
00000000
00000000
POS b 4,5

SPR y
01111000
01111110
11111111
10001111
10000001
11111111
11111111
11111111
>
00000000
00000000
11111111
11111111
11111111
11111111
11111111
11111111
POS b 2,5

SPR z
00000000
00010100
00111110
11111111
01110111
00111111
00011111
00001010
>
00000000
00010100
00111110
01111111
11110111
01111111
00011111
00001010
POS b 0,5

SPR 1a
01100000
10010000
11010000
00010000
11100000
00000000
00000000
00000000
>
00000000
01110000
10010000
11010000
00010000
11100000
00000000
00000000
POS f 0,5

SPR 1b
00000000
00000000
00000000
00111100
01111010
01111010
11110001
11110001
DLG SPR_4
POS 3 8,10

SPR 1c
00000000
00010100
00111110
11111111
01110111
00111111
00011111
00001010
>
00000000
00010100
00111110
01111111
11110111
01111111
00011111
00001010
POS n 12,12

SPR 1d
01100000
10010000
11010000
00010000
11100000
00000000
00000000
00000000
>
00000000
01110000
10010000
11010000
00010000
11100000
00000000
00000000
POS n 13,12

SPR 1e
00000000
00010100
00111110
11111111
01110111
00111111
00011111
00001010
>
00000000
00010100
00111110
01111111
11110111
01111111
00011111
00001010
POS n 8,9

SPR 1f
01100000
10010000
11010000
00010000
11100000
00000000
00000000
00000000
>
00000000
01110000
10010000
11010000
00010000
11100000
00000000
00000000
POS n 9,9

SPR 1g
00000000
00010100
00111110
11111111
01110111
00111111
00011111
00001010
>
00000000
00010100
00111110
01111111
11110111
01111111
00011111
00001010
DLG SPR_9
POS o 12,12

SPR 1h
01100000
10010000
11010000
00010000
11100000
00000000
00000000
00000000
>
00000000
01110000
10010000
11010000
00010000
11100000
00000000
00000000
POS o 13,12

SPR 1i
00000000
00010100
00111110
11111111
01110111
00111111
00011111
00001010
>
00000000
00010100
00111110
01111111
11110111
01111111
00011111
00001010
DLG SPR_a
POS o 8,9

SPR 1j
01100000
10010000
11010000
00010000
11100000
00000000
00000000
00000000
>
00000000
01110000
10010000
11010000
00010000
11100000
00000000
00000000
POS o 9,9

SPR 1k
00111100
01100110
01100111
01111110
00111100
01011000
00111000
00010000
>
00111100
01111110
01100110
01100111
00111100
00011000
01111000
00010000
DLG SPR_b
POS o 4,10

SPR 1l
01100110
01011010
01111110
11011011
11100111
11111111
00111100
01011010
>
01100110
01011010
11111111
11011011
11100111
01111110
00111100
01011010
DLG SPR_c
POS o 8,13

SPR 1m
00011000
00111100
10111101
10011001
11111111
00011000
00111100
00100100
>
01011010
01111110
01111110
00111100
00011000
00011000
00111100
00100100
DLG SPR_e
POS o 10,9

SPR 1n
01100010
11110010
11110110
01101100
00011100
01111100
11011110
10010010
>
00000100
01100100
11110100
11110100
01111100
00111100
01111110
11010010
DLG SPR_d
POS o 6,12

SPR 1o
00000000
01010000
11111000
11111000
01110000
01111101
01111101
01111111
DLG SPR_f
POS q 4,5

SPR 1p
00000000
01010000
11111000
11111000
01110000
01111101
01111101
01111111
DLG SPR_g
POS q 6,4

SPR 1q
00000000
01010000
11111000
11111000
01110000
01111101
01111101
01111111
DLG SPR_h
POS q 6,6

ITM 0
01000010
10100101
10011001
01100110
11011011
10011001
11111111
11111111
>
01100110
10100101
01011010
00100100
11011011
11011011
11111111
11111111
NAME gift

ITM 1
00111110
01110111
01110111
11110111
01111111
01110111
00111110
00000000
>
00011100
00110110
01110111
11110111
01111111
00110110
00011100
00000000
DLG ITM_1

ITM 2
00111110
01110111
01110111
01110111
01111111
01110111
00111110
00000000
>
00011100
00110110
01110111
11110111
01111111
00110110
00011100
00000000
DLG ITM_2

ITM 3
00000000
00000000
00000000
00010000
00000000
00000000
00000000
00000000
NAME fndKittens
DLG ITM_3

ITM 4
00000000
00000000
00000000
00101000
00000000
00000000
00000000
00000000
NAME findMilk
DLG ITM_4

ITM 5
00000000
00011000
00100100
00011000
00111100
01000010
01111110
00111100
NAME formula
DLG ITM_5

ITM 6
00111110
01000001
01000001
01010101
01001001
00111110
00011100
00011100

DLG SPR_1
Jett's House

DLG ITM_1
{wvy}Mew! Mew! Mew!{wvy}

DLG ITM_2
{wvy}Kittens!{wvy}

DLG ITM_3
"""
Kittens! 
Who left them here?
"""

DLG SPR_0
I have to find milk for these kittens!

DLG ITM_5
Some kitten formula

DLG SPR_4
"""
"FROG'S MILK SHOP
BACK IN FIVE"
"""

DLG SPR_5
"""
101... 102... 10- 
Whoops lost count.
1... 2... 3...
"""

DLG SPR_6
"""
{sequence
  - Hup! Hup! Hello!
    Nice day for it! {clr2}
    (Can't even find a private place for light calisthenics anymore.){clr2}
  - Ow! I think I sprained something.
}
"""

DLG ITM_4
You must get milk for the kittens.

DLG SPR_2
"""
R-R-R-RIBBIT
Cat milk sale
"""

DLG SPR_7
We found a home for the kittens!

DLG SPR_8
Can the kittens stay here?

DLG SPR_9
We knew you'd want to raise the kittens.

DLG SPR_a
We're relieved the kittens now have a safe home.

DLG SPR_b
Thank you for helping!

DLG SPR_3
"""
{sequence
  - {wvy}Tweet tweet!{wvy}
    There's a mysterious box by the river!
  - Be careful! I saw some suspicious characters!
}
"""

DLG SPR_c
R-R-Ribbit! You did it!

DLG SPR_d
Everyone wants a safe home.

DLG SPR_e
"""
{sequence
  - I'm so happy things worked out.
  - I'll have to come over more often to visit the kittens! Oh, and you too.
}
"""

DLG SPR_f
MEW!

DLG SPR_g
MEW MEW!

DLG SPR_h
MEW MEW MEW!

END 0
End!

VAR a
42

VAR cats
0


