
A customer enters the store.

# BITSY VERSION 4.6

! ROOM_FORMAT 1

PAL 0
234,202,208
255,156,172
76,128,255

ROOM 0
0,0,0,0,0,0,0,0,0,0,0,0,0,0,0,0
0,a,a,a,a,a,a,a,a,a,a,a,a,a,a,0
0,a,s,s,s,s,s,s,s,s,s,s,s,s,a,0
0,a,s,d,c,c,c,f,e,s,s,s,s,s,a,0
0,a,s,d,f,c,f,c,e,s,w,0,s,0,a,0
0,a,s,s,s,s,s,s,s,s,v,u,u,u,a,0
0,a,s,s,b,b,b,g,s,s,s,s,s,s,a,0
0,a,s,s,b,g,g,b,s,s,s,s,s,s,a,0
0,a,s,s,s,s,s,s,s,s,s,s,s,s,a,0
0,a,s,s,s,s,s,s,s,s,i,o,o,n,a,0
0,a,s,s,s,s,s,s,s,s,h,0,t,m,a,0
0,a,s,s,s,s,s,q,q,s,h,p,t,m,a,0
0,a,s,s,s,s,s,q,q,s,h,p,t,m,a,0
0,a,s,s,s,s,s,q,q,s,j,k,k,l,a,0
0,a,a,a,a,a,a,q,q,a,a,a,a,a,a,0
0,0,0,0,0,0,0,0,0,0,0,0,0,0,0,0
EXT 10,3 1 10,3
EXT 10,2 1 10,2
PAL 0

ROOM 1
0,0,0,0,0,0,0,0,0,0,0,0,0,0,0,0
0,a,a,a,a,a,a,a,a,a,a,a,a,a,a,0
0,a,s,s,s,s,s,s,s,s,s,s,s,s,a,0
0,a,s,d,c,c,c,f,e,s,s,s,s,s,a,0
0,a,s,d,f,c,f,c,e,s,w,0,s,0,a,0
0,a,s,s,s,s,s,s,s,s,v,u,u,u,a,0
0,a,s,s,b,b,b,g,s,s,s,s,s,s,a,0
0,a,s,s,b,g,g,b,s,s,s,s,s,s,a,0
0,a,s,s,s,s,s,s,s,s,s,s,s,s,a,0
0,a,s,s,s,s,s,s,s,s,i,o,o,n,a,0
0,a,s,s,s,s,s,s,s,s,h,0,t,m,a,0
0,a,s,s,s,s,s,q,q,s,h,p,t,m,a,0
0,a,s,s,s,s,s,q,q,s,h,p,t,m,a,0
0,a,s,s,s,s,s,q,q,s,j,k,k,l,a,0
0,a,a,a,a,a,a,q,q,a,a,a,a,a,a,0
0,0,0,0,0,0,0,0,0,0,0,0,0,0,0,0
ITM 0 11,4
END undefined 7,15
END undefined 8,15
PAL 0

TIL a
11111111
11111111
11111111
11111111
11111111
11111111
11111111
11111111
WAL true

TIL b
10111101
01111110
11111111
11111111
11111111
11111111
01111110
10111101
WAL true

TIL c
11111111
00000000
00000000
00000000
00000000
11111111
00000000
00000000
WAL true

TIL d
00011111
00010000
00010000
00010000
00010000
00011111
00010000
00010000
WAL true

TIL e
11111000
00001000
00001000
00001000
00001000
11111000
00001000
00001000
WAL true

TIL f
11111111
00000000
00001100
00011100
00110100
11111111
00000000
00000000
WAL true

TIL g
10111101
01111110
11111111
11110011
11100011
11001011
01111110
10111101
WAL true

TIL h
00000001
00000001
00000001
00010001
00000001
00000001
00000001
00000001

TIL i
00000000
00000000
00000000
00010000
00000000
00000000
00000011
00000011

TIL j
00000011
00000011
00000000
00010000
00000000
00000000
00000000
00000000

TIL k
11111111
00000000
00000000
00010000
00000000
00000000
00000000
00000000

TIL l
11000000
11000000
00000000
00010000
00000000
00000000
00000000
00000000

TIL m
10000000
10000000
10000000
10010000
10000000
10000000
10000000
10000000

TIL n
00000000
00000000
00000000
00010000
00000000
00000000
11000000
11000000

TIL o
00000000
00000000
00000000
00010000
00000000
00000000
00000000
11111111

TIL p
00000000
00000000
00000000
00001100
00011100
00110100
00000000
00000000
WAL true

TIL q
11101110
10001000
11011101
00010001
10111011
00100010
01110111
01000100

TIL r
11000101
01110001
01011100
00010111
11000101
01110001
01011100
00010111

TIL s
00000000
00000000
00000000
00010000
00000000
00000000
00000000
00000000

TIL t
00000000
00000000
00000000
00000000
00000000
00000000
00000000
00000000
WAL true

TIL u
11111111
00001000
00001000
00001000
00001000
00001000
00001000
11111111
WAL true

TIL v
10001111
10001000
10001000
10001000
10001000
01001000
00101000
00011111
WAL true

TIL w
00000000
00000000
00000000
00000000
10000000
11000000
10100000
10010000
WAL true

TIL y
00000000
00000000
00000000
00000000
00000000
00000000
00000000
00000000

SPR A
00011100
00011100
00011100
01111110
01011101
00111101
00010100
00010100
POS 0 10,7
ITM 0 1

SPR b
00000000
00000000
00000000
00001100
00011100
00110100
00000000
00000000
DLG SPR_1
POS 0 11,10

SPR d
00011000
00111100
00111100
01111110
10111101
10111101
00100100
00100100
>
00011000
00111100
00111100
11111111
10111101
00111100
00100100
00100100
DLG SPR_3
POS 0 5,9

SPR e
00011100
00011100
00011100
00011110
00111101
01010100
00010100
00010100

SPR f
00000000
00011100
00111110
00101010
00111110
00011110
00001110
01101111
POS 0 12,4

SPR g
00000000
00000000
00000000
00001100
00011100
00110100
00000000
00000000
POS 1 11,10

SPR h
00000000
00011100
00111110
00101010
00111110
00011110
00001110
01101111
>
00000000
00011100
00111110
00101010
00111110
00011110
01101110
00111111
DLG SPR_0
POS 1 12,4

ITM 0
00000000
00000000
00000000
00000000
00000000
00000000
00000000
00000000
NAME tea
DLG ITM_0

ITM 1
00000000
00000000
00000000
00000000
00000000
00000000
00000000
00000000

DLG ITM_0
The customer left the store.

DLG SPR_1
This {clr3}shoe{clr3} looks absolutely {shk}hideous{shk}.

DLG SPR_3
"""
{sequence
  - Hello.
  - Um... Hello?
  - Okay, I get that you don't need my help, but could you at least have the decency to acknowledge me trying to politely approach you?
  - Because, you see... it's just like that:
  - You come to this store, because you want to buy some {clr3}shoes{clr3}.
  - Which means {wvy}YOU{wvy} want something from {wvy}ME{wvy}.
  - So when {wvy}I{wvy} say hello, I'm trying to act nice with {wvy}YOU{wvy}.
  - And let me tell you something sweetie:
  - Unlike you, I don't need shit from you.
  - So how about you reconsider the way you approach people that you want something from.
  - Because being exposed to that kind of {rbw}energy{rbw} doesn't make me want to talk to you at all anymore.
  - Which means you may either just leave, or look for someone else to endure your unpleasant presence.
  - ...
  - Thank you.
}
"""

DLG SPR_0
Um... Would you please explain what {shk}THAT{shk} was?

END 0


END undefined
Although you will most likely be fired, you remained in control over your body and principles.


