
Unburying E.T.

# BITSY VERSION 4.6

! ROOM_FORMAT 1

PAL 0
246,211,150
184,150,54
65,82,27

PAL 1
NAME HOUSE OUTSIDE
78,69,255
140,156,255
173,255,97

PAL 2
NAME ET FACE
102,102,102
193,177,167
102,102,102

PAL 3
NAME DESERT
166,135,49
247,218,163
255,255,255

PAL 4
NAME HOUSE INSIDE
0,0,0
102,102,102
173,255,97

ROOM 0
0,0,0,0,0,0,0,0,0,0,0,0,0,0,0,0
0,0,0,0,0,0,0,0,0,0,0,0,0,0,0,0
0,0,c,0,0,0,0,0,0,0,0,0,0,c,0,0
0,0,c,0,0,0,0,0,0,0,0,0,0,c,0,0
0,c,c,c,0,0,0,c,c,0,0,0,c,c,c,0
0,c,c,c,0,0,c,c,c,c,0,0,c,c,c,0
0,c,c,c,0,0,0,c,c,0,0,0,c,c,c,0
c,c,c,c,c,0,0,0,0,0,0,c,c,c,c,c
c,c,c,c,c,b,b,b,b,b,b,c,c,c,c,c
b,c,c,c,b,b,b,c,c,b,b,b,c,c,c,b
b,c,c,c,b,b,c,c,c,c,b,b,c,c,c,b
b,c,c,c,b,b,b,c,c,b,b,b,c,c,c,b
b,b,c,b,b,b,b,b,b,b,b,b,b,c,b,b
b,b,c,b,b,b,b,b,b,b,b,b,b,c,b,b
b,b,b,b,b,b,b,b,b,b,b,b,b,b,b,b
b,b,b,b,b,b,b,aw,aw,b,b,b,b,b,b,b
NAME DESERT 1
EXT 7,15 7 7,0
EXT 8,15 7 8,0
PAL 0

ROOM 1
d,0,0,0,0,0,0,0,0,0,0,0,0,0,0,d
d,0,0,0,0,0,0,0,0,0,0,0,0,0,0,d
d,d,0,0,0,0,0,0,0,0,0,0,0,0,d,d
d,d,0,0,0,0,0,0,0,0,0,0,0,0,d,d
d,d,0,0,0,0,0,0,0,0,0,0,0,0,d,d
d,d,d,0,0,0,0,0,0,0,0,0,0,d,d,d
d,d,d,0,0,0,0,0,0,0,0,0,0,d,d,d
d,d,d,d,0,0,0,0,0,0,0,0,d,d,d,d
d,d,d,d,0,0,0,0,0,0,0,0,d,d,d,d
d,d,d,d,0,0,0,0,0,0,0,0,d,d,d,d
d,d,d,d,0,0,0,0,0,0,0,0,d,d,d,d
d,d,d,d,0,0,0,0,0,0,0,0,d,d,d,d
d,d,d,d,d,d,0,0,0,0,d,d,d,d,d,d
d,d,d,d,d,d,d,d,d,d,d,d,d,d,d,d
d,d,d,d,d,d,d,d,d,d,d,d,d,d,d,d
d,d,d,d,d,d,d,d,d,d,d,d,d,d,d,d
NAME PIT ANGRY
EXT 6,11 8 6,13
EXT 7,11 8 6,13
EXT 8,11 8 6,13
EXT 9,11 8 6,13
PAL 0

ROOM 2
0,0,0,0,0,0,0,0,0,0,0,0,0,0,0,0
0,0,0,0,0,0,0,f,f,0,0,0,0,0,0,0
0,0,0,0,0,f,f,f,f,f,f,0,0,0,0,0
0,0,0,f,f,f,f,f,f,f,f,f,f,0,0,0
0,f,f,0,f,f,f,f,f,f,f,f,0,f,f,0
0,0,0,0,f,0,0,f,f,0,0,f,0,0,0,0
0,0,0,0,f,f,f,f,f,f,f,f,0,0,0,0
0,0,0,0,f,0,0,f,f,0,0,f,0,0,0,0
0,0,0,0,f,f,f,f,f,f,f,f,0,0,0,0
a,0,0,0,0,0,0,0,0,0,0,0,0,0,0,a
a,0,0,0,0,0,0,0,0,0,0,0,0,0,0,a
a,0,0,0,0,0,0,0,0,0,0,0,0,0,0,a
a,0,0,0,0,0,0,0,0,0,0,0,0,0,0,a
a,0,0,0,0,0,0,0,0,0,0,0,0,0,0,a
a,0,0,0,0,0,0,0,0,0,0,0,0,0,0,a
a,a,a,a,a,a,a,0,0,a,a,a,a,a,a,a
NAME HOUSE
EXT 7,15 0 7,0
EXT 8,15 0 8,0
PAL 1

ROOM 5
0,0,0,0,0,0,0,0,0,0,0,0,0,0,0,0
0,0,0,3l,2,2,7z,80,0,0,0,81,y,y,82,83
3l,84,j,6,85,86,87,88,89,11,8a,a,8b,8c,8d,0
10,a,8e,8f,8g,8h,8i,8j,9,9,8k,a,69,0,0,0
10,a,8l,8m,8n,8f,y,8o,0,0,8p,a,69,0,0,0
10,a,8q,6g,8r,7j,17,87,0,0,8p,a,69,0,0,0
8s,l,l,86,87,0,0,0,8s,0,8t,1b,8d,0,8t,8u
0,0,0,0,0,0,0,0,0,0,0,0,0,0,0,0
0,0,8v,8w,8x,8y,8z,90,91,92,93,94,95,0,0,0
0,0,96,97,98,99,9a,9b,9c,9d,9e,9f,9g,9h,0,0
0,0,9i,9j,9k,9l,9m,9n,9o,9p,9q,9r,9s,9t,9u,0
0,0,9v,9w,9x,9y,9z,a0,a1,a2,a3,a4,a5,a6,a7,0
0,0,0,0,a8,a9,aa,2u,2u,ab,ac,ad,ae,af,ag,0
0,0,0,0,ah,ai,aj,ak,al,am,an,ao,ap,aq,0,0
0,0,0,0,0,0,0,0,0,0,ar,as,at,au,0,0
0,0,0,0,0,0,0,0,0,0,0,0,0,0,0,0
NAME ET FACE
EXT 2,15 9 7,12
EXT 3,14 9 7,12
EXT 4,15 9 7,12
PAL 2

ROOM 7
0,0,0,0,0,0,0,aw,aw,0,0,0,0,0,0,0
0,0,0,0,0,0,0,0,0,0,0,0,0,0,0,0
0,0,0,0,0,0,0,0,0,0,0,0,0,0,0,0
0,0,c,c,c,0,0,0,0,0,0,c,c,c,0,0
0,c,c,c,c,c,0,0,0,0,c,c,c,c,c,0
0,0,c,c,c,0,0,0,0,0,0,c,c,c,0,0
0,0,0,0,0,0,0,0,0,0,0,0,0,0,0,0
aw,0,0,0,0,0,0,0,0,0,0,0,0,0,0,aw
aw,0,0,0,0,0,0,0,0,0,0,0,0,0,0,aw
0,0,0,0,0,0,0,0,0,0,0,0,0,0,0,0
0,0,c,c,c,0,0,0,0,0,0,c,c,c,0,0
0,c,c,c,c,c,0,0,0,0,c,c,c,c,c,0
0,0,c,c,c,0,0,0,0,0,0,c,c,c,0,0
0,0,0,0,0,0,0,0,0,0,0,0,0,0,0,0
0,0,0,0,0,0,0,0,0,0,0,0,0,0,0,0
0,0,0,0,0,0,0,aw,aw,0,0,0,0,0,0,0
NAME DESERT 2
EXT 7,0 0 7,15
EXT 8,0 0 8,15
EXT 7,15 8 7,0
EXT 8,15 8 8,0
EXT 15,7 a 0,7
EXT 15,8 a 0,8
EXT 0,7 b 15,7
EXT 0,8 b 15,8
PAL 0

ROOM 8
0,0,0,0,0,0,0,aw,aw,0,0,0,0,0,0,0
0,0,0,0,0,0,0,0,0,0,0,0,0,0,0,0
0,0,0,c,c,c,c,0,0,c,c,c,c,0,0,0
0,0,c,c,c,0,0,0,0,0,0,c,c,c,0,0
0,c,c,c,0,0,0,0,0,0,0,0,c,c,c,0
0,0,c,c,c,0,0,0,0,0,0,c,c,c,0,0
0,0,0,c,c,c,c,0,0,c,c,c,c,0,0,0
0,0,0,0,0,0,0,0,0,0,0,0,0,0,0,0
0,0,0,0,0,0,0,0,0,0,0,0,0,0,0,0
0,0,0,0,0,0,0,0,0,0,0,0,0,0,0,0
0,0,0,0,0,0,0,0,0,0,0,0,0,0,0,0
0,0,0,0,0,0,0,0,0,0,0,0,0,0,0,0
0,0,c,c,0,0,0,0,0,0,0,0,c,c,0,0
0,c,c,c,c,0,ax,0,0,ax,0,c,c,c,c,0
0,0,c,c,0,0,0,0,0,0,0,0,c,c,0,0
0,0,0,0,0,0,0,aw,aw,0,0,0,0,0,0,0
NAME DESERT 3
EXT 7,0 7 7,15
EXT 8,0 7 8,15
EXT 6,13 1 8,12
EXT 7,15 e 7,0
EXT 8,15 e 8,0
EXT 9,13 f 8,12
PAL 0

ROOM 9
d,0,0,0,0,0,0,0,0,0,0,0,0,0,0,d
d,0,0,0,0,0,0,0,0,0,0,0,0,0,0,d
d,d,0,0,0,0,0,0,0,0,0,0,0,0,d,d
d,d,0,0,0,0,0,0,0,0,0,0,0,0,d,d
d,d,0,0,0,0,0,0,0,0,0,0,0,0,d,d
d,d,d,0,0,0,0,0,0,0,0,0,0,d,d,d
d,d,d,0,0,0,0,0,0,0,0,0,0,d,d,d
d,d,d,d,0,0,0,0,0,0,0,0,d,d,d,d
d,d,d,d,0,0,0,0,0,0,0,0,d,d,d,d
d,d,d,d,0,0,0,0,0,0,0,0,d,d,d,d
d,d,d,d,0,0,0,0,0,0,0,0,d,d,d,d
d,d,d,d,0,0,0,0,0,0,0,0,d,d,d,d
d,d,d,d,d,d,0,0,0,0,d,d,d,d,d,d
d,d,d,d,d,d,d,d,d,d,d,d,d,d,d,d
d,d,d,d,d,d,d,d,d,d,d,d,d,d,d,d
d,d,d,d,d,d,d,d,d,d,d,d,d,d,d,d
NAME PIT GAME
EXT 7,12 5 3,15
EXT 6,11 e 7,14
EXT 7,11 e 7,14
EXT 8,11 e 7,14
EXT 9,11 e 7,14
PAL 0

ROOM a
0,0,0,0,0,0,0,0,0,0,0,0,0,0,0,0
0,0,0,0,0,0,0,0,0,0,0,0,0,0,0,0
0,0,0,0,0,0,0,0,0,0,0,0,0,0,0,0
0,0,c,c,c,0,0,0,0,0,0,c,c,c,0,0
0,c,c,c,c,c,0,0,0,0,c,c,c,c,c,0
0,0,c,c,c,0,0,0,0,0,0,c,c,c,0,0
0,0,0,0,0,0,0,0,0,0,0,0,0,0,0,0
aw,0,0,0,0,0,0,0,0,0,0,0,0,0,0,0
aw,0,0,0,0,0,0,0,0,0,0,0,0,0,0,0
0,0,0,0,0,0,0,0,0,0,0,0,0,0,0,0
0,0,c,c,c,0,0,0,0,0,0,c,c,c,0,0
0,c,c,c,c,c,0,0,0,0,c,c,c,c,c,0
0,0,c,c,c,0,0,0,0,0,0,c,c,c,0,0
0,0,0,0,0,0,0,0,0,0,0,0,0,0,0,0
0,0,0,0,0,0,0,ax,0,0,0,0,0,0,0,0
0,0,0,0,0,0,0,0,0,0,0,0,0,0,0,0
NAME DESERT 4
EXT 0,7 7 15,7
EXT 0,8 7 15,8
EXT 7,14 d 8,12
PAL 0

ROOM b
0,0,0,0,0,0,0,0,0,0,0,0,0,0,0,0
0,0,0,0,0,0,0,0,0,0,0,0,0,0,0,0
0,0,0,0,0,0,0,0,0,0,0,0,0,0,0,0
0,0,c,c,c,0,0,0,0,0,0,c,c,c,0,0
0,c,c,c,c,c,0,0,0,0,c,c,c,c,c,0
0,0,c,c,c,0,0,0,0,0,0,c,c,c,0,0
0,0,0,0,0,0,0,0,0,0,0,0,0,0,0,0
0,0,0,0,0,0,0,0,0,0,0,0,0,0,0,aw
0,0,0,0,0,0,0,0,0,0,0,0,0,0,0,aw
0,0,0,0,0,0,0,0,0,0,0,0,0,0,0,0
0,0,c,c,c,0,0,0,0,0,0,c,c,c,0,0
0,c,c,c,c,c,0,0,0,0,c,c,c,c,c,0
0,0,c,c,c,0,0,0,0,0,0,c,c,c,0,0
0,0,0,0,0,0,0,0,0,0,0,0,0,0,0,0
0,ax,0,0,0,0,0,0,0,0,0,0,0,0,0,0
0,0,0,0,0,0,0,0,0,0,0,0,0,0,0,0
NAME DESERT 5
EXT 15,7 7 0,7
EXT 15,8 7 0,8
EXT 1,14 g 8,12
PAL 0

ROOM c
0,0,0,0,0,0,0,0,0,0,0,0,0,0,0,0
0,0,0,0,0,0,0,a,a,0,0,0,0,0,0,0
0,0,0,0,0,a,a,a,a,a,a,0,0,0,0,0
0,0,0,a,a,a,a,a,a,a,a,a,a,0,0,0
0,a,a,0,c,c,c,c,c,c,c,c,0,f,f,0
0,0,0,0,c,0,0,c,c,0,0,c,0,0,0,0
0,0,0,0,c,c,c,c,c,c,c,c,0,0,0,0
0,0,0,0,c,0,0,c,c,0,0,c,0,0,0,0
0,0,0,0,c,c,c,aw,aw,c,c,c,0,0,0,0
0,0,0,0,0,0,0,0,0,0,0,0,0,0,0,0
0,0,0,0,0,0,0,0,0,0,0,0,0,0,0,0
0,0,0,0,0,0,0,0,0,0,0,0,0,0,0,0
0,0,0,0,0,0,0,0,0,0,0,0,0,0,0,0
0,0,0,0,0,0,0,0,0,0,0,0,0,0,0,0
0,0,0,0,0,0,0,0,0,0,0,0,0,0,0,0
0,0,0,0,0,0,0,0,0,0,0,0,0,0,0,0
NAME HOUSE INSIDE
EXT 7,15 0 7,0
EXT 8,15 0 8,0
EXT 7,8 2 7,9
EXT 8,8 2 8,9
PAL 4

ROOM d
d,0,0,0,0,0,0,0,0,0,0,0,0,0,0,d
d,0,0,0,0,0,0,0,0,0,0,0,0,0,0,d
d,d,0,0,0,0,0,0,0,0,0,0,0,0,d,d
d,d,0,0,0,0,0,0,0,0,0,0,0,0,d,d
d,d,0,0,0,0,0,0,0,0,0,0,0,0,d,d
d,d,d,0,0,0,0,0,0,0,0,0,0,d,d,d
d,d,d,0,0,0,0,0,0,0,0,0,0,d,d,d
d,d,d,d,0,0,0,0,0,0,0,0,d,d,d,d
d,d,d,d,0,0,0,0,0,0,0,0,d,d,d,d
d,d,d,d,0,0,0,0,0,0,0,0,d,d,d,d
d,d,d,d,0,0,0,0,0,0,0,0,d,d,d,d
d,d,d,d,0,0,0,0,0,0,0,0,d,d,d,d
d,d,d,d,d,d,0,0,0,0,d,d,d,d,d,d
d,d,d,d,d,d,d,d,d,d,d,d,d,d,d,d
d,d,d,d,d,d,d,d,d,d,d,d,d,d,d,d
d,d,d,d,d,d,d,d,d,d,d,d,d,d,d,d
NAME PIT PAC
EXT 6,11 a 7,14
EXT 7,11 a 7,14
EXT 8,11 a 7,14
EXT 9,11 a 7,14
PAL 0

ROOM e
0,0,0,0,0,0,0,aw,aw,0,0,0,0,0,0,0
0,0,0,0,0,0,0,0,0,0,0,0,0,0,0,0
0,0,0,0,0,0,0,0,0,0,0,0,0,0,0,0
0,0,c,c,c,0,0,0,0,0,0,c,c,c,0,0
0,c,c,c,c,c,0,0,0,0,c,c,c,c,c,0
0,0,c,c,c,0,0,0,0,0,0,c,c,c,0,0
0,0,0,0,0,0,0,0,0,0,0,0,0,0,0,0
0,0,0,0,0,0,0,0,0,0,0,0,0,0,0,0
0,0,0,0,0,0,0,0,0,0,0,0,0,0,0,0
0,0,0,0,0,0,0,0,0,0,0,0,0,0,0,0
0,0,c,c,c,0,0,0,0,0,0,c,c,c,0,0
0,c,c,c,c,c,0,0,0,0,c,c,c,c,c,0
0,0,c,c,c,0,0,0,0,0,0,c,c,c,0,0
0,0,0,0,0,0,0,0,0,0,0,0,0,0,0,0
0,0,0,0,0,0,0,ax,0,0,0,0,0,0,0,0
0,0,0,0,0,0,0,0,0,0,0,0,0,0,0,0
NAME DESERT 6
EXT 7,14 9 7,12
EXT 7,0 8 7,15
EXT 8,0 8 8,15
PAL 0

ROOM f
d,0,0,0,0,0,0,0,0,0,0,0,0,0,0,d
d,0,0,0,0,0,0,0,0,0,0,0,0,0,0,d
d,d,0,0,0,0,0,0,0,0,0,0,0,0,d,d
d,d,0,0,0,0,0,0,0,0,0,0,0,0,d,d
d,d,0,0,0,0,0,0,0,0,0,0,0,0,d,d
d,d,d,0,0,0,0,0,0,0,0,0,0,d,d,d
d,d,d,0,0,0,0,0,0,0,0,0,0,d,d,d
d,d,d,d,0,0,0,0,0,0,0,0,d,d,d,d
d,d,d,d,0,0,0,0,0,0,0,0,d,d,d,d
d,d,d,d,0,0,0,0,0,0,0,0,d,d,d,d
d,d,d,d,0,0,0,0,0,0,0,0,d,d,d,d
d,d,d,d,0,0,0,0,0,0,0,0,d,d,d,d
d,d,d,d,d,d,0,0,0,0,d,d,d,d,d,d
d,d,d,d,d,d,d,d,d,d,d,d,d,d,d,d
d,d,d,d,d,d,d,d,d,d,d,d,d,d,d,d
d,d,d,d,d,d,d,d,d,d,d,d,d,d,d,d
NAME PIT 2
EXT 6,11 8 9,13
EXT 7,11 8 9,13
EXT 8,11 8 9,13
EXT 9,11 8 9,13
PAL 0

ROOM g
d,0,0,0,0,0,0,0,0,0,0,0,0,0,0,d
d,0,0,0,0,0,0,0,0,0,0,0,0,0,0,d
d,d,0,0,0,0,0,0,0,0,0,0,0,0,d,d
d,d,0,0,0,0,0,0,0,0,0,0,0,0,d,d
d,d,0,0,0,0,0,0,0,0,0,0,0,0,d,d
d,d,d,0,0,0,0,0,0,0,0,0,0,d,d,d
d,d,d,0,0,0,0,0,0,0,0,0,0,d,d,d
d,d,d,d,0,0,0,0,0,0,0,0,d,d,d,d
d,d,d,d,0,0,0,0,0,0,0,0,d,d,d,d
d,d,d,d,0,0,0,0,0,0,0,0,d,d,d,d
d,d,d,d,0,0,0,0,0,0,0,0,d,d,d,d
d,d,d,d,0,0,0,0,0,0,0,0,d,d,d,d
d,d,d,d,d,d,0,0,0,0,d,d,d,d,d,d
d,d,d,d,d,d,d,d,d,d,d,d,d,d,d,d
d,d,d,d,d,d,d,d,d,d,d,d,d,d,d,d
d,d,d,d,d,d,d,d,d,d,d,d,d,d,d,d
EXT 6,11 b 1,14
EXT 7,11 b 1,14
EXT 8,11 b 1,14
EXT 9,11 b 1,14
PAL 0

TIL 1
00000000
00000000
00000000
00000000
00000000
00000111
00000111
00000111

TIL 2
00000000
00000000
00000000
00000000
00000000
11111111
11111111
11111111

TIL 3
00000000
00000000
00000000
00000000
00000000
11111111
11111111
00000000

TIL 4
00000000
00000000
00000000
00000000
00000000
11000000
11000000
00000000

TIL 5
00000000
00000000
00000000
00000000
00000000
00000011
00000011
00000111

TIL 6
11111111
11111111
11111111
11111111
11111111
11111111
11111111
11110000

TIL 7
11111111
11111111
11111111
11111111
11111100
11111100
11111100
00000000

TIL 8
11111111
11111111
11111110
11111110
00000000
00000000
00000000
00000000

TIL 9
11111111
11111111
00000000
00000000
00000000
00000000
00000000
00000000

TIL 10
00001111
00001111
00001111
00001111
00001111
00001111
00001111
00001111

TIL 11
00000000
00000000
00000000
00000111
00000111
11111111
11111111
11111111

TIL 12
00000001
00000011
00000011
11111111
11111111
11111111
11111111
11111101

TIL 13
11111111
11111111
11111111
11111111
11111111
11111110
11111110
11000000

TIL 14
11111111
11111111
11111111
11111111
11111111
00000000
00000000
00000000

TIL 15
11111111
11111111
11111111
00000000
00000000
00000000
00000000
00000000

TIL 16
11000000
11000000
10000000
00000000
00000000
00000000
00000000
00000000

TIL 17
11111111
11111111
11110000
11110000
11110000
00000000
00000000
00000000

TIL 18
11111100
11111100
00000000
00000000
00000000
00000000
00000000
00000000

TIL 19
00011111
00011111
00011111
00011111
00000110
00000000
00000000
00000000

TIL 20
11111100
01111111
01111100
00111100
00001111
00001100
00001111
00000011

TIL 21
01100000
11100000
01100001
11100000
11100000
01100000
11100000
00011001

TIL 22
00111100
00111111
11111100
11111100
00110011
00111111
00111100
11110001

TIL 23
01100000
10011111
01100111
01100111
11111111
10011000
01111000
10011111

TIL 24
11111111
11111111
11111111
11111111
11111111
00110000
00110000
11111111

TIL 25
10011111
11111100
10011111
10011111
11111100
01100011
01111111
11100011

TIL 26
11000110
11111110
00111110
00111110
11111110
00111110
11000110
11110001

TIL 27
00000011
00000011
00001111
00001111
00000011
00000011
00000011
10001100

TIL 28
00011111
11000111
11111111
11111111
11000110
11111111
00011111
11111110

TIL 29
11110011
11001111
11111111
11111111
00111100
11111111
11001100
00111111

TIL 30
11000011
11111100
00110011
00110011
11001100
00110000
11111100
11000000

TIL 31
10000000
01100000
00000000
10000000
00000000
00000000
00000000
00000000

TIL 32
00001100
00001111
00000001
00000000
00000000
00000000
00000000
00000000

TIL 33
00000000
10011111
11100111
01111000
00011111
00011111
00000111
00000000

TIL 34
00000000
11110001
11111111
11111111
00110001
00110001
11000000
11111111

TIL 35
00000000
11111111
11111111
11111111
10011100
10011100
00000000
11111111

TIL 36
00000000
11000001
11000001
00000111
00111110
00111110
11110000
11000000

TIL 37
01111111
11111111
11110000
10000000
00000000
00000000
00000000
00000000

TIL 38
11000110
00000001
00000110
00011001
11000110
11000110
11111111
11111111

TIL 39
00110011
11001111
00111111
11111111
00001100
00001100
11111111
11111111

TIL 40
00000000
11111111
11111111
11111111
11111111
11111111
11111111
00000000

TIL 41
11100000
11111111
11111111
11111111
11111111
11111111
11111101
11100000

TIL 42
00000011
11111111
11111111
11111111
11111111
11111111
00111111
00000001

TIL 43
11111111
11111111
01111111
11111111
00000000
00000000
00000000
00000000

TIL 44
11000000
11100000
11100000
11000000
00000000
00011111
00011111
00011111

TIL 45
00000001
00000001
00000001
00000001
00000011
11111111
11111111
11111111

TIL 46
11111111
11111111
11111111
11111111
11111100
11111100
11111100
11111100

TIL 47
11111111
11111111
11111111
11111111
01111111
00111111
00111111
00111111

TIL 48
11111111
11111111
11111111
11111111
11111000
11110000
11110000
11110000

TIL 49
00000000
00000000
01111111
11111111
11111111
11111111
11111111
11111111

TIL 50
00000000
00000001
00000001
00011111
00011111
00011111
00011111
00011111

TIL 51
00001111
11111111
11111111
11111111
11111111
11111111
11111111
11111111

TIL 52
11111100
11111111
11111111
11111111
11111111
11111111
11111111
11111111

TIL 53
00000000
11000001
11000001
11111110
11111110
11111111
11111111
11111111

TIL 54
00000000
11100000
11100000
00011111
00011111
11100000
11100000
11100000

TIL 55
00000000
00000000
00000000
00000000
00000000
11100000
11110000
11110000

TIL 56
11110000
11110000
00001111
00001111
11111111
11111111
11111111
11111111

TIL 57
11111111
11111111
00000000
00000000
00000111
00001111
11110000
11110000

TIL 58
11111111
11111111
01111111
01111111
10000111
10000111
01111000
01111000

TIL 59
11111111
11111111
11111111
11111111
11111111
11111111
01111111
00111111

TIL 60
00000000
00000000
00001111
00001111
00000000
00000000
00000000
00000000

TIL 61
11111111
11111111
11111111
11111111
11110000
11110000
11111100
11111111

TIL 62
11111000
11111000
10000111
10000111
01111111
01111111
01111000
11111000

TIL 63
00111111
00111111
10000011
10000011
11111111
11111111
01111100
00111000

TIL 64
11111111
11111111
11111111
11111111
11111111
11111111
00000011
00000011

TIL 65
11111111
11111111
11111111
11111111
11111111
11111111
11100000
11100000

TIL 66
11111111
11111111
11100001
11100001
11111111
11111111
00011110
00011110

TIL 67
11110000
11110000
11111111
11111111
11110000
11110000
00001100
00001111

TIL 68
11111111
11111111
00001111
00001111
11111111
11111111
00001111
00001111

TIL 69
11111000
11111000
11111000
11111000
11111000
11111000
11111000
11111000

TIL 70
11111111
11111111
00011111
00011111
11111111
11111111
11111111
11111111

TIL 71
00001111
00001111
11111111
11111111
11110000
11110000
11111111
11111111

TIL 72
00000111
00000111
11111111
11111111
11111111
11111111
11111000
11111000

TIL 73
11111000
11111000
11111111
11111111
11111111
11111111
01111111
01111111

TIL 74
00111100
00111100
10000011
10000011
11111111
11111111
11111111
11111111

TIL 75
00111111
00111111
11111100
11111110
11111111
11111111
11000001
11000001

TIL 76
11111110
11111110
00011111
00011111
11111111
11111111
11100001
11000001

TIL 77
00011111
00011111
11111111
11111111
11111111
11111111
11100000
11100000

TIL 78
00001111
00001111
00001111
00000000
00000000
00001111
00001111
00000000

TIL 79
11111111
11110000
11110000
11111111
11111111
00001111
00001111
00001111

TIL 80
00000000
00000000
00000000
00000000
00000000
11110000
11110000
00000000

TIL 81
00000000
00000000
00000000
00000000
00000000
00000000
00000111
00000111

TIL 82
00000000
00000000
00000000
00000000
00000000
00001000
11111111
11111111

TIL 83
00000000
00000000
00000000
00000000
00000000
00000000
11111000
11111000

TIL 84
00000000
00000000
00001111
00001111
00011111
11111111
11111111
11111111

TIL 85
11111111
11111111
11111111
11111111
11110000
11110000
11110000
00000000

TIL 86
11111111
11111111
11110000
11110000
00000000
00000000
00000000
00000000

TIL 87
11110000
11110000
00000000
00000000
00000000
00000000
00000000
00000000

TIL 88
00000000
00000000
00000000
00000000
00000000
00000000
00000000
00000111

TIL 89
00000000
00000000
00000000
00000000
00000000
00000111
00000111
11111111

TIL 90
00000000
00000000
00000000
00000001
00000001
00001111
00111111
00111111

TIL 91
00000000
00000011
01111111
11111111
11111111
11111111
11111111
11111111

TIL 92
00000000
00111001
11111111
11111111
11111111
11111111
11111111
11111111

TIL 93
00000000
10000000
11100000
11111100
11111100
11111111
11111111
11111111

TIL 94
00000000
00000000
00000000
00000000
00000000
00011000
11100110
11111001

TIL 95
00000000
00000000
00000000
00000000
00000000
00000000
00000000
10000000

TIL 96
00111111
00111111
11111111
11111110
11111001
11111111
11111111
11000111

TIL 97
11110011
11110011
10001100
00110011
11111111
11110011
11110011
10001100

TIL 98
00011111
00011111
11100001
11100110
11111001
00011111
00011111
11111001

TIL 99
11111111
11111111
11111111
00111111
11001111
11110011
11110011
11001111

TIL a
11111111
11111111
11111111
11111111
11111111
11111111
11111111
11111111
WAL true

TIL b
00000000
00000000
00000000
00000000
00000000
00000000
00000000
00000000

TIL c
11111111
11111111
11111111
11111111
11111111
11111111
11111111
11111111

TIL d
11111111
11111111
11111111
11111111
11111111
11111111
11111111
11111111
WAL true

TIL e
00000000
01000010
00000000
00000000
00000000
00000000
01000010
00000000
WAL true

TIL f
11111111
11111111
11111111
11111111
11111111
11111111
11111111
11111111
WAL true

TIL g
00000000
00000000
00000000
00000000
00000000
00000000
00000000
11111111

TIL h
00000000
00000000
00000000
00000000
00000000
00111111
00111111
11111111

TIL i
00000000
00000000
00011111
00011111
00011111
11111111
11111111
11111111

TIL j
00001111
00001111
11111111
11111111
11111111
11111111
11111111
11111111

TIL k
11111111
11111111
11111111
11111111
11111110
11111100
11111100
11111100

TIL l
11111111
11111111
11111111
11111111
00000000
00000000
00000000
00000000

TIL m
11110000
00000000
00000000
00000000
00000000
00000000
00000110
00000111

TIL n
00000000
00000000
00000000
00000000
00000011
00000011
10001111
11111111

TIL o
00000000
00000001
00000001
00000001
11111111
11111111
11111110
11111110

TIL p
00000000
11111111
11111111
11111111
11111111
11111111
00000000
00000000

TIL q
00000000
11111111
11111111
11111111
00000000
00000000
00000000
00000000

TIL r
00000000
10000000
11000000
10000000
00000000
00000000
00000000
00000000

TIL s
11111111
00000000
00000000
00000000
00000000
00000000
00000000
00000000

TIL t
11111111
00001111
00001111
00001111
00001111
00001111
00001111
00001111

TIL u
11111100
11111100
11111100
11111100
11111100
11111100
11111100
11111100

TIL v
00000111
11111111
11111111
11110000
11110000
11110000
00000000
00000000

TIL w
11111111
11111100
11111100
00000000
00000000
00000000
00000000
00000000

TIL x
11111110
00000000
00000000
00000000
00000000
00000000
00000001
00000001

TIL y
00000000
00000000
00000000
00000000
00000000
00000000
11111111
11111111

TIL z
00000000
00000000
00000000
00000000
00000000
00000000
11000000
11000000

TIL 1a
00001111
00001111
00001111
00001111
00000111
00000000
00000000
00000000

TIL 1b
11111111
11111111
11111000
11111000
11111000
00000000
00000000
00000000

TIL 1c
00000000
00000000
00000000
00000011
00000011
00001111
00001111
00001111

TIL 1d
00000000
00000111
01111111
11111111
11111111
11111111
11111111
11111001

TIL 1e
00000000
11111100
11111111
11111111
11111111
11111111
11111111
11111111

TIL 1f
00000000
01111000
11100111
11111111
11111111
11111111
11111111
11111111

TIL 1g
00000000
00000000
00000000
00110000
00110000
11001110
11110000
11001110

TIL 1h
00000000
00000000
00000000
00000011
00000011
00011111
01111111
01111111

TIL 1i
00000000
00000110
11111111
11111111
11111111
11111111
11111111
11111111

TIL 1j
00000000
01110011
11111111
11111111
11111111
11111111
11111111
11111111

TIL 1k
00000000
00000000
11000000
11111000
11111000
11111110
11111111
11111111

TIL 1l
00000000
00000000
00000000
00000000
00000000
00110000
11001100
11110011

TIL 1m
00000000
00000000
00000001
00000001
00000001
00000001
00000001
00000001

TIL 1n
00111111
01111111
11111111
11111100
11110011
11111111
11111111
10001111

TIL 1o
11100110
11100110
00011001
01100111
11111111
11100110
11100110
00011001

TIL 1p
00111111
00111111
11000011
11001100
11110011
00111111
00111111
11110011

TIL 1q
11111111
11111111
11111111
01111111
10011111
11100111
11100111
10011111

TIL 1r
11111111
11111111
11001110
11110001
11001110
00111111
00111111
11001110

TIL 1s
11111111
11111111
01111111
11111111
01111111
11111111
11111111
01111100

TIL 1t
11111111
11111111
11111111
11110001
11000110
00111111
00111111
11110001

TIL 1u
11111111
11111111
11110011
10001100
01110011
11111111
11111111
10001100

TIL 1v
11111111
11111111
11111111
11000111
00011001
11000110
11000110
11111001

TIL 1w
11110011
11110011
11110011
11111111
11110011
00111111
00111111
11111111

TIL 1x
00011000
00011000
11100110
11100000
11100110
11111111
11111111
11100111

TIL 1y
00000000
00000000
00000000
11000000
00110000
11001100
11001100
11001100

TIL 1z
00000001
00000000
00000000
00000000
00000000
00000000
00000000
00000000

TIL 2a
11111111
00011111
11111000
11111000
11100111
11111111
11100110
11111111

TIL 2b
11001111
11111111
11001111
11001111
11111100
11111111
00111100
11111111

TIL 2c
10000000
10000000
10000000
10000000
01100000
10000000
01100000
10000000

TIL 2d
00000011
00000011
00000000
00000000
00000000
00000000
00000000
00000000

TIL 2e
10011001
11100111
01111110
01100111
00011110
00000000
00000001
00000001

TIL 2f
11110011
11001111
00111111
11111111
00111100
00111110
11111111
11110011

TIL 2g
10011111
11111111
10011111
11111111
01111111
11111111
11111111
11111111

TIL 2h
11111111
11111111
11111111
11001111
11111111
11111111
11111111
11001111

TIL 2i
11100011
11111111
11111111
11111111
11111111
11111111
11111111
11111111

TIL 2j
11111001
11111111
00110001
11111111
11000111
11001110
11111110
11111111

TIL 2k
10001100
11111111
11110011
11111100
11111111
01111111
01111111
10001111

TIL 2l
11111110
11111001
00011111
11111001
11111111
11100110
11000110
11111111

TIL 2m
00111011
11110011
11001100
11111111
11111111
01110011
00110011
11111111

TIL 2n
11111111
00011000
11111111
11111111
11111111
11111111
11111110
11111111

TIL 2o
11111111
11111100
11001111
11110011
11001100
00000000
00110011
11111100

TIL 2p
10000000
01100000
10000000
11100000
01100000
00000000
10000000
00000000

TIL 2q
00000000
00000001
00000000
00000000
00000000
00000000
00000000
00000000

TIL 2r
00111111
11001111
00001111
00001111
00111111
00111100
00111100
00001100

TIL 2s
11111111
11111111
11111111
11111111
11111111
01111111
01111111
00000000

TIL 2t
11111111
11111111
11001111
11001111
11111111
11111111
11111111
00000000

TIL 2u
11111111
11111111
11111111
11111111
11111111
11111111
11111111
00000000

TIL 2v
11111111
11111110
11111111
11111111
11111111
11111111
11111110
00000000

TIL 2w
11110011
01111100
11111111
11111111
11111111
10001111
00001111
01111111

TIL 2x
00111111
11111110
11111111
11111111
11111111
11111110
11111001
11100110

TIL 2y
11001111
00111111
11111100
11111100
11001111
00111111
11111100
00110011

TIL 2z
11100111
00011111
01111111
11111110
11100111
00011110
11111111
11111000

TIL 3a
11111000
00011111
11111000
11111111
11100000
11100000
11111111
11111111

TIL 3b
11000000
11111100
11001100
11110000
00001100
00001100
11110000
11001100

TIL 3c
00000000
11111111
11111111
00000000
00000000
00000000
00000000
00000000

TIL 3d
00110011
11111111
11111111
00000000
00000000
00000000
00000000
00000000

TIL 3e
00011000
11111111
11111111
00000000
00000000
00000000
00000000
00000000

TIL 3f
00000000
11001100
11001100
00000000
00000000
00000000
00000000
00000000

TIL 3g
00011111
00011111
00011111
00011111
00001111
00001111
00001111
00001111

TIL 3h
11111110
11111110
11111110
11111110
11111110
11111110
11111110
11111110

TIL 3i
11111110
00000000
00000000
00000000
00000000
00000000
00000000
00000000

TIL 3j
00000000
00000000
00000000
00000000
00000000
00000011
00000011
00000011

TIL 3k
00000000
00000000
00000000
00000000
00000000
10000000
10000000
10000000

TIL 3l
00000000
00000000
00000000
00000000
00000000
00001111
00001111
00001111

TIL 3m
00000000
00000000
00000000
11111111
11111111
11111111
11111111
11111111

TIL 3n
00000011
00000011
00000111
11111111
11111111
11111111
11111111
11111111

TIL 3o
10000000
10000000
11000000
11111111
11111111
11111111
11111111
11111111

TIL 3p
00001111
00001111
00001111
11111111
11111111
11111111
11111111
11111111

TIL 3q
00000000
00000000
00000000
00000000
00000000
00000000
00000000
11000000

TIL 3r
00000000
00000000
00000000
00000000
00000000
00000000
00000000
01111111

TIL 3s
00000000
00000111
00000111
00000111
00000111
00000111
00000111
11111111

TIL 3t
00000001
11111111
11111111
11111111
11111111
11111111
11111111
11111111

TIL 3u
11000000
11000000
11000000
11100000
00000000
00000000
00000000
00000000

TIL 3v
00000000
00000000
00000000
00000000
00000000
00000001
00000001
00000001

TIL 3w
01111111
01111111
01111111
01111111
11111111
11111111
11111111
11111111

TIL 3x
11111111
11111111
00001010
00000000
00000000
00000000
00000000
00000000

TIL 3y
00000000
00000000
00000000
11000000
11100000
11100000
11100000
11100000

TIL 3z
00000001
00000001
00000001
00000001
00000001
00000001
00000001
00000001

TIL 4a
00011111
00011111
11000000
11100000
11100000
11000000
11100000
11100000

TIL 4b
11111111
11111111
00000011
00000001
00000001
00000001
00000001
00000001

TIL 4c
11111111
11111111
11100000
11100000
11100000
11100000
11100000
11100000

TIL 4d
11111100
11111100
00000011
00000011
00000011
00000011
00000011
00000011

TIL 4e
00000000
00000000
11111111
11111111
11111111
11111111
11111111
11111111

TIL 4f
00111111
00111111
10000000
10000000
10000000
10000000
10000000
10000000

TIL 4g
11110000
11110000
00000111
00001111
00001111
00001111
00001111
00001111

TIL 4h
00000000
00000000
11111110
11111111
11111111
11111111
11111111
11111111

TIL 4i
11111100
11111110
11111110
11111110
11111110
11111110
11111110
11111110

TIL 4j
11111111
11111100
11111100
11111100
11111100
00000000
00000000
00000000

TIL 4k
11111100
00000000
00000000
00000000
00000000
00000000
00000000
00000000

TIL 4l
00000000
00000000
00111111
01111111
01111111
01111111
01111111
01111111

TIL 4m
01111111
01111111
01111111
00000000
00000000
00000000
00000000
00000000

TIL 4n
00000000
00000000
10000111
10000111
11111111
11111111
11111111
11111111

TIL 4o
00000000
00000000
11111000
11111000
10000011
10000011
11111111
11111111

TIL 4p
00000000
00000000
00000000
00000000
11000000
11000000
11000001
11000011

TIL 4q
00000000
00000000
00000000
00000000
00000000
00000000
11000000
11100000

TIL 4r
00000000
00000000
00000000
00000000
00000000
00000000
00001111
00001111

TIL 4s
00000000
00000000
00000000
00000000
11111111
11111111
11111111
11111111

TIL 4t
00000000
00000000
11111000
11111000
11111111
11111111
11111111
11111111

TIL 4u
00000000
00000000
01111000
01111000
11111111
11111111
11111111
11111111

TIL 4v
00000000
00000000
00111100
00111100
11111111
11111111
11111111
11111111

TIL 4w
00000000
00000000
00000000
00000000
11000000
11000000
11111100
11111100

TIL 4x
11111111
11111111
11111111
11111111
11111111
00001111
00001111
00001111

TIL 4y
11000011
11111100
11111100
11111111
11111111
11111100
11111100
11111100

TIL 4z
11100000
00011110
00011110
11100000
11100000
00011100
00011110
00011110

TIL 5a
11111111
11111111
11111100
11111100
11111111
11111111
11111100
11111100

TIL 5b
11111111
11111111
00011110
00011110
11100001
11100001
00011100
00011110

TIL 5c
11111111
11111111
00011111
00011111
11111111
11111111
00011111
00011111

TIL 5d
11111111
11111111
11111111
11111111
11111111
11111111
11110000
11110000

TIL 5e
11111111
11111111
11111111
11111111
00000111
00000111
01111000
11111000

TIL 5f
11111111
11111111
11111000
11111000
10000011
10000011
01111000
01111000

TIL 5g
11111111
11111111
00111111
00111111
10000011
10000011
00111100
00111100

TIL 5h
11111111
11111111
11111111
11111111
11000001
11000001
00111100
00111100

TIL 5i
11111111
11111111
11111111
11111111
11111111
11111111
00011111
00011111

TIL 5j
11100000
11100000
11100000
11100000
11111111
11111111
11100000
11100000

TIL 5k
11110000
11110000
11111111
11111111
11111111
11111111
11111111
11111111

TIL 5l
11111111
11110000
11110000
00001111
00001111
00000000
00000000
00000000

TIL 5m
11110000
11111111
11111111
11110000
11110000
11111111
11111111
11111111

TIL 5n
01111000
11111111
11111111
01111000
01111000
10000111
10000111
10000000

TIL 5o
00111111
10000011
10000011
00111111
00111111
10000000
10000000
00000000

TIL 5p
11111100
11000011
11000011
11111100
11111100
00111111
00111111
00111111

TIL 5q
00011110
11111111
11111111
00011110
00011110
11111111
11111111
11111111

TIL 5r
00011111
11111111
11111111
00011111
00011111
11100001
11100001
11100001

TIL 5s
11111111
11111111
11111111
11110000
11110000
11111111
11111111
11110001

TIL 5t
11110000
00001111
00001111
11111111
11111111
11110000
11110000
11110000

TIL 5u
11111000
11111111
11111111
00000111
00000111
11111000
11111000
11111000

TIL 5v
01111000
11111111
11111111
10000111
10000011
00000000
00000000
00000000

TIL 5w
01111100
11111111
11111111
10000011
10000011
00111100
01111100
00111100

TIL 5x
00111100
11000001
11000001
11111100
11111100
00111111
00111111
00000011

TIL 5y
00011111
11000001
11000001
00011111
00011111
11111111
11111111
11111110

TIL 5z
11100000
11111111
11111111
11111111
11111111
11100000
11100000
00000000

TIL 6a
00000000
00000000
00000011
00000011
00000000
00000000
00000000
00000000

TIL 6b
00111111
01111111
11111111
11111111
01111111
00111111
00111111
00111111

TIL 6c
11000001
11000001
11111111
11111111
11000001
11000001
11110011
11111111

TIL 6d
11111110
11111110
11111111
11111111
11000001
11000001
11111011
11111111

TIL 6e
00011111
00011111
11111111
11111111
11111111
11111111
11111111
11111111

TIL 6f
11110000
11110000
11111111
11111111
00001111
00001111
00011111
11111111

TIL 6g
00000000
00000000
00000000
00001111
00001111
11111111
11111111
11111111

TIL 6h
11111111
11111111
11111111
11110000
11110000
00001111
00001111
00001111

TIL 6i
11111000
10000111
10000111
01111000
01111000
11111111
11111111
11111111

TIL 6j
01111000
11111000
11111000
00111111
00111111
11111111
11111111
11111111

TIL 6k
00000011
00000011
00000011
11111111
11111111
11111111
11111111
11111111

TIL 6l
11100000
11100000
11100000
11111111
11111111
11111111
11111111
11111111

TIL 6m
00011110
00011111
00011111
11111110
11111110
11111111
11111111
11111111

TIL 6n
00001111
11111111
11111111
00001111
00001111
11111111
11111111
11111111

TIL 6o
00001111
11110000
11110000
11111111
11111111
11111111
11111111
11111111

TIL 6p
11111000
11111000
11111000
00000111
00000111
11111111
11111111
11111111

TIL 6q
00000000
00000000
00000000
10000011
10000011
11111111
11111111
11111111

TIL 6r
00111111
00111100
00111100
10000011
10000011
11111111
11111111
11111111

TIL 6s
11111111
00111111
00111111
11111111
11111111
11111110
11111100
11111110

TIL 6t
11111111
11111110
11111110
11000001
11000001
00011111
00011111
00111111

TIL 6u
11111111
00011111
00011111
11111111
11111111
11100000
11100000
11100000

TIL 6v
11111111
00001111
00001111
11111111
11111111
11110000
11110000
11100000

TIL 6w
11110000
11110000
11111111
11111111
11110000
11110000
00001111
00001111

TIL 6x
11111000
11111000
11111111
11111111
10000111
10000111
11111111
11111111

TIL 6y
00111111
00111111
11111111
11111111
11111111
11111111
11111111
11111111

TIL 6z
11111111
11111111
11111100
11111100
11111111
11111111
11111111
11111111

TIL 7a
11111111
01111111
01111111
11111111
11111111
11111111
11111111
11111111

TIL 7b
11111111
11111100
11111100
11111111
11111111
11111111
11111111
11111100

TIL 7c
11111111
00011111
00011111
11111111
11111111
11111111
11111111
00111111

TIL 7d
11111000
11111111
11111111
11111111
11111111
11111000
11111000
11111000

TIL 7e
01111111
10000111
10000011
11111000
11111000
01111111
01111111
01111111

TIL 7f
11111111
11111111
11111111
01111100
00111100
10000011
10000011
11000011

TIL 7g
11000001
11111111
11111111
00111111
00111111
11111111
11111111
11111111

TIL 7h
11100001
11111111
11111111
11111110
11111110
11100001
11000001
11100001

TIL 7i
11100000
11111111
11111111
00011111
00011111
11111111
11111111
11111111

TIL 7j
11111111
11111111
11111111
11111111
11111111
11110000
11110000
00000000

TIL 7k
00000000
00000000
00000000
00000000
00000000
10000000
00000000
00000000

TIL 7l
00000000
00000000
00000001
00000000
00000000
00000000
00000000
00000000

TIL 7m
00000000
00000000
10000011
00000000
00000000
00000000
00000000
00000000

TIL 7n
00000000
00000000
10000000
00000000
00000000
00000000
00000000
00000000

TIL 7o
00000000
00000000
01000000
00000000
00000000
00000000
00000000
00000000

TIL 7p
00000000
00000000
00000000
00000000
00000000
00000001
00000000
00000000

TIL 7q
00000000
00000000
00000010
00000000
00000000
00000000
00000000
00000000

TIL 7r
00000000
00000000
00000000
00000001
00000000
00000000
00000000
00000000

TIL 7s
00000000
00000000
00000000
00000000
00000000
00000010
00000000
00000000

TIL 7t
00000000
00000000
00000000
00000000
00000000
01000000
00000000
00000000

TIL 7u
00000000
00000000
00000000
00000000
00000000
00000110
00000000
00000000

TIL 7v
00000000
00000000
11000001
00000000
00000000
00000000
00000000
00000000

TIL 7w
00000000
00000000
00100000
00000000
00000000
00000000
00000000
00000000

TIL 7x
00000000
01000000
00000000
00000000
00000000
00000000
00000000
00000000

TIL 7y
00000000
00100100
00000000
00000000
00000000
00000000
00000000
00000000

TIL 7z
00000000
00000000
00000000
00000000
00000000
11111111
11111111
11110000

TIL 8a
00000111
00000111
00000111
11111111
11111111
11111111
11111111
11111111

TIL 8b
11111111
11111111
11111111
11111111
11111111
11111000
11111000
11111000

TIL 8c
11111111
11111111
11111000
11111000
11110000
00000000
00000000
00000000

TIL 8d
11111000
11111000
00000000
00000000
00000000
00000000
00000000
00000000

TIL 8e
11111111
11110000
11110000
11110000
11110000
11110000
11110000
11110000

TIL 8f
11110000
00000000
00000000
00000000
00000000
00000000
00001111
00001111

TIL 8g
00000000
00000000
00000000
00000000
00001111
00001111
11111111
11111111

TIL 8h
00000000
00001111
00001111
00001111
11111111
11111111
11110000
11110000

TIL 8i
00000000
11111111
11111111
11111111
11110000
11110000
00000000
00000000

TIL 8j
00000111
11110111
11100000
11100000
00000000
00000000
00000000
00000000

TIL 8k
11111111
11111111
00000111
00000111
00000111
00000111
00000111
00000111

TIL 8l
11110000
11111111
11111111
11111111
11111111
11110000
11110000
11110000

TIL 8m
00001111
11111111
11111111
11110000
11110000
00000000
00000000
00000000

TIL 8n
11111111
11110000
11110000
00000000
00000000
00000000
00000000
00000000

TIL 8o
00000000
00000000
00000000
00000000
00000000
00000000
11110000
11110000

TIL 8p
00000111
00000111
00000111
00000111
00000111
00000111
00000111
00000111

TIL 8q
11110000
11110000
11110000
11110000
11110000
11111111
11111111
11111111

TIL 8r
00001111
00001111
00001111
11111111
11111111
11111111
11111111
11110000

TIL 8s
00001111
00001111
00001111
00001111
00000000
00000000
00000000
00000000

TIL 8t
00000111
00000111
00000111
00000111
00000111
00000000
00000000
00000000

TIL 8u
10000000
10000000
10000000
10000000
10000000
00000000
00000000
00000000

TIL 8v
00000000
00000000
00000000
00000001
00000001
00000111
00000111
00000111

TIL 8w
00000000
00000011
00111111
11111111
11111111
11111111
11111111
11111100

TIL 8x
00000000
11111110
11111111
11111111
11111111
11111111
11111111
11111111

TIL 8y
00000000
00111100
11110011
11111111
11111111
11111111
11111111
11111111

TIL 8z
00000000
00000000
10000000
10011000
10011000
11100111
11111000
11100111

TIL 9a
11111111
11111111
11100111
11111000
11100111
10011111
10011111
11100111

TIL 9b
11111111
11111111
00111111
11111111
00111111
11111111
11111111
00111110

TIL 9c
11111111
11111111
11111111
11111000
11100011
10011111
10011111
01111000

TIL 9d
11111111
11111111
11111001
11000110
00111001
11111111
11111111
11000110

TIL 9e
11111111
11111111
11111111
01100011
10001100
11100011
11100011
01111100

TIL 9f
11111001
11111001
11111001
11111111
11111001
00011111
00011111
11111111

TIL 9g
10001100
10001100
11110011
11110000
11110011
11111111
11111111
11110011

TIL 9h
00000000
00000000
10000000
01100000
10011000
11100110
11100110
11100110

TIL 9i
11111110
00111111
00111110
00011110
00000111
00000110
00000111
00000001

TIL 9j
00110000
11110000
00110000
01110000
11110000
00110000
11110000
10001100

TIL 9k
00011110
00011111
11111110
01111010
00011001
00011111
00011110
11111001

TIL 9l
00110000
11001111
00110011
00110011
11111111
11001100
00111100
11001111

TIL 9m
01111111
11111111
11111111
11111111
11111111
00011000
00011000
11111111

TIL 9n
11001111
11111110
11001111
11001111
11111110
00110001
00111111
11110001

TIL 9o
11100011
01111111
10011111
10011111
01111111
10011111
11100011
11111000

TIL 9p
00000001
00000001
00000111
00000111
00000001
00000001
00000001
11000110

TIL 9q
10001111
11100011
11111111
11111111
11100011
11111111
10001111
01111111

TIL 9r
11111001
11100111
11111111
11111111
00011110
11111111
11100110
00011111

TIL 9s
11111111
10001111
11111100
11111100
01110011
11111111
01110011
11111111

TIL 9t
11100111
11111111
01100111
01100111
11111110
11111111
10011110
11111111

TIL 9u
11000000
11000000
11000000
11000000
00110000
11000000
00110000
11000000

TIL 9v
00000001
00000001
00000000
00000000
00000000
00000000
00000000
00000000

TIL 9w
11001100
11110011
00111111
00110011
00001111
00000000
00000000
00000000

TIL 9x
11111001
11100111
00011111
11111111
00011110
00011111
11111111
11111001

TIL 9y
11001111
11111111
11001111
11111111
00111111
01111111
11111111
11111111

TIL 9z
11111111
11111111
11111111
11100111
11111111
11111111
11111111
11100111

TIL a0
11110001
11111111
11111111
11111111
11111111
11111111
11111111
11111111

TIL a1
11111100
11111111
10011000
11111111
11100011
11100111
11111111
11111111

TIL a2
11000110
11111111
11111001
11111110
11111111
00111111
00111111
11000111

TIL a3
01111111
11111100
10001111
01111100
11111111
11110011
11100011
11111111

TIL a4
00011001
11111001
11100110
11111111
11111111
00011001
00011001
11111111

TIL a5
11111111
10001100
01111111
11111111
11111111
11111111
11111111
11111111

TIL a6
11111111
01111110
11100111
11111001
11100110
10000000
10011001
11111110

TIL a7
11000000
00110000
11000000
11110000
00110000
00000000
11000000
00000000

TIL a8
00011111
11100111
00000111
00000111
00011111
00011110
00011110
00000110

TIL a9
11111111
11111111
11111111
11111111
11111111
00111111
00111111
00000000

TIL aa
11111111
11111111
11100111
11100111
11111111
11111111
11111111
00000000

TIL ab
11111001
00111110
11111111
11111111
11111111
11000111
00000111
00111111

TIL ac
10001111
01111111
11111111
11111111
11111111
11111111
11111100
11110011

TIL ad
11100111
00011111
11111110
11111110
11100111
00011111
11111110
00011001

TIL ae
11110011
10001111
00111111
00111111
11110011
10001111
01111111
11111100

TIL af
11100001
11111110
10011000
10011001
11100110
10011000
11111110
01100000

TIL ag
11000000
00110000
10000000
11000000
00000000
00000000
00000000
00000000

TIL ah
00000110
00000111
00000001
00000000
00000000
00000000
00000000
00000000

TIL ai
00000000
11001111
11110011
00111100
00001111
00001111
00000011
00000000

TIL aj
00000000
11111000
11111111
01111111
10011000
10011000
11100000
01111111

TIL ak
00000000
11111111
11111111
11111111
11001110
11001110
00000000
11111111

TIL al
00000000
11100000
11100000
10000011
00011111
00011111
01111000
11100000

TIL am
00111111
11111111
11111000
11000000
00000000
00000000
00000000
00000000

TIL an
11100011
10000000
00000011
00001100
01100011
01100011
01111111
01111111

TIL ao
00011001
11100111
00011111
11111111
00000110
00000110
11111111
11111111

TIL ap
11111100
10001111
11111100
11111111
01110000
01110000
11111111
11111111

TIL aq
01100000
11111110
01100110
11111000
00000110
00000110
11111000
11100110

TIL ar
00000000
01111111
01111111
00000000
00000000
00000000
00000000
00000000

TIL as
00011001
11111111
11111111
00000000
00000000
00000000
00000000
00000000

TIL at
10001100
11111111
11111111
00000000
00000000
00000000
00000000
00000000

TIL au
00000000
11100110
11100110
00000000
00000000
00000000
00000000
00000000

TIL aw
01010101
10101010
01010101
10101010
01010101
10101010
01010101
10101010

TIL ax
00000000
00011000
00111100
01111110
01111110
00111100
00011000
00000000

TIL ay
00000000
00011000
00111100
01111110
01111110
00111100
00011000
00000000

SPR 10
00000000
00011000
00011000
00000000
00111100
01011010
01011010
00011100
>
00011000
00011000
00000000
00111100
01011010
01011010
00011000
00011100
DLG SPR_e
POS b 4,7

SPR 11
01000110
01100110
10010010
00001110
00001110
01001110
00001010
00001010
>
00000000
00110000
00111100
00001110
00011110
00101110
11001010
11001010
DLG SPR_f
POS 8 4,12

SPR 12
00000000
00001100
00111100
01110000
01111000
01110100
01010011
01010011
>
01100010
01100110
01001001
01110000
01110000
01110010
01010000
01010000
DLG SPR_g
POS b 11,9

SPR 13
00000111
00000111
00011000
01111000
11111000
11111100
11111111
01100000
POS a 7,8

SPR 14
11110000
11100000
00110000
01011100
10111111
00111111
11111111
00000011
POS a 8,8

SPR 15
00000000
00000000
00000000
00000000
10000000
11111000
11110000
00000000
POS a 9,8

SPR 16
00011100
00011100
10011001
01111110
00111100
00111100
00111100
00100100
>
00111000
00111000
00011000
00111100
01111110
10111101
00111100
00100100
DLG SPR_h
POS a 6,7

SPR 17
00000000
00001100
00111100
01110000
01111000
01110100
01010011
01010011
>
01100010
01100110
01001001
01110000
01110000
01110010
01010000
01010000
DLG SPR_i
POS a 10,2

SPR 18
00000000
00001100
00111100
01110000
01111000
01110100
01010011
01010011
>
01100010
01100110
01001001
01110000
01110000
01110010
01010000
01010000
DLG SPR_j
POS f 6,12

SPR 19
01111111
11111001
11111111
11000011
11111000
11111111
11111001
11001110
>
01111111
11111001
11111111
11000011
11111000
11111111
11111001
11101100
DLG SPR_k
POS g 6,12

SPR A
11111110
10011111
11111111
11000011
00011111
11111111
10011111
00110111
>
11111110
10011111
11111111
11000011
00011111
11111111
10011111
01110011
POS c 7,6

SPR a
00000000
01011000
01011100
01011101
01111111
00011100
00011100
00011100
NAME cactus 6
POS 8 2,7

SPR b
00000000
01011000
01011100
01011101
01111111
00011100
00011100
00011100
NAME cactus 7
POS 8 14,10

SPR d
00000000
01011000
01011100
01011101
01111111
00011100
00011100
00011100
NAME cactus 8
POS 8 13,1

SPR e
00000000
01011000
01011100
01011101
01111111
00011100
00011100
00011100
NAME cactus 9
POS a 4,1

SPR f
00000000
01011000
01011100
01011101
01111111
00011100
00011100
00011100
NAME cactus 10
POS a 11,14

SPR g
00011000
00111100
00011000
00111100
01111110
10111101
00111100
00100100
>
00011000
00111100
00011000
00111100
01111110
01111110
00111100
00100100
DLG SPR_1
POS 2 6,13

SPR h
00000000
00001100
00111100
01110000
01111000
01110100
01010011
01010011
>
01100010
01100110
01001001
01110000
01110000
01110010
01010000
01010000
DLG SPR_0
POS 0 11,3

SPR i
00000000
00000000
01111100
01111100
01111100
00010000
00010000
00111000
DLG SPR_2
POS 0 7,2

SPR j
01000110
01100110
10010010
00001110
00001110
01001110
00001010
00001010
>
00000000
00110000
00111100
00001110
00011110
00101110
11001010
11001010
DLG SPR_3
POS 0 5,13

SPR k
00000000
01011000
01011100
01011101
01111111
00011100
00011100
00011100
NAME cactus 1
POS 0 4,1

SPR l
00000000
01011000
01011100
01011101
01111111
00011100
00011100
00011100
NAME cactus 2
POS 0 10,12

SPR m
01000110
01100110
10010010
00001110
00001110
01001110
00001010
00001010
>
00000000
00110000
00111100
00001110
00011110
00101110
11001010
11001010
DLG SPR_4
POS 7 6,2

SPR n
00000000
00001100
00111100
01110000
01111000
01110100
01010011
01010011
>
01100010
01100110
01001001
01110000
01110000
01110010
01010000
01010000
DLG SPR_5
POS 7 8,8

SPR o
01000110
01100110
10010010
00001110
00001110
01001110
00001010
00001010
>
00000000
00110000
00111100
00001110
00011110
00101110
11001010
11001010
DLG SPR_6
POS 7 4,12

SPR p
00000000
01011000
01011100
01011101
01111111
00011100
00011100
00011100
NAME cactus 3
POS 7 4,7

SPR q
00000000
01011000
01011100
01011101
01111111
00011100
00011100
00011100
NAME cactus 4
POS 7 13,14

SPR r
01110110
11110110
01110010
00011110
00001110
00001110
00001010
00001010
DLG SPR_7
POS 8 11,8

SPR s
00000000
00001100
00111100
01110000
01111000
01110100
01010011
01010011
>
01100010
01100110
01001001
01110000
01110000
01110010
01010000
01010000
DLG SPR_8
POS 8 9,8

SPR t
01000110
01100110
10010010
00001110
00001110
01001110
00001010
00001010
>
00000000
00110000
00111100
00001110
00011110
00101110
11001010
11001010
DLG SPR_9
POS 1 6,12

SPR u
00000000
00000000
01111100
01111100
01111100
00010000
00010000
00111000
DLG SPR_a
POS 8 7,11

SPR v
00000000
00000000
00100000
01110000
11111000
01111100
00111000
00010000
POS 9 6,12

SPR w
00111100
01111110
11111111
11111111
11111111
11111111
01111110
00111100
>
00111100
01111110
11111100
11110000
11100000
11111000
01111110
00111100
DLG SPR_c
POS d 6,12

SPR x
00000000
01011000
01011100
01011101
01111111
00011100
00011100
00011100
NAME cactus 11
POS b 11,1

SPR y
00000000
01011000
01011100
01011101
01111111
00011100
00011100
00011100
NAME cactus 12
POS b 6,14

SPR z
00111000
00111000
00011000
00111100
01111110
10111101
00111100
00100100
>
00111000
00111000
00011000
00111100
01111110
01111110
00111100
00100100
DLG SPR_d
POS b 6,7

SPR 1a
01000110
01100110
10010010
00001110
00001110
01001110
00001010
00001010
>
00000000
00110000
00111100
00001110
00011110
00101110
11001010
11001010
DLG SPR_l
POS b 3,1

ITM 0
00000000
00000000
00000000
00111100
01100100
00100100
00011000
00000000
NAME tea
DLG ITM_0

DLG ITM_0
You found a nice warm cup of tea

DLG SPR_1
Hi, E.T. They are excavating your game's burial site. Why don't you go take a look?

DLG SPR_2
Welcome to Alamogordo, Nevada.

DLG SPR_0
I thought this was an urban legend. So excited!

DLG SPR_3
I need to get me one of these cartridges. They are gonna sell for up to 1,000 dollars on eBay.

DLG SPR_4
Wikipedia says E.T. is the worst game ever made. 

DLG SPR_5
Did you know that E.T. singlehandedly caused the game crash of 83?

DLG SPR_6
I have read that E.T. was so bad that everyone in Atari went to jail.

DLG SPR_7
Sssh. We're making a documentary here.

DLG SPR_8
Almost there. You can take a look at the pits if you want.

DLG SPR_9
Have you seen my angry review of E.T.? What a shitty game.

DLG SPR_a
Mind the pits!

DLG SPR_b
Yup, it's my game.

DLG SPR_c
The Atari version of my game's buried around here too! I hope they don't find it.

DLG SPR_d
Hi, I'm Howard Scott Warshaw. I made the E.T. game.

DLG SPR_e
Hi, I'm V. I made this thing. The E.T. game wasn't bad at all, if you ask me.

DLG SPR_f
No, of course I haven't played E.T. But I've watched plenty of gameplays on YouTube.

DLG SPR_g
I love the E.T. game, The Room and Troll 2. Want me to quote them?

DLG SPR_h
Hi, I bought a DeLorean and know the E.T. game. I'm a geek!

DLG SPR_i
Yes, I'm wearing my Atari E.T. t-shirt. So ironic!

DLG SPR_j
Yay, trash! I already am eating from the trash can all the time!

DLG SPR_k
Sorry, do you know how to get back up? I've been here for 30 years now.

DLG SPR_l
I'll write a paper about this. look for it in a high-impact journal in two to four years.

VAR a
42


