XANADU

# BITSY VERSION 3.7

! ROOM_FORMAT 1

PAL 0
250,226,114
0,132,0
183,91,0

PAL 1
0,0,0
255,255,255
255,255,255

ROOM 0
0,0,0,0,0,0,0,0,0,0,0,0,d,0,0,0
0,0,0,0,0,0,0,0,0,0,0,0,j,0,0,0
1o,1o,1o,1o,1o,1o,1o,1o,1o,1o,1o,h,i,h,1o,1o
1n,1n,1n,1n,1n,1n,1n,1n,1n,1n,q,0,0,u,1n,1n
1n,1n,1n,1n,1n,1n,1n,1n,m,l,0,1p,0,v,1n,1n
1n,1n,1n,1n,1n,1n,m,l,0,1p,0,0,0,w,1n,1n
1n,1n,1n,1n,m,l,0,0,0,0,0,0,0,x,1n,1n
1n,1n,m,l,0,0,0,0,0,0,0,0,g,1n,1n,1n
1n,g,0,0,0,1p,0,0,0,0,m,l,1n,1n,1n,1n
g,1p,0,1p,0,0,0,0,1p,p,1n,1n,1n,1n,1n,1n
0,0,0,0,0,0,0,0,0,y,1n,1n,1n,1n,1n,1n
1p,0,0,0,0,0,1p,0,p,1n,1n,1n,1n,1n,1n,1n
0,1p,0,0,0,0,0,0,y,1n,1n,1n,1n,1n,1n,1n
0,0,0,1p,0,1p,0,q,1n,1n,1n,1n,1n,1n,1n,1n
0,0,0,0,0,0,q,1n,1n,1n,1n,1n,1n,1n,1n,1n
0,0,0,0,1p,q,1n,1n,1n,1n,1n,1n,1n,1n,1n,1n
WAL g,l,m,o,n,p,r,q,s,t,u,x,w,v,y
EXT 4,7 1 1,14
EXT 5,7 1 1,14
EXT 6,7 1 1,14
EXT 7,7 1 1,14
EXT 8,7 1 1,14
EXT 9,7 1 1,14
EXT 10,7 1 1,14
PAL 0

ROOM 1
0,0,0,0,0,0,0,0,0,0,0,d,0,0,0,0
0,0,0,0,0,0,0,0,0,c,0,f,0,c,0,0
0,0,0,0,0,0,0,0,b,b,b,b,b,b,b,0
1o,1o,1o,1o,1o,1o,1o,1o,b,b,b,b,b,b,b,1o
1o,1o,1o,1o,1o,1o,1o,1o,b,b,b,e,b,b,b,1o
1n,1n,1n,1n,1n,1n,m,l,0,0,0,0,0,0,g,1n
1n,1n,1n,1n,m,l,1p,0,0,0,0,0,0,g,1n,1n
1n,1n,m,l,0,0,0,0,0,0,1p,0,g,1n,1n,1n
1n,g,0,1p,0,1p,0,0,0,0,m,l,1n,1n,1n,1n
g,0,0,0,0,0,0,1p,0,p,1n,1n,1n,1n,1n,1n
0,1p,0,0,0,0,0,0,1p,y,1n,1n,1n,1n,1n,1n
0,0,0,0,0,0,1p,0,p,1n,1n,1n,1n,1n,1n,1n
0,0,1p,0,0,0,0,0,y,1n,1n,1n,1n,1n,1n,1n
0,0,0,0,0,0,0,q,1n,1n,1n,1n,1n,1n,1n,1n
0,0,0,0,1p,0,q,1n,1n,1n,1n,1n,1n,1n,1n,1n
0,0,0,0,0,q,1n,1n,1n,1n,1n,1n,1n,1n,1n,1n
WAL g,l,m,o,n,p,r,q,s,t,u,x,w,v,y
EXT 8,5 2 7,15
EXT 9,5 2 7,15
EXT 10,5 2 7,15
EXT 11,5 2 7,15
EXT 12,5 0 0,0
EXT 13,5 2 7,15
PAL 0

ROOM 2
0,0,0,0,0,0,0,d,d,0,0,0,0,0,0,0
0,0,0,0,0,0,0,f,f,0,0,0,0,0,0,0
0,0,0,0,0,c,c,c,c,c,c,0,0,0,0,0
0,0,0,0,0,c,c,c,c,c,c,0,0,0,0,0
0,0,0,0,b,b,b,b,b,b,b,b,0,0,0,0
0,0,0,b,b,b,b,b,b,b,b,b,b,0,0,0
0,0,0,b,b,b,b,b,b,b,b,b,b,0,0,0
0,0,b,b,b,b,b,b,b,b,b,b,b,b,0,0
0,0,b,b,b,b,b,b,b,b,b,b,b,b,0,0
1o,1o,b,b,b,b,b,b,b,b,b,b,b,b,1o,1o
1o,1o,b,b,b,b,z,z,z,z,b,b,b,b,1o,1o
1o,1o,b,b,b,b,e,e,e,e,b,b,b,b,1o,1o
1n,g,0,0,0,0,0,0,0,0,0,0,0,0,o,1n
g,0,1p,0,0,0,0,1p,0,1p,0,1p,0,0,0,o
0,0,0,0,1p,0,0,0,0,0,0,0,0,1p,0,0
0,1p,0,0,0,0,0,0,0,0,1p,0,0,0,0,0
WAL g,l,m,o,n,p,r,q,s,t,u,x,w,v,y
EXT 6,11 3 2,13
EXT 7,11 3 2,13
EXT 8,11 3 2,13
EXT 9,11 3 2,13
PAL 0

ROOM 3
0,17,0,0,0,0,0,0,0,0,0,0,0,0,0,0
13,y,0,0,0,0,0,0,0,0,0,0,0,0,0,0
10,0,0,0,0,0,0,0,0,0,0,0,0,0,0,0
10,0,17,18,18,19,0,0,0,16,18,18,19,0,0,0
10,0,14,0,0,1c,0,0,0,14,0,0,1c,0,0,0
10,10,0,0,0,0,11,0,10,0,0,0,0,11,0,0
10,10,0,0,0,0,11,0,10,0,0,0,0,11,0,0
10,10,13,13,13,13,11,0,10,13,13,13,13,11,0,0
10,0,0,0,0,0,0,0,0,0,0,0,0,0,0,0
10,1h,1h,1h,1h,1h,1h,1h,1h,1h,1h,1h,1h,1h,1h,1h
10,0,0,0,0,0,0,0,0,0,0,0,0,0,0,0
10,0,0,0,0,0,0,0,0,0,0,0,0,0,1r,0
10,0,0,0,0,0,0,0,0,0,1e,0,0,0,1r,0
10,0,0,0,0,0,0,0,0,0,0,0,0,0,0,0
12,12,12,12,12,12,12,12,12,12,12,12,12,12,12,12
12,12,12,12,12,12,12,12,12,12,12,12,12,12,12,12
WAL 1h,10,12
EXT 11,10 4 11,10
PAL 0

ROOM 4
0,17,0,0,o,p,0,0,0,0,0,m,0,0,0,o
13,y,0,0,0,n,0,0,0,0,q,0,0,0,0,0
10,0,0,0,0,0,0,0,0,0,0,0,0,0,0,0
1i,0,17,18,18,19,0,m,0,p,18,18,19,0,0,q
10,0,14,0,0,1c,q,0,0,14,0,0,1c,0,0,0
10,10,0,0,0,0,11,0,10,0,0,0,0,11,0,0
1j,10,0,0,0,0,11,0,10,0,0,0,0,11,0,m
10,10,13,13,13,13,11,0,10,13,13,13,13,11,g,0
10,0,0,0,0,0,0,m,0,0,0,0,0,0,0,0
10,1h,1h,1h,1h,1h,1k,1h,1h,1h,1h,1h,1h,1h,1h,1h
10,0,0,0,0,0,0,0,0,0,q,0,0,0,0,0
1l,0,0,0,0,0,0,0,0,0,0,0,0,0,1r,0
10,0,0,0,0,0,0,0,0,0,0,0,0,0,1r,0
10,0,0,0,0,0,0,0,0,0,0,0,0,0,0,0
12,12,12,12,12,12,12,12,12,12,12,12,12,12,12,12
12,12,12,12,12,12,12,12,12,12,12,12,12,12,12,12
WAL 1h,10,12,q
EXT 15,10 6 1,15
EXT 15,11 6 1,15
EXT 15,12 6 1,15
EXT 15,13 6 1,15
PAL 0

ROOM 6
0,0,0,0,0,0,0,0,0,0,0,0,d,0,0,0
0,0,0,0,0,0,0,0,0,0,0,0,j,0,0,0
1o,1o,1o,1o,1o,1o,1o,1o,1o,1o,1o,h,i,h,1o,1o
1n,1n,1n,1n,1n,1n,1n,1n,1n,1n,q,0,0,u,1n,1n
1n,1n,1n,1n,1n,1n,1n,1n,m,l,0,0,1p,v,1n,1n
1n,1n,1n,1n,1n,1n,m,l,0,0,1p,0,0,w,1n,1n
1n,1n,1n,1n,m,l,0,1p,0,0,0,0,0,x,1n,1n
1n,1n,m,l,0,1p,0,0,0,0,1p,0,g,1n,1n,1n
1n,g,0,0,0,0,0,0,1p,0,m,l,1n,1n,1n,1n
g,1p,0,0,1p,0,0,0,0,p,1n,1n,1n,1n,1n,1n
0,0,0,0,0,0,0,1p,0,y,1n,1n,1n,1n,1n,1n
1m,1m,1m,1m,1m,1m,1m,0,p,1n,1n,1n,1n,1n,1n,1n
k,k,k,k,k,k,k,0,y,1n,1n,1n,1n,1n,1n,1n
0,0,0,0,0,0,k,q,1n,1n,1n,1n,1n,1n,1n,1n
0,0,0,0,0,0,k,1n,1n,1n,1n,1n,1n,1n,1n,1n
0,0,0,0,0,0,k,1n,1n,1n,1n,1n,1n,1n,1n,1n
WAL g,l,m,o,n,p,r,q,s,t,u,x,w,v,y,k
END 0 5,13
END 0 5,14
END 0 5,15
PAL 0

TIL 10
00000001
00000001
00000001
00000001
00000001
00000001
00000001
00000001

TIL 11
10000000
10000000
10000000
10000000
10000000
10000000
10000000
10000000

TIL 12
11111111
00000000
11111111
00000000
11111111
00000000
11111111
11111111

TIL 13
00000000
00000000
00000000
00000000
00000000
00000000
00000000
11111111

TIL 14
00100000
00100000
01000000
01000000
10000000
10000000
10000000
10000000

TIL 15
00010000
00010000
00010000
00010000
00010000
00010000
00010000
00010000

TIL 16
00000011
00000010
00000100
00000100
00001000
00001000
00010000
00010000

TIL 17
00000001
00000001
00000010
00000010
00000100
00000100
00001000
00001000

TIL 18
11111111
00000000
00000000
00000000
00000000
00000000
00000000
00000000

TIL 19
10000000
10000000
01000000
01000000
00100000
00100000
00010000
00010000

TIL a
11111111
10000001
10000001
10011001
10011001
10000001
10000001
11111111

TIL b
11011101
11011101
11011101
00000000
11110111
11110111
11110111
11110111

TIL c
11011011
11111111
11111111
10011001
10011001
11111111
11111111
00011100

TIL d
00000000
00010000
00011000
00011100
00011110
00010000
00010000
00010000
>
00000000
00010000
00011000
00011000
00011100
00010000
00010000
00010000

TIL e
00100100
00100100
11111111
00100100
00100100
11111111
00100100
00100100
>
00100100
11111111
00100100
11111111
00100100
00100100
00000000
00000000

TIL f
00010000
00010000
00010000
00010000
00010000
00010000
00010000
00010000

TIL g
00000001
00000010
00000100
00001000
00010000
00100000
01000000
10000000

TIL h
11011101
11011101
00000000
11110111
11110111
00000000
11011101
11011101

TIL i
11011011
11011011
00100100
11111111
00100100
11111111
00100100
11111111
>
11011011
11111111
00100100
11111111
00100100
11111111
00000000
00000000

TIL j
10101010
11111111
11111111
10101010
11111111
11111111
11111111
00100100

TIL k
11011011
00000000
01110111
00000000
11111111
00000000
11111111
10101010

TIL l
00000011
00001100
00110000
11000000
00000000
00000000
00000000
00000000

TIL m
00000000
00000000
00000000
00000011
00001100
00110000
11000000
00000000

TIL n
11000000
00110000
00001100
00000011
00000000
00000000
00000000
00000000

TIL o
10000000
01000000
00100000
00010000
00001000
00000100
00000010
00000001

TIL p
00000001
00000001
00000010
00000010
00000100
00000100
00001000
00001000

TIL q
00000001
00000001
00000010
00000010
00001100
00110000
11000000
00000000

TIL r
00001000
00001000
00001000
00001000
00001000
00000100
00000100
00000011

TIL s
10000000
10000000
01000000
01000000
00100000
00100000
00010000
00010000

TIL t
00001000
00001000
00000100
00000100
00000010
00000010
00000001
00000001

TIL u
00000001
00000001
00000001
00000011
00000111
00000100
00001100
00001000

TIL v
00001000
00001000
00001000
00001000
00011000
00010000
00010000
00010000

TIL w
00010000
00010000
00010000
00110000
00100000
00100000
00100000
00100000

TIL x
00100000
00100000
01100000
01000000
01000000
01000000
01000000
01000000

TIL y
00001000
00001000
00010000
00010000
00100000
00100000
01000000
01000000

TIL z
00100100
00100100
11111111
00100100
00100100
11111111
00100100
00100100
>
00100100
11111111
00100100
00100100
11111111
00100100
00100100
11111111

TIL 1a
11000000
01000000
00100000
00100000
00010000
00010000
00001000
00001000

TIL 1b
00001000
00001000
00001000
00001000
00001000
00001000
00001000
00001000

TIL 1c
00000100
00000100
00000010
00000010
00000001
00000001
00000001
00000001

TIL 1d
00000000
00000000
00000000
00000000
00000000
00000000
11111111
11111111

TIL 1e
00011000
00011000
00011000
00011000
00011000
00011000
11111111
11111111

TIL 1f
00011000
00011000
00011000
00011000
00011000
00011000
00011000
00011000

TIL 1g
00000000
01011010
01011010
01011010
01111110
01111110
01111110
01111110

TIL 1h
00000000
00000000
00000000
11111111
11111111
00000000
00000000
00000000

TIL 1i
10000001
10000001
01000001
01000001
00100001
00100001
00010001
00010001

TIL 1j
00000001
00000011
00000111
00011101
00110001
00100001
01000001
00000001

TIL 1k
00000001
00000010
00001100
11111111
11111111
00010000
01100000
10000000

TIL 1l
00000001
11000001
01100001
00110001
00011001
00000111
00000011
00000001

TIL 1m
00011000
00011000
00111100
00100100
00100100
01100110
01000011
11000011

TIL 1n
00000000
00000100
01000010
00000000
00000000
00010100
00001000
00000000

TIL 1o
10101010
11111111
10101010
11111111
10101010
11111111
10101010
11111111

TIL 1p
00000000
00000000
01100000
00000000
00000000
00001100
00000000
00000000

TIL 1q
00000000
00000000
00010000
00011000
00001100
00000110
00000011
00000001

TIL 1r
00000000
00000000
00001000
00000100
01111110
00000100
00001000
00000000

SPR 10
00000000
10000001
01000010
00100100
00011000
00011000
00000000
00000000
>
00000000
00000000
00000000
00100100
01011010
10011001
00000000
00000000
POS 6 3,0

SPR 11
00000000
10000001
01000010
00100100
00011000
00011000
00000000
00000000
>
00000000
00000000
00000000
00100100
01011010
10011001
00000000
00000000
POS 6 8,1

SPR 12
00000000
10000001
01000010
00100100
00011000
00011000
00000000
00000000
>
00000000
00000000
00000000
00100100
01011010
10011001
00000000
00000000
POS 0 4,1

SPR 13
00000000
10000001
01000010
00100100
00011000
00011000
00000000
00000000
>
00000000
00000000
00000000
00100100
01011010
10011001
00000000
00000000
POS 0 9,0

SPR 14
00000000
10000001
01000010
00100100
00011000
00011000
00000000
00000000
>
00000000
00000000
00000000
00100100
01011010
10011001
00000000
00000000
POS 2 2,1

SPR 15
00000000
10000001
01000010
00100100
00011000
00011000
00000000
00000000
>
00000000
00000000
00000000
00100100
01011010
10011001
00000000
00000000
POS 2 14,2

SPR 16
00000000
10000001
01000010
00100100
00011000
00011000
00000000
00000000
>
00000000
00000000
00000000
00100100
01011010
10011001
00000000
00000000
POS 3 3,6

SPR 17
00000000
10000001
01000010
00100100
00011000
00011000
00000000
00000000
>
00000000
00000000
00000000
00100100
01011010
10011001
00000000
00000000
POS 3 4,5

SPR 18
00000000
10000001
01000010
00100100
00011000
00011000
00000000
00000000
>
00000000
00000000
00000000
00100100
01011010
10011001
00000000
00000000
POS 3 10,5

SPR 19
00000000
10000001
01000010
00100100
00011000
00011000
00000000
00000000
>
00000000
00000000
00000000
00100100
01011010
10011001
00000000
00000000
POS 4 3,6

SPR A
00011000
00011000
00011000
00111100
01111110
10111101
00100100
00100100
POS 0 1,14

SPR b
00000000
00000000
01010000
00100000
00000000
00001010
00000100
00000000
DLG SPR_1
POS 0 3,11

SPR c
00000000
00000000
00001010
00000100
00000000
01010000
00100000
00000000
DLG SPR_2
POS 0 6,9

SPR d
00000000
00000000
01010000
00100000
00000000
00001010
00000100
00000000
POS 0 8,6

SPR e
00000000
00000000
00001010
00000100
00000000
01010000
00100000
00000000
POS 0 11,5

SPR f
00000100
10001000
01010000
00100000
00010001
00001010
00000100
00000100
DLG SPR_4
POS 1 3,10

SPR g
00100000
00010001
00001010
00000100
10001000
01010000
00100000
00100000
DLG SPR_5
POS 1 8,7

SPR h
11111111
10000001
10110101
10110101
10000001
11111111
00011000
00011000
DLG SPR_3
POS 2 5,12

SPR i
00011000
00011000
00011000
00011000
00011000
00011000
00011000
00011000
DLG SPR_6
POS 3 9,13

SPR j
00011000
00011000
00011000
00011000
00011000
00011000
00011000
00011000
POS 3 10,13

SPR k
00011000
00011000
00011000
00011000
00011000
00011000
11111000
11111000
POS 3 10,12

SPR l
00011000
00011000
00011000
00011000
00011000
00011000
00011000
00011000

SPR m
00000000
00000000
00000000
00000000
00000000
00000000
01111111
01111111
DLG SPR_a
POS 3 9,12

SPR n
00000000
01011010
01011010
01011010
01111110
01111110
01111110
01111110
DLG SPR_8
POS 3 10,11

SPR o
00000000
01011010
01011010
01011010
01101110
01100110
01110110
01111110
POS 4 10,11

SPR p
00011000
00011000
00011000
00010000
00001000
00011000
11111000
10011000
POS 4 10,12

SPR q
00000000
00000000
00000000
00000000
00000000
00000000
01101111
01110111
POS 4 9,12

SPR r
00011000
00011000
00011000
00011000
00010000
00001000
00011000
00011000
POS 4 9,13

SPR s
00011000
00011000
00011000
00011000
00001000
00010000
00011000
00011000
POS 4 10,13

SPR t
11111111
10000001
10101101
10101101
10000001
11111111
00011000
00011000
DLG SPR_7
POS 2 10,14

SPR u
00000000
00000000
00000000
00000000
00000000
00000000
00000000
00000000

SPR v
11111111
10000001
10111101
10111101
10000001
11111111
00011000
00011000
DLG SPR_9
POS 6 1,13

SPR w
00000000
10000001
01000010
00100100
00011000
00011000
00000000
00000000
>
00000000
00000000
00000000
00100100
01011010
10011001
00000000
00000000
POS 4 4,5

SPR x
00000000
10000001
01000010
00100100
00011000
00011000
00000000
00000000
>
00000000
00000000
00000000
00100100
01011010
10011001
00000000
00000000
POS 4 10,5

SPR y
00000000
10000001
01000010
00100100
00011000
00011000
00000000
00000000
>
00000000
00000000
00000000
00100100
01011010
10011001
00000000
00000000
POS 4 11,6

SPR z
00000000
10000001
01000010
00100100
00011000
00011000
00000000
00000000
>
00000000
00000000
00000000
00100100
01011010
10011001
00000000
00000000
POS 3 11,6

SPR 1a
00000000
10000001
01000010
00100100
00011000
00011000
00000000
00000000
>
00000000
00000000
00000000
00100100
01011010
10011001
00000000
00000000
POS 1 4,1

ITM 0
00000000
00000000
00000000
00111100
01100100
00100100
00011000
00000000
DLG ITM_0

DLG SPR_0
I'm a cat

DLG ITM_0
You got a cup of tea! Nice.

DLG SPR_1
The traveler strove to reach his goal,

DLG SPR_2
Of royal and imperial pose,

DLG SPR_3
Fighting hard all through and through, at last, the brink of Xanadu!

DLG SPR_4
So, hard he struggled and did work too,

DLG SPR_5
To reach this goal, his Xanadu.

DLG SPR_6
But as he did try and did sit down, upon new throne with regal crown, something yonder glistened true, and turned to ruin this Xanadu!

DLG SPR_7
And aft long miles and longer days, the traveler indeed found his way,

DLG SPR_8
But as he did try and did sit down, upon new throne with regal crown, something yonder glistened true, and turned to ruin this Xanadu!

DLG SPR_9
Now tired of that of which he'd dreamed, as it was not quite what it seemed, the traveler longed for something new, for yet another Xanadu.

DLG SPR_a
But as he did try and did sit down, upon new throne with regal crown, something yonder glistened true, and turned to ruin this Xanadu!

END 0
The End

