
Mythological Snippets: The Labyrinth

# BITSY VERSION 4.6

! ROOM_FORMAT 1

PAL 0
NAME Temple
255,210,72
212,87,59
54,207,255

PAL 1
NAME Entrance
43,87,32
255,255,255
54,207,255

PAL 2
NAME Labyrinth
0,0,0
173,14,26
255,255,255

ROOM 0
r,r,r,r,r,r,r,r,r,r,r,r,r,r,r,r
r,r,r,r,r,r,r,r,r,r,r,r,r,r,r,r
r,r,n,n,n,n,n,n,n,n,n,n,n,n,r,r
r,r,o,0,0,0,0,s,t,0,0,0,0,o,r,r
r,r,o,0,0,b,a,c,d,l,k,0,0,o,r,r
r,r,o,0,i,h,g,f,e,j,m,0,0,o,r,r
p,r,o,0,0,0,0,0,0,0,0,0,0,o,r,p
q,r,n,n,n,n,n,n,n,n,n,n,n,n,r,q
v,u,u,u,u,u,u,u,u,u,u,u,u,u,u,v
u,0,0,0,0,0,0,0,0,0,0,0,0,0,0,u
u,0,v,u,u,u,u,u,u,u,u,u,u,v,0,v
u,0,u,0,0,0,0,0,0,0,0,0,0,u,0,0
u,0,u,0,0,0,0,0,0,0,0,0,0,u,0,0
u,0,v,u,u,u,u,u,u,u,u,u,u,v,0,v
u,0,0,0,0,0,0,0,0,0,0,0,0,0,0,u
v,u,u,u,u,u,u,u,u,u,u,u,u,u,u,v
NAME Temple
ITM 1 9,11
ITM 2 10,11
EXT 15,11 1 7,15
PAL 0

ROOM 1
1f,1h,0,0,0,0,0,0,0,0,0,0,0,0,1i,1g
1e,1e,1e,1e,1e,1e,1e,1e,1e,1e,1e,1e,1e,1e,1e,1e
1c,1d,1d,1d,1d,1d,1d,1d,1d,1d,1d,1d,1d,1d,1d,1c
10,0,0,0,0,0,0,1a,1b,0,0,0,0,0,0,10
10,1j,1j,1j,1j,1j,16,18,19,17,1j,1j,1j,1j,1j,10
10,0,0,0,0,14,12,11,11,13,15,0,0,0,0,10
10,0,0,0,0,p,10,0,0,10,p,0,0,0,0,10
10,0,1k,0,0,q,z,1k,0,z,q,0,0,0,0,10
z,r,r,r,r,r,x,y,y,x,r,r,r,r,r,z
r,r,r,r,r,r,x,y,y,x,r,r,r,r,r,r
0,0,0,0,0,0,x,1l,1l,x,0,0,0,0,0,0
0,1m,0,0,0,0,x,1l,1l,x,0,1m,0,0,0,0
0,0,0,0,1m,0,x,1l,1l,x,0,0,0,1m,0,0
0,0,0,0,0,0,x,1l,1l,x,0,0,0,0,0,0
0,0,1m,0,0,0,x,1l,1l,x,0,0,1m,0,0,0
0,0,0,0,0,0,x,1l,1l,x,0,0,0,0,0,0
NAME Labyrinth Outside
ITM 3 7,13
ITM 4 8,11
EXT 7,7 2 7,15
EXT 8,7 2 8,15
PAL 1

ROOM 2
r,r,r,r,r,r,1w,1w,1w,1w,r,r,r,r,r,r
r,r,r,r,r,1y,0,0,r,0,1x,r,r,r,r,r
r,r,r,r,r,1y,0,0,0,0,1x,r,r,r,r,r
r,r,r,r,r,1y,0,0,0,0,1x,r,r,r,r,r
r,r,r,r,r,1y,0,0,0,0,1x,r,r,r,r,r
r,r,r,r,r,r,1v,1v,1v,1v,r,r,r,r,r,r
r,1p,1s,1r,r,1p,1s,1r,r,1p,1s,1r,r,1p,1s,1r
p,1o,0,1o,p,1o,0,1o,p,1o,0,1o,p,1o,0,1o
q,1n,0,1n,q,1n,0,1n,q,1n,0,1n,q,1n,0,1n
1z,1z,1z,1z,1z,1z,1z,1z,1z,1z,1z,1z,1z,1z,1z,1z
1z,0,0,0,0,0,0,0,0,0,0,0,0,0,0,1z
1z,0,0,0,0,0,0,0,0,0,0,0,0,0,0,1z
1z,0,0,0,0,0,0,0,0,0,0,0,0,0,0,1z
1z,0,0,0,0,0,0,0,0,0,0,0,0,0,0,1z
1z,0,0,0,0,0,0,0,0,0,0,0,0,0,0,1z
1z,1z,1z,1z,1z,1z,1z,0,0,1z,1z,1z,1z,1z,1z,1z
NAME Labyrinth
ITM 5 2,9
ITM 6 6,9
ITM 7 10,9
ITM 8 14,9
EXT 2,8 3 0,13
EXT 6,8 3 0,13
EXT 10,8 3 0,13
EXT 14,8 3 0,13
PAL 2

ROOM 3
r,r,r,r,r,r,r,r,r,r,r,r,r,r,r,r
r,r,r,r,r,r,r,r,r,r,r,r,r,r,r,r
r,r,r,r,r,r,r,r,r,r,r,r,r,r,r,r
r,r,r,r,r,r,r,r,r,r,r,r,r,r,r,r
r,r,r,r,r,r,r,r,r,r,1w,1w,1w,1w,1w,1w
r,r,r,r,r,r,r,r,r,1y,0,0,0,0,0,0
p,r,r,r,p,r,r,r,p,1y,0,0,0,0,0,0
q,r,r,r,q,r,r,r,q,1y,0,0,0,0,0,0
1z,0,1z,0,1z,0,1z,0,1z,0,0,0,0,0,0,0
0,1z,0,1z,0,1z,0,1z,0,1z,0,1z,0,1z,0,1z
1z,0,1z,0,1z,0,1z,0,1z,0,0,0,0,0,1z,0
0,1z,0,1z,0,1z,0,1z,0,1z,0,0,0,1z,0,1z
20,20,20,20,20,20,20,20,20,20,20,0,0,0,1z,0
0,0,0,0,0,0,0,0,0,0,0,0,0,1z,0,1z
20,20,20,20,20,20,20,20,20,20,20,0,1z,0,1z,0
0,1z,0,1z,0,1z,0,1z,0,1z,0,1z,0,1z,0,1z
NAME Minotaur's Lair
ITM 9 1,13
ITM a 2,13
ITM b 3,13
ITM c 6,13
ITM d 9,13
END undefined 10,13
PAL 2

TIL 10
01011010
01011010
01011010
01011010
01011010
01011010
01011010
01011010

TIL 11
00000000
00000000
00000000
00000000
11111111
00000000
11111111
11111111

TIL 12
00011010
00110100
01101000
11010000
11111111
00000000
11111111
11111111

TIL 13
01011000
00101100
00010110
00001011
11111111
00000000
11111111
11111111

TIL 14
00000000
00000000
00000000
00000000
00000001
00000010
00000111
00001111

TIL 15
00000000
00000000
00000000
00000000
10000000
01000000
11100000
11110000

TIL 16
00000000
11111111
01010101
01010101
01010101
01010111
11111110
00001101

TIL 17
00000000
11111111
01010101
01010101
11010101
11010101
01111111
10110000

TIL 18
00011010
11110100
01101000
11010000
10100000
01000000
10000000
00000000

TIL 19
01011000
00101111
00010101
00001011
00000101
00000010
00000001
00000000

TIL 20
11111111
10000001
10111101
10100101
10100101
10111101
10000001
11111111
WAL true

TIL a
00111100
11111110
11111010
01110001
00110000
00010000
00010000
00100000
NAME Bull Painting
WAL false

TIL b
00000000
01100111
01101111
00101000
01111000
01100000
11100000
11100000
NAME Bull Painting 2

TIL c
00101000
00010110
00010110
10001100
01001010
00111111
00010000
00010000
NAME Bull Painting 3

TIL d
00111000
01000100
00100000
00010000
01110000
10001000
00000100
00000010
NAME Bull Painting 4

TIL e
00000011
11111101
00000011
00000000
00000000
00000000
00000000
00000000
NAME Bull Painting 5

TIL f
00000000
00000111
00011000
11100000
00000000
00000000
00000000
00000000
NAME Bull Painting 6

TIL g
00100000
00100000
01100000
10111111
00110000
01100000
10000000
00000000
NAME Bull Painting 7

TIL h
11100000
11010000
11010000
11010000
00100001
00100000
01000000
00100000
NAME Bull Painting 8

TIL i
00000000
00000000
00000000
00000001
00000001
00000001
00000010
00000100
NAME Bull Painting 9

TIL j
11100000
00010000
11101000
00100000
00010000
00000000
00000000
00000000
NAME Bull Painting 10

TIL k
00000000
01100000
01100000
01000000
11100000
01100000
01100000
01000000
NAME Bull Painting 11

TIL l
00000000
00000100
00001010
00000101
00000011
00000000
00000000
00000000
NAME Bull Painting 12

TIL m
11000000
11100000
10110000
10110000
01010000
01010000
01010000
10100000
NAME Bull Painting 13

TIL n
10101010
11111111
00100001
01000010
01000010
00100001
11111111
01010101
NAME Tile
WAL true

TIL o
11000010
01011011
11100110
01000011
11000010
01000011
11011010
01100111
NAME Tile 2

TIL p
00010000
00101000
01010100
01011010
01101010
00100100
01111110
00111100
>
00001000
00010100
00101010
01011010
01010110
00100100
01111110
00111100
NAME Fire

TIL q
00111100
00110100
00101100
00110100
00101100
00110100
01101110
11111111
NAME Fire Base
WAL true

TIL r
00100100
11111111
01001001
11111111
00100100
11111111
01001001
11111111
NAME Brick Wall
WAL true

TIL s
00000000
00000000
00000111
00001100
00011110
00011101
00110000
00110000
NAME Bull Painting 15

TIL t
00000000
00000000
00000000
11000000
00000000
00000000
11000000
00000000
NAME Bull Painting 16

TIL u
00011000
01100110
01011010
10100101
10100101
01011010
01100110
00011000
NAME Floor Tile

TIL v
11100111
10011001
10100101
01011010
01011010
10100101
10011001
11100111
NAME Floor Tile 2

TIL w
00000000
00000000
00000000
00000000
00000000
00000000
00000000
00000000

TIL x
11111111
11111111
11111111
11111111
11111111
11111111
11111111
11111111
WAL true

TIL y
00000000
11111111
00000000
11111111
00000000
11111111
00000000
11111111

TIL z
01011010
01011010
01011010
01011010
11111111
10000001
10000001
11111111

TIL 1a
00000000
00000000
00000000
00000000
00000001
00000011
00000110
00001101

TIL 1b
00000000
00000000
00000000
00000000
10000000
11000000
01100000
10110000

TIL 1c
11111111
10000001
10000001
11111111
01011010
01011010
01011010
01011010

TIL 1d
11111111
00000000
00000000
00000000
11111111
00000000
11111111
11111111

TIL 1e
11111111
11111111
00000000
11111111
00000000
11111111
11111111
11111111

TIL 1f
00000011
00000110
00001101
00011010
00110100
01101000
11010000
10100000

TIL 1g
11000000
01100000
10110000
01011000
00101100
00010110
00001011
00000101

TIL 1h
01000000
10000000
00000000
00000000
00000000
00000000
00000000
00000000

TIL 1i
00000010
00000001
00000000
00000000
00000000
00000000
00000000
00000000

TIL 1j
00000000
11111111
01010101
01010101
01010101
01010101
11111111
00000000

TIL 1k
00000000
00000000
00000000
00000000
00000000
00000000
00000000
00000000

TIL 1l
10011001
01100110
10011001
01100110
10011001
01100110
10011001
01100110

TIL 1m
00010000
01001000
10110010
00101100
01010010
00010000
00101000
01000100

TIL 1n
11011011
11011011
11011011
11011011
11011011
11011011
11111111
11111111

TIL 1o
11111111
11111111
11011011
11011011
11011011
11011011
11011011
11011011

TIL 1p
10010111
11111111
00111000
11110011
01100110
11101101
11011011
11011011

TIL 1r
11110010
11111111
00011010
11001111
01100110
10110111
11011011
11011011

TIL 1s
11111111
11111111
00000000
11111111
00000000
11111111
11100111
10000001

TIL 1t
00000000
00000000
00000000
00000000
00000000
00000000
00000000
00000000

TIL 1u
00000000
00000000
00000000
00000000
00000000
00000000
00000000
00000000

TIL 1v
11111111
11111111
11111111
11111111
00100100
11111111
01001001
11111111
WAL true

TIL 1w
00100100
11111111
01001001
11111111
00100100
11111111
11111111
11111111
WAL true

TIL 1x
11100100
11111111
11001001
11111111
11100100
11111111
11001001
11111111
WAL true

TIL 1y
00100111
11111111
01001011
11111111
00100111
11111111
01001011
11111111
WAL true

TIL 1z
11111111
10000001
10111101
10100101
10100101
10111101
10000001
11111111

SPR 10
00100000
00100000
01000000
01000000
01000000
10000000
00000000
00000000
>
01000000
01000000
00100000
00100000
00100000
11000000
00000000
00000000
POS 3 12,13

SPR 11
00000000
11000000
01111111
00111111
00000011
00000000
00000000
00000000
>
01000000
01100000
00111111
00011111
00000011
00000000
00000000
00000000
POS 3 10,11

SPR 12
00000000
00000000
10000000
10000000
00000000
00000000
00000000
00000000
>
00000000
00000000
00000000
00000000
00000000
00000000
00000000
00000000
POS 3 13,11

SPR 13
00000000
00000000
00000000
00000000
00000000
00000000
00000000
00000000
>
00000001
00000000
00000000
00000000
00000000
00000000
00000000
00000000
POS 3 10,10

SPR 14
00000011
00001100
00101010
00010001
00100000
01000110
01101001
10001001
POS 3 10,7

SPR 15
00000000
01000111
00101000
01010001
10101010
00100010
01001001
10001100
POS 3 11,6

SPR 16
10010110
01000110
01100000
00011001
00110110
01000001
00000000
00000000
POS 3 10,8

SPR 17
00000000
00000001
01010010
00100010
00001001
00100100
00001000
01000100
POS 3 11,7

SPR 18
00000000
00000000
01100000
10011011
00000100
00000010
00000000
00000000
POS 3 11,8

SPR 19
01000000
10000000
00000000
10001000
01010000
01001100
10000100
00000000
POS 3 12,6

SPR A
00000000
00011000
00011000
00111100
01011010
00011000
00111100
01100110
>
00000000
00011000
01011010
00111100
00011000
00011000
00111100
01100110
POS 0 4,11
ITM 1 1
ITM 2 1

SPR a
00011100
00011010
00011000
00111100
01011010
00011000
00111100
01111110
>
00011100
00011010
01011010
00111100
00011000
00011000
00111100
01111110
NAME Ariadne
DLG SPR_0
POS 0 6,11

SPR b
00000000
00010000
00100110
00010110
00001000
11010100
00100010
01000100
NAME Skeleton
DLG SPR_1
POS 2 12,12

SPR d
11111100
00001101
00011110
00110110
01111110
01111110
00111111
00001111
>
11111000
00011010
00111100
01101100
11111100
11111100
01111110
00011110
POS 3 11,10

SPR e
00011000
01100110
01011010
10100101
10100101
01011010
01100110
00011000
DLG SPR_2
POS 0 7,8

SPR f
00000000
00000000
01000010
00100000
00101000
10010110
00000110
00000000
DLG SPR_3
POS 2 4,14

SPR g
10000001
10000000
10001100
10001010
10001101
01000111
00100111
00010011
POS 2 7,4

SPR h
10000001
00000001
00110001
01010001
10110001
11100010
11100100
11001000
POS 2 8,4

SPR i
11000000
11100000
11010000
11101010
10000001
10000001
10000001
10000001
POS 2 7,3

SPR j
00000011
00000111
00001011
01010111
10000001
10000001
10000001
10000001
POS 2 8,3

SPR k
00001110
00010001
00100011
00011100
00000000
00000000
00000000
00000000
POS 2 6,3

SPR l
01110000
10001000
11000100
00111000
00000000
00000000
00000000
00000000
POS 2 9,3

SPR m
00000000
00000000
00101010
01010101
10000000
10111100
11000011
10000000
POS 2 7,2

SPR n
00000000
00000000
01010100
10101010
00000001
00111101
11000011
00000001
POS 2 8,2

SPR o
01001000
01001000
01000100
00100010
00010001
00001000
00000100
00000010
POS 2 6,2

SPR p
00010010
00010010
00100010
01000100
10001000
00010000
00100000
01000000
POS 2 9,2

SPR q
00000000
00000000
00001111
00010000
00100011
01000100
01001000
01001000
POS 2 6,1

SPR r
00000000
00000000
11110000
00001000
11000100
00100010
00010010
00010010
POS 2 9,1

SPR s
00001000
00011000
11110000
00100000
11000000
00000000
00000000
00000000
POS 2 7,1

SPR t
00010000
00011000
00001111
00000100
00000011
00000000
00000000
00000000
POS 2 8,1

SPR u
00011111
11111111
11111111
11111111
10011111
00011111
00001111
00001111
POS 3 11,11

SPR v
11000110
11000111
11101101
11111100
01111000
00110000
00000000
10000000
>
11000110
11100111
11111101
01111100
00111000
00000000
00000000
10000000
POS 3 12,11

SPR w
00010000
00111000
01001100
01000110
01101000
00110000
00011000
00001100
>
00001000
00011100
00100110
00100011
00110100
00011000
00001100
00000110
POS 3 12,10

SPR x
00011111
00011111
00011111
00011110
00011110
00001111
00000111
00000011
POS 3 11,12

SPR y
11000000
10100000
10011000
01001000
01000000
00100000
00100000
01000000
>
11000000
10101000
10011000
01000000
01000000
00100000
00100000
01000000
POS 3 12,12

SPR z
00000111
00001111
00011001
00111010
00111010
00111011
00000000
00000000
>
00001111
00011110
00111001
00111001
00111001
00000001
00000000
00000000
POS 3 11,13

SPR 1a
00000000
10100000
01011000
01000000
10000010
10001100
00010100
00100000
POS 3 12,7

SPR 1b
00000000
00000000
00110000
01010011
10001010
00000100
00000110
00000000
POS 3 12,8

SPR 1c
01000000
10100110
00001001
00001001
00010110
11000100
00100000
00100001
POS 3 13,7

SPR 1d
00000000
00011000
00100100
01000011
10010000
00100000
00001010
00000100
POS 3 13,8

SPR 1e
00000000
00001100
00010000
01001010
00100000
00000100
10001010
00000000
POS 3 14,7

SPR 1f
00011111
00100000
01000000
10000000
00001010
01000100
00100000
00000000
POS 3 14,8

SPR 1g
01010000
00001000
10000110
00000001
00001000
00111000
10000010
01000101
POS 3 13,6

SPR 1h
00000000
00000000
01000000
00110011
00011100
00010000
00100110
01001101
POS 3 12,5

SPR 1i
00000000
00000000
00000000
00010000
10101000
01110100
00011100
00000011
POS 3 13,5

SPR 1j
10000000
01001100
00110100
00010000
00001110
00000011
10010000
00001000
POS 3 14,6

SPR 1k
00000000
00000000
00000000
00000000
00001000
11010100
00100000
00011100
POS 3 15,6

SPR 1l
10000010
00110001
01001000
01010000
00101000
00000001
01100010
10011100
POS 3 15,7

SPR 1m
00000000
00000110
00000110
00110100
01001000
00010100
01100010
10010000
POS 3 15,8

ITM 1
00010000
00111000
00101000
00101000
00101000
00101000
01111100
00010000
NAME Sword
DLG ITM_0

ITM 2
00000000
00111000
01010100
01101100
01010110
00111001
00000010
00001100
NAME Thread
DLG ITM_1

ITM 3
10011001
01100110
10011001
01100110
10011001
01100110
10011001
01100110
DLG ITM_2

ITM 4
10011001
01100110
10011001
01100110
10011001
01100110
10011001
01100110
DLG ITM_3

ITM 5
11111111
10000001
10111101
10100101
10100101
10111101
10000001
11111111
DLG ITM_4

ITM 6
11111111
10000001
10111101
10100101
10100101
10111101
10000001
11111111
DLG ITM_5

ITM 7
11111111
10000001
10111101
10100101
10100101
10111101
10000001
11111111
DLG ITM_6

ITM 8
11111111
10000001
10111101
10100101
10100101
10111101
10000001
11111111
DLG ITM_7

ITM 9
00000000
00000000
00000000
00000000
00000000
00000000
00000000
00000000
DLG ITM_8

ITM a
00000000
00000000
00000000
00000000
00000000
00000000
00000000
00000000
DLG ITM_9

ITM b
00000000
00000000
00000000
00000000
00000000
00000000
00000000
00000000
DLG ITM_a

ITM c
00000000
00000000
00000000
00000000
00000000
00000000
00000000
00000000
DLG ITM_b

ITM d
00000000
00000000
00000000
00000000
00000000
00000000
00000000
00000000
DLG ITM_c

DLG SPR_0
"""
{sequence
  - {wvy}Oh, brave Theseus!{wvy}  Please take this sword and thread for when you venture into the Labyrinth.
  - The Minotaur is a dreadful abomination and needs to be destroyed.
  - This sword was made by our best bladesmith, it will pierce the great beast with ease.
  - Unravel this thread as you make your way into his lair, lest you become lost and trapped.
  - Please return to me safely.
}
"""

DLG ITM_0
A beautiful sword that was a gift from Ariadne.

DLG ITM_1
A ball of strong thread that was a gift from Ariadne.

DLG SPR_1
A past sacrifice...It's bones are picked completely clean with some cracked open by the Minotaur to consume the marrow.

DLG SPR_2
You take a moment to admire the beautiful artwork of Crete.  This fresco depicts the ritual of bull-leaping.

DLG ITM_2
The breeze is chilly as you make your way to the entrance of the Labyrinth.  There is an ominous feeling weighing heavy on you.

DLG ITM_3
As you near the steps, a dank and foul air escapes from the dark opening.  {shk}It smells of death and decay...  {shk}

DLG SPR_3
The head and spine of another poor victim, along with a few scattered bones.

DLG ITM_4
After hours of wandering through this maze, you feel that you are incredibly close to the Minotaur's lair.

DLG ITM_5
You look at each doorway, contemplating which is the right way to your quarry.

DLG ITM_6
You look up at the massive bust of the Minotaur's head and grip your sword tightly in anticipation.

DLG ITM_7
You lean against the column of this doorway, taking a much needed respite after endless wandering before your battle.

DLG ITM_8
As you enter the Minotaur's chamber, you immediately feel a sickening squelch under your foot.  You look down and see that the floor is covered in blood and pieces of flesh.  You recoil in disgust and look up to see two yellow eyes gleaming in the faint glow of the torches.

DLG ITM_9
{wvy}What is this? I smell man flesh.{wvy}  You hear the unnatural voice echo in the room.  {wvy}Has King Minos presented me with another sacrifice so soon?  How generous.{wvy}

DLG ITM_a
You take a few steps closer and allow yourself to be seen.  {wvy}What is this?  A sword?  You have come to slay me?  Do you not know how many of these pathetic mortals have tried to fight in the face of death?  Then you should know that I have cracked and broken every one of them and so I shall with you!{wvy}

DLG ITM_b
You and the beast both charge one another and meet in an explosion of fury.  Both grappling, trying to gain the upper hand.  You grip the tough hide of the Minotaur and pull him to the ground.  He snorts and froths, thrashing his axe and thrusting his horns.  His eyes rolling in astonishment and rage.

DLG ITM_c
Finally you gain the upper hand and raise your sword high.  The Minotaur gazes at it, fear now gripping it's mind.  You bring your sword down and pierce throat.  Blood spurts from the sides of the wound and the beast lets out a gurgle and one last gasp as it's eyes roll back into it's head.  The terror is no more.

END 0


END undefined
You wipe the sweat from your brow and place your sword back in it's scabbard.  The deed is done.  You can return home the Athens and all shall know the good you have done here and chant your name...Theseus!


