
"I'll afford one free hit from which I won't flinch, and promise that twelve months will pass in peace, then claim the duty I deserve in one year and one day."

# BITSY VERSION 4.8

! ROOM_FORMAT 1

PAL 0
NAME DEFAULT
37,60,59
255,186,44
38,171,10

PAL 1
NAME FOREST
40,90,74
99,227,42
240,167,46

PAL 2
NAME WINTER
255,255,255
138,138,138
58,181,31

PAL 3
NAME BERCILAK
30,79,4
255,255,255
255,92,222

PAL 4
NAME THE GREEN CHAPEL
20,87,1
235,199,9
19,240,17

PAL 5
255,255,255
255,255,255
255,255,255

PAL 6
200,90,255
255,147,132
113,120,255

ROOM 0
a,a,a,a,a,t,a,t,a,q,r,a,a,a,a,t
a,a,t,t,a,t,a,a,a,q,q,t,t,a,a,a
q,q,q,r,q,q,q,q,q,r,q,q,q,q,a,t
q,q,q,q,q,r,q,q,r,q,r,q,q,q,a,a
q,r,q,q,0,0,q,q,q,q,q,q,q,p,a,a
q,r,q,q,q,q,o,q,v,q,o,r,q,q,a,a
q,0,q,q,q,b,f,s,f,s,f,c,q,q,a,a
q,0,q,0,q,f,s,f,s,f,s,f,0,r,t,a
q,r,q,q,q,e,f,s,f,s,f,d,q,q,a,a
r,q,q,r,q,q,o,q,o,q,o,q,q,q,a,a
q,q,q,q,q,q,q,q,q,q,q,q,q,q,a,a
q,q,r,q,r,r,q,r,q,q,r,r,q,p,a,t
q,q,q,0,q,q,q,r,q,q,r,q,q,q,a,a
q,q,q,r,q,q,q,q,q,q,q,q,q,q,t,a
a,t,a,a,a,a,a,t,a,q,q,t,a,a,a,a
a,a,t,a,t,a,a,a,a,r,q,a,t,a,a,t
NAME round table
ITM 0 3,7
EXT 3,7 1 3,7
PAL 0

ROOM 1
0,0,0,0,0,0,0,0,0,0,0,0,0,0,0,0
0,0,0,0,0,0,0,0,0,0,0,0,0,0,0,0
0,0,0,0,0,0,0,0,0,0,0,0,0,0,0,0
0,0,0,0,0,0,0,0,0,0,0,0,0,0,0,0
0,0,0,0,0,0,0,0,0,0,0,0,0,0,0,0
0,0,0,0,0,0,0,0,0,0,0,0,0,0,0,0
0,0,0,0,0,0,0,0,0,0,0,0,0,0,0,0
0,0,0,0,0,0,0,0,0,0,0,0,0,0,0,0
0,0,0,0,0,0,0,0,0,0,0,0,0,0,0,0
0,0,0,0,0,0,0,0,0,0,0,0,0,0,0,0
0,0,0,0,0,0,0,0,0,0,0,0,0,0,0,0
0,0,0,0,0,0,0,0,0,0,0,0,0,0,0,0
0,0,0,0,0,0,0,0,0,0,0,0,0,0,0,0
0,0,0,0,0,0,0,0,0,0,0,0,0,0,0,0
0,0,0,0,0,0,0,0,0,0,0,0,0,0,0,0
0,0,0,0,0,0,0,0,0,0,0,0,0,0,0,0
NAME the blow
ITM 1 2,6
EXT 2,6 2 2,6
PAL 0

ROOM 2
0,0,0,0,0,0,0,0,0,0,0,0,0,0,0,0
0,0,0,0,0,0,0,0,0,0,0,0,0,0,0,0
0,0,0,0,0,0,0,0,0,0,0,0,0,0,0,0
0,0,0,0,0,0,0,0,0,0,0,0,0,0,0,0
0,0,0,0,0,0,0,0,0,0,0,0,0,0,0,0
0,0,0,0,0,0,0,0,0,0,0,0,0,0,0,0
0,0,0,0,0,0,0,0,0,0,0,0,0,0,0,0
0,0,0,0,0,0,0,0,0,0,0,0,0,0,0,0
0,0,0,0,0,0,0,0,0,0,0,0,0,0,0,0
0,0,0,0,0,0,0,0,0,0,0,0,0,0,0,0
0,0,0,0,0,0,0,0,0,0,0,0,0,0,0,0
0,0,0,0,0,0,0,0,0,0,0,0,0,0,0,0
0,0,0,0,0,0,0,0,0,0,0,0,0,0,0,0
0,0,0,0,0,0,0,0,0,0,0,0,0,0,0,0
0,0,0,0,0,0,0,0,0,0,0,0,0,0,0,0
0,0,0,0,0,0,0,0,0,0,0,0,0,0,0,0
NAME after the blow
ITM 2 3,7
EXT 3,7 4 3,7
PAL 0

ROOM 4
a,a,a,a,a,t,a,t,a,q,r,a,a,a,a,t
a,a,t,t,a,t,a,a,a,q,q,t,t,a,a,a
q,q,q,r,q,q,q,q,q,r,q,q,q,q,a,t
q,q,q,q,q,r,q,q,r,q,r,q,q,q,a,a
q,r,q,q,0,0,q,q,q,q,q,q,q,p,a,a
q,r,q,q,q,q,o,q,v,q,0,r,q,q,a,a
q,0,q,q,q,b,f,s,f,s,f,c,q,q,a,a
q,0,q,0,q,f,s,f,s,f,s,f,0,r,t,a
q,r,q,q,q,e,f,s,f,s,f,d,q,q,a,a
r,q,q,r,q,q,o,q,o,q,o,q,q,q,a,a
q,q,q,q,q,q,q,q,q,q,q,q,q,q,a,a
q,q,r,q,r,r,q,r,q,q,r,r,q,p,a,t
q,q,q,0,q,q,q,r,q,q,r,q,q,q,a,a
q,q,q,r,q,q,q,q,q,q,q,q,q,q,t,a
a,t,a,a,a,a,a,t,a,q,q,t,a,a,a,a
a,a,t,a,t,a,a,a,a,r,q,a,t,a,a,t
NAME round table after the blow
ITM 3 2,6
EXT 2,6 5 8,5
PAL 0

ROOM 5
a,a,a,a,a,t,a,t,a,q,r,a,a,a,a,t
a,a,t,t,a,t,a,a,a,q,q,t,t,a,a,a
q,q,q,r,q,q,q,q,q,r,q,q,q,q,a,t
q,q,q,q,q,r,q,q,r,q,r,q,q,q,a,a
q,r,q,q,0,0,q,q,q,q,q,q,q,p,a,a
q,r,q,q,q,q,o,q,v,q,0,r,q,q,a,a
q,0,q,q,q,b,f,s,f,s,f,c,q,q,a,a
q,0,q,0,q,f,s,f,s,f,s,f,0,r,t,a
q,r,q,q,q,e,f,s,f,s,f,d,q,q,a,a
r,q,q,r,q,q,o,q,o,q,o,q,q,q,a,a
q,q,q,q,q,q,q,q,q,q,q,q,q,q,a,a
q,q,r,q,r,r,q,r,q,q,r,r,q,p,a,t
q,q,q,0,q,q,q,r,q,q,r,q,q,q,a,a
q,q,q,r,q,q,q,q,q,q,q,q,q,q,t,a
a,t,a,a,a,a,a,t,a,q,q,t,a,a,a,a
a,a,t,a,t,a,a,a,a,r,q,a,t,a,a,t
NAME after dinner
ITM 0 15,7
ITM 4 10,0
EXT 10,0 6 10,15
PAL 0

ROOM 6
a,t,a,a,a,a,a,a,a,a,t,a,a,a,a,a
t,t,a,a,a,t,a,a,a,a,a,a,a,a,a,t
a,t,a,a,a,a,a,t,a,a,a,a,a,a,a,a
a,a,a,t,a,t,a,a,a,t,a,t,a,a,a,a
a,a,a,a,q,r,w,x,q,0,r,r,a,t,a,a
a,a,a,a,q,q,q,q,r,r,r,q,a,a,a,t
a,t,a,t,0,q,0,q,q,r,q,q,a,t,a,a
t,t,a,a,r,r,0,q,q,r,q,p,a,a,a,t
t,a,a,a,0,r,q,q,r,q,r,0,a,t,t,t
a,a,a,a,r,r,r,r,0,r,r,r,t,t,a,t
t,a,a,a,r,r,q,q,0,q,0,r,a,t,t,a
t,a,a,a,q,q,q,q,0,q,0,r,a,a,a,a
t,a,a,a,a,a,t,a,a,r,r,a,a,a,a,t
a,a,t,a,t,a,a,a,a,q,q,a,a,t,a,a
a,a,a,t,t,a,a,a,a,q,0,t,a,t,a,a
a,a,a,t,a,a,a,a,a,q,0,a,a,a,t,a
NAME chambers
ITM 6 7,4
ITM 5 6,4
EXT 7,4 7 7,9
EXT 6,4 7 7,9
PAL 0

ROOM 7
0,0,0,0,0,0,0,0,0,0,0,0,0,0,0,0
0,1f,0,1f,0,1f,0,1f,0,1f,0,1f,0,1f,0,0
0,i,h,g,h,a,h,g,h,a,h,g,h,j,0,0
0,i,j,0,i,a,j,0,i,a,j,0,i,j,0,0
0,i,j,0,i,a,a,h,a,a,j,0,i,j,0,0
0,i,a,h,a,a,10,11,12,a,a,h,a,j,0,0
0,i,j,0,i,a,z,z,z,a,j,0,i,j,0,0
0,i,j,0,i,a,z,z,z,a,j,0,i,j,0,0
0,i,a,h,a,a,z,z,z,a,a,h,a,j,0,0
0,0,0,0,0,18,13,14,15,0,0,0,0,0,0,0
0,0,0,0,1b,19,1c,17,16,0,0,0,0,0,0,0
0,0,0,17,1a,1c,1c,1a,0,0,0,0,0,0,0,0
0,0,0,15,1c,1c,16,0,0,0,0,0,0,0,0,0
0,0,17,16,1c,1c,1c,0,0,0,0,0,0,0,0,0
0,17,1a,1c,17,1c,1b,0,0,0,0,0,0,0,0,0
0,1a,1c,1c,1c,1c,1a,0,0,0,0,0,0,0,0,0
NAME before leaving
ITM 7 7,12
EXT 7,12 8 0,7
PAL 0

ROOM 8
1e,0,0,0,1e,1e,0,1e,1e,1e,1e,1e,1e,1e,1e,1e
1e,1e,1e,1e,1e,0,0,0,1e,1e,1d,1d,1d,0,1e,0
0,1e,1e,1d,1e,0,0,1e,1d,1d,1d,1e,1d,1d,1d,0
1e,1e,0,1e,1e,1e,1e,0,1e,1d,0,0,1d,1d,1e,0
0,0,1d,1e,1e,1e,1e,1e,1e,1d,0,0,0,1e,1e,1e
0,1d,0,0,1e,1e,1e,1e,0,1d,0,1e,0,0,0,0
0,0,0,1d,0,1e,0,0,1d,0,0,0,0,0,0,1e
0,0,0,0,0,0,0,0,0,0,0,1e,0,0,1d,0
0,0,0,1e,0,1e,1e,1d,0,1e,0,0,1e,0,1d,0
0,0,1e,0,1e,1e,1d,1d,0,1e,0,0,1d,1d,1d,1e
1e,1e,1e,0,1e,1e,1d,1d,1d,1d,1d,1d,1d,0,1d,1e
1e,1e,0,1e,1d,1e,1e,0,0,0,1d,1d,1d,0,1d,1e
1e,0,1e,1e,1e,1e,1e,1e,1e,1e,1e,1d,1d,0,1d,1e
1e,0,1e,1e,1e,0,0,0,1e,1e,1e,1e,1d,0,1d,1e
0,1e,1e,1e,1e,1e,1e,1e,1e,1e,0,1d,1e,1e,1d,0
0,1e,0,1e,1e,1e,1e,1e,0,1e,1e,1e,1e,1e,0,0
NAME travel1
EXT 15,5 9 0,7
PAL 1

ROOM 9
0,1e,0,0,1d,1d,0,1d,1d,0,1d,1d,1d,1d,1d,1d
1e,1e,1e,1d,0,1d,1d,1d,1d,0,1d,1e,1d,1e,0,0
1e,0,1d,1d,1d,1d,0,1d,1d,1d,1e,1e,0,0,1d,0
0,1d,1e,1d,1d,1e,1e,1e,1e,0,1e,1e,1e,1e,1e,1d
1d,1d,1d,1d,1d,1e,1e,1e,1e,1e,1d,0,1e,1d,1d,0
1d,1e,1e,1e,1d,1e,1e,1e,1e,1d,1d,1d,1d,1d,1d,0
0,1e,0,0,1d,1e,1e,1e,1d,0,0,0,0,0,0,1e
0,0,0,0,0,0,0,0,0,0,1e,1d,1e,1d,1d,1d
1e,0,0,1e,0,1d,1d,1d,0,0,1d,1e,0,1d,1d,1d
1e,1d,1d,1e,1d,1d,1d,1e,1d,1e,1e,0,1d,1d,1d,1d
1d,1d,1d,1e,1d,0,1e,1e,1e,1d,1d,1d,1d,0,1d,1d
1d,1e,1d,1d,1e,1e,1e,1d,1d,1d,1d,0,0,1e,1d,1d
1d,1d,0,1d,0,1d,1d,0,1d,1d,1d,1d,1d,1d,1d,0
1d,0,1e,1d,1d,1d,1e,1d,1d,1d,1d,1d,1d,1d,0,0
1e,1d,1d,1d,1d,1d,1d,1d,1d,1e,1e,0,1d,1d,1d,1e
1d,1e,1d,1d,1d,0,1d,1d,1d,1d,1d,1d,1d,1e,1e,0
NAME winter no castle
ITM 9 9,6
EXT 9,6 a 9,6
PAL 2

ROOM 10
0,0,0,0,0,0,0,0,0,0,0,0,0,0,0,0
0,0,0,0,0,0,0,0,0,0,0,0,0,0,0,0
1w,0,0,0,0,0,0,0,0,0,0,0,0,0,0,0
0,0,0,0,0,0,0,0,0,0,0,0,0,0,0,0
0,0,0,0,0,0,0,0,0,0,0,0,0,0,0,0
0,0,0,0,0,0,0,0,0,0,0,0,0,0,0,0
1v,1v,1v,1v,1v,1v,1v,1v,1v,1v,1v,1v,1v,1v,1v,1v
0,0,0,0,0,0,0,0,0,0,0,0,0,0,0,0
1v,1v,1v,1v,1v,1v,1v,1v,1v,1v,1v,1v,1v,1v,1v,1v
0,0,0,0,0,0,0,0,0,0,0,0,0,0,0,0
0,0,0,0,0,0,0,0,0,0,0,0,0,0,0,0
0,0,0,0,0,0,0,0,0,0,0,0,0,0,0,0
0,0,0,0,0,0,0,0,0,0,0,0,0,0,0,0
0,0,0,0,0,0,0,0,0,0,0,0,0,0,0,0
0,0,0,0,0,0,0,0,0,0,0,0,0,0,0,0
0,0,0,0,0,0,0,0,0,0,0,0,0,0,0,0
NAME THE GREEN CHAPEL1
ITM j 7,7
EXT 7,7 11 7,7
PAL 4

ROOM 11
0,0,0,0,0,0,0,0,0,0,0,0,0,0,0,0
0,0,0,0,0,0,0,0,0,0,0,0,0,0,0,0
0,0,0,1w,0,0,0,0,0,0,0,0,0,0,0,0
0,0,0,0,0,0,0,0,0,0,0,0,0,0,0,0
0,0,0,0,0,0,0,0,0,0,0,0,0,0,0,0
0,0,0,0,0,0,0,0,0,0,0,0,0,0,0,0
1v,1v,1v,1v,1v,1v,1v,1v,1v,1v,1v,1v,1v,1v,1v,1v
0,0,0,0,0,0,0,0,1v,0,0,0,0,0,0,0
1v,1v,1v,1v,0,1v,1v,1v,1v,1v,1v,1v,1v,1v,1v,1v
0,0,0,0,0,0,0,0,0,0,0,0,0,0,0,0
0,0,0,0,0,0,0,0,0,0,0,0,0,0,0,0
0,0,0,0,0,0,0,0,0,0,0,0,0,0,0,0
0,0,0,0,0,0,0,0,0,0,0,0,0,0,0,0
0,0,0,0,0,0,0,0,0,0,0,0,0,0,0,0
0,0,0,0,0,0,0,0,0,0,0,0,0,0,0,0
0,0,0,0,0,0,0,0,0,0,0,0,0,0,0,0
NAME THE GREEN CHAPEL2
ITM k 4,8
EXT 4,8 12 4,7
PAL 4

ROOM 12
0,0,0,0,0,0,0,0,0,0,0,0,0,0,0,0
0,0,0,0,0,0,0,0,0,0,0,0,0,0,0,0
0,0,0,0,0,0,1w,0,0,0,0,0,0,0,0,0
0,0,0,0,0,0,0,0,0,0,0,0,0,0,0,0
0,0,0,0,0,0,0,0,0,0,0,0,0,0,0,0
0,0,0,0,0,0,0,0,0,0,0,0,0,0,0,0
1v,1v,1v,1v,1v,1v,1v,1v,1v,1v,1v,1v,1v,1v,1v,1v
0,0,0,0,0,0,0,0,1v,0,0,0,0,0,0,0
1v,1v,1v,1v,0,1v,1v,1v,1v,1v,1v,1v,1v,1v,1v,1v
0,0,0,0,0,0,0,0,0,0,0,0,0,0,0,0
0,0,0,0,0,0,0,0,0,0,0,0,0,0,0,0
0,0,0,0,0,0,0,0,0,0,0,0,0,0,0,0
0,0,0,0,0,0,0,0,0,0,0,0,0,0,0,0
0,0,0,0,0,0,0,0,0,0,0,0,0,0,0,0
0,0,0,0,0,0,0,0,0,0,0,0,0,0,0,0
0,0,0,0,0,0,0,0,0,0,0,0,0,0,0,0
NAME THE GREEN CHAPEL3
ITM l 4,8
EXT 4,8 13 4,7
PAL 4

ROOM 13
0,0,0,0,0,0,0,0,0,0,0,0,0,0,0,0
0,0,0,0,0,0,0,0,0,0,0,0,0,0,0,0
0,0,0,0,0,0,0,0,0,1w,0,0,0,0,0,0
0,0,0,0,0,0,0,0,0,0,0,0,0,0,0,0
0,0,0,0,0,0,0,0,0,0,0,0,0,0,0,0
0,0,0,0,0,0,0,0,0,0,0,0,0,0,0,0
1v,1v,1v,1v,1v,1v,1v,1v,1v,1v,1v,1v,1v,1v,1v,1v
0,0,0,0,0,0,0,0,1v,0,0,0,0,0,0,0
1v,1v,1v,1v,0,1v,1v,1v,1v,1v,1v,1v,1v,1v,1v,1v
0,0,0,0,0,0,0,0,0,0,0,0,0,0,0,0
0,0,0,0,0,0,0,0,0,0,0,0,0,0,0,0
0,0,0,0,0,0,0,0,0,0,0,0,0,0,0,0
0,0,0,0,0,0,0,0,0,0,0,0,0,0,0,0
0,0,0,0,0,0,0,0,0,0,0,0,0,0,0,0
0,0,0,0,0,0,0,0,0,0,0,0,0,0,0,0
0,0,0,0,0,0,0,0,0,0,0,0,0,0,0,0
NAME THE GREEN CHAPEL4
ITM m 4,8
EXT 4,8 14 4,7
PAL 4

ROOM 14
0,0,0,0,0,0,0,0,0,0,0,0,0,0,0,0
0,0,0,0,0,0,0,0,0,0,0,0,0,0,0,0
0,0,0,0,0,0,0,0,0,0,0,0,1w,0,0,0
0,0,0,0,0,0,0,0,0,0,0,0,0,0,0,0
0,0,0,0,0,0,0,0,0,0,0,0,0,0,0,0
0,0,0,0,0,0,0,0,0,0,0,0,0,0,0,0
1v,1v,1v,1v,1v,1v,1v,1v,1v,1v,1v,1v,1v,1v,1v,1v
0,0,0,0,1x,0,0,0,0,0,0,0,0,0,0,0
1v,1v,1v,1v,1v,1v,1v,1v,1v,1v,1v,1v,1v,1v,1v,1v
0,0,0,0,0,0,0,0,0,0,0,0,0,0,0,0
0,0,0,0,0,0,0,0,0,0,0,0,0,0,0,0
0,0,0,0,0,0,0,0,0,0,0,0,0,0,0,0
0,0,0,0,0,0,0,0,0,0,0,0,0,0,0,0
0,0,0,0,0,0,0,0,0,0,0,0,0,0,0,0
0,0,0,0,0,0,0,0,0,0,0,0,0,0,0,0
0,0,0,0,0,0,0,0,0,0,0,0,0,0,0,0
NAME THE GREEN CHAPEL5
ITM n 5,7
END undefined 15,7
PAL 4

ROOM a
0,1e,0,0,1d,1d,0,1d,1d,0,1d,1d,1d,1d,1d,1d
1e,1e,1e,1d,0,1d,1d,1d,1d,0,1d,1e,1d,1e,0,0
1e,0,1d,1d,1d,1d,0,1d,1d,1d,1e,1e,0,0,1d,0
0,1d,1e,1d,1d,1e,1e,1e,1e,0,1e,1e,1e,1e,1e,1d
1d,1d,1d,1d,1d,1e,1e,1e,1e,1e,1d,0,1e,1d,1d,0
1d,1e,1e,1e,1d,1e,1e,1e,1e,1d,1d,1d,1d,1d,1d,0
0,1e,0,0,1d,1e,1e,1e,1d,0,0,0,0,0,0,1e
0,0,0,0,0,0,0,0,0,0,1e,1d,1e,1d,1d,1d
1e,0,0,1e,0,1d,1d,1d,0,0,1d,1e,0,1d,1d,1d
1e,1d,1d,1e,1d,1d,1d,1e,1d,1e,1e,0,1d,1d,1d,1d
1d,1d,1d,1e,1d,0,1e,1e,1e,1d,1d,1d,1d,0,1d,1d
1d,1e,1d,1d,1e,1e,1e,1d,1d,1d,1d,0,0,1e,1d,1d
1d,1d,0,1d,0,1d,1d,0,1d,1d,1d,1d,1d,1d,1d,0
1d,0,1e,1d,1d,1d,1e,1d,1d,1d,1d,1d,1d,1d,0,0
1e,1d,1d,1d,1d,1d,1d,1d,1d,1e,1e,0,1d,1d,1d,1e
1d,1e,1d,1d,1d,0,1d,1d,1d,1d,1d,1d,1d,1e,1e,0
NAME winter castle appears
ITM 8 14,6
EXT 14,6 b 0,7
PAL 2

ROOM b
1g,1g,1h,1g,1g,1g,1g,1g,1g,0,0,1g,1g,1g,1h,1g
1g,1h,1g,1g,1g,1g,1g,1g,1g,0,0,1g,1g,1g,1g,1g
1g,1g,0,0,0,0,0,0,0,0,0,0,0,0,0,1g
1g,1g,0,0,0,0,0,o,0,0,0,0,0,0,0,1g
1h,1g,0,0,0,0,0,0,0,0,0,0,0,0,0,1h
0,0,0,0,0,o,0,v,0,v,0,o,0,0,p,1g
0,0,0,0,0,0,b,f,s,f,s,f,c,0,0,1g
0,0,0,0,0,0,f,s,f,s,f,s,f,0,0,1g
0,0,0,o,0,0,e,f,s,f,s,f,d,0,0,1h
0,0,0,0,0,0,0,o,0,1i,0,1i,0,0,p,1g
1g,1h,0,0,0,0,0,0,0,0,0,0,0,0,0,1g
1h,1g,0,0,0,0,o,0,0,0,o,0,0,0,0,1h
1g,1g,0,o,0,0,0,0,0,0,0,0,0,0,0,1g
1g,1g,0,0,0,0,0,0,0,0,0,0,0,0,0,1g
1g,1g,1g,1g,1g,1g,1g,1g,1g,0,0,1g,1g,1g,1g,1g
1g,1g,1g,1g,1g,1h,1g,1g,1h,0,0,1g,1g,1g,1g,1g
NAME Bercilak's Castle
ITM 4 10,0
EXT 10,0 c 10,15
PAL 3

ROOM c
1g,1g,1g,1g,1g,1h,1g,1g,1g,1g,1g,1g,1g,1g,1g,1g
1g,1h,1g,1g,1g,1g,1g,1l,1o,1m,1h,1g,1g,1g,1g,1g
1g,1g,1g,1g,1h,1g,1h,1l,1o,1m,1g,1g,1g,1g,1h,1g
1g,1g,1h,1g,1g,1g,1h,1l,1o,1m,1h,1g,1g,1g,1g,1g
1h,1g,1g,1g,1g,1g,1g,1j,1n,1k,1g,1g,1g,1g,1h,1g
1g,1g,1g,1g,0,0,0,0,0,0,0,0,1h,1h,1g,1g
1g,1h,1g,1g,0,0,0,0,0,0,0,0,1g,1g,1g,1g
1g,1g,1g,1g,0,0,0,0,0,0,0,0,1g,1g,1g,1g
1g,1g,1g,1h,0,0,0,0,0,0,0,0,1h,1g,1h,1g
1g,1g,1g,1g,0,0,0,0,0,0,0,p,1g,1g,1g,1g
1h,1g,1g,1g,0,0,0,0,0,0,0,0,1g,1g,1g,1h
1g,1h,1g,1h,0,0,0,0,0,0,0,0,1g,1g,1g,1g
1g,1g,1g,1g,0,0,0,0,0,0,0,0,1h,1h,1g,1g
1g,1g,1h,1g,0,0,0,0,0,0,0,0,1g,1g,1g,1g
1g,1g,1g,1h,1g,1g,1h,1g,1h,0,0,1g,1h,1g,1g,1g
1g,1g,1g,1g,1g,1g,1g,1g,1g,0,0,1h,1g,1g,1g,1h
NAME Chambers in Bercilak's Castle
ITM 5 7,5
ITM 6 8,5
EXT 8,5 d 8,5
EXT 7,5 d 8,5
PAL 3

ROOM d
1g,1g,1g,1g,1g,1h,1g,1g,1g,1g,1g,1g,1g,1g,1g,1g
1g,1h,1g,1g,1g,1g,1g,1l,1o,1m,1h,1g,1g,1g,1g,1g
1g,1g,1g,1g,1h,1g,1h,1l,1o,1m,1g,1g,1g,1g,1h,1g
1g,1g,1h,1g,1g,1g,1h,1l,1o,1m,1h,1g,1g,1g,1g,1g
1h,1g,1g,1g,1g,1g,1g,1j,1n,1k,1g,1g,1g,1g,1h,1g
1g,1g,1g,1g,0,0,0,0,0,0,0,0,1h,1h,1g,1g
1g,1h,1g,1g,0,0,0,0,0,0,0,0,1g,1g,1g,1g
1g,1g,1g,1g,0,0,0,0,0,0,0,0,1g,1g,1g,1g
1g,1g,1g,1h,0,0,0,0,0,0,0,0,1h,1g,1h,1g
1g,1g,1g,1g,0,0,0,0,0,0,0,p,1g,1g,1g,1g
1h,1g,1g,1g,0,0,0,0,0,0,0,0,1g,1g,1g,1h
1g,1h,1g,1h,0,0,0,0,0,0,0,0,1g,1g,1g,1g
1g,1g,1g,1g,0,0,0,0,0,0,0,0,1h,1h,1g,1g
1g,1g,1h,1g,0,0,0,0,0,0,0,0,1g,1g,1g,1g
1g,1g,1g,1h,1g,1g,1h,1g,1h,0,0,1g,1h,1g,1g,1g
1g,1g,1g,1g,1g,1g,1g,1g,1g,0,0,1h,1g,1g,1g,1h
NAME Chambers on the third day
ITM b 10,15
ITM b 9,15
EXT 9,15 e 9,0
EXT 10,15 e 10,0
PAL 3

ROOM e
1g,1g,1h,1g,1g,1g,1g,1g,1g,0,0,1g,1g,1g,1h,1g
1g,1h,1g,1g,1g,1g,1g,1g,1g,0,0,1g,1g,1g,1g,1g
1g,1g,0,0,0,0,0,0,0,0,0,0,0,0,0,1g
1g,1g,0,0,0,0,0,o,0,0,0,0,0,0,0,1g
1h,1g,0,0,0,0,0,0,0,0,0,0,0,0,0,1h
0,0,0,0,0,o,0,v,0,v,0,o,0,0,p,1g
0,0,0,0,0,0,b,f,s,f,s,f,c,0,0,1g
0,0,0,0,0,0,f,s,f,s,f,s,f,0,0,1g
0,0,0,o,0,0,e,f,s,f,s,f,d,0,0,1h
0,0,0,0,0,0,0,o,0,1i,0,1i,0,0,p,1g
1g,1h,0,0,0,0,0,0,0,0,0,0,0,0,0,1g
1h,1g,0,0,0,0,o,0,0,0,o,0,0,0,0,1h
1g,1g,0,o,0,0,0,0,0,0,0,0,0,0,0,1g
1g,1g,0,0,0,0,0,0,0,0,0,0,0,0,0,1g
1g,1g,1g,1g,1g,1g,1g,1g,1g,0,0,1g,1g,1g,1g,1g
1g,1g,1g,1g,1g,1h,1g,1g,1h,0,0,1g,1g,1g,1g,1g
NAME Third Day
EXT 9,15 f 9,0
EXT 10,15 f 10,0
PAL 3

ROOM f
1h,1g,1g,1g,1g,1g,1g,1g,1g,0,0,1g,1g,1g,1g,1h
1g,1g,1g,1h,1g,1g,1g,1g,1h,0,0,1g,1g,1g,1g,1g
1g,1g,1g,1g,1g,1g,1h,1g,1g,0,0,1g,1h,1g,1g,1g
1h,1h,1h,0,0,0,0,0,0,0,0,0,0,1h,1g,1g
1g,1g,1g,0,v,0,0,0,0,0,0,0,0,1g,1g,1g
1g,1g,1g,0,0,0,0,0,0,0,0,0,0,1g,1g,1g
1g,1g,1p,0,0,1t,0,0,0,0,0,0,0,1g,1h,1g
1h,1g,1q,0,0,1s,0,0,0,0,0,0,p,1h,1g,1h
1g,1g,1r,0,0,1u,0,0,0,0,0,0,0,1g,1g,1g
1g,1h,1g,0,0,0,0,0,0,0,0,0,0,1g,1g,1h
1g,1g,1g,0,0,0,0,0,0,0,0,0,0,1h,1g,1g
1h,1g,1g,0,0,0,0,0,0,0,0,0,0,1g,1g,1g
1g,1g,1g,0,0,0,0,0,0,0,0,0,0,1g,1g,1g
1h,1g,1h,1g,1g,1g,1g,1h,1g,1g,1g,1g,1g,1g,1g,1g
1g,1g,1g,1g,1h,1g,1g,1g,1g,1g,1g,1h,1g,1g,1h,1g
1g,1h,1h,1g,1g,1g,1g,1g,1h,1g,1g,1g,1g,1g,1g,1g
NAME Lounging Room
ITM c 8,7
EXT 8,7 g 8,6
PAL 3

ROOM g
1h,1g,1g,1g,1g,1g,1g,1g,1g,0,0,1g,1g,1g,1g,1h
1g,1g,1g,1h,1g,1g,1g,1g,1h,0,0,1g,1g,1g,1g,1g
1g,1g,1g,1g,1g,1g,1h,1g,1g,0,0,1g,1h,1g,1g,1g
1h,1h,1h,0,0,0,0,0,0,0,0,0,0,1h,1g,1g
1g,1g,1g,0,v,0,0,0,0,0,0,0,0,1g,1g,1g
1g,1g,1g,0,0,0,0,0,0,0,0,0,0,1g,1g,1g
1g,1g,1p,0,0,1t,0,0,0,0,0,0,0,1g,1h,1g
1h,1g,1q,0,0,1s,0,0,0,0,0,0,p,1h,1g,1h
1g,1g,1r,0,0,1u,0,0,0,0,0,0,0,1g,1g,1g
1g,1h,1g,0,0,0,0,0,0,0,0,0,0,1g,1g,1h
1g,1g,1g,0,0,0,0,0,0,0,0,0,0,1h,1g,1g
1h,1g,1g,0,0,0,0,0,0,0,0,0,0,1g,1g,1g
1g,1g,1g,0,0,0,0,0,0,0,0,0,0,1g,1g,1g
1h,1g,1h,1g,1g,1g,1g,1h,1g,1g,1g,1g,1g,1g,1g,1g
1g,1g,1g,1g,1h,1g,1g,1g,1g,1g,1g,1h,1g,1g,1h,1g
1g,1h,1h,1g,1g,1g,1g,1g,1h,1g,1g,1g,1g,1g,1g,1g
NAME after the deal
ITM 4 10,0
EXT 10,0 h 10,15
PAL 3

ROOM h
1g,1g,1g,1g,1g,1h,1g,1g,1g,1g,1g,1g,1g,1g,1g,1g
1g,1h,1g,1g,1g,1g,1g,1l,1o,1m,1h,1g,1g,1g,1g,1g
1g,1g,1g,1g,1h,1g,1h,1l,1o,1m,1g,1g,1g,1g,1h,1g
1g,1g,1h,1g,1g,1g,1h,1l,1o,1m,1h,1g,1g,1g,1g,1g
1h,1g,1g,1g,1g,1g,1g,1j,1n,1k,1g,1g,1g,1g,1h,1g
1g,1g,1g,1g,0,0,0,0,0,0,0,0,1h,1h,1g,1g
1g,1h,1g,1g,0,0,0,0,0,0,0,0,1g,1g,1g,1g
1g,1g,1g,1g,0,0,0,0,0,0,0,0,1g,1g,1g,1g
1g,1g,1g,1h,0,0,0,0,0,0,0,0,1h,1g,1h,1g
1g,1g,1g,1g,0,0,0,0,0,0,0,p,1g,1g,1g,1g
1h,1g,1g,1g,0,0,0,0,0,0,0,0,1g,1g,1g,1h
1g,1h,1g,1h,0,0,0,0,0,0,0,0,1g,1g,1g,1g
1g,1g,1g,1g,0,0,0,0,0,0,0,0,1h,1h,1g,1g
1g,1g,1h,1g,0,0,0,0,0,0,0,0,1g,1g,1g,1g
1g,1g,1g,1h,1g,1g,1h,1g,1h,0,0,1g,1h,1g,1g,1g
1g,1g,1g,1g,1g,1g,1g,1g,1g,0,0,1h,1g,1g,1g,1h
NAME night before first kiss
ITM 5 7,5
ITM 6 8,5
EXT 8,5 i 8,5
EXT 7,5 i 8,5
PAL 3

ROOM i
1g,1g,1g,1g,1g,1h,1g,1g,1g,1g,1g,1g,1g,1g,1g,1g
1g,1h,1g,1g,1g,1g,1g,1l,1o,1m,1h,1g,1g,1g,1g,1g
1g,1g,1g,1g,1h,1g,1h,1l,1o,1m,1g,1g,1g,1g,1h,1g
1g,1g,1h,1g,1g,1g,1h,1l,1o,1m,1h,1g,1g,1g,1g,1g
1h,1g,1g,1g,1g,1g,1g,1j,1n,1k,1g,1g,1g,1g,1h,1g
1g,1g,1g,1g,0,0,0,1v,0,1v,0,0,1h,1h,1g,1g
1g,1h,1g,1g,0,0,0,0,0,0,0,0,1g,1g,1g,1g
1g,1g,1g,1g,0,0,0,0,0,0,0,0,1g,1g,1g,1g
1g,1g,1g,1h,0,0,0,0,0,0,0,0,1h,1g,1h,1g
1g,1g,1g,1g,0,0,0,0,0,0,0,p,1g,1g,1g,1g
1h,1g,1g,1g,0,0,0,0,0,0,0,0,1g,1g,1g,1h
1g,1h,1g,1h,0,0,0,0,0,0,0,0,1g,1g,1g,1g
1g,1g,1g,1g,0,0,0,0,0,0,0,0,1h,1h,1g,1g
1g,1g,1h,1g,0,0,0,0,0,0,0,0,1g,1g,1g,1g
1g,1g,1g,1h,1g,1g,1h,1g,1h,0,0,1g,1h,1g,1g,1g
1g,1g,1g,1g,1g,1g,1g,1g,1g,0,0,1h,1g,1g,1g,1h
NAME the first kiss
ITM a 8,6
ITM d 10,15
ITM d 9,15
EXT 9,15 j 9,0
EXT 10,15 j 10,0
PAL 3

ROOM j
1g,1g,1h,1g,1g,1g,1g,1g,1g,0,0,1g,1g,1g,1h,1g
1g,1h,1g,1g,1g,1g,1g,1g,1g,0,0,1g,1g,1g,1g,1g
1g,1g,0,0,0,0,0,0,0,0,0,0,0,0,0,1g
1g,1g,0,0,0,0,0,o,0,0,0,0,0,0,0,1g
1h,1g,0,0,0,0,0,0,0,0,0,0,0,0,0,1h
0,0,0,0,0,o,0,v,0,v,0,o,0,0,p,1g
0,0,0,0,0,0,b,f,s,f,s,f,c,0,0,1g
1v,1v,1v,1v,1v,1v,f,s,f,s,f,s,f,0,1v,1g
0,0,0,o,0,0,e,f,s,f,s,f,d,0,0,1h
0,0,0,0,0,0,0,o,0,1i,0,1i,0,0,p,1g
1g,1h,0,0,0,0,0,0,0,0,0,0,0,0,0,1g
1h,1g,0,0,0,0,o,0,0,0,o,0,0,0,0,1h
1g,1g,0,o,0,0,0,0,0,0,0,0,0,0,0,1g
1g,1g,0,0,0,0,0,0,0,0,0,0,0,0,0,1g
1g,1g,1g,1g,1g,1g,1g,1g,1g,0,0,1g,1g,1g,1g,1g
1g,1g,1g,1g,1g,1h,1g,1g,1h,0,0,1g,1g,1g,1g,1g
NAME getting deer
ITM e 13,7
ITM f 9,15
ITM f 10,15
EXT 9,15 k 9,0
EXT 10,15 k 10,0
PAL 3

ROOM k
1h,1g,1g,1g,1g,1g,1g,1g,1g,0,0,1g,1g,1g,1g,1h
1g,1g,1g,1h,1g,1g,1g,1g,1h,0,0,1g,1g,1g,1g,1g
1g,1g,1g,1g,1g,1g,1h,1g,1g,0,0,1g,1h,1g,1g,1g
1h,1h,1h,0,0,0,0,0,0,0,0,0,0,1h,1g,1g
1g,1g,1g,0,v,0,0,0,0,0,0,0,0,1g,1g,1g
1g,1g,1g,0,0,0,0,0,0,0,0,0,0,1g,1g,1g
1g,1g,1p,0,0,1t,0,0,0,0,0,0,0,1g,1h,1g
1h,1g,1q,0,0,1s,0,0,0,0,0,0,p,1h,1g,1h
1g,1g,1r,0,0,1u,0,0,0,0,0,0,0,1g,1g,1g
1g,1h,1g,0,0,0,0,0,0,0,0,0,0,1g,1g,1h
1g,1g,1g,0,0,0,0,0,0,0,0,0,0,1h,1g,1g
1h,1g,1g,0,0,0,0,0,0,0,0,0,0,1g,1g,1g
1g,1g,1g,0,0,0,0,0,0,0,0,0,0,1g,1g,1g
1h,1g,1h,1g,1g,1g,1g,1h,1g,1g,1g,1g,1g,1g,1g,1g
1g,1g,1g,1g,1h,1g,1g,1g,1g,1g,1g,1h,1g,1g,1h,1g
1g,1h,1h,1g,1g,1g,1g,1g,1h,1g,1g,1g,1g,1g,1g,1g
NAME gamenight1
ITM c 8,7
EXT 8,7 l 8,6
PAL 3

ROOM l
1h,1g,1g,1g,1g,1g,1g,1g,1g,0,0,1g,1g,1g,1g,1h
1g,1g,1g,1h,1g,1g,1g,1g,1h,0,0,1g,1g,1g,1g,1g
1g,1g,1g,1g,1g,1g,1h,1g,1g,0,0,1g,1h,1g,1g,1g
1h,1h,1h,0,0,0,0,0,0,0,0,0,0,1h,1g,1g
1g,1g,1g,0,v,0,0,0,0,0,0,0,0,1g,1g,1g
1g,1g,1g,0,0,0,0,0,0,0,0,0,0,1g,1g,1g
1g,1g,1p,0,0,1t,0,0,0,0,0,0,0,1g,1h,1g
1h,1g,1q,0,0,1s,0,0,0,0,0,0,p,1h,1g,1h
1g,1g,1r,0,0,1u,0,0,0,0,0,0,0,1g,1g,1g
1g,1h,1g,0,0,0,0,0,0,0,0,0,0,1g,1g,1h
1g,1g,1g,0,0,0,0,0,0,0,0,0,0,1h,1g,1g
1h,1g,1g,0,0,0,0,0,0,0,0,0,0,1g,1g,1g
1g,1g,1g,0,0,0,0,0,0,0,0,0,0,1g,1g,1g
1h,1g,1h,1g,1g,1g,1g,1h,1g,1g,1g,1g,1g,1g,1g,1g
1g,1g,1g,1g,1h,1g,1g,1g,1g,1g,1g,1h,1g,1g,1h,1g
1g,1h,1h,1g,1g,1g,1g,1g,1h,1g,1g,1g,1g,1g,1g,1g
NAME after gamenight1
ITM 4 10,0
EXT 10,0 m 10,15
PAL 3

ROOM m
1g,1g,1g,1g,1g,1h,1g,1g,1g,1g,1g,1g,1g,1g,1g,1g
1g,1h,1g,1g,1g,1g,1g,1l,1o,1m,1h,1g,1g,1g,1g,1g
1g,1g,1g,1g,1h,1g,1h,1l,1o,1m,1g,1g,1g,1g,1h,1g
1g,1g,1h,1g,1g,1g,1h,1l,1o,1m,1h,1g,1g,1g,1g,1g
1h,1g,1g,1g,1g,1g,1g,1j,1n,1k,1g,1g,1g,1g,1h,1g
1g,1g,1g,1g,0,0,0,0,0,0,0,0,1h,1h,1g,1g
1g,1h,1g,1g,0,0,0,0,0,0,0,0,1g,1g,1g,1g
1g,1g,1g,1g,0,0,0,0,0,0,0,0,1g,1g,1g,1g
1g,1g,1g,1h,0,0,0,0,0,0,0,0,1h,1g,1h,1g
1g,1g,1g,1g,0,0,0,0,0,0,0,p,1g,1g,1g,1g
1h,1g,1g,1g,0,0,0,0,0,0,0,0,1g,1g,1g,1h
1g,1h,1g,1h,0,0,0,0,0,0,0,0,1g,1g,1g,1g
1g,1g,1g,1g,0,0,0,0,0,0,0,0,1h,1h,1g,1g
1g,1g,1h,1g,0,0,0,0,0,0,0,0,1g,1g,1g,1g
1g,1g,1g,1h,1g,1g,1h,1g,1h,0,0,1g,1h,1g,1g,1g
1g,1g,1g,1g,1g,1g,1g,1g,1g,0,0,1h,1g,1g,1g,1h
NAME night before 2nd kiss
ITM 5 7,5
ITM 6 8,5
EXT 7,5 n 8,5
EXT 8,5 n 8,5
PAL 3

ROOM n
1g,1g,1g,1g,1g,1h,1g,1g,1g,1g,1g,1g,1g,1g,1g,1g
1g,1h,1g,1g,1g,1g,1g,1l,1o,1m,1h,1g,1g,1g,1g,1g
1g,1g,1g,1g,1h,1g,1h,1l,1o,1m,1g,1g,1g,1g,1h,1g
1g,1g,1h,1g,1g,1g,1h,1l,1o,1m,1h,1g,1g,1g,1g,1g
1h,1g,1g,1g,1g,1g,1g,1j,1n,1k,1g,1g,1g,1g,1h,1g
1g,1g,1g,1g,0,0,0,0,0,1v,0,0,1h,1h,1g,1g
1g,1h,1g,1g,0,0,0,0,0,0,0,0,1g,1g,1g,1g
1g,1g,1g,1g,0,0,0,0,0,0,0,0,1g,1g,1g,1g
1g,1g,1g,1h,0,0,0,0,0,0,0,0,1h,1g,1h,1g
1g,1g,1g,1g,0,0,0,0,0,0,0,p,1g,1g,1g,1g
1h,1g,1g,1g,0,0,0,0,0,0,0,0,1g,1g,1g,1h
1g,1h,1g,1h,0,0,0,0,0,0,0,0,1g,1g,1g,1g
1g,1g,1g,1g,0,0,0,0,0,0,0,0,1h,1h,1g,1g
1g,1g,1h,1g,0,0,0,0,0,0,0,0,1g,1g,1g,1g
1g,1g,1g,1h,1g,1g,1h,1g,1h,0,0,1g,1h,1g,1g,1g
1g,1g,1g,1g,1g,1g,1g,1g,1g,0,0,1h,1g,1g,1g,1h
NAME kiss2
ITM a 8,6
ITM d 9,15
ITM d 10,15
EXT 9,15 o 9,0
EXT 10,15 o 10,0
PAL 3

ROOM o
1g,1g,1h,1g,1g,1g,1g,1g,1g,0,0,1g,1g,1g,1h,1g
1g,1h,1g,1g,1g,1g,1g,1g,1g,0,0,1g,1g,1g,1g,1g
1g,1g,0,0,0,0,0,0,0,0,0,0,0,0,0,1g
1g,1g,0,0,0,0,0,o,0,0,0,0,0,0,0,1g
1h,1g,0,0,0,0,0,0,0,0,0,0,0,0,0,1h
0,0,0,0,0,o,0,v,0,v,0,o,0,0,p,1g
0,0,0,0,0,0,b,f,s,f,s,f,c,0,0,1g
1v,1v,1v,1v,1v,1v,f,s,f,s,f,s,f,0,1v,1g
0,0,0,o,0,0,e,f,s,f,s,f,d,0,0,1h
0,0,0,0,0,0,0,o,0,1i,0,1i,0,0,p,1g
1g,1h,0,0,0,0,0,0,0,0,0,0,0,0,0,1g
1h,1g,0,0,0,0,o,0,0,0,o,0,0,0,0,1h
1g,1g,0,o,0,0,0,0,0,0,0,0,0,0,0,1g
1g,1g,0,0,0,0,0,0,0,0,0,0,0,0,0,1g
1g,1g,1g,1g,1g,1g,1g,1g,1g,0,0,1g,1g,1g,1g,1g
1g,1g,1g,1g,1g,1h,1g,1g,1h,0,0,1g,1g,1g,1g,1g
NAME getting boar
ITM e 13,7
EXT 9,15 p 9,0
EXT 10,15 p 10,0
PAL 3

ROOM p
1h,1g,1g,1g,1g,1g,1g,1g,1g,0,0,1g,1g,1g,1g,1h
1g,1g,1g,1h,1g,1g,1g,1g,1h,0,0,1g,1g,1g,1g,1g
1g,1g,1g,1g,1g,1g,1h,1g,1g,0,0,1g,1h,1g,1g,1g
1h,1h,1h,0,0,0,0,0,0,0,0,0,0,1h,1g,1g
1g,1g,1g,0,v,0,0,0,0,0,0,0,0,1g,1g,1g
1g,1g,1g,0,0,0,0,0,0,0,0,0,0,1g,1g,1g
1g,1g,1p,0,0,1t,0,0,0,0,0,0,0,1g,1h,1g
1h,1g,1q,0,0,1s,0,0,0,0,0,0,p,1h,1g,1h
1g,1g,1r,0,0,1u,0,0,0,0,0,0,0,1g,1g,1g
1g,1h,1g,0,0,0,0,0,0,0,0,0,0,1g,1g,1h
1g,1g,1g,0,0,0,0,0,0,0,0,0,0,1h,1g,1g
1h,1g,1g,0,0,0,0,0,0,0,0,0,0,1g,1g,1g
1g,1g,1g,0,0,0,0,0,0,0,0,0,0,1g,1g,1g
1h,1g,1h,1g,1g,1g,1g,1h,1g,1g,1g,1g,1g,1g,1g,1g
1g,1g,1g,1g,1h,1g,1g,1g,1g,1g,1g,1h,1g,1g,1h,1g
1g,1h,1h,1g,1g,1g,1g,1g,1h,1g,1g,1g,1g,1g,1g,1g
NAME gamenight2
ITM c 8,7
EXT 8,7 q 8,6
PAL 3

ROOM q
1h,1g,1g,1g,1g,1g,1g,1g,1g,0,0,1g,1g,1g,1g,1h
1g,1g,1g,1h,1g,1g,1g,1g,1h,0,0,1g,1g,1g,1g,1g
1g,1g,1g,1g,1g,1g,1h,1g,1g,0,0,1g,1h,1g,1g,1g
1h,1h,1h,0,0,0,0,0,0,0,0,0,0,1h,1g,1g
1g,1g,1g,0,v,0,0,0,0,0,0,0,0,1g,1g,1g
1g,1g,1g,0,0,0,0,0,0,0,0,0,0,1g,1g,1g
1g,1g,1p,0,0,1t,0,0,0,0,0,0,0,1g,1h,1g
1h,1g,1q,0,0,1s,0,0,0,0,0,0,p,1h,1g,1h
1g,1g,1r,0,0,1u,0,0,0,0,0,0,0,1g,1g,1g
1g,1h,1g,0,0,0,0,0,0,0,0,0,0,1g,1g,1h
1g,1g,1g,0,0,0,0,0,0,0,0,0,0,1h,1g,1g
1h,1g,1g,0,0,0,0,0,0,0,0,0,0,1g,1g,1g
1g,1g,1g,0,0,0,0,0,0,0,0,0,0,1g,1g,1g
1h,1g,1h,1g,1g,1g,1g,1h,1g,1g,1g,1g,1g,1g,1g,1g
1g,1g,1g,1g,1h,1g,1g,1g,1g,1g,1g,1h,1g,1g,1h,1g
1g,1h,1h,1g,1g,1g,1g,1g,1h,1g,1g,1g,1g,1g,1g,1g
NAME after gamenight2
ITM 4 10,0
EXT 10,0 r 10,15
PAL 3

ROOM r
1g,1g,1g,1g,1g,1h,1g,1g,1g,1g,1g,1g,1g,1g,1g,1g
1g,1h,1g,1g,1g,1g,1g,1l,1o,1m,1h,1g,1g,1g,1g,1g
1g,1g,1g,1g,1h,1g,1h,1l,1o,1m,1g,1g,1g,1g,1h,1g
1g,1g,1h,1g,1g,1g,1h,1l,1o,1m,1h,1g,1g,1g,1g,1g
1h,1g,1g,1g,1g,1g,1g,1j,1n,1k,1g,1g,1g,1g,1h,1g
1g,1g,1g,1g,0,0,0,0,0,1v,0,0,1h,1h,1g,1g
1g,1h,1g,1g,0,0,0,0,0,0,0,0,1g,1g,1g,1g
1g,1g,1g,1g,0,0,0,0,0,0,0,0,1g,1g,1g,1g
1g,1g,1g,1h,0,0,0,0,0,0,0,0,1h,1g,1h,1g
1g,1g,1g,1g,0,0,0,0,0,0,0,p,1g,1g,1g,1g
1h,1g,1g,1g,0,0,0,0,0,0,0,0,1g,1g,1g,1h
1g,1h,1g,1h,0,0,0,0,0,0,0,0,1g,1g,1g,1g
1g,1g,1g,1g,0,0,0,0,0,0,0,0,1h,1h,1g,1g
1g,1g,1h,1g,0,0,0,0,0,0,0,0,1g,1g,1g,1g
1g,1g,1g,1h,1g,1g,1h,1g,1h,0,0,1g,1h,1g,1g,1g
1g,1g,1g,1g,1g,1g,1g,1g,1g,0,0,1h,1g,1g,1g,1h
NAME night before kiss3
ITM 5 7,5
ITM 6 8,5
EXT 8,5 s 8,5
EXT 7,5 s 8,5
PAL 3

ROOM s
1g,1g,1g,1g,1g,1h,1g,1g,1g,1g,1g,1g,1g,1g,1g,1g
1g,1h,1g,1g,1g,1g,1g,1l,1o,1m,1h,1g,1g,1g,1g,1g
1g,1g,1g,1g,1h,1g,1h,1l,1o,1m,1g,1g,1g,1g,1h,1g
1g,1g,1h,1g,1g,1g,1h,1l,1o,1m,1h,1g,1g,1g,1g,1g
1h,1g,1g,1g,1g,1g,1g,1j,1n,1k,1g,1g,1g,1g,1h,1g
1g,1g,1g,1g,0,0,0,0,0,1v,0,0,1h,1h,1g,1g
1g,1h,1g,1g,0,0,0,0,0,0,0,0,1g,1g,1g,1g
1g,1g,1g,1g,0,0,0,0,0,0,0,0,1g,1g,1g,1g
1g,1g,1g,1h,0,0,0,0,0,0,0,0,1h,1g,1h,1g
1g,1g,1g,1g,0,0,0,0,0,0,0,p,1g,1g,1g,1g
1h,1g,1g,1g,0,0,0,0,0,0,0,0,1g,1g,1g,1h
1g,1h,1g,1h,0,0,0,0,0,0,0,0,1g,1g,1g,1g
1g,1g,1g,1g,0,0,0,0,0,0,0,0,1h,1h,1g,1g
1g,1g,1h,1g,0,0,0,0,0,0,0,0,1g,1g,1g,1g
1g,1g,1g,1h,1g,1g,1h,1g,1h,0,0,1g,1h,1g,1g,1g
1g,1g,1g,1g,1g,1g,1g,1g,1g,0,0,1h,1g,1g,1g,1h
NAME kiss3
ITM a 8,6
EXT 10,15 t 10,0
EXT 9,15 t 9,0
PAL 3

ROOM t
1g,1g,1h,1g,1g,1g,1g,1g,1g,0,0,1g,1g,1g,1h,1g
1g,1h,1g,1g,1g,1g,1g,1g,1g,0,0,1g,1g,1g,1g,1g
1g,1g,0,0,0,0,0,0,0,0,0,0,0,0,0,1g
1g,1g,0,0,0,0,0,o,0,0,0,0,0,0,0,1g
1h,1g,0,0,0,0,0,0,0,0,0,0,0,0,0,1h
0,0,0,0,0,o,0,v,0,v,0,o,0,0,p,1g
0,0,0,0,0,0,b,f,s,f,s,f,c,0,0,1g
1v,1v,1v,1v,1v,1v,f,s,f,s,f,s,f,0,1v,1g
0,0,0,o,0,0,e,f,s,f,s,f,d,0,0,1h
0,0,0,0,0,0,0,o,0,1i,0,1i,0,0,p,1g
1g,1h,0,0,0,0,0,0,0,0,0,0,0,0,0,1g
1h,1g,0,0,0,0,o,0,0,0,o,0,0,0,0,1h
1g,1g,0,o,0,0,0,0,0,0,0,0,0,0,0,1g
1g,1g,0,0,0,0,0,0,0,0,0,0,0,0,0,1g
1g,1g,1g,1g,1g,1g,1g,1g,1g,0,0,1g,1g,1g,1g,1g
1g,1g,1g,1g,1g,1h,1g,1g,1h,0,0,1g,1g,1g,1g,1g
NAME getting fox
ITM e 13,7
EXT 10,15 u 10,0
EXT 9,15 u 9,0
PAL 3

ROOM u
1h,1g,1g,1g,1g,1g,1g,1g,1g,0,0,1g,1g,1g,1g,1h
1g,1g,1g,1h,1g,1g,1g,1g,1h,0,0,1g,1g,1g,1g,1g
1g,1g,1g,1g,1g,1g,1h,1g,1g,0,0,1g,1h,1g,1g,1g
1h,1h,1h,0,0,0,0,0,0,0,0,0,0,1h,1g,1g
1g,1g,1g,0,v,0,0,0,0,0,0,0,0,1g,1g,1g
1g,1g,1g,0,0,0,0,0,0,0,0,0,0,1g,1g,1g
1g,1g,1p,0,0,1t,0,0,0,0,0,0,0,1g,1h,1g
1h,1g,1q,0,0,1s,0,0,0,0,0,0,p,1h,1g,1h
1g,1g,1r,0,0,1u,0,0,0,0,0,0,0,1g,1g,1g
1g,1h,1g,0,0,0,0,0,0,0,0,0,0,1g,1g,1h
1g,1g,1g,0,0,0,0,0,0,0,0,0,0,1h,1g,1g
1h,1g,1g,0,0,0,0,0,0,0,0,0,0,1g,1g,1g
1g,1g,1g,0,0,0,0,0,0,0,0,0,0,1g,1g,1g
1h,1g,1h,1g,1g,1g,1g,1h,1g,1g,1g,1g,1g,1g,1g,1g
1g,1g,1g,1g,1h,1g,1g,1g,1g,1g,1g,1h,1g,1g,1h,1g
1g,1h,1h,1g,1g,1g,1g,1g,1h,1g,1g,1g,1g,1g,1g,1g
NAME final night
ITM g 8,7
EXT 8,7 v 8,6
PAL 3

ROOM v
1h,1g,1g,1g,1g,1g,1g,1g,1g,0,0,1g,1g,1g,1g,1h
1g,1g,1g,1h,1g,1g,1g,1g,1h,0,0,1g,1g,1g,1g,1g
1g,1g,1g,1g,1g,1g,1h,1g,1g,0,0,1g,1h,1g,1g,1g
1h,1h,1h,0,0,0,0,0,0,0,0,0,0,1h,1g,1g
1g,1g,1g,0,v,0,0,0,0,0,0,0,0,1g,1g,1g
1g,1g,1g,0,0,0,0,0,0,0,0,0,0,1g,1g,1g
1g,1g,1p,0,0,1t,0,0,0,0,0,0,0,1g,1h,1g
1h,1g,1q,0,0,1s,0,0,0,0,0,0,0,1h,1g,1h
1g,1g,1r,0,0,1u,0,0,0,0,0,0,0,1g,1g,1g
1g,1h,1g,0,0,0,0,0,0,0,0,0,0,1g,1g,1h
1g,1g,1g,0,0,0,0,0,0,0,0,0,0,1h,1g,1g
1h,1g,1g,0,0,0,0,0,0,0,0,0,0,1g,1g,1g
1g,1g,1g,0,0,0,0,0,0,0,0,0,0,1g,1g,1g
1h,1g,1h,1g,1g,1g,1g,1h,1g,1g,1g,1g,1g,1g,1g,1g
1g,1g,1g,1g,1h,1g,1g,1g,1g,1g,1g,1h,1g,1g,1h,1g
1g,1h,1h,1g,1g,1g,1g,1g,1h,1g,1g,1g,1g,1g,1g,1g
NAME after final night
ITM 4 10,0
EXT 10,0 w 10,15
PAL 3

ROOM w
1g,1g,1g,1g,1g,1h,1g,1g,1g,1g,1g,1g,1g,1g,1g,1g
1g,1h,1g,1g,1g,1g,1g,1l,1o,1m,1h,1g,1g,1g,1g,1g
1g,1g,1g,1g,1h,1g,1h,1l,1o,1m,1g,1g,1g,1g,1h,1g
1g,1g,1h,1g,1g,1g,1h,1l,1o,1m,1h,1g,1g,1g,1g,1g
1h,1g,1g,1g,1g,1g,1g,1j,1n,1k,1g,1g,1g,1g,1h,1g
1g,1g,1g,1g,0,0,0,0,0,1v,0,0,1h,1h,1g,1g
1g,1h,1g,1g,0,0,0,0,0,0,0,0,1g,1g,1g,1g
1g,1g,1g,1g,0,0,0,0,0,0,0,0,1g,1g,1g,1g
1g,1g,1g,1h,0,0,0,0,0,0,0,0,1h,1g,1h,1g
1g,1g,1g,1g,0,0,0,0,0,0,0,p,1g,1g,1g,1g
1h,1g,1g,1g,0,0,0,0,0,0,0,0,1g,1g,1g,1h
1g,1h,1g,1h,0,0,0,0,0,0,0,0,1g,1g,1g,1g
1g,1g,1g,1g,0,0,0,0,0,0,0,0,1h,1h,1g,1g
1g,1g,1h,1g,0,0,0,0,0,0,0,0,1g,1g,1g,1g
1g,1g,1g,1h,1g,1g,1h,1g,1h,0,0,1g,1h,1g,1g,1g
1g,1g,1g,1g,1g,1g,1g,1g,1g,0,0,1h,1g,1g,1g,1h
NAME Last sleep
ITM 5 7,5
ITM 6 8,5
EXT 8,5 x 7,9
EXT 7,5 x 7,9
PAL 3

ROOM x
0,0,0,0,0,0,0,0,0,0,0,0,0,0,0,0
0,1f,0,1f,0,1f,0,1f,0,1f,0,1f,0,1f,0,0
0,i,h,g,h,a,h,g,h,a,h,g,h,j,0,0
0,i,j,0,i,a,j,0,i,a,j,0,i,j,0,0
0,i,j,0,i,a,a,h,a,a,j,0,i,j,0,0
0,i,a,h,a,a,10,11,12,a,a,h,a,j,0,0
0,i,j,0,i,a,z,z,z,a,j,0,i,j,0,0
0,i,j,0,i,a,z,z,z,a,j,0,i,j,0,0
0,i,a,h,a,a,z,z,z,a,a,h,a,j,0,0
0,0,0,0,0,18,13,14,15,0,0,0,0,0,0,0
0,0,0,0,1b,19,1c,17,16,0,0,0,0,0,0,0
0,0,0,17,1a,1c,1c,1a,0,0,0,0,0,0,0,0
0,0,0,15,1c,1c,16,0,0,0,0,0,0,0,0,0
0,0,17,16,1c,1c,1c,0,0,0,0,0,0,0,0,0
0,17,1a,1c,17,1c,1b,0,0,0,0,0,0,0,0,0
0,1a,1c,1c,1c,1c,1a,0,0,0,0,0,0,0,0,0
NAME Leaving Bercilek's castle
ITM h 7,12
EXT 7,12 y 0,8
PAL 3

ROOM y
0,0,1d,1d,1d,1d,1d,1d,1d,0,0,0,0,0,1d,0
0,1d,0,0,0,1d,0,0,1d,1d,0,0,0,1d,1d,0
0,1d,0,1e,1e,1e,1e,1e,1e,1e,1e,1d,1d,1e,1e,0
0,1d,0,1d,1e,1d,0,1e,1e,1e,1e,1e,1e,1e,1d,1d
0,1d,0,1e,0,1d,1d,1e,1e,1e,1e,1e,0,1d,1d,1d
1d,1d,1e,1e,1e,0,1e,1d,0,1e,1e,1d,1d,1d,0,0
0,0,1d,1e,1e,1d,1d,1d,0,0,0,0,0,0,0,0
0,0,0,0,0,0,0,0,0,0,1e,0,0,1d,0,1d
0,0,0,0,0,0,1e,1e,1e,1e,1e,0,0,1d,0,0
0,0,0,1d,0,1e,1d,1d,1d,1d,1d,1e,1e,1e,1e,1d
1d,0,0,1d,1e,1e,1e,1e,0,1e,1e,1e,1e,0,0,1d
1d,0,0,1d,1e,1d,0,0,1e,1e,1d,1d,1d,1d,0,1d
1d,1d,1d,1e,1e,1e,1d,1d,1d,1e,0,1d,0,1d,0,0
1d,1d,1d,1d,1d,1d,1e,0,1e,1e,0,0,0,1d,0,0
1d,0,0,1e,0,0,0,0,1e,0,1d,1d,1d,1d,0,0
0,0,0,1e,0,0,0,0,1e,1d,0,0,0,0,0,0
NAME traveling to green chapel
ITM i 13,6
EXT 13,6 z 13,6
PAL 2

ROOM z
0,0,1d,1d,1d,1d,1d,1d,1d,0,0,0,0,0,1d,0
0,1d,0,0,0,1d,0,0,1d,1d,0,0,0,1d,1d,0
0,1d,0,1e,1e,1e,1e,1e,1e,1e,1e,1d,1d,1e,1e,0
0,1d,0,1d,1e,1d,0,1e,1e,1e,1e,1e,1e,1e,1d,1d
0,1d,0,1e,0,1d,1d,1e,1e,1e,1e,1e,0,1d,1d,1d
1d,1d,1e,1e,1e,0,1e,1d,0,1e,1e,1d,1d,1d,0,0
0,0,1d,1e,1e,1d,1d,1d,0,0,0,0,0,o,0,0
0,0,0,0,0,0,0,0,0,0,1e,0,0,1d,0,1d
0,0,0,0,0,0,1e,1e,1e,1e,1e,0,0,1d,0,0
0,0,0,1d,0,1e,1d,1d,1d,1d,1d,1e,1e,1e,1e,1d
1d,0,0,1d,1e,1e,1e,1e,0,1e,1e,1e,1e,0,0,1d
1d,0,0,1d,1e,1d,0,0,1e,1e,1d,1d,1d,1d,0,1d
1d,1d,1d,1e,1e,1e,1d,1d,1d,1e,0,1d,0,1d,0,0
1d,1d,1d,1d,1d,1d,1e,0,1e,1e,0,0,0,1d,0,0
1d,0,0,1e,0,0,0,0,1e,0,1d,1d,1d,1d,0,0
0,0,0,1e,0,0,0,0,1e,1d,0,0,0,0,0,0
NAME stopping for warning
EXT 15,6 10 15,7
PAL 2

TIL 10
00000111
00011010
00100010
01100010
01100010
10111111
00100010
00100010
WAL true

TIL 11
11111111
00100010
00100010
00100010
00100010
11111111
00100010
00100010
WAL true

TIL 12
11100000
00111000
00100100
00100010
00100010
11111111
00100010
00100010
WAL true

TIL 13
01000010
01010000
01000000
10000100
00101000
00000000
10001000
00000000
NAME path 1

TIL 14
00000100
00000000
10101000
00000100
00100000
00100000
10000101
00010000
NAME path 2

TIL 15
00010010
01000110
10000010
00000010
01010100
00000100
00001000
00101000
NAME path 3

TIL 16
00001000
00010000
00010010
00100000
01010010
01000000
10001000
00100000

TIL 17
00000000
00100000
00000100
00000000
00100000
00001000
10000000
00000001

TIL 18
00000000
00000000
00000000
00000000
00000001
00000001
00001110
00010000

TIL 19
01101000
10000000
00000000
10010010
00000100
00100001
00001000
10000000

TIL a
11011101
00000000
01110111
00000000
11011101
00000000
01110111
00000000
NAME brick
WAL true

TIL b
00000111
00011111
00111111
01111111
01111111
11111111
11111111
11111111
NAME table top left corner
WAL true

TIL c
11100000
11111000
11111100
11111110
11111110
11111111
11111111
11111111
NAME table top right corner
WAL true

TIL d
11111111
11111111
11111111
11111110
11111110
11111100
11111000
11100000
NAME table bottom right corner
WAL true

TIL e
11111111
11111111
11111111
01111111
01111111
00111111
00011111
00000111
NAME table bottom left corner
WAL true

TIL f
11111111
11111111
11111111
11111111
11111111
11111111
11111111
11111111
NAME solid
WAL true

TIL g
11011101
00000000
01110111
00000000
11011101
00000000
01110111
11111111
NAME brick solid bottom
WAL true

TIL h
11111111
00000000
01110111
00000000
11011101
00000000
01110111
00000000
NAME brick solid top
WAL true

TIL i
11011101
10000000
11110111
10000000
11011101
10000000
11110111
10000000
NAME brick solid left
WAL true

TIL j
11011101
00000001
01110111
00000001
11011101
00000001
01110111
00000001
NAME brick solid right
WAL true

TIL k
11111111
10000000
11110111
10000000
11011101
10000000
11110111
10000000
NAME brick solid left top
WAL true

TIL l
11011101
10000000
11110111
10000000
11011101
10000000
11110111
11111111
NAME brick solid left bottom
WAL true

TIL m
11111111
00000001
01110111
00000001
11011101
00000001
01110111
00000001
NAME brick solid right top
WAL true

TIL n
11011101
00000001
01110111
00000001
11011101
00000001
01110111
11111111
NAME brick solid right bottom
WAL true

TIL o
00001100
00001100
00000000
01011100
01101110
01001101
00010100
00010010
NAME court knight

TIL p
00010000
00011000
00001100
00000000
00000110
00000011
00000001
00000000
>
00001100
00000110
00001110
00000000
00000110
00000011
00000001
00000000
NAME wall sconce

TIL q
00000000
00000100
00000100
00000000
00000000
01000000
01000000
00000000
NAME floor

TIL r
00000000
00000000
00000100
00000100
00000000
00000000
00000000
00000000
NAME floor2

TIL s
11111111
11110011
11111111
11111111
10011111
11111111
11111111
11111111
NAME tabletop woodgrain
WAL true

TIL t
11011001
00000000
01110111
00000000
11001101
00000000
01110110
00000000
NAME brick2
WAL true

TIL v
00100100
00111100
00100100
00111100
00111100
00100100
00100100
00000000
NAME chair

TIL w
00100000
10100000
11111111
11111111
11111111
11111111
10100000
10000000
NAME bed left

TIL x
00000001
00111101
11111111
11111111
11111111
11111111
00000101
00000100
NAME bed right

TIL y
01010101
01010100
00010101
01010001
01010101
01010101
01000101
01010101
NAME column

TIL z
00100010
00100010
00100010
00100010
11111111
00100010
00100010
00100010
WAL true

TIL 1a
10000010
00100010
00010100
01001000
00010010
01100000
10001010
00100000

TIL 1b
10000100
00100000
00000001
10000001
00101010
00000010
01000010
00100010

TIL 1c
00100000
00000100
00000000
10100000
00000100
01000000
00001010
00000000

TIL 1d
00001000
00011100
00100100
01011010
00100100
01011011
10111000
00011000
WAL true

TIL 1e
00010000
01111000
00110100
01011110
10100101
01011010
00010000
00010000
WAL true

TIL 1f
11111111
10000001
11110111
10000001
11011101
10000001
11110111
10000001
NAME top3 brick
WAL true

TIL 1g
11101111
11101111
11101111
00000000
11111110
11111110
11111110
00000000
NAME big brick
WAL true

TIL 1h
11001111
11101111
11101111
00000000
01111110
11111010
11110110
00000000
NAME big brick2
WAL true

TIL 1i
00000000
00100100
00100100
00111100
00111100
00100100
00111100
00100100
NAME chair2

TIL 1j
11000000
11000000
11000000
00000000
11111110
11111110
11111110
00000000
NAME big window bottom left
WAL true

TIL 1k
00000111
00000111
00000111
00000000
11111110
11111110
11111110
00000000
NAME big window bottom right
WAL true

TIL 1l
11000000
11000000
11000000
00000000
11011111
11000000
11000000
00000000
NAME big window left
WAL true

TIL 1m
00000111
00000111
00000111
00000000
11110110
00000110
00000110
00000000
NAME big window right
WAL true

TIL 1n
00010000
00010000
00010000
00000000
11111110
11111110
11111110
00000000
NAME big window bottom
WAL true

TIL 1o
00010000
00010000
00010000
00010000
11111111
00010000
00010000
00010000

TIL 1p
11101111
11101111
11101111
00000000
11000000
11000000
10000000
00000000
NAME fireplace
WAL true

TIL 1q
10000100
10000010
10101010
00110010
10010000
10001010
10100100
00000100
NAME fireplace2
WAL true

TIL 1r
10000000
11000000
11000000
00000000
11111110
11111110
11111110
00000000
NAME fireplace3
WAL true

TIL 1s
01110111
01110111
01110111
01110111
01110111
01110111
01110111
01110111

TIL 1t
00000011
00000111
01111111
01111111
00000111
01110111
01110111
01110111

TIL 1u
01110111
01110111
01110111
00000111
01111111
01111111
00000111
00000011

TIL 1v
00000000
00000000
00000000
00000000
00000000
00000000
00000000
00000000
NAME invisible wall
WAL true

TIL 1w
00000000
00000000
10001010
10001110
01001110
00111110
00111100
00100100
NAME movement indicator

TIL 1x
00000000
00000000
00000000
00000000
00000000
00000000
00000000
01001100

SPR 10
00001111
00111101
01111111
01100000
00110000
00011000
00011000
01110000
>
00001111
00011011
00111111
00110000
00011000
00001100
01001100
00111000
NAME serpent
DLG SPR_b
POS 8 8,9

SPR 11
00000000
00000000
00010100
10001110
01111111
00111100
00100100
00000000
>
00001010
01000110
01000111
00111100
00111100
01000010
00000000
00000000
NAME wolf
DLG SPR_c
POS 8 11,3

SPR 12
00001100
00001110
00000001
00001101
00011101
00001110
00001110
00011111
NAME the lady
DLG SPR_e
POS b 11,9

SPR 13
00001100
00001110
00000000
00001100
00001100
00001110
00001110
00011111
NAME the old lady
DLG SPR_f
POS b 10,9

SPR 14
00001100
00001100
00001000
01010110
01101111
01001101
00010101
00010010
NAME bercilak1
DLG SPR_d
POS b 13,7

SPR 15
00100000
10100000
10011111
10111111
11111111
11111111
10100000
10000000
NAME bed1
POS n 7,5

SPR 16
00000001
01110101
11111111
11111111
11111111
11111111
00000101
00000100
NAME bed2
POS d 8,5

SPR 17
00001100
00001110
00000001
00001101
00011101
00001110
00001110
00011111
NAME lady2
DLG SPR_g
POS j 11,9

SPR 18
00001100
00001110
00000000
00001100
00001100
00001110
00001110
00011111
NAME old lady2
DLG SPR_h
POS j 10,9

SPR 19
00001100
00001100
00001000
01010110
01101111
01001101
00010101
00010010
NAME bercilak2
POS l 8,7

SPR 20
00111000
00111100
00111100
00011001
01111101
11110101
10100011
10110101
POS 14 2,6

SPR 21
10111101
10100101
00111101
00100101
00100101
00100101
00110111
00000000
POS 14 2,7

SPR 22
00000000
00010000
00110000
11111000
11111000
00111000
00011000
00010000
POS 14 3,7

SPR 23
00000001
01110101
11111111
11111111
11111111
11111111
00000101
00000100
POS i 8,5

SPR A
00001110
00001100
00000000
01011100
01101110
01001101
00010100
00010010
POS 0 8,5

SPR a
00000000
00000000
01010110
01110010
01110100
01111100
00111100
00100100
>
00000000
00000000
01010001
01110001
01110010
01111100
00111100
00100100
>
00000000
00000000
01010001
01110001
01110010
01111100
00111100
00100100
NAME cat1
DLG SPR_0
POS 0 9,12

SPR b
10111101
10100101
00111100
00100100
00100100
00100100
00110110
00000000
NAME green knight headed bottom
POS 0 1,7

SPR c
00111000
00111100
00111100
00011001
01111101
11110101
10100011
10110101
NAME green knight headed top
POS 0 1,6

SPR d
00010100
00011100
00000000
01011110
01101111
01001101
00010111
00010010
NAME arthur1
DLG SPR_1
POS 0 12,7

SPR e
00000000
00000011
00000111
00001101
00001110
00001111
00000100
01111100
NAME kneeling bottom
POS 1 1,7

SPR f
00000000
11101110
11111110
10111110
11101100
10100000
10100000
10111000
NAME kneeling head
POS 1 2,7

SPR g
00000000
11100000
11110000
10110000
11100000
10100000
10100000
10111000
NAME headless kneeling
POS 2 2,7

SPR h
00000000
00000011
00000111
00001101
00001110
00001111
00000100
01111100
NAME kneeling before the chop
POS 2 1,7

SPR i
10111100
10100100
00111100
00100100
00100100
00100100
00110110
00000000
NAME headless knight standing bottom
POS 4 1,7

SPR j
00000000
00000000
00000000
00011000
01111100
11110111
10100000
10110100
NAME green knight headless standing top
POS 4 1,6

SPR l
00010100
00011100
00000000
01011110
01101111
01001101
00010111
00010010
NAME arthur2
DLG SPR_2
POS 4 12,7

SPR m
00000000
00100000
01111000
11101100
11111110
11000110
10000000
10000000
NAME horse1
POS 0 0,6

SPR n
00101000
00111000
00000000
00111000
00101100
00011110
00111010
00101110
NAME gwen1
DLG SPR_4
POS 0 10,5

SPR o
00101000
00111000
00000000
00111000
00101100
00011110
00111010
00101110
NAME gwen2
DLG SPR_5
POS 4 10,5

SPR p
00000000
00100000
01111000
11101100
11111110
11000110
10000000
10000000
NAME horse2
POS 4 0,6

SPR q
00000000
00000000
01010110
01110010
01110100
01111100
00111100
00100100
>
00000000
00000000
01010001
01110001
01110010
01111100
00111100
00100100
>
00000000
00000000
01010001
01110001
01110010
01111100
00111100
00100100
NAME cat2
DLG SPR_3
POS 4 9,12

SPR r
00101000
00111000
00000000
00111000
00101100
00011110
00111010
00101110
NAME gwen3
DLG SPR_6
POS 5 10,5

SPR s
00001010
00001110
00000000
01011110
01101111
01001101
00010111
00010010
NAME arthur3
DLG SPR_7
POS 5 12,7

SPR t
00000000
00000000
01010110
01110010
01110100
01111100
00111100
00100100
>
00000000
00000000
01010001
01110001
01110010
01111100
00111100
00100100
>
00000000
00000000
01010001
01110001
01110010
01111100
00111100
00100100
NAME cat3
DLG SPR_8
POS 5 9,12

SPR u
00000000
00100000
01111000
11101100
11111110
11000110
10000000
10000000
NAME horse3
DLG SPR_9
POS 7 8,12

SPR v
00000000
00000000
00000000
01110011
11111111
11111111
11111111
11111111

SPR w
10000000
10000000
10000000
10000000
00000000
00000000
00000000
00000000
POS 7 8,13

SPR x
11000011
11000001
11000001
11000001
10000001
00000000
00000000
00000000
POS 7 7,13

SPR y
00000000
00000000
00000000
00000011
00000111
00001100
00001100
00001100
POS 7 6,12

SPR z
00010000
00101000
01110100
11111100
01011100
01011000
00000000
00000000
NAME house
DLG SPR_a
POS 8 3,5

SPR 1a
00100000
10100000
10011111
10111111
11111111
11111111
10100000
10000000
NAME used
POS s 7,5

SPR 1b
00100000
10100000
10011111
10111111
11111111
11111111
10100000
10000000
NAME used
POS i 7,5

SPR 1c
00100000
10100000
10011111
10111111
11111111
11111111
10100000
10000000
NAME used
POS d 7,5

SPR 1d
00000001
01110101
11111111
11111111
11111111
11111111
00000101
00000100
NAME used
POS s 8,5

SPR 1e
00000001
01110101
11111111
11111111
11111111
11111111
00000101
00000100
NAME used

SPR 1f
00000001
01110101
11111111
11111111
11111111
11111111
00000101
00000100
NAME used
POS n 8,5

SPR 1g
00001100
00001100
00001000
01010110
01101111
01001101
00010101
00010010

SPR 1h
00001100
00001100
00001000
01010110
01101111
01001101
00010101
00010010
NAME used
POS q 8,7

SPR 1i
00001100
00001100
00001000
01010110
01101111
01001101
00010101
00010010
NAME used
POS g 8,7

SPR 1j
00001100
00001100
00001000
01010110
01101111
01001101
00010101
00010010
NAME used
POS v 8,7

SPR 1k
00001100
00001100
00001000
01010110
01101111
01001101
00010101
00010010

SPR 1l
00000000
00100000
01111000
11101100
11111110
11000110
10000000
10000000
DLG SPR_l
POS x 8,12

SPR 1m
10000000
10000000
10000000
10000000
00000000
00000000
00000000
00000000
POS x 8,13

SPR 1n
11000011
11000001
11000001
11000001
10000001
00000000
00000000
00000000
POS x 7,13

SPR 1o
00000000
00000000
00000000
00000011
00000111
00001100
00001100
00001100
POS x 6,12

SPR 1r
00111000
00111100
00111100
00011001
01111101
11110101
10100011
10110101
POS 11 2,6

SPR 1s
10111101
10100101
00111101
00100101
00100101
00100101
00110111
00000000
POS 11 2,7

SPR 1t
00000000
00010000
00110000
11111000
11111000
00111000
00011000
00010000
NAME before flinch
DLG SPR_i
POS 11 3,7

SPR 1u
00111000
00111100
00111100
00011001
01111101
11110101
10100011
10110101
POS 12 2,6

SPR 1v
10111101
10100101
00111101
00100101
00100101
00100101
00110111
00000000
POS 12 2,7

SPR 1w
00000000
00010000
00110000
11111000
11111000
00111000
00011000
00010000
NAME before fakeout
DLG SPR_j
POS 12 3,7

SPR 1x
00111000
00111100
00111100
00011001
01111101
11110101
10100011
10110101
POS 13 2,6

SPR 1y
10111101
10100101
00111101
00100101
00100101
00100101
00110111
00000000
POS 13 2,7

SPR 1z
00000000
00010000
00110000
11111000
11111000
00111000
00011000
00010000
NAME before real
DLG SPR_k
POS 13 3,7

ITM 0
10000000
01000000
00100100
00010110
00001111
00111100
00011000
00001000
NAME axe
DLG ITM_0

ITM 1
00000000
00000000
00000000
00000000
00000000
00000000
00000000
00000000
NAME strike the blow
DLG ITM_1

ITM 2
00000000
00000000
00000000
00000000
11100000
11100000
11100000
11000000
DLG ITM_2

ITM 3
00000000
00000000
00000000
00000000
01000000
11110000
01111000
01111000
NAME talking to the severed head
DLG ITM_3

ITM 4
00010000
00101000
00000000
00000010
10000110
11111110
11111110
10000010
>
00010000
00101000
00000010
10000110
11111110
11111110
10000010
00000000
NAME go to bed
DLG ITM_4

ITM 5
00100000
10100000
10011111
10111111
11111111
11111111
10100000
10000000
NAME bed1
DLG ITM_6

ITM 6
00000001
01110101
11111111
11111111
11111111
11111111
00000101
00000100
NAME bed2
DLG ITM_5

ITM 7
00000000
00000000
00000000
01110011
11111111
11111111
11111111
11111111
NAME horse back
DLG ITM_7

ITM 8
01010101
01111111
01011101
01111111
01110111
01101011
01110111
01101011
NAME bercilakCastle
DLG ITM_9

ITM 9
00000000
00000000
00000000
00000000
00000000
00000000
00000000
00000000
NAME CROSS MYSELF 3 TIMES
DLG ITM_8

ITM a
00001100
00001110
00000001
00001101
00011101
00001110
00001110
00011111
NAME kiss
DLG ITM_a

ITM b
00000000
00000000
00000000
00000000
00000000
00000000
00000000
00000000
NAME The Third Day
DLG ITM_b

ITM c
00001100
00001100
00001000
01010110
01101111
01001101
00010101
00010010
NAME bercilak
DLG ITM_c

ITM d
00000000
00000000
00000000
00000000
00000000
00000000
00000000
00000000
NAME rewards
DLG ITM_d

ITM e
00001100
00001100
00001000
01010110
01101111
01001101
00010101
00010010
NAME giving kisses
DLG ITM_e

ITM f
00000000
00000000
00000000
00000000
00000000
00000000
00000000
00000000
NAME retiring to the fire

ITM g
00001100
00001100
00001000
01010110
01101111
01001101
00010101
00010010
DLG ITM_f

ITM h
00000000
00000000
00000000
01110011
11111111
11111111
11111111
11111111
DLG ITM_g

ITM i
00001100
00001100
00000000
01011100
01101110
01001101
00010100
00010010
DLG ITM_h

ITM j
00000000
00000000
00000000
00000000
00000000
00000000
00000000
00000000
NAME the knight appears
DLG ITM_i

ITM k
00000000
00000000
00000000
00000000
00000000
00000000
00000000
00000000
NAME FLINCH
DLG ITM_j

ITM l
00000000
00000000
00000000
00000000
00000000
00000000
00000000
00000000
NAME FAKEOUT
DLG ITM_k

ITM m
00000000
00000000
00000000
00000000
00000000
00000000
00000000
00000000
NAME HIT
DLG ITM_l

ITM n
00000000
00000000
00000000
00000000
00000000
00000000
00000000
00000000
NAME Talking afterwards.
DLG ITM_m

DLG ITM_0
My duty to my King compels me to defend his honor and the honor of this house. If I strike true enough, I can sever his head and the game will be over. It's not as if he can strike me back without a head.

DLG ITM_1
I raise the axe high above my head and bring it down in one swift blow, separating his head completely.

DLG ITM_2
Miraculously the Green Knight's headless body stands and picks his head up by the hair.

DLG SPR_1
My King's rage at the insult of this stranger to our castle is evident. His breath is quickened and his eyes glow with fiery anger. Dispite his anger, there's a spark of excitement in his eyes. He lives for this kind of drama.

DLG SPR_2
My King is stunned at the Green Knight's supernatural display, yet delighted by the show I have put on in his honor. 

DLG SPR_0
Meow.

DLG SPR_3
Oh damn.

DLG ITM_3
Before the green knight leaves, he reminds me that he will claim his dues in a year and a day. I ask him where I must travel to recieve my blow, to which he tells me that I must seek out the Green Chapel. I now have my mission, but no direction. We finish dinner.

DLG SPR_4
My queen looks visibly distraught at the verdant knight's suggestion.

DLG SPR_5
My queen is covering her eyes, peeking out through a crack in her fingers.

DLG SPR_6
My queen is much relieved that the Green Knight is gone, and that her night can return to some sembalance of normalcy.

DLG SPR_7
My King jokes with me and the other knights about the situation I now find myself in, and keeps glancing at the new axe I have "won".

DLG ITM_4
The night is over, and it's time to go retire to my chambers.

DLG ITM_5
"""
{
  - {item "go to bed"} == 1 ?
    I head to bed. Over the course of the next year, my fellow knights tease me and remind me on a nearly daily basis of my commitment to the game. My axe continues to hang in the dining hall, only being taken down from time to time to be shown as the story is told to guests. Finally, it is almost Christmas time again, and the new year is approaching quickly. It is time to seek out the Green Knight in the Green Chapel.
  - {item "go to bed"} == 2 ?
    The next two days pass in marryment and joy. I spend much of my time socializing with the beautiful lady and the lord of the house. We play games and tell stories and have a wonderful christmastime.
  - {item "go to bed"} == 3 ?
    When I awake, the lady is sitting by my bed side. I pretend to lay asleep a while until I am sure she isn't going away. When she comes and sits on my bedside I realize she isn't, so I "wake up" and act surprised at her presence, covering myself with my sheets. 

  - {item "go to bed"} == 4 ?
    When I awake, the lady is at my side once again. 
  - {item "go to bed"} == 5 ?
    The lady is come for a third time.
  - {item "go to bed"} == 6 ?
    It's time for me to leave this castle. It's the New Year, the day I must bare my neck to the Green Knight at the Green Chapel. I was dressed and fed in the finest way, and am ready to depart to my destiny on Gringolet with the girdle around my waist
}
"""

DLG ITM_6
"""
{
  - {item "go to bed"} == 1 ?
    I head to bed. Over the course of the next year, my fellow knights tease me and remind me on a nearly daily basis of my commitment to the game. My axe continues to hang in the dining hall, only being taken down from time to time to be shown as the story is told to guests. Finally, it is almost Christmas time again, and the new year is approaching quickly. It is time to seek out the Green Knight in the Green Chapel.
  - {item "go to bed"} == 2 ?
    The next two days pass in marryment and joy. I spend much of my time socializing with the beautiful lady and the lord of the house. We play games and tell stories and have a wonderful christmastime.
  - {item "go to bed"} == 3 ?
    When I awake, the lady is sitting by my bed side. I pretend to lay asleep a while until I am sure she isn't going away. When she comes and sits on my bedside I realize she isn't, so I "wake up" and act surprised at her presence, covering myself with my sheets. 

  - {item "go to bed"} == 4 ?
    When I awake, the lady is at my side once again. 
  - {item "go to bed"} == 5 ?
    The lady is come for a third time.
  - {item "go to bed"} == 6 ?
    It's time for me to leave this castle. It's the New Year, the day I must bare my neck to the Green Knight at the Green Chapel. I was dressed and fed in the finest way, and am ready to depart to my destiny on Gringolet with the girdle around my waist
}
"""

DLG SPR_8
Good heavens.

DLG SPR_9
My horse, Gringolet, seems happy, and is ready to assist me on my journey to the Green chapel.

DLG ITM_7
I mount Gringolet, and ride off in search of the Green Chapel. I must receive my dues.

DLG SPR_a
I meet many people along the way, and inquire about the Green Knight and the Green Chapel. The only response I receive is stern no's.

DLG SPR_b
Along the way I encounter many beasts, such as serpents.

DLG SPR_c
I encounter wolves, and other large beasts as well.

DLG ITM_8
It's the dead of winter. The cold is biting, and I am beginning to lose hope. As I often do I bless myself. "Christ's cross speed me" and I cross myself three times. A miracle to answer my prayers.

DLG ITM_9
When I arrive at the newly appeared castle, I am struck by how magnificent a structure it is. I call to the walls, and a porter appears. I ask for shelter, should they be so gracious, and they respond with open arms. 

DLG ITM_a
"""
{
  - {item "kiss"} == 1 ?
    We talk for some time, our banter witty and coy. I do my best to remain a true proper knight. Though as she's leaving, she taunts my courtly manner, coaxing me to receive a kiss from her. I oblige her, being the gentleman and Knight that I am. She kisses me and after we commend each other to Christ she leaves. I get up and dress, it now being midday.
  - {item "kiss"} == 2 ?
    This morning I awake as the lady enters the room. I happily welcome her over to me, to which she responds incredulously that I have not taken her advice from yesterday and asked for a kiss right away... so I do so. We spend much of the rest of the time flirting, though I ensure that it does not go beyond such frivolities. Before she leaves she gives to me another kiss making two for the day.
  - {item "kiss"} == 3 ?
    On this third day I awake to the window being thrown wide open. However I am so sleepy, I drift in and out of various dreams as she tries to awake me. I dream of the quickly approaching deal I must undertake, facing the Green Knight and receiving a blow as I gave him. My death seems imminent. I am pulled from my dreams with a kiss, and we converse for some time. She asks me if I have some other lover because of how reluctant I am to show her my love, but I assure her this is not the case. Sad that although I am not bound by another love I still spurn her advances, she requests another kiss for parting.

Though before parting she requests a token from me, something to remember me by when I leave. I don't wish to insult her with such a small token, as I don't have something worthy on my person. So in return she insists I take something of hers. She removes a gold ring from her finger, and offers it to me. I adamantly refuse. She persists, but I will not budge. Defeated, she instead offers me her girdle that she says will protect me from death. This proposition is so tempting, I can not help but take it. She makes me promise, however, that I will not tell her husband, the lord, of it. Reluctantly I agree and before I can say more she grants me a third and final kiss before leaving my chambers.
}
"""

DLG SPR_d
The lord of the castle is very welcoming. He has a great bushy beard, and a friendly demeanor. We drink, play games, and party far into the night. 

DLG SPR_e
This woman is the most beautiful woman I've ever seen. The moment I get a chance, I introduce myself to her. I offer myself to her as her servant, telling her that there is nothing I would not do for her. If only she was not constantly accompanied by this older woman.

DLG SPR_f
This older woman won't leave the side of the beautiful younger lady. It's really annoying, but whatever.

DLG ITM_b
On the third day we partied all day again, but when it came time for the festivities to come to a close, the lord of the house called me into the lounging room.

DLG SPR_g
The lady is looking lovelier than ever.

DLG SPR_h
Ew.

DLG ITM_c
"""
{
  - {item "bercilak"} == 1 ?
    The lord of the castle and I converse for a while. He take turns thanking each other for being so hospitable and kind. He tells me I should stay longer, but I inform him I must be leaving soon, as I have a duty to fulfill. He asks me what that duty would be, to which I tell him the story of the New Years Eve one year ago. To my astonishment, he tells me he knows exactly where the Green Chapel is, and that it is but a couple miles from here. He urges me to stay, and proposes a game for us to play, a challenge for the next three days.  
    
    "Whatsoever I win in the wood, it shall be yours; and whatsoever fortune ye achieve, exchange with me therefor. Sweet sir, swap we so, swear truly, whichever one of us gets the worse or the better."
  - {item "bercilak"} > 1 ?
    As we lounge by the fire, we agree to play the game again the next day.
}
"""

DLG ITM_d
When the lord returns from his day's hunt, he calls everyone to the main hall.

DLG ITM_e
"""
{
  - {item "giving kisses"} == 1 ?
    The lord presents me with the fruits of his labor: a deer expertly cleaned, and beautifully presented. I thank him profusely, and when he asks for the spoils I had won this day, I had naught to give him but the kiss I had recieved from the Lady. So give him the kiss I do. The lord laughs and heads to the southern lounging room and bids me follow him. 
  - {item "giving kisses"} == 2 ?
    The lord presents me with today's win: a large, ferocious boar again expertly cleaned. Such a beautiful catch, he gives all to me, and in return I give him the two kisses given to me earlier in the day. We laugh, as he tells me how impressed he is with my gains, and that tomorrow can only be better. We head to the southern lounging room.
  - {item "giving kisses"} == 3 ?
    On this third and final day the lord comes home, looking defeated. We sit and I offer my winnings for the day (minus the girdle), three perfect kisses. The lord laughs at my fortune, and gives me the fox he hunted today. We enjoy a wonderful meal and go to get super drunk in the lounging room.
}
"""

DLG ITM_f
The lord and I enjoy a fantastic night of drinking, and I make sure that tomorrow morn he will send me on my way with a guide he had promised to lead me to the Green Chapel. He confirms this, and I am lead to my bed for my final night in the castle. I say many goodbyes on the way to my bed.

DLG ITM_g
I ride off with the guide the lord of the castle has provided me.

DLG ITM_h
We have arrived as close to the Green Chapel as my guide is willing to go. He warns me of the dangers of the Green Knight, and urges me to take this opportunity to leave. He tells me he won't tell a soul if I decide to back down now. I refuse. I am committed to my word. 

DLG ITM_i
"""
As I enter the green hilled area, I look around for the Green Knight who is to smite me. He is no where to be seen. Then, I hear the sound of an axe to a grindstone.


"Who has power in this place to honor his pact? Because good Gawain now walks on this ground. If anyone wants anything then hurry and appear to do what he needs -- it's now or never."


The Knight replies, telling me to wait while he sharpens his axe. 


And he appears.
"""

DLG SPR_i
"""
"Your visit keeps your vow" he tells me. 



"Pull your helmet from you head and take what you're owed. Show no more stuggle than I showed myself when you severed my head with a single smite."
"""

DLG ITM_j
I bow my head and prepare for the blow, but just out of the corner of my eye I catch a glimpse of the axe's glint. I flinch as he brings the axe down. The Knight looks seriously unimpressed.

DLG SPR_j
The Green Knight taunts me. Did he not stand stock still when I cut off his head a year and a day ago? He calls me a sorry excuse for a knight, and my determination is renewed. I bow my head again. 

DLG ITM_k
He hoists his axe and brings it down. I feel the breeze of the blade on my neck, but feel nothing else. I stood stock still and the Knight missed. He had missed on purpose. 

DLG SPR_k
The Green Knight remarks on how I've gathered my courage. He tells me that he will dispatch me now. I prepare for the final blow.

DLG ITM_l
I bow my head for the final time, preparing for the blow. Again, the Green Knight lifts the axe above his head and brings it down. This time, I feel the blade make contact, but only on the side of my neck. I survived the blow.

DLG ITM_m
"""
I jump back, putting my helmet on, pulling my sword, and preparing to defend myself. The Knight laughs. 


He explains that he missed my neck twice on purpose because of the deal we had made in his castle. I had stayed truthful the first two times, and so he spared me both times. However, because I strayed the third time, I felt his blade. He tells me that the belt I wear around my waist, the girdle, belongs to his wife, and that he set the whole thing up. 


I'm astonished, and in anger I throw the girdle to the ground in front of him. I'm not angry at him, but at myself for having given in to the temptation. He forgives me for my sin and ae talk for some time. He offers me the girdle as a gift that I may keep, which I do so but only as a reminder of my sin. 


He tells me to come back with him to his castle. Having been away from my King for so long, I politely refuse. He tells me that the person behind this idea is my aunt Morgan le Fay. This sounds even worse to me, so I bid him farewell. 
"""

DLG SPR_l
Let's do the dang thing.

END 0


END undefined
I return home to my King, sash draped across my chest. I show it to all my brothers and to my King and regail them with the tale of my adventure. So taken by my tale, my brothers took to wearing similar green sashes, and any who wears it is honored. 

VAR a
42


