You are being asked nicely.

# BITSY VERSION 3.2

! ROOM_FORMAT 1

PAL 0
0,0,0
255,111,207
255,102,102

ROOM 0
0,0,0,0,0,0,0,0,0,0,0,0,0,0,0,0
0,0,0,0,r,0,0,0,0,0,0,0,0,0,0,0
0,0,0,0,q,0,0,0,0,0,0,0,0,0,0,0
0,0,0,0,q,0,0,0,h,h,i,0,0,0,0,0
0,0,0,d,c,c,c,c,b,b,b,c,g,0,0,0
0,0,0,e,m,m,o,0,0,0,0,0,j,0,0,0
0,0,0,e,m,m,p,0,0,0,0,0,j,0,0,0
0,0,0,e,m,o,0,0,t,u,u,s,j,0,0,0
0,0,0,e,m,p,0,0,0,0,0,m,j,0,0,0
0,0,0,e,o,0,0,13,14,0,0,m,j,0,0,0
0,0,0,f,l,l,l,l,l,l,l,l,k,0,0,0
0,0,0,0,0,0,0,0,0,0,0,0,0,0,0,0
0,0,0,0,v,w,x,y,z,10,11,12,0,0,0,0
0,0,0,0,0,0,0,0,0,0,0,0,0,0,0,0
0,0,0,0,0,0,0,0,0,0,0,0,0,0,0,0
0,0,0,0,0,0,0,0,0,0,0,0,0,0,0,0
EXT 7,9 1 6,9
PAL 0

ROOM 1
0,0,0,0,0,0,0,0,0,0,0,0,0,0,0,0
0,0,0,0,r,0,0,0,0,0,0,0,0,0,0,0
0,0,0,0,q,0,0,0,0,0,0,0,0,0,0,0
0,0,0,0,q,0,0,0,h,h,i,0,0,0,0,0
0,0,0,d,c,c,c,c,b,b,b,c,g,0,0,0
0,0,0,e,m,m,o,0,0,0,0,0,j,0,0,0
0,0,0,e,m,m,p,0,0,0,0,0,j,0,0,0
0,0,0,e,m,o,0,0,t,u,u,s,j,0,0,0
0,0,0,e,m,p,0,0,0,0,0,m,j,0,0,0
0,0,0,e,o,0,0,15,16,0,0,m,j,0,0,0
0,0,0,f,l,l,l,l,l,l,l,l,k,0,0,0
0,0,0,0,0,0,0,0,0,0,0,0,0,0,0,0
0,0,0,0,0,0,17,18,19,1a,1b,0,0,0,0,0
0,0,0,0,0,0,0,0,0,0,0,0,0,0,0,0
0,0,0,0,0,0,0,0,0,0,0,0,0,0,0,0
0,0,0,0,0,0,0,0,0,0,0,0,0,0,0,0
EXT 8,9 0 6,9
PAL 0

TIL 10
00000000
00100000
00100110
10101010
00101100
00000010
00000000
00000000

TIL 11
00000000
00000011
01100100
10100011
11010111
00000000
00000000
00000000

TIL 12
00000000
00000000
00110000
01010000
01100100
00010000
00000000
00000000

TIL 13
00000000
11011011
11010010
00000000
00000000
00000111
00001000
00000111

TIL 14
00000000
00011010
00011001
00000000
00000000
11100000
11110000
11100000

TIL 15
00000000
11011011
11010010
00000000
00000000
00000111
00001111
00000111

TIL 16
00000000
00011010
00011001
00000000
00000000
11100000
00010000
11100000

TIL 17
00000000
11110000
01010000
01011101
01010101
00000000
00000000
00000000

TIL 18
00000000
00000000
11001100
01001010
10101010
00000000
00000000
00000000

TIL 19
00000000
10000000
10100010
11000010
10100001
00000000
00000001
00000000

TIL a
11111111
10000001
10000001
10011001
10011001
10000001
10000001
11111111

TIL b
11111101
00111100
10111101
00000000
00000000
11111111
00000000
00000000

TIL c
11111111
00000000
11111111
00000000
00000000
11111111
00000000
00000000

TIL d
00000011
00000100
00001000
00001000
00001001
00011110
00010001
00011111

TIL e
00010110
00001111
00010110
00001111
00010110
00001111
00010110
00001111

TIL f
00010000
00011111
00010000
00001000
00000111
00000101
00000101
00000000

TIL g
11100000
10010000
11101000
11101000
10011000
11101100
00111100
00011100

TIL h
00000000
00000000
00000000
00000000
00000000
00000000
00011000
00111100

TIL i
00000000
00000000
00000000
00000000
00000000
00000000
00000000
00011000

TIL j
00111100
00111100
00111100
00111100
00111100
00111100
00111000
00111100

TIL k
00011000
00011100
00011100
00011000
01111000
11101000
11101000
00000000

TIL l
00000000
00000000
01010101
10101010
11111111
11111111
00000000
00000000

TIL m
00000000
11111111
00000000
11111111
00000000
11111111
00000000
11111111

TIL o
00000000
11111110
00000000
11111100
00000000
11111000
00000000
11110000

TIL p
00000000
11100000
00000000
11000000
00000000
10000000
00000000
00000000

TIL q
00101000
00101000
00101000
00101000
00101000
00101000
00101000
00101000

TIL r
00010000
00101000
00101000
00101000
00101000
00101000
00101000
00111000

TIL s
11111111
00000001
00000001
11111111
00100001
11111111
00000000
00000000

TIL t
11111111
10000100
10000100
11111111
11111110
11111111
00000000
00000000

TIL u
11111111
01000000
01000000
11111111
00000000
11111111
00000000
00000000

TIL v
00000000
11100000
01010101
01010101
01001101
00000000
00000000
00000000

TIL w
00000000
00000000
01001100
10101010
00001010
00000000
00000000
00000000

TIL x
00000000
00100100
00001110
00100100
00100100
00000000
00000000
00000000

TIL y
00000000
00000110
00100100
01010111
00100100
00000000
00000000
00000000

TIL z
00000000
11000000
10000011
11000010
10010011
00010010
00100010
00000000

TIL 1a
00000000
00000000
10010010
10101010
10010001
10000000
00000000
00000000

TIL 1b
00000000
00000000
10000000
10000000
01010000
00000000
00000000
00000000

SPR A
00000000
00011000
00011000
01111110
01111110
00011000
00011000
00000000
>
00011000
00011000
00000000
11000011
11000011
00000000
00011000
00011000
>
00000000
00000000
00000000
00000000
00000000
00000000
00000000
00000000
POS 0 1,14

SPR a
00000000
00001000
00010000
00100100
01001000
10010010
00100100
00001000
>
00000000
00000100
00001000
00010010
00100100
01001001
00010010
00000100
POS 0 2,3

SPR b
00000000
00000000
00011000
00110100
00101100
00011000
00000000
00000000
POS 0 10,5

SPR c
00000000
01011010
00111100
01111110
01111110
00111100
01011010
00000000
POS 0 11,5

SPR d
00000000
00000010
00000000
00001010
00000000
00101010
00000000
00101010
>
00000000
00000000
00000000
00001000
00000000
00001010
00000000
00101010
POS 0 10,9

SPR e
00000000
01011010
00111100
01111110
01111110
00111100
01011010
00000000
POS 1 11,5

SPR f
00000000
00000000
00000000
00000000
00000000
00000000
00000000
00101010
POS 1 10,9

SPR g
00000000
00000000
00011000
00110100
00101100
00011000
00000000
00000000
POS 1 10,5

DLG a
(Static.)

DLG b
(...)

DLG c
(The static gets louder.)

DLG d
(Dropping the bass.)

