
Culsans

# BITSY VERSION 4.6

! ROOM_FORMAT 1

PAL 0
0,0,0
255,255,255
255,255,255

PAL 1
0,0,0
255,255,255
255,204,0

PAL 2
0,0,0
255,255,255
153,153,255

PAL 3
255,255,255
255,255,255
255,255,255

ROOM 2
0,0,0,0,0,0,0,0,0,0,0,0,0,0,0,0
0,0,0,0,0,0,0,0,0,0,0,0,0,0,0,0
0,0,0,0,0,0,0,0,0,0,0,0,0,0,0,0
0,0,0,0,0,0,0,0,0,0,0,0,0,0,0,0
0,0,0,0,0,0,0,0,0,0,0,0,0,0,0,0
0,0,0,0,0,0,0,0,0,0,0,0,0,0,0,0
0,0,0,0,0,0,0,0,0,0,0,0,0,0,0,0
0,0,0,0,0,0,0,0,0,0,0,0,0,0,0,0
o,10,z,y,0,0,0,0,0,0,0,0,l,m,n,o
a,a,a,x,0,0,0,0,0,0,0,0,k,a,a,a
a,a,a,w,0,0,0,0,0,0,0,0,j,a,a,a
a,a,a,v,0,0,0,0,0,0,0,0,i,a,a,a
a,a,a,u,0,0,0,0,0,0,0,0,h,a,a,a
a,a,a,t,0,0,0,0,0,0,0,0,g,a,a,a
a,a,s,r,11,11,11,11,11,11,11,11,e,f,a,a
a,p,c,q,0,0,0,0,0,0,0,0,d,c,b,a
PAL 0

ROOM 3
0,0,0,0,0,0,0,0,0,0,0,0,0,0,0,0
0,0,0,0,0,0,0,0,0,0,0,0,0,0,0,0
0,0,0,0,0,0,0,0,0,0,0,0,0,0,0,0
0,0,0,0,0,0,0,0,0,0,0,0,0,0,0,0
0,0,0,0,0,0,0,0,0,0,0,0,0,0,0,0
0,0,0,0,0,0,0,0,0,0,0,0,0,0,0,0
0,0,0,0,0,0,0,0,0,0,0,0,0,0,0,0
0,0,0,0,0,0,0,0,0,0,0,0,0,0,0,0
0,0,0,0,l,m,n,o,o,10,z,y,0,0,0,0
0,0,0,0,k,a,a,a,a,a,a,x,0,0,0,0
0,0,0,0,j,a,a,a,a,a,a,w,0,0,0,0
0,0,0,0,i,a,a,a,a,a,a,v,0,0,0,0
0,0,0,0,h,a,a,a,a,a,a,u,0,0,0,0
0,0,0,0,g,a,a,a,a,a,a,t,0,0,0,0
11,11,11,11,e,f,a,a,a,a,s,r,11,11,11,11
0,0,0,0,d,c,b,12,13,p,c,q,0,0,0,0
PAL 0

ROOM 4
0,0,0,0,0,0,18,14,15,18,0,0,0,0,0,0
0,0,0,0,0,0,18,14,15,18,0,0,0,0,0,0
0,0,0,0,0,0,18,14,15,18,0,0,0,0,0,0
0,0,0,0,0,0,18,14,15,18,0,0,0,0,0,0
0,0,0,0,0,0,18,14,15,18,0,0,0,0,0,0
0,0,0,0,0,0,18,14,15,18,0,0,0,0,0,0
0,0,0,0,0,0,18,14,15,18,0,0,0,0,0,0
0,0,0,0,0,0,18,14,15,18,0,0,0,0,0,0
o,10,z,y,0,0,18,14,15,18,0,0,l,m,n,o
a,a,a,x,0,0,18,14,15,18,0,0,k,a,a,a
a,a,a,w,0,0,18,14,15,18,0,0,j,a,a,a
a,a,a,v,0,0,18,14,15,18,0,0,i,a,a,a
a,a,a,u,0,0,18,14,15,18,0,0,h,a,a,a
19,19,19,t,18,18,18,14,15,18,18,18,g,19,19,19
a,a,1c,r,11,11,11,16,17,11,11,11,e,1b,a,a
19,p,c,q,18,18,18,18,18,18,18,18,d,c,b,19
EXT 12,14 b 4,14
EXT 3,14 f 11,14
EXT 7,0 b 7,15
EXT 8,0 b 8,15
PAL 1

ROOM 6
0,0,0,0,0,0,18,14,15,18,0,0,0,0,0,0
0,0,0,0,0,0,18,14,15,18,0,0,0,0,0,0
0,0,0,0,0,0,18,14,15,18,0,0,0,0,0,0
0,0,0,0,0,0,18,14,15,18,0,0,0,0,0,0
0,0,0,0,0,0,18,0,0,18,0,0,0,0,0,0
0,0,0,0,0,0,18,0,0,18,0,0,0,0,0,0
0,0,0,0,0,0,18,14,15,18,0,0,0,0,0,0
0,0,0,0,0,0,18,14,15,18,0,0,0,0,0,0
o,10,z,y,0,0,18,14,15,18,0,0,l,m,n,o
a,a,a,x,0,0,18,14,15,18,0,0,k,a,a,a
a,a,a,w,0,0,18,14,15,18,0,0,j,a,a,a
a,a,a,v,0,0,18,14,15,18,0,0,i,a,a,a
a,a,a,u,0,0,18,14,15,18,0,0,h,a,a,a
19,19,19,t,18,18,18,14,15,18,18,18,g,19,19,19
a,a,1c,r,11,11,11,16,17,11,11,11,e,1b,a,a
19,p,c,q,18,18,18,18,18,18,18,18,d,c,b,19
EXT 12,14 c 4,14
EXT 3,14 b 11,14
EXT 7,0 c 7,15
EXT 8,0 c 8,15
PAL 1

ROOM 7
0,0,0,0,0,0,18,14,15,18,0,0,0,0,0,0
0,0,0,0,0,0,18,14,15,18,0,0,0,0,0,0
0,0,0,0,0,0,18,14,15,18,0,0,0,0,0,0
0,0,0,0,0,0,18,14,15,18,0,0,0,0,0,0
0,0,0,0,0,0,18,14,15,18,0,0,0,0,0,0
0,0,0,0,0,0,18,14,15,18,0,0,0,0,0,0
0,0,0,0,0,0,18,14,15,18,0,0,0,0,0,0
0,0,0,0,0,0,18,14,15,18,0,0,0,0,0,0
o,10,z,y,0,0,18,14,15,18,0,0,l,m,n,o
a,a,a,x,0,0,18,14,15,18,0,0,k,a,a,a
a,a,a,w,0,0,18,14,15,18,0,0,j,a,a,a
a,a,a,v,0,0,18,14,15,18,0,0,i,a,a,a
a,a,a,u,0,0,18,14,15,18,0,0,h,a,a,a
19,19,19,t,18,18,18,14,15,18,18,18,g,19,19,19
a,a,1c,r,11,11,11,16,17,11,11,11,e,1b,a,a
19,p,c,q,18,18,18,18,18,18,18,18,d,c,b,19
EXT 12,14 e 4,14
EXT 3,14 c 11,14
EXT 7,0 e 7,15
EXT 8,0 e 8,15
PAL 1

ROOM 8
0,0,0,0,0,0,18,14,15,18,0,0,0,0,0,0
0,0,0,0,0,0,18,14,15,18,0,0,0,0,0,0
0,0,0,0,0,0,18,14,15,18,0,0,0,0,0,0
0,0,0,0,0,0,18,14,15,18,0,0,0,0,0,0
0,0,0,0,0,0,18,14,15,18,0,0,0,0,0,0
0,0,0,0,0,0,18,14,15,18,0,0,0,0,0,0
0,0,0,0,0,0,18,14,15,18,0,0,0,0,0,0
0,0,0,0,0,0,18,14,15,18,0,0,0,0,0,0
o,10,z,y,0,0,18,14,15,18,0,0,l,m,n,o
a,a,a,x,0,0,18,14,15,18,0,0,k,a,a,a
a,a,a,w,0,0,18,14,15,18,0,0,j,a,a,a
a,a,a,v,0,0,18,14,15,18,0,0,i,a,a,a
a,a,a,u,0,0,18,14,15,18,0,0,h,a,a,a
19,19,19,t,18,18,18,14,15,18,18,18,g,19,19,19
a,a,1c,r,11,11,11,16,17,11,11,11,e,1b,a,a
19,p,c,q,18,18,18,18,18,18,18,18,d,c,b,19
EXT 12,14 f 4,14
EXT 3,14 d 11,14
EXT 7,0 f 7,15
EXT 8,0 f 8,15
PAL 2

ROOM 9
0,0,0,0,0,0,18,14,15,18,0,0,0,0,0,0
0,0,0,0,0,0,18,14,15,18,0,0,0,0,0,0
0,0,0,0,0,0,18,14,15,18,0,0,0,0,0,0
0,0,0,0,0,0,18,14,15,18,0,0,0,0,0,0
0,0,0,0,0,0,18,0,0,18,0,0,0,0,0,0
0,0,0,0,0,0,18,0,0,18,0,0,0,0,0,0
0,0,0,0,0,0,18,14,15,18,0,0,0,0,0,0
0,0,0,0,0,0,18,14,15,18,0,0,0,0,0,0
o,10,z,y,0,0,18,14,15,18,0,0,l,m,n,o
a,a,a,x,0,0,18,14,15,18,0,0,k,a,a,a
a,a,a,w,0,0,18,14,15,18,0,0,j,a,a,a
a,a,a,v,0,0,18,14,15,18,0,0,i,a,a,a
a,a,a,u,0,0,18,14,15,18,0,0,h,a,a,a
19,19,19,t,18,18,18,14,15,18,18,18,g,19,19,19
a,a,1c,r,11,11,11,16,17,11,11,11,e,1b,a,a
19,p,c,q,18,18,18,18,18,18,18,18,d,c,b,19
EXT 12,14 d 4,14
EXT 3,14 g 11,14
EXT 7,0 d 7,15
EXT 8,0 d 8,15
PAL 2

ROOM a
0,0,0,0,0,0,18,14,15,18,0,0,0,0,0,0
0,0,0,0,0,0,18,14,15,18,0,0,0,0,0,0
0,0,0,0,0,0,18,14,15,18,0,0,0,0,0,0
0,0,0,0,0,0,18,14,15,18,0,0,0,0,0,0
0,0,0,0,0,0,18,14,15,18,0,0,0,0,0,0
0,0,0,0,0,0,18,14,15,18,0,0,0,0,0,0
0,0,0,0,0,0,18,14,15,18,0,0,0,0,0,0
0,0,0,0,0,0,18,14,15,18,0,0,0,0,0,0
o,10,z,y,0,0,18,14,15,18,0,0,l,m,n,o
a,a,a,x,0,0,18,14,15,18,0,0,k,a,a,a
a,a,a,w,0,0,18,14,15,18,0,0,j,a,a,a
a,a,a,v,0,0,18,14,15,18,0,0,i,a,a,a
a,a,a,u,0,0,18,14,15,18,0,0,h,a,a,a
19,19,19,t,18,18,18,14,15,18,18,18,g,19,19,19
a,a,1c,r,11,11,11,16,17,11,11,11,e,1b,a,a
19,p,c,q,18,18,18,18,18,18,18,18,d,c,b,19
EXT 12,14 g 4,14
EXT 3,14 e 11,14
EXT 7,0 g 7,15
EXT 8,0 g 8,15
PAL 2

ROOM b
0,0,0,0,0,0,0,0,0,0,0,0,0,0,0,0
0,0,0,0,0,0,0,0,0,0,0,0,0,0,0,0
0,0,0,0,0,0,0,0,0,0,0,0,0,0,0,0
0,0,0,0,0,0,0,0,0,0,0,0,0,0,0,0
0,0,0,0,0,0,0,0,0,0,0,0,0,0,0,0
0,0,0,0,0,0,0,0,0,0,0,0,0,0,0,0
0,0,0,0,0,0,0,0,0,0,0,0,0,0,0,0
0,0,0,0,0,0,0,0,0,0,0,0,0,0,0,0
0,0,0,0,l,m,n,o,o,10,z,y,0,0,0,0
0,0,0,0,k,a,a,a,a,a,a,x,0,0,0,0
0,0,0,0,j,a,a,a,a,a,a,w,0,0,0,0
0,0,0,0,i,a,a,a,a,a,a,v,0,0,0,0
0,0,0,0,h,a,a,a,a,a,a,u,0,0,0,0
0,0,0,0,g,19,19,19,19,19,19,t,0,0,0,0
11,11,11,1a,e,f,a,a,a,a,s,r,11,11,11,11
0,0,0,0,d,c,b,12,13,p,c,q,0,0,0,0
EXT 4,14 4 12,14
EXT 11,14 6 3,14
EXT 7,15 4 7,0
EXT 8,15 4 8,0
PAL 1

ROOM c
0,0,0,0,0,0,0,0,0,0,0,0,0,0,0,0
0,0,0,0,0,0,0,0,0,0,0,0,0,0,0,0
0,0,0,0,0,0,0,0,0,0,0,0,0,0,0,0
0,0,0,0,0,0,0,0,0,0,0,0,0,0,0,0
0,0,0,0,0,0,0,0,0,0,0,0,0,0,0,0
0,0,0,0,0,0,0,0,0,0,0,0,0,0,0,0
0,0,0,0,0,0,0,0,0,0,0,0,0,0,0,0
0,0,0,0,0,0,0,0,0,0,0,0,0,0,0,0
0,0,0,0,l,m,n,o,o,10,z,y,0,0,0,0
0,0,0,0,k,a,a,a,a,a,a,x,0,0,0,0
0,0,0,0,j,a,a,a,a,a,a,w,0,0,0,0
0,0,0,0,i,a,a,a,a,a,a,v,0,0,0,0
0,0,0,0,h,a,a,a,a,a,a,u,0,0,0,0
0,0,0,0,g,19,19,19,19,19,19,t,0,0,0,0
11,11,11,1a,e,f,a,a,a,a,s,r,1a,11,11,11
0,0,0,0,d,c,b,12,13,p,c,q,0,0,0,0
EXT 4,14 6 12,14
EXT 11,14 7 3,14
EXT 7,15 6 7,0
EXT 8,15 6 8,0
PAL 1

ROOM d
0,0,0,0,0,0,0,0,0,0,0,0,0,0,0,0
0,0,0,0,0,0,0,0,0,0,0,0,0,0,0,0
0,0,0,0,0,0,0,0,0,0,0,0,0,0,0,0
0,0,0,0,0,0,0,0,0,0,0,0,0,0,0,0
0,0,0,0,0,0,0,0,0,0,0,0,0,0,0,0
0,0,0,0,0,0,0,0,0,0,0,0,0,0,0,0
0,0,0,0,0,0,0,0,0,0,0,0,0,0,0,0
0,0,0,0,0,0,0,0,0,0,0,0,0,0,0,0
0,0,0,0,l,m,n,o,o,10,z,y,0,0,0,0
0,0,0,0,k,a,a,a,a,a,a,x,0,0,0,0
0,0,0,0,j,a,a,a,a,a,a,w,0,0,0,0
0,0,0,0,i,a,a,a,a,a,a,v,0,0,0,0
0,0,0,0,h,a,a,a,a,a,a,u,0,0,0,0
0,0,0,0,g,19,19,19,19,19,19,t,0,0,0,0
11,11,11,1a,e,f,a,a,a,a,s,r,1a,11,11,11
0,0,0,0,d,c,b,12,13,p,c,q,0,0,0,0
EXT 4,14 9 12,14
EXT 11,14 8 3,14
EXT 7,15 9 7,0
EXT 8,15 9 8,0
PAL 2

ROOM e
0,0,0,0,0,0,0,0,0,0,0,0,0,0,0,0
0,0,0,0,0,0,0,0,0,0,0,0,0,0,0,0
0,0,0,0,0,0,0,0,0,0,0,0,0,0,0,0
0,0,0,0,0,0,0,0,0,0,0,0,0,0,0,0
0,0,0,0,0,0,0,0,0,0,0,0,0,0,0,0
0,0,0,0,0,0,0,0,0,0,0,0,0,0,0,0
0,0,0,0,0,0,0,0,0,0,0,0,0,0,0,0
0,0,0,0,0,0,0,0,0,0,0,0,0,0,0,0
0,0,0,0,l,m,n,o,o,10,z,y,0,0,0,0
0,0,0,0,k,a,a,a,a,a,a,x,0,0,0,0
0,0,0,0,j,a,a,a,a,a,a,w,0,0,0,0
0,0,0,0,i,a,a,a,a,a,a,v,0,0,0,0
0,0,0,0,h,a,a,a,a,a,a,u,0,0,0,0
0,0,0,0,g,19,19,19,19,19,19,t,0,0,0,0
11,11,11,1a,e,f,a,a,a,a,s,r,1a,11,11,11
0,0,0,0,d,c,b,12,13,p,c,q,0,0,0,0
EXT 4,14 7 12,14
EXT 11,14 a 3,14
EXT 7,15 7 7,0
EXT 8,15 7 8,0
PAL 1

ROOM f
0,0,0,0,0,0,0,0,0,0,0,0,0,0,0,0
0,0,0,0,0,0,0,0,0,0,0,0,0,0,0,0
0,0,0,0,0,0,0,0,0,0,0,0,0,0,0,0
0,0,0,0,0,0,0,0,0,0,0,0,0,0,0,0
0,0,0,0,0,0,0,0,0,0,0,0,0,0,0,0
0,0,0,0,0,0,0,0,0,0,0,0,0,0,0,0
0,0,0,0,0,0,0,0,0,0,0,0,0,0,0,0
0,0,0,0,0,0,0,0,0,0,0,0,0,0,0,0
0,0,0,0,l,m,n,o,o,10,z,y,0,0,0,0
0,0,0,0,k,a,a,a,a,a,a,x,0,0,0,0
0,0,0,0,j,a,a,a,a,a,a,w,0,0,0,0
0,0,0,0,i,a,a,a,a,a,a,v,0,0,0,0
0,0,0,0,h,a,a,a,a,a,a,u,0,0,0,0
0,0,0,0,g,19,19,19,19,19,19,t,0,0,0,0
11,11,11,1a,e,f,a,a,a,a,s,r,1a,11,11,11
0,0,0,0,d,c,b,12,13,p,c,q,0,0,0,0
EXT 4,14 8 12,14
EXT 11,14 4 3,14
EXT 7,15 8 7,0
EXT 8,15 8 8,0
PAL 2

ROOM g
0,0,0,0,0,0,0,0,0,0,0,0,0,0,0,0
0,0,0,0,0,0,0,0,0,0,0,0,0,0,0,0
0,0,0,0,0,0,0,0,0,0,0,0,0,0,0,0
0,0,0,0,0,0,0,0,0,0,0,0,0,0,0,0
0,0,0,0,0,0,0,0,0,0,0,0,0,0,0,0
0,0,0,0,0,0,0,0,0,0,0,0,0,0,0,0
0,0,0,0,0,0,0,0,0,0,0,0,0,0,0,0
0,0,0,0,0,0,0,0,0,0,0,0,0,0,0,0
0,0,0,0,l,m,n,o,o,10,z,y,0,0,0,0
0,0,0,0,k,a,a,a,a,a,a,x,0,0,0,0
0,0,0,0,j,a,a,a,a,a,a,w,0,0,0,0
0,0,0,0,i,a,a,a,a,a,a,v,0,0,0,0
0,0,0,0,h,a,a,a,a,a,a,u,0,0,0,0
0,0,0,0,g,19,19,19,19,19,19,t,0,0,0,0
11,11,11,1a,e,f,a,a,a,a,s,r,1a,11,11,11
0,0,0,0,d,c,b,12,13,p,c,q,0,0,0,0
EXT 4,14 a 12,14
EXT 11,14 9 3,14
EXT 7,15 a 7,1
EXT 8,15 a 8,1
PAL 2

TIL 10
00000000
00000000
11111100
11111111
11111111
11111111
11111111
11111111

TIL 11
00000000
00000000
00000000
00000000
00000000
00000000
00000000
11111111

TIL 12
11110111
11110000
11110111
11110111
11110111
11110000
11110111
11110111

TIL 13
11101111
00001111
11101111
11101111
11101111
00001111
11101111
11101111

TIL 14
00001000
00001111
00001000
00001000
00001000
00001111
00001000
00001000

TIL 15
00010000
11110000
00010000
00010000
00010000
11110000
00010000
00010000

TIL 16
00001000
00001111
00001000
00001000
00001000
00001111
00001000
11111111

TIL 17
00010000
11110000
00010000
00010000
00010000
11110000
00010000
11111111

TIL 18
00000000
00000000
00000000
00000000
00000000
00000000
00000000
00000000
WAL true

TIL 19
11111111
11111111
11111111
11111111
11111111
11111111
11111111
11111111
WAL true

TIL a
11111111
11111111
11111111
11111111
11111111
11111111
11111111
11111111

TIL b
11111111
11111111
11111111
11111111
11111111
01111111
00111111
00011111
WAL true

TIL c
11111111
11111111
11111111
11111111
00000000
00000000
00000000
00000000
WAL true

TIL d
00000011
00000011
00000001
00000000
00000000
00000000
00000000
00000000
WAL true

TIL e
00000111
00000000
00000111
00001111
00000111
00000011
00000011
11111111

TIL f
11111111
00111111
11111111
11111111
11111111
11111111
11111111
11111111

TIL g
01111111
01111111
01111111
00111111
00011111
00001111
00001111
00001111
WAL true

TIL h
00001111
00000111
00000111
00000111
00000111
00001111
00011111
00111111

TIL i
00011111
00011111
00011111
00111111
01111111
01111111
00111111
00011111

TIL j
00000111
00000011
00000011
00000111
00001111
00001111
00011111
00011111

TIL k
00001111
00001111
00001111
00001111
00001111
00001111
00001111
00001111

TIL l
00000000
00000000
00000000
00000000
00000001
00000111
00000111
00001111

TIL m
00000000
00000000
00000000
01111111
11111111
11111111
11111111
11111111

TIL n
00000000
00000000
00111111
11111111
11111111
11111111
11111111
11111111

TIL o
00000000
00000000
11111111
11111111
11111111
11111111
11111111
11111111

TIL p
11111111
11111111
11111111
11111111
11111111
11111110
11111100
11111000
WAL true

TIL q
11000000
11000000
10000000
00000000
00000000
00000000
00000000
00000000
WAL true

TIL r
11100000
00000000
11100000
11110000
11100000
11000000
11000000
11111111
WAL false

TIL s
11111111
11111100
11111111
11111111
11111111
11111111
11111111
11111111

TIL t
11111110
11111110
11111110
11111100
11111000
11110000
11110000
11110000
WAL true

TIL u
11110000
11100000
11100000
11100000
11100000
11110000
11111000
11111100

TIL v
11111000
11111000
11111000
11111100
11111110
11111110
11111100
11111000

TIL w
11100000
11000000
11000000
11100000
11110000
11110000
11111000
11111000

TIL x
11110000
11110000
11110000
11110000
11110000
11110000
11110000
11110000

TIL y
00000000
00000000
00000000
00000000
10000000
11100000
11100000
11110000

TIL z
00000000
00000000
00000000
11111110
11111111
11111111
11111111
11111111

TIL 1a
00000000
00000000
00000000
00000000
00000000
00000000
00000000
11111111
WAL true

TIL 1b
11111111
00111111
11111111
11111111
11111111
11111111
11111111
11111111
WAL true

TIL 1c
11111111
11111100
11111111
11111111
11111111
11111111
11111111
11111111
WAL true

SPR 10
11111111
11111111
11111110
11111110
11111100
11111100
11110000
11000000
POS b 3,11

SPR 11
11111111
11111111
01111111
01111111
00111111
00111111
00001111
00000011
POS b 2,11

SPR 12
00000011
00001111
00111111
00111111
01111111
01111111
11111111
11111111
POS c 12,10

SPR 13
11000000
11110000
11111100
11111100
11111110
11111110
11111111
11111111
POS c 13,10

SPR 14
11111111
11111111
11111110
11111110
11111100
11111100
11110000
11000000
POS c 13,11

SPR 15
11111111
11111111
01111111
01111111
00111111
00111111
00001111
00000011
POS c 12,11

SPR 16
00000011
00001111
00000011
00000000
00000000
00000000
00000000
00000000
POS d 12,10

SPR 17
11000000
11110000
11111100
11111100
01111110
01111110
00111111
00111111
POS d 13,10

SPR 18
00111111
00111111
01111110
01111110
11111100
11111100
11110000
11000000
POS d 13,11

SPR 19
00000000
00000000
00000000
00000000
00000000
00000011
00001111
00000011
POS d 12,11

SPR A
00011000
00011000
00111100
11011010
00011100
00011000
00010100
00010100
POS 4 5,14

SPR a
00000011
00001111
00111111
00111111
01111111
01111111
11111111
11111111
POS 4 10,10

SPR b
11000000
11110000
11111100
11111100
11111110
11111110
11111111
11111111
POS 4 11,10

SPR c
11111111
11111111
11111110
11111110
11111100
11111100
11110000
11000000
POS 4 11,11

SPR d
11111111
11111111
01111111
01111111
00111111
00111111
00001111
00000011
POS 4 10,11

SPR e
00000011
00001111
00111111
00111111
01111111
01111111
11111111
11111111
DLG SPR_2
POS 6 7,4

SPR f
11000000
11110000
11111100
11111100
11111110
11111110
11111111
11111111
DLG SPR_3
POS 6 8,4

SPR g
11111111
11111111
11111110
11111110
11111100
11111100
11110000
11000000
DLG SPR_0
POS 6 8,5

SPR h
11111111
11111111
01111111
01111111
00111111
00111111
00001111
00000011
DLG SPR_1
POS 6 7,5

SPR i
00000011
00001111
00111111
00111111
01111111
01111111
11111111
11111111
POS 7 4,10

SPR j
11000000
11110000
11111100
11111100
11111110
11111110
11111111
11111111
POS 7 5,10

SPR k
11111111
11111111
11111110
11111110
11111100
11111100
11110000
11000000
POS 7 5,11

SPR l
11111111
11111111
01111111
01111111
00111111
00111111
00001111
00000011
POS 7 4,11

SPR m
00000011
00001111
00000011
00000000
00000000
00000000
00000000
00000000
POS 8 4,10

SPR n
11000000
11110000
11111100
11111100
01111110
01111110
00111111
00111111
POS 8 5,10

SPR o
00111111
00111111
01111110
01111110
11111100
11111100
11110000
11000000
POS 8 5,11

SPR p
00000000
00000000
00000000
00000000
00000000
00000011
00001111
00000011
POS 8 4,11

SPR q
00000011
00001111
00111111
00111111
01111111
01111111
11111111
11111111
DLG SPR_4
POS 9 7,4

SPR r
11000000
11110000
11111100
11111100
11111110
11111110
11111111
11111111
DLG SPR_5
POS 9 8,4

SPR s
11111111
11111111
11111110
11111110
11111100
11111100
11110000
11000000
DLG SPR_6
POS 9 8,5

SPR t
11111111
11111111
01111111
01111111
00111111
00111111
00001111
00000011
DLG SPR_7
POS 9 7,5

SPR u
00000011
00001111
00111111
00111111
01111110
01111110
11111100
11111100
POS a 10,10

SPR v
11000000
11110000
11000000
00000000
00000000
00000000
00000000
00000000
POS a 11,10

SPR w
00000000
00000000
00000000
00000000
00000000
11000000
11110000
11000000
POS a 11,11

SPR x
11111100
11111100
01111110
01111110
00111111
00111111
00001111
00000011
POS a 10,11

SPR y
00000011
00001111
00111111
00111111
01111111
01111111
11111111
11111111
POS b 2,10

SPR z
11000000
11110000
11111100
11111100
11111110
11111110
11111111
11111111
POS b 3,10

SPR 1a
00000011
00001111
00111111
00111111
01111110
01111110
11111100
11111100
POS g 2,10

SPR 1b
11000000
11110000
11000000
00000000
00000000
00000000
00000000
00000000
POS g 3,10

SPR 1c
00000000
00000000
00000000
00000000
00000000
11000000
11110000
11000000
POS g 3,11

SPR 1d
11111100
11111100
01111110
01111110
00111111
00111111
00001111
00000011
POS g 2,11

ITM 0
00000000
00000000
00000000
00000000
00000000
00000000
00000000
00000000
DLG ITM_0

DLG a
I'm a cat

DLG SPR_0
hexz sulscvetu cathnis shcanin veltha

DLG SPR_1
hexz sulscvetu cathnis shcanin veltha

DLG SPR_2
hexz sulscvetu cathnis shcanin veltha

DLG SPR_3
hexz sulscvetu cathnis shcanin veltha

DLG SPR_4
etnam velthinal etnam aisunal thunt ersh

DLG SPR_5
etnam velthinal etnam aisunal thunt ersh

DLG SPR_6
etnam velthinal etnam aisunal thunt ersh

DLG SPR_7
etnam velthinal etnam aisunal thunt ersh

DLG ITM_0
"""
{
  - {item "0"} == 1 ?

  - else ?

}
"""


