
Personal Game 1 by Pat White

# BITSY VERSION 4.5

! ROOM_FORMAT 1

PAL 0
255,155,159
0,0,0
255,255,255

ROOM 0
0,b,b,0,0,0,0,0,0,0,0,b,b,b,0,a
b,b,0,0,0,0,0,a,0,0,0,0,0,b,b,0
b,0,0,a,0,0,0,0,0,0,0,0,0,0,b,0
0,0,a,0,0,0,0,0,0,0,0,0,0,0,0,0
0,0,0,0,0,0,0,0,0,0,0,0,0,0,0,0
0,0,0,0,0,0,0,0,0,0,0,0,0,0,0,0
0,0,0,0,0,0,0,0,0,0,0,0,0,0,0,0
0,0,0,0,0,0,0,0,0,0,0,0,0,0,0,0
0,0,0,0,0,0,0,0,0,0,0,0,0,0,0,0
0,0,0,0,0,0,0,0,0,a,0,0,0,0,0,0
0,0,0,0,0,0,0,e,a,0,0,0,0,0,b,0
0,0,a,a,0,0,e,c,0,a,0,0,0,b,b,0
b,b,0,0,0,0,c,c,0,0,0,0,0,b,0,0
0,b,0,0,0,0,c,e,0,0,0,0,0,a,0,0
0,0,0,0,0,0,c,c,0,0,0,0,a,0,0,a
0,a,0,0,0,0,c,c,0,0,0,0,0,0,a,0
EXT 7,15 1 7,0
EXT 6,15 1 6,0
PAL 0

ROOM 1
0,0,0,0,0,0,0,e,0,0,0,0,0,0,0,0
0,0,0,0,0,0,c,0,0,0,0,0,0,0,0,a
0,0,a,a,0,0,c,c,0,0,0,0,0,0,0,0
0,0,0,a,0,0,e,c,0,0,0,a,0,0,0,0
0,0,0,0,0,0,c,a,0,0,0,a,a,0,0,0
0,0,b,b,0,0,c,0,0,0,0,0,b,b,0,a
0,0,b,b,b,0,e,c,a,0,0,0,0,0,0,0
0,a,b,b,b,0,e,c,c,c,c,c,a,e,c,0
0,0,0,b,b,0,a,c,c,c,c,c,c,0,e,c
0,0,0,b,b,0,c,c,a,0,0,0,0,0,0,0
0,0,0,b,b,0,c,c,0,0,0,0,0,0,0,0
0,a,0,0,0,0,e,c,0,0,0,0,0,b,b,0
0,0,0,0,0,0,c,c,0,0,0,0,0,0,0,b
0,0,0,0,0,0,c,e,0,0,0,0,0,0,0,0
0,0,0,0,0,0,c,c,0,0,0,0,a,0,0,0
0,0,a,a,0,0,c,e,0,0,0,0,a,0,0,0
EXT 6,0 0 6,15
EXT 15,7 7 0,8
EXT 6,15 2 6,0
PAL 0

ROOM 2
0,0,0,0,0,0,c,e,0,0,0,0,a,0,0,0
0,0,0,0,a,0,c,c,0,0,0,0,0,0,0,0
0,0,0,0,0,0,c,c,0,0,0,0,0,a,0,0
0,a,0,0,b,0,c,a,0,0,0,0,0,0,0,0
0,0,0,0,b,0,c,c,0,0,b,b,b,b,0,0
0,b,b,b,b,0,c,c,0,0,0,a,0,b,b,0
0,0,0,a,0,0,a,c,0,0,0,0,0,0,0,0
0,0,a,0,0,0,c,c,0,0,0,0,0,0,0,0
0,c,c,c,c,c,e,c,c,c,c,c,c,c,c,0
c,e,c,c,e,c,c,c,c,c,c,c,e,c,c,c
0,0,0,0,0,0,0,0,0,0,0,0,0,0,0,0
a,0,0,0,0,a,0,0,0,0,0,0,0,a,0,0
0,0,0,0,b,b,b,b,b,b,0,0,0,0,0,0
0,0,0,0,a,0,b,b,b,b,a,0,0,0,a,0
a,0,0,0,0,0,0,0,0,a,0,0,0,0,0,0
0,0,0,a,a,0,0,0,0,0,0,0,a,0,0,0
EXT 6,0 1 6,0
EXT 0,8 5 15,8
EXT 15,8 3 0,8
PAL 0

ROOM 3
0,0,0,0,0,0,0,0,0,0,0,0,0,0,a,a
0,0,0,0,0,0,b,b,b,0,0,0,0,0,0,0
0,0,0,a,0,0,0,0,0,a,0,0,b,0,0,0
0,0,0,0,0,0,0,0,0,0,a,0,b,b,b,b
0,0,0,0,0,0,0,0,0,0,a,0,0,0,0,0
0,0,a,0,0,0,0,0,0,0,0,0,0,0,0,0
0,0,0,0,0,b,b,0,0,0,0,0,0,0,0,0
0,0,0,0,0,0,a,0,a,a,0,0,0,0,0,0
e,c,c,c,c,c,c,c,c,c,c,c,c,a,c,e
c,c,c,e,e,e,c,c,c,e,c,c,c,c,c,e
0,a,0,0,0,0,0,a,0,0,0,0,0,0,0,0
0,0,0,0,0,0,a,0,0,0,0,b,b,b,b,0
0,0,0,0,0,0,0,0,a,0,0,0,0,0,0,0
0,0,0,0,0,0,0,0,0,0,0,0,0,a,0,0
0,0,0,0,a,0,0,0,0,0,0,0,0,0,0,a
0,0,0,a,0,0,0,0,0,0,0,0,0,0,0,0
NAME right 2
EXT 0,8 2 15,8
EXT 15,8 4 0,8
PAL 0

ROOM 4
0,0,0,0,0,0,0,b,0,b,0,0,0,0,a,a
0,0,0,0,0,0,0,0,0,0,b,b,0,0,0,0
0,0,0,a,0,0,0,0,0,a,0,b,b,0,0,0
0,0,0,0,0,0,0,0,0,0,a,0,0,0,0,0
0,0,0,0,0,0,0,0,0,0,a,0,0,b,b,0
0,0,a,0,b,b,0,0,0,0,0,0,0,0,b,b
0,0,0,0,0,0,0,0,0,0,0,c,e,b,0,b
0,0,0,0,b,b,a,0,0,a,e,c,a,e,0,b
e,c,c,e,b,c,c,e,e,c,c,c,e,e,c,b
c,c,e,e,e,e,c,c,c,b,c,a,c,c,c,b
0,a,0,0,0,0,0,a,0,0,e,c,c,e,0,b
0,0,0,0,0,0,a,0,0,0,0,e,c,0,b,b
0,0,0,0,0,0,0,0,a,0,0,0,0,0,b,0
0,0,0,0,0,b,b,0,0,0,0,0,0,a,0,0
0,0,0,0,a,0,0,0,0,0,0,0,b,0,0,a
0,0,0,a,0,0,0,0,0,0,0,b,b,0,0,0
NAME right 3
EXT 0,8 3 15,8
PAL 0

ROOM 5
0,0,0,0,0,0,0,0,0,0,0,0,0,0,a,a
0,0,0,0,0,0,0,0,0,0,0,0,0,0,0,0
0,0,0,0,0,0,0,0,0,0,b,0,0,0,0,0
0,0,0,0,0,0,0,0,0,0,0,0,0,0,0,0
0,0,0,0,0,0,0,0,0,0,0,0,0,0,b,b
0,0,a,0,0,0,0,0,0,0,0,0,0,0,0,0
0,0,0,0,0,0,0,0,0,0,0,0,0,0,0,0
0,0,0,0,0,0,0,0,0,a,0,0,0,0,0,0
e,c,c,0,c,c,e,0,e,c,c,0,c,a,c,0
c,c,c,e,0,e,0,e,c,e,c,c,0,c,c,c
0,a,0,0,0,0,0,a,0,0,0,0,0,0,0,0
0,0,0,0,0,0,a,0,0,0,0,0,0,0,0,0
0,0,0,0,0,0,0,0,0,b,0,0,0,0,0,0
0,0,0,0,0,0,0,0,0,0,0,0,0,a,0,0
0,0,0,0,0,0,0,0,0,0,0,0,0,0,0,a
0,0,0,0,0,0,0,0,0,0,0,0,b,0,0,0
NAME left 1
EXT 0,8 6 15,8
PAL 0

ROOM 6
0,0,0,0,0,0,0,0,0,0,0,0,0,0,a,a
0,0,0,0,0,0,0,0,0,0,0,0,0,0,0,0
0,0,0,0,0,0,0,0,0,0,b,0,0,0,0,0
0,0,0,0,0,0,0,0,0,0,0,0,0,0,0,0
0,0,0,0,0,0,0,0,0,0,0,0,0,0,b,b
0,0,a,0,0,0,0,0,0,0,0,0,0,0,0,0
0,0,0,0,0,0,0,0,0,0,0,0,0,0,0,0
0,0,0,0,0,0,0,0,0,a,0,0,0,0,0,0
e,c,c,0,c,a,e,0,e,c,0,0,c,a,c,0
0,0,c,e,0,e,0,a,c,e,c,0,0,c,c,c
0,a,0,0,0,0,0,a,0,0,0,0,0,0,0,0
0,0,0,0,0,0,a,0,0,0,0,0,0,0,0,0
0,0,0,0,0,0,0,0,0,b,0,0,0,0,0,0
0,0,0,0,0,0,0,0,0,0,0,0,0,a,0,0
0,0,0,0,0,0,0,0,0,0,0,0,0,0,0,a
0,0,0,0,0,0,0,0,0,0,0,0,b,0,0,0
NAME left 2
EXT 0,8 8 15,8
PAL 0

ROOM 7
0,0,0,0,0,0,0,b,0,b,0,0,0,0,a,a
0,0,0,0,0,0,0,0,0,0,b,b,0,0,0,0
0,0,0,a,0,0,0,0,0,a,0,b,b,0,0,0
0,0,0,0,0,0,0,0,0,0,a,0,0,0,0,0
0,0,0,0,0,0,0,0,0,0,a,0,0,0,0,0
0,0,a,0,0,b,0,0,0,0,0,0,0,0,0,0
0,0,0,0,0,0,0,0,0,0,0,0,0,b,0,0
0,0,0,0,0,b,a,0,0,a,e,c,c,e,0,b
e,c,c,e,a,c,c,e,e,c,c,c,e,c,0,b
c,c,e,e,e,e,c,c,c,b,c,a,c,c,0,b
0,a,0,0,0,0,0,a,0,0,e,c,c,e,0,0
0,0,0,0,0,0,a,0,0,0,0,a,0,0,0,0
0,0,0,0,0,0,0,0,a,0,0,0,0,0,0,0
0,0,0,0,0,b,a,0,0,0,0,0,0,a,0,0
0,0,0,0,a,0,0,0,0,0,0,0,0,0,0,a
0,0,0,a,0,0,0,0,0,a,0,0,0,0,0,0
NAME right 1 
EXT 0,8 1 15,7
PAL 0

ROOM 8
0,0,0,0,0,0,0,0,0,0,0,0,0,0,a,a
0,0,0,0,0,0,0,0,0,0,0,0,0,0,0,0
0,0,0,0,0,0,0,0,0,0,b,0,0,0,0,0
0,0,0,0,0,0,0,0,0,0,0,0,0,0,0,0
0,0,0,0,0,0,0,0,0,0,0,0,0,0,b,b
0,0,0,0,0,0,0,0,0,0,0,0,0,0,0,0
0,0,0,0,0,0,0,0,0,0,0,0,0,0,0,0
0,0,0,0,0,0,0,0,0,a,0,0,0,0,0,0
0,0,0,0,0,0,0,0,e,c,0,0,c,a,c,0
0,0,0,0,0,0,0,0,0,e,c,0,0,c,c,0
0,0,0,0,0,0,0,0,0,0,0,0,0,0,0,0
0,0,0,0,0,0,0,0,0,0,0,0,0,0,0,0
0,0,0,0,0,0,0,0,0,b,0,0,0,0,0,0
0,0,0,0,0,0,0,0,0,0,0,0,0,a,0,0
0,0,e,0,0,0,0,0,0,0,0,0,0,0,0,a
0,0,c,e,0,0,0,0,0,0,0,0,b,0,0,0
NAME left 3
EXT 15,8 6 0,8
EXT 2,15 9 2,0
PAL 0

ROOM 9
0,0,c,c,0,0,0,0,0,0,0,0,0,0,0,0
0,0,c,c,0,0,0,0,0,0,0,0,0,0,0,0
0,0,c,c,0,0,0,0,0,0,0,0,0,0,0,0
0,0,c,c,0,0,0,0,0,0,0,0,0,0,0,0
0,0,c,c,0,0,0,0,0,0,0,0,0,0,0,0
0,0,c,c,0,0,0,0,0,0,0,0,0,0,0,0
0,0,c,c,0,0,0,0,0,0,0,0,0,0,0,0
0,0,c,c,0,0,0,0,0,0,0,0,0,0,0,0
0,0,c,c,0,0,0,0,0,0,0,0,0,0,0,0
0,0,c,c,0,0,0,0,0,0,0,0,0,0,0,0
0,0,c,c,c,c,c,c,c,c,c,0,0,0,0,0
0,0,c,c,c,c,c,c,c,c,c,0,0,0,0,0
0,0,0,0,0,0,0,0,0,0,0,0,0,0,0,0
0,0,0,0,0,0,0,0,0,0,0,0,0,0,0,0
0,0,0,0,0,0,0,0,0,0,0,0,0,0,0,0
0,0,0,0,0,0,0,0,0,0,0,0,0,0,0,0
NAME left 4
ITM 1 13,11
EXT 2,0 8 2,15
PAL 0

TIL a
00000000
00000000
00000000
00000000
00010000
00100100
01001000
00000000
WAL false

TIL b
00010001
01010001
01010101
01110101
01100101
10100110
10101010
10101010

TIL c
11111111
11000011
10000001
10011001
10011001
10000001
11000011
11111111

TIL d
00011000
00011000
00011000
00011000
00011000
00011000
00011000
00111100

TIL e
11111111
00000001
00000001
00011001
00011001
00000001
00000001
00001111
WAL false

SPR A
00000000
00011000
00011000
00111100
01111110
01111101
00100100
00100000
>
00000000
00011000
00011000
00111100
01111110
10111110
00100100
00000100
POS 0 4,4

SPR a
00000000
00000000
01010001
01110001
01110010
01111100
00111100
00100100
>
00000000
00000000
00000000
00000000
00000000
00000000
00000000
00000000
DLG SPR_0

SPR b
00000000
00000000
00000000
00000000
00000000
00000000
00000000
00000000
POS 1 1,7

SPR c
00000000
00000000
00000000
00111100
01111110
00111110
00001100
00000000

SPR d
00011000
01101000
00011000
00011000
01111110
00011000
00100100
00100100
>
00011000
01101000
00011000
01011000
00111110
00011000
00100100
00100100
DLG SPR_1
POS 3 9,3

SPR e
00000000
00000000
00000000
00000000
00000000
00000000
00000000
00000000

SPR f
00000000
00011000
00100100
01000010
01111110
00100100
00010010
00100100
>
00000000
00011000
00100100
01000010
01111110
00100100
00100100
00100100
DLG SPR_2
POS 7 8,7

SPR g
00000000
00011000
00100100
01000010
01111110
00100100
00010010
00100100
>
00000000
00011000
00100100
01000010
01111110
00100100
00100100
00100100

SPR h
00111100
01111110
11100111
11000011
11000011
11100111
01111110
00111100
>
11000011
10000001
00011000
00111100
00111100
00011000
10000001
11000011
DLG SPR_6
POS 8 0,8

SPR i
00100100
00100100
01111110
01011010
00111100
00011000
10100101
01000010
>
00100100
00100100
01111110
01111110
00111100
00011000
10100101
01000010
DLG SPR_5
POS 2 9,6

SPR j
01000010
00100100
00011000
01111110
01000010
01000010
01111110
00100100
DLG SPR_3
POS 0 10,10

SPR k
00000000
00111000
00111000
00010000
01111100
11111110
01111100
00101000
DLG SPR_4
POS 4 14,7

SPR l
00000000
00001100
00011000
00111100
00110100
00011000
00111100
00011000
>
00000000
00001100
00011000
00111100
00111100
00011000
00111100
00011000
DLG SPR_7
POS 5 5,5

SPR m
00000000
00001100
00011100
00110100
00111100
00011000
00111100
00011000
>
00000000
00001100
00011100
00111100
00111100
00011000
00111100
00011000
DLG SPR_8
POS 6 8,12

ITM 0
00010000
00001000
00000100
00011000
01111100
00100100
00100100
00011000
>
00000100
00011000
00100000
00010000
01111100
00100100
00100100
00011000
NAME tea
DLG ITM_0

ITM 1
00000000
00011000
00100100
00100100
00111100
00111100
00111100
00011000
NAME pill
DLG ITM_1

DLG SPR_0
I'm a cat

DLG ITM_0
You found a nice warm cup of tea

DLG SPR_4
"""
{cycle
  - I was slower to develop than my friends...
    facial hair, muscles, attraction...
  - I was shy and thought I should be dating like everyone else, but I forgot about myself. 
  - Some people never figure out what they want to do.
  - I still don't date as much as my friends but it's okay. Maybe that's just how it'll always be?
}
"""

DLG SPR_3
"""
{sequence
  - I'm just going to stay in bed all day.
  - I don't have the energy to get up.
  - I'll do it tomorrow.
}
"""

DLG SPR_5
"""
{sequence
  - Learning new things is hard.
  - Sometimes I get so frustrated I feel like I could cry. I get so upset because I really want to learn.
  - Maybe I'm putting too much value into my output. Who, knows. 
}
"""

DLG SPR_2
"""
{sequence
  - Going where the currents take me, you dig?
  - Sometimes staying afloat is a challenge in itself, you know?
  - I'm soft on the outside and I'm also soft on the inside...please be kind to me.
}
"""

DLG SPR_6
"""
{sequence
  - {shk}I am fear.{shk}
  - {shk}I am sloth.{shk}
  - {shk}I am depression.{shk}
}{
  - {item "pill"} == 1 ?
    You give it the pill. It goes quiet, but you have a feeling it won't be permanent.
}
"""

DLG SPR_1
"""
{sequence
  - Hey, man. Hope you're having a nice day!
  - The weather is great today!
  - Drink more water!
  - I believe in you!
  - Maybe tireless optimism is unrealistic...
  - ... 
}
"""

DLG SPR_7
"""
{cycle
  - I still spook myself at night.
  - Like that one house I take my walks past. It always has a light on way in the back.
  - Or when I watch a scary movie and then have to drive home. 
}
"""

DLG SPR_8
"""
{sequence
  - I'm focusing. Please leave me alone...
  - ...it's all or nothing...
  - ...sometimes I work myself into mess...but if I don't how will I finish anything?...
}
"""

DLG ITM_1
Blue and white 30 mg pil

VAR a
42


