
Band Together!

# BITSY VERSION 4.8

! ROOM_FORMAT 1

PAL 0
NAME Cafe
105,88,95
184,216,186
239,149,157

PAL 1
NAME Aquarium
13,63,64
80,255,226
212,126,139

PAL 2
NAME Club
12,10,62
176,43,175
249,86,79

PAL 3
NAME City Street
45,41,38
24,113,115
223,107,86

PAL 4
NAME Park
58,96,71
121,190,112
248,170,221

PAL 5
NAME Courthouse
148,88,78
255,201,181
199,211,191

PAL 6
NAME Sewer
29,54,51
68,158,110
219,80,74

PAL 7
NAME FastFood
138,53,61
255,140,66
255,242,117

ROOM 0
q,q,0,0,a,f,0,e,0,g,a,0,0,0,b,b
q,q,0,0,a,f,0,e,0,g,a,0,0,0,b,b
q,q,0,0,a,f,0,e,0,g,a,0,0,0,b,b
q,q,0,0,a,f,0,e,0,g,a,0,0,0,b,b
q,q,0,0,a,f,0,e,0,g,a,0,0,0,b,b
q,q,0,0,a,f,0,e,0,g,a,0,0,d,b,b
q,q,0,0,a,f,0,e,0,g,a,0,0,0,0,0
q,q,0,0,a,f,0,e,0,g,a,0,0,0,b,b
q,q,0,0,a,f,0,e,0,g,a,0,0,d,b,b
q,q,0,0,a,f,0,e,0,g,a,0,0,0,b,b
q,q,0,0,a,f,0,e,0,g,a,0,0,0,b,b
q,q,0,0,a,f,0,e,0,g,a,0,0,m,b,b
q,q,0,0,a,f,0,e,0,g,a,0,0,0,0,0
q,q,0,0,a,f,0,e,0,g,a,0,0,0,b,b
q,q,0,0,a,f,0,e,0,g,a,0,0,0,b,b
q,q,1f,1f,1f,1f,1f,1f,1f,1f,1f,1f,1f,1f,b,b
NAME Street1
EXT 15,12 a 0,12
EXT 15,6 1 0,6
EXT 2,0 6 2,15
EXT 3,0 6 3,15
EXT 4,0 6 4,15
EXT 5,0 6 5,15
EXT 6,0 6 6,15
EXT 7,0 6 7,15
EXT 8,0 6 8,15
EXT 9,0 6 9,15
EXT 10,0 6 10,15
EXT 11,0 6 11,15
EXT 12,0 6 12,15
EXT 13,0 6 13,15
END undefined 6,9
PAL 3

ROOM 1
q,q,1r,1r,1r,1r,1r,1n,1o,1r,1r,1r,1r,1r,1r,b
q,q,1r,1r,1r,1m,1r,1q,1p,1r,1m,1r,1r,1r,1r,b
q,q,0,0,1t,1l,0,0,0,0,1l,0,0,0,0,b
q,q,0,0,0,1l,1i,1j,1i,1j,1l,0,1s,0,0,b
q,q,0,0,0,0,1h,1k,1h,1k,0,0,0,0,0,b
q,q,0,0,0,1t,0,0,0,0,0,1t,0,0,0,b
0,0,0,1s,57,4s,4s,4s,4s,4s,4s,4s,56,1s,0,b
q,q,0,0,4t,1g,1g,1g,1g,1g,1g,1g,3z,0,0,b
b,q,0,0,4t,1g,1g,1g,1g,1g,1g,1g,3z,0,0,b
q,q,0,1t,4t,1g,1g,1g,1g,1g,1g,1g,3z,1t,0,b
q,q,0,0,4t,1g,1g,1g,1g,1g,1g,1g,3z,0,0,b
q,q,0,0,4t,1g,1g,1g,1g,1g,1g,1g,3z,0,0,b
q,q,0,0,54,51,51,51,51,51,51,51,55,0,0,b
q,q,0,1s,0,0,0,0,0,0,0,0,0,1s,0,b
q,q,0,0,0,0,0,0,0,0,1t,0,0,0,0,0
q,q,q,q,q,q,q,q,q,q,q,q,q,q,b,b
NAME Club
EXT 0,6 0 15,6
EXT 15,14 b 0,6
PAL 2

ROOM 2
4m,4n,4m,4m,4n,4m,59,58,59,59,58,58,59,58,59,b
4o,53,0,0,0,c,5f,5f,5f,5f,5f,5f,5f,5f,5f,b
4p,53,0,0,0,0,5e,5f,5f,5f,5f,5f,5f,5f,5f,b
53,53,0,0,0,0,2h,0,0,0,0,0,0,0,0,b
53,53,0,0,0,0,3v,5c,5d,5a,3e,5a,3e,5a,5a,b
0,0,0,0,0,0,0,0,0,0,0,0,0,0,0,b
53,53,0,0,0,0,0,0,0,0,0,0,0,0,0,b
53,53,0,0,0,0,0,0,3y,3y,3y,3y,3y,3y,3y,b
53,53,0,3s,0,0,0,0,3x,5k,5l,5l,5l,5l,5l,b
53,53,0,3r,0,0,5m,0,i,5j,0,0,0,0,d,b
53,53,0,3s,0,0,0,0,3x,5j,0,0,0,0,0,b
53,53,0,3r,0,0,0,5m,3x,5i,0,0,0,0,0,b
53,53,0,3s,0,0,0,0,3x,5h,5g,5g,5g,5g,5g,b
53,53,0,3r,0,0,5m,0,3y,3y,3y,3y,3y,3y,3y,b
53,53,0,0,0,0,0,0,0,0,0,0,0,0,0,b
53,53,53,53,53,53,53,53,53,53,53,53,53,53,53,53
NAME Cafe
ITM 2 11,10
ITM 5 14,11
EXT 0,5 6 15,5
PAL 0

ROOM 3
1d,1d,1d,1d,1d,q,q,0,b,b,1d,1d,1d,1d,1d,b
1d,1d,0,0,0,15,0,0,0,16,0,0,0,1d,1d,b
1d,0,0,0,0,15,0,0,0,16,0,0,0,0,1d,b
1d,0,13,14,0,15,0,0,0,16,0,13,14,0,1d,b
1d,0,0,0,0,15,0,0,0,16,0,0,0,0,1d,b
1d,0,0,0,0,15,0,t,0,16,0,0,0,0,1d,b
1d,17,17,17,17,0,12,u,z,0,19,19,19,19,19,q
1d,0,0,0,0,0,11,v,y,0,0,0,0,0,0,b
1d,0,0,0,0,0,10,w,x,0,0,0,0,0,0,0
1d,18,18,18,18,0,0,0,0,0,1a,1a,1a,1a,1a,b
1d,0,0,0,0,1c,0,0,0,1b,0,0,0,0,1d,b
1d,0,0,0,0,1c,0,0,0,1b,0,0,0,0,1d,b
1d,0,0,0,0,1c,0,0,0,1b,0,0,0,0,1d,b
1d,0,0,0,0,1c,0,0,0,1b,0,0,0,0,1d,b
1d,1d,0,0,0,1c,0,0,0,1b,0,0,0,1d,1d,b
1d,1d,1d,1d,1d,1d,1d,1d,1d,1d,1d,1d,1d,1d,1d,b
NAME Park
ITM 3 1,2
ITM 4 1,3
EXT 7,0 4 7,15
EXT 15,8 6 0,8
PAL 4

ROOM 4
2y,2y,2y,2y,2y,2y,2y,2y,2y,2y,2y,2y,2y,2y,2y,2y
2a,2a,2a,2a,2a,2a,1u,2h,2h,2h,2e,2h,2h,2h,2h,2h
2h,2h,2o,2p,2q,2r,2h,2j,2m,1u,27,1z,2d,21,2h,2h
2h,2g,2s,1v,1w,1x,2n,2k,2l,2h,2b,23,24,25,2a,2h
0,0,0,0,0,0,0,0,0,0,0,0,0,0,0,0
0,0,0,0,0,0,0,0,0,0,0,0,0,0,0,0
0,2y,2y,2y,2y,0,0,0,0,0,0,2y,2y,2y,2y,0
0,27,28,29,2a,0,0,0,0,0,0,2a,29,2h,1u,0
0,2b,2c,2d,2e,0,0,0,0,0,0,2o,2p,2q,2r,0
0,27,24,25,2i,0,0,0,0,0,0,2n,1v,1w,1x,0
0,0,0,0,0,0,0,0,0,0,0,0,0,0,0,0
0,0,0,0,0,0,0,2h,0,0,0,0,0,0,0,0
0,0,0,0,0,0,0,3v,3e,3f,0,0,0,0,0,0
0,0,0,0,0,0,0,0,0,0,0,0,0,0,0,0
0,0,0,0,0,0,0,0,0,0,0,0,0,0,0,0
q,q,q,q,q,q,q,0,b,b,b,b,b,b,b,b
NAME Aquarium
EXT 7,15 3 7,0
PAL 1

ROOM 5
2y,2y,2y,2y,0,0,3c,2u,2v,3c,0,0,2y,2y,2y,2y
37,38,37,38,0,0,3b,2w,2x,3b,0,0,37,38,37,38
36,39,36,39,34,35,3a,0,0,3a,34,35,36,39,33,32
0,0,0,0,2t,2t,37,38,37,38,2t,2t,0,0,31,0
q,0,0,0,0,0,36,39,36,39,0,0,0,0,31,0
q,0,0,0,0,0,0,0,0,0,0,0,0,0,31,0
q,0,0,0,0,0,0,0,0,0,0,0,0,0,30,2z
q,0,0,2y,2y,2y,0,0,0,0,2y,2y,2y,0,0,b
q,0,0,0,0,0,0,0,0,0,0,0,0,0,0,b
q,2t,2t,2t,2t,2t,0,0,0,0,2t,2t,2t,2t,2t,b
q,0,0,0,0,0,0,0,0,0,0,0,0,0,0,b
q,3d,3d,3d,3d,3d,0,0,0,0,3d,3d,3d,3d,3d,b
q,0,0,0,0,0,0,0,0,0,0,0,0,0,0,b
q,3d,3d,3d,3d,0,0,0,0,0,0,3d,3d,3d,3d,b
q,0,0,0,0,0,0,0,0,0,0,0,0,0,0,b
q,q,q,q,q,q,q,q,q,q,q,q,q,q,q,q
NAME Courthouse
ITM 6 1,14
EXT 0,3 7 15,3
PAL 5

ROOM 6
q,q,0,0,a,f,0,e,0,g,a,0,0,0,b,b
q,q,0,0,a,f,0,e,0,g,a,0,0,0,b,b
q,q,0,0,a,f,0,e,0,g,a,0,d,b,b,b
q,q,0,0,a,f,0,e,0,g,a,0,0,j,k,l
q,q,0,0,a,f,0,e,0,g,a,0,0,b,b,b
q,q,q,0,a,f,0,e,0,g,a,0,0,i,i,0
n,o,p,0,a,f,0,e,0,g,a,0,0,q,q,q
r,r,r,0,a,f,0,e,0,g,a,0,d,b,b,b
0,0,0,0,a,f,0,e,0,g,a,0,0,0,b,b
q,q,0,0,a,f,0,e,0,g,a,0,0,0,b,b
q,q,0,0,a,f,0,e,0,g,a,0,0,0,b,b
q,q,0,0,a,f,0,e,0,g,a,0,0,0,b,b
q,q,0,0,a,f,0,e,0,g,a,0,0,0,b,b
q,q,0,0,a,f,0,e,0,g,a,0,0,0,b,b
q,q,0,0,a,f,0,e,0,g,a,0,0,0,b,b
q,q,0,0,a,f,0,e,0,g,a,0,0,0,b,b
NAME Street2
EXT 15,5 2 0,5
EXT 0,8 3 15,8
EXT 2,0 7 2,15
EXT 3,0 7 3,15
EXT 4,0 7 4,15
EXT 5,0 7 5,15
EXT 6,0 7 6,15
EXT 7,0 7 7,15
EXT 8,0 7 8,15
EXT 9,0 7 9,15
EXT 10,0 7 10,15
EXT 11,0 7 11,15
EXT 12,0 7 12,15
EXT 13,0 7 13,15
EXT 2,15 0 2,0
EXT 3,15 0 3,0
EXT 4,15 0 4,0
EXT 5,15 0 5,0
EXT 6,15 0 6,0
EXT 7,15 0 7,0
EXT 8,15 0 8,0
EXT 9,15 0 9,0
EXT 10,15 0 10,0
EXT 11,15 0 11,0
EXT 12,15 0 12,0
EXT 13,15 0 13,0
PAL 3

ROOM 7
q,q,1f,1f,1f,1f,1f,1f,1f,1f,1f,1f,1f,b,b,b
q,q,0,0,a,f,0,e,0,g,a,0,0,b,b,b
q,q,0,0,a,f,0,e,0,g,a,0,d,b,b,b
q,q,0,0,a,f,0,e,0,g,a,0,0,0,0,0
q,q,s,0,a,f,0,e,0,g,a,0,0,b,b,b
q,q,0,0,a,f,0,e,0,g,a,0,0,b,b,b
q,q,0,0,a,f,0,e,0,g,a,0,0,b,b,b
q,q,0,0,a,f,0,e,0,g,a,0,0,b,b,b
q,q,0,0,a,f,0,e,0,g,a,0,0,b,b,b
q,q,0,0,a,f,0,e,0,g,a,0,0,b,b,b
q,q,0,0,a,f,0,e,0,g,a,0,0,0,b,b
q,q,0,0,a,f,0,e,0,g,a,0,0,0,b,b
q,q,0,0,a,f,0,e,0,g,a,0,0,0,b,b
q,q,0,0,a,f,0,e,0,g,a,0,0,0,b,b
q,q,0,0,a,f,0,e,0,g,a,0,0,0,b,b
q,q,0,0,a,f,0,e,0,g,a,0,0,0,b,b
NAME Street3
EXT 2,4 8 7,0
EXT 15,3 5 0,3
EXT 2,15 6 2,0
EXT 3,15 6 3,0
EXT 4,15 6 4,0
EXT 5,15 6 5,0
EXT 6,15 6 6,0
EXT 7,15 6 7,0
EXT 8,15 6 8,0
EXT 9,15 6 9,0
EXT 10,15 6 10,0
EXT 11,15 6 11,0
EXT 12,15 6 12,0
EXT 13,15 6 13,0
PAL 3

ROOM 8
50,4z,51,51,51,4i,4l,0,4i,4l,51,51,51,51,41,4x
4y,57,4w,4u,4u,4j,4k,0,4j,4k,4u,4u,4u,43,56,42
3z,4v,52,0,0,0,0,0,0,0,0,0,0,54,44,4t
3z,40,0,0,0,0,0,0,0,0,0,0,0,0,4q,4t
3z,40,0,0,0,0,0,0,0,0,0,0,0,0,4q,4t
3z,40,0,0,0,0,0,0,0,0,0,0,0,0,4q,4t
3z,40,0,0,0,0,0,0,0,0,0,0,0,0,4q,4t
4m,4n,0,0,0,0,0,0,0,0,0,0,0,0,58,59
4m,4n,0,0,0,0,0,0,0,0,0,0,0,0,58,59
3z,40,0,0,0,0,0,0,0,0,0,0,0,0,4q,4t
3z,40,0,0,0,0,0,0,0,0,0,0,0,0,4q,4t
3z,40,0,0,0,0,0,0,0,0,0,0,0,0,4q,4t
3z,40,0,0,0,0,0,0,0,0,0,0,0,0,4q,4t
3z,4c,4d,0,0,0,0,0,0,0,0,0,0,48,46,4t
4f,54,4b,4r,4r,4r,4r,4o,4o,4r,4r,4r,4r,47,55,49
4g,4e,4s,4s,4s,4s,4s,4p,4p,4s,4s,4s,4s,4s,4a,4h
NAME Sewer
ITM 0 12,12
EXT 7,0 7 2,4
PAL 6

ROOM a
q,q,q,q,3g,3j,3j,3j,3j,3j,3j,3j,3k,q,q,q
q,0,0,0,3i,3o,3o,3o,3o,3o,3o,3o,3l,0,0,b
q,3p,3s,3t,3h,3n,3n,3n,3n,3n,3n,3n,3m,3p,3s,b
q,3q,3r,3w,2h,0,0,0,0,0,0,0,2h,3q,3r,b
q,0,0,0,3v,3u,3e,3u,3e,3u,3e,3u,3f,0,0,b
q,3p,3s,0,0,0,0,0,0,0,0,0,0,0,0,b
q,3q,3r,0,3y,3y,3y,3y,3y,3x,0,0,3x,0,0,b
q,0,0,0,3x,0,0,0,0,0,0,0,3x,3s,3t,b
q,0,0,0,3x,0,3y,3y,3y,3y,3y,3y,3x,3r,3w,b
q,0,0,0,3x,0,0,0,0,0,0,0,3x,0,0,b
q,0,0,0,3y,3y,3y,3y,3y,3x,0,0,3x,0,0,b
q,0,0,0,0,0,0,0,0,0,0,0,0,0,0,b
0,0,0,0,0,0,0,0,0,0,0,0,0,0,0,b
q,0,0,0,0,0,0,0,0,0,0,0,0,0,0,b
q,3p,3s,3t,3p,3s,3t,3p,3s,3t,3p,3s,3t,3p,3s,b
q,3q,3r,3w,3q,3r,3w,3q,3r,3w,3q,3r,3w,3q,3r,q
NAME FastFood
ITM 1 3,14
EXT 0,12 0 15,12
PAL 7

ROOM b
q,q,1r,1r,1r,1r,1r,1n,1o,1r,1r,1r,1r,1r,1r,b
q,q,1r,1r,1r,1m,1r,1q,1p,1r,1m,1r,1r,1r,1r,b
q,q,0,0,1t,1l,0,0,0,0,1l,0,5k,5l,5l,b
q,q,0,0,0,1l,1i,1j,1i,1j,1l,0,5j,0,0,b
q,q,0,0,0,0,1h,1k,1h,1k,0,0,5j,0,0,b
q,q,0,0,0,1t,0,0,0,0,0,1t,5j,0,0,b
0,0,0,1s,57,4s,4s,4s,4s,4s,4s,56,5j,1s,0,b
q,q,0,0,4t,1g,1g,1g,1g,1g,1g,3z,5j,0,0,b
b,q,0,0,4t,1g,1g,1g,1g,1g,1g,3z,5j,0,0,b
q,q,0,1t,4t,1g,1g,1g,1g,1g,1g,3z,5j,1t,0,b
q,q,0,0,4t,1g,1g,1g,1g,1g,1g,3z,5j,0,0,b
q,q,0,0,4t,1g,1g,1g,1g,1g,1g,3z,5j,0,0,b
q,q,0,0,54,51,51,51,51,51,51,55,5j,0,0,b
q,q,0,1s,0,0,0,0,0,0,0,0,5j,1s,0,b
q,q,0,0,0,0,0,0,0,0,1t,0,5i,0,0,b
q,q,q,q,q,q,q,q,q,q,q,q,q,q,b,b
NAME EndGame
ITM 9 14,14
ITM a 13,8
ITM d 14,7
ITM d 13,6
ITM b 14,4
ITM c 14,5
ITM 7 14,12
ITM 8 14,10
EXT 0,6 1 15,14
END undefined 11,4
END undefined 11,5
END undefined 11,6
END undefined 11,7
END undefined 11,8
END undefined 11,9
END undefined 11,10
END undefined 11,11
END undefined 11,12
END undefined 11,13
END undefined 11,14
END undefined 10,4
PAL 2

TIL 10
01010000
01101100
00110011
00011100
00001111
00000011
00000000
00000000
NAME FBL
WAL true

TIL 11
10010000
10000000
10000000
10000000
10000000
01000000
11000000
10100000
>
10000010
10000010
10000000
10000000
10000000
01000000
11000000
10100000
NAME FL

TIL 12
00000011
00001100
00010000
00100000
01000000
01000000
10000000
10010000
>
00000011
00001100
00010000
00100000
01000000
01000000
10000000
10000010
NAME FUL

TIL 13
00000000
11111111
00000000
01111111
00000000
11111111
10000000
10000000
NAME BenchL

TIL 14
00000000
11111111
00000000
11111110
00000000
11111111
00000001
00000001
NAME BenchR

TIL 15
01000000
01000000
10000000
10000000
01000000
01000000
10000000
10000000

TIL 16
00000010
00000010
00000001
00000001
00000010
00000010
00000001
00000001

TIL 17
00110011
11001100
00000000
00000000
00000000
00000000
00000000
00000000

TIL 18
00000000
00000000
00000000
00000000
00000000
00000000
11001100
00110011

TIL 19
11001100
00110011
00000000
00000000
00000000
00000000
00000000
00000000

TIL 20
11111111
11111111
11111111
11111111
11101111
11111111
11111111
11111111
>
11111111
11111111
11111111
11111111
11111111
11111111
11111111
11110111
NAME Tank Right 3
WAL true

TIL 21
11111111
11111011
10001001
00000111
00000111
00000111
10001111
11010111
NAME Tank Right 4
WAL true

TIL 22
11110000
11110010
11110111
11111111
11111111
11111111
11111111
11111111
NAME Tank Right 5
WAL true

TIL 23
00001111
00011111
00111111
11111111
11111111
11111111
11111100
11111000
NAME Tank Right 6
WAL true

TIL 24
11111111
11111101
11101110
11110110
11110010
11110010
01110001
00110000
>
11111111
11111110
11101101
11101100
11100100
11100101
01100001
00110000
NAME Tank Right 7
WAL true

TIL 25
11111111
11111111
11111111
01111111
01111111
11111111
10111111
01111111
>
11111111
11111111
11111111
11111111
11111111
10111111
01111111
11111111
NAME Tank Right 8
WAL true

TIL 26
11111100
11111111
11111111
11111111
11111111
11111111
11111111
11111111
NAME Tank Edges
WAL true

TIL 27
11111111
11111111
11111111
11111111
11111111
11111111
11101110
11100100
NAME Tank 2.1
WAL true

TIL 28
11111111
11111111
11111111
11111111
11111101
00011111
00001111
00000111
>
11111111
11111111
11111111
11111111
11111111
00011111
00001111
00000111
NAME Tank 2.2
WAL true

TIL 29
11111111
11111111
11111111
11101001
11100000
11101001
11111111
11111111
NAME Tank 2.3
WAL true

TIL 30
01000000
01000000
01000000
01000000
01000011
01001111
01111111
01111111
WAL true

TIL 31
01000000
01000000
01000000
01000000
01000000
01000000
01000000
01000000
WAL true

TIL 32
11111100
11110000
11000000
00000000
00000000
00000000
00000000
00000000
WAL true

TIL 33
10111111
10111111
10111111
10111111
10111100
10110000
11000000
11000000
WAL true

TIL 34
11111111
10000000
10000000
10000000
10000000
10000000
10000000
10000000
WAL true

TIL 35
11111111
00000001
00000001
00000001
00000001
00000001
00000001
00000001
WAL true

TIL 36
10111111
10111111
10111111
10111111
10111111
10111111
10000000
11111111
WAL true

TIL 37
11111111
10000000
10111111
10111111
10111111
10111111
10111111
10111111
WAL true

TIL 38
11111111
00000001
11111101
11111101
11111101
11111101
11111101
11111101
WAL true

TIL 39
11111101
11111101
11111101
11111101
11111101
11111101
00000001
11111111
WAL true

TIL 40
00011010
00011010
00011010
00011010
00011010
00011010
00011010
00011010
NAME Pipe 2
WAL true

TIL 41
00000000
11100000
00011100
00000011
00000000
00000000
00000000
00000000
WAL true

TIL 42
00001000
00001000
00000100
00000100
00000100
00000010
00000010
00000010
WAL true

TIL 43
00000000
00000000
00000000
11111000
11111110
00000111
11110001
00001100
WAL true

TIL 44
01100000
00110000
10110000
10011000
01011000
01011000
01011000
01011000
WAL true

TIL 45
00000010
00000001
00000000
00000000
00000000
00000000
00000000
00000000
WAL true

TIL 46
01011000
01011000
01011000
01011000
10011000
10110000
00110000
01100000
WAL true

TIL 47
00001100
11110001
00000111
11111110
11111000
00000000
00000000
00000000
WAL true

TIL 48
00000000
00000000
00000000
00000000
00000000
00000000
00000001
00000010
WAL true

TIL 49
00000010
00000010
00000010
00000100
00000100
00000100
00001000
00001000
WAL true

TIL 50
00000000
00000000
00000000
00000000
00000001
00000010
00000100
00001000
WAL true

TIL 51
00000000
11111111
00000000
00000000
00000000
00000000
00000000
00000000
WAL false

TIL 52
01000000
10000000
00000000
00000000
00000000
00000000
00000000
00000000
WAL true

TIL 53
00000000
01111111
01111111
01111111
00000000
11110111
11110111
11110111
WAL true

TIL 54
00000111
00000011
00000001
00000000
00000000
00000000
00000000
00000000
WAL false

TIL 55
11100000
11000000
10000000
00000000
00000000
00000000
00000000
00000000
WAL false

TIL 56
00000000
00000000
00000000
00000000
00000000
10000000
11000000
11100000
WAL false

TIL 57
00000000
00000000
00000000
00000000
00000000
00000001
00000011
00000111
WAL false

TIL 58
11111111
10110000
10110000
10110000
10110000
10110000
10110000
11111111

TIL 59
11111111
00000001
00000001
00000001
00000001
00000001
00000001
11111111

TIL a
11111111
10000001
10000001
10000001
10000001
10000001
10000001
11111111
>
11111111
10000001
10000001
10000001
10000001
10000001
10000001
11111111
NAME Sidewalk

TIL b
11101110
00000000
10111011
00000000
11101110
00000000
10111011
00000000
NAME BrickRight
WAL true

TIL c
00000000
00000000
00111100
01111110
00100100
00100100
00100100
00111100
>
00000000
00111100
01111110
00000000
00100100
00100100
00100100
00111100
NAME Garbage
WAL true

TIL d
00000000
00111000
01000111
01111100
00111000
00000000
00000000
00000000
>
00000000
00111000
01000111
01111100
00111000
01000100
10010010
00010000
NAME Lamp
WAL true

TIL e
00011000
00011000
00011000
00000000
00000000
00011000
00011000
00011000
NAME Street Lines

TIL f
11000000
11000000
11000000
11000000
11000000
11000000
11000000
11000000
NAME Street Left

TIL g
00000011
00000011
00000011
00000011
00000011
00000011
00000011
00000011
NAME Street Right

TIL h
00011000
00011000
00011000
00011000
00011000
00011000
00011000
11111111
NAME Door

TIL i
01010101
01010101
01010101
01010101
01010101
01010101
01010101
01010101

TIL j
00000000
00001111
00010000
00100000
00100000
00100000
00010000
00001111
>
00001111
00010000
00101111
01011111
01011111
01011111
00101111
00010000
NAME Cafe1
WAL true

TIL k
00000000
10000000
01000000
00000001
00001100
00010010
01010010
10001110
>
10000000
01000001
10100001
11111110
11110011
11101101
10101101
01110001
NAME Cafe2
WAL true

TIL l
01000000
10100100
10001000
11000000
10011000
10111100
10100000
10011000
>
10100100
01011010
01110100
00111000
01100100
01000010
01011100
01100100
NAME Cafe3
WAL true

TIL m
00000000
00111100
01111110
01111110
00000000
01111110
00000000
01111110
>
01111110
11000011
10000001
10000001
11111111
10000001
11111111
10000001
NAME BurgerSign
WAL true

TIL n
00000000
00011110
00010001
00010001
00010001
00011110
00010000
00010000
NAME Park1
WAL true

TIL o
00000000
00000000
00000000
00000000
00110001
01001010
01001010
00111010
NAME Park2
WAL true

TIL p
00000000
00100000
00100000
00100000
10101000
00110000
00101000
00101000
NAME Park3
WAL true

TIL q
01110111
00000000
10111011
00000000
01110111
00000000
10111011
00000000
NAME BrickLeft
WAL true

TIL r
00000000
00000000
10111011
00000000
01110111
00000000
10111011
00000000
NAME SignBottom
WAL true

TIL s
00000000
00011100
00101010
01010101
01101011
01010101
00101010
00011100
>
00111000
01010100
10101010
11010111
10101011
01010111
00111110
00011100
NAME Manhole

TIL t
01000100
00001110
00111010
01011000
01001000
00001000
00011000
11111111
>
00100010
01110000
01011100
00011010
00010010
00010000
00011000
11111111
NAME TopFountain
WAL true

TIL u
01011010
01000010
01100110
10111101
10011001
10000001
01000010
00111100
NAME FountainMid
WAL true

TIL v
00111100
00011000
00000000
00000000
00000000
00000000
00000000
00011000
>
00111100
00011000
00000000
10000001
00111100
00000000
00000000
00000000
NAME FountainWater
WAL true

TIL w
00000000
00000000
10000001
01111110
10000001
11111111
01111110
00000000
NAME FountainBot
WAL true

TIL x
00001010
00110110
11001100
00111000
11110000
11000000
00000000
00000000
NAME FountainBotR
WAL true

TIL y
00001001
00000001
00000001
00000001
00000001
00000010
00000011
00000101
>
01000001
01000001
00000001
00000001
00000001
00000010
00000011
00000101
NAME FWR
WAL true

TIL z
11000000
00110000
00001000
00000100
00000010
00000010
00000001
00001001
>
11000000
00110000
00001000
00000100
00000010
00000010
00000001
01000001
NAME FUR
WAL true

TIL 1a
00000000
00000000
00000000
00000000
00000000
00000000
00110011
11001100

TIL 1b
00000001
00000001
00000010
00000010
00000001
00000001
00000010
00000010

TIL 1c
10000000
10000000
01000000
01000000
10000000
10000000
01000000
01000000

TIL 1d
00111100
01000010
10000001
10100011
10001001
10000001
01000010
00111100
NAME Bush

TIL 1e
11111111
01111111
10111111
10011111
10011111
10111111
01101111
01011111
NAME Tank Right 8

TIL 1f
00000000
01111110
01111110
01000010
01111110
01000010
10000001
00000000
NAME Barrier
WAL true

TIL 1g
11110000
11110000
11110000
11110000
00001111
00001111
00001111
00001111
>
00001111
00001111
00001111
00001111
11110000
11110000
11110000
11110000
NAME DanceFloor

TIL 1h
11110000
11111000
11111110
11111111
11111111
00000000
00000000
11111111
WAL true

TIL 1i
11111111
11111110
11111000
11110010
11110100
11100000
11100000
11110000
>
11111111
11111110
11111000
11110000
11110000
11100100
11100100
11110000
WAL true

TIL 1j
11111111
01111111
00011111
00001111
00001111
00000111
00000111
00101111
>
11111111
01111111
00011111
00001111
00001111
00100111
00100111
00001111
WAL true

TIL 1k
01001111
00011111
01111111
11111111
11111111
00000000
00000000
11111111
>
00001111
00011111
01111111
11111111
11111111
00000000
00000000
11111111
WAL true

TIL 1l
11111111
11000011
10000001
10011001
10011001
10000001
11000011
11111111
>
11111111
11100111
11000011
10011001
10011001
11000011
11100111
11111111
WAL true

TIL 1m
00000000
11111111
11111111
11111111
11111111
00000000
11111111
11111111
WAL true

TIL 1n
00000001
00000001
00000011
00001100
00010000
00100000
00100000
01000000
>
00000001
00000001
00000011
00001100
00010000
00100000
00100001
01000000
WAL true

TIL 1o
10000000
10000000
11000000
00110000
00001000
00000100
11000100
00000010
>
10000000
10000000
11000000
00110000
00001000
00000100
10000100
00000010
WAL true

TIL 1p
00000010
00110010
00000010
10000100
00000100
00001000
00110000
11000000
>
00000010
00011010
00000010
11000100
00000100
00001000
00110000
11000000
WAL true

TIL 1q
01000000
01000000
01000000
00100001
00100000
00010000
00001100
00000011
>
01000000
01000000
01000000
00100000
00100000
00010000
00001100
00000011
WAL true

TIL 1r
00000000
11111110
11111110
11111110
00000000
11101111
11101111
11101111
WAL true

TIL 1s
00111100
01111110
11111111
11111111
11111111
11111111
01111110
00111100
>
00000000
00000000
00000000
00000000
00000000
00000000
00000000
00000000

TIL 1t
00000000
00000000
00000000
00000000
00000000
00000000
00000000
00000000
>
00111100
01111110
11111111
11111111
11111111
11111111
01111110
00111100

TIL 1u
11111111
11111101
11111111
10100111
10000011
10100111
11111111
11111111
>
11111111
11111111
11111101
10100111
10000011
10100111
11111111
11111111
NAME Fish 1
WAL true

TIL 1v
00001111
11111111
11111101
11111110
11111100
11111000
11111110
11111111
NAME Tank Middle 6
WAL true

TIL 1w
11101100
11111110
10111111
00111111
00111111
01011111
11111111
11111111
>
11111100
11111110
10111111
00110111
00111111
01011111
11111111
11111111
NAME Tank Middle 7
WAL true

TIL 1x
00011111
01011111
11111111
11111111
11111111
11111111
11111111
11111111
NAME Tank Middle 8
WAL true

TIL 1y
11111111
11111111
11111111
11111111
11111111
11111111
11110111
11110010
NAME Tank Right 1
WAL true

TIL 1z
11111111
11111111
11111111
11111011
11111111
11111111
00111111
00011111
>
11111111
11111111
11111111
11111111
11111111
11111111
00111011
00011111
NAME Tank Right 2
WAL true

TIL 2a
11111111
11111111
11111111
11111111
11111111
11111111
11111111
11111111
NAME Tank 2.4
WAL true

TIL 2b
11100000
11100000
11100110
11101111
11111111
11111111
11111111
11111111
NAME Tank 2.5
WAL true

TIL 2c
00000111
00000111
00001111
00011111
11111111
11111111
11111111
11111111
>
00000110
00000111
00001111
00011111
11111111
11111111
11111111
11111111
NAME Tank 2.6
WAL true

TIL 2d
11111111
11111111
11110111
11111111
11111111
11111111
11111111
11111111
>
11111111
11111111
11111111
11111111
11111111
11110111
11111111
11111111
NAME Tank 2.7
WAL true

TIL 2e
11111111
11111111
11110111
10001111
00001011
00000011
00001011
10001111
NAME Tank 2.8
WAL true

TIL 2f
11111111
11111111
11111111
11111111
11111111
11111111
11111111
11111111
NAME Tank 2.9
WAL true

TIL 2g
11111111
11111111
10110111
10010011
10010011
10010110
11001101
11100011
NAME Tank 2.10
WAL true

TIL 2h
11111111
11111111
11111111
11111111
11111111
11111111
11111111
11111111
NAME Tank 2.11
WAL true

TIL 2i
11110111
11111111
11111111
11111111
11111111
11111111
11111111
11111111
NAME Tank 2.12
WAL true

TIL 2j
11111111
11110111
11111111
11111111
11111111
11011111
11111100
11110000
>
11111111
11111111
11111111
10111111
11111111
11111111
11111100
01110000
NAME Shark 1
WAL true

TIL 2k
11000000
11000000
11100000
11110000
11110010
11111011
11111111
11111111
NAME Shark 2
WAL true

TIL 2l
00000000
00000100
00001110
00111111
01111111
00111111
11111111
11111111
NAME Shark 3
WAL true

TIL 2m
11111111
11111111
11111111
11111111
11111011
00011011
00111001
00000001
NAME Shark 4
WAL true

TIL 2n
11111111
11111111
11111111
11111101
11011101
11001101
11100101
11110001
NAME Tank 1
WAL true

TIL 2o
1111111NaN
11111111
11111111
11111111
11101111
11001100
10000000
11110000
NAME Tank Middle 1
WAL true

TIL 2p
11111111
11111111
11111111
11111111
11111101
00011111
00001111
00000111
>
11111111
11111111
11111111
11111111
11111111
00011111
00001101
00000111
NAME Tank Middle 2
WAL true

TIL 2q
11111111
11100101
11000001
11100101
11111111
11111111
11111111
11111110
NAME Tank Middle 8
WAL true

TIL 2r
11111111
11101111
11111111
11111111
11111111
11111111
11111111
01011111
>
11111111
11111111
11111111
11111111
11110111
11111111
11111111
01011111
NAME Tank Middle 4
WAL true

TIL 2s
11111100
11111111
11111111
11111111
11111111
11111111
11111111
11111111
NAME Tank Middle 5
WAL true

TIL 2t
11111111
10000001
10111101
10111101
10111101
10111101
10000001
11111111
WAL true

TIL 2u
00000111
00011111
00111111
01111111
01111111
11111100
11110011
11110111

TIL 2v
11100000
11111000
11111100
11001110
00101110
11101111
11010111
10111011

TIL 2w
11110111
11101011
11011101
01100011
01111111
00111111
00011111
00000111

TIL 2x
11000111
11111111
11111111
11111110
11111110
11111100
11111000
11100000

TIL 2y
00000000
11111111
11111111
11111111
11111111
00000000
11111111
00000000
WAL true

TIL 2z
00000011
00001111
00111111
11111111
11111111
11111111
11111111
11111111
WAL true

TIL 3a
00001100
00001100
00000100
00010100
00010100
00010000
00010000
00000000

TIL 3b
00111000
00111100
00111100
00111100
00111100
00111100
00011100
00011100

TIL 3c
00001000
00011000
00011000
00101000
00101000
00110000
00110000
00111000

TIL 3d
00000000
00111100
01111110
01111110
01111110
00111100
01000010
00111100
WAL true

TIL 3e
11111111
11100001
11000001
11000001
11111111
00000000
00000000
11111111
WAL true

TIL 3f
11111111
11111111
11111111
11111111
11111111
00000001
00000001
11111110
WAL true

TIL 3g
00000000
00111111
01111111
11111111
11000000
10000000
10000000
11111111

TIL 3h
00101000
00101000
00101000
11101000
11100111
11110000
11111111
11111111

TIL 3i
01010000
01010000
01010000
01010000
01010000
01010000
01010000
01010000

TIL 3j
00000000
11111111
11111111
11111111
00000000
00000000
00000000
11111111
WAL true

TIL 3k
00000000
11111100
11111110
11111111
00000011
00000001
00000001
11111111

TIL 3l
00001010
00001010
00001010
00001010
00001010
00001010
00001010
00001010

TIL 3m
00010100
00010100
00010100
00010111
11100111
00001111
11111111
11111111

TIL 3n
11010110
00000000
00011110
00000000
11111111
00000000
11111111
00000000
WAL true

TIL 3o
00000000
11011111
11011111
00000000
11011110
00000000
11101110
00000000
WAL true

TIL 3p
00000000
11100000
10010000
10010000
10001000
10001110
10001001
10001001

TIL 3q
10001001
11101001
11111001
11111001
11111001
11111111
11111111
11111111

TIL 3r
01101110
01110110
01111110
01111110
00111100
01000010
01000010
00111100
WAL true

TIL 3s
00000000
00000000
00000000
00111100
01111110
01101110
01110110
01111010
WAL true

TIL 3t
00000000
00000111
00001001
00001001
00010001
01110001
10010001
10010001

TIL 3u
11111111
11111111
11111111
11111111
11111111
00000000
00000000
11111111
WAL true

TIL 3v
11111111
11111111
11111111
11111111
11111111
10000000
10000000
01111111
WAL true

TIL 3w
10010001
10010111
10011111
10011111
10011111
11111111
11111111
11111111
WAL false

TIL 3x
10000000
10000000
10000000
10000000
10000000
10000000
10000000
10000000

TIL 3y
10000000
10000000
11000001
10100010
10011100
10000000
10000000
10000000

TIL 3z
01000000
01000000
01000000
01000000
01000000
01000000
01000000
01000000
NAME Pipe 1

TIL 4a
00000000
00000000
00000000
00000000
00000011
00011100
11100000
00000000
WAL true

TIL 4b
00110000
10001111
11100000
01111111
00011111
00000000
00000000
00000000
WAL true

TIL 4c
00011010
00011010
00011010
00011010
00011001
00001101
00001100
00000110
WAL true

TIL 4d
00000000
00000000
00000000
00000000
00000000
00000000
10000000
01000000
WAL true

TIL 4e
00000000
00000000
00000000
00000000
11000000
00111000
00000111
00000000
WAL true

TIL 4f
01000000
01000000
01000000
00100000
00100000
00100000
00010000
00010000
WAL true

TIL 4g
00001000
00000100
00000010
00000001
00000000
00000000
00000000
00000000
WAL true

TIL 4h
00010000
00100000
01000000
10000000
00000000
00000000
00000000
00000000
WAL true

TIL 4i
10000000
10000000
10000111
10001000
10010000
10100010
10100110
10100000
WAL true

TIL 4j
10100000
10100110
10100010
10010000
10001000
10000111
10000000
11111111
WAL true

TIL 4k
00000101
01100101
01000101
00001001
00010001
11100001
00000001
11111111
WAL true

TIL 4l
00000001
00000001
11100001
00010001
00001001
01000101
01100101
00000101
WAL true

TIL 4m
11111111
10000000
10000000
10000000
10000000
10000000
10000000
11111111
WAL true

TIL 4n
11111111
00001101
00001101
00001101
00001101
00001101
00001101
11111111
WAL true

TIL 4o
11111111
10000001
11111111
11111111
10000001
10000001
10000001
10000001
WAL true

TIL 4p
10000001
10000001
10000001
10000001
10000001
10000001
10000001
11111111
WAL true

TIL 4q
01011000
01011000
01011000
01011000
01011000
01011000
01011000
01011000
WAL true

TIL 4r
00000000
11111111
00000000
11111111
11111111
00000000
00000000
00000000
WAL true

TIL 4s
00000000
00000000
00000000
00000000
00000000
00000000
11111111
00000000
WAL false

TIL 4t
00000010
00000010
00000010
00000010
00000010
00000010
00000010
00000010
WAL false

TIL 4u
00000000
00000000
00000000
11111111
11111111
00000000
11111111
00000000
WAL true

TIL 4v
00000110
00001100
00001101
00011001
00011010
00011010
00011010
00011010
WAL true

TIL 4w
00000000
00000000
00000000
00011111
01111111
11100000
10001111
00110000
WAL true

TIL 4x
00000000
00000000
00000000
00000000
10000000
01000000
00100000
00010000
WAL true

TIL 4y
00010000
00010000
00100000
00100000
00100000
01000000
01000000
01000000
WAL true

TIL 4z
00000000
00000111
00111000
11000000
00000000
00000000
00000000
00000000
WAL true

TIL 5a
11111111
11111111
11111111
11111111
11111111
00000000
00000000
11111111
WAL true

TIL 5b
00000000
00000000
00000000
00000000
00000000
00000000
00000000
00000000

TIL 5c
01111111
11111111
11111111
10000000
10011101
01111111
10000000
11111111
WAL true

TIL 5d
11111110
11111111
11111111
00000001
00110001
11111110
00000001
11111111
WAL true

TIL 5e
11111111
10000000
10000000
10110110
10000000
11111111
11111111
11111111
WAL true

TIL 5f
11111111
10000000
10110000
10110110
10110110
10110110
10110110
11111111
WAL true

TIL 5g
11111111
11111111
00000000
00000000
00000000
11111111
11111111
11111111
WAL true

TIL 5h
10000111
10000011
10000000
11000000
11000000
01111111
00111111
00011111
WAL true

TIL 5i
10001000
10001000
10001000
10001000
10001000
10001000
10001000
10000100
WAL true

TIL 5j
10001000
10001000
10001000
10001000
10001000
10001000
10001000
10001000

TIL 5k
00011111
00100000
01000000
10000011
10000100
10001000
10001000
10001000

TIL 5l
11111111
00000000
00000000
11111111
00000000
00000000
00000000
00000000

TIL 5m
01111110
11111111
11111111
01111110
10000001
01111110
00011000
01100110
WAL true

SPR 10
00000000
00000000
00000000
00011000
00111100
01111110
00100100
01000010
>
00011000
00111100
01111110
00100100
01000010
00000000
00000000
00000000
DLG SPR_e
POS a 6,5

SPR 11
00000000
00111100
01111110
00111100
00111100
00100100
00100100
00100100
>
00100010
10000000
00111101
01111110
00111100
00111100
01100110
00100100
DLG SPR_f
POS a 8,5

SPR 12
00000000
00001110
00001010
01111110
01111110
00000010
00000010
01111110
>
00000000
00000000
00000000
00001110
00001010
01111110
01111110
01111110
DLG SPR_g
POS a 10,5

SPR 13
00000000
01000000
11000000
01100000
00110000
00011000
00111100
00011000
>
00000000
00000010
00000011
00000110
00001100
00011000
00111100
00011000
DLG SPR_h
POS a 10,10

SPR 14
00010100
00011100
00110110
01111100
01111100
01111100
00100100
00100100
>
00000000
00010100
00011100
00110110
01111100
01111100
01111100
00110110
DLG SPR_i
POS a 1,15

SPR 15
00000000
00000000
00000000
00000000
00000000
00110000
01110000
00111111
>
00000000
00000000
00000000
00000000
00000000
00011010
00111101
00011101
DLG SPR_j
POS a 14,9

SPR 16
00000000
00000000
00111000
01001100
01001100
00111100
00001111
00000111
>
01000000
00100000
00011000
00001100
00001100
00011100
00111111
01000111
DLG SPR_k
POS a 3,3

SPR 17
00000000
01100110
01100110
00111100
00111100
00111100
01111110
11000011
>
01100110
01100110
00111100
00100100
00111100
01111110
11000011
00000000
DLG SPR_l
POS 3 7,9

SPR 18
00000000
00011000
00111100
01011010
00100100
00011000
00011000
00111100
POS 5 15,3

SPR 19
00000000
00011000
00100100
00100100
00011000
00011000
01011010
00111100
POS 5 15,4

SPR 20
00011100
01111110
00111110
00101010
00111110
00111110
00111110
00111110
>
00000000
00011100
01111110
00111110
00101010
01111111
01111111
00111110
POS 2 10,3

SPR 21
NaNNaNNaNNaNNaNNaNNaNNaN
00000000
00000000
00111000
01111110
01111100
11010110
11111110
>
00000000
00000000
00111000
01111110
01111100
01010100
01111100
01111100
POS 2 12,3

SPR 22
01101100
00011110
00101110
01111010
01111110
00111100
00001100
00011100
>
00000000
01101100
00011110
00101110
01111010
01111110
00111100
00011110
DLG SPR_19
POS 2 12,5

SPR 23
10011001
01011010
01111110
00100100
00111100
00100100
00100100
00100100
>
00000000
10011001
01011010
01111110
00100100
00111100
01000010
00100100
POS b 6,2

SPR 24
00000000
00000000
01110000
11011111
11110101
11111111
01010000
01010000
>
00000000
01110000
11011111
11110101
11110000
01111111
01010000
01010000
POS b 13,4

SPR 25
00000000
00000000
00011100
10110111
11111110
11111111
10010100
00010100
>
00000000
00011100
10110111
11111111
11111110
10010100
00010100
00010100
POS b 13,10

SPR 26
00000000
00111000
00101110
00111000
10111000
11111000
00101000
00101000
>
00111000
00101110
00111000
10111000
11111000
00101100
00100000
00000000
POS b 13,14

SPR 27
00011000
00011000
10100100
11111111
00011001
00111100
00100100
00100100
>
00000000
00011000
00011000
00100101
11111111
10011000
00111100
01100110
POS b 14,6

SPR 28
00000000
00100100
00011000
00100100
11100111
00011000
00111100
00100100
>
00100100
00011000
00100100
00100100
01011010
10111101
00100100
00100100
POS b 13,12

SPR 29
00011100
00111110
00011100
01110100
01111100
00011100
00010100
00010100
>
00111110
00011100
01110100
00011100
01111100
00010110
00010000
00000000
POS b 14,8

SPR f
00000000
00111000
00101110
00111000
10111000
11111000
00101000
00101000
>
00111000
00101110
00111000
10111000
11111000
00101100
00100000
00000000
NAME Pep Mahstehp
DLG SPR_w
POS 3 1,7

SPR g
00011000
00011000
10100100
11111111
00011001
00111100
00100100
00100100
>
00000000
00011000
00011000
00100101
11111111
10011000
00111100
01100110
NAME Tobo
DLG SPR_0
POS 1 8,11

SPR A
00000000
00111100
01111110
01011010
01111110
00100100
00100100
00100100
>
00000000
00000000
00111100
01111110
01011010
01111110
00100100
01000010
POS 0 11,14

SPR a
10011001
01011010
01111110
00100100
00111100
00100100
00100100
00100100
>
00000000
10011001
01011010
01111110
00100100
00111100
01000010
00100100
NAME Hypeman
POS 1 7,2

SPR b
00111000
01111100
01101010
01111100
00101000
00101000
00101000
01101100
>
00111000
01111100
01101010
01111100
00101000
00101000
01101000
00001100
NAME Tip Tap
DLG SPR_4
POS 1 3,3

SPR c
00000000
00000000
01110000
11011111
11110101
11111111
01010000
01010000
>
00000000
01110000
11011111
11110101
11110000
01111111
01010000
01010000
NAME Bits
DLG SPR_11
POS 8 2,13

SPR d
00000000
00000000
00011100
10110111
11111110
11111111
10010100
00010100
>
00000000
00011100
10110111
11111111
11111110
10010100
00010100
00010100
NAME Finny Minster
DLG SPR_10
POS 4 8,11

SPR i
00000000
00000000
00000000
00000000
00000000
00000000
00000000
00000000
>
00000000
00000000
00000000
00000000
00000000
00000000
00000000
00011100
NAME Hat Top
POS 2 12,9

SPR j
00000000
00100100
00011000
00100100
11100111
00011000
00111100
00100100
>
00100100
00011000
00100100
00100100
01011010
10111101
00100100
00100100
NAME Snuzzah
DLG SPR_m
POS 5 5,4

SPR k
00000000
00000000
00111100
01111110
00100100
00100100
00100100
00111100
>
00000000
00111100
01111110
00000000
00100100
00100100
00100100
00111100
NAME Garbagecca
DLG SPR_3
POS 1 14,2

SPR l
00000000
00111100
01111110
01011010
01111110
00111100
00100100
00011000
>
00000000
00111100
01111110
01011010
01111110
00111100
00011000
00000000
NAME Bouncer
DLG SPR_2
POS 0 13,7

SPR m
00011100
00111110
00011100
01110100
01111100
00011100
00010100
00010100
>
00111110
00011100
01110100
00011100
01111100
00010110
00010000
00000000
NAME Bungalow
DLG SPR_z
POS 2 12,10

SPR n
00000000
00000000
00011000
00111100
00100100
01111110
00111100
00111100
>
00000000
00011000
00111100
00100100
01111110
00111100
00111100
00111100
NAME Meerp
DLG SPR_1
POS 1 5,13

SPR o
00000000
00010100
00010100
00011100
00110100
11111100
11110000
11100000
>
10100000
10100000
11100000
10100000
11100000
11100000
11100000
11100000
DLG SPR_5
POS 1 13,11

SPR p
10011001
01111110
01100110
01011010
11011011
01100110
01111110
10011001
>
10011001
01111110
01111110
01011010
11011011
01111110
01111110
10011001
DLG SPR_6
POS 0 2,9

SPR q
00000000
00000000
01011000
00111000
00011110
01011000
00111100
00000100
>
00000000
00000000
00011010
00011100
01111000
00011010
00111100
00100000
DLG SPR_7
POS 0 12,3

SPR r
01011010
00111100
00100100
00011000
00111100
00011000
00011000
00100100
>
00000000
01011010
00111100
00100100
00011000
00111100
00011000
00100100
DLG SPR_8
POS 6 13,8

SPR s
00100100
00111100
00011000
00000000
00011000
00011000
00011000
00100100
>
00000000
00000000
00100100
00111100
00011000
00011000
00011000
00100100
DLG SPR_9
POS 6 12,8

SPR t
00000000
00101000
00101000
00111000
00111100
00111100
00011110
00011111
>
00000000
10100000
10100000
11100000
11100000
11110000
01111000
00111100
DLG SPR_a
POS 6 4,8

SPR u
00011000
00111100
01111110
00011000
01111100
00011100
00011000
00011000
>
00011000
00111100
01111110
00011000
00111100
00111100
00011000
00011000
DLG SPR_b
POS 7 2,5

SPR v
00011010
00011000
10111100
00011001
00111100
01011010
00111100
00011000
>
01011001
00011000
00111101
00011000
00111100
01011010
00111100
00011000
DLG SPR_c
POS 7 12,4

SPR w
00000000
00001110
00001010
00111010
01111110
11111110
01100110
01100110
>
00000000
00000111
00000101
00011101
00111111
01111111
00110011
00110011
DLG SPR_d
POS 7 6,10

SPR x
00011100
01111110
00111110
00101010
00111110
00111110
00111110
00111110
>
00000000
00011100
01111110
00111110
00101010
01111111
01111111
00111110
POS a 6,3

SPR y
NaNNaNNaNNaNNaNNaNNaNNaN
00000000
00000000
00111000
01111110
01111100
11010110
11111110
>
00000000
00000000
00111000
01111110
01111100
01010100
01111100
01111100
POS a 8,3

SPR z
01101100
00011110
00101110
01111010
01111110
00111100
00001100
00011100
>
00000000
01101100
00011110
00101110
01111010
01111110
00111100
00011110
POS a 10,3

SPR 1a
00000000
00011000
01111100
00111000
00011100
00011000
00011100
00011000
POS 5 15,5

SPR 1b
11111110
11111110
11111110
11101110
11111110
11000000
11111110
00000000
>
00000000
11111110
11111110
11111110
11101110
11111110
11111110
00000000
DLG SPR_n
POS 5 4,8

SPR 1c
00000000
00110001
00011011
00001111
00011111
00110011
00000001
00000000
>
00010000
00011011
00001111
00001111
00011011
00010001
00000000
00000000
POS 5 3,8

SPR 1d
00000000
00000000
00000000
00011000
00101100
01111100
00111100
00111100
>
00000000
00000000
00000000
00011000
00110100
00111110
00111100
00111100
DLG SPR_o
POS 5 11,8

SPR 1e
00000000
00100100
01011010
00000000
00011000
00111100
00111100
00111100
>
00000000
00000000
00100100
01011010
00011000
00111100
00111100
00111100
DLG SPR_p
POS 5 4,12

SPR 1f
00000000
00000000
00000100
00001011
10011111
11111100
01111000
00011000
>
00000000
00000100
00001011
00001111
01011100
01111100
00111100
00011000
DLG SPR_q
POS 5 14,14

SPR 1g
00000000
00000000
00000000
00000000
00000000
00000111
00101111
01111111
>
00000000
10000000
00000000
01000000
00000000
10000000
00101111
01111111
DLG SPR_r
POS 5 11,4

SPR 1h
00000000
00000000
00000000
00000000
00000000
11000110
11100100
11111100
>
00000000
00000000
00000000
00000000
00000000
00001100
11100100
11111100
POS 5 12,4

SPR 1i
00000000
00100100
00010010
00100100
00000010
00011000
00111100
01111110
>
01000010
00100001
01000010
00100001
00000010
00011000
00111100
01111110
DLG SPR_s
POS 6 2,11

SPR 1j
00000000
00000000
00001000
01101110
01101100
01101100
00111100
00011110
>
00000000
00000000
00001000
00001110
00001100
11101100
11111100
00011110
DLG SPR_t
POS 3 2,14

SPR 1k
00000000
00000000
00000000
00000000
00111100
00111100
00111100
00111100
DLG SPR_u
POS 3 13,4

SPR 1l
00000000
00000000
00000000
01011000
01111100
01011000
00010100
00010010
>
00000000
00000000
00000000
01011000
01111100
01011000
00101000
01001000
DLG SPR_v
POS 4 4,4

SPR 1m
00000000
00000001
01011010
10111100
00011000
00111111
01011000
10100100
>
00000000
10000000
01011010
00111101
00011000
11111100
00011010
00100101
DLG SPR_x
POS 2 14,10

SPR 1n
00000000
00000000
00111000
01111100
00101000
00101000
00101000
00111000
>
00000000
10000010
00111000
01111101
00101000
00101010
10111000
00111001
DLG SPR_y
POS 2 2,2

SPR 1o
00000000
00000000
00011010
00011010
00111100
01011000
00011000
00101000
>
00000000
00000000
00011000
00011000
00111110
01011000
00011000
00101000
DLG SPR_12
POS 3 10,12

SPR 1p
00010000
00000000
00000000
00000000
00000000
00000000
00000000
00000000
>
00000000
00000000
00000000
00000000
00000000
00000000
00000000
00000000
POS 3 11,12

SPR 1q
00000000
00000000
00110000
10110000
01111000
00110100
00110000
00110000
>
00000101
00100000
00001011
01000111
00001110
00111101
00001000
00001000
DLG SPR_13
POS 3 12,12

SPR 1r
00000000
00000000
00001110
00111010
01111100
00011100
00001100
00001100
>
00000000
00000000
00001110
00111010
01111100
00001100
00011100
00001100
DLG SPR_14
POS 4 1,10

SPR 1s
00001100
00011110
00111111
00111111
00111111
00011111
00011111
00001111
POS 4 1,11

SPR 1t
00001010
00001010
00001010
00001010
00001010
00001010
00011011
00000000
POS 4 1,12

SPR 1u
00000000
00000000
00000000
10000000
11100000
11111000
11110000
11000000
POS 4 2,11

SPR 1v
00000000
00000000
00100100
00011000
00011000
00100100
00000000
00000000
>
00000001
00000010
00100101
00011010
00011001
00100100
00000000
00000000
DLG SPR_15
POS 4 10,8

SPR 1w
00000000
00001000
00010010
01001010
01000110
00100100
00111100
00100010
>
00000000
00011000
00010000
01101001
01010111
01100100
00111100
00100010
DLG SPR_16
POS 4 13,10

SPR 1x
00000000
01001010
01010010
01001010
01111110
01111010
01111010
01111110
>
00000000
01010010
01001010
01010010
01111110
01111010
01111010
01111110
DLG SPR_18
POS 2 10,5

SPR 1y
00000000
00100100
00010000
00111100
00100110
00100101
00100110
00111100
>
00100100
00001000
00000000
00111100
00100110
00100101
00100110
00111100
DLG SPR_17
POS 2 6,11

SPR 1z
00000000
00000000
00111100
00110000
00111100
00110000
00110000
00110000
>
00000000
00000000
00111100
00111100
00110000
00110000
00110000
00110000
DLG SPR_1a
POS 2 5,9

SPR 2a
00000000
00000000
00000000
00000000
00000000
00000000
00000000
00000000
>
00000000
00000000
00000000
00000000
00000000
00000000
00000000
00011100
POS b 14,7

SPR 2b
00000000
00111100
01111110
01011010
01111110
00111100
00100100
00011000
>
00000000
00111100
01111110
01011010
01111110
00111100
00011000
00000000
DLG SPR_1b
POS 1 14,13

SPR 2c
00011100
01111110
00111110
00101010
00111110
00111110
00111110
00111110
>
00000000
00011100
01111110
00111110
00101010
01111111
01111111
00111110
POS b 7,2

SPR 2d
NaNNaNNaNNaNNaNNaNNaNNaN
00000000
00000000
00111000
01111110
01111100
11010110
11111110
>
00000000
00000000
00111000
01111110
01111100
01010100
01111100
01111100
POS b 8,2

SPR 2e
01101100
00011110
00101110
01111010
01111110
00111100
00001100
00011100
>
00000000
01101100
00011110
00101110
01111010
01111110
00111100
00011110
POS b 9,2

SPR 2f
00000000
00111100
01111110
01011010
01111110
00111100
00100100
00011000
>
00000000
00111100
01111110
01011010
01111110
00111100
00011000
00000000

SPR 2g
00000000
00011100
00101010
00111110
00110110
00110110
01110110
11111110
>
00000000
00011100
00101010
00111110
00110110
00110110
11111110
11111110
POS 5 8,2

SPR 2h
00000000
00000111
00000111
00000010
00000010
00000011
00000011
00000011
>
00000000
00000000
00000000
00000000
00000000
00110000
00111111
00110011
POS 5 7,2

ITM 0
00000000
00000111
00000000
00111100
00111100
00100100
00100100
00111100
>
00001000
00000000
00101000
00000111
00111100
01111110
01000010
00111100
NAME Drum
DLG ITM_0

ITM 1
00000000
00000000
00100100
11111100
01010100
00100000
00000000
00000000
>
00000000
00000000
00000001
11111111
01010001
00100000
00000000
00000000
NAME Trumpet
DLG ITM_1

ITM 2
10110001
00110100
00110000
00010000
01010010
00010000
00010000
00111000
>
00110000
00110000
00110000
00010000
00010000
00010000
00010000
00111000
NAME Microphone

ITM 3
00010000
00010000
00010000
00111000
01111100
01101100
00101000
00111000
>
00000000
00010100
01010000
00010010
00111000
01111100
01101101
00101000
NAME Bass Top
DLG ITM_4

ITM 4
00111010
01111100
01111101
00111000
00010000
00000000
00000000
00000000
>
01111100
01111100
00111000
00010000
00000000
00000000
00000000
00000000
NAME Bass Bottom
DLG ITM_3

ITM 5
00000000
00000000
00000000
11111111
11111111
00011000
00100100
01000010
>
00000100
00100001
10001000
00000000
11111111
11111111
00011000
01100110
NAME Keyboard
DLG ITM_2

ITM 6
00000000
01100000
00100000
00111100
00111000
00111000
00011000
00000000
>
00001000
00000100
01101000
00100000
00111100
00111000
00111000
00011000
NAME Saxophone
DLG ITM_5

ITM 7
00000000
00000000
00000000
11111111
11111111
00011000
00100100
01000010
>
00000100
00100001
10001000
00000000
11111111
11111111
00011000
01100110

ITM 8
00000000
01100000
00100000
00111100
00111000
00111000
00011000
00000000
>
00001000
00000100
01101000
00100000
00111100
00111000
00111000
00011000

ITM 9
00000000
00000000
00100100
11111100
01010100
00100000
00000000
00000000
>
00000000
00000000
00000001
11111111
01010001
00100000
00000000
00000000

ITM a
10110001
00110100
00110000
00010000
01010010
00010000
00010000
00111000
>
00110000
00110000
00110000
00010000
00010000
00010000
00010000
00111000

ITM b
00010000
00010000
00010000
00111000
01111100
01101100
00101000
00111000
>
00000000
00010100
01010000
00010010
00111000
01111100
01101101
00101000

ITM c
00111010
01111100
01111101
00111000
00010000
00000000
00000000
00000000
>
01111100
01111100
00111000
00010000
00000000
00000000
00000000
00000000

ITM d
00000000
00000111
00000000
00111100
00111100
00100100
00100100
00111100
>
00001000
00000000
00101000
00000111
00111100
01111110
01000010
00111100

DLG ITM_0
BOMP. Have you seen my boy? We got separated while clubbing.

DLG ITM_1
HONK. THE TRUUUUMPET

DLG SPR_0
"""
{wvy}Beep Boop Tis I TOBO. Set to: Friendly. Ready to play. {wvy}{
  - {item "0"} == 1 ?
    {sequence
      - {rbw}DRUM. LET'S PLAY! I GO! SEE SOON!{rbw}
    }
  - else ?
    {sequence
      - {shk}But no DRUM. Please come back when you find him. I miss Drum.{shk}
    }
}
"""

DLG SPR_1
I'm not a trash can! He's up in the corner, though. Don't put anything in him, makes him mad...

DLG SPR_2
Yo! You're that one manager, right? What was it... Pal? Yeah? Want to manage my band? Oh, you're getting yours back together instead? I did like Finny and the Mints. It's been a while, hasn't it? Well, good luck. Welcome to Unce In a Lifetime!

DLG SPR_3
{shk}If you throw anything away in me I will eat you!{shk} Let me party in peace.

DLG SPR_4
I heard that guy on the dance floor used to destroy the drums. I can't play anything, so I just tap my foot along to the beat. Oh well

DLG SPR_5
This is the hottest place in town! Literally! I am so sweaty right now!

DLG SPR_6
Despite being mostly eyeball, it's so dark even I can't see! The lights in that club probably didn't help...

DLG SPR_7
I can't stop dancing. It's addicting! {rbw}Unce unce unce!{rbw}

DLG SPR_8
I'm gonna drink coffee at night and no one can stop me!

DLG SPR_9
She's only here to see Bungalow. He's got the silkiest voice around. I come here every night just to hear him!

DLG SPR_a
I may be slow, but I'll get to the park eventually.{shk}EVENTUALLY{shk}

DLG SPR_b
Woah there, partner. I'd be careful of this here sewer grate. I keep hearing some kind of growling. Or it might be sobbing. Maybe I should call the police?

DLG SPR_c
I told him he didn't have to guard that grate but he just won't leave. He doesn't believe I'm the police, even though I'm here guarding the courthouse. Sigh. Can't win em' all I suppose.

DLG SPR_d
{shk}BEEP HONK GET OUT OF THE WAY I AM A CAR NOW AND I MUST GO I JUST GOT NEW SHOES WAHOOOOO{shk}

DLG SPR_e
Do you sell oil here? I'm kinda lost and need to find my way home.

DLG SPR_f
HOT SOUP DELIVERY

DLG SPR_g
I would like to put some fries in my giant mouth and eat them please.

DLG SPR_h
I just want to see my family again.

DLG SPR_i
I was having lunch with this trumpet, but it doesn't seem too talkative. You look like you could use a trumpet, so I guess you can take it.

DLG SPR_j
I can't reach the table...

DLG SPR_k
Oooo hoooo hoooo this place is pretty empty nowadays. Town's not bustling like it used to.

DLG SPR_l
I think that guy could use some help. He keeps making mournful honking noises. No one knows what it means.

DLG SPR_m
"""
Order in the count! Wait, that can't be right. The judge lost his voice and now I have to read all of his notes out loud. The man's handwriting is atrocious. On top of that I have to keep track of what everyone else is saying. I hate this job... Wait, don't I know you? Oh my gosh, Pal! This is wild. Snuzzah and Pal, back together!{
  - {item "Keyboard"} == 1 ?
    I was just thinking about you and the band. I know we broke up, but I really miss my keyboard. Wait. You have it! And you're getting the band back together for a last ditch concert? Count me in! I can't stand another day stuffed in here. I'll meet you at the venue! Yes, I do know where it is already. I saw your posters.
  - else ?
    I was just thinking about you and the band. I know we broke up, but I really miss my keyboard. This typewriter just doesn't cut it. If I got it back, maybe we could play one more gig. I miss the old days playing together.
}
"""

DLG ITM_2
{wvy}Bink bonk keyboard noise{wvy}

DLG SPR_n
I don't even know why I'm here. I don't believe in the law.

DLG SPR_o
I can't find my client anywhere. Man, I should have just gone to the aquarium. Finny is so nice, and just the coolest. I heard they used to play bass. Kind of sad they ended up at an aquarium. Seriously he is so late where is this guy!

DLG SPR_p
I come to court because I find loopholes fascinating. Also, I have a trial. Because of how I exploit loopholes. {shk}AH don't tell anyone that oh I'm so screwed now.{shk}

DLG SPR_q
I'm hiding from my lawyer. Don't tell on me! I faint when I have to do public speaking. It's so embarrassing!

DLG SPR_r
Huh? Wuh? Um no, I wasn't sleeping on the job at all. So, uh, scram or whatever.

DLG SPR_s
Oh hey, I'm just a pile of trash. Not figuratively. I actually have good self esteem. I'm just alive and also a pile of trash. Anyways, have a nice night.

DLG ITM_3
{wvy}Strum beh dum{wvy}

DLG ITM_4
{wvy}Bum strum dum{wvy}

DLG ITM_5
{wvy}smooth jazz{wvy}

DLG SPR_t
I LIVE HERE IN THIS PARK!!

DLG SPR_u
I know I'm a box. Look, sometimes you get tired and just want to be a box. You just end up a box. Time to accept it.

DLG SPR_v
I come here to visit my parents. They don't like to go out often.

DLG SPR_w
"""
{wvy}Hooonk, Hooooonk.{wvy} I can't go on without my trumpet. It's hard to see through my tears, but is that you, Pal?{
  - {item "Trumpet"} == 1 ?
    Oh my gosh, Pal, it is you! And you brought back my trumpet. Now I can finally go home. I guess I owe you one. Oh, I owe you one right now? I'm a bit rusty but I can try to play. They don't call me Pep Mahstep for nothing! It's my name. That's why they call me that. You know what. I'll head over to the venue now before I just keep going on. Thanks again!
  - else ?
    If it is, can you get me my trumpet? I've had it since we started the band. Ha, guess it's been a while since I've even played it. But it's all I have. I'll do anything. Please.
}
"""

DLG SPR_x
I can't actually play the keyboard. I just have a lot of arms so people assume I can. This isn't even mine. Honestly you can take it and relieve me of this burden.

DLG SPR_y
Please let me light your way. With all this new "electricity" no one wants to use an old gas lamp like me. No, I understand. You're a busy person. Best of luck on your travels.

DLG SPR_z
"""
Oh, hi Pal. Back so soon? I thought you were gone for good. It's me, Bungalow, remember.I mean obviously you do. I know. I'm pretty much a big shot now. Got a stage and everything. Yeh okay we also played on a stage. But this is different. Whatever! What do you want anyways?{
  - {item "Microphone"} == 1 ?
    Did, did you just pick up my microphone and hand it to me? Can you leave me alone. I mean, yeah I remember playing together. Being solo gets lonely, but at least I can handle myself. Man, I am really lonely... Fine! I'll play your stupid show. But don't think this makes us friends again!
  - else ?
    Look. I have a show to do. Can you get out of here. You're making things awkward... Be careful of my MICROPHONE IT'S EXPENSIVE!
}
"""

DLG SPR_10
"""
Yo Yo yoooo! Pal!? WHAT! It's me, Finny! Finny Minster! You're back in town? I thought with all that nastiness between you and Bungalow maybe you wouldn't come back... Not that I'm not glad to see you again! Surprised to see me here? Ever since I lost my trusty sax I had to get my money somehow. It's not too bad, pretty peaceful. But what I wouldn't give for a taste of the old life again...{
  - {item "Saxophone"} == 1 ?
    WHAT! IS THAT MY OLD TRUSTY SAX! I can't believe you came back into town and immediately made my life better! And you're setting up a reunion show? Wow, this is fantastic. I'm going to run there right now I'm so excited. Um, I'm sure no one will steal the fish so uh. Let's just go it's fine.
  - else ?
    Hey, if you ever find my saxophone, hit me up! I'd love to play together again. I know the others live around here too. Wouldn't it be crazy if we did a reunion show?
}
"""

DLG SPR_11
"""
{shk}Sobbing{shk} My Baasss. Myyy baaaasssss. I can't believe I dropped it down the drain. How does that even work. What am I going to do. Come on, Bits, you're so stupid! Think of something!{
  - {item "Bass Top"} == 1 ?
    Is that the smooth sound of a specialty upright bass made by the master Tokoshi himself? And is that my old friend Pal? What brings you to a sewer with my bass? A concert? You really think Bungalow will go for it? Well I'm in regardless! Better put this bass to use before I lose it again. Maybe I should get sticky notes.
  - else ?
    Unless you want to watch me cry you better scram! I have teeth and I am emotionally vulnerable. Don't talk to me unless you have my bass, whoever you are!
}
"""

DLG SPR_12
Use your arms! Your arms! {shk}NOT YOUR HEAD YOUR ARMS! SON, PLEASE!{shk}

DLG SPR_13
{shk}OW{shk}

DLG SPR_14
I could really go for some sushi right now. I wonder if maybe I could grab some while that guy's not looking...

DLG SPR_15
{wvy}Bweep, cleaning the glass. Making it spaaaaarkle!{wvy}

DLG SPR_16
Are you tired of having a form? I don't know what I am, but I do exist. Are we all just fish in a tank? I need to stop coming here to write poetry. I only leave more confused.

DLG SPR_17
A mug can appreciate a sultry voice too!

DLG SPR_18
I'm just hoping someone will pour coffee in my mouth so I don't have to try.

DLG SPR_19
See ya at home, bros! Good luck with the second job! The economy is in shambles!

DLG SPR_1a
I'm definitely not a sock puppet and I definitely understand whatever this man is trying to say with his music...

DLG SPR_1b
Did you find all of your friends? Would be pretty awkward if you walked in there and weren't ready to play! Do you need a reminder? There's Finny Minster, Bits, Pep Mahstep, Tobo, Snuzzah, and Bungalow. Once you've gotten your band back together, then you can come through here! Good luck!

END 0


END undefined
You got the band back together! Thank you! It's great to hear their music again. Thanks for playing! By: Ash Nieman and Austin Lutz

END undefinee


END undefinef
Thanks for Playing!

VAR a
42


