In the autumn of 1817, you land in London. You have 2000 rupees & a letter of introduction to Major H. Macleod in your pocket.

# BITSY VERSION 3.7

! ROOM_FORMAT 1

PAL 0
243,229,196
255,174,112
23,28,43

PAL 1
63,69,151
237,224,110
255,255,255

PAL 2
3,13,58
217,217,217
217,217,217

PAL 3
105,132,221
255,255,255
242,204,13

PAL 4
153,173,173
53,92,136
26,22,49

PAL 5
207,209,217
31,77,37
183,143,108

PAL 6
72,103,157
153,173,173
255,255,255

PAL 7
255,255,255
255,255,255
255,255,255

PAL 8
230,187,127
154,25,141
255,77,80

PAL 9
255,184,112
244,229,205
255,255,255

PAL a
255,255,255
255,255,255
255,255,255

ROOM 1
0,0,0,0,0,0,0,0,0,0,0,0,0,0,0,0
0,8a,8b,8c,8d,8e,8f,8g,8h,8i,8j,8k,8l,8m,0,0
0,0,0,0,0,0,8n,8p,8r,0,0,0,0,0,0,0
0,0,0,0,5e,0,8o,8q,8s,0,0,0,5f,0,0,4n
0,0,0,0,0,0,0,0,0,0,0,4q,0,0,0,0
0,11,0,0,0,0,0,0,0,j,0,0,0,0,0,0
0,0,0,0,7p,0,0,7f,n,0,0,0,0,0,0,0
0,0,0,6q,7o,0,70,6u,7j,0,0,0,0,0,0,0
0,0,0,6r,6t,70,0,6v,7i,73,72,0,0,0,0,0
0,0,6q,0,6u,6s,0,0,75,0,6u,0,0,0,0,0
0,0,6r,0,6v,6o,0,0,7g,76,71,7e,0,0,0,0
0,6w,6x,6y,7m,5e,6y,6z,7h,0,76,7d,w,w,w,w
0,6p,77,78,7n,79,78,7a,7b,7c,0,r,0,r,0,0
0,6o,0,0,0,0,0,0,0,6r,g,q,q,q,q,q
6b,6b,6b,6b,6b,6b,6b,6b,6b,6b,j,0,0,0,0,0
6b,6b,6b,6b,6b,6b,6b,6b,6b,6b,j,0,0,0,0,0
WAL 4e,q,w,7d,41,c6,67,c7,6b,az,b0,b1,3w,4w,c5,60,3d,1s,1x,20,21,26,2b,2f,9e
EXT 15,12 2 0,13
PAL 4

ROOM 2
0,0,0,0,11,0,0,0,0,0,0,0,0,4o,0,0
0,0,4l,0,0,0,0,0,7s,6z,7q,7r,0,4p,0,0
3r,3q,3r,3q,3r,3q,3r,3q,3h,7w,7v,n,0,0,0,0
3j,3k,3j,3k,3j,3k,3j,3k,j,7t,7u,n,l,l,l,l
0,7w,7v,0,0,7w,7v,0,0,7w,7v,0,t,0,0,0
0,7t,7u,0,0,7t,7u,0,0,7t,7u,0,t,u,0,u
0,84,85,0,0,0,0,0,0,84,85,0,t,0,0,0
w,80,81,w,0,80,81,w,w,80,81,w,t,u,0,u
0,83,82,0,0,83,82,w,0,83,82,w,t,0,6c,6d
l,l,l,l,l,l,l,l,l,l,l,l,13,u,0,u
0,0,0,0,0,0,0,0,0,0,0,w,t,w,0,0
w,67,41,w,w,67,41,w,w,67,41,w,c7,u,w,g
0,j,n,0,0,j,n,0,0,j,n,0,t,0,0,j
c4,c4,c4,c4,c4,c4,c4,c4,c4,c4,c4,c4,c4,c4,c4,c4
0,0,0,0,0,0,0,0,0,0,0,0,0,0,0,0
0,0,0,0,0,0,0,0,0,0,0,0,0,0,0,0
WAL s,g,m,k,w,u,13,14,4e,q,41,c6,67,c7,7d,6b,az,b0,b1,3w,4w,c5,60,3d,1s,1x,20,21,26,2b,2f,9e
EXT 15,12 3 0,12
PAL 4

ROOM 3
0,0,0,0,0,0,0,0,11,0,0,0,0,0,0,0
0,0,0,0,0,0,0,0,0,0,0,0,0,0,0,0
0,0,0,0,0,0,0,0,0,0,0,0,0,0,0,0
l,l,l,l,0,0,0,0,0,9a,8x,8x,8x,8y,0,0
0,0,0,x,0,0,0,0,0,9b,q,41,l,j,0,0
v,0,v,x,0,0,0,0,0,9c,0,n,97,j,0,0
0,0,0,x,8x,8x,91,0,0,0,0,95,q,6s,0,0
v,0,v,x,67,q,90,0,0,0,0,94,0,96,0,0
6e,6f,0,x,0,0,8z,0,0,0,0,93,0,6u,0,0
v,0,v,x,0,0,0,0,0,0,0,92,0,6v,0,0
0,0,0,x,q,q,q,q,q,q,q,q,q,q,q,q
m,w,v,c5,w,67,41,w,67,41,w,67,41,w,67,41
n,0,0,x,0,j,n,0,j,n,0,j,n,0,j,n
c4,c4,c4,c4,c4,c4,c4,c4,c4,c4,c4,c4,c4,c4,c4,c4
0,0,0,0,0,0,0,0,0,0,0,0,0,9e,0,0
0,0,0,0,0,0,0,0,0,0,0,0,9d,9d,0,0
WAL 4e,9e,q,41,w,m,v,c5,c6,67,c7,7d,6b,az,b0,b1,3w,4w,60,3d,1s,1x,20,21,26,2b,2f
EXT 13,15 1o 6,6
PAL 4

ROOM 4
0,0,0,0,0,0,0,0,0,0,0,0,0,0,0,0
5f,0,0,3t,0,0,0,0,0,0,0,11,0,0,0,0
0,0,0,3s,0,0,0,4n,0,0,0,0,0,0,0,0
3q,3r,3q,3n,0,0,0,0,0,0,0,4q,0,0,0,0
3k,3j,3k,3m,0,0,0,0,0,0,0,0,0,0,0,0
3w,0,3w,3o,0,0,0,0,0,0,31,31,31,31,31,31
3v,2k,3v,3u,0,0,0,0,0,0,3h,0,0,0,0,0
3z,0,3z,3o,78,79,78,79,78,78,3h,3e,0,3e,0,3e
3y,0,3y,3o,9j,0,9j,0,9j,9j,3h,3d,0,3d,0,3d
40,2k,40,3u,0,9j,0,9j,0,0,33,2k,2k,2k,2k,2k
0,0,3z,3o,0,0,9j,0,0,9j,3g,36,35,36,35,36
41,0,3y,3o,9j,0,0,9g,9h,9j,2i,37,c6,37,c6,37
42,2k,40,3p,l,2k,2k,47,9d,2k,3g,35,35,35,35,35
0,0,0,0,0,0,0,0,43,44,0,0,0,0,0,0
0,0,0,0,0,0,0,0,0,0,45,0,0,0,0,0
0,0,0,0,0,0,0,0,0,0,0,0,0,46,0,0
WAL 4e,q,41,9j,9g,9h,3y,3o,37,c6,67,w,c7,7d,6b,az,b0,b1,3w,4w,c5,60,3d,1s,1x,20,21,26,2b,2f,2i,9e
EXT 15,13 5 0,13
EXT 15,14 5 0,14
EXT 15,15 5 0,15
PAL 0

ROOM 5
0,0,0,0,0,0,0,0,0,0,0,0,0,0,0,0
0,0,0,0,0,0,0,0,0,0,0,0,0,0,0,0
0,0,0,0,0,0,0,0,0,0,0,0,0,11,0,0
0,0,0,0,0,0,0,0,2u,2x,2y,0,0,0,0,0
0,0,0,0,0,0,2u,2v,2w,0,2s,2r,2q,0,0,0
31,31,31,31,31,2j,2t,2k,2k,2k,2k,2k,2p,2o,2l,31
0,0,0,0,0,38,39,39,39,39,39,39,39,39,3a,0
0,3e,0,3e,0,1t,1u,1v,1y,1z,24,25,2a,2g,2h,3e
0,3d,0,3d,0,1s,0,1x,20,21,26,29,2b,2f,19,3d
2k,2k,2k,2k,2k,3c,0,1x,20,21,26,29,2b,2f,33,2k
35,36,35,36,35,3b,0,1x,20,21,26,29,2b,2f,2i,36
c6,37,c6,37,c6,3b,w,1x,20,21,26,29,2b,2f,c6,37
35,35,35,35,35,1q,1r,1w,22,23,27,28,2c,2d,2e,35
0,0,0,0,0,0,0,0,0,0,0,0,0,0,0,0
0,0,0,0,0,0,0,0,0,0,0,0,0,0,0,0
0,0,0,0,0,0,0,0,0,0,0,0,0,0,0,0
WAL 4e,q,41,c6,37,2b,2f,29,26,21,20,1x,1s,3b,w,67,c7,7d,6b,az,b0,b1,3w,4w,c5,60,3d,9e
EXT 15,13 6 0,13
EXT 15,14 6 0,14
EXT 15,15 6 0,15
PAL 0

ROOM 6
0,0,0,0,0,0,0,0,0,0,0,0,0,0,0,0
0,0,0,0,0,0,0,0,0,0,0,0,0,0,0,0
0,0,0,0,0,0,0,0,0,0,0,0,0,0,0,0
0,0,0,0,0,0,0,0,0,0,0,0,0,0,0,0
0,0,0,0,0,0,0,0,0,0,0,0,0,0,0,0
31,31,31,31,31,31,31,31,31,0,0,0,0,0,0,0
0,0,0,0,0,0,0,0,29,0,0,0,0,0,11,0
0,3e,0,3e,0,3e,0,3e,29,0,0,0,0,0,0,0
0,3d,0,3d,0,3d,0,3d,29,78,79,79,78,79,78,78
2k,2k,2k,2k,2k,l,l,l,16,9j,0,9j,9j,0,0,9j
35,36,35,36,35,36,35,36,9k,0,9j,9j,0,9j,9j,0
c6,37,c6,37,c6,37,c6,37,9k,9j,9j,0,0,0,9j,9j
35,35,35,35,35,35,35,35,9k,l,l,l,9m,9n,9p,l
0,0,0,0,0,0,0,0,0,0,0,0,9l,9o,9q,0
0,0,0,0,0,0,0,0,0,0,0,0,9d,0,9d,0
0,0,0,0,0,0,0,0,0,0,0,0,0,0,0,0
WAL 4e,q,41,c6,37,9j,9l,9m,9o,9q,67,w,c7,7d,6b,az,b0,b1,3w,4w,c5,60,3d,1s,1x,20,21,26,2b,2f,9k,9e
EXT 12,11 1f 6,6
PAL 0

ROOM 7
0,0,0,0,0,0,0,0,0,0,0,0,0,0,0,0
0,0,0,0,0,0,0,0,0,0,0,0,0,0,0,0
0,0,0,0,0,0,0,0,0,0,0,0,0,0,0,0
0,0,0,0,0,0,0,0,0,0,0,0,0,0,0,0
0,0,0,0,0,0,0,0,0,0,0,0,0,0,0,0
0,0,0,0,0,0,0,0,0,0,0,0,0,0,0,0
0,0,0,0,0,0,0,0,0,0,0,0,0,0,2u,2v
0,0,cl,5r,5q,5r,5q,5r,5q,5r,5q,5r,5q,cd,2t,l
0,0,ck,0,60,0,60,0,60,0,60,0,60,cm,39,39
0,0,ck,ci,60,ci,60,ci,60,ci,60,ci,60,1y,1z,24
0,0,ck,3w,60,3w,60,3w,60,3w,60,3w,60,20,21,26
w,w,ck,3d,60,3d,60,3d,60,3d,60,3d,60,20,21,26
0,0,cj,5z,61,5z,61,5z,61,5z,61,5z,61,22,23,27
0,0,0,0,0,0,0,0,0,0,0,0,0,0,0,0
0,0,0,0,0,0,0,0,0,0,0,0,0,0,0,0
0,0,0,0,0,0,0,0,0,0,0,0,0,0,0,0
WAL 4e,q,41,c6,5y,67,w,c7,7d,6b,az,b0,b1,3w,4w,c5,60,3d,ck,1s,1x,20,21,26,2b,2f,9e
EXT 15,13 8 0,13
EXT 15,14 8 0,14
EXT 15,15 8 0,15
PAL 5

ROOM 8
0,0,0,0,0,0,0,0,0,0,0,0,0,0,0,0
0,0,0,0,0,0,0,0,0,0,0,0,0,0,0,0
0,0,0,0,0,0,0,0,0,0,0,0,0,0,0,0
0,0,0,0,0,0,0,0,0,0,0,0,0,0,0,0
0,0,0,0,0,0,0,0,0,0,0,0,0,0,0,0
0,0,0,0,0,0,0,0,0,0,0,0,0,0,0,0
2r,2q,0,0,0,0,0,0,0,0,0,0,0,0,0,0
l,2p,ce,cf,5q,5r,5q,5r,5q,5r,5q,5r,5q,5r,5q,5r
39,39,39,3a,60,0,60,0,60,0,60,0,60,0,60,0
25,2a,2g,2h,60,3w,60,3w,60,3w,60,3w,60,3w,60,3w
29,2b,2f,19,60,3d,60,3d,60,3d,60,3d,60,3d,60,3d
29,2b,2f,19,60,w,60,w,60,w,60,w,60,w,60,w
28,2c,2d,5y,61,5z,61,5z,61,5z,61,5z,61,5z,61,5z
0,0,0,0,0,0,0,0,0,0,0,0,0,0,0,0
0,0,0,0,0,0,0,0,0,0,0,0,0,0,0,0
0,0,0,0,0,0,0,0,0,0,0,0,0,0,0,0
WAL 4e,q,41,c6,67,w,c7,7d,6b,az,b0,b1,3w,4w,c5,60,3d,1s,1x,20,21,26,2b,2f,29,19,9e
EXT 15,13 9 0,13
EXT 15,14 9 0,14
EXT 15,15 9 0,15
PAL 5

ROOM 9
0,0,0,0,0,0,0,0,0,0,0,0,0,0,0,0
0,0,0,0,0,0,0,0,0,cv,cw,0,0,0,0,0
0,0,0,0,0,0,0,0,cs,ct,cu,cr,0,0,0,0
0,0,0,0,0,0,0,0,co,0,0,cq,0,0,0,0
0,0,0,0,0,0,0,0,j,0,0,n,0,0,0,0
0,0,0,0,0,0,0,0,cp,ch,cg,n,0,0,0,0
0,0,0,0,0,0,2u,2v,2w,0,2s,2r,2q,0,0,0
5q,5r,5q,5r,5q,cd,2t,2k,2k,2k,2k,2k,2p,ce,cf,5q
60,0,60,0,60,38,39,39,39,39,39,39,39,39,3a,60
60,3w,60,3w,60,1t,1u,1v,1y,1z,24,25,2a,2g,2h,60
60,3d,60,3d,60,1s,0,1x,20,21,26,29,2b,2f,19,60
60,0,60,0,60,1s,w,1x,20,21,26,n,2b,2f,19,60
61,5z,61,5z,61,1q,1r,1w,22,23,27,28,2c,2d,5y,61
0,0,0,0,0,0,0,0,0,0,0,0,0,0,0,0
0,0,0,0,0,0,0,0,0,0,0,0,0,0,0,0
0,0,0,0,0,0,0,0,0,0,0,0,0,0,0,0
WAL 4e,q,41,c6,67,w,c7,7d,6b,az,b0,b1,3w,4w,c5,60,3d,1s,1x,20,21,26,2b,2f,n,19,9e
EXT 15,13 a 0,13
EXT 15,14 a 0,14
EXT 15,15 a 0,15
PAL 5

ROOM 10
0,0,0,0,0,0,0,0,0,0,0,0,0,0,0,0
0,0,0,0,0,0,0,0,0,0,0,0,0,0,0,0
0,0,0,0,0,0,0,0,0,0,0,0,0,0,0,0
0,0,0,0,0,0,0,0,0,0,0,0,0,0,0,0
0,4j,4n,4o,0,0,0,0,53,3r,3r,3r,3r,3r,3r,3r
0,4l,0,0,4q,4n,4m,4q,52,3j,3j,3j,3j,3j,3j,3j
4m,0,0,56,0,5e,4q,0,3o,0,4w,0,4w,0,4w,0
0,0,0,55,0,0,0,5f,3o,0,4x,0,4x,0,4x,0
5g,5g,49,54,4a,5g,5g,5g,5i,0,4t,4u,4v,4r,4s,0
58,58,59,5b,57,58,58,58,5h,0,4w,0,4w,0,4w,0
5j,0,5j,0,5j,0,5j,5j,3o,0,4x,0,4x,0,4x,0
5l,w,5l,3z,5l,w,5l,5l,3o,3w,3w,3w,w,4z,51,3w
5k,2k,5k,5m,5k,2k,5k,5k,3p,3v,3v,3v,2k,4y,50,3v
0,0,0,0,0,0,0,0,0,0,0,0,0,0,0,0
0,0,0,0,0,0,0,0,0,0,0,0,0,0,0,0
0,0,0,0,0,0,0,0,0,0,0,0,0,0,0,0
WAL 4e,q,41,c6,67,w,c7,7d,6b,az,b0,b1,3w,4w,4z,51,5l,3o,3z,c5,60,3d,1s,1x,20,21,26,2b,2f,9e
EXT 15,13 11 0,13
EXT 15,14 11 0,14
EXT 15,15 11 0,15
PAL 2

ROOM 11
0,0,0,0,0,0,0,0,0,0,0,0,0,0,0,0
0,0,0,0,0,0,0,0,0,0,0,0,0,0,0,0
0,0,0,0,0,0,0,0,0,0,0,0,0,0,0,0
0,0,0,0,0,0,0,0,0,0,0,0,0,0,0,0
0,0,0,0,0,0,0,0,0,0,0,0,0,0,0,0
0,0,0,0,0,0,0,0,0,0,0,4l,5f,4q,4n,4q
0,0,0,0,4n,4o,0,0,4n,4m,0,0,0,0,0,0
0,0,4l,4m,0,4p,4q,4l,0,0,0,0,0,0,0,0
4l,4m,0,0,0,4n,4m,0,0,0,0,0,0,0,0,0
0,0,0,0,0,0,0,0,0,0,0,0,0,0,0,0
4e,4e,4e,4e,4e,4e,4e,4e,4e,4e,4e,4e,4e,4e,4e,4e
4e,4e,4e,4e,4e,4e,4e,4e,4e,4e,4e,4e,4e,4e,4e,4e
4e,4e,4e,4e,4e,4e,4e,4e,4e,4e,4e,4e,4e,4e,4e,4e
0,0,0,0,0,0,0,0,0,0,0,0,0,0,0,0
0,0,0,0,0,0,0,0,0,0,0,0,0,0,0,0
0,0,0,0,0,0,0,0,0,0,0,0,0,0,0,0
WAL 4e,q,41,c6,67,w,c7,7d,6b,az,b0,b1,3w,4w,c5,60,3d,1s,1x,20,21,26,2b,2f,9e
EXT 15,13 12 0,13
EXT 15,14 12 0,14
EXT 15,15 12 0,15
PAL 2

ROOM 12
86,86,86,86,86,86,86,86,86,86,86,86,86,86,86,86
88,88,0,86,86,86,88,88,88,86,86,86,86,86,86,88
0,0,4j,88,86,88,0,0,0,0,4i,88,88,86,88,0
0,0,0,0,0,0,0,0,0,0,0,0,0,88,0,0
0,0,0,0,0,0,49,4a,0,0,0,0,0,0,0,0
0,0,0,0,0,49,1e,4b,4a,0,0,63,0,0,0,0
0,0,4n,4o,0,19,0,0,29,3r,3r,4k,0,0,0,0
4l,4m,0,4p,4q,19,0,4f,29,3j,3j,3j,0,0,0,0
0,0,0,0,0,19,0,0,29,0,0,29,0,0,4n,4o
0,0,0,0,0,19,0,4f,29,0,0,29,4l,4m,0,4p
4e,0,0,0,0,19,0,0,29,0,0,29,0,0,0,4e
4e,4e,4e,4e,0,19,0,4f,29,0,0,29,0,0,4e,4e
4e,4e,4e,4e,2k,15,4h,l,16,l,2k,16,4e,4e,4e,4e
0,0,0,0,0,0,0,0,0,0,0,0,0,0,0,0
0,0,0,0,0,0,0,0,0,0,0,0,0,0,0,0
0,0,0,0,0,0,0,0,0,0,0,0,0,0,0,0
WAL 4e,q,41,c6,67,w,c7,7d,6b,az,b0,b1,3w,4w,15,l,16,c5,60,3d,1s,1x,20,21,26,2b,2f,9e
EXT 0,13 14 15,13
EXT 0,14 14 15,14
EXT 0,15 14 15,15
PAL 2

ROOM 14
5o,5o,5o,5o,5o,5o,5o,5o,5o,5o,5o,5o,5o,5o,5o,5o
5o,5o,5o,5o,5o,5o,5o,5o,5o,5o,5o,5o,5o,5o,5o,5o
5o,5o,5o,5o,5o,5o,5o,5o,5o,5o,5o,5o,5o,5o,5o,5o
5o,5o,5o,5o,5o,5o,5o,86,86,86,86,86,86,86,86,86
86,86,86,86,86,86,86,86,86,86,88,88,88,88,88,88
88,88,88,88,88,88,88,88,0,0,0,4l,5f,4q,4n,4q
0,0,0,0,4n,4o,0,0,4n,4m,0,0,0,0,0,0
0,0,4l,4m,0,4p,4q,4l,0,0,0,0,0,0,0,0
4l,4m,0,0,0,4n,4m,0,0,0,0,0,0,0,0,0
0,0,0,0,0,0,0,0,0,0,0,0,0,0,0,0
4e,4e,4e,4e,4e,4e,4e,4e,4e,4e,4e,4e,4e,4e,4e,4e
4e,4e,4e,4e,4e,4e,4e,4e,4e,4e,4e,4e,4e,4e,4e,4e
4e,4e,4e,4e,4e,4e,4e,4e,4e,4e,4e,4e,4e,4e,4e,4e
8t,8t,8t,8t,8t,8t,8t,8t,8t,8t,8t,8t,8t,8t,8t,8t
8t,8t,8t,8t,8t,8t,8t,8t,8t,8t,8t,8t,8t,8t,8t,8t
8t,8t,8t,8t,8t,8t,8t,8t,8t,8t,8t,8t,8t,8t,8t,8t
WAL 4e,q,41,c6,67,w,c7,7d,6b,az,b0,b1,3w,4w,c5,60,3d,1s,1x,20,21,26,2b,2f,9e
EXT 0,13 15 15,13
EXT 0,14 15 15,14
EXT 0,15 15 15,15
PAL 2

ROOM 15
5o,5o,5o,5o,5o,5o,5o,5o,5o,5o,5o,5o,5o,5o,5o,5o
5o,5o,5o,5o,5o,5o,5o,5o,5o,5o,5o,5o,5o,5o,5o,5o
5o,5o,5o,5o,5o,5o,5o,5o,5o,5o,5o,5o,5o,5o,5o,5o
5o,5o,5o,5o,5o,5o,5o,5o,5o,5o,5o,5o,5o,5o,5o,5o
5o,5o,5o,5o,5o,5o,5o,5o,5o,5o,5o,5o,5o,5o,5o,5o
86,5o,5o,5o,5o,86,5o,5o,5o,5o,5o,5o,5o,5o,5o,86
86,5o,5o,5o,86,86,5o,86,86,5o,5o,86,5o,5o,86,86
86,86,5o,86,86,86,86,86,86,5o,86,86,86,5o,86,86
88,88,88,88,88,88,88,86,86,86,86,86,86,88,88,88
0,0,0,0,0,0,0,88,88,88,88,88,88,0,0,0
4e,4e,4e,4e,4e,4e,4e,4e,4e,4e,4e,4e,4e,4e,4e,4e
4e,4e,4e,4e,4e,4e,4e,4e,4e,4e,4e,4e,4e,4e,4e,4e
4e,4e,4e,4e,4e,4e,4e,4e,4e,4e,4e,4e,4e,4e,4e,4e
0,8u,8u,8u,8u,8u,8u,8u,8u,8u,8u,8u,8u,8u,8u,8u
8u,8u,8u,8u,8u,8u,8u,8u,8u,8u,8u,8u,8u,8u,8u,8u
8u,8u,8u,8u,8u,8u,8u,8u,8u,8u,8u,8u,8u,8u,8u,8u
WAL 4e,q,41,c6,67,w,c7,7d,6b,az,b0,b1,3w,4w,c5,60,3d,1s,1x,20,21,26,2b,2f,9e
EXT 0,13 16 15,13
EXT 0,14 16 15,14
EXT 0,15 16 15,15
PAL 2

ROOM 16
5o,5o,5o,5o,5o,5o,5o,5o,5o,5o,5o,5o,5o,5o,5o,5o
5o,5o,5o,5o,5o,5o,5o,5o,5o,5o,5o,5o,5o,5o,5o,5o
5o,5o,5o,5o,5o,5o,5o,5o,5o,5o,5o,5o,5o,5o,5o,5o
5o,5o,5o,5o,5o,5o,5o,5o,5o,5o,5o,5o,5o,5o,5o,5o
5o,5o,5o,5o,5o,5o,5o,5o,5o,5o,5o,5o,5o,5o,5o,5o
5o,5o,5o,5o,5o,5o,5o,5o,5o,5o,5o,5o,5o,5o,5o,5o
5o,5o,5o,5o,5o,5o,5o,5o,5o,5o,5o,5o,5o,5o,5o,5o
5o,5o,5o,5o,5o,5o,5o,5o,5o,5o,86,86,5o,5o,5o,5o
86,86,86,86,86,5o,86,5o,5o,5o,86,86,5o,5o,5o,5o
86,86,86,86,86,86,86,5o,5o,86,86,86,86,86,86,86
4e,4e,4e,4e,4e,4e,4e,4e,4e,4e,4e,4e,4e,4e,4e,4e
4e,4e,4e,4e,4e,4e,4e,4e,4e,4e,4e,4e,4e,4e,4e,4e
4e,4e,4e,4e,4e,4e,4e,4e,4e,4e,4e,4e,4e,4e,4e,4e
8v,8v,8v,8v,8v,8v,8v,8v,8v,8v,8v,8v,8v,8v,8v,8v
8v,8v,8v,8v,8v,8v,8v,8v,8v,8v,8v,8v,8v,8v,8v,8v
8v,8v,8v,8v,8v,8v,8v,8v,8v,8v,8v,8v,8v,8v,8v,8v
WAL 4e,q,41,c6,67,w,c7,7d,6b,az,b0,b1,3w,4w,c5,60,3d,1s,1x,20,21,26,2b,2f,9e
EXT 0,15 17 15,15
PAL 2

ROOM 17
5o,5o,5o,5o,5o,5o,5o,5o,5o,5o,5o,5o,5o,5o,5o,5o
5o,5o,5o,5o,5o,5o,5o,5o,5o,5o,5o,5o,5o,5o,5o,5o
5o,5o,5o,5o,5o,5o,5o,5o,5o,5o,5o,5o,5o,5o,5o,5o
5o,5o,5o,5o,5o,5o,5o,5o,5o,5o,5o,5o,5o,5o,5o,5o
5o,5o,5o,5o,5o,5o,5o,5o,5o,5o,5o,5o,5o,5o,5o,5o
5o,5o,5o,5o,5o,5o,5o,5o,5o,5o,5o,5o,5o,5o,5o,5o
5o,5o,5o,5o,5o,5o,5o,5o,5o,5o,5o,5o,5o,5o,5o,5o
5o,5o,5o,5o,5o,5o,5o,5o,5o,5o,5o,5o,5o,5o,5o,5o
5o,5o,5o,5o,5o,5o,5o,5o,5o,5o,5o,5o,5o,5o,5o,5o
5o,5o,5o,5o,5o,5o,5o,5o,5o,5o,5o,56,5o,5o,5o,5o
4e,4e,5o,5o,5o,5r,5q,5r,5q,5r,5r,5t,5o,5o,5o,4e
4e,4e,4e,4e,5o,j,5x,5w,5u,5v,5x,n,5o,4e,4e,4e
4e,4e,4e,4e,5o,33,5k,5p,5m,5s,5k,3i,5o,4e,4e,4e
0,62,62,62,62,62,62,62,62,62,62,62,62,62,62,62
0,62,62,62,62,62,62,62,62,62,62,62,62,62,62,62
0,62,62,62,62,62,62,62,62,62,62,62,62,62,62,62
WAL 4e,q,41,c6,67,w,c7,7d,6b,az,b0,b1,3w,4w,5o,5x,5u,5v,5w,n,j,c5,60,3d,1s,1x,20,21,26,2b,2f,9e
EXT 8,12 18 8,12
PAL 2

ROOM 18
0,0,0,0,0,0,0,0,0,0,0,0,0,0,0,0
0,0,0,0,0,0,0,0,0,0,0,0,0,0,0,0
0,0,0,0,0,0,0,0,0,0,0,0,0,0,0,0
0,0,0,0,0,0,0,0,0,0,0,0,0,0,0,0
0,0,0,0,0,0,0,0,0,0,0,0,4l,4q,4o,0
0,0,0,0,0,0,0,0,0,0,4n,4m,0,0,4p,4q
0,0,0,0,0,0,0,0,4n,4l,0,0,0,0,0,0
0,11,4l,4q,4n,4m,5f,4m,0,0,0,0,0,0,0,0
4n,4m,0,0,0,0,0,0,0,0,0,0,0,0,0,0
0,0,0,0,0,0,0,0,0,0,0,56,0,0,0,0
4e,4e,0,0,0,5r,5q,5r,5q,5r,5r,5t,0,0,0,4e
4e,4e,4e,4e,w,19,5x,5w,5u,5v,5x,n,w,4e,4e,4e
4e,4e,4e,4e,2k,33,5k,5p,5m,5s,5k,3i,2k,4e,4e,4e
62,62,62,62,62,62,62,62,62,62,62,62,62,62,62,62
62,62,62,62,62,62,62,62,62,62,62,62,62,62,62,62
62,62,62,62,62,62,62,62,62,62,62,62,62,62,62,62
WAL 4e,q,41,c6,67,w,c7,7d,6b,az,b0,b1,3w,4w,m,19,5u,5v,5w,5x,c5,60,3d,1s,1x,20,21,26,2b,2f,n,9e
EXT 0,13 19 15,13
EXT 0,14 19 15,14
EXT 0,15 19 15,15
PAL 3

ROOM 19
0,0,0,0,0,0,0,0,0,0,0,0,0,0,0,0
0,0,0,0,0,0,0,0,0,0,0,0,0,0,0,0
0,0,0,0,0,0,0,0,0,0,0,0,0,0,0,0
0,0,0,0,0,0,0,0,0,0,0,0,0,0,0,0
0,0,0,0,0,0,0,0,0,0,0,0,0,0,0,0
0,0,0,0,0,0,0,0,0,0,0,4l,5f,4q,4n,4q
0,0,0,0,4n,4o,0,0,4n,4m,0,0,0,0,0,0
0,0,4l,4m,0,4p,4q,4l,0,0,0,0,0,0,0,0
4l,4m,0,0,0,4n,4m,0,0,0,0,0,0,0,0,0
0,0,0,0,0,0,0,0,0,0,0,0,0,0,0,0
4e,4e,4e,4e,4e,4e,4e,4e,4e,4e,4e,4e,4e,4e,4e,4e
4e,4e,4e,4e,4e,4e,4e,4e,4e,4e,4e,4e,4e,4e,4e,4e
4e,4e,4e,4e,4e,4e,4e,4e,4e,4e,4e,4e,4e,4e,4e,4e
8v,8v,8v,8v,8v,8v,8v,8v,8v,8v,8v,8v,8v,8v,8v,8v
8v,8v,8v,8v,8v,8v,8v,8v,8v,8v,8v,8v,8v,8v,8v,8v
8v,8v,8v,8v,8v,8v,8v,8v,8v,8v,8v,8v,8v,8v,8v,8v
WAL 4e,q,41,c6,67,w,c7,7d,6b,az,b0,b1,3w,4w,c5,60,3d,1s,1x,20,21,26,2b,2f,9e
EXT 0,13 1a 15,13
EXT 0,14 1a 15,14
EXT 0,15 1a 15,15
PAL 3

ROOM c
0,0,0,0,0,0,0,4j,0,0,0,0,0,4o,0,0
0,0,4l,0,0,0,0,0,7s,6z,7q,7r,0,0,0,0
3r,3q,3r,3q,3r,3q,3r,3q,3h,7w,7v,n,0,0,0,0
3j,3k,3j,3k,3j,3k,3j,3k,j,7t,7u,n,l,l,l,l
0,7w,7v,0,0,7w,7v,0,0,7w,7v,0,t,0,0,0
0,7t,7u,0,0,7t,7u,0,0,7t,7u,0,t,u,0,u
0,84,85,0,0,0,0,0,0,84,85,0,t,0,0,0
w,80,81,w,0,80,81,w,w,80,81,w,t,u,0,u
0,83,82,0,0,83,82,w,0,83,82,w,t,0,6c,6d
l,l,l,l,l,l,l,l,l,l,l,l,13,u,0,u
0,0,0,0,0,0,0,0,0,0,0,0,t,0,0,0
w,67,41,w,w,67,41,w,w,67,41,w,c7,u,w,g
0,j,n,0,0,j,n,0,0,j,n,0,t,0,0,j
c4,c4,c4,c4,c4,c4,c4,c4,c4,c4,c4,c4,c4,c4,c4,c4
0,0,0,0,0,0,0,0,0,0,0,0,0,0,0,0
0,0,0,0,0,0,0,0,0,0,0,0,0,0,0,0
WAL s,g,m,k,w,u,13,14,4e,q,41,c6,67,c7,7d,6b,az,b0,b1,3w,4w,c5,60,3d,1s,1x,20,21,26,2b,2f,9e
EXT 0,13 d 15,12
EXT 0,14 d 15,12
EXT 0,15 d 15,12
PAL 2

ROOM b
0,0,0,0,0,0,0,0,0,0,0,0,0,0,0,0
0,0,0,0,4j,0,0,0,0,0,0,0,0,0,0,0
0,0,0,0,0,0,0,0,0,0,0,0,0,0,0,0
l,l,l,l,0,0,0,0,0,9a,8x,8x,8x,8y,0,0
0,0,0,x,0,0,0,0,0,9b,q,41,l,j,0,0
v,0,v,x,0,0,0,0,0,9c,0,n,97,j,0,0
0,0,0,x,8x,8x,91,0,0,0,0,95,q,6s,0,0
v,0,v,x,67,q,90,0,0,0,0,94,0,96,0,0
6e,6f,0,x,0,0,8z,0,0,0,0,93,0,6u,0,0
v,0,v,x,0,0,0,0,0,0,0,92,0,6v,0,0
0,0,0,x,q,q,q,q,q,q,q,q,q,q,q,q
m,w,v,c5,w,67,41,w,67,41,w,67,41,w,67,41
n,0,0,x,0,j,n,0,j,n,0,j,n,0,j,n
c4,c4,c4,c4,c4,c4,c4,c4,c4,c4,c4,c4,c4,c4,c4,c4
0,0,0,0,0,0,0,0,0,0,0,0,0,9e,0,0
0,0,0,0,0,0,0,0,0,0,0,0,0,9d,0,0
WAL 4e,9e,q,41,c6,67,w,v,m,c5,c7,7d,6b,az,b0,b1,3w,4w,60,3d,1s,1x,20,21,26,2b,2f
EXT 0,13 c 15,13
EXT 0,14 c 15,14
EXT 0,15 c 15,15
PAL 2

ROOM d
0,0,0,0,0,0,0,0,0,0,0,0,0,0,0,0
0,0,0,0,0,0,0,0,0,0,0,89,0,0,0,0
0,0,0,0,0,0,0,0,4n,4l,5f,4q,0,0,0,0
0,0,0,0,0,0,0,0,4q,0,0,0,0,0,0,0
0,0,0,0,0,0,0,0,0,5f,5f,4m,0,0,0,0
0,0,0,0,0,0,0,0,0,j,0,0,0,0,0,0
0,0,0,0,7p,0,0,7f,n,0,0,0,0,0,0,0
0,0,0,6q,7o,0,70,6u,7j,0,0,0,0,0,0,0
0,0,0,6r,6t,70,0,6v,7i,73,72,0,0,0,0,0
0,0,6q,0,6u,6s,0,0,75,0,6u,0,0,0,0,0
0,0,6r,0,6v,6o,0,0,7g,76,71,7e,0,0,0,0
0,6w,6x,6y,7m,5e,6y,6z,7h,0,76,7d,w,w,w,w
0,6p,77,78,7n,79,78,7a,7b,7c,0,r,0,r,0,0
0,6o,0,0,0,0,0,0,0,6r,g,q,q,q,q,q
6b,6b,6b,6b,6b,6b,6b,6b,6b,6b,j,0,0,0,0,0
6b,6b,6b,6b,6b,6b,6b,6b,6b,6b,j,0,0,0,0,0
WAL 4e,q,41,c6,67,w,c7,7d,6b,az,b0,b1,3w,4w,c5,60,3d,1s,1x,20,21,26,2b,2f,9e
EXT 10,12 1e 9,11
PAL 2

ROOM a
0,0,0,0,0,0,0,0,0,0,0,0,0,0,0,0
0,0,0,0,0,0,0,0,0,0,0,0,0,0,0,0
0,0,0,0,0,0,0,0,0,0,0,0,0,0,0,0
0,0,0,0,0,0,0,0,0,0,0,0,0,0,0,0
0,0,0,0,0,0,0,0,0,0,0,0,0,0,0,0
0,0,0,0,0,0,0,0,0,0,0,0,0,0,0,0
0,0,0,0,0,0,0,0,0,0,0,0,0,0,0,0
5q,5r,5q,5r,5q,5r,5q,5r,5q,5r,5q,5r,5q,5r,5q,5r
0,60,0,60,0,60,0,60,0,60,0,60,0,60,0,60
3w,60,3w,60,3w,60,3w,60,3w,60,3w,60,3w,60,3w,60
3d,60,3d,60,3d,60,3d,60,3d,60,3d,60,3d,60,3d,60
w,60,w,60,w,60,w,60,w,60,w,60,w,60,w,60
5z,61,5z,61,5z,61,5z,61,5z,61,5z,61,5z,61,5z,61
0,0,0,0,0,0,0,0,0,0,0,0,0,0,0,0
0,0,0,0,0,0,0,0,0,0,0,0,9e,0,0,0
0,0,0,0,0,0,0,0,0,0,0,0,9d,0,0,0
WAL 4e,q,41,c6,67,w,c7,7d,6b,az,b0,b1,3w,4w,c5,60,3d,1s,1x,20,21,26,2b,2f,9e
EXT 12,15 1p 6,6
PAL 5

ROOM f
l,l,l,0,0,0,0,0,0,0,0,0,0,0,0,0
ay,ar,ay,au,0,0,0,0,0,0,49,4a,0,0,55,0
ax,ar,ax,ar,au,0,0,0,0,49,1e,4b,4a,49,54,4a
0,0,0,0,x,0,0,0,0,3h,4w,0,4w,0,4w,0
2z,0,2z,0,x,0,49,4a,0,33,68,2k,68,2k,68,2k
0,0,0,0,x,49,1e,4b,4a,3h,4w,0,4w,0,4w,0
2z,0,2z,0,x,0,3e,3e,0,33,68,2k,68,2k,68,2k
0,0,0,0,x,0,3d,3d,0,3h,3z,0,3z,0,3z,0
2z,0,2z,0,x,0,0,0,0,33,3v,2k,3v,2k,3v,2k
0,0,0,0,x,0,3e,3e,0,3h,3z,0,3z,0,3z,0
2z,0,2z,0,x,0,3d,3d,0,33,3v,2k,3v,2k,3v,2k
w,w,w,w,c5,0,0,0,0,3h,0,0,0,0,0,0
0,0,0,0,x,w,3w,3w,w,3h,67,41,0,67,41,0
c4,c4,c4,c4,c4,33,3v,3v,2k,j,19,29,w,19,29,w
0,0,0,0,0,0,0,0,0,33,33,3i,2k,33,3i,2k
0,0,0,0,0,0,0,0,0,0,0,0,0,0,0,0
WAL 4e,q,41,c6,67,w,c7,7d,6b,c5,3w,az,b0,b1,4w,j,60,3d,1s,1x,20,21,26,2b,2f,9e
EXT 0,13 g 15,15
PAL 0

ROOM e
w,w,w,w,w,w,w,w,w,w,w,w,w,w,w,w
2z,0,0,0,0,0,0,0,0,r,0,0,r,0,0,0
q,q,q,q,bt,c4,c4,q,q,q,q,q,q,q,q,q
w,w,w,w,c9,ca,0,0,w,w,w,w,w,w,w,w
0,r,0,0,0,4b,4a,0,0,0,0,0,0,0,0,r
q,q,q,q,q,q,q,q,q,c4,c4,6g,q,q,q,q
w,w,w,w,w,w,w,w,0,0,cb,c8,w,w,w,w
0,0,0,0,r,0,0,0,0,49,1e,0,r,0,0,0
q,bt,c4,c4,q,q,q,q,q,q,q,q,q,q,q,q
w,c9,ca,0,0,w,w,w,w,w,w,w,0,0,w,0
0,0,r,4a,0,0,0,r,0,r,0,0,0,0,0,0
q,q,6n,6m,c4,6g,q,q,q,q,4a,0,0,0,0,0
0,0,6k,6l,cb,c8,0,0,0,0,4b,4a,0,0,0,0
6h,6i,6j,49,c8,0,0,0,0,0,0,4b,4a,0,0,0
6b,6b,6b,6b,6b,6b,6b,6b,6b,6b,6b,6b,6b,6b,6b,6b
6b,6b,6b,6b,6b,6b,6b,6b,6b,6b,6b,6b,6b,6b,6b,6b
WAL s,g,q,m,k,w,u,13,14,4e,41,c6,67,c7,7d,c8,c9,cb,ca,6b,az,b0,b1,3w,4w,c5,60,3d,1s,1x,20,21,26,2b,2f,9e
EXT 0,1 f 15,15
PAL 4

ROOM h
0,0,0,0,0,x,0,4l,0,0,0,0,0,0,0,0
0,0,4w,0,0,x,0,0,0,0,0,0,0,0,0,0
0,0,4x,0,0,x,0,0,0,11,0,0,0,0,0,0
0,0,0,0,0,x,0,0,0,4q,0,4n,0,0,0,0
0,0,4w,0,0,x,0,0,0,0,0,0,0,0,0,0
0,0,4x,0,0,x,0,0,0,0,0,0,0,0,0,0
0,0,0,0,0,x,0,0,0,0,0,0,0,4q,0,0
0,0,4w,0,0,x,2a,0,0,0,0,0,0,0,0,0
0,0,4x,0,0,x,2b,w,w,w,w,w,w,0,0,0
0,0,0,0,0,x,2c,0,0,0,0,w,0,0,0,0
0,0,0,0,0,0,q,q,q,4a,0,0,w,0,0,0
0,0,8w,0,0,0,67,q,41,l,4a,0,0,w,w,w
w,w,w,w,w,w,j,w,w,0,0,cn,l,l,l,l
l,l,l,l,l,l,3h,w,0,0,49,w,w,w,w,w
0,0,0,0,0,0,0,0,0,49,w,w,0,0,0,0
0,0,0,0,0,0,0,0,49,0,w,w,0,0,0,0
WAL 4e,q,41,c6,67,w,c7,7d,6b,az,b0,b1,3w,4w,c5,60,3d,1s,1x,20,21,26,2b,2f,j,9e
EXT 15,12 1l 0,13
PAL 0

ROOM 1a
0,0,0,0,0,0,0,0,11,0,0,0,0,0,0,0
0,0,0,0,0,0,0,0,0,0,0,0,0,0,0,0
0,0,0,0,0,0,0,0,0,0,0,0,0,0,0,0
0,0,0,0,4n,4o,0,0,0,0,0,0,0,0,0,0
0,0,4l,4m,0,4p,4q,0,0,0,0,0,0,0,0,0
4l,4m,0,0,0,0,0,5f,5f,5e,4q,0,0,4n,4o,0
0,0,0,0,0,0,0,0,0,0,0,5f,5f,0,4p,4q
0,0,0,0,0,0,0,0,0,0,0,0,0,0,0,0
0,0,0,0,0,0,0,0,0,0,0,0,0,0,0,0
0,0,0,0,0,bp,0,0,bp,0,0,0,0,0,0,0
0,0,0,0,0,g,q,q,m,0,0,0,0,0,0,4e
az,b1,b0,az,b1,j,67,41,n,0,0,4e,4e,4e,4e,4e
b3,b4,b2,b3,b4,15,19,cc,16,0,4e,4e,4e,4e,4e,4e
b3,b1,b0,8t,8t,8t,8t,8t,8t,8t,8t,8t,8t,8t,8t,8t
b3,b4,8t,8t,8t,8t,8t,8t,8t,8t,8t,8t,8t,8t,8t,8t
b4,8t,8t,8t,8t,8t,8t,8t,8t,8t,8t,8t,8t,8t,8t,8t
WAL q,41,c6,67,w,c7,7d,6b,az,b0,b1,3w,4w,4e,j,n,c5,60,3d,1s,1x,20,21,26,2b,2f,9e
EXT 6,12 1b 15,13
EXT 7,12 1b 15,14
PAL 5

ROOM 1b
0,0,0,0,0,0,0,0,0,0,0,0,0,0,0,0
0,0,0,0,0,0,0,0,0,0,0,0,0,0,0,0
0,0,0,0,0,0,0,0,0,0,0,0,11,0,0,0
0,0,0,av,aw,0,0,0,0,0,0,0,0,0,0,0
0,0,l,g,m,l,l,l,l,l,l,g,m,l,0,0
0,at,ar,ay,ar,ar,ar,ar,ar,ar,ar,ar,ay,ar,au,0
at,ar,ar,ax,ar,ar,b5,b6,b7,b8,ar,ar,ax,ar,ar,au
13,9y,0,9y,0,9y,t,bf,bg,x,9y,0,9y,0,9y,x
13,9x,0,9x,0,9x,t,be,bd,x,9x,0,9x,0,9x,x
13,3w,0,3w,0,3w,c7,bc,bb,c5,3w,0,3w,0,3w,x
13,3d,0,3d,0,3d,bi,b9,ba,bj,3d,0,3d,0,3d,x
c7,w,b0,az,b1,w,9u,9s,9s,9w,w,b0,az,b1,w,c5
bi,l,b2,b3,b4,l,9t,9s,9s,9v,l,b2,b3,b4,l,bj
0,0,0,0,0,0,0,0,0,0,0,0,0,0,0,0
0,0,0,0,0,0,0,0,0,0,0,0,0,0,0,0
0,0,0,0,0,0,0,0,0,0,0,0,0,0,0,0
WAL q,41,c6,67,w,c7,7d,6b,az,b0,b1,3w,4w,4e,c5,bb,bc,3a,3d,60,1s,1x,20,21,26,2b,2f,9e
EXT 0,13 1c 15,13
EXT 0,14 1c 15,14
EXT 0,15 1c 15,15
PAL 5

ROOM 1c
0,0,0,0,0,0,0,0,0,0,0,0,0,0,0,0
0,0,0,0,0,0,0,0,0,0,0,0,0,0,0,0
0,0,0,0,0,0,0,0,0,0,0,0,0,0,0,0
0,0,0,0,0,0,0,0,0,0,0,0,0,0,0,0
0,0,0,0,0,0,0,0,0,0,0,0,0,0,0,0
0,0,0,4l,4m,5e,4q,0,4l,4m,5f,5e,4o,0,0,0
4n,4m,5f,0,0,0,0,5f,0,0,0,0,4p,4q,0,11
0,0,0,0,0,0,0,0,0,0,0,0,0,0,5f,5e
0,0,0,0,0,0,0,0,0,0,0,0,0,0,0,0
0,0,0,0,0,0,0,0,0,0,0,0,0,0,0,0
0,0,0,0,0,0,0,0,0,0,0,0,0,0,0,0
0,0,0,0,0,0,0,0,0,0,0,0,0,0,0,0
bo,bo,bo,bo,bo,bo,b2,b3,b4,b2,b3,b4,b2,b3,b4,b2
bo,bo,bo,bo,bo,bo,0,0,0,0,0,0,0,0,0,0
bo,bo,bo,bo,bo,bo,0,0,0,0,0,0,0,0,0,0
bo,bo,bo,bo,bo,bo,0,0,0,0,0,0,0,0,0,0
WAL bo,q,41,c6,67,w,c7,7d,6b,az,b0,b1,3w,4w,4e,c5,b4,b3,b2,60,3d,1s,1x,20,21,26,2b,2f,9e
EXT 15,13 1k 0,13
EXT 15,14 1k 0,14
EXT 15,15 1k 0,15
PAL 5

ROOM 1d
0,0,0,0,0,0,0,0,0,0,0,0,0,0,0,0
0,0,0,0,0,0,0,0,0,0,0,0,0,0,0,0
ao,an,am,al,ak,aj,ai,ah,ag,0,ac,ad,ae,af,ap,aq
0,0,0,0,0,0,0,0,0,0,0,0,0,0,0,0
0,0,0,0,0,0,0,0,0,0,0,0,0,0,0,0
0,0,0,0,0,0,0,0,0,j,0,0,0,0,0,0
0,0,0,0,7p,0,0,7f,n,0,0,0,0,0,0,0
0,0,0,6q,7o,0,70,6u,7j,0,0,0,0,0,0,0
0,0,0,6r,6t,70,0,6v,7i,73,72,0,0,0,0,0
0,0,6q,0,6u,6s,0,0,75,0,6u,0,0,0,0,0
0,0,6r,0,6v,6o,0,0,7g,76,71,7e,0,0,0,0
0,6w,6x,6y,7m,5e,6y,6z,7h,0,76,7d,0,0,0,0
0,6p,77,78,7n,79,78,7a,7b,7c,0,0,0,0,0,0
0,6o,0,0,0,0,0,0,0,6r,0,0,a9,0,0,0
ab,ab,ab,ab,ab,ab,ab,ab,ab,ab,ab,ab,ab,0,0,0
0,0,0,0,0,0,0,0,0,0,a9,0,0,0,0,0
WAL 4e,q,41,c6,67,w,c7,7d,6b,az,b0,b1,3w,4w,c5,60,3d,1s,1x,20,21,26,2b,2f,9e,7c
EXT 10,11 1g 10,12
EXT 9,10 1g 10,12
EXT 8,11 1g 10,12
PAL 6

ROOM 1e
0,0,0,0,0,0,0,0,0,0,0,0,0,0,0,0
0,0,0,0,0,0,0,0,0,0,0,0,0,0,0,0
0,0,ao,an,am,0,bk,bl,bm,bn,ac,ad,ae,af,ap,aq
0,0,0,0,0,0,0,0,0,0,0,0,0,0,0,0
0,0,0,0,0,0,0,0,0,0,0,0,0,0,0,0
0,0,0,0,0,0,0,0,0,j,0,0,0,0,0,0
0,0,0,0,7p,0,0,7f,n,0,0,0,0,0,0,0
0,0,0,6q,7o,0,70,6u,7j,0,0,0,0,0,0,0
0,0,0,6r,6t,70,0,6v,7i,73,72,0,0,0,0,0
0,0,6q,0,6u,6s,0,0,75,0,6u,0,0,0,0,0
0,0,6r,0,6v,6o,0,0,7g,76,71,7e,0,0,0,0
0,6w,6x,6y,7m,5e,6y,6z,7h,0,76,7d,0,0,0,0
0,6p,77,78,7n,79,78,7a,7b,7c,0,0,0,0,0,0
0,6o,0,0,0,0,0,0,0,6r,0,0,a9,0,0,0
ab,ab,ab,ab,ab,ab,ab,ab,ab,ab,ab,ab,ab,0,0,0
0,0,0,0,0,0,0,0,0,0,a9,0,0,0,0,0
WAL 4e,q,41,c6,67,w,c7,7d,6b,az,b0,b1,3w,4w,c5,60,3d,1s,1x,20,21,26,2b,2f,9e,7c
EXT 8,11 e 0,13
EXT 9,10 e 0,13
EXT 10,11 e 0,13
PAL 6

ROOM 1f
0,0,0,0,0,0,0,0,0,0,0,0,0,0,0,0
0,0,0,0,0,0,0,0,0,0,0,0,0,0,0,0
0,0,0,0,0,0,0,0,0,0,ac,ad,ae,af,ap,aq
0,0,0,0,0,0,0,0,0,0,0,0,0,0,0,0
0,0,0,0,0,0,0,0,0,0,0,0,0,0,0,0
0,0,0,0,0,0,0,0,0,0,0,0,0,0,0,0
0,0,0,0,0,0,0,0,0,0,0,0,0,0,0,0
0,0,bx,bx,bx,bx,9m,9n,9p,bx,bx,bx,bx,0,0,0
0,0,0,0,0,0,9l,9o,9q,c0,c2,c0,c2,0,0,0
0,0,0,0,0,0,by,0,by,bz,c1,bz,c1,0,0,0
0,0,0,0,0,0,0,0,0,0,0,0,0,0,0,0
0,0,0,0,bx,bx,bx,bx,bx,bx,bx,bx,bx,bx,bx,0
0,0,0,0,0,0,0,0,0,0,0,0,0,0,0,0
0,0,0,0,0,0,0,0,0,0,0,0,0,0,0,0
0,0,0,0,0,0,0,0,0,0,0,0,0,0,0,0
0,0,0,0,0,0,0,0,0,0,0,0,0,0,0,0
WAL q,41,c6,67,w,c7,7d,6b,az,b0,b1,3w,4w,4e,c5,60,3d,1s,1x,20,21,26,2b,2f,9e,9m
EXT 6,5 7 0,13
EXT 7,6 7 0,13
EXT 5,6 7 0,14
PAL 9

ROOM 1g
0,0,0,0,0,0,0,0,0,0,0,0,0,0,0,0
0,0,0,0,0,0,0,0,0,0,0,0,0,0,0,0
0,0,0,0,0,0,0,0,0,0,0,0,0,0,0,0
0,0,0,0,5e,0,0,0,0,0,0,0,5f,0,0,4n
0,0,0,0,0,0,0,0,0,0,0,4q,0,0,0,0
0,0,0,0,0,0,0,0,0,j,0,0,0,0,0,0
0,0,0,0,7p,0,0,7f,n,0,0,0,0,0,0,0
0,0,0,6q,7o,0,70,6u,7j,0,0,0,0,0,0,0
0,0,0,6r,6t,70,0,6v,7i,73,72,0,0,0,0,0
0,0,6q,0,6u,6s,0,0,75,0,6u,0,0,0,0,0
0,0,6r,0,6v,6o,0,0,7g,76,71,7e,0,0,0,0
0,6w,6x,6y,7m,5e,6y,6z,7h,0,76,7d,w,w,w,w
0,6p,77,78,7n,79,78,7a,7b,7c,0,r,0,r,0,0
0,6o,0,0,0,0,0,0,0,6r,g,q,q,q,q,q
6b,6b,6b,6b,6b,6b,6b,6b,6b,6b,j,0,0,0,0,0
6b,6b,6b,6b,6b,6b,6b,6b,6b,6b,j,0,0,0,0,0
WAL 4e,q,41,c6,67,w,c7,7d,6b,az,b0,b1,3w,4w,c5,g,7c,76,60,3d,1s,1x,20,21,26,2b,2f,9e
END undefined 15,12
PAL 8

ROOM 1k
0,0,0,0,0,0,0,0,0,0,0,0,0,0,0,0
0,0,0,0,0,0,0,0,0,0,0,0,0,0,0,0
0,0,0,0,0,0,0,0,0,0,0,0,0,0,0,0
4j,0,0,av,aw,0,0,0,0,0,0,0,0,0,0,0
0,0,l,g,m,l,l,l,l,l,l,g,m,l,0,0
0,at,ar,ay,ar,ar,ar,ar,ar,ar,ar,ar,ay,ar,au,0
at,ar,ar,ax,ar,ar,b5,b6,b7,b8,ar,ar,ax,ar,ar,au
13,9y,0,9y,0,9y,t,bf,bg,x,9y,0,9y,0,9y,x
13,9x,0,9x,0,9x,t,be,bd,x,9x,0,9x,0,9x,x
13,3w,0,3w,0,3w,c7,bc,bb,c5,3w,0,3w,0,3w,x
13,3d,0,3d,0,3d,bi,b9,ba,bj,3d,0,3d,0,3d,x
c7,w,b0,az,b1,w,9u,9s,9s,9w,w,b0,az,b1,w,c5
bi,l,b2,b3,b4,l,9t,9s,9s,9v,l,b2,b3,b4,l,bj
0,0,0,0,0,0,0,0,0,0,0,0,0,0,0,0
0,0,0,0,0,0,0,0,0,0,0,0,0,0,0,0
0,0,0,0,0,0,0,0,0,0,0,0,0,0,0,0
WAL q,41,c6,67,w,c7,7d,6b,az,b0,b1,3w,4w,4e,c5,3d,bc,bb,60,1s,1x,20,21,26,2b,2f,9e
EXT 15,13 1d 9,11
EXT 15,14 1d 9,11
EXT 15,15 1d 9,11
PAL 2

ROOM g
0,0,0,0,0,0,0,0,0,0,0,0,0,0,0,0
0,0,0,0,0,0,0,0,0,0,0,0,0,0,0,0
0,0,11,0,0,0,0,0,0,0,0,0,0,0,0,0
0,0,0,0,0,0,0,0,0,0,0,0,0,0,0,0
0,0,0,0,0,0,0,0,0,0,0,0,0,0,0,0
0,4l,4m,7b,7b,7b,5e,4q,0,0,0,0,0,0,0,0
4m,0,0,0,0,0,0,0,5f,5e,4q,0,0,0,0,0
0,0,0,0,0,0,0,0,0,0,0,5f,5f,5e,4q,0
0,0,0,0,0,0,0,0,0,0,0,0,0,0,0,5f
0,0,0,0,0,0,0,0,0,0,0,0,0,0,0,0
0,0,0,0,0,0,0,0,0,0,0,0,9m,9n,9p,0
az,w,0,w,bv,w,w,0,w,az,w,w,9l,9o,9q,w
b3,0,y,0,bu,0,0,y,0,b3,0,0,9d,0,9d,0
c4,c4,c4,c4,c4,c4,c4,c4,c4,c4,c4,c4,c4,c4,c4,c4
0,0,0,0,0,0,0,0,0,0,0,0,0,0,0,0
0,0,0,0,0,0,0,0,0,0,0,0,0,0,0,0
WAL q,41,c6,67,w,c7,7d,6b,az,b0,b1,9l,9o,9q,bv,3w,4w,4e,c5,60,3d,1s,1x,20,21,26,2b,2f,9e
EXT 0,13 h 15,12
EXT 0,14 h 15,12
EXT 0,15 h 15,12
PAL 0

ROOM 1l
0,0,0,0,0,0,0,0,0,0,0,0,0,0,0,0
0,0,0,0,0,0,0,0,0,0,0,0,0,0,0,0
0,0,0,0,0,0,0,0,0,0,0,0,0,0,0,0
0,0,0,0,0,0,0,0,0,0,0,0,0,0,0,0
0,0,0,0,0,0,0,0,0,0,11,0,0,0,0,0
0,4l,4m,7b,7b,7b,5e,4q,0,0,0,0,0,0,0,0
4m,0,0,0,0,0,0,0,5f,5e,4q,0,0,0,0,0
0,0,0,0,0,0,0,0,0,0,0,5f,5f,5e,4q,0
0,0,0,0,0,0,0,0,0,0,0,0,0,0,0,5f
0,0,0,0,0,0,0,0,0,0,0,0,0,0,0,0
0,0,0,0,0,0,0,0,0,0,0,0,9m,9n,9p,0
az,w,0,w,bv,w,w,0,w,az,w,0,9l,9o,9q,0
b3,0,y,0,bu,0,0,y,0,b3,0,0,9d,0,9d,0
c4,c4,c4,c4,c4,c4,c4,c4,c4,c4,c4,c4,c4,c4,c4,c4
0,0,0,0,0,0,0,0,0,0,0,0,0,0,0,0
0,0,0,0,0,0,0,0,0,0,0,0,0,0,0,0
WAL q,41,c6,67,w,c7,7d,6b,b0,b1,3w,4w,4e,c5,bv,9l,9o,9q,60,3d,1s,1x,20,21,26,2b,2f,9e
EXT 12,12 1m 6,6
EXT 14,12 1m 6,6
PAL 0

ROOM 1m
0,0,0,0,0,0,0,0,0,0,0,0,0,0,0,0
0,0,0,0,0,0,0,0,0,0,0,0,0,0,0,0
0,0,0,0,0,0,bk,bl,bm,bn,ac,ad,ae,af,ap,aq
0,0,0,0,0,0,0,0,0,0,0,0,0,0,0,0
0,0,0,0,0,0,0,0,0,0,0,0,0,0,0,0
0,0,0,0,0,0,0,0,0,0,0,0,0,0,0,0
0,0,0,0,0,0,0,0,0,0,0,0,0,0,0,0
0,0,bx,bx,bx,bx,9m,9n,9p,bx,bx,bx,bx,0,0,0
0,0,0,0,0,0,9l,9o,9q,c0,c2,c0,c2,0,0,0
0,0,0,0,0,0,by,0,by,bz,c1,bz,c1,0,0,0
0,0,0,0,0,0,0,0,0,0,0,0,0,0,0,0
0,0,0,0,bx,bx,bx,bx,bx,bx,bx,bx,bx,bx,bx,0
0,0,0,0,0,0,0,0,0,0,0,0,0,0,0,0
0,0,0,0,0,0,0,0,0,0,0,0,0,0,0,0
0,0,0,0,0,0,0,0,0,0,0,0,0,0,0,0
0,0,0,0,0,0,0,0,0,0,0,0,0,0,0,0
WAL q,41,c6,67,w,c7,7d,6b,az,b0,b1,3w,4w,4e,c5,60,3d,1s,1x,20,21,26,2b,2f,9e,9m
EXT 5,6 10 0,13
EXT 6,5 10 0,13
EXT 7,6 10 0,13
PAL 9

ROOM 1o
0,0,0,0,0,0,0,0,0,0,0,0,0,0,0,0
0,0,0,0,0,0,0,0,0,0,0,0,0,0,0,0
0,0,0,0,0,0,0,0,0,0,ac,ad,ae,af,ap,aq
0,0,0,0,0,0,0,0,0,0,0,0,0,0,0,0
0,0,0,0,0,0,0,0,0,0,0,0,0,0,0,0
0,0,0,0,0,0,0,0,0,0,0,0,0,0,0,0
0,0,0,0,0,bx,bx,bx,bx,bx,bx,bx,0,0,0,0
0,0,0,0,0,0,c3,c0,c2,0,0,0,0,0,0,0
0,0,0,0,0,0,by,bz,c1,0,0,0,0,0,0,0
0,0,0,0,0,0,0,0,0,0,0,0,0,0,0,0
0,0,0,bx,bx,bx,bx,bx,bx,bx,0,0,0,0,0,0
0,0,0,0,0,0,0,0,0,0,0,0,0,0,0,0
0,0,0,0,0,0,0,0,0,0,0,0,0,0,0,0
0,0,0,0,0,0,0,0,0,0,0,0,0,0,0,0
0,0,0,0,0,0,0,0,0,0,0,0,0,0,0,0
0,0,0,0,0,0,0,0,0,0,0,0,0,0,0,0
WAL q,41,c6,67,w,c7,7d,6b,az,b0,b1,3w,4w,4e,c5,60,3d,1s,1x,20,21,26,2b,2f,9e,c3
EXT 5,6 4 0,13
EXT 6,5 4 0,13
EXT 7,6 4 0,13
PAL 2

ROOM 1p
0,0,0,0,0,0,0,0,0,0,0,0,0,0,0,0
0,0,0,0,0,0,0,0,0,0,0,0,0,0,0,0
0,0,0,0,0,0,bk,bl,bm,bn,ac,ad,ae,af,ap,aq
0,0,0,0,0,0,0,0,0,0,0,0,0,0,0,0
0,0,0,0,0,0,0,0,0,0,0,0,0,0,0,0
0,0,0,0,0,0,0,0,0,0,0,0,0,0,0,0
0,0,0,0,0,bx,bx,bx,bx,bx,bx,bx,0,0,0,0
0,0,0,0,0,0,c3,c0,c2,0,0,0,0,0,0,0
0,0,0,0,0,0,by,bz,c1,0,0,0,0,0,0,0
0,0,0,0,0,0,0,0,0,0,0,0,0,0,0,0
0,0,0,bx,bx,bx,bx,bx,bx,bx,0,0,0,0,0,0
0,0,0,0,0,0,0,0,0,0,0,0,0,0,0,0
0,0,0,0,0,0,0,0,0,0,0,0,0,0,0,0
0,0,0,0,0,0,0,0,0,0,0,0,0,0,0,0
0,0,0,0,0,0,0,0,0,0,0,0,0,0,0,0
0,0,0,0,0,0,0,0,0,0,0,0,0,0,0,0
WAL q,41,c6,67,w,c7,7d,6b,az,b0,b1,3w,4w,4e,c5,60,3d,1s,1x,20,21,26,2b,2f,9e,c3
EXT 7,6 b 13,14
EXT 6,5 b 13,14
EXT 5,6 b 13,14
PAL 2

ROOM 1q
0,0,0,0,0,0,0,0,0,0,0,0,0,0,0,0
0,8a,8b,8c,8d,8e,8f,8g,8h,8i,8j,8k,8l,8m,0,0
0,0,0,0,0,0,8n,8p,8r,0,0,0,0,0,0,0
0,0,0,0,5e,0,8o,8q,8s,0,0,0,5f,0,0,4n
0,0,0,0,0,0,0,0,0,0,0,4q,0,0,0,0
0,11,0,0,0,0,0,0,0,j,0,0,0,0,0,0
0,0,0,0,7p,0,0,7f,n,0,0,0,0,0,0,0
0,0,0,6q,7o,0,70,6u,7j,0,0,0,0,0,0,0
0,0,0,6r,6t,70,0,6v,7i,73,72,0,0,0,0,0
0,0,6q,0,6u,6s,0,0,75,0,6u,0,0,0,0,0
0,0,6r,0,6v,6o,0,0,7g,76,71,7e,0,0,0,0
0,6w,6x,6y,7m,5e,6y,6z,7h,0,76,7d,w,w,w,w
0,6p,77,78,7n,79,78,7a,7b,7c,0,r,0,r,0,0
0,6o,0,0,0,0,0,0,0,6r,g,q,q,q,q,q
6b,6b,6b,6b,6b,6b,6b,6b,6b,6b,j,0,0,0,0,0
6b,6b,6b,6b,6b,6b,6b,6b,6b,6b,j,0,0,0,0,0
WAL 4e,q,w,7d,41,c6,67,c7,6b,az,b0,b1,3w,4w,c5,60,3d,1s,1x,20,21,26,2b,2f,9e
EXT 15,12 2 0,13
PAL 4

TIL 10
00000000
00000000
01100110
10011001
00000000
00000000
00000000
00000000
>
00000000
10000001
01100110
00011000
00000000
00000000
00000000
00000000

TIL 11
00000000
00000000
00111000
01111100
01111100
01111100
00111000
00000000

TIL 12
00000000
00000000
00000000
00000000
00000000
00000000
00000000
00000000

TIL 13
11000000
11000000
11110000
11110000
11000000
11000000
11110000
11110000

TIL 14
00011000
00011000
00011000
00011000
00011000
00011000
00011000
00011000

TIL 15
10000000
10000000
10000000
10000000
10000000
10000000
10000000
11111111

TIL 16
00000001
00000001
00000001
00000001
00000001
00000001
00000001
11111111

TIL 17
01001100
01001100
01011100
01111000
00110000
00100000
01110000
00100000

TIL 18
10001000
10001000
10001000
10001000
10001000
10001000
11011101
11111111

TIL 19
10000000
10000000
10000000
10000000
10000000
10000000
10000000
10000000

TIL 20
00000101
00000101
00000101
00000101
00000101
00000101
00000101
00000101

TIL 21
01000000
01000000
01000000
01000000
01000000
01000000
01000000
01000000

TIL 22
00000101
00000101
00000101
00000111
00111000
00101000
00100000
00111111

TIL 23
01000000
01000000
01000000
11000000
00111001
00101001
00001001
11111001

TIL 24
11111111
00000000
01000001
11000001
00111110
00101010
00101010
00101010

TIL 25
11001111
01001000
01001010
11001110
00000001
00000001
00000001
00000001

TIL 26
00101010
00101010
00101010
00101010
00101010
00101010
00101010
00101010

TIL 27
00101010
00101010
00101010
00111110
11000001
01000001
00000000
11111111

TIL 28
00000001
00000001
00000001
00000001
11001110
01001010
01001000
11001111

TIL 29
00000001
00000001
00000001
00000001
00000001
00000001
00000001
00000001

TIL 30
10000000
10000000
10000000
10000000
11111111
10000000
10000000
10000000

TIL 31
00000000
11111111
01010101
01010101
01010101
01010101
11111111
10101010

TIL 32
11110000
00011111
00010000
11110000
00011111
00010010
11110010
00010010

TIL 33
10000000
10000000
10000000
10000000
10000000
10000000
10000000
11111111

TIL 34
00000000
00000000
00000000
00000000
11111111
00000000
00000000
00000000

TIL 35
00000000
00000000
00000000
11111111
00000000
00000000
00000000
11111111

TIL 36
00000000
00000000
00000000
11111111
00111100
01100110
11000011
10000001

TIL 37
10000001
10000001
10000001
10000001
10000001
10000001
10000001
11111111

TIL 38
00000000
11111111
10000000
10000000
10000000
10000000
11111111
00000000

TIL 39
00000000
11111111
00000000
00000000
00000000
00000000
11111111
00000000

TIL 40
01000010
01111110
00000000
00000000
00000000
00000000
00000000
11111111

TIL 41
11100000
00111000
00001100
00000110
00000011
00000001
00000001
00000001

TIL 42
00000001
00000001
00000001
00000001
00000001
00000001
00000001
11111111

TIL 43
00000000
00000000
00000000
00111111
01001100
11001100
11001100
11111111

TIL 44
00000000
00000000
00000000
11111100
11001110
11001101
11001101
11111111

TIL 45
00000000
00000000
00000000
00000000
00000000
00000000
01000000
00000000

TIL 46
00000000
00000000
00000000
10000000
00000000
00000000
00000000
00000000

TIL 47
10010010
10010010
01111111
00011100
00101010
00111110
00101010
00011100

TIL 48
00000001
00000001
11111110
00101010
01001001
01111111
01001001
00101010

TIL 49
00000011
00000010
00001110
00001000
00111000
00100000
11100000
10000000

TIL 50
00011000
00011000
00011000
00011000
00011000
00011000
00011000
00011111

TIL 51
00000000
00000000
11111100
11111000
00011000
00011000
00011000
00011000

TIL 52
00000010
00000011
00000010
00000010
00000011
00000010
00000010
00000011

TIL 53
00000000
00000000
00000000
00000011
00000010
00000010
00000011
00000010

TIL 54
10000001
00000000
00000000
00000000
00000000
00000000
00000000
00000000

TIL 55
00100100
00100100
00100100
00100100
00111100
00100100
11100111
10000001

TIL 56
00100100
00010010
00100100
00010010
00000000
01111110
00100100
00100100
>
00010010
00100100
00010010
00100100
00000000
01111110
00100100
00100100

TIL 57
00000001
00000001
00000001
00000001
00000001
00000000
00000000
00000000

TIL 58
01000010
11111111
00010001
00010001
11111111
00000000
00000000
00000000

TIL 59
10000000
10000000
10000000
10000000
10000000
00000000
00000000
00000000

TIL 60
00100100
00100100
00100100
00100100
00100100
00100100
00100100
00100100

TIL 61
00100100
00100100
00100100
00100100
00100100
11111111
00000000
11111111

TIL 62
11111111
11111111
11111111
11111111
11111111
11111111
11111111
11111111

TIL 63
00000000
00000000
00000000
00000000
00000000
00111111
00010010
00010010

TIL 64
00000000
00000000
10000000
00000000
00000000
00000000
00000000
00000000

TIL 65
00110000
00011000
00001100
00000100
00000010
00000010
00000001
00000001

TIL 66
00000000
00000000
00000000
00000000
00000000
10000000
11000000
01100000

TIL 67
00000111
00011100
00110000
01100000
11000000
10000000
10000000
10000000

TIL 68
10000001
10000001
10000001
11111111
00000000
00000000
00000000
11111111

TIL 69
00000000
00111100
00111100
00111100
00111100
00111100
00111100
00111100

TIL 70
00000001
00000010
00000100
00001000
00010000
00100000
01000000
10000000

TIL 71
00000010
00000010
00000010
00000010
00001101
00110000
11000000
00000000

TIL 72
00000000
00000000
00000000
00000000
01110000
10010000
00010000
00010000

TIL 73
00000000
00000000
00000000
00000000
00000000
00000001
00000110
00111000

TIL 74
00000000
00000000
00000000
00000000
00000000
00000000
00000000
00000000

TIL 75
10001111
10001000
10001000
10001000
01001100
01001100
01001100
01001100

TIL 76
00000000
00000000
00000000
00000000
00000000
00000000
00001111
11110000

TIL 77
00000000
00000000
11100000
00011111
00000000
00000000
00000000
00000000

TIL 78
00000000
00000000
00000000
11011101
00000000
00000000
00000000
00000000

TIL 79
00000000
00000000
00000000
11111101
00000000
00000000
00000000
00000000

TIL 80
00001111
00001000
00001000
00001000
00001000
00001000
00001000
00001000

TIL 81
11110000
00010000
00010000
00010000
00010000
00010000
00010000
00010000

TIL 82
00010000
00010000
00010000
00010000
00010000
00010000
00010000
11110000

TIL 83
00001000
00001000
00001000
00001000
00001000
00001000
00001000
00001111

TIL 84
00000000
00000000
00000000
00000000
00000001
00000011
00001110
00011000

TIL 85
00000000
00000000
00000000
00000000
10000000
11000000
01110000
00011000

TIL 86
00000000
01000000
00000100
00000000
00000000
00010000
00000000
00000010
>
00000000
00010000
00000000
00000010
00000000
01000000
00000100
00000000

TIL 87
00000000
01000000
00000000
00000000
00010000
00000000
00000000
00000100
>
00010000
00000000
00000000
00000100
00000000
01000000
00000000
00000000

TIL 88
00000000
00000100
00000000
00000000
00000000
00000000
00000000
00000000
>
00100000
00000000
00000000
00000000
00000000
00000000
00000000
00000000

TIL 89
00000000
00011100
00001110
00000110
00000110
00001110
00011100
00000000

TIL 90
11111000
00001000
00001000
00001000
00000100
00000100
00000100
00000010
>
11111000
00001000
00001000
00001000
00010000
00010000
00010000
00010000

TIL 91
00000000
00000000
00000000
00000000
00000000
11111000
00001000
00001000

TIL 92
01000000
01000000
01000000
01000000
10000000
10000000
10000000
10000000

TIL 93
00010000
00010000
00010000
00010000
00100000
00100000
00100000
00100000

TIL 94
00000100
00000100
00000100
00000100
00001000
00001000
00001000
00001000

TIL 95
00000001
00000001
00000001
00000001
00000010
00000010
00000010
00000010

TIL 96
00100000
00100000
00100000
00100000
00010000
00010000
00010000
00010000

TIL 97
10000001
01000010
00100100
00011000
00011000
00100100
01000010
10000001

TIL 98
00000000
00000000
00000000
00000000
00000000
00000001
00000001
00000001

TIL 99
00000000
00000000
00000000
00000000
00000000
00000000
00000000
00000000

TIL a
10010001
01001100
01011010
01100100
00010100
10101011
01100100
10010100

TIL c
00011000
00011000
00011000
00011000
00011000
00011000
00011000
00011000

TIL d
00011000
00011000
00011000
11111111
11111111
00011000
00011000
00011000

TIL e
00000000
00000000
00000000
11111111
11111111
10000001
01000010
00111100

TIL f
00011000
00011000
00011000
11111111
11111111
00000000
00000000
00000000

TIL g
11111111
10000000
10000000
10000000
10000000
10000000
10000000
10000000

TIL h
00000000
00000000
00000000
00000000
00000000
00000000
00000000
10000000

TIL i
00000000
10000000
11000000
11100000
01110000
00111000
00011100
00001110

TIL j
10000000
10000000
10000000
10000000
10000000
10000000
10000000
10000000

TIL k
11000000
01100000
00110000
00011000
00001100
00000110
00000011
00000001

TIL l
00000000
00000000
00000000
00000000
00000000
00000000
00000000
11111111

TIL m
11111111
00000001
00000001
00000001
00000001
00000001
00000001
00000001

TIL n
00000001
00000001
00000001
00000001
00000001
00000001
00000001
00000001

TIL o
00000011
00000110
00001100
00011000
00110000
01100000
11000000
10000000

TIL p
00000000
00000000
00000000
00000000
00000000
00000000
00000000
00000001

TIL q
11111111
00000000
00000000
00000000
00000000
00000000
00000000
00000000

TIL r
00000000
00000000
00000000
00000000
00000000
00111100
00011000
00011000

TIL t
11000000
11000000
11110000
11110000
11000000
11000000
11110000
11110000

TIL u
01111100
01010100
01010100
01010100
01010100
01010100
01010100
01111100

TIL v
00111110
00101010
00101010
00101010
00101010
00101010
00101010
00111110

TIL w
00000000
00000000
00000000
00000000
00000000
00000000
00000000
00000000

TIL x
00001111
00001111
00000011
00000011
00001111
00001111
00000011
00000011

TIL y
11111110
01111100
01111100
01111100
01111100
01111100
01111100
11111110

TIL z
00001000
01110000
01110000
00011110
00011110
00100010
01010101
01010101

TIL 1a
01010101
01010101
01010101
01010101
01010101
01010101
01010101
11111111

TIL 1b
00000000
00000000
00000000
00000000
00000000
00000000
00000000
10000000

TIL 1c
01010101
01010101
01010101
01010101
01010101
01010101
01010101
01010101

TIL 1d
11111111
01010101
01010101
01010101
01010101
01010101
01010101
01010101

TIL 1e
10000000
00000000
00000000
00000000
00000000
00000000
00000000
00000000

TIL 1f
00000001
00000011
00000110
00001100
00011000
00110000
01100000
11000000

TIL 1g
00000000
00000000
00000000
00000000
00000000
00000000
00000000
11000000

TIL 1h
10000000
11000000
01100000
00110000
00011000
00001100
00000110
00000011

TIL 1i
00000000
00000000
00000000
00000000
00000011
00001110
00111000
11100000

TIL 1j
00000011
00001110
00111000
11100000
10000000
00000000
00000000
00000000

TIL 1k
00000000
00000000
00000000
00000000
00000000
00011100
00110110
11100011

TIL 1l
00000000
00000000
00000000
10000000
11100000
00111000
00001110
00000111

TIL 1m
11100000
00111000
00001110
00000011
00000000
00000000
00000000
00000000

TIL 1n
01000000
01000000
01000000
01000000
01000000
01000000
01000000
01000000

TIL 1o
00011000
00010000
00110000
00100000
01100000
11000000
11000000
11000000

TIL 1p
00000001
00000001
00000011
00000010
00000110
00000100
00001100
00001000

TIL 1q
00010101
00010101
00010101
00011111
11100000
10100000
10000000
11111111

TIL 1r
00000000
00000000
00000000
00000000
11100111
10100101
00100100
11100111

TIL 1s
00010101
00010101
00010101
00010101
00010101
00010101
00010101
00010101

TIL 1t
11111111
10000000
10100000
11100000
00011111
00010101
00010101
00010101

TIL 1u
11100111
00100100
10100101
11100111
00000000
00000000
00000000
00000000

TIL 1v
11111111
00000001
00000101
00000111
11111000
10101000
10101000
10101000

TIL 1w
10101000
10101000
10101000
11111000
00000111
00000101
00000001
11111111

TIL 1x
10101000
10101000
10101000
10101000
10101000
10101000
10101000
10101000

TIL 1y
00111111
00100000
00101000
00111000
00000111
00000101
00000101
00000101

TIL 1z
11111001
00001001
00101001
00111001
11000000
01000000
01000000
01000000

TIL 2a
11111110
00000010
00001010
00001110
11110000
01010000
01010000
01010000

TIL 2b
01010000
01010000
01010000
01010000
01010000
01010000
01010000
01010000

TIL 2c
01010000
01010000
01010000
11110000
00001110
00001010
00000010
11111110

TIL 2d
00001010
00001010
00001010
00001111
01110000
01010000
01000000
01111111

TIL 2e
10000000
10000000
10000000
10001111
01110000
01010000
00010000
11111111

TIL 2f
00001010
00001010
00001010
00001010
00001010
00001010
00001010
00001010

TIL 2g
01111111
01000000
01010000
01110000
00001111
00001010
00001010
00001010

TIL 2h
11110000
00010000
01010000
01110000
10000000
10000000
10000000
10000000

TIL 2i
10000000
10000000
10000000
11111111
10000000
10000000
10000000
11111111

TIL 2j
01111111
11111111
01111111
01111111
01111110
01111000
01100000
11111111

TIL 2k
00000000
00000000
00000000
00000000
00000000
00000000
00000000
11111111

TIL 2l
00000000
11111111
01010101
01010101
01010101
11010101
01111111
11111010

TIL 2m
00000000
00000000
00000000
00000000
00000000
00000000
00000000
00000000

TIL 2n
00000000
00000000
00000000
00000000
00000000
00000000
00000000
00000000

TIL 2o
11111111
11111111
01111111
00011111
00000111
00000001
00000000
11111111

TIL 2p
00000111
00000001
00000000
00000000
00000000
00000000
00000000
11111111

TIL 2q
00000000
00000000
00000000
00000000
00000000
11000000
01110000
00011100

TIL 2r
00000000
11000000
01110000
00011100
00000111
00000001
00000000
00000000

TIL 2s
00000111
00000001
00000000
00000000
00000000
00000000
00000000
00000000

TIL 2t
00001110
11111000
11100000
10000000
00000000
00000000
00000000
11111111

TIL 2u
00000000
00000000
00000000
00000000
00000000
00000000
00000000
00000011

TIL 2v
00000000
00000000
00000000
00000011
00001110
00111000
11100000
10000000

TIL 2w
00001110
00111000
11100000
10000000
00000000
00000000
00000000
00000000

TIL 2x
00111111
00111111
00111111
00111111
00111111
00111001
11100000
10000000

TIL 2y
11000000
11000000
11000000
11000000
11000000
11000000
01110000
00011100

TIL 2z
00011000
00100100
01000010
01000010
01000010
01000010
01000010
01111110

TIL 3a
00000000
11110000
00010000
00010000
00010000
00010000
11110000
00000000

TIL 3b
00010101
00010101
00010101
11110101
00010101
00010101
00010101
11110101

TIL 3c
00010101
00010101
00010101
00010101
00010101
00010101
00010101
11110101

TIL 3d
01000010
01000010
01000010
01000010
01000010
01000010
01000010
01111110

TIL 3e
00000000
11111111
11111111
00000000
01111110
01000010
01000010
01000010

TIL 3f
00000000
00000000
00000000
00000000
00000000
00000000
00000000
00000000

TIL 3g
10000000
10000000
10000000
11111111
10000000
10000000
10000000
11111111

TIL 3h
10000000
10000000
10000000
10000000
10000000
10000000
10000000
10000000

TIL 3i
00000001
00000001
00000001
00000001
00000001
00000001
00000001
11111111

TIL 3j
00001000
11111111
01000010
01000010
11111111
00001000
00001000
11111111

TIL 3k
01000010
11111111
00001000
00001000
11111111
01000010
01000010
11111111

TIL 3l
00000000
00000000
00000000
00000000
00000000
00000000
00000000
00000000

TIL 3m
00001010
11111110
01000010
01000010
11111110
00001010
00001010
11111110

TIL 3n
00010010
00010010
00010010
11111110
01000010
01000010
11111110
00001010

TIL 3o
00000010
00000010
00000010
00000010
00000010
00000010
00000010
00000010

TIL 3p
00000010
00000010
00000010
00000010
00000010
00000010
00000010
11111111

TIL 3q
00000000
00000000
00000000
11111111
00001000
00001000
11111111
01000010

TIL 3r
00000000
00000000
00000000
11111111
00100001
00100001
11111111
00001000

TIL 3s
00100100
00010010
00100100
00010010
00000000
00111111
00010010
00010010
>
00010010
00100100
00010010
00100100
00000000
00111111
00010010
00010010

TIL 3t
00000000
00010010
00100100
00010010
00100100
00010010
00100100
00000000
>
00000000
00100100
00010010
00100100
00010010
00100100
00010010
00000000

TIL 3u
00000010
00000010
00000010
00000010
00000010
00000010
00000010
11111110

TIL 3v
01000010
01000010
01000010
01111110
00000000
00000000
00000000
11111111

TIL 3w
00000000
00000000
00000000
00000000
01111110
01000010
01000010
01000010

TIL 3x
01000010
01000010
01000010
01111110
00000000
00000000
00000000
11111111

TIL 3y
01000010
01000010
01000010
01000010
01000010
01000010
01000010
01000010

TIL 3z
00000000
00000000
00000000
00000000
00000000
00000000
01111110
01000010

TIL 4a
11000000
01000000
01110000
00010000
00011100
00000100
00000111
00000001

TIL 4b
00000001
00000000
00000000
00000000
00000000
00000000
00000000
00000000

TIL 4c
00101000
00101000
00101000
00101000
00101000
00101000
01000100
11111111

TIL 4d
00111100
01111110
11111111
11111111
11111111
01111110
00111100
00100100

TIL 4e
00011000
00011000
00111100
00111100
01111110
01111110
11111111
11111111

TIL 4f
00000000
00111000
00101000
00101000
00101000
00101000
00111000
00000000

TIL 4g
10000001
10000010
10000100
10001000
10001000
10001000
10001000
11111000

TIL 4h
10000000
01000000
00100000
00010000
00010000
00010000
00010000
00011111

TIL 4i
00000000
00000000
00001100
11011100
01111000
00001110
00000000
00000000
>
00000000
00000000
00000000
11000000
01111100
00011110
00001100
00000000

TIL 4j
00000000
00011100
00001110
00000110
00000110
00001110
00011100
00000000

TIL 4k
00010010
00010010
00010010
11111111
00100001
00100001
11111111
00001000

TIL 4l
00000000
00000000
00000011
00000100
00001000
00110000
10000000
00000000

TIL 4m
00001110
00100000
10000000
00000000
00000000
00000000
00000000
00000000

TIL 4n
00000000
00000000
00000000
00000000
00000011
00001000
01110000
11000000

TIL 4o
00000000
00000000
00000000
00000000
00000000
11000000
00010000
00001000

TIL 4p
00000000
00000100
00000010
00000001
00000000
00000000
00000000
00000000

TIL 4q
00000000
00000000
00000000
10000000
01100000
00010000
00001010
00000001

TIL 4r
00000000
00000000
00000000
00011101
00001001
00001001
00011101
00000000

TIL 4s
00000000
00000000
00000000
00101001
10101101
01101011
00101001
00000000

TIL 4t
00000000
00000000
00000000
11101110
10100100
11100100
10100100
00000000

TIL 4u
00000000
00000000
00000000
10101110
11101010
10101010
10101110
00000000

TIL 4v
00000000
00000000
00000000
10001000
10001000
10001000
11101110
00000000

TIL 4w
00000000
00000000
11111111
10000001
10000001
10000001
10000001
10000001

TIL 4x
10000001
10000001
10000001
10000001
10000001
11111111
00000000
00000000

TIL 4y
01100000
01100000
01100000
01100000
01100000
01100000
01100000
11100000

TIL 4z
00000000
00000000
11111111
01111111
01100000
01100000
01100000
01100000

TIL 5a
01000010
01111110
00000000
00000000
00000000
00000000
01111110
01000010

TIL 5b
00011000
00100100
00100100
00100100
00100100
00111100
00000000
00000000

TIL 5c
00001111
00001000
00001000
00001000
00001000
00001000
00001000
11111000

TIL 5d
11110000
00010000
00010000
00010000
00010000
00010000
00010000
00011111

TIL 5e
10000000
01100000
00001100
00000010
00000001
00000000
00000000
00000000

TIL 5f
11000000
00011001
00000010
00000000
00000000
00000000
00000000
00000000

TIL 5g
00000000
00000000
00000000
00000000
00000000
00000000
11111111
01000010

TIL 5h
01000010
11111110
00010010
00010010
11111110
00000010
00000010
00000010

TIL 5i
00000010
00000010
00000010
00000010
00000010
00000010
11111110
01000010

TIL 5j
00111100
00100100
00100100
00100100
00100100
00100100
00100100
00111100

TIL 5k
00100100
00100100
00100100
00100100
00111100
00000000
00000000
11111111

TIL 5l
00000000
00000000
00000000
00000000
00000000
00111100
00100100
00100100

TIL 5m
01000010
01000010
01000010
01000010
01000010
01000010
01000010
11000011

TIL 5n
00000000
00000000
00000000
00000000
00000000
01111110
01000010
01000010

TIL 5o
00001000
01000001
00010100
10000000
01000010
00010000
00000010
00100001
>
01000010
00010000
00000010
00100001
00001000
01000101
00010000
10000000

TIL 5p
00000010
00000010
00000010
00000010
00000010
00000010
00000010
11111111

TIL 5q
00000000
11111111
01000010
01000010
11111111
00001000
00001000
11111111

TIL 5r
00000000
11111111
00001000
00001000
11111111
01000010
01000010
11111111

TIL 5s
01000000
01000000
01000000
01000000
01000000
01000000
01000000
11111111

TIL 5t
00100100
11111111
00001000
00001000
11111111
01000010
01000010
11111111

TIL 5u
00000000
00011000
01100110
10000001
00000000
01111110
01000010
01000010

TIL 5v
00000000
00000000
00000000
10000000
11000000
01000000
01000000
01000000

TIL 5w
00000000
00000000
00000000
00000001
00000011
00000010
00000010
00000010

TIL 5x
00000000
00011000
00111100
01111110
00000000
00111100
00100100
00100100

TIL 5y
10000000
10000000
10000000
10000000
01110000
01011111
00010000
11111111

TIL 5z
00000000
00000000
00000000
00000000
00000000
11111111
00000000
11111111

TIL 6a
00010000
00110000
00100000
01100000
01000000
11000000
10000000
10000000

TIL 6b
00000010
00001100
11110000
00000111
11001000
00001000
00110010
00000001
>
00000001
00000010
00001100
11110000
00000111
11001000
00001000
00110010

TIL 6c
00000000
00000000
11101010
10001010
10001010
10001010
11101110
00000000

TIL 6d
00000000
00000000
11101110
10000100
11100100
00100100
11100100
00000000

TIL 6e
00000000
00000000
11101101
10101010
10101000
10101000
11101000
00000000

TIL 6f
00000000
00000000
10111000
10100000
10111000
10001000
10111000
00000000

TIL 6g
11111111
00000010
00001110
00001000
00111000
00100000
11100000
10000000

TIL 6h
00000000
00000000
10000000
11111111
10000000
10000000
01000000
00111111
>
00000000
00000000
01000000
01111111
01000000
01000000
00100000
00011111

TIL 6i
00000000
00000000
00000011
11111110
00000010
00000010
00000100
11111000
>
00000000
00000000
00000001
11111111
00000001
00000001
00000010
11111100

TIL 6j
00010000
01100000
10000000
00000000
00000000
00000000
00000000
00000000
>
00100000
11000000
00000000
00000000
00000000
00000000
00000000
00000000

TIL 6k
00000000
00000000
00000000
00000001
00000001
00000010
00001100
00110000
>
00000000
00000000
00000000
00000000
00000000
00000001
00000110
00011000

TIL 6l
00100000
00100000
01000000
10000000
00000000
00000000
00000000
00000000
>
01000000
01000000
10000000
10000000
10000000
00000000
00000000
00000000

TIL 6m
11111111
00000000
00000000
00000000
10000000
01000000
01000000
01000000
>
11111111
00000000
00000000
10000000
01000000
00100000
00100000
00100000

TIL 6n
11111111
00000110
00000001
00000000
00000000
00000000
00000000
00000000
>
11111111
00001100
00000010
00000001
00000000
00000000
00000000
00000000

TIL 6o
00100000
00100000
00100000
00100000
01000000
01000000
01000000
01000000

TIL 6p
00000000
00011000
00010111
00010000
00100000
00100000
00100000
00100000

TIL 6q
00000001
00000001
00000010
00000010
00000100
00000100
00001000
00001000

TIL 6r
00010000
00010000
00100000
00100000
01000000
01000000
10000000
10000000

TIL 6s
10000000
10000000
10000000
10000000
01000000
01000000
01000000
01000000

TIL 6t
00110000
00110000
00110000
00110000
00010000
00010000
00010000
00010000

TIL 6u
00001000
00001000
00001000
00001000
00000100
00000100
00000100
00000100

TIL 6v
00000010
00000010
00000010
00000010
00000001
00000001
00000001
00000001

TIL 6w
00000001
00000001
00000010
00000010
00000100
00000100
00001001
00001110

TIL 6x
00000000
00000000
00000000
00000000
00000000
00011111
11100000
00000000

TIL 6y
00000000
00000000
00000000
00000011
11111100
00000000
00000000
00000000

TIL 6z
00000011
00001100
00110000
11000000
00000000
00000000
00000000
00000000

TIL 7a
00000000
00001111
11100000
00000000
00000000
00000000
00000000
00000000

TIL 7b
11111011
00000000
00000000
00000000
00000000
00000000
00000000
00000000

TIL 7c
11111011
00000010
00000010
00000010
00000010
00000100
00001000
00010000

TIL 7d
00010000
00001000
00000100
00000010
00000001
00011111
11100000
00000000

TIL 7e
00000000
00000000
00000000
00000000
00000000
10000000
01000000
00100000

TIL 7f
00000001
00000010
00000101
00001010
00010010
00100010
01000010
10000100

TIL 7g
01011010
01011010
01011010
10011010
10011001
10011001
10011001
10011001

TIL 7h
00110000
00110000
00110000
00110000
00110000
00110000
00110000
00110000

TIL 7i
00000110
00000110
00000110
00000110
00000110
00000110
00000110
00000110

TIL 7j
00000011
00000011
00000011
00000011
00000011
00000011
00000011
00000011

TIL 7k
00000000
00000000
00000000
00000000
00000000
00000000
00000000
00000000

TIL 7l
11001100
11111111
11111111
11111111
11111111
00110011
00000000
00000000
>
00110011
11111111
11111111
11111111
11111111
11001100
00000000
00000000

TIL 7m
00000011
00001100
00110000
11110000
00110000
00110000
00110000
00110000

TIL 7n
00110000
00110000
00110000
11011101
00000000
00000000
00000000
00000000

TIL 7o
10011000
10011000
10011000
10011000
01011000
01011000
01011000
01011000

TIL 7p
00001000
00001000
00001000
00001000
00001000
00001000
00001000
00001000

TIL 7q
11000000
00110000
00001100
00000011
00000000
00000000
00000000
00000000

TIL 7r
00000000
00000000
00000000
00000000
11000000
00110000
00001100
00000011

TIL 7s
00000000
00000000
00000000
00000000
00000011
00001100
00110000
11000000

TIL 7t
00100000
00100000
00111111
00000000
00000000
00000000
00000000
00000000

TIL 7u
00000100
00000100
11111100
00000000
00000000
00000000
00000000
00000000

TIL 7v
00000000
00000000
00000000
00000000
00000000
11111100
00000100
00000100

TIL 7w
00000000
00000000
00000000
00000000
00000000
00111111
00100000
00100000

TIL 7x
10000000
10000000
10000000
10000000
10000000
11111111
10000000
11111111

TIL 7y
00000001
00000001
00000001
00000001
00000001
11111111
00000001
11111111

TIL 7z
00000000
00000000
00000000
00000000
00000000
00000000
00000000
00000000

TIL 8a
11111011
11111011
11000011
11110011
11110011
11000011
11111001
11111000

TIL 8b
00110111
00110111
00110110
00110111
00110111
00110110
11100111
11000111

TIL 8c
11011111
11011111
00011001
10011001
10011111
00011111
11011011
11011001

TIL 8d
10110011
10110011
10111111
10111111
10001100
00001100
10001100
10001100

TIL 8e
01111110
01111110
00011000
00011000
00011000
00011000
00011000
00011000

TIL 8f
11001101
11001101
11001100
11111100
11111100
11001100
11001101
11001101

TIL 8g
11111011
11111011
01100011
01100011
01100011
01100011
11111011
11111011

TIL 8h
00011011
00011011
11011011
11011011
01111011
01111011
00011011
00011011

TIL 8i
11110000
11110000
00000000
01110000
01110000
00110000
11110000
11110000

TIL 8j
11100111
11100111
11011011
11011011
11000011
11000011
11000011
11000011

TIL 8k
01100110
01100110
01100110
01100110
01100110
01100110
01111110
01111110

TIL 8l
11111011
11111011
11000000
11111000
11111000
00011000
11111000
11111000

TIL 8m
11110000
11110000
11000000
11000000
11000000
11000000
11000000
11000000

TIL 8n
00000000
11111011
11111011
11000011
11000011
11110011
11110011
11000011

TIL 8o
11000011
00000000
00000000
00000000
00000000
00000000
00000000
00000000

TIL 8p
00000000
11110110
11110110
00110110
00110110
11110110
11110110
00110111

TIL 8q
00110111
00000000
00000000
00000000
00000000
00000000
00000000
00000000

TIL 8r
00000000
00011000
00011000
00011000
00011000
00011000
00011000
11011111

TIL 8s
11011111
00000000
00000000
00000000
00000000
00000000
00000000
00000000

TIL 8t
00000100
00100000
10000000
00000100
00000000
00010010
01000000
00000010

TIL 8u
11000100
11111001
10011011
00000110
01110000
00010010
01011100
10000010

TIL 8v
11111110
10111011
11111111
11101011
11111110
11011111
10111011
11111111

TIL 8w
00000000
00111100
00100100
00100100
00100100
00100100
00111100
00000000

TIL 8x
00000000
00000000
00000000
00000000
00000000
11111111
00000000
00000000

TIL 8y
00000000
00000000
00000000
00000000
00000000
10000000
10000000
10000000

TIL 8z
00000010
00000010
00000110
00001000
00001001
00000110
00000000
00000000
>
00100000
00100000
01100000
10000000
10010000
01100000
00000000
00000000

TIL 9a
00000000
00000000
00000000
00000000
00000000
00001111
00001000
00001000

TIL 9b
00001111
00000100
00000100
00000100
00001000
00001000
00001000
00001000
>
00001111
00000100
00000100
00000100
00000100
00000100
00000100
00000100

TIL 9c
00000100
00000100
00000100
00000100
00011111
00011111
00011111
00011111
>
00010000
00010000
00010000
00010000
01111100
01111100
01111100
01111100

TIL 9d
00111100
01000010
10100101
10011001
10011001
10100101
01000010
00111100

TIL 9e
11111111
11111111
11000011
00000011
00000011
00000111
11111111
11111111

TIL 9f
11111100
11111100
00000000
00000000
00000000
00000000
00000000
00000000

TIL 9g
00111111
01001001
01001001
01001001
10010010
10010010
10010010
10010010

TIL 9h
11101100
00010010
00100001
00100001
00100001
00100001
00100001
00100001

TIL 9i
00000000
00111010
00000000
00000010
01000010
01000010
01100100
00000000

TIL 9j
00000011
01110000
00000000
00000000
00000111
00000000
11000000
00011100

TIL 9k
00000001
00000001
00000001
11111111
00000001
00000001
00000001
11111111

TIL 9l
10010001
10010001
10011111
10000000
10000000
10000000
11100000
00111111

TIL 9m
11111111
10000000
10000000
10011111
10010001
10010001
10010001
10010001

TIL 9n
11111111
00000000
00000000
01111011
01001010
01001010
01001010
01001010

TIL 9o
01001010
01001010
01111011
00000000
00000000
00000000
00000000
11111111

TIL 9p
11110000
00010000
00010000
11010000
01010000
01010000
01010000
01011100

TIL 9q
01000001
01000001
11000001
00000001
00000001
00000111
00111000
11000000

TIL 9r
01111110
01000010
01000010
01000010
01000010
01000010
01000010
01111110

TIL 9s
00000000
11111111
00000000
11111111
00000000
11111111
00000000
11111111

TIL 9t
01000000
01111111
01000000
01111111
10000000
11111111
10000000
11111111

TIL 9u
00010000
00011111
00010000
00011111
00100000
00111111
00100000
00111111

TIL 9v
00000010
11111110
00000010
11111110
00000001
11111111
00000001
11111111

TIL 9w
00001000
11111000
00001000
11111000
00000100
11111100
00000100
11111100

TIL 9x
01000010
01000010
01000010
01000010
01111110
00000000
00000000
00000000

TIL 9y
00000000
01111110
01000010
01000010
01000010
01000010
01000010
01000010

TIL 9z
00000000
00000000
00000001
00000010
00000100
00001000
11110000
11111111

TIL a0
00000000
00000000
00000000
00000000
00000011
00001100
00110000
11000000

TIL a1
01000000
10000000
00000000
00000000
00000000
00000000
00000000
00000000

TIL a2
00000000
00000000
00000001
00000010
00000100
00001000
00010000
00100000

TIL a3
00000000
00000000
00000000
00000000
00000000
00000000
00011111
00100000

TIL a4
00000000
00000000
00000000
00000000
00000000
00000000
11111111
00000000

TIL a5
00000000
00000000
00000000
00000000
00000000
00000000
11111000
00000100

TIL a6
00000010
00000001
00000000
00000000
00000000
00000000
00000000
00000000

TIL a7
00000000
00000000
10000000
01000000
00100000
00010000
00001000
00000100

TIL a8
00000000
00000000
10000000
01000000
00100000
00010000
00001111
11111111

TIL a9
00000000
00000000
00000000
00000000
00000000
00000000
00000000
00000000

TIL aa
00000000
00111100
01000011
00000000
00000000
00000000
00000000
00000000
>
00000000
00000000
00000000
00000000
00000000
00000000
00000000
00000000

TIL ab
00000000
01111000
10000100
00000011
00000000
00000000
00000000
00000000
>
00000011
10000100
01111000
00000000
00000000
00000000
00000000
00000000

TIL ac
11000011
11000011
11000011
11000011
11000011
11000011
11111011
11111011

TIL ad
11110111
11110111
00110001
00110001
11110001
11110001
00110001
00110001

TIL ae
11101111
11101111
10001100
10001111
10001111
10001100
10001111
10001111

TIL af
10111111
10111111
00110011
00110011
00111111
00111110
10110111
10110011

TIL ag
01101111
01101111
01101100
11101111
11101111
01100011
01101111
01101111

TIL ah
11110110
11110110
11000110
11000111
11000111
11000110
11000110
11000110

TIL ai
00011011
00011011
11011000
11011000
01111000
01111000
00011000
00011000

TIL aj
11111011
11111011
10011011
10011011
10011011
10011011
11111011
11111011

TIL ak
10011101
10011101
01101101
01101101
00001101
00001101
00001101
00001101

TIL al
00000011
00000011
00000011
00000011
00000011
00000011
00000011
00000011

TIL am
10110011
10110011
00110011
00001100
00001100
00110011
10110011
10110011

TIL an
11011111
11011111
00000110
11000110
11000110
11000110
11011111
11011111

TIL ao
00000011
00000011
00000011
00000011
00000011
00000000
00000011
00000011

TIL ap
00000000
00000000
00000000
00000000
00000000
00000000
01101101
01101101

TIL aq
00000000
00000000
00000000
00000000
00000000
00000000
10000000
10000000

TIL ar
01000100
11111111
00010001
11111111
01000100
11111111
00010001
11111111

TIL as
00000000
00000000
00000000
00000000
00000000
00000000
00000000
00000000

TIL at
00000001
00000011
00000101
00001111
00010100
00111111
01010001
11111111

TIL au
10000000
11000000
00100000
11110000
01001000
11111100
00010010
11111111

TIL av
00000000
00000000
00000000
00000000
00000000
00000000
00000000
01001001

TIL aw
00000000
00000000
00000000
00000000
00000000
00000000
00000000
10010010

TIL ax
01000010
11000011
01000010
11111111
01000100
11111111
00010001
11111111

TIL ay
01000100
11111111
00100101
11000011
10000001
11111111
01000010
11000011

TIL az
00000000
01001001
01001111
11001010
10111010
11110101
01111011
11111001

TIL b0
00001100
10000100
01000100
01111111
00011111
00101010
01111011
10010110

TIL b1
01000010
00100010
00100010
11001100
01110100
11111000
11101111
11100100

TIL b2
00010011
10010011
11111111
00001111
00101101
00111111
11101111
00001101

TIL b3
11111111
11111010
10111110
11101111
11110111
01111110
11011111
01010101

TIL b4
11000000
11100001
11111101
01110111
10100000
11111100
11000011
10100000

TIL b5
01000100
11111111
00010001
11111111
01000111
11111100
00110000
11000000

TIL b6
01000111
11111100
00110000
11000011
00000100
00000100
00000100
00000011

TIL b7
11000100
00111111
00001101
11000011
00100000
00100000
00100000
11000000

TIL b8
01000100
11111111
00010001
11111111
11000100
00111111
00001101
00000011

TIL b9
00100000
00100000
00100000
00100000
00100000
00100000
00100000
11100000

TIL ba
00000100
00000100
00000100
00000100
00000100
00000100
00000100
00000111

TIL bb
00110000
00001100
11111111
00000100
00000100
00000100
00000100
00000100

TIL bc
00001100
00110000
11111111
00100000
00100000
00100000
00100000
00100000

TIL bd
00100000
00100000
00100000
00100000
11100000
00000000
10000000
01000000

TIL be
00000100
00000100
00000100
00000100
00000111
00000000
00000001
00000010

TIL bf
00000000
00000000
00000001
00000010
00000100
00000100
00000100
00000100

TIL bg
00000000
00000000
10000000
01000000
00100000
00100000
00100000
00100000

TIL bh
00000000
00000000
00000000
00000000
00000000
00000000
00000000
00000000

TIL bi
11000000
11000000
11110000
11110000
11000000
11000000
11110000
11111111

TIL bj
00001111
00001111
00000011
00000011
00001111
00001111
00000011
11111111

TIL bk
11110001
11110001
11001101
11001101
11001101
11001101
11110001
11110001

TIL bl
11111011
11111011
10011011
10011011
11111000
11111000
10011000
10011000

TIL bm
00110111
00110111
11110110
11110111
11000111
11000001
11000111
11000111

TIL bn
10000000
10000000
00000000
10000000
10000000
10000000
10000000
10000000

TIL bo
10000010
00110001
10011000
10001010
00110001
01000010
01000010
00000100
>
00000010
01000001
10011000
01001100
01000101
10011000
00100001
00100001

TIL bp
00000000
00011000
01111110
00111100
00111100
00011000
00011000
01111110

TIL bq
00010000
00110000
00100000
01100000
11000000
00000000
01000000
00000000

TIL br
00000000
00000000
00000000
00000000
00000000
00000000
00000000
00000000

TIL bs
00000000
00000000
00000000
00001111
00000011
00010000
00010000
00010000

TIL bt
11111111
01000000
01110000
00010000
00011100
00000100
00000111
00000001

TIL bu
01111110
00111100
00011000
00011000
00011000
00011000
00011000
01111110

TIL bv
00000100
00001010
01001000
10101001
00101010
00101010
10000001
11111111
>
01000000
10100100
00101010
00101000
00101001
00101010
10000001
11111111

TIL bw
00000000
00000000
00000000
00001111
11110000
00000000
00000000
00000000

TIL bx
00000000
00000000
00000000
00001111
11110000
00000000
00000000
00000000
>
00000000
00000000
00000000
11110000
00001111
00000000
00000000
00000000

TIL by
00111100
01000010
10100101
10011001
10011001
10100101
01000010
00111100
>
00111100
01010010
10010001
10011111
11111001
10001001
01001010
00111100

TIL bz
00000111
00000111
00000111
00001000
00001000
00001000
00010000
00010000
>
00000111
00000111
00000111
00000100
00000100
00000100
00000010
00000010

TIL c0
00000000
00000000
00000000
00000000
00000000
00010000
00101111
00100111

TIL c1
11110000
11110000
11110000
00001000
00001000
00001000
00000100
00000100
>
11110000
11110000
11110000
00010000
00010000
00001000
00001000
00010000

TIL c2
00010000
00011111
00011111
00010000
00010000
00010000
11110000
11110000

TIL c3
11111111
11111111
11000011
11000000
11000000
11100000
11111111
11111111

TIL c4
11111111
00000000
00000000
00000000
00000000
00000000
00000000
00000000

TIL c5
00001111
00001111
00000011
00000011
00001111
00001111
00000011
00000011

TIL c6
00000000
00000000
00000000
11111111
00000000
00000000
00000000
11111111

TIL c7
11000000
11000000
11110000
11110000
11000000
11000000
11110000
11110000

TIL c8
10000000
00000000
00000000
00000000
00000000
00000000
00000000
00000000

TIL c9
00000001
00000000
00000000
00000000
00000000
00000000
00000000
00000000

TIL ca
11000000
01000000
01110000
00010000
00011100
00000100
00000111
00000001

TIL cb
00000011
00000010
00001110
00001000
00111000
00100000
11100000
10000000

TIL cc
00000001
00000001
00000001
00000001
00000001
00000001
00000001
00000001

TIL cd
00000000
11111111
00010000
00010011
11111110
00111000
11100000
11111111

TIL ce
00000000
11111111
01110010
00011110
00000111
00000001
00000000
11111111

TIL cf
00000000
11111111
00001000
00001000
11111111
11000010
01110010
11111111

TIL cg
00000000
00000000
00000000
00000000
00000000
11000000
01110000
00011100

TIL ch
00000000
00000000
00000000
00000000
00001111
00111001
11100000
10000000

TIL ci
01111110
01000010
01000010
01000010
01000010
01000010
01111110
00000000

TIL cj
00001000
00001000
00001000
00001000
00001000
00001111
00001000
00001111

TIL ck
00001000
00001000
00001000
00001000
00001000
00001000
00001000
00001000

TIL cl
00000000
00001111
00001010
00001010
00001111
00001000
00001000
00001111

TIL cm
00000000
00111111
00100000
00100000
00100000
00100000
00111111
00000000

TIL cn
11000000
01000000
01110000
00010000
00011100
00000100
00000111
11111111

TIL co
00010000
00100000
00100000
01000000
01000000
10000000
10000000
10000000

TIL cp
10000000
10000000
10000000
10000000
10000000
10000000
10000000
10000011

TIL cq
00001000
00000100
00000100
00000010
00000010
00000001
00000001
00000001

TIL cr
00000000
00000000
10000000
01000000
00100000
00010000
00010000
00001000

TIL cs
00000000
00000000
00000001
00000010
00000100
00001000
00001000
00010000

TIL ct
00001111
01110000
10000000
00000000
00000000
00000000
00000000
00000000

TIL cu
11110000
00001110
00000001
00000000
00000000
00000000
00000000
00000000

TIL cv
00000001
00000001
00000111
00000100
00000100
00000100
00000100
00001100

TIL cw
10000000
10000000
11100000
00100000
00100000
00100000
00100000
00110000

SPR 10
00011000
00100100
01000010
10000001
10000001
10000001
10000001
11111111
DLG SPR_o
POS 12 6,12

SPR 11
01111100
01000100
01000100
01000100
01000100
01000100
01000100
11000111
DLG SPR_p
POS 12 10,12

SPR 12
00011000
00011000
01001001
00111110
00011100
00011100
00010100
00010100
DLG SPR_q
POS 7 9,15

SPR 13
00011000
00011000
00001000
00111000
00111000
00111000
00001000
00001000
DLG SPR_r
POS 8 3,13

SPR 14
00011000
00011000
00010000
00111000
00111000
00111000
00101000
00101000
DLG SPR_s
POS 8 8,15

SPR 15
00000000
00000000
00000000
00000000
00000000
00000000
00000000
00000000

SPR 16
00011000
00100100
01000010
10000001
10000001
10000001
10000001
11111111
DLG SPR_t

SPR 17
11111111
10000001
10000001
10000001
10000001
10000001
10000001
10000001
POS i 6,13

SPR 18
00011000
00011000
00001000
00001000
00011000
00011000
00101000
01001000
DLG SPR_u
POS 2 11,13

SPR 19
00000000
00000000
00000000
00000000
00000000
00000000
00000000
00000000

SPR 20
00001111
00001111
00001111
00001000
00001000
00010000
00010000
00010000
DLG SPR_1m
POS 4 5,12

SPR 21
11100000
11100000
11100000
00010000
00010000
00001000
00001000
00001000
DLG SPR_1k
POS 4 6,12

SPR 22
00000000
00000000
00000000
00000000
00000000
00001000
11110100
11100100
DLG SPR_1l
POS 4 6,11

SPR 23
00001000
00001000
11111000
11111000
00001000
00001000
00001111
00001111
DLG SPR_1n
POS 4 5,11

SPR 24
00000000
00000000
01111111
01000001
01011101
01000001
01111111
00000000
DLG SPR_1o
POS 4 1,11

SPR 25
00000000
00000000
00000000
00000000
00000000
00010000
00101111
00100111
POS 6 15,13

SPR 26
00000111
00000111
00000111
00001000
00001000
00010000
00010000
00010000
POS 6 15,14

SPR 27
00000000
00000000
00000000
00000000
00000000
00000000
00000000
00000000

SPR 28
00110000
00110000
01111000
00010000
00111000
00111000
00111000
00101000
DLG SPR_1p
POS 6 11,14

SPR 29
00000110
00001111
00000110
00000110
00000010
00001110
00101110
01011110
POS 6 13,11

SPR 30
00000101
00000111
00000100
01010100
01111100
01000000
01000000
01000000
POS 1l 3,4

SPR 31
01000000
11000000
01000000
01010101
01000000
01000000
01000000
01000000
POS 1l 4,4

SPR 32
00000000
00000000
00000000
01010101
00000001
00000001
00000001
00000001
POS 1l 5,4

SPR 33
00000110
00001111
00000110
00000110
00000010
00001110
00101110
01011110
POS 1f 7,6

SPR 34
00000110
00001111
00000110
00000110
00000010
00001110
00101110
01011110

SPR 35
01100000
01100000
11110010
01000101
01001000
01110000
01110000
01110000
POS 1f 8,6

SPR 36
00011000
00011000
00111100
00010000
00011100
00011100
00011110
00000010
POS 1o 5,7

SPR 37
11101111
11101111
01101100
01101111
11101111
11000011
11101111
01101111
POS 1o 8,2

SPR 38
00110111
00110111
00110110
00110110
00110111
00110111
11110110
11110110
POS 1o 7,2

SPR 39
11111011
11111011
10011011
10011011
10011011
10011011
11111011
11111011
POS 1o 6,2

SPR 40
00001100
00011110
00001100
00000100
00001100
00011100
00010100
00010100
DLG SPR_2o
POS 1c 13,13

SPR 41
00110000
00110000
01111000
00010000
00111000
00111000
00111000
00101000
DLG SPR_2p
POS 1l 11,12

SPR 42
00011000
00011010
00010100
00111000
00110000
00111000
00101000
00101000
DLG SPR_2q
POS g 7,11

SPR 43
01000110
11100110
01000010
01001110
00101110
00101110
00010010
00010010
DLG SPR_2r
POS 1l 2,11

SPR 44
00000111
00000111
00000111
00001000
00001000
00010000
00010000
00010000
DLG SPR_2s
POS g 15,12

SPR 45
00000000
00000000
00000000
00000000
00000000
00010000
00101111
00100111
POS g 15,11

SPR 46
01000110
11100110
01000010
01001110
00101110
00101110
00010010
00010010
DLG SPR_2t
POS g 2,11

SPR 47
00000000
00000000
00000000
01010101
00000001
00000001
00000001
00000001
POS g 5,4

SPR 48
01000000
11000000
01000000
01010101
01000000
01000000
01000000
01000000
POS g 4,4

SPR 49
00000101
00000111
00000100
01010100
01111100
01000000
01000000
01000000
POS g 3,4

SPR 50
00001111
00001111
00001111
00001000
00001000
00010000
00010000
00010000
DLG SPR_3i
POS b 11,15

SPR 51
11100000
11100000
11100000
00010000
00010000
00001000
00001000
00001000
DLG SPR_3f
POS b 12,15

SPR 52
00000000
00000000
00000000
11111111
10000001
10110101
10000001
11111111
DLG SPR_3j
POS f 15,13

SPR 53
11111111
10000001
10101101
10000001
11111111
00011000
00011000
00011000
DLG SPR_3k
POS g 3,15

SPR 54
11111111
10000001
10101101
10000001
11111111
00011000
00011000
00011000
DLG SPR_3l
POS 12 12,14

SPR A
00011000
00011000
00001000
00111110
01011101
00011100
00010100
00010100
POS 1 12,12

SPR a
00011000
00011010
00010100
00111000
00110000
00111000
00101000
00101000
DLG SPR_0
POS 1l 7,11

SPR b
00000000
00000000
00000000
00000000
01111110
01000010
01111110
00000000
DLG SPR_1

SPR c
01011010
00111100
00011000
00010000
01111100
10111010
00101000
00101000
DLG SPR_2
POS 1 10,12

SPR d
00011000
00011000
00111100
00001001
00111110
01011100
00010100
00010100
DLG SPR_3
POS 2 1,13

SPR e
00010000
11100000
11100000
00111111
00111110
00100001
01000001
01000001

SPR f
01100000
01100000
00100000
01111000
01110100
01110000
01010000
01010000
DLG SPR_4
POS 9 4,15

SPR g
00011000
00011000
00001000
01111110
11011101
10011100
10010100
10010100
DLG SPR_5
POS 6 3,13

SPR h
10011000
10011001
10010010
10011100
11111111
10011100
10010100
10010100
DLG SPR_6
POS 4 8,14

SPR i
00000001
00000001
00000001
00000001
11111111
00000001
00000001
00000001
DLG SPR_7
POS 4 9,14

SPR j
00000000
00000000
00000000
00000000
00000000
00000100
00001110
00011111
DLG SPR_8
POS 6 9,14

SPR k
00001100
00001100
00001000
00001111
00001100
00010100
00100100
00000000
DLG SPR_9
POS 4 12,15

SPR l
00000000
00000000
01000001
11000011
11111110
01111000
01001000
10000100
DLG SPR_a
POS 12 9,15

SPR m
01000010
00100100
00111100
00100100
00111100
00111100
00100100
00000000
>
00100100
00100100
00111100
00100100
00111100
00111100
00100100
00000000
DLG SPR_b
POS 12 4,12

SPR n
00010000
00111000
00011000
00001000
00011100
00011100
00010100
00010100
DLG SPR_c
POS 10 13,13

SPR o
00000000
00011000
00011000
00010000
00111100
00111010
00101000
00101000
DLG SPR_d
POS 10 14,13

SPR p
00000000
00000000
00110000
00110000
00010000
00111000
00010000
00101000
DLG SPR_e
POS 10 4,15

SPR q
00000000
00000000
00000000
00000000
00000000
00001000
00011100
00111110
DLG SPR_f
POS 10 8,13

SPR r
00110000
00110000
00010000
00111000
00111000
00111000
00101000
00101000
DLG SPR_g
POS 17 9,13

SPR s
11111111
11111111
11111111
11111111
11111111
11111111
11111111
11111111
DLG SPR_h
POS 17 0,13

SPR t
11111111
11111111
11111111
11111111
11111111
11111111
11111111
11111111
DLG SPR_i
POS 17 0,14

SPR u
11111111
11111111
11111111
11111111
11111111
11111111
11111111
11111111
DLG SPR_j
POS 17 0,15

SPR v
00110000
00110000
00010000
00111000
00111000
00111000
00101000
00101000
DLG SPR_k
POS 18 9,13

SPR w
11111111
10000001
10101101
10000001
11111111
00001000
00001000
00001000
DLG SPR_l
POS 18 11,14

SPR x
11111111
10000001
10101101
10000001
11111111
00001000
00001000
00001000
DLG SPR_m
POS 17 11,14

SPR y
01100000
01100000
00100000
01110000
01111000
01110000
01010000
01010000
DLG SPR_n
POS 7 13,13

SPR z
00000000
01110000
11111000
11111000
11111000
01110000
00000000
00000000
POS 19 7,3

SPR 1a
00110000
00110000
00010000
00111000
00111000
00101000
00101000
00000000
DLG SPR_v
POS b 2,13

SPR 1b
00011000
00011001
00010010
00011100
00011100
00010100
00010100
00000000
DLG SPR_w
POS 3 5,15

SPR 1c
00011000
00111100
00011000
00011000
01111000
01111000
00101000
00101000
DLG SPR_x
POS 2 8,14

SPR 1d
00000001
00000001
00000001
00000001
00000001
00000001
00000001
00000001
DLG SPR_y
POS 2 2,12

SPR 1e
10000000
10000000
10000000
10000000
10000000
10000000
10000000
10000000
DLG SPR_z
POS 2 1,12

SPR 1f
10000000
10000000
10000000
10000000
10000000
10000000
10000000
10000000
DLG SPR_10
POS 2 5,12

SPR 1g
00000001
00000001
00000001
00000001
00000001
00000001
00000001
00000001
DLG SPR_11
POS 2 6,12

SPR 1h
10000000
10000000
10000000
10000000
10000000
10000000
10000000
10000000
DLG SPR_12
POS 2 9,12

SPR 1i
00000001
00000001
00000001
00000001
00000001
00000001
00000001
00000001
DLG SPR_13
POS 2 10,12

SPR 1j
00000000
00000000
00011000
00011000
00010000
00111100
00011000
00100100
DLG SPR_14
POS 2 14,15

SPR 1k
11111110
10111011
11111111
11101011
11111110
11011111
10111011
11111111
DLG SPR_15
POS 16 0,13

SPR 1l
11111110
10111011
11111111
11101011
11111110
11011111
10111011
11111111
DLG SPR_16
POS 16 0,14

SPR 1m
01111110
01000010
01000010
01000010
01000010
01000010
01000010
11000011
DLG SPR_3e
POS h 2,13

SPR 1n
00001111
00001111
00001111
00001000
00001000
00010000
00010000
00010000
DLG SPR_1i
POS 3 11,15

SPR 1o
11100000
11100000
11100000
00010000
00010000
00001000
00001000
00001000
DLG SPR_1j
POS 3 12,15

SPR 1p
00001000
00001000
11111000
11111000
00001000
00001000
00001111
00001111
DLG SPR_1g
POS 3 11,14

SPR 1q
00000000
00000000
00000000
00000000
00000000
00001000
11110100
11100100
DLG SPR_1h
POS 3 12,14

SPR 1r
00110000
00110000
01111000
00010000
00111000
00111000
01111000
01000000
DLG SPR_17
POS 3 14,14

SPR 1s
10000000
10000000
10000000
10000000
10000000
10000000
10000000
10000000
DLG SPR_18
POS 3 5,12

SPR 1t
00000001
00000001
00000001
00000001
00000001
00000001
00000001
00000001
DLG SPR_19
POS 3 6,12

SPR 1u
10000000
10000000
10000000
10000000
10000000
10000000
10000000
10000000
DLG SPR_1a
POS 3 8,12

SPR 1v
00000001
00000001
00000001
00000001
00000001
00000001
00000001
00000001
DLG SPR_1b
POS 3 9,12

SPR 1w
00000001
00000001
00000001
00000001
00000001
00000001
00000001
00000001
DLG SPR_1c
POS 3 12,12

SPR 1x
10000000
10000000
10000000
10000000
10000000
10000000
10000000
10000000
DLG SPR_1d
POS 3 11,12

SPR 1y
10000000
10000000
10000000
10000000
10000000
10000000
10000000
10000000
DLG SPR_1e
POS 3 14,12

SPR 1z
00000001
00000001
00000001
00000001
00000001
00000001
00000001
00000001
DLG SPR_1f
POS 3 15,12

SPR 2a
00000000
00000000
00000000
00000000
00000000
00000000
00000000
00000000

SPR 2b
00000000
00000000
00000000
00000000
00000000
00000000
00000000
00000000
DLG SPR_1q
POS 12 15,13

SPR 2c
00000000
00000000
00000000
00000000
00000000
00000000
00000000
00000000
DLG SPR_1r
POS 12 15,14

SPR 2d
00000000
00000000
00000000
00000000
00000000
00000000
00000000
00000000
DLG SPR_1s
POS 12 15,15

SPR 2e
00000011
10000011
01100001
00011111
00000111
00000111
00000101
00000101
DLG SPR_1t
POS 1c 7,14

SPR 2f
00000000
00000001
00000010
00000100
00001000
00010000
00100000
01000000
DLG SPR_1u
POS 1c 6,14

SPR 2g
00000011
00000011
00000001
00000111
00000111
00000111
00000101
00000101
DLG SPR_1v
POS 1k 7,13

SPR 2h
00111100
01111110
11111111
11111111
11111111
11111111
01111110
00111100
POS 1g 8,2

SPR 2i
11111111
10000001
10101101
10000001
11111111
00011000
00011000
00011000
DLG SPR_1w
POS 1a 9,12

SPR 2j
10001100
10001100
01000100
01011111
00101110
00101110
00010010
00010010
POS 5 13,4

SPR 2k
00110001
00110001
00100010
11111010
01110100
01110100
01001000
01001000
POS 5 5,4

SPR 2l
00000011
00000011
01100010
10010111
10011011
10010011
10010010
01100010
POS 5 9,2

SPR 2m
00001000
00011100
00001000
11101000
10010000
10010000
10100000
10100000
POS 5 10,2

SPR 2n
00000000
00000000
10000000
11100000
11000000
11000000
01110000
01111110
DLG SPR_1x
POS e 0,7

SPR 2o
00001100
00011110
00001100
00000100
00001110
00001110
00001010
00001010
DLG SPR_1y
POS e 14,1

SPR 2p
00000110
00000110
00000010
00001111
00000111
00000111
00000101
00000101
DLG SPR_1z
POS e 12,4

SPR 2q
00011000
00011000
01001010
00111100
00011000
00011000
00001000
00001000
DLG SPR_20
POS e 8,10

SPR 2r
00000000
00011000
00011000
00001000
00011000
00111100
01111110
00101000
DLG SPR_21
POS f 13,14

SPR 2s
00000000
00000000
00000000
00000000
00000000
00000000
00000000
00000000

SPR 2t
00000000
00000000
00000110
00000110
00000010
00000111
00100111
01011111
DLG SPR_22
POS f 4,13

SPR 2u
00001111
00000111
00110100
11111110
01111111
01111111
01011010
01000010
DLG SPR_23
POS f 4,15

SPR 2v
00001111
00000111
00110100
11111110
01111111
01111111
01011010
01000010
DLG SPR_24
POS f 0,15

SPR 2w
00001111
00000111
00110100
11111110
01111111
01111111
01011010
01000010
DLG SPR_25
POS f 6,14

SPR 2x
00000111
00000111
00000111
00001000
00001000
00010000
00010000
00010000
DLG SPR_26
POS 1l 15,12

SPR 2y
00000000
00000000
00000000
00000000
00000000
00010000
00101111
00100111
POS 1l 15,11

SPR 2z
00110000
00110000
01111000
00010000
00111000
00111000
00111000
00101000
DLG SPR_27
POS g 11,12

SPR 3a
11001101
11001101
11001101
11111101
11111101
11001101
11001101
11001101
POS 1o 5,2

SPR 3b
11001101
11001101
11001101
11111101
11111101
11001101
11001101
11001101
POS 1p 5,2

SPR 3c
11101111
11101111
01101100
01101111
11101111
11000011
11101111
01101111
POS 1p 8,2

SPR 3d
00110111
00110111
00110110
00110110
00110111
00110111
11110110
11110110
POS 1p 7,2

SPR 3e
11111011
11111011
10011011
10011011
10011011
10011011
11111011
11111011
POS 1p 6,2

SPR 3f
00011000
00011000
00111100
00010000
00011100
00011100
00011110
00000010
POS 1p 5,7

SPR 3g
11001101
11001101
11001101
11111101
11111101
11001101
11001101
11001101
POS 1f 5,2

SPR 3h
11101111
11101111
01101100
01101111
11101111
11000011
11101111
01101111
POS 1f 8,2

SPR 3i
00110111
00110111
00110110
00110110
00110111
00110111
11110110
11110110
POS 1f 7,2

SPR 3j
11111011
11111011
10011011
10011011
10011011
10011011
11111011
11111011
POS 1f 6,2

SPR 3k
00000000
00000000
01111100
01000100
01000100
11111111
10001001
11111111
DLG SPR_28
POS 3 1,13

SPR 3l
00011000
00111100
00011000
00010000
00111000
00111000
00101000
00101000
DLG SPR_29
POS 3 7,14

SPR 3m
00011000
00011000
00010000
01111000
00111100
00111000
00101000
00101000
DLG SPR_2a
POS 5 6,13

SPR 3n
00001100
00011110
00001100
00001100
00111100
00111100
00010100
00010100
DLG SPR_2b
POS 5 8,13

SPR 3o
00000000
00110000
00110000
00100000
01111000
00110000
00110000
01010000
DLG SPR_2c
POS 5 10,13

SPR 3p
00110000
00110000
00010000
01110000
01110000
01110000
00010000
00010000
DLG SPR_2d
POS 5 12,14

SPR 3q
00011000
00011000
00001000
00001000
00011000
00011000
00101000
01001000
DLG SPR_2e
POS c 9,13

SPR 3r
00000110
00001111
00000110
00000110
00000010
00001110
00101110
01011110
DLG SPR_2f
POS b 4,15

SPR 3s
00011000
00011000
00010000
00111000
01111100
10111000
00101000
00101000
DLG SPR_2g
POS b 7,14

SPR 3t
00011000
00011000
01001010
00111100
00011000
00011000
00001000
00001000
DLG SPR_2h
POS c 1,14

SPR 3u
00011000
00111100
00011000
00010000
00111000
00111000
00101000
00101000
DLG SPR_2i
POS c 10,15

SPR 3v
00001100
00001100
00001000
00011100
00011100
00011100
00010100
00010100
DLG SPR_2j
POS b 10,15

SPR 3w
00011000
00011000
01010000
00111000
00111000
00111000
00101000
00101000
DLG SPR_2k
POS c 5,15

SPR 3x
11000100
11111001
10011011
00000110
01110000
00010010
01011100
10000010
DLG SPR_2l
POS 15 0,13

SPR 3y
00100000
00100000
00100000
00100000
00100000
00100000
00100000
11100000
DLG SPR_2m
POS 1b 7,10

SPR 3z
00000100
00000100
00000100
00000100
00000100
00000100
00000100
00000111
DLG SPR_2n
POS 1b 8,10

SPR 4a
00000000
00000000
00000000
00000000
00000000
00000000
00000000
00000000

SPR 4b
11111111
10000001
10101101
10000001
11111111
00001000
00001000
00001000
DLG SPR_2u
POS 7 2,14

SPR 4c
01100000
01100000
00100100
01110100
01111000
01110000
01010000
01010000
DLG SPR_2v
POS 9 3,15

SPR 4d
00011000
00011001
00010010
00011100
00011100
00010100
00010100
00000000
DLG SPR_2w
POS 9 13,15

SPR 4e
00011000
00111100
00011000
00011000
01111000
01111000
00101000
00101000
DLG SPR_2x
POS 9 7,13

SPR 4f
00000000
00000000
00011000
00011000
00010000
00111100
00011000
00100100
DLG SPR_2y
POS 9 12,14

SPR 4g
00001000
00001000
11111000
11111000
00001000
00001000
00001111
00001111
DLG SPR_30
POS a 10,14

SPR 4h
00000000
00000000
00000000
00000000
00000000
00001000
11110100
11100100
DLG SPR_2z
POS a 11,14

SPR 4i
00001111
00001111
00001111
00001000
00001000
00010000
00010000
00010000
DLG SPR_31
POS a 10,15

SPR 4j
11100000
11100000
11100000
00010000
00010000
00001000
00001000
00001000
POS a 11,15

SPR 4k
01100000
01100000
00100100
01110100
01111000
01110000
01010000
01010000
DLG SPR_32
POS a 8,14

SPR 4l
00011000
00011000
01010000
00111000
00111000
00111000
00101000
00101000
DLG SPR_33
POS a 5,15

SPR 4m
00011000
00111100
00011000
00010000
00111000
00111000
00101000
00101000
DLG SPR_34
POS a 13,14

SPR 4n
01100000
01100000
00100000
01111000
01110100
01110000
01010000
01010000
DLG SPR_35
POS a 6,15

SPR 4o
11111111
10000001
10101101
10000001
11111111
00001000
00001000
00001000
DLG SPR_36
POS 5 4,13

SPR 4p
00001111
00000111
00110100
11111110
01111111
01111111
01011010
01000010
DLG SPR_39
POS f 2,14

SPR 4q
00001111
00000111
00110100
11111110
01111111
01111111
01011010
01000010
DLG SPR_38
POS f 3,15

SPR 4r
00001111
00000111
00110100
11111110
01111111
01111111
01011010
01000010
DLG SPR_37
POS f 1,15

SPR 4s
00001111
00000111
00110100
11111110
01111111
01111111
01011010
01000010
DLG SPR_3a
POS f 0,14

SPR 4t
10000000
10000000
10000000
10000000
10000000
10000000
10000000
11111111
DLG SPR_3b
POS f 10,14

SPR 4u
00000001
00000001
00000001
00000001
00000001
00000001
00000001
11111111
DLG SPR_3c
POS f 11,14

SPR 4v
01010000
01010000
01010000
11110000
00001110
00001010
00000010
11111110
DLG SPR_3d
POS h 6,9

SPR 4w
00000000
01110000
11111000
11111000
11111000
01110000
00000000
00000000
POS 18 1,7

SPR 4x
01100000
01100000
11110010
01000101
01001000
01110000
01110000
01110000
POS 1m 8,6

SPR 4y
00001000
00001000
11111000
11111000
00001000
00001000
00001111
00001111
DLG SPR_3g
POS b 11,14

SPR 4z
00000000
00000000
00000000
00000000
00000000
00001000
11110100
11100100
DLG SPR_3h
POS b 12,14

ITM 0
00000000
00000000
00000000
00111100
01100100
00100100
00011000
00000000
DLG ITM_0

DLG SPR_0
It's a statue of Henry Dundas. You shake your fist at him.

DLG ITM_0
You got a cup of tea! Nice.

DLG SPR_1
West India Docks

DLG SPR_2
I sail for Madras tomorrow.

DLG SPR_3
Out of my way, Musselman.

DLG SPR_4
A vault, on outstretched columns

DLG SPR_5
I've come to claim my pension.

DLG SPR_6
Fresh hot house fruit!

DLG SPR_7
An orange rolls off the stall and into the road.

DLG SPR_8
Horse manure coats your shoes.

DLG SPR_9
A small boy runs past you with an orange.

DLG SPR_a
A fox shrieks in the darkness. 

DLG SPR_b
An owl hoots in the dark trees above you.

DLG SPR_c
We've no rooms.

DLG SPR_d
And we don't accept foreign money.

DLG SPR_e
The child screams in fright.

DLG SPR_f
In the dark, you step in cow poo.

DLG SPR_g
Here, yonker, you shouldn't be out in this weather. Wait in my house for it to pass.

DLG SPR_h
The road is impassable.

DLG SPR_i
You struggle out of a snow drift.

DLG SPR_j
You have never experienced such cold before.

DLG SPR_k
The Macleod house is a day's walk west of here.

DLG SPR_l
New Biggin

DLG SPR_m
New Biggin

DLG SPR_n
Can I practice my Sanskrit on you?

DLG SPR_o
You knock on the thick door. No one answers.

DLG SPR_p
The night is cold and you try the door. It is firmly bolted.

DLG SPR_q
I threw a rock at a beak and now they want to rusticate me!

DLG SPR_r
Are you the new Moonshee?

DLG SPR_s
We haven't had a Persian Professor for two years.

DLG SPR_t
From inside, the sound of 

DLG SPR_u
The woman gives you to understand she will have sex with you for 50 rupees.

DLG SPR_v
The Chinese sailor ignores you.

DLG SPR_w
The Lascar points you in the direction of a nearby curry house.

DLG SPR_x
The gouty merchant ignores you.

DLG SPR_y
The warehouse is full of bricks of tea.

DLG SPR_z
The warehouse is full of bricks of tea.

DLG SPR_10
The warehouse is full of bales of cotton.

DLG SPR_11
The warehouse is full of bales of cotton.

DLG SPR_12
The warehouse is full of animal skins.

DLG SPR_13
The warehouse is full of animal skins.

DLG SPR_14
The child is carrying a letter and doesn't stop.

DLG SPR_15
The snow is over your knees.

DLG SPR_16
The path is near impassable.

DLG SPR_17
You show the address on the letter to the coachman. He agrees to take you there for 50 rupees.

DLG SPR_18
Coal

DLG SPR_19
Coal.

DLG SPR_1a
More coal

DLG SPR_1b
More coal.

DLG SPR_1c
Piles and piles of coal.

DLG SPR_1d
Piles and piles of coal.

DLG SPR_1e
This room is used for storing ostrich feathers.

DLG SPR_1f
This room is used for storing ostrich feathers.

DLG SPR_1g
Neigh.

DLG SPR_1h
Neigh.

DLG SPR_1i
Neigh.

DLG SPR_1j
Neigh.

DLG SPR_1k
The horse looks like it has dysentery.

DLG SPR_1l
The horse looks like it has dysentery.

DLG SPR_1m
The horse looks like it has dysentery.

DLG SPR_1n
The horse looks like it has dysentery.

DLG SPR_1o
Leadenhall Street

DLG SPR_1p
The coachman will drop you in Hertford for 100 rupees.

DLG SPR_1q
Ahead, there is only the bare moor.

DLG SPR_1r
There is no sign of human habitation.

DLG SPR_1s
You decide to retrace your steps.

DLG SPR_1t
You hand Macleod the letter. He reads it slowly. "I didn't think anyone would come for this debt. Meet me at the house and I'll repay you."

DLG SPR_1u
You hand the Macleod the letter. He reads it slowly. 

DLG SPR_1v
Macleod hands you a piece of paper. "My Bank in Madras is Malcolm, Graham & Co." He offers his hand. "Your father helped me when I was a young man in Khandesh. I remember him fondly."

DLG SPR_1w
Castle Macleod

DLG SPR_1x
Hic

DLG SPR_1y
Leith ain't part of Edinburgh, lad. Keep walking.

DLG SPR_1z
There's been a lot more of you lot here of late.

DLG SPR_20
I'll sail for Gravesend after I've restocked.

DLG SPR_21
The merchant tries to sell you a length of wool with a garish check pattern.

DLG SPR_22
Gie us a penny laddie

DLG SPR_23
Baaaa

DLG SPR_24
Baa

DLG SPR_25
Baa

DLG SPR_26
The horse is mangy looking.

DLG SPR_27
What? You wasting my time?

DLG SPR_28
Customs confiscate your shawls and smash a jar of pickled mango but otherwise your luggage survives.

DLG SPR_29
The sailor spits at your feet and doesn't answer your greeting.

DLG SPR_2a
General Macleod retired as an East India Company Director ten years ago.

DLG SPR_2b
Do you have an appointment with anyone?

DLG SPR_2c
We don't hear petitions in person. Send it in writing.

DLG SPR_2d
I sponsored Pulteney Macleod's appointment to Haileybury. Go to Hertford and he'll know where his father is.

DLG SPR_2e
The man gives you to understand he will have sex with you for 40 rupees.

DLG SPR_2f
The man slurs something which sounds like Ivory Coast.

DLG SPR_2g
I sail for Newtown tomorrow.

DLG SPR_2h
The man introduces himself as Captain Threepwood. He offers to transport you to Leith for 500 rupees. He looks suspect but you have no other options.

DLG SPR_2i
I'm going to St Kitts

DLG SPR_2j
We're going to Madeira.

DLG SPR_2k
If you want to go to St Helena, our tub's in the dock over.

DLG SPR_2l
You fall in a snowdrift. 

DLG SPR_2m
A butler answers the door. "General Macleod is down fishing on the loch."

DLG SPR_2n
A butler answers the door. "General Macleod is down fishing on the loch."

DLG SPR_2o
The ghillie grunts and inclines his head towards the figure on the edge of the water.

DLG SPR_2p
I can only take you as far as Dunkeld.

DLG SPR_2q
It's a statue of Henry Dundas. You shake your fist at him.

DLG SPR_2r
It's a statue of some male philanthropist.

DLG SPR_2s
The horse takes a piss on your shoes.

DLG SPR_2t
It's a statue of some male philanthropist.

DLG SPR_2u
East India College

DLG SPR_2v
We call this architectural style Cockney Grecian.

DLG SPR_2w
I saw Macleod go that way.

DLG SPR_2x
Are you here to learn about my theory of population control?

DLG SPR_2y
Utilitarianism is the future.

DLG SPR_2z
A well bred Arab.

DLG SPR_30
A well bred Arab.

DLG SPR_31
A well bred Arab.

DLG SPR_32
I'm Pulteney Macleod. You're looking for my father? He wrote me from Edinburgh three days ago.

DLG SPR_33
We've been fagging hard all term. 

DLG SPR_34
Hop in, we'll drop you off at the docks on the way. You can pick up a boat to the land o' cakes from there.

DLG SPR_35
We're going to Covent Garden.

DLG SPR_36
East India House

DLG SPR_37
Baaaa

DLG SPR_38
Baaaaaa

DLG SPR_39
Baaa

DLG SPR_3a
Baa

DLG SPR_3b
The shop is full of garish plaid.

DLG SPR_3c
The shop is full of garish plaid.

DLG SPR_3d
A maid opens the door. "Servants use the back entrance."

DLG SPR_3e
The maid from upstairs opens the door. "General Macleod is at his seat in the Highlands."

DLG SPR_3f
You admire the horse's pedigree. 

DLG SPR_3g
You admire the horse's pedigree. 

DLG SPR_3h
You admire the horse's pedigree. 

DLG SPR_3i
You admire the horse's pedigree. 

DLG SPR_3j
Royal Mile

DLG SPR_3k
Charlotte's Square

DLG SPR_3l
Castle Douglas

END 0


END undefined
In the summer of 1818, you land in Madras. You have a bill for 5,00,000 rupees in your pocket.

