A sky adventure

# BITSY VERSION 5.1

! ROOM_FORMAT 1

PAL 0
13,10,41
50,161,235
191,46,125

PAL 1
125,0,69
250,234,208
244,71,99

ROOM 0
l,n,l,l,l,0,n,l,0,l,l,m,l,0,l,l
0,0,l,0,0,0,0,0,0,0,0,0,l,l,l,0
s,t,u,t,v,0,0,j,i,k,l,0,0,0,0,0
w,w,w,w,w,x,e,f,0,0,0,0,l,0,0,0
o,p,q,q,p,r,0,0,0,0,0,0,0,0,0,0
0,0,0,0,0,0,e,g,f,0,0,0,0,0,0,0
0,0,0,0,0,0,0,0,0,0,0,0,0,0,0,0
0,0,0,e,f,0,0,0,0,0,0,0,0,0,h,h
0,0,0,0,e,g,g,g,f,0,0,0,0,0,0,0
e,g,g,f,0,0,0,0,0,0,0,0,0,0,0,0
m,0,0,j,i,i,k,0,0,0,0,0,0,0,0,0
0,0,0,0,0,0,0,0,0,e,g,g,g,f,0,0
0,0,0,0,0,0,0,0,0,0,0,0,0,0,0,0
0,e,f,0,l,0,0,l,0,0,0,0,0,0,0,0
0,0,0,l,l,l,0,m,0,l,n,l,m,0,l,0
l,0,0,0,0,l,l,0,0,0,0,0,l,0,0,l
ITM 1 12,7
ITM 0 5,6
EXT 15,7 1 0,7
PAL 0

ROOM 1
l,n,l,l,l,0,n,l,0,l,l,m,l,0,l,l
0,0,l,0,0,0,0,0,0,0,0,0,l,l,l,0
0,0,0,0,l,0,0,0,0,0,0,0,0,0,0,0
0,0,0,0,0,0,l,0,0,0,0,0,l,0,0,0
0,0,e,f,0,0,0,0,0,0,l,0,0,m,0,0
0,0,0,0,0,0,0,0,0,0,0,0,0,0,0,0
0,0,0,0,j,i,i,i,k,0,0,0,0,0,0,0
0,m,0,0,0,j,i,k,0,i,k,0,0,0,h,h
0,0,0,0,0,0,j,i,i,k,0,i,k,0,0,0
0,0,0,l,0,0,0,0,0,0,0,0,0,0,0,0
m,0,l,l,0,0,0,0,0,0,0,0,0,0,l,0
0,0,0,0,0,0,0,l,0,0,0,0,0,0,0,0
0,0,0,0,0,0,0,0,l,0,0,0,e,f,0,0
0,e,g,f,l,0,0,l,0,0,0,0,0,0,0,0
0,0,0,l,l,l,0,m,0,l,n,l,m,0,l,0
l,0,0,0,0,l,l,0,0,0,0,0,l,0,0,l
ITM 0 3,2
ITM 1 12,13
EXT 15,7 2 0,7
PAL 0

ROOM 2
i,i,i,i,i,i,i,i,i,i,i,i,i,i,i,i
w,w,w,w,w,w,w,w,w,w,w,w,w,w,w,w
o,p,w,w,w,w,w,w,w,w,w,w,w,w,w,r
0,0,o,p,p,q,p,q,p,o,q,r,0,0,0,0
0,0,0,0,0,0,0,0,0,0,0,0,0,0,0,0
0,0,0,0,0,0,0,0,0,0,0,0,0,0,0,0
0,0,0,0,0,0,0,0,0,0,0,0,0,0,0,0
0,0,0,0,0,0,0,0,0,m,0,0,0,h,h,h
0,0,0,0,0,0,0,0,0,0,0,0,0,0,0,0
0,0,0,0,0,0,0,0,0,0,0,0,0,0,0,0
0,0,0,0,0,0,0,0,0,0,0,0,0,0,0,0
0,0,0,0,0,0,0,0,0,t,t,s,v,0,0,0
0,0,s,t,s,t,t,v,y,w,w,w,w,x,0,0
0,s,w,w,w,w,w,w,w,w,w,w,w,w,w,w
w,w,w,w,w,w,w,w,w,w,w,w,w,w,w,w
i,i,i,i,i,i,i,i,i,i,i,i,i,i,i,i
ITM 0 5,4
ITM 1 12,10
EXT 15,7 5 0,8
PAL 0

ROOM 4
0,0,0,0,0,0,0,0,0,0,0,0,0,0,0,0
0,j,i,i,i,i,i,i,k,0,0,0,0,0,0,0
0,0,0,0,0,0,0,0,0,0,0,0,0,0,0,0
0,0,0,0,1,2,0,3,0,0,0,1,4,0,0,0
0,0,0,5,6,7,0,0,0,0,0,0,1,0,0,0
0,0,0,8,9,a,b,c,0,0,0,0,0,d,0,0
0,0,z,10,11,12,13,14,15,16,0,0,0,17,0,0
0,0,18,2i,2i,1a,1b,1c,1d,1e,1f,1g,1h,1i,1j,0
0,0,1k,2i,2i,1l,1m,1n,1o,1p,1q,1r,1s,1t,1u,h
0,0,1v,1w,2i,2i,2i,2i,1x,2i,1y,1z,20,21,0,0
0,0,0,22,2i,2i,2i,2i,2i,2i,2i,2i,2i,23,0,0
0,0,0,24,25,2i,2i,2i,2i,2i,2i,2i,26,27,0,0
0,0,0,0,28,29,2i,2i,2i,2i,2i,2a,2b,0,0,0
0,0,0,0,0,2c,2d,2e,2f,2g,2h,0,0,0,0,0
0,0,0,0,0,0,0,0,0,0,0,j,i,i,k,0
0,0,0,0,0,0,0,0,0,0,0,0,0,0,0,0
NAME moon room
EXT 15,8 7 0,1
PAL 1

ROOM 5
0,0,0,0,0,0,0,0,0,0,0,0,0,0,0,0
0,0,0,0,0,0,0,0,0,0,0,0,0,0,0,0
0,0,0,0,0,0,0,0,0,0,0,0,0,0,0,0
0,0,0,0,0,0,0,0,0,0,0,0,0,0,0,0
0,0,0,0,0,0,0,0,0,0,0,0,0,0,0,0
0,0,0,0,0,0,0,0,0,0,0,0,0,0,0,0
0,0,0,0,0,0,0,0,0,0,0,0,0,0,0,0
0,0,0,0,0,0,0,0,0,0,0,0,0,0,0,0
0,0,0,0,0,0,0,0,0,0,0,0,0,0,0,3
0,0,0,0,0,0,0,0,0,0,0,0,0,0,0,0
0,0,0,0,0,0,0,0,0,0,0,0,0,0,0,0
0,0,0,0,0,0,0,0,0,0,0,0,0,0,0,0
0,0,0,0,0,0,0,0,0,0,0,0,0,0,0,0
0,0,0,0,0,0,0,0,0,0,0,0,0,0,0,0
0,0,0,0,0,0,0,0,0,0,0,0,0,0,0,0
0,0,0,0,0,0,0,0,0,0,0,0,0,0,0,0
EXT 15,8 6 0,8
PAL 0

ROOM 6
w,w,w,w,w,w,w,w,w,w,w,w,w,w,w,w
w,w,w,w,w,w,w,w,w,w,w,w,w,w,w,w
i,i,i,i,i,i,i,i,i,i,i,i,i,i,i,i
i,i,i,i,i,i,i,i,i,i,i,i,i,i,i,i
0,0,0,0,0,0,0,0,0,0,0,0,0,0,0,0
0,0,e,g,f,0,0,0,0,0,0,0,0,0,0,0
0,0,0,0,0,0,0,0,0,0,0,0,0,0,0,0
0,0,0,0,0,0,0,0,0,0,0,0,0,0,0,0
0,0,0,0,0,0,0,0,0,0,0,0,0,0,h,h
0,0,0,0,0,0,0,0,0,e,g,f,0,0,0,0
0,0,0,0,0,0,0,0,0,0,0,0,0,0,0,0
0,0,0,0,0,0,0,0,0,0,0,0,0,0,0,0
i,i,i,i,i,i,i,i,i,i,i,i,i,i,i,i
i,i,i,i,i,i,i,i,i,i,i,i,i,i,i,i
w,w,w,w,w,w,w,w,w,w,w,w,w,w,w,w
w,w,w,w,w,w,w,w,w,w,w,w,w,w,w,w
ITM 0 4,7
ITM 1 11,8
EXT 15,8 4 0,8
PAL 1

ROOM 7
0,0,0,0,0,0,0,0,0,0,0,0,0,0,0,0
0,0,0,0,0,0,0,0,0,0,0,0,0,0,0,0
0,0,0,0,0,0,0,0,0,0,0,0,0,0,0,0
0,0,0,0,0,0,0,0,0,0,0,0,0,0,0,0
0,0,0,0,0,0,0,0,0,0,0,0,0,0,0,0
0,0,0,0,0,0,0,0,0,0,0,0,0,0,0,0
0,0,0,0,0,0,0,0,0,0,0,0,0,0,0,0
0,0,0,0,0,0,0,0,0,0,0,0,0,0,0,h
0,0,0,0,0,0,0,0,0,0,0,0,0,0,0,0
w,2j,w,w,w,w,w,w,w,w,w,w,w,w,w,w
w,w,w,w,w,2k,w,2l,w,w,2k,w,w,w,w,w
w,w,2k,w,w,w,2j,w,w,w,w,w,w,2j,2l,w
w,w,w,2l,w,w,w,w,w,w,w,w,w,w,w,w
w,w,w,w,w,w,w,w,2l,w,2k,w,w,w,w,w
2j,w,w,w,w,2k,w,w,w,w,w,w,w,w,w,w
w,w,w,w,w,w,w,2l,2k,2j,w,w,w,w,2k,w
EXT 15,7 8 0,7
PAL 1

ROOM 8
0,0,0,0,0,0,0,0,0,0,0,0,0,0,0,0
0,0,0,0,0,0,0,0,0,0,0,0,0,0,0,0
0,0,0,0,0,0,0,0,0,0,0,0,0,0,0,0
0,0,0,0,0,0,0,0,0,0,0,0,0,0,0,0
0,0,0,0,0,0,0,0,0,0,0,0,0,0,0,0
0,0,0,0,0,0,0,0,0,0,0,0,0,0,0,0
0,0,0,0,0,0,0,0,0,0,0,0,0,0,0,0
0,0,0,0,0,0,0,0,0,0,0,0,0,0,0,h
0,0,0,0,0,0,0,0,0,0,2p,2q,2r,2r,2r,2r
w,w,w,w,w,w,w,w,w,2m,2n,0,0,0,0,0
w,2k,w,w,2j,2l,w,w,w,2s,2u,2u,2u,2u,2u,2u
w,w,w,w,w,w,w,w,2l,2k,w,2k,w,w,w,2j
w,w,w,2k,w,w,2k,w,w,w,w,w,w,w,2j,w
2j,w,w,w,w,w,w,w,w,w,w,w,2j,w,w,w
w,w,2l,w,w,w,w,w,w,w,w,2k,w,w,2l,2j
2j,w,w,w,w,2k,2l,w,w,w,w,w,w,w,w,w
END 0 15,7
PAL 1

TIL 1
00000000
00000000
00000000
00000000
00000001
00000000
00000000
00000000
NAME moon room 1

TIL 2
00000000
00000000
00100000
00000000
00000000
00000000
00000000
00000000
NAME moon room 2

TIL 3
00000000
00000000
00000100
00000000
00000000
00000000
00000000
00000000
NAME moon room 3

TIL 4
00000000
00000000
00000000
00000000
00000000
10000000
00000000
00000000
NAME moon room 4

TIL 5
00000000
00000000
00000000
00000000
00000000
00000001
00000011
00000011
NAME moon room 5

TIL 6
00000000
00000000
00000000
01000000
11010000
10000000
11000000
10000000
NAME moon room 6

TIL 7
00010000
00000000
00000000
00000000
00000000
00000000
00000000
00000000
NAME moon room 7

TIL 8
00000111
00000111
00001111
00001111
00011111
00111111
00111110
01111000
NAME moon room 8

TIL 9
10011000
01111100
11011100
11111110
11111110
00111110
00001110
00001110
NAME moon room 9

TIL 10
01111000
01111010
11111111
11111111
11111111
11111111
11111111
11111111
NAME moon room 15

TIL 11
00011111
00001111
01011110
11111111
11111111
11111111
11111111
11111111
NAME moon room 16

TIL 12
00000000
11100000
00000000
00000000
00000000
10000000
00000000
00000000
NAME moon room 17

TIL 13
01100000
01000000
00000000
00000000
00000000
00000000
00000000
00000000
NAME moon room 18

TIL 14
00000111
00000010
11001100
10110100
01111111
01110010
00111110
00011111
NAME moon room 19

TIL 15
00000000
10000000
11000000
10100000
00000000
01000000
00110000
11111010
NAME moon room 20

TIL 16
00000000
00000000
00000000
00000000
00001000
00001000
11000000
00100000
NAME moon room 21

TIL 17
00000000
00000010
00000000
00000000
00000000
00000001
00000001
00000000
NAME moon room 22

TIL 18
00000001
00000001
00000001
00000011
00000011
00000011
00000011
00000011
NAME moon room 23

TIL 19
11111111
11111110
11111111
11111111
11111111
11111111
11111111
11111111
NAME moon room 24

TIL 20
01110111
11111111
11111111
11111111
11111111
11111111
11111111
11111111
NAME moon room 51

TIL 21
11111111
11111111
11111111
11111110
11111110
11111110
11111110
11111100
NAME moon room 52

TIL 22
01111111
00111111
00111111
00011111
00011111
00001111
00001111
00000111
NAME moon room 53

TIL 23
11111100
11111000
11111000
11111000
11110000
11110000
11100000
11000000
NAME moon room 54

TIL 24
00000111
00000011
00000001
00000001
00000000
00000000
00000000
00000000
NAME moon room 55

TIL 25
11111111
11111111
11111111
11111111
11111111
01111111
00111111
00011111
NAME moon room 56

TIL 26
11111111
11111111
11111111
11111111
11111110
11111100
11111000
11110000
NAME moon room 57

TIL 27
11000000
10000000
00000000
00000000
00000000
00000000
00000000
00000000
NAME moon room 58

TIL 28
00001111
00000111
00000011
00000001
00000000
00000000
00000000
00000000
NAME moon room 59

TIL 29
11111111
11111111
11111111
11111111
01111111
00111111
00001111
00000111
NAME moon room 60

TIL e
00000000
00000000
00000111
00001111
00111111
01111111
00111111
00000111
NAME Cloud1
WAL true

TIL f
00000000
00011000
10111100
11111110
11111111
11111111
11011110
10000000
NAME Cloud2
WAL true

TIL g
00000000
00011000
10111100
11111111
11111111
11111111
11001111
10000111
NAME Cloud3
WAL true

TIL h
00000000
00000000
10110111
00000000
00000000
00000000
10110111
00000000
NAME Exit

TIL i
00000000
11111111
00000000
01001111
00000000
11111011
00000000
11101101
NAME Haze1
WAL false

TIL j
00000000
00000111
00000000
01011111
00000000
00001011
00000000
00101111
NAME Haze2
WAL false

TIL k
00000000
11110010
00000000
11001000
00000000
11101000
00000000
11000000
NAME Haze3
WAL false

TIL l
00000000
00000000
00010000
00000000
00000010
00000000
01000000
00000000
NAME Stars1

TIL m
00000000
00010000
00111000
00010000
00000000
01000000
00000010
00000000
>
00000000
00000000
00010000
00000000
01000000
11100000
01000001
00000000
NAME Stars2

TIL n
00000000
00000000
00001000
00000000
00000000
01000000
00000010
00000000
>
00000000
00000100
00000000
00000000
00000000
00000100
00100000
00000000
NAME Stars3Anim

TIL o
11111111
11111111
11111111
11111111
01111111
00011111
00000000
00000000
NAME BigCloud1
WAL true

TIL p
11111111
11111111
11111111
11111111
11011111
10011111
00001110
00000000
NAME BigCloud2
WAL true

TIL q
11111111
11111111
11111111
11111111
11000111
11000011
10000000
00000000
NAME BigCloud3
WAL true

TIL r
11111111
11111111
11111110
11111100
11110000
11000000
00000000
00000000
NAME BigCloud4
WAL true

TIL s
00000000
00000000
00000000
00000011
01101111
11111111
11111111
11111111
NAME Bigcloud5
WAL true

TIL t
00000000
00110000
01111000
11111110
11111111
11111111
11111111
11111111
NAME Bigcloud6
WAL true

TIL u
00000000
00000000
00011100
00111110
11111111
11111111
11111111
11111111
NAME BigCloud7
WAL true

TIL v
00000000
00000000
00000000
00000000
00000000
11110000
11111100
11111110
NAME Bigcloud8
WAL true

TIL w
11111111
11111111
11111111
11111111
11111111
11111111
11111111
11111111
NAME Filler
WAL true

TIL x
00000000
00000000
10000000
11000000
11100000
11110000
11111100
11111110
NAME BigCloud9
WAL true

TIL y
00000001
00000111
01001111
00011111
01111111
01111111
11111111
11111111
NAME bicloud9
WAL true

TIL a
00000000
00000000
00000000
00000000
00000000
00000000
10000000
00000000
NAME moon room 10

TIL b
00000000
00000000
00001000
00000000
00000000
00000000
00000000
01011000
NAME moon room 11

TIL c
00000000
00000000
00000010
00000000
00000000
00000001
00000000
00000100
NAME moon room 12

TIL d
00000000
00000000
00010000
00000000
00000000
00000000
00000000
00000000
NAME moon room 13

TIL z
00000000
00000000
00000000
00000000
00000000
00000001
00000001
00000001
NAME moon room 14

TIL 1a
00000000
10000000
11100000
11100000
11110000
11110000
11110101
11010000
NAME moon room 25

TIL 1b
00000000
00000000
00000000
00000000
00000000
00000010
10000011
01010011
NAME moon room 26

TIL 1c
00011111
01011111
00011111
11111111
11111111
11111111
11111111
11111111
NAME moon room 27

TIL 1d
11111100
11011110
10111101
11111111
11111101
11111111
11111001
11111111
NAME moon room 28

TIL 1e
00000000
00000001
00001000
10000000
01000000
11101101
11111110
11111110
NAME moon room 29

TIL 1f
00000000
00100000
00000000
00000000
00000000
00000000
00000000
00000000
NAME moon room 30

TIL 1g
00000010
00000010
00000010
00000000
00000000
00000000
00000000
10010000
NAME moon room 31

TIL 1h
00000000
00000000
00000000
00000000
00000000
00010000
10000000
00000000
NAME moon room 32

TIL 1i
00000000
00000000
00000000
00000010
00000010
10000010
00010101
11001101
NAME moon room 33

TIL 1j
00000000
00000000
10000000
10000000
10000000
10000000
10000000
10000000
NAME moon room 34

TIL 1k
00000011
00000011
00000011
00000011
00000011
00000011
00000001
00000001
NAME moon room 35

TIL 1l
11111110
11111110
11111111
11111111
11111111
11111111
11111111
11111111
NAME moon room 36

TIL 1m
01111111
11111011
11011011
11101101
11111111
11111111
11111111
11111111
NAME moon room 37

TIL 1n
11111111
10111111
00100111
11100111
10100011
11111011
11111111
11111111
NAME moon room 38

TIL 1o
11101101
11101001
11110100
10111111
11111101
11111101
11111111
11111111
NAME moon room 39

TIL 1p
11111110
11111110
11111110
11011110
11111111
11110110
11011011
11111011
NAME moon room 40

TIL 1q
00011000
00010010
00010000
00110000
01111000
11111010
11111001
11110111
NAME moon room 41

TIL 1r
00000001
00000110
00001100
00101010
01000011
00000010
00010000
00011000
NAME moon room 42

TIL 1s
00000000
00000001
11000000
10000000
10000000
00000001
10000001
10100101
NAME moon room 43

TIL 1t
11111111
11111101
11111111
11111111
11111111
11111111
11111111
11111111
NAME moon room 44

TIL 1u
10000000
10000000
10000000
10000000
10000000
10000000
00000000
00000000
NAME moon room 45

TIL 1v
00000001
00000001
00000001
00000000
00000000
00000000
00000000
00000000
NAME moon room 46

TIL 1w
11111111
11111111
11111111
11111111
11111111
11111111
01111111
01111111
NAME moon room 47

TIL 1x
11111100
01011111
11111111
11111111
11111111
11111111
11111111
11111111
NAME moon room 48

TIL 1y
11111110
11111111
11111111
11111111
11111111
11111111
11111111
11111111
NAME moon room 49

TIL 1z
00110101
11110110
11111111
11111110
11111111
11111111
11111111
11111111
NAME moon room 50

TIL 2a
11111111
11111111
11111111
11111111
11111100
11111000
11100000
11000000
NAME moon room 61

TIL 2b
11100000
11000000
10000000
00000000
00000000
00000000
00000000
00000000
NAME moon room 62

TIL 2c
00000001
00000000
00000000
00000000
00000000
00000000
00000000
00000000
NAME moon room 63

TIL 2d
11111111
01111111
00001111
00000001
00000000
00000000
00000000
00000000
NAME moon room 64

TIL 2e
11111111
11111111
11111111
11111111
00011111
00000000
00000000
00000000
NAME moon room 65

TIL 2f
11111111
11111111
11111111
11111111
11111111
00000000
00000000
00000000
NAME moon room 66

TIL 2g
11111111
11111111
11111111
11111111
11110000
00000000
00000000
00000000
NAME moon room 67

TIL 2h
11111111
11111100
11100000
00000000
00000000
00000000
00000000
00000000
NAME moon room 68

TIL 2i
11111111
11111111
11111111
11111111
11111111
11111111
11111111
11111111
NAME fillerNowall

TIL 2j
11111111
10000111
11111111
11110011
11111111
11111001
11111111
11100111
>
11111111
11111000
11111111
10001111
11111111
11000111
11111111
11111100
NAME Sea1
WAL true

TIL 2k
11100000
11111111
11111111
00010111
11111111
10000001
11111111
11100011
>
10000111
11111111
11111111
11010001
11111111
11111111
10000111
11111111
NAME Sea2
WAL true

TIL 2l
11111111
11111111
11100001
11111111
11111111
10011111
11111111
11111111
>
11111111
11111111
11111111
10000111
11111111
11111111
11111001
11111111
NAME Sea3
WAL true

TIL 2m
11111111
11111111
11111110
11111100
11111000
11100000
11000000
10000000
NAME Land01
WAL true

TIL 2n
11100000
10000000
00000000
00000000
00000000
00000000
00000000
00000000
NAME Land02
WAL true

TIL 2o
00000000
00000000
00000000
00000000
00000000
00000000
00000000
00000000
NAME Land03
WAL true

TIL 2p
00000000
00000000
00000000
00000000
00000000
00000000
00000111
00011000
NAME Land04
WAL true

TIL 2q
00000000
00000000
00000000
00000000
00001111
01110000
10000000
00000000
NAME Land05
WAL true

TIL 2r
00000000
00000000
00000000
00000000
11111111
00000000
00000000
00000000
NAME Land06
WAL true

TIL 2s
10000000
11000000
11111111
11111111
11111111
11111111
11111111
11111111
NAME Land07
WAL true

TIL 2t
00000000
00000000
11000000
11111111
11111111
11111111
11111111
11111111
NAME Land08
WAL true

TIL 2u
00000000
00000000
00000000
11111111
11111111
11111111
11111111
11111111
NAME Land09
WAL true

SPR A
00001100
00001100
10011101
11111111
11111111
10011101
00001100
00001100
>
00001100
00001100
10011100
11111111
11111111
10011100
00001100
00001100
POS 0 0,7

SPR a
00000000
00111100
01111110
01111110
00111100
00001000
00000100
00000000
NAME SpeechBubble01
DLG SPR_0
POS 0 2,7

SPR b
00000000
00111100
01111110
01111110
00111100
00001000
00000100
00000000
NAME SpeechBubble02
DLG SPR_1
POS 2 4,7

SPR c
00000000
00111100
01111110
01111110
00111100
00001000
00000100
00000000
NAME SpeechBubble03
DLG SPR_2
POS 5 6,8

SPR d
00000000
00111100
01111110
01111110
00111100
00001000
00000100
00000000
NAME SpeechBubble04
DLG SPR_3
POS 6 7,9

SPR e
00000000
00111100
01111110
01111110
00111100
00001000
00000100
00000000
NAME SpeechBubble05
DLG SPR_4
POS 4 1,8

SPR f
00000000
00111100
01111110
01111110
00111100
00001000
00000100
00000000
NAME SpeechBubble06
DLG SPR_5
POS 7 7,6

SPR g
00000000
00111100
01111110
01111110
00111100
00001000
00000100
00000000
NAME SpeechBubble07
DLG SPR_6
POS 8 6,4

ITM 0
00000000
00111100
01010010
01111010
01001110
00111100
00000010
00000000
NAME Question
DLG ITM_0

ITM 1
00000000
00110110
01111101
01111101
01111111
00111110
00011100
00001000
NAME Answer
DLG ITM_1

DLG SPR_0
"""
So you decided, Amelia?
This will be your adventure.
You will be alone with the gods Amelia.
The gods.
Or just your demons?
My only advice: your plane cannot fly through thick clouds.
Godspeed.
"""

DLG ITM_0
"""
{
  - {item "Question"} == 1 ?
    What got you into this, Amelia?
  - {item "Question"} == 2 ?
    Are you just trying to show people that you can do this?
  - {item "Question"} == 3 ?
    Do you even know who you are?
  - {item "Question"} == 4 ?
    Solitude is choking you, Amelia.
}
"""

DLG ITM_1
"""
{
  - {item "Question"} == 1 ?
    My curiosity drives me. And adventure.
  - {item "Question"} == 2 ?
    I don't need validation. I am my own person.
  - {item "Question"} == 3 ?
    I am a woman. That's all I need to know right now.
  - {item "Question"} == 4 ?
    Solitude and loneliness are different things.
}
"""

DLG SPR_1
The night is cold and dark. Some stars shine. But still feels like flying through the void.

DLG SPR_2
But even in the darkest hour, there's a guiding star.

DLG SPR_3
And yet the dark fades away. What is this glow? Where it comes from?

DLG SPR_4
The beauty. Sights worth living for.

DLG SPR_5
And then your journey is ending. 

DLG SPR_6
So, the land is here. It's over.  You're back into your own element.

END 0
This is it. 
My journey is over. 
An adventure. 
A journey of the mind. 
Me and myself. 
Learning to be enough for myself. 
Coming out as a better person.
This is dedicated to all people struggling with solitude.

END undefined
This is the 

VAR a
42

