
You are Jelly. Jelly has Clawstrophobia. It is the fear of being in tight spaces due to the actions of cats. You must help him clear this fear. Go forth!

# BITSY VERSION 4.8

! ROOM_FORMAT 1

PAL 0
0,82,204
128,159,255
255,255,255

PAL 1
NAME Banana Bazooka
158,158,158
255,255,255
254,255,172

PAL 2
NAME Pastel Panoot
153,255,179
247,113,255
254,133,142

PAL 3
NAME Pale Pancakes
255,238,163
253,123,141
161,184,255

ROOM 0
u,u,u,u,u,u,u,0,u,u,u,u,u,u,u,u
u,0,0,0,0,0,0,0,0,0,0,0,0,0,0,u
u,0,0,0,0,0,0,0,0,0,0,0,0,0,0,u
u,0,0,0,0,0,0,0,0,0,0,0,0,0,0,u
u,0,0,0,0,0,0,0,0,0,0,0,0,0,0,u
u,0,0,0,0,0,0,0,0,0,0,0,0,0,0,u
u,0,0,0,0,0,0,0,0,0,0,0,0,0,0,u
u,0,0,0,0,0,0,0,0,0,0,0,0,0,0,u
u,0,0,0,0,0,0,0,0,0,0,0,0,0,0,u
u,0,0,0,0,0,0,0,0,0,0,0,0,0,0,u
u,0,0,0,0,0,0,0,0,0,0,0,0,0,0,u
u,0,0,0,0,0,0,0,0,0,0,0,0,0,0,u
u,0,0,0,0,0,0,0,0,0,0,0,0,0,0,u
u,0,0,0,0,0,0,0,0,0,0,0,0,0,0,u
u,0,0,0,0,0,0,0,0,0,0,0,0,0,0,u
u,u,u,u,u,u,u,u,u,u,u,u,u,u,u,u
EXT 7,0 d 7,15
PAL 0

ROOM 1
b,b,b,0,b,b,c,c,b,b,b,b,b,b,b,b
b,0,0,0,0,0,c,c,0,0,0,0,0,0,0,b
b,0,0,0,0,0,d,d,f,d,d,0,0,0,0,b
b,0,0,0,0,0,d,d,e,d,d,0,0,0,0,b
b,0,0,0,0,0,0,0,0,c,c,0,0,0,0,b
b,0,0,0,0,0,0,0,0,c,c,0,0,0,0,b
b,0,0,0,0,0,0,0,0,0,0,0,0,0,0,b
b,0,0,0,0,0,0,0,0,0,0,0,0,0,0,0
b,0,0,0,0,0,0,0,0,0,0,0,0,0,0,b
b,0,0,0,0,0,0,0,0,0,0,0,0,0,0,b
b,0,0,0,0,0,0,0,0,0,0,0,0,0,0,b
b,0,0,0,0,0,0,0,0,0,0,0,0,0,0,b
b,0,0,0,0,0,0,0,0,0,0,0,0,0,0,b
b,0,0,0,0,0,0,0,0,0,0,0,0,0,0,b
b,0,0,0,0,0,0,0,0,0,0,0,0,0,0,b
b,b,b,b,b,b,b,0,0,b,b,b,b,b,b,b
EXT 6,0 2 4,5
EXT 7,0 2 4,5
EXT 7,15 3 7,5
EXT 8,15 3 8,5
EXT 15,7 5 1,7
EXT 3,0 6 7,7
PAL 0

ROOM 2
0,0,0,0,0,0,0,0,0,0,0,0,0,0,0,0
0,0,0,0,0,0,0,0,0,0,0,0,0,0,0,0
0,0,0,0,0,0,0,0,0,0,0,0,0,0,0,0
0,0,0,b,b,b,b,b,b,b,b,b,0,0,0,0
0,0,0,b,0,0,0,0,0,0,0,b,0,0,0,0
0,0,0,b,c,b,0,0,0,0,0,b,0,0,0,0
0,0,0,b,b,b,0,0,0,0,0,b,0,0,0,0
0,0,0,b,0,0,0,0,0,0,0,b,0,0,0,0
0,0,0,b,0,0,0,0,0,0,0,b,0,0,0,0
0,0,0,b,0,0,0,0,0,0,0,b,0,0,0,0
0,0,0,b,b,b,b,b,b,b,0,b,0,0,0,0
0,0,0,0,0,0,0,0,0,b,0,b,0,0,0,0
0,0,0,0,0,0,0,0,b,d,d,d,b,0,0,0
0,0,0,0,0,0,0,0,b,d,a,d,b,0,0,0
0,0,0,0,0,0,0,0,b,d,d,d,b,0,0,0
0,0,0,0,0,0,0,0,b,b,b,b,b,0,0,0
EXT 4,5 1 6,0
EXT 10,13 4 7,14
PAL 0

ROOM 3
0,b,b,b,b,b,b,b,b,b,b,b,b,b,b,0
0,b,b,b,b,b,b,b,b,b,b,b,b,b,b,0
0,b,b,g,g,b,b,b,b,b,b,g,g,b,b,0
0,b,b,g,g,b,b,b,b,b,b,g,g,b,b,0
0,b,b,b,b,b,b,b,b,b,b,b,b,b,b,0
0,b,b,b,b,b,b,0,0,b,b,b,b,b,b,0
0,0,0,0,0,0,0,0,0,0,0,0,0,0,0,0
0,0,0,0,0,0,0,0,0,0,0,0,0,0,0,0
0,0,0,0,0,0,0,0,0,0,0,0,0,0,0,0
0,0,0,0,0,0,0,0,0,0,0,0,0,0,0,0
0,0,0,0,0,0,0,0,0,0,0,0,0,0,0,0
0,0,0,0,0,0,0,0,0,0,0,0,0,0,0,0
0,0,0,0,0,0,0,0,0,0,0,0,0,0,0,0
0,0,0,0,0,0,0,0,0,0,0,0,0,0,0,0
0,0,0,0,0,0,0,0,0,0,0,0,0,0,0,0
0,0,0,0,0,0,0,0,0,0,0,0,0,0,0,0
EXT 7,5 1 7,15
EXT 8,5 1 8,15
PAL 0

ROOM 4
0,0,0,0,0,0,0,0,0,0,0,0,0,0,0,0
0,0,0,0,0,0,0,0,0,0,h,0,0,0,0,0
0,0,0,0,0,0,i,0,0,0,0,0,0,0,0,0
0,0,0,0,0,0,0,0,0,0,0,0,i,0,0,0
0,0,h,0,0,j,k,0,0,0,0,0,0,0,0,0
0,0,0,0,0,m,l,0,0,h,0,0,0,0,h,0
0,0,0,0,0,0,0,0,0,0,0,0,0,0,0,0
0,0,0,i,0,0,0,0,0,0,0,0,0,0,0,0
0,0,0,0,0,0,0,0,0,0,0,h,0,0,0,0
0,0,0,0,0,0,h,0,0,0,0,0,0,0,0,0
0,0,0,0,0,0,0,0,0,0,0,0,0,0,0,0
0,0,0,0,0,h,0,0,0,0,0,0,0,h,0,0
0,0,0,0,0,0,0,0,0,i,0,0,0,0,0,0
0,0,h,0,0,i,d,d,d,0,0,0,j,k,0,0
0,0,0,0,0,0,d,a,d,0,0,0,m,l,0,0
0,0,0,0,0,0,d,d,d,0,0,0,0,0,0,0
ITM 9 10,6
EXT 7,14 2 10,13
PAL 0

ROOM 5
0,0,0,0,0,0,0,0,0,0,0,0,0,0,0,0
0,0,0,0,0,0,0,0,0,0,0,0,0,0,0,0
0,b,b,b,b,b,b,b,b,b,b,0,0,0,0,0
0,b,0,0,0,0,0,0,0,0,b,0,0,0,0,0
0,b,0,0,0,0,0,0,0,0,b,0,0,0,0,0
0,b,0,0,0,0,0,0,0,0,b,0,0,0,0,0
0,b,0,0,0,0,0,0,0,0,b,0,0,0,0,0
b,0,0,0,0,0,0,0,0,0,b,0,0,0,0,0
0,b,0,0,0,0,0,0,0,0,b,0,0,0,0,0
0,b,0,0,0,0,0,0,0,0,b,0,0,0,0,0
0,b,0,0,0,0,0,0,0,0,b,0,0,0,0,0
0,b,0,0,0,0,0,0,0,0,b,0,0,0,0,0
0,b,0,0,0,0,0,0,0,0,b,0,0,0,0,0
0,b,b,b,b,b,b,b,b,b,b,0,0,0,0,0
0,0,0,0,0,0,0,0,0,0,0,0,0,0,0,0
0,0,0,0,0,0,0,0,0,0,0,0,0,0,0,0
EXT 1,7 1 15,7
PAL 0

ROOM 6
0,0,0,0,0,0,0,0,0,0,0,0,0,0,0,0
0,0,0,0,0,0,0,0,0,0,0,0,0,0,0,0
0,0,0,b,b,b,b,b,b,b,b,b,b,0,0,0
0,0,0,b,0,b,0,b,b,0,b,0,b,0,0,0
0,0,0,b,0,0,0,0,0,0,0,0,b,0,0,0
0,0,0,b,0,0,0,0,0,0,0,0,b,0,0,0
0,0,0,b,0,0,0,0,0,0,0,0,b,0,0,0
0,0,0,b,0,0,0,0,0,0,0,0,b,0,0,0
0,0,0,b,b,b,b,0,b,b,b,b,b,0,0,0
0,0,0,0,0,0,0,0,0,0,0,0,0,0,0,0
0,0,0,0,0,0,0,0,0,0,0,0,0,0,0,0
0,0,0,0,0,0,0,0,0,0,0,0,0,0,0,0
0,0,0,0,0,0,0,0,0,0,0,0,0,0,0,0
0,0,0,0,0,0,0,0,0,0,0,0,0,0,0,0
0,0,0,0,0,0,0,0,0,0,0,0,0,0,0,0
0,0,0,0,0,0,0,0,0,0,0,0,0,0,0,0
EXT 7,8 1 3,0
EXT 4,3 7 7,7
EXT 6,3 1 3,1
EXT 9,3 1 3,1
EXT 11,3 1 3,1
PAL 0

ROOM 7
0,0,0,0,0,0,0,0,0,0,0,0,0,0,0,0
0,0,0,0,0,0,0,0,0,0,0,0,0,0,0,0
0,0,0,b,b,b,b,b,b,b,b,b,b,0,0,0
0,0,0,b,0,b,0,b,b,0,b,0,b,0,0,0
0,0,0,b,0,0,0,0,0,0,0,0,b,0,0,0
0,0,0,b,0,0,0,0,0,0,0,0,b,0,0,0
0,0,0,b,0,0,0,0,0,0,0,0,b,0,0,0
0,0,0,b,0,0,0,0,0,0,0,0,b,0,0,0
0,0,0,b,b,b,b,0,b,b,b,b,b,0,0,0
0,0,0,0,0,0,0,0,0,0,0,0,0,0,0,0
0,0,0,0,0,0,0,0,0,0,0,0,0,0,0,0
0,0,0,0,0,0,0,0,0,0,0,0,0,0,0,0
0,0,0,0,0,0,0,0,0,0,0,0,0,0,0,0
0,0,0,0,0,0,0,0,0,0,0,0,0,0,0,0
0,0,0,0,0,0,0,0,0,0,0,0,0,0,0,0
0,0,0,0,0,0,0,0,0,0,0,0,0,0,0,0
NAME 1
EXT 7,8 1 3,1
EXT 4,3 1 3,1
EXT 6,3 1 3,1
EXT 9,3 1 3,1
EXT 11,3 8 7,7
PAL 0

ROOM 8
0,0,0,0,0,0,0,0,0,0,0,0,0,0,0,0
0,0,0,0,0,0,0,0,0,0,0,0,0,0,0,0
0,0,0,b,b,b,b,b,b,b,b,b,b,0,0,0
0,0,0,b,0,b,0,b,b,0,b,0,b,0,0,0
0,0,0,b,0,0,0,0,0,0,0,0,b,0,0,0
0,0,0,b,0,0,0,0,0,0,0,0,b,0,0,0
0,0,0,b,0,0,0,0,0,0,0,0,b,0,0,0
0,0,0,b,0,0,0,0,0,0,0,0,b,0,0,0
0,0,0,b,b,b,b,0,b,b,b,b,b,0,0,0
0,0,0,0,0,0,0,0,0,0,0,0,0,0,0,0
0,0,0,0,0,0,0,0,0,0,0,0,0,0,0,0
0,0,0,0,0,0,0,0,0,0,0,0,0,0,0,0
0,0,0,0,0,0,0,0,0,0,0,0,0,0,0,0
0,0,0,0,0,0,0,0,0,0,0,0,0,0,0,0
0,0,0,0,0,0,0,0,0,0,0,0,0,0,0,0
0,0,0,0,0,0,0,0,0,0,0,0,0,0,0,0
NAME 14
EXT 7,8 1 3,1
EXT 4,3 0 0,0
EXT 6,3 9 7,7
EXT 9,3 1 3,1
EXT 11,3 1 3,1
PAL 0

ROOM 9
0,0,0,0,0,0,0,0,0,0,0,0,0,0,0,0
0,0,0,0,0,0,0,0,0,0,0,0,0,0,0,0
0,0,0,b,b,b,b,b,b,b,b,b,b,0,0,0
0,0,0,b,0,b,0,b,b,0,b,0,b,0,0,0
0,0,0,b,0,0,0,0,0,0,0,0,b,0,0,0
0,0,0,b,0,0,0,0,0,0,0,0,b,0,0,0
0,0,0,b,0,0,0,0,0,0,0,0,b,0,0,0
0,0,0,b,0,0,0,0,0,0,0,0,b,0,0,0
0,0,0,b,b,b,b,0,b,b,b,b,b,0,0,0
0,0,0,0,0,0,0,0,0,0,0,0,0,0,0,0
0,0,0,0,0,0,0,0,0,0,0,0,0,0,0,0
0,0,0,0,0,0,0,0,0,0,0,0,0,0,0,0
0,0,0,0,0,0,0,0,0,0,0,0,0,0,0,0
0,0,0,0,0,0,0,0,0,0,0,0,0,0,0,0
0,0,0,0,0,0,0,0,0,0,0,0,0,0,0,0
0,0,0,0,0,0,0,0,0,0,0,0,0,0,0,0
NAME 142
EXT 7,8 1 3,1
EXT 4,3 1 3,1
EXT 6,3 1 3,1
EXT 9,3 a 7,14
EXT 11,3 1 3,1
PAL 0

ROOM a
b,b,b,0,b,b,b,b,b,b,b,b,b,b,b,b
b,0,0,0,0,0,0,0,0,0,0,0,0,0,0,b
b,0,0,0,0,0,0,0,0,0,0,0,0,0,0,b
b,0,0,0,0,0,0,o,o,0,0,0,0,0,0,b
b,0,0,0,0,0,0,0,0,0,0,0,0,0,0,b
b,0,0,0,0,0,0,0,0,0,0,0,0,0,0,b
b,0,0,0,0,0,0,0,0,0,0,0,0,0,0,b
b,0,0,0,0,0,0,0,0,0,0,0,0,0,0,b
b,0,0,0,0,0,0,0,0,0,0,0,0,0,0,b
b,0,0,0,0,0,0,0,0,0,0,0,0,0,0,b
b,0,0,0,0,0,0,0,0,0,0,0,0,0,0,b
b,0,0,0,0,0,0,0,0,0,0,0,0,0,0,b
b,0,0,0,0,0,0,0,0,0,0,0,0,0,0,b
b,0,0,0,0,0,0,0,0,0,0,0,0,0,0,b
b,0,0,0,0,0,0,0,0,0,0,0,0,0,0,b
b,b,b,b,b,b,b,0,b,b,b,b,b,b,b,b
NAME 1423
ITM a 14,7
ITM a 14,9
ITM a 14,5
ITM a 14,11
ITM b 1,5
ITM b 1,7
ITM b 1,9
ITM b 1,11
EXT 7,15 1 3,1
EXT 3,0 b 7,7
PAL 0

ROOM b
0,0,0,0,0,0,0,0,0,0,0,0,0,0,0,0
0,0,0,0,0,0,0,0,0,0,0,0,0,0,0,0
0,0,0,0,0,0,0,0,0,0,0,0,0,0,0,0
0,0,0,0,b,b,b,0,b,b,b,0,0,0,0,0
0,0,0,0,b,0,0,0,0,0,b,0,0,0,0,0
0,0,0,0,b,0,0,0,0,0,b,0,0,0,0,0
0,0,0,0,b,0,0,0,0,0,b,0,0,0,0,0
0,0,0,0,b,0,0,0,0,0,b,0,0,0,0,0
0,0,0,0,b,b,b,0,b,b,b,0,0,0,0,0
0,0,0,0,0,0,0,0,0,0,0,0,0,0,0,0
0,0,0,0,0,0,0,0,0,0,0,0,0,0,0,0
0,0,0,0,0,0,0,0,0,0,0,0,0,0,0,0
0,0,0,0,0,0,0,0,0,0,0,0,0,0,0,0
0,0,0,0,0,0,0,0,0,0,0,0,0,0,0,0
0,0,0,0,0,0,0,0,0,0,0,0,0,0,0,0
0,0,0,0,0,0,0,0,0,0,0,0,0,0,0,0
ITM c 7,5
EXT 7,8 a 3,1
END undefined 7,3
PAL 0

ROOM c
0,0,0,0,0,0,0,0,0,0,0,0,0,0,0,0
0,0,0,0,0,0,0,0,0,0,0,0,0,0,0,0
0,0,0,0,0,0,0,0,0,0,0,0,0,0,0,0
0,p,p,p,p,p,p,p,p,p,p,p,p,p,p,0
0,p,0,0,0,0,0,0,0,0,0,0,0,0,p,0
0,p,0,0,0,0,0,0,0,0,0,0,0,0,t,0
0,p,0,0,0,0,0,0,0,0,0,s,0,0,t,0
0,p,0,0,0,0,0,0,0,0,0,0,0,0,t,0
0,p,0,0,0,0,0,0,0,0,0,0,0,0,p,0
0,p,0,0,0,0,0,0,0,0,0,0,0,0,p,0
0,p,0,0,0,0,0,0,0,0,0,0,0,0,p,0
0,p,0,0,0,0,0,0,0,0,0,0,0,0,p,0
0,p,0,0,0,0,0,0,0,0,0,0,0,0,p,0
0,p,p,p,p,p,p,0,p,p,p,p,p,p,p,0
0,0,0,0,0,0,0,0,0,0,0,0,0,0,0,0
0,0,0,0,0,0,0,0,0,0,0,0,0,0,0,0
EXT 7,13 0 7,8
PAL 3

ROOM d
u,u,u,u,u,u,u,0,u,u,u,u,u,u,u,u
u,u,0,0,0,0,0,0,0,0,0,0,0,0,u,u
u,u,0,0,0,0,0,0,0,0,0,0,0,0,u,u
u,u,0,0,0,0,0,0,0,0,0,0,0,0,u,u
u,u,0,0,0,0,0,0,0,0,0,0,0,0,u,u
u,u,0,0,0,0,0,0,0,0,0,0,0,0,u,u
u,u,0,0,0,0,0,0,0,0,0,0,0,0,u,u
u,u,0,0,0,0,0,0,0,0,0,0,0,0,u,u
u,u,0,0,0,0,0,0,0,0,0,0,0,0,u,u
u,u,0,0,0,0,0,0,0,0,0,0,0,0,u,u
u,u,0,0,0,0,0,0,0,0,0,0,0,0,u,u
u,u,0,0,0,0,0,0,0,0,0,0,0,0,u,u
u,u,0,0,0,0,0,0,0,0,0,0,0,0,u,u
u,u,0,0,0,0,0,0,0,0,0,0,0,0,u,u
u,u,0,0,0,0,0,0,0,0,0,0,0,0,u,u
u,u,u,u,u,u,u,0,u,u,u,u,u,u,u,u
EXT 7,0 e 7,15
PAL 0

ROOM e
u,u,u,u,u,u,u,0,u,u,u,u,u,u,u,u
u,u,u,0,0,0,0,0,0,0,0,0,0,u,u,u
u,u,u,0,0,0,0,0,0,0,0,0,0,u,u,u
u,u,u,0,0,0,0,0,0,0,0,0,0,u,u,u
u,u,u,0,0,0,0,0,0,0,0,0,0,u,u,u
u,u,u,0,0,0,0,0,0,0,0,0,0,u,u,u
u,u,u,0,0,0,0,0,0,0,0,0,0,u,u,u
u,u,u,0,0,0,0,0,0,0,0,0,0,u,u,u
u,u,u,0,0,0,0,0,0,0,0,0,0,u,u,u
u,u,u,0,0,0,0,0,0,0,0,0,0,u,u,u
u,u,u,0,0,0,0,0,0,0,0,0,0,u,u,u
u,u,u,0,0,0,0,0,0,0,0,0,0,u,u,u
u,u,u,0,0,0,0,0,0,0,0,0,0,u,u,u
u,u,u,0,0,0,0,0,0,0,0,0,0,u,u,u
u,u,u,0,0,0,0,0,0,0,0,0,0,u,u,u
u,u,u,u,u,u,u,0,u,u,u,u,u,u,u,u
EXT 7,0 f 7,15
PAL 0

ROOM f
u,u,u,u,u,u,u,0,u,u,u,u,u,u,u,u
u,u,u,u,0,0,0,0,0,0,0,0,u,u,u,u
u,u,u,u,0,0,0,0,0,0,0,0,u,u,u,u
u,u,u,u,0,0,0,0,0,0,0,0,u,u,u,u
u,u,u,u,0,0,0,0,0,0,0,0,u,u,u,u
u,u,u,u,0,0,0,0,0,0,0,0,u,u,u,u
u,u,u,u,0,0,0,0,0,0,0,0,u,u,u,u
u,u,u,u,0,0,0,0,0,0,0,0,u,u,u,u
u,u,u,u,0,0,0,0,0,0,0,0,u,u,u,u
u,u,u,u,0,0,0,0,0,0,0,0,u,u,u,u
u,u,u,u,0,0,0,0,0,0,0,0,u,u,u,u
u,u,u,u,0,0,0,0,0,0,0,0,u,u,u,u
u,u,u,u,0,0,0,0,0,0,0,0,u,u,u,u
u,u,u,u,0,0,0,0,0,0,0,0,u,u,u,u
u,u,u,u,0,0,0,0,0,0,0,0,u,u,u,u
u,u,u,u,u,u,u,0,u,u,u,u,u,u,u,u
EXT 7,0 g 7,15
PAL 0

ROOM g
u,u,u,u,u,u,u,0,u,u,u,u,u,u,u,u
u,u,u,u,u,0,0,0,0,0,0,u,u,u,u,u
u,u,u,u,u,0,0,0,0,0,0,u,u,u,u,u
u,u,u,u,u,0,0,0,0,0,0,u,u,u,u,u
u,u,u,u,u,0,0,0,0,0,0,u,u,u,u,u
u,u,u,u,u,0,0,0,0,0,0,u,u,u,u,u
u,u,u,u,u,0,0,0,0,0,0,u,u,u,u,u
u,u,u,u,u,0,0,0,0,0,0,u,u,u,u,u
u,u,u,u,u,0,0,0,0,0,0,u,u,u,u,u
u,u,u,u,u,0,0,0,0,0,0,u,u,u,u,u
u,u,u,u,u,0,0,0,0,0,0,u,u,u,u,u
u,u,u,u,u,0,0,0,0,0,0,u,u,u,u,u
u,u,u,u,u,0,0,0,0,0,0,u,u,u,u,u
u,u,u,u,u,0,0,0,0,0,0,u,u,u,u,u
u,u,u,u,u,0,0,0,0,0,0,u,u,u,u,u
u,u,u,u,u,u,u,0,u,u,u,u,u,u,u,uu
EXT 7,0 h 7,15
PAL 0

ROOM h
u,u,u,u,u,u,u,0,u,u,u,u,u,u,u,u
u,u,u,u,u,u,0,0,0,0,u,u,u,u,u,u
u,u,u,u,u,u,0,0,0,0,u,u,u,u,u,u
u,u,u,u,u,u,0,0,0,0,u,u,u,u,u,u
u,u,u,u,u,u,0,0,0,0,u,u,u,u,u,u
u,u,u,u,u,u,0,0,0,0,u,u,u,u,u,u
u,u,u,u,u,u,0,0,0,0,u,u,u,u,u,u
u,u,u,u,u,u,0,0,0,0,u,u,u,u,u,u
u,u,u,u,u,u,0,0,0,0,u,u,u,u,u,u
u,u,u,u,u,u,0,0,0,0,u,u,u,u,u,u
u,u,u,u,u,u,0,0,0,0,u,u,u,u,u,u
u,u,u,u,u,u,0,0,0,0,u,u,u,u,u,u
u,u,u,u,u,u,0,0,0,0,u,u,u,u,u,u
u,u,u,u,u,u,0,0,0,0,u,u,u,u,u,u
u,u,u,u,u,u,0,0,0,0,u,u,u,u,u,u
u,u,u,u,u,u,u,0,u,u,u,u,u,u,u,u
EXT 7,0 i 7,15
PAL 0

ROOM i
u,u,u,u,u,u,u,0,u,u,u,u,u,u,u,u
u,u,u,u,u,u,u,0,0,u,u,u,u,u,u,u
u,u,u,u,u,u,u,0,0,u,u,u,u,u,u,u
u,u,u,u,u,u,u,0,0,u,u,u,u,u,u,u
u,u,u,u,u,u,u,0,0,u,u,u,u,u,u,u
u,u,u,u,u,u,u,0,0,u,u,u,u,u,u,u
u,u,u,u,u,u,u,0,0,u,u,u,u,u,u,u
u,u,u,u,u,u,u,0,0,u,u,u,u,u,u,u
u,u,u,u,u,u,u,0,0,u,u,u,u,u,u,u
u,u,u,u,u,u,u,0,0,u,u,u,u,u,u,u
u,u,u,u,u,u,u,0,0,u,u,u,u,u,u,u
u,u,u,u,u,u,u,0,0,u,u,u,u,u,u,u
u,u,u,u,u,u,u,0,0,u,u,u,u,u,u,u
u,u,u,u,u,u,u,0,0,u,u,u,u,u,u,u
u,u,u,u,u,u,u,0,0,u,u,u,u,u,u,u
u,u,u,u,u,u,u,0,u,u,u,u,u,u,u,u
EXT 7,0 j 7,15
PAL 0

ROOM j
u,u,u,u,u,u,u,0,u,u,u,u,u,u,u,u
u,0,0,0,0,0,0,0,0,0,0,0,0,0,0,u
u,0,0,0,0,0,0,0,0,0,0,0,0,0,0,u
u,0,0,0,0,0,0,0,0,0,0,0,0,0,0,u
u,0,0,0,0,0,0,0,0,0,0,0,0,0,0,u
u,0,0,t,t,t,t,t,t,t,t,0,0,0,0,u
u,0,0,t,t,t,t,t,t,t,t,0,0,0,0,u
u,0,0,t,v,t,v,t,t,t,v,0,0,0,0,u
u,0,0,t,v,v,v,t,t,t,v,0,0,0,0,u
u,0,0,t,v,v,v,t,t,v,t,0,0,0,0,u
u,0,0,t,v,v,v,v,v,t,t,0,0,0,0,u
u,0,0,t,t,v,v,v,v,t,t,0,0,0,0,u
u,0,0,t,t,v,t,t,v,t,t,0,0,0,0,u
u,0,0,0,0,0,0,0,0,0,0,0,0,0,0,u
u,0,0,0,0,0,0,0,0,0,0,0,0,0,0,u
u,u,u,u,u,u,u,0,u,u,u,u,u,u,u,uu
END 0 7,0
PAL 0

TIL a
11111111
10000001
10000001
10011001
10011001
10000001
10000001
11111111

TIL b
11111111
00010010
11111111
01001000
11111111
00010010
11111111
01001000
WAL true

TIL c
00000000
11111111
00000000
11111111
00000000
11111111
00000000
11111111
>
11111111
00000000
11111111
00000000
11111111
00000000
11111111
00000000
NAME Stair forwards

TIL d
11111111
11111111
11111111
11111111
11111111
11111111
11111111
11111111

TIL e
10101010
10101010
10101010
10101010
00101010
00001010
00000010
00000000

TIL f
10000000
10100000
10101000
10101010
10101010
10101010
10101010
10101010

TIL g
11111111
10000001
10000001
10000001
10000001
10000001
10000001
11111111

TIL h
00000100
00001010
00000100
00110000
01001000
01001000
00110000
00000000

TIL i
00000000
00111000
01000100
10000010
10000010
10000010
01000100
00111000

TIL j
00000000
00000000
00000011
00001100
00010000
00010000
00100000
00100000

TIL k
00000000
00000000
11000000
00110000
00001000
00001000
00000100
00000100

TIL l
00000100
00000100
00001000
00001000
00110000
11000000
00000000
00000000

TIL m
00100000
00100000
00010000
00010000
00001100
00000011
00000000
00000000

TIL n
11111111
00010010
11111111
01001000
11111111
00100010
11000011
01000010

TIL o
00011000
00100100
01000010
01000010
01100110
01111110
01000010
01000010
NAME Throne
WAL true

TIL p
11111111
00010010
11111111
01001000
11111111
00010010
11111111
01001000

TIL q
11111111
10000001
10000001
10000001
10000001
10000001
10000001
11111111

TIL r
10101010
01000100
00000000
01010101
00100010
00000000
10101010
01000100

TIL s
00000000
00000000
10000000
11001000
11111110
10000001
11110110
00001000
NAME Tiny Plane

TIL t
00000000
00000000
00000000
00000000
00000000
00000000
00000000
00000000
NAME invisi
WAL true

TIL u
00000000
00000000
01010001
01110001
01110010
01111100
00111100
00100100
WAL true

TIL v
11111111
11111111
11111111
11111111
11111111
11111111
11111111
11111111
NAME full
WAL true

SPR A
00000000
00000000
00000000
00000000
00111100
00011000
00111100
00111100
>
00000000
00000000
00000000
00000000
00000000
01111110
00111100
01111110
POS 0 7,14

SPR b
00000000
01100000
00011000
00001100
00010000
00010000
00111000
00000000
NAME telescope
DLG SPR_1
POS 2 4,8

SPR c
00000000
00000000
00001100
00110010
01000010
00101100
00010000
00000000
NAME Pouch
DLG SPR_2

SPR d
00000010
00010100
10101010
01000100
11111111
00000010
01000010
10000010
DLG SPR_4
POS 5 6,3

SPR e
00000000
00000000
00000000
00000000
11111111
01000000
01001010
01000100
POS 5 4,3

SPR f
00111100
01010010
01010101
00100010
11111111
00000000
00001010
00000111
DLG SPR_3
POS 5 5,3

SPR g
11111111
00010010
11111111
01001000
11111111
00100110
11000111
01000100
DLG SPR_5
POS 5 8,2

SPR h
00011000
00011000
01111110
01110110
01111110
00111100
00100100
00100100
NAME General
DLG SPR_6
POS c 5,10

ITM 0
00000000
00000000
00000000
00111100
01100100
00100100
00011000
00000000
NAME tea
DLG ITM_0

ITM 1
00000000
00000000
01000100
01100100
01010100
01001100
01000100
00000000
NAME N

ITM 2
00000000
00111000
01000100
01000100
01000100
01000100
00111000
00000000
NAME O

ITM 3
00000000
00011100
00100000
00100000
00011000
00000100
00000100
00111000

ITM 4
00000000
01111100
00010000
00010000
00010000
00010000
00000000
00000000

ITM 5
00000000
00111000
00100100
00100100
00111000
00100000
00100000
00000000

ITM 6
00000000
00100000
00100000
00100000
00100000
00100000
00111100
00000000

ITM 7
00000000
00111000
00100000
00111000
00100000
00111000
00000000
00000000

ITM 8
00000000
00011000
00100100
00100100
00111100
00100100
00100100
00000000

ITM 9
00000000
00000000
00001100
00110010
01000010
00100100
00011000
00000000
NAME Pouch
DLG ITM_1

ITM a
00000110
00000101
00000101
00000101
00000110
11111100
10000100
11111100
NAME Treasure Chest
DLG ITM_2

ITM b
01100000
10100000
10100000
10100000
01100000
00111111
00100001
00111111
NAME Treasure Chest
DLG ITM_3

ITM c
00011000
00100100
01011010
01011010
01011010
01011010
00100100
00011000
NAME Gem of Creation
DLG ITM_4

DLG ITM_0
You found a nice warm cup of tea

DLG SPR_1
"""
Its pointing to the moon.
The craters make it look like it's smiling.
"""

DLG ITM_1
It's a pouch filled with moondust

DLG SPR_2
A pouch full of moon dust

DLG SPR_3
"""
It has a long tube connected to a small tube{
  - {item "Pouch"} == 1 ?
    
    The code is: 1 4 2 3
  - else ?

}
"""

DLG SPR_4
Table has a small dish and a glass sphere on it.

DLG SPR_5
I'm stuck in the wall. You cant really help me but i will say that you need moon dust for the contraption.

DLG ITM_2
It's a Chest full of treasure

DLG ITM_3
It's a chest full of treasure

DLG ITM_4
You finally know what you were looking for this entire time...

DLG SPR_6
Please board your flight vehicle for takeoff.

END 0
You are cleared of your clawstrophobia!

END undefined
You have the gem of creation and now your quest is over.

VAR a
42


