
LOST cat

# BITSY VERSION 4.8

! ROOM_FORMAT 1

PAL 0
NAME city
7,8,51
110,136,179
202,206,224

PAL 1
NAME country1
2,15,4
110,163,84
227,242,230

PAL 2
NAME dark
7,13,9
16,28,15
64,84,63

PAL 3
NAME country2
2,15,4
88,130,67
204,217,206

PAL 4
NAME country3
2,15,4
69,102,52
180,191,182

PAL 5
NAME country4
2,15,4
41,61,31
170,181,173

PAL 6
NAME park
117,46,38
161,140,89
230,224,214

ROOM 0
0,0,0,0,a,a,d,a,d,a,a,0,0,0,0,0
0,0,0,a,b,p,n,n,n,q,d,0,0,0,0,0
0,a,d,a,a,l,f,a,a,l,f,0,0,0,0,0
0,a,l,a,f,l,d,0,d,l,a,0,0,0,0,0
0,a,l,a,k,l,a,0,a,l,d,a,b,a,a,0
0,a,l,a,a,l,d,0,a,r,n,n,n,q,d,0
0,a,l,a,f,l,a,0,k,l,a,a,a,l,a,0
0,a,m,n,n,o,b,0,a,l,a,b,k,l,a,0
0,f,k,a,c,a,a,0,a,m,n,q,a,l,b,0
0,a,d,a,a,c,a,a,b,a,a,m,n,s,a,0
0,d,p,n,n,n,n,n,n,e,a,b,a,l,a,0
0,a,l,a,a,d,d,d,a,u,q,a,a,l,a,0
0,d,l,c,c,k,a,a,b,a,l,a,k,l,f,0
0,a,r,n,n,n,n,n,n,n,t,n,n,o,a,0
0,d,l,a,f,a,a,k,a,c,a,a,b,a,a,0
0,a,l,a,0,0,0,0,0,0,0,0,0,0,0,0
NAME street1
EXT 2,15 b 2,0
PAL 0

ROOM 1
f,b,g,b,f,b,f,b,b,f,b,b,b,b,b,b
b,b,g,b,g,g,g,b,b,b,f,b,b,b,b,f
b,b,g,f,g,b,g,b,b,b,b,g,g,b,b,b
f,b,g,b,g,b,g,f,b,b,g,g,g,g,b,b
b,b,g,b,g,b,g,b,b,f,b,g,b,g,f,b
b,b,g,b,g,b,g,b,b,b,b,g,b,g,b,b
b,b,g,f,g,b,g,b,b,b,b,g,b,g,f,b
b,b,g,b,g,f,g,f,b,b,f,g,b,g,b,b
f,b,g,b,g,b,g,g,b,b,b,g,f,g,f,b
b,b,g,b,g,b,b,g,b,b,g,g,b,g,b,f
b,b,g,b,g,b,b,g,g,b,g,b,b,g,b,b
b,b,g,f,g,f,f,b,g,g,g,b,g,g,f,b
b,b,g,b,g,b,b,b,b,f,b,b,g,b,b,b
b,b,g,b,g,b,b,b,f,b,b,b,g,b,b,f
b,b,g,g,g,g,b,b,b,b,b,b,0,b,b,b
f,b,b,b,b,b,b,f,b,b,b,b,b,b,f,b
NAME forest8
PAL 1

ROOM 2
f,b,g,b,f,0,0,0,0,0,0,0,0,0,0,0
b,b,g,b,g,0,0,0,0,0,0,0,0,0,0,0
b,b,g,f,g,0,0,0,0,0,0,0,0,0,0,0
f,b,g,b,g,0,0,0,0,0,0,0,0,0,0,0
b,b,g,b,g,0,0,0,0,0,0,0,0,0,0,0
b,b,g,b,g,0,0,0,0,0,0,0,0,0,0,0
b,b,g,b,g,0,0,0,0,0,0,0,0,0,0,0
b,b,g,b,0,0,0,0,0,0,0,0,0,0,0,0
0,0,j,0,0,0,0,0,0,0,0,0,0,0,0,0
0,0,0,0,0,0,0,0,0,0,0,0,0,0,0,0
0,0,0,0,0,0,0,0,0,0,0,0,0,0,0,0
0,0,0,0,0,0,0,0,0,0,0,0,0,0,0,0
0,0,0,0,0,0,0,0,0,0,0,0,0,0,0,0
0,0,0,0,0,0,0,0,0,0,0,0,0,0,0,0
0,0,0,0,0,0,0,0,0,0,0,0,0,0,0,0
0,0,0,0,0,0,0,0,0,0,0,0,0,0,0,0
NAME forest1
EXT 2,6 3 2,7
EXT 2,0 b 14,15
PAL 1

ROOM 3
0,0,0,0,0,0,0,0,0,0,0,0,0,0,0,0
0,0,0,0,0,0,0,0,0,0,0,0,0,0,0,0
0,0,0,0,0,0,0,0,0,0,0,0,0,0,0,0
0,0,0,0,0,0,0,0,0,0,0,0,0,0,0,0
0,0,j,0,0,0,0,0,0,0,0,0,0,0,0,0
0,b,g,b,0,0,0,0,0,0,0,0,0,0,0,0
b,b,g,f,g,0,0,0,0,0,0,0,0,0,0,0
b,b,g,b,g,0,0,0,0,0,0,0,0,0,0,0
f,b,g,b,g,0,0,0,0,0,0,0,0,0,0,0
b,b,g,b,g,0,0,0,0,0,0,0,0,0,0,0
b,b,g,b,g,0,0,0,0,0,0,0,0,0,0,0
b,b,g,f,g,0,0,0,0,0,0,0,0,0,0,0
b,b,g,b,g,0,0,0,0,0,0,0,0,0,0,0
0,b,g,b,0,0,0,0,0,0,0,0,0,0,0,0
0,0,j,0,0,0,0,0,0,0,0,0,0,0,0,0
0,0,0,0,0,0,0,0,0,0,0,0,0,0,0,0
NAME forest2
EXT 2,6 2 2,6
EXT 2,12 4 2,13
PAL 1

ROOM 4
0,0,0,0,0,0,0,0,0,0,0,0,0,0,0,0
0,0,0,0,0,0,0,0,0,0,0,0,0,0,0,0
0,0,0,0,0,0,0,0,0,0,0,0,0,0,0,0
0,0,0,0,0,0,0,0,0,0,0,0,0,0,0,0
0,0,j,0,j,0,0,0,0,0,0,0,0,0,0,0
0,j,g,b,g,b,0,0,0,0,0,0,0,0,0,0
0,b,g,f,g,b,0,0,0,0,0,0,0,0,0,0
0,b,g,b,g,f,0,0,0,0,0,0,0,0,0,0
0,b,g,b,g,b,0,0,0,0,0,0,0,0,0,0
0,b,g,b,g,b,0,0,0,0,0,0,0,0,0,0
0,b,g,b,g,b,0,0,0,0,0,0,0,0,0,0
0,b,g,f,g,f,0,0,0,0,0,0,0,0,0,0
0,b,g,b,g,b,0,0,0,0,0,0,0,0,0,0
0,b,g,b,g,b,j,j,0,0,0,0,0,0,0,0
0,b,g,g,g,g,0,j,0,0,0,0,0,0,0,0
0,0,b,b,b,b,j,j,0,0,0,0,0,0,0,0
NAME forest3
EXT 4,6 5 4,5
EXT 6,14 a 5,14
EXT 2,12 3 2,11
PAL 3

ROOM 5
0,0,0,b,f,b,f,b,0,0,0,0,0,0,0,0
0,0,0,b,g,g,g,b,0,0,0,0,0,0,0,0
0,0,0,f,g,b,g,b,0,0,0,0,0,0,0,0
0,0,0,b,g,b,g,f,0,0,0,0,0,0,0,0
0,0,0,b,g,b,g,b,0,0,0,0,0,0,0,0
0,0,0,b,g,b,g,b,0,0,0,0,0,0,0,0
0,0,0,f,g,b,g,b,0,0,0,0,0,0,0,0
0,0,0,0,j,0,j,0,0,0,0,0,0,0,0,0
0,0,0,0,0,0,0,0,0,0,0,0,0,0,0,0
0,0,0,0,0,0,0,0,0,0,0,0,0,0,0,0
0,0,0,0,0,0,0,0,0,0,0,0,0,0,0,0
0,0,0,0,0,0,0,0,0,0,0,0,0,0,0,0
0,0,0,0,0,0,0,0,0,0,0,0,0,0,0,0
0,0,0,0,0,0,0,0,0,0,0,0,0,0,0,0
0,0,0,0,0,0,0,0,0,0,0,0,0,0,0,0
0,0,0,0,0,0,0,0,0,0,0,0,0,0,0,0
NAME forest4
EXT 6,5 6 6,6
EXT 4,5 4 4,6
PAL 3

ROOM 6
0,0,0,0,0,0,0,0,0,0,0,0,0,0,0,0
0,0,0,0,0,0,0,0,0,0,0,0,0,0,0,0
0,0,0,0,0,0,0,0,0,0,0,0,0,0,0,0
0,0,0,0,0,0,0,0,0,0,0,0,0,0,0,0
0,0,0,0,g,b,g,b,b,f,0,0,0,0,0,0
0,0,0,0,g,b,g,b,b,b,b,0,0,0,0,0
0,0,0,0,g,b,g,b,b,b,b,0,0,0,0,0
0,0,0,0,g,f,g,f,b,b,f,g,0,0,0,0
0,0,0,0,g,b,g,g,b,b,b,g,0,0,0,0
0,0,0,0,g,b,b,g,b,b,g,g,0,0,0,0
0,0,0,0,0,b,0,g,g,b,g,0,0,0,0,0
0,0,0,0,0,0,f,b,g,g,g,0,0,0,0,0
0,0,0,0,0,0,0,0,b,0,0,0,0,0,0,0
0,0,0,0,0,0,0,0,0,0,0,0,0,0,0,0
0,0,0,0,0,0,0,0,0,0,0,0,0,0,0,0
0,0,0,0,0,0,0,0,0,0,0,0,0,0,0,0
NAME forest5
EXT 7,10 7 7,10
EXT 6,6 5 6,5
PAL 4

ROOM 7
0,0,0,0,0,0,0,0,0,0,0,0,0,0,0,0
0,0,0,0,0,0,0,0,0,0,0,0,0,0,0,0
0,0,0,0,0,0,0,0,0,0,0,0,0,0,0,0
0,0,0,0,0,0,0,0,0,0,0,0,0,0,0,0
0,0,0,0,0,0,0,0,0,0,0,0,0,0,0,0
0,0,0,0,e,e,e,e,e,e,e,e,e,e,0,0
0,0,0,0,e,b,g,b,b,b,b,g,b,e,0,0
0,0,0,0,e,f,g,f,b,b,f,g,b,e,0,0
0,0,0,0,e,b,g,g,b,b,b,g,f,e,0,0
0,0,0,0,e,b,b,g,b,b,g,g,b,e,0,0
0,0,0,0,e,b,0,g,g,b,g,b,b,e,0,0
0,0,0,0,e,f,f,b,g,g,g,b,g,e,0,0
0,0,0,0,e,e,b,b,b,f,b,b,e,e,0,0
0,0,0,0,0,e,e,b,f,b,b,e,e,0,0,0
0,0,0,0,0,0,e,e,b,e,e,e,0,0,0,0
0,0,0,0,0,0,0,e,e,e,0,0,0,0,0,0
NAME forest6
EXT 11,7 8 11,7
EXT 7,9 6 7,9
PAL 4

ROOM 8
0,0,0,0,0,0,0,0,e,e,b,b,b,e,e,e
0,0,0,0,0,0,0,0,e,b,f,b,b,b,b,e
0,0,0,0,0,0,0,e,e,b,b,g,g,b,b,e
0,0,0,0,0,0,e,e,e,b,g,g,g,g,b,e
0,0,0,0,0,0,e,e,b,f,b,g,b,g,f,e
0,0,0,0,0,0,0,e,e,b,b,g,b,g,b,e
0,0,0,0,0,0,0,e,e,b,b,g,b,g,f,e
0,0,0,0,0,0,0,0,e,e,f,g,b,g,b,e
0,0,0,0,0,0,0,0,0,e,b,g,f,g,f,e
0,0,0,0,0,0,0,0,0,e,e,e,b,g,b,e
0,0,0,0,0,0,0,0,0,0,0,e,e,e,e,e
0,0,0,0,0,0,0,0,0,0,0,e,e,e,e,e
0,0,0,0,0,0,0,0,0,0,0,0,0,0,0,0
0,0,0,0,0,0,0,0,0,0,0,0,0,0,0,0
0,0,0,0,0,0,0,0,0,0,0,0,0,0,0,0
0,0,0,0,0,0,0,0,0,0,0,0,0,0,0,0
NAME forest7
EXT 13,8 9 13,8
EXT 11,7 7 11,7
PAL 5

ROOM 9
0,0,0,0,0,0,0,0,0,0,0,0,0,0,0,0
0,0,0,0,0,0,0,0,0,0,0,0,0,0,0,0
0,0,0,0,0,0,0,0,0,0,0,0,0,0,0,0
0,0,0,0,0,0,0,0,0,0,0,0,0,0,0,0
0,0,0,0,0,0,0,0,0,0,0,0,0,0,0,0
0,0,0,0,0,0,0,0,0,0,0,0,0,0,0,0
0,0,0,0,0,0,0,0,0,e,e,e,e,e,e,e
0,0,0,0,0,0,0,0,e,e,e,g,b,g,e,e
0,0,0,0,0,0,0,0,e,e,b,g,f,g,f,e
0,0,0,0,0,0,0,0,e,b,g,g,b,g,b,e
0,0,0,0,0,0,0,e,e,b,g,b,b,g,b,e
0,0,0,0,0,0,0,e,e,g,g,b,g,g,f,e
0,0,0,0,0,0,0,e,e,f,b,b,g,b,b,e
0,0,0,0,0,0,0,e,e,e,b,b,g,b,b,e
0,0,0,0,0,0,0,e,e,e,b,b,g,b,b,e
0,0,0,0,0,0,0,0,e,e,b,b,b,b,e,e
NAME forest8
EXT 13,8 8 13,8
END undefined 12,13
PAL 5

ROOM a
b,0,0,0,e,e,e,e,e,e,e,e,e,e,b,0
b,0,e,e,b,0,0,e,0,0,0,0,0,e,e,0
b,e,e,b,b,b,b,e,e,e,0,h,0,0,e,0
b,e,b,e,0,0,e,b,0,e,0,0,0,e,b,b
b,e,b,e,0,0,0,0,e,e,0,0,0,e,0,b
b,e,e,0,0,0,0,0,0,b,0,0,0,e,0,b
0,0,e,0,b,e,e,0,0,b,0,0,0,e,e,b
0,0,0,e,e,e,e,e,0,0,b,0,0,0,0,e
0,0,0,e,e,b,e,e,0,b,b,0,0,0,0,e
0,e,0,0,0,0,0,0,0,b,0,0,0,0,e,e
0,e,0,0,e,0,0,0,0,0,0,0,0,0,e,b
0,e,0,e,0,0,0,0,0,0,e,e,e,e,e,b
0,b,e,0,0,0,0,0,0,0,e,b,b,0,0,b
0,b,e,e,0,0,0,0,0,0,0,0,0,e,e,b
0,b,0,0,0,0,0,0,0,e,b,e,e,0,e,b
0,0,0,0,e,e,e,0,0,e,b,b,e,e,0,b
NAME lost
EXT 11,2 4 5,14
PAL 2

ROOM b
0,f,0,a,0,g,0,0,g,g,g,g,g,0,0,0
g,x,0,b,b,f,g,g,g,g,e,g,g,0,0,0
0,f,0,0,0,0,x,b,g,g,g,g,g,e,0,0
g,f,b,b,x,0,0,0,b,b,0,g,g,g,g,0
g,g,e,0,b,x,x,0,0,0,x,0,g,e,g,0
g,g,e,b,b,b,b,b,b,0,0,b,0,g,g,0
g,0,b,b,0,b,k,b,b,b,0,0,k,0,g,g
g,b,x,0,0,0,0,0,x,b,0,0,b,b,g,g
0,b,0,0,b,x,b,0,0,0,0,0,b,b,0,g
0,b,0,g,k,0,b,x,b,0,x,b,a,g,g,0
0,b,0,g,b,0,e,f,f,a,b,f,g,g,0,g
g,b,b,0,b,b,e,e,e,e,0,g,g,f,f,b
g,0,x,0,0,b,b,b,e,e,e,0,0,b,f,f
e,0,f,b,0,0,g,0,b,x,b,b,x,b,0,b
g,0,0,b,b,b,g,g,0,g,0,0,0,0,0,b
0,g,g,g,g,f,b,b,b,b,f,b,x,x,0,b
EXT 14,15 2 2,0
PAL 6

TIL a
00001001
00010101
00100011
01000001
01111111
01011101
01110111
01110111
NAME house
WAL true

TIL b
00010000
00111000
00111100
01111100
01111110
11111110
00010000
00010000
NAME tree1
WAL true

TIL c
00100000
01010000
10101000
01010100
11111100
11111100
11001100
11001100
NAME house2
WAL true

TIL d
00000000
01111100
01010100
01111100
01010100
01111100
01101100
01101100
NAME house 3
WAL true

TIL e
10010010
00100000
01000101
00010000
00100100
01001001
00010010
00100000
>
00100100
01001001
10010010
00000100
01000001
10010010
00100100
01001001
NAME rain

TIL f
00000010
00000111
00100111
00101111
01110010
11110111
11111010
00100010
NAME trees2
WAL true

TIL g
10100010
01000100
10001001
00010010
01000000
10001010
00010001
00100010
NAME grass
WAL false

TIL h
00000000
00000000
00000000
00000000
01010000
01110000
01110100
01111000

TIL i
00000000
00000000
00000000
00000000
00000000
00000000
00000000
00000000

TIL j
00000000
00000000
00000000
00000000
00000000
00000000
00000000
00000000
NAME blank
WAL true

TIL k
00000000
00111100
01011100
01000000
01000000
01000000
01000000
01000000
WAL true

TIL l
00010000
00010000
00000000
00010000
00010000
00010000
00000000
00010000

TIL m
00010000
00010000
00000000
00010000
00011011
00000000
00000000
00000000

TIL n
00000000
00000000
00000000
00000000
10111011
00000000
00000000
00000000

TIL o
00010000
00010000
00000000
00010000
10110000
00000000
00000000
00000000

TIL p
00000000
00000000
00000000
00000000
00011011
00010000
00010000
00000000

TIL q
00000000
00000000
00000000
00000000
10110000
00010000
00000000
00010000

TIL r
00010000
00010000
00000000
00010000
00011011
00010000
00000000
00010000

TIL s
00010000
00010000
00000000
00010000
01110000
00010000
00000000
00010000

TIL t
00010000
00010000
00000000
00010000
10111011
00000000
00000000
00000000

TIL u
00010000
00010000
00000000
00010000
00011011
00000000
00000000
00000000

TIL v
10101010
01010101
10101010
01010101
10101010
01010101
10101010
01010101
>
01010101
10101010
01010101
10101010
01010101
10101010
01010101
10101010

TIL w
10100000
01010000
10101000
01010100
10101010
01010101
10101010
01010101
>
01000000
10100000
01010000
10101000
01010100
10101010
01010101
10101010

TIL x
00011000
00111100
00111100
01111110
01111110
00111100
10010010
01010111
WAL true

SPR A
00000000
00000000
10010000
11110000
01100000
11110010
11110110
11111100
>
00000000
00000000
10010000
11110000
11110000
11110010
11110110
11111100
POS 0 2,3

SPR a
00000000
00000000
00000000
00000000
01010000
01110000
00100100
01111000
>
00000000
00000000
00000000
00000000
01010000
01110000
01110100
01111000
NAME kitten
DLG SPR_0
POS 9 12,14

SPR b
00000000
00000000
00001010
01001110
10001011
11111110
01111110
01000100
>
00000000
00000000
00001010
01001110
10001111
11111110
01111110
01000100
NAME fox
DLG SPR_1
POS 0 9,10

SPR c
00000000
00000000
00000000
00101000
00000000
00000000
00000000
00000000
NAME eyes
DLG SPR_2
POS 7 6,10

SPR d
00000000
00000000
00000000
00101000
00000000
00000000
00000000
00000000
NAME eyes2
DLG SPR_3
POS a 13,8

SPR e
00000000
00000000
00000000
00101000
00000000
00000000
00000000
00000000
NAME eyes2
DLG SPR_4
POS b 9,9

ITM 1
00000000
00000000
00000000
00000000
01010000
01110000
00100100
01111000
>
00000000
00000000
00000000
00000000
01010000
01110000
01110100
01111000
NAME kitten
DLG ITM_0

DLG SPR_1
You look like you've lost something?

DLG SPR_2
You're a long way from home...

DLG SPR_3
You should be careful out here. You wouldn't want to get lost...

DLG SPR_4
The town is looking far away. be careful...

DLG ITM_0
Found

DLG SPR_0
FOUND

END 0
The End

END undefined
FOUND

END undefinee


VAR a
42


