Kleu's music

# BITSY VERSION 5.1

! ROOM_FORMAT 1

PAL 0
NAME 1extended
163,153,156
192,226,165
254,190,143
211,192,210
218,255,239
179,255,224
254,190,143

PAL 1
NAME cloudtime
163,153,156
218,255,239
179,255,224
218,255,239
218,255,239
179,255,224

PAL 2
NAME textboxtest
190,113,222
110,100,109
106,87,109

ROOM 0
0,0,0,0,0,0,0,0,0,0,0,0,0,0,0,0
0,e,e,e,e,e,e,0,0,e,e,e,0,e,e,0
c,c,f,f,f,f,c,f,c,f,c,f,c,f,c,f
b,c,f,c,f,c,f,f,c,b,f,f,f,c,c,b
c,f,f,b,c,f,j,i,f,f,f,c,f,f,c,c
c,c,f,c,f,i,q,f,c,f,f,c,f,f,j,c
f,i,c,f,f,f,f,f,c,c,c,f,f,f,c,f
c,c,f,b,c,i,f,c,f,f,f,f,c,m,n,l
c,i,c,f,f,m,m,m,f,f,f,m,l,0,w,0
c,c,b,l,u,pg,u,o,f,m,l,0,w,w,0,k
c,i,l,u,u,pg,u,u,u,r,0,w,0,0,k,b
f,i,v,u,u,q1,u,u,u,s,w,0,k,b,b,1u
c,c,v,v,v,v,v,v,v,t,0,k,b,m,j,j
c,i,g,h,0,h,h,h,h,k,b,b,1u,n,n,c
b,c,n,i,m,n,b,c,n,f,n,c,n,c,c,c
c,c,c,b,c,c,f,b,c,c,b,c,c,c,f,b
NAME deninside
ITM r 3,1
EXT 15,8 1 0,8
PAL 0

ROOM 1
0,0,0,0,0,0,0,0,0,0,0,0,0,0,0,0
0,e,0,e,0,0,0,0,0,0,0,e,0,e,e,e
f,c,c,c,c,1c,1g,1f,1h,f,c,f,y,f,c,c
b,c,i,m,l,w,0,k,b,c,c,f,y,f,f,f
c,f,f,l,w,0,x,b,c,f,c,m,y,c,i,b
c,n,l,w,0,k,f,c,c,f,f,b,z,c,f,c
f,l,0,0,k,b,b,f,i,f,c,f,10,11,f,f
l,0,x,b,n,b,f,f,c,f,f,j,16,12,c,c
0,k,b,j,f,c,c,c,f,f,b,f,y,c,c,i
k,c,c,c,f,b,m,c,c,f,14,15,13,f,f,f
n,i,c,i,f,f,f,f,f,c,y,c,c,c,b,c
j,n,f,f,c,c,f,c,c,19,13,f,f,m,i,c
j,c,f,f,f,j,f,f,18,17,j,c,c,f,f,f
c,c,j,f,c,f,c,i,1a,1b,f,f,f,f,b,c
c,c,f,n,j,f,c,f,n,y,f,c,c,c,j,f
b,c,f,c,c,c,c,c,c,z,n,c,c,c,c,c
NAME exitinside
ITM 1 4,1
EXT 7,1 3 7,4
EXT 8,1 3 8,4
EXT 0,9 0 15,9
PAL 0

ROOM 2
0,0,0,0,0,0,0,0,0,0,0,0,0,0,0,0
0,0,0,0,0,0,0,0,0,0,0,0,0,0,0,0
0,0,0,0,0,0,0,0,0,0,0,0,0,0,0,0
0,0,0,0,0,0,0,0,0,0,0,0,0,0,0,0
p2,9h,0,0,0,0,0,0,0,8x,4f,4g,7b,4h,4i,4j
4k,4m,4p,0,0,0,8x,4n,4o,4q,4r,4s,1l,4t,4u,1l
p3,4v,1l,4w,0,4x,4y,4z,50,p3,51,52,53,54,55,56
57,58,59,5a,3i,5b,5c,5d,5e,p0,0,5f,5g,0,0,p3
5h,1l,1l,1l,5i,5j,5k,5l,5m,5n,5o,p3,5p,2u,0,5q
5r,5s,5t,1l,5u,5v,5w,5x,5y,5z,0,60,0,0,0,0
61,by,62,63,66,67,68,69,6a,64,6b,6c,0,6e,6f,p2
6g,0,0,0,0,0,0,6h,6i,0,0,0,p3,6j,6k,q9
64,0,0,0,0,0,0,0,0,0,0,0,0,0,0,0
9h,oq,6l,6m,6n,6o,0,0,0,0,6p,6q,6r,6t,6u,6u
fi,6v,6w,6x,6y,0,0,0,0,0,0,0,0,0,0,0
0,0,0,0,0,0,0,0,0,0,0,0,0,0,0,0
NAME clouds2
END 0 0,0
END 0 1,0
END 0 2,0
END 0 3,0
END 0 4,0
END 0 5,0
END 0 6,0
END 0 7,0
END 0 8,0
END 0 9,0
END 0 10,0
END 0 11,0
END 0 12,0
END 0 13,0
END 0 14,0
END 0 15,0
PAL 1

ROOM 3
0,0,0,0,0,0,0,0,0,0,0,0,0,0,0,0
0,0,0,0,0,0,0,0,0,0,0,0,0,0,0,0
0,0,0,0,0,0,0,0,0,0,0,0,0,0,0,0
w,w,w,w,w,w,w,w,w,w,w,w,w,w,w,w
0,e,0,e,0,0,0,0,0,0,0,e,0,e,e,e
f,c,c,c,c,c,1j,1k,1h,f,c,f,1i,f,c,c
b,c,i,m,c,f,b,c,b,c,c,f,f,f,f,f
c,f,f,i,b,f,n,b,c,f,c,m,c,c,i,b
c,n,b,f,f,c,f,c,c,f,f,b,n,c,f,c
f,j,c,b,c,b,b,f,i,f,c,f,c,b,f,f
c,f,m,b,n,b,f,f,c,f,f,j,f,f,c,c
b,c,b,j,f,c,c,c,f,f,b,f,c,c,c,i
j,c,c,c,f,b,j,c,c,f,m,c,b,f,f,f
n,i,c,i,f,f,f,f,f,c,f,c,c,c,b,c
j,i,f,f,c,c,f,c,c,b,c,f,f,m,i,c
j,c,f,f,f,c,f,f,j,f,j,c,c,f,f,f
NAME exitoutside
ITM 2 2,4
ITM 3 12,4
ITM 1 4,4
EXT 8,5 1 8,2
EXT 7,5 1 7,2
EXT 0,4 4 14,4
EXT 15,4 a 1,4
PAL 0

ROOM 4
0,0,0,0,0,0,0,0,0,0,0,0,0,0,0,0
0,0,0,0,0,0,0,0,0,0,0,0,0,0,0,0
0,0,0,0,0,0,0,0,0,0,0,0,0,0,0,0
w,w,w,w,w,w,w,w,w,w,w,w,w,w,w,w
0,e,e,e,e,e,e,0,0,e,e,e,0,e,e,0
c,c,f,f,f,f,c,f,c,f,c,f,c,f,c,f
b,c,f,c,f,c,f,f,c,b,f,f,f,c,c,b
c,f,f,b,c,f,j,i,f,f,f,c,f,f,c,c
c,c,f,c,f,i,n,f,c,f,f,c,f,f,j,c
f,i,c,f,f,f,f,f,c,c,c,f,f,f,c,f
c,c,f,b,c,i,f,c,f,f,f,f,f,m,n,j
c,i,c,f,f,m,f,f,f,f,f,m,i,c,n,b
c,c,b,b,b,c,j,b,f,m,c,b,f,b,c,f
c,i,b,m,c,b,c,f,f,f,f,j,b,m,c,n
f,i,n,c,b,m,n,b,j,c,b,f,f,b,b,j
c,c,f,b,c,c,b,f,f,b,i,c,b,b,b,j
NAME denoutside
ITM 6 7,4
ITM r 3,4
EXT 15,4 3 1,4
PAL 0

ROOM 5
0,0,0,0,0,0,0,0,0,0,0,0,0,0,0,0
w,w,w,w,w,w,0,0,0,0,0,0,0,0,0,0
w,0,0,0,0,w,0,0,0,0,0,0,0,0,0,0
0,x,1n,1n,1m,0,w,w,w,w,w,w,w,w,w,w
x,f,c,f,c,1m,0,0,0,0,0,e,0,e,0,0
c,c,f,2j,1q,1q,p4,1f,1h,c,c,f,1p,f,c,f
b,c,f,u,v,u,0,k,c,b,f,f,1u,c,c,b
c,f,f,u,rl,k,j,i,f,f,f,c,1u,f,c,c
c,c,f,u,n,i,n,f,c,f,c,c,1u,c,j,c
f,i,b,i,b,n,n,f,c,c,f,f,1u,f,c,f
c,c,f,b,b,f,f,c,f,f,f,f,1u,m,n,j
c,i,b,n,b,f,b,j,f,f,f,m,1u,c,n,f
c,i,f,b,b,n,m,b,f,m,m,b,1u,b,c,f
c,m,b,b,b,b,b,f,f,1u,1u,1u,1u,c,f,n
f,i,b,m,b,n,b,j,j,1u,b,f,f,c,c,j
c,c,b,b,f,b,b,f,f,1u,i,c,b,c,b,j
NAME holeoutside
ITM 4 3,2
ITM 5 12,6
ITM 5 12,7
ITM 5 12,8
ITM 5 12,9
ITM 5 12,10
ITM 5 12,11
ITM 5 12,12
ITM 5 12,13
ITM 5 11,13
ITM 5 10,13
ITM 5 9,13
ITM 5 9,14
ITM 5 9,15
ITM w 2,2
EXT 15,4 4 1,4
EXT 3,2 6 3,2
PAL 0

ROOM 6
0,0,0,0,0,0,0,0,0,0,0,0,0,0,0,0
w,w,w,w,w,w,0,0,0,0,0,0,0,0,0,0
w,0,0,0,0,w,0,0,0,0,0,0,0,0,0,0
0,x,1n,1n,1m,0,w,w,w,w,w,w,w,w,w,w
x,f,c,f,c,1m,0,0,0,0,0,e,0,e,0,0
c,c,f,2j,1q,1q,p4,1f,1h,c,c,f,1p,f,c,f
b,c,f,u,v,u,0,k,c,b,f,f,1p,c,c,b
c,f,f,u,rl,k,j,i,f,f,f,c,1p,f,c,c
c,c,f,u,n,i,n,f,c,f,c,c,1p,c,j,c
f,i,b,i,b,n,n,f,c,c,f,f,1p,f,c,f
c,c,f,b,b,f,f,c,f,f,f,f,1p,m,n,j
c,i,b,n,b,f,b,j,f,f,f,m,1p,c,n,f
c,i,f,b,b,n,m,b,f,m,m,b,1p,b,c,f
c,m,b,b,b,b,b,f,f,1t,1s,1s,1r,c,f,n
f,i,b,m,b,n,b,j,j,1p,b,f,f,c,c,j
c,c,b,b,f,b,b,f,f,1p,i,c,b,c,b,j
NAME holedig
ITM 5 12,5
ITM 5 12,6
ITM 5 12,7
ITM 5 12,8
ITM 5 12,9
ITM 5 12,10
ITM 5 12,11
ITM 5 12,12
ITM 5 12,13
ITM 5 11,13
ITM 5 10,13
ITM 5 9,13
ITM 5 9,14
ITM 5 9,15
ITM e 14,4
ITM w 2,2
EXT 9,15 9 9,1
EXT 15,4 4 1,4
EXT 0,3 24 14,3
PAL 0

ROOM 9
c,c,c,c,c,c,c,c,c,1p,c,c,c,c,c,c
c,c,c,c,c,c,c,c,c,1p,c,c,c,c,c,c
c,c,c,c,c,c,c,1t,1s,1r,c,c,c,c,c,c
c,c,c,c,c,c,c,1p,c,c,c,c,c,c,c,c
c,c,c,c,c,c,c,1p,c,c,c,c,c,c,c,c
c,c,f,m,f,f,c,1p,c,c,c,f,c,f,c,f
b,c,c,2k,1s,1s,1s,1w,c,n,f,m,f,m,c,b
c,f,f,b,c,f,j,1p,f,f,f,2i,f,j,c,c
c,c,f,c,f,i,n,1v,1s,1s,1s,1r,c,i,j,c
f,i,c,f,f,f,f,1p,c,c,c,m,c,c,c,b
c,c,f,b,c,i,f,1p,f,2g,1,2,3,4,m,c
c,i,c,f,f,m,1t,1r,f,5,2n,b,b,6,7,f
c,c,c,c,1t,1s,1r,b,8,9,1x,b,b,b,1y,j
c,i,b,c,2h,b,c,f,1z,20,21,22,23,24,25,j
f,i,n,c,b,m,n,b,26,27,28,29,2a,2b,n,c
c,c,f,b,c,c,b,i,2c,2d,2e,2f,j,f,c,b
NAME digskull
ITM 7 4,13
ITM 8 4,12
ITM a 4,6
ITM 5 9,2
ITM 5 8,2
ITM 5 7,2
ITM 5 7,3
ITM 5 7,4
ITM 5 7,5
ITM 5 7,6
ITM 5 6,6
ITM 5 5,6
ITM 5 7,7
ITM 5 7,8
ITM 5 8,8
ITM 5 9,8
ITM 5 10,8
ITM 5 7,9
ITM 5 7,10
ITM 5 7,11
ITM 5 6,11
ITM 5 6,12
ITM 5 5,12
ITM b 3,6
ITM 9 11,8
EXT 9,0 6 9,14
PAL 0

ROOM 11
0,0,0,0,0,0,0,0,0,0,0,0,0,0,0,0
0,0,0,0,0,0,0,0,0,0,0,0,0,0,0,0
0,0,0,0,0,0,0,0,0,0,0,0,0,0,0,0
0,0,0,0,pe,p2,0,0,0,0,0,0,0,w,w,w
0,0,0,39,p1,3s,0,0,0,0,0,0,w,0,e,x
0,0,0,0,3t,3u,0,0,0,0,0,w,0,x,c,c
0,0,0,0,0,3f,3k,0,0,0,w,0,x,f,i,c
0,0,0,0,0,3l,oz,p0,3v,w,0,x,n,b,f,f
0,0,0,0,3w,3m,g,3n,3c,0,x,c,n,m,c,c
0,0,0,0,0,p3,3x,3p,3y,x,b,f,i,c,f,f
0,0,0,0,0,w,0,oy,c,n,c,f,f,b,c,j
0,0,0,0,w,0,x,c,f,f,b,m,b,c,n,f
0,0,0,w,0,x,c,m,on,j,n,c,j,i,c,f
0,w,w,0,x,c,f,i,om,c,m,f,n,m,n,f
w,0,e,x,oi,oi,oi,ol,oj,ok,oi,oi,oi,oi,oi,oi
0,k,j,c,m,c,m,f,m,c,m,f,m,m,f,f
NAME hillstart2
EXT 8,13 14 8,13
EXT 0,15 a 12,0
EXT 15,14 15 1,14
EXT 15,4 18 1,14
PAL 0

ROOM 14
0,0,0,0,0,0,0,0,0,0,0,0,0,0,0,0
0,0,0,0,0,0,0,0,0,0,0,0,0,0,0,0
0,0,0,0,0,0,0,0,0,0,0,0,0,0,0,0
0,0,0,0,pe,p2,0,0,0,0,0,0,0,0,0,0
0,0,0,39,p1,3s,0,0,0,0,0,0,0,0,e,x
0,0,0,0,3t,3u,0,0,0,0,0,0,0,x,c,c
0,0,0,0,0,3f,3k,0,0,0,0,0,x,f,i,c
0,0,0,0,0,3l,oz,p0,3v,0,0,x,n,b,f,f
0,0,0,0,3w,3m,g,3n,3c,0,x,c,n,m,c,c
0,0,0,0,0,p3,3x,3p,3y,x,b,f,i,c,f,f
0,0,0,0,0,0,0,oy,c,n,c,f,f,b,c,j
0,0,0,0,0,0,x,c,f,or,os,v,ou,c,n,f
0,0,0,0,0,x,c,m,op,ow,u,u,ov,i,c,f
0,0,0,0,x,c,f,i,oo,oq,ot,f,n,m,n,f
0,0,e,x,oi,oi,oi,ol,oj,ok,oi,oi,oi,oi,oi,oi
0,k,j,c,m,c,m,f,m,c,m,f,m,c,f,f
NAME hillstartinside
EXT 8,14 11 8,14
PAL 0

ROOM 15
0,q1,pw,0,0,0,0,0,0,0,0,0,q1,pw,0,0
0,q2,pw,0,0,0,0,re,re,0,0,0,q2,pw,0,0
0,0,pw,0,0,0,0,0,0,0,0,0,0,pw,0,0
0,0,px,m,c,c,m,m,c,n,c,m,f,py,0,0
e,x,n,f,f,c,c,f,j,b,n,c,c,f,1m,e
c,c,c,c,c,f,f,f,c,f,f,f,f,f,m,c
i,c,f,c,b,c,f,c,c,c,m,c,f,f,f,m
f,f,c,f,f,f,n,b,c,f,f,j,b,c,f,f
c,c,f,f,m,c,i,f,f,f,f,n,f,m,c,j
f,f,f,b,f,n,f,f,i,i,b,f,f,f,f,b
c,j,n,f,f,p7,p9,p9,p9,p9,pa,f,f,c,j,n
n,f,i,f,f,p8,0,0,0,0,pb,f,f,b,c,c
c,f,b,f,f,p6,0,0,0,0,pc,c,n,b,m,c
n,f,c,f,f,p5,0,0,0,0,pd,i,f,c,n,f
oi,oi,oi,oi,oi,ol,oj,oj,oj,oj,ok,oi,oi,oi,oi,oi
f,f,b,f,m,f,f,f,m,f,m,b,f,f,f,b
NAME hillmiddle
ITM h 7,2
ITM h 8,2
ITM h 7,0
ITM h 8,0
ITM g 9,2
ITM g 9,0
ITM f 6,2
ITM f 6,0
ITM l 6,1
ITM m 9,1
ITM s 4,2
EXT 0,14 11 14,14
EXT 6,13 19 6,13
EXT 7,13 19 7,13
EXT 8,13 19 8,13
EXT 9,13 19 9,13
EXT 15,14 16 1,14
PAL 0

ROOM 16
0,0,0,0,0,0,0,0,0,0,0,0,0,0,0,0
0,0,0,0,0,0,0,0,0,0,0,0,0,0,0,0
0,0,0,0,0,0,0,0,0,0,0,0,0,0,0,0
w,w,w,0,0,0,0,0,0,0,0,0,0,0,0,0
1m,e,0,w,0,0,0,0,0,0,0,0,0,0,0,0
m,c,1m,0,w,0,0,0,0,0,0,0,0,0,0,0
f,m,c,q4,0,w,w,0,0,0,0,0,0,0,w,w
f,f,n,f,1m,e,0,w,0,0,0,0,0,w,0,e
c,j,c,n,j,j,1m,0,w,w,w,w,w,0,k,c
f,b,f,b,b,j,f,q4,0,0,0,0,0,x,m,f
j,n,c,i,c,f,f,m,1j,1k,1h,pv,qe,c,f,f
c,c,f,m,f,c,i,f,f,i,pv,qe,f,m,j,f
m,c,c,b,c,f,c,b,c,pv,qe,f,on,f,c,f
n,f,f,c,c,b,j,c,pv,qe,m,n,om,f,n,c
oi,oi,oi,oi,oi,oi,oi,oi,qf,oi,oi,ol,oj,f,f,f
f,b,f,c,n,c,b,c,c,n,f,n,f,m,c,j
NAME hilldown1
ITM u 5,7
EXT 0,14 15 14,14
EXT 15,7 21 1,7
EXT 12,13 20 12,13
EXT 9,10 20 9,10
EXT 10,10 20 10,10
EXT 0,4 18 14,14
PAL 0

ROOM 18
0,0,0,0,0,0,9h,w,0,w,9i,9j,ef,9l,0,0
0,0,0,0,9m,eg,eh,9p,6s,9q,ei,ej,ek,0,9v,0
0,0,0,9w,9x,9y,0,el,a0,4p,em,a3,0,0,a4,en
0,0,a6,4l,eo,ep,7b,eq,er,es,ac,0,0,0,0,7f
7g,7h,eu,ev,ew,0,ey,a0,ak,ez,0,8x,an,ao,0,aq
a0,a0,a0,f1,w,0,rc,re,re,rj,aw,f4,ay,f5,f6,0
f7,c1,f8,b5,b6,0,qo,qn,qn,rd,b8,b9,fb,pf,bb,fc
0,bd,fd,0,bf,0,qo,qn,fe,rd,fg,0,0,fh,fi,bn
fj,pz,q0,fk,fl,0,qo,qn,qn,rd,0,0,pz,q0,bv,bw
0,pg,pw,0,w,0,qo,bz,qn,rd,0,0,pg,pw,6d,64
0,q1,pw,0,w,0,qo,qn,qn,rd,0,0,q1,pw,0,0
0,q2,q3,w,w,0,rc,re,rd,rj,w,w,0,q3,0,0
0,w,pw,0,0,0,rf,qn,qn,qp,0,0,0,pw,w,0
w,0,px,m,c,pv,m,m,c,n,c,m,f,py,0,w
e,x,n,f,f,c,c,f,j,b,n,c,c,f,1m,e
c,c,c,c,c,f,f,f,c,f,f,f,f,f,m,c
NAME hilltop
ITM j 7,9
ITM k 8,7
ITM s 4,12
ITM 11 5,11
ITM z 5,12
EXT 0,14 11 14,4
EXT 5,13 19 5,9
EXT 15,14 16 1,4
PAL 0

ROOM 19
0,q1,pw,0,0,0,qo,0,0,0,0,0,q1,pw,0,0
0,q2,pw,0,0,0,0,re,re,0,0,0,q2,pw,0,0
0,0,pw,0,0,0,qo,qn,qn,qp,0,0,0,pw,0,0
0,0,px,m,c,pv,m,m,c,n,c,m,f,py,0,0
e,x,n,f,f,c,c,f,j,b,n,c,c,f,1m,e
c,c,c,c,c,f,f,f,c,f,f,f,f,f,m,c
i,c,f,c,b,c,f,c,c,c,m,c,f,f,f,m
f,pl,u,ou,f,f,n,b,c,f,f,j,pl,u,ou,f
c,u,u,u,ou,pv,i,f,f,f,f,pl,u,u,u,j
f,v,u,u,v,u,qo,0,0,0,u,u,u,u,u,b
c,pk,0,rb,v,u,qo,0,0,0,u,u,v,v,v,n
n,f,pj,u,v,u,qo,0,0,0,u,v,pr,pq,ps,c
c,f,b,pj,u,u,rc,0,0,rd,v,u,k,b,m,c
n,f,c,f,pn,ph,pm,pm,pm,pm,po,pp,f,c,n,f
oi,oi,oi,oi,qq,qr,oj,oj,oj,oj,qs,qq,oi,oi,oi,oi
f,f,b,f,m,f,f,f,m,f,m,b,f,f,f,b
NAME hillinside
ITM h 7,11
ITM h 8,11
ITM h 8,9
ITM g 9,11
ITM g 9,10
ITM g 9,9
ITM g 9,0
ITM j 7,9
ITM k 8,10
ITM h 7,0
ITM h 8,0
ITM l 6,1
ITM m 9,1
ITM m 9,12
ITM n 11,13
ITM h 7,10
ITM s 4,2
EXT 6,14 15 6,14
EXT 7,14 15 7,14
EXT 8,14 15 8,14
EXT 9,14 15 9,14
EXT 5,8 18 5,12
PAL 0

ROOM 20
0,0,0,0,0,0,0,0,0,0,0,0,0,0,0,0
0,0,0,0,0,0,0,0,0,0,0,0,0,0,0,0
0,0,0,0,0,0,0,0,0,0,0,0,0,0,0,0
0,0,0,0,0,0,0,0,0,0,0,0,0,0,0,0
1m,e,0,0,0,0,0,0,0,0,0,0,0,0,0,0
m,c,1m,0,0,0,0,0,0,0,0,0,0,0,0,0
f,m,c,q4,0,0,0,0,0,0,0,0,0,0,0,0
f,f,n,f,1m,e,0,0,0,0,0,0,0,0,0,e
c,j,c,n,j,j,1m,0,0,0,0,0,0,0,k,c
f,qu,qt,b,b,j,f,q4,0,0,0,0,0,x,m,f
j,v,v,qt,c,f,f,m,1g,1f,1h,c,qe,c,f,f
c,pk,0,v,qt,c,i,9b,0,k,c,qe,f,m,j,f
m,c,0,rl,v,v,v,0,x,c,qe,f,qg,v,v,v
n,f,f,g,u,u,u,x,c,qe,m,n,oo,qi,qh,u
oi,oi,oi,qq,qq,qq,qq,qq,qf,oi,oi,ol,oj,f,f,g
f,b,f,c,n,c,b,c,c,n,f,n,f,m,c,j
NAME hilldowninside
ITM u 5,7
EXT 9,9 16 9,9
EXT 10,9 16 10,9
EXT 12,14 16 12,14
EXT 15,13 22 1,13
PAL 0

ROOM 21
0,0,0,0,0,0,0,0,0,0,0,0,0,0,0,0
0,0,0,0,0,0,0,0,0,0,0,0,0,0,0,0
0,0,0,0,0,0,0,0,0,0,0,0,0,0,0,0
0,0,0,0,0,0,0,0,0,0,0,0,0,0,0,0
0,0,0,0,0,0,w,w,w,w,w,0,0,0,0,0
0,0,0,0,w,w,0,e,e,0,q7,q9,0,0,0,0
w,w,w,w,0,e,x,c,b,i,b,q8,qa,qa,0,0
0,e,e,e,x,m,m,c,f,j,i,0,0,pg,0,0
k,c,f,m,c,j,c,b,f,m,9b,0,0,pg,0,0
m,f,j,f,c,c,m,j,c,9b,0,0,0,pg,0,0
f,f,c,c,f,j,b,m,i,0,0,0,0,q1,0,0
j,f,m,c,m,c,m,f,9b,0,0,0,0,q2,0,0
c,f,c,f,c,b,b,qb,0,0,0,0,0,0,0,0
n,c,c,b,c,m,i,qc,0,0,0,0,0,0,0,0
f,f,c,j,c,c,i,qc,0,0,0,0,0,0,0,0
c,j,j,c,f,c,f,qd,0,0,0,0,0,0,0,0
NAME hillend
ITM q 9,5
ITM t 7,5
ITM x 2,7
EXT 0,7 16 14,7
PAL 0

ROOM 22
0,0,0,0,0,0,0,0,0,0,0,0,0,0,0,0
0,0,0,0,0,0,0,0,0,0,0,0,0,0,0,0
0,0,0,0,0,0,0,0,0,0,0,0,0,0,0,0
0,0,0,0,0,0,0,0,0,0,0,0,0,0,0,0
0,0,0,0,0,0,0,0,0,0,0,0,0,0,0,0
0,0,0,0,0,0,0,e,e,0,q7,q9,0,0,0,0
0,0,0,0,0,e,x,c,b,i,b,q8,qa,qa,0,0
0,e,e,e,x,m,m,c,f,j,i,0,0,pg,0,0
k,c,f,m,c,j,c,b,f,m,9b,0,0,pg,0,0
m,f,j,f,c,c,m,j,c,9b,0,0,0,pg,0,0
f,f,c,c,f,j,b,m,i,0,0,0,0,q1,0,0
j,f,qu,v,v,v,qv,qt,9b,0,0,0,0,q2,0,0
v,v,v,v,v,r9,v,ql,0,0,0,0,0,0,0,0
qh,u,v,v,ra,rh,v,qm,0,0,0,0,0,0,0,0
f,g,u,u,u,u,u,qm,0,0,0,0,0,0,0,0
c,j,j,c,f,c,f,qd,0,0,0,0,0,0,0,0
NAME hillendinside
ITM t 7,5
ITM x 2,7
ITM y 5,13
EXT 0,13 20 14,13
PAL 0

ROOM 23
0,0,0,0,0,0,9h,0,0,w,9i,9j,ef,9l,0,0
0,0,0,0,9m,eg,eh,9p,6s,9q,ei,ej,ek,0,9v,0
0,0,0,9w,9x,9y,w,el,a0,4p,em,a3,0,0,a4,en
0,0,a6,4l,eo,ep,7b,rk,er,es,ac,0,0,0,0,7f
7g,7h,eu,ev,ew,ex,ey,a0,ak,ez,0,8x,an,ao,0,aq
a0,a0,a0,f1,w,0,rc,re,re,rj,aw,f4,ay,f5,f6,0
f7,c1,f8,b5,b6,0,qo,qn,qn,rd,b8,b9,fb,pf,bb,fc
0,bd,fd,0,bf,bg,qo,qn,0,rd,fg,0,0,fh,fi,bn
fj,pz,q0,fk,fl,0,qo,qn,qn,rd,0,0,pz,q0,bv,bw
0,pg,pw,0,w,0,qo,bz,qn,rd,0,0,pg,pw,6d,64
0,q1,pw,0,w,0,qo,qn,qn,rd,0,0,q1,pw,0,0
0,q2,q3,w,w,w,rc,re,re,rd,w,w,q2,q3,0,0
0,w,pw,0,0,0,rf,qn,qn,qp,0,0,0,pw,w,0
w,0,px,m,c,pv,m,m,c,n,c,m,f,py,0,w
e,x,n,f,f,c,c,f,j,b,n,c,c,f,1m,e
c,c,c,c,c,f,f,f,c,f,f,f,f,f,m,c
NAME topend2
ITM j 7,9
ITM k 8,7
EXT 8,0 2 8,15
EXT 7,0 2 7,15
PAL 0

ROOM 24
0,0,0,0,0,0,0,0,0,0,0,0,0,0,0,0
0,0,0,0,0,0,0,0,0,0,0,0,0,0,0,0
0,0,0,0,0,0,0,0,0,0,0,0,0,0,w,w
0,0,0,0,0,0,0,0,0,0,0,0,0,w,0,x
0,0,0,0,0,0,0,0,0,0,0,0,w,0,x,f
0,0,0,0,0,0,0,0,0,0,w,w,0,x,c,c
0,0,0,0,0,0,0,0,0,0,e,0,x,f,b,j
qy,qy,qy,qy,qy,qy,qy,qy,qy,qy,n,f,c,m,c,f
qy,qy,qy,qy,r2,qy,qy,qy,r5,qy,r0,b,j,c,c,c
qy,qy,r3,qy,3o,3q,3r,3z,qy,r5,qy,qy,r1,j,f,i
qy,qy,41,42,43,r6,44,45,qy,qy,qy,qy,qy,r1,c,c
qy,qy,qy,46,47,48,49,qy,qy,qy,qy,qy,qy,qy,c,i
qy,qy,qy,r8,4c,4a,4b,qy,qy,qy,qy,qy,qy,qy,c,i
qy,qy,r4,4c,qy,qy,qy,qy,qy,qy,qy,qy,qy,qy,c,m
qy,qy,qy,qy,qy,qy,qy,qy,qy,qy,qy,qy,qy,qy,f,i
qy,qy,qy,qy,qy,qy,qy,qy,qy,qy,qy,qy,qy,qz,c,c
NAME pond
ITM v 11,6
EXT 15,3 6 1,3
PAL 0

ROOM a
0,0,0,0,0,0,0,0,0,0,0,w,0,k,j,c
0,0,0,0,0,0,0,0,0,0,w,0,k,c,f,m
0,0,0,0,0,0,0,0,0,w,0,k,c,f,c,f
w,w,w,w,w,w,w,w,w,0,k,f,m,f,f,n
e,e,0,0,0,0,0,0,0,k,c,f,c,n,f,j
c,c,m,2l,1g,1g,1g,2m,m,m,c,c,f,c,c,c
f,c,9b,0,0,0,0,0,9a,b,f,c,b,c,f,f
b,f,0,0,0,0,0,0,0,m,c,m,j,c,j,f
c,n,0,0,0,0,0,0,0,f,f,b,f,m,b,f
f,j,0,0,0,0,0,0,0,0,f,f,b,c,n,c
c,pg,0,0,0,0,0,0,0,0,pg,f,j,f,f,n
i,q1,0,0,0,0,0,0,0,0,q1,0,m,c,f,b
f,0,0,0,2o,3g,0,0,0,0,0,0,pg,f,c,m
i,0,0,0,ox,2p,2q,2r,0,0,0,0,pg,m,b,n
c,0,0,3h,3i,3j,1l,2s,0,0,0,0,q1,f,c,c
c,0,2t,1l,1l,1l,1l,2u,0,0,0,0,0,c,c,c
NAME hillstart
ITM d 5,4
EXT 0,4 3 14,4
EXT 13,0 11 1,15
PAL 0

ROOM 1e
0,0,0,0,0,0,9h,w,0,w,9i,9j,ef,9l,0,0
0,0,0,0,9m,eg,eh,9p,6s,9q,ei,ej,ek,0,9v,0
0,0,0,9w,9x,9y,0,el,a0,4p,em,a3,0,0,a4,en
0,0,a6,4l,eo,ep,7b,eq,er,es,ac,0,0,0,0,7f
7g,7h,eu,ev,ew,0,ey,a0,ak,ez,0,8x,an,ao,0,aq
a0,a0,a0,f1,w,0,rc,re,re,rj,aw,f4,ay,f5,f6,0
f7,c1,f8,b5,b6,0,qo,qn,qn,qp,b8,b9,fb,pf,bb,fc
0,bd,fd,0,bf,0,qo,qn,fe,qp,fg,0,0,fh,fi,bn
fj,pz,q0,fk,fl,0,qo,qn,qn,qp,0,0,pz,q0,bv,bw
0,pg,pw,0,w,0,qo,bz,qn,qp,0,0,pg,pw,6d,64
0,q1,pw,0,w,0,qo,qn,qn,qp,0,0,q1,pw,0,0
0,q2,q3,w,w,0,rc,re,re,rd,w,w,q2,q3,0,0
0,w,pw,0,0,0,rf,qn,qn,qp,0,0,0,pw,w,0
w,0,px,m,c,pv,m,m,c,n,c,m,f,py,0,w
e,x,n,f,f,c,c,f,j,b,n,c,c,f,1m,e
c,c,c,c,c,f,f,f,c,f,f,f,f,f,m,c
NAME topend
ITM m 9,11
ITM j 7,9
ITM k 8,7
ITM s 4,12
ITM 10 8,4
ITM 11 5,10
ITM 12 5,9
ITM 13 5,8
ITM 14 5,7
ITM 15 5,6
ITM 16 5,5
ITM 17 5,4
ITM 18 6,4
PAL 0

TIL 1
11100111
11100000
01000000
10000000
00000011
00011111
00111111
01111111
NAME skull 1

TIL 2
11011101
00000000
00000000
11111111
11111111
11111111
11111111
11111111
NAME skull 2

TIL 3
11111111
00001111
00000001
11000000
11111000
11111110
11111111
11111111
NAME skull 3

TIL 4
11110111
11100111
11101111
00001100
00000000
00000001
11000011
11100001
NAME skull 4

TIL 5
10011000
11001000
11000001
11000011
10000111
00000100
11001000
11001000
NAME skull 5

TIL 6
11111000
11111100
11111110
11111111
11111111
11111111
11111111
11111111
NAME skull 6

TIL 7
11110111
00110111
00000100
00000001
10000011
11000011
11000011
11100011
NAME skull 7

TIL 8
11111111
11111111
11101110
11100000
11100000
10000000
00110000
11110000
NAME skull 8

TIL 9
10010000
00110000
00110000
01100000
11100000
11000000
01001001
00000111
NAME skull 9

TIL 10
11100000
10100000
11100000
11100000
11100000
10100000
11100000
11100000
NAME anttunnel3
WAL false

TIL 11
00111110
00001111
10100111
01000011
11100011
01000011
10100011
00000111
>
00111110
00001111
00000111
10100011
01000011
11100011
01000011
10100111
NAME anttunnel4

TIL 12
00001111
00011111
01111111
11110111
11111111
11111111
11011111
11111111
NAME anttunnel5

TIL 13
11100111
10100111
11000111
00000111
00001101
10111111
11111111
11111111
NAME anttunnel6
WAL false

TIL 14
11111111
11101111
11111111
11110000
01100000
11100011
11100111
11100111
NAME anttunnel7
WAL false

TIL 15
11011111
11111111
11111111
00000000
00000000
11111111
11011011
11111111
NAME anttunnel8
WAL false

TIL 16
11100000
10100000
11100000
11100011
11100101
10100111
11100111
11100111
NAME anttunnel9
WAL false

TIL 17
00000111
00000101
00000111
00000111
00000111
00000101
00000111
00000111
NAME anttunnel10
WAL false

TIL 18
01111100
11110000
11100000
11000000
11010101
11001110
11010101
11100000
>
01111100
11110000
11100000
11010101
11001110
11010101
11000000
11100000
NAME anttunnel11

TIL 19
11111111
11101111
11111111
11110000
01100000
11100011
11000111
10000111
NAME anttunnel12
WAL false

TIL 20
01001111
01001111
11001111
11101111
11100011
11110000
11111111
11111111
NAME skull 13

TIL 21
11000001
11110000
11111111
11110000
10000010
00000100
10001100
11111000
NAME skull 14

TIL 22
11111111
11111111
11111111
11110111
01100100
00110010
01101011
11100011
NAME skull 15

TIL 23
11111111
11111111
11111111
11111111
11111111
01111111
10111111
11111111
NAME skull 16

TIL 24
11111111
11111111
11111111
11111111
11111111
11111011
11101111
11011110
NAME skull 17

TIL 25
11110001
11110001
11110000
11110011
11000011
11000111
10000011
00111101
NAME skull 18

TIL 26
11100101
11100111
10000010
11100000
11100000
11000101
10101111
11100101
NAME skull 19

TIL 27
11101111
01111011
10101110
00010100
00000000
01000000
10101010
11100111
NAME skull 20

TIL 28
11111001
11111111
11111111
01111111
01111111
11111111
11111111
11111111
NAME skull 21

TIL 29
11000001
11000000
11000000
11000000
10000000
10000010
10000111
10000111
NAME skull 22

TIL 30
11111100
11111100
11111000
11111000
11110000
11100000
10000000
10000000
NAME rabbit 13

TIL 31
00000010
00000011
00000011
00001111
00011111
00011111
00011111
00111111
NAME rabbit 14

TIL 32
11111111
11111111
11111111
11111110
11111110
11111000
11110000
11110000
NAME rabbit 15

TIL 33
11111111
11000011
00000001
00000000
00000000
00000000
00000000
00011111
NAME rabbit 16

TIL 34
11111000
11111000
11110000
11110000
01100000
00000000
00000000
10000000
NAME rabbit 17

TIL 35
01111111
01111111
01111111
01110111
00000111
00000001
00000000
00000000
NAME rabbit 18

TIL 36
11110000
11100000
11100000
11100000
11000000
10000000
00000000
00000000
NAME rabbit 19

TIL 37
00011111
00011111
00001111
00011111
00011111
00001111
00001111
00000111
NAME rabbit 20

TIL 38
00000000
00000000
00000000
00000000
00000000
00000000
11111100
11111110
NAME rabbit 21

TIL 39
00000111
00000110
00000111
00000110
00000011
00000011
00000001
00000000
NAME tulipnow
COL 3

TIL 40
11100000
00110000
00010000
00001000
00000100
00000000
00000010
00000000
NAME tulip 18

TIL 41
11111111
01111111
11111111
01111111
10111111
01011111
10101111
00010111
>
11111111
11111111
01111111
11111111
00111111
10111111
01001111
10100111
NAME fish 5
COL 5

TIL 42
10101010
11000100
11111010
11111110
11111111
11111111
11111111
11111111
>
00010001
11101010
11111100
11111110
11111111
11111111
11111111
11111111
NAME fish 6
COL 5

TIL 43
10101111
01000111
10101111
00010110
10101110
11100100
00011100
10000001
>
00010111
10101111
01000111
10101110
00010110
11101100
00011100
10000001
NAME fish 7
COL 5

TIL 44
00000000
00000010
00000011
00000111
11110011
11111111
11111111
11111111
NAME fish 8
COL 5

TIL 45
00111110
01111100
11111010
11110001
11101010
11000100
10101010
00010001
>
00111111
01111110
11111100
11111010
11100001
11101010
11000100
00101010
NAME fish 9
COL 5

TIL 46
11111111
01011111
10111111
01111111
10111111
01111111
10111111
01111111
>
01111111
10111111
01111111
11111111
00111111
10111111
01111111
11111111
NAME fish 10
COL 5

TIL 47
11000011
11000111
11100111
11100111
11100111
11100100
11101110
11111001
>
11000011
11000111
11100111
11100111
11100111
11100110
11101100
11111010
NAME fish 11
COL 5

TIL 48
11111111
11111111
11111111
11111111
11111111
11110111
11101111
01100111
>
11111111
11111111
11111111
11111111
11111111
11111111
01100111
11101111
NAME fish 12
COL 5

TIL 49
11111110
11111100
11111010
11111001
11111010
11111100
11111010
11111101
>
11111111
11111110
11111100
11111010
11111001
11111010
11111100
11111110
NAME fish 13
COL 5

TIL 50
11111110
11111110
11111110
11111110
01111110
00111110
01111100
00011000
NAME clouds2 20

TIL 51
10001111
00111111
11111111
11111011
00000000
00000000
00000000
00000000
NAME clouds2 21

TIL 52
11111111
11111111
11111111
10001110
00000110
00000011
00000001
00000001
NAME clouds2 22

TIL 53
11111001
10000000
00000000
00000000
00000000
10000000
11000000
00000000
NAME clouds2 23

TIL 54
11111111
01111111
00111111
00000011
00000000
00000000
00000000
00000000
NAME clouds2 24

TIL 55
11111111
11111111
11111111
11100111
11000011
00000000
00000000
00000000
NAME clouds2 25

TIL 56
11111111
11111111
11111111
01111111
00111111
00000010
00000000
00000000
NAME clouds2 26

TIL 57
00000000
00000000
00111110
01101110
11001111
00001110
00011101
00011111
NAME clouds2 27

TIL 58
11111000
00000000
00000000
00000000
00000000
00000000
00000000
11111101
NAME clouds2 28

TIL 59
00111111
00011111
00001111
00001111
00000111
00000111
11001111
11111111
NAME clouds2 29

TIL 60
00000000
00000000
00000000
00000000
00000000
01100000
01000100
01000100
NAME clouds2 56

TIL 61
01110000
01111100
01111100
00111000
00110000
00100000
01100000
01100000
NAME clouds2 57

TIL 62
11111111
11111111
11111111
11111111
01111111
00011111
00001111
00000111
NAME clouds2 58

TIL 63
11111111
11111111
11111111
11111111
11111100
11110000
11110000
11000000
NAME clouds2 59

TIL 64
11000000
11000000
10000000
00000000
00000000
00000000
00000000
00000000
NAME cloud95
COL 4

TIL 65
00000000
00000000
00000000
00000000
00000000
00000011
00000111
00001111
NAME cloud89
COL 4

TIL 66
11001000
10011000
10010000
00110000
11000001
00000000
00000000
00000000
NAME clouds2 60

TIL 67
00111101
00111111
00111111
11111111
11000111
00000111
00000111
00000111
NAME clouds2 61

TIL 68
11000000
10000000
00000000
00000000
11000000
11000000
11000000
10000000
NAME clouds2 62

TIL 69
00000001
00000001
00000000
00000000
00000000
00000000
00000000
00001110
NAME clouds2 63

TIL 70
00000000
00000000
00000000
00000000
00000000
10000000
11000000
11100011
NAME clouds2 88

TIL 71
00000000
00000000
00000000
00001110
00111111
00111111
11111111
11111111
NAME clouds2 89

TIL 72
00000000
00000000
00000000
00000001
11000111
11111111
11111111
11111111
NAME clouds2 90

TIL 73
00011110
00000000
11000000
11111000
11111111
11111111
11111111
11111111
NAME clouds2 91

TIL 74
00111111
00000000
00000000
11111110
11111111
11111111
11111111
11111111
NAME clouds2 92

TIL 75
00000000
00000000
00001111
00000111
11000111
01111000
00011000
00000000
NAME clouds2 93

TIL 76
00010011
00111111
11111111
10001111
00000111
00000111
00001111
00000000
NAME clouds2 94

TIL 77
11111111
11111111
11111111
11111111
11111111
11111111
11111101
00000000
NAME clouds2 95

TIL 78
11111111
11111111
11111111
11111111
10000010
10000000
00000000
00000000
NAME clouds2 96

TIL 79
11111111
11111111
11111111
11111000
11111100
00111100
00000000
00000000
NAME clouds2 97

TIL a
11111111
10000001
10000001
10011001
10011001
10000001
10000001
11111111

TIL b
11111111
11111111
11111111
11111111
11111111
11111111
11111111
11111111
NAME fulldirt
WAL true

TIL c
11111111
10111011
11111111
11101101
11111111
10111011
11111110
11110111
NAME dirt1
WAL true

TIL d
00000000
00000000
00000000
00000000
00000000
00101001
01010010
10101101
NAME grass1

TIL e
00000000
00000000
00000000
00000000
00000000
00101001
01010010
11101101
>
00000000
00000000
00000000
00000000
00000000
01010010
10100100
11101101
NAME grass2

TIL f
11111111
10111011
11111111
11101111
11111101
10111111
11111111
11111011
NAME dirt2
WAL true

TIL g
10000000
11100000
11100000
11110000
11110000
11111000
11111111
11111111
NAME slope0
WAL false

TIL h
00000000
01000010
00000000
00010000
01000000
00000010
00000000
00000000
NAME denfloor1

TIL i
11111111
10111111
11111111
11111111
11111111
10111111
11111111
11111111
NAME dirt3
WAL true

TIL j
11111111
11111011
11111111
11111101
11111111
11111011
11111110
11110111
NAME dirt4
WAL true

TIL k
00000011
00000011
00011111
00011111
01111111
01111111
11111101
11111111
NAME slope1
WAL false

TIL l
11111111
11111110
11111100
11000000
10000000
10000000
10000000
10000000
NAME hang1
WAL true

TIL m
11111111
11110111
10111111
11111101
11111111
11111111
11111111
11111111
NAME dirt5
WAL true

TIL n
11111111
11111111
11111111
11111111
11011111
11111110
10111111
11110111
NAME dirt6
WAL true

TIL o
01111111
01111111
00111111
00000011
00000001
00100001
00000101
00000001
NAME hang2
WAL true

TIL p
00000000
00001000
00010100
00001000
00010000
00111001
01010010
11101101
>
00000000
00100000
01010000
00100000
00100000
01110010
10100100
11101101
NAME flower

TIL q
11111111
01110011
00000111
00000001
01111011
10000111
11110011
11111001
>
11111111
01110011
00000111
01110001
00011011
10000111
11110011
11111001
WAL true

TIL r
00000000
01000000
00000000
00000000
00000000
00000000
00000000
00000000
NAME den1

TIL s
00000000
00000000
00000000
00000000
00000000
00000000
00000000
00000000
NAME den2
WAL true

TIL t
00000000
00000000
00000000
01000000
00000000
00000000
01000000
00001000
NAME den3

TIL u
00000000
01000010
00000000
00010000
00000010
01000000
00000000
00000100
NAME moveidirt

TIL v
00000000
01000010
00000000
00010000
00000010
01000000
00000000
00000100
NAME wallidirt
WAL true

TIL w
00000000
00000000
00000000
00000000
00000000
00000000
00000000
00000000
NAME blankwall
WAL true

TIL x
00000000
00000011
00000111
00011111
00111111
00111101
01111111
11110111
NAME slope2
WAL false

TIL y
11100111
10100101
11100111
11100111
11100101
10100111
11100111
11100011
NAME anttunnel1
WAL true

TIL z
11100111
10100101
11100111
11100111
11100101
10100111
11100011
11100001
NAME anttunnel2
WAL false

TIL 1a
11110000
11111100
11111110
10111111
11111111
11111111
11101111
11111111
NAME anttunnel13

TIL 1b
00000111
00000111
00000101
00000111
10000111
11000111
11000111
11100111
NAME anttunnel14

TIL 1c
11111110
11111110
11111000
11100000
11000000
11000000
10000000
10000000
NAME den4

TIL 1d
10000000
10000000
10000000
10000000
10000000
10000000
11000000
11000000
NAME den5
WAL true

TIL 1e
11000000
11100000
11100000
11110000
11110000
11111000
11111100
11111111
NAME den6

TIL 1f
10101010
10101010
00000000
00000000
00000000
00000000
00000000
00000000
NAME bridgewalk

TIL 1g
10101010
10101010
00000000
00000000
00000000
00000000
00000000
00000000
NAME bridgewall
WAL true

TIL 1h
10101011
10101011
00000111
00001111
00011111
00111101
11111111
11110111
NAME slopebridge
WAL false

TIL 1i
11000011
11111111
11111111
10111111
11111011
11111111
11011111
11111111
NAME antdip
WAL true

TIL 1j
10101010
10101010
00000000
10000000
11000000
11110000
10111100
11111111
NAME bridgeout
WAL true

TIL 1k
10101010
10101010
00000000
00000000
00000000
00000000
00000001
11111111
NAME bridgeout2

TIL 1l
11111111
11111111
11111111
11111111
11111111
11111111
11111111
11111111
NAME fakefull
WAL false

TIL 1m
00000000
11000000
11100000
11111000
11111100
10111100
11111110
11101111
NAME slope3
WAL false

TIL 1n
11111111
11110111
10011011
11111111
01110011
10111111
11111001
11011111
NAME hill1
WAL true

TIL 1o
11111111
11111111
00000000
00010000
00000010
01000000
00000000
00000100
NAME hilldown1

TIL 1p
10000000
11000001
10000011
00000001
10000001
10000011
11000001
10000011
NAME tunnel1

TIL 1q
11111111
11111111
00000000
00010000
00000010
01000000
00000000
00000100
NAME hilldown2
WAL true

TIL 1r
10000000
00000001
00000011
00000001
00000001
00000011
00000001
10010011
NAME tunnel2

TIL 1s
11110111
00100010
00000000
00000000
00000000
00000000
00001000
11011110
NAME tunnel3

TIL 1t
11101010
11000000
10000000
00000000
10000000
10000000
00000000
10000000
NAME tunnel4

TIL 1u
11111111
11011111
11111111
11111011
11111111
11101111
11111111
11111111
NAME blocked
WAL true

TIL 1v
10000000
11000000
10000000
00000000
10000000
10000000
00000000
10000000
NAME tunnel5

TIL 1w
00000001
00000011
00000001
00000000
00000001
00000000
00000001
00000001
NAME tunnel6

TIL 1x
00011111
00011111
00011111
00011111
00011111
01011111
11001111
11001111
NAME skull 10

TIL 1y
11100001
11110000
11110001
11110001
11110001
11110001
11110000
11110000
NAME skull 11

TIL 1z
11111100
11111100
11111100
10011000
10000000
11100001
11000011
10000011
NAME skull 12

TIL 2a
11111111
01111010
00000000
00000000
11011010
10011011
10111111
11111111
NAME skull 23

TIL 2b
11000000
00000001
00000011
00000001
00000101
00000111
01100111
11110111
NAME skull 24

TIL 2c
11100111
11100011
10000011
11110011
11110011
11110000
11110000
11100111
NAME skull 25

TIL 2d
11111111
11111111
11111111
11111111
11111111
00000000
00000000
11111111
NAME skull 26

TIL 2e
11111110
11111110
11111100
11110000
10000001
00000001
00010011
00111011
NAME skull 27

TIL 2f
00000011
00001001
01111111
00111111
10011111
11011111
11111111
11111111
NAME skull 28

TIL 2g
11111111
10111111
11111111
11101111
11100111
11100000
11110000
11111000
NAME hang3
WAL true

TIL 2h
11000001
10000001
00000001
00000000
00000000
00000000
10000001
11000011
NAME jemend

TIL 2i
11000011
10000001
00000000
00000000
00000000
00000000
10000001
10000001
NAME tialend

TIL 2j
11111111
11111111
11111100
11000000
10000100
10000000
10010000
10000000
NAME hangdig
WAL true

TIL 2k
11000011
10000000
00000000
00000000
00000000
00000000
10000000
11000011
NAME clayend

TIL 2l
11111010
11111010
11000000
11000000
11000000
10000000
10000000
10000000
NAME bridge2
WAL true

TIL 2m
10101111
10101111
00000011
00000011
00000011
00000001
00000001
00000001
NAME bridge3
WAL true

TIL 2n
11111111
11111111
11111111
11111111
11111111
11111111
00111111
00011111
WAL true

TIL 2o
00000000
00000000
00000000
00000000
00111111
00111111
00111111
00011111
NAME rabbit 1

TIL 2p
00011100
00001110
10000111
11000111
11100011
11110011
01111111
01111111
NAME rabbit 2

TIL 2q
00000000
01111110
11111111
11111111
11111000
11111000
11111000
11111111
>
00000000
01111110
11111111
11111111
11111111
11111110
11111001
11111111
NAME rabbit 3

TIL 2r
00000000
00000000
10000000
11110000
11111100
11111100
11110010
11111110
NAME rabbit 4

TIL 2s
11111110
11111110
11111100
11111100
11111000
11111000
11110000
11100000
NAME rabbit 5

TIL 2t
00000001
00000011
00000111
00001111
00011111
00111111
01111111
11111111
>
00000001
00000011
00000111
00001111
00011111
00111111
01111111
11111111
NAME rabbit 6

TIL 2u
11000000
11000000
11000000
11000000
11000000
11000000
10000000
10000000
NAME rabbit 7

TIL 2v
00000000
00000001
00000001
00000011
00000011
00000011
00000011
00000111
NAME rabbit 8

TIL 2w
11111111
11111111
11111111
11111111
10001111
10001111
00001111
00001111
NAME rabbit 9

TIL 2x
11111100
11111000
11111000
11111000
11110000
11110000
11100000
11100000
NAME rabbit 10

TIL 2y
00000111
00000111
00000111
00001111
00001111
00000000
00000000
00000000
NAME rabbit 11

TIL 2z
11111111
11111111
11111111
11111111
11011111
00001100
00000000
00000000
NAME rabbit 12

TIL 3a
11111110
11111100
11111100
11111000
11110000
11110000
11111111
11111111
NAME rabbit 13

TIL 3b
00000111
00000111
00000011
00000011
00000011
00000001
11000001
11110000
NAME rabbit 14

TIL 3c
11100000
11100000
11100000
11100000
10100000
11110000
01110000
11110000
NAME tulipwe
WAL true

TIL 3d
00111111
00001111
00000000
00000000
00000000
00000000
00000000
00000000
NAME rabbit 16

TIL 3e
11111000
11111000
00000000
00000000
00000000
00000000
00000000
00000000
NAME rabbit 17

TIL 3g
00000000
00000000
00000000
00000000
00000000
11000000
11110000
11111000
NAME rabbit 19

TIL 3h
00000000
00000000
00000000
00000000
00000011
00001111
00111111
11111111
NAME rabbit 20

TIL 3i
00000000
00000000
00000000
00000000
11111111
11111111
11111111
11111111
NAME rabbit 21

TIL 3j
01111111
01111111
01111111
11111111
11111111
11111111
11111111
11111111
>
01111111
01111111
01111111
11111111
11111111
11111111
11111111
11111111
NAME rabbit 22

TIL 9a
01111011
01111111
00111111
00001110
00000111
00000011
00000011
00000001
NAME hang4
WAL true

TIL 9b
11111111
10111110
11111000
11100000
11100000
11000000
11000000
10000000
NAME hang5
WAL true

TIL oi
11111111
10111011
11111111
11101111
11111101
10111111
01010101
01010101
NAME dirtwalk
WAL false

TIL oj
11111111
00000000
11111111
00000000
11111111
00000000
01010101
01010101
NAME dirtstair1
WAL false

TIL ok
11111111
00110111
11111111
00001101
11111111
00000111
01010101
01010101
NAME dirtstair2
WAL false

TIL ol
11111111
11011100
11111111
10110000
11111111
11100000
01010101
01010101
NAME dirtstair3
WAL false

TIL om
00000000
00000000
00000000
00000000
00000000
00000000
10000001
11000011
NAME holeenter1

TIL on
11111111
11011111
11111110
11111111
11000011
10000001
00000000
00000000
NAME holeenter2
WAL true

TIL oo
00000000
00000000
00000000
00000000
00000000
00000000
10000000
11000001
NAME holeexit1

TIL op
11111110
11011010
11110010
11010010
10010100
10100010
00010100
00000100
NAME holeexit2
WAL true

TIL oq
00000000
00000100
00000000
00000000
00100000
00000011
00011111
11111111
NAME hillhole1
WAL false

TIL or
11111111
10111011
11111111
11101111
11111100
10110000
11100100
10000000
NAME hillhole2
WAL true

TIL os
10111110
11111000
11100000
00000010
01000000
00000000
00001000
00000000
NAME hillhole3
WAL true

TIL ot
00000000
01000011
00001111
00111111
11111111
11111111
11110111
11111111
NAME hillhole4
WAL false

TIL ou
00000111
00000001
00100001
00000000
00000010
00000000
01000000
00000000
NAME hillhole5
WAL true

TIL ov
00000000
00000100
01000000
00000000
00000000
00010001
00000001
00000111
NAME hillhole6

TIL ow
11000000
10100000
10010000
01001000
01000000
00100000
00000000
00000000
NAME hillhole7
WAL true

TIL ox
00011100
00001110
00000111
00000011
00000001
00000000
00000000
00000000
NAME rabbitear

TIL 3f
01000000
01100000
00100000
00110000
00110000
00010000
00011000
00111000
NAME tulip 1

TIL 3k
10000000
11000000
01100000
00100000
00010000
00011000
00001100
00000100
NAME tulip 2

TIL 3l
00111000
00111100
00111100
00101100
00101110
00111110
00110111
00011111
NAME tulip 3

TIL 3m
00001011
10001111
11111101
11111111
00011101
01100111
00011101
00001111
NAME tulip 4

TIL 3n
00100001
00010001
00010001
00011001
00001001
00001101
00001101
10000111
NAME tulip 5
WAL true

TIL 3p
11100111
01100111
10100011
11110011
01010001
10101001
11110111
11011111
NAME tulip 7

TIL 3s
11000000
11100000
01110000
10110000
11110000
11010000
11010000
11100000
NAME tulip 10
COL 3

TIL 3t
01111111
00011111
00000000
00000000
00000000
00000000
00000000
00000000
NAME tulip 11
COL 3

TIL 3u
11100000
11000000
00100000
00010000
00001000
00000100
00000010
00000001
NAME tulip 12

TIL 3v
00000000
01000000
01000000
01000000
10100000
10100000
11100000
11100000
NAME tulip 13

TIL 3w
00000000
00000111
00000011
00000001
00000011
00000000
00000000
00000000
NAME tulip 14

TIL 3x
11111111
11111111
11111101
00111110
00011111
00000111
00000011
00000001
NAME tulip 15
WAL true

TIL 3y
11110000
10110000
10110000
10111000
01111000
11111000
11111000
11111000
NAME tulip 16

TIL oy
11111111
00111110
00011001
00000111
00011111
00111101
01111111
11110111
NAME tulipslope
WAL false

TIL oz
00000110
00000011
00000001
00000000
00000000
00000000
00000000
00000000
NAME tulipstem1

TIL p0
00000000
00000000
00000000
10000000
10000000
11000000
01000000
01000000
NAME tulipstem2

TIL p1
00010111
11111101
11111111
11111111
11111111
11111111
11111111
11111111
NAME tulipfull
WAL false
COL 3

TIL p2
00000000
00000000
00000000
00000000
00000000
00000000
00000000
10000000
NAME tulipedge
COL 3

TIL p3
00000011
00000001
00000000
00000000
00000000
00000000
00000000
00000000
NAME tulipedge2

TIL p4
11111111
11111111
00000000
00100100
00000000
00000000
01000000
00000000
NAME hilldown
WAL true

TIL p5
11000000
11000000
11100000
11100000
11100000
11110000
11111100
11111111
NAME bighole1
WAL true

TIL p6
10000000
10000000
10000000
10000000
10000000
10000000
10000000
11000000
NAME bighole2
WAL true

TIL p7
11111111
10111111
11111111
11111111
11011111
11111111
11111100
11111000
NAME bighole3
WAL true

TIL p8
11110000
11100000
11100000
11100000
11000000
11000000
11000000
11000000
NAME bighole4
WAL true

TIL p9
11111111
10111111
11111011
11111111
11111111
00000000
00000000
00000000
NAME bighole5
WAL true

TIL pa
11111111
11111111
11111111
11111111
11111111
11111111
00111111
00011111
NAME bighole6
WAL true

TIL pb
00001111
00000111
00000111
00000111
00000011
00000011
00000011
00000011
NAME bighole7
WAL true

TIL pc
00000001
00000001
00000001
00000001
00000001
00000001
00000001
00000011
NAME bighole8
WAL true

TIL pd
00000011
00000011
00000111
00000111
00000111
00001111
00111111
11111111
WAL true

TIL 4l
00011111
01111111
11111111
11111111
11111111
11111111
11111111
11111111
NAME cloud1
COL 4

TIL 4p
11110000
11111110
11111111
11111111
11111111
11111110
11111110
11111111
NAME cloud2
WAL true
COL 4

TIL 6d
01111111
00011111
00001111
00000000
00000000
00000000
00000000
00000000
NAME cloud94
COL 4

TIL 6s
00000000
00000000
00000000
00000011
00000111
00011111
11111111
11111111
NAME cloud19
COL 4

TIL 7b
00000000
00000000
00111111
00111111
11111111
11111111
11111111
11111111
NAME cloud29
WAL true
COL 4

TIL 7f
00000000
00000000
00000000
00000000
00000001
00000011
00000111
00000111
NAME cloud38
COL 4

TIL 7g
10000000
10000000
11000000
11110000
11111111
11111111
11111111
11111111
NAME cloud3
COL 4

TIL 7h
00000000
00000000
00000000
00000000
10000001
11100001
11111011
11111111
NAME cloud4
COL 4

TIL 8j
00000001
00000011
00000011
00000001
00000000
00000000
00000000
00000000
NAME cloud77
COL 4

TIL 8x
00000000
00000000
00000000
00000000
00000000
00000000
00000011
00000111
NAME cloud45
COL 4

TIL 9h
00000000
00000000
00000000
00000000
00000000
00000000
00000000
00111100
NAME cloud14
WAL true
COL 4

TIL 9i
00000000
00000000
00000000
00000001
00011111
01111111
11111111
11111000
NAME cloud17
COL 4

TIL 9j
00000000
00000000
00000000
11101111
11111111
10011111
00000111
11111111
NAME cloud11
COL 4

TIL 9l
00000000
00000000
00000000
00000000
00000000
11100000
00111000
00000100
NAME cloud10
COL 4

TIL 9m
00000000
00000000
00000000
00000000
00000011
00000011
00000011
00001111
NAME cloud9eyyy
COL 4

TIL 9p
00000000
00000000
10000000
11110000
01111100
11111110
11111111
01111111
NAME cloud15
WAL false
COL 4

TIL 9q
00000001
00000111
00001111
11011100
11111110
11111110
11111000
11111011
NAME cloud20
WAL true
COL 4

TIL 9v
00000000
00000000
00000000
00000000
00000000
00000000
11111000
01111111
NAME cloud23
COL 4

TIL 9w
00000000
00000000
00000000
00000000
00000000
00000000
00000011
00001111
NAME cloud8
COL 4

TIL 9x
00001111
00111111
00111111
00001111
00000000
00000000
11000000
11100000
NAME cloud7
COL 4

TIL 9y
11111100
11001100
11000000
10000000
00000000
00000000
00000000
00000000
NAME cloud24
COL 4

TIL a0
11111111
11111111
11111111
11111111
11111111
11111111
11111111
11111111
NAME cloud26
COL 4

TIL a3
11110000
11111110
00111000
00000000
00000000
00000000
00000000
00000000
NAME cloud32
COL 4

TIL a4
01111111
00011110
00000000
00000000
00000000
00000000
00000000
00000000
NAME cloud33
COL 4

TIL a6
00000000
00000000
00000110
00101111
01111111
01111111
01111111
00111111
NAME cloud5
COL 4

TIL ac
11100000
11110000
11111000
11111000
01100000
00000000
00000000
10000000
NAME cloud37
COL 4

TIL ak
11111111
11111111
11111111
11111111
11111111
11111110
11110000
11100000
NAME cloud43
COL 4

TIL an
00000000
00000000
00000000
00000000
00000001
00000011
11001111
11111100
NAME cloud46
COL 4

TIL ao
00000000
00000000
00000000
00000000
11100000
11111000
11111100
10000111
NAME cloud47
COL 4

TIL aq
00001111
11111111
11111111
10111100
00001000
00000000
00000000
00000000
NAME cloud48
COL 4

TIL av
00000000
00000001
00000011
00000111
00000111
00000111
00001111
00001101
NAME cloud52
COL 4

TIL aw
00000000
11110000
11111100
11111111
11111111
11111111
10000111
10001100
NAME cloud53
COL 4

TIL ay
01110000
00000000
11100000
11111000
00000000
00000000
00000000
00000000
NAME cloud55
COL 4

TIL b5
00000000
00000000
11000000
11100000
11110000
11110000
11000000
00000000
NAME cloud61
COL 4

TIL b6
00000000
00000000
00000000
00110000
01111100
01111100
01111100
00111100
NAME cloud62
WAL true
COL 4

TIL b7
11100000
10000000
00000000
00000000
00000000
00001111
00001111
00111110
NAME cloud63
COL 4

TIL b8
00000000
00000000
00000000
00000011
00011111
00111110
01111100
11110000
NAME cloud64
COL 4

TIL b9
00000000
00000000
11100000
11110000
10001000
00000000
00000000
00000001
NAME cloud65
COL 4

TIL bb
00001111
00001111
00011111
00111111
11111111
11111111
11111111
11111111
NAME cloud71
COL 4

TIL bd
00000000
00000000
00000111
00011111
00001111
00000011
00000000
00000000
NAME cloud73
COL 4

TIL bf
00001111
00001111
00011111
00011111
00111111
00111100
01111000
11110000
NAME cloud75
WAL true
COL 4

TIL bg
10000000
11110000
11111000
11110000
10000000
00000000
00000000
00000000
NAME cloud76
COL 4

TIL bn
11000000
11000000
01000000
00111110
00000111
00000011
00000111
00000111
NAME cloud83
COL 4

TIL br
00000001
00000111
00011111
00111111
01111111
11111111
11111111
11111000
NAME cloud87
COL 4

TIL bv
00000000
00000000
00000000
00000000
00000000
01100001
11111011
11111111
NAME cloud90
COL 4

TIL bw
00001111
01111000
11111000
11111000
11111000
11110000
11000000
11000000
NAME cloud91
COL 4

TIL by
00000111
00000111
00000011
00000000
00000000
00000000
00000000
00000000
NAME cloud92
COL 4

TIL bz
11110000
11100000
10000000
00000000
00000000
00000000
00000000
00000000
NAME cloud93
COL 4

TIL c1
11111111
00001111
00000111
00000000
00000000
00000000
00000000
00000000
NAME cloud59
COL 4

TIL ef
00000000
00000000
00000000
11011000
11111111
11111111
11111111
11111100
NAME cloud18
COL 4

TIL eg
00000000
00011111
01111111
01111111
11111111
11111111
11111111
11111111
NAME cloud12
COL 4

TIL eh
11111110
11111111
11110001
11000000
11111111
11111111
11111111
10011110
NAME cloud13
WAL true
COL 4

TIL ei
11110001
11111100
11111110
11110000
01111000
01110000
01101110
11111111
NAME cloud16
COL 4

TIL ej
10111111
00000000
00000000
00000000
00000000
00000000
11000000
11000000
NAME cloud21
COL 4

TIL ek
11111100
11111000
00001100
00000000
00000000
00000000
00000000
00000000
NAME cloud22
COL 4

TIL el
01111111
01111111
01111111
00011111
00001111
00000111
00000111
00001111
NAME cloud25
WAL false
COL 4

TIL em
11111111
11111001
11111100
11100000
00000000
00000000
00000000
11000000
NAME cloud31
COL 4

TIL en
01101000
01111111
00111111
00110001
00000001
00000000
00000000
00000000
NAME cloud34
COL 4

TIL eo
11100000
11100000
11100000
11110000
11110000
11100000
11110000
11110011
NAME cloud27
COL 4

TIL ep
00000000
00000000
00000000
00110100
00111111
00111111
01111111
11111111
NAME cloud28
WAL true
COL 4

TIL eq
00001111
00011111
11111110
11111111
11111111
11111111
11111111
11111111
NAME cloud30
WAL true
COL 4

TIL er
11111111
11111111
00111111
00000110
11000011
11101111
11111111
11111111
NAME cloud35
WAL false
COL 4

TIL es
11111111
11011111
11011111
10000011
00111110
11111100
11111000
11111111
NAME cloud36
WAL true
COL 4

TIL eu
00111111
01111111
01111111
11111110
11111110
11111111
11111111
11111111
NAME cloud6
COL 4

TIL ev
11111111
11111111
11100000
00000000
00000000
00000000
11111000
11110000
NAME cloud39
COL 4

TIL ew
11111111
01111111
01111111
00111111
01100000
01110001
11110000
11100000
NAME cloud40
WAL true
COL 4

TIL ex
11111111
11111111
11111110
11111100
11111100
11111100
11111000
01100000
NAME cloud41
COL 4

TIL ey
11111111
11111111
00111111
00001111
00000011
00000001
00000001
00000000
NAME cloud42
COL 4

TIL ez
11111110
11111100
11111000
11111000
11100000
11100000
00000000
00000000
NAME cloud44
COL 4

TIL f1
10000000
00000000
00000000
00000000
00000000
00000000
10000000
10000000
NAME cloud49
COL 4

TIL f2
00011111
00000000
00000000
00000000
00000011
00000111
00000111
00001111
NAME cloud50
COL 4

TIL f3
11110000
00000000
00000000
11100000
11110000
11111000
11111000
11111000
NAME cloud51
COL 4

TIL f4
00111100
01111001
11111111
11111111
11111000
11111000
10000000
00000000
NAME cloud54
COL 4

TIL f5
00000111
00000011
00000001
00000000
00000000
00000000
00000000
00000000
NAME cloud56
COL 4

TIL f6
11100000
11111000
00011000
10000000
00000110
11100000
00100111
00010111
NAME cloud57
COL 4

TIL f7
11111111
11111100
11110000
11110000
11100000
11110000
11000000
00000000
NAME cloud58
COL 4

TIL f8
11111111
11110000
11110000
00000111
00001111
00011111
00011111
00011110
NAME cloud60
COL 4

TIL f9
00001111
00000011
00000000
00000000
00000000
00000000
00000000
00000000
NAME cloud66
COL 4

TIL fa
00000000
00000000
00000000
00000000
00000000
11110000
11111000
10000000
NAME cloud67
COL 4

TIL fb
00000110
00001111
00000111
00000011
00000111
00111111
11111100
11110011
NAME cloud68
COL 4

TIL fc
11000000
11000000
00000000
11100000
11110000
11110000
11110000
11100000
NAME cloud72
COL 4

TIL fd
00011000
00000000
10000000
11111100
11111110
11111000
01110000
00110000
NAME cloud74
COL 4

TIL fe
11111101
11110111
11001111
10001111
00000000
00000000
00000000
00000000
NAME cloud78
COL 4

TIL ff
11100001
11111100
00011100
00001111
00001111
00011111
01111111
11110000
NAME cloud79
COL 4

TIL fg
11100000
01100000
01110000
11110000
11100000
11000000
00000000
00000000
NAME cloud80
COL 4

TIL fh
11111111
01111111
00111000
00000000
00000000
00000000
00000000
00000000
NAME cloud81
COL 4

TIL fi
11111111
11111111
11100000
00000000
00000000
00000000
00000000
00000000
NAME cloud82
COL 4

TIL fj
00000000
00000000
00000000
00001110
01111111
11111111
00011110
00001110
NAME cloud84
COL 4

TIL fk
00000111
00001111
00001111
00000011
00000001
00000000
00000000
00000000
NAME cloud85
COL 4

TIL fl
11110000
11111100
11111000
11000000
10000000
00000000
00000000
00000000
NAME cloud86
WAL true
COL 4

TIL fm
11111100
11111100
11111000
11110000
11110000
11110000
11110000
00011000
NAME cloud88
COL 4

TIL pe
00000000
00000000
00000000
00011000
00011100
11111110
11101111
10001111
NAME tulip 9
COL 3

TIL pf
00000000
00000000
00000000
00000000
00000011
00001111
00111111
11111111
NAME cloud70
COL 4

TIL pg
10101010
10101010
10101010
10101010
10101010
10101010
10101010
10101010
NAME chimestil1
COL 4

TIL ph
00000000
00111111
11100010
01000100
10001000
00010001
00100010
11111111
NAME bighole9
WAL false

TIL pi
00000011
00000011
00011111
00011111
01111111
11111111
11111101
11111111
NAME slope4
WAL false

TIL pj
00000000
11100000
11100000
11111000
11111000
11111100
11111100
11111111
NAME bighole10
WAL false

TIL pk
00000000
00000100
00100000
00000000
10000000
10001000
11000000
11110000
NAME bighole11

TIL pl
11100000
10001000
10000000
00000000
00000010
00100000
00000000
00000000
NAME bighole12
WAL true

TIL pm
11111111
00010001
00100010
01000100
10001000
00010001
00100010
01000100
NAME bigholeidirt

TIL pn
10000000
11100000
11100001
11110010
11111100
11111101
11111111
11111111
NAME bigholeslope
WAL false

TIL po
00000000
11111000
00100110
01000101
10001000
00010011
00111111
11111111
NAME bigholeslope2
WAL false

TIL pp
00000011
00000011
00011111
00011111
11111111
11111111
11111101
11111111
NAME bigholeslope3
WAL false

TIL pq
00000000
00000000
00000000
00000000
00000000
00000000
00000000
00000000
NAME kfesidirt

TIL pr
00000000
01000000
00000000
00000000
00000000
01000000
00000000
00000000
NAME kfesdirt2

TIL ps
00000000
00000100
00000000
00000000
00000100
00100001
00000001
00000111
NAME bigholeslope4

TIL pt
01100000
11110000
01100000
00000000
00100000
00000000
00000000
00000000
>
01100000
11110100
01100000
00000000
00000000
00000000
00000000
00000000
NAME kfesgem
COL 5

TIL pu
01000000
10100000
01000000
00000000
00000000
00000000
00000000
00000000
NAME kfesfl
COL 5

TIL pv
11111111
10111011
11111111
11101101
11111111
10111011
11111110
11110111
NAME movedirt
WAL false

TIL pw
00011000
00011000
00011000
00011000
00011000
00011000
00011000
00011000
NAME pole

TIL px
00011000
00011011
00011111
00011111
00111111
00111101
01111111
11110111
NAME poleslope1
WAL false

TIL py
00011000
11011000
11111000
11111000
11111100
10111100
11111110
11101111
NAME poleslope2
WAL false

TIL pz
00000000
00000000
00000000
00000000
00000000
00000000
11111111
11111111
NAME poletop1

TIL q0
00000000
00000000
00000000
00000000
00000000
00000000
11111000
11111000
NAME poletop2

TIL q1
10101010
00101010
00101010
00101010
00101010
00100010
00100010
00100010
NAME chimestil2
COL 4

TIL q2
00100111
01110101
01010101
01010101
01010101
01010000
00000000
00000000
>
00100010
00100010
00100010
00100010
00100010
00100000
00000000
00000000
NAME chimestil3
WAL true
COL 4

TIL q3
00011000
00011000
00011000
00011000
00011000
00011000
00011000
00011000
NAME polewall
WAL true

TIL q4
10000000
11100000
11100000
11110000
11110000
11111000
11111100
11111110
NAME slope5
WAL false

TIL q5
10101010
10101010
00000000
00000000
00000000
00000011
00011111
11111111
NAME bridgeout2
WAL false

TIL q6
10101011
10101011
00000111
00011111
01111111
11111101
11111111
11110111
NAME slopebridgewall
WAL true

TIL q7
00000000
00000000
00000000
00000000
00000000
00000000
00001111
11111111
NAME cliffedge
WAL true

TIL q8
11000000
11000000
11000000
11000000
10000000
10000000
11111111
11111111
NAME cliffedge2

TIL q9
00000000
00000000
00000000
00000000
00000000
00000000
11000000
11000000
NAME cliffedge3
WAL true

TIL qa
00000000
00000000
00000000
00000000
00000000
00000000
11111111
11111111
NAME sidepole

TIL qb
11111111
11111100
11110000
11100000
11100000
11100000
11100000
11000000
NAME cliffhole1
WAL true

TIL qc
11000000
11000000
11000000
11000000
11000000
11000000
11000000
11000000
NAME cliffhole2
WAL true

TIL qd
11000000
11100000
11100000
11110000
11111000
11111100
11111100
11111100
NAME cliffhole3
WAL true

TIL qe
11111100
10111001
11111011
11100011
11101111
10001101
10111111
00110111
NAME islope
WAL false

TIL qf
11111100
10111001
11111011
11100011
11101111
10001111
00010101
01010101
NAME islopebridge
WAL false

TIL qg
11111110
11011000
11110000
11000000
10000000
10000000
00000000
00000000
NAME holeexit3
WAL true

TIL qh
01000000
00000010
00000000
00010000
00000000
00000100
11100000
11111100
NAME cliff1

TIL qi
00000000
00100000
00000010
00000000
00100000
00000000
00011111
11111111
NAME cliff2
WAL false

TIL qj
11111111
10111110
11111000
11100000
11100000
11000000
11000100
10000000
NAME cliffhang
WAL true

TIL qk
00000001
00001110
00111000
00100000
01100000
01000000
11000000
10000000
NAME cliffhang2
WAL true

TIL ql
00000111
00011100
00110000
00100000
00100000
00100000
01100000
01000000
NAME cliffhang3
WAL true

TIL qm
01000000
01000000
01000000
01000000
01000000
01000000
01000000
01000000
NAME cliffhang4
WAL true

TIL qn
11111111
11111111
11111111
11111111
11111111
11111111
11111111
11111111
NAME bigtil1
COL 2

TIL qo
00011111
11111111
00011111
11111111
00011111
11111111
00011111
11111111
NAME bigtil2
WAL true
COL 2

TIL qp
11111100
11111100
11111100
11111100
11111100
11111100
11111100
11111100
NAME bigtil3
COL 2

TIL qq
11111111
10111011
11111111
11101111
11111101
10111111
01010101
01010101
NAME dirtnowalk
WAL true

TIL qr
11111111
11011100
11111111
10110000
11111111
11100000
01010101
01010101
NAME dirtnostair1
WAL true

TIL qs
11111111
00110111
11111111
00001101
11111111
00000111
01010101
01010101
NAME dirtnostair2
WAL true

TIL qt
11111011
01111111
00111111
00001110
00000111
01000011
00000011
00010001
NAME hang6
WAL true

TIL qu
11111111
10111110
11111000
11100000
11100010
11000000
11000000
10010000
NAME hang7
WAL true

TIL qv
00000111
00100000
00000000
00000000
00000010
00000000
00010000
00000000
WAL true

TIL qw
01111111
01111111
00111111
00000011
00000001
00000001
00000001
00000001
NAME hang8
WAL true

TIL 3o
10101111
01001111
10101111
00011111
10101111
01001111
10101111
00011111
>
00011111
10101111
01001111
10101111
00011111
10101111
01001111
10101111
NAME fish 1
COL 5

TIL 3q
11101010
11100100
11111010
11111111
11111111
11110011
11100000
11000000
>
11010001
11101010
11110100
11111111
11111111
11110011
11100000
11000000
NAME fish 2
COL 5

TIL 3r
10101010
01000100
10101011
11111100
11110000
00000000
00000000
00000000
>
00010001
10101010
01000111
11111100
11110000
00000000
00000000
00000000
NAME fish 3
COL 5

TIL 3z
10101010
01000100
11111010
00001100
00000010
00000001
01000011
00001111
>
00010001
10101010
11110100
00001110
00000010
00000001
01000011
00001111
NAME fish 4
COL 5

TIL 4a
11101011
01100111
10101111
00110111
10101110
01001110
10101110
00011001
>
01110011
11101011
01100111
10101111
00111111
10101110
01001110
10101010
NAME fish 14
COL 5

TIL 4b
11111110
01111100
10111010
00110001
10111010
01100100
10101010
00010001
>
01111101
11111010
01111100
10111010
00110001
10101010
01000100
10101010
NAME fish 15
COL 5

TIL 4c
11111010
11110100
11101010
11010001
10101010
11000100
10101010
00010001
>
11111001
11111010
11100100
11101010
10010001
10101010
01000100
10101010
NAME fish 16
COL 5

TIL 4d
00000000
00000000
00000000
00000000
00000000
00000000
11000000
11111000
NAME fish 17
COL 5

TIL 4e
00000001
00000001
00000001
00000001
00000001
00000001
00000000
00000000
NAME fish 18
COL 5

TIL qy
10101010
01000100
10101010
00010001
10101010
01000100
10101010
00010001
>
00010001
10101010
01000100
10101010
00010001
10101010
01000100
10101010
NAME water
COL 5

TIL qz
10101011
01000111
10101011
00010111
10101111
01011111
10111111
11111111
>
00000001
10101011
01000111
10101111
00011111
10111111
01111111
11111111
NAME pond1

TIL r0
11111111
01111111
10111111
00010011
10101011
01000101
10101011
00010001
>
01111111
11111111
00111111
10101011
00010001
10101011
01000101
10101011
NAME pond2
WAL true

TIL r1
11111011
01111111
10111111
00011110
10101111
01000111
10101011
00010001
>
01111011
11111111
01111111
10101110
00010111
10101011
01000111
10101011
NAME pond3
WAL true

TIL r2
10101010
01000100
10101010
00010001
10101010
01000100
10101110
00011111
>
00010001
10101010
01000100
10101010
00010001
10101010
01000110
10101111
NAME fishh
COL 5

TIL r3
10101010
01000100
10101010
00010001
10101010
01000100
10101010
11111001
>
00010001
10101010
01000100
10101010
00010001
10101010
01000100
11111010
NAME fishh2
COL 5

TIL r4
10101011
01000101
10101011
00010001
10101010
01000100
10101010
00010001
>
00010001
10101011
01000101
10101011
00010001
10101010
01000100
10101010
NAME fishh18
COL 5

TIL r5
10101010
01011100
10100010
00100011
10011100
01000100
10101010
00010001
>
00010001
10111010
01000100
11000110
00111001
10101010
01000100
10101010
NAME bubbles
COL 5

TIL r6
00000000
00000000
00000000
00000000
00000011
00001111
00111111
11111111
NAME fishhh
COL 5

TIL r7
00000000
00000000
00000000
00000000
00000011
00001111
00111111
11111111

TIL r8
11111111
01111111
11111111
11111111
11111111
11111111
11111111
11111111
>
01111111
11111111
01111111
11111111
11111111
11111111
11111111
11111111
NAME fishhh3
COL 5

TIL 4f
00000000
00000000
00000000
00000000
00011110
11111011
10000000
00000000
NAME clouds2 1

TIL 4g
00000000
00000000
00000000
00000000
00000000
01111111
11111111
00000111
NAME clouds2 2

TIL 4h
00111100
11111111
11111111
11111111
11111111
11111111
11111111
11111111
NAME clouds2 3

TIL 4i
00000000
11000000
11111111
11111111
11111111
11111111
11111111
11111111
NAME clouds2 4

TIL 4j
00000000
11110000
11111000
11111100
11111111
11111111
11111111
11111111
NAME clouds2 5

TIL 4k
11100001
00111111
00001111
00000000
00000000
00011000
01111100
11001110
NAME clouds2 6

TIL 4m
11111001
11110011
11111111
11111111
01111111
00111111
00111111
00011111
NAME clouds2 7

TIL 4n
00000000
00000000
00000000
11100000
01111000
10111110
11111111
11101111
NAME clouds2 8

TIL 4o
00000000
00000000
00000000
00000000
00000011
00100011
11111011
11111111
NAME clouds2 9

TIL 4q
00000100
00000100
00001000
00111111
11111111
11111111
11111111
10000001
NAME clouds2 10

TIL 4r
00000000
00001111
00011111
11111111
10111101
10110000
00000000
10000000
NAME clouds2 11

TIL 4s
00000001
11100000
11111111
11111111
11111111
01111111
00111111
00111111
NAME clouds2 12

TIL 4t
01111110
01111100
11111110
11111111
11111111
11111110
11111100
11111111
NAME clouds2 13

TIL 4u
01111111
00001111
00001111
00001111
00111111
00111111
01111111
11111111
NAME clouds2 14

TIL 4v
10000011
10000111
10011111
11111111
01111111
01111111
00111111
01111111
NAME clouds2 15

TIL 4w
00000000
00000000
10000000
11000000
11100000
11100000
11110000
11110000
NAME clouds2 16

TIL 4x
00000000
00000000
00000000
00000000
00001110
00001111
00111111
01111111
NAME clouds2 17

TIL 4y
00000110
00001000
00000000
00000000
00100000
00100000
11100000
11000000
NAME clouds2 18

TIL 4z
01111111
00011011
00001111
00000111
00000000
00000000
00000000
00000000
NAME clouds2 19

TIL 5a
11110000
11110000
11110000
11111111
11111111
11111111
11111111
11111111
NAME clouds2 30

TIL 5b
11111111
11111111
11111111
10000010
11000000
11000000
11000000
11100000
NAME clouds2 31

TIL 5c
11000000
11110000
11100000
01100000
00000000
00000000
00000000
11000000
NAME clouds2 32

TIL 5d
00000000
00000000
00000001
00000011
00001111
00010111
00000111
00000111
NAME clouds2 33

TIL 5e
00111100
11111100
11111110
11111111
11111111
11111111
11100011
10000001
NAME clouds2 34

TIL 5f
00000000
00000000
00000111
00001111
00011111
00011111
00001111
00001111
NAME clouds2 35

TIL 5g
00000000
00000000
00000000
10000000
11110000
11111000
11111100
11111111
NAME clouds2 36

TIL 5h
00011111
00011111
00011111
00011111
00011111
00000111
00000111
00000000
NAME clouds2 37

TIL 5i
11111110
11111110
11111110
11111111
11111111
11111110
11111110
11111100
NAME clouds2 38

TIL 5j
11100000
01000010
01000000
10000000
00000000
00000000
00000001
00000011
NAME clouds2 39

TIL 5k
11000000
00000000
00000000
00000010
00000111
11001111
11101111
11111111
NAME clouds2 40

TIL 5l
00000111
00011111
00111110
01111111
11111111
11111111
11111111
11111111
NAME clouds2 41

TIL 5m
00000000
00000000
00000000
00000000
10000010
10000111
11000111
10000111
NAME clouds2 42

TIL 5n
00000000
00000000
00000000
00000000
00011000
00011000
00000000
10000000
NAME clouds2 43

TIL 5o
00000000
00000000
01000000
01000000
01110000
00110000
00111000
00011000
NAME clouds2 44

TIL 5p
11111111
11111111
11111111
11111111
11111111
11111111
00000001
00000000
NAME clouds2 45

TIL 5q
00000000
00110000
00111000
00111000
00111000
00001100
00000100
00000000
NAME clouds2 46

TIL 5r
00000000
00000000
00000000
00000000
01100000
11110000
11110000
11110000
NAME clouds2 47

TIL 5s
01111111
00000011
00000011
00000001
00000001
00000011
00001111
00011111
NAME clouds2 48

TIL 5t
11111111
11111111
11111111
11111111
11001111
11100011
11100001
11111011
NAME clouds2 49

TIL 5u
11111100
11111000
11111000
11110000
11100000
11111000
11111111
11100001
NAME clouds2 50

TIL 5v
00000011
00001111
00011111
00011111
00001110
00011000
11110000
11110001
NAME clouds2 51

TIL 5w
11111111
11111111
11111101
11110000
11110000
11110000
11100000
11000000
NAME clouds2 52

TIL 5x
11110111
11100111
00000111
00000011
00000011
00000111
00001111
00001111
NAME clouds2 53

TIL 5y
10000011
11100111
11100111
11000111
10001111
00001111
00011000
00011001
NAME clouds2 54

TIL 5z
11000000
11100000
11100000
11101000
11101000
11100000
11100000
11100000
NAME clouds2 55

TIL 6a
00001111
00000111
00011111
00011111
00001011
00000000
00000000
00000000
NAME clouds2 64

TIL 6b
00000000
00000001
00000011
00000011
00000011
00000001
00000000
00000000
NAME clouds2 65

TIL 6c
11000100
11000000
11000000
11000000
11000000
10000000
00000000
00000000
NAME clouds2 66

TIL 6e
00000000
00000000
00000000
00000000
00000001
00000001
10000011
11001101
NAME clouds2 67

TIL 6f
00000000
00000000
00000000
11000000
10000000
10000000
11000000
11100110
NAME clouds2 68

TIL 6g
11000100
11111110
11111110
11111110
11111000
11111000
11111000
11110000
NAME clouds2 69

TIL 6h
11011111
11011111
01100111
00000011
00000000
00000000
00000000
00000000
NAME clouds2 70

TIL 6i
10000000
11110000
11110110
00000000
00000000
00000000
00000000
00000000
NAME clouds2 71

TIL 6j
11101110
10100111
00000111
00000111
00000111
00001111
00000000
00000000
NAME clouds2 72

TIL 6k
11111110
11110000
11111100
11111100
11111100
11111111
11111111
00011111
NAME clouds2 73

TIL 6l
00000000
00000000
00000000
00000000
11100000
11111111
11111111
11100000
NAME clouds2 74

TIL 6m
00000000
00000000
00000001
00000011
00000011
11111111
11100000
00000000
NAME clouds2 75

TIL 6n
00000000
00000000
11111100
11111100
11111111
11111100
00000000
00000000
NAME clouds2 76

TIL 6o
00000000
00000000
10000000
00000000
11111111
00000000
00000000
00000000
NAME clouds2 77

TIL 6p
00000000
00010000
00111111
01111111
01110111
00111111
00000000
00000000
NAME clouds2 78

TIL 6q
01111100
01111111
11111111
11111111
11111111
11111100
00000000
00000000
NAME clouds2 79

TIL 6r
00000000
11111111
11111111
11111111
11111111
00011100
00000000
00000000
NAME clouds2 80

TIL 6t
00011111
11111111
11111111
11111111
11111111
00000000
00000000
00000001
NAME clouds2 81

TIL 6u
00000000
11111111
11111111
11111111
11111111
11111111
00111111
11111111
NAME clouds2 82

TIL 6v
11111111
11111111
00000111
00000111
00000000
00000000
00000000
00000000
NAME clouds2 83

TIL 6w
11100000
11111111
11111000
11110000
00000000
00000000
00000000
00000000
NAME clouds2 84

TIL 6x
00000000
00000000
00001111
00000000
00000000
00000000
00000000
00000000
NAME clouds2 85

TIL 6y
00000000
00000110
11111110
00000000
00000000
00000000
00000000
00000000
NAME clouds2 86

TIL 6z
00000000
00000000
00000000
00001000
00111111
00111111
00111111
00000011
NAME clouds2 87

TIL r9
00000000
01000010
00000000
00010000
00000010
00000000
00000000
00000000
NAME moveidirt2
WAL true

TIL ra
00000000
01000000
00000000
00010000
00000000
01000000
00000000
00000000
NAME moveidirt3
WAL false

TIL rb
00000000
00000010
00000000
00000000
00000010
00000000
00000000
00000100
NAME moveidirt4
WAL true

TIL rc
00011111
11111111
00011111
11111100
00011100
11111111
00011111
11111111
NAME bigtil4
WAL true
COL 2

TIL rd
11111100
11111100
11111100
11111100
11111100
11111100
11111100
11111100
NAME bigtil5
WAL true
COL 2

TIL re
11111111
11111111
11111111
00000000
00000000
11111111
11111111
11111111
NAME bigtil6
WAL true
COL 2

TIL rf
00011111
11111111
00011111
11111111
00011111
11111111
00011111
11111111
NAME bigtil7
WAL false
COL 2

TIL rg
00000000
00000000
00000000
00000000
00100000
00000110
00001111
00000110
>
00000000
00000000
00000000
00000100
00000000
00000110
00001111
00000110
NAME cliffgem
COL 5

TIL rh
00000000
00000000
00000000
00000000
00000000
00000000
00000000
00000000
NAME thecliff
COL 5

TIL rj
11111100
11111100
11111100
00111100
00111100
11111100
11111100
11111100
NAME bigtil9
WAL true
COL 2

TIL rk
00001111
00011111
11111110
11111111
11111111
11111111
11111111
11111111
NAME movecloud
WAL false
COL 4

TIL rl
00000000
00000010
00000000
00000000
00000010
00000000
00000000
00000100
NAME moveidirt5
WAL false

SPR 10
00000000
00000000
00010000
10101001
10010011
11100111
01110110
00111100
NAME tialfl

SPR 11
00010000
11101111
11110111
11100111
10111111
11111101
11111111
01111110
>
00010000
11101111
11110111
11100111
11111111
11111111
11101111
01111110
NAME hteefl

SPR 12
01111110
01110110
01111110
01111110
01111111
01010011
01110000
01110000
>
01011110
01111110
01111110
01111010
01111111
01110011
01110000
01110000
NAME enda1
DLG SPR_a
POS 19 2,9

SPR 13
01101110
01111110
01111110
01111111
01110111
01111111
01111111
01111110
>
01111110
01111110
01111110
01011111
01111111
01111011
01111111
01111110
NAME enda3
POS 19 2,7

SPR 14
01101110
01111110
11111110
11111110
11110110
11111110
11111110
01111110
>
01111110
01111110
11111110
11011110
11111110
11111010
11111110
01111110
NAME enda2
POS 19 2,8

SPR 15
01111110
01110110
01111110
01111110
01111111
01011011
01110100
01111000
>
01011110
01111110
01111110
01111010
01111111
01111011
01110100
01111000
NAME endafl

SPR 16
00000000
00000000
00011111
00011111
00011111
11111011
11111111
11111111
>
00000000
00000000
00011111
00011111
00011111
11111111
11111111
11111111
NAME kfes3
POS 19 14,9

SPR 17
00000000
00000000
00000000
01111000
01111000
01111111
01111111
01111111
>
00000000
00000000
00000000
01111000
01111000
01101111
01111111
01111111
NAME kfes4
POS 19 13,9

SPR 18
11111111
11111111
11111111
10111111
11111111
11111111
00000000
00000000
>
01111111
11111111
11111111
11101111
11111111
11111111
00000000
00000000
NAME kfes2
DLG SPR_8
POS 19 14,10

SPR 19
01101111
01111111
01111111
01000011
01000011
01000011
01000000
01000000
>
01111111
01111111
01111111
01000011
01000011
01000011
01000000
01000000
NAME kfes1
DLG SPR_9
POS 19 13,10

SPR 20
11111100
11111100
00001100
00001100
00001100
01111100
00001100
00001100
NAME oboltop3
POS 23 9,4

SPR 21
00000000
00000000
00000000
00111100
00111100
01111110
10111101
01000010
NAME kbody2

SPR 22
00000000
00000000
00000000
01000110
01100010
01101110
10111101
01000010
NAME brokenbody
DLG SPR_l
POS 23 8,4

SPR 23
00000000
00000000
00111100
00111100
01111110
10111101
00100100
00100100
NAME kbody1

SPR 24
00000000
00000000
00000000
00101100
00110100
01101110
10111101
01000010
NAME kbody3

SPR 25
00001000
00110000
00100000
00011100
00000010
10000010
00010010
00101100
>
00111000
01000010
01000000
01011000
00100100
00000100
00011000
00100000
NAME ksong
COL 5

SPR 26
00001100
01001000
00111010
00100000
00011000
00001000
00000000
00000000
>
00110000
00011000
10001000
00111010
00100000
00010000
00000000
00000000
NAME tial2
DLG SPR_m
POS 2 5,4

SPR 27
00100000
00000000
00100000
00110000
00001100
00000100
00001000
00000000
>
00000000
00000100
00000000
00101100
00110100
00000000
01000000
00000000
NAME spirit1
DLG SPR_n
POS 2 10,7

SPR 28
00000000
00000000
00000110
10001001
11010001
01100100
00000000
00000000
>
00000000
00000000
00010000
11000111
10001101
01110000
00000000
00000000
NAME spirit2
DLG SPR_o
POS 2 5,12

SPR 29
00000000
00000000
00000000
00000000
00000000
00000000
00000000
00000000
NAME nothing
DLG SPR_p
POS 23 5,5

SPR A
00000000
00000000
00011100
00110100
01101110
10111101
00100100
00000100
>
00000000
00000000
00011100
00101100
01110110
10111101
00100100
00100000
POS 0 7,13

SPR a
01111110
01011010
01111110
01110110
01111110
00100100
00100100
00100100
>
01111110
01110110
01011110
01111010
01111110
00100100
00100100
00100100
NAME prsa
DLG SPR_0
POS 0 3,13

SPR e
00100111
01110101
01010101
00010100
00000100
00000000
00000000
00000000
NAME chimeshome
DLG SPR_1
POS 0 5,12
COL 4

SPR f
01111010
01111110
11011111
11111111
10100101
10100101
10100101
10011001
>
01011110
01111010
11111111
11111111
10100101
10111101
10000001
10000001
NAME luom1
POS 5 3,8

SPR g
11000000
01000000
01000000
01111110
01111110
01011110
01111010
01111110
>
01100000
01000000
01000000
01111110
01111010
01111110
01101110
01111110
NAME luom2
DLG SPR_2
POS 5 3,7

SPR h
11111111
11011111
11111111
11111011
11111111
11101111
11111111
11111111
NAME block
DLG SPR_3
POS 5 12,5

SPR i
11000000
01000000
01000000
01111110
01111110
01011110
01111010
01111110
>
01100000
01000000
01000000
01111110
01111010
01111110
01101110
01111110
NAME luom3
DLG SPR_4
POS 6 3,7

SPR j
01111010
01111110
11011111
11111111
10100101
10100101
10100101
10011001
>
01011110
01111010
11111111
11111111
10100101
10111101
10000001
10000001
NAME luom4
POS 6 3,8

SPR k
00000000
00000000
00000000
00000000
00000000
00000000
00000000
00000000
NAME exittohole
DLG SPR_5
POS 4 0,4

SPR l
00000000
00000000
00000000
00000000
00000000
00000000
00000000
00000000
NAME blank

SPR m
00001100
01001000
00111010
00100000
00011000
00001000
00000000
00000000
>
00110000
00011000
10001000
00111010
00100000
00010000
00000000
00000000
NAME tial
DLG SPR_6
POS 9 11,7
COL 5

SPR n
00000000
00000000
00000000
10000001
10000011
11100111
01110110
00111100
NAME tialbody

SPR o
00100010
00100010
00100010
00100010
00100010
00000010
00000000
00000000
>
00100111
01110101
01010101
01010101
01000101
00000001
00000000
00000000
NAME chimes1
POS a 1,12
COL 4

SPR r
00100111
01110101
01010101
01010101
01010000
01010000
00000000
00000000
>
00100010
00100010
00100010
00100010
00100000
00100000
00000000
00000000
NAME chimes2
POS a 10,12
COL 4

SPR v
00100010
00100010
00100010
00100010
00100010
00100000
00000000
00000000
>
00100111
01110101
01010101
01010101
01010101
01010000
00000000
00000000
NAME chimes3
POS a 12,15
COL 4

SPR w
00000000
11100111
11100111
11100111
10111111
11111101
11111111
01111110
>
00000000
11100111
11100111
11100111
11111111
11111111
11101111
01111110
NAME htee1
POS 14 12,11

SPR x
01110110
01111110
01111110
01111110
01111110
11111111
10100101
10100101
>
01111110
01111110
01101110
01111110
01111110
11111111
10100101
10100101
NAME htee2
DLG SPR_7
POS 14 12,12

SPR y
01111110
01011010
01111111
01110110
01111110
00100010
00100101
00100010
>
01111110
01110110
11011110
01111010
01111110
00100010
00100101
00100010
NAME prsafl

SPR z
01000000
10100000
01000000
01111110
01111110
01011110
01111010
01111110
>
01000000
10100000
01000000
01111110
01111010
01111110
01101110
01111110
NAME luomfl

SPR 1a
00000000
00000000
00111100
00110100
01101110
10111101
00100100
00000100
>
00000000
00000000
00111100
00101100
01110110
10111101
00100100
00100000
NAME fixedkleu

SPR 1b
00000000
00000000
00101000
00010000
00101000
00000000
00000000
00000000
NAME test
DLG SPR_r
POS 17 9,13
COL 1

SPR 1c
00000000
00000000
00000000
00000000
00000000
00000000
00000000
00000000
NAME finalexit
DLG SPR_b
POS 18 5,11

SPR 1d
00100111
01110101
01010101
01010101
01010101
01010000
00000000
00000000
>
00100010
00100010
00100010
00100010
00100010
00100000
00000000
00000000
NAME chimes4
DLG SPR_c
POS 18 12,11
COL 4

SPR 1f
11111100
11111100
00001100
00001100
00001100
01111100
00001100
00001100
NAME ogoltop1
POS 18 9,4

SPR 1g
11111100
11111100
00001100
00001100
00001100
01111100
00001100
00001100
NAME ogotltop2
POS 1e 9,4

SPR 1h
00000000
01100110
01110110
11011111
11111111
11111111
11110111
11111111
>
00000000
01100110
01110110
11111111
11111011
11111111
10111111
11111111
NAME soom
POS 20 1,11

SPR 1i
00000000
01111110
01110110
11111111
10111111
11111111
11111011
11111111
>
00000000
01111110
01101110
11111111
11111111
11111101
11011111
11111111
NAME soomfix

SPR 1j
00000000
01111111
01111101
01101111
01111111
00011101
01111111
00011111
>
00000000
01111111
01111111
01111011
01111111
00011111
01110111
00011101
NAME msla1
POS 20 2,11

SPR 1k
01111111
00011111
01110111
00011111
11111111
10101001
10101001
10101001
>
01111111
00011101
01111111
00011111
11111111
10101001
10101001
10101001
NAME msla2
DLG SPR_d
POS 20 2,12

SPR 1l
00000000
01111111
01111101
01101111
01111111
01011101
10111111
01011111
>
00000000
01111111
01111111
01111011
01111111
01011111
10110111
01011101
NAME mslafl

SPR 1m
01111111
01011111
10110111
01011111
11111111
10101001
10101001
10101001
>
01111111
01011101
10111111
01011111
11111111
10101001
10101001
10101001
NAME mslafl2

SPR 1n
01010010
01111110
01011110
01111110
11110110
11011110
11111110
00001110
>
01010010
01111110
01111010
01111110
11011110
11111010
11111110
00001110
NAME rloa1
DLG SPR_g
POS 22 3,13

SPR 1o
01010010
01010010
01010010
01010010
01010010
01010001
01001001
10001001
NAME rloa2
POS 22 3,11

SPR 1p
00000000
11111100
10111100
11110100
11111111
00101111
11111111
10111111
>
00000000
11111100
11111100
11101100
11111111
00111101
00110111
11111111
NAME paer1
DLG SPR_h
POS 22 6,13

SPR 1q
10101010
10101010
00101010
00101010
01101011
01001001
01011001
01000001
>
10101010
10101010
10101010
00101010
01101011
01001001
01001101
01000001
NAME paer2
POS 22 6,14

SPR 1r
00000000
00001110
00000010
00111110
00001110
11111010
00101110
00111110
>
00000000
00001110
00000010
00111110
00001110
11111110
00110110
00111010
NAME itri
DLG SPR_f
POS 22 5,14

SPR 1s
10001001
10001001
10001001
10001001
10001001
10001001
10010010
01010010
NAME rloa3
POS 22 3,12

SPR 1t
00000000
00000000
00000000
00000000
00000000
00000000
00000000
00000000
NAME pondstuff
DLG SPR_e
POS 24 9,6

SPR 1u
10101010
10101010
00101010
00101010
01101011
01001001
01010101
01001001
>
10101010
10101010
10101010
00101010
01101011
01001001
01010101
01001001
NAME paerfl

SPR 1v
10001001
10001001
10001001
10101001
11011001
10101001
10010010
01010010
NAME rloafl

SPR 1w
00000000
01001110
10100010
01111110
00001110
11111010
00101110
00111110
>
00000000
01001110
10100010
01111110
00001110
11111110
00110110
00111010
NAME itrifl

SPR 1x
11111111
11111111
11111111
00000000
00000000
11111111
11111111
11111111
NAME obol1
DLG SPR_i
POS 19 7,12

SPR 1y
11111111
11111111
11111111
00000000
00000000
11111111
11111111
11111111
NAME obol2
DLG SPR_j
POS 19 8,12

SPR 1z
11111111
11111111
11111111
00000000
00000000
11111111
11111111
11111111
NAME obol3
DLG SPR_k
POS 18 8,11

SPR 2a
00000000
00000000
00000000
00000000
00000000
00000000
00000000
00000000
NAME no return
DLG SPR_q
POS 1e 5,12

SPR 2b
00001100
01001000
00111010
00100000
00011000
00001000
00000000
00000000
>
00110000
00011000
10001000
00111010
00100000
00010000
00000000
00000000
NAME extratial
DLG SPR_s
POS 17 7,11

SPR 2c
00000000
00000000
00011100
00111100
01111110
10111101
00100100
00100100
NAME kcbody1

SPR 2d
00000000
00000000
00000000
00011100
00111100
01111110
10111101
01000010
NAME kcbody2

SPR 2e
00000000
00000000
00000000
00001100
00110100
01101110
10111101
01000010
NAME kcbody3

ITM 1
00000000
00001000
00010100
00001000
00010000
00111000
00010000
00100000
>
00000000
00100000
01010000
00100000
00100000
01110000
00100000
00100000
NAME flower1
DLG ITM_0
COL 5

ITM 2
00000000
00000000
00000000
00000000
00000000
00000000
00000000
00000000
NAME rustle1
DLG ITM_1

ITM 3
00000000
00000000
00000000
00000000
00000000
00000000
00000000
00000000
NAME smallhole
DLG ITM_2

ITM 4
00000000
00000000
00000010
00000100
00001000
01010000
11100000
11110000
NAME shovel
DLG ITM_3
COL 5

ITM 5
11111111
11011111
11111111
11111011
11111111
11101111
11111111
11111111
NAME dig
DLG ITM_4

ITM 6
00000000
00000000
00000000
00000000
00000000
00000000
00000000
00000000
NAME lovelyday
DLG ITM_5

ITM 7
10000000
00110000
01111010
00110000
00000110
00001111
00100110
00000000
>
00000000
00110000
01111000
00110000
00000110
00001111
00000110
00000000
NAME gems
DLG ITM_6
COL 5

ITM 8
11111111
11011111
11111111
11111011
11111111
11111111
11000011
10000001
NAME digbottom

ITM 9
10000001
11000011
11111111
11111011
11111111
11101111
11111111
11111111
NAME digtop

ITM 10
11111111
11111111
11111111
11111111
11111111
11111110
11110000
11100000
NAME body
DLG ITM_k
COL 4

ITM 11
00000000
00000000
00000000
00000000
00000000
00000000
00000000
00000000
NAME missprsa
DLG ITM_l

ITM 12
00000000
00000000
00000000
00000000
00000000
00000000
00000000
00000000
NAME missluom
DLG ITM_m

ITM 13
00000000
00000000
00000000
00000000
00000000
00000000
00000000
00000000
NAME misshtee
DLG ITM_n

ITM 14
00000000
00000000
00000000
00000000
00000000
00000000
00000000
00000000
NAME missenda
DLG ITM_o

ITM 15
00000000
00000000
00000000
00000000
00000000
00000000
00000000
00000000
NAME misskfes
DLG ITM_p

ITM 16
00000000
00000000
00000000
00000000
00000000
00000000
00000000
00000000
NAME missmslasoom
DLG ITM_q

ITM 17
00000000
00000000
00000000
00000000
00000000
00000000
00000000
00000000
NAME missgang
DLG ITM_r

ITM 18
11111111
11111111
00111111
00001111
00000011
00000011
00000001
00000000
NAME misslast
DLG ITM_s
COL 4

ITM a
11111111
01101111
00111111
00111011
00111111
00101111
01111111
11111111
NAME digleft

ITM b
00000000
00001111
00111111
01111110
01111100
11111100
11111000
00000000
NAME clay
DLG ITM_7

ITM c
00000000
00011000
00011000
01100110
01100110
00011000
00011000
00000000
NAME altflower
COL 5

ITM d
00000000
00000000
00000000
00000000
00000000
00000000
00000000
00000000
NAME fall1
DLG ITM_8

ITM e
00000000
00000000
00000000
00000000
00000000
00000000
00000000
00000000
NAME dug1
DLG ITM_9

ITM f
00011111
11111111
00011111
11111111
00011111
11111111
00011111
11111111
NAME bigledge1

ITM g
11111100
11111100
11111100
11111100
11111100
11111100
11111100
11111100
NAME bigredge1

ITM h
11111111
11111111
11111111
11111111
11111111
11111111
11111111
11111111
NAME big

ITM j
11111111
11111111
00011111
00011111
00011111
11111111
11111111
11111111
>
11111111
11111111
00011111
00011111
00011111
11111111
11111111
11111111
NAME bigh1

ITM k
11111111
11111111
11111111
11111000
11111000
11111000
11111111
11111111
>
11111111
11111111
11111111
11111000
11111000
11111000
11111111
11111111
NAME bigh2

ITM l
00011111
11111111
00011111
11111100
00011100
11111111
00011111
11111111
NAME bigSOLID2

ITM m
11111100
11111100
11111100
00111100
00111100
11111100
11111100
11111100
NAME bigSOLID3

ITM n
00000011
00000011
00011111
00011111
11111111
11111111
11111101
11111111
NAME fortune
DLG ITM_a
COL 1

ITM p
11111111
11111111
11111111
11111111
11111111
11111111
11111111
11111111
NAME bigSOLID5

ITM q
00000000
00000000
00000000
00000000
00000000
00000000
00000000
00000000
NAME cliff
DLG ITM_c

ITM r
00000000
00001000
00010100
00001000
00010000
00111000
00010000
00100000
>
00000000
00100000
01010000
00100000
00100000
01110000
00100000
00100000
NAME flower2
DLG ITM_0
COL 5

ITM s
00000000
00001000
00010100
00001000
00010000
00111000
00010000
00100000
>
00000000
00100000
01010000
00100000
00100000
01110000
00100000
00100000
NAME flower3
DLG ITM_0
COL 5

ITM t
00000000
00001000
00010100
00001000
00010000
00111000
00010000
00100000
>
00000000
00100000
01010000
00100000
00100000
01110000
00100000
00100000
NAME flower4
DLG ITM_0
COL 5

ITM u
00000000
00001000
00010100
00001000
00010000
00111000
00010000
00100000
>
00000000
00100000
01010000
00100000
00100000
01110000
00100000
00100000
NAME flower5
DLG ITM_0
COL 5

ITM v
00000000
00001000
00010100
00001000
00010000
00111000
00010000
00100000
>
00000000
00100000
01010000
00100000
00100000
01110000
00100000
00100000
NAME flower6
DLG ITM_0
COL 5

ITM w
00000000
00001000
00010100
00001000
00010000
00111000
00010000
00100000
>
00000000
00100000
01010000
00100000
00100000
01110000
00100000
00100000
NAME flower7
DLG ITM_0
COL 5

ITM x
00000000
00001000
00010100
00001000
00010000
00111000
00010000
00100000
>
00000000
00100000
01010000
00100000
00100000
01110000
00100000
00100000
NAME flower8
DLG ITM_0
COL 5

ITM y
00000000
00000000
00000000
00000000
00000000
00000000
00000000
00000000
NAME step

ITM z
00000000
00000000
00000000
00000000
00000000
00000000
00000000
00000000
NAME leave
DLG ITM_b

DLG SPR_1
The small, broken chimes don't move. There's no wind down here to make them clash. They are memories of past times.

DLG SPR_0
"""
{
  - prsaflower == 1 ?
    {clr3}Prsa{clr3}: Go along, no need to wait for me.
  - flowers >= 1 ?
    {flowers = flowers - 1}
{prsaflower = 1}
{done = done + 1}{clr3}Prsa{clr3}: {printItem "altflower"}A flower for me? Why thank you!{printItem "altflower"}(imageNow "SPR, prsa, prsafl")
    {clr3}Prsa{clr3}: I can feel my tempo picking up speed already!
  - else ?
    {sequence
      - {clr3}Prsa{clr3}: You're up early.
        
        {clr3}Kleu{clr3}: Something is rustling inside of me.
        {clr3}Prsa{clr3}: Rustled right out of your rest, I see. 
        {clr3}Prsa{clr3}: Well, go along and head sunward, if you want. 
        {clr3}Prsa{clr3}: I will let myself be still a little longer.
        {clr3}Prsa{clr3}: If you see Htee, tell her I said hello, please.
        {clr3}Kleu{clr3}: Yes, Prsa.
      - {clr3}Prsa{clr3}: If you are staying, please be still.
    }
}
"""

DLG ITM_1
Picking flowers is nice, but I still feel strange.

DLG ITM_2
"""
It's a hole like ours, but smaller. If I was small enough to fit inside this hole, myself would not fit inside of me. 
It already feels that way.
"""

DLG ITM_3
I could dig a nice hole with this shovel.

DLG SPR_2
"""
{
  - {item "dig"} >= 1 ?
    {clr3}Luom{clr3}: I see you've been digging! Good work!
  - luomflower == 1 ?
    {clr3}Luom{clr3}: Back again, little tune?
  - flowers >= 1 ?
    {flowers = flowers - 1}
{luomflower = 1}
{done = done + 1}{clr3}Luom{clr3}: Hello, little tune!
    
    {clr3}Kleu{clr3}: Hello, Luom.
    
    {clr3}Kleu{clr3}: Here Luom, a flower for your dig.
    {clr3}Luom{clr3}: {printItem "altflower"}A flower? What a wonderful gift!{printItem "altflower"}(imageNow "SPR, luom2, luomfl")(imageNow "SPR, luom3, luomfl")
    {clr3}Luom{clr3}: Say, what troubles, Kleu?
    
    {clr3}Kleu{clr3}: I am restless, rustling inside.
    {clr3}Luom{clr3}: I find that digging helps with restlessness. 
    {clr3}Luom{clr3}: You can use the shovel if you want to dig.
    {clr3}Kleu{clr3}: Thank you, Luom. 
  - else ?
    {clr3}Luom{clr3}: Cannot talk tune, I am in the dig!
}
"""

DLG ITM_4
"""
{
  - {item "dig"} == 30 ?
    To dig is to live like a worm.
  - {item "dig"} == 22 ?
    How deep I can go!
  - {item "dig"} == 17 ?
    Digging does not get easier.
  - {item "dig"} == 10 ?
    Did I chip my clay?
  - {item "dig"} == 5 ?
    Digging is hard work.
  - {item "dig"} == 1 ?
    I'm digging!
  - else ?

}
"""

DLG SPR_3
The soil here would be good for digging.

DLG SPR_4
"""
{
  - {item "dig"} >= 1 ?
    {clr3}Luom{clr3}: I see you've been digging! Good work!
  - luomflower == 1 ?
    {clr3}Luom{clr3}: Back again, little tune?
  - flowers >= 1 ?
    {flowers = flowers - 1}
{luomflower = 1}
{done = done + 1}{clr3}Luom{clr3}: Hello, little tune!
    
    {clr3}Kleu{clr3}: Hello, Luom.
    
    {clr3}Kleu{clr3}: Here Luom, a flower for your dig.
    {clr3}Luom{clr3}: {printItem "altflower"}A flower? What a wonderful gift!{printItem "altflower"}(imageNow "SPR, luom2, luomfl")(imageNow "SPR, luom3, luomfl")
    {clr3}Luom{clr3}: Say, what troubles, Kleu?
    
    {clr3}Kleu{clr3}: I am restless, rustling inside.
    {clr3}Luom{clr3}: I find that digging helps with restlessness. 
    {clr3}Luom{clr3}: You can use the shovel if you want to dig.
    {clr3}Kleu{clr3}: Thank you, Luom. 
  - else ?
    {clr3}Luom{clr3}: Cannot talk tune, I am in the dig!
}
"""

DLG SPR_5
"""
{
  - {item "shovel"} == 1 ?
    (exitNow "holedig,15,4")
  - else ?
    (exitNow "holeoutside,15,4")
}
"""

DLG ITM_0
"""
{
  - flowers == 0 ?
    {flowers = 1}
{printItem "altflower"}I'll pick this flower.
    A flower to have.{printItem "altflower"}
  - flowers >= 1 ?
    {flowers = flowers + 1}
{printItem "altflower"}I'll add this to my other flowers.{printItem "altflower"}
}
"""

DLG ITM_5
"""
Sunward is nice today, but it doesn't warm me like usual. 
What is going on?
"""

DLG ITM_6
Small, hard stones that shimmer. I will take them with me.{gems = 1}

DLG ITM_7
A mass of clay, to heal and make new.{clayhave = 1}

DLG SPR_6
"""
{
  - tialflower == 1 ?
    Tial left, leaving behind their broken body.
  - tialleave * flowers >= 1 ?
    {flowers = flowers - 1}
{tialflower = 1}
{done = done + 1}I shall at least leave them a flower.(imageNow "SPR, tial, tialfl")
  - tialleave == 1 ?
    Tial left, leaving behind their broken body.
  - else ?
    {clr6}????{clr6}: {shk}Ahhhh!{shk}
    
    {clr6}????{clr6}: Who are you?
    
    {clr3}Kleu{clr3}: I'm Kleu, who are you?
    
    {clr6}Tial:{clr6}: Oh, um. Hello. I'm Tial, or used to be.
    {clr3}Kleu:{clr3}: Used to be?
    
    {clr6}Tial{clr6}: Well, I still am, but it's been so long.
    {clr6}Tial{clr6}: My body broke, leaving my melody trapped to echoes.
    {clr6}Tial{clr6}: Please tell, is the way back clear?
    {clr3}Kleu{clr3}: Yes, I dug a way, all myself.
    {clr6}Tial{clr6}: Thank you, little tune! I so desire to be free! {wvy}Free!{wvy}(imagePalNow "SPR, tial, 2")(imageNow "SPR, tial, tialbody")
    {clr3}Kleu{clr3}: Wait! ...they're gone.{tialleave = 1}
}
"""

DLG SPR_7
"""
{
  - hteeflower == 1 ?
    {clr3}Kleu{clr3}: My Prsa wishes you a hello.
    {clr3}Htee{clr3}: Why thanks, Kleu, that warms me, if but a little.
    {clr3}Kleu{clr3}: What troubles, Htee?
    
    {clr3}Htee{clr3}: I had a resting thought, the semblance of a melody.
    {clr3}Htee{clr3}: The morning chimes did stir me from rest.
    {clr3}Htee{clr3}: I lost the song before it was complete.
    {clr3}Kleu{clr3}: I'm sure you will have more songs a time, Htee.
    {clr3}Htee{clr3}: And cursed they should choose brokenness again.
  - flowers >= 1 ?
    {flowers = flowers - 1}
{hteeflower = 1}
{done = done + 1}{clr3}Htee{clr3}: {printItem "altflower"}What? A flower?{printItem "altflower"}
    (imageNow "SPR, htee1, hteefl")
    
    {clr3}Htee{clr3}: Well, thank you for the thought, little one.
  - else ?
    {clr3}Htee{clr3}: Go, warble, I do not wish to talk. 
}
"""

DLG ITM_8
Would it be so bad to fall, to break, and fly away?

DLG ITM_9
"""
{
  - {item "dig"} >= 1 ?
    I've done all the digging I can, but still I am stirring inside.
  - else ?
    Stirring, rustling, murmuring, why?
}
"""

DLG SPR_8
"""
Kfes is large, and their song is growing slow. 
I do not want to be like them.
"""

DLG SPR_9
"""
{
  - kfesitem == 1 ?
    {clr3}Kfes{clr3}: Enjoy thy time, a fortune does not change once spoken.
  - gems == 1 ?
    {kfesitem = 1}
{done = done + 1}
{gems = 0}{clr3}Kfes{clr3}: Hail, who is?
    
    {clr3}Kleu{clr3}: It is Kleu, with shining stones.
    {clr3}Kfes{clr3}: Ah, yes, please give them me. (imageNow "TIL, kfesidirt, kfesgem")(imagePal "TIL, kfesidirt, 5")
    {clr3}Kfes{clr3}: I speak clear.
    
    {clr3}Kfes{clr3}: {wvy}Thy form is like a brilliant, shining stone.{wvy}
    {clr3}Kfes{clr3}: {wvy}Thou ringst like tune of clear crystal in the echo.{wvy}
  - flowers >= 1 ?
    {kfesitem = 1}
{done = done + 1}
{flowers = flowers - 1}{clr3}Kfes{clr3}: Hail, who is?
    
    {clr3}Kleu{clr3}: It is Kleu, with a flower.
    
    {clr3}Kfes{clr3}: A flower, yes! Bring it me.(imageNow "TIL, kfesidirt, kfesfl")(imagePal "TIL, kfesidirt, 2")
    {clr3}Kfes{clr3} I speak clear.
    
    {clr3}Kfes{clr3}: {wvy}Thy time is like the flower, growing but limited.{wvy}
    {clr3}Kfes{clr3}: {wvy}Roots will weaken thee, and chip away.{wvy}
    {clr3}Kfes{clr3}: {wvy}Giving flowers like goodbyes, one last day.{wvy}
  - else ?
    {clr3}Kfes{clr3}: Hail, who is?
    
    {clr3}Kleu{clr3}: It is Kleu, wise Kfes.
    
    {clr3}Kfes{clr3}: Ah, small note, so good to hear thee!
    {clr3}Kfes{clr3}: Bring me something and I will tell thy fortune.
}
"""

DLG ITM_a
"""
{
  - kfesitem == 1 ?
    Whatever Kfes meant, I think they are right.
  - else ?

}
"""

DLG SPR_a
"""
{
  - endafix == 1 ?
    {clr3}Enda{clr3}: Obol has sing-said to me, that clay keeps us safe.
    {clr3}Enda{clr3}: Let us be thankful.
  - endaflower == 1 ?
    {clr3}Enda{clr3}: Obol has sing-said to me, flowers are a temporary gift.  
  - clayhave >= 1 ?
    {clayhave = 0}
{done = done + 1}
{endafix = 1}{clr3}Enda{clr3}: Our bodies are blessings from Obol, little chipped one.
    {clr3}Enda{clr3}: I see you have new clay, so precious.
    {clr3}Enda{clr3}: Let us make to fix you.(imageNow "SPR, A, fixedkleu")
  - flowers >= 1 ?
    {flowers = flowers - 1}
{done = done + 1}
{endaflower = 1}{clr3}Kleu{clr3}: Hello, Enda, a flower?
    
    {clr3}Enda{clr3}: A flower? What a silly thing.
    {clr3}Enda{clr3}: ... If you insist. {printItem "altflower"}(imageNow "SPR, enda1, endafl")
  - else ?
    {clr3}Enda{clr3}: Our bodies are blessings from Obol, little chipped one.
}
"""

DLG SPR_b
"""
{
  - done >= 8 ?
    I've done all that I wanted to do. I think I can leave now.(exit "topend,5,11")
  - done >= 5 ?
    I can't say that I've done enough, but I should still go.(exit "topend,5,11")
  - else ?
    I should talk to everyone before I leave for good.
}
"""

DLG ITM_c
The wind and the sound of chimes. It's home, isn't it? What else is out there?

DLG ITM_d
"""
{
  - flowers == 0 ?
    {flowers = 1}
{printItem "altflower"}I'll pick this flower.
    A flower to have.{printItem "altflower"}
  - flowers >= 1 ?
    {flowers = flowers + 1}
{printItem "altflower"}I'll add this to my other flowers.{printItem "altflower"}
}
"""

DLG ITM_e
"""
{
  - flowers == 0 ?
    {flowers = 1}
{printItem "altflower"}I'll pick this flower.
    A flower to have.{printItem "altflower"}
  - flowers >= 1 ?
    {flowers = flowers + 1}
{printItem "altflower"}I'll add this to my other flowers.{printItem "altflower"}
}
"""

DLG ITM_f
"""
{
  - flowers == 0 ?
    {flowers = 1}
{printItem "altflower"}I'll pick this flower.
    A flower to have.{printItem "altflower"}
  - flowers >= 1 ?
    {flowers = flowers + 1}
{printItem "altflower"}I'll add this to my other flowers.{printItem "altflower"}
}
"""

DLG SPR_c
The chimes are spinning in the wind, sending discordant notes into the air. I wonder where they go?

DLG SPR_d
"""
{
  - mslafix == 1 ?
    {clr3}Msla{clr3}: You must be more careful, high note.
    {clr3}Msla{clr3}: I do not think it your time just yet.
    {clr3}Soom{clr3}: But {wvy}Msla{wvy}, I'm ready!
  - mslaflower == 1 ?
    {clr3}Msla{clr3}: Please, be still high note, or it will worsen.
    {clr3}Soom{clr3}: {shk}N n n no no no t t t ti ti ti tis f f f f f-{shk}
    {clr3}Msla{clr3}: Tis far worse than you intended, we know.
    {clr3}Soom{clr3}: {shk}N n n no no no I I I I I I'm n I'm not I'm I'm not{shk}
    {clr3}Msla{clr3}: Quiet yourself, high note.
  - clayhave == 1 ?
    {clayhave = 0}
{mslafix = 1}
{done = done + 1}{clr3}Kleu{clr3}: Hello Msla, Soom. I have new clay if you would like it.
    {clr3}Msla{clr3}: By Obol, little one, I would be thankful!
    {clr3}Soom{clr3}: {shk}B b b bu bu bu but bu but M m m m ms ms ms Msla{shk}
    {clr3}Msla{clr3}: Here, let me see.(imageNow "SPR, soom, soomfix")
    
    {clr3}Msla{clr3}: How is that, high note?
    
    {clr3}Soom{clr3}: Better, I suppose...
  - flowers >= 2 ?
    {flowers = flowers - 2}
{done = done + 1}
{mslaflower = 1}{clr3}Kleu{clr3}: Hello Msla, hello Soom. I have flowers.
    {clr3}Soom{clr3}: {shk}T t t th th th tha th thanks Kl kl kl kle Kleu {printItem "altflower"}{shk}
    {clr3}Msla{clr3}: Thank you, little tune, they are lovely. {printItem "altflower"}(imageNow "SPR, msla1, mslafl")(imageNow "SPR, msla2, mslafl2")
  - else ?
    {clr3}Msla{clr3}: Hello, small tune.
    
    {clr3}Kleu{clr3}: Hello Msla, hello Soom.
    
    {clr3}Soom{clr3}: {shk}H h h h h he he hel hel hel hel hell hell o o o o o o{shk}
    {clr3}Msla{clr3}: What troubles, Kleu?
    
    {clr3}Kleu{clr3}: Movement and rustling within me.
    {clr3}Msla{clr3}: Hm, I see.
}
"""

DLG ITM_g
"""
{
  - flowers == 0 ?
    {flowers = 1}
{printItem "altflower"}I'll pick this flower.
    A flower to have.{printItem "altflower"}
  - flowers >= 1 ?
    {flowers = flowers + 1}
{printItem "altflower"}I'll add this to my other flowers.{printItem "altflower"}
}
"""

DLG ITM_h
"""
{
  - flowers == 0 ?
    {flowers = 1}
{printItem "altflower"}I'll pick this flower.
    A flower to have.{printItem "altflower"}
  - flowers >= 1 ?
    {flowers = flowers + 1}
{printItem "altflower"}I'll add this to my other flowers.{printItem "altflower"}
}
"""

DLG ITM_i
"""
{
  - flowers == 0 ?
    {flowers = 1}
{printItem "altflower"}I'll pick this flower.
    A flower to have.{printItem "altflower"}
  - flowers >= 1 ?
    {flowers = flowers + 1}
{printItem "altflower"}I'll add this to my other flowers.{printItem "altflower"}
}
"""

DLG ITM_j
"""
{
  - flowers == 0 ?
    {flowers = 1}
{printItem "altflower"}I'll pick this flower.
    A flower to have.{printItem "altflower"}
  - flowers >= 1 ?
    {flowers = flowers + 1}
{printItem "altflower"}I'll add this to my other flowers.{printItem "altflower"}
}
"""

DLG SPR_e
Water and clay do not mix, but I've always wanted to swim.

DLG SPR_f
"""
{
  - ganggem == 1 ?
    {clr3}Itri{clr3}: I guess you can step on me if you need to.
  - gangflower == 1 ?
    {clr3}Itri{clr3}: It's {shk}still{shk} not cool to step on people.
  - {item "step"} == 1 ?
    {clr3}Itri{clr3}: Hey, you stepped on me! I'm not {shk}stairs{shk}, you know!
  - else ?
    {clr3}Itri{clr3}: You better not step on me, chip!
}
"""

DLG SPR_g
"""
{
  - ganggem == 1 ?
    {clr3}Rloa{clr3}: If bodies are temporary, why do some stay so long?
  - gangflower == 1 ?
    {clr3}Rloa{clr3}: Sorry for calling your legs short.
    {clr3}Kleu{clr3}: ...Okay.
  - else ?
    {clr3}Rloa{clr3}: No shorties allowed! Your legs are too short.
    {clr3}Kleu{clr3}: ...Okay.
}
"""

DLG SPR_h
"""
{
  - ganggem == 1 ?
    {clr3}Paer{clr3}: Listen, Kleu, I thought about what I said.
    {clr3}Paer{clr3}: Maybe you can also be in the gang, if you want.
    {clr3}Paer{clr3}: Also, maybe I was kind of mean to you.
    {clr3}Kleu{clr3}: Many maybes, Paer.
  - gangflower == 1 ?
    {clr3}Paer{clr3}: Listen, I know you gave us flowers, and that was cool.
    {clr3}Paer{clr3}: You still can't be in the gang, though, sorry.
    {clr3}Itri{clr3}: {shk}Cliff gang forever!{shk}
    
    {clr3}Kleu{clr3}: Forever is too long for me, I think, besides.
  - gems == 1 ?
    {ganggem = 1}
{gems = 0}
{done = done + 1}{clr3}Kleu{clr3}: Hello, gang.
    
    {clr3}Paer{clr3}: What do you want, chip?
    
    {clr3}Kleu{clr3}: Only wanted to show you these shining stones.
    {clr3}Itri{clr3}: {shk}What???{shk}
    
    {clr3}Paer{clr3}: Where did you find those?
    
    {clr3}Kleu{clr3}: There aren't more of them, if that is the question.
    {clr3}Paer{clr3}: If you give us those, you can be in the gang.
    {clr3}Kleu{clr3}: Would you call me by my real, given name?
    {clr3}Paer{clr3}: Of course, Kleu!
    
    {clr3}Kleu{clr3}: Nice.(imagePal "TIL, thecliff, 5")(image "TIL, thecliff, cliffgem")
  - flowers >= 3 ?
    {flowers = flowers - 3}
{gangflower = 1}
{done = done + 1}{clr3}Paer{clr3}: ...Hello, chip.
    
    {clr3}Kleu{clr3}: Hello to you too, Paer. I brought flowers for the gang.
    {clr3}Itri{clr3}: {shk}Flowers???{shk}
    
    {clr3}Paer{clr3}: {printItem "altflower"}Flowers? Let's see 'em.{printItem "altflower"}(imageNow "SPR, paer2, paerfl")(imageNow "SPR, itri, itrifl")(imageNow "SPR, rloa3, rloafl")
    
    {clr3}Paer{clr3}: The cliff gang appreciates your tribute.
  - flowers == 2 ?
    {clr3}Paer{clr3}: ...Hello, chip.
    
    {clr3}Kleu{clr3}: Hello to you too, Paer. I brought flowers.
    {clr3}Paer{clr3}: Flowers? Who likes flowers?
    
    
    {clr3}Paer{clr3}: Did you bring enough for the whole cliff gang?
    {clr3}Kleu{clr3}: Well, no.
    
    {clr3}Paer{clr3}: Then {wvy}begone{wvy}.

  - flowers == 1 ?
    {clr3}Paer{clr3}: ...Hello, chip.
    
    {clr3}Kleu{clr3}: Hello to you too, Paer. I brought a flower.
    {clr3}Paer{clr3}: Flowers? Who likes flowers?
    
    
    {clr3}Paer{clr3}: Did you bring enough for the whole cliff gang?
    {clr3}Kleu{clr3}: Well, no.
    
    {clr3}Paer{clr3}: Then {wvy}begone{wvy}.
  - endafix == 1 ?
    {clr3}Kleu{clr3}: You know, Paer, it's obvious I'm no longer chipped.
    {clr3}Paer{clr3}: So you've been whole a few minutes, so what?
    {clr3}Paer{clr3}: You were chipped much longer than that.
  - else ?
    {clr3}Paer{clr3}: If it isn't the little chipped one. What do you want?
    {clr3}Kleu{clr3}: Hello to you too, Paer.
    
    {clr3}Paer{clr3}: You can't be part of our club, not with those legs.
    {clr3}Kleu{clr3}: ...Itri doesn't have long legs either.
    {clr3}Itri{clr3}: My legs are {shk}my{shk} business!
}
"""

DLG SPR_i
Obol is still and silent, no matter what Enda says.

DLG SPR_j
Obol is still and silent, no matter what Enda says.

DLG SPR_k
"""
Obol is so tall, the highest point on the hill. 
I wish I could go higher.
"""

DLG ITM_k
"""
{
  - endafix == 1 ?
    First, I must go still, and focus.(imageNow "SPR, A, kbody1")
    ...
    (imageNow "SPR, A, kbody2")
    
    Then, I must begin to break.
    
    ...(imageNow "SPR, A, kbody3")(exit "topend2,8,3")(image "SPR, A, ksong")(imagePal "SPR, A, 5")
  - else ?
    First, I must go still, and focus.(imageNow "SPR, A, kcbody1")
    ...
    (imageNow "SPR, A, kcbody2")
    
    Then, I must begin to break.
    
    ...(imageNow "SPR, A, kcbody3")(exit "topend2,8,3")(image "SPR, A, ksong")(imagePal "SPR, A, 5")
}
"""

DLG SPR_l
Nothing but broken clay. That is not me.

DLG SPR_m
{clr3}Tial{clr3}: Hey kid, remember me?

DLG SPR_n
{clr3}Song{clr3}: Howdy!

DLG SPR_o
{clr3}Song{clr3}: The winds are blowing us north, you should come!

DLG SPR_p
There's nothing for me down there anymore.

DLG SPR_q
No going back, it's time.

DLG ITM_l
I will miss Prsa and our home...

DLG ITM_m
"""
{
  - luomflower == 1 ?
    ...Luom and their excitement...
  - else ?

}
"""

DLG ITM_n
"""
{
  - hteeflower == 1 ?
    ...Htee, even in her bitter loneliness...
  - else ?

}
"""

DLG ITM_o
"""
{
  - endafix == 1 ?
    ...Enda and her conviction...
  - endaflower == 1 ?
    ...Enda, despite her conviction...
  - else ?

}
"""

DLG ITM_p
"""
{
  - kfesitem == 1 ?
    ...Kfes and her old fortunes...
  - else ?

}
"""

DLG ITM_q
"""
{
  - mslafix == 1 ?
    ...imperfect Msla and impatient Soom...
  - mslaflower == 1 ?
    ...Msla and Soom...
  - else ?

}
"""

DLG ITM_s
"""
...I will miss everyone.

But if I don't go now, I'll break apart.
"""

DLG ITM_r
"""
{
  - ganggem == 1 ?
    ...the whole, silly cliff gang...
  - gangflower == 1 ?
    ...even the cliff gang...
  - else ?

}
"""

DLG SPR_r
"""
Testing! Make me look like tial's body!(imageNow "SPR, test, tialbody")
(imagePalNow "SPR, test, 2")
"""

DLG SPR_s
"""
{sequence
  - I'm extra Tial! Let's make me blue!
    (imagePalNow "SPR, extratial, 5")
  - I'm extra Tial! Let's make me orange!(imagePalNow "SPR, extratial, 2")(imageNow "SPR, extratial, tialbody")
  - I'm extra Tial! Let's make me a body!
}
"""

DLG ITM_b
This is where one can climb up the side of Obol.

END 0
There's so much to see. Everyone will hear my music and know me.

VAR flowers
0

VAR prsaflower
0

VAR luomflower
0

VAR hteeflower
0

VAR kfesitem
0

VAR gems
0

VAR endaflower
0

VAR endafix
0

VAR clayhave
0

VAR mslafix
0

VAR mslaflower
0

VAR done
0

VAR gangflower
0

VAR ganggem
0

VAR tialleave
0

VAR tialflower
0

