
---= Welcome to Subterra =---

# BITSY VERSION 4.6

! ROOM_FORMAT 1

PAL 0
0,82,204
128,159,255
255,255,255

ROOM 0
0,0,0,0,0,0,0,0,0,0,0,0,0,0,0,0
0,a,a,a,a,a,a,a,a,a,b,a,a,a,a,0
0,a,0,0,0,0,0,0,0,0,0,0,0,0,a,0
0,a,0,0,0,0,0,0,0,0,0,0,0,0,a,0
0,s,0,0,0,i,j,k,0,0,0,0,0,0,a,0
0,s,0,0,0,l,m,n,0,d,0,0,0,0,a,0
0,s,0,0,0,l,m,n,0,f,0,0,0,0,a,0
0,g,0,0,0,o,p,q,0,e,0,0,0,0,a,0
0,h,0,0,0,0,0,0,0,c,0,0,0,0,a,0
0,a,0,0,0,0,0,0,0,0,0,0,0,0,a,0
0,0,0,r,0,0,0,0,0,0,0,0,0,0,a,0
0,a,0,0,0,0,0,0,0,0,0,0,0,0,a,0
0,a,0,0,0,0,0,0,0,0,0,0,0,0,a,0
0,a,0,0,0,0,0,0,0,0,0,0,0,0,a,0
0,a,a,a,a,a,a,a,a,a,a,a,a,a,a,0
0,0,0,0,0,0,0,0,0,0,0,0,0,0,0,0
NAME Sprites
ITM 0 12,5
PAL 0

ROOM 1
0,0,0,0,0,0,0,0,0,0,0,0,0,0,0,0
0,0,0,0,0,0,0,0,0,0,0,0,0,0,0,0
0,0,0,0,0,0,0,0,0,0,0,0,0,0,0,0
0,0,0,0,0,0,0,0,0,0,0,0,0,0,0,0
0,0,0,0,0,0,0,0,0,0,0,0,0,0,0,0
0,0,0,0,0,0,0,0,0,0,0,0,0,0,0,0
0,0,0,0,0,0,0,0,0,0,0,0,0,0,0,0
0,0,0,0,0,0,0,0,0,0,0,0,0,0,0,0
0,0,0,0,0,0,0,0,0,0,0,0,0,0,0,0
0,0,0,0,0,0,0,0,0,0,0,0,0,0,0,0
0,0,0,0,0,0,0,0,0,0,0,0,0,0,0,0
0,0,0,0,0,0,0,0,0,0,0,0,0,0,0,0
0,0,0,0,0,0,0,0,0,0,0,0,0,0,0,0
0,0,0,0,0,0,0,0,0,0,0,0,0,0,0,0
0,0,0,0,0,0,0,0,0,0,0,0,0,0,0,0
0,0,0,0,0,0,0,0,0,0,0,0,0,0,0,0
PAL 0

ROOM 2
a,a,a,a,a,a,a,a,b,a,a,a,a,a,a,a
a,a,a,a,0,0,0,0,b,0,0,0,a,a,a,a
a,a,a,a,0,c,0,0,0,0,0,0,0,0,c,0
a,a,a,a,0,0,0,0,0,0,0,0,0,0,0,0
a,a,a,a,0,0,0,0,0,0,0,0,a,a,a,a
a,a,a,a,0,0,0,0,0,0,c,0,a,a,a,a
a,a,a,a,0,0,0,0,0,0,0,0,a,a,a,a
a,a,a,a,0,0,0,0,c,0,0,0,a,a,a,a
a,a,a,a,0,c,0,0,0,0,0,0,a,a,a,a
a,a,a,a,0,0,0,0,0,0,0,0,a,a,a,a
a,a,a,a,0,0,0,0,0,0,c,0,a,a,a,a
a,a,a,a,0,0,0,0,0,0,0,0,a,a,a,a
a,a,a,a,0,c,0,0,0,0,0,0,a,a,a,a
a,a,a,a,0,0,0,0,0,0,0,0,a,a,a,a
a,a,a,a,0,0,0,0,0,0,0,0,a,a,a,a
a,a,a,a,a,a,a,t,u,a,a,a,a,a,a,a
NAME Hallway
ITM 1 7,14
ITM 1 7,13
EXT 15,3 4 0,2
EXT 15,2 4 0,1
PAL 0

ROOM 3
a,a,a,a,a,a,a,a,a,a,a,a,a,a,a,a
a,0,0,r,r,r,0,0,0,0,c,c,a,a,a,a
0,0,0,0,0,0,0,0,c,0,0,0,a,a,a,a
0,0,0,0,0,0,0,0,0,0,c,0,a,a,a,a
a,0,0,0,0,0,0,0,0,0,0,0,a,a,a,a
a,0,0,0,0,0,0,0,0,0,0,0,a,a,a,a
a,0,0,0,0,0,0,0,0,0,0,0,a,a,a,a
a,0,0,0,0,0,0,0,0,0,0,0,a,a,a,a
a,0,c,0,0,0,0,0,0,0,0,0,a,a,a,a
a,0,0,0,0,0,0,0,0,0,0,0,a,a,a,a
a,0,0,0,0,0,0,0,0,0,0,0,a,a,a,a
a,0,0,0,0,0,0,0,0,0,0,0,a,a,a,a
a,0,0,0,0,0,0,0,0,0,0,c,a,a,a,a
a,0,0,0,0,0,0,0,c,0,c,0,a,a,a,a
a,0,0,a,a,a,a,a,a,a,a,a,a,a,a,a
a,0,0,a,a,a,a,a,a,a,a,a,a,a,a,a
NAME Brother Bedroom
EXT 1,15 5 1,0
EXT 2,15 5 2,0
PAL 0

ROOM 4
a,a,a,a,a,a,a,a,a,a,a,a,a,a,a,a
0,0,0,0,0,0,0,0,0,0,0,a,a,a,a,a
0,0,0,0,0,0,0,0,0,0,0,0,a,a,a,a
a,0,0,0,0,0,0,0,0,0,0,0,0,a,a,a
a,0,0,0,0,c,0,0,0,0,0,0,0,a,a,a
a,0,0,0,0,0,0,0,0,0,0,0,0,a,a,a
a,0,0,0,0,0,0,0,0,0,0,0,0,a,a,a
g,0,0,0,0,0,0,0,0,0,c,0,0,a,a,a
h,0,0,0,0,c,0,0,0,0,0,0,0,a,a,a
a,0,0,0,0,0,0,0,0,0,0,0,0,a,a,a
a,0,0,0,0,0,0,0,0,0,0,0,0,a,a,a
a,0,0,0,0,0,0,0,0,0,0,0,0,a,a,a
a,0,c,0,0,0,0,0,0,0,0,0,0,a,a,a
a,0,0,0,0,0,0,0,c,0,0,0,0,0,0,0
a,0,0,0,0,0,0,0,0,0,0,0,0,0,0,0
a,a,a,a,a,a,a,a,a,a,a,a,a,a,a,a
NAME Living Room
EXT 15,13 3 0,2
EXT 15,14 3 0,3
PAL 0

ROOM 5
a,0,0,a,a,a,a,a,a,a,a,0,0,0,a,a
a,0,0,a,0,0,0,0,0,a,a,0,0,0,a,a
a,0,0,a,0,0,0,0,0,a,a,0,0,0,a,a
a,0,0,a,a,a,a,a,u,a,a,0,0,0,a,a
a,0,0,0,0,0,0,0,0,0,a,0,0,0,a,a
a,0,0,0,0,0,0,0,0,0,a,0,0,0,a,a
a,0,0,0,0,0,0,0,0,0,a,0,0,0,a,a
a,0,0,0,0,0,0,0,0,0,a,0,0,0,a,a
a,0,0,0,0,0,0,0,0,0,a,0,0,0,a,a
a,0,0,0,0,0,0,0,0,0,a,0,0,0,a,a
a,0,0,0,0,0,0,0,0,0,0,0,0,0,a,a
a,0,0,0,0,0,0,0,0,0,0,0,0,0,a,a
a,0,0,0,0,0,0,0,0,0,a,0,0,0,a,a
a,a,a,a,a,a,a,a,a,a,a,a,a,a,a,a
a,a,a,a,a,a,a,a,a,a,a,a,a,a,a,a
a,a,a,a,a,a,a,a,a,a,a,a,a,a,a,a
NAME My Bedroom
EXT 12,0 6 2,15
EXT 11,0 6 1,15
EXT 13,0 6 3,15
PAL 0

ROOM 6
a,t,u,a,a,a,a,a,a,a,a,a,a,a,a,a
a,0,0,0,0,0,0,0,0,0,0,0,a,a,a,a
w,0,0,0,0,0,0,0,0,0,0,0,a,a,a,a
s,0,0,0,0,0,0,0,0,0,0,0,a,a,a,a
s,0,0,0,0,0,0,0,0,0,0,0,a,a,a,a
s,0,0,0,0,0,0,0,0,0,0,0,a,a,a,a
s,0,0,0,0,0,0,0,0,0,0,0,a,a,a,a
s,0,0,0,0,0,0,0,0,0,0,0,a,a,a,a
v,0,0,0,0,0,0,0,0,0,0,0,a,a,a,a
a,0,0,0,0,0,0,0,0,0,0,0,a,a,a,a
a,0,0,0,0,0,0,0,0,0,0,0,a,a,a,a
a,0,0,0,a,a,a,a,a,a,a,a,a,a,a,a
a,0,0,0,a,a,a,a,a,a,a,a,a,a,a,a
a,0,0,0,a,a,a,a,a,a,a,a,a,a,a,a
a,0,0,0,a,a,a,a,a,a,a,a,a,a,a,a
a,0,0,0,a,a,a,a,a,a,a,a,a,a,a,a
NAME Kitchen
EXT 1,1 7 1,15
EXT 2,1 7 2,15
PAL 0

ROOM 7
0,0,0,0,0,0,0,0,0,0,0,0,0,0,0,0
0,12,12,12,0,12,12,12,0,0,12,12,0,0,12,0
0,12,0,0,0,12,0,0,0,0,12,0,0,0,12,12
0,12,12,0,0,12,12,0,0,0,0,0,12,12,12,0
0,12,0,0,0,12,0,0,0,0,12,0,12,12,12,12
10,y,y,y,y,y,y,y,y,y,y,y,z,12,0,12
x,0,12,12,0,0,12,0,12,0,12,12,x,0,0,12
x,12,0,12,12,0,12,12,12,0,12,0,x,0,0,0
x,12,12,12,0,12,0,12,0,12,12,0,x,0,12,0
x,0,0,12,0,12,12,0,0,12,0,12,x,12,0,12
x,12,0,0,12,12,12,12,0,0,0,12,x,0,0,0
x,0,12,12,12,0,12,12,0,12,12,12,x,0,0,0
x,12,0,12,0,12,12,0,12,0,12,12,x,0,12,0
x,12,12,12,12,12,12,12,0,12,12,12,x,0,12,0
x,12,0,12,12,0,12,12,0,0,12,0,x,12,12,0
x,0,0,10,y,y,y,y,y,y,y,y,11,0,0,12
NAME Backyard
ITM 0 1,6
EXT 1,6 8 15,8
PAL 0

ROOM 8
13,13,13,13,13,13,13,13,13,13,13,13,13,13,13,13
13,13,13,13,13,13,13,13,13,13,13,13,13,13,13,13
13,13,13,13,13,13,13,13,13,13,13,13,13,13,13,13
13,13,13,13,13,13,13,13,13,13,13,13,13,13,13,13
13,13,13,13,13,13,13,13,13,13,13,13,13,13,13,13
13,13,13,13,13,13,13,13,13,13,13,13,13,13,13,13
14,14,14,14,14,14,14,14,14,14,14,14,14,14,14,14
14,14,14,14,14,14,14,14,14,14,14,14,14,14,14,14
14,14,14,14,14,14,14,14,14,14,14,14,14,14,14,14
14,14,14,14,14,14,14,14,14,14,14,14,14,14,14,14
14,14,14,14,14,14,14,14,14,14,14,14,14,14,14,14
13,13,13,13,13,13,13,13,13,13,13,13,13,13,13,13
13,13,13,13,13,13,13,13,13,13,13,13,13,13,13,13
13,13,13,13,13,13,13,13,13,13,13,13,13,13,13,13
13,13,13,13,13,13,13,13,13,13,13,13,13,13,13,13
13,13,13,13,13,13,13,13,13,13,13,13,13,13,13,13
NAME Underground Hall
EXT 0,8 9 15,8
EXT 0,9 9 15,8
EXT 0,10 9 15,8
EXT 0,7 9 15,8
EXT 0,6 9 15,8
PAL 0

ROOM 9
13,13,13,13,13,13,13,13,13,13,13,13,13,13,13,13
13,13,13,13,13,13,13,13,13,13,13,13,13,13,13,13
13,13,13,13,13,13,13,13,13,13,13,13,13,13,13,13
13,14,14,14,14,14,14,14,14,14,14,14,13,13,13,13
13,14,14,14,14,14,14,14,14,14,14,14,13,13,13,13
13,15,15,15,15,15,15,14,14,14,14,14,13,13,13,13
13,14,14,14,14,14,15,14,14,14,14,14,13,14,14,14
13,14,15,15,15,14,15,15,15,15,15,15,13,14,14,14
14,14,15,14,15,14,15,15,14,14,14,14,14,14,14,14
13,15,15,14,15,14,15,15,14,15,15,15,13,14,14,14
13,14,14,14,15,14,15,15,14,15,14,14,13,14,14,14
13,14,14,14,15,14,14,14,14,15,14,14,13,13,13,13
13,14,14,14,15,15,15,15,15,15,14,14,13,13,13,13
13,14,14,14,14,14,14,14,14,14,14,14,13,13,13,13
13,13,13,13,13,13,13,13,13,13,13,13,13,13,13,13
13,13,13,13,13,13,13,13,13,13,13,13,13,13,13,13
NAME Invisible Maze
EXT 0,8 a 15,8
PAL 0

ROOM a
13,13,13,13,13,13,13,13,13,13,13,13,13,13,13,13
13,13,13,13,13,13,13,13,13,13,13,13,13,13,13,13
13,13,13,13,13,13,13,13,13,13,13,13,13,13,13,13
13,13,13,13,13,13,13,13,13,13,13,13,13,13,13,13
13,13,13,13,13,13,13,13,13,13,13,13,13,13,13,13
13,13,13,13,13,13,13,13,13,13,13,13,13,13,13,13
14,14,14,14,14,14,14,14,14,14,14,14,14,14,14,14
14,14,14,14,14,14,14,14,14,14,14,14,14,14,14,14
14,14,14,14,14,14,14,14,14,14,14,14,14,14,14,14
14,14,14,14,14,14,14,14,14,14,14,14,14,14,14,14
14,14,14,14,14,14,14,14,14,14,14,14,14,14,14,14
13,13,13,13,13,13,13,13,13,13,13,13,13,13,13,13
13,13,13,13,13,13,13,13,13,13,13,13,13,13,13,13
13,13,13,13,13,13,13,13,13,13,13,13,13,13,13,13
13,13,13,13,13,13,13,13,13,13,13,13,13,13,13,13
13,13,13,13,13,13,13,13,13,13,13,13,13,13,13,13
ITM 2 15,8
ITM 2 14,8
EXT 0,8 b 15,8
EXT 0,7 b 15,8
EXT 0,6 b 15,8
EXT 0,9 b 15,8
EXT 0,10 b 15,8
PAL 0

ROOM b
1c,18,1b,1b,1b,19,0,1c,1c,0,1c,1c,1c,1c,1c,0
1c,1a,1a,1a,1a,1a,1c,1c,0,1c,1c,0,1c,1c,1c,0
1c,1c,17,16,17,17,1c,1c,18,1b,1b,1b,19,1c,1c,0
19,1c,1c,1c,1c,1c,1c,18,19,17,1a,17,1c,1c,1c,1c
17,19,1c,1c,18,19,18,17,17,17,17,17,1c,1c,1c,1c
1a,17,1c,1c,17,17,1a,16,16,1a,17,17,0,1c,1c,1c
1c,1c,1c,1c,1c,1c,1c,1c,1c,1c,1c,1c,1c,1c,1c,1c
14,14,14,14,14,14,14,14,14,14,14,14,14,14,14,14
14,14,14,14,14,14,14,14,14,14,14,14,14,14,14,14
14,14,14,14,14,14,14,14,14,14,14,14,14,14,14,14
1c,1c,1c,1c,1c,1c,1c,1c,1c,1c,1c,1c,1c,1c,1c,1c
1c,18,1b,19,1c,1c,0,1c,18,19,1c,1c,1c,1c,1c,1c
1c,17,17,17,19,1c,1c,18,17,17,1c,1c,1c,18,19,1c
1c,1a,17,1a,17,1b,1b,1a,17,1a,1c,19,1c,16,17,1c
0,17,16,17,17,1a,17,17,16,17,1a,17,1c,1c,1c,1c
1c,1c,1c,1c,1c,1c,1c,1c,1c,0,1c,1c,1c,1c,1c,1c
NAME Subterra
ITM 3 14,8
ITM 4 8,8
END 0 0,8
END 0 0,9
END 0 0,7
PAL 0

TIL 10
00000000
00000000
00000000
00001110
00011111
00110110
00111000
00111000
WAL true

TIL 11
00010000
00111000
00111000
11010000
11110000
11100000
00000000
00000000
WAL true

TIL 12
00000000
01000000
01000000
00000000
00000100
00100100
00100000
00000000

TIL 13
00001000
00000000
01000000
00000010
00000000
00000001
01010000
00000000
NAME underground
WAL true

TIL 14
11111111
11111101
01111111
11111111
11011111
11111111
11101101
11111111

TIL 15
11111111
11111101
01111111
11111111
11011111
11111111
11101101
11111111
NAME Groundwall
WAL true

TIL 16
11111011
10111110
11111111
11000011
10000001
10000000
10000001
10000001

TIL 17
11111011
10111111
11111110
11111111
10111111
11110111
11111111
01111101

TIL 18
00000000
00000000
00000011
00001111
00111111
11111110
11101111
11111011

TIL 19
00000000
00000000
11110000
11111000
11011010
11111110
11101111
01111011

TIL a
11111111
11111111
11111111
11111111
11111111
11111111
11111111
11111111
NAME Wall
WAL true

TIL b
11111111
11111111
11011000
10011001
01000010
11100111
11000011
10000001
NAME Flower

TIL c
01000000
00100000
10000100
00000001
00110000
01100000
00100011
00000011
NAME Mess

TIL d
00000000
00000000
11111111
11111111
11111111
01111111
01111111
01111111
NAME Couch

TIL e
01111111
01111111
01111111
11111111
11111111
11111111
00000000
00000000

TIL f
01100001
01101001
01100001
01100001
01111011
00000111
01011111
00111111

TIL g
11111111
11000000
11000000
11000000
11000000
11000000
11000000
11000000
NAME TV

TIL h
11000000
11000000
11000000
11000000
11000000
11000000
11000000
11111111
NAME TV

TIL i
11111111
11010101
01010101
01111111
01111111
01111111
01111111
01111111
NAME BrotherBed

TIL j
11111111
01010101
01010101
11111111
11111111
11111111
11111111
11111111

TIL k
11111110
01010110
01010100
11111100
11111100
11111100
11111100
11111100

TIL l
01111111
01111111
01111111
01111111
01111111
01111111
01111111
01111111

TIL m
11111111
11111111
11111111
11111111
11111111
11111111
11111111
11111111

TIL n
11111100
11111100
11111100
11111100
11111100
11111100
11111100
11111100

TIL o
01111111
01111111
01111111
01111111
01111111
01111111
01100000
01100000

TIL p
11111111
11111111
11111111
11111111
11111111
11111111
00000000
00000000

TIL q
11111100
11111100
11111100
11111100
11111100
11111100
00001100
00001100

TIL r
00000000
00000000
00000000
11110111
11110111
01100111
01100010
11110111
NAME Shelf

TIL s
10111111
10111111
10111101
10111111
10000000
10111111
10111101
10111111

TIL t
00000000
00000000
00000000
00000110
11111111
11111111
11111111
00000110

TIL u
00000000
00000000
00000000
01100000
11111111
11111111
11111111
01100000

TIL v
10111111
10111111
10111101
10111111
10000000
11111111
11111111
11111111

TIL w
11111111
11111111
11111111
11111111
10000000
10111111
10111101
10111111

TIL x
00010000
00111000
00111000
00111000
00010000
00111000
00111000
00111000
WAL true

TIL y
00000000
00000000
00000000
11101110
11111111
11101110
00000000
00000000
WAL true

TIL z
00000000
00000000
00000000
11100000
11110000
11011000
00111000
00111000
WAL true

TIL 1a
01111111
11111011
11000111
11000010
11000011
10000011
11111111
11110111

TIL 1b
00000000
11001101
11111111
11110111
11111111
10111111
11111110
01111111

TIL 1c
00001000
00000000
01000000
00000010
00000000
00000001
01010000
00000000
NAME notwall
WAL false

SPR 10
11111000
11111000
11111000
11111000
11111000
11111000
00001000
00000000
DLG SPR_f
POS 5 8,7

SPR 11
11111000
10101000
11111000
11111000
11111000
11111000
11111000
11111000
DLG SPR_g
POS 5 8,6

SPR 12
11111111
10100101
10100101
11111111
10010101
10010101
11111111
00000000
DLG SPR_h
POS 5 4,4

SPR 13
11111110
11111100
11111100
11111110
11111111
10000000
10000000
10000000
DLG SPR_i
POS 6 6,6

SPR 14
01111111
00111111
00111111
01111111
11111111
00000001
00000001
00000001
DLG SPR_j
POS 6 7,6

SPR 15
00000000
00000000
00000000
00111100
01011010
01011010
11111111
11111111
POS 6 6,5

SPR 16
00000000
00000000
00000000
00111100
01011010
01011010
11111111
11111111
POS 6 7,5

SPR 17
00110000
00110000
00110000
00111110
00111110
00100010
00100010
00000000
POS 6 5,6

SPR 18
00001100
00001100
00001100
01111100
01111100
01000100
01000100
00000000
POS 6 8,6

SPR 19
00000000
01000000
10000000
10011100
10000110
11100011
01000010
00000000
DLG SPR_k
POS 7 5,14

SPR A
01111110
01011010
01111110
00011000
00111100
01011010
00011000
00010000
>
01111110
01011010
01111110
00011000
00111100
01011010
00011000
00001000
POS 2 7,14

SPR a
00000000
00000000
00010001
00011111
10110110
01111111
00111111
00101001
>
00000000
00000000
00010001
00011111
00110110
01111111
10111111
00101001
NAME Dog
DLG SPR_0
POS 7 6,8

SPR b
10000001
10000001
11000011
11111111
11111111
10000001
10000001
10000001
NAME Flower
DLG SPR_1
POS 2 8,1

SPR c
00000010
01100010
00100100
00000001
01000000
00000000
00110011
00001011
NAME Mess
DLG SPR_2
POS 2 6,6

SPR d
00000000
00001110
00001110
00001110
00000100
01111000
00100000
01000000
NAME Father
DLG SPR_3
POS 0 9,6

SPR e
11111100
01111000
01111000
01111000
00111000
00111000
00111000
00111000
NAME TV
DLG SPR_5
POS 4 1,7

SPR f
00111000
00111000
00111000
00111000
01111000
01111000
01111000
11111100
DLG SPR_4
POS 4 1,8

SPR g
00000000
00000000
00000000
11100011
11111100
11100011
00000000
00000000
NAME Brother1
DLG SPR_6

SPR h
00000000
10000000
01000111
00111111
11000111
00000000
00000000
00000000
NAME Brother2
DLG SPR_7

SPR i
11111111
11001101
10000001
11111111
11010101
10000001
11111111
00000000
NAME Shelf
DLG SPR_8
POS 0 3,11

SPR j
01111111
01111000
01111000
01111000
01111101
00000011
01011111
00111111
DLG SPR_9
POS 4 6,8

SPR k
01111111
01111111
01111111
11111111
11111111
11111111
00000000
00000000
POS 4 6,9

SPR l
00000000
00000000
11111111
11111111
11111111
01111111
01111111
01111111
POS 4 6,7

SPR m
11111111
11010101
01010101
01111111
01111111
01000011
01000011
01000011
NAME Bed
DLG SPR_c
POS 3 7,6

SPR n
11111111
01010101
01010101
11111111
11111111
11111111
11111111
11111111
POS 3 8,6

SPR o
11111110
01010110
01010100
11111100
11111100
11111100
11111100
11111100
POS 3 9,6

SPR p
01000011
00110111
01000001
01110111
01110111
01101011
01011101
01011101
DLG SPR_b
POS 3 7,7

SPR q
01111111
01111111
00111011
01011101
01100000
00011101
01111011
01111111
DLG SPR_a
POS 3 7,8

SPR r
11111111
11111111
11111111
11111111
11111111
11111111
11111111
11111111
POS 3 8,7

SPR s
11111111
11111111
00001111
00001111
00001111
00001111
11111111
11111111
POS 3 8,8

SPR t
11111100
11111100
11111100
11111100
11111100
11111100
11111100
11111100
POS 3 9,7

SPR u
11111100
11111100
11111100
11111100
11111100
11111100
11111100
11111100
POS 3 9,8

SPR v
01111111
01111111
01111111
01111111
01111111
01111111
01100000
01100000
POS 3 7,9

SPR w
11111100
11111100
11111100
11111100
11111100
11111100
00001100
00001100
POS 3 9,9

SPR x
11111111
11111111
11111111
11111111
11111111
11111111
00000000
00000000
POS 3 8,9

SPR y
00001111
00001010
00001111
00001111
00001111
00001111
00001111
00001111
DLG SPR_e
POS 5 7,6

SPR z
00001111
00001111
00001111
00001111
00001111
00001111
00001000
00000000
DLG SPR_d
POS 5 7,7

SPR 1a
00000000
11111110
10000110
11100110
10010110
10000110
10000110
11111110
POS 6 1,3

SPR 1b
11110110
11011110
11111110
11111110
11111110
11111110
11111110
11111110
POS 6 1,5

SPR 1c
00001110
00000110
00000110
00000110
00000110
00001110
11111110
11111110
POS 6 1,6

SPR 1d
01111000
01111000
01110100
10010000
01110000
00010000
00010000
00101000
DLG SPR_l
POS 6 2,4

SPR 1e
11111111
11001101
10000001
11111111
11010101
10000001
11111111
00000000
DLG SPR_n
POS 3 4,2

SPR 1f
11111111
11001101
10000001
11111111
11010101
10000001
11111111
00000000
DLG SPR_o
POS 3 3,2

SPR 1g
11111111
10100101
10100101
11111111
10010101
10010101
11111111
00000000
DLG SPR_r
POS 5 5,4

SPR 1h
11111111
10100101
10100101
11111111
10010101
10010101
11111111
00000000
DLG SPR_s
POS 5 6,4

SPR 1i
11111111
10100101
10100101
11111111
10010101
10010101
11111111
00000000

SPR 1j
11111111
10100101
10100101
11111111
10010101
10010101
11111111
00000000

SPR 1k
11111111
10100101
10100101
11111111
10010101
10010101
11111111
00000000

SPR 1l
11111111
10100101
10100101
11111111
10010101
10010101
11111111
00000000

SPR 1m
11111110
11111110
11011110
11110110
11011010
01101110
11111110
11111110
POS 6 1,4

SPR 1n
11111110
11111110
11111110
11111110
11111110
11111110
11111110
11111110
POS 6 1,7

SPR 1o
11111110
11111110
11111110
11111110
11111110
11111110
11111110
11111110

SPR 1p
00011000
00111100
01111110
11111111
01111110
01111110
01100110
01100110
DLG SPR_m
POS 7 8,9

SPR 1q
11111111
11001101
10000001
11111111
11010101
10000001
11111111
00000000
DLG SPR_p
POS 3 5,2

SPR 1r
00000000
00111111
11111111
11111111
11111111
11101000
00001000
00001000
NAME Sign
DLG SPR_q
POS 9 13,6

ITM 0
00000000
00000000
00000000
00000000
11111000
10011000
00000000
00000000
NAME tea
DLG ITM_0

ITM 1
00000000
00000000
00000000
00000000
00000000
00000000
00000000
00000000
DLG ITM_1

ITM 2
00000000
00000000
00000000
00000000
00000000
00000000
00000000
00000000
DLG ITM_2

ITM 3
00000000
00000000
00000000
00000000
00000000
00000000
00000000
00000000
DLG ITM_3

ITM 4
00000000
00000000
00000000
00000000
00000000
00000000
00000000
00000000
DLG ITM_4

DLG SPR_0
At least the dog doesn't hate m-{shk}Grrrr{shk}...Or not.

DLG ITM_0
My keys! {wvy}Whooaaa{wvy} I fell down a hole!...Where am I? 

DLG SPR_1
These flowers are shriveled up and on the verge of death...

DLG SPR_2
Stains everywhere, don't know last time they were cleaned

DLG SPR_3
Get out of here Kevin, I don't talk to failures

DLG SPR_4
Its the TV, too bad its broken...

DLG SPR_5
Its the TV, too bad its broken...

DLG SPR_6
Get away from me Kevin!

DLG SPR_7
Nobody likes you!

DLG SPR_8
"""
A shelf filled with trophies...

"""

DLG SPR_a
Nobody likes you!

DLG SPR_b
{shk}Get away from me Kevin!{shk}

DLG SPR_c
{shk}Get away from me Kevin!{shk}

DLG SPR_d
Its my bed, its awfully small...

DLG SPR_e
Its my bed, its awfully small...

DLG SPR_f
Its my bed, its awfully small...

DLG SPR_g
Its my bed, its awfully small...

DLG SPR_h
My bookshelf, no keys here...

DLG SPR_i
Its an uneaten plate of spaghetti, what a shame...

DLG SPR_j
Its an uneaten plate of spaghetti, what a shame...

DLG SPR_k
Two baseball gloves...

DLG SPR_l
Kevin, why can't you do anything good with your life?

DLG SPR_m
Even the dog feels at home...

DLG SPR_n
A shelf filled with trophies...

DLG SPR_o
A shelf filled with trophies...

DLG SPR_p
A shelf filled with trophies...

DLG ITM_1
I need to get going...but where the hell did my keys go?

DLG SPR_9
{shk}GET OUT OF HERE KEVIN, I DONT TALK TO FAILURES{shk}

DLG SPR_q
TRESPASS TRESPASSERS THE INVISIBLE MAZE

DLG ITM_2
"""
{shk}{clr2}YOU HAVE PROVEN YOUR INTELLIGENCE...{clr2}{shk}

"""

DLG ITM_3
{clr2}WELCOME TO SUBTERRA{clr2}

DLG SPR_r
My bookshelf, no keys here...

DLG SPR_s
My bookshelf, no keys here...

DLG ITM_4
Wow. I don't believe it. An entire village underground...

END 0
I almost feel...as if...I belong here.

VAR a
42


