
future for the better

# BITSY VERSION 4.8

! ROOM_FORMAT 1

PAL 0
NAME gobo2
201,129,0
255,163,0
255,255,255

PAL 2
NAME grey
46,46,46
74,74,74
255,255,255

PAL 3
NAME blue
0,56,167
0,42,125
255,255,255

PAL 4
NAME qr
178,148,200
122,89,141
255,255,255

PAL 5
NAME green
255,255,255
255,255,255
255,255,255

PAL 6
NAME aqua
154,217,234
116,163,176
255,255,255

PAL 7
NAME gn
182,245,131
152,204,109
255,255,255

PAL 8
NAME intro
31,31,31
255,255,255
255,255,255

ROOM 2
k,k,k,k,k,k,k,k,k,k,k,k,k,k,k,k
k,k,k,k,k,k,k,k,k,k,k,k,k,k,k,k
k,k,k,k,k,k,k,k,k,k,k,k,k,k,k,k
k,k,k,k,k,k,k,k,k,k,k,k,k,k,k,k
a,a,a,a,a,a,a,a,a,a,a,a,a,0,a,a
a,0,l,0,0,0,0,0,0,0,0,0,0,0,0,a
a,0,0,0,0,0,0,0,0,l,0,0,0,0,0,a
a,0,b,d,d,f,0,0,0,0,0,0,0,0,0,a
a,0,c,e,e,g,0,0,0,0,0,0,0,0,0,a
a,0,i,0,0,h,0,m,0,0,0,0,0,m,0,a
a,0,0,0,0,0,0,0,0,0,0,0,0,0,0,a
a,a,a,a,a,a,a,a,a,0,0,a,a,a,a,a
0,0,0,0,0,0,0,0,0,0,0,0,0,0,0,0
0,0,0,0,0,0,0,0,0,0,0,0,0,0,0,0
0,0,0,0,0,0,0,0,0,0,0,0,0,0,0,0
0,0,0,0,0,0,0,0,0,0,0,0,0,0,0,0
NAME note1
ITM 0 12,8
ITM 1 13,4
ITM 3 10,11
EXT 12,8 4 12,8
END undefined 13,4
PAL 2

ROOM 3
0,0,0,0,0,0,0,0,0,0,0,0,0,0,0,0
0,0,0,0,lg,0,0,0,lh,0,0,0,0,0,0,0
0,0,0,0,0,0,0,0,0,0,0,0,0,0,lg,0
0,lh,0,0,0,0,0,0,0,0,0,r,0,0,0,0
0,0,0,0,0,0,0,0,0,o,0,0,0,0,0,0
0,0,0,0,0,0,0,q,0,0,0,0,0,0,0,0
0,0,0,0,0,n,0,0,0,0,0,0,0,0,0,0
0,0,0,p,0,0,0,0,0,0,0,0,0,0,lh,0
0,0,0,0,0,0,0,0,0,0,0,0,0,0,0,0
0,0,0,0,0,0,0,0,0,0,0,0,0,0,0,0
0,0,0,0,0,0,0,0,0,0,0,0,0,lh,0,0
0,lg,0,0,0,0,b,d,d,f,0,0,0,0,0,0
0,0,0,0,0,0,c,e,e,g,0,0,0,0,0,0
0,0,0,0,0,0,i,0,0,h,0,0,0,lg,0,0
0,0,0,0,lh,0,0,0,0,0,lh,0,0,0,0,0
0,0,0,0,0,0,0,0,0,0,0,0,0,0,0,0
NAME dream
EXT 5,6 2 3,7
EXT 3,7 5 4,13
EXT 7,5 6 2,4
EXT 9,4 8 3,2
EXT 11,3 9 3,14
PAL 8

ROOM 4
0,0,0,0,0,0,0,0,0,0,0,0,0,0,0,0
0,0,0,0,0,0,0,0,0,0,0,0,0,0,0,0
0,0,0,0,0,0,0,0,0,0,0,0,0,0,0,0
0,0,0,0,0,0,0,0,0,0,0,0,0,0,0,0
a,a,a,a,a,a,a,a,a,a,a,a,a,0,a,a
a,0,l,0,0,0,0,0,0,0,0,0,0,0,0,a
a,0,0,0,0,0,0,0,0,l,0,0,0,0,0,a
a,0,b,d,d,f,0,0,0,0,0,0,0,0,0,a
a,0,c,e,e,g,0,0,0,0,0,0,0,0,0,a
a,0,i,0,0,h,0,m,0,0,0,0,0,m,0,a
a,0,0,0,0,0,0,0,0,0,0,0,0,0,0,a
a,a,a,a,a,a,a,a,a,0,0,a,a,a,a,a
0,0,0,0,0,0,0,0,0,0,0,0,0,0,0,0
0,0,0,0,0,0,0,0,0,0,0,0,0,0,0,0
0,0,0,0,0,0,0,0,0,0,0,0,0,0,0,0
0,0,0,0,0,0,0,0,0,0,0,0,0,0,0,0
NAME friend2
ITM 2 9,11
ITM 3 10,11
END undefined 13,4
END 0 9,11
END 0 10,11
PAL 0

ROOM 5
0,0,0,0,0,a,0,0,0,0,0,0,0,0,0,0
0,s,t,u,v,a,0,0,0,0,0,0,0,0,0,0
0,16,z,w,x,a,0,0,0,0,0,0,0,0,0,0
0,14,12,y,10,a,0,18,0,0,17,0,0,19,0,0
0,15,13,15,0,a,0,0,0,0,0,0,0,0,0,0
a,a,a,a,a,a,0,0,1v,0,0,1b,0,0,0,0
0,0,0,0,0,0,0,0,0,0,1d,1a,1e,0,0,0
0,0,0,0,0,0,0,0,0,18,0,1c,0,17,0,0
0,0,0,18,0,0,0,0,0,0,0,0,0,0,0,0
0,0,0,0,0,0,0,0,0,0,0,0,0,0,0,0
0,0,0,0,0,0,0,17,0,0,0,0,0,0,0,0
0,0,1v,0,0,0,0,0,0,0,0,0,0,1v,0,0
0,0,0,0,0,0,0,0,0,0,0,0,0,0,0,0
0,0,0,0,0,0,0,0,19,0,0,0,17,0,0,0
0,0,17,0,0,0,0,0,0,0,0,0,0,0,0,0
0,0,0,0,0,0,0,0,0,0,0,0,0,0,0,0
NAME qr
EXT 3,5 0 0,0
END undefinee 11,6
PAL 4

ROOM 6
a,a,a,a,a,a,a,a,a,a,a,a,a,a,a,a
a,0,0,0,0,0,0,0,0,0,0,0,0,0,0,a
a,0,0,0,0,0,a,a,0,0,0,0,0,0,0,a
a,0,0,0,0,0,a,a,0,0,0,0,0,0,0,a
a,0,0,0,0,0,a,a,0,1h,1g,1g,0,0,0,a
a,a,a,a,a,a,a,a,a,a,a,a,a,0,0,a
a,0,0,0,0,0,a,a,0,0,0,a,a,0,0,a
a,0,0,0,0,0,a,a,0,0,0,a,a,0,0,a
a,0,0,0,0,0,a,a,0,1i,0,a,a,0,0,a
a,0,0,0,0,0,0,0,1h,0,0,0,0,0,0,a
a,0,0,a,a,a,a,a,a,a,a,a,a,a,a,a
a,0,0,a,a,0,1o,0,0,0,0,0,0,0,0,a
a,0,0,a,a,1n,0,1l,0,0,a,a,0,0,0,a
a,0,0,a,a,1m,1j,1k,0,0,a,a,0,1p,0,a
a,0,0,0,0,0,1h,1g,0,0,a,a,0,0,0,a
a,a,a,a,a,a,a,a,a,a,a,a,a,a,a,a
NAME k1
EXT 13,13 7 2,4
PAL 0

ROOM 7
a,a,a,a,a,a,a,a,a,a,a,a,a,a,a,a
a,0,0,1o,0,0,0,0,0,0,0,0,0,0,0,a
a,0,1n,0,1l,0,0,0,0,0,0,0,0,0,0,a
a,0,1m,1j,1k,0,0,0,0,0,0,0,0,0,0,a
a,0,0,1h,1g,1q,1q,1q,1q,0,0,0,0,0,0,a
a,a,a,a,a,a,a,a,a,a,a,a,a,0,0,a
a,0,0,0,0,0,0,0,0,0,0,a,a,0,0,a
a,0,0,0,0,0,0,0,0,0,0,a,a,0,0,a
a,0,0,0,0,0,0,0,0,0,0,a,a,0,0,a
a,0,0,0,1r,1r,1r,0,0,0,0,0,0,0,0,a
a,0,0,a,a,a,a,a,a,a,a,a,a,a,a,a
a,0,0,a,a,0,0,0,0,0,0,0,0,0,0,a
a,0,0,a,a,0,0,0,0,0,a,a,0,0,0,a
a,0,0,a,a,0,0,0,0,0,a,a,0,1p,0,a
a,0,0,0,0,0,0,1s,0,0,a,a,0,0,0,a
a,a,a,a,a,a,a,a,a,a,a,a,a,a,a,a
NAME k2
END undefinef 13,13
PAL 0

ROOM 8
a,a,a,a,a,a,a,a,a,a,a,a,a,a,a,a
a,0,0,0,0,0,0,0,0,0,0,0,0,0,0,a
a,0,b,d,d,f,0,0,0,0,0,0,0,0,0,a
a,0,c,e,e,g,0,0,0,0,0,0,l,0,0,a
a,0,i,0,0,h,0,0,0,0,0,0,0,0,0,a
a,0,0,0,0,0,0,0,0,0,0,0,0,0,0,a
a,0,0,0,a,a,a,a,a,a,a,a,a,a,a,a
a,0,0,l,0,0,0,0,0,0,0,0,0,0,0,a
a,0,0,0,0,0,0,0,0,m,0,0,0,0,0,a
a,0,0,0,0,0,0,0,0,0,0,0,0,0,0,a
a,0,0,0,0,0,0,0,0,0,0,0,0,0,0,a
a,a,a,a,a,a,a,a,a,0,0,0,0,0,0,a
a,0,0,0,m,0,0,0,0,0,0,0,0,0,0,a
a,0,0,0,0,0,0,0,0,0,0,0,l,0,0,a
a,0,0,0,0,0,0,0,0,0,0,0,0,0,0,a
a,a,a,a,a,a,a,1p,1p,a,a,a,a,a,a,a
NAME b
EXT 8,15 c 3,2
EXT 7,15 c 3,2
PAL 3

ROOM 9
a,a,a,a,a,a,a,a,a,a,a,a,a,a,a,a
a,a,a,a,a,a,a,a,a,a,a,a,a,a,i0,i1
i2,hb,a,a,a,26,i3,a,i4,a,a,a,28,i5,i6,i7
i8,i9,ia,ib,a,ic,id,a,ie,if,a,a,ig,ih,0,0
0,8j,ii,ij,a,ik,il,im,in,io,a,a,ip,0,0,0
iq,ir,is,it,a,iu,iv,iw,ix,iy,a,a,iz,0,0,0
j0,j1,j2,j3,a,j4,j5,j6,j7,j8,59,j9,ja,jb,jc,0
0,jd,je,jf,a,a,jg,jh,ji,jj,jk,jl,jm,jn,jo,0
jp,jq,jr,a,a,js,jt,ju,jv,jw,jx,jy,jp,jz,k0,k1
k2,k3,k4,k5,k6,k7,k8,k9,ka,kb,kc,kd,ke,kf,kg,kh
a,a,ki,kj,kk,kl,km,8j,kn,kl,ko,kk,91,kp,kq,91
kr,ks,kt,ku,kv,0,0,0,kw,0,0,0,kx,ky,0,0
0,kk,kz,l0,l1,l2,l3,0,0,0,l4,l5,l6,l7,l8,0
l9,la,0,0,0,0,0,0,0,0,0,0,lb,kk,0,0
v,lc,0,0,0,0,ld,0,0,0,0,0,0,0,0,0
0,0,0,0,0,0,le,lf,0,0,0,0,0,0,0,0
NAME photograph
ITM 4 15,7
ITM 5 1,5
END undefineh 15,7
END undefinei 1,5
END undefinej 6,4
PAL 0

ROOM b
a,a,a,a,a,a,a,a,a,a,a,a,a,a,a,a
a,0,0,0,0,0,0,0,0,0,0,0,0,0,0,a
a,0,b,d,d,f,0,0,0,0,0,0,0,0,0,a
a,0,c,e,e,g,0,0,0,0,0,0,l,0,0,a
a,0,i,0,0,h,0,0,0,0,0,0,0,0,0,a
a,0,0,0,0,0,0,0,0,0,0,0,0,0,0,a
a,0,0,0,0,0,0,0,0,0,0,0,0,0,0,a
a,0,0,l,0,0,0,0,0,0,0,0,0,0,0,a
a,0,0,0,0,0,0,0,0,m,0,0,0,0,0,a
a,0,0,0,0,0,0,0,0,0,0,0,0,0,0,a
a,0,0,0,0,0,0,0,0,0,0,0,1u,0,0,a
a,0,0,0,0,0,0,0,0,0,0,0,1t,0,0,a
a,0,0,0,m,0,0,0,0,0,0,0,0,0,0,a
a,0,0,0,0,0,0,0,0,0,0,0,l,0,0,a
a,0,0,0,0,0,0,0,0,0,0,0,0,0,0,a
a,a,a,a,a,a,a,1p,1p,a,a,a,a,a,a,a
NAME a
END undefineg 7,15
END undefineg 8,15
PAL 6

ROOM c
a,a,a,a,a,a,a,a,a,a,a,a,a,a,a,a
a,0,0,0,0,0,0,0,0,0,0,0,0,0,0,a
a,0,0,0,0,0,0,0,0,0,0,0,0,0,0,a
a,0,0,0,0,0,0,0,0,0,0,0,l,0,0,a
a,0,0,0,0,0,0,0,0,0,0,0,0,0,0,a
a,0,0,0,0,0,0,0,0,0,0,0,0,0,0,a
a,0,0,0,a,a,a,a,a,a,a,a,a,a,a,a
a,0,0,l,0,0,0,0,0,0,0,0,0,0,0,a
a,0,0,0,0,0,0,0,0,m,0,0,0,0,0,a
a,0,0,0,0,0,0,0,0,0,0,0,0,0,0,a
a,0,0,0,0,0,0,0,0,0,0,0,1u,0,0,a
a,a,a,a,a,a,a,a,a,0,0,0,1t,0,0,a
a,0,0,0,m,0,0,0,0,0,0,0,0,0,0,a
a,0,0,0,0,0,0,0,0,0,0,0,l,0,0,a
a,0,0,0,0,0,0,0,0,0,0,0,0,0,0,a
a,a,a,a,a,a,a,1p,1p,a,a,a,a,a,a,a
NAME a
EXT 7,15 b 3,2
EXT 8,15 b 3,2
PAL 7

ROOM d
a,a,a,a,a,a,a,a,a,a,a,a,a,a,a,a
a,0,0,0,0,0,0,0,a,0,0,0,0,0,0,a
a,0,b,d,d,f,0,0,a,0,0,0,li,lj,0,a
a,0,c,e,e,g,0,0,a,0,0,0,0,0,0,a
a,0,h,0,0,i,l,0,0,0,0,m,0,0,0,a
a,0,0,0,0,0,0,0,0,0,0,0,0,0,0,a
a,a,a,a,a,a,a,a,a,a,a,a,a,0,0,a
a,0,0,0,0,0,0,0,a,0,0,0,0,0,0,a
a,0,0,l,0,0,0,0,a,0,1u,0,0,l,0,a
a,0,0,0,0,0,0,0,a,0,1t,0,0,0,0,a
a,0,0,0,0,0,0,0,a,0,0,0,0,0,0,a
a,0,0,a,a,a,0,0,a,0,0,0,0,0,0,a
a,0,0,0,0,0,0,0,a,0,0,0,0,0,0,a
a,0,0,0,0,m,0,0,a,0,0,m,0,0,0,a
a,0,0,0,0,0,0,0,0,0,0,0,0,0,0,a
a,a,a,a,a,a,a,a,a,a,a,a,a,a,a,a
EXT 2,2 3 6,11
EXT 2,3 3 6,12
EXT 3,2 3 7,11
EXT 3,3 3 7,12
EXT 4,2 3 8,11
EXT 4,3 3 8,12
EXT 5,2 3 9,11
EXT 5,3 3 9,12
PAL 8

TIL 1
00101100
11111111
11111111
11111111
11111111
11111111
11111111
11111111

TIL 2
11111001
11111111
11111111
11111111
11111111
11111111
11111111
11111111

TIL 3
11111100
11111111
11111111
11111111
11111111
11111111
11111111
11111111

TIL 4
10111101
11111111
11111111
11111111
11111111
11111111
11111111
11111111

TIL 5
01011001
11111111
11111111
11111111
11111111
11111111
11111111
11111111

TIL 6
11110111
11111111
11111111
11111111
11111111
11111111
11111111
11111111

TIL 7
01101011
11111111
11111111
11111111
11111111
11111111
11111111
11111111

TIL 8
00111111
11111111
11111111
11111111
11111111
11111111
11111111
11111111

TIL 9
10110010
11111111
11111111
11111111
11111111
11111111
11111111
11111111

TIL 10
10000000
10000000
10000000
00000000
10000000
00000000
00000000
00000000
NAME bre

TIL 11
10111111
00000000
00000000
00000000
00000000
00000000
00000000
00000000
NAME bttmr

TIL 12
01101100
11100111
00100010
00010011
00100010
11000000
11100111
10011100
NAME btmm

TIL 13
10011001
00000000
00000000
00000000
00000000
00000000
00000000
00000000
NAME btmem

TIL 14
00111011
00000000
11111110
10000010
10111010
10111010
10111010
10000010

TIL 15
11111110
00000000
00000000
00000000
00000000
00000000
00000000
00000000

TIL 16
11110010
01010100
01010010
01011100
10001010
01101001
01000110
10100100

TIL 17
00000000
00000000
00010000
00010000
01010000
01010100
01010100
00000000

TIL 18
00000000
00000000
00000000
00101000
01010100
00010000
00010000
00010000

TIL 19
00000000
00000000
00001010
00010101
00000100
01010010
10101010
00100010

TIL 20
10111111
11111111
11111111
11111111
11111111
11111111
11111111
11111111

TIL 21
11111111
11111111
11111111
11111111
11111111
11111111
11111111
11110001

TIL 22
11111111
11111111
11111111
11111111
11111111
11111111
00000000
11111111

TIL 23
11111111
11111111
11111111
11111111
11111111
11111111
11111111
00001111

TIL 24
11111111
11111111
11111111
11111111
11110011
10000011
00000000
00000000

TIL 25
11111111
11111111
11111111
01111111
11111111
11111111
01111111
00000001

TIL 26
11111111
11111111
11111111
11111111
11111111
11111111
11110111
11111111

TIL 27
11111111
11111111
11111111
11111111
11111111
11111111
10111111
00011111

TIL 28
11111111
11111111
11111111
11111111
11111111
11111111
11111111
11111110

TIL 29
11111111
11111110
11111001
11100111
11001110
10011111
00111111
01111110

TIL 30
00000000
00000000
00000000
00000000
00000000
00000000
00000000
00011111

TIL 31
00000000
00000000
00000000
00000000
00000000
00000000
00000000
11100000

TIL 32
00000011
00000011
00000000
00000000
00000011
00000000
00000000
00000001

TIL 33
10111111
00001111
00001101
00011101
00110000
01110000
11000000
10000000

TIL 34
11100111
11100111
11111111
11011111
11111111
11111111
11111111
11111111

TIL 35
11100000
11100000
11100000
11110111
11111111
11111100
11111110
11111110

TIL 36
00000111
00000110
00001110
11101110
11100110
00000111
00000111
00000111

TIL 37
11111111
00011111
01111111
01111101
11011111
10011111
00011111
00011111

TIL 38
11111111
11111111
11111111
11011111
01011111
11111111
11011111
10011111

TIL 39
11111111
11111111
01111111
11111111
01111111
11100110
11101110
11001110

TIL 40
00000001
00000011
11000011
11000011
00000011
00000011
00000011
00000011

TIL 41
11111100
10001100
00011100
00111100
01110100
11100100
11000100
10000100

TIL 42
01111110
11000011
11000011
11000011
01111111
00000011
00000011
11000011

TIL 43
01111111
11111111
01111111
11111111
11111111
11111111
11111111
11111111

TIL 44
11101001
10011001
00000000
00000000
10000000
10000000
10000000
11000000

TIL 45
10000001
10000001
00000000
00000000
00000000
00000000
00000000
00000000

TIL 46
11111000
11110000
00000000
00000000
00000000
00000000
00000000
00000000

TIL 47
11111100
01111100
00000000
00000000
00000000
00000000
00000000
00000000

TIL 48
00001000
00001000
00000000
00000000
00000001
00000010
00000000
00000000

TIL 49
00011111
00001111
00000000
00000000
00000000
00000000
01000000
01000000

TIL 50
11000000
11000000
11000000
11000000
11000000
01000000
00000000
00000000

TIL 51
00000010
00000110
00000100
00000000
00000000
00000000
00000000
00000000

TIL 52
00000000
00000010
00000110
00000110
00000110
00000000
00000000
00000000

TIL 53
00000000
00000000
00000001
00000000
00000000
00000000
00000000
00000000

TIL 54
11111111
11111111
11111111
11111111
11111111
11111100
11100011
10011111

TIL 55
11111111
11111111
11111111
11111111
11000000
01111111
11111111
11111111

TIL 56
11111111
11111111
11111111
11111111
00011111
11100001
11111100
11111110

TIL 57
11111111
11111011
11001111
00011111
00000011
00000000
00000000
00000000

TIL 58
11111111
11111111
11111111
11111111
11111111
00001111
00000111
00011111

TIL 59
11111111
11111111
11111111
11111111
11111111
11111111
11111111
11111101

TIL 60
00000111
00000111
00000111
00000111
10000111
10001111
11111111
11111111

TIL 61
11110010
11110010
11111001
11111001
11111101
11111100
11111111
11111111

TIL 62
00110100
00110000
00100000
00000000
00000000
10000000
10000000
10000000

TIL 63
00011111
00011101
00111100
00111111
00111001
00000000
00011111
01100111

TIL 64
11111111
11111111
11111011
11110111
11110111
11110111
11111111
11111111

TIL 65
11100000
11100000
11000000
11000000
11000000
11000000
11000011
10000011

TIL 66
00000000
00000000
00000000
00000000
00000000
00000000
00000111
00000111

TIL 67
00000000
00000000
00000000
00000000
00000000
00000000
11111000
11111000

TIL 68
00001100
00001000
00000000
00001000
00001100
00000001
00000111
00000110

TIL 69
01111111
00111111
00110111
01100011
11000011
10000011
00000011
00000011

TIL 70
00111111
00110000
00110000
00111111
00011100
00000000
00000000
00010000

TIL 71
11100111
00001110
00001100
10001100
11001110
01000111
01001110
01001100

TIL 72
11110000
00111000
00011000
00111000
11110000
11110000
00111000
00011000

TIL 73
00000000
00000000
00000000
01100000
00100000
00000000
00000000
00000000

TIL 74
01111110
11000011
11000011
11000111
11001111
11011001
11110001
11100001

TIL 75
00011111
00111000
00110000
00110000
00111010
00001111
00000000
00100000

TIL 76
10000000
11000000
11000000
11000000
11000000
11000000
11000000
11000000

TIL 77
11101001
11111111
11111110
11111100
11111110
11111110
11111110
11111110

TIL 78
10000110
11100111
00000011
00000000
00000000
00000000
00000000
00000000

TIL 79
00000110
00000111
00000011
00000000
00000000
00000000
00000000
00000000

TIL 80
00000000
10000000
10000000
11000000
00000000
01000000
11000000
10000000

TIL 81
11100000
11110000
11110000
11100000
00000011
00000011
00010000
00110000

TIL 82
00000110
00111111
11111111
11111111
11111111
11111111
10011111
00000001

TIL 83
01110000
00110000
00010000
00110000
00110000
00000000
00000000
00000000

TIL 84
00000000
00000000
00000000
00000100
00000100
00001100
00001100
00000100

TIL 85
00000000
00000010
00000000
00000000
00000000
00000000
00000000
00000000

TIL 86
11111111
11111111
11111111
11111111
11111011
11111111
11111111
11111101

TIL 87
11111111
11111110
11111000
11110011
11001111
10011100
00111111
01111111

TIL 88
10000111
00111111
11011100
11101111
00001000
11111111
11111000
10000000

TIL 89
11111111
11111111
11111111
11110000
00000110
11000000
01110000
00001000

TIL 90
11111111
11111111
11111111
11111111
11111111
11111110
11111110
11111110

TIL 91
10000000
00000000
00000000
00000000
00000000
00000000
00000000
00000000

TIL 92
11100000
11110000
11110000
11111100
11111001
11111111
00001111
00001110

TIL 93
00000000
00000011
00000111
11111111
11111111
11111111
11111111
00011111

TIL 94
11100000
11100000
11100000
11100000
11100001
11111111
11111111
11100011

TIL 95
11001000
11101100
11100100
11110110
11110110
11111110
11111111
11111111

TIL 96
00111100
01111111
01111011
00000000
00011110
11111111
00000111
00000111

TIL 97
11111011
11111011
11111011
11111011
01111111
11111111
11111111
00011111

TIL 98
11111100
11111100
11111100
11111100
11111000
11111000
11111000
11111000

TIL 99
00000000
00000000
00000000
00000000
00000000
00011000
00111000
01111000

TIL a
11111111
11111111
11111111
11111111
11111111
11111111
11111111
11111111
WAL true

TIL b
00000000
00111110
01100001
01010001
01100001
01010001
01100001
01010001

TIL c
01100001
01010001
01100001
01010001
01100001
01010001
01100001
00111110

TIL d
00000000
11111111
11111111
11111111
11111111
11111111
11111111
11111111

TIL e
11111111
11111111
11111111
11111111
11111111
11111111
11111111
11111111

TIL f
00000000
11111100
11111110
11111110
11111110
11111110
11111110
11111110

TIL g
11111110
11111110
11111110
11111110
11111110
11111110
11111110
11111100

TIL h
00110000
00110000
00100000
00000000
00000000
00000000
00000000
00000000

TIL i
00001100
00001100
00000100
00000000
00000000
00000000
00000000
00000000

TIL j
10100000
10100000
10100000
10100000
10100000
10100000
10100000
10100000

TIL k
00100000
00101000
00001000
00001000
01000001
01000001
00000000
00000000
>
00000000
00000000
00100000
00100100
00000100
00010000
00010001
00000001

TIL l
00000000
00111111
00100001
00111111
11111000
10001000
11111000
00000000

TIL m
00000000
00000000
11111100
10000100
11111100
00111110
00100010
00111110

TIL n
01111100
01001010
01111110
01000010
01111110
01010010
01111110
00000000
>
00000000
01111100
01001010
01111110
01000010
01111110
01010010
01111110

TIL o
00000000
00111100
01111110
01100110
00001100
00011000
00000000
00011000
>
00111100
01111110
01100110
00001100
00011000
00000000
00011000
00000000

TIL p
00000000
00111100
00100010
00100010
00100010
01100110
01100110
00000000
>
00000000
00000000
00111100
00100010
00100010
00100010
01100110
01100110

TIL q
00000000
01100110
01101110
01111100
01111000
01111100
01101110
01100110
>
01100110
01101110
01111100
01111000
01111100
01101110
01100110
00000000

TIL r
01111110
01000010
01000010
01000010
01111110
01000010
01111110
00000000
>
00000000
01111110
01000010
01000010
01000010
01111110
01000010
01111110

TIL s
11111110
10000010
10111010
10111010
10111010
10000010
11111110
00000000
NAME tl

TIL t
10101010
01111010
11100111
11101111
10011001
00110100
10101010
00101001
NAME tm

TIL u
10111111
10100000
00101110
10101110
10101110
00100000
10111111
10000000
NAME tr

TIL v
10000000
10000000
10000000
10000000
10000000
10000000
10000000
00000000
NAME tre

TIL w
11001110
10000001
10101000
10100110
01111011
11111000
00001011
11011000
NAME mr

TIL x
10000000
00000000
00000000
00000000
10000000
10000000
00000000
10000000
NAME mre

TIL y
11111111
10001010
10101011
10001000
11111101
11101111
11101011
01101010
NAME br

TIL z
10111010
10101101
11111100
11100111
01101011
11011001
10110100
00110001
NAME m

TIL 1a
00000000
01111110
10000001
11111101
11111101
11111101
11111101
01111110

TIL 1b
00000000
00000000
00000000
00000000
00000000
00000000
00010001
00110000

TIL 1c
00000000
00010000
00000100
00000000
00000000
00000000
00000000
00000000

TIL 1d
00000000
00000000
00000000
00000010
00000000
00000100
00000000
00000000

TIL 1e
00000000
00000000
00100000
00000000
00000000
00000000
01000000
00000000

TIL 1g
00000000
00010000
00111000
00010000
01000000
00111100
00111000
00101000
>
00000000
00010000
00111000
00010000
00000000
01111100
00111000
00101000

TIL 1h
00000000
00001000
00011100
00001000
00000000
00111110
00011100
00010100
>
00001000
00011100
00001000
00000000
00000000
00111110
00011100
00010100

TIL 1i
00000000
00000000
00000000
01010000
01010000
01010000
00000000
01010000

TIL 1j
00000000
00000000
00000000
10000001
01100010
00010100
00001000
00000000

TIL 1k
10000000
10000000
10000000
00000000
00000000
00000000
00000000
00000000

TIL 1l
10000000
10000000
10000000
10000000
10000000
10000000
10000000
10000000

TIL 1m
00000001
00000001
00000001
00000000
00000000
00000000
00000000
00000000

TIL 1n
00000001
00000001
00000001
00000001
00000001
00000001
00000001
00000001

TIL 1o
00000000
00000000
00000000
00000000
00000000
01111110
10000001
10000001

TIL 1p
11111111
10000001
10111101
10111101
10111101
10111101
10000001
11111111

TIL 1q
00000000
00111000
00111000
00111000
00000000
01111100
00111000
00101000

TIL 1r
00000000
00111000
00111000
00111000
00000000
01111100
00111000
00101000
>
00000000
00111000
00111000
00111000
00000000
01111100
00111000
01001000

TIL 1s
11111111
01111110
00111100
00011000
00011000
00011000
00011000
01111110

TIL 1t
01111110
01000010
01000010
01000010
01000010
01000010
01000010
00111100

TIL 1u
00000000
00100000
00010100
00011001
10011010
01011010
01011110
01111110

TIL 1v
00000000
00000000
00111000
00111100
01111110
01111110
00000000
00000000

TIL 1f
11101101
11111111
11111111
11111111
11111111
11111111
11111111
11111111

TIL 1w
01011111
11111111
11111111
11111111
11111111
11111111
11111111
11111111

TIL 1x
10110110
11111111
11111111
11111111
11111111
11111111
11111111
11111111

TIL 1y
10101101
11111111
11111111
11111111
11111111
11111111
11111111
11111111

TIL 1z
10101100
11111111
11111111
11111111
11111111
11111111
11111111
11111111

TIL 2a
10001111
01011110
10111011
10010000
11111111
11111001
00000000
00000000

TIL 2b
11111111
00111111
11111111
00000010
00000000
11000000
00100000
00000000

TIL 2c
11100011
11110110
11100000
00000000
00000000
00000000
00000000
00000000

TIL 2d
00000000
00000111
00101001
00101111
00000111
00000001
00000000
00000000

TIL 2e
11111110
11111111
11111111
11111111
11111111
11111111
11111111
00010011

TIL 2f
11111111
01111111
11111111
11111111
11111111
11111111
11011111
10001011

TIL 2g
11111110
11100100
11100000
11000000
11000000
11000000
11000000
11000000

TIL 2h
00001111
00011111
00111111
00111111
00111111
01111111
01111111
01111111

TIL 2i
11111111
11111111
11111111
11111111
11111111
11111111
11111111
10000111

TIL 2j
10011111
10011111
10011111
10111111
00011011
00001011
10000011
10000011

TIL 2k
11111110
11111101
11111101
11111011
11111011
11110010
11110100
11111100

TIL 2l
11110000
01100000
11000000
10000000
00000000
00000000
00000000
00000000

TIL 2m
00001011
00000101
00000001
00000101
00000111
00000101
00000101
00000001

TIL 2n
11000000
11000000
11100000
11100000
11100001
11110000
11110000
11110000

TIL 2o
10000011
00000001
00000001
00000001
00000011
00000011
00000011
00000011

TIL 2p
00000001
00000010
10000001
10000011
11110011
11111111
11111111
11111111

TIL 2q
11000011
11100011
11101001
11111011
11110011
11110011
11110111
11110111

TIL 2r
11111000
11110000
11110000
11110000
11100000
11100000
11100000
11000000

TIL 2s
00000000
00010000
00111000
00111000
00111100
00111110
01111110
00011111

TIL 2t
00000000
00000000
00000000
00000000
00000011
00001111
11111111
11111111

TIL 2u
00000001
00000001
01000001
11000001
11000001
11100011
11100011
11111111

TIL 2v
11111000
11111001
11111001
11111101
11111100
11111110
11111110
11111111

TIL 2w
00001000
00011000
00110000
00000000
10000000
10000000
10000000
11000000

TIL 2x
01111111
00011111
00011101
00011110
00111111
00000001
00001110
01111111

TIL 2y
11111111
11111111
11110111
11110111
11110111
11110111
01110111
11111111

TIL 2z
11000000
11000000
10000000
10000000
10000000
10000000
00000000
00000100

TIL 3a
00001100
00011100
00000100
00000100
00000100
00000100
00000100
00000100

TIL 3b
00011000
00011000
00011111
00000000
00000000
00000000
00011000
00011000

TIL 3c
00100000
00000000
11000000
01100000
01100000
00100000
00100000
01100000

TIL 3d
00000011
00000011
00000000
00000000
00000000
00000000
00000000
00000100

TIL 3e
11111100
11111100
00000000
00000000
00000000
00000001
00000011
00001111

TIL 3f
11111111
01111111
01111111
11111111
11111111
11111111
11111111
11111111

TIL 3g
11111111
11111111
11111111
11111111
11111111
11111111
11111111
11110011

TIL 3h
11111100
11111000
11110000
11100000
11000000
11011000
11111101
11111110

TIL 3i
00000011
00000001
00000000
00000000
00000000
00000000
11100000
00010000

TIL 3j
11111111
11111111
00111111
00111111
00011100
00110000
01100000
00111111

TIL 3k
11111011
10111011
10111111
00000010
00000000
00000000
00000000
11000111

TIL 3l
10011110
10011110
00111110
01111110
01110110
01100000
01000000
11000000

TIL 3m
00011111
00001111
00000000
00000000
00000000
00000000
00000000
00000000

TIL 3n
00001111
00000111
00000000
00000000
00000000
00000000
00000000
11111000

TIL 3o
11000000
11000000
00000000
00000000
00000000
00000000
00000000
00111100

TIL 3p
00000000
00000000
00000000
00000000
00000000
00000011
00001111
00111111

TIL 3q
00001100
00011100
00001100
00000100
00111100
11111111
11111111
11111111

TIL 3r
00001111
00011011
00010111
00010000
10011111
11011000
11011010
11111010

TIL 3s
11111111
11111111
11111111
11111111
11111111
11101111
01100111
01100011

TIL 3t
11111111
11111111
11111010
11101010
11000010
10000011
10000011
00000011

TIL 3u
11111001
00011101
00011101
00111101
01101101
11001101
10001101
00001101

TIL 3v
11111111
11100110
11111111
11111110
10111110
11111111
11000111
11111110

TIL 3w
11001000
00100100
10001100
00001100
00010010
00000100
11000000
00000000

TIL 3x
00111111
00110000
00111111
00111111
00000000
00000000
00000000
00110000

TIL 3y
11001111
00011100
00011000
10011100
11001111
11011100
11011000
11011000

TIL 3z
11100000
01110000
00110000
01110000
11100000
01110000
00110000
00110000

TIL 4a
10001111
00000111
00000000
00000000
00000000
00000000
00000000
00000000

TIL 4b
11100000
11000000
00000000
00000000
00000000
00000000
00000000
00000000

TIL 4c
11000001
11000000
00000000
00000000
00000000
00000000
00000000
00000000

TIL 4d
11111100
11111000
00000000
00000000
00000000
00000000
00000000
00000000

TIL 4e
01111110
00111100
00000000
00000000
00000000
00000000
00000000
00000000

TIL 4f
11111111
11111000
11000000
00000000
10000000
10000000
11000000
11000000

TIL 4g
11111111
11111111
00001111
00000001
00000000
00000000
00000000
00000000

TIL 4h
11111111
11111111
11111111
11111111
11111111
01111111
00111110
00011100

TIL 4i
11100000
11110000
11110000
11110000
11100100
00000100
00100100
01111100

TIL 4j
00000000
00000000
00000000
00000000
00111000
00111100
00111100
00011110

TIL 4k
01000000
01000000
00000000
00000000
00000000
00000000
00000000
00000000

TIL 4l
00000000
00000000
00000000
00000000
00000000
00000000
00000001
00001111

TIL 4m
00000000
00000000
00000000
00000000
00000011
00011111
11111111
11111000

TIL 4n
00000000
00000000
00000000
00000000
11111000
11111100
00011100
00001110

TIL 4o
11100000
11100000
11110000
11110000
11111000
11111000
11111100
11111100

TIL 4p
00000000
00000000
00000000
00000000
00000000
00000000
00000000
00000111

TIL 4q
00001000
00000001
00000001
00000000
00000000
00000000
00000000
11000000

TIL 4r
11111000
10111000
00110000
00000000
00000000
00000000
00000000
00000000

TIL 4s
00011111
00000110
00000000
00000000
00000000
00000000
00000000
00000000

TIL 4t
00000000
00000000
00000000
00000110
00000000
00000000
00000000
00000000

TIL 4u
00000000
00000000
11000000
11100000
00000000
00000000
00000000
00000000

TIL 4v
00111110
11010000
10000000
00000000
00000000
00000000
00000000
00000000

TIL 4w
10000000
00000001
01111111
11111000
00000000
00000000
00000000
01000000

TIL 4x
00111110
11111111
11000000
00000001
00000011
00000110
00000000
00000000

TIL 4y
11111110
11111100
00000000
00000000
00000010
00000110
00001110
00000110

TIL 4z
00011111
00011111
01111111
11111111
00000011
00000000
00000000
00000000

TIL 5a
11111111
11111111
11111111
11111111
11111111
11111110
11111100
11111100

TIL 5b
11111111
11111111
11111111
11111111
01111111
00111111
00011111
00001111

TIL 5c
11111111
11111111
11111111
11111111
11111111
11110111
11111111
10011111

TIL 5d
11111110
11111000
11110011
11110111
11001111
10011111
00111110
01011000

TIL 5e
01101110
11100010
10001111
11111111
11110000
10000000
00000000
00000000

TIL 5f
01111111
00000000
10000100
11110000
00001000
00000000
00000000
00000000

TIL 5g
11111100
11001000
00000000
00011000
00000000
00000000
00000000
00000000

TIL 5h
00000000
00000001
00000000
00000000
00000000
00000000
00000000
00000000

TIL 5i
11011111
10110111
11111111
00011111
00000111
00000001
00000000
00000000

TIL 5j
11111110
11111111
11111111
11111111
11111111
11111111
01001110
00000000

TIL 5k
11111111
11111111
10111111
11111111
01111111
00111111
00001111
00000111

TIL 5l
11001000
10000000
10000000
10000000
10000000
10000000
10000000
10000000

TIL 5m
00111111
01111111
01111111
01111111
01111111
11111111
11111111
00000010

TIL 5n
11111111
11111111
11111111
11111111
11111111
11111111
00000111
00000001

TIL 5o
10011111
10011111
00111011
00001011
00000001
10000011
11000011
11000011

TIL 5p
11111110
11111110
11111101
11111101
11111101
11111111
11111010
11111100

TIL 5q
11110000
11100000
11000000
10000000
00000000
00000000
00000000
00000000

TIL 5r
00010111
00000111
00000111
00011111
00000111
00010111
00000111
00000111

TIL 5s
10000000
11000000
11000000
11000010
11100010
11100000
11100000
11100010

TIL 5t
00000001
00000011
00000011
00000011
00000011
00000011
00000111
00001011

TIL 5u
00000010
00000001
10000011
11100111
11111111
11111111
11111111
11111111

TIL 5v
11101011
11111000
11111010
11111011
11110011
11110011
11111111
11111111

TIL 5w
11111100
11111000
11111000
11111000
11110000
11110000
11110000
11100000

TIL 5x
00000000
00000000
00000001
00000001
00000001
00000001
00000001
00000000

TIL 5y
10000000
11000000
11000000
11100000
11110000
11111111
11111111
01111111

TIL 5z
00000000
00000001
00000011
00001111
00011111
11111111
11111111
11111111

TIL 6a
10011111
10011111
11111111
01111111
11111111
11111101
11111110
11111110

TIL 6b
11000000
11000000
11100000
11111111
11111111
11111100
11111100
11111110

TIL 6c
00011111
00111111
01111110
01111111
11011111
11011111
00011111
00011111

TIL 6d
11111111
11111111
11101101
11101101
10101111
11111111
11001111
10001111

TIL 6e
11111111
11111111
10111111
11111111
11111111
11110011
11110111
11101111

TIL 6f
10000111
10000111
10000011
10000011
10000011
00000011
00000011
00000011

TIL 6g
00000110
00000110
00000111
00000000
00000000
00000000
00000110
00000110

TIL 6h
00000000
00000000
11110000
00011000
00001000
00001000
00001000
00011000

TIL 6i
00001111
00001111
00000000
00000000
00000000
00000000
00000000
00000000

TIL 6j
11110011
11110001
00000001
00000011
00000011
00000111
00001111
00001111

TIL 6k
11111111
11111111
11111111
11111111
11111111
11111111
11111111
11100011

TIL 6l
11111100
11111000
11110000
11000000
10000000
10110000
11111111
11111100

TIL 6m
00000011
00000001
00000000
00000000
00000000
00000000
11000000
01110000

TIL 6n
11111111
11111111
00011111
00011111
00011110
00111000
00110000
01100000

TIL 6o
11101101
10111101
10011111
00000011
00000000
00000000
00000000
01000000

TIL 6p
11001111
11001111
10011111
00111111
00111011
00110100
00110000
01100000

TIL 6q
00000111
00000111
00000000
00000000
00000000
00000000
00000000
00000000

TIL 6r
11000011
11000001
00000000
00000000
00000000
00000000
00000000
00000000

TIL 6s
00000000
00000000
00000000
00000000
00000000
00000001
00011111
11111111

TIL 6t
00110000
11110000
11110000
00110000
00110000
11110110
11111110
11111111

TIL 6u
00111111
01111111
01011111
01011111
01111011
01111111
01100011
11001001

TIL 6v
11111111
11111111
11111111
11111111
11111111
11111111
10011111
10011110

TIL 6w
11111111
11111110
11101100
11010100
10001100
00000101
00000111
00000110

TIL 6x
11110111
00111011
00111011
01111011
11111001
11011001
10011001
00011011

TIL 6y
11111111
11101110
11111110
11111110
11111110
01111110
11101111
11001110

TIL 6z
10001000
11100000
00000000
10001110
00011010
00010110
00000000
00000000

TIL 7a
00011001
11110001
11100000
00000000
00000000
00000000
00000000
00000000

TIL 7b
10011110
11111100
11111000
00000000
00000000
00000000
00000000
00000000

TIL 7c
00000000
00001000
00001000
00000000
00000000
00000011
00000010
00000000

TIL 7d
00110000
00011111
00001111
00000000
00000000
00000000
00000000
00000000

TIL 7e
11101100
11000111
10000011
00000000
00000000
00000000
00000000
00000000

TIL 7f
00111000
11110000
11100000
00000000
00000000
00000000
00000000
00000000

TIL 7g
00000000
00100000
00100000
00000000
00000000
00000000
00000000
00000000

TIL 7h
11000011
01111110
00111110
00000000
00000000
00000000
00000000
00000000

TIL 7i
11000000
10000000
10000000
00000000
00000000
00000000
00000000
00000000

TIL 7j
11111111
11111111
11100111
00000000
00000000
00000000
00000000
00000000

TIL 7k
11111111
11111111
11111111
11111111
00011111
00000111
00000011
00000001

TIL 7l
11111111
11111111
11111111
11111111
11111111
11111111
11111110
11111000

TIL 7m
00000000
10000000
11000000
11000000
11100000
11000000
00010000
10011000

TIL 7n
00000000
00000000
00000000
00000000
00000000
01100000
01110000
01111000

TIL 7o
01000000
01000000
01000000
00000000
00000000
00000000
00000000
00000000

TIL 7p
00000000
00000000
00000000
00000000
00000000
00000000
00000011
00111111

TIL 7q
00000000
00000000
00000000
00000000
00000000
01111100
11111110
11111111

TIL 7r
00000000
00000000
00000000
00000000
10000000
10000000
11000000
11100000

TIL 7s
11111001
01110011
00000110
00000110
00000100
00000000
00000000
00000000

TIL 7t
11100000
11110000
11100000
11100000
01000000
00000000
00000000
00000000

TIL 7u
01111000
01111100
00111110
00000000
00000000
00000000
00000000
00000000

TIL 7v
00000000
00000000
00000000
00000000
00000001
00001100
00000000
00000000

TIL 7w
00000000
00000000
00000000
00000000
11000000
11100000
00000000
00000000

TIL 7x
00000011
00000111
00111110
01100000
01000000
00000000
00000000
00000000

TIL 7y
11111111
11110000
00000000
00000011
00111111
01111000
00000000
00000000

TIL 7z
00000011
00000111
00011111
11111111
11000000
00000000
00000000
00000001

TIL 8a
00000111
00000111
00001011
01001111
11100011
10111111
01111111
00001111

TIL 8b
11111111
11111111
11111110
11111111
11111111
11111111
11111111
11111111

TIL 8c
11111111
11111111
01111111
00111111
11111111
11111111
11110111
11111111

TIL 8d
11111111
11111111
11111111
11111110
11111110
11111100
11111100
11111100

TIL 8e
11111000
11110000
11100000
01100000
00100000
00000001
00000001
00000001

TIL 8f
11111111
01101111
00111111
01111111
11111111
11111111
11111111
11111111

TIL 8g
11111111
11111111
10001111
10001111
11011111
11011111
00001101
00001101

TIL 8h
11111100
11111001
11111011
11110110
11110111
11100111
11101110
11001100

TIL 8i
11111110
11110000
11100000
10000000
10000000
00000000
00000000
00000000

TIL 8j
00000011
00000000
00000000
00000000
00000000
00000000
00000000
00000000

TIL 8k
11111111
11111111
00110011
00000000
00000000
00000000
00000000
00000000

TIL 8l
11011111
11001111
10000001
10000100
00000010
00000010
00000010
00000000

TIL 8m
11111100
11111100
11111100
11111100
11111100
11111110
11111110
11111110

TIL 8n
00000011
00000011
00000011
00000110
00000000
00000000
00000000
00000000

TIL 8o
11111111
11111111
11111111
00001110
00000100
00000110
00000111
00000111

TIL 8p
11111111
11111111
00000111
00000011
00000100
00000000
00000011
00000011

TIL 8q
10010000
10000001
11000000
11100000
11100001
11110100
11111100
11111101

TIL 8r
11111111
11111111
11111111
11111111
11111111
11111111
01111111
01111111

TIL 8s
11011000
11010000
11110000
11100000
11000000
11000000
11000000
10000000

TIL 8t
00000000
00000000
00000000
00000000
00000000
00000000
11000000
11100000

TIL 8u
00000010
00000000
00000011
00000000
00000000
00000000
00000000
01100000

TIL 8v
11111110
11111111
11111111
11111111
11111111
11111111
11111111
11111111

TIL 8w
00000000
00000000
00000000
10010000
10010000
10010000
10011000
11001000

TIL 8x
00000111
00001111
00001111
00001111
00101111
01100000
11100000
11000000

TIL 8y
11110111
11111111
11111111
11111111
11111111
01111111
00111011
00111001

TIL 8z
11111001
11111001
11111001
11111011
11111111
11111111
11111111
11111101

TIL 9a
00000000
00000000
00000000
00000000
00000000
00111111
00111111
00110000

TIL 9b
00000000
00000000
00000000
00000000
00000000
11110000
11110000
00000000

TIL 9c
00001100
00000000
00000100
00001100
00000110
00000001
00000011
00000111

TIL 9d
00001111
00011101
00111000
01110000
11100000
11000000
10000000
00000000

TIL 9e
11110111
11111111
11101111
11111111
11111111
11111111
11111111
11111111

TIL 9f
11111111
11111111
11111111
11111111
11111111
11011111
11111111
11111111

TIL 9g
10000000
10000000
11111111
11111111
11110000
11111000
11111000
11111100

TIL 9h
00000110
00011110
11011110
11000110
00000111
00000111
00000111
00000111

TIL 9i
00011111
00111111
01111111
11101111
11001111
10001111
00001111
00011111

TIL 9j
11111111
01111011
01110011
11010011
11111111
11111111
11100011
11100011

TIL 9k
11111111
01111111
01111111
11111111
11111110
11111110
11111100
11111101

TIL 9l
11111000
11111000
11111000
11111000
01010000
01110000
11010000
11110000

TIL 9m
00111000
00011000
00011000
00011000
00011000
00011000
00011000
00011000

TIL 9n
00110000
00111111
00000000
00000000
00000000
00000000
00110000
00111000

TIL 9o
00000000
11100000
01110000
00110000
00110000
00110000
00110000
01110000

TIL 9p
11111100
11111100
00000000
00000000
00000000
00000000
00000001
00000011

TIL 9q
01111111
00111111
01111111
01111111
11111111
11111111
11111111
11111111

TIL 9r
11111111
11111111
11111111
11111111
11111111
11111110
11111111
11111111

TIL 9s
11110000
11100000
11000000
10000000
00000000
00000000
01100000
11111111

TIL 9t
00000011
00000001
00000000
00000000
00000000
00000000
00000000
11000000

TIL 9u
11111111
11111111
00011111
00011111
00011111
00011110
00111000
00110000

TIL 9v
11111111
11101111
11101111
11000000
10000000
00000000
00000000
00000000

TIL 9w
01111001
01110001
11110011
11100111
00000111
00000111
00001110
00001110

TIL 9x
11110000
11110000
11110000
11110000
01110000
01000000
00000000
00000000

TIL 9y
01111110
01111110
00000000
00000000
00000000
00000000
00000000
00000000

TIL 9z
00010000
00110000
01110000
01110000
00110000
00010000
10111000
11111111

TIL a0
00001011
00001111
00111111
00110111
00110111
00110000
00111111
00111111

TIL a1
11111111
11111111
11111111
11111111
11111111
11111111
11011111
11111111

TIL a2
11111111
11111111
11111111
11111110
11111101
11111000
11111000
11110000

TIL a3
11111111
11111111
11110101
11100001
01100011
01100111
01100110
01101100

TIL a4
10011111
10011111
11001111
11001111
11001111
11001111
11001101
01001101

TIL a5
11111000
11111111
11111111
10011000
11111111
11111100
11111100
11111100

TIL a6
01110000
00010000
11001000
00001000
00011000
00011010
00100010
00001100

TIL a7
01010000
00011111
00011000
00011000
00011111
00011111
00000000
00000000

TIL a8
00110000
11110001
00010011
00000011
11000011
11100011
01110001
00110001

TIL a9
11011100
11111110
10011111
10000111
00000011
10000111
11111110
11111110

TIL aa
00000000
00000000
00000000
00000000
00000110
00000110
00000000
00000000

TIL ab
00000001
00000011
00000111
00000110
00000110
00000110
00000110
00000110

TIL ac
00010000
11111000
00011100
00011100
00111100
01111100
11101100
11001100

TIL ad
00000000
00111111
11100011
11000001
11000000
11100000
01111111
00111111

TIL ae
00000000
00000000
10000000
10000000
10000000
10000000
10000000
10000000

TIL af
10110000
11110110
11110010
11111111
11111111
11111111
11111111
11111111

TIL ag
01110111
00110011
01110000
11100000
11001100
00000000
00000000
10000000

TIL ah
11100000
11100000
11000000
11100000
01100000
00000000
00000000
00000000

TIL ai
01111100
01110000
01110000
00111111
00011111
00000000
00000000
00000000

TIL aj
11001111
11001111
11001110
11000111
10000011
00000000
00000000
00000000

TIL ak
10111111
00111100
11111100
11111000
11110000
00000000
00000000
00000000

TIL al
00000000
00000000
00000000
00011000
00011000
00000000
00000000
00000000

TIL am
00000000
00010000
00011000
00011111
00000111
00000000
00000000
00000000

TIL an
00110011
00110011
00110011
11110001
11000000
00000000
00000000
00000000

TIL ao
10000111
00000011
00000011
11111110
11111100
00000000
00000000
00000000

TIL ap
00000000
00000000
00000000
00000110
00000110
00000000
00000000
00000000

TIL aq
00000111
00000111
00000111
00000111
00000011
00000000
00000000
00000000

TIL ar
10001100
00001100
00001100
11111100
11110000
00000000
00000000
00000000

TIL as
00000000
11000000
11000001
01111111
00111111
00000000
00000000
00000000

TIL at
10000000
10000000
10000000
10000000
00000000
00000000
00000000
00000000

TIL au
11111111
11111111
11111111
11111111
11111111
11111111
11111111
01111111

TIL av
11000000
11000000
11000000
11000000
11100000
11110000
11111000
11111000

TIL aw
00000011
00000110
00000100
00000000
00000000
00000000
00000000
00000000

TIL ax
00000000
00000000
00100000
00000000
00100000
01100000
00100000
00000000

TIL ay
00000111
00000011
00000001
00000000
00000000
00000000
00000000
00000000

TIL az
11111111
11111111
11111111
11111110
01111110
00111100
00011000
00000001

TIL b0
11111000
11110000
10000010
00000011
00110001
01111110
11111110
10111100

TIL b1
00000000
00000111
00001111
00001111
00000111
00000111
00000111
00000011

TIL b2
00000000
00000000
10000000
10000000
10000000
11000000
11100000
11100000

TIL b3
00000000
00000000
00000000
00000000
00000000
00000000
00000001
00000111

TIL b4
00000000
00000000
00000000
00000000
00001111
01111111
11111110
11000000

TIL b5
00000000
00000001
00011111
11111111
11111110
11100000
00000000
00000001

TIL b6
00000000
11110000
11111000
11111000
00111100
00011100
00111110
11111111

TIL b7
00000001
00000001
00000000
00000000
00000000
00000000
10000000
10000000

TIL b8
10111100
00011000
00000000
00000000
00000000
00000000
00000000
00000000

TIL b9
00000000
00000111
00110111
00000000
00000000
00000000
00000000
00000000

TIL ba
00000000
00000000
10000000
10000000
00000000
00000000
00000000
00000000

TIL bb
00011100
00011000
00000000
00000000
00000000
00000000
00000000
00000000

TIL bc
00000000
00000011
00000111
00000010
00000000
00000000
00000001
00000000

TIL bd
00111111
11111111
11100000
00000000
00000000
00000000
00000100
00000000

TIL be
11111111
00000000
00000001
00000011
00000110
00000001
00000000
00000000

TIL bf
11111111
01111111
11111111
11111111
11111111
00001101
00000000
00000000

TIL bg
10000000
10000000
10000000
10000000
11000000
11000000
10000000
00000000

TIL bh
00000000
00000000
00001000
00001000
00011000
00011000
00011000
00011000

TIL bi
11111111
11111111
11111111
11111111
11111111
11111111
11111101
11111111

TIL bj
11111111
11111111
11111110
11111000
11110111
11001111
00111100
01110111

TIL bk
11111100
11000011
00011111
11101111
01110011
00111111
00000000
11111111

TIL bl
00000000
11111111
11111111
11111111
11111111
11000011
00110000
00000000

TIL bm
11111111
00101111
00000001
00000000
00000011
00011001
00110110
00011111

TIL bn
11111111
11111111
11111111
11111111
11111111
11111111
01111111
11111111

TIL bo
11111111
11111111
11111111
01111111
11011111
11101111
11111111
11111111

TIL bp
11111111
11111111
11111111
11111111
11111111
11111111
11111110
11111110

TIL bq
11111111
11111100
11111000
11111000
11110000
00010000
00010000
00000000

TIL br
11111111
11111111
01111111
00011111
00011111
01111111
11111111
11111111

TIL bs
11111111
11110111
11111111
11011111
10001111
10011111
11011111
00101101

TIL bt
11111100
11111001
11110011
11110111
11101011
11001010
11011110
11011100

TIL bu
11111111
11111100
11111000
11000000
00000000
00000000
00000000
00000000

TIL bv
11000001
00000000
00000000
00000000
00000000
00000000
00000000
00000000

TIL bw
11000000
00100000
00000000
00000000
00000000
00000000
00000000
00000000

TIL bx
11111111
11111111
01111111
00011101
00000000
00000000
00000000
00000000

TIL by
11111101
11110111
11111011
11100001
01100001
00000000
00000000
00000000

TIL bz
11111111
11111111
11111111
11111111
01111111
10111111
10111111
00111111

TIL c0
11111110
11111110
11111110
11111110
11111110
11111110
11111111
11111111

TIL c1
00000000
00000001
00000001
00000001
00000011
00000000
00000000
00000000

TIL c2
11111111
11111111
11111111
11111111
10001110
00000010
00000010
00000111

TIL c3
11111111
11111111
11111111
10001111
00000011
00000101
00000000
00000001

TIL c4
00001101
10000101
10000001
11000001
11000001
11100001
11100100
11111100

TIL c5
10110000
10110000
10100000
01000000
11000000
10000000
10000000
00000000

TIL c6
00000000
00000000
00000000
00000000
00000000
00000000
00000000
00011000

TIL c7
10111111
11111111
10111111
10111111
00111111
00111111
00111111
00111111

TIL c8
00000000
00000000
10000000
10000000
11001000
11001000
11001000
11001100

TIL c9
00000111
00000111
00000111
00000111
00000111
00011111
00110000
01100000

TIL ca
10000011
11100111
11111111
11111111
11111111
11111111
01111111
00011011

TIL cb
11111101
11111001
11111001
11111001
11111011
11111011
11111111
11111111

TIL cc
01111111
11111111
11111111
11111111
11111111
11111111
11111111
11111111

TIL cd
11111111
11111111
11111110
11111110
11111110
11111100
11111100
11111000

TIL ce
00111000
00111100
00111100
00111110
00111111
00111111
00001111
00000001

TIL cf
00000000
00000000
00000000
00000011
01111111
01111111
11111111
11000111

TIL cg
00011000
00111000
11111000
11111000
11111000
11111111
11111111
11111000

TIL ch
00111111
00111111
00111111
00111111
01111111
11111111
11111111
11111111

TIL ci
11100100
11100100
11110110
11110010
11111010
11111110
11111111
11111111

TIL cj
11100000
00000000
00000000
00000000
00000000
00000000
00000000
10000000

TIL ck
00111101
00111110
00111111
00111001
00000000
00111111
11101111
00000111

TIL cl
11111011
11111011
11111011
11111011
11111011
11111111
11111111
00011111

TIL cm
11111000
11111000
11111000
11111000
11110000
11110000
11110000
11110000

TIL cn
00000000
00000000
00000000
00000000
00000000
00100000
01100000
11100000

TIL co
00000000
00000000
00000000
00000000
00000000
01111111
01111111
01000000

TIL cp
00000000
00000000
00000000
00000000
00000000
11000000
11000000
00000000

TIL cq
00000001
00000000
00000000
00000001
00000001
00000000
00000000
00000000

TIL cr
10000011
00000011
00000111
10001110
10011000
00110000
01100000
11100000

TIL cs
11111100
01111111
00111011
00111111
00111111
00111111
00111111
00111111

TIL ct
11111111
11111111
11111111
11111111
11111111
11100111
11110111
11111111

TIL cu
10000000
11000000
11000000
11111111
11111000
11111000
11111100
11111100

TIL cv
00000111
00001110
00011110
11100110
00000111
00000111
00000111
00000111

TIL cw
00011111
00111111
01111110
11111111
11001111
11001111
00001111
00011111

TIL cx
11111111
11110111
01110111
11110111
11111111
11111111
11100111
11100111

TIL cy
11111111
11111111
11101111
11111111
11111110
11111100
11111001
11111001

TIL cz
11110000
11100000
11100000
11100000
11100000
11100000
10100000
11100000

TIL d0
11100000
01100000
01100000
01100000
01100000
01100000
01100000
01100000

TIL d1
01000000
01111111
01111111
00000001
00000000
00000000
01000000
01100001

TIL d2
00000000
00000000
10000000
11000000
11000000
11000000
11000000
11000000

TIL d3
00000001
00000001
00000000
00000000
00000000
00000000
00000000
00000000

TIL d4
11111111
11111111
00000000
00000000
00000000
00000000
00000000
00000000

TIL d5
00011111
00001111
00011111
00011111
00111111
00111111
01111111
11111111

TIL d6
11111000
11110000
11100000
11000000
00000000
00000000
11110000
11111011

TIL d7
00000011
00000001
00000000
00000000
00000000
00000000
00000000
11100000

TIL d8
11111111
11111111
00011111
00011111
00011111
00011110
00111000
00100000

TIL d9
11110111
11111111
11001111
11000001
00000000
00000000
00000000
00000000

TIL da
01110011
01100011
11100111
11000111
00001110
00001110
00011100
00001000

TIL db
11100000
11100000
11000000
11000000
11000000
10000000
00000000
00000000

TIL dc
11111000
11111000
00000000
00000000
00000000
00000000
00000000
00000000

TIL dd
01111111
00111111
00000000
00000000
00000000
00000000
00000000
00000000

TIL de
00000110
00001110
00011110
00011110
00000110
00000110
00111110
11111111

TIL df
00000011
00000111
00001111
00001101
00001101
00001100
01001111
11101110

TIL dg
11111111
11111111
11111111
11111111
11111111
00011111
11111111
00011101

TIL dh
11111111
11111111
11111111
11111111
11111111
11111110
11111100
11111000

TIL di
11111111
11111111
11111000
00110000
10110001
10110011
00110111
00111110

TIL dj
11001111
11101111
11100111
11100111
11100111
11100111
00100110
00100111

TIL dk
11111100
11111111
10011101
11111100
11111101
11111100
11111100
11111110

TIL dl
00110000
10001000
11001000
00000000
00011110
00111010
00110110
00000100

TIL dm
00011111
00011111
00010000
00010000
00011111
00011111
00000000
00000000

TIL dn
11110001
11110011
00000111
00000110
11000111
11100111
00110011
00110111

TIL do
11111000
11111100
00001110
00000110
00001110
00011110
11111100
00001110

TIL dp
00000000
00000000
00000000
00000000
00001100
00001100
00000000
00000000

TIL dq
00000111
00001111
00011100
00011000
00011000
00011001
00011011
00011111

TIL dr
11000000
11100001
01110011
01110011
11110011
11110011
10110001
00110000

TIL ds
11111000
11111100
10001110
00000110
00000110
10000110
11111110
00000110

TIL dt
11101100
11111100
11111110
11111111
11111111
11111111
11111111
11111111

TIL du
10001100
10001100
00011100
11111001
11100001
11000000
11100000
11110000

TIL dv
11111000
01110000
00110000
00111000
00010000
00000000
00000000
00000000

TIL dw
00111100
00111000
00111000
00011111
00001111
00000000
00000000
00000000

TIL dx
00100111
01100111
01100111
11000011
10000001
00000000
00000000
00000000

TIL dy
10001111
11111100
00011100
11111000
11110000
00000000
00000000
00000000

TIL dz
10000000
00000000
00000000
00011000
00001000
00000000
00000000
00000001

TIL e0
00000000
00011000
00011000
00001111
00000111
00000000
00000000
00000000

TIL e1
00110110
00110110
01110111
11000011
11000000
00000000
00000000
00000000

TIL e2
00000110
00000110
00001110
11111100
11111000
00000000
00000000
00000000

TIL e3
00000000
00000000
00000000
00001100
00001100
00000000
00000000
00000000

TIL e4
00011110
00011100
00011100
00001111
00000111
00000000
00000000
00000000

TIL e5
00110000
00110011
01110011
11100001
11000000
00000000
00000000
00000000

TIL e6
00000110
00000110
10001110
11111100
11111000
00000000
00000000
00000000

TIL e7
11111111
11111111
11111111
11111111
11111111
11111111
00001111
00000001

TIL e8
11110000
11110000
11110000
11111000
11111100
11111110
11111110
11111110

TIL e9
00000010
00000100
00000000
00000000
00000000
00000000
00000000
00000000

TIL ea
00000000
00100000
00000000
00000000
01100000
00000000
00000000
00000000

TIL eb
01111111
00111111
00011111
00001111
00000111
00000100
00000000
00000000

TIL ec
11111100
11100000
10000000
10001111
00011111
00111111
01101111
01101110

TIL ed
00000011
10000011
10000011
10000001
00000001
00000001
00000000
00000000

TIL ee
10000000
11000000
11100000
11100000
11110000
11110000
01100000
00000000

TIL ef
00000000
00000000
00000000
00000000
00000000
00000000
00000000
00000001

TIL eg
00000000
00000000
00000000
00000000
00000001
00000111
00011110
00110000

TIL eh
00000000
00000000
00000111
10111111
11111111
11101000
00000000
00000011

TIL ei
00001111
01111111
11111111
11110000
00000000
00000000
00001111
11111111

TIL ej
11000000
11100000
11110000
01110000
01111000
11111000
11111100
11100000

TIL ek
00000000
00000000
00000000
00000000
00000000
00000011
00011111
00011111

TIL el
00000000
00000000
00000000
00000000
01000000
11110000
11110000
11110000

TIL em
00011111
00000001
00000000
00000000
00000000
00000000
00000000
00000000

TIL en
10000000
11000000
00000000
00000000
00000000
00000000
00000000
00000000

TIL eo
00001111
00011110
00000000
00000000
00000010
00000100
00000000
00000000

TIL ep
11110000
00000000
00000000
00000000
00000000
00000000
00000000
00000000

TIL eq
00000100
00000100
00011100
00011000
00000000
00000000
00000000
00000000

TIL er
00111111
11111111
11111111
00000001
00000000
00000000
00000000
00000000

TIL es
11110000
11110000
11110000
10110000
00010000
00000000
00000000
00000000

TIL et
00000000
00001000
00011000
00011000
00011000
00000000
00000000
00000000

TIL eu
11111111
11111111
11111111
11111100
11110011
11001101
10011110
01111000

TIL ev
11111111
11111000
10001111
01111111
01111100
11101111
01100010
11000000

TIL ew
11111111
00000000
11111111
11111111
01111111
11111111
00000110
01000000

TIL ex
11111111
00111111
00010001
00000000
00000000
00000001
00001100
00001011

TIL ey
11111111
11111111
11111111
01111111
00111111
11111111
01111111
10111111

TIL ez
11111111
11111111
11111111
11111111
11011111
11101111
11111111
11111111

TIL f0
11111111
11111111
11111110
11111000
11111000
10110000
00010000
00000000

TIL f1
11111111
11111111
01111111
00101111
00011111
00111111
01111111
11111111

TIL f2
11111111
11111111
11110111
11111111
10011111
10011111
10011111
11011111

TIL f3
11111110
11111001
11110011
11100111
11101111
11010110
11011100
10111000

TIL f4
11111111
11111111
11110000
11000000
10000000
00000000
00000000
00000000

TIL f5
11111110
10000001
00000000
00000000
00000000
00000000
00000000
00000000

TIL f6
00000000
10000000
00000000
00000000
00000000
00000000
00000000
00000000

TIL f7
00001111
00000000
00000000
00000000
00000000
00000000
00000000
00000000

TIL f8
11111111
11111111
00111111
00011111
00000010
00000000
00000000
00000000

TIL f9
11111111
11111111
11111011
11111001
01110000
00000001
00000000
00000000

TIL fa
11111111
11111111
11111111
11111111
10111111
10111111
01011111
00011111

TIL fb
11111110
11111110
11111110
11111111
11111111
11111111
11111111
11111111

TIL fc
00000000
00000000
00000000
00000001
00000001
00000000
00000000
00000000

TIL fd
11111111
11111111
11111111
11111111
11111111
00000110
00000010
00000011

TIL fe
11111111
11111111
11111111
11111111
00000111
00000001
00000110
00000000

TIL ff
00101101
00001101
10010001
10000001
11000001
11100001
11100001
11110100

TIL fg
10110000
00100000
01100000
01000000
10000000
10000000
00000000
00000000

TIL fh
00000000
00000000
00000000
00000000
00000000
00000000
00000000
00001100

TIL fi
01011111
01111111
01111111
01011111
00011111
00011111
00011111
00011111

TIL fj
00000000
10000000
10000100
10000000
11000000
11001000
11000100
11100100

TIL fk
00000011
00000011
00000111
00000111
00000111
00000111
00110000
01101000

TIL fl
00000011
11000011
11111111
11111111
11111111
11111111
01111111
00011111

TIL fm
11111100
11111101
11111001
11111001
11111011
11111011
11111111
11111111

TIL fn
11111110
11111110
11111110
11111100
11111100
11111100
11111000
11111000

TIL fo
00001100
00001110
00001110
00011111
00011111
00011111
00000111
00000000

TIL fp
00000000
00000000
00000000
00000000
10111111
10111111
11111111
11100011

TIL fq
00001000
00011100
01111100
11111100
11111100
11111111
11111111
11111100

TIL fr
00011111
00011111
00011111
00011111
00111111
11111111
11111111
01111111

TIL fs
11100100
11110110
11110010
11110010
11111011
11111111
11111111
11111111

TIL ft
01100000
00000000
00000000
00000000
00000000
00000000
00000000
10000000

TIL fu
00011101
00111100
00111111
00111001
00000000
00011111
11111111
00000111

TIL fv
11111011
11111011
11111011
11111011
11111011
11111111
11111111
01111111

TIL fw
11111000
11110000
11110000
11110000
11110000
11110000
11100000
11100001

TIL fx
00000000
00000000
00000000
00000000
00000000
01000000
11000000
11000000

TIL fy
00000000
00000000
00000000
00000000
00000000
10000001
11111111
11000000

TIL fz
00000000
00000000
00000000
00000000
00000000
00000000
10000000
00000000

TIL g0
11000001
00000001
00000011
11000111
11001100
00011100
00111000
01110000

TIL g1
11111100
10111111
10111111
00011111
00011111
00011111
00011111
00011111

TIL g2
11111111
11111111
11111111
11111111
11111111
11110111
11111111
11111011

TIL g3
10000000
11000000
11100000
11111111
11111000
11111000
11111100
11111100

TIL g4
00011111
00111111
01111110
11111111
11001111
10001111
00001111
00011111

TIL g5
11111111
11110111
01110110
11110111
11111111
11111111
11000111
11000111

TIL g6
11111111
11111111
11111111
11111111
11111101
11111101
11111001
11110011

TIL g7
11100001
11100000
11100000
11100000
11000000
11000000
01000000
11000000

TIL g8
11000000
01000000
01000000
01000000
01000000
01000000
01000000
01000000

TIL g9
11000000
11111110
11111111
00000011
00000001
00000001
11000001
11000011

TIL ga
00000000
00000000
00000000
10000000
10000000
10000000
10000000
10000000

TIL gb
10001111
10000111
00001111
00001111
00011111
00111111
01111111
01111111

TIL gc
11111111
11111111
11111111
11111111
11111111
11111111
11111111
11100111

TIL gd
11111000
11110000
11100000
11000000
00000000
11000000
11101111
11111000

TIL ge
11111111
11111111
00011111
00011111
00011111
00011100
00110000
01100000

TIL gf
11110110
11011110
11001111
10000001
00000000
00000000
00000000
00000000

TIL gg
11110011
11100111
11001111
11001111
00001101
00011101
00011000
00000000

TIL gh
11000001
11000001
11000000
11000000
11000000
00000000
00000000
00000000

TIL gi
11110000
11110000
00000000
00000000
00000000
00000000
00000000
00000000

TIL gj
01111111
00111110
00000000
00000000
00000000
00000000
00000000
00000000

TIL gk
00000011
00000111
00000111
00000011
00000011
00000011
01111111
11111111

TIL gl
00000001
00000011
00000111
00000110
00000110
00000111
11110111
11110111

TIL gm
11111111
11111111
01111111
11111111
00011111
11111111
11111111
00001110

TIL gn
11111111
11111111
11111000
11011000
01011001
00011011
00011011
00011110

TIL go
11001111
11100111
01110111
11110111
11110111
10110110
00110110
00110011

TIL gp
11111100
11111111
11011100
11111110
11111100
11111100
11111100
11011111

TIL gq
00000000
11001000
01101000
00001100
00011110
00110010
00000110
00000000

TIL gr
00011111
00011111
00010000
00011111
00011111
00000000
00000000
00000000

TIL gs
11110001
11100111
00000111
10000110
11100111
01100011
01100011
01100111

TIL gt
11111000
11111100
00011100
00001100
00011100
11111100
11111100
00011100

TIL gu
00001111
00011111
00111000
00110000
00110001
00110011
00110111
00111110

TIL gv
11000001
11100011
01100111
11100110
11100111
10100011
00100001
00100000

TIL gw
11110000
11111000
00011100
00001100
00001100
11111100
11111100
00001100

TIL gx
01000110
01001110
11111100
11111000
11100000
11110000
11110000
11111000

TIL gy
01111000
00111000
10011000
10011100
00000000
00000000
00000000
00000000

TIL gz
00011100
00011100
00001111
00000111
00000000
00000000
00000000
00000000

TIL h0
00110111
00110111
11100011
11000001
00000000
00000000
00000000
00000000

TIL h1
10011100
00011100
11111000
11110000
00000000
00000000
00000000
00000000

TIL h2
00000000
00000000
00001000
00001000
00000000
00000000
00000001
00000011

TIL h3
00010000
00011000
00001111
00001111
00000000
00000000
00000000
00000000

TIL h4
01100110
01100111
11000011
11000001
00000000
00000000
00000000
00000000

TIL h5
00001100
00001100
11111100
11111000
00000000
00000000
00000000
00000000

TIL h6
00000000
00000000
00001000
00011000
00000000
00000000
00000000
00000000

TIL h7
00111100
00111000
00011111
00001111
00000000
00000000
00000000
00000000

TIL h8
00100110
01100110
11000011
11000001
00000000
00000000
00000000
00000000

TIL h9
00001100
00001100
11111000
11110000
00000000
00000000
00000000
00000000

TIL ha
11111111
11111111
11111111
11111111
01111111
00000111
00000000
00000000

TIL hb
11111111
11111111
11111111
11111111
11111111
11111111
11111111
00111111

TIL hc
11111000
11111000
11111100
11111100
11111110
11111111
11111111
11111110

TIL hd
00000000
00000000
00000000
00000000
00000000
00000000
00000000
11000000

TIL he
00000100
00000000
00000000
00000000
00000000
00000000
00000000
00000000

TIL hf
00000000
00000000
00000000
01100000
00000000
00000000
00000000
00000000

TIL hg
00000000
00000000
00000000
00000000
00000000
00000000
00000000
00001111

TIL hh
00000000
00000000
00000000
00000000
00000000
00000000
00000000
10000000

TIL hi
00011111
00001111
00000111
00000011
00000000
00000000
00000000
00000000

TIL hj
11110000
11000000
11000111
10001111
00011111
00110111
00100111
00000000

TIL hk
01000011
01000001
11000001
10000001
10000001
10000000
00000000
00000000

TIL hl
11100000
11100000
11110000
11111000
11111000
00010000
00000000
00000000

TIL hm
00000000
00000000
00000000
00000000
00000000
00000000
00000001
00011111

TIL hn
00000000
00000000
00000000
00000001
00001111
00011010
00110000
00000000

TIL ho
00000000
00000111
11111111
11111110
11000000
00000000
00000111
00011111

TIL hp
11111111
11111111
11100000
00000000
00000001
00011111
11111110
11000000

TIL hq
11000000
11100000
11100000
11110000
11110000
11111000
01000000
00001000

TIL hr
00000000
00000000
00000000
00000000
00000011
00001111
00001111
00111111

TIL hs
00000000
00000000
00000000
01110000
11111000
11111000
11111000
11111000

TIL ht
11000000
00000000
00000000
00000000
00000000
00000000
00000000
00000000

TIL hu
00011100
00000000
00000000
00000100
00000000
00000000
00000000
00000000

TIL hv
00000000
00000000
00000000
00110000
00000000
00000000
00000000
00000000

TIL hw
00011000
00110000
00000000
00000000
00000000
00000000
00000000
00000000

TIL hx
00111111
00001101
00000000
00000000
00000000
00000000
00000000
00000000

TIL hy
11111000
11111000
01011000
00001000
00000000
00000000
00000000
00000000

TIL hz
00001100
00011100
00001100
00001000
00000000
00000000
00000000
00000000

TIL i0
11111111
11111111
11111111
11111111
11111111
11111111
11111000
11000011

TIL i1
11111111
11111111
11111111
11111111
11111111
10000000
11111111
11111111

TIL i2
11111111
11111111
11101111
01111111
01111111
01011111
00000101
01000000

TIL i3
11111111
11111111
11111111
11111111
11111111
11111111
10011111
00001111

TIL i4
11111111
11111111
11111111
11111111
11111111
11111111
11111110
11111111

TIL i5
11111111
11111100
11111001
11100111
11101110
10011111
00111111
01111111

TIL i6
00110111
11111110
11100111
10001100
11111111
11111000
10000000
00000000

TIL i7
11110111
01111111
11111000
00000110
11100000
00111000
00000100
00000000

TIL i8
00000000
00000000
00000011
00000101
00000111
00000000
00000000
00000000

TIL i9
00011111
01111111
01111111
11001111
11111111
01111111
00011111
00001111

TIL ia
11101111
11111011
11111101
11111111
11111111
11111111
11111110
11111110

TIL ib
11111111
11111111
11111111
11111111
11111111
10111111
11111111
01111111

TIL ic
11111110
11111110
11100010
11000000
11000000
11000000
11000000
11000000

TIL id
00000011
00000011
00001111
00011111
00011111
00111111
00111111
00111111

TIL ie
11111011
11110001
11110011
11111011
11100101
11100001
11110000
11110000

TIL if
11111111
11111111
11111111
11111111
10111111
10111111
10111111
00111111

TIL ig
11111110
11111101
11111011
11111011
11110011
11110110
11110110
11110100

TIL ih
11111000
01100000
01000000
10000000
00000000
00000000
00000000
00000000

TIL ii
00111100
00001100
00000000
00000000
00000000
00000000
00000000
00000000

TIL ij
00111111
00101111
00011111
00010111
00000111
00010111
00011111
00010111

TIL ik
11000000
11000000
11000000
11000000
11100000
11100000
11100000
11110001

TIL il
00111111
01110001
00000000
00000000
00000000
00000000
00000000
00000000

TIL im
11100001
11000000
01000000
01000000
11100000
11110000
11111110
11111111

TIL in
11111000
01111000
10111100
00011100
01111111
01111111
11111111
11111111

TIL io
00111111
00111111
00111111
10011111
10011111
10111111
00111111
00111111

TIL ip
11101000
11111000
11110000
11110000
11100000
11100000
11000000
11000000

TIL iq
00000000
00000000
00000000
00000010
00000111
00000111
00000111
00000111

TIL ir
00000000
00000000
00000000
00000000
00000000
00000000
10000000
10000000

TIL is
00000000
00000000
00000000
00000000
00000000
00000010
00000111
00011111

TIL it
00010111
00000111
00000111
00000111
00000111
00000111
00000111
00000111

TIL iu
11110000
11110001
11110001
11111001
11111001
11111100
11111100
11111110

TIL iv
00000000
00000001
00000011
00000101
10001100
10011100
10000000
11000000

TIL iw
11111111
11111111
11111111
00000111
00000011
00000111
00000111
00001111

TIL ix
11111111
11111111
11111111
11111111
01111111
10011111
11011111
11111111

TIL iy
01111111
01111111
01111111
11111111
11111111
01111111
01111111
01111111

TIL iz
11000000
11000000
10000000
10000000
00000000
00000000
00000000
00000000

TIL j0
00000111
00001111
00000111
00000001
00000000
00000000
00000000
00000000

TIL j1
11000000
11101111
11111111
11111111
01110000
00110000
00000000
00000000

TIL j2
01111111
11111111
11111111
11111111
11111111
01111111
01101111
11101111

TIL j3
00000111
00001111
11111111
11111111
00011111
00111111
11111111
11111111

TIL j4
11111110
11111110
11111111
11111111
11111111
11111111
11111111
11111111

TIL j5
01000000
01000000
11000000
11100000
11110000
11110000
11111000
11111000

TIL j6
00000000
00000000
00000111
00011101
00000000
00000000
00000001
00000011

TIL j7
00111111
00001111
11111111
11111111
11100011
11000011
11000111
11001111

TIL j8
01111111
01111111
11111111
11111111
11111111
11111111
11111110
11001110

TIL j9
11111111
11111110
11111110
11111110
11111110
11111110
11111100
11111100

TIL ja
00000000
00000000
00001100
00001100
00011100
00011100
00001100
00001100

TIL jb
00000000
00000000
00001111
00001111
00001000
00001000
00001111
00001111

TIL jc
00000000
00000000
11111000
11111000
00000000
00000000
11100000
11110000

TIL jd
00110011
00110111
00001110
00001100
00011000
00111111
00111111
00000000

TIL je
11000111
00000111
00000111
00000111
00000111
11100111
11100011
00000011

TIL jf
11111111
11111111
11111101
11111110
11111110
11111111
11111111
11111111

TIL jg
11111111
11111111
11111111
11111111
11111111
11111111
11111110
11111100

TIL jh
11111100
00000000
00000000
00000000
10000000
00000000
00000000
00000000

TIL ji
11011111
11111001
11110001
11100001
11100011
01111111
00111111
00000011

TIL jj
11111010
11111111
11111111
11111100
11111100
11111110
11111111
11111001

TIL jk
11111111
11111111
11111111
11111111
11101111
11101110
11101100
11111100

TIL jl
11111100
11011100
10011100
00110100
01111100
01111100
01111100
11111000

TIL jm
00001100
00001100
00001100
00001100
00001100
00011111
00011111
00000000

TIL jn
00000000
00000000
00000000
00001100
00001100
00000111
00000111
00000000

TIL jo
00111000
00011000
00011000
00011000
00111000
11110000
11100000
00000000

TIL jp
00000000
00000000
00000000
00000000
00000000
00000000
00000001
00000011

TIL jq
00000000
00000000
00000000
00000000
00000000
11000000
11000000
11000001

TIL jr
00000011
00000111
00001111
00011111
00011111
01111111
11111111
11111111

TIL js
11111111
11111111
11111111
11111111
11111100
11110001
11111001
00011100

TIL jt
11111000
11100000
11100000
11111100
11111111
11111111
11111111
11110011

TIL ju
00000000
00000000
00000000
00000000
00111100
10000110
11110001
10111001

TIL jv
00000011
00000011
00000011
00000111
00001100
00000011
00000011
00000010

TIL jw
11111000
11100000
10000000
00000000
00000000
11111110
11111110
00000000

TIL jx
00111001
00000001
00000001
00000011
00000001
00111111
01111111
11100001

TIL jy
11111000
11011000
11010000
10000000
00000000
00000000
10000000
11000000

TIL jz
00000000
00000000
00000000
00000000
00000000
11111000
11111100
10000110

TIL k0
00000000
00000000
00000000
00000000
00000000
00011111
00111111
01110001

TIL k1
00000000
00000000
00000000
00000000
00000000
00000000
10000000
11000000

TIL k2
00000011
00000000
00000000
00001111
01111111
11111111
11111111
11111111

TIL k3
11000001
11000001
11000001
11001001
11111101
11111101
11111111
11111111

TIL k4
10111111
10111111
10010011
11111111
11000111
10100001
10010011
11010011

TIL k5
11111111
11111111
11111111
11111111
10111111
10011110
10001110
10000110

TIL k6
11100110
11010110
10000110
10000110
00000111
00000111
00000111
00000111

TIL k7
00011100
00111100
01111100
11101100
11001100
10001100
00001100
00011100

TIL k8
11111111
11111111
11111111
11011111
11111111
11110001
11111111
11100011

TIL k9
10000000
10100011
10000111
10000110
11000000
11110000
10000000
10000000

TIL ka
00000010
01000011
01000011
11000000
10000000
00000000
00000011
00000011

TIL kb
00000000
11111000
11111100
00000110
00000110
00000110
00000110
10001110

TIL kc
11000000
11100001
11100111
01111111
11100001
11000000
11000000
11101101

TIL kd
11000000
11000001
11000001
10000000
11000000
11000000
11000000
11000000

TIL ke
00000011
10000011
10000011
00000011
00000011
00000011
00000011
00000011

TIL kf
00001110
00011110
00111110
01110010
11100110
11000110
10000110
10001110

TIL kg
01100000
01100000
01110000
00011111
00000000
00000000
01100000
01110001

TIL kh
11000000
11000000
11000000
11000000
11000000
11000000
11000000
11000000

TIL ki
11111110
11111100
11111000
11111100
11111100
11111110
11111110
11111110

TIL kj
10100111
00100000
00000000
00000000
00000000
00000000
00000000
00000000

TIL kk
00000001
00000000
00000000
00000000
00000000
00000000
00000000
00000000

TIL kl
11111000
00010000
00000000
00000000
00000000
00000000
00000000
00000000

TIL km
01111110
00100010
00000000
00000000
00000000
00000000
00000000
00000000

TIL kn
00000001
00000000
00000000
00000000
01100000
01000000
10000100
00000000

TIL ko
00111111
00011111
00000000
00000000
00000000
00000000
00000000
00000000

TIL kp
11111100
00000000
00000000
00000000
00000000
00000000
00000000
00000000

TIL kq
00011111
00010001
00000000
00000000
00000000
00000000
00000000
00000000

TIL kr
11111111
11111111
00011111
00000001
00000000
00000000
00000000
00000000

TIL ks
11111111
11111111
11111111
11111111
00111111
00001111
00000111
00000011

TIL kt
11111111
11111111
11111111
11111111
11111111
11111111
11111000
11110001

TIL ku
00000000
10000000
10000000
11000000
11000000
10000000
00010000
00010000

TIL kv
00000000
00000000
00000000
00000000
00000000
01110000
01111000
01111000

TIL kw
00001000
00001100
00000000
00000000
00000000
00000000
00000000
00000000

TIL kx
00000000
00000000
00000000
00000000
00000000
00000001
00001111
11111111

TIL ky
00000000
00000000
00000000
00000000
00000000
11111100
11111100
11111110

TIL kz
11110001
11100111
00000111
00001101
00001001
00000000
00000000
00000000

TIL l0
11110000
11100000
11100000
11100000
11000000
00000000
00000000
00000000

TIL l1
00111100
00111110
00111110
00000000
00000000
00000000
00000000
00000000

TIL l2
00000000
00000000
00000000
00000000
00000000
00000011
00000000
00000000

TIL l3
00000000
00000000
00000000
00000000
01100000
11110000
00010000
00000000

TIL l4
00000000
00000000
00000000
00000011
00000110
00000000
00000000
00000000

TIL l5
00011111
00111111
11111000
01000000
00000000
00000001
00000011
00000000

TIL l6
11111100
11000000
00000000
00000011
11111111
11111100
10000000
00000000

TIL l7
00001110
00001111
00111111
11111111
11100100
00000000
00000001
00000011

TIL l8
00000000
00000000
00000000
10000000
00000000
10000000
10000000
10000000

TIL l9
00000000
00000000
10000000
10000011
10000011
00000111
00011111
00011111

TIL la
00000000
00011000
11111100
11111110
11111110
11111110
11111110
11111110

TIL lb
00000000
01000011
10000000
00000000
00000000
00000000
00000000
00000000

TIL lc
00110110
00000100
00000000
00000000
00000000
00000000
00000000
00000000

TIL ld
00000000
00000000
00000000
00000000
00000000
00000001
00000001
00000011

TIL le
00000011
00000011
00000000
00000000
00000000
00000000
00000000
00000000

TIL lf
00000000
00000000
00000000
10000000
00000000
00000000
00000000
00000000

TIL lg
00000000
00010000
00010000
01101100
00010000
00010000
00000000
00000000
>
00000000
00000000
00101000
00010000
00101000
00000000
00000000
00000000

TIL lh
00000000
00000000
00001000
00111000
00011100
00010000
00000000
00000000
>
00000000
00000000
00010000
00011100
00111000
00001000
00000000
00000000

TIL li
11111111
10000001
10000001
10100001
10010001
10100001
10000001
11111111
>
11111111
10000001
10000001
10100001
10010001
10101101
10000001
11111111

TIL lj
01111100
01000100
01000100
01000100
01000100
01010100
11000100
01111100

SPR 10
00000000
00111000
00101000
00111000
00000000
01111100
00111000
00101000
DLG SPR_e
POS 6 6,12

SPR 11
00000000
00111000
00101000
00111000
00000000
01111100
00111000
00101000
DLG SPR_f
POS 7 3,2

SPR 12
00000000
00000000
00000000
01110000
01011000
01111000
00011010
01011000
DLG SPR_g
POS 7 8,9

SPR 13
00000000
00000000
00000000
00000000
00000000
11100011
11100011
01111110
DLG SPR_h
POS 7 7,13

SPR 14
00000000
00111100
01100110
01100110
00001100
00011000
00000000
00011000
>
00111100
01100110
01100110
00001100
00011000
00000000
00011000
00000000
DLG SPR_i
POS 8 9,4

SPR 15
00000000
00111100
01100110
01100110
00001100
00011000
00000000
00011000
>
00111100
01100110
01100110
00001100
00011000
00000000
00011000
00000000
DLG SPR_j
POS 8 3,9

SPR 16
00000000
00111100
01100110
01100110
00001100
00011000
00000000
00011000
>
00111100
01100110
01100110
00001100
00011000
00000000
00011000
00000000
DLG SPR_k
POS 8 10,12

SPR 17
00000000
00111100
01100110
01100110
00001100
00011000
00000000
00011000
>
00111100
01100110
01100110
00001100
00011000
00000000
00011000
00000000
DLG SPR_l
POS c 9,4

SPR 18
00000000
00111100
01100110
01100110
00001100
00011000
00000000
00011000
>
00111100
01100110
01100110
00001100
00011000
00000000
00011000
00000000
DLG SPR_m
POS c 4,9

SPR 19
00000000
00111100
01100110
01100110
00001100
00011000
00000000
00011000
>
00111100
01100110
01100110
00001100
00011000
00000000
00011000
00000000
DLG SPR_n
POS c 10,13

SPR A
00000000
01110000
01110000
01110000
00000000
11111000
01110000
01010000
DLG SPR_b
POS d 13,12

SPR a
11111111
10000000
10110000
10100000
10000000
10000000
10000000
11111111
DLG SPR_0
POS 2 2,4

SPR b
11111111
00000001
00000001
00000001
00000001
00000001
00000001
11111111
DLG SPR_1
POS 2 3,4

SPR c
11111111
10000000
10110000
10100000
10000000
10000000
10000000
11111111
DLG SPR_2
POS 2 12,4

SPR d
11111111
00000001
00000001
00000001
00000001
00000001
00000001
11111111

SPR e
11111111
10000000
10110000
10100000
10000000
10000000
10000000
11111111
DLG SPR_3
POS 0 2,4

SPR f
11111111
00000001
00000001
00000001
00000001
00000001
00000001
11111111
DLG SPR_4
POS 0 3,4

SPR g
11111111
10000000
10110000
10100000
10000000
10000000
10000000
11111111
POS 0 12,4

SPR h
11111111
00000001
00000001
00000001
00000001
00000001
00000001
11111111
POS 0 13,4

SPR i
11111111
10000001
10111101
10111101
10111101
10111101
10000001
11111111
DLG SPR_5
POS 2 9,11

SPR j
11111111
10000001
10111101
10111101
10111101
10111101
10000001
11111111
DLG SPR_6
POS 2 10,11

SPR k
11111111
10000000
10110000
10100000
10000000
10000000
10000000
11111111
POS 4 12,4

SPR l
11111111
00000001
00000001
00000001
00000001
00000001
00000001
11111111
POS 4 13,4

SPR m
11111111
10000000
10110000
10100000
10000000
10000000
10000000
11111111
POS 4 2,4

SPR n
11111111
00000001
00000001
00000001
00000001
00000001
00000001
11111111
POS 4 3,4

SPR q
00000011
00001100
00010000
00100000
01000000
01000000
10000000
10000000
POS 4 1,1

SPR r
11000000
00110000
00001000
00000100
00000010
00000010
00000001
00000001
POS 4 2,1

SPR s
10000000
10000000
01000000
01000000
00100000
00010000
00001100
00000011
POS 4 1,2

SPR t
00000001
00000001
00000010
00000010
00000100
00001000
00110000
11000000
POS 4 2,2

SPR u
00000000
01110000
01110000
01110000
10000000
01110000
01111000
01010000
>
00000000
01110000
01110000
01110000
00001000
01110000
11110000
01010000
DLG SPR_7
POS 5 7,2

SPR v
00000000
00101010
00000000
11100000
11100000
11100100
01111100
01111110
>
00000000
00101000
00000000
11100000
11100000
11100100
01111100
01111110
DLG SPR_8
POS 5 4,7

SPR w
00000000
01110000
01010000
01110000
00000000
11111000
01110000
01010000
DLG SPR_9
POS 6 5,4

SPR x
00000000
01110000
01010000
01110000
00000000
11111000
01110000
01010000
DLG SPR_a
POS 6 10,4

SPR y
00000000
01110000
01010000
01110000
00000000
11111000
01110000
01010000
DLG SPR_c
POS 6 9,9

SPR z
00000000
00000000
00000000
01110000
01011000
01111000
00011010
01011000
DLG SPR_d
POS 6 4,9

SPR 1a
00000000
00111100
01100110
01100110
00001100
00011000
00000000
00011000
>
00111100
01100110
01100110
00001100
00011000
00000000
00011000
00000000
DLG SPR_o
POS b 9,4

SPR 1b
01110000
11111000
01110000
01110000
00000000
01111000
11110000
01010000
>
01110000
11111000
01110000
01110000
00000000
11110000
01111000
01010000
DLG SPR_p
POS 5 11,11

SPR 1c
00000000
00000000
00111000
00111000
00111000
01111100
00111000
00101000
>
00000000
00111000
00111000
00111000
00000000
01111100
00111000
00101000
DLG SPR_q
POS 5 1,7

SPR 1d
00000001
00000000
00000000
00000000
00000000
00000000
00000000
00000000
DLG SPR_r
POS c 14,1

SPR 1e
00000000
00000000
00000000
00000000
00000000
00000000
00000000
10000000
DLG SPR_s
POS 8 1,14

SPR 1f
00000000
00000000
00000000
00000000
00000000
00000000
00000000
00000001
DLG SPR_t
POS b 14,14

SPR 1g
00000000
00000000
11111111
10010001
11111111
10001001
11111111
00111100
DLG SPR_u
POS 9 9,14

SPR 1h
00010000
11111011
10001011
11111011
00000000
00000000
00000000
00000000
DLG SPR_v
POS d 12,3

SPR 1i
00000100
00000110
00000110
00000110
00000110
00111110
01111110
01100110
DLG SPR_w
POS d 6,11

SPR 1j
00100000
01100000
01100000
01100000
01100000
01111100
01111110
01100110
DLG SPR_y
POS d 2,11

SPR 1k
01111110
01000010
01000010
01000010
01000010
01000010
01000010
00111100
DLG SPR_x
POS d 10,9

SPR 1l
00000000
01110000
01110000
01110000
00000000
11111000
01110000
01010000
>
00000000
01110000
01110000
01110000
00000000
11111000
01110000
01010000
DLG SPR_z
POS 5 12,1

ITM 0
01111100
01001010
01111110
01000010
01111110
01010010
01111110
00000000
>
01111100
01001010
01111110
01000010
01111110
01010010
01111110
00000000
NAME card
DLG ITM_0

ITM 1
11111111
00000101
00101001
00010101
00000001
00001001
00100101
11111111
NAME window

ITM 2
11111111
10000001
10111101
10111101
10111101
10111101
10000001
11111111
NAME door1

ITM 3
11111111
10000001
10111101
10111101
10111101
10111101
10000001
11111111
NAME door2

ITM 4
00010000
00010000
00111000
00111000
01111100
01111100
01111100
00111000

ITM 5
00000000
00010000
00011000
00111110
01111100
00011000
00001000
00000000
>
00000000
00001000
00011000
01111100
00111110
00011000
00010000
00000000

DLG ITM_0
"""
{shk}616272616d{shk}, your friends are so lucky to have you as a friend. you care about them and worry about them too. you will see things will work itself out.
you keep being exactly who you are because you are amazing.
I love you!
-MOM
"""

DLG SPR_0
{shk}"i'm Sorry."{shk}

DLG SPR_1
{shk}"i'm Sorry."{shk}

DLG SPR_2
{shk}"i'm Sorry."{shk}

DLG SPR_3
i'm ready.

DLG SPR_4
i'm ready.

DLG SPR_5
locked

DLG SPR_6
locked

DLG SPR_7
its so- {wvy}Relaxing!{wvy}

DLG SPR_8
{wvy}zzzZZZ...{wvy}

DLG SPR_9
this is k, a boy who was nice at heart but afraid to show it.

DLG SPR_a
k was bullied for years.

DLG SPR_b
then one day. k lashed out because he felt like the school never helped him with the bullies.

DLG SPR_c
k lashed out in frustration 

DLG SPR_d
and was suspended and moved to another school

DLG SPR_e
the bullies spread rumors on how k was a psychopath and was trying to kill people

DLG SPR_f
and everyone believed them.

DLG SPR_g
it got so bad to the point where 15 people ran away from him after seeing him at the park

DLG SPR_h
{shk}RING RING RING{shk} Hello is this {shk}616272616d{shk}? i'm not supposed to tell you this but.k... k... -he's fine but he...

DLG SPR_i
i like the room i grew up in.

DLG SPR_j
maybe i should paint it a new color..

DLG SPR_k
why not?

DLG SPR_l
"""
i like this color a lot.
but it doesn't suit me.
"""

DLG SPR_m
maybe i should mix the two colors..

DLG SPR_n
doesn't hurt to try!

DLG SPR_o
its perfect. that's all i can say.

DLG SPR_p
"""
hello! welcome to the 
C H I L L   Z O N E! 
Over there is the
C H I L L   S T O N E!
"""

DLG SPR_q
"""
i sure do love the
C H I L L  S T O N E
"""

DLG SPR_r
a

DLG SPR_s
b

DLG SPR_t
d

DLG SPR_u
"""
everyone changes whether we like it or not. we may not be able to change the past, but we can change the future. So to leave it on a good note, lets change the future for the betterâ€ 
-{shk}616272616d{shk}
"""

DLG SPR_v
This is my computer where i code.

DLG SPR_w
i'm not hungry.

DLG SPR_x
do plants feel?

DLG SPR_y
not feelin' like it today.

DLG SPR_z
b.a.d is not the true meaning

END 0
thank you.

END undefined
{shk}"i'm Sorry."{shk}

END undefinee
R E L A X

END undefinef


END undefineg
now who do i show first...

END undefineh
thank you everyone for being there for me. i made this game for you- all of you.

END undefinei
hey, the stars are out, brighter than they've ever been.

END undefinej
{shk}616272616d{shk}, Honey I'm so Sorry. I know you like both of them so much. but you know there is nothing we can do.

VAR a
42


