Steven universe Cookie Cat Mario

# BITSY VERSION 3.5

! ROOM_FORMAT 1

PAL 0
139,94,192
128,159,255
252,101,0

PAL 1
255,255,255
255,255,255
255,255,255

ROOM 0
0,0,0,0,0,0,0,0,0,0,0,0,0,0,0,0
0,0,0,0,0,0,0,0,0,0,0,0,0,0,0,0
0,0,0,0,0,0,0,0,0,0,0,0,0,0,0,0
0,0,0,0,0,0,0,0,0,0,0,0,0,0,0,0
0,0,0,0,0,0,0,0,0,0,0,0,0,0,0,0
0,0,0,0,0,0,0,0,0,0,0,0,0,0,0,0
0,0,0,0,0,0,0,0,0,0,0,0,0,0,0,0
0,0,0,0,0,0,0,0,0,0,0,0,0,0,0,0
0,0,0,0,0,0,0,0,0,0,0,0,0,0,0,0
0,0,0,0,0,0,0,0,0,0,0,0,0,0,0,0
0,0,0,0,0,0,0,c,c,c,c,c,c,c,c,0
0,0,0,0,0,0,0,c,0,0,0,0,0,0,c,0
0,0,0,0,c,c,c,c,0,0,0,0,0,0,c,0
c,c,c,c,c,0,0,c,0,a,a,0,a,a,c,0
0,0,0,0,0,0,0,0,0,0,a,0,a,0,c,0
a,a,a,a,a,a,a,a,a,a,a,0,a,a,a,a
WAL a,c
EXT 11,15 1 1,0
PAL 0

ROOM 1
a,0,a,b,0,0,0,0,0,0,0,0,0,0,0,0
a,0,a,b,0,0,0,0,0,0,0,0,0,0,0,0
a,0,a,b,0,0,0,0,0,0,0,0,0,0,0,0
b,0,b,b,0,0,0,0,0,0,0,0,0,0,0,0
b,0,b,0,0,0,0,0,0,0,0,0,0,0,0,0
b,0,b,0,0,0,0,0,0,0,0,0,0,0,0,0
b,0,b,0,0,0,0,0,0,0,0,0,0,0,0,0
b,0,b,0,0,0,0,0,0,0,0,0,0,0,0,0
b,0,b,0,0,0,0,0,0,0,0,0,0,0,0,0
b,0,b,0,0,0,0,0,0,0,0,0,0,0,0,0
b,0,b,0,0,0,0,0,0,0,0,0,0,0,0,0
b,0,b,0,0,0,0,0,0,0,0,0,0,0,0,0
b,0,b,b,b,b,b,b,b,b,b,b,b,b,b,b
b,0,0,0,0,0,0,0,0,0,0,0,0,0,0,0
b,0,0,0,0,0,0,0,0,0,0,0,0,0,0,0
a,a,a,a,a,a,a,a,a,a,a,a,a,a,a,a
WAL a,b
EXT 15,14 2 0,14
EXT 15,13 2 0,13
PAL 0

ROOM 2
0,0,0,0,0,0,0,0,0,0,0,0,0,0,0,0
0,0,0,0,0,0,0,0,0,0,0,0,0,0,0,0
0,0,0,0,0,0,0,0,0,0,0,0,0,0,0,0
0,0,0,0,0,0,0,0,0,0,0,0,0,0,0,0
0,0,0,0,0,0,0,0,0,0,0,0,0,0,0,0
0,0,0,0,0,0,0,0,0,0,0,0,0,0,0,0
0,c,c,c,c,c,c,c,c,c,c,c,c,c,0,0
0,c,0,0,0,0,0,0,0,0,0,0,0,c,0,0
0,c,0,0,0,0,0,0,0,0,0,0,0,c,0,0
0,c,0,0,0,0,a,a,a,a,0,0,0,c,c,c
0,c,0,0,0,0,0,0,0,0,0,0,0,0,0,0
0,c,0,0,0,0,0,0,0,0,0,0,0,0,0,0
c,c,0,0,a,a,a,0,0,a,a,a,0,0,a,a
0,0,0,0,0,0,0,0,0,0,0,0,0,0,0,0
a,0,0,0,0,0,0,0,0,0,0,0,0,0,0,0
a,a,a,a,a,a,a,a,a,a,a,a,a,a,a,a
WAL a
EXT 0,13 1 14,13
EXT 0,14 1 14,14
EXT 15,13 3 0,13
EXT 15,14 3 0,14
PAL 0

ROOM 3
0,0,0,0,0,0,0,0,0,0,0,0,0,0,0,0
0,0,0,0,0,0,0,0,0,0,0,0,0,0,0,0
0,0,0,0,0,0,0,0,0,0,0,0,0,0,0,0
0,0,0,0,0,0,0,0,0,0,0,0,0,0,0,0
0,0,0,0,0,0,0,0,0,0,0,0,0,0,0,0
0,0,0,0,0,0,0,0,0,0,0,0,0,0,0,0
0,0,0,0,0,0,0,0,0,0,0,0,0,0,0,0
0,0,0,0,0,0,0,0,0,0,0,0,0,0,0,0
0,0,0,0,0,0,0,0,0,0,0,0,0,0,0,0
0,0,0,0,0,0,0,0,0,0,0,0,0,0,0,0
0,0,0,0,0,0,0,0,0,0,0,0,0,0,0,0
0,0,0,0,0,0,0,0,0,0,0,0,0,0,0,0,b
b,b,b,b,b,b,b,b,b,b,b,b,b,b,b,b
0,0,0,0,0,0,0,0,0,0,0,0,0,0,0,0
0,0,0,0,0,0,0,0,0,0,0,0,0,0,0,0
a,a,a,a,0,0,0,0,0,0,0,0,a,a,a,a
WAL a,b
END 0 4,15
END 0 6,15
END 0 5,15
END 0 7,15
END 0 11,15
END 0 10,15
END 0 9,15
END 0 8,15
PAL 0

TIL a
11111111
10000001
10000001
10000001
10000001
10000001
10000001
11111111

TIL b
00000000
00000000
00000000
00000000
00000000
00000000
00000000
00000000

TIL c
00000000
00000000
00000000
00000000
00000000
00000000
00000000
00000000

SPR A
00000000
00000000
01100110
01111110
11011011
11111111
01111110
00000000
>
00000000
00000000
01100110
01111110
01011010
11011011
11111111
01111110
POS 0 0,14

SPR a
11111111
10011001
10100101
10000101
10001001
10010001
10010001
11111111
POS 2 5,12

SPR b
00000000
00000000
01100111
01100100
11110100
11111100
11110100
111101001
POS 3 13,14

SPR c
11111111
10011001
10100101
10000101
10001001
10010001
10010001
11111111
POS 2 10,12

SPR d
11111111
10011001
10100101
10000101
10001001
10010001
10010001
11111111

SPR e
11111111
10011001
10100101
10000101
10001001
10010001
10010001
11111111

SPR f
11111111
10011001
10100101
10000101
10001001
10010001
10010001
11111111

SPR g
11111111
10011001
10100101
10000101
10001001
10010001
10010001
11111111
POS 0 5,13

SPR h
11111111
10011001
10100101
10000101
10001001
10010001
10010001
11111111
POS 0 6,13

DLG a
+1 Pearl Point

DLG c
+1 Pearl Point

DLG b
i am the reaper time to die

DLG d
+1 Pearl Point

DLG e
+1 Pearl Point

DLG f
+1 Pearl Point

DLG g
+1 Pearl Point

DLG h
+1 Pearl Point

END 0
yOuBeDeAdmYdUdE

