
[[TRINKET]]

# BITSY VERSION 4.5

! ROOM_FORMAT 1

PAL 0
0,0,0
69,94,255
169,255,252

ROOM 0
g,h,y,z,f,f,f,f,a,a,a,a,a,a,g,g
g,b,11,10,e,e,e,e,f,f,f,f,a,a,g,g
g,h,w,x,f,f,f,f,e,e,e,e,d,a,a,g
g,b,0,0,e,e,e,e,d,d,d,d,d,a,a,g
g,h,0,0,a,a,a,a,a,a,a,a,d,a,a,g
g,0,0,0,0,0,d,d,a,a,a,a,d,h,h,g
0,0,0,0,0,0,0,b,d,a,a,a,d,h,b,g
g,0,b,a,a,0,0,b,b,d,d,d,d,b,h,g
g,0,b,a,a,0,0,0,0,h,b,b,b,h,h,g
g,0,h,a,a,a,0,0,0,0,0,0,0,0,0,g
g,0,b,a,a,a,a,a,b,b,b,h,h,0,0,0
g,0,h,a,f,f,f,f,h,b,b,h,b,b,0,g
g,h,0,d,e,e,e,e,f,f,f,f,h,h,0,g
g,h,h,g,f,f,f,f,e,e,e,e,d,h,0,g
g,b,h,d,e,e,e,e,f,f,f,f,h,b,0,g
g,h,h,g,g,g,g,g,e,e,e,e,d,g,g,g
NAME The City
WAL b,c,d,e,f,g,h,a,i,j,k,l,m,y,z,10,11
EXT 15,10 1 0,10
EXT 2,2 4 7,15
EXT 3,2 4 8,15
PAL 0

ROOM 1
g,g,g,m,m,g,i,l,i,l,g,o,g,g,g,g
g,m,m,g,i,l,j,k,j,k,g,o,0,0,g,g
m,g,g,g,j,k,g,i,l,g,g,o,g,13,g,g
m,m,g,g,g,i,l,j,k,g,g,o,g,g,g,g
g,g,g,i,l,j,k,g,g,g,g,o,g,m,m,g
g,m,m,j,k,i,l,g,g,0,0,o,0,g,g,m
g,g,g,i,l,j,k,15,0,0,g,o,0,g,g,g
g,g,g,j,k,0,0,14,n,n,n,p,0,m,m,g
g,g,g,0,q,n,n,p,g,0,0,0,g,g,g,g
g,0,0,0,o,0,0,0,0,0,0,g,g,g,m,m
n,n,n,n,p,0,g,0,g,i,l,g,m,m,g,g
g,g,g,g,g,0,0,i,l,j,k,i,l,g,g,g
g,g,g,g,g,g,g,j,k,i,l,j,k,g,m,m
g,g,m,m,g,g,g,g,g,j,k,i,l,g,g,g
g,m,m,g,g,g,g,g,g,g,j,j,k,i,l,g
g,g,g,g,g,g,g,m,m,g,g,g,g,j,k,g
NAME mountain pass1
WAL i,j,k,a,l,b,c,d,e,f,g,h,m
EXT 0,10 0 15,10
EXT 11,0 2 11,15
EXT 13,2 6 8,0
EXT 7,6 7 7,15
PAL 0

ROOM 2
g,m,m,g,g,i,l,i,l,g,g,g,s,g,g,g
k,g,g,g,g,j,k,j,k,g,g,0,s,0,g,g
i,l,g,g,g,g,g,g,g,m,g,0,o,0,g,m
j,k,g,g,m,m,g,g,g,g,0,0,o,0,g,g
g,i,l,g,g,g,g,g,t,0,0,q,p,0,g,g
g,j,k,g,g,g,g,g,g,g,0,s,0,0,u,g
g,g,i,l,g,g,m,m,g,g,0,o,0,0,g,g
g,g,j,k,g,g,g,g,g,0,0,o,0,0,g,g
g,g,g,i,l,g,m,t,0,0,0,s,0,0,u,g
l,g,g,j,k,g,g,g,g,0,0,o,0,0,u,g
k,i,l,g,i,l,g,g,t,0,0,o,0,0,g,g
g,j,k,g,j,k,i,l,g,0,0,s,0,0,g,g
g,g,g,g,i,l,j,k,g,g,0,o,0,0,g,g
g,m,m,g,j,k,i,l,g,t,0,s,0,g,g,g
g,g,g,g,g,g,j,k,i,l,0,o,0,g,m,m
g,g,m,m,g,g,g,i,j,k,g,o,g,g,g,g
NAME mountain pass2
WAL a,b,c,d,e,f,g,h,i,j,k,l,m,u,t
EXT 11,15 1 11,0
EXT 12,0 3 12,15
PAL 0

ROOM 3
a,v,a,v,v,v,a,0,a,v,v,v,a,v,a,v
0,0,0,0,c,0,0,0,0,0,c,0,0,0,m,m
a,0,a,0,e,0,a,0,a,0,e,0,a,0,a,g
a,0,a,0,c,0,a,0,a,0,c,0,a,0,a,g
a,0,a,0,e,0,a,0,a,0,e,0,a,0,a,g
0,0,0,0,c,0,0,0,0,0,c,0,0,0,0,g
a,0,a,0,e,0,a,0,a,0,e,0,a,0,a,g
g,g,0,0,0,0,0,0,0,0,0,0,0,0,u,g
g,g,g,0,0,0,0,0,0,0,0,0,0,0,m,m
i,l,g,g,0,0,0,g,0,0,0,0,0,0,g,g
j,k,i,l,0,g,0,g,0,0,g,0,0,0,g,g
m,m,j,k,i,l,g,g,0,0,g,0,0,g,g,g
g,g,i,l,j,k,i,l,g,g,g,g,0,g,m,m
m,m,j,k,g,g,j,k,i,l,g,t,0,g,g,g
g,g,g,g,g,g,g,g,j,k,g,g,0,g,g,g
g,g,g,g,m,m,g,i,l,i,l,g,0,g,g,g
NAME neighbortown
WAL g,v,a,b,c,d,e,f,h,i,j,k,l,m,t,u
EXT 12,15 2 12,0
EXT 7,0 9 7,15
PAL 0

ROOM 4
12,12,12,12,12,12,12,12,12,12,12,12,12,12,12,12
12,12,12,12,12,12,12,12,12,12,12,12,12,12,12,12
12,12,12,12,12,12,12,12,12,12,12,12,12,12,12,12
12,12,12,12,12,12,12,12,12,12,12,12,12,12,12,12
12,12,12,12,12,12,12,12,12,12,12,12,12,12,12,12
12,12,12,12,0,0,0,0,0,0,0,0,12,12,12,12
12,12,12,12,0,0,0,0,0,0,0,0,12,12,12,12
12,12,12,12,0,0,0,0,0,0,0,0,12,12,12,12
12,12,12,12,12,12,12,0,0,12,12,12,12,12,12,12
12,12,12,12,12,12,12,0,0,12,12,12,12,12,12,12
12,12,12,12,12,12,12,0,0,12,12,12,12,12,12,12
12,12,12,12,12,12,12,0,0,12,12,12,12,12,12,12
12,12,12,12,12,12,12,0,0,12,12,12,12,12,12,12
12,12,12,12,12,12,12,0,0,12,12,12,12,12,12,12
12,12,12,12,12,12,12,0,0,12,12,12,12,12,12,12
12,12,12,12,12,12,12,0,0,12,12,12,12,12,12,12
NAME the magistrates
WAL 12
EXT 7,15 5 2,3
EXT 8,15 5 3,3
PAL 0

ROOM 5
g,h,y,z,f,f,f,f,a,a,a,a,a,a,g,g
g,b,11,10,e,e,e,e,f,f,f,f,a,a,g,g
g,h,w,x,f,f,f,f,e,e,e,e,d,a,a,g
g,b,0,0,e,e,e,e,d,d,d,d,d,a,a,g
g,h,0,0,a,a,a,a,a,a,a,a,d,a,a,g
g,0,0,0,0,0,d,d,a,a,a,a,d,h,h,g
0,0,0,0,0,0,0,b,d,a,a,a,d,h,b,g
g,0,b,a,a,0,0,b,b,d,d,d,d,b,h,g
g,0,b,a,a,0,0,0,0,h,b,b,b,h,h,g
g,0,h,a,a,a,0,0,0,0,0,0,0,0,0,g
g,0,b,a,a,a,a,a,b,b,b,h,h,0,0,0
g,0,h,a,f,f,f,f,h,b,b,h,b,b,0,g
g,h,0,d,e,e,e,e,f,f,f,f,h,h,0,g
g,h,h,g,f,f,f,f,e,e,e,e,d,h,0,g
g,b,h,d,e,e,e,e,f,f,f,f,h,b,0,g
g,h,h,g,g,g,g,g,e,e,e,e,d,g,g,g
NAME the city open
WAL b,c,d,e,f,g,h,a,i,j,k,l,m,y,z,10,11
EXT 15,10 1 0,10
EXT 2,2 4 7,15
EXT 3,2 4 8,15
PAL 0

ROOM 6
12,12,12,12,12,12,12,12,0,12,12,12,12,12,12,12
12,12,12,12,12,12,12,12,0,12,12,12,12,12,12,12
12,12,12,12,12,12,12,12,0,12,12,12,12,12,12,12
12,12,12,12,12,12,12,12,0,12,12,12,12,12,12,12
12,12,12,12,12,12,12,12,0,12,12,12,12,12,12,12
12,12,12,12,12,12,12,12,0,12,12,12,12,12,12,12
12,12,12,12,12,12,12,12,0,12,12,12,12,12,12,12
12,12,12,12,12,12,12,12,0,12,12,12,12,12,12,12
12,12,12,0,0,0,12,0,0,12,12,0,0,0,12,12
12,12,12,0,0,0,12,0,0,12,12,0,0,0,12,12
12,12,12,12,12,0,12,0,0,12,12,12,0,12,12,12
12,12,12,12,12,0,0,0,0,0,0,0,0,0,12,12
12,12,12,0,0,0,12,0,0,0,0,0,0,0,12,12
12,12,12,0,0,0,12,0,0,0,0,0,0,0,12,12
12,12,12,12,12,12,12,12,12,12,12,12,12,12,12,12
12,12,12,12,12,12,12,12,12,12,12,12,12,12,12,12
NAME Miners house
WAL 12
EXT 8,0 1 13,1
PAL 0

ROOM 7
0,0,0,0,0,0,0,0,0,0,0,0,0,0,0,0
0,0,0,0,0,0,0,0,0,0,0,0,0,0,0,0
0,0,0,0,0,0,0,0,0,0,0,0,0,0,0,0
0,0,0,0,0,0,0,0,0,0,0,0,0,0,0,0
0,0,0,0,0,0,0,0,0,0,0,0,0,0,0,0
0,0,0,0,0,0,0,0,0,0,0,0,0,0,0,0
0,0,0,0,0,0,0,0,0,0,0,0,0,0,0,0
0,0,0,0,0,0,0,0,0,0,0,0,0,0,0,0
0,0,0,0,0,0,0,0,0,0,0,0,0,0,0,0
0,0,0,0,0,0,0,0,0,0,0,0,0,0,0,0
0,0,0,0,0,0,0,0,0,0,0,0,0,0,0,0
0,0,0,0,0,0,0,0,0,0,0,0,0,0,0,0
0,0,0,0,0,0,0,0,0,0,0,0,0,0,0,0
0,0,0,0,0,0,0,1c,1d,0,0,0,0,0,0,0
0,0,0,0,0,1a,19,19,19,19,1b,0,0,0,0,0
0,0,0,0,0,18,16,16,16,16,17,0,0,0,0,0
NAME cave of wonder
EXT 7,15 1 7,6
EXT 8,15 1 7,6
EXT 9,15 1 7,6
EXT 10,15 1 7,6
EXT 6,15 1 7,6
EXT 5,15 1 7,6
EXT 7,0 8 7,15
PAL 0

ROOM 8
0,0,0,0,0,0,0,0,0,0,0,0,0,0,0,0
0,0,0,0,0,0,0,0,0,0,0,0,0,0,0,0
0,0,0,0,0,0,0,0,0,0,0,0,0,0,0,0
0,0,0,0,0,0,0,0,0,0,0,0,0,0,0,0
0,0,0,0,0,0,0,0,0,0,0,0,0,0,0,0
0,0,0,0,0,0,0,0,0,0,0,0,0,0,0,0
0,0,0,0,0,0,0,0,0,0,0,0,0,0,0,0
0,0,0,0,0,0,0,0,0,0,0,0,0,0,0,0
0,0,0,0,0,0,0,0,0,0,0,0,0,0,0,0
0,0,0,0,0,0,0,0,0,0,0,0,0,0,0,0
0,0,0,0,0,0,0,0,0,0,0,0,0,0,0,0
0,0,0,0,0,0,0,0,0,0,0,0,0,0,0,0
0,0,0,0,0,0,0,0,0,0,0,0,0,0,0,0
0,0,0,0,0,0,0,0,0,0,0,0,0,0,0,0
0,0,0,0,0,0,0,0,0,0,0,0,0,0,0,0
0,0,0,0,0,0,0,0,0,0,0,0,0,0,0,0
NAME Cave of wonder2
ITM 0 7,1
EXT 7,15 7 8,0
PAL 0

ROOM 9
b,a,v,v,a,v,a,v,a,0,a,v,v,v,a,v
b,a,c,0,a,0,0,0,0,0,0,a,h,c,a,0
h,b,e,0,0,0,0,0,0,0,0,b,b,e,b,0
a,b,b,a,0,0,0,0,0,0,0,b,a,b,b,a
a,b,h,a,0,0,c,0,0,c,0,b,a,b,h,a
b,b,b,0,0,0,e,0,0,e,0,b,h,b,b,b
h,a,b,h,a,0,0,0,0,0,0,a,b,b,a,h
b,a,c,b,a,0,0,0,0,0,0,a,b,c,a,h
h,b,e,b,b,h,0,0,0,0,b,b,b,e,b,b
a,b,b,a,b,0,0,0,0,0,0,b,a,b,b,a
a,b,h,a,b,0,0,0,0,0,0,b,a,b,b,a
b,b,b,b,b,b,0,0,0,0,b,h,b,b,h,h
b,a,b,b,a,b,c,0,0,c,b,b,h,b,a,b
h,a,b,h,a,b,e,0,0,e,b,a,b,b,a,b
b,b,h,b,h,b,b,0,b,b,h,b,h,b,b,h
a,v,a,v,v,v,a,0,a,v,v,v,a,v,a,v
NAME Chantry City
WAL a,b,c,d,e,f,g,h,i,j,k,l,m,t,u,v
EXT 7,15 3 7,0
EXT 9,0 a 9,15
PAL 0

ROOM 10
0,0,0,2k,0,2l,0,2l,2l,2m,0,2k,2l,2l,2l,2l
0,0,2m,0,2k,0,2k,0,0,2k,2l,0,2k,0,0,2m
2m,0,2k,0,0,2k,0,2k,0,0,2k,0,0,2k,0,2l
0,2l,2l,2k,0,0,0,2l,2k,0,0,0,2m,0,0,2l
2k,0,0,0,2k,0,0,0,2l,2k,2m,0,2k,0,0,2m
0,2k,0,2k,0,2k,0,2m,0,0,2k,0,0,2k,0,2l
2k,0,2k,0,2k,0,2k,0,2k,0,0,2k,0,0,2k,2l
2l,2k,0,0,0,2k,0,2k,0,2k,0,0,2k,0,0,2k
0,0,2k,0,0,2l,2k,0,2k,0,2k,0,0,2k,0,0
2l,0,0,0,0,0,0,0,0,2k,0,2k,0,0,2k,2m
2l,0,2m,0,2k,0,2k,2k,0,0,2l,2l,2k,2m,0,0
0,0,0,0,0,2k,0,0,2k,0,0,0,0,0,0,0
2k,0,2k,0,0,2m,2k,2l,2l,2k,0,2m,2k,0,0,2m
2k,0,0,2k,0,0,0,2k,0,0,2k,0,0,2k,0,0
0,2k,0,0,2k,0,0,0,0,2l,2l,2k,0,0,2k,0
2m,0,2k,2m,0,2k,2l,0,2l,2l,2l,2l,2k,0,0,2k
NAME rubbleA
WAL 2k,2l
EXT 7,15 z 3,8
EXT 0,0 11 14,14
PAL 0

ROOM 11
0,0,1q,1q,1q,0,2k,0,2l,0,0,0,0,0,0,2m
0,0,1q,0,0,2m,0,2l,0,0,2k,2m,2m,2l,0,0
1q,0,2m,0,2l,0,2l,0,0,0,0,0,0,0,2m,0
1q,1q,0,0,2l,0,0,2k,0,2m,0,2l,0,2k,0,0
1q,2l,0,0,2l,0,2l,0,0,0,0,0,0,0,0,2l
1q,0,0,0,0,0,0,0,0,0,0,0,0,2m,0,0
1q,0,0,2m,0,0,2m,0,0,2k,2k,0,2l,0,0,2k
0,2k,0,0,0,0,0,0,2l,0,2k,0,0,0,0,0
0,0,0,0,0,0,0,0,0,0,2l,2k,0,0,2l,0
0,2m,0,2l,0,2k,2k,0,2m,0,0,2k,2k,0,0,2l
0,2k,0,0,0,0,2k,2k,0,0,0,0,2k,0,0,0
0,0,2l,0,0,0,0,2k,2k,2l,0,2m,0,2k,0,0
0,0,0,2k,0,2l,0,0,2k,2k,0,0,0,0,2k,0
0,2l,0,0,0,0,2k,0,0,2k,2k,0,0,2m,0,2l
0,0,0,2l,0,2l,2m,0,2m,0,0,2k,0,0,0,0
0,2m,0,0,0,0,0,0,2l,0,0,0,2l,2l,0,0
NAME rubbleB
WAL 2k,2l
ITM 0 1,1
EXT 15,15 10 1,1
EXT 0,0 z 2,3
PAL 0

ROOM 12
1q,1q,1q,1q,1q,1q,1q,1q,1q,1q,1q,1q,1q,1q,1q,1q
1q,1q,1q,1q,1q,1q,1q,1q,1q,1q,1q,1q,1q,1q,1q,0
1q,1q,1q,1q,0,0,0,0,0,0,0,0,0,0,0,0
1q,1q,1q,1q,0,1q,1q,1q,1q,1q,1q,1q,1q,1q,1q,1q
1q,1q,1q,1q,0,1q,1q,1q,1q,1q,1q,1q,1q,1q,1q,1q
1q,1q,1q,1q,0,1q,1q,1q,1q,1q,1q,1q,1q,1q,1q,1q
1q,1q,1q,1q,0,1q,1q,1q,1q,1q,1q,1q,1q,1q,1q,1q
1q,1q,1q,1q,0,1q,1q,1q,1q,1q,1q,1q,1q,1q,1q,1q
1q,1q,1q,1q,0,1q,1q,1q,1q,1q,1q,1q,1q,1q,1q,1q
1q,1q,1q,1q,0,1q,1q,1q,1q,1q,1q,1q,1q,1q,1q,1q
1q,1q,1q,1q,0,1q,1q,1q,1q,1q,1q,1q,1q,1q,1q,1q
1q,1q,1q,1q,0,1q,1q,1q,1q,1q,1q,1q,1q,1q,1q,1q
1q,1q,1q,1q,0,0,0,0,0,0,1q,1q,1q,1q,1q,1q
1q,1q,1q,1q,1q,1q,1q,1q,1q,0,1q,1q,1q,1q,1q,1q
1q,1q,1q,1q,1q,1q,1q,1q,1q,0,1q,1q,1q,1q,1q,1q
1q,1q,1q,1q,1q,1q,1q,1q,1q,0,1q,1q,1q,1q,1q,1q
NAME thewayhome
EXT 9,15 13 9,0
PAL 0

ROOM 13
1q,1q,1q,1q,1q,1q,1q,1q,1q,0,1q,1q,1q,1q,1q,0
1q,1q,1q,1q,1q,1q,1q,1q,1q,0,1q,1q,1q,1q,1q,1q
1q,1q,1q,1q,1q,1q,1q,1q,1q,0,1q,1q,1q,1q,1q,1q
1q,1q,1q,1q,1q,1q,1q,1q,1q,0,1q,1q,1q,1q,1q,1q
1q,1q,1q,1q,1q,1q,1q,1q,1q,0,1q,1q,1q,1q,1q,1q
1q,1q,1q,1q,1q,1q,1q,1q,1q,0,1q,1q,1q,1q,1q,1q
1q,1q,1q,1q,1q,1q,1q,1q,1q,0,1q,1q,1q,1q,1q,1q
1q,0,1q,1q,1q,0,0,0,0,0,1q,1q,1q,1q,1q,1q
1q,0,0,0,0,0,1q,1q,1q,1q,1q,1q,1q,1q,1q,1q
1q,0,1q,1q,1q,1q,1q,0,0,0,0,0,0,0,0,0
1q,0,1q,0,0,0,1q,0,1q,1q,1q,1q,1q,0,1q,1q
1q,0,1q,0,0,0,1q,0,1q,1q,1q,1q,1q,0,1q,1q
1q,0,1q,0,0,0,1q,0,1q,1q,1q,1q,1q,0,1q,1q
1q,0,1q,1q,1q,1q,1q,0,1q,1q,1q,1q,1q,0,1q,1q
1q,0,0,0,0,0,0,0,1q,1q,1q,1q,1q,0,1q,1q
1q,1q,1q,1q,1q,1q,1q,1q,1q,1q,1q,1q,1q,0,1q,1q
NAME sea or swamp
EXT 9,0 12 9,15
EXT 15,9 14 0,9
EXT 13,15 1c 13,0
PAL 0

ROOM 14
2a,2a,2a,2a,2a,2a,2a,2a,2a,2a,2a,2a,2a,2a,2a,2a
2a,2a,2a,2a,2a,2a,2a,2a,2a,2a,2a,2a,2a,2a,2a,2a
2a,2a,2a,2a,2a,2a,2a,2a,2a,2a,2a,2a,2a,2a,2a,2a
2a,2a,2a,2a,2a,2a,2a,2a,2a,2a,2a,2a,2a,2a,2a,2a
2a,2a,2a,2a,2a,2a,2a,2a,2a,2a,2a,2a,2a,2a,2a,2a
2a,2a,2a,2a,2a,2a,2a,2a,2a,2a,2a,2a,2a,2a,2a,2a
2a,2a,2a,2a,2a,2a,0,0,0,0,0,0,0,0,0,0
2a,2a,2a,2a,2a,2a,0,2a,2a,2a,2a,2a,2a,2a,2a,2a
2a,2a,2a,2a,2a,2a,0,2a,2a,2a,2a,2a,2a,2a,2a,2a
0,0,0,0,0,0,0,2a,2a,2a,2a,2a,2a,2a,2a,2a
2a,2a,2a,2a,2a,2a,2a,2a,2a,2a,2a,2a,2a,2a,2a,2a
2a,2a,2a,2a,2a,2a,2a,2a,2a,2a,2a,2a,2a,2a,2a,2a
2a,2a,2a,2a,2a,2a,2a,2a,2a,2a,2a,2a,2a,2a,2a,2a
2a,2a,2a,2a,2a,2a,2a,2a,2a,2a,2a,2a,2a,2a,2a,2a
2a,2a,2a,2a,2a,2a,2a,2a,2a,2a,2a,2a,2a,2a,2a,2a
2a,2a,2a,2a,2a,2a,2a,2a,2a,2a,2a,2a,2a,2a,2a,2a
NAME chose sea
WAL 2a
EXT 0,9 13 15,9
EXT 15,6 15 0,6
PAL 0

ROOM 15
2a,2a,2a,2a,2a,2a,2a,2a,2a,1r,1h,1h,1h,1h,1h,1k
2a,2a,2a,2a,2a,2a,2a,2a,2a,2m,1k,1h,1h,1h,1h,1i
2a,2a,2a,2a,2a,2a,2a,2a,2a,2m,1i,1h,1h,1k,1h,1h
2a,2a,2a,2a,2a,2a,2a,2a,2a,1r,1h,1k,1h,1i,1h,1h
2a,2a,2a,2a,1y,2a,2a,2a,2a,2m,1h,1i,1h,1h,1k,1h
2a,2a,2a,2a,0,2a,2a,2a,2a,1r,1k,1h,1h,1h,1i,1h
0,0,0,0,0,0,0,2a,2a,2m,1i,1h,1h,1h,1h,1h
2a,2a,2a,2a,2a,2a,0,2a,2a,2a,2a,2a,1k,1k,1k,1k
2a,2a,2a,2a,2a,2a,0,0,0,0,0,0,0,0,0,0
2a,2a,2a,2a,2a,2a,2a,2a,2a,2a,2a,2a,1k,1k,1k,1k
2a,2a,2a,2a,2a,2a,2a,2a,2a,2a,2a,2m,1i,1i,1i,1i
2a,2a,2a,2a,2a,2a,2a,2a,2a,2a,2a,1r,1k,1h,1k,1h
2a,2a,2a,2a,2a,2a,2a,2a,2a,2a,2a,2m,1i,1h,1i,1h
2a,2a,2a,2a,2a,2a,2a,2a,2a,2a,2a,2m,1h,1k,1h,1k
2a,2a,2a,2a,2a,2a,2a,2a,2a,2a,2a,1r,1k,1i,1h,1i
2a,2a,2a,2a,2a,2a,2a,2a,2a,2a,2a,2m,1i,1h,1h,1h
NAME fishermans home
WAL 2a,1k
EXT 0,6 14 15,6
EXT 4,4 16 8,15
EXT 15,8 17 0,8
PAL 0

ROOM 16
12,12,12,12,12,12,12,12,12,12,12,12,12,12,12,12
12,12,12,12,12,12,12,12,12,12,12,12,12,12,12,12
12,12,12,12,12,12,12,12,12,12,12,12,12,12,12,12
12,12,12,12,12,12,12,12,12,12,12,12,12,12,12,12
12,12,12,12,12,12,12,12,12,12,12,12,12,12,12,12
12,12,12,12,12,12,12,12,12,12,12,12,12,12,12,12
12,12,12,12,12,12,12,12,12,12,12,12,12,12,12,12
12,12,12,12,12,12,12,12,12,12,12,12,12,12,12,12
12,12,12,12,12,12,12,12,12,12,12,12,12,12,12,12
12,12,12,12,12,0,0,0,0,0,0,12,12,12,12,12
12,12,12,12,12,0,0,0,0,0,0,12,12,12,12,12
12,12,12,12,12,12,12,12,0,12,12,12,12,12,12,12
12,12,12,12,12,12,12,12,0,12,12,12,12,12,12,12
12,12,12,12,12,12,12,12,0,12,12,12,12,12,12,12
12,12,12,12,12,12,12,12,0,12,12,12,12,12,12,12
12,12,12,12,12,12,12,12,0,12,12,12,12,12,12,12
NAME realfishhome
WAL 12
EXT 8,15 15 4,4
PAL 0

ROOM 17
1h,1h,1h,1h,1h,1h,1h,1h,1h,1h,1h,1h,1h,1h,1h,1h
1h,1h,1k,1h,1h,1k,1h,1h,1h,1h,1h,1k,1h,1h,1h,1h
1h,1h,1i,1k,1h,1i,1h,1h,1h,1k,1h,1i,1h,1h,1h,1k
1h,1h,1h,1i,1h,1h,1k,1h,1h,1i,1h,1h,1h,1h,1h,1i
1h,1k,1h,1h,1h,1h,1i,1h,1h,1h,1k,1h,1h,1k,1h,1h
1h,1i,1h,1h,1k,1h,1h,1h,1h,1h,1i,1h,1h,1i,1h,1h
1h,1h,1h,1h,1i,1h,1h,1h,1h,1h,1h,1h,1h,1h,1h,1h
1k,1k,1k,1k,1k,1k,1k,1h,1k,1k,1k,1k,1k,1h,1h,1h
0,0,0,0,1i,1i,1i,1i,1i,1i,1i,1i,1i,1j,1h,1h
1k,1k,1k,1k,1h,1k,1k,1k,1k,1k,1k,1k,1k,1h,1h,1h
1i,1i,1i,1i,1h,1i,1i,1i,1i,1i,1i,1i,1i,1h,1h,1k
1h,1h,1k,1h,1h,1h,1h,1h,1h,1h,1h,1k,1h,1h,1h,1i
1h,1h,1i,1h,1h,1h,1h,1h,1h,1h,1h,1i,1h,1h,1h,1h
1h,1h,1k,1h,1h,1h,1h,1h,1h,1h,1k,1h,1h,1h,1h,1h
1h,1h,1i,1h,1h,1h,1h,1h,1h,1h,1i,1h,1h,1h,1k,1h
1h,1h,1h,1h,1h,1h,1h,1k,1h,1h,1h,1h,1h,1h,1i,1h
NAME seaintro
WAL 1k
EXT 0,8 15 15,8
EXT 13,8 18 15,11
PAL 0

ROOM 18
1h,1h,1h,1h,1h,1k,1h,1h,1h,1h,1h,1h,1h,1h,1h,1h
1h,1h,1k,1h,1h,1k,1h,1h,1j,1h,1h,1h,1h,1h,1h,1h
1h,1h,1i,1h,1k,1i,1h,1h,1h,1h,1h,1h,1h,1h,1h,1h
1h,1h,1k,1h,1i,1h,1h,1h,1h,1h,1h,1h,1h,1h,1h,1h
1h,1h,1i,1k,1h,1h,1h,1h,1h,1k,1h,1h,1h,1h,1h,1h
1h,1h,1k,1i,1h,1h,1k,1h,1h,1i,1h,1h,1h,1h,1k,1h
1h,1h,1i,1k,1h,1h,1i,1h,1h,1h,1h,1h,1h,1h,1i,1h
1h,1h,1h,1i,1k,1h,1h,1h,1h,1h,1h,1h,1h,1h,1h,1h
1h,1h,1h,1h,1i,1k,1h,1j,1h,1h,1h,1h,1h,1k,1h,1k
1k,1k,1k,1k,1k,1k,1h,1h,1h,1k,1h,1h,1h,1i,1k,1i
1i,1i,1i,1i,1i,1i,1k,1k,1k,1i,1k,1h,1k,1k,1i,1h
1h,1h,1h,1h,1h,1h,1i,1i,1i,1h,1i,1k,1i,1i,1h,1j
1h,1h,1h,1h,1h,1h,1h,1k,1h,1h,1h,1i,1h,1h,1h,1h
1h,1j,1h,1h,1h,1h,1h,1i,1h,1h,1k,1h,1h,1h,1h,1h
1h,1h,1h,1h,1h,1h,1h,1h,1h,1h,1i,1h,1h,1h,1h,1h
1h,1h,1h,1h,1h,1h,1h,1h,1h,1h,1h,1h,1h,1h,1h,1h
NAME sea001
WAL 1k
ITM 3 1,8
EXT 1,13 19 2,0
EXT 8,1 1a 13,15
EXT 15,11 17 13,8
PAL 0

ROOM 19
1h,1h,1j,1k,1h,1h,1h,1h,1h,1h,1h,1h,1h,1h,1h,1h
1h,1h,1k,1h,1h,1h,1h,1h,1h,1h,1h,1h,1h,1h,1h,1h
1h,1h,1k,1h,1h,1h,1h,1h,1h,1h,1h,1h,1h,1k,1h,1h
1h,1h,1h,1h,1h,1h,1h,1h,1h,1k,1h,1h,1h,1i,1h,1h
1h,1h,1k,1h,1h,1h,1h,1h,1h,1i,1h,1h,1h,1h,1h,1h
1h,1h,1k,1h,1h,1h,1k,1h,1h,1h,1h,1h,1h,1h,1h,1h
1h,1h,1i,1k,1h,1h,1i,1h,1h,1h,1h,1k,1h,1h,1k,1h
1h,1h,1k,1i,1h,1h,1h,1h,1h,1h,1h,1i,1h,1h,1i,1h
1h,1h,1i,1k,1h,1h,1h,1h,1h,1h,1k,1h,1h,1h,1h,1h
1h,1h,1h,1i,1k,1h,1h,1h,1h,1h,1i,1h,1h,1h,1h,1h
1h,1h,1h,1j,1k,1h,1h,1h,1h,1h,1h,1h,1h,1h,1h,1h
1h,1h,1h,1h,1k,1h,1h,1h,1h,1h,1h,1h,1h,1h,1h,1h
1k,1h,1h,1h,1k,1h,1h,1h,1h,1h,1h,1k,1h,1h,1h,1h
1i,1h,1h,1h,1k,1h,1k,1h,1h,1h,1h,1i,1h,1h,1h,1h
1h,1h,1h,1h,1k,1h,1i,1h,1h,1h,1h,1h,1h,1h,1h,1h
1h,1h,1h,1h,1k,1h,1h,1h,1h,1h,1h,1h,1h,1h,1h,1h
NAME sea002
WAL 1k
ITM 3 4,2
ITM 3 14,14
ITM 3 0,14
EXT 2,0 18 1,13
EXT 3,10 1a 0,3
PAL 0

ROOM 20
1q,1q,1q,1q,1q,1q,1q,1q,1q,1q,1q,1q,1q,1q,1q,1q
1q,1q,1q,1q,1q,1q,1q,0,0,0,0,0,0,1q,1q,1q
1q,1q,1q,1q,1q,0,0,0,0,0,0,0,0,0,1q,1q
1q,1q,1q,1q,1q,1q,0,0,0,0,0,0,0,0,0,1q
1q,1q,1q,1q,1q,1q,0,0,0,0,0,0,0,0,0,1q
1q,1q,1q,1q,1q,1q,1q,0,0,0,0,0,0,0,0,1q
1q,1q,1q,1q,1q,1q,1q,1q,0,0,0,0,0,0,0,1q
1q,1q,1q,1q,1q,1q,1q,1q,0,0,0,0,0,0,0,1q
1q,1q,1q,1q,1q,1q,1q,0,0,0,0,0,0,0,1q,1q
1q,1q,1q,1q,1q,1q,1q,1q,0,0,0,0,0,0,1q,1q
1q,1q,1q,1q,1q,1q,1q,1q,0,0,0,0,0,1q,1q,1q
1q,1q,1q,1q,1q,1q,1q,1q,1q,0,0,0,1q,1q,1q,1q
1q,1q,1q,1q,1q,1q,1q,1q,1q,0,0,0,1q,1q,1q,1q
1q,1q,1q,1q,1q,1q,1q,1q,1q,1q,0,0,1q,1q,1q,1q
1q,1q,1q,1q,1q,1q,1q,1q,1q,1q,0,1q,1q,1q,1q,1q
1q,1q,1q,1q,1q,1q,1q,1q,1q,1q,0,1q,1q,1q,1q,1q
NAME swamp 025
EXT 10,15 1y 10,0
PAL 0

ROOM 21
1q,1q,1q,1q,1q,1q,1q,0,1q,1q,1q,1q,1q,1q,1q,1q
1q,1q,1q,1q,1q,1q,1q,0,1q,1q,1q,1q,1q,1q,1q,1q
1q,1q,1q,1q,1q,1q,1q,0,1q,1q,1q,1q,1q,1q,1q,1q
1q,1q,1q,1q,1q,1q,1q,0,1q,1q,1q,1q,1q,1q,1q,1q
1q,1q,1q,1q,1q,1q,1q,0,1q,1q,1q,1q,1q,1q,1q,1q
1q,1q,1q,1q,1q,1q,1q,0,0,1q,1q,1q,1q,1q,1q,1q
1q,1q,1q,1q,1q,1q,1q,0,0,1q,1q,1q,1q,1q,1q,1q
1q,1q,1q,1q,1q,1q,1q,1q,0,0,1q,1q,1q,1q,1q,1q
1q,1q,1q,1q,1q,1q,1q,1q,0,0,0,1q,1q,1q,1q,1q
1q,1q,1q,1q,1q,1q,1q,1q,0,0,0,1q,1q,1q,1q,1q
1q,1q,1q,1q,1q,1q,1q,1q,0,0,0,1q,1q,1q,1q,1q
1q,1q,1q,1q,1q,1q,1q,1q,0,0,1q,1q,1q,1q,1q,1q
1q,1q,1q,1q,1q,1q,1q,0,0,1q,1q,1q,1q,1q,1q,1q
1q,1q,1q,1q,1q,1q,1q,0,0,1q,1q,1q,1q,1q,1q,1q
1q,1q,1q,1q,1q,1q,1q,0,1q,1q,1q,1q,1q,1q,1q,1q
1q,1q,1q,1q,1q,1q,1q,1q,1q,1q,1q,1q,1q,1q,1q,1q
NAME swamp exit
EXT 7,0 1s 7,15
EXT 7,14 22 5,2
PAL 0

ROOM 22
2n,2n,2n,2n,2n,2n,2n,2n,2n,2n,2n,0,1r,2s,1h,1h
2n,2n,2n,2n,2n,2n,2n,2n,2n,2n,0,0,1r,2s,1h,1h
2n,2n,0,0,1k,0,1k,0,0,0,0,1r,1r,2s,1h,1h
0,0,0,0,0,0,0,0,0,0,0,1k,2s,1h,1h,1h
0,0,0,0,1k,0,0,0,0,0,0,1r,2s,1h,1h,1h
0,1k,0,0,0,0,0,1k,0,0,0,1k,2s,1h,1h,1h
0,0,1k,0,0,0,0,0,0,0,0,1r,2s,1h,1h,1h
0,0,0,0,0,0,0,0,0,0,0,1r,2s,1h,1h,1h
0,0,0,0,0,0,0,0,0,0,0,1r,2s,1h,1h,1h
0,0,0,0,0,0,0,0,0,1k,0,1r,2s,1h,1h,1h
0,0,0,0,0,0,1k,0,0,0,0,1r,2s,1h,1h,1h
0,0,0,0,0,0,0,0,0,0,0,1r,2s,1h,1h,1h
0,0,0,0,0,0,0,0,0,0,0,1r,2o,2o,2o,2o
0,0,0,0,1f,1f,1f,1f,1f,1f,1f,1f,1f,1f,1f,1f
0,0,0,0,0,0,0,0,0,0,0,0,1r,1r,1r,1r
0,0,0,0,0,0,0,0,0,0,0,0,0,1r,1r,1r
NAME second highway 001
EXT 5,2 21 7,14
EXT 15,13 23 0,13
PAL 0

ROOM 23
1h,1h,1h,1h,1h,1h,1h,1h,1h,1h,1h,1h,1h,1h,1h,1h
1h,1h,1h,1h,1h,1h,1h,1h,1h,1h,1h,1h,1h,1h,1h,1h
1h,1h,1h,1h,1h,1h,1h,1h,1h,1h,1h,1h,1h,1h,1h,1h
1h,1h,1h,1h,1h,1h,1h,1h,1h,1h,1h,1h,1h,1h,1h,1h
1h,1h,1h,1h,1h,1h,1h,1h,1h,1h,1h,1h,1h,1h,1h,1h
1h,1h,1h,1h,1h,1h,1h,1h,1h,1h,1h,1h,1h,1h,1h,1h
1h,1h,1h,1h,1h,1h,1h,1h,1h,1h,1h,1h,1h,1h,1h,1h
1h,1h,1h,1h,1h,1h,1h,1h,1h,1h,1h,1h,1h,1h,1h,1h
1h,1h,1h,1h,1h,1h,1h,1h,1h,1h,1h,1h,1h,1h,1h,1h
1h,1h,1h,1h,1h,1h,1h,1h,1h,1h,1h,1h,1h,1h,1h,1h
1h,1h,1h,1h,1h,1h,1h,1h,1h,1h,1h,1h,1h,1h,1h,1h
1h,1h,1h,1h,1h,1h,1h,1h,1h,1h,1h,1h,1h,1h,1h,1h
2o,2o,2o,2o,2o,2o,2o,2o,2o,2o,2o,2o,2o,2o,2o,2o
1f,1f,1f,1f,1f,1f,1f,1f,1f,1f,1f,1f,1f,1f,1f,1f
1r,1r,1r,1r,1r,1r,1r,1r,1r,1r,1r,1r,1r,1r,1r,1r
1r,1r,1r,1r,1r,1r,1r,1r,1r,1r,1r,1r,1r,1r,1r,1r
NAME highway back
EXT 0,13 22 15,13
EXT 15,13 24 0,13
PAL 0

ROOM 24
1h,1h,1h,1h,1h,1h,1h,1h,1h,1h,1h,1h,1h,1h,1h,1h
1h,1h,1h,1h,1h,1h,1h,1h,1h,1h,1h,1h,1h,1h,1h,1h
1h,1h,1h,1h,1h,1h,1h,1h,1h,1h,1h,1h,1h,1h,1h,1h
1h,1h,1h,1h,1h,1h,1h,1h,1h,1h,1h,1h,1h,1h,1h,1h
1h,1h,1h,1h,1h,1h,1h,1h,1h,1h,1h,1h,1h,1h,1h,1h
1h,1h,1h,1h,1h,1h,1h,1h,1h,1h,1h,1h,1h,1h,1h,1h
1h,1h,1h,1h,1h,1h,1h,1h,1h,1h,1h,1h,1h,1h,1h,1h
1h,1h,1h,1h,1h,1h,1h,1h,1h,1h,1h,1h,1h,1h,1h,1h
1h,1h,1h,1h,1h,1h,1h,1h,1h,1h,1h,1h,1h,1h,1h,1h
1h,1h,1h,1h,1h,1h,1h,1h,1h,1h,1h,1h,1h,1h,1h,1h
1h,1h,1h,1h,1h,1h,1h,1h,1h,1h,1h,1h,1h,1h,1h,1h
1h,1h,1h,1h,1h,1h,1h,1h,1h,1h,1h,1h,1h,1h,1h,1h
2o,2o,2o,2o,2o,2o,2o,2o,2o,2o,2o,2o,2o,2o,2o,2o
1f,1f,1f,1f,1f,1f,1f,1f,1f,1f,1f,1f,1f,1f,1f,1f
1r,1r,g,1r,1r,1r,1r,1r,g,1r,g,1r,1r,1r,g,1r
1r,1r,1r,1r,1r,1r,g,1r,1r,1r,1r,1r,g,1r,1r,1r
NAME highway back B
EXT 0,13 23 15,13
EXT 15,13 25 0,13
PAL 0

ROOM 25
1h,1h,1h,1h,1h,1h,1h,1h,1h,1h,1h,1h,1h,1h,1h,1h
1h,1h,1h,1h,1h,1h,1h,1h,1h,1h,1h,1h,1h,1h,1h,1h
1h,1h,1h,1h,1h,1h,1h,1h,1h,1h,1h,1h,1h,1h,1h,1h
1h,1h,1h,1h,1h,1h,1h,1h,1h,1h,1h,1h,1h,1h,1h,1h
1h,1h,1h,1h,1h,1h,1h,1h,1h,1h,1h,1h,1h,1h,1h,1h
1h,1h,1h,1h,1h,1h,1h,1h,1h,1h,1h,1h,1h,1h,1h,1h
1h,1h,1h,1h,1h,1h,1h,1h,1h,1h,1h,1h,1h,1h,1h,1h
1h,1h,1h,1h,1h,1h,1h,1h,1h,1h,1h,1h,1h,1h,1h,1h
1h,1h,1h,1h,1h,1h,1h,1h,1h,1h,1h,1h,1h,1h,1h,2o
1h,1h,1h,1h,1h,1h,1h,1h,1h,1h,1h,1h,1h,1h,2o,g
1h,1h,1h,1h,1h,1h,1h,1h,1h,1h,1h,1h,2o,2o,g,g
1h,1h,1h,1h,1h,1h,1h,1h,1h,1h,1h,1h,g,g,g,g
2o,2o,2o,2o,2o,2o,2o,2o,2o,2o,2o,2o,g,g,g,g
1f,1f,1f,1f,1f,1f,1f,1f,1f,1f,1f,1f,1f,1f,1f,1f
g,g,g,1r,1r,g,1r,g,0,1r,0,g,g,1r,g,1r
1r,1r,1r,1r,g,1r,0,1r,1r,g,1r,1r,g,1r,1r,1r
NAME highway back c
EXT 0,13 24 15,13
EXT 15,13 26 0,13
PAL 0

ROOM 26
1h,1h,1h,1h,1h,1h,1h,1h,1h,1h,1h,1h,1h,1h,1h,g
1h,1h,1h,1h,1h,1h,1h,1h,1h,1h,1h,2o,1h,2o,1h,g
1h,1h,1h,1h,1h,1h,1h,1h,1h,1h,2o,g,2o,g,2o,g
1h,1h,1h,1h,1h,1h,1h,1h,1h,2o,g,g,g,g,g,g
1h,1h,1h,1h,1h,1h,1h,2o,2o,g,g,g,g,g,g,g
1h,1h,1h,1h,1h,1h,2o,g,g,g,g,g,g,g,g,i
1h,1h,2o,2o,1h,2o,g,g,g,g,g,g,g,i,l,j
1h,2o,g,g,2o,g,g,g,g,g,g,i,l,j,k,i
2o,g,g,g,g,g,g,i,l,i,l,j,k,i,l,j
g,g,g,g,g,i,l,j,k,j,k,g,g,j,k,i
g,g,g,i,l,j,k,g,g,g,g,g,g,g,g,j
g,g,g,j,k,g,g,g,g,g,g,g,g,g,g,g
g,g,g,g,g,g,g,g,g,g,g,g,g,g,g,g
1f,1f,1f,1f,1f,1f,1f,1f,1f,1f,1f,1f,1f,1f,1f,1f
g,g,g,1r,1r,g,1r,g,0,1r,0,g,g,1r,g,1r
1r,1r,1r,1r,g,1r,0,1r,1r,g,1r,1r,g,1r,1r,1r
NAME almost there
EXT 0,13 25 15,13
EXT 15,13 27 0,6
PAL 0

ROOM 27
g,h,y,z,f,f,f,f,a,a,a,a,a,a,g,g
g,b,11,10,e,e,e,e,f,f,f,f,a,a,g,g
g,h,w,x,f,f,f,f,e,e,e,e,d,a,a,g
g,b,0,0,e,e,e,e,d,d,d,d,d,a,a,g
g,h,0,0,a,a,a,a,a,a,a,a,d,a,a,g
g,0,0,0,0,0,d,d,a,a,a,a,d,h,h,g
0,0,0,0,0,0,0,b,d,a,a,a,d,h,b,g
g,0,b,a,a,0,0,b,b,d,d,d,d,b,h,g
g,0,b,a,a,0,0,0,0,h,b,b,b,h,h,g
g,0,h,a,a,a,0,0,0,0,0,0,0,0,0,g
g,0,b,a,a,a,a,a,b,b,b,h,h,0,0,0
g,0,h,a,f,f,f,f,h,b,b,h,b,b,0,g
g,h,0,d,e,e,e,e,f,f,f,f,h,h,0,g
g,h,h,g,f,f,f,f,e,e,e,e,d,h,0,g
g,b,h,d,e,e,e,e,f,f,f,f,h,b,0,g
g,h,h,g,g,g,g,g,e,e,e,e,d,g,g,g
NAME the city return
WAL b,c,d,e,f,g,h,a,i,j,k,l,m,y,z,10,11
EXT 0,6 26 15,13
EXT 2,2 28 7,15
EXT 3,2 28 8,15
PAL 0

ROOM 28
12,12,12,12,12,12,12,12,12,12,12,12,12,12,12,12
12,12,12,12,12,12,12,12,12,12,12,12,12,12,12,12
12,12,12,12,12,12,12,12,12,12,12,12,12,12,12,12
12,12,12,12,12,12,12,12,12,12,12,12,12,12,12,12
12,12,12,12,2p,12,12,12,12,12,12,12,12,12,12,12
12,12,12,12,0,0,0,0,0,0,0,0,12,12,12,12
12,12,12,12,0,0,0,0,0,0,0,0,12,12,12,12
12,12,12,12,0,0,0,0,0,0,0,0,12,12,12,12
12,12,12,12,12,12,12,0,0,12,12,12,12,12,12,12
12,12,12,12,12,12,12,0,0,12,12,12,12,12,12,12
12,12,12,12,12,12,12,0,0,12,12,12,12,12,12,12
12,12,12,12,12,12,12,0,0,12,12,12,12,12,12,12
12,12,12,12,12,12,12,0,0,12,12,12,12,12,12,12
12,12,12,12,12,12,12,0,0,12,12,12,12,12,12,12
12,12,12,12,12,12,12,0,0,12,12,12,12,12,12,12
12,12,12,12,12,12,12,0,0,12,12,12,12,12,12,12
NAME the return to magistrates
WAL 12
EXT 7,15 27 2,2
EXT 8,15 27 3,2
END undefined 4,4
PAL 0

ROOM 29
2r,2r,2r,2r,2r,2r,2r,2r,2r,2r,2r,2r,2r,2r,2r,2r
2r,2r,2r,2r,2r,2r,2r,2r,2r,2r,2r,2r,2r,2r,2r,2r
2r,2r,2r,2r,2r,2r,2r,2r,2r,2r,2r,2r,2r,2r,2r,2r
2r,2r,2r,2r,2r,2r,2r,2r,2r,2r,2r,2r,2r,2r,2r,2r
2r,2r,2r,2r,2r,2r,2r,2r,2r,2r,2r,2r,2r,2r,2r,2r
2r,2r,2r,2r,2r,2r,2r,2r,2r,2r,2r,2r,2r,2r,2r,2r
2r,2r,2r,2r,2r,2r,2r,2r,2r,2r,2r,2r,2r,2r,2r,2r
2r,2r,2r,2r,2r,2r,2r,2r,2r,2r,2r,2r,2r,2r,2r,2r
2r,2r,2r,2r,2r,2r,2r,2r,2r,2r,2r,2r,2r,2r,2r,2r
2r,2r,2r,2r,2r,2r,2r,2r,2r,2r,2r,2r,2r,2r,2r,2r
2r,2r,2r,2r,2r,2r,2r,2r,2r,2r,2r,2r,2r,2r,2r,2r
2r,2r,2r,2r,2r,2r,2r,2r,2r,2r,2r,2r,2r,2r,2r,2r
2r,2r,2r,2r,2r,2r,2r,2r,2r,2r,2r,2r,2r,2r,2r,2r
2r,2r,2r,2r,2r,2r,2r,2r,2r,2r,2r,2r,2r,2r,2r,2r
2r,2r,2r,2r,2r,2r,2r,2r,2r,2r,2r,2r,2r,2r,2r,2r
2r,2r,2r,2r,2r,2r,2r,2r,2r,2r,2r,2r,2r,2r,2r,2r
NAME secretoceanpath
EXT 9,15 2a 7,0
PAL 0

ROOM a
g,g,g,g,g,g,g,g,g,g,g,g,b,h,b,b
g,g,g,g,g,g,g,g,g,1e,1e,1e,1e,1e,b,b
g,0,0,0,0,b,h,0,0,0,y,z,0,0,b,b
g,0,0,0,b,h,b,0,0,0,11,10,0,0,b,h
1f,1f,1f,1f,1f,1f,1g,0,0,0,11,10,0,0,b,h
a,0,a,v,v,v,a,v,v,a,w,x,a,v,v,v
0,0,0,0,b,0,0,0,0,0,0,0,0,0,0,b
0,0,b,h,b,0,0,b,b,b,0,0,0,b,b,b
0,h,b,b,h,0,0,b,b,b,0,0,b,b,h,b
0,0,0,0,0,0,0,0,0,0,0,h,b,b,b,b
a,v,v,a,v,v,v,v,a,0,a,v,a,v,v,a
b,b,b,b,b,h,0,0,0,0,0,0,0,0,0,b
b,b,0,b,h,b,0,0,0,0,0,0,0,b,h,b
b,b,0,0,0,0,0,0,0,0,0,h,b,h,b,b
b,0,0,0,0,0,0,0,0,0,0,0,0,0,0,b
a,a,v,v,a,v,a,v,a,0,a,v,v,v,a,v
NAME Chantry TowerA
WAL v,a,11,z,y,b,h,g
EXT 9,15 9 9,0
EXT 10,5 c 8,15
EXT 11,5 c 8,15
EXT 11,4 e 13,6
EXT 0,4 f 15,4
PAL 0

ROOM b
g,g,g,g,g,g,g,g,g,g,g,g,b,h,b,b
g,g,g,g,g,g,g,g,g,b,b,b,b,b,b,h
g,0,0,0,0,b,h,0,0,0,y,z,0,0,b,b
g,0,0,0,b,h,b,0,0,0,11,10,0,0,b,h
1f,1f,1f,1f,1f,1f,1g,0,0,0,11,10,0,0,b,h
a,0,a,v,v,v,a,v,v,a,w,x,a,v,v,v
0,0,0,0,b,0,0,0,0,0,0,0,0,0,0,b
0,0,b,h,b,0,0,b,b,b,0,0,0,b,b,b
0,h,b,b,h,0,0,b,b,b,0,0,b,b,h,b
0,0,0,0,0,0,0,0,0,0,0,h,b,b,b,b
a,v,v,a,v,v,v,v,a,0,a,v,a,v,v,a
b,b,b,b,b,h,0,0,0,0,0,0,0,0,0,b
b,b,0,b,h,b,0,0,0,0,0,0,0,b,h,b
b,b,0,0,0,0,0,0,0,0,0,h,b,h,b,b
b,0,0,0,0,0,0,0,0,0,0,0,0,0,0,b
a,a,v,v,a,v,a,v,a,0,a,v,v,v,a,v
NAME Chantry TowerB
WAL v,a,10,11,z,y,b,h
ITM 1 5,7
EXT 9,15 9 9,0
EXT 10,5 d 7,15
EXT 11,5 d 7,15
EXT 11,3 e 13,6
EXT 0,4 f 15,4
PAL 0

ROOM c
12,12,12,12,0,12,12,12,12,12,12,12,12,12,12,12
12,12,12,12,0,12,12,12,12,12,12,12,12,12,12,12
12,12,12,12,0,12,12,12,12,12,12,12,0,0,0,0
12,12,12,12,0,12,12,12,12,12,12,12,0,12,12,12
12,12,12,12,0,12,12,12,12,12,12,12,0,12,12,12
12,12,12,12,0,12,12,12,12,12,12,12,0,12,12,12
12,12,12,12,0,12,12,12,12,12,12,12,0,12,12,12
12,12,12,12,0,0,0,0,0,0,0,0,0,12,12,12
12,12,12,12,12,0,12,12,12,12,12,12,12,12,12,12
12,12,12,12,12,0,12,12,12,12,12,12,12,12,12,12
12,12,12,12,12,0,12,12,12,12,12,12,12,12,12,12
12,12,12,12,12,0,0,0,0,12,12,12,12,12,12,12
12,12,12,12,12,12,12,12,0,12,12,12,12,12,12,12
12,12,12,12,12,12,12,12,0,12,12,12,12,12,12,12
12,12,12,12,12,12,12,12,0,12,12,12,12,12,12,12
12,12,12,12,12,12,12,12,0,12,12,12,12,12,12,12
NAME CorridorA
WAL 12
EXT 8,15 a 11,6
EXT 4,0 d 7,15
PAL 0

ROOM d
12,12,12,12,12,12,12,12,12,12,12,12,12,12,12,12
12,12,12,12,12,12,12,12,12,12,12,12,12,12,12,12
12,12,12,12,12,12,12,12,12,12,12,12,12,12,12,12
12,12,12,0,0,0,0,0,0,0,0,0,0,12,12,12
12,12,12,0,0,0,0,0,0,0,0,0,0,12,12,12
12,12,12,0,0,0,0,0,0,0,0,0,0,12,12,12
12,12,12,0,0,0,0,0,0,0,0,0,0,12,12,12
12,12,12,0,0,0,0,0,0,0,0,0,0,12,12,12
12,12,12,0,0,0,0,0,0,0,0,0,0,12,12,12
12,12,12,0,0,0,0,0,0,0,0,0,0,12,12,12
12,12,12,12,12,12,12,0,12,12,12,12,12,12,12,12
12,12,12,12,12,12,12,0,12,12,12,12,12,12,12,12
12,12,12,12,12,12,12,0,12,12,12,12,12,12,12,12
12,12,12,12,12,12,12,0,12,12,12,12,12,12,12,12
12,12,12,12,12,12,12,0,12,12,12,12,12,12,12,12
12,12,12,12,12,12,12,0,12,12,12,12,12,12,12,12
NAME CHANTRYCouncil
WAL 12
EXT 7,15 b 11,6
PAL 0

ROOM e
12,12,12,12,12,12,12,12,12,12,12,12,12,12,12,12
12,12,0,0,0,0,0,0,0,12,12,12,12,12,12,12
0,0,0,0,0,0,0,0,0,12,12,12,12,12,12,12
12,12,0,0,0,0,0,0,0,12,12,12,12,12,12,12
12,12,0,0,0,0,0,0,0,12,12,12,12,12,12,12
12,12,12,12,12,12,12,0,12,12,12,12,12,12,12,12
12,12,12,12,12,12,12,0,12,12,12,12,0,0,0,0
12,12,12,12,12,12,12,0,12,12,12,12,0,12,12,12
12,12,12,12,12,12,12,0,12,12,12,12,0,12,12,12
12,12,12,12,12,12,12,0,12,12,12,12,0,12,12,12
12,12,12,12,12,12,12,0,12,12,12,12,0,12,12,12
12,12,12,12,12,12,12,0,12,12,12,12,0,12,12,12
12,12,12,12,12,12,12,0,0,0,0,0,0,12,12,12
12,12,12,12,12,12,12,12,12,12,12,12,12,12,12,12
12,12,12,12,12,12,12,12,12,12,12,12,12,12,12,12
12,12,12,12,12,12,12,12,12,12,12,12,12,12,12,12
NAME trinket room
WAL 12
ITM 0 5,2
EXT 13,6 a 12,3
PAL 0

ROOM f
g,g,g,g,g,g,g,g,g,g,g,g,g,g,g,g
g,g,g,g,g,g,g,g,g,g,g,g,g,g,g,g
g,g,0,g,g,g,g,g,0,g,g,g,g,g,g,g
0,g,0,0,g,0,g,0,0,g,0,0,g,0,g,g
1f,1f,1f,1f,1f,1f,1f,1f,1f,1f,1f,1f,1f,1f,1f,1f
g,g,g,g,g,g,g,g,g,g,g,g,g,g,g,g
g,g,g,g,g,g,g,g,g,g,g,g,g,g,g,g
g,g,g,g,g,g,g,g,g,g,g,g,g,g,g,g
g,g,g,g,g,g,g,g,g,g,g,g,g,g,g,g
g,g,g,g,g,g,g,g,g,g,g,g,g,g,g,g
0,g,g,0,0,g,0,g,0,0,0,g,g,0,g,g
0,b,0,g,0,0,0,g,g,0,0,0,g,0,0,g
h,0,h,v,v,a,a,v,v,0,0,0,b,h,0,0
0,0,b,0,0,0,b,0,0,0,v,v,a,a,v,v
0,v,a,a,v,v,0,0,h,b,0,0,0,0,h,0
0,0,0,h,b,0,0,v,a,a,v,0,0,b,0,0
NAME highwayA
WAL g
EXT 0,4 g 15,4
EXT 15,4 a 0,4
PAL 0

ROOM g
g,g,g,g,g,g,g,g,g,g,g,g,g,g,g,g
g,g,g,g,g,g,g,g,g,g,g,g,g,g,g,g
g,g,0,0,g,g,g,0,0,g,0,0,g,0,g,g
0,0,g,0,0,g,0,g,0,0,g,0,0,g,g,g
1f,1f,1f,1f,1f,1f,1f,1f,1f,1f,1f,1f,1f,1f,1f,1f
g,g,g,g,g,g,g,g,g,g,g,g,g,g,g,g
g,g,g,g,g,g,g,g,g,g,g,g,g,g,g,g
g,g,g,g,g,g,g,g,g,g,g,g,g,g,g,g
g,g,g,g,g,g,g,g,g,g,g,g,g,g,g,g
g,g,g,g,g,g,g,g,g,g,g,g,g,g,g,g
g,g,g,g,0,b,g,0,g,0,0,g,0,g,g,g
g,h,b,0,g,0,0,g,b,g,0,0,g,b,0,g
g,0,h,h,v,v,a,a,v,v,0,0,b,0,0,0
g,0,0,b,0,0,0,0,b,v,v,a,a,v,h,0
g,a,a,v,v,b,0,0,h,0,h,0,0,0,b,0
g,0,0,0,0,h,0,0,v,a,a,v,v,b,b,0
NAME highwayB
WAL g
EXT 0,4 h 15,4
EXT 15,4 f 0,4
PAL 0

ROOM h
g,g,g,g,g,g,g,g,g,g,g,g,g,g,g,g
g,g,g,g,g,g,g,g,g,g,g,g,g,g,g,g
g,g,0,0,g,g,g,0,0,g,0,0,g,0,g,g
0,0,g,0,0,g,0,g,0,0,g,0,0,g,g,g
1f,1f,1f,1f,1f,1f,1f,1f,1f,1f,1f,1f,1f,1f,1f,1f
g,g,g,g,1k,g,g,g,g,g,g,g,g,g,g,g
g,g,g,g,1k,g,1k,1k,1k,1k,1k,g,g,g,g,g
g,g,g,g,1k,g,1k,g,g,g,1k,g,g,g,g,g
g,g,g,g,1k,1k,1k,g,g,g,1j,g,g,g,g,g
g,g,g,g,g,g,g,g,g,g,g,g,g,g,g,g
1i,1i,g,g,1i,1i,g,1i,g,g,g,g,g,g,g,g
1h,1h,1i,1i,g,1h,1i,g,1i,g,g,g,g,g,g,g
1h,1h,1h,1h,g,g,g,1i,1h,1i,g,g,g,g,g,g
1h,g,1h,1h,1i,1i,1i,g,1h,1h,1i,g,g,g,g,g
1h,1i,1h,g,1h,1h,1h,1i,1h,g,1h,1i,g,g,g,g
1h,1h,1h,1i,g,1h,1h,1h,1h,1i,1h,1h,1i,1i,g,g
NAME highwayC
WAL g
EXT 10,8 i 7,0
EXT 0,4 j 15,4
EXT 15,4 g 0,4
PAL 0

ROOM i
0,0,0,0,0,0,0,1l,0,0,0,0,0,0,0,0
0,0,0,0,0,0,0,0,0,0,0,0,0,0,0,0
0,0,0,0,0,0,0,0,0,0,0,0,0,0,0,0
0,0,0,0,0,0,0,0,0,0,0,0,0,0,0,0
0,0,0,0,0,0,0,0,0,0,0,0,0,0,0,0
0,0,0,0,0,0,0,0,0,0,0,0,0,0,0,0
0,0,0,0,0,0,0,0,0,0,0,0,0,0,0,0
0,0,0,0,0,0,0,0,0,0,0,0,0,0,0,0
0,0,0,0,0,0,0,0,0,0,0,0,0,0,0,0
0,0,0,0,0,0,0,0,0,0,0,0,0,0,0,0
1i,1i,1i,1i,1i,1i,1i,1i,1i,1i,1i,1i,1i,1i,1i,1i
1h,1h,1h,1h,1h,1h,1h,1h,1h,1h,1h,1h,1h,1h,1h,1h
1h,1h,1h,1h,1h,1h,1h,1h,1h,1h,1h,1h,1h,1h,1h,1h
1h,1h,1h,1h,1h,1h,1h,1h,1h,1h,1h,1h,1h,1h,1h,1h
1h,1h,1h,1h,1h,1h,1h,1h,1h,1h,1h,1h,1h,1h,1h,1h
1h,1h,1h,1h,1h,1h,1h,1h,1h,1h,1h,1h,1h,1h,1h,1h
NAME Sea Cavern
ITM 0 7,9
EXT 7,0 h 10,8
PAL 0

ROOM j
g,g,1q,g,1q,g,g,1q,g,g,g,1q,g,g,g,g
g,1q,1q,1q,g,g,1q,g,g,g,1q,g,g,1q,g,g
g,g,1q,0,g,g,g,1q,1q,g,0,0,g,1q,1q,g
0,0,g,0,1q,g,0,g,0,0,g,1q,0,g,g,g
1f,1f,1f,1f,1f,1f,1f,1f,1f,1f,1f,1f,1f,1f,1f,1f
g,g,g,g,1k,g,g,g,g,g,g,g,g,g,g,g
g,g,g,1i,1i,1i,1k,1k,1k,1k,1k,g,g,g,g,g
g,1i,g,1h,1h,1h,1i,1i,1i,g,1k,g,g,g,g,g
1i,1h,1i,1h,1h,1h,1h,1h,1h,1i,1i,g,g,g,g,g
1h,1h,1h,1h,1h,1h,1h,1h,1h,1h,1h,1i,1i,g,g,g
1h,1h,1h,1h,1h,1h,1h,1h,1h,1h,1h,1h,1h,1i,1i,1i
1m,1m,1m,1m,1m,1h,1h,1h,1h,1h,1h,1h,1h,1h,1h,1h
0,0,0,0,0,1h,1h,1h,1h,1h,1h,1h,1h,1h,1h,1h
1o,1o,1o,1o,1o,1h,1h,1h,1h,1h,1h,1h,1h,1h,1h,1h
1p,1p,1p,1p,1p,1h,1h,1h,1h,1h,1h,1h,1h,1h,1h,1h
1h,1h,1h,1h,1h,1h,1h,1h,1h,1h,1h,1h,1h,1h,1h,1h
NAME highwayD
WAL g,1k
EXT 0,4 k 15,4
EXT 15,4 h 0,4
EXT 0,12 k 15,12
EXT 13,15 29 3,0
PAL 0

ROOM k
1q,1r,1q,1r,1q,1q,1q,1r,1q,1r,1q,1q,1q,1q,1q,1r
1q,1r,1q,1q,1r,1q,1q,1q,1q,1q,1q,1q,1r,1q,1q,1q
1q,1q,1q,1q,1q,1q,1r,1q,1q,1q,1q,1q,1q,1q,1q,1q
1r,1r,g,1r,1r,g,1r,g,1r,1r,g,1r,1r,g,g,g
1f,1f,1f,1f,1f,1f,1f,1f,1f,1f,1f,1f,1f,1f,1f,1f
1i,1i,1i,1i,1i,1i,g,g,g,g,g,1i,1i,1i,1i,1i
1h,1h,1h,1h,1h,1h,1i,1k,1k,1k,1i,1h,1h,1h,1h,1h
1h,1h,1h,1h,1h,1h,1h,1i,1i,g,1h,1h,1h,1h,1h,1h
1h,1h,1h,1h,1h,1h,1h,1h,1h,1i,1h,1h,1h,1h,1h,1h
1h,1h,1h,1h,1h,1h,1h,1h,1h,1h,1h,1t,1u,1v,1h,1h
1h,1h,1h,1h,1h,1h,1h,1h,1h,1h,1h,1s,1y,1w,1h,1h
1m,1m,1m,1m,1m,1m,1m,1m,1m,1m,1m,1s,1n,1x,1m,1m
0,0,0,0,0,0,0,0,0,0,0,0,0,0,1n,1n
1o,1o,1o,1o,1o,1o,1o,1o,1o,1o,1o,1o,1o,1o,1o,1o
1p,1p,1p,1p,1p,1p,1p,1p,1p,1p,1p,1p,1p,1p,1p,1p
1h,1h,1h,1h,1h,1h,1h,1h,1h,1h,1h,1h,1h,1h,1h,1h
NAME highwayE
WAL g,1k,1i,1m,1o,1s,1t,1u,1v,1w,1x
EXT 15,4 j 0,4
EXT 0,4 l 15,4
EXT 0,12 l 15,12
EXT 15,12 j 0,12
EXT 12,10 n 8,15
PAL 0

ROOM l
1q,1r,1q,1q,1q,1r,1q,1r,0,1r,1q,1q,1r,1q,1q,1r
1q,1r,1q,1r,1r,1q,1q,1q,1q,1q,1q,1q,1q,1q,1q,1q
1q,1r,1q,1q,1r,1q,1q,1r,1q,1r,1q,1q,1q,1r,1q,1q
1r,1r,g,1r,1r,g,1r,g,1r,1r,g,1r,1r,g,g,g
1f,1f,1f,1f,1f,1f,1f,1f,1f,1f,1f,1f,1f,1f,1f,1f
1k,1i,1k,1i,1i,1i,g,0,g,0,g,1k,1k,1i,1i,1i
1k,1k,1i,1h,1k,1h,1i,1k,1k,1k,1i,1h,1h,1h,1h,1h
1k,1i,1k,1h,1i,1h,1h,1i,1i,g,1h,1h,1h,1h,1h,1h
1k,1k,1i,1h,1k,1h,1h,1h,1h,1i,1h,1h,1h,1h,1h,1h
1i,1i,1h,1h,1i,1k,1h,1h,1h,1h,1k,1h,1h,1h,1h,1h
1h,1h,1h,1h,1h,1i,1h,1h,1h,1h,1i,1h,1h,1h,1h,1h
1m,1m,1m,1m,1m,1m,1m,1m,1m,1m,1m,1m,1m,1m,1m,1m
0,0,0,0,0,0,0,0,0,0,0,0,0,0,1n,1n
1o,1o,1o,1o,1o,1o,1o,1o,1o,1o,1o,1o,1o,1o,1o,1o
1p,1p,1p,1p,1p,1p,1p,1p,1p,1p,1p,1p,1p,1p,1p,1p
1h,1h,1h,1h,1h,1h,1h,1h,1h,1h,1h,1h,1h,1h,1h,1h
NAME highwayF
WAL g,1k,1i,1m,1o
EXT 15,4 k 0,4
EXT 0,4 m 15,4
EXT 0,12 m 15,12
EXT 15,12 k 0,12
PAL 0

ROOM m
2q,2q,1q,2q,2q,1q,2q,1q,2q,1q,2q,1r,2q,1q,2q,2q
1q,2q,0,1q,1q,2q,1q,2q,2q,2q,2q,1q,2q,2q,2q,2q
1q,1q,1q,2q,2q,1q,2q,2q,1q,1q,2q,2q,2q,1q,1q,2q
1q,2q,21,2q,2q,2q,2q,2q,1r,1r,2q,1q,2q,1q,2q,1q
1q,2q,2q,20,1f,1f,1f,1f,1f,1f,1f,1f,1f,1f,1f,1f
2q,1q,22,2q,2q,2q,2q,2q,2q,2q,2q,2q,1i,1i,1i,1i
1q,2q,1r,1q,1r,0,0,0,0,0,0,1z,1h,1h,1h,1h
2q,2q,1q,1r,1q,0,2q,0,2q,0,0,1z,1h,1h,1h,1h
1q,0,2q,1r,1r,0,0,0,0,0,2q,1z,1h,1h,1h,1h
1q,2q,0,0,0,0,2q,0,0,0,0,1z,1h,1h,1h,1h
1q,1q,1q,1r,0,0,0,0,0,0,0,1z,1h,1h,1h,1h
v,v,v,0,0,0,0,0,0,0,0,0,1m,1m,1m,1m
0,0,0,0,0,0,0,0,1q,0,0,0,1n,1n,1n,1n
v,v,v,0,0,0,1q,0,0,1q,0,0,1o,1o,1o,1o
1q,1q,1q,1q,1q,1q,1q,1q,1q,1q,1q,1z,1p,1p,1p,1p
1q,1q,1q,1q,1q,1q,1q,1q,1q,1q,1q,1q,1h,1h,1h,1h
NAME citystateA
WAL 1s,1t,1u,1v,1w,1p,1o,1m,1i,v
EXT 15,4 l 0,4
EXT 15,12 l 0,12
EXT 0,12 o 14,12
PAL 0

ROOM n
12,12,12,12,12,12,12,12,12,12,12,12,12,12,12,12
12,12,12,12,12,12,12,12,12,12,12,12,12,12,12,12
12,12,12,12,12,12,12,12,12,12,12,12,12,12,12,12
12,12,12,12,12,12,12,12,12,12,12,12,12,12,12,12
12,12,12,12,12,12,12,12,12,12,12,12,12,12,12,12
12,12,12,12,12,12,12,12,12,12,12,12,12,12,12,12
12,12,12,12,12,12,12,12,12,12,12,12,12,12,12,12
12,12,12,12,12,12,12,12,12,12,12,12,12,12,12,12
12,12,12,12,12,12,12,12,12,12,12,12,12,12,12,12
12,12,12,12,12,0,0,0,0,0,0,12,12,12,12,12
12,12,12,12,12,0,0,0,0,0,0,12,12,12,12,12
12,12,12,12,12,12,12,12,0,12,12,12,12,12,12,12
12,12,12,12,12,12,12,12,0,12,12,12,12,12,12,12
12,12,12,12,12,12,12,12,0,12,12,12,12,12,12,12
12,12,12,12,12,12,12,12,0,12,12,12,12,12,12,12
12,12,12,12,12,12,12,12,0,12,12,12,12,12,12,12
NAME fishermans home
WAL 12
EXT 8,15 k 12,11
PAL 0

ROOM o
1q,1q,1q,1q,1q,1q,1q,1q,1q,1q,1q,i,l,i,l,2a
1q,1q,1q,1q,1q,1q,1q,1q,1q,1q,1q,j,k,j,1q,2a
0,0,0,0,0,0,1q,1q,2a,2a,2a,2a,2a,1q,1q,2a
1q,y,0,0,z,1q,2a,2a,2a,1q,1q,1q,1q,1q,1q,2a
1q,11,25,25,10,1q,2a,1q,1q,i,l,i,l,1q,1q,2a
1q,11,24,24,10,1q,2a,1q,1q,j,k,j,k,1q,1q,2a
1q,11,24,24,10,1q,2a,2a,2a,1q,i,l,1q,1q,1q,2a
1q,w,23,23,x,1q,1q,1q,2a,1q,j,k,1q,2a,2a,2a
1q,1r,0,0,1r,1q,1q,2a,2a,1q,1q,1q,1q,2a,1q,1q
1q,1r,0,0,0,1r,1q,2a,2a,2a,2a,1q,1q,2a,1q,1q
1q,1r,0,0,0,0,1r,1q,1q,1q,2a,2a,2a,2a,1q,1q
1q,1r,1r,0,0,0,0,1r,1r,1q,1q,1q,v,v,v,v
1q,1r,1r,1r,1r,0,0,0,0,0,0,0,0,0,0,0
1q,v,v,v,v,v,v,v,v,v,v,v,v,v,v,v
1q,1q,1q,1q,1q,1q,1q,1q,1q,1q,1q,1q,1q,1q,1q,1q
1q,1q,1q,1q,1q,1q,1q,1q,1q,1q,1q,1q,1q,1q,1q,1q
NAME citystateB
WAL 11,10,z,y,x,w,25,24,v,l
EXT 2,7 p 7,15
EXT 3,7 p 7,15
EXT 12,1 v 7,14
EXT 15,12 m 1,12
PAL 0

ROOM p
12,12,12,12,12,12,12,26,12,12,12,12,12,12,12,12
12,12,12,12,12,12,12,26,12,12,12,12,12,12,12,12
12,12,12,12,12,12,12,26,12,12,12,12,12,12,12,12
12,12,12,12,12,12,12,26,12,12,12,12,12,12,12,12
12,12,12,12,12,12,12,26,12,12,12,12,12,12,12,12
12,12,12,12,12,12,12,26,12,12,12,12,12,12,12,12
12,12,12,12,12,12,12,26,12,12,12,12,12,12,12,12
12,12,12,12,12,12,12,26,12,12,12,12,12,12,12,12
12,12,12,12,12,12,12,26,12,12,12,12,12,12,12,12
12,12,12,12,12,12,12,26,12,12,12,12,12,12,12,12
12,12,12,12,12,12,12,26,12,12,12,12,12,12,12,12
12,12,12,12,12,12,12,26,12,12,12,12,12,12,12,12
12,12,12,12,12,12,12,26,12,12,12,12,12,12,12,12
12,12,12,12,12,12,12,26,12,12,12,12,12,12,12,12
12,12,12,12,12,12,12,26,12,12,12,12,12,12,12,12
12,12,12,12,12,12,12,26,12,12,12,12,12,12,12,12
NAME statecastleA
WAL 12
EXT 7,0 q 7,15
PAL 0

ROOM q
12,12,12,12,12,12,12,26,12,12,12,12,12,12,12,12
12,12,12,12,12,12,12,26,12,12,12,12,12,12,12,12
12,12,12,12,12,12,12,26,12,12,12,12,12,12,12,12
12,12,12,12,12,12,12,26,12,12,12,12,12,12,12,12
12,12,12,12,12,12,12,26,12,12,12,12,12,12,12,12
12,12,12,12,12,12,12,26,12,12,12,12,12,12,12,12
12,12,12,12,12,12,12,26,12,12,12,12,12,12,12,12
12,12,12,12,12,12,12,26,12,12,12,12,12,12,12,12
12,12,12,12,12,12,12,26,12,12,12,12,12,12,12,12
12,12,12,12,12,12,12,26,12,12,12,12,12,12,12,12
12,12,12,12,12,12,12,26,12,12,12,12,12,12,12,12
12,12,12,12,12,12,12,26,12,12,12,12,12,12,12,12
12,12,12,12,12,12,12,26,12,12,12,12,12,12,12,12
12,12,12,12,12,12,12,26,12,12,12,12,12,12,12,12
12,12,12,12,12,12,12,26,12,12,12,12,12,12,12,12
12,12,12,12,12,12,12,26,12,12,12,12,12,12,12,12
NAME statecastleB
WAL 12
EXT 7,15 p 7,0
EXT 7,0 r 7,15
PAL 0

ROOM r
12,12,12,12,12,12,12,26,12,12,12,12,12,12,12,12
12,12,12,12,12,12,12,26,12,12,12,12,12,12,12,12
12,12,12,12,12,12,12,26,12,12,12,12,12,12,12,12
12,12,12,12,12,12,12,26,12,12,12,12,12,12,12,12
12,12,12,12,12,12,12,26,12,12,12,12,12,12,12,12
12,12,12,12,12,12,12,26,12,12,12,12,12,12,12,12
12,12,12,12,12,12,12,26,12,12,12,12,12,12,12,12
12,12,12,12,12,12,12,26,12,12,12,12,12,12,12,12
12,12,12,12,12,12,12,26,12,12,12,12,12,12,12,12
12,12,12,12,12,12,12,26,12,12,12,12,12,12,12,12
12,12,12,12,12,12,12,26,12,12,12,12,12,12,12,12
12,12,12,12,12,12,12,26,12,12,12,12,12,12,12,12
12,12,12,12,12,12,12,26,12,12,12,12,12,12,12,12
12,12,12,12,12,12,12,26,12,12,12,12,12,12,12,12
12,12,12,12,12,12,12,26,12,12,12,12,12,12,12,12
12,12,12,12,12,12,12,26,12,12,12,12,12,12,12,12
NAME statecastleC
WAL 12
EXT 7,15 q 7,0
EXT 7,0 s 7,15
PAL 0

ROOM s
12,12,12,12,12,12,12,12,12,12,12,12,12,12,12,12
12,12,12,12,12,12,12,12,12,12,12,12,12,12,12,12
12,12,12,12,12,12,0,0,0,12,12,12,12,12,12,12
12,12,12,12,12,12,27,29,27,12,12,12,12,12,12,12
12,12,12,27,27,27,0,0,0,28,28,28,12,12,12,12
12,12,12,0,0,0,0,0,0,0,0,0,12,12,12,12
12,12,12,0,0,0,0,0,0,0,0,0,12,12,12,12
12,12,12,12,12,27,27,29,27,27,12,12,12,12,12,12
12,12,12,12,12,0,0,0,0,0,12,12,12,12,12,12
12,12,12,12,12,0,0,0,0,0,12,12,12,12,12,12
12,12,12,12,12,0,0,0,0,0,12,12,12,12,12,12
12,12,12,12,12,0,0,0,0,0,12,12,12,12,12,12
12,12,12,12,12,12,12,0,12,12,12,12,12,12,12,12
12,12,12,12,12,12,12,0,12,12,12,12,12,12,12,12
12,12,12,12,12,12,12,0,12,12,12,12,12,12,12,12
12,12,12,12,12,12,12,0,12,12,12,12,12,12,12,12
NAME throneroom
WAL 12,27,28
ITM 0 7,2
EXT 7,15 t 3,8
PAL 0

ROOM t
1q,1q,1q,1q,1q,1q,1q,1q,1q,1q,1q,i,l,i,l,2a
1q,1q,1q,1q,1q,1q,1q,1q,1q,1q,1q,j,k,j,k,2a
0,0,0,0,0,0,1q,1q,2a,2a,2a,1q,1q,1q,1q,2a
1q,y,0,0,z,1q,1q,1q,2a,1q,1q,1q,1q,1q,1q,2a
1q,11,25,25,10,1q,1q,1q,2a,i,l,i,l,1q,1q,2a
1q,11,24,24,10,1q,2a,2a,2a,j,k,j,k,1q,1q,2a
1q,11,24,24,10,1q,2a,1q,1q,1q,i,l,1q,1q,1q,2a
1q,w,23,23,x,1q,2a,2a,1q,1q,j,k,1q,1q,2a,2a
1q,1r,0,0,1r,1q,1q,2a,1q,1q,1q,2a,2a,2a,2a,1q
1q,1r,0,0,0,1r,1q,2a,2a,2a,2a,2a,1q,1q,1q,1q
1q,1r,0,0,0,0,1r,1q,1q,1q,1q,1q,1q,1q,1q,1q
1q,1r,1r,0,0,0,0,1r,1r,1q,1q,1q,v,v,v,v
1q,1r,1r,1r,1r,0,0,0,0,0,0,0,0,1r,1r,1r
1q,v,v,v,v,v,v,v,v,v,v,v,v,v,v,v
1q,1q,1q,1q,1q,1q,1q,1q,1q,1q,1q,1q,1q,1q,1q,1q
1q,1q,1q,1q,1q,1q,1q,1q,1q,1q,1q,1q,1q,1q,1q,1q
NAME citystateC
WAL 11,10,z,y,x,w,25,24,v
EXT 15,12 m 0,12
EXT 2,7 p 7,15
EXT 3,7 p 7,15
EXT 13,12 u 1,12
PAL 0

ROOM u
d,1r,2a,1r,1r,2a,1r,2a,1r,1q,1r,1r,1r,1q,1r,1r
1q,1r,0,1q,1q,1r,1q,1r,1r,1r,1r,1q,1r,1r,1r,1r
1q,1q,1q,1r,1r,1q,1r,1r,1q,1q,1r,1r,1r,1q,1q,1r
1q,1r,21,1r,1r,1r,1r,1r,1r,1r,1r,1q,1r,1q,1r,d
1q,1r,1r,20,1f,1f,1f,1f,1f,1f,1f,1f,1f,1f,1f,1f
1r,1q,22,1r,1r,1r,1r,1r,1r,1r,1r,1r,1i,1i,1i,1i
1q,1r,1r,1q,1r,0,0,0,0,0,0,1z,1h,1h,1h,1h
1r,1r,1q,1r,1q,0,1r,0,1r,0,0,1z,1h,1h,1h,1h
1q,0,1r,1r,1r,0,0,0,0,0,1r,1z,1h,1h,1h,1h
1q,1r,0,0,0,0,1r,0,0,0,0,1z,1h,1h,1h,1h
1q,1q,1q,1r,0,0,0,0,0,0,0,1z,1h,1h,1h,1h
v,v,v,0,0,0,0,0,0,0,0,0,1m,1m,1m,1m
0,0,0,0,0,0,0,0,1q,0,0,0,1n,1n,1n,1n
v,v,v,0,0,0,1q,0,0,1q,0,0,1o,1o,1o,1o
1q,1q,1q,1q,1q,1q,1q,1q,1q,1q,1q,1z,1p,1p,1p,1p
1q,1q,1q,1q,1q,1q,1q,1q,1q,1q,1q,1q,1h,1h,1h,1h
NAME citystateAB
WAL 1s,1t,1u,1v,1w,1p,1o,1m,1i,v
EXT 15,4 l 0,4
EXT 15,12 l 0,12
EXT 0,12 o 15,12
EXT 0,0 o 15,0
PAL 0

ROOM v
0,0,0,0,0,0,0,0,0,0,0,0,0,0,0,0
0,0,0,0,0,0,0,0,0,0,0,0,0,0,0,0
0,0,0,0,0,0,0,0,0,0,0,0,0,0,0,0
0,0,0,0,0,0,0,0,0,0,0,0,0,0,0,0
0,0,0,0,0,0,0,0,0,0,0,0,0,0,0,0
0,0,0,0,0,0,0,0,0,0,0,0,0,0,0,0
0,0,0,0,0,0,0,0,0,0,0,0,0,0,0,0
0,0,0,0,0,0,0,0,0,0,0,0,0,0,0,0
0,0,0,0,0,0,0,0,0,0,0,0,0,0,0,0
0,0,0,0,0,0,0,0,0,0,0,0,0,0,0,0
0,0,0,0,0,0,0,0,0,0,0,0,0,0,0,0
0,0,0,0,0,0,0,0,0,0,0,0,0,0,0,0
0,0,0,0,0,0,0,0,0,0,0,0,0,0,0,0
0,0,0,0,0,0,0,1c,1d,0,0,0,0,0,0,0
0,0,0,0,0,0,1a,19,19,1b,0,0,0,0,0,0
0,0,0,0,0,1c,18,16,16,17,1d,0,0,0,0,0
NAME cavestateA
EXT 8,0 w 8,15
PAL 0

ROOM w
0,0,0,0,0,0,0,0,0,0,0,0,0,0,0,0
0,0,0,0,0,0,0,0,0,0,0,0,0,0,0,0
0,0,0,0,0,0,0,0,0,0,0,0,0,0,0,0
0,0,0,0,0,0,0,0,0,0,0,0,0,0,0,0
0,0,0,0,0,0,0,0,0,0,0,0,0,0,0,0
0,0,0,0,0,0,0,0,0,0,0,0,0,0,0,0
0,0,0,0,0,0,0,0,0,0,0,0,0,0,0,0
0,0,0,0,0,0,0,0,0,0,0,0,0,0,0,0
0,0,0,0,0,0,0,0,0,0,0,0,0,0,0,0
0,0,0,0,0,0,0,0,0,0,0,0,0,0,0,0
0,0,0,0,0,0,0,0,0,0,0,0,0,0,0,0
0,0,0,0,0,0,0,0,0,0,0,0,0,0,0,0
0,0,0,0,0,0,0,0,0,0,0,0,0,0,0,0
0,0,0,0,0,0,0,0,0,0,0,0,0,0,0,0
0,0,0,0,0,0,0,0,0,0,0,0,0,0,0,0
0,0,0,0,0,0,0,0,0,0,0,0,0,0,0,0
NAME cavestateB
EXT 8,0 x 8,15
PAL 0

ROOM x
0,0,0,0,0,0,0,0,0,0,0,0,0,0,0,0
0,0,0,0,0,0,0,0,0,0,0,0,0,0,0,0
0,0,0,0,0,0,0,0,0,0,0,0,0,0,0,0
0,0,0,0,0,0,0,0,0,0,0,0,0,0,0,0
0,0,0,0,0,0,0,0,0,0,0,0,0,0,0,0
0,0,0,0,0,0,0,0,0,0,0,0,0,0,0,0
0,0,0,0,0,0,0,0,0,0,0,0,0,0,0,0
0,0,0,0,0,0,0,0,0,0,0,0,0,0,0,0
0,0,0,0,0,0,0,0,0,0,0,0,0,0,0,0
0,0,0,0,0,0,0,0,0,0,0,0,0,0,0,0
0,0,0,0,0,0,0,0,0,0,0,0,0,0,0,0
0,0,0,0,0,0,0,0,0,0,0,0,0,0,0,0
0,0,0,0,0,0,0,0,0,0,0,0,0,0,0,0
0,0,0,0,0,0,0,0,0,0,0,0,0,0,0,0
0,0,0,0,0,0,0,0,0,0,0,0,0,0,0,0
0,0,0,0,0,0,0,0,0,0,0,0,0,0,0,0
NAME cavestateC
EXT 8,0 y 7,15
PAL 0

ROOM y
2b,2b,2b,2b,2b,2b,2b,2b,2b,2b,2b,2b,2b,2b,2b,2b
2b,2b,0,0,0,2b,0,2b,2b,0,2b,0,0,0,2b,2b
2b,0,0,0,2b,0,2b,2c,2d,2b,0,2b,0,0,0,2b
2b,0,0,2b,0,2b,0,2c,2d,0,2b,0,2b,0,0,2b
2b,0,2b,0,2b,0,0,2c,2d,0,0,2b,0,2b,0,2b
2b,2b,0,2b,0,0,0,2c,2d,0,0,0,2b,0,2b,2b
2b,0,2b,0,0,0,0,2c,2d,0,0,0,0,2b,0,2b
2b,2b,2f,2f,2f,2f,2f,0,0,2f,2f,2f,2f,2f,2b,2b
2b,2b,2g,2g,2g,2g,2g,0,0,2g,2g,2g,2g,2g,2b,2b
2b,0,2b,0,0,0,0,2e,2d,0,0,0,0,2b,0,2b
2b,2b,0,2b,0,0,0,2e,2d,0,0,0,2b,0,2b,2b
2b,0,2b,0,2b,0,0,2e,2d,0,0,2b,0,2b,0,2b
2b,0,0,2b,0,2b,0,2e,2d,0,2b,0,2b,0,0,2b
2b,0,0,0,2b,0,2b,2e,2d,2b,0,2b,0,0,0,2b
2b,2b,0,0,0,2b,0,2b,2b,0,2b,0,0,0,2b,2b
2b,2b,2b,2b,2b,2b,2b,2b,2b,2b,2b,2b,2b,2b,2b,2b
NAME ritualroom
ITM 2 7,7
ITM 2 8,7
ITM 2 8,8
ITM 2 7,8
EXT 7,0 z 12,2
PAL 0

ROOM z
1q,1q,1q,1q,2k,1q,1q,2k,2k,1q,1q,i,2k,i,l,2a
1q,1q,1q,2k,1q,1q,1q,1q,1q,2k,2k,2k,k,j,k,2a
0,0,0,0,0,0,1q,2k,2k,2k,2k,0,0,2k,2k,2a
1q,0,0,0,2k,1q,2k,0,0,0,0,0,0,1q,1q,2a
1q,0,2k,0,0,1q,2k,1q,0,i,l,i,l,1q,2k,2a
1q,2k,24,2k,2k,1q,2a,0,0,j,k,j,k,1q,1q,2a
1q,2h,24,24,2j,1q,2k,0,1q,1q,i,l,1q,2k,1q,2a
1q,w,2i,2i,0,1q,1q,0,0,2k,j,k,1q,2a,2a,2a
1q,1r,2k,0,1r,1q,2k,1q,0,2k,1q,1q,1q,2a,1q,1q
1q,1r,0,0,0,1r,1q,0,0,2a,2a,1q,1q,2a,1q,1q
1q,1r,2k,0,0,0,1r,1q,0,2k,2a,2a,2a,2a,1q,1q
1q,1r,1r,0,0,2k,0,1r,1r,1q,1q,1q,v,v,v,v
1q,1r,1r,1r,1r,0,0,0,0,0,1q,2k,2k,1r,1r,1r
1q,2k,v,v,v,v,v,v,v,v,v,2k,2k,v,v,v
1q,1q,1q,1q,1q,2k,1q,1q,1q,1q,1q,2k,1q,1q,1q,1q
1q,1q,1q,1q,1q,1q,1q,1q,1q,1q,2k,1q,1q,1q,1q,1q
NAME destroyedcity
WAL 11,10,z,y,x,w,25,24,v,l,2k
EXT 15,12 m 0,12
EXT 2,7 10 7,15
EXT 0,2 12 14,2
PAL 0

ROOM 1a
1h,1h,1h,1k,1h,1h,1h,1h,1j,1h,1h,1h,1h,1h,1h,1h
1h,1h,1h,1i,1h,1h,1h,1h,1h,1h,1h,1h,1h,1k,1h,1h
1h,1h,1h,1h,1h,1h,1h,1h,1h,1h,1h,1h,1h,1i,1h,1h
1j,1h,1h,1h,1h,1h,1h,1h,1h,1h,1h,1h,1h,1h,1h,1h
1h,1h,1h,1h,1h,1k,1h,1h,1h,1h,1h,1h,1k,1h,1h,1h
1h,1h,1h,1h,1h,1i,1h,1h,1h,1k,1h,1h,1i,1h,1h,1h
1h,1h,1h,1h,1h,1h,1h,1h,1h,1i,1h,1h,1h,1h,1h,1h
1h,1h,1h,1h,1h,1h,1h,1h,1h,1h,1h,1h,1h,1h,1h,1h
1h,1h,1h,1h,1h,1h,1h,1h,1h,1h,1h,1h,1h,1h,1h,1h
1h,1h,1h,1h,1h,1h,1h,1h,1h,1h,1h,1k,1h,1h,1h,1h
1h,1h,1k,1h,1h,1h,1h,1h,1h,1h,1h,1i,1h,1h,1h,1h
1h,1h,1i,1h,1h,1h,1h,1h,1h,1h,1h,1h,1h,1h,1h,1h
1h,1h,1h,1h,1h,1h,1h,1h,1h,1h,1h,1h,1h,1k,1h,1h
1h,1k,1h,1h,1h,1k,1h,1h,1h,1h,1h,1h,1h,1i,1h,1h
1h,1i,1h,1h,1h,1i,1h,1h,1h,1h,1h,1h,1h,1h,1h,1k
1h,1h,1h,1h,1h,1h,1h,1h,1h,1h,1h,1h,1h,1j,1h,1i
NAME sea003
WAL 1k
ITM 3 1,7
ITM 3 14,6
ITM 3 5,0
ITM 3 8,15
EXT 0,3 19 3,10
EXT 13,15 18 8,1
EXT 8,0 1b 8,7
PAL 0

ROOM 1b
1h,1h,1h,1h,1h,1h,1h,1h,1h,1h,1h,1h,1h,1h,1h,1h
1k,1h,1h,1h,1h,1k,1h,1h,1h,1h,1h,1h,1h,1h,1h,1h
1i,1h,1h,1h,1h,1i,1h,1h,1h,1k,1h,1h,1h,1h,1h,1h
1h,1h,1h,1h,1h,1h,1h,1h,1h,1i,1h,1h,1h,1h,1h,1h
1h,1h,1h,1h,1h,1k,1h,1h,1h,1h,1h,1h,1k,1h,1h,1h
1h,1h,1h,1h,1h,1i,1h,1h,1h,1h,1h,1h,1i,1h,1h,1h
1h,1h,1h,1h,1h,1h,1h,1h,1h,1h,1h,1h,1h,1h,1h,1h
1h,1h,1h,1h,1h,1h,1h,1h,1j,1h,1h,1h,1h,2r,1k,2r
2r,2r,2r,2r,2r,2r,2r,2r,1k,2r,2r,2r,2r,2r,1i,2r
2r,2r,1k,2r,2r,2r,2r,2r,1i,2r,2r,2r,2r,2r,2r,2r
2r,2r,1i,2r,2r,2r,2r,2r,2r,2r,2r,2r,2r,2r,2r,1h
2r,2r,2r,2r,2r,2r,2r,2r,2r,2r,2r,2r,2r,1k,2r,2r
2r,2r,1k,2r,2r,2r,2r,2r,2r,2r,2r,2r,2r,1i,2r,2r
2r,2r,1i,2r,2r,2r,2r,2r,2r,2r,2r,1h,2r,2r,2r,2r
2r,2r,2r,2r,2r,2r,1k,2r,2r,2r,2r,2r,2r,2r,2r,2r
2r,2r,2r,2r,2r,2r,1i,2r,2r,2r,2r,2r,2r,2r,2r,2r
NAME sea004
WAL 1k
ITM 3 9,4
ITM 3 1,7
ITM 3 15,10
ITM 0 4,1
EXT 8,7 1a 8,0
PAL 0

ROOM 1c
1q,1q,1q,1q,1q,1q,1q,1q,1q,1q,1q,1q,1q,0,1q,1q
1q,1q,1q,1q,1q,1q,1q,1q,1q,1q,1q,1q,1q,0,1q,1q
1q,1q,1q,1q,1q,1q,1q,1q,1q,1q,1q,1q,1q,0,1q,1q
1q,1q,1q,1q,1q,1q,1q,1q,1q,1q,1q,1q,1q,0,1q,1q
1q,1q,1q,1q,1q,1q,1q,1q,1q,1q,1q,1q,1q,0,1q,1q
1q,1q,1q,1q,1q,1q,1q,1q,1q,1q,1q,1q,1q,0,1q,1q
1q,1q,1q,1q,1q,1q,1q,1q,1q,1q,1q,1q,1q,0,1q,1q
1q,1q,1q,1q,1q,1q,1q,0,0,0,0,0,0,0,1q,1q
1q,1q,1q,1q,1q,1q,1q,0,1q,1q,1q,1q,1q,1q,1q,1q
1q,1q,1q,1q,1q,1q,1q,0,1q,1q,1q,1q,1q,1q,1q,1q
1q,1q,1q,1q,1q,1q,1q,0,1q,1q,1q,1q,1q,1q,1q,1q
1q,1q,1q,1q,1q,1q,1q,0,1q,1q,1q,1q,1q,1q,1q,1q
1q,1q,1q,1q,1q,1q,1q,0,1q,1q,1q,1q,1q,1q,1q,1q
1q,1q,1q,1q,1q,1q,1q,0,1q,1q,1q,1q,1q,1q,1q,1q
1q,1q,1q,1q,1q,1q,1q,0,1q,1q,1q,1q,1q,1q,1q,1q
1q,1q,1q,1q,1q,1q,1q,0,1q,1q,1q,1q,1q,1q,1q,1q
NAME Swamp 001
EXT 13,0 13 13,15
EXT 7,15 1d 7,0
PAL 0

ROOM 1d
1q,1q,1q,1q,1q,1q,1q,0,1q,1q,1q,1q,1q,1q,1q,1q
1q,1q,1q,1q,1q,1q,1q,0,1q,1q,1q,1q,1q,1q,1q,1q
1q,1q,1q,1q,1q,1q,1q,0,1q,1q,1q,1q,1q,1q,1q,1q
1q,1q,1q,1q,1q,1q,1q,0,1q,1q,1q,1q,1q,1q,1q,1q
1q,1q,1q,1q,1q,1q,0,0,0,1q,1q,1q,1q,1q,1q,1q
1q,1q,1q,1q,1q,0,0,0,0,0,0,1q,1q,1q,1q,1q
1q,1q,1q,0,0,0,0,0,0,0,0,0,1q,1q,1q,1q
1q,1q,0,0,0,0,0,0,0,0,0,0,0,1q,1q,1q
1q,1q,0,0,0,0,0,0,0,0,0,0,0,0,1q,1q
1q,1q,0,0,0,0,0,0,0,0,0,0,0,0,1q,1q
1q,1q,1q,0,0,0,0,0,0,0,0,0,0,1q,1q,1q
1q,1q,1q,1q,0,0,0,0,0,0,0,0,1q,1q,1q,1q
1q,1q,1q,1q,1q,1q,0,0,0,0,1q,1q,1q,1q,1q,1q
1q,1q,1q,1q,1q,1q,1q,0,0,1q,1q,1q,1q,1q,1q,1q
1q,1q,1q,1q,1q,1q,1q,0,1q,1q,1q,1q,1q,1q,1q,1q
1q,1q,1q,1q,1q,1q,1q,0,1q,1q,1q,1q,1q,1q,1q,1q
NAME swamp 002
EXT 7,0 1c 7,15
EXT 7,15 1e 7,0
PAL 0

ROOM 1e
1q,1q,1q,1q,1q,1q,1q,0,1q,1q,1q,1q,1q,1q,1q,1q
1q,1q,1q,1q,1q,1q,1q,0,1q,1q,1q,1q,1q,1q,1q,1q
1q,1q,1q,1q,1q,1q,1q,0,1q,1q,1q,1q,1q,1q,1q,1q
1q,1q,1q,1q,1q,1q,1q,0,1q,1q,1q,1q,1q,1q,1q,1q
1q,1q,1q,1q,1q,1q,1q,0,1q,1q,1q,1q,1q,1q,1q,1q
1q,1q,1q,1q,1q,1q,1q,0,1q,1q,1q,1q,1q,1q,1q,1q
1q,1q,1q,1q,1q,1q,1q,0,1q,1q,1q,1q,1q,1q,1q,1q
1q,1q,1q,1q,1q,1q,1q,0,1q,1q,1q,1q,1q,1q,1q,1q
1q,1q,1q,1q,1q,1q,1q,0,0,0,0,0,0,0,0,0
1q,1q,1q,1q,1q,1q,1q,0,1q,1q,1q,1q,1q,1q,1q,1q
1q,1q,1q,1q,1q,1q,1q,0,1q,1q,1q,1q,1q,1q,1q,1q
1q,1q,1q,1q,1q,1q,1q,0,1q,1q,1q,1q,1q,1q,1q,1q
1q,1q,1q,1q,1q,1q,1q,0,1q,1q,1q,1q,1q,1q,1q,1q
1q,1q,1q,1q,1q,1q,1q,0,1q,1q,1q,1q,1q,1q,1q,1q
1q,1q,1q,1q,1q,1q,1q,0,1q,1q,1q,1q,1q,1q,1q,1q
1q,1q,1q,1q,1q,1q,1q,0,1q,1q,1q,1q,1q,1q,1q,1q
NAME swamp 003
EXT 7,0 1d 7,15
EXT 15,8 1f 0,8
EXT 7,15 1w 7,0
PAL 0

ROOM 1f
1q,1q,1q,1q,1q,1q,1q,1q,1q,1q,1q,1q,1q,1q,1q,1q
1q,1q,1q,1q,1q,1q,1q,1q,1q,1q,1q,1q,1q,1q,1q,1q
1q,1q,1q,1q,1q,1q,1q,1q,1q,1q,1q,1q,1q,1q,1q,1q
1q,1q,1q,1q,1q,1q,1q,1q,1q,1q,1q,1q,1q,1q,1q,1q
1q,1q,1q,1q,1q,1q,1q,1q,1q,1q,1q,1q,1q,1q,1q,1q
1q,1q,1q,1q,1q,1q,1q,1q,1q,1q,1q,1q,1q,1q,1q,1q
1q,1q,1q,1q,1q,1q,1q,1q,1q,1q,1q,1q,1q,1q,1q,1q
1q,1q,1q,1q,1q,1q,1q,1q,1q,1q,1q,1q,1q,1q,1q,1q
0,0,0,0,0,0,0,0,0,0,0,0,0,0,0,0
1q,1q,1q,1q,1q,1q,1q,1q,1q,1q,1q,1q,1q,1q,1q,1q
1q,1q,1q,1q,1q,1q,1q,1q,1q,1q,1q,1q,1q,1q,1q,1q
1q,1q,1q,1q,1q,1q,1q,1q,1q,1q,1q,1q,1q,1q,1q,1q
1q,1q,1q,1q,1q,1q,1q,1q,1q,1q,1q,1q,1q,1q,1q,1q
1q,1q,1q,1q,1q,1q,1q,1q,1q,1q,1q,1q,1q,1q,1q,1q
1q,1q,1q,1q,0,0,1q,1q,1q,1q,1q,1q,1q,1q,1q,1q
1q,1q,1q,1q,0,1q,1q,1q,1q,1q,1q,1q,1q,1q,1q,1q
NAME swamp 004
EXT 0,8 1e 15,8
EXT 15,8 1g 0,8
EXT 4,15 1v 4,0
PAL 0

ROOM 1g
1q,1q,1q,1q,1q,1q,1q,1q,0,1q,1q,1q,1q,1q,1q,1q
1q,1q,1q,1q,1q,1q,1q,1q,0,1q,1q,1q,1q,1q,1q,1q
1q,1q,1q,1q,1q,1q,1q,1q,0,1q,1q,1q,1q,1q,1q,1q
1q,1q,1q,1q,1q,1q,1q,0,0,1q,1q,1q,1q,1q,1q,1q
1q,1q,1q,1q,1q,1q,0,0,0,1q,1q,1q,1q,1q,1q,1q
1q,1q,1q,1q,1q,0,0,0,0,0,0,0,1q,1q,1q,1q
1q,1q,1q,1q,0,0,0,0,0,0,0,0,0,1q,1q,1q
1q,1q,0,0,0,0,0,0,0,0,0,0,0,0,0,0
0,0,0,0,0,0,0,0,1q,1q,1q,1q,1q,1q,1q,1q
1q,1q,1q,1q,1q,0,0,0,1q,1q,1q,1q,1q,1q,1q,1q
1q,1q,1q,1q,1q,1q,0,0,1q,1q,1q,1q,1q,1q,1q,1q
1q,1q,1q,1q,1q,1q,1q,0,1q,1q,1q,1q,1q,1q,1q,1q
1q,1q,1q,1q,1q,1q,1q,0,1q,1q,1q,1q,1q,1q,1q,1q
1q,1q,1q,1q,1q,1q,1q,0,1q,1q,1q,1q,1q,1q,1q,1q
1q,1q,1q,1q,1q,1q,1q,0,1q,1q,1q,1q,1q,1q,1q,1q
1q,1q,1q,1q,1q,1q,1q,0,1q,1q,1q,1q,1q,1q,1q,1q
NAME swamp 005
EXT 0,8 1f 15,8
EXT 8,0 1h 8,15
EXT 7,15 1j 7,0
EXT 15,7 1k 0,7
PAL 0

ROOM 1h
1q,1q,1q,1q,1q,1q,1q,1q,1q,1q,1q,1q,1q,1q,1q,1q
1q,1q,1q,1q,1q,1q,1q,1q,1q,1q,1q,1q,1q,1q,1q,1q
1q,1q,1q,1q,1q,1q,1q,1q,1q,1q,1q,1q,1q,1q,1q,1q
1q,1q,1q,1q,1q,1q,1q,1q,1q,1q,1q,1q,1q,1q,1q,1q
1q,1q,1q,1q,1q,1q,1q,1q,1q,0,1q,0,0,0,0,0
1q,1q,1q,1q,1q,1q,1q,0,0,0,0,0,0,0,0,1q
1q,1q,1q,1q,1q,0,0,0,0,1q,1q,1q,1q,1q,1q,1q
1q,1q,1q,1q,1q,0,0,0,0,1q,1q,1q,1q,1q,1q,1q
1q,1q,1q,1q,1q,0,0,0,1q,1q,1q,1q,1q,1q,1q,1q
1q,1q,1q,1q,1q,0,0,0,0,1q,1q,1q,1q,1q,1q,1q
1q,1q,1q,1q,1q,1q,0,0,0,1q,1q,1q,1q,1q,1q,1q
1q,1q,1q,1q,1q,1q,0,0,0,1q,1q,1q,1q,1q,1q,1q
1q,1q,1q,1q,1q,1q,1q,0,0,1q,1q,1q,1q,1q,1q,1q
1q,1q,1q,1q,1q,1q,1q,0,0,1q,1q,1q,1q,1q,1q,1q
1q,1q,1q,1q,1q,1q,1q,0,0,1q,1q,1q,1q,1q,1q,1q
1q,1q,1q,1q,1q,1q,1q,1q,0,1q,1q,1q,1q,1q,1q,1q
NAME swamp 006
EXT 8,15 1g 8,0
EXT 15,4 1i 0,4
PAL 0

ROOM 1i
1q,1q,1q,1q,1q,1q,1q,1q,1q,1q,1q,1q,1q,1q,1q,1q
1q,1q,1q,1q,1q,1q,1q,1q,1q,1q,1q,1q,1q,1q,1q,1q
1q,1q,1q,1q,1q,1q,1q,1q,0,0,0,0,0,1q,1q,1q
1q,1q,1q,1q,1q,1q,1q,0,0,0,0,0,0,1q,1q,1q
0,0,1q,1q,1q,1q,1q,0,0,0,0,0,0,0,1q,1q
1q,0,0,0,1q,1q,1q,0,0,0,0,0,0,0,1q,1q
1q,1q,0,0,0,1q,1q,0,0,0,0,0,0,0,0,1q
1q,1q,1q,0,0,0,0,0,0,0,0,0,0,0,0,1q
1q,1q,1q,1q,0,0,0,0,0,0,0,0,0,0,0,1q
1q,1q,1q,0,0,0,0,0,0,0,0,0,0,0,1q,1q
1q,1q,0,0,0,0,0,0,0,0,0,0,0,1q,1q,1q
1q,1q,0,0,0,0,0,0,0,0,0,0,0,0,1q,1q
1q,1q,1q,0,0,0,0,0,0,0,0,0,0,0,1q,1q
1q,1q,1q,1q,0,0,0,0,0,0,0,0,0,1q,1q,1q
1q,1q,1q,1q,1q,0,0,0,0,0,0,0,1q,1q,1q,1q
1q,1q,1q,1q,1q,1q,1q,1q,1q,1q,1q,1q,1q,1q,1q,1q
NAME swamp 007
EXT 0,4 1h 15,4
PAL 0

ROOM 1j
1q,1q,1q,1q,1q,1q,1q,0,1q,1q,1q,1q,1q,1q,1q,1q
1q,1q,1q,1q,1q,1q,1q,0,1q,1q,1q,1q,1q,1q,1q,1q
1q,1q,1q,1q,1q,1q,1q,0,1q,1q,1q,1q,1q,1q,1q,1q
1q,1q,1q,1q,1q,1q,1q,0,1q,1q,1q,1q,1q,1q,1q,1q
1q,1q,1q,1q,1q,1q,1q,0,1q,1q,1q,1q,1q,1q,1q,1q
1q,1q,1q,1q,1q,1q,1q,0,1q,1q,1q,1q,1q,1q,1q,1q
1q,1q,1q,1q,1q,1q,1q,0,1q,1q,1q,1q,1q,1q,1q,1q
1q,1q,1q,1q,1q,1q,1q,0,0,1q,1q,1q,1q,1q,1q,1q
1q,1q,1q,1q,1q,1q,1q,1q,0,0,0,0,0,1q,1q,1q
1q,1q,1q,1q,1q,1q,1q,1q,1q,0,0,0,0,0,0,0
1q,1q,1q,1q,1q,1q,1q,1q,1q,1q,1q,1q,1q,1q,1q,1q
1q,1q,1q,1q,1q,1q,1q,1q,1q,1q,1q,1q,1q,1q,1q,1q
1q,1q,1q,1q,1q,1q,1q,1q,1q,1q,1q,1q,1q,1q,1q,1q
1q,1q,1q,1q,1q,1q,1q,1q,1q,1q,1q,1q,1q,1q,1q,1q
1q,1q,1q,1q,1q,1q,1q,1q,1q,1q,1q,1q,1q,1q,1q,1q
1q,1q,1q,1q,1q,1q,1q,1q,1q,1q,1q,1q,1q,1q,1q,1q
NAME swamp 008
EXT 15,9 1l 0,9
EXT 7,0 1r 0,13
PAL 0

ROOM 1k
1q,1q,1q,1q,1q,1q,1q,1q,1q,1q,1q,1q,1q,1q,1q,1q
1q,1q,1q,1q,1q,1q,1q,1q,1q,1q,1q,1q,1q,1q,1q,1q
1q,1q,1q,1q,1q,1q,1q,1q,1q,1q,1q,1q,1q,1q,1q,1q
1q,1q,1q,1q,1q,1q,1q,1q,1q,1q,1q,1q,1q,1q,1q,1q
1q,1q,1q,1q,1q,1q,1q,1q,0,0,0,0,1q,1q,1q,1q
1q,1q,1q,1q,1q,0,0,0,0,0,0,0,1q,1q,1q,1q
1q,1q,1q,0,0,0,0,1q,1q,1q,1q,0,1q,1q,1q,1q
0,0,0,0,0,0,0,1q,1q,1q,1q,0,1q,1q,1q,1q
1q,1q,1q,1q,1q,1q,1q,1q,1q,1q,1q,0,0,1q,1q,1q
1q,1q,1q,1q,1q,1q,1q,1q,1q,1q,1q,0,0,1q,1q,1q
1q,1q,1q,1q,1q,1q,1q,1q,1q,1q,1q,0,0,1q,1q,1q
1q,1q,1q,1q,1q,1q,1q,1q,1q,1q,1q,0,0,1q,1q,1q
1q,1q,1q,1q,1q,1q,1q,1q,1q,1q,0,0,1q,1q,1q,1q
1q,1q,1q,1q,1q,1q,1q,1q,1q,0,0,0,1q,1q,1q,1q
1q,1q,1q,1q,1q,1q,1q,1q,1q,0,0,1q,1q,1q,1q,1q
1q,1q,1q,1q,1q,1q,1q,1q,1q,0,1q,1q,1q,1q,1q,1q
NAME swamp 009
EXT 0,7 1g 15,7
EXT 9,15 1l 9,0
PAL 0

ROOM 1l
1q,1q,1q,1q,1q,1q,1q,1q,1q,0,1q,1q,1q,1q,1q,1q
1q,1q,1q,1q,1q,1q,1q,1q,1q,0,1q,1q,1q,1q,1q,1q
1q,1q,1q,1q,1q,1q,1q,1q,1q,0,1q,1q,1q,1q,1q,1q
1q,1q,1q,1q,1q,1q,1q,1q,1q,0,1q,1q,1q,1q,1q,1q
1q,1q,1q,1q,1q,1q,1q,1q,1q,0,1q,1q,1q,1q,1q,1q
1q,1q,1q,1q,1q,1q,1q,1q,1q,0,0,1q,1q,1q,1q,1q
1q,1q,1q,1q,1q,1q,1q,1q,1q,0,0,1q,1q,1q,1q,1q
1q,1q,1q,1q,1q,1q,1q,1q,1q,0,0,1q,1q,1q,1q,1q
1q,1q,1q,1q,1q,1q,1q,1q,1q,0,0,1q,1q,1q,1q,1q
0,0,0,0,1q,1q,1q,1q,1q,0,0,0,1q,1q,1q,1q
1q,0,0,0,1q,1q,1q,1q,1q,0,0,0,1q,1q,1q,1q
1q,1q,1q,1q,1q,1q,1q,1q,1q,0,0,0,1q,1q,1q,1q
1q,1q,1q,1q,1q,1q,1q,1q,1q,0,0,1q,1q,1q,1q,1q
1q,1q,1q,1q,1q,1q,1q,1q,1q,0,0,1q,1q,1q,1q,1q
1q,1q,1q,1q,1q,1q,1q,1q,1q,0,1q,1q,1q,1q,1q,1q
1q,1q,1q,1q,1q,1q,1q,1q,1q,0,1q,1q,1q,1q,1q,1q
NAME swamp 010
EXT 9,0 1k 9,15
EXT 0,9 1j 15,9
EXT 9,15 1m 9,0
PAL 0

ROOM 1m
1q,1q,1q,1q,1q,1q,1q,1q,1q,0,1q,1q,1q,1q,1q,1q
1q,1q,1q,1q,1q,1q,1q,1q,1q,0,1q,1q,1q,1q,1q,1q
1q,1q,1q,1q,1q,1q,1q,1q,1q,0,1q,1q,1q,1q,1q,1q
1q,1q,1q,1q,1q,1q,1q,1q,0,0,0,1q,1q,1q,1q,1q
1q,1q,1q,1q,1q,1q,1q,1q,0,0,0,1q,1q,1q,1q,1q
1q,1q,1q,1q,1q,1q,1q,0,0,0,0,1q,1q,1q,1q,1q
0,0,0,0,0,0,0,0,0,0,0,1q,1q,1q,1q,1q
1q,1q,0,0,0,0,1q,1q,0,0,0,1q,1q,1q,1q,1q
1q,1q,1q,1q,1q,1q,1q,1q,0,0,0,1q,1q,1q,1q,1q
1q,1q,1q,1q,1q,1q,1q,1q,1q,0,0,0,1q,1q,1q,1q
1q,1q,1q,1q,1q,1q,1q,1q,1q,0,0,0,1q,1q,1q,1q
1q,1q,1q,1q,1q,1q,1q,1q,1q,0,0,1q,1q,1q,1q,1q
1q,1q,1q,1q,1q,1q,1q,1q,0,0,0,1q,1q,1q,1q,1q
1q,1q,1q,1q,1q,1q,1q,1q,1q,0,0,1q,1q,1q,1q,1q
1q,1q,1q,1q,1q,1q,1q,1q,1q,0,1q,1q,1q,1q,1q,1q
1q,1q,1q,1q,1q,1q,1q,1q,1q,0,1q,1q,1q,1q,1q,1q
NAME swamp 011
EXT 9,0 1l 9,15
EXT 0,6 1n 15,6
EXT 9,15 1p 9,0
PAL 0

ROOM 1n
1q,1q,1q,1q,1q,1q,1q,1q,1q,1q,1q,1q,1q,1q,1q,1q
1q,1q,1q,1q,1q,1q,1q,1q,1q,1q,1q,1q,1q,1q,1q,1q
1q,1q,1q,1q,1q,1q,1q,1q,1q,1q,1q,1q,1q,1q,1q,1q
1q,1q,1q,1q,1q,1q,1q,1q,1q,1q,1q,1q,1q,1q,1q,1q
1q,1q,1q,1q,1q,1q,1q,1q,1q,1q,1q,1q,1q,1q,1q,1q
1q,1q,1q,1q,1q,0,0,0,0,0,0,0,0,1q,1q,1q
1q,1q,1q,1q,0,0,0,0,0,0,0,0,0,0,0,0
1q,1q,1q,1q,0,0,0,0,0,0,0,0,0,1q,1q,1q
1q,1q,1q,0,0,0,0,0,0,0,1q,1q,1q,1q,1q,1q
1q,1q,1q,0,0,0,0,0,1q,1q,1q,1q,1q,1q,1q,1q
1q,1q,0,0,0,1q,1q,1q,1q,1q,1q,1q,1q,1q,1q,1q
1q,1q,0,0,1q,1q,1q,1q,1q,1q,1q,1q,1q,1q,1q,1q
1q,1q,0,1q,1q,1q,1q,1q,1q,1q,1q,1q,1q,1q,1q,1q
1q,1q,0,1q,1q,1q,1q,1q,1q,1q,1q,1q,1q,1q,1q,1q
1q,1q,0,1q,1q,1q,1q,1q,1q,1q,1q,1q,1q,1q,1q,1q
1q,1q,0,1q,1q,1q,1q,1q,1q,1q,1q,1q,1q,1q,1q,1q
NAME swamp 012
EXT 15,6 1m 0,6
EXT 2,15 1o 2,0
PAL 0

ROOM 1o
1q,1q,0,1q,1q,1q,1q,1q,1q,1q,1q,1q,1q,1q,1q,1q
1q,0,0,1q,1q,1q,1q,1q,1q,1q,1q,1q,1q,1q,1q,1q
1q,0,0,1q,1q,1q,1q,1q,1q,1q,1q,1q,1q,1q,1q,1q
1q,0,0,1q,1q,1q,1q,1q,1q,1q,1q,1q,1q,1q,1q,1q
1q,0,0,0,1q,1q,1q,1q,1q,1q,1q,1q,1q,1q,1q,1q
1q,0,0,0,0,1q,1q,1q,1q,1q,1q,1q,1q,1q,1q,1q
1q,1q,0,0,0,0,1q,1q,1q,1q,1q,1q,1q,1q,1q,1q
1q,1q,0,0,0,0,1q,1q,1q,1q,1q,1q,1q,1q,1q,1q
1q,1q,1q,1q,1q,1q,1q,1q,1q,1q,1q,1q,1q,1q,1q,1q
1q,1q,1q,1q,1q,1q,1q,1q,1q,1q,1q,1q,1q,1q,1q,1q
1q,1q,1q,1q,1q,1q,1q,1q,1q,1q,1q,1q,1q,1q,1q,1q
1q,1q,1q,1q,1q,1q,1q,1q,1q,1q,1q,1q,1q,1q,1q,1q
1q,1q,1q,1q,1q,1q,1q,1q,1q,1q,1q,1q,1q,1q,1q,1q
1q,1q,1q,1q,1q,1q,1q,1q,1q,1q,1q,1q,1q,1q,1q,1q
1q,1q,1q,1q,1q,1q,1q,1q,1q,1q,1q,1q,1q,1q,1q,1q
1q,1q,1q,1q,1q,1q,1q,1q,1q,1q,1q,1q,1q,1q,1q,1q
NAME swamp 013
EXT 2,0 1n 2,15
PAL 0

ROOM 1p
1q,1q,1q,1q,1q,1q,1q,1q,1q,0,1q,1q,1q,1q,1q,1q
1q,1q,1q,1q,1q,1q,1q,1q,1q,0,1q,1q,1q,1q,1q,1q
1q,1q,1q,1q,1q,1q,1q,1q,1q,0,1q,1q,1q,1q,1q,1q
1q,1q,1q,1q,1q,1q,1q,1q,1q,0,0,1q,1q,1q,1q,1q
1q,1q,1q,1q,1q,1q,1q,1q,1q,1q,0,0,1q,1q,1q,1q
1q,1q,1q,1q,1q,1q,1q,1q,1q,1q,0,0,0,1q,1q,1q
1q,1q,1q,1q,1q,1q,1q,1q,1q,1q,0,0,0,0,1q,1q
1q,1q,1q,1q,1q,1q,1q,1q,0,0,0,0,0,1q,1q,1q
1q,1q,1q,1q,1q,0,0,0,0,0,0,1q,1q,1q,1q,1q
1q,1q,1q,0,0,0,0,1q,1q,1q,1q,1q,1q,1q,1q,1q
1q,1q,0,0,0,1q,1q,1q,1q,1q,1q,1q,1q,1q,1q,1q
1q,0,0,1q,1q,1q,1q,1q,1q,1q,1q,1q,1q,1q,1q,1q
1q,0,0,1q,1q,1q,1q,1q,1q,1q,1q,1q,1q,1q,1q,1q
1q,1q,0,0,0,0,0,1q,1q,1q,1q,1q,1q,1q,1q,1q
1q,1q,1q,1q,0,0,0,1q,1q,1q,1q,1q,1q,1q,1q,1q
1q,1q,1q,1q,1q,1q,0,1q,1q,1q,1q,1q,1q,1q,1q,1q
NAME swamp 014
EXT 9,0 1m 9,15
EXT 6,15 1q 6,0
PAL 0

ROOM 1q
1q,1q,1q,1q,1q,1q,0,1q,1q,1q,1q,1q,1q,1q,1q,1q
1q,1q,1q,1q,1q,1q,0,1q,1q,1q,1q,1q,1q,1q,1q,1q
1q,1q,1q,1q,1q,1q,0,0,1q,1q,1q,1q,1q,1q,1q,1q
1q,1q,1q,1q,1q,1q,1q,0,1q,1q,1q,1q,1q,1q,1q,1q
1q,1q,1q,1q,1q,1q,1q,0,0,0,1q,1q,1q,1q,1q,1q
1q,1q,1q,1q,1q,1q,1q,1q,0,0,1q,1q,1q,1q,1q,1q
1q,1q,1q,1q,1q,1q,1q,1q,0,0,0,1q,1q,1q,1q,1q
1q,1q,1q,1q,1q,1q,1q,1q,1q,0,0,1q,1q,1q,1q,1q
1q,1q,1q,1q,1q,1q,1q,1q,1q,0,0,1q,1q,1q,1q,1q
1q,1q,1q,1q,1q,1q,1q,1q,1q,0,1q,1q,1q,1q,1q,1q
1q,1q,1q,1q,1q,1q,1q,0,0,0,1q,1q,1q,1q,1q,1q
1q,1q,1q,1q,1q,1q,0,0,0,1q,1q,1q,1q,1q,1q,1q
1q,1q,1q,1q,1q,1q,0,0,0,1q,1q,1q,1q,1q,1q,1q
1q,1q,1q,1q,0,0,0,0,1q,1q,1q,1q,1q,1q,1q,1q
0,0,0,0,0,0,1q,1q,1q,1q,1q,1q,1q,1q,1q,1q
1q,1q,1q,1q,1q,1q,1q,1q,1q,1q,1q,1q,1q,1q,1q,1q
NAME swamp 015
EXT 6,0 1p 6,15
EXT 0,14 1r 15,14
PAL 0

ROOM 1r
1q,1q,1q,1q,1q,1q,1q,1q,1q,1q,1q,1q,1q,1q,1q,1q
1q,1q,1q,1q,1q,1q,1q,1q,1q,1q,1q,1q,1q,1q,1q,1q
1q,1q,1q,1q,1q,1q,1q,1q,1q,1q,1q,1q,1q,1q,1q,1q
1q,1q,1q,1q,1q,1q,1q,1q,1q,1q,1q,1q,1q,1q,1q,1q
1q,1q,1q,1q,1q,1q,1q,1q,1q,1q,1q,1q,1q,1q,1q,1q
1q,1q,1q,1q,1q,1q,1q,1q,1q,1q,1q,1q,1q,1q,1q,1q
1q,1q,1q,1q,1q,1q,1q,1q,1q,1q,1q,1q,1q,1q,1q,1q
1q,1q,1q,1q,1q,1q,1q,1q,1q,1q,1q,1q,1q,1q,1q,1q
1q,1q,1q,1q,1q,1q,1q,1q,1q,1q,1q,1q,1q,1q,1q,1q
1q,1q,1q,1q,1q,1q,1q,1q,1q,1q,1q,1q,1q,1q,1q,1q
1q,1q,1q,1q,1q,1q,1q,1q,1q,1q,1q,1q,1q,1q,1q,1q
1q,1q,1q,1q,1q,1q,1q,1q,1q,1q,1q,1q,1q,1q,1q,1q
1q,1q,1q,1q,1q,1q,1q,0,0,1q,1q,1q,1q,1q,1q,1q
0,0,0,0,0,0,0,0,0,0,0,0,0,0,1q,1q
1q,1q,1q,1q,1q,0,0,1q,1q,1q,1q,1q,1q,0,0,0
1q,1q,1q,1q,1q,0,1q,1q,1q,1q,1q,1q,1q,1q,1q,1q
NAME swamp 016
EXT 15,14 1q 0,14
EXT 5,15 1s 5,0
EXT 0,13 1t 15,13
PAL 0

ROOM 1s
1q,1q,1q,1q,1q,0,1q,1q,1q,1q,1q,1q,1q,1q,1q,1q
1q,1q,1q,1q,1q,0,1q,1q,1q,1q,1q,1q,1q,1q,1q,1q
1q,1q,1q,1q,1q,0,1q,1q,1q,1q,1q,1q,1q,1q,1q,1q
1q,1q,1q,1q,0,0,1q,1q,1q,1q,1q,1q,1q,1q,1q,1q
1q,1q,1q,0,0,1q,1q,1q,1q,1q,0,0,0,1q,1q,1q
1q,1q,1q,0,0,0,0,0,0,0,0,0,0,0,1q,1q
1q,1q,1q,1q,1q,1q,1q,1q,1q,1q,1q,1q,1q,0,0,1q
1q,1q,1q,1q,1q,1q,1q,1q,1q,1q,1q,1q,1q,1q,0,1q
1q,1q,1q,1q,1q,1q,1q,1q,1q,1q,1q,1q,1q,1q,0,1q
1q,1q,1q,1q,1q,1q,1q,1q,1q,1q,1q,1q,1q,1q,0,1q
1q,1q,1q,1q,1q,1q,1q,1q,1q,1q,1q,1q,1q,0,0,1q
1q,1q,1q,1q,1q,1q,1q,1q,1q,1q,0,0,0,0,1q,1q
1q,1q,1q,1q,0,0,0,0,0,0,0,0,1q,1q,1q,1q
1q,1q,1q,0,0,0,0,0,0,1q,1q,1q,1q,1q,1q,1q
1q,1q,1q,1q,1q,1q,1q,0,1q,1q,1q,1q,1q,1q,1q,1q
1q,1q,1q,1q,1q,1q,1q,0,1q,1q,1q,1q,1q,1q,1q,1q
NAME swamp 017
EXT 5,0 1r 5,15
EXT 7,15 21 7,0
PAL 0

ROOM 1t
1q,1q,0,1q,1q,1q,1q,1q,1q,1q,1q,1q,1q,1q,1q,1q
1q,1q,0,1q,1q,1q,1q,1q,1q,1q,1q,1q,1q,1q,1q,1q
1q,1q,0,1q,1q,1q,1q,1q,1q,1q,1q,1q,1q,1q,1q,1q
1q,1q,0,1q,1q,1q,1q,1q,1q,1q,1q,1q,1q,1q,1q,1q
1q,1q,0,0,1q,1q,1q,1q,1q,1q,1q,1q,1q,1q,1q,1q
1q,1q,0,0,1q,1q,1q,1q,1q,1q,1q,1q,1q,1q,1q,1q
1q,1q,0,0,1q,1q,1q,1q,1q,1q,1q,1q,1q,1q,1q,1q
1q,1q,1q,0,0,1q,1q,1q,1q,1q,1q,1q,1q,1q,1q,1q
1q,1q,1q,1q,0,0,0,0,1q,1q,1q,1q,1q,1q,1q,1q
1q,1q,1q,1q,0,0,0,0,1q,1q,1q,1q,1q,1q,1q,1q
1q,1q,1q,1q,1q,0,0,0,0,0,1q,1q,1q,1q,1q,1q
1q,1q,1q,1q,1q,1q,1q,1q,0,0,0,0,0,1q,1q,1q
1q,1q,1q,1q,1q,1q,1q,1q,1q,1q,0,0,0,0,0,1q
1q,1q,1q,1q,1q,1q,1q,1q,1q,1q,1q,1q,1q,0,0,0
1q,1q,1q,1q,1q,1q,1q,1q,1q,1q,1q,1q,1q,1q,1q,1q
1q,1q,1q,1q,1q,1q,1q,1q,1q,1q,1q,1q,1q,1q,1q,1q
NAME swamp 018
EXT 15,13 1r 0,13
EXT 2,0 1u 2,15
PAL 0

ROOM 1u
1q,1q,0,1q,1q,1q,1q,1q,1q,1q,1q,1q,1q,1q,1q,1q
1q,1q,0,1q,1q,1q,1q,1q,1q,1q,1q,1q,1q,1q,1q,1q
1q,1q,0,0,1q,1q,1q,1q,1q,1q,1q,1q,1q,1q,1q,1q
1q,1q,1q,0,1q,1q,1q,1q,1q,1q,1q,1q,1q,1q,1q,1q
1q,1q,1q,0,1q,1q,1q,1q,1q,1q,1q,1q,1q,1q,1q,1q
1q,1q,1q,0,0,1q,1q,1q,1q,1q,1q,1q,1q,1q,1q,1q
1q,1q,1q,1q,0,1q,1q,1q,1q,1q,1q,1q,1q,1q,1q,1q
1q,1q,1q,1q,0,1q,1q,1q,1q,1q,1q,1q,1q,1q,1q,1q
1q,1q,1q,1q,0,1q,1q,1q,1q,1q,1q,1q,1q,1q,1q,1q
1q,1q,1q,1q,0,1q,1q,1q,1q,1q,1q,1q,1q,1q,1q,1q
1q,1q,1q,1q,0,1q,1q,1q,1q,1q,1q,1q,1q,1q,1q,1q
1q,1q,1q,1q,0,1q,1q,1q,1q,1q,1q,1q,1q,1q,1q,1q
1q,1q,1q,0,0,1q,1q,1q,1q,1q,1q,1q,1q,1q,1q,1q
1q,1q,1q,0,0,1q,1q,1q,1q,1q,1q,1q,1q,1q,1q,1q
1q,1q,0,0,1q,1q,1q,1q,1q,1q,1q,1q,1q,1q,1q,1q
1q,1q,0,1q,1q,1q,1q,1q,1q,1q,1q,1q,1q,1q,1q,1q
NAME swamp 019
EXT 2,15 1t 2,0
EXT 2,0 1v 2,15
PAL 0

ROOM 1v
1q,1q,1q,1q,0,1q,1q,1q,1q,1q,1q,1q,1q,1q,1q,1q
1q,1q,1q,1q,0,1q,0,1q,1q,1q,1q,1q,1q,1q,1q,1q
0,0,0,0,0,0,0,1q,1q,1q,1q,1q,1q,1q,1q,1q
1q,0,0,0,1q,1q,0,1q,1q,1q,1q,1q,1q,1q,1q,1q
1q,1q,0,1q,1q,1q,0,1q,1q,1q,1q,1q,1q,1q,1q,1q
1q,1q,1q,1q,1q,0,0,0,1q,1q,1q,1q,1q,1q,1q,1q
1q,1q,1q,1q,0,0,0,0,1q,1q,1q,1q,1q,1q,1q,1q
1q,1q,1q,1q,0,0,0,0,1q,1q,1q,1q,1q,1q,1q,1q
1q,1q,1q,0,0,0,0,0,1q,1q,1q,1q,1q,1q,1q,1q
1q,1q,1q,0,0,0,0,1q,1q,1q,1q,1q,1q,1q,1q,1q
1q,1q,1q,0,0,0,1q,1q,1q,1q,1q,1q,1q,1q,1q,1q
1q,1q,0,0,0,1q,1q,1q,1q,1q,1q,1q,1q,1q,1q,1q
1q,1q,0,0,1q,1q,1q,1q,1q,1q,1q,1q,1q,1q,1q,1q
1q,1q,0,0,1q,1q,1q,1q,1q,1q,1q,1q,1q,1q,1q,1q
1q,1q,0,0,1q,1q,1q,1q,1q,1q,1q,1q,1q,1q,1q,1q
1q,1q,0,1q,1q,1q,1q,1q,1q,1q,1q,1q,1q,1q,1q,1q
NAME swamp 020
EXT 2,15 1u 2,0
EXT 4,0 1f 4,15
EXT 0,2 1w 15,2
PAL 0

ROOM 1w
1q,1q,1q,1q,1q,1q,1q,0,1q,1q,1q,1q,1q,1q,1q,1q
1q,1q,1q,1q,1q,1q,1q,0,1q,1q,1q,1q,0,1q,1q,1q
1q,1q,1q,1q,1q,1q,0,0,0,0,0,0,0,0,0,0
1q,1q,1q,1q,1q,1q,1q,0,0,0,0,0,0,0,0,1q
1q,1q,1q,1q,1q,1q,0,0,0,0,0,0,0,0,0,1q
1q,1q,1q,1q,1q,0,0,0,0,0,0,0,0,0,0,1q
1q,1q,1q,1q,0,0,0,0,0,0,0,0,0,1q,1q,1q
1q,1q,1q,0,0,0,0,0,0,1q,1q,1q,1q,1q,1q,1q
1q,1q,1q,1q,0,0,0,1q,1q,1q,1q,1q,1q,1q,1q,1q
1q,1q,1q,0,0,0,1q,1q,1q,1q,1q,1q,1q,1q,1q,1q
1q,1q,1q,0,0,1q,1q,1q,1q,1q,1q,1q,1q,1q,1q,1q
1q,1q,1q,0,0,1q,1q,1q,1q,1q,1q,1q,1q,1q,1q,1q
1q,1q,1q,0,1q,1q,1q,1q,1q,1q,1q,1q,1q,1q,1q,1q
0,0,0,0,1q,1q,1q,1q,1q,1q,1q,1q,1q,1q,1q,1q
1q,0,0,0,1q,1q,1q,1q,1q,1q,1q,1q,1q,1q,1q,1q
1q,1q,1q,0,1q,1q,1q,1q,1q,1q,1q,1q,1q,1q,1q,1q
NAME swamp 021
EXT 15,2 1v 0,2
EXT 7,0 1e 7,15
EXT 3,15 1x 3,0
EXT 0,13 1y 15,13
PAL 0

ROOM 1x
1q,1q,1q,0,1q,1q,1q,1q,1q,1q,1q,1q,1q,1q,1q,1q
1q,1q,0,0,0,0,0,1q,1q,1q,1q,1q,1q,1q,1q,1q
1q,1q,0,0,0,0,0,0,0,1q,1q,1q,1q,1q,1q,1q
1q,1q,1q,0,0,0,0,0,0,0,0,1q,1q,1q,1q,1q
1q,1q,1q,1q,0,0,0,0,0,0,0,0,1q,1q,1q,1q
1q,1q,1q,1q,0,0,0,0,0,0,0,1q,1q,1q,1q,1q
1q,1q,1q,1q,1q,1q,0,0,0,0,0,1q,1q,1q,1q,1q
1q,1q,1q,1q,1q,1q,1q,0,0,0,1q,1q,1q,1q,1q,1q
1q,1q,1q,1q,1q,1q,1q,1q,1q,1q,1q,1q,1q,1q,1q,1q
1q,1q,1q,1q,1q,1q,1q,1q,1q,1q,1q,1q,1q,1q,1q,1q
1q,1q,1q,1q,1q,1q,1q,1q,1q,1q,1q,1q,1q,1q,1q,1q
1q,1q,1q,1q,1q,1q,1q,1q,1q,1q,1q,1q,1q,1q,1q,1q
1q,1q,1q,1q,1q,1q,1q,1q,1q,1q,1q,1q,1q,1q,1q,1q
1q,1q,1q,1q,1q,1q,1q,1q,1q,1q,1q,1q,1q,1q,1q,1q
1q,1q,1q,1q,1q,1q,1q,1q,1q,1q,1q,1q,1q,1q,1q,1q
1q,1q,1q,1q,1q,1q,1q,1q,1q,1q,1q,1q,1q,1q,1q,1q
NAME swamp 022
EXT 3,0 1w 3,15
PAL 0

ROOM 1y
1q,1q,1q,1q,1q,1q,1q,1q,1q,1q,0,1q,1q,1q,1q,1q
1q,1q,1q,1q,1q,1q,1q,1q,1q,1q,0,1q,1q,1q,1q,1q
1q,1q,1q,1q,1q,1q,1q,1q,1q,1q,0,0,0,1q,1q,1q
1q,1q,1q,1q,1q,1q,1q,1q,1q,1q,1q,0,0,1q,1q,1q
1q,1q,1q,1q,1q,1q,1q,1q,1q,1q,1q,1q,0,0,1q,1q
1q,1q,1q,1q,1q,1q,1q,1q,1q,1q,1q,1q,1q,0,0,1q
1q,1q,1q,1q,1q,1q,1q,1q,1q,1q,1q,1q,1q,1q,0,1q
1q,1q,1q,1q,1q,1q,1q,1q,1q,1q,1q,1q,1q,1q,0,1q
1q,1q,1q,1q,1q,1q,1q,1q,1q,1q,1q,1q,1q,1q,0,1q
1q,1q,1q,1q,1q,1q,1q,1q,1q,1q,1q,1q,1q,1q,0,1q
1q,1q,1q,1q,1q,1q,1q,1q,1q,1q,1q,1q,1q,1q,0,1q
1q,1q,1q,1q,1q,1q,1q,1q,1q,1q,1q,1q,1q,0,0,1q
1q,1q,1q,1q,1q,1q,1q,1q,1q,1q,1q,1q,0,0,0,1q
1q,1q,1q,1q,1q,1q,1q,1q,1q,1q,1q,1q,0,0,0,0
0,0,0,0,0,0,0,0,0,0,0,0,0,0,0,1q
1q,1q,1q,1q,1q,1q,1q,1q,1q,1q,1q,1q,1q,1q,1q,1q
NAME swamp 023
EXT 15,13 1w 0,13
EXT 0,14 1z 15,14
EXT 10,0 20 10,15
PAL 0

ROOM 1z
1q,1q,1q,1q,1q,1q,1q,1q,1q,1q,1q,1q,1q,1q,1q,1q
1q,1q,1q,1q,1q,1q,1q,1q,1q,1q,1q,1q,1q,1q,1q,1q
1q,1q,1q,1q,1q,1q,1q,1q,1q,1q,1q,1q,1q,1q,1q,1q
1q,1q,1q,0,0,0,1q,1q,1q,1q,1q,1q,1q,1q,1q,1q
1q,1q,1q,0,0,0,0,1q,1q,1q,1q,1q,1q,1q,1q,1q
1q,1q,1q,1q,0,0,0,0,0,1q,1q,1q,1q,1q,1q,1q
1q,1q,1q,1q,0,0,0,0,0,0,1q,1q,1q,1q,1q,1q
1q,1q,1q,1q,0,0,0,0,0,0,0,1q,1q,1q,1q,1q
1q,1q,1q,1q,1q,0,0,0,0,0,0,0,1q,0,1q,1q
1q,1q,1q,1q,1q,1q,0,0,0,0,0,0,0,1q,1q,1q
1q,1q,1q,1q,1q,1q,1q,1q,0,0,0,0,0,0,1q,1q
1q,1q,1q,1q,1q,1q,1q,1q,1q,0,0,0,0,0,1q,1q
1q,1q,1q,1q,1q,1q,1q,1q,1q,1q,1q,0,0,0,0,1q
1q,1q,1q,1q,1q,1q,1q,1q,1q,1q,1q,1q,1q,1q,0,1q
1q,1q,1q,1q,1q,1q,1q,1q,1q,1q,1q,1q,1q,1q,0,0
1q,1q,1q,1q,1q,1q,1q,1q,1q,1q,1q,1q,1q,1q,1q,1q
NAME swamp 024
ITM 0 3,3
EXT 15,14 1y 0,14
PAL 0

ROOM 2a
2r,2r,2r,2r,2r,2r,2r,2r,2r,2r,2r,2r,2r,2r,2r,2r
2r,2r,2r,2r,2r,2r,2r,2r,2r,2r,2r,2r,2r,2r,2r,2r
2r,2r,2r,2r,2r,2r,2r,2r,2r,2r,2r,2r,2r,2r,2r,2r
2r,2r,2r,2r,2r,2r,2r,2r,2r,2r,2r,2r,2r,2r,2r,2r
2r,2r,2r,2r,2r,2r,2r,2r,2r,2r,2r,2r,2r,2r,2r,2r
2r,2r,2r,2r,2r,2r,2r,2r,2r,2r,2r,2r,2r,2r,2r,2r
2r,2r,2r,2r,2r,2r,2r,2r,2r,2r,2r,2r,2r,2r,2r,2r
2r,2r,2r,2r,2r,2r,2r,2r,2r,2r,2r,2r,2r,2r,2r,2r
2r,2r,2r,2r,2r,2r,2r,2r,2r,2r,2r,2r,2r,2r,2r,2r
2r,2r,2r,2r,2r,2r,2r,2r,2r,2r,2r,2r,2r,2r,2r,2r
2r,2r,2r,2r,2r,2r,2r,2r,2r,2r,2r,2r,2r,2r,2r,2r
2r,2r,2r,2r,2r,2r,2r,2r,2r,2r,2r,1j,2r,2r,2r,2r
2r,2r,2r,2r,2r,2r,2r,2r,2r,2r,2r,2r,2r,2r,2r,2r
2r,2r,2r,2r,2r,2r,2r,2r,2r,2r,2r,2r,2r,2r,2r,2r
2r,2r,2r,2r,2r,2r,2r,2r,2r,2r,2r,2r,2r,2r,2r,2r
2r,2r,2r,2r,2r,2r,2r,2r,2r,2r,2r,2r,2r,2r,2r,2r
NAME secret ocean path 2
ITM 0 13,14
EXT 11,11 18 7,8
PAL 0

TIL 10
11110000
11110000
11110000
11110000
11110000
00110000
11110000
00110000

TIL 11
00001111
00001111
00001111
00001111
00001111
00001100
00001111
00001100

TIL 12
11111111
10111101
11111111
11111111
11111111
11111111
10111101
11111111

TIL 13
00000001
00000000
00000100
10111110
00111110
10010101
10011101
01000010
>
00000000
00000010
00000100
10111110
00111110
10010101
10011101
01000010

TIL 14
00001000
00000000
00010000
00010000
00001001
00000100
00000000
00000100

TIL 15
00000000
00001100
00111100
01111100
11110011
11100011
11001001
11101111

TIL 16
10101010
01010101
11111111
11111111
11111111
11111111
11111111
11111111

TIL 17
10101000
01010100
11101010
11111101
11111110
11111111
11111110
11111111

TIL 18
00101010
01010101
10111111
01111111
10111111
01111111
11111111
01111111

TIL 19
00000000
00100100
00000000
00000000
01010100
00000000
10101010
01010101

TIL 20
00110000
00000111
10001000
00110010
00100100
10110000
00011111
00000000

TIL 21
00000000
00000000
00000000
00000000
00000000
00000000
00000010
00000000

TIL 22
00001000
00000000
00000001
00000000
00000000
00000000
00000000
00000000

TIL 23
11111111
11111111
11111111
00000000
00000000
00000000
00000000
00000000

TIL 24
11111111
11111111
11001100
11001100
11111111
11001100
00110011
11001100

TIL 25
00000000
11010111
11111111
10101010
11111111
00111100
11000011
00111100

TIL 26
11111111
00001110
00000111
00000011
11111111
01100000
11000000
10000000

TIL 27
11111111
01010101
01010101
01010101
11111111
00000000
00000000
00000000

TIL 28
10101010
10101010
10101010
10101010
11111111
00000000
00000000
00000000

TIL 29
10000001
10000001
10000001
10000001
10000001
10000001
10000001
00000000

TIL a
00000000
10001000
11001100
10101010
11101110
10101010
11101110
10101010

TIL b
00000000
00100100
00110110
00110110
00000000
01001000
01101100
01101100

TIL c
00000000
00100000
00000100
00000000
00100010
00000100
01010000
00000000
>
00000000
00000010
00001000
01000000
00000000
01000000
00000100
00000000

TIL d
01000000
00000001
00000100
00000000
00100000
00010000
01000100
00000000

TIL e
00000000
00001110
00010001
00110001
01001111
10110001
10100101
11111111

TIL f
00000000
00000100
00100000
00001100
00010000
10001000
01000010
00000000
>
00010000
10000000
00000001
00010000
00000000
00001000
00100000
00000000

TIL g
00010000
00110000
00101100
00100100
00110010
00100010
01001001
01101111

TIL h
00010000
10011010
11011011
11000011
00001000
01001100
01101100
01100000

TIL i
00000000
00001000
00011100
00111110
01011101
10001000
00000010
00000111

TIL j
00001111
00010010
00100000
01000000
00000000
00000001
00000010
00000000

TIL k
10000010
01010001
00111000
01111100
10111010
00010001
00000000
00000000

TIL l
00000000
00000000
00001100
00011100
00111100
00111110
01001010
11000010

TIL m
00011100
11110111
00000000
01111100
11000111
00000000
00111000
11101111

TIL n
00000000
00000000
00000000
00000000
10101010
00000000
00000000
00000000

TIL o
00000000
00010000
00000000
00001000
00000000
00010000
00000000
00010000

TIL p
00000000
00001000
00000000
00100000
10000000
00000000
00000000
00000000

TIL q
00000000
00000000
00000000
00000000
00000001
00000100
00000000
00010000

TIL r
00000000
00000000
00000000
00000000
00000001
00000100
00000000
00000100

TIL s
00000000
00010000
00000000
00100000
00000000
00010000
00000000
00010000

TIL t
11111000
11110100
11111001
11110100
11111000
11110101
11111000
11110100

TIL u
10010111
00101111
10010111
00101111
00010111
10101111
00010111
10001111

TIL v
00000000
00000000
00000000
00000000
00000000
10101010
11111111
10101010

TIL w
00001111
00001111
00001111
00011110
00111100
01111100
01111100
00000000

TIL x
11110000
11110000
11110000
01111000
00111100
00111110
00111110
00000000

TIL y
00001000
00100010
00000000
01111111
01111111
00111110
00011100
00001110
>
00000000
00001000
01000010
01111111
01111111
00111110
00011100
00001110

TIL z
00001000
01000010
00000000
11111110
11111110
01111100
00111000
01110000
>
00000000
00010000
10000010
11111110
11111110
01111100
00111000
01110000

TIL 1a
00000000
00000000
00000000
00000000
00000101
00000000
00001010
00100000

TIL 1b
00000000
00000000
00000000
00000000
00000000
10000000
00100000
01001000

TIL 1c
00000000
00000000
00000000
00000001
00000000
00000100
00000010
00010000

TIL 1d
00000000
00000000
00000000
00000000
10000000
00000000
00100000
11010000

TIL 1e
00000000
00100100
00110110
00110110
00000000
01001000
01101100
01101100

TIL 1f
00000000
11111111
00000000
00100010
10001000
00000000
11111111
00000000

TIL 1g
01110000
11111100
00011100
10000110
00100110
00011100
11111000
01110000

TIL 1h
11111111
11111111
11111111
11111111
11111111
11111111
11111111
11111111
WAL false

TIL 1i
00000000
11010011
11111111
11111111
11111111
11111111
11111111
11111111
>
00000000
00000000
11010011
11111111
11111111
11111111
11111111
11111111

TIL 1j
11111111
11000011
10001001
10100001
10000101
10010001
11000011
11111111

TIL 1k
00010000
00110000
00101100
00100100
00110010
00100010
01001001
01101111

TIL 1l
00000000
01111110
11111111
11111111
11111111
11111111
10101010
01010101

TIL 1m
11111111
11111111
11111111
11111111
00000000
10101010
00000000
00000000

TIL 1n
00000000
00000000
00000000
00000000
00000000
00000000
00000000
00000000

TIL 1o
00000000
00000000
10101010
00000000
11111111
00000000
10000011
10000011

TIL 1p
10000011
10000011
10000011
10000011
10000011
10000011
11111111
11111111
>
10000011
10000011
10000011
10000011
10000011
10000011
10000011
11111111

TIL 1q
00000000
00001000
01010000
00110100
01011000
00110100
00011000
00010000
WAL true

TIL 1r
00000000
00000000
01000000
00000010
00000000
00000000
00001000
00000000
WAL false

TIL 1s
00000000
01000000
00000000
01000000
00000000
01000000
00000000
00000000

TIL 1t
01010100
00000000
01000000
00000000
01000000
00000000
01000000
00000000

TIL 1u
10101010
00000000
00000000
00000000
00000000
00000100
00000000
00000100
>
10101010
00000000
00000000
00000000
00000100
00000000
00000100
00000000

TIL 1v
10101010
00000000
00000010
00000000
00000010
00000000
00000010
00000000

TIL 1w
00000010
00000000
00000010
00000000
00000010
00000000
00000010
00000000

TIL 1x
00000010
00000000
00000010
00000000
00000010
00000000
00000000
00000000

TIL 1y
00011000
00100110
01000010
11010011
01000010
01001010
01111110
00000000

TIL 1z
00000000
00000001
00000001
00000000
00000001
00000001
00000001
00000000

TIL 2a
00000000
00001000
01010000
00110100
01011000
00110100
00011000
00010000

TIL 2b
10000001
00100100
01111110
00100100
00100100
01111110
00100100
10000001

TIL 2c
11000000
11000000
11000000
11000000
11000000
11000000
11000000
11000000

TIL 2d
00000011
00000011
00000011
00000011
00000011
00000011
00000011
00000011

TIL 2e
11000000
11000000
11000000
11000000
11000000
11000000
11000000
11000000

TIL 2f
11111111
11111111
00000000
00000000
00000000
00000000
00000000
00000000

TIL 2g
00000000
00000000
00000000
00000000
00000000
00000000
11111111
11111111

TIL 2h
00000011
00000111
00000011
00000011
00000011
00001011
00001111
00001111

TIL 2i
11111111
01111111
01111111
00111110
00110100
00010100
00000000
00000000

TIL 2j
11111100
00001100
01111000
01111000
00001100
10101000
10011000
01110000

TIL 2k
00000000
00010001
01100110
10001000
01010110
10101010
11111111
01010100
>
00000000
01000100
10011001
00100010
01010110
11111111
11111111
10101001

TIL 2l
00000000
00001100
01110000
10000010
10010100
01001010
00100101
10000010

TIL 2m
00100000
00000000
00001000
00000000
01000000
00000010
00100000
00000000

TIL 2n
00000100
00010100
10010001
10000001
01001000
01001000
10100100
10100100
WAL true

TIL 2o
11111111
11111111
11111111
11111111
11111111
11011111
10001010
00000000
>
11111111
11111111
11111111
11111111
10111111
11100101
00000000
00000000
WAL true

TIL 2p
11000011
11000011
11000011
10000001
10000001
11000011
11000011
11000011

TIL 2q
00000000
00000000
01000000
00000010
00000000
00000000
00001000
00000000
WAL false

TIL 2r
11111111
11111111
11111111
11111111
11111111
11111111
11111111
11111111
WAL false

TIL 2s
11111111
11111111
11111111
11111111
11111111
11111111
11111111
11111111
WAL true

SPR 10
00000000
00000000
00000000
00000000
00000000
00010010
00111100
00010100
DLG SPR_q
POS y 9,11

SPR 11
00000011
00001011
00000011
00011111
00011111
00000011
00001011
00000011
DLG SPR_r
POS y 7,2

SPR 12
11000000
11010000
11000000
11111000
11111000
11000000
11010000
11000000
DLG SPR_s
POS y 8,2

SPR 13
00000000
00000000
00000000
00000000
00000000
00000000
00000000
00000000

SPR 14
00000000
00000000
00000000
00000000
00000000
00010010
00111100
00010100
DLG SPR_t
POS z 10,2

SPR 15
00000000
00100100
00111100
00100100
00111100
01000010
01000010
01011010
POS 11 5,3

SPR 16
01011010
01011010
01000010
00100100
10010010
00001000
01000001
10101010
>
01011010
01011010
01000010
00010010
01001100
00110010
01010100
00000000
DLG SPR_u
POS 11 5,4

SPR 17
00000000
00000000
00000000
00000000
00000000
00010010
00111100
00010100
DLG SPR_v
POS 11 1,0

SPR 18
00001000
00000000
01001001
10010010
01110110
11111111
11111111
00000000
>
10000000
00100100
01001001
10000000
11111111
11111111
11111111
00000000
DLG SPR_w
POS 12 15,2

SPR 19
00010001
00011111
00011111
00010001
00010001
00011111
00010001
00011111
DLG SPR_x
POS 16 10,9

SPR A
00000000
00000000
00000000
00000000
00000000
00001000
00011100
00011100
>
00000000
00000000
00000000
00000000
00000000
00001000
00011100
00011100
POS 0 3,4

SPR a
00000000
00011000
00100100
01001010
10010001
10001001
10010001
11111111
DLG SPR_0
POS 0 15,10

SPR b
00000000
00011000
00100100
01001010
10010001
10001001
10010001
11111111
DLG SPR_1
POS 5 0,6

SPR c
00100100
00111100
00100100
00111100
01011010
01000010
01100010
01111110
>
00100100
00111100
00100100
00111100
01011010
01000010
01000110
01111110
DLG SPR_2
POS 4 7,5

SPR d
00100100
00111100
00100100
00111100
01011010
01000010
01100010
01111110
>
00100100
00111100
00100100
00111100
01011010
01000010
01000110
01111110
DLG SPR_3
POS 4 8,5

SPR e
00000000
00011000
00100100
01001010
10010001
10001001
10010001
11111111
DLG SPR_4
POS 0 0,6

SPR f
00000000
00000000
00000000
00000000
00001000
00011100
00011100
00000000
DLG SPR_5
POS 6 8,13

SPR g
00000000
00000000
00000000
00000000
00010000
00111000
00111000
00000000
DLG SPR_6
POS 6 12,9

SPR h
00000000
00000000
00000000
00000000
00000000
00001000
00011100
00000000
DLG SPR_7
POS 6 3,8

SPR i
00000000
00011000
00100100
01001010
10010001
10001001
10010001
11111111
DLG SPR_8
POS c 15,2

SPR j
00011100
00100010
00100010
00111110
01101001
01011101
01001001
01111111
DLG SPR_9
POS d 6,4

SPR k
01111100
01001100
01001000
10111100
10010010
10111011
10010001
11111111
DLG SPR_a
POS d 8,4

SPR l
00000000
00010000
00111000
00111000
00000000
00000000
00000000
00000000
DLG SPR_b
POS b 5,6

SPR m
00000000
00011000
00100100
01001010
10010001
10001001
10010001
11111111
DLG SPR_c
POS e 0,2

SPR n
00000000
00000000
00000000
00000000
01111100
01000100
01111100
00010000
DLG SPR_d
POS m 3,11

SPR o
00000000
00000000
00000000
00000000
01111100
01000100
01111100
00010000
DLG SPR_e
POS m 11,11

SPR p
00010001
00011111
00011111
00010001
00010001
00011111
00010001
00011111
DLG SPR_f
POS n 10,9

SPR q
11100010
11100010
11100010
11100010
11101110
11101010
10101010
10101010
DLG SPR_g
POS n 5,10

SPR r
00000000
00100100
00111100
00100100
00111100
01000010
01000010
01011010
DLG SPR_i
POS s 7,4

SPR s
01011010
01011010
01000010
00100100
10010010
00001000
01000001
10101010
>
01011010
01011010
01000010
00010010
01001100
00110010
01010100
00000000
DLG SPR_h
POS s 7,5

SPR t
00000000
00000000
00000000
00000000
00000000
00010010
00111100
00010100
DLG SPR_j
POS t 11,11

SPR u
00000000
00000000
00000000
00000000
00000000
00010010
00111100
00010100
DLG SPR_k
POS u 11,12

SPR v
00001000
00011000
00101100
00011010
01101100
00101010
00001000
00001000
DLG SPR_l
POS u 15,4

SPR w
00000000
00000000
00000000
00000000
00000000
00010010
00111100
00010100
DLG SPR_m
POS v 10,7

SPR x
00000000
00000000
00000000
00000000
00000000
00010010
00111100
00010100
DLG SPR_n
POS w 3,8

SPR y
00000000
00000000
00000000
00000000
00000000
00010010
00111100
00010100
DLG SPR_o
POS x 8,4

SPR z
00000000
00000000
00000000
00000000
00000000
00010010
00111100
00010100
DLG SPR_p
POS y 6,11

SPR 1a
00000000
00000000
00000000
00000000
00001000
00011100
00011100
00000000
DLG SPR_y
POS 16 5,9

SPR 1b
00000000
00000000
00001000
00011100
00011100
00001100
00000100
00001000
>
00000000
00000000
00001000
00011100
00011100
00001100
00000100
00000100
DLG SPR_z
POS 1b 11,13

SPR 1c
00000000
00011000
00100100
01001010
10010001
10001001
10010001
11111111
DLG SPR_10
POS 27 15,10

SPR 1d
00100100
00111100
00100100
00111100
01011010
01000010
01100010
01111110
>
00100100
00111100
00100100
00111100
01011010
01000010
01000110
01111110
DLG SPR_11
POS 28 7,5

SPR 1e
00100100
00111100
00100100
00111100
01011010
01000010
01100010
01111110
>
00100100
00111100
00100100
00111100
01011010
01000010
01000110
01111110
DLG SPR_12
POS 28 8,5

SPR 1f
00000000
00000000
00000000
00000000
00000000
00001000
00011100
00011100
>
00000000
00000000
00000000
00000000
00000000
00001000
00011100
00011100
DLG SPR_13
POS 0 1,11

SPR 1g
00000000
00000000
00000000
00000000
01111100
01000100
01111100
00010000
DLG SPR_14
POS 1d 7,8

SPR 1h
00000000
00000000
00000000
00000000
00001000
00011100
00011100
00000000
DLG SPR_15
POS 1f 5,14

SPR 1i
00000000
00000000
00000000
00000000
00001000
00011100
00011100
00000000
DLG SPR_16
POS 1g 6,5

SPR 1j
00000000
00000000
00000000
00000000
00001000
00011100
00011100
00000000
DLG SPR_17
POS 1h 9,4

SPR 1k
00000000
00000000
00000000
00000000
00001000
00011100
00011100
00000000
DLG SPR_18
POS 1i 9,4

SPR 1l
00000000
00000000
00000000
00000000
00001000
00011100
00011100
00000000
DLG SPR_19
POS 1i 12,9

SPR 1m
00000000
00000000
00000000
00000000
00001000
00011100
00011100
00000000
DLG SPR_1a
POS 1i 3,11

SPR 1n
00000000
00000000
00000000
00000000
00001000
00011100
00011100
00000000
DLG SPR_1b
POS 1j 12,8

SPR 1o
00000000
00000000
00000000
00000000
00000000
00010010
00111100
00010100
DLG SPR_1c
POS 1k 11,4

SPR 1p
00000000
00000000
00000000
00000000
00001000
00011100
00011100
00000000
DLG SPR_1d
POS 1n 5,7

SPR 1q
00000000
00000000
00000000
00000000
00001000
00011100
00011100
00000000
DLG SPR_1e
POS 1z 7,6

SPR 1r
00000000
00000000
00000000
00000000
00001000
00011100
00011100
00000000
DLG SPR_1f
POS 21 9,11

ITM 0
00000000
00000000
00010000
00111000
00010000
00000000
00000000
00000000
>
00000000
00000000
00101000
00010000
00101000
00000000
00000000
00000000
NAME trinket
DLG ITM_0

ITM 1
00000000
00000000
00000000
00000000
00000000
00110000
00000000
00000000
NAME letter
DLG ITM_1

ITM 2
10000001
00110000
01100100
01000100
01011110
00110010
00000010
10000111
NAME sigil
DLG ITM_2

ITM 3
00000000
00000000
00010000
00111000
00010000
00000000
00000000
00000000
>
00000000
00000000
00101000
00010000
00101000
00000000
00000000
00000000
DLG ITM_3

DLG SPR_0
This Gate is closed, speak with the magistrate in the tower!

DLG SPR_1
This Gate is closed, go east!

DLG SPR_2
"""
{sequence
  - MAGISTRATE: Bring us back the six secret trinkets, than we will use our power to send you home
  - MAGISTRATE: A year ago someone stole all six secret trinkets, and our city has been suffering ever since
  - MAGISTRATE: It is taking every citizen of this region to keep the city going without them, so we need your help.
  - MAGISTRATE: You have our word we will send you home once they are returned.
}
"""

DLG SPR_3
"""
{sequence
  - MAGISTRATE: We need six secret trinkets to power the factories in our city
  - MAGISTRATE: They are the smallest of artifacts, but legend has it they used to be part of a larger relic!
  - MAGISTRATE: Surely without them, our civilization with crumble.
}
"""

DLG SPR_4
This Gate is closed, speak to the magistrate in the tower!

DLG SPR_5
MINER: welcome to our home, but please don't cause trouble for my husband and I.

DLG SPR_6
"""
MINER: My husband and I moved away from the northern and southern cities to raise our daughter.{
  - {item "letter"} == 1 ?
    MINER: Oh thank you for this letter! If you want to get inside the CHANTRY TOWER, swing around the back to the RIGHT SERVICE ENTRANCE. The houses all around there are less of a obstacle than you think!
}
"""

DLG SPR_7
"""
{sequence
  - DAUGHTER: My father says the MAGISTRATES and the CHANTRY are no good!
  - DAUGHTER: My dad tells me I shouldn't go play in the cave west of here. But there is a room way in the back with something glowing! It's so dark though!
  - DAUGHTER: My father and my dad are the best!!!!
  - DAUGHTER: When you are in caves, my Dad says that you can find hidden rooms by using your hands to feel along the outer walls if its dark!
}
"""

DLG ITM_0
"""
YOU FOUND A SECRET TRINKET {
  - {item "trinket"} == 1 ?
    you have now collected a single trinket!
  - {item "trinket"} == 2 ?
    you have now collected two trinkets!
  - {item "trinket"} == 3 ?
    you have now collected three trinkets!
  - {item "trinket"} == 4 ?
    you have now collected four trinkets!
  - {item "trinket"} == 5 ?
    you have now collected five trinkets!
  - {item "0"} == 1 ?
    you have now collected all six secret trinkets!
}
"""

DLG SPR_8
This way leads to the TRINKET ROOM, but the door is locked!

DLG SPR_9
"""
{sequence
  - CHANTRY KING: You have come here for our TRINKET? Of course not! We will not give that up so easily!
  - CHANTRY KING: Did the MAGISTRATES put you up to this? They always want to take what belongs to our region!
  - CHANTRY KING: I will not budge. We wish you no ill will, but we cannot accept this.
}
"""

DLG SPR_a
"""
{sequence
  - CHANTRY QUEEN: We welcome you, but surely you do not wish to take our TRINKET?
  - CHANTRY QUEEN: Our population is much larger than the cities to the south, so we need the power much more!
  - CHANTRY QUEEN: you may have better luck if you head west towards the HIEROPHANT'S CITY-STATE. The highway to the north west of our city limits will take you there.
}
"""

DLG SPR_b
"""
{sequence
  - CITIZEN: the CHANTRY won't let you in the back huh? I hear there are an old miner couple who used to work for them in the southern mountains. Bring them this letter here next to me, they might know something.
  - CITIZEN: you didn't hear it from me though.....
}
"""

DLG ITM_1
You got a LETTER

DLG SPR_c
The door to the tower, better not go that way or you will be caught!

DLG SPR_d
WEST TO THE CITY STATE

DLG SPR_e
THE DOCKS

DLG SPR_f
An old, dusty bed, no one has slept here for years.....

DLG SPR_g
"""
{sequence
  - Someone spent a long time at this desk, there are several papers to look through if one were to further investigate....
  - 5.27.21XX ----- I have been searching for the monster for a year now, and tracked it to this general region. I have decided to set up shop here until I succeed.
  - 9.27.21XX ----- No signs as of yet. The nearby CITY STATE is at least a very nice area to live.
  - 12.14.21XX ---- I found a lead this time! There is an inland whirlpool nearby the highway between the CHANTRY and here. It is too cold now to attempt, but maybe in the spring....
  - 2.7.21XX ---- It is finally warming up enough to attempt this. If I search around the rocks that are nearby the whirlpool I may find some that are climbable. This is it!!! 
  - .....there are no further entries.
}
"""

DLG SPR_h
"""
{sequence
  - HIEROPHANT: I am not interested in granting you access to the TRINKET. Both the MAGISTRATE and the CHANTRY are not capable of using its power responsibly.
  - HIEROPHANT: that is all I have to say.
}
"""

DLG SPR_i
"""
{sequence
  - HIEROPHANT: I am not interested in granting you access to the TRINKET. Both the MAGISTRATE and the CHANTRY are not capable of using its power responsibly.
  - HIEROPHANT: that is all I have to say.
}
"""

DLG SPR_j
"""
{sequence
  - CUTE MAGICAL CREATURE: Betcha got the big old turn down didn't cha!
  - CUTE MAGICAL CREATURE: That old HIEROPHANT doesn't know what's best for im', the TRINKET will make him lose everything.
  - CUTE MAGICAL CREATURE: I'll help you if you want, d'ya want help?
  - CUTE MAGICAL CREATURE: If you go back to the highway, go as north as you can, I bet you can sniff out a way through the woods! Where does it lead? YOU'll JUST HAVE TO FIND OUT.
  - CUTE MAGICAL CREATURE: .....it wouldn't hurt if you gave me some food either....
}
"""

DLG SPR_k
CUTE MAGICAL CREATURE: getting warmer, but not quite!

DLG SPR_l
A tree seems to have fallen and blocked the path.....

DLG SPR_m
CUTE MAGICAL CREATURE: This cave has a special magic in it that can help you get the TRINKET.

DLG SPR_n
CUTE MAGICAL CREATURE: Just keep going forward, I know it's dark but you will figure it out soon enough!

DLG SPR_o
CUTE MAGICAL CREATURE: Just a bit further! Now remember we just want to help! When you are all finished in the next room, just keep on walking straight on behind the altar to see a surprise!

DLG SPR_p
CUTE MAGICAL CREATURE: Wow you made it so far, you are doing totally awesome!

DLG SPR_q
CUTE MAGICAL CREATURE: All you have to do is gather the four sigils and bring them to the altar!

DLG SPR_r
"""
{
  - {item "sigil"} == 4 ?
    Upon touching THE ALTAR, the four sigils spring to life and wrap around its base, vibrating with intense fury. The vibrations extend to the walls of the cavern, while huge explosions can be heard from outside in the forest......eventually things calm down.
  - {item "trinket"} < 4 ?
    THE ALTAR
}
"""

DLG SPR_s
THE ALTAR

DLG ITM_2
A SIGIL CLINGS TO YOUR ARM

DLG SPR_t
MAGICAL CREATURE THAT ISN'T SO CUTE ANYMORE: See! We helped! Hooray!!!!!

DLG SPR_u
"""
{sequence
  - HIEROPHANT: You have destroyed everything I have built. You and those creatures have brought me misery. Fine. Take the TRINKET. As long as you leave me be.
  - HIEROPHANT: ...............
}
"""

DLG SPR_v
CREATURE: Here is your TRINKET! Aren't you happy?! Keep going northwest to find the road back to the MAGISTRATE. We can't wait to see what happens!

DLG SPR_w
The fires of the CITY STATE burn  hotly behind you.

DLG SPR_x
a nice, warm, bed

DLG SPR_y
"""
{sequence
  - FIHSHERWOMAN: I moved here years ago from my old home on the dock.
  - FISHERWOMAN: I was tracking what I thought was a creature of ancient legends, and finally, I found her here.
  - FISHERWOMAN: I had no idea she would be so kind and beautiful. Now we live together, or at least near each other. 
  - FISHERWOMAN: She lives in the water east of here. She loves to collect shiny things!
}
"""

DLG SPR_z
"""
{sequence
  - SEA-LADY: I love this cave, it is so quiet.
  - SEA-LADY: My collection of shiny things? You may take a look around and take with you a special gift if you like....
  - SEA-LADY: Sometimes it is possible to have TOO MUCH!
  - SEA-LADY: Oh you met my girlfriend? Yeah we have a date tonight, I am preparing dinner!
  - SEA-LADY: She is so smart and pretty.
}
"""

DLG ITM_3
....it's just a random piece of gold...

DLG SPR_10
The City Doors are closed until the Trinkets are returned!

DLG SPR_11
"""
{
  - {item "0"} == 1 ?
    MAGISTRATE: You have returned to us with a single trinket. This should hold us for awhile....if you ever return please continue to help us!
  - {item "trinket"} == 2 ?
    MAGISTRATE: You have returned with two trinkets! This should hold us over for awhile! We created this portal to send you home.
  - {item "trinket"} == 3 ?
    MAGISTRATE: You have returned with three trinkets! This should hold us over for awhile! We created this portal to send you home.
  - {item "trinket"} == 4 ?
    MAGISTRATE: You have returned with four trinkets! This should hold us over for awhile! We created this portal to send you home.
  - {item "trinket"} == 6 ?
    MAGISTRATE: Six trinkets! Surely this is enough for us, but it must eat at your soul knowing one last trinket lies somewhere out there....Use the portal in this room to return home! Farewell!
  - {item "trinket"} == 7 ?
    MAGISTRATE: SIX SECRET TRINKETS! You have returned with them all! We wish you well! Use the portal in the northwest corner of this room to return home! Farewell!
  - {item "trinket"} == 0 ?
    MAGISTRATE: We already built this portal for you, in the northwest corner of the room, to return home. We did not forsee you returning without a single trinket, so we cannot stop you from leaving, but we will surely perish!
}
"""

DLG SPR_12
Thank you! Our city will be whole again!

DLG SPR_13
"""
{sequence
  - I hear some people have more to say if you give em half a chance!
  - .... Not me though! Quiet as a mouse this old guy!
  - I really have nothing else to say
  - really, I am just here to ask you nicely to maybe listen to folks a bit more.
  - .... go away please...
}
"""

DLG SPR_14
THE DEEP WOODS WITH NO CIRCUIT

DLG SPR_15
"""
{sequence
  - We left the realms with towers a long, long time ago.
  - Everything was just getting a little bit too tall. It seemed unsustainable.
  - I do miss change though... although it feels safe here, everything is also always the same.
  - Maybe someday I will return.....
}
"""

DLG SPR_16
"""
{sequence
  - There used to be a very old elf who lived here.
  - She went away to be closer to the water, she said it was always important to move with the elements.
}
"""

DLG SPR_17
"""
{sequence
  - I have a lot of fire in my chart.
  - Sometimes I wonder if its safe for me to live in the woods.
  - Not whether *I* am safe here, but where the woods are safe from me!
}
"""

DLG SPR_18
"""
{sequence
  - There are some magical creatures who live to the north.
  - They store magick inside of their bodies, but cannot release it on their own.
  - So sometimes they trick humans into casting spells for them.
}
"""

DLG SPR_19
"""
{sequence
  - A trinket? Yes, there is one here somewhere in the forest, although we would prefer you not take it.
  - However, there is nothing we can do to stop you. We abhor violence.
  - And if asking you politely won't stop you from taking what isn't yours, well I guess nothing will.
}
"""

DLG SPR_1a
"""
{sequence
  - I miss my family.
  - But luckily I have a new family, I guess.....
  - ......
}
"""

DLG SPR_1b
"""
{sequence
  - Get me out of here.
  - I am so lost.
}
"""

DLG SPR_1c
"""
{sequence
  - MAGICAL CREATURE: Worry not, I am not like my brethren. 
  - MAGICAL CREATURE: I just wish to live here in the forest in peace.
}
"""

DLG SPR_1d
"""
{sequence
  - You may stay here as long as you like.
  - Or leave whenever suits you.
}
"""

DLG SPR_1e
"""
{sequence
  - I plead with you to not take our trinket
  - Although I can do nothing to stop you, I am only here in case it disappears.
  - ......
}
"""

DLG SPR_1f
Keep going south to find the highway that leads west towards the MAGISTRATE. Goodbye!

END 0


END undefined
You feel the universe melt as you are whisked back home.....

VAR a
42


