In Which The Adventurer Discovers His True Enemy Was Already Dead

# BITSY VERSION 4.4

! ROOM_FORMAT 1

PAL 0
69,37,33
139,74,67
240,226,225

ROOM 1
h,j,j,j,j,j,j,j,j,j,j,j,j,j,j,i
k,c,e,g,g,g,g,g,g,g,g,g,g,f,d,l
k,a,1c,1a,0,1a,1e,1d,0,1b,1c,1d,0,19,b,l
k,a,19,0,1c,0,19,0,0,0,0,0,0,1d,b,l
k,a,1d,0,1b,0,0,1a,1c,0,1e,1a,0,0,b,l
k,a,1a,1c,19,0,1b,0,0,19,0,0,0,1c,b,l
k,a,0,1a,0,0,1a,1e,0,0,0,1d,0,1d,b,l
k,a,1d,0,1d,0,0,1d,1c,1b,0,19,0,1c,b,l
k,a,1c,0,1c,0,19,0,0,0,1e,0,1a,0,b,l
k,a,0,1e,1a,0,1d,0,1b,1a,0,1e,0,19,b,l
k,a,19,0,0,14,0,15,1b,1f,1d,1j,0,0,b,l
k,a,u,v,x,13,12,16,18,p,1h,1i,r,1k,b,l
k,a,s,t,z,10,11,17,n,o,q,q,q,q,b,l
k,a,y,y,y,y,y,y,y,y,y,y,y,y,b,l
k,a,y,y,y,y,y,y,y,y,y,y,y,y,b,l
1m,1n,y,y,y,y,y,y,y,y,y,y,y,y,1o,1l
PAL 0

TIL 10
00000000
00000000
01000000
00100000
10100100
01010010
01010100
01010100
>
00000000
00000000
00001000
00010000
01010001
01010010
01010100
01010100

TIL 11
01010110
01010110
01110010
00100100
01101110
01101011
01101110
11111111

TIL 12
00010100
11001000
11100101
10100110
00101100
00011111
10010011
11111110
WAL true

TIL 13
00111000
01001100
00000111
01100001
00011000
00000110
00000011
00000001
WAL true

TIL 14
00000000
00000000
01000000
00010000
00011100
00000100
01000110
10000011
WAL true

TIL 15
00000000
00000000
00000001
00000110
00001000
00110000
00100000
01000000
WAL true

TIL 16
11000001
10010010
00101100
01000010
11000000
10000000
00000000
00000000
WAL true

TIL 17
00000000
00000000
00011111
00111011
00101011
00101011
00101011
00101010

TIL 18
00000000
00000000
00000000
00000000
00000000
00000000
00000000
00000000
WAL true

TIL 19
00000000
00100000
01000000
00000000
00010000
00100000
00000010
10000100
>
00010001
00000010
01000100
10001000
00000000
00100001
01000000
00000000
WAL true

TIL a
00001011
01001011
00001011
01001011
01001011
00001011
01001011
00001011
WAL true

TIL b
11010000
11010010
11010000
11010010
11010010
11010000
11010010
11010000
WAL true

TIL c
00010100
00110001
01111100
00011111
01011000
00001001
00101011
01001011
WAL true

TIL d
00101000
10001100
00111110
11111000
00011010
10010000
11010100
11010010
WAL true

TIL e
00000000
01011010
00000000
11111111
00000000
11000000
11111111
11111111
WAL true

TIL f
00000000
01011010
00000000
11111111
00000000
00000011
11111111
11111111
WAL true

TIL g
00000000
01100110
00000000
11111111
00000000
00000000
11111111
11111111

TIL h
00000000
00011110
00000000
01010000
01001101
01001010
01000100
00001000
WAL true

TIL i
00000000
01111000
00000000
00001010
10110010
01010010
00100010
00010000
WAL true

TIL j
00000000
01111110
00000000
10111101
01011010
01011010
10111101
01000010
WAL true

TIL k
00010010
01001100
01010010
01011110
01010010
01001100
01010010
00001100
WAL true

TIL l
01001000
00110010
01001010
01111010
01001010
00110010
01001010
00110000
WAL true

TIL m
00000000
00000000
00000000
00011000
00011000
00000000
00000000
00000000
WAL true

TIL n
00011100
00111001
11110000
11100111
11001111
10000000
00111111
01111111

TIL o
00000000
11111111
00000000
11111111
11111111
00000000
11111111
11111111

TIL p
00011000
00011000
00111100
00111100
00111100
00111100
00111100
01111111

TIL q
00111100
11011011
10111101
01011010
01011010
01011010
01011010
01011010
WAL true

TIL r
00000000
00000000
00000000
00000000
00000000
00000000
00000000
11111111

TIL s
00110100
01111100
00101100
00111000
00111100
01110100
00110110
01111110

TIL t
00110100
01101100
01111100
00110100
01111100
00110100
00101100
01111110

TIL u
00000001
00100010
00011100
10000101
01001101
01101011
00110110
00100110
WAL true

TIL v
00000001
00000011
01100010
00111010
10001110
01001101
00110011
01010100
WAL true

TIL x
00010001
01100011
10000110
00001100
00110000
01100000
10000000
00000000
WAL true

TIL y
11111111
11111111
11111111
11111111
11111111
11111111
11111111
11111111
WAL true

TIL z
00000000
00000000
00000000
00000000
01000000
10100010
00010101
00010100
>
00000000
00000000
00000000
00000000
01000000
10100010
00010101
00010100

TIL 1a
00000000
00000000
00100000
01000000
00000010
00000100
00001000
00000000
>
00001000
00010000
00000000
00000000
00000000
00000000
00000000
00010000
WAL true

TIL 1b
00000000
00001000
00010000
00000000
00000000
00000000
00001000
00010000
>
00000000
00000000
00000000
00000000
01000010
10000100
00000000
00000000
WAL true

TIL 1c
00000001
00000010
00000000
00000000
00000000
00000000
00000000
00000000
>
00000000
00000000
00000000
00001000
00010000
00100000
00000000
00000000
WAL true

TIL 1d
00000001
00000000
00000100
00001000
00000010
00000100
00001000
00000000
>
00000000
00000000
00000000
00000000
00000000
00100000
00000000
10010000
WAL true

TIL 1e
00000000
00000000
00000000
00000000
00000010
00000100
00000000
00000000
>
00000000
00000000
00000000
00000000
00000000
00000000
00001000
00010000
WAL true

TIL 1f
00000000
00011000
00111100
00011000
00011000
00100100
00100100
00011000
WAL true

TIL 1g
00000000
00000000
00000000
00000000
00000000
00000000
00000000
00000000

TIL 1h
00000000
00000000
00000100
00000110
00100110
01100110
01100110
11111111

TIL 1i
00010000
00111000
00010000
00111000
00111000
00111000
00111000
11111111

TIL 1j
00000000
00000000
00000000
00000000
00000000
00010000
00101000
00010000
WAL true

TIL 1k
00001100
00010010
00010010
01001100
11101100
01011110
01011110
11111111

TIL 1l
01001000
00110010
01001010
01111010
01001010
00110010
01001010
11111110
WAL true

TIL 1m
00010010
01001100
01010010
01011110
01010010
01001100
01010010
01111111
WAL true

TIL 1n
00001011
01001011
00001011
01001011
01001011
00001011
01001011
11111111
WAL true

TIL 1o
11010000
11010010
11010000
11010010
11010010
11010000
11010010
11111111
WAL true

SPR A
00011000
00011001
01110010
01111100
00110000
00010000
00010000
00010000
>
00011000
00011001
01110010
01111100
00110000
00010000
00110000
00101100
POS 1 2,12

SPR a
00011100
00001000
00011100
00111110
00111110
00111110
00111110
11111111
DLG SPR_0
POS 1 12,11

SPR b
00000000
00000000
00000000
00001000
00001000
00011100
00001000
00001000
POS 1 12,10

SPR c
10000000
01100000
00100000
00110000
00011100
00001110
00110011
11000001
>
00000000
00000000
00000000
00000000
00000000
00000000
00000000
00000000
POS 1 4,2

SPR d
00000001
00000110
00011100
00100100
01000010
11000110
00001011
00010000
>
00000000
00000000
00000000
00000000
00000000
00000000
00000000
00000000
POS 1 3,3

SPR e
00000000
00000000
00000000
00000000
00000000
00000000
00000001
00000010
>
00000000
00000000
00000000
00000000
00000000
00000000
00000000
00000000
POS 1 2,3

SPR f
00000010
00000100
00011000
00100000
00010000
00011000
00001000
00000100
>
00000000
00000000
00000000
00000000
00000000
00000000
00000000
00000000
POS 1 2,4

SPR g
00100000
00010000
00011000
00001100
00000010
00000100
00001000
00000100
>
00000000
00000000
00000000
00000000
00000000
00000000
00000000
00000000
POS 1 3,4

SPR h
00000100
00001000
00011000
00001000
00001100
00011000
00010000
00100000
>
00000000
00000000
00000000
00000000
00000000
00000000
00000000
00000000
POS 1 3,5

SPR i
00000100
00001000
00000000
00000000
00000000
00000000
00000000
00000000
>
00000000
00000000
00000000
00000000
00000000
00000000
00000000
00000000
POS 1 2,5

SPR j
10000000
01100000
00111000
01001000
10001000
01000110
00000101
00011001
>
00000000
00000000
00000000
00000000
00000000
00000000
00000000
00000000
POS 1 5,3

SPR k
00010000
00110000
01000000
10000000
01000000
01100000
00010000
00001000
>
00000000
00000000
00000000
00000000
00000000
00000000
00000000
00000000
POS 1 5,4

SPR l
00010000
00011000
00001000
00000100
00000100
00001100
00010000
00100000
>
00000000
00000000
00000000
00000000
00000000
00000000
00000000
00000000
POS 1 5,5

SPR m
00100000
00010000
00011000
00000100
00000100
00000000
00000000
00000000
>
00000000
00000000
00000000
00000000
00000000
00000000
00000000
00000000
POS 1 5,6

SPR n
10000000
01000000
01100000
00100000
00011000
00001100
00010100
00100010
>
00000000
00000000
00000000
00000000
00000000
00000000
00000000
00000000
POS 1 6,4

SPR o
00000000
00000000
00000000
00000001
00001110
00010000
00100000
00000000
>
00000000
00000000
00000000
00000000
00000000
00000000
00000000
00000000
POS 1 4,4

ITM 0
00000000
00000000
00000000
00111100
01100100
00100100
00011000
00000000
NAME tea
DLG ITM_0

DLG SPR_0
"""
.. ...
..Here. ..
.  .. Lies...
...
.
..
{shk}YO MOMMA!{shk}
"""

DLG ITM_0
You found a nice warm cup of tea

VAR a
42

