
lol (lots of luv)

# BITSY VERSION 4.4

! ROOM_FORMAT 1

PAL 0
NAME palette 1
236,240,255
7,108,0
0,0,0

PAL 1
NAME palette 2
208,188,255
69,51,128
0,0,0

PAL 2
NAME palette 3
255,255,255
129,129,129
255,0,7

ROOM 0
0,0,0,0,0,0,0,0,0,0,0,0,0,0,0,0
0,a,0,a,a,a,a,a,a,a,a,a,a,a,a,0
0,a,0,0,0,0,0,0,0,0,0,0,0,0,a,0
0,a,0,0,0,0,0,0,0,0,0,0,0,0,a,0
0,a,0,0,0,0,0,0,0,0,0,0,0,0,a,0
0,a,0,0,0,0,0,0,0,0,0,0,0,0,a,0
0,a,0,0,0,0,0,0,0,0,0,0,0,0,a,0
0,a,0,0,0,0,0,0,0,0,0,0,0,0,a,0
0,a,0,0,0,0,0,0,0,0,0,0,0,0,a,0
0,a,0,0,0,0,0,0,0,0,0,0,0,0,a,0
0,a,0,0,0,0,0,0,0,0,0,0,0,0,a,0
0,a,0,0,0,0,0,0,0,0,0,0,0,0,a,0
0,a,0,0,0,0,0,0,0,0,0,0,0,0,a,0
0,a,0,0,0,0,0,0,0,0,0,0,0,0,a,0
0,a,a,a,a,a,a,a,a,a,a,a,a,a,a,0
0,0,0,0,0,0,0,0,0,0,0,0,0,0,0,0
NAME the start
ITM 0 3,12
ITM 0 5,12
ITM 0 7,12
ITM 0 9,12
ITM 0 11,12
ITM 0 4,3
ITM 0 6,3
ITM 0 8,3
ITM 0 10,3
ITM 0 12,3
EXT 2,1 1 6,15
EXT 0,15 0 0,0
PAL 0

ROOM 1
g,g,g,g,g,g,g,g,g,g,g,g,g,g,g,g
g,g,g,g,g,0,0,0,e,e,e,e,0,0,0,g
g,g,g,g,0,0,0,e,e,e,e,e,e,0,0,g
g,g,g,0,0,0,e,e,0,l,0,e,e,0,0,g
g,g,0,r,0,0,e,e,0,0,0,e,e,0,0,g
g,0,p,t,s,0,e,e,0,0,0,e,e,0,0,g
g,0,j,0,k,0,e,e,0,0,0,e,e,0,0,g
g,0,m,l,n,0,e,e,0,0,0,e,e,0,0,g
g,0,0,0,0,0,e,e,0,0,0,e,e,0,0,g
g,0,0,0,0,0,e,e,0,0,0,e,e,0,0,0
g,0,0,0,0,0,e,e,0,0,0,e,e,0,0,g
g,0,0,0,0,0,e,e,0,0,0,e,e,0,0,g
g,0,0,0,0,0,e,e,0,0,0,e,e,0,0,g
g,0,0,0,0,0,0,0,0,0,0,0,0,0,0,g
g,0,0,0,0,0,0,0,0,0,0,0,0,0,0,g
g,0,0,0,0,0,0,0,0,0,0,0,0,0,0,g
NAME the forest
ITM 0 3,10
ITM 0 3,13
ITM 0 9,5
ITM 0 9,7
ITM 0 9,9
ITM 0 9,11
ITM 0 13,1
ITM 0 14,1
ITM 0 5,2
ITM 0 5,1
ITM 0 6,1
ITM 0 7,1
ITM 0 6,2
ITM 0 4,2
EXT 9,3 3 7,15
EXT 3,7 2 7,7
PAL 1

ROOM 2
0,0,0,0,0,0,0,0,0,0,0,0,0,0,0,0
0,0,0,0,0,0,0,0,0,0,0,0,0,0,0,0
0,0,0,0,0,0,0,0,0,0,0,0,0,0,0,0
0,0,0,0,0,11,11,11,11,11,11,0,0,0,0,0
0,0,0,0,11,0,0,0,0,0,0,11,0,0,0,0
0,0,0,11,0,0,0,0,0,0,0,0,11,0,0,0
0,0,0,11,0,0,0,0,0,0,0,0,11,0,0,0
0,0,0,11,0,0,0,0,0,0,0,0,11,0,0,0
0,0,0,11,0,0,0,0,0,0,0,0,11,0,0,0
0,0,0,11,0,0,0,0,0,0,0,0,11,0,0,0
0,0,12,11,0,0,0,0,0,0,0,0,11,0,0,0
0,0,0,11,0,0,0,0,0,0,0,0,11,0,0,0
0,0,0,0,11,0,0,0,0,0,0,11,0,0,0,0
0,0,0,0,0,11,11,0,0,11,11,0,0,0,0,0
0,0,0,0,0,0,0,0,0,0,0,0,0,0,0,0
0,0,0,0,0,0,0,0,0,0,0,0,0,0,0,0
NAME house full of luv!!!
ITM 0 5,6
ITM 0 10,5
ITM 0 10,9
EXT 7,13 1 7,15
EXT 8,13 1 7,15
PAL 2

ROOM 3
0,0,0,0,0,g,0,0,0,0,g,0,0,0,0,0
0,0,0,0,0,g,0,0,0,0,g,0,0,0,0,0
0,0,0,0,0,g,0,0,0,0,g,0,0,0,0,0
0,0,0,0,0,g,0,0,0,0,g,0,0,0,0,0
0,0,0,0,0,g,0,0,0,0,g,0,0,0,0,0
0,0,0,0,0,g,0,0,0,0,g,0,0,0,0,0
0,0,0,0,0,g,0,0,0,0,g,0,0,0,0,0
0,0,0,0,0,g,0,0,0,0,g,0,0,0,0,0
0,0,0,0,0,g,0,0,0,0,g,0,0,0,0,0
0,0,0,0,0,g,0,0,0,0,g,0,0,0,0,0
0,0,0,0,0,g,0,0,0,0,g,0,0,0,0,0
0,0,0,0,0,g,0,0,0,0,g,0,0,0,0,0
0,0,0,0,0,g,0,0,0,0,g,0,0,0,0,0
0,0,0,0,0,g,0,0,0,0,g,0,0,0,0,0
0,0,0,0,0,g,0,0,0,0,g,0,0,0,0,0
0,0,0,0,0,g,0,0,0,0,g,0,0,0,0,0
NAME the aisle
ITM 0 8,4
ITM 0 7,7
ITM 0 8,10
ITM 0 7,13
EXT 6,0 4 4,15
EXT 7,0 4 5,15
EXT 8,0 4 6,15
EXT 9,0 4 7,15
PAL 0

ROOM 4
i,i,i,0,i,0,i,0,i,i,i,0,i,i,i,0
0,i,0,0,i,0,i,0,i,0,i,0,0,i,0,0
0,i,0,0,i,i,i,0,i,i,i,0,0,i,0,0
0,i,0,0,i,0,i,0,i,0,i,0,0,i,0,0
0,0,0,0,0,0,0,0,0,0,0,0,0,0,0,0
0,0,0,0,0,0,0,0,0,0,0,r,0,0,0,0
0,i,0,i,i,i,0,0,0,0,p,t,s,0,0,0
0,0,0,i,0,0,0,0,0,0,j,0,k,0,0,0
0,i,0,i,i,i,0,0,0,0,m,l,n,14,0,0
0,i,0,0,0,i,0,0,0,0,0,0,0,0,0,0
0,i,0,i,i,i,0,0,i,0,0,i,0,i,0,i
0,0,0,0,0,0,0,i,0,i,0,i,0,i,0,i
0,0,0,0,0,0,0,i,i,i,0,i,0,i,0,i
0,0,0,0,0,0,0,i,0,i,0,i,0,i,0,0
0,0,0,0,0,0,0,i,0,i,0,i,0,i,0,i
0,0,0,0,0,0,0,0,0,0,0,0,0,0,0,0
NAME ending sequence
ITM 0 1,12
ITM 0 3,12
ITM 0 2,13
ITM 0 8,5
ITM 0 14,5
EXT 9,1 0 0,0
END undefined 11,8
PAL 0

TIL 10
00000000
00000000
00000000
00000000
00000000
00000000
00000000
00000000

TIL 11
11111111
01001001
11111111
10010010
11111111
00100100
11111111
01001001

TIL 12
00000000
00000000
00000000
00000000
00000000
00000000
00000000
00000000

TIL 13
00000000
00000000
00000000
00000000
00000000
00000000
00000000
00000000

TIL 14
00000000
00010000
00110000
01111110
00110000
00010000
00000000
00000000

TIL a
00011000
00011000
00111100
00111100
01111110
11111111
00011000
00011000
WAL true

TIL b
01010101
11111111
11111111
11111111
11111111
11111111
11111111
11111111
WAL true

TIL c
01010101
11111111
11111111
11111111
11111111
11111111
11111111
11111111
WAL true

TIL d
00100000
00011000
00001100
00000110
00000011
00000001
00000000
00000000

TIL e
00011000
00011000
00111100
00111100
01111110
11111111
00011000
00011000
WAL true

TIL f
00011100
00100010
01000001
01001101
01001010
10000100
00000011
00000000

TIL g
01000100
10101000
00011011
00011100
01011000
00111000
00011000
00011000

TIL h
00000000
00000000
00000000
00000000
00000000
00000000
00000000
00000000

TIL i
10101010
01010101
10101010
01010101
10101010
01010101
10101010
01010101

TIL j
10000000
10111110
10101010
10111110
10101010
10111110
10000000
10000000

TIL k
00000001
01111101
01010101
01111101
01010101
01111101
00000001
00000001

TIL l
00000000
01111110
01000010
01000010
01000010
01000110
01000010
11000011

TIL m
10000000
10000000
10000000
10000000
10000000
10000000
10000000
11111111

TIL n
00000001
00000001
00000001
00000001
00000001
00000001
00000001
11111111

TIL o
00000000
00000000
00000000
00000000
00000000
00000000
00000000
00000000

TIL p
00000001
00000011
00000110
00001101
00011010
00110101
01101010
11111111

TIL q
00000000
00000000
00000000
00000000
00000000
00000000
00000000
00000000

TIL r
00000000
00000000
00000000
00000000
00011000
00111100
01101110
11010111

TIL s
10000000
11000000
11100000
01110000
10111000
01011100
10101110
11111111

TIL t
10101011
01010101
10101010
01010101
10101010
01010101
10101010
11111111

TIL u
00000000
00000000
00000000
00000000
00000000
00000000
00000000
00000000

TIL v
00000000
00000000
00000000
00000000
00000000
00000000
00000000
00000000

TIL w
00000000
00000000
00000000
00000000
00000000
00000000
00000000
00000000

TIL x
00000000
00000000
00000000
00000000
00000000
00000000
00000000
00000000

TIL y
00000000
00000000
00000000
00000000
00000000
00000000
00000000
00000000

TIL z
00000000
00000000
00000000
00000000
00000000
00000000
00000000
00000000

SPR A
00111100
01000010
10000001
10100101
10000001
10000001
01011010
00100100
>
00111100
01000010
10000001
10100101
10000001
10000001
01011010
00100100
POS 0 7,10
#ITM 0 5

SPR a
00000000
00000000
00100100
01111110
01011010
01111110
01111110
00100100
DLG SPR_0
POS 3 7,2

SPR b
00100100
00111100
01000010
10000001
10100101
10000001
01000010
00111100
DLG SPR_1
POS 2 7,5

SPR c
11111110
10000010
10101010
10000010
10101010
10010010
11111110
01000100
DLG SPR_2
POS 0 7,7

SPR d
11111111
10000001
10000001
10101001
10000001
10101001
10010001
11111111
DLG SPR_4
POS 3 9,12

SPR e
00000000
00000000
00100000
01100000
11111100
01100000
00100000
00000000

SPR f
00010000
00101000
01000100
10101010
10000010
01000100
00101000
00010000
DLG SPR_3
POS 0 5,5

ITM 0
00000000
01100110
10011001
10000001
10000001
01000010
00100100
00011000
>
00000000
00000000
00000000
00000000
00000000
00000000
00000000
00000000
NAME luv
DLG ITM_0

DLG ITM_0
{rbw}you got some luv!{rbw}

DLG SPR_0
hi there! <3

DLG SPR_1
"""
hi buddy!!! :-0{sequence
  - see ya later!
  - buddy!
}
"""

DLG SPR_2
hi!!!!! welcome!!!!! grab as many little hearts as you can :-)

DLG SPR_3
!!!!!!!!! :-)

DLG SPR_4
lossa love!!!!!!

END 0


END undefined
thank you for playing! <3

VAR a
42


