Don't Leave Me.

# BITSY VERSION 3.5

! ROOM_FORMAT 1

PAL 0
36,7,69
144,129,66
255,240,161

PAL 1
255,245,251
223,227,255
64,143,211

PAL 2
16,11,93
253,255,175
255,255,255

PAL 3
251,250,255
175,211,225
170,199,225

ROOM 1
0,0,0,0,0,0,0,0,0,0,0,0,0,0,0,0
0,0,0,0,0,0,0,0,0,0,0,0,0,0,0,0
0,0,0,0,0,0,0,0,0,0,0,0,0,0,0,0
0,0,0,0,0,0,0,0,0,0,0,0,0,0,0,0
0,0,0,0,0,0,0,0,0,0,0,0,0,0,0,0
0,0,0,0,0,0,0,0,0,0,0,0,0,0,0,0
0,0,0,0,0,0,0,0,0,0,0,0,0,0,0,0
d,d,d,d,d,d,d,d,d,d,d,d,d,d,d,d
0,0,0,0,0,0,0,0,0,0,0,0,0,0,0,0
0,0,0,0,0,0,0,0,0,0,0,0,0,0,0,0
0,0,0,0,0,0,0,0,0,0,0,0,a,a,a,a
0,0,0,0,0,0,0,0,0,0,0,0,0,0,0,0
0,0,0,0,0,0,0,0,0,0,0,0,0,0,0,0
0,0,0,0,0,0,0,0,0,0,0,0,0,0,0,0
0,0,0,0,0,0,0,0,0,0,0,0,0,0,0,0
0,0,0,0,0,0,0,0,0,0,0,0,0,0,0,0
EXT 11,7 2 0,10
PAL 0

ROOM 2
f,f,f,f,f,f,f,f,f,f,f,f,f,f,f,f
0,0,0,0,0,0,0,0,0,0,0,0,0,0,0,0
g,0,0,0,0,0,0,0,0,0,g,0,0,0,0,g
b,b,b,b,b,b,b,b,b,b,g,b,b,b,b,b
g,0,0,0,g,0,0,g,0,0,g,0,0,0,0,g
g,0,0,0,g,0,0,g,0,0,g,0,0,0,0,g
g,0,0,0,g,0,g,g,0,0,g,0,0,0,0,g
g,0,0,0,g,0,g,0,0,0,g,0,0,0,0,g
g,0,0,0,0,0,g,0,0,0,0,0,0,0,0,g
g,0,0,0,0,0,g,0,0,0,0,0,0,0,0,g
a,a,a,a,a,a,a,a,a,a,a,a,a,a,a,a
g,0,0,0,0,0,0,0,0,0,0,0,g,0,0,g
g,0,0,0,0,g,0,0,0,0,0,0,g,0,0,g
g,0,0,0,0,g,0,0,0,0,0,0,0,0,0,g
g,0,0,0,0,g,0,0,g,0,0,0,0,0,0,g
g,0,0,0,0,g,0,0,g,0,0,0,g,0,0,g
EXT 10,10 3 0,12
PAL 0

ROOM 3
0,0,0,0,0,0,0,0,0,0,0,0,0,0,0,0
0,0,0,0,0,0,0,0,0,0,0,0,0,0,0,0
0,0,0,0,0,0,0,0,0,0,0,0,0,0,h,0
0,0,0,0,0,0,0,0,0,0,0,0,0,0,h,0
0,0,h,h,h,h,0,h,0,h,h,0,0,0,h,0
0,0,h,0,0,h,0,h,0,h,h,h,0,0,h,0
0,0,h,h,h,h,0,h,0,h,h,0,h,0,h,0
0,0,h,0,h,0,0,h,0,h,h,0,0,h,h,0
0,0,h,0,0,h,0,h,h,h,h,0,0,0,h,0
0,0,h,0,0,0,h,h,0,0,h,0,0,0,0,0
0,0,h,0,0,0,0,0,0,0,h,0,0,0,0,0
0,0,h,0,0,0,0,0,0,0,h,0,0,0,0,0
0,0,h,0,0,0,0,0,0,0,h,0,0,0,0,0
e,e,e,0,0,0,0,0,0,0,0,0,0,0,0,0
0,0,e,e,e,e,e,e,e,e,e,e,e,e,e,e
0,0,0,0,0,0,0,0,0,0,0,0,0,0,0,0
EXT 15,13 4 0,7
EXT 4,13 6 5,13
EXT 8,13 7 9,13
EXT 12,13 8 13,13
PAL 0

ROOM 4
0,0,0,0,0,0,0,0,0,0,0,0,0,0,0,0
0,0,0,0,0,0,0,0,0,0,0,0,0,0,0,0
0,0,0,0,0,0,0,0,0,0,0,0,0,0,0,0
0,0,0,0,0,0,0,0,0,0,0,0,0,0,0,0
0,0,0,0,0,0,0,0,0,0,0,0,0,0,0,0
0,0,0,0,0,0,0,0,0,0,0,0,0,0,0,0
0,0,0,0,0,0,0,0,0,0,0,0,0,0,0,0
0,0,0,0,0,0,0,0,0,0,0,0,0,0,0,0
0,0,0,0,0,0,0,0,0,0,0,0,0,0,0,0
i,i,i,k,k,k,k,i,i,i,i,i,i,i,i,i
j,m,m,m,m,m,m,m,m,m,m,m,m,j,j,m
i,m,m,m,m,m,m,m,m,m,m,m,m,m,m,m
m,m,i,m,m,m,m,m,m,m,m,m,m,m,i,i
i,m,m,m,m,m,m,m,m,m,m,m,m,m,m,m
m,m,m,m,m,m,m,m,m,m,m,m,m,m,m,m
k,k,m,m,m,m,m,m,m,m,m,m,m,m,m,i
EXT 13,7 5 0,7
PAL 1

ROOM 5
0,0,0,0,0,0,0,0,0,0,0,0,0,0,0,0
0,0,0,0,0,0,0,0,0,0,0,0,0,0,0,0
0,0,0,0,0,0,0,0,0,0,0,0,0,0,0,0
0,0,0,0,0,0,0,0,0,0,0,0,0,0,0,0
0,0,0,0,0,0,0,0,0,0,0,0,0,0,0,0
0,0,0,0,0,0,0,0,0,0,0,0,0,0,0,0
0,0,0,0,0,0,0,0,0,0,0,0,0,0,0,0
0,0,0,0,0,0,0,0,0,0,0,0,0,0,0,0
0,0,0,0,0,0,0,0,0,0,0,0,0,0,0,0
i,i,i,k,k,k,k,i,i,i,i,i,i,i,i,i
j,m,m,m,m,m,m,m,m,m,m,m,m,j,j,m
i,m,m,m,m,m,m,m,m,m,m,m,m,m,m,m
m,m,i,m,m,m,m,m,m,m,m,m,m,m,i,i
i,m,m,m,m,m,m,m,m,m,m,m,m,m,m,m
m,m,m,m,m,m,m,m,m,m,m,m,m,m,m,m
k,k,m,m,m,m,m,m,m,m,m,m,m,m,m,i
EXT 13,7 9 0,7
PAL 1

ROOM 6
0,0,0,0,0,0,0,0,0,0,0,0,0,0,0,0
0,0,0,0,0,0,0,0,0,0,0,0,0,0,0,0
0,0,0,0,0,0,0,0,0,0,0,0,0,0,h,0
0,0,0,0,0,0,0,0,0,0,0,0,0,0,h,0
0,0,h,h,h,h,0,h,0,h,h,0,0,0,h,0
0,0,h,0,0,h,0,h,0,h,h,h,0,0,h,0
0,0,h,h,h,h,0,h,0,h,h,0,h,0,h,0
0,0,h,0,h,0,0,h,0,h,h,0,0,h,h,0
0,0,h,0,0,h,0,h,h,h,h,0,0,0,h,0
0,0,h,0,0,0,h,h,0,0,h,0,0,0,0,0
0,0,h,0,0,0,0,0,0,0,h,0,0,0,0,0
0,0,h,0,0,0,0,0,0,0,h,0,0,0,0,0
0,0,h,0,0,0,0,0,0,0,h,0,0,0,0,0
e,e,e,0,0,0,0,0,0,0,0,0,0,0,0,0
0,0,e,e,e,e,e,e,e,e,e,e,e,e,e,e
0,0,0,0,0,0,0,0,0,0,0,0,0,0,0,0
EXT 15,13 4 0,7
PAL 0

ROOM 7
0,0,0,0,0,0,0,0,0,0,0,0,0,0,0,0
0,0,0,0,0,0,0,0,0,0,0,0,0,0,0,0
0,0,0,0,0,0,0,0,0,0,0,0,0,0,h,0
0,0,0,0,0,0,0,0,0,0,0,0,0,0,h,0
0,0,h,h,h,h,0,h,0,h,h,0,0,0,h,0
0,0,h,0,0,h,0,h,0,h,h,h,0,0,h,0
0,0,h,h,h,h,0,h,0,h,h,0,h,0,h,0
0,0,h,0,h,0,0,h,0,h,h,0,0,h,h,0
0,0,h,0,0,h,0,h,h,h,h,0,0,0,h,0
0,0,h,0,0,0,h,h,0,0,h,0,0,0,0,0
0,0,h,0,0,0,0,0,0,0,h,0,0,0,0,0
0,0,h,0,0,0,0,0,0,0,h,0,0,0,0,0
0,0,h,0,0,0,0,0,0,0,h,0,0,0,0,0
e,e,e,0,0,0,0,0,0,0,0,0,0,0,0,0
0,0,e,e,e,e,e,e,e,e,e,e,e,e,e,e
0,0,0,0,0,0,0,0,0,0,0,0,0,0,0,0
EXT 15,13 4 0,7
EXT 4,13 6 5,13
PAL 0

ROOM 8
0,0,0,0,0,0,0,0,0,0,0,0,0,0,0,0
0,0,0,0,0,0,0,0,0,0,0,0,0,0,0,0
0,0,0,0,0,0,0,0,0,0,0,0,0,0,h,0
0,0,0,0,0,0,0,0,0,0,0,0,0,0,h,0
0,0,h,h,h,h,0,h,0,h,h,0,0,0,h,0
0,0,h,0,0,h,0,h,0,h,h,h,0,0,h,0
0,0,h,h,h,h,0,h,0,h,h,0,h,0,h,0
0,0,h,0,h,0,0,h,0,h,h,0,0,h,h,0
0,0,h,0,0,h,0,h,h,h,h,0,0,0,h,0
0,0,h,0,0,0,h,h,0,0,h,0,0,0,0,0
0,0,h,0,0,0,0,0,0,0,h,0,0,0,0,0
0,0,h,0,0,0,0,0,0,0,h,0,0,0,0,0
0,0,h,0,0,0,0,0,0,0,h,0,0,0,0,0
e,e,e,0,0,0,0,0,0,0,0,0,0,0,0,0
0,0,e,e,e,e,e,e,e,e,e,e,e,e,e,e
0,0,0,0,0,0,0,0,0,0,0,0,0,0,0,0
EXT 15,13 4 0,7
EXT 4,13 6 5,13
PAL 0

ROOM 9
0,0,0,0,0,0,0,0,0,0,0,0,0,0,0,0
0,0,0,0,0,0,0,0,0,0,0,0,0,0,0,0
0,0,0,0,0,0,0,0,0,0,0,0,0,0,0,0
0,0,0,0,0,0,0,0,0,0,0,0,0,0,0,0
0,0,0,0,0,0,0,0,0,0,0,0,0,0,0,0
0,0,0,0,0,0,0,0,0,0,0,0,0,0,0,0
0,0,0,0,0,0,0,0,0,0,0,0,0,0,0,0
0,0,0,0,0,0,0,0,0,0,0,0,0,0,0,0
0,0,0,0,0,0,0,0,0,0,0,0,0,0,0,0
i,i,i,k,k,k,k,i,i,i,i,i,i,i,i,i
j,m,m,m,m,m,m,m,m,m,m,m,m,j,j,m
i,m,m,m,m,m,m,m,m,m,m,m,m,m,m,m
m,m,i,m,m,m,m,m,m,m,m,m,m,m,i,i
i,m,m,m,m,m,m,m,m,m,m,m,m,m,m,m
m,m,m,m,m,m,m,m,m,m,m,m,m,m,m,m
k,k,m,m,m,m,m,m,m,m,m,m,m,m,m,i
EXT 7,10 b 0,10
PAL 1

ROOM a
0,0,0,0,0,0,0,0,0,0,0,0,0,0,0,0
0,0,0,0,0,0,0,0,0,0,0,0,0,0,0,0
0,0,0,0,0,0,0,0,0,0,0,0,0,0,0,0
0,0,0,0,0,0,0,0,0,0,0,0,0,0,0,0
0,0,0,0,0,0,0,0,0,0,0,0,0,0,0,0
0,0,0,0,0,0,0,0,0,0,0,0,0,0,0,0
0,0,0,0,0,0,0,0,0,0,0,0,0,0,0,0
0,0,0,0,0,0,0,0,0,0,0,0,0,0,0,0
0,0,0,0,0,0,0,0,0,0,0,0,0,0,0,0
i,i,i,k,k,k,k,i,i,i,i,i,i,i,i,i
j,m,m,m,m,m,m,m,m,m,m,m,m,j,j,m
i,m,m,m,m,m,m,m,m,m,m,m,m,m,m,m
m,m,i,m,m,m,m,m,m,m,m,m,m,m,i,i
i,m,m,m,m,m,m,m,m,m,m,m,m,m,m,m
m,m,m,m,m,m,m,m,m,m,m,m,m,m,m,m
k,k,m,m,m,m,m,m,m,m,m,m,m,m,m,i
EXT 13,7 0 13,7
PAL 1

ROOM b
n,0,0,0,n,0,0,0,0,0,0,0,0,0,n,0
n,0,n,0,n,0,0,0,0,0,n,0,0,0,n,0
n,0,n,0,n,0,0,0,0,0,n,0,o,0,n,0
n,0,n,0,n,n,0,0,0,0,n,0,o,0,n,0
n,0,n,0,n,n,0,0,0,0,n,0,o,0,n,0
n,0,n,0,n,n,0,0,0,0,n,0,o,0,n,0
n,0,n,0,n,n,0,0,0,0,n,0,o,0,n,0
n,d,n,d,n,n,d,d,d,d,n,d,o,d,n,d
n,0,0,0,n,n,0,0,0,0,0,0,0,0,n,0
0,0,0,0,n,0,0,0,0,0,0,0,0,0,0,0
0,0,0,0,n,0,0,0,0,0,0,0,0,0,0,a
0,0,0,0,0,0,0,0,0,0,0,0,0,0,0,0
0,0,0,0,0,0,0,0,0,0,0,0,0,0,0,0
0,0,0,0,0,0,0,0,0,0,0,0,0,0,0,0
0,0,0,0,0,0,0,0,0,0,0,0,0,0,0,0
0,0,0,0,0,0,0,0,0,0,0,0,0,0,0,0
EXT 14,13 c 0,9
PAL 3

ROOM c
q,q,p,p,j,j,j,p,p,p,p,p,p,p,p,0
q,q,q,p,k,p,p,p,p,p,j,j,j,p,p,p
p,p,q,k,k,p,p,p,j,j,j,p,p,p,p,p
a,0,p,p,p,p,p,p,p,p,p,p,p,p,p,0
a,a,p,p,p,q,q,q,q,q,q,q,p,p,0,a
0,0,a,0,p,p,p,p,p,p,p,p,0,0,0,0
0,0,0,0,0,0,0,0,0,0,0,0,0,0,0,0
d,d,d,d,d,d,d,d,d,d,d,d,d,d,d,d
0,0,0,0,0,0,0,0,0,0,0,0,0,0,0,0
0,0,0,0,0,0,0,0,0,0,0,0,0,0,0,0
0,0,0,0,0,0,0,0,0,0,0,0,0,0,0,0
0,0,0,0,0,0,0,0,0,0,0,0,0,0,0,0
0,0,0,0,0,0,0,0,0,0,0,0,0,0,0,0
0,0,0,0,0,0,0,0,0,0,0,0,0,0,0,0
0,0,0,0,0,0,0,0,0,0,0,0,0,0,0,0
0,0,0,0,0,0,0,0,0,0,0,0,0,0,0,0
EXT 14,13 1 0,8
PAL 3

TIL a
01111111
00000000
00000000
00000000
00000000
00000000
00000000
11111110

TIL b
00000000
00000000
00111111
00000000
11111110
00000000
00000000
00000000

TIL c
11111111
10000001
10000001
10000001
10000001
10000001
10000001
11111111

TIL d
00000000
00000000
11111111
00000000
00000000
00000000
00000000
00000000

TIL e
00000000
11111100
00000000
00000000
00000000
00000000
01111111
00000000

TIL f
00010000
00111110
11110111
00000000
00000000
00000000
00000000
00000000

TIL g
01000000
01000000
01000010
01100010
01101010
11001010
11111100
00000110

TIL h
00000000
00000000
00111110
00111110
00111110
00000000
00000000
00000000

TIL i
11111111
11011111
11111111
11111011
11111111
11111111
11111111
11111111
>
11111111
10111111
11111111
11011111
11111101
11111111
11110111
11111111

TIL j
11111111
11111101
10111111
11111111
10101110
11111111
11111111
11111111
>
11111111
11110111
11111111
11111111
11111111
10110111
11111111
11111111

TIL k
11111011
11111110
11111111
11111111
10111111
11110111
11111111
11111111
>
11111111
11110111
11101111
01111110
11111111
11111011
11111111
11111111

TIL l
00000000
00000000
00111111
00000000
11111110
00000000
00000000
00000000

TIL m
11111111
11111111
11111111
11111111
11111111
11111111
11111111
11111111

TIL n
00011100
00011100
00011100
00011100
00011100
00011100
00011100
00011100

TIL o
00011000
00011000
00011000
00011000
00011000
00011000
00011000
00011000

TIL p
11111111
11011111
11111111
11111011
11111111
11111111
11111111
11111111
>
11111111
10111111
11111111
11011111
11111101
11111111
11110111
11111111

TIL q
11111011
11111110
11111111
11111111
10111111
11110111
11111111
11111111
>
11111111
11110111
11101111
01111110
11111111
11111011
11111111
11111111

SPR 10
00000000
00000000
00011000
00111100
00111100
00111100
00011000
00000000
POS 1 14,1

SPR 11
11111111
11111111
11111111
11111111
11111111
11111111
11111111
11111111

SPR 12
11111111
11111111
11111111
11111111
11111111
11111111
11111111
11111111

SPR 13
11111111
11111111
11111111
11111111
11111111
11111111
11111111
11111111

SPR 14
11111111
11111111
11111111
11111111
11111111
11111111
11111111
11111111

SPR 15
10100101
10100101
10100101
10100101
00000000
10100101
10100101
10100101

SPR 16
10100101
10100101
10100101
10100101
00000000
10100101
10100101
10100101
POS 1 12,1

SPR 17
10100101
10100101
10100101
10100101
00000000
10100101
10100101
10100101

SPR 18
10100101
10100101
10100101
10100101
00000000
10100101
10100101
10100101
POS 1 11,1

SPR 19
10100101
10100101
10100101
10100101
00000000
10100101
10100101
10100101

SPR 20
00111111
00111100
00011000
00111100
00111100
00111100
00011000
00111111

SPR 21
00111111
00111100
00011000
00111100
00111100
00111100
00011000
00111111

SPR 22
00111111
00111100
00011000
00111100
00111100
00111100
00011000
00111111

SPR 23
00111111
00111100
00011000
00111100
00111100
00111100
00011000
00111111

SPR 24
00111111
00111100
00011000
00111100
00111100
00111100
00011000
00111111

SPR 25
00000000
00000000
00011000
00111100
00111100
00111100
00011000
00000000
POS 1 15,2

SPR 26
00000000
00000000
00011000
00111100
00111100
00111100
00011000
00000000

SPR 27
00000000
00000000
00011000
00111100
00111100
00111100
00011000
00000000
POS 1 15,3

SPR 28
00000000
00000000
00011000
00111100
00111100
00111100
00011000
00000000
POS 1 15,4

SPR 29
00000000
00000000
00011000
00111100
00111100
00111100
00011000
00000000

SPR 30
00000111
00001111
00011110
00111100
01111000
11110000
11100000
10101010
POS 1 2,5

SPR 31
00000111
00001111
00011110
00111100
01111000
11110000
11100000
10101010

SPR 32
10000000
10000000
10000000
10000000
10000000
10000000
10000000
10000000
POS 1 3,3

SPR 33
10000000
10000000
10000000
10000000
10000000
10000000
10000000
10000000
POS 1 3,4

SPR 34
10000000
10000000
10000000
10000000
10000000
10000000
10000000
10000000

SPR 35
10000000
10000000
10000000
10000000
10000000
10000000
10000000
10000000

SPR 36
10000000
10000000
10000000
10000000
10000000
10000000
10000000
10000000

SPR 37
10000000
10000000
10000000
10000000
10000000
10000000
10000000
10000000

SPR 38
10000000
10000000
10000000
10000000
10000000
10000000
10000000
10000000

SPR 39
10000000
10000000
10000000
10000000
10000000
10000000
10000000
10000000

SPR 40
11111111
11111111
00000000
00000000
00000000
00000000
00000000
00000000
POS 1 8,5

SPR 41
11111111
11111111
00000000
00000000
00000000
00000000
00000000
00000000
POS 1 4,5

SPR 42
10000000
10000000
10000000
10000000
10000000
10000000
10000000
10000000

SPR 43
11111111
11111111
00000000
00000000
00000000
00000000
00000000
00000000
POS 1 3,5

SPR 44
11111111
11111111
00000000
00000000
00000000
00000000
00000000
00000000

SPR 45
11111111
11111111
00000000
00000000
00000000
00000000
00000000
00000000

SPR 46
11111111
11111111
00000000
00000000
00000000
00000000
00000000
00000000

SPR 47
11111111
11111111
00000000
00000000
00000000
00000000
00000000
00000000

SPR 48
11111111
11111111
00000000
00000000
00000000
00000000
00000000
00000000

SPR 49
11111111
11111111
00000000
00000000
00000000
00000000
00000000
00000000

SPR 50
11111111
11111111
11111111
11111111
11111111
11111111
11111111
11111111
POS 1 0,2

SPR 51
11111111
11111111
11111111
11111111
11111111
11111111
11111111
11111111

SPR 52
11111111
11111111
11111111
11111111
11111111
11111111
11111111
11111111

SPR 53
11111111
11111111
11111111
11111111
11111111
11111111
11111111
11111111
POS 1 0,5

SPR 54
11111111
11111111
11111111
11111111
11111111
11111111
11111111
11111111
POS 1 0,3

SPR 55
11111111
11111111
11111111
11111111
11111111
11111111
11111111
11111111
POS 1 0,4

SPR 56
11111111
11111111
11111111
11111111
11111111
11111111
11111111
11111111
POS 1 1,0

SPR 57
11111111
11111111
11111111
11111111
11111111
11111111
11111111
11111111

SPR 58
11111111
11111111
11111111
11111111
11111111
11111111
11111111
11111111

SPR 59
00010000
00010000
00011000
00010000
00010000
00110000
00011000
00010000
POS 1 0,12

SPR 60
01100101
01000100
00111000
10100011
11110110
01111100
01111100
00011011
POS 1 3,15

SPR 61
01100101
01000100
00111000
10100011
11110110
01111100
01111100
00011011

SPR 62
01100101
01000000
00111000
10000011
10100110
00000100
00001100
00011011
POS 1 7,15

SPR 63
01100101
01000000
00111000
10000011
10100110
00000100
00001100
00011011

SPR 64
01100101
01000000
00111000
10000011
10100110
00000100
00001100
00011011
POS 1 12,15

SPR 65
00000000
00100000
00000000
00000001
00000000
00000100
00001100
00011011
POS 1 15,15

SPR 66
00000000
00100000
00000000
00000001
00000000
00000100
00001100
00011011
POS 1 9,15

SPR 67
00000000
00100000
00000000
00000001
00000000
00000100
00001100
00011011

SPR 68
00000000
00100000
00000000
00000001
00000000
00000100
00001100
00011011
POS 1 0,15

SPR 69
00001000
00101000
00100000
11000000
00001000
01000000
00000000
00010000

SPR 70
11111111
11111111
11111111
11111111
11111111
11111111
11111111
11111111
POS 0 14,9

SPR 71
11111111
11111111
11111111
11111111
11111111
11111111
11111111
11111111
POS 0 8,9

SPR 72
11111111
11111111
11111111
11111111
11111111
11111111
11111111
11111111
POS 0 6,9

SPR 73
11111111
11111111
11111111
11111111
11111111
11111111
11111111
11111111
POS 0 4,9

SPR 74
11111111
11111111
11111111
11111111
11111111
11111111
11111111
11111111
POS 0 2,9

SPR 75
11111111
11111111
11111111
11111111
11111111
11111111
11111111
11111111
POS 0 0,9

SPR 76
11111111
11111111
11111111
11111111
11111111
11111111
11111111
11111111

SPR 77
11111111
11111111
11111111
11111111
11111111
11111111
11111111
11111111
POS 0 8,6

SPR 78
11111111
11111111
11111111
11111111
11111111
11111111
11111111
11111111
POS 0 4,6

SPR 79
11111111
11111111
11111111
11111111
11111111
11111111
11111111
11111111
POS 0 0,6

SPR 80
11111111
11111111
11111111
11111111
11111111
11111111
11111111
11111111
POS 0 15,4

SPR 81
11111111
11111111
11111111
11111111
11111111
11111111
11111111
11111111

SPR 82
11111111
11111111
11111111
11111111
11111111
11111111
11111111
11111111

SPR 83
11111111
11111111
11111111
11111111
11111111
11111111
11111111
11111111

SPR 84
11111111
11111111
11111111
11111111
11111111
11111111
11111111
11111111

SPR 85
11111111
11111111
11111111
11111111
11111111
11111111
11111111
11111111

SPR 86
11111111
11111111
11111111
11111111
11111111
11111111
11111111
11111111

SPR 87
11111111
11111111
11111111
11111111
11111111
11111111
11111111
11111111

SPR 88
11111111
11111111
11111111
11111111
11111111
11111111
11111111
11111111

SPR 89
11111111
11111111
11111111
11111111
11111111
11111111
11111111
11111111

SPR 90
01111110
01111110
01111110
01111110
01111110
01111110
01111110
01111110
POS 2 11,14

SPR 91
01111110
01111110
01111110
01111110
01111110
01111110
01111110
01111110
POS 2 11,13

SPR 92
01111110
01111110
01111110
01111110
01111110
01111110
01111110
01111110
POS 2 2,13

SPR 93
01111110
01111110
01111110
01111110
01111110
01111110
01111110
01111110
POS 2 14,15

SPR 94
01111110
01111110
01111110
01111110
01111110
01111110
01111110
01111110
POS 2 11,12

SPR 95
00001000
00001000
00001100
00011100
00011110
00111110
00111110
01111110
POS 2 4,13

SPR 96
00010000
00010000
00010000
00011000
00011000
00111100
00111110
01111110

SPR 97
00000000
00000000
00000000
00010000
00010000
00110000
00111000
01111100
POS 2 11,9

SPR 98
01111110
01111110
01111110
01111110
01111110
01111110
01111110
01111110

SPR 99
01111110
01111110
01111110
01111110
01111110
01111110
01111110
01111110
POS 2 2,5

SPR A
00011100
00011100
00011000
00111100
01111110
10111101
00011000
00011000
>
00011100
00011100
00011000
00111100
00111100
01111100
00110100
00100100
POS 1 0,8

SPR a
00000000
00000000
01010001
01110001
01110010
01111100
00111100
00100100
>
00000000
00000000
01010100
01110010
01110010
01111100
00111100
00100100
POS 4 9,7

SPR b
00000000
00000000
00000000
00000000
00000000
00000000
00000000
00000000

SPR c
00000000
00000000
00011000
00111100
00111100
00111100
00011000
00000000
POS 2 1,1

SPR d
00000000
00000000
01010001
01110001
01110010
01111100
00111100
00100100
POS 0 11,7

SPR e
00000000
00000000
00000000
00000000
00000000
00000000
00000000
00000000

SPR f
00000000
00000000
00000000
00000000
00000000
00000000
00000000
00000000

SPR g
00000000
00000000
00011000
00111100
00111100
00111100
00011000
00000000
POS 2 2,1

SPR h
00000000
00000000
00000000
00000000
00000000
00000000
00000000
00000000
POS 1 10,1

SPR i
00000000
00000000
00011000
00111100
00111100
00111100
00011000
00000000
POS 2 0,1

SPR j
00000000
00000000
00011000
00111100
00111100
00111100
00011000
00000000
POS 2 3,1

SPR k
00000000
00000000
00011000
00111100
00111100
00111100
00011000
00000000
POS 2 4,1

SPR l
00000000
00000000
00011000
00111100
00111100
00111100
00011000
00000000
POS 2 5,1

SPR m
00000000
00000000
00011000
00111100
00111100
00111100
00011000
00000000
POS 2 6,1

SPR n
00000000
00000000
00011000
00111100
00111100
00111100
00011000
00000000

SPR o
00000000
00000000
00011000
00111100
00111100
00111100
00011000
00000000
POS 2 8,1

SPR p
00000000
00000000
00011000
00111100
00111100
00111100
00011000
00000000

SPR q
00000000
00000000
00011000
00111100
00111100
00111100
00011000
00000000
POS 2 7,1

SPR r
00000000
00000000
00011000
00111100
00111100
00111100
00011000
00000000
POS 2 9,1

SPR s
00000000
00000000
00011000
00111100
00111100
00111100
00011000
00000000
POS 2 10,1

SPR t
00000000
00000000
00011000
00111100
00111100
00111100
00011000
00000000
POS 2 11,1

SPR u
00000000
00000000
00011000
00111100
00111100
00111100
00011000
00000000

SPR v
00000000
00000000
00011000
00111100
00111100
00111100
00011000
00000000
POS 2 12,1

SPR w
00000000
00000000
00011000
00111100
00111100
00111100
00011000
00000000
POS 2 13,1

SPR x
00000000
00000000
00011000
00111100
00111100
00111100
00011000
00000000
POS 2 14,1

SPR y
00000000
00000000
00011000
00111100
00111100
00111100
00011000
00000000
POS 1 14,2

SPR z
00000000
00000000
00011000
00111100
00111100
00111100
00011000
00000000
POS 2 15,1

SPR 1a
10100101
10100101
10100101
10100101
00000000
10100101
10100101
10100101

SPR 1b
10100101
10100101
10100101
10100101
00000000
10100101
10100101
10100101

SPR 1c
10100101
10100101
10100101
10100101
00000000
10100101
10100101
10100101

SPR 1d
10100101
10100101
10100101
10100101
00000000
10100101
10100101
10100101
POS 1 13,0

SPR 1e
10100101
10100101
10100101
10100101
00000000
10100101
10100101
10100101
POS 1 14,0

SPR 1f
10100101
10100101
10100101
10100101
00000000
10100101
10100101
10100101
POS 1 12,0

SPR 1g
10100101
10100101
10100101
10100101
00000000
10100101
10100101
10100101
POS 1 11,0

SPR 1h
10100101
10100101
10100101
10100101
00000000
10100101
10100101
10100101
POS 1 8,2

SPR 1i
10100101
10100101
10100101
10100101
00000000
10100101
10100101
10100101
POS 1 7,2

SPR 1j
10100101
10100101
10100101
10100101
00000000
10100101
10100101
10100101

SPR 1k
10100101
10100101
10100101
10100101
00000000
10100101
10100101
10100101

SPR 1l
10100101
10100101
10100101
10100101
00000000
10100101
10100101
10100101
POS 1 15,0

SPR 1m
10100101
10100101
10100101
10100101
00000000
10100101
10100101
10100101
POS 1 6,2

SPR 1n
10100101
10100101
10100101
10100101
00000000
10100101
10100101
10100101

SPR 1o
10100101
10100101
10100101
10100101
00000000
10100101
10100101
10100101

SPR 1p
10100101
10100101
10100101
10100101
00000000
10100101
10100101
10100101
POS 1 3,2

SPR 1q
10100101
10100101
10100101
10100101
00000000
10100101
10100101
10100101
POS 1 4,2

SPR 1r
10100101
10100101
10100101
10100101
00000000
10100101
10100101
10100101

SPR 1s
10100101
10100101
10100101
10100101
00000000
10100101
10100101
10100101

SPR 1t
10100101
10100101
10100101
10100101
00000000
10100101
10100101
10100101

SPR 1u
10100101
10100101
10100101
10100101
00000000
10100101
10100101
10100101

SPR 1v
00000111
00001111
00011110
00111100
01111000
11110000
11100000
10101010
POS 1 1,2

SPR 1w
00000000
00000000
00011000
00111100
00111100
00111100
00011000
00000000

SPR 1x
00000000
00000000
00011000
00111100
00111100
00111100
00011000
00000000

SPR 1y
10000001
01000010
01111110
00111100
00111100
00111100
00011000
00000000

SPR 1z
10000001
01000010
01111110
00111100
00111100
00111100
00011000
00000000

SPR 2a
00000000
00000000
00011000
00111100
00111100
00111100
00011000
00000000

SPR 2b
00000000
00000000
00011000
00111100
00111100
00111100
00011000
00000000
POS 1 7,3

SPR 2c
00000000
00000000
00011000
00111100
00111100
00111100
00011000
00000000
POS 1 6,3

SPR 2d
00000000
00000000
00011000
00111100
00111100
00111100
00011000
00000000
POS 1 5,3

SPR 2e
00000000
00000000
00011000
00111100
00111100
00111100
00011000
00000000
POS 1 4,3

SPR 2f
00111100
00111100
00111100
00111100
00111100
00111100
00111100
00011000

SPR 2g
00111100
00111100
00111100
00111100
00111100
00111100
00111100
00011000

SPR 2h
00111100
00111100
00111100
00111100
00111100
00111100
00111100
00011000
POS 1 12,6

SPR 2i
00111100
00111100
00111100
00111100
00111100
00111100
00111100
00011000
POS 1 13,6

SPR 2j
00111100
00111100
00111100
00111100
00111100
00111100
00111100
00011000
POS 1 14,6

SPR 2k
00111100
00111100
00111100
00111100
00111100
00111100
00111100
00011000
POS 1 15,6

SPR 2l
00111100
00111100
00111100
00111100
00111100
00111100
00111100
00011000

SPR 2m
00111100
00111100
00111100
00111100
00111100
00111100
00111100
00011000
POS 1 8,6

SPR 2n
00111100
00111100
00111100
00111100
00111100
00111100
00111100
00011000
POS 1 7,6

SPR 2o
00111100
00111100
00111100
00111100
00111100
00111100
00111100
00011000
POS 1 6,6

SPR 2p
00111100
00111100
00111100
00111100
00111100
00111100
00111100
00011000
POS 1 5,6

SPR 2q
00111100
00111100
00111100
00111100
00111100
00111100
00111100
00011000
POS 1 4,6

SPR 2r
00111100
00111100
00111100
00111100
00111100
00111100
00111100
00011000

SPR 2s
00000111
00001111
00011110
00111100
01111000
11110000
11100000
10101010
POS 1 2,1

SPR 2t
00000111
00001111
00011110
00111100
01111000
11110000
11100000
10101010
POS 1 3,0

SPR 2u
00000111
00001111
00011110
00111100
01111000
11110000
11100000
10101010
POS 1 4,0

SPR 2v
00000111
00001111
00011110
00111100
01111000
11110000
11100000
10101010
POS 1 5,0

SPR 2w
00000111
00001111
00011110
00111100
01111000
11110000
11100000
10101010
POS 1 6,0

SPR 2x
00000111
00001111
00011110
00111100
01111000
11110000
11100000
10101010
POS 1 7,0

SPR 2y
00000111
00001111
00011110
00111100
01111000
11110000
11100000
10101010
POS 1 9,0

SPR 2z
00000111
00001111
00011110
00111100
01111000
11110000
11100000
10101010
POS 1 8,0

SPR 3a
10000000
10000000
10000000
10000000
10000000
10000000
10000000
10000000

SPR 3b
10000000
10000000
10000000
10000000
10000000
10000000
10000000
10000000

SPR 3c
00000001
00000001
00000001
00000001
00000001
00000001
00000001
00000001

SPR 3d
10000000
10000000
10000000
10000000
10000000
10000000
10000000
10000000

SPR 3e
00000111
00000111
00000111
00000111
00000111
00000111
00000111
00000111

SPR 3f
00000100
00000100
00000100
00000100
00000100
00000100
00000100
00000100

SPR 3g
00000100
00000100
00000100
00000100
00000100
00000100
00000100
00000100

SPR 3h
00000100
00000100
00000100
00000100
00000100
00000100
00000100
00000100

SPR 3i
00010000
00010000
00010000
00010000
00010000
00010000
00010000
00010000

SPR 3j
00010000
00010000
00010000
00010000
00010000
00010000
00010000
00010000

SPR 3k
00010000
00010000
00010000
00010000
00010000
00010000
00010000
00010000

SPR 3l
00010000
00010000
00010000
00010000
00010000
00010000
00010000
00010000

SPR 3m
10000000
10000000
10000000
10000000
10000000
10000000
10000000
10000000

SPR 3n
00100000
00100000
00100000
00100000
00100000
00100000
00100000
00100000

SPR 3o
00100000
00100000
00100000
00100000
00100000
00100000
00100000
00100000

SPR 3p
00100000
00100000
00100000
00100000
00100000
00100000
00100000
00100000

SPR 3q
00100000
00100000
00100000
00100000
00100000
00100000
00100000
00100000

SPR 3r
00000000
00000000
00000000
00000000
00100000
00100000
00100000
00100000

SPR 3s
00000000
00000000
00100000
00100000
00100000
00100000
00100000
00100000

SPR 3t
00000000
00100000
00100000
00100000
00100000
00100000
00100000
00100000

SPR 3u
00100000
00100000
00100000
00100000
00100000
00100000
00100000
00100000

SPR 3v
00100000
00100000
00100000
00100000
00100000
00100000
00100000
00100000

SPR 3w
11111111
11111111
00000000
00000000
00000000
00000000
00000000
00000000
POS 1 5,5

SPR 3x
11111111
11111111
00000000
00000000
00000000
00000000
00000000
00000000
POS 1 9,5

SPR 3y
11111111
11111111
00000000
00000000
00000000
00000000
00000000
00000000
POS 1 6,5

SPR 3z
11111111
11111111
00000000
00000000
00000000
00000000
00000000
00000000
POS 1 7,5

SPR 4a
11111111
11111111
00000000
00000000
00000000
00000000
00000000
00000000

SPR 4b
00000000
00000000
00000000
00000000
00000000
00000000
00000000
00000000

SPR 4c
10000000
10000000
10000000
10000000
10000000
10000000
10000000
10000000

SPR 4d
00111111
00111100
00011000
00111100
00111100
00111100
00011000
00111111
POS 1 4,2

SPR 4e
11111100
00111100
00011000
00111100
00111100
00111100
00011000
11111100
POS 1 3,2

SPR 4f
00111111
00111100
00011000
00111100
00111100
00111100
00011000
00111111
POS 1 8,2

SPR 4g
11111100
00111100
00011000
00111100
00111100
00111100
00011000
11111100
POS 1 7,2

SPR 4h
00111111
00111100
00011000
00111100
00111100
00111100
00011000
00111111
POS 1 6,2

SPR 4i
11100111
11100111
10000001
11100111
11100111
11000011
11100111
11100111

SPR 4j
00000000
00000000
00000000
00000000
00000000
00000000
00000000
00000000
POS 1 9,3

SPR 4k
11111111
11111111
00000000
00000000
00000000
00000000
00000000
00000000

SPR 4l
11111111
11111111
00000000
00000000
00000000
00000000
00000000
00000000
POS 1 11,1

SPR 4m
11111111
11111111
00000000
00000000
00000000
00000000
00000000
00000000
POS 1 12,1

SPR 4n
11111111
11111111
00000000
00000000
00000000
00000000
00000000
00000000
POS 1 13,1

SPR 4o
11111111
11111111
00000000
00000000
00000000
00000000
00000000
00000000
POS 1 14,1

SPR 4p
11111111
11111111
00000000
00000000
00000000
00000000
00000000
00000000
POS 1 15,1

SPR 4q
11100111
11100111
10000001
11100111
11100111
11000011
11100111
11100111
POS 1 14,0

SPR 4r
11100111
11100111
10000001
11100111
11100111
11000011
11100111
11100111
POS 1 15,0

SPR 4s
11111111
11111111
11111111
11100111
11100111
11000011
11100111
11100111
POS 1 13,0

SPR 4t
11111111
11111111
11111111
11100111
11100111
11000011
11100111
11100111
POS 1 12,0

SPR 4u
11111111
11111111
11111111
11111111
11100111
11100111
11000011
11100111
POS 1 11,0

SPR 4v
11111111
11111111
11111111
11111111
11111111
11111111
11110111
11100111
POS 1 10,0

SPR 4w
11111111
11111111
11111111
11111111
11111111
11111111
11111111
11111111

SPR 4x
11111111
11111111
11111111
11111111
11111111
11111111
11111111
11111111

SPR 4y
11111111
11111111
11111111
11111111
11111111
11111111
11111111
11111111
POS 1 0,0

SPR 4z
11111111
11111111
11111111
11111111
11111111
11111111
11111111
11111111
POS 1 0,1

SPR 5a
00010000
00010000
00011000
00010000
00010000
00110000
00011000
00010000

SPR 5b
00010000
00010000
00011000
00010000
00010000
00110000
00011000
00010000
POS 1 0,11

SPR 5c
00010000
00010000
00011000
00010000
00010000
00110000
00011000
00010000

SPR 5d
00010000
00010000
00011000
00010000
00010000
00110000
00011000
00010000
POS 1 0,10

SPR 5e
00000111
00001111
00011110
00111100
01111000
11110000
11100000
10101010
POS 1 1,6

SPR 5f
00010000
00010000
00011000
00010000
00010000
00110000
00011000
00010000

SPR 5g
00010000
00010000
00011000
00010000
00010000
00110000
00011000
00010000

SPR 5h
00010000
00010000
00011000
00010000
00010000
00110000
00011000
00010000

SPR 5i
00000000
00000000
00000000
00000000
00010000
10001000
01001010
01001001
>
00000000
00000000
00000000
00000000
00001000
01001000
01001001
01001001
POS 1 8,11

SPR 5j
00000000
00000000
00000000
00000000
00010000
10001000
01001010
01001001
>
00000000
00000000
00000000
00000000
00001000
01001000
01001001
01001001

SPR 5k
00000000
00000000
00000000
00000000
00010000
10001000
01001010
01001001
>
00000000
00000000
00000000
00000000
00001000
01001000
01001001
01001001
POS 1 11,13

SPR 5l
00000000
00000000
00000000
00000000
00010000
10001000
01001010
01001001
>
00000000
00000000
00000000
00000000
00001000
01001000
01001001
01001001
POS 1 14,12

SPR 5m
00000000
00000000
00000000
00000000
00010000
10001000
01001010
01001001
>
00000000
00000000
00000000
00000000
00001000
01001000
01001001
01001001
POS 1 3,13

SPR 5n
00011100
00011100
00011100
00011100
00011100
01111110
10111010
11011010
POS 1 2,3

SPR 5o
00000000
00000000
00000000
00000000
00000000
11111000
01101100
00100110

SPR 5p
00000000
00000000
00000000
00000001
00000010
00111100
11011111
10010000

SPR 5q
00011000
00011000
00001000
00011000
00011000
00111110
00111110
00111000

SPR 5r
00000000
00000000
00000000
00000000
00000000
00000000
00000000
00000000

SPR 5s
00000000
00000000
00000000
00000000
00000000
00000000
00000000
00000000
>
00011100
00011100
00011000
00111100
00111100
01111100
00110100
00100100

SPR 5t
00111111
00111100
00011000
00111100
00111100
00111100
00011000
00111111
POS 1 6,2

SPR 5u
10000101
01000100
00011100
10011010
11010110
01011000
01110100
00011011
POS 1 8,15

SPR 5v
10000101
01000100
00011100
10011010
11010110
01011000
01110100
00011011
POS 1 10,15

SPR 5w
10000101
01000100
00011100
10011010
11010110
01011000
01110100
00011011

SPR 5x
10000101
01000100
00011100
10011010
11010110
01011000
01110100
00011011
POS 1 13,15

SPR 5y
10000101
01000100
00011100
10011010
11010110
01011000
01110100
00011011
POS 1 14,15

SPR 5z
10000101
01000100
00011100
10011010
11010110
01011000
01110100
00011011
POS 1 1,15

SPR 6a
00001000
00101000
00100000
11000000
00001000
01000000
00000000
00010000
POS 1 4,15

SPR 6b
00001000
00101000
00100000
11000000
00001000
01000000
00000000
00010000
POS 1 5,15

SPR 6c
00001000
00101000
00100000
11000000
00001000
01000000
00000000
00010000
POS 1 6,15

SPR 6d
00001000
00101000
00100000
11000000
00001000
01000000
00000000
00010000
POS 1 11,15

SPR 6e
00001000
00101000
00100000
11000000
00001000
01000000
00000000
00010000
POS 1 2,15

SPR 6f
00000000
00001100
00001110
00000100
11100001
11000100
00100010
00010010

SPR 6g
00000000
00000000
00000000
00000000
00000000
00000000
00000000
00000000
>
00000000
00000000
00000000
00000000
00000000
00000000
00000000
00000000
POS 0 14,6

SPR 6h
00000000
00000000
00000000
00000000
00000000
00000000
00000000
00000000

SPR 6i
00011100
00011100
00011000
00111100
00111100
01111100
00110100
00100100
>
00011100
00011000
00011100
00111100
00111100
01111100
00110100
00100100
POS 6 1,12

SPR 6j
00111100
00011100
00111100
00111100
01111100
10111110
00101100
00100100
>
00111100
00011100
00111100
00111100
00111100
00111110
00101100
00100100
POS 0 11,6

SPR 6k
00011100
00011100
00011000
00111100
00111100
00111100
00010100
00010100
>
00011100
00011100
00011000
00111100
00111100
00111100
00010100
00010100
POS 0 6,6

SPR 6l
11111111
11111111
11111111
11111111
11111111
11111111
11111111
11111111
POS 0 0,8

SPR 6m
11111111
11111111
11111111
11111111
11111111
11111111
11111111
11111111

SPR 6n
11111111
11111111
11111111
11111111
11111111
11111111
11111111
11111111
POS 0 2,8

SPR 6o
11111111
11111111
11111111
11111111
11111111
11111111
11111111
11111111
POS 0 4,8

SPR 6p
11111111
11111111
11111111
11111111
11111111
11111111
11111111
11111111
POS 0 6,8

SPR 6q
11111111
11111111
11111111
11111111
11111111
11111111
11111111
11111111
POS 0 8,8

SPR 6r
11111111
11111111
11111111
11111111
11111111
11111111
11111111
11111111
POS 0 10,8

SPR 6s
11111111
11111111
11111111
11111111
11111111
11111111
11111111
11111111
POS 0 12,8

SPR 6t
11111111
11111111
11111111
11111111
11111111
11111111
11111111
11111111

SPR 6u
11111111
11111111
11111111
11111111
11111111
11111111
11111111
11111111
POS 0 14,8

SPR 6v
11111111
11111111
11111111
11111111
11111111
11111111
11111111
11111111

SPR 6w
11111111
11111111
11111111
11111111
11111111
11111111
11111111
11111111

SPR 6x
11111111
11111111
11111111
11111111
11111111
11111111
11111111
11111111

SPR 6y
11111111
11111111
11111111
11111111
11111111
11111111
11111111
11111111
POS 0 10,9

SPR 6z
11111111
11111111
11111111
11111111
11111111
11111111
11111111
11111111
POS 0 12,9

SPR 7a
11111111
11111111
11111111
11111111
11111111
11111111
11111111
11111111
POS 0 4,5

SPR 7b
11111111
11111111
11111111
11111111
11111111
11111111
11111111
11111111

SPR 7c
11111111
11111111
11111111
11111111
11111111
11111111
11111111
11111111
POS 0 0,5

SPR 7d
11111111
11111111
11111111
11111111
11111111
11111111
11111111
11111111

SPR 7e
11111111
11111111
11111111
11111111
11111111
11111111
11111111
11111111
POS 0 8,4

SPR 7f
11111111
11111111
11111111
11111111
11111111
11111111
11111111
11111111
POS 0 8,5

SPR 7g
11111111
11111111
11111111
11111111
11111111
11111111
11111111
11111111

SPR 7h
11111111
11111111
11111111
11111111
11111111
11111111
11111111
11111111

SPR 7i
11111111
11111111
11111111
11111111
11111111
11111111
11111111
11111111
POS 0 4,4

SPR 7j
11111111
11111111
11111111
11111111
11111111
11111111
11111111
11111111
POS 0 0,4

SPR 7k
11111111
11111111
11111111
11111111
11111111
11111111
11111111
11111111
POS 0 12,6

SPR 7l
11111111
11111111
11111111
11111111
11111111
11111111
11111111
11111111

SPR 7m
11111111
11111111
11111111
11111111
11111111
11111111
11111111
11111111
POS 0 12,5

SPR 7n
11111111
11111111
11111111
11111111
11111111
11111111
11111111
11111111

SPR 7o
11111111
11111111
11111111
11111111
11111111
11111111
11111111
11111111
POS 0 1,4

SPR 7p
11111111
11111111
11111111
11111111
11111111
11111111
11111111
11111111
POS 0 2,4

SPR 7q
11111111
11111111
11111111
11111111
11111111
11111111
11111111
11111111
POS 0 3,4

SPR 7r
11111111
11111111
11111111
11111111
11111111
11111111
11111111
11111111
POS 0 5,4

SPR 7s
11111111
11111111
11111111
11111111
11111111
11111111
11111111
11111111
POS 0 7,4

SPR 7t
11111111
11111111
11111111
11111111
11111111
11111111
11111111
11111111
POS 0 6,4

SPR 7u
11111111
11111111
11111111
11111111
11111111
11111111
11111111
11111111
POS 0 10,4

SPR 7v
11111111
11111111
11111111
11111111
11111111
11111111
11111111
11111111
POS 0 12,4

SPR 7w
11111111
11111111
11111111
11111111
11111111
11111111
11111111
11111111
POS 0 11,4

SPR 7x
11111111
11111111
11111111
11111111
11111111
11111111
11111111
11111111
POS 0 9,4

SPR 7y
11111111
11111111
11111111
11111111
11111111
11111111
11111111
11111111
POS 0 13,4

SPR 7z
11111111
11111111
11111111
11111111
11111111
11111111
11111111
11111111
POS 0 14,4

SPR 8a
11111111
11111111
11111111
11111111
11111111
11111111
11111111
11111111
POS 0 6,10

SPR 8b
11111111
11111111
11111111
11111111
11111111
11111111
11111111
11111111
POS 0 6,11

SPR 8c
11111111
11111111
11111111
11111111
11111111
11111111
11111111
11111111
POS 0 10,10

SPR 8d
11111111
11111111
11111111
11111111
11111111
11111111
11111111
11111111

SPR 8e
11111111
11111111
11111111
11111111
11111111
11111111
11111111
11111111
POS 0 14,10

SPR 8f
11111111
11111111
11111111
11111111
11111111
11111111
11111111
11111111
POS 0 14,11

SPR 8g
11111111
11111111
11111111
11111111
11111111
11111111
11111111
11111111
POS 0 14,13

SPR 8h
11111111
11111111
11111111
11111111
11111111
11111111
11111111
11111111
POS 0 10,13

SPR 8i
11111111
11111111
11111111
11111111
11111111
11111111
11111111
11111111
POS 0 6,13

SPR 8j
11111111
11111111
11111111
11111111
11111111
11111111
11111111
11111111

SPR 8k
11111111
11111111
11111111
11111111
11111111
11111111
11111111
11111111

SPR 8l
00000000
00000000
01000000
01000000
01000010
01100110
00100100
00100100

SPR 8m
00000000
00000000
01000000
01000000
01000010
01100110
00100100
00100100

SPR 8n
00000000
00000000
00000000
01111110
11111111
00111100
00000000
00000000
POS 1 10,12

SPR 8o
00000000
00000000
00000000
01111110
11111111
00111100
00000000
00000000
POS 1 3,12

SPR 8p
00000000
00000000
00000000
01111110
11111111
00111100
00000000
00000000

SPR 8q
00000000
00000000
00000000
01111110
11111111
00111100
00000000
00000000
POS 1 11,8

SPR 8r
00000000
00000000
00000000
00000000
00010000
10001000
01001010
01001001
>
00000000
00000000
00000000
00000000
00001000
01001000
01001001
01001001
POS 1 9,6

SPR 8s
00000000
00000000
00000000
00000000
00010000
10001000
01001010
01001001
>
00000000
00000000
00000000
00000000
00001000
01001000
01001001
01001001
POS 1 10,6

SPR 8t
00000000
00000000
00000000
00000000
00010000
10001000
01001010
01001001
>
00000000
00000000
00000000
00000000
00001000
01001000
01001001
01001001
POS 1 11,6

SPR 8u
00001000
00001000
00001100
00011100
00011110
00111110
00111110
01111110
POS 2 2,12

SPR 8v
01111110
01111110
01111110
01111110
01111110
01111110
01111110
01111110
POS 2 2,15

SPR 8w
01111110
01111110
01111110
01111110
01111110
01111110
01111110
01111110
POS 2 2,14

SPR 8x
01111110
01111110
01111110
01111110
01111110
01111110
01111110
01111110
POS 2 4,15

SPR 8y
01111110
01111110
01111110
01111110
01111110
01111110
01111110
01111110
POS 2 4,14

SPR 8z
01111110
01111110
01111110
01111110
01111110
01111110
01111110
01111110
POS 2 11,15

SPR 9a
01111110
01111110
01111110
01111110
01111110
01111110
01111110
01111110

SPR 9b
01111110
01111110
01111110
01111110
01111110
01111110
01111110
01111110
POS 2 2,6

SPR 9c
01111110
01111110
01111110
01111110
01111110
01111110
01111110
01111110
POS 2 5,7

SPR 9d
01111110
01111110
01111110
01111110
01111110
01111110
01111110
01111110
POS 2 5,6

SPR 9e
01111110
01111110
01111110
01111110
01111110
01111110
01111110
01111110

SPR 9f
01111110
01111110
01111110
01111110
01111110
01111110
01111110
01111110
POS 2 5,5

SPR 9g
01111110
01111110
01111110
01111110
01111110
01111110
01111110
01111110

SPR 9h
01111110
01111110
01111110
01111110
01111110
01111110
01111110
01111110
POS 2 8,6

SPR 9i
01111110
01111110
01111110
01111110
01111110
01111110
01111110
01111110
POS 2 8,5

SPR 9j
01111110
01111110
01111110
01111110
01111110
01111110
01111110
01111110

SPR 9k
01111110
01111110
01111110
01111110
01111110
01111110
01111110
01111110
POS 2 11,7

SPR 9l
01111110
01111110
01111110
01111110
01111110
01111110
01111110
01111110
POS 2 11,6

SPR 9m
01111110
01111110
01111110
01111110
01111110
01111110
01111110
01111110
POS 2 11,5

SPR 9n
01111110
01111110
01111110
01111110
01111110
01111110
01111110
01111110

SPR 9o
01111110
01111110
01111110
01111110
01111110
01111110
01111110
01111110
POS 2 14,7

SPR 9p
01111110
01111110
01111110
01111110
01111110
01111110
01111110
01111110
POS 2 14,6

SPR 9q
01111110
01111110
01111110
01111110
01111110
01111110
01111110
01111110
POS 2 14,5

SPR 9r
01111110
01111110
01111110
01111110
01111110
01111110
01111110
01111110

SPR 9s
00001000
00001000
00001100
00011100
00011110
00111110
00111110
01111110
POS 2 5,4

SPR 9t
00001000
00001000
00001100
00011100
00011110
00111110
00111110
01111110
POS 2 14,4

SPR 9u
00001000
00001000
00001100
00011100
00011110
00111110
00111110
01111110
POS 2 8,4

SPR 9v
00010000
00010000
00010000
00011000
00011000
00111100
00111110
01111110
POS 2 2,4

SPR 9w
00010000
00010000
00010000
00011000
00011000
00111100
00111110
01111110

SPR 9x
00000000
00000000
00000000
00010000
00010000
00110000
00111000
01111100
POS 2 11,4

SPR 9y
01111110
00111100
00111100
00011000
00001000
00001000
00000000
00000000
POS 2 2,8

SPR 9z
01111110
00111100
00111100
00011000
00001000
00001000
00000000
00000000
POS 2 8,7

SPR a0
01111110
00101100
00000000
00000000
00000000
00000000
00000000
00000000
POS 2 11,8

SPR a1
01111110
00101100
00000000
00000000
00000000
00000000
00000000
00000000
POS 2 5,8

SPR a2
01111110
00101100
00011000
00001000
00001000
00001000
00001000
00000000
POS 2 14,8

SPR a3
01111110
01111110
01111110
01111110
01111110
01111110
01111110
01111110
POS 2 7,13

SPR a4
01111110
01111110
01111110
01111110
01111110
01111110
01111110
01111110
POS 2 7,14

SPR a5
01111110
01111110
01111110
01111110
01111110
01111110
01111110
01111110

SPR a6
01111110
01111110
01111110
01111110
01111110
01111110
01111110
01111110
POS 2 7,15

SPR a7
00001000
00001000
00001100
00011100
00011110
00111110
00111110
01111110
POS 2 7,11

SPR a8
01111110
01111110
01111110
01111110
01111110
01111110
01111110
01111110
POS 2 7,12

SPR a9
01111110
01111110
01111110
01111110
01111110
01111110
01111110
01111110
POS 2 9,15

SPR aa
01111110
01111110
01111110
01111110
01111110
01111110
01111110
01111110
POS 2 9,14

SPR ab
00001000
00001000
00001100
00011100
00011110
00111110
00111110
01111110
POS 2 9,13

SPR ac
01111110
01111110
01111110
01111110
01111110
01111110
01111110
01111110
POS 2 11,11

SPR ad
01111110
01111110
01111110
01111110
01111110
01111110
01111110
01111110
POS 2 11,10

SPR ae
01111110
00101100
00000000
00000000
00000000
00000000
00000000
00000000
POS 2 5,2

SPR af
01111110
00101100
00000000
00000000
00000000
00000000
00000000
00000000
POS 2 9,2

SPR ag
11111111
00101100
00000000
00000000
00000000
00000000
00000000
00000000
POS 2 13,2

SPR ah
11111111
00101100
00000000
00000000
00000000
00000000
00000000
00000000
POS 2 1,2

SPR ai
00011100
00011100
00011000
00111100
00111100
01111100
00110100
00100100
>
00011100
00011000
00011100
00111100
00111100
01111100
00110100
00100100

SPR aj
00011100
00011100
00001100
00011110
00111110
00011110
00010100
00010100
>
00011100
00011000
00011100
00111100
00111100
01111100
00110100
00100100

SPR ak
11111111
00101100
00000000
00000000
00000000
00000000
00000000
00000000

SPR al
01111110
00101100
00000000
00000000
00000000
00000000
00000000
00000000

SPR am
11111111
00101100
00000000
00000000
00000000
00000000
00000000
00000000
POS 4 2,8

SPR an
11111111
00101100
00000000
00000000
00000000
00000000
00000000
00000000
POS 4 3,8

SPR ao
11111111
00101100
00000000
00000000
00000000
00000000
00000000
00000000
POS 4 4,8

SPR ap
11111111
00101100
00000000
00000000
00000000
00000000
00000000
00000000
POS 4 5,8

SPR aq
11111111
00101100
00000000
00000000
00000000
00000000
00000000
00000000
POS 4 6,8

SPR ar
11111111
00101100
00000000
00000000
00000000
00000000
00000000
00000000
POS 4 7,8

SPR as
11111111
00101100
00000000
00000000
00000000
00000000
00000000
00000000
POS 4 8,8

SPR at
11111111
00101100
00000000
00000000
00000000
00000000
00000000
00000000
POS 4 1,8

SPR au
11111111
00101100
00000000
00000000
00000000
00000000
00000000
00000000
POS 4 0,8

SPR av
11111111
00101100
00000000
00000000
00000000
00000000
00000000
00000000
POS 4 14,8

SPR aw
11111111
00101100
00000000
00000000
00000000
00000000
00000000
00000000
POS 4 12,8

SPR ax
11111111
00101100
00000000
00000000
00000000
00000000
00000000
00000000
POS 4 13,8

SPR ay
11111111
00101100
00000000
00000000
00000000
00000000
00000000
00000000
POS 4 10,8

SPR az
11111111
00101100
00000000
00000000
00000000
00000000
00000000
00000000
POS 4 9,8

SPR b0
00000111
00001111
00011110
00111100
01111000
11110000
11100000
10101010

SPR b1
00000111
00001111
00011110
00111100
01111000
11110000
11100000
10101010

SPR b2
11111111
00101100
00000000
00000000
00000000
00000000
00000000
00000000
POS 4 11,8

SPR b3
11111111
00101100
00000000
00000000
00000000
00000000
00000000
00000000
POS 4 15,8

SPR b4
11111111
00101100
00000000
00000000
00000000
00000000
00000000
00000000

SPR b5
11111111
00101100
00000000
00000000
00000000
00000000
00000000
00000000
POS 5 12,8

SPR b6
11111111
00101100
00000000
00000000
00000000
00000000
00000000
00000000
POS 5 11,8

SPR b7
11111111
00101100
00000000
00000000
00000000
00000000
00000000
00000000
POS 5 10,8

SPR b8
11111111
00101100
00000000
00000000
00000000
00000000
00000000
00000000
POS 5 9,8

SPR b9
11111111
00101100
00000000
00000000
00000000
00000000
00000000
00000000
POS 5 8,8

SPR ba
11111111
00101100
00000000
00000000
00000000
00000000
00000000
00000000
POS 5 7,8

SPR bb
11111111
00101100
00000000
00000000
00000000
00000000
00000000
00000000
POS 5 6,8

SPR bc
11111111
00101100
00000000
00000000
00000000
00000000
00000000
00000000
POS 5 4,8

SPR bd
11111111
00101100
00000000
00000000
00000000
00000000
00000000
00000000
POS 5 1,8

SPR be
11111111
00101100
00000000
00000000
00000000
00000000
00000000
00000000
POS 5 3,8

SPR bf
11111111
00101100
00000000
00000000
00000000
00000000
00000000
00000000
POS 5 14,8

SPR bg
11111111
00101100
00000000
00000000
00000000
00000000
00000000
00000000
POS 5 13,8

SPR bh
11111111
00101100
00000000
00000000
00000000
00000000
00000000
00000000
POS 5 15,8

SPR bi
11111111
00101100
00000000
00000000
00000000
00000000
00000000
00000000
POS 9 0,8

SPR bj
10111101
00101100
00000000
00000000
00000000
00000000
00000000
00000000
POS 5 0,8

SPR bk
10111101
00101100
00000000
00000000
00000000
00000000
00000000
00000000
POS 5 2,8

SPR bl
10111101
00101100
00000000
00000000
00000000
00000000
00000000
00000000
POS 5 5,8

SPR bm
00000000
01000010
00011000
00111100
00111100
00111100
00011001
01000000
>
00100010
00000000
00011000
00111100
00101100
00111100
01011000
00000001
POS 5 13,6

SPR bn
00000000
00000000
01010001
01110001
01110010
01111100
00111100
00100100
>
00000000
00000000
01010100
01110010
01110010
01111100
00111100
00100100
POS 5 8,7

SPR bo
00000000
00000000
01010001
01110001
01110010
01111100
00111100
00100100
>
00000000
00000000
01010100
01110010
01110010
01111100
00111100
00100100
POS 5 8,7

SPR bp
00000000
00000000
01010001
01110001
01110010
01111100
00111100
00100100
>
00000000
00000000
01010100
01110010
01110010
01111100
00111100
00100100

SPR bq
00000000
00000000
01010001
01110001
01110010
01111100
00111100
00100100
>
00000000
00000000
01010100
01110010
01110010
01111100
00111100
00100100
POS 1 9,12

SPR br
00011100
00011100
00011000
00111100
00111100
00111100
00010100
00010100
>
00011100
00011100
00011000
00111100
00111100
00111100
00010100
00010100
POS 6 3,13

SPR bs
00011100
00011100
00011000
00111100
00111100
00111100
00010100
00010100
>
00011100
00011100
00011000
00111100
00111100
00111100
00010100
00010100
POS 7 7,13

SPR bt
00011100
00011100
00011000
00111100
00111100
00111100
00010100
00010100
>
00011100
00011100
00011000
00111100
00111100
00111100
00010100
00010100
POS 8 11,13

SPR bu
11111111
00101100
00000000
00000000
00000000
00000000
00000000
00000000
POS 9 1,8

SPR bv
11111111
00101100
00000000
00000000
00000000
00000000
00000000
00000000
POS 9 2,8

SPR bw
11111111
00101100
00000000
00000000
00000000
00000000
00000000
00000000
POS 9 3,8

SPR bx
11111111
00101100
00000000
00000000
00000000
00000000
00000000
00000000
POS 9 4,8

SPR by
11111111
00101100
00000000
00000000
00000000
00000000
00000000
00000000
POS 9 5,8

SPR bz
00000000
01000010
00011000
00111100
00111100
00111100
00011001
01000000
>
00100010
00000000
00011000
00111100
00101100
00111100
01011000
00000001
POS 9 7,11

SPR c0
00000000
00000000
01010001
01110001
01110010
01111100
00111100
00100100
>
00000000
00000000
01010100
01110010
01110010
01111100
00111100
00100100
POS 9 3,7

SPR c1
00011000
00011000
00011000
00011000
00011000
00011000
00011000
00011000
POS b 7,7

SPR c2
00011000
00011000
00011000
00011000
00011000
00011000
00011000
00011000
POS b 7,6

SPR c3
00011000
00011000
00011000
00011000
00011000
00011000
00011000
00011000
POS b 7,5

SPR c4
00011000
00011000
00011000
00011000
00011000
00011000
00011000
00011000
POS b 7,4

SPR c5
00011000
00011000
00011000
00011000
00011000
00011000
00011000
00011000
POS b 7,3

SPR c6
00011000
00011000
00011000
00011000
00011000
00011000
00011000
00011000
POS b 7,2

SPR c7
00011000
00011000
00011000
00011000
00011000
00011000
00011000
00011000
POS b 13,5

SPR c8
00011000
00011000
00011000
00011000
00011000
00011000
00011000
00011000
POS b 13,4

SPR c9
00011000
00011000
00011000
00011000
00011000
00011000
00011000
00011000
POS b 13,3

SPR ca
00011000
00011000
00011000
00011000
00011000
00011000
00011000
00011000
POS b 13,2

SPR cb
00011000
00011000
00011000
00011000
00011000
00011000
00011000
00011000
POS b 13,1

SPR cc
00011000
00011000
00011000
00011000
00011000
00011000
00011000
00011000
POS b 13,0

SPR cd
00011000
00011000
00011000
00011000
00011000
00011000
00011000
00011000
POS b 1,5

SPR ce
00011000
00011000
00011000
00011000
00011000
00011000
00011000
00011000
POS b 1,6

SPR cf
00011000
00011000
00011000
00011000
00011000
00011000
00011000
00011000
POS b 1,4

SPR cg
00011000
00011000
00011000
00011000
00011000
00011000
00011000
00011000
POS b 1,3

SPR ch
00011000
00011000
00011000
00011000
00011000
00011000
00011000
00011000
POS b 7,1

SPR ci
00011000
00011000
00011000
00011000
00011000
00011000
00011000
00011000
POS b 13,6

SPR cj
00011000
00011000
00011000
00011000
00011000
00011000
00011000
00011000

SPR ck
00000000
00100000
00001000
00000001
00000000
00000100
00000010
00010011
>
00000000
00100000
00000000
00000001
00100000
00000100
00000010
00010011

SPR cl
00000000
00100000
00001000
00000001
00000000
00000100
00000010
00010011
>
00000000
00100000
00000000
00000001
00100000
00000100
00000010
00010011

SPR cm
00000000
00100000
00001000
00000001
00000000
00000100
00000010
00010011
>
00000000
00100000
00000000
00000001
00100000
00000100
00000010
00010011
POS b 1,14

SPR cn
00000000
00100000
00001000
00000001
00000000
00000100
00000010
00010011
>
00000000
00100000
00000000
00000001
00100000
00000100
00000010
00010011
POS b 12,8

SPR co
00000000
00100000
00001000
00000001
00000000
00000100
00000010
00010011
>
00000000
00100000
00000000
00000001
00100000
00000100
00000010
00010011
POS b 11,14

SPR cp
00000000
00000000
01010001
01110001
01110010
01111100
00111100
00100100
POS b 8,8

SPR cq
00000000
01000010
00011000
00111100
00111100
00111100
00011001
01000000
>
00100010
00000000
00011000
00111100
00101100
00111100
01011000
00000001
POS b 14,14

SPR cr
00011100
00110110
01111110
01111111
10111100
11111100
01100010
00010011

SPR cs
00011100
00110110
01111110
01111111
10111100
11111100
01100010
00010011

SPR ct
00011100
00110110
01111110
01111111
10111100
11111100
01100010
00010011

SPR cu
00011100
00110110
01111110
01111111
10111100
11111100
01100010
00010011

SPR cv
00011100
00110110
01111110
01111111
10111100
11111100
01100010
00010011

SPR cw
00011100
00110110
01111110
01111111
10111100
11111100
01100010
00010011

SPR cx
11111100
10100100
11100000
11000011
01111110
00110110
00000000
00000000

SPR cy
11111100
10100100
11100000
11000011
01111110
00110110
00000000
00000000

SPR cz
11111100
10100100
11100000
11000011
01111110
00110110
00000000
00000000

SPR d0
11111111
00101100
00000000
00000000
00000000
00000000
00000000
00000000
POS c 8,9

SPR d1
00000000
00100000
00001000
00000001
00000000
00000100
00000010
00010011
>
00000000
00100000
00000000
00000001
00100000
00000100
00000010
00010011
POS c 8,8

SPR d2
00000000
00100000
00001000
00000001
00000000
00000100
00000010
00010011
>
00000000
00100000
00000000
00000001
00100000
00000100
00000010
00010011
POS c 15,13

SPR d3
00000000
00100000
00001000
00000001
00000000
00000100
00000010
00010011
>
00000000
00100000
00000000
00000001
00100000
00000100
00000010
00010011
POS c 15,14

SPR d4
00000000
00100000
00001000
00000001
00000000
00000100
00000010
00010011
>
00000000
00100000
00000000
00000001
00100000
00000100
00000010
00010011
POS c 14,14

SPR d5
00000000
00100000
00001000
00000001
00000000
00000100
00000010
00010011
>
00000000
00100000
00000000
00000001
00100000
00000100
00000010
00010011

SPR d6
00000000
00100000
00001000
00000001
00000000
00000100
00000010
00010011
>
00000000
00100000
00000000
00000001
00100000
00000100
00000010
00010011

SPR d7
00000000
00000000
00000000
00000000
00000000
00000000
00010000
00000000
POS c 2,6

SPR d8
00000000
00000000
00000000
00000000
00000000
00000000
00010000
00000000
POS c 3,6

SPR d9
00000000
00000000
00000000
00000000
00000000
00000000
00010000
00000000
POS c 4,6

SPR da
00000000
00000000
00000000
00000000
00000000
00000000
00010000
00000000
POS c 5,6

SPR db
00000000
00000000
00000000
00000000
00000000
00000000
00010000
00000000
POS c 6,6

SPR dc
00000000
00000000
00000000
00000000
00000000
00000000
00010000
00000000
POS c 7,6

SPR dd
00000000
00000000
00000000
00000000
00000000
00000000
00010000
00000000
POS c 8,6

SPR de
00000000
00000000
00000000
00000000
00000000
00000000
00010000
00000000
POS c 9,6

SPR df
00000000
00000000
00000000
00000000
00000000
00000000
00010000
00000000
POS c 10,6

SPR dg
00000000
00000000
00000000
00000000
00000000
00000000
00010000
00000000
POS c 11,6

SPR dh
00000000
00000000
00000000
00000000
00000000
00000000
00010000
00000000
POS c 12,6

SPR di
00000000
00000000
00000000
00000000
00000000
00000000
00010000
00000000
POS c 13,6

SPR dj
00000000
00000000
00000000
00000000
00000000
00000000
00010000
00000000
POS c 14,6

SPR dk
00000000
00000000
00000000
00000000
00000000
00000000
00010000
00000000
POS c 1,6

SPR dl
00000000
00000000
00000000
00000000
00000000
00000000
00010000
00000000
POS c 0,6

SPR dm
00000000
00000000
00000000
00000000
00000000
00000000
00010000
00000000
POS c 15,6

SPR dn
00000000
00000000
00000000
00000000
00000000
00000000
00000000
00000000

DLG a
This is not a vacation

DLG 8n
This is a shallow hole.

DLG 8o
This is a hole. There are bugs in it. 

DLG aj
What'S HapPeniNG?????? 

DLG bn
LiSTeN To ME!!!!!!!!!!

DLG bo
Mrow.

DLG bp
DIE.

DLG bq
Don't leave me.

DLG c0
DIE!

DLG cp
[The cat is frozen solid]

DLG co
Sparkling Snow

DLG cn
Glittery Snow

DLG cm
Shimmery Snow

DLG cl
Glowing Snow

DLG ck
Fluffy Snow

DLG d0
[A Frozen Corpse]

