MY PEOPLE NEED ME!

# BITSY VERSION 2.1

! ROOM_FORMAT 1

PAL 0
86,138,214
255,175,72
177,28,27

ROOM 0
0,0,0,i,0,0,0,0,0,0,0,0,0,h,0,0
h,0,0,0,0,0,0,0,0,h,0,0,0,0,0,0
h,h,i,h,h,h,i,h,h,i,h,h,h,i,h,h
0,0,0,0,0,0,g,g,g,g,g,g,g,g,g,g
0,0,0,0,0,0,g,0,0,0,0,0,0,0,0,g
0,0,0,0,0,0,g,0,c,a,b,a,b,b,b,a
0,0,0,0,0,0,g,0,d,0,g,g,g,g,g,g
0,0,0,0,0,0,g,0,d,0,e,0,0,f,0,0
0,0,0,0,0,0,g,0,d,0,0,f,0,0,e,0
0,0,0,0,0,0,g,0,d,0,0,0,0,0,0,0
0,0,0,0,0,0,g,0,d,0,e,0,0,0,f,0
0,0,0,0,0,0,g,0,d,0,f,0,e,0,0,0
0,0,0,0,0,0,g,0,d,0,0,0,0,0,0,0
0,0,0,0,0,0,g,0,d,0,e,f,0,0,0,0
0,0,0,0,0,0,g,0,d,0,0,0,0,f,e,0
0,0,0,0,0,0,g,0,d,0,0,0,0,0,0,0
WAL g,d,c,b,a
EXT 7,15 1 7,0

ROOM 1
0,0,0,0,0,0,g,0,d,0,0,0,0,0,0,0
0,0,0,0,0,0,g,0,d,0,0,0,0,0,f,0
0,0,0,0,0,0,g,0,d,0,f,0,0,0,0,0
0,0,0,0,0,0,g,0,d,0,e,0,0,0,0,0
0,0,0,0,0,0,g,0,d,0,0,0,0,f,0,0
0,0,0,0,0,0,g,0,j,n,0,0,0,0,0,0
0,0,0,0,0,0,g,0,g,k,0,f,0,0,0,0
0,0,0,0,0,0,g,0,g,d,0,0,0,0,0,0
0,0,0,0,0,0,g,0,g,d,0,0,0,0,e,0
0,0,0,0,0,0,g,0,g,d,0,0,0,0,0,0
0,0,0,0,0,0,g,0,g,d,0,e,0,0,0,0
0,0,0,0,0,0,g,0,g,d,0,0,0,0,0,0
0,0,0,0,0,0,g,0,g,j,n,0,e,0,0,0
0,0,0,0,0,0,g,0,g,0,m,0,0,0,f,0
0,0,0,0,0,0,g,0,g,0,d,0,f,0,0,0
0,0,0,0,0,0,g,0,g,0,d,0,0,0,0,0
WAL k,l,g,d,j
EXT 7,15 2 7,0

ROOM 2
0,0,0,0,0,0,g,0,g,0,d,0,e,0,0,0
0,0,0,0,0,0,g,0,g,0,d,0,0,0,f,0
0,0,0,0,0,0,g,0,g,0,d,0,0,0,0,e
0,0,0,0,0,0,g,0,g,0,j,n,f,0,0,0
0,0,0,0,0,0,g,0,g,0,0,m,0,e,0,0
0,0,0,0,0,0,g,0,g,0,0,d,0,0,0,f
0,0,0,0,0,0,g,0,g,0,0,j,n,0,0,0
0,0,0,0,0,0,g,0,g,0,0,0,m,0,f,0
0,0,0,0,0,0,g,0,g,0,0,0,d,0,0,0
0,0,0,0,0,0,g,0,g,0,0,0,d,0,0,0
0,0,0,0,0,0,g,0,g,0,0,0,d,f,0,e
0,0,0,0,0,0,g,0,g,0,0,0,d,0,0,0
0,0,0,0,0,0,g,0,g,0,0,0,d,0,0,0
0,0,0,0,0,0,g,0,g,0,0,0,d,0,f,0
0,0,0,0,0,0,g,0,g,0,0,0,d,0,e,0
0,0,0,0,0,0,g,0,g,0,0,0,d,0,0,0
WAL g
EXT 7,15 3 7,0

ROOM 3
0,0,0,0,0,0,g,0,g,0,0,0,d,0,0,f
0,0,0,0,0,0,g,0,g,0,0,0,d,f,0,0
0,0,0,0,0,0,g,0,g,0,0,0,d,0,e,0
0,0,0,0,0,0,g,0,g,0,0,0,j,n,0,0
0,0,0,0,0,0,g,0,g,0,0,0,0,m,0,e
0,0,0,0,0,0,g,0,g,0,0,0,0,j,n,f
0,0,0,0,0,0,g,0,g,0,0,0,0,0,k,0
0,0,0,0,0,0,g,0,g,0,0,0,0,0,j,n
0,0,0,0,0,0,g,0,g,0,0,0,0,0,0,m
0,0,0,0,0,0,g,0,g,0,0,0,0,0,0,j
0,0,0,0,0,0,g,0,g,0,0,0,0,0,0,0
0,0,0,0,0,0,g,0,g,0,0,0,0,0,0,0
0,0,0,0,0,0,g,0,g,0,0,0,0,0,0,0
0,0,0,0,0,0,g,0,g,0,0,0,0,0,0,0
0,0,0,0,0,0,g,0,g,0,0,0,0,0,0,0
0,0,0,0,0,0,g,0,g,0,0,0,0,0,0,0
WAL l,g
EXT 7,15 5 7,0

ROOM 4
0,0,0,0,0,0,g,0,g,0,0,0,0,0,0,0
0,0,0,0,0,0,g,0,g,0,0,0,0,0,0,0
0,0,0,0,0,0,g,0,g,0,0,0,0,0,0,0
0,0,0,0,0,0,g,0,g,0,0,0,0,0,0,0
0,0,0,0,0,0,g,0,g,0,0,0,0,0,0,0
0,0,0,0,0,0,g,0,g,0,0,0,0,0,0,0
0,0,0,0,0,0,g,0,g,0,0,0,0,0,0,0
0,0,0,0,0,0,g,0,g,0,0,0,0,0,0,0
0,0,0,0,0,0,g,0,g,0,0,0,0,0,0,0
0,0,0,0,0,0,g,0,g,0,0,0,0,0,0,0
0,0,0,0,0,0,g,0,g,0,0,0,0,0,0,0
0,0,0,0,0,0,g,0,g,0,0,0,0,0,0,0
0,0,0,0,0,0,g,0,g,0,0,0,0,0,0,0
0,0,0,0,0,0,g,0,g,0,0,0,0,0,0,0
0,0,0,0,0,0,g,0,g,0,0,0,0,0,0,0
0,0,0,0,0,0,g,0,g,0,0,0,0,0,0,0
WAL l,g

ROOM 5
0,i,0,0,0,0,g,0,g,0,0,0,0,0,0,0
0,0,0,0,0,0,g,0,g,0,0,h,0,0,0,0
0,0,0,0,0,h,g,0,i,0,0,0,0,0,i,0
0,0,0,0,0,0,g,0,g,0,0,0,0,0,0,0
i,h,h,i,h,i,i,h,h,h,h,i,h,h,h,h
0,0,0,0,0,0,g,0,g,0,0,0,0,0,0,0
0,0,0,0,0,0,g,0,g,0,0,0,0,0,0,0
0,0,0,0,0,0,g,0,g,0,0,0,0,0,0,0
0,0,0,0,0,0,g,0,g,0,0,0,0,0,0,0
1l,1h,1j,0,1b,1c,1e,0,g,0,0,0,0,1l,1h,1j
1k,1g,1i,0,18,1a,1d,0,g,0,z,y,0,1k,1g,1i
0,1f,0,10,16,19,17,0,g,0,w,x,0,0,1f,0
o,o,o,o,o,o,p,12,11,o,o,o,o,o,o,o
0,0,0,0,0,0,s,q,r,0,0,0,0,0,0,0
0,0,0,0,0,0,t,v,u,0,0,0,0,0,0,0
0,0,0,0,0,0,0,0,0,0,0,0,0,0,0,0
WAL p,11,o,t,u,v,y,z,12,g,l,1d,17,1e
EXT 7,9 6 7,9

ROOM 6
0,0,0,0,0,0,0,0,0,0,0,0,0,0,0,0
0,0,0,0,0,0,0,0,0,0,0,0,0,0,0,0
0,0,0,0,0,0,0,0,0,0,0,0,0,0,0,0
0,0,0,0,0,0,0,0,0,0,0,0,0,0,0,0
0,0,0,0,0,0,0,0,0,0,0,0,0,0,0,0
0,0,0,0,0,0,0,0,0,0,0,0,0,0,0,0
0,0,0,0,0,0,0,0,0,0,0,0,0,0,0,0
0,0,0,0,0,0,g,g,g,0,0,0,0,0,0,0
0,0,0,0,0,0,g,0,g,0,0,0,0,0,0,0
0,0,0,0,0,0,g,0,g,0,0,0,0,0,0,0
0,0,0,0,0,0,g,0,g,0,0,0,0,0,0,0
0,0,0,0,0,0,g,0,g,0,0,0,0,0,0,0
0,0,0,0,0,0,13,15,14,0,0,0,0,0,0,0
0,0,0,0,0,0,s,q,r,0,0,0,0,0,0,0
0,0,0,0,0,0,t,v,u,0,0,0,0,0,0,0
0,0,0,0,0,0,0,0,0,0,0,0,0,0,0,0
WAL s,g,l
EXT 7,12 7 7,13

ROOM 7
0,0,0,0,0,0,g,0,g,0,0,0,0,0,h,0
0,0,i,0,0,0,g,0,g,0,0,0,0,0,0,0
0,0,0,0,0,h,g,0,g,0,0,0,0,0,0,0
0,0,0,0,0,0,g,0,g,0,0,0,i,0,0,0
h,h,i,h,h,h,i,i,h,h,h,i,h,h,h,i
0,0,0,0,0,0,g,0,g,0,0,0,0,0,0,0
0,0,0,0,0,0,g,0,g,0,0,0,0,0,0,0
0,0,0,0,0,0,g,0,g,0,0,0,0,0,0,0
0,0,0,0,0,0,g,0,g,0,0,0,0,0,0,0
1l,1h,1j,0,1b,1c,1e,0,g,0,0,0,0,1l,1h,1j
1k,1g,1i,0,18,1a,1d,0,g,0,z,y,0,1k,1g,1i
0,1f,0,10,16,19,17,0,g,0,w,x,0,0,1f,0
o,o,o,o,o,o,p,12,11,o,o,o,o,o,o,o
0,0,0,0,0,0,s,q,r,0,0,0,0,0,0,0
l,l,l,l,l,l,t,v,u,l,l,l,l,l,l,l
0,0,0,0,0,0,0,0,0,0,0,0,0,0,0,0
WAL p,11,o,t,u,v,y,z,12,g,l
EXT 7,9 6 7,9

TIL 10
00000000
01111100
01000100
01101100
00010000
00010000
00010000
00010000

TIL 11
11111111
00000000
00000000
00000001
00000010
11000100
00111000
00001000

TIL 12
11111111
00000000
00000001
00000010
01101110
00000000
00000100
00000100

TIL 13
00000000
00000000
00000000
00100000
00010001
00001000
00001100
00010010

TIL 14
00000000
00000000
00000000
00000001
00000010
11000100
00111000
00001000

TIL 15
00000000
00000000
00000001
00000010
01101110
00000000
00000100
00000100

TIL 16
10000000
10000000
10001100
10010010
10010010
10001100
10000000
10000000

TIL 17
00000001
00000001
00011001
00100101
00100101
00011001
00000001
00000001

TIL 18
10000010
10000001
10000000
10000000
10000000
10000000
10000000
10000000

TIL 19
00100100
00011000
00000000
00000000
00011000
00111100
00111100
00111100

TIL a
11011111
00100110
00000010
01001000
00001000
00000000
00000000
00000000

TIL b
11110111
01011000
01010000
10010000
10000000
00000000
00000000
00000000

TIL c
00110111
01001011
01000001
01001001
00100000
00011010
00010010
00010010

TIL d
00010010
00010100
00010001
00001000
00010010
00010000
00011001
00001000

TIL e
00000000
00000010
01001010
00001010
01011000
00001010
01001000
01000000

TIL f
00000000
10001010
10100010
10001010
10101000
00100100
00100000
00100000

TIL g
00000000
00000000
00000000
00000000
00000000
00000000
00000000
00000000

TIL h
00000000
01010000
00100101
00000010
10010100
01101011
00000000
00000000

TIL i
00000101
00000010
01001000
00110000
10000100
01111011
00000000
00000000

TIL j
00001000
00001001
00001100
00000010
00000100
00000010
00000010
00000001

TIL k
10000100
01110001
00001000
00001010
00000100
00000100
00000100
00001000

TIL l
00000000
00000000
00000000
00000000
00000000
00000000
00000000
00000000

TIL m
10100001
01001000
00100000
00010010
00010000
00001000
00001010
00010000

TIL n
00000000
01000000
00000000
00100000
00000000
10010000
01000100
00000000

TIL o
11111111
00000000
00000000
00000000
00000000
00000000
00000000
00000000

TIL p
11111111
00000000
00000000
00100000
00010001
00001000
00001100
00010010

TIL q
10000001
00110100
01000010
01000010
00101100
10000001
01001100
00000000

TIL r
01001000
10000100
01000100
01000000
00110111
10000100
00000000
00001000

TIL s
00010000
00100001
00100010
00000010
00100000
00000101
00101000
00010000

TIL t
00011000
00100100
00000001
10000000
00000000
00000000
00000000
00000000

TIL u
00010000
00100000
10000000
00000000
00100000
00000000
00000000
00000000

TIL v
00010010
00000001
00010000
01110100
00010000
00010000
00000000
00000000

TIL w
10000000
10000000
10000000
10000000
10000001
10000011
10000011
10000011

TIL x
00000001
00011001
00100101
00100101
10011001
11000001
11000001
11000001

TIL y
00000000
00000000
00000000
11000000
00110000
10001000
01000100
10000011

TIL z
00000000
00000000
00000000
00000011
00001100
00010001
00100010
11000001

TIL 1a
00100100
11000011
00000000
00000000
00000000
00000000
00011000
00100100

TIL 1b
00000000
00000000
00000111
00001000
00010000
00100000
01000001
10000010

TIL 1c
00000000
00000000
11111111
00000000
00000000
00000000
11000011
00100100

TIL 1d
01000001
10000001
00000001
00000001
00000001
00000001
00000001
00000001

TIL 1e
00000000
00000000
11100000
00010000
00001000
00000100
10000010
01000001

TIL 1f
00011000
00011000
00011000
00011000
00011000
00011000
00011000
00111100

TIL 1g
00000100
00001000
10010001
01110110
00111100
00011000
00011000
00011000

TIL 1h
01001000
01001001
01010001
00100011
10010010
00001010
00000100
00000100

TIL 1i
00100000
01000000
10100000
00011110
00000000
00000000
00000000
00000000

TIL 1j
00000000
00000000
00000000
00000100
00001000
00001000
00001000
00010000

TIL 1k
00001000
00000110
01110101
00001000
00110000
00000000
00000000
00000000

TIL 1l
00000000
00000000
00000100
01000100
00101000
00010001
00011010
00000100

SPR 10
00000000
00000000
00000000
11100000
01010000
10101000
01010100
10101100
POS 6 4,3

SPR 11
01010100
10101100
01011000
10110000
11100000
00000000
00000000
00000000
POS 6 4,5

SPR 12
00110101
00101010
00110101
00101010
00110101
00101010
00110101
00101010
POS 6 5,4

SPR 13
00110101
00101010
00110101
00101010
00110101
00101010
00110101
00101010
POS 6 5,5

SPR 14
01010100
10101100
01010100
10101100
01010100
10101100
01010100
10101100
POS 6 8,4

SPR 15
01010100
10101100
01010100
10101100
01010100
10101100
01010100
10101100
POS 6 8,5

SPR 16
11010101
01101010
00110101
00101010
00110101
00101010
00110101
00101010
POS 6 7,4

SPR 17
01010101
10101010
01010100
10101100
01010100
10101100
01010100
10101100
POS 6 6,4

SPR 18
01010100
10101100
01010100
10101100
01010100
10101100
01010110
10101011
POS 6 6,5

SPR 19
00110101
00101010
00110101
00101010
00110101
00101010
01010101
10101010
POS 6 7,5

SPR 20
00100001
00101101
00101101
00011110
00011100
00111000
00111000
01001000
POS 7 13,14

SPR 21
00000000
00001000
01101000
01101000
01111000
11111111
10011100
01001110
POS 7 4,14

SPR 22
00000000
00011001
00011001
00111110
11011100
00011100
00010100
00010100
POS 5 1,14

SPR 23
00000000
00011001
00011001
01111110
10111100
10111100
00111100
00100100
POS 5 10,14

SPR 24
00011000
00011000
00111100
01011010
01011000
00011000
00100100
01000100
POS 5 3,13

SPR 25
00000000
00011000
11110111
00110100
00111100
00011000
00000000
00000000
POS 3 2,6

SPR 26
11111000
00100000
11100000
00000000
00000000
00000000
00000000
00000000
POS 3 3,6

SPR 27
00011111
00000100
00000111
00000000
00000000
00000000
00000000
00000000
POS 3 1,6

SPR 28
00000000
00000000
01110111
01010000
01110001
01010010
01110111
00000000
POS 3 1,5

SPR 29
00000000
00000000
10111101
10000100
00001000
00010000
10111101
00000000
POS 3 2,5

SPR A
00011000
00011000
00111100
01111110
10111101
10111101
00100100
00100100
POS 0 14,4

SPR a
00000000
00001100
10001111
11111000
01111111
00111110
11110000
00000000
POS 0 3,5

SPR b
00110011
11110110
00011110
00111100
01111100
11000011
10000000
00000000
POS 0 4,9

SPR c
00000001
00000010
01100110
11111110
00011100
00001100
00000010
00000000
POS 1 2,5

SPR d
00000010
00001100
10001101
11100111
01111110
00011100
00011000
00110000
POS 1 4,9

SPR e
01101011
00011100
00001100
00001100
00001100
00001100
00001100
01111111
POS 1 13,7

SPR f
00001100
00010011
00010000
00000000
00000000
00000000
00000000
00000000
POS 1 13,8

SPR g
00000000
00000000
00100001
10100010
11000010
10100010
10010100
01010101
POS 1 13,6

SPR h
00100110
11000111
00011100
01111100
00011100
00010000
01100000
10000000
POS 1 14,6

SPR i
00000000
00110000
11110000
00011000
00011100
00011111
00001110
00000100
POS 1 12,2

SPR j
00000000
00001100
00001111
00001000
00111000
11111000
01110000
00010000
POS 1 14,11

SPR k
00011000
00011000
01011010
00111100
00111000
00111000
00111100
01011010
POS 2 14,5

SPR l
00011000
00001000
00001000
01010000
00100000
00000000
00000000
00000000
POS 2 14,6

SPR m
00000001
00110010
11110110
00011110
00001100
00001110
00000111
00000000
POS 2 1,4

SPR n
10000000
10000000
11000000
01100110
01110111
00111100
11111000
01110000
POS 2 10,9

SPR o
00000001
00110010
11110110
00111110
01111100
11101111
00000000
00000000
POS 4 13,7

SPR p
00010000
10011001
10011011
11010011
01111110
01111110
00111000
00010000
POS 4 2,3

SPR q
00000000
00011000
00011000
00111100
01011010
01011010
00011000
00100100
POS 5 12,13

SPR r
00110101
00101010
00110101
00101010
00110101
00101010
00110101
00111111
POS 6 2,6

SPR s
01010100
10101100
01010100
10101100
01010100
10101100
01010100
11111100
POS 6 3,6

SPR t
00110101
00101010
00110101
00101010
00110101
00101010
00110101
00101010
POS 6 2,5

SPR u
01010101
10101010
01010101
10101010
01010111
10101100
01010100
10101100
POS 6 3,5

SPR v
00110101
00101010
00110101
00101010
00110101
00101010
00110101
00101010
POS 6 2,4

SPR w
01010101
10111110
01100011
10100010
01100011
10100010
01011101
10101010
POS 6 3,4

SPR x
00000000
00000000
00000000
00111111
00110101
00101010
00110101
00101010
POS 6 2,3

SPR y
00000000
00000000
00000000
11111111
01010101
10101010
01010101
10101010
POS 6 3,3

SPR z
01010100
10101100
01010100
10101100
01010100
10101100
01010100
10101100
POS 6 4,4

SPR 1a
00000000
00000000
00000000
11100000
01010000
10101000
01010100
10101100
POS 6 8,3

SPR 1b
01010100
10101100
01011000
10110000
11100000
00000000
00000000
00000000
POS 6 8,6

SPR 1c
00110101
00101010
00010101
00001010
00000101
00000011
00000000
00000000
POS 6 5,6

SPR 1d
00000000
00000000
00000000
00000111
00001101
00011010
00110101
00101010
POS 6 5,3

SPR 1e
00000000
00000000
00000000
11111111
01010101
10101010
01010101
10101010
POS 6 6,3

SPR 1f
00000000
00000000
00000000
11111111
01010101
10101010
01010101
10101010
POS 6 7,3

SPR 1g
01010101
10101010
01010101
10101010
01010101
11111111
00000000
00000000
POS 6 6,6

SPR 1h
01010101
10101010
01010101
10101010
01010101
11111111
00000000
00000000
POS 6 7,6

SPR 1i
01010101
01101010
01010101
01101010
01010101
01101010
01010101
01101010
POS 6 9,4

SPR 1j
01010101
01101010
01010101
01101010
01010101
01101010
01010101
01101010
POS 6 9,5

SPR 1k
01010101
01101010
01010101
00101010
00110101
00011011
00001110
00000000
POS 6 9,6

SPR 1l
01010101
10101010
01110101
11001010
10000101
00000011
00000000
00000000
POS 6 10,6

SPR 1m
01010101
10101010
01011101
10100010
01000001
10000000
00000000
00000000
POS 6 11,6

SPR 1n
01010110
10101010
01010110
10101100
01011100
10101000
01110000
00000000
POS 6 12,6

SPR 1o
01010110
10101010
01010110
10101010
01010110
10101010
01010110
10101010
POS 6 12,5

SPR 1p
01010110
10101010
01010110
10101010
01010110
10101010
01010110
10101010
POS 6 12,4

SPR 1q
01100000
10100001
01100011
10100110
01101101
10111010
01010101
10101010
POS 6 10,5

SPR 1r
00000101
10000110
01000101
10100110
01010101
10101110
01010101
10101010
POS 6 11,5

SPR 1s
01100000
10100000
01100000
10100000
01100000
10100000
01100000
10100000
POS 6 10,4

SPR 1t
00000101
00000110
00000101
00000110
00000101
00000110
00000101
00000110
POS 6 11,4

SPR 1u
00000000
00000000
00000000
00001111
00010101
00101010
01010101
01101010
POS 6 9,3

SPR 1v
00000000
00000000
00000000
11110000
01011000
10101100
01010110
10101010
POS 6 12,3

SPR 1w
00000000
00000000
00000000
00000011
00000101
00000110
00000101
00000110
POS 6 11,3

SPR 1x
00000000
00000000
00000000
11000000
01100000
10100000
01100000
10100000
POS 6 10,3

SPR 1y
01000001
01011001
00111010
00011100
00011100
00011100
00011100
00010100
POS 7 11,13

SPR 1z
00110000
00110000
01111111
10111000
10111000
10011100
00010100
00010100
POS 7 2,13

SPR 2a
00000000
00000000
11101111
00100001
01000010
10000100
11101111
00000000
POS 3 3,5

DLG 21
What the hell are you doing???

DLG a
I'm a cat

DLG 1y
Oh Jesus!!

DLG 1z
Holy fuck!!

