pru

# BITSY VERSION 5.1

! ROOM_FORMAT 1

DEFAULT_FONT unicode_european_small

PAL 0
224,219,205
168,159,148
112,107,102

ROOM 0
0,0,0,0,0,0,0,0,0,0,0,0,0,0,0,0
0,a,a,a,a,a,a,a,a,a,a,a,a,a,a,0
0,a,0,0,c,0,0,h,h,0,0,c,0,0,a,0
0,a,0,0,0,0,0,h,h,0,0,0,0,0,a,0
0,a,0,0,0,0,0,h,h,0,0,0,b,0,a,0
0,a,0,0,0,0,0,h,h,0,0,0,0,0,a,0
0,a,0,0,0,0,0,g,g,0,0,0,0,0,a,0
0,a,d,d,d,d,f,e,e,f,d,d,d,d,a,0
0,a,d,d,d,d,f,e,e,f,d,d,d,d,a,0
0,a,0,0,0,0,0,g,g,0,0,0,0,0,a,0
0,a,0,0,0,0,0,h,h,0,0,0,0,0,a,0
0,a,0,0,0,0,0,h,h,0,0,0,0,0,a,0
0,a,0,0,0,0,0,h,h,0,0,0,0,0,a,0
0,a,0,0,0,0,0,h,h,0,0,0,0,0,a,0
0,a,a,a,a,a,a,a,a,a,a,a,a,a,a,0
0,0,0,0,0,0,0,0,0,0,0,0,0,0,0,0
PAL 0

TIL a
11111111
10000001
10000001
10011001
10011001
10000001
10000001
11111111
WAL true

TIL b
00000000
00000000
00000000
00000000
00000000
00000101
00000000
00001010
>
00000000
00000000
00000000
00000000
00000000
00000000
00000000
00000000
NAME alpiste

TIL c
00000000
11111111
11111111
11111111
01000010
11111111
11111111
01000010
NAME banco
WAL true

TIL d
00000000
11111111
11111111
11111111
00010001
11111111
11111111
11111111

TIL e
11111110
11111111
11111111
11111111
11111111
11111111
11111111
11111111

TIL f
00000000
11111111
10000001
11111111
10000001
11111111
10000001
11111111

TIL g
11111110
11111110
10101010
10101010
10101010
10101010
10101010
11111110

TIL h
11101110
11101110
11101110
11111110
11101110
11101110
11101110
11111110

SPR A
00000000
00001110
00001011
00111110
01111110
01111110
11111100
00010100
>
00000000
11001110
01101011
01111110
00111110
01111110
11111100
00010100
POS 0 5,12

SPR a
00000000
00000000
01010001
01110001
01110010
01111100
00111100
00100100
>
00000000
00000000
01010100
01110100
01110010
01111100
00111100
00100100
NAME gato
DLG SPR_0
POS 0 12,11

SPR b
00000000
01110000
11010000
01111100
00111110
00111111
00011100
00010100
>
00000000
00111000
01101000
00111100
00111110
00111111
00011100
00010100
NAME pombaE
DLG SPR_1
POS 0 4,5

SPR c
00000000
00001110
00001011
00111110
01111110
11111110
00011100
00010100
>
00001110
00001011
00001110
00111110
01111110
11111110
00011100
00010100
NAME ponbaD
DLG SPR_2
POS 0 2,13

SPR d
00011000
00011000
00011000
00111100
01011000
00011000
00100100
00000100
>
00011000
00011000
00011000
00111100
00011010
00011000
00100100
00100000
NAME pessoa
DLG SPR_3
POS 0 6,2

SPR e
00011000
00011000
00011000
00111101
01011011
00011000
00100100
00100100
>
00011000
00011000
00011000
00011010
00011110
00011000
00100100
00100100
NAME pessoaAlpiste
DLG SPR_5
POS 0 13,4

SPR f
00000000
00011100
00010110
00111100
01111100
11111100
00111000
00101000
>
00000000
00000000
01000000
01100000
01111111
01111101
01111111
00101010
DLG SPR_4
POS 0 11,4

ITM 0
00000000
00000000
00000000
00111100
01100100
00100100
00011000
00000000
NAME tea
DLG ITM_0

DLG SPR_0
PRUUUUUUUUU PRUUUUUU PRU PRUUUUUUUU PRU PRUUUUUUUUUUUU PRU

DLG ITM_0
You found a nice warm cup of tea

DLG SPR_1
pruuuu

DLG SPR_2
pruuuuuuu

DLG SPR_3
pru

DLG SPR_4
pruuuuu pru pru

DLG SPR_5
pruuuuuuuu pruuuuuuuuuuuuuuuuuuu

VAR a
42

FONT unicode_european_small
SIZE 6 9
CHAR 0
000000
001010
010000
000010
010000
000010
010100
000000
000000
CHAR 32
000000
000000
000000
000000
000000
000000
000000
000000
000000
CHAR 33
000000
001000
001000
001000
001000
000000
001000
000000
000000
CHAR 34
000000
010100
010100
010100
000000
000000
000000
000000
000000
CHAR 35
000000
010100
010100
111110
010100
111110
010100
010100
000000
CHAR 36
001000
011100
101010
101000
011100
001010
101010
011100
001000
CHAR 37
010000
101010
010010
000100
001000
010010
010101
000010
000000
CHAR 38
000000
011000
100100
100100
011000
100110
100100
011010
000000
CHAR 39
000000
001000
001000
001000
000000
000000
000000
000000
000000
CHAR 40
000000
000100
001000
001000
001000
001000
001000
000100
000000
CHAR 41
000000
001000
000100
000100
000100
000100
000100
001000
000000
CHAR 42
000000
000000
100010
010100
111110
010100
100010
000000
000000
CHAR 43
000000
000000
001000
001000
111110
001000
001000
000000
000000
CHAR 44
000000
000000
000000
000000
000000
001100
000100
000100
001000
CHAR 45
000000
000000
000000
000000
111110
000000
000000
000000
000000
CHAR 46
000000
000000
000000
000000
000000
001100
001100
000000
000000
CHAR 47
000000
000010
000010
000100
001000
010000
010000
000000
000000
CHAR 48
000000
001100
010010
010010
010010
010010
001100
000000
000000
CHAR 49
000000
001000
011000
001000
001000
001000
011100
000000
000000
CHAR 50
000000
001100
010010
000010
000100
001000
011110
000000
000000
CHAR 51
000000
011110
000100
001100
000010
000010
011100
000000
000000
CHAR 52
000000
000100
001100
010100
100100
111110
000100
000000
000000
CHAR 53
000000
011110
010000
011100
000010
000010
011100
000000
000000
CHAR 54
000000
001100
010000
011100
010010
010010
001100
000000
000000
CHAR 55
000000
011110
000010
000010
000100
001000
001000
000000
000000
CHAR 56
000000
001100
010010
001100
010010
010010
001100
000000
000000
CHAR 57
000000
001100
010010
010010
001110
000010
001100
000000
000000
CHAR 58
000000
000000
001100
001100
000000
001100
001100
000000
000000
CHAR 59
000000
000000
001100
001100
000000
001100
000100
000100
001000
CHAR 60
000000
000000
000110
011000
100000
011000
000110
000000
000000
CHAR 61
000000
000000
000000
111110
000000
111110
000000
000000
000000
CHAR 62
000000
000000
110000
001100
000010
001100
110000
000000
000000
CHAR 63
001100
010010
000010
001100
001000
000000
001000
000000
000000
CHAR 64
000000
011100
100100
101010
101100
100000
011100
000000
000000
CHAR 65
000000
001000
010100
100010
111110
100010
100010
000000
000000
CHAR 66
000000
111100
100010
111100
100010
100010
111100
000000
000000
CHAR 67
000000
001100
010010
010000
010000
010010
001100
000000
000000
CHAR 68
000000
011100
010010
010010
010010
010010
011100
000000
000000
CHAR 69
000000
011110
010000
011100
010000
010000
011110
000000
000000
CHAR 70
000000
011110
010000
011100
010000
010000
010000
000000
000000
CHAR 71
000000
001100
010010
010000
010110
010010
001100
000000
000000
CHAR 72
000000
010010
010010
011110
010010
010010
010010
000000
000000
CHAR 73
000000
011100
001000
001000
001000
001000
011100
000000
000000
CHAR 74
000000
001110
000100
000100
000100
100100
011000
000000
000000
CHAR 75
000000
010010
010100
011000
010100
010010
010010
000000
000000
CHAR 76
000000
010000
010000
010000
010000
010000
011110
000000
000000
CHAR 77
000000
100010
110110
101010
101010
100010
100010
000000
000000
CHAR 78
000000
010010
011010
010110
010010
010010
010010
000000
000000
CHAR 79
000000
011100
100010
100010
100010
100010
011100
000000
000000
CHAR 80
000000
011100
010010
010010
011100
010000
010000
000000
000000
CHAR 81
000000
001100
010010
010010
011010
010110
001100
000010
000000
CHAR 82
000000
011100
010010
010010
011100
010010
010010
000000
000000
CHAR 83
000000
001100
010010
001000
000100
010010
001100
000000
000000
CHAR 84
000000
111110
001000
001000
001000
001000
001000
000000
000000
CHAR 85
000000
010010
010010
010010
010010
010010
001100
000000
000000
CHAR 86
000000
010010
010010
010010
011110
001100
001100
000000
000000
CHAR 87
000000
100010
100010
101010
101010
110110
100010
000000
000000
CHAR 88
000000
100010
010100
001000
001000
010100
100010
000000
000000
CHAR 89
000000
100010
100010
010100
001000
001000
001000
000000
000000
CHAR 90
000000
011110
000010
000100
001000
010000
011110
000000
000000
CHAR 91
000000
011100
010000
010000
010000
010000
011100
000000
000000
CHAR 92
000000
010000
010000
001000
000100
000010
000010
000000
000000
CHAR 93
000000
011100
000100
000100
000100
000100
011100
000000
000000
CHAR 94
000000
001000
010100
100010
000000
000000
000000
000000
000000
CHAR 95
000000
000000
000000
000000
000000
000000
000000
000000
111110
CHAR 96
000000
001000
000100
000000
000000
000000
000000
000000
000000
CHAR 97
000000
000000
000000
001110
010010
010010
001110
000000
000000
CHAR 98
000000
010000
010000
011100
010010
010010
011100
000000
000000
CHAR 99
000000
000000
000000
001110
010000
010000
001110
000000
000000
CHAR 100
000000
000010
000010
001110
010010
010010
001110
000000
000000
CHAR 101
000000
000000
000000
001100
010110
011000
001110
000000
000000
CHAR 102
000000
000100
001010
001000
011100
001000
001000
000000
000000
CHAR 103
000000
000000
000000
001100
010010
010010
001110
000010
001100
CHAR 104
000000
010000
010000
011100
010010
010010
010010
000000
000000
CHAR 105
000000
001000
000000
011000
001000
001000
011100
000000
000000
CHAR 106
000000
000100
000000
001100
000100
000100
000100
010100
001000
CHAR 107
000000
010000
010000
010100
011000
010100
010010
000000
000000
CHAR 108
000000
011000
001000
001000
001000
001000
011100
000000
000000
CHAR 109
000000
000000
000000
110100
101010
101010
100010
000000
000000
CHAR 110
000000
000000
000000
011100
010010
010010
010010
000000
000000
CHAR 111
000000
000000
000000
001100
010010
010010
001100
000000
000000
CHAR 112
000000
000000
000000
011100
010010
010010
011100
010000
010000
CHAR 113
000000
000000
000000
001110
010010
010010
001110
000010
000010
CHAR 114
000000
000000
000000
010100
011010
010000
010000
000000
000000
CHAR 115
000000
000000
000000
001110
011000
000110
011100
000000
000000
CHAR 116
000000
001000
001000
011100
001000
001010
000100
000000
000000
CHAR 117
000000
000000
000000
010010
010010
010010
001110
000000
000000
CHAR 118
000000
000000
000000
010010
010010
001100
001100
000000
000000
CHAR 119
000000
000000
000000
100010
101010
101010
010100
000000
000000
CHAR 120
000000
000000
000000
010010
001100
001100
010010
000000
000000
CHAR 121
000000
000000
000000
010010
010010
010010
001110
010010
001100
CHAR 122
000000
000000
000000
011110
000100
001000
011110
000000
000000
CHAR 123
000100
001000
001000
010000
001000
001000
000100
000000
000000
CHAR 124
000000
001000
001000
001000
001000
001000
001000
001000
000000
CHAR 125
010000
001000
001000
000100
001000
001000
010000
000000
000000
CHAR 126
000000
000000
001010
010100
000000
000000
000000
000000
000000
CHAR 160
000000
000000
000000
000000
000000
000000
000000
000000
000000
CHAR 161
000000
001000
000000
001000
001000
001000
001000
000000
000000
CHAR 162
000000
000000
000100
001110
010100
010100
001110
000100
000000
CHAR 163
000000
001100
010010
010000
111100
010000
010000
111110
000000
CHAR 164
000000
000000
101010
010100
100010
010100
101010
000000
000000
CHAR 165
000000
100010
010100
111110
001000
111110
001000
000000
000000
CHAR 166
000000
001000
001000
001000
000000
001000
001000
001000
000000
CHAR 167
000000
001110
010000
001100
010010
001100
000010
011100
000000
CHAR 168
000000
010100
000000
000000
000000
000000
000000
000000
000000
CHAR 169
011110
100001
100101
101001
100101
100001
011110
000000
000000
CHAR 170
000000
001100
010100
001100
000000
011100
000000
000000
000000
CHAR 171
000000
000000
001010
010100
101000
010100
001010
000000
000000
CHAR 172
000000
000000
000000
000000
011110
000010
000010
000000
000000
CHAR 173
000000
000000
000000
000000
011110
000000
000000
000000
000000
CHAR 174
011110
100001
101101
101001
101001
100001
011110
000000
000000
CHAR 175
000000
011110
000000
000000
000000
000000
000000
000000
000000
CHAR 176
000000
000000
001100
010010
001100
000000
000000
000000
000000
CHAR 177
000000
001000
001000
111110
001000
001000
000000
111110
000000
CHAR 178
000000
001000
010100
000100
001000
011100
000000
000000
000000
CHAR 179
000000
011000
000100
001000
000100
011000
000000
000000
000000
CHAR 180
000000
000100
001000
000000
000000
000000
000000
000000
000000
CHAR 181
000000
000000
000000
010010
010010
010110
011010
010000
000000
CHAR 182
000000
011110
111010
111010
011010
001010
001010
000000
000000
CHAR 183
000000
000000
000000
000000
001000
000000
000000
000000
000000
CHAR 184
000000
000000
000000
000000
000000
000000
000000
000100
001000
CHAR 185
000000
001000
011000
001000
001000
011100
000000
000000
000000
CHAR 186
000000
001000
010100
001000
000000
011100
000000
000000
000000
CHAR 187
000000
000000
101000
010100
001010
010100
101000
000000
000000
CHAR 188
010000
110000
010000
010100
011100
001100
011110
000100
000000
CHAR 189
010000
110000
010000
010100
011010
000010
000100
001110
000000
CHAR 190
110000
001000
010000
001100
111100
001100
011110
000100
000000
CHAR 191
000100
000000
000100
001100
010000
010010
001100
000000
000000
CHAR 192
010000
001000
001000
010100
011100
100010
100010
000000
000000
CHAR 193
000100
001000
001000
010100
011100
100010
100010
000000
000000
CHAR 194
001000
010100
001000
010100
011100
100010
100010
000000
000000
CHAR 195
001010
010100
001000
010100
011100
100010
100010
000000
000000
CHAR 196
010100
000000
001000
010100
011100
100010
100010
000000
000000
CHAR 197
001000
010100
001000
010100
011100
100010
100010
000000
000000
CHAR 198
000000
011110
101000
111100
101000
101000
101110
000000
000000
CHAR 199
000000
001100
010010
010000
010000
010010
001100
000100
001000
CHAR 200
001000
000100
011110
010000
011100
010000
011110
000000
000000
CHAR 201
000100
001000
011110
010000
011100
010000
011110
000000
000000
CHAR 202
000100
001010
011110
010000
011100
010000
011110
000000
000000
CHAR 203
001010
000000
011110
010000
011100
010000
011110
000000
000000
CHAR 204
010000
001000
011100
001000
001000
001000
011100
000000
000000
CHAR 205
000100
001000
011100
001000
001000
001000
011100
000000
000000
CHAR 206
001000
010100
011100
001000
001000
001000
011100
000000
000000
CHAR 207
010100
000000
011100
001000
001000
001000
011100
000000
000000
CHAR 208
000000
011100
010010
111010
010010
010010
011100
000000
000000
CHAR 209
001010
010100
010010
011010
010110
010010
010010
000000
000000
CHAR 210
001000
000100
001100
010010
010010
010010
001100
000000
000000
CHAR 211
000100
001000
001100
010010
010010
010010
001100
000000
000000
CHAR 212
000100
001010
001100
010010
010010
010010
001100
000000
000000
CHAR 213
001010
010100
001100
010010
010010
010010
001100
000000
000000
CHAR 214
001010
000000
001100
010010
010010
010010
001100
000000
000000
CHAR 215
000000
000000
100010
010100
001000
010100
100010
000000
000000
CHAR 216
000010
001110
010110
010110
011010
011010
011100
010000
000000
CHAR 217
001000
000100
010010
010010
010010
010010
001100
000000
000000
CHAR 218
000100
001000
010010
010010
010010
010010
001100
000000
000000
CHAR 219
000100
001010
010010
010010
010010
010010
001100
000000
000000
CHAR 220
001010
000000
010010
010010
010010
010010
001100
000000
000000
CHAR 221
000100
001000
100010
010100
001000
001000
001000
000000
000000
CHAR 222
000000
010000
011100
010010
010010
011100
010000
000000
000000
CHAR 223
000000
001100
010010
010100
010100
010010
010100
000000
000000
CHAR 224
001000
000100
000000
001110
010010
010010
001110
000000
000000
CHAR 225
000100
001000
000000
001110
010010
010010
001110
000000
000000
CHAR 226
000100
001010
000000
001110
010010
010010
001110
000000
000000
CHAR 227
001010
010100
000000
001110
010010
010010
001110
000000
000000
CHAR 228
000000
001010
000000
001110
010010
010010
001110
000000
000000
CHAR 229
000100
001010
000100
001110
010010
010010
001110
000000
000000
CHAR 230
000000
000000
000000
011100
101010
101100
011110
000000
000000
CHAR 231
000000
000000
000000
001110
010000
010000
001110
000100
001000
CHAR 232
001000
000100
000000
001100
010110
011000
001110
000000
000000
CHAR 233
000100
001000
000000
001100
010110
011000
001110
000000
000000
CHAR 234
000100
001010
000000
001100
010110
011000
001110
000000
000000
CHAR 235
000000
001010
000000
001100
010110
011000
001110
000000
000000
CHAR 236
010000
001000
000000
011000
001000
001000
011100
000000
000000
CHAR 237
000100
001000
000000
011000
001000
001000
011100
000000
000000
CHAR 238
001000
010100
000000
011000
001000
001000
011100
000000
000000
CHAR 239
000000
010100
000000
011000
001000
001000
011100
000000
000000
CHAR 240
000110
001100
000010
001110
010010
010010
001100
000000
000000
CHAR 241
001010
010100
000000
011100
010010
010010
010010
000000
000000
CHAR 242
001000
000100
000000
001100
010010
010010
001100
000000
000000
CHAR 243
000100
001000
000000
001100
010010
010010
001100
000000
000000
CHAR 244
000100
001010
000000
001100
010010
010010
001100
000000
000000
CHAR 245
001010
010100
000000
001100
010010
010010
001100
000000
000000
CHAR 246
000000
001010
000000
001100
010010
010010
001100
000000
000000
CHAR 247
000000
000000
001000
000000
111110
000000
001000
000000
000000
CHAR 248
000000
000000
000000
001110
010110
011010
011100
000000
000000
CHAR 249
001000
000100
000000
010010
010010
010010
001110
000000
000000
CHAR 250
000100
001000
000000
010010
010010
010010
001110
000000
000000
CHAR 251
000100
001010
000000
010010
010010
010010
001110
000000
000000
CHAR 252
000000
001010
000000
010010
010010
010010
001110
000000
000000
CHAR 253
000100
001000
000000
010010
010010
010010
001110
010010
001100
CHAR 254
000000
010000
010000
011100
010010
010010
011100
010000
010000
CHAR 255
000000
001010
000000
010010
010010
010010
001110
010010
001100
CHAR 256
011100
000000
001000
010100
011100
100010
100010
000000
000000
CHAR 257
000000
001110
000000
001110
010010
010010
001110
000000
000000
CHAR 258
100100
011000
001000
010100
011100
100010
100010
000000
000000
CHAR 259
010010
001100
000000
001110
010010
010010
001110
000000
000000
CHAR 260
000000
001000
010100
100010
111110
100010
100010
000100
000010
CHAR 261
000000
000000
000000
001110
010010
010010
001110
000100
000010
CHAR 262
000100
001000
001100
010010
010000
010010
001100
000000
000000
CHAR 263
000100
001000
000000
001110
010000
010000
001110
000000
000000
CHAR 264
000100
001010
001100
010010
010000
010010
001100
000000
000000
CHAR 265
000100
001010
000000
001110
010000
010000
001110
000000
000000
CHAR 266
000100
000000
001100
010010
010000
010010
001100
000000
000000
CHAR 267
000000
000100
000000
001110
010000
010000
001110
000000
000000
CHAR 268
001010
000100
001100
010010
010000
010010
001100
000000
000000
CHAR 269
001010
000100
000000
001110
010000
010000
001110
000000
000000
CHAR 270
001010
000100
011100
010010
010010
010010
011100
000000
000000
CHAR 271
010100
001010
000010
001110
010010
010010
001110
000000
000000
CHAR 272
000000
011100
010010
111010
010010
010010
011100
000000
000000
CHAR 273
000000
000100
001110
011100
100100
100100
011100
000000
000000
CHAR 274
011110
000000
011110
010000
011100
010000
011110
000000
000000
CHAR 275
000000
011110
000000
001100
010110
011000
001110
000000
000000
CHAR 276
010010
001100
011110
010000
011100
010000
011110
000000
000000
CHAR 277
010010
001100
000000
001100
010110
011000
001110
000000
000000
CHAR 278
001000
000000
011110
010000
011100
010000
011110
000000
000000
CHAR 279
000000
001000
000000
001100
010110
011000
001110
000000
000000
CHAR 280
000000
011110
010000
011100
010000
010000
011110
001000
000100
CHAR 281
000000
000000
000000
001100
010110
011000
001110
001000
000100
CHAR 282
001010
000100
011110
010000
011100
010000
011110
000000
000000
CHAR 283
001010
000100
000000
001100
010110
011000
001110
000000
000000
CHAR 284
000100
001010
001110
010000
010110
010010
001100
000000
000000
CHAR 285
000100
001010
000000
001100
010010
010010
001110
000010
001100
CHAR 286
010010
001100
001110
010000
010110
010010
001100
000000
000000
CHAR 287
010010
001100
000000
001100
010010
010010
001110
000010
001100
CHAR 288
000100
000000
001110
010000
010110
010010
001100
000000
000000
CHAR 289
000000
000100
000000
001100
010010
010010
001110
000010
001100
CHAR 290
000000
001100
010010
010000
010110
010010
001100
000100
001000
CHAR 291
000000
000100
001000
001100
010010
010010
001110
000010
001100
CHAR 292
000100
001010
000000
010010
011110
010010
010010
000000
000000
CHAR 293
000100
101010
100000
111000
100100
100100
100100
000000
000000
CHAR 294
000000
010100
111110
010100
011100
010100
010100
000000
000000
CHAR 295
000000
010000
111000
011100
010010
010010
010010
000000
000000
CHAR 296
001010
010100
001110
000100
000100
000100
001110
000000
000000
CHAR 297
001010
010100
000000
001100
000100
000100
001110
000000
000000
CHAR 298
011100
000000
011100
001000
001000
001000
011100
000000
000000
CHAR 299
000000
011100
000000
011000
001000
001000
011100
000000
000000
CHAR 300
010010
001100
000000
001110
000100
000100
001110
000000
000000
CHAR 301
010010
001100
000000
001100
000100
000100
001110
000000
000000
CHAR 302
000000
011100
001000
001000
001000
001000
011100
001000
000100
CHAR 303
000000
001000
000000
011000
001000
001000
011100
001000
000100
CHAR 304
001000
000000
011100
001000
001000
001000
011100
000000
000000
CHAR 305
000000
000000
000000
011000
001000
001000
011100
000000
000000
CHAR 306
000000
101110
100010
100010
100010
101010
100100
000000
000000
CHAR 307
000000
100010
000000
100110
100010
100010
100010
001010
000100
CHAR 308
000100
001010
001110
000100
000100
100100
011000
000000
000000
CHAR 309
000100
001010
000000
001100
000100
000100
000100
010100
001000
CHAR 310
000000
010010
010100
011000
010100
010010
010010
001000
010000
CHAR 311
000000
010000
010000
010100
011000
010100
010010
001000
010000
CHAR 312
000000
000000
000000
010110
011000
010100
010010
000000
000000
CHAR 313
000010
000100
010000
010000
010000
010000
011110
000000
000000
CHAR 314
001000
010000
011000
001000
001000
001000
011100
000000
000000
CHAR 315
000000
010000
010000
010000
010000
010000
011110
000100
001000
CHAR 316
000000
011000
001000
001000
001000
001000
011100
001000
010000
CHAR 317
001010
000100
010000
010000
010000
010000
011110
000000
000000
CHAR 318
010100
001000
011000
001000
001000
001000
011100
000000
000000
CHAR 319
000000
010000
010000
010100
010000
010000
011110
000000
000000
CHAR 320
000000
011000
001000
001010
001000
001000
011100
000000
000000
CHAR 321
000000
010000
010000
011000
110000
010000
011110
000000
000000
CHAR 322
000000
011000
001000
001100
011000
001000
011100
000000
000000
CHAR 323
000100
001000
010010
011010
010110
010010
010010
000000
000000
CHAR 324
000100
001000
000000
011100
010010
010010
010010
000000
000000
CHAR 325
000000
010010
011010
010110
010010
010010
010010
001000
010000
CHAR 326
000000
000000
000000
011100
010010
010010
010010
001000
010000
CHAR 327
001010
000100
010010
011010
010110
010010
010010
000000
000000
CHAR 328
010100
001000
000000
011100
010010
010010
010010
000000
000000
CHAR 329
000000
110000
010000
101100
001010
001010
001010
000000
000000
CHAR 330
000000
010010
011010
010110
010010
010010
010010
000010
000100
CHAR 331
000000
000000
000000
011100
010010
010010
010010
000010
000100
CHAR 332
111110
000000
011100
100010
100010
100010
011100
000000
000000
CHAR 333
000000
011110
000000
001100
010010
010010
001100
000000
000000
CHAR 334
100010
011100
011100
100010
100010
100010
011100
000000
000000
CHAR 335
010010
001100
000000
001100
010010
010010
001100
000000
000000
CHAR 336
010010
100100
011100
100010
100010
100010
011100
000000
000000
CHAR 337
010010
100100
000000
011000
100100
100100
011000
000000
000000
CHAR 338
000000
011110
101000
101100
101000
101000
011110
000000
000000
CHAR 339
000000
000000
000000
010100
101010
101100
010110
000000
000000
CHAR 340
000100
001000
011100
010010
011100
010100
010010
000000
000000
CHAR 341
000100
001000
000000
010100
011010
010000
010000
000000
000000
CHAR 342
000000
011100
010010
010010
011100
010010
010010
001000
010000
CHAR 343
000000
000000
000000
010100
011010
010000
010000
001000
010000
CHAR 344
010100
001000
011100
010010
011100
010100
010010
000000
000000
CHAR 345
010100
001000
000000
010100
011010
010000
010000
000000
000000
CHAR 346
000100
001000
001110
010000
001100
000010
011100
000000
000000
CHAR 347
000100
001000
000000
001110
011000
000110
011100
000000
000000
CHAR 348
000100
001010
001110
010000
001100
000010
011100
000000
000000
CHAR 349
000100
001010
000000
001110
011000
000110
011100
000000
000000
CHAR 350
000000
001100
010010
001000
000100
010010
001100
000100
001000
CHAR 351
000000
000000
000000
001110
011000
000110
011100
000100
001000
CHAR 352
001010
000100
001110
010000
001100
000010
011100
000000
000000
CHAR 353
001010
000100
000000
001110
011000
000110
011100
000000
000000
CHAR 354
000000
111110
001000
001000
001000
001000
001000
000100
001000
CHAR 355
000000
001000
001000
011100
001000
001010
000100
000100
001000
CHAR 356
010100
001000
111110
001000
001000
001000
001000
000000
000000
CHAR 357
001010
000100
001000
011100
001000
001010
000100
000000
000000
CHAR 358
000000
111110
001000
001000
011100
001000
001000
000000
000000
CHAR 359
000000
001000
001000
011100
011100
001010
000100
000000
000000
CHAR 360
001010
010100
000000
010010
010010
010010
001100
000000
000000
CHAR 361
001010
010100
000000
010010
010010
010010
001110
000000
000000
CHAR 362
011110
000000
010010
010010
010010
010010
001100
000000
000000
CHAR 363
000000
011110
000000
010010
010010
010010
001110
000000
000000
CHAR 364
010010
001100
000000
010010
010010
010010
001100
000000
000000
CHAR 365
010010
001100
000000
010010
010010
010010
001110
000000
000000
CHAR 366
001100
010010
001100
010010
010010
010010
001100
000000
000000
CHAR 367
001100
010010
001100
010010
010010
010010
001110
000000
000000
CHAR 368
010010
100100
000000
100100
100100
100100
011000
000000
000000
CHAR 369
010010
100100
000000
100100
100100
100100
011100
000000
000000
CHAR 370
000000
010010
010010
010010
010010
010010
001100
001000
000100
CHAR 371
000000
000000
000000
010010
010010
010010
001110
001000
000100
CHAR 372
001000
010100
000000
100010
101010
110110
100010
000000
000000
CHAR 373
001000
010100
000000
100010
101010
101010
010100
000000
000000
CHAR 374
001000
010100
000000
100010
010100
001000
001000
000000
000000
CHAR 375
000100
001010
000000
010010
010010
010010
001110
010010
001100
CHAR 376
010100
000000
100010
010100
001000
001000
001000
000000
000000
CHAR 377
000100
001000
011110
000100
001000
010000
011110
000000
000000
CHAR 378
000100
001000
000000
011110
000100
001000
011110
000000
000000
CHAR 379
000100
000000
011110
000100
001000
010000
011110
000000
000000
CHAR 380
000000
000100
000000
011110
000100
001000
011110
000000
000000
CHAR 381
001010
000100
011110
000100
001000
010000
011110
000000
000000
CHAR 382
001010
000100
000000
011110
000100
001000
011110
000000
000000
CHAR 383
000000
000100
001010
011000
001000
001000
001000
000000
000000
CHAR 399
000000
001100
010010
000010
011110
010010
001100
000000
000000
CHAR 402
000000
000100
001010
001000
011100
001000
001000
001000
010000
CHAR 416
000000
011001
100101
100110
100100
100100
011000
000000
000000
CHAR 417
000000
000000
000000
001101
010010
010010
001100
000000
000000
CHAR 431
000000
010101
010101
010110
010100
010100
001000
000000
000000
CHAR 432
000000
000000
000000
010101
010110
010100
001100
000000
000000
CHAR 437
000000
011110
000010
011110
001000
010000
011110
000000
000000
CHAR 438
000000
000000
000000
011110
011110
001000
011110
000000
000000
CHAR 465
001010
000100
001100
010010
010010
010010
001100
000000
000000
CHAR 466
001010
000100
000000
001100
010010
010010
001100
000000
000000
CHAR 486
001010
000100
001110
010000
010110
010010
001100
000000
000000
CHAR 487
001010
000100
000000
001100
010010
010010
001110
000010
001100
CHAR 506
000100
001000
010100
001000
010100
011100
010100
000000
000000
CHAR 507
000010
000100
001010
001110
010010
010010
001110
000000
000000
CHAR 508
000100
001000
011110
101000
111100
101000
101110
000000
000000
CHAR 509
000100
001000
000000
011100
101010
101100
011110
000000
000000
CHAR 510
000010
000100
001110
010110
011010
011010
011100
000000
000000
CHAR 511
000100
001000
000000
001110
010110
011010
011100
000000
000000
CHAR 536
000000
001100
010010
001000
000100
010010
001100
000100
001000
CHAR 537
000000
000000
000000
001110
011000
000110
011100
000100
001000
CHAR 538
000000
111110
001000
001000
001000
001000
001000
000100
001000
CHAR 539
000000
001000
001000
011100
001000
001010
000100
000100
001000
CHAR 600
000000
000000
000000
001100
011010
000110
011100
000000
000000
CHAR 601
000000
000000
000000
011100
000110
011010
001100
000000
000000
CHAR 699
000000
000100
001000
001100
000000
000000
000000
000000
000000
CHAR 700
000000
001100
000100
001000
000000
000000
000000
000000
000000
CHAR 701
000000
001100
001000
000100
000000
000000
000000
000000
000000
CHAR 710
001000
010100
000000
000000
000000
000000
000000
000000
000000
CHAR 711
010100
001000
000000
000000
000000
000000
000000
000000
000000
CHAR 713
000000
011100
000000
000000
000000
000000
000000
000000
000000
CHAR 728
010010
001100
000000
000000
000000
000000
000000
000000
000000
CHAR 729
000000
001000
000000
000000
000000
000000
000000
000000
000000
CHAR 730
001000
010100
001000
000000
000000
000000
000000
000000
000000
CHAR 731
000000
000000
000000
000000
000000
000000
000000
001000
000100
CHAR 732
001010
010100
000000
000000
000000
000000
000000
000000
000000
CHAR 733
010010
100100
000000
000000
000000
000000
000000
000000
000000
CHAR 768
010000
001000
000000
000000
000000
000000
000000
000000
000000
CHAR 769
000100
001000
000000
000000
000000
000000
000000
000000
000000
CHAR 770
001000
010100
000000
000000
000000
000000
000000
000000
000000
CHAR 771
001010
010100
000000
000000
000000
000000
000000
000000
000000
CHAR 772
011100
000000
000000
000000
000000
000000
000000
000000
000000
CHAR 773
111110
000000
000000
000000
000000
000000
000000
000000
000000
CHAR 774
100010
011100
000000
000000
000000
000000
000000
000000
000000
CHAR 775
001000
000000
000000
000000
000000
000000
000000
000000
000000
CHAR 776
010100
000000
000000
000000
000000
000000
000000
000000
000000
CHAR 777
011000
000100
001000
000000
000000
000000
000000
000000
000000
CHAR 778
001000
010100
001000
000000
000000
000000
000000
000000
000000
CHAR 779
010010
100100
000000
000000
000000
000000
000000
000000
000000
CHAR 780
010100
001000
000000
000000
000000
000000
000000
000000
000000
CHAR 781
001000
001000
000000
000000
000000
000000
000000
000000
000000
CHAR 782
010100
010100
000000
000000
000000
000000
000000
000000
000000
CHAR 783
100100
010010
000000
000000
000000
000000
000000
000000
000000
CHAR 784
101010
011100
000000
000000
000000
000000
000000
000000
000000
CHAR 785
011100
100010
000000
000000
000000
000000
000000
000000
000000
CHAR 786
000100
001000
001100
000000
000000
000000
000000
000000
000000
CHAR 787
001100
000100
001000
000000
000000
000000
000000
000000
000000
CHAR 788
001100
001000
000100
000000
000000
000000
000000
000000
000000
CHAR 803
000000
000000
000000
000000
000000
000000
000000
000000
001000
CHAR 804
000000
000000
000000
000000
000000
000000
000000
000000
010100
CHAR 884
000100
001000
000000
000000
000000
000000
000000
000000
000000
CHAR 885
000000
000000
000000
000000
000000
000000
000000
000100
001000
CHAR 890
000000
000000
000000
000000
000000
000000
000000
001000
001100
CHAR 894
000000
000000
001100
001100
000000
001100
000100
000100
001000
CHAR 900
001000
001000
000000
000000
000000
000000
000000
000000
000000
CHAR 901
001000
101010
000000
000000
000000
000000
000000
000000
000000
CHAR 902
100000
101100
010010
010010
011110
010010
010010
000000
000000
CHAR 903
000000
000000
000000
000000
001000
000000
000000
000000
000000
CHAR 904
100000
101110
001000
001100
001000
001000
001110
000000
000000
CHAR 905
100000
101010
001010
001110
001010
001010
001010
000000
000000
CHAR 906
100000
101110
000100
000100
000100
000100
001110
000000
000000
CHAR 908
100000
101100
010010
010010
010010
010010
001100
000000
000000
CHAR 910
100000
101010
001010
001010
000100
000100
000100
000000
000000
CHAR 911
100000
101100
010010
010010
010010
001100
011110
000000
000000
CHAR 912
001000
101010
000000
001000
001000
001000
000100
000000
000000
CHAR 913
000000
001000
010100
100010
111110
100010
100010
000000
000000
CHAR 914
000000
111100
100010
111100
100010
100010
111100
000000
000000
CHAR 915
000000
011110
010000
010000
010000
010000
010000
000000
000000
CHAR 916
000000
001000
001000
010100
010100
100010
111110
000000
000000
CHAR 917
000000
011110
010000
011100
010000
010000
011110
000000
000000
CHAR 918
000000
011110
000010
000100
001000
010000
011110
000000
000000
CHAR 919
000000
010010
010010
011110
010010
010010
010010
000000
000000
CHAR 920
000000
011100
100010
111110
100010
100010
011100
000000
000000
CHAR 921
000000
011100
001000
001000
001000
001000
011100
000000
000000
CHAR 922
000000
010010
010100
011000
010100
010010
010010
000000
000000
CHAR 923
000000
001000
001000
010100
010100
100010
100010
000000
000000
CHAR 924
000000
100010
110110
101010
101010
100010
100010
000000
000000
CHAR 925
000000
010010
011010
010110
010010
010010
010010
000000
000000
CHAR 926
000000
011110
000000
001100
000000
000000
011110
000000
000000
CHAR 927
000000
011100
100010
100010
100010
100010
011100
000000
000000
CHAR 928
000000
011110
010010
010010
010010
010010
010010
000000
000000
CHAR 929
000000
011100
010010
010010
011100
010000
010000
000000
000000
CHAR 931
000000
011110
010000
001000
001000
010000
011110
000000
000000
CHAR 932
000000
111110
001000
001000
001000
001000
001000
000000
000000
CHAR 933
000000
100010
100010
010100
001000
001000
001000
000000
000000
CHAR 934
000000
001000
011100
101010
101010
011100
001000
000000
000000
CHAR 935
000000
100010
010100
001000
001000
010100
100010
000000
000000
CHAR 936
000000
101010
101010
101010
011100
001000
001000
000000
000000
CHAR 937
000000
011100
100010
100010
100010
010100
110110
000000
000000
CHAR 938
010100
000000
011100
001000
001000
001000
011100
000000
000000
CHAR 939
010100
000000
100010
010100
001000
001000
001000
000000
000000
CHAR 940
000010
000100
000000
001110
010010
010010
001110
000000
000000
CHAR 941
000010
000100
000000
001100
010110
011000
001110
000000
000000
CHAR 942
000100
001000
000000
101100
110010
100010
100010
000010
000010
CHAR 943
001000
010000
000000
010000
010000
010100
001000
000000
000000
CHAR 944
001000
101010
000000
100010
100010
100010
011100
000000
000000
CHAR 945
000000
000000
000000
001110
010010
010010
001110
000000
000000
CHAR 946
000000
001100
010010
011100
010010
010010
011100
010000
010000
CHAR 947
000000
000000
000000
100010
100010
010100
010100
001000
001000
CHAR 948
000000
011100
100000
011100
100010
100010
011100
000000
000000
CHAR 949
000000
000000
000000
001100
010110
011000
001110
000000
000000
CHAR 950
000000
111110
001000
010000
010000
001100
000010
001100
000000
CHAR 951
000000
000000
000000
101100
110010
100010
100010
000010
000010
CHAR 952
000000
001100
010010
011110
010010
010010
001100
000000
000000
CHAR 953
000000
000000
000000
010000
010000
010100
001000
000000
000000
CHAR 954
000000
000000
000000
010010
010100
011000
010110
000000
000000
CHAR 955
000000
011100
100010
000010
011010
100110
100010
000000
000000
CHAR 956
000000
000000
000000
100010
100010
100110
111010
100000
100000
CHAR 957
000000
000000
000000
100010
100010
010100
001000
000000
000000
CHAR 958
000000
111110
001000
010000
011100
100000
011100
000010
000100
CHAR 959
000000
000000
000000
001100
010010
010010
001100
000000
000000
CHAR 960
000000
000000
000000
111110
010100
010100
010100
000000
000000
CHAR 961
000000
000000
000000
011100
100010
100010
111100
100000
100000
CHAR 962
000000
000000
000000
011100
100010
100000
011100
000010
001100
CHAR 963
000000
000000
000000
011110
100100
100010
011100
000000
000000
CHAR 964
000000
000000
000000
011110
001000
001010
000100
000000
000000
CHAR 965
000000
000000
000000
100010
100010
100010
011100
000000
000000
CHAR 966
000000
000000
000000
100100
101010
101010
011100
001000
001000
CHAR 967
000000
000000
000000
100010
010100
001000
010100
100010
100010
CHAR 968
000000
000000
000000
101010
101010
101010
011100
001000
001000
CHAR 969
000000
000000
000000
010100
100010
101010
010100
000000
000000
CHAR 970
000000
010100
000000
001000
001000
001010
000100
000000
000000
CHAR 971
000000
010100
000000
100010
100010
100010
011100
000000
000000
CHAR 972
000100
001000
000000
011100
100010
100010
011100
000000
000000
CHAR 973
000100
001000
000000
100010
100010
100010
011100
000000
000000
CHAR 974
000100
001000
000000
010100
100010
101010
010100
000000
000000
CHAR 976
000000
011000
100100
100100
111100
100010
011100
000000
000000
CHAR 977
000000
001000
010100
001110
110100
010100
001000
000000
000000
CHAR 978
000000
100100
101010
010000
010000
010000
010000
000000
000000
CHAR 979
000000
110100
001010
011000
101000
001000
001000
000000
000000
CHAR 980
101000
000000
100100
101010
010000
010000
010000
000000
000000
CHAR 981
000000
001000
001000
011100
101010
101010
011100
001000
001000
CHAR 982
000000
000000
000000
111110
100010
101010
010100
000000
000000
CHAR 983
000100
001000
000000
100010
010010
011100
100010
000010
001100
CHAR 986
000000
001100
010010
100000
100000
100000
011100
000010
000100
CHAR 987
000000
000000
000010
011100
100000
100000
011100
000010
001100
CHAR 988
000000
111110
100000
100000
111000
100000
100000
000000
000000
CHAR 989
000000
000000
000000
011110
010000
010000
011100
010000
010000
CHAR 990
000000
100000
100010
100110
101010
110010
000010
000000
000000
CHAR 991
000000
001000
010000
100000
111110
000010
000100
001000
001000
CHAR 992
000000
001000
010100
010100
100110
101010
101010
000000
000000
CHAR 993
000000
111000
000100
001100
010010
000110
001010
000010
000010
CHAR 994
000000
101010
101010
101010
101010
011110
000010
111100
000000
CHAR 995
000000
000000
000000
101010
101010
011110
000010
111100
000000
CHAR 996
000000
010010
101010
100010
011110
000010
000010
000000
000000
CHAR 997
000000
000000
000000
001010
010010
001110
000010
000000
000000
CHAR 998
000000
100000
100000
101100
110010
100010
000010
111100
000000
CHAR 999
000000
001000
011100
101010
010010
000010
111100
000000
000000
CHAR 1000
000000
011100
100010
000010
011100
100000
011110
000000
000000
CHAR 1001
000000
000000
011100
100010
011100
100000
011110
000000
000000
CHAR 1002
000000
010100
101010
001000
010100
100010
111110
000000
000000
CHAR 1003
000000
000000
010100
101010
001000
010100
011100
000000
000000
CHAR 1004
000000
000010
011100
100000
111100
100010
011100
000000
000000
CHAR 1005
000000
000000
000010
011100
100000
110110
011100
000000
000000
CHAR 1006
000000
011100
001000
111110
101010
001000
011100
000000
000000
CHAR 1007
000000
001000
001100
001000
111110
101000
001000
011000
001000
CHAR 1008
000000
000000
000000
100010
010010
011100
100010
000000
000000
CHAR 1009
000000
000000
000000
011100
100010
100010
111100
100000
011110
CHAR 1010
000000
000000
000000
011100
100010
100000
011110
000000
000000
CHAR 1011
000000
000010
000000
000110
000010
000010
010010
010010
001100
CHAR 1012
000000
011100
100010
111110
100010
100010
011100
000000
000000
CHAR 1013
000000
000000
000000
001110
011100
010000
001110
000000
000000
CHAR 1024
001000
000100
011110
010000
011100
010000
011110
000000
000000
CHAR 1025
001010
000000
011110
010000
011100
010000
011110
000000
000000
CHAR 1026
000000
111110
001000
001100
001010
001010
001010
000010
000100
CHAR 1027
000100
001000
011110
010000
010000
010000
010000
000000
000000
CHAR 1028
000000
011100
100010
111000
100000
100010
011100
000000
000000
CHAR 1029
000000
001100
010010
001000
000100
010010
001100
000000
000000
CHAR 1030
000000
011100
001000
001000
001000
001000
011100
000000
000000
CHAR 1031
010100
000000
011100
001000
001000
001000
011100
000000
000000
CHAR 1032
000000
001110
000100
000100
000100
100100
011000
000000
000000
CHAR 1033
000000
011000
101000
101100
101010
101010
101100
000000
000000
CHAR 1034
000000
101000
101000
111100
101010
101010
101100
000000
000000
CHAR 1035
000000
111110
001000
001100
001010
001010
001010
000000
000000
CHAR 1036
000010
000100
010010
010100
011000
010100
010010
000000
000000
CHAR 1037
010000
001000
100010
100110
101010
110010
100010
000000
000000
CHAR 1038
010010
001100
100010
100010
011110
000010
011100
000000
000000
CHAR 1039
000000
100010
100010
100010
100010
100010
111110
001000
001000
CHAR 1040
000000
001000
010100
100010
111110
100010
100010
000000
000000
CHAR 1041
000000
111100
100000
111100
100010
100010
111100
000000
000000
CHAR 1042
000000
111100
100010
111100
100010
100010
111100
000000
000000
CHAR 1043
000000
011110
010000
010000
010000
010000
010000
000000
000000
CHAR 1044
000000
001100
010100
010100
010100
010100
111110
100010
000000
CHAR 1045
000000
011110
010000
011100
010000
010000
011110
000000
000000
CHAR 1046
000000
101010
101010
011100
101010
101010
101010
000000
000000
CHAR 1047
000000
011100
100010
001100
000010
100010
011100
000000
000000
CHAR 1048
000000
010010
010110
011010
010010
010010
010010
000000
000000
CHAR 1049
010010
001100
010010
010110
011010
010010
010010
000000
000000
CHAR 1050
000000
010010
010100
011000
010100
010010
010010
000000
000000
CHAR 1051
000000
001110
010010
010010
010010
010010
100010
000000
000000
CHAR 1052
000000
100010
110110
101010
101010
100010
100010
000000
000000
CHAR 1053
000000
010010
010010
011110
010010
010010
010010
000000
000000
CHAR 1054
000000
011100
100010
100010
100010
100010
011100
000000
000000
CHAR 1055
000000
111110
100010
100010
100010
100010
100010
000000
000000
CHAR 1056
000000
011100
010010
010010
011100
010000
010000
000000
000000
CHAR 1057
000000
001100
010010
010000
010000
010010
001100
000000
000000
CHAR 1058
000000
111110
001000
001000
001000
001000
001000
000000
000000
CHAR 1059
000000
100010
100010
100010
011110
000010
011100
000000
000000
CHAR 1060
000000
001000
011100
101010
101010
011100
001000
000000
000000
CHAR 1061
000000
100010
010100
001000
001000
010100
100010
000000
000000
CHAR 1062
000000
100100
100100
100100
100100
100100
111110
000010
000100
CHAR 1063
000000
100010
100010
100010
011110
000010
000010
000000
000000
CHAR 1064
000000
101010
101010
101010
101010
101010
111110
000000
000000
CHAR 1065
000000
101010
101010
101010
101010
101010
111110
000010
000100
CHAR 1066
000000
110000
010000
011100
010010
010010
011100
000000
000000
CHAR 1067
000000
100010
100010
111010
100110
100110
111010
000000
000000
CHAR 1068
000000
010000
010000
011100
010010
010010
011100
000000
000000
CHAR 1069
000000
011100
100010
001110
000010
100010
011100
000000
000000
CHAR 1070
000000
100100
101010
111010
111010
101010
100100
000000
000000
CHAR 1071
000000
001110
010010
010010
001110
010010
010010
000000
000000
CHAR 1072
000000
000000
000000
011100
100100
100100
011110
000000
000000
CHAR 1073
000010
001100
010000
011100
010010
010010
001100
000000
000000
CHAR 1074
000000
000000
000000
011000
010100
011010
011100
000000
000000
CHAR 1075
000000
000000
000000
011110
010000
010000
010000
000000
000000
CHAR 1076
000000
000000
000000
001100
010100
010100
111110
100010
000000
CHAR 1077
000000
000000
000000
011000
100100
111000
011100
000000
000000
CHAR 1078
000000
000000
000000
101010
011100
011100
101010
000000
000000
CHAR 1079
000000
000000
000000
001100
001010
000110
011100
000000
000000
CHAR 1080
000000
000000
000000
100010
100110
101010
110010
000000
000000
CHAR 1081
100010
011100
000000
100010
100110
101010
110010
000000
000000
CHAR 1082
000000
000000
000000
010010
010100
011100
010010
000000
000000
CHAR 1083
000000
000000
000000
001110
010010
010010
100010
000000
000000
CHAR 1084
000000
000000
000000
100010
110110
101010
100010
000000
000000
CHAR 1085
000000
000000
000000
100010
111110
100010
100010
000000
000000
CHAR 1086
000000
000000
000000
011100
100010
100010
011100
000000
000000
CHAR 1087
000000
000000
000000
111110
100010
100010
100010
000000
000000
CHAR 1088
000000
000000
000000
111100
100010
100010
111100
100000
100000
CHAR 1089
000000
000000
000000
011100
100010
100000
011110
000000
000000
CHAR 1090
000000
000000
000000
111110
001000
001000
001000
000000
000000
CHAR 1091
000000
000000
000000
100010
100010
100010
011110
000010
011100
CHAR 1092
000000
001000
001000
011100
101010
101010
011100
001000
001000
CHAR 1093
000000
000000
000000
010010
001100
001100
010010
000000
000000
CHAR 1094
000000
000000
000000
100100
100100
100100
111110
000010
000100
CHAR 1095
000000
000000
000000
100010
100010
011110
000010
000000
000000
CHAR 1096
000000
000000
000000
101010
101010
101010
111110
000000
000000
CHAR 1097
000000
000000
000000
101010
101010
101010
111110
000010
000100
CHAR 1098
000000
000000
000000
110000
011100
010010
011100
000000
000000
CHAR 1099
000000
000000
000000
100010
111010
100110
111010
000000
000000
CHAR 1100
000000
000000
000000
010000
011100
010010
011100
000000
000000
CHAR 1101
000000
000000
000000
111000
010100
001100
111000
000000
000000
CHAR 1102
000000
000000
000000
100100
111010
111010
100100
000000
000000
CHAR 1103
000000
000000
000000
011100
100100
011100
100100
000000
000000
CHAR 1104
001000
000100
000000
001100
010010
011100
001110
000000
000000
CHAR 1105
000000
010100
000000
001100
010010
011100
001110
000000
000000
CHAR 1106
000000
010000
111000
010000
011100
010010
010010
000010
000100
CHAR 1107
000100
001000
000000
011110
010000
010000
010000
000000
000000
CHAR 1108
000000
000000
000000
001110
010100
011000
001110
000000
000000
CHAR 1109
000000
000000
000000
001110
011000
000110
011100
000000
000000
CHAR 1110
000000
001000
000000
011000
001000
001000
011100
000000
000000
CHAR 1111
000000
010100
000000
011000
001000
001000
011100
000000
000000
CHAR 1112
000000
000010
000000
000110
000010
000010
000010
010010
001100
CHAR 1113
000000
000000
000000
011000
101100
101010
101100
000000
000000
CHAR 1114
000000
000000
000000
101000
111100
101010
101100
000000
000000
CHAR 1115
000000
010000
111000
010000
011100
010010
010010
000000
000000
CHAR 1116
000100
001000
000000
010010
010100
011100
010010
000000
000000
CHAR 1117
010000
001000
000000
100010
100110
101010
110010
000000
000000
CHAR 1118
000000
010010
001100
000000
100010
100010
011110
000010
011100
CHAR 1119
000000
000000
000000
100010
100010
100010
111110
001000
001000
CHAR 1122
010000
111000
010000
011100
010010
010010
011100
000000
000000
CHAR 1123
000000
010000
010000
111000
011100
010010
011100
000000
000000
CHAR 1136
000000
101010
101010
101010
011100
001000
001000
000000
000000
CHAR 1137
000000
000000
000000
101010
101010
011100
001000
000000
000000
CHAR 1138
000000
011100
100010
111110
100010
100010
011100
000000
000000
CHAR 1139
000000
000000
000000
011100
101010
110110
011100
000000
000000
CHAR 1140
000000
010000
010010
010110
011100
001000
001000
000000
000000
CHAR 1141
000000
000000
000000
010000
010110
001100
001000
000000
000000
CHAR 1168
000010
011110
010000
010000
010000
010000
010000
000000
000000
CHAR 1169
000000
000000
000010
011110
010000
010000
010000
000000
000000
CHAR 1170
000000
011110
010000
111100
010000
010000
010000
000000
000000
CHAR 1171
000000
000000
000000
011110
010000
111000
010000
000000
000000
CHAR 1174
000000
101010
101010
011100
101010
101010
101011
000001
000001
CHAR 1175
000000
000000
000000
101010
011100
011100
101010
000001
000001
CHAR 1178
000000
010010
010100
011000
010100
010010
010010
000001
000001
CHAR 1179
000000
000000
000000
010010
010100
011100
010010
000001
000001
CHAR 1198
000000
100010
100010
010100
001000
001000
001000
000000
000000
CHAR 1199
000000
000000
000000
100010
100010
010100
001000
001000
001000
CHAR 1200
000000
100010
100010
010100
111110
001000
001000
000000
000000
CHAR 1201
000000
000000
000000
100010
100010
010100
111110
001000
001000
CHAR 1202
000000
100010
010100
001000
001000
010100
100010
000001
000001
CHAR 1203
000000
000000
000000
010010
001100
001100
010010
000001
000001
CHAR 1210
000000
100000
100000
111100
100010
100010
100010
000000
000000
CHAR 1211
000000
010000
010000
011100
010010
010010
010010
000000
000000
CHAR 1240
000000
001100
010010
000010
011110
010010
001100
000000
000000
CHAR 1241
000000
000000
000000
011100
000110
011010
001100
000000
000000
CHAR 1250
011100
000000
011100
001000
001000
001000
011100
000000
000000
CHAR 1251
000000
011100
000000
011000
001000
001000
011100
000000
000000
CHAR 1256
000000
011100
100010
111110
100010
100010
011100
000000
000000
CHAR 1257
000000
000000
000000
001100
011110
010010
001100
000000
000000
CHAR 1262
011110
000000
010010
010010
010010
010010
001100
000000
000000
CHAR 1263
000000
011110
000000
010010
010010
010010
001110
000000
000000
CHAR 1488
000000
000000
000000
100100
010010
101100
100010
000000
000000
CHAR 1489
000000
000000
000000
111100
000100
000100
111110
000000
000000
CHAR 1490
000000
000000
000000
010000
001000
001100
010100
000000
000000
CHAR 1491
000000
000000
000000
111110
000100
000100
000100
000000
000000
CHAR 1492
000000
000000
000000
111110
000010
100010
100010
000000
000000
CHAR 1493
000000
000000
000000
001100
000100
000100
000100
000000
000000
CHAR 1494
000000
000000
000000
111110
001000
000100
000100
000000
000000
CHAR 1495
000000
000000
000000
111110
010010
010010
010010
000000
000000
CHAR 1496
000000
000000
000000
100110
101010
100010
111110
000000
000000
CHAR 1497
000000
000000
000000
001100
000100
000000
000000
000000
000000
CHAR 1498
000000
000000
000000
111110
000010
000010
000010
000010
000010
CHAR 1499
000000
000000
000000
111110
000010
000010
111100
000000
000000
CHAR 1500
000000
100000
100000
111110
000010
000100
011000
000000
000000
CHAR 1501
000000
000000
000000
111110
010010
010010
011110
000000
000000
CHAR 1502
000000
000000
000000
100100
101010
010010
100110
000000
000000
CHAR 1503
000000
000000
000000
001100
000100
000100
000100
000100
000100
CHAR 1504
000000
000000
000000
000110
000010
000010
011110
000000
000000
CHAR 1505
000000
000000
000000
011110
001010
001010
001100
000000
000000
CHAR 1506
000000
000000
000000
110110
010010
010100
111000
000000
000000
CHAR 1507
000000
000000
000000
111110
010010
010010
000010
000010
000010
CHAR 1508
000000
000000
000000
111110
010010
000010
111100
000000
000000
CHAR 1509
000000
000000
000000
100100
010010
010100
011000
010000
010000
CHAR 1510
000000
000000
000000
100100
010010
001100
111110
000000
000000
CHAR 1511
000000
000000
000000
111110
000010
100010
101100
100000
100000
CHAR 1512
000000
000000
000000
111100
000010
000010
000010
000000
000000
CHAR 1513
000000
000000
000000
101010
111010
100010
111100
000000
000000
CHAR 1514
000000
000000
000000
111110
010010
010010
110010
000000
000000
CHAR 1520
000000
000000
000000
110110
010010
010010
010010
000000
000000
CHAR 1521
000000
000000
000000
110110
010010
000010
000010
000000
000000
CHAR 1522
000000
000000
000000
110110
010010
000000
000000
000000
000000
CHAR 1523
000000
000000
000000
000100
001000
000000
000000
000000
000000
CHAR 1524
000000
000000
000000
010010
100100
000000
000000
000000
000000
CHAR 7682
001000
000000
111100
100010
111100
100010
111100
000000
000000
CHAR 7683
000100
010000
010000
011100
010010
010010
011100
000000
000000
CHAR 7690
001000
000000
011100
010010
010010
010010
011100
000000
000000
CHAR 7691
001000
000010
000010
001110
010010
010010
001110
000000
000000
CHAR 7710
001000
000000
011110
010000
011100
010000
010000
000000
000000
CHAR 7711
001000
000000
000100
001010
011100
001000
001000
000000
000000
CHAR 7744
001000
100010
110110
101010
101010
100010
100010
000000
000000
CHAR 7745
000000
001000
000000
110100
101010
101010
100010
000000
000000
CHAR 7766
001000
000000
011100
010010
011100
010000
010000
000000
000000
CHAR 7767
000000
001000
000000
011100
010010
010010
011100
010000
010000
CHAR 7776
000100
000000
001110
010000
001100
000010
011100
000000
000000
CHAR 7777
000000
000100
000000
001110
011000
000110
011100
000000
000000
CHAR 7786
001000
000000
111110
001000
001000
001000
001000
000000
000000
CHAR 7787
001000
000000
001000
011100
001000
001010
000100
000000
000000
CHAR 7808
010000
001000
100010
100010
101010
110110
100010
000000
000000
CHAR 7809
010000
001000
000000
100010
101010
101010
010100
000000
000000
CHAR 7810
000100
001000
100010
100010
101010
110110
100010
000000
000000
CHAR 7811
000100
001000
000000
100010
101010
101010
010100
000000
000000
CHAR 7812
010100
000000
100010
100010
101010
110110
100010
000000
000000
CHAR 7813
000000
010100
000000
100010
101010
101010
010100
000000
000000
CHAR 7922
010000
001000
100010
010100
001000
001000
001000
000000
000000
CHAR 7923
001000
000100
000000
010010
010010
010010
001110
010010
001100
CHAR 8208
000000
000000
000000
000000
011110
000000
000000
000000
000000
CHAR 8209
000000
000000
000000
000000
011110
000000
000000
000000
000000
CHAR 8210
000000
000000
000000
000000
111110
000000
000000
000000
000000
CHAR 8211
000000
000000
000000
000000
111110
000000
000000
000000
000000
CHAR 8212
000000
000000
000000
000000
111111
000000
000000
000000
000000
CHAR 8213
000000
000000
000000
000000
111111
000000
000000
000000
000000
CHAR 8214
000000
010100
010100
010100
010100
010100
010100
000000
000000
CHAR 8215
000000
000000
000000
000000
000000
000000
111111
000000
111111
CHAR 8216
000000
000100
001000
001100
000000
000000
000000
000000
000000
CHAR 8217
000000
001100
000100
001000
000000
000000
000000
000000
000000
CHAR 8218
000000
000000
000000
000000
000000
000000
001100
000100
001000
CHAR 8219
000000
001100
001000
000100
000000
000000
000000
000000
000000
CHAR 8220
000000
010010
100100
110110
000000
000000
000000
000000
000000
CHAR 8221
000000
110110
010010
100100
000000
000000
000000
000000
000000
CHAR 8222
000000
000000
000000
000000
000000
000000
110110
010010
100100
CHAR 8223
000000
110110
100100
010010
000000
000000
000000
000000
000000
CHAR 8224
000000
001000
001000
111110
001000
001000
001000
001000
000000
CHAR 8225
000000
001000
001000
111110
001000
111110
001000
001000
000000
CHAR 8226
000000
000000
001100
011110
011110
001100
000000
000000
000000
CHAR 8227
000000
000000
010000
011000
011100
011000
010000
000000
000000
CHAR 8228
000000
000000
000000
000000
000000
000000
001000
000000
000000
CHAR 8229
000000
000000
000000
000000
000000
000000
010100
000000
000000
CHAR 8230
000000
000000
000000
000000
000000
000000
101010
000000
000000
CHAR 8231
000000
000000
000000
000000
001100
000000
000000
000000
000000
CHAR 8240
010000
101010
010010
000100
001000
011010
110101
001010
000000
CHAR 8242
000000
000100
000100
001000
000000
000000
000000
000000
000000
CHAR 8243
000000
010010
010010
100100
000000
000000
000000
000000
000000
CHAR 8244
000000
010101
010101
101010
000000
000000
000000
000000
000000
CHAR 8245
000000
001000
001000
000100
000000
000000
000000
000000
000000
CHAR 8246
000000
100100
100100
010010
000000
000000
000000
000000
000000
CHAR 8247
000000
101010
101010
010101
000000
000000
000000
000000
000000
CHAR 8249
000000
000000
000100
001000
010000
001000
000100
000000
000000
CHAR 8250
000000
000000
010000
001000
000100
001000
010000
000000
000000
CHAR 8252
000000
010100
010100
010100
010100
000000
010100
000000
000000
CHAR 8254
000000
111111
000000
000000
000000
000000
000000
000000
000000
CHAR 8260
000000
000010
000010
000100
001000
010000
010000
000000
000000
CHAR 8304
000000
001000
010100
010100
010100
001000
000000
000000
000000
CHAR 8305
000000
001000
000000
011000
001000
011100
000000
000000
000000
CHAR 8308
000000
010100
010100
011100
000100
000100
000000
000000
000000
CHAR 8309
000000
011100
010000
011000
000100
011000
000000
000000
000000
CHAR 8310
000000
001000
010000
011000
010100
001000
000000
000000
000000
CHAR 8311
000000
011100
000100
001000
001000
001000
000000
000000
000000
CHAR 8312
000000
001000
010100
001000
010100
001000
000000
000000
000000
CHAR 8313
000000
001000
010100
001100
000100
001000
000000
000000
000000
CHAR 8314
000000
000000
000000
001000
011100
001000
000000
000000
000000
CHAR 8315
000000
000000
000000
000000
011100
000000
000000
000000
000000
CHAR 8316
000000
000000
000000
011100
000000
011100
000000
000000
000000
CHAR 8317
000000
001000
010000
010000
010000
001000
000000
000000
000000
CHAR 8318
000000
001000
000100
000100
000100
001000
000000
000000
000000
CHAR 8319
000000
000000
011000
010100
010100
010100
000000
000000
000000
CHAR 8320
000000
000000
000000
000000
001000
010100
010100
010100
001000
CHAR 8321
000000
000000
000000
000000
001000
011000
001000
001000
011100
CHAR 8322
000000
000000
000000
000000
001000
010100
000100
001000
011100
CHAR 8323
000000
000000
000000
000000
011000
000100
001000
000100
011000
CHAR 8324
000000
000000
000000
000000
010100
010100
011100
000100
000100
CHAR 8325
000000
000000
000000
000000
011100
010000
011000
000100
011000
CHAR 8326
000000
000000
000000
000000
001000
010000
011000
010100
001000
CHAR 8327
000000
000000
000000
000000
011100
000100
001000
001000
001000
CHAR 8328
000000
000000
000000
000000
001000
010100
001000
010100
001000
CHAR 8329
000000
000000
000000
000000
001000
010100
001100
000100
001000
CHAR 8330
000000
000000
000000
000000
000000
000000
001000
011100
001000
CHAR 8331
000000
000000
000000
000000
000000
000000
000000
011100
000000
CHAR 8332
000000
000000
000000
000000
000000
000000
011100
000000
011100
CHAR 8333
000000
000000
000000
000000
001000
010000
010000
010000
001000
CHAR 8334
000000
000000
000000
000000
001000
000100
000100
000100
001000
CHAR 8355
000000
111110
100000
111010
101100
101000
101000
000000
000000
CHAR 8356
000000
001100
010010
111000
010000
111000
010000
111110
000000
CHAR 8359
000000
011000
010100
111110
010100
011000
010000
000000
000000
CHAR 8363
000000
000010
000111
001110
010010
010010
001110
000000
011110
CHAR 8364
000000
001110
010000
111100
111100
010000
001110
000000
000000
CHAR 8367
010000
111000
010100
010010
010010
111010
110100
000000
000000
CHAR 8400
010000
111110
000000
000000
000000
000000
000000
000000
000000
CHAR 8401
000100
111110
000000
000000
000000
000000
000000
000000
000000
CHAR 8402
001000
001000
001000
001000
001000
001000
001000
001000
001000
CHAR 8403
000000
000000
001000
001000
001000
001000
001000
001000
000000
CHAR 8404
101100
110010
111000
000000
000000
000000
000000
000000
000000
CHAR 8405
011010
100110
001110
000000
000000
000000
000000
000000
000000
CHAR 8406
010000
111110
010000
000000
000000
000000
000000
000000
000000
CHAR 8407
000100
111110
000100
000000
000000
000000
000000
000000
000000
CHAR 8450
000000
011100
101010
101000
101000
101010
011100
000000
000000
CHAR 8453
000000
010000
100000
010000
000100
001010
000100
000000
000000
CHAR 8467
000000
000100
001010
001010
001100
001000
010110
000000
000000
CHAR 8469
000000
110010
111010
111010
110110
110110
110010
000000
000000
CHAR 8470
000000
100100
110100
110100
101110
101101
100110
000000
000000
CHAR 8474
000000
011100
101010
101010
101010
101010
011100
000110
000000
CHAR 8477
000000
111100
101010
101010
101100
101010
101010
000000
000000
CHAR 8482
000000
111111
010111
010101
000000
000000
000000
000000
000000
CHAR 8484
000000
111110
001010
010100
010100
101000
111110
000000
000000
CHAR 8486
000000
011100
100010
100010
100010
010100
110110
000000
000000
CHAR 8494
000000
000000
011100
110110
111110
110000
011100
000000
000000
CHAR 8539
010000
110000
010000
010100
011010
000100
001010
000100
000000
CHAR 8540
110000
001000
010000
001100
111010
000100
001010
000100
000000
CHAR 8541
111000
100000
110000
001100
111010
000100
001010
000100
000000
CHAR 8542
111000
001000
010000
010100
011010
000100
001010
000100
000000
CHAR 8592
000000
000000
001000
010000
111110
010000
001000
000000
000000
CHAR 8593
000000
001000
011100
101010
001000
001000
001000
000000
000000
CHAR 8594
000000
000000
001000
000100
111110
000100
001000
000000
000000
CHAR 8595
000000
001000
001000
001000
101010
011100
001000
000000
000000
CHAR 8596
000000
000000
000000
010010
111111
010010
000000
000000
000000
CHAR 8597
000000
001000
011100
101010
001000
101010
011100
001000
000000
CHAR 8612
000000
000000
001000
010010
111110
010010
001000
000000
000000
CHAR 8613
000000
001000
011100
101010
001000
001000
011100
000000
000000
CHAR 8614
000000
000000
001000
100100
111110
100100
001000
000000
000000
CHAR 8615
000000
011100
001000
001000
101010
011100
001000
000000
000000
CHAR 8616
001000
011100
101010
001000
101010
011100
001000
111110
000000
CHAR 8656
000000
000000
001000
011110
100000
011110
001000
000000
000000
CHAR 8657
000000
001000
010100
110110
010100
010100
010100
000000
000000
CHAR 8658
000000
000000
001000
111100
000010
111100
001000
000000
000000
CHAR 8659
000000
010100
010100
010100
110110
011100
001000
000000
000000
CHAR 8660
000000
000000
001100
011110
100001
011110
001100
000000
000000
CHAR 8661
000000
001000
011100
110110
010100
110110
011100
001000
000000
CHAR 8704
000000
100010
100010
111110
100010
010100
001000
000000
000000
CHAR 8705
000000
001000
010100
010000
010000
010000
010100
001000
000000
CHAR 8706
000000
001100
000010
001110
010010
010010
001100
000000
000000
CHAR 8707
000000
011110
000010
001110
000010
000010
011110
000000
000000
CHAR 8708
001000
011110
001010
001110
001010
001010
011110
001000
000000
CHAR 8709
000000
011110
100110
101010
101010
110010
111100
000000
000000
CHAR 8710
000000
001000
001000
010100
010100
100010
111110
000000
000000
CHAR 8711
000000
111110
100010
010100
010100
001000
001000
000000
000000
CHAR 8712
000000
000000
001110
010000
011110
010000
001110
000000
000000
CHAR 8713
000000
000100
001110
010100
011110
010100
001110
000100
000000
CHAR 8715
000000
000000
011100
000010
011110
000010
011100
000000
000000
CHAR 8716
000000
001000
011100
001010
011110
001010
011100
001000
000000
CHAR 8719
111110
010100
010100
010100
010100
010100
010100
010100
000000
CHAR 8720
010100
010100
010100
010100
010100
010100
010100
111110
000000
CHAR 8721
000000
111110
010000
001000
001000
010000
111110
000000
000000
CHAR 8722
000000
000000
000000
000000
111110
000000
000000
000000
000000
CHAR 8723
000000
111110
000000
001000
001000
111110
001000
001000
000000
CHAR 8725
000000
000010
000010
000100
001000
010000
010000
000000
000000
CHAR 8728
000000
000000
000000
001000
010100
001000
000000
000000
000000
CHAR 8729
000000
000000
000000
001000
011100
001000
000000
000000
000000
CHAR 8730
000011
000010
000010
000010
000100
110100
001100
001100
000100
CHAR 8733
000000
000000
001010
010100
010100
001010
000000
000000
000000
CHAR 8734
000000
000000
010100
101010
101010
010100
000000
000000
000000
CHAR 8735
000000
000000
100000
100000
100000
100000
111110
000000
000000
CHAR 8737
000000
000000
010100
001000
010100
100100
111110
000100
000000
CHAR 8740
000000
001000
001000
001100
011000
001000
001000
000000
000000
CHAR 8741
000000
010100
010100
010100
010100
010100
010100
000000
000000
CHAR 8742
000000
010100
010110
011100
110100
010100
010100
000000
000000
CHAR 8743
000000
000000
000000
001000
010100
010100
100010
000000
000000
CHAR 8744
000000
000000
000000
100010
010100
010100
001000
000000
000000
CHAR 8745
000000
000000
000000
011100
100010
100010
100010
000000
000000
CHAR 8746
000000
000000
000000
100010
100010
100010
011100
000000
000000
CHAR 8747
000100
001010
001000
001000
001000
001000
001000
101000
010000
CHAR 8750
000100
001010
001000
011100
101010
011100
001000
101000
010000
CHAR 8756
000000
000000
001000
000000
000000
100010
000000
000000
000000
CHAR 8757
000000
000000
100010
000000
000000
001000
000000
000000
000000
CHAR 8758
000000
000000
001000
000000
000000
001000
000000
000000
000000
CHAR 8759
000000
000000
010010
000000
000000
010010
000000
000000
000000
CHAR 8760
000000
000000
001000
000000
111110
000000
000000
000000
000000
CHAR 8761
000000
000000
000010
000000
111000
000000
000010
000000
000000
CHAR 8762
000000
000000
100010
000000
111110
000000
100010
000000
000000
CHAR 8763
000000
000000
000100
000000
001010
010100
000000
001000
000000
CHAR 8764
000000
000000
000000
000000
001010
010100
000000
000000
000000
CHAR 8765
000000
000000
000000
000000
010100
001010
000000
000000
000000
CHAR 8771
000000
000000
000000
001010
010100
000000
011110
000000
000000
CHAR 8773
000000
000000
001010
010100
000000
011110
000000
011110
000000
CHAR 8776
000000
000000
010000
101010
010100
101010
000100
000000
000000
CHAR 8777
000000
000100
010100
101010
011100
101010
010100
010000
000000
CHAR 8793
001000
010100
000000
111110
000000
111110
000000
000000
000000
CHAR 8799
011000
000100
001000
000000
001000
000000
111110
000000
111110
CHAR 8800
000000
000000
000100
111110
001000
111110
010000
000000
000000
CHAR 8801
000000
000000
111110
000000
111110
000000
111110
000000
000000
CHAR 8802
000000
000100
111110
001000
111110
001000
111110
010000
000000
CHAR 8803
000000
111110
000000
111110
000000
111110
000000
111110
000000
CHAR 8804
000000
000110
011000
100000
011000
100110
011000
000110
000000
CHAR 8805
000000
110000
001100
000010
001100
110010
001100
110000
000000
CHAR 8810
000000
000000
001010
010100
101000
010100
001010
000000
000000
CHAR 8811
000000
000000
101000
010100
001010
010100
101000
000000
000000
CHAR 8834
000000
000000
001110
010000
010000
001110
000000
000000
000000
CHAR 8835
000000
000000
011100
000010
000010
011100
000000
000000
000000
CHAR 8836
000000
000100
001110
010100
010100
001110
000100
000000
000000
CHAR 8837
000000
001000
011100
001010
001010
011100
001000
000000
000000
CHAR 8838
000000
001110
010000
010000
001110
000000
011110
000000
000000
CHAR 8839
000000
011100
000010
000010
011100
000000
011110
000000
000000
CHAR 8840
000100
001110
010100
010100
001110
000100
011110
000100
000000
CHAR 8841
001000
011100
001010
001010
011100
001000
011110
001000
000000
CHAR 8842
000000
001110
010000
010000
001110
000100
011110
001000
000000
CHAR 8843
000000
011100
000010
000010
011100
000100
011110
001000
000000
CHAR 8853
000000
000000
011100
101010
111110
101010
011100
000000
000000
CHAR 8854
000000
000000
011100
100010
111110
100010
011100
000000
000000
CHAR 8855
000000
000000
011100
110110
101010
110110
011100
000000
000000
CHAR 8856
000000
000000
011100
100110
101010
110010
011100
000000
000000
CHAR 8857
000000
000000
011100
100010
101010
100010
011100
000000
000000
CHAR 8866
000000
000000
100000
100000
111110
100000
100000
000000
000000
CHAR 8867
000000
000000
000010
000010
111110
000010
000010
000000
000000
CHAR 8868
000000
111110
001000
001000
001000
001000
001000
000000
000000
CHAR 8869
000000
001000
001000
001000
001000
001000
111110
000000
000000
CHAR 8870
000000
000000
010000
010000
011100
010000
010000
000000
000000
CHAR 8871
000000
000000
010000
011100
010000
011100
010000
000000
000000
CHAR 8872
000000
000000
100000
111110
100000
111110
100000
000000
000000
CHAR 8896
001000
001000
010100
010100
010100
100010
100010
100010
000000
CHAR 8897
100010
100010
100010
010100
010100
010100
001000
001000
000000
CHAR 8898
011100
100010
100010
100010
100010
100010
100010
100010
000000
CHAR 8899
100010
100010
100010
100010
100010
100010
100010
011100
000000
CHAR 8901
000000
000000
000000
000000
001000
000000
000000
000000
000000
CHAR 8942
000000
001000
000000
000000
001000
000000
000000
001000
000000
CHAR 8943
000000
000000
000000
000000
101010
000000
000000
000000
000000
CHAR 8944
000000
000010
000000
000000
001000
000000
000000
100000
000000
CHAR 8945
000000
100000
000000
000000
001000
000000
000000
000010
000000
CHAR 8960
000000
000000
011110
100110
101010
110010
111100
000000
000000
CHAR 8962
000000
001000
010100
100010
100010
100010
111110
000000
000000
CHAR 8968
000000
011100
010000
010000
010000
010000
010000
000000
000000
CHAR 8969
000000
011100
000100
000100
000100
000100
000100
000000
000000
CHAR 8970
000000
010000
010000
010000
010000
010000
011100
000000
000000
CHAR 8971
000000
000100
000100
000100
000100
000100
011100
000000
000000
CHAR 8976
000000
000000
000000
000000
011110
010000
010000
000000
000000
CHAR 8992
000000
000010
000101
000100
000100
000100
000100
000100
000100
CHAR 8993
000100
000100
000100
000100
000100
000100
010100
001000
000000
CHAR 9146
111111
000000
000000
000000
000000
000000
000000
000000
000000
CHAR 9147
000000
000000
111111
000000
000000
000000
000000
000000
000000
CHAR 9148
000000
000000
000000
000000
000000
000000
111111
000000
000000
CHAR 9149
000000
000000
000000
000000
000000
000000
000000
000000
111111
CHAR 9225
000000
101000
111000
101000
000000
001110
000100
000100
000000
CHAR 9226
000000
100000
100000
100000
110000
001110
001000
001100
001000
CHAR 9227
000000
101000
101000
010000
010000
001110
000100
000100
000100
CHAR 9228
000000
111000
100000
110000
100000
001110
001000
001100
001000
CHAR 9229
000000
011000
100000
011000
000000
001100
001010
001100
001010
CHAR 9252
000000
100100
110100
101100
100100
001000
001000
001000
001110
CHAR 9472
000000
000000
000000
000000
111111
000000
000000
000000
000000
CHAR 9473
000000
000000
000000
111111
111111
000000
000000
000000
000000
CHAR 9474
000100
000100
000100
000100
000100
000100
000100
000100
000100
CHAR 9475
001100
001100
001100
001100
001100
001100
001100
001100
001100
CHAR 9484
000000
000000
000000
000000
000111
000100
000100
000100
000100
CHAR 9488
000000
000000
000000
000000
111100
000100
000100
000100
000100
CHAR 9492
000100
000100
000100
000100
000111
000000
000000
000000
000000
CHAR 9496
000100
000100
000100
000100
111100
000000
000000
000000
000000
CHAR 9500
000100
000100
000100
000100
000111
000100
000100
000100
000100
CHAR 9508
000100
000100
000100
000100
111100
000100
000100
000100
000100
CHAR 9516
000000
000000
000000
000000
111111
000100
000100
000100
000100
CHAR 9524
000100
000100
000100
000100
111111
000000
000000
000000
000000
CHAR 9532
000100
000100
000100
000100
111111
000100
000100
000100
000100
CHAR 9548
000000
000000
000000
000000
110110
000000
000000
000000
000000
CHAR 9549
000000
000000
000000
110110
110110
000000
000000
000000
000000
CHAR 9550
000100
000100
000100
000100
000000
000100
000100
000100
000000
CHAR 9551
001100
001100
001100
001100
000000
001100
001100
001100
000000
CHAR 9552
000000
000000
000000
111111
000000
111111
000000
000000
000000
CHAR 9553
001010
001010
001010
001010
001010
001010
001010
001010
001010
CHAR 9554
000000
000000
000000
000111
000100
000111
000100
000100
000100
CHAR 9555
000000
000000
000000
000000
001111
001010
001010
001010
001010
CHAR 9556
000000
000000
000000
001111
001000
001011
001010
001010
001010
CHAR 9557
000000
000000
000000
111100
000100
111100
000100
000100
000100
CHAR 9558
000000
000000
000000
000000
111110
001010
001010
001010
001010
CHAR 9559
000000
000000
000000
111110
000010
111010
001010
001010
001010
CHAR 9560
000100
000100
000100
000111
000100
000111
000000
000000
000000
CHAR 9561
001010
001010
001010
001010
001111
000000
000000
000000
000000
CHAR 9562
001010
001010
001010
001011
001000
001111
000000
000000
000000
CHAR 9563
000100
000100
000100
111100
000100
111100
000000
000000
000000
CHAR 9564
001010
001010
001010
001010
111110
000000
000000
000000
000000
CHAR 9565
001010
001010
001010
111010
000010
111110
000000
000000
000000
CHAR 9566
000100
000100
000100
000111
000100
000111
000100
000100
000100
CHAR 9567
001010
001010
001010
001010
001011
001010
001010
001010
001010
CHAR 9568
001010
001010
001010
001011
001000
001011
001010
001010
001010
CHAR 9569
000100
000100
000100
111100
000100
111100
000100
000100
000100
CHAR 9570
001010
001010
001010
001010
111010
001010
001010
001010
001010
CHAR 9571
001010
001010
001010
111010
000010
111010
001010
001010
001010
CHAR 9572
000000
000000
000000
111111
000000
111111
000100
000100
000100
CHAR 9573
000000
000000
000000
000000
111111
001010
001010
001010
001010
CHAR 9574
000000
000000
000000
111111
000000
111011
001010
001010
001010
CHAR 9575
000100
000100
000100
111111
000000
111111
000000
000000
000000
CHAR 9576
001010
001010
001010
001010
111111
000000
000000
000000
000000
CHAR 9577
001010
001010
001010
111011
000000
111111
000000
000000
000000
CHAR 9578
000100
000100
000100
111111
000100
111111
000100
000100
000100
CHAR 9579
001010
001010
001010
001010
111111
001010
001010
001010
001010
CHAR 9580
001010
001010
001010
111011
000000
111011
001010
001010
001010
CHAR 9581
000000
000000
000000
000000
000001
000010
000100
000100
000100
CHAR 9582
000000
000000
000000
000000
110000
001000
000100
000100
000100
CHAR 9583
000100
000100
000100
001000
110000
000000
000000
000000
000000
CHAR 9584
000100
000100
000100
000010
000001
000000
000000
000000
000000
CHAR 9585
000001
000001
000010
000100
000100
001000
010000
010000
100000
CHAR 9586
100000
100000
010000
001000
001000
000100
000010
000010
000001
CHAR 9587
100001
100001
010010
001100
001100
001100
010010
010010
100001
CHAR 9600
111111
111111
111111
111111
000000
000000
000000
000000
000000
CHAR 9601
000000
000000
000000
000000
000000
000000
000000
000000
111111
CHAR 9602
000000
000000
000000
000000
000000
000000
000000
111111
111111
CHAR 9603
000000
000000
000000
000000
000000
111111
111111
111111
111111
CHAR 9604
000000
000000
000000
000000
111111
111111
111111
111111
111111
CHAR 9605
000000
000000
000000
111111
111111
111111
111111
111111
111111
CHAR 9606
000000
000000
111111
111111
111111
111111
111111
111111
111111
CHAR 9607
000000
111111
111111
111111
111111
111111
111111
111111
111111
CHAR 9608
111111
111111
111111
111111
111111
111111
111111
111111
111111
CHAR 9609
111110
111110
111110
111110
111110
111110
111110
111110
111110
CHAR 9610
111100
111100
111100
111100
111100
111100
111100
111100
111100
CHAR 9611
111100
111100
111100
111100
111100
111100
111100
111100
111100
CHAR 9612
111000
111000
111000
111000
111000
111000
111000
111000
111000
CHAR 9613
110000
110000
110000
110000
110000
110000
110000
110000
110000
CHAR 9614
110000
110000
110000
110000
110000
110000
110000
110000
110000
CHAR 9615
100000
100000
100000
100000
100000
100000
100000
100000
100000
CHAR 9616
000111
000111
000111
000111
000111
000111
000111
000111
000111
CHAR 9617
101010
000000
010101
000000
101010
000000
010101
000000
101010
CHAR 9618
010101
101010
010101
101010
010101
101010
010101
101010
010101
CHAR 9619
111111
101010
111111
010101
111111
101010
111111
010101
111111
CHAR 9620
111111
000000
000000
000000
000000
000000
000000
000000
000000
CHAR 9621
000001
000001
000001
000001
000001
000001
000001
000001
000001
CHAR 9622
000000
000000
000000
000000
111000
111000
111000
111000
111000
CHAR 9623
000000
000000
000000
000000
000111
000111
000111
000111
000111
CHAR 9624
111000
111000
111000
111000
000000
000000
000000
000000
000000
CHAR 9625
111000
111000
111000
111000
111111
111111
111111
111111
111111
CHAR 9626
111000
111000
111000
111000
000111
000111
000111
000111
000111
CHAR 9627
111111
111111
111111
111111
111000
111000
111000
111000
111000
CHAR 9628
111111
111111
111111
111111
000111
000111
000111
000111
000111
CHAR 9629
000111
000111
000111
000111
000000
000000
000000
000000
000000
CHAR 9630
000111
000111
000111
000111
111000
111000
111000
111000
111000
CHAR 9631
000111
000111
000111
000111
111111
111111
111111
111111
111111
CHAR 9632
000000
000000
111110
111110
111110
111110
111110
000000
000000
CHAR 9633
000000
000000
111110
100010
100010
100010
111110
000000
000000
CHAR 9634
000000
000000
011100
100010
100010
100010
011100
000000
000000
CHAR 9635
000000
000000
111110
100010
101010
100010
111110
000000
000000
CHAR 9642
000000
000000
000000
011100
011100
011100
000000
000000
000000
CHAR 9643
000000
000000
000000
011100
010100
011100
000000
000000
000000
CHAR 9644
000000
000000
000000
111110
111110
111110
000000
000000
000000
CHAR 9645
000000
000000
000000
111110
100010
111110
000000
000000
000000
CHAR 9646
000000
011110
011110
011110
011110
011110
011110
000000
000000
CHAR 9647
000000
011110
010010
010010
010010
010010
011110
000000
000000
CHAR 9648
000000
000000
000000
011110
111110
111100
000000
000000
000000
CHAR 9649
000000
000000
000000
011110
100010
111100
000000
000000
000000
CHAR 9650
000000
001000
001000
011100
011100
111110
111110
000000
000000
CHAR 9651
000000
001000
001000
010100
010100
100010
111110
000000
000000
CHAR 9652
000000
000000
001000
001000
011100
011100
000000
000000
000000
CHAR 9653
000000
000000
001000
001000
010100
011100
000000
000000
000000
CHAR 9654
000000
000000
110000
111100
111110
111100
110000
000000
000000
CHAR 9655
000000
000000
110000
101100
100010
101100
110000
000000
000000
CHAR 9656
000000
000000
000000
011000
011110
011000
000000
000000
000000
CHAR 9657
000000
000000
000000
011000
010110
011000
000000
000000
000000
CHAR 9658
000000
000000
000000
111000
111110
111000
000000
000000
000000
CHAR 9659
000000
000000
000000
111000
100110
111000
000000
000000
000000
CHAR 9660
000000
111110
111110
011100
011100
001000
001000
000000
000000
CHAR 9661
000000
111110
100010
010100
010100
001000
001000
000000
000000
CHAR 9662
000000
000000
011100
011100
001000
001000
000000
000000
000000
CHAR 9663
000000
000000
011100
010100
001000
001000
000000
000000
000000
CHAR 9664
000000
000000
000110
011110
111110
011110
000110
000000
000000
CHAR 9665
000000
000000
000110
011010
100010
011010
000110
000000
000000
CHAR 9666
000000
000000
000000
000110
011110
000110
000000
000000
000000
CHAR 9667
000000
000000
000000
000110
011010
000110
000000
000000
000000
CHAR 9668
000000
000000
000000
001110
111110
001110
000000
000000
000000
CHAR 9669
000000
000000
000000
001110
110010
001110
000000
000000
000000
CHAR 9670
000000
000000
001100
011110
111111
011110
001100
000000
000000
CHAR 9674
000000
001000
010100
010100
100010
010100
010100
001000
000000
CHAR 9675
000000
000000
011100
100010
100010
100010
011100
000000
000000
CHAR 9679
000000
000000
011100
111110
111110
111110
011100
000000
000000
CHAR 9688
111111
111111
110011
100001
100001
110011
111111
111111
111111
CHAR 9689
111111
111111
110011
101101
101101
110011
111111
111111
111111
CHAR 9702
000000
000000
001100
010010
010010
001100
000000
000000
000000
CHAR 9728
000000
001000
101010
011100
111110
011100
101010
001000
000000
CHAR 9785
011110
100001
110011
100001
101101
110011
100001
011110
000000
CHAR 9786
011110
100001
110011
100001
110011
101101
100001
011110
000000
CHAR 9787
011110
111111
101101
111111
101101
110011
111111
011110
000000
CHAR 9788
000000
001000
101010
011100
110110
011100
101010
001000
000000
CHAR 9791
100010
011100
100010
100010
011100
001000
111110
001000
000000
CHAR 9792
000000
011100
100010
100010
011100
001000
111110
001000
000000
CHAR 9793
000000
001000
111110
001000
011100
100010
100010
011100
000000
CHAR 9794
000000
000111
000011
000101
011100
100010
100010
011100
000000
CHAR 9824
000000
001000
011100
111110
111110
001000
011100
000000
000000
CHAR 9825
000000
010100
101010
100010
100010
010100
001000
000000
000000
CHAR 9826
000000
000000
001000
010100
100010
010100
001000
000000
000000
CHAR 9827
001000
011100
101010
111110
101010
001000
011100
000000
000000
CHAR 9828
000000
001000
010100
100010
111110
001000
011100
000000
000000
CHAR 9829
000000
010100
111110
111110
111110
011100
001000
000000
000000
CHAR 9830
000000
000000
001000
011100
111110
011100
001000
000000
000000
CHAR 9833
000000
000100
000100
000100
000100
011100
011000
000000
000000
CHAR 9834
000000
001100
001010
001000
001000
111000
110000
000000
000000
CHAR 9835
000000
011000
010110
010010
110010
110110
000110
000000
000000
CHAR 10216
000000
000100
000100
001000
001000
001000
000100
000100
000000
CHAR 10217
000000
001000
001000
000100
000100
000100
001000
001000
000000
CHAR 10240
000000
000000
000000
000000
000000
000000
000000
000000
000000
CHAR 10241
000000
010000
000000
000000
000000
000000
000000
000000
000000
CHAR 10242
000000
000000
000000
010000
000000
000000
000000
000000
000000
CHAR 10243
000000
010000
000000
010000
000000
000000
000000
000000
000000
CHAR 10244
000000
000000
000000
000000
000000
010000
000000
000000
000000
CHAR 10245
000000
010000
000000
000000
000000
010000
000000
000000
000000
CHAR 10246
000000
000000
000000
010000
000000
010000
000000
000000
000000
CHAR 10247
000000
010000
000000
010000
000000
010000
000000
000000
000000
CHAR 10248
000000
000100
000000
000000
000000
000000
000000
000000
000000
CHAR 10249
000000
010100
000000
000000
000000
000000
000000
000000
000000
CHAR 10250
000000
000100
000000
010000
000000
000000
000000
000000
000000
CHAR 10251
000000
010100
000000
010000
000000
000000
000000
000000
000000
CHAR 10252
000000
000100
000000
000000
000000
010000
000000
000000
000000
CHAR 10253
000000
010100
000000
000000
000000
010000
000000
000000
000000
CHAR 10254
000000
000100
000000
010000
000000
010000
000000
000000
000000
CHAR 10255
000000
010100
000000
010000
000000
010000
000000
000000
000000
CHAR 10256
000000
000000
000000
000100
000000
000000
000000
000000
000000
CHAR 10257
000000
010000
000000
000100
000000
000000
000000
000000
000000
CHAR 10258
000000
000000
000000
010100
000000
000000
000000
000000
000000
CHAR 10259
000000
010000
000000
010100
000000
000000
000000
000000
000000
CHAR 10260
000000
000000
000000
000100
000000
010000
000000
000000
000000
CHAR 10261
000000
010000
000000
000100
000000
010000
000000
000000
000000
CHAR 10262
000000
000000
000000
010100
000000
010000
000000
000000
000000
CHAR 10263
000000
010000
000000
010100
000000
010000
000000
000000
000000
CHAR 10264
000000
000100
000000
000100
000000
000000
000000
000000
000000
CHAR 10265
000000
010100
000000
000100
000000
000000
000000
000000
000000
CHAR 10266
000000
000100
000000
010100
000000
000000
000000
000000
000000
CHAR 10267
000000
010100
000000
010100
000000
000000
000000
000000
000000
CHAR 10268
000000
000100
000000
000100
000000
010000
000000
000000
000000
CHAR 10269
000000
010100
000000
000100
000000
010000
000000
000000
000000
CHAR 10270
000000
000100
000000
010100
000000
010000
000000
000000
000000
CHAR 10271
000000
010100
000000
010100
000000
010000
000000
000000
000000
CHAR 10272
000000
000000
000000
000000
000000
000100
000000
000000
000000
CHAR 10273
000000
010000
000000
000000
000000
000100
000000
000000
000000
CHAR 10274
000000
000000
000000
010000
000000
000100
000000
000000
000000
CHAR 10275
000000
010000
000000
010000
000000
000100
000000
000000
000000
CHAR 10276
000000
000000
000000
000000
000000
010100
000000
000000
000000
CHAR 10277
000000
010000
000000
000000
000000
010100
000000
000000
000000
CHAR 10278
000000
000000
000000
010000
000000
010100
000000
000000
000000
CHAR 10279
000000
010000
000000
010000
000000
010100
000000
000000
000000
CHAR 10280
000000
000100
000000
000000
000000
000100
000000
000000
000000
CHAR 10281
000000
010100
000000
000000
000000
000100
000000
000000
000000
CHAR 10282
000000
000100
000000
010000
000000
000100
000000
000000
000000
CHAR 10283
000000
010100
000000
010000
000000
000100
000000
000000
000000
CHAR 10284
000000
000100
000000
000000
000000
010100
000000
000000
000000
CHAR 10285
000000
010100
000000
000000
000000
010100
000000
000000
000000
CHAR 10286
000000
000100
000000
010000
000000
010100
000000
000000
000000
CHAR 10287
000000
010100
000000
010000
000000
010100
000000
000000
000000
CHAR 10288
000000
000000
000000
000100
000000
000100
000000
000000
000000
CHAR 10289
000000
010000
000000
000100
000000
000100
000000
000000
000000
CHAR 10290
000000
000000
000000
010100
000000
000100
000000
000000
000000
CHAR 10291
000000
010000
000000
010100
000000
000100
000000
000000
000000
CHAR 10292
000000
000000
000000
000100
000000
010100
000000
000000
000000
CHAR 10293
000000
010000
000000
000100
000000
010100
000000
000000
000000
CHAR 10294
000000
000000
000000
010100
000000
010100
000000
000000
000000
CHAR 10295
000000
010000
000000
010100
000000
010100
000000
000000
000000
CHAR 10296
000000
000100
000000
000100
000000
000100
000000
000000
000000
CHAR 10297
000000
010100
000000
000100
000000
000100
000000
000000
000000
CHAR 10298
000000
000100
000000
010100
000000
000100
000000
000000
000000
CHAR 10299
000000
010100
000000
010100
000000
000100
000000
000000
000000
CHAR 10300
000000
000100
000000
000100
000000
010100
000000
000000
000000
CHAR 10301
000000
010100
000000
000100
000000
010100
000000
000000
000000
CHAR 10302
000000
000100
000000
010100
000000
010100
000000
000000
000000
CHAR 10303
000000
010100
000000
010100
000000
010100
000000
000000
000000
CHAR 10304
000000
000000
000000
000000
000000
000000
000000
010000
000000
CHAR 10305
000000
010000
000000
000000
000000
000000
000000
010000
000000
CHAR 10306
000000
000000
000000
010000
000000
000000
000000
010000
000000
CHAR 10307
000000
010000
000000
010000
000000
000000
000000
010000
000000
CHAR 10308
000000
000000
000000
000000
000000
010000
000000
010000
000000
CHAR 10309
000000
010000
000000
000000
000000
010000
000000
010000
000000
CHAR 10310
000000
000000
000000
010000
000000
010000
000000
010000
000000
CHAR 10311
000000
010000
000000
010000
000000
010000
000000
010000
000000
CHAR 10312
000000
000100
000000
000000
000000
000000
000000
010000
000000
CHAR 10313
000000
010100
000000
000000
000000
000000
000000
010000
000000
CHAR 10314
000000
000100
000000
010000
000000
000000
000000
010000
000000
CHAR 10315
000000
010100
000000
010000
000000
000000
000000
010000
000000
CHAR 10316
000000
000100
000000
000000
000000
010000
000000
010000
000000
CHAR 10317
000000
010100
000000
000000
000000
010000
000000
010000
000000
CHAR 10318
000000
000100
000000
010000
000000
010000
000000
010000
000000
CHAR 10319
000000
010100
000000
010000
000000
010000
000000
010000
000000
CHAR 10320
000000
000000
000000
000100
000000
000000
000000
010000
000000
CHAR 10321
000000
010000
000000
000100
000000
000000
000000
010000
000000
CHAR 10322
000000
000000
000000
010100
000000
000000
000000
010000
000000
CHAR 10323
000000
010000
000000
010100
000000
000000
000000
010000
000000
CHAR 10324
000000
000000
000000
000100
000000
010000
000000
010000
000000
CHAR 10325
000000
010000
000000
000100
000000
010000
000000
010000
000000
CHAR 10326
000000
000000
000000
010100
000000
010000
000000
010000
000000
CHAR 10327
000000
010000
000000
010100
000000
010000
000000
010000
000000
CHAR 10328
000000
000100
000000
000100
000000
000000
000000
010000
000000
CHAR 10329
000000
010100
000000
000100
000000
000000
000000
010000
000000
CHAR 10330
000000
000100
000000
010100
000000
000000
000000
010000
000000
CHAR 10331
000000
010100
000000
010100
000000
000000
000000
010000
000000
CHAR 10332
000000
000100
000000
000100
000000
010000
000000
010000
000000
CHAR 10333
000000
010100
000000
000100
000000
010000
000000
010000
000000
CHAR 10334
000000
000100
000000
010100
000000
010000
000000
010000
000000
CHAR 10335
000000
010100
000000
010100
000000
010000
000000
010000
000000
CHAR 10336
000000
000000
000000
000000
000000
000100
000000
010000
000000
CHAR 10337
000000
010000
000000
000000
000000
000100
000000
010000
000000
CHAR 10338
000000
000000
000000
010000
000000
000100
000000
010000
000000
CHAR 10339
000000
010000
000000
010000
000000
000100
000000
010000
000000
CHAR 10340
000000
000000
000000
000000
000000
010100
000000
010000
000000
CHAR 10341
000000
010000
000000
000000
000000
010100
000000
010000
000000
CHAR 10342
000000
000000
000000
010000
000000
010100
000000
010000
000000
CHAR 10343
000000
010000
000000
010000
000000
010100
000000
010000
000000
CHAR 10344
000000
000100
000000
000000
000000
000100
000000
010000
000000
CHAR 10345
000000
010100
000000
000000
000000
000100
000000
010000
000000
CHAR 10346
000000
000100
000000
010000
000000
000100
000000
010000
000000
CHAR 10347
000000
010100
000000
010000
000000
000100
000000
010000
000000
CHAR 10348
000000
000100
000000
000000
000000
010100
000000
010000
000000
CHAR 10349
000000
010100
000000
000000
000000
010100
000000
010000
000000
CHAR 10350
000000
000100
000000
010000
000000
010100
000000
010000
000000
CHAR 10351
000000
010100
000000
010000
000000
010100
000000
010000
000000
CHAR 10352
000000
000000
000000
000100
000000
000100
000000
010000
000000
CHAR 10353
000000
010000
000000
000100
000000
000100
000000
010000
000000
CHAR 10354
000000
000000
000000
010100
000000
000100
000000
010000
000000
CHAR 10355
000000
010000
000000
010100
000000
000100
000000
010000
000000
CHAR 10356
000000
000000
000000
000100
000000
010100
000000
010000
000000
CHAR 10357
000000
010000
000000
000100
000000
010100
000000
010000
000000
CHAR 10358
000000
000000
000000
010100
000000
010100
000000
010000
000000
CHAR 10359
000000
010000
000000
010100
000000
010100
000000
010000
000000
CHAR 10360
000000
000100
000000
000100
000000
000100
000000
010000
000000
CHAR 10361
000000
010100
000000
000100
000000
000100
000000
010000
000000
CHAR 10362
000000
000100
000000
010100
000000
000100
000000
010000
000000
CHAR 10363
000000
010100
000000
010100
000000
000100
000000
010000
000000
CHAR 10364
000000
000100
000000
000100
000000
010100
000000
010000
000000
CHAR 10365
000000
010100
000000
000100
000000
010100
000000
010000
000000
CHAR 10366
000000
000100
000000
010100
000000
010100
000000
010000
000000
CHAR 10367
000000
010100
000000
010100
000000
010100
000000
010000
000000
CHAR 10368
000000
000000
000000
000000
000000
000000
000000
000100
000000
CHAR 10369
000000
010000
000000
000000
000000
000000
000000
000100
000000
CHAR 10370
000000
000000
000000
010000
000000
000000
000000
000100
000000
CHAR 10371
000000
010000
000000
010000
000000
000000
000000
000100
000000
CHAR 10372
000000
000000
000000
000000
000000
010000
000000
000100
000000
CHAR 10373
000000
010000
000000
000000
000000
010000
000000
000100
000000
CHAR 10374
000000
000000
000000
010000
000000
010000
000000
000100
000000
CHAR 10375
000000
010000
000000
010000
000000
010000
000000
000100
000000
CHAR 10376
000000
000100
000000
000000
000000
000000
000000
000100
000000
CHAR 10377
000000
010100
000000
000000
000000
000000
000000
000100
000000
CHAR 10378
000000
000100
000000
010000
000000
000000
000000
000100
000000
CHAR 10379
000000
010100
000000
010000
000000
000000
000000
000100
000000
CHAR 10380
000000
000100
000000
000000
000000
010000
000000
000100
000000
CHAR 10381
000000
010100
000000
000000
000000
010000
000000
000100
000000
CHAR 10382
000000
000100
000000
010000
000000
010000
000000
000100
000000
CHAR 10383
000000
010100
000000
010000
000000
010000
000000
000100
000000
CHAR 10384
000000
000000
000000
000100
000000
000000
000000
000100
000000
CHAR 10385
000000
010000
000000
000100
000000
000000
000000
000100
000000
CHAR 10386
000000
000000
000000
010100
000000
000000
000000
000100
000000
CHAR 10387
000000
010000
000000
010100
000000
000000
000000
000100
000000
CHAR 10388
000000
000000
000000
000100
000000
010000
000000
000100
000000
CHAR 10389
000000
010000
000000
000100
000000
010000
000000
000100
000000
CHAR 10390
000000
000000
000000
010100
000000
010000
000000
000100
000000
CHAR 10391
000000
010000
000000
010100
000000
010000
000000
000100
000000
CHAR 10392
000000
000100
000000
000100
000000
000000
000000
000100
000000
CHAR 10393
000000
010100
000000
000100
000000
000000
000000
000100
000000
CHAR 10394
000000
000100
000000
010100
000000
000000
000000
000100
000000
CHAR 10395
000000
010100
000000
010100
000000
000000
000000
000100
000000
CHAR 10396
000000
000100
000000
000100
000000
010000
000000
000100
000000
CHAR 10397
000000
010100
000000
000100
000000
010000
000000
000100
000000
CHAR 10398
000000
000100
000000
010100
000000
010000
000000
000100
000000
CHAR 10399
000000
010100
000000
010100
000000
010000
000000
000100
000000
CHAR 10400
000000
000000
000000
000000
000000
000100
000000
000100
000000
CHAR 10401
000000
010000
000000
000000
000000
000100
000000
000100
000000
CHAR 10402
000000
000000
000000
010000
000000
000100
000000
000100
000000
CHAR 10403
000000
010000
000000
010000
000000
000100
000000
000100
000000
CHAR 10404
000000
000000
000000
000000
000000
010100
000000
000100
000000
CHAR 10405
000000
010000
000000
000000
000000
010100
000000
000100
000000
CHAR 10406
000000
000000
000000
010000
000000
010100
000000
000100
000000
CHAR 10407
000000
010000
000000
010000
000000
010100
000000
000100
000000
CHAR 10408
000000
000100
000000
000000
000000
000100
000000
000100
000000
CHAR 10409
000000
010100
000000
000000
000000
000100
000000
000100
000000
CHAR 10410
000000
000100
000000
010000
000000
000100
000000
000100
000000
CHAR 10411
000000
010100
000000
010000
000000
000100
000000
000100
000000
CHAR 10412
000000
000100
000000
000000
000000
010100
000000
000100
000000
CHAR 10413
000000
010100
000000
000000
000000
010100
000000
000100
000000
CHAR 10414
000000
000100
000000
010000
000000
010100
000000
000100
000000
CHAR 10415
000000
010100
000000
010000
000000
010100
000000
000100
000000
CHAR 10416
000000
000000
000000
000100
000000
000100
000000
000100
000000
CHAR 10417
000000
010000
000000
000100
000000
000100
000000
000100
000000
CHAR 10418
000000
000000
000000
010100
000000
000100
000000
000100
000000
CHAR 10419
000000
010000
000000
010100
000000
000100
000000
000100
000000
CHAR 10420
000000
000000
000000
000100
000000
010100
000000
000100
000000
CHAR 10421
000000
010000
000000
000100
000000
010100
000000
000100
000000
CHAR 10422
000000
000000
000000
010100
000000
010100
000000
000100
000000
CHAR 10423
000000
010000
000000
010100
000000
010100
000000
000100
000000
CHAR 10424
000000
000100
000000
000100
000000
000100
000000
000100
000000
CHAR 10425
000000
010100
000000
000100
000000
000100
000000
000100
000000
CHAR 10426
000000
000100
000000
010100
000000
000100
000000
000100
000000
CHAR 10427
000000
010100
000000
010100
000000
000100
000000
000100
000000
CHAR 10428
000000
000100
000000
000100
000000
010100
000000
000100
000000
CHAR 10429
000000
010100
000000
000100
000000
010100
000000
000100
000000
CHAR 10430
000000
000100
000000
010100
000000
010100
000000
000100
000000
CHAR 10431
000000
010100
000000
010100
000000
010100
000000
000100
000000
CHAR 10432
000000
000000
000000
000000
000000
000000
000000
010100
000000
CHAR 10433
000000
010000
000000
000000
000000
000000
000000
010100
000000
CHAR 10434
000000
000000
000000
010000
000000
000000
000000
010100
000000
CHAR 10435
000000
010000
000000
010000
000000
000000
000000
010100
000000
CHAR 10436
000000
000000
000000
000000
000000
010000
000000
010100
000000
CHAR 10437
000000
010000
000000
000000
000000
010000
000000
010100
000000
CHAR 10438
000000
000000
000000
010000
000000
010000
000000
010100
000000
CHAR 10439
000000
010000
000000
010000
000000
010000
000000
010100
000000
CHAR 10440
000000
000100
000000
000000
000000
000000
000000
010100
000000
CHAR 10441
000000
010100
000000
000000
000000
000000
000000
010100
000000
CHAR 10442
000000
000100
000000
010000
000000
000000
000000
010100
000000
CHAR 10443
000000
010100
000000
010000
000000
000000
000000
010100
000000
CHAR 10444
000000
000100
000000
000000
000000
010000
000000
010100
000000
CHAR 10445
000000
010100
000000
000000
000000
010000
000000
010100
000000
CHAR 10446
000000
000100
000000
010000
000000
010000
000000
010100
000000
CHAR 10447
000000
010100
000000
010000
000000
010000
000000
010100
000000
CHAR 10448
000000
000000
000000
000100
000000
000000
000000
010100
000000
CHAR 10449
000000
010000
000000
000100
000000
000000
000000
010100
000000
CHAR 10450
000000
000000
000000
010100
000000
000000
000000
010100
000000
CHAR 10451
000000
010000
000000
010100
000000
000000
000000
010100
000000
CHAR 10452
000000
000000
000000
000100
000000
010000
000000
010100
000000
CHAR 10453
000000
010000
000000
000100
000000
010000
000000
010100
000000
CHAR 10454
000000
000000
000000
010100
000000
010000
000000
010100
000000
CHAR 10455
000000
010000
000000
010100
000000
010000
000000
010100
000000
CHAR 10456
000000
000100
000000
000100
000000
000000
000000
010100
000000
CHAR 10457
000000
010100
000000
000100
000000
000000
000000
010100
000000
CHAR 10458
000000
000100
000000
010100
000000
000000
000000
010100
000000
CHAR 10459
000000
010100
000000
010100
000000
000000
000000
010100
000000
CHAR 10460
000000
000100
000000
000100
000000
010000
000000
010100
000000
CHAR 10461
000000
010100
000000
000100
000000
010000
000000
010100
000000
CHAR 10462
000000
000100
000000
010100
000000
010000
000000
010100
000000
CHAR 10463
000000
010100
000000
010100
000000
010000
000000
010100
000000
CHAR 10464
000000
000000
000000
000000
000000
000100
000000
010100
000000
CHAR 10465
000000
010000
000000
000000
000000
000100
000000
010100
000000
CHAR 10466
000000
000000
000000
010000
000000
000100
000000
010100
000000
CHAR 10467
000000
010000
000000
010000
000000
000100
000000
010100
000000
CHAR 10468
000000
000000
000000
000000
000000
010100
000000
010100
000000
CHAR 10469
000000
010000
000000
000000
000000
010100
000000
010100
000000
CHAR 10470
000000
000000
000000
010000
000000
010100
000000
010100
000000
CHAR 10471
000000
010000
000000
010000
000000
010100
000000
010100
000000
CHAR 10472
000000
000100
000000
000000
000000
000100
000000
010100
000000
CHAR 10473
000000
010100
000000
000000
000000
000100
000000
010100
000000
CHAR 10474
000000
000100
000000
010000
000000
000100
000000
010100
000000
CHAR 10475
000000
010100
000000
010000
000000
000100
000000
010100
000000
CHAR 10476
000000
000100
000000
000000
000000
010100
000000
010100
000000
CHAR 10477
000000
010100
000000
000000
000000
010100
000000
010100
000000
CHAR 10478
000000
000100
000000
010000
000000
010100
000000
010100
000000
CHAR 10479
000000
010100
000000
010000
000000
010100
000000
010100
000000
CHAR 10480
000000
000000
000000
000100
000000
000100
000000
010100
000000
CHAR 10481
000000
010000
000000
000100
000000
000100
000000
010100
000000
CHAR 10482
000000
000000
000000
010100
000000
000100
000000
010100
000000
CHAR 10483
000000
010000
000000
010100
000000
000100
000000
010100
000000
CHAR 10484
000000
000000
000000
000100
000000
010100
000000
010100
000000
CHAR 10485
000000
010000
000000
000100
000000
010100
000000
010100
000000
CHAR 10486
000000
000000
000000
010100
000000
010100
000000
010100
000000
CHAR 10487
000000
010000
000000
010100
000000
010100
000000
010100
000000
CHAR 10488
000000
000100
000000
000100
000000
000100
000000
010100
000000
CHAR 10489
000000
010100
000000
000100
000000
000100
000000
010100
000000
CHAR 10490
000000
000100
000000
010100
000000
000100
000000
010100
000000
CHAR 10491
000000
010100
000000
010100
000000
000100
000000
010100
000000
CHAR 10492
000000
000100
000000
000100
000000
010100
000000
010100
000000
CHAR 10493
000000
010100
000000
000100
000000
010100
000000
010100
000000
CHAR 10494
000000
000100
000000
010100
000000
010100
000000
010100
000000
CHAR 10495
000000
010100
000000
010100
000000
010100
000000
010100
000000
CHAR 64257
000000
000100
001010
001000
011110
001010
001010
000000
000000
CHAR 64258
000000
000110
001010
001010
011110
001010
001010
000000
000000
CHAR 65533
011100
110110
101010
111010
110110
110110
111110
110110
011100