
Exploration

# BITSY VERSION 4.5

! ROOM_FORMAT 1

PAL 0
NAME house
115,58,19
0,0,0
255,255,255

PAL 1
NAME forest
32,130,25
34,79,24
254,254,239

PAL 2
NAME grotte
112,112,105
0,0,0
255,255,255

PAL 3
NAME fin
78,116,255
74,44,17
255,255,255

ROOM 0
a,a,a,a,a,a,a,a,a,a,a,a,a,a,a,a
a,0,0,0,0,0,0,0,a,0,0,0,0,0,0,a
a,0,0,0,0,0,0,0,a,0,0,0,0,0,0,a
a,0,0,0,0,0,0,0,a,0,0,0,0,0,0,a
a,0,0,0,0,0,0,0,a,0,0,0,0,0,0,a
a,0,0,0,0,0,0,0,a,0,0,0,0,0,0,a
a,a,a,a,a,a,a,0,a,0,a,a,a,a,a,a
a,0,0,0,0,0,0,0,0,0,0,0,0,0,0,a
a,0,0,0,0,0,0,0,0,0,0,0,0,0,0,a
a,0,0,0,0,0,0,0,0,0,0,0,0,0,0,a
a,0,0,0,0,0,0,0,0,0,0,0,0,0,0,a
a,0,0,0,0,0,0,0,0,0,0,0,0,0,0,a
a,0,0,0,0,0,0,0,0,0,0,0,0,0,0,a
a,0,0,0,0,0,0,0,0,0,0,0,0,0,0,a
a,0,0,0,0,0,0,0,0,0,0,0,0,0,0,a
a,a,a,a,a,a,a,a,0,a,a,a,a,a,a,a
NAME house
ITM 0 2,10
EXT 8,15 1 8,0
PAL 0

ROOM 1
b,b,b,b,b,b,b,b,0,b,b,b,b,b,b,b
b,b,b,b,b,b,b,b,0,b,b,b,b,b,b,b
b,0,0,0,0,b,b,b,0,0,0,0,0,0,0,b
b,0,b,b,0,b,b,b,0,b,b,b,b,b,0,b
b,0,b,b,0,b,b,0,0,0,0,0,0,0,0,b
b,0,b,b,0,b,b,0,b,0,b,b,b,b,0,b
b,0,b,b,0,b,b,0,b,0,b,b,b,b,0,0
b,0,b,b,0,b,b,0,b,0,b,b,b,b,0,b
b,0,b,b,0,b,b,0,b,0,b,b,b,b,0,b
b,0,b,b,b,b,b,0,b,0,b,b,b,b,0,b
b,0,0,0,0,0,0,0,0,0,b,b,b,b,0,b
b,0,b,0,0,b,b,b,b,b,b,b,b,0,0,b
b,0,b,0,0,b,b,b,b,b,b,b,b,0,b,b
b,0,b,0,0,0,0,0,0,0,0,0,0,0,b,b
b,0,b,b,b,b,b,b,b,b,b,b,b,b,b,b
b,b,b,b,b,b,b,b,b,b,b,b,b,b,b,b
NAME forÃªt
ITM 1 4,8
ITM 2 1,14
EXT 15,6 2 0,10
PAL 1

ROOM 2
a,a,a,a,a,a,a,a,a,a,a,a,a,a,0,a
a,a,a,a,a,a,a,a,a,a,a,a,a,a,0,a
a,a,a,a,a,a,a,a,a,a,a,a,a,a,0,a
a,a,a,a,a,a,a,a,a,a,a,a,a,a,0,a
a,a,a,a,a,a,a,a,a,a,a,a,a,a,0,a
a,a,a,a,a,a,a,a,a,a,a,a,a,a,0,a
a,a,a,a,a,a,a,a,a,a,a,a,a,a,0,a
a,a,a,a,a,a,a,a,a,a,a,a,a,a,0,a
a,a,a,a,a,a,a,a,a,a,a,a,a,0,0,a
a,0,0,0,0,0,0,0,0,0,0,0,0,0,0,0
0,0,0,0,0,0,0,0,0,0,0,0,0,0,0,0
a,0,0,0,0,0,0,0,0,0,0,0,0,0,0,0
a,a,a,a,a,a,a,a,a,a,a,a,a,0,0,a
a,a,a,a,a,a,a,a,a,a,a,a,a,0,0,a
a,a,a,a,a,a,a,a,a,a,a,a,a,a,a,a
a,a,a,a,a,a,a,a,a,a,a,a,a,a,a,a
NAME grotte 1-a
EXT 7,9 3 2,2
EXT 7,10 3 2,2
EXT 7,11 3 2,2
PAL 2

ROOM 3
a,a,0,0,a,a,a,a,a,a,0,a,0,a,0,a
a,a,0,0,a,a,a,a,a,a,0,a,0,a,0,a
a,a,0,0,a,a,a,a,a,a,0,a,0,a,0,a
a,a,0,0,a,a,a,a,a,a,0,a,0,a,0,a
a,a,0,0,a,a,a,a,a,a,0,0,0,0,0,a
a,a,0,0,a,a,a,a,a,a,0,0,0,0,0,a
a,a,0,0,a,a,a,a,a,a,0,0,0,0,0,a
a,a,0,0,a,a,a,a,a,a,0,0,0,0,0,a
a,a,0,0,a,a,a,a,a,a,a,0,0,0,a,a
a,a,0,0,a,a,a,a,a,a,a,a,0,a,a,a
a,a,0,0,a,a,a,a,a,a,a,a,0,a,a,a
a,a,0,0,a,a,a,a,a,a,a,a,0,a,a,a
a,a,0,0,a,a,a,a,a,a,a,a,0,a,a,a
a,a,0,0,0,0,0,0,0,0,0,0,0,a,a,a
a,a,a,a,a,a,a,a,a,a,a,a,0,a,a,a
a,a,a,a,a,a,a,a,a,a,a,a,a,a,a,a
NAME grotte 2-a
EXT 12,0 3 12,14
EXT 10,0 3 12,14
EXT 14,0 4 14,0
PAL 2

ROOM 4
a,a,a,a,a,a,a,a,a,a,a,a,a,a,0,a
a,a,a,a,a,a,a,a,a,a,a,a,a,a,0,a
a,a,a,a,a,a,a,a,a,a,a,a,a,a,0,a
a,a,a,a,a,a,a,a,a,a,a,a,a,a,0,a
a,a,a,a,a,a,a,a,a,a,a,a,a,a,0,a
a,a,a,a,a,a,a,a,a,a,a,a,a,a,0,a
a,a,a,a,a,a,a,a,a,a,a,a,a,a,0,a
a,a,a,a,a,a,a,a,a,a,a,a,a,a,0,a
a,a,a,a,a,a,a,a,a,a,a,a,a,0,0,a
a,0,0,0,0,0,0,0,0,0,0,0,0,0,0,0
0,0,0,0,0,0,0,0,0,0,0,0,0,0,0,0
a,0,0,0,0,0,0,0,0,0,0,0,0,a,0,0
a,a,a,a,a,a,a,a,a,a,a,0,a,a,0,a
a,a,a,a,a,a,a,a,a,a,a,0,0,0,0,a
a,a,a,a,a,a,a,a,a,a,a,a,a,a,a,a
a,a,a,a,a,a,a,a,a,a,a,a,a,a,a,a
NAME grotte 1-b
EXT 7,9 6 2,2
EXT 7,10 3 2,2
EXT 7,11 6 2,2
EXT 14,11 5 14,10
PAL 2

ROOM 5
a,a,a,a,a,a,a,a,a,a,a,a,a,a,0,a
a,a,a,a,a,a,a,a,a,a,a,a,a,a,0,a
a,a,a,a,a,a,a,a,a,a,a,a,a,a,0,a
a,a,a,a,a,a,a,a,a,a,a,a,a,a,0,a
a,a,a,a,a,a,a,a,a,a,a,a,a,a,0,a
a,a,a,a,a,a,a,a,a,a,a,a,a,a,0,a
a,a,a,a,a,a,a,a,a,a,a,a,a,a,0,a
a,a,a,a,a,a,a,a,a,a,a,a,a,a,0,a
a,a,a,a,a,a,a,a,a,a,a,a,a,0,0,a
a,0,0,0,0,0,0,0,0,0,0,0,0,0,0,0
0,0,0,0,0,0,0,0,0,0,0,0,0,0,0,0
a,0,0,0,0,0,0,0,0,0,0,0,0,a,0,0
a,a,a,a,a,a,a,a,a,a,a,0,a,a,0,a
a,a,a,a,a,a,a,a,a,a,a,0,0,0,0,a
a,a,a,a,a,a,a,a,a,a,a,a,a,a,a,a
a,a,a,a,a,a,a,a,a,a,a,a,a,a,a,a
NAME grotte 1-c
EXT 7,9 7 2,1
EXT 7,10 7 2,1
EXT 7,11 7 2,1
EXT 15,10 8 8,14
PAL 2

ROOM 6
a,a,0,0,a,a,a,a,a,a,0,a,0,a,0,a
a,a,0,0,a,a,a,a,a,a,0,a,0,a,0,a
a,a,0,0,a,a,a,a,a,a,0,a,0,a,0,a
a,a,0,0,a,a,a,a,a,a,0,a,0,a,0,a
a,a,0,0,a,a,a,a,a,a,0,0,0,0,0,a
a,a,0,0,a,a,a,a,a,a,0,0,0,0,0,a
a,a,0,0,a,a,a,a,a,a,0,0,0,0,0,a
a,a,0,0,a,a,a,a,a,a,0,0,0,0,0,a
a,a,0,0,a,a,a,a,a,a,a,0,0,0,a,a
a,a,0,0,a,a,a,a,a,a,a,a,0,a,a,a
a,a,0,0,a,a,a,a,a,a,a,a,0,a,a,a
a,a,0,0,a,a,a,a,a,a,a,a,0,a,a,a
a,a,0,0,a,a,a,a,a,a,a,a,0,a,a,a
a,a,0,0,0,0,0,0,0,0,0,0,0,a,a,a
a,a,a,a,a,a,a,a,a,a,a,a,0,a,a,a
a,a,a,a,a,a,a,a,a,a,a,a,a,a,a,a
NAME grotte 2-b
EXT 12,0 6 12,14
EXT 10,0 6 12,14
EXT 14,0 4 14,0
PAL 2

ROOM 7
a,a,0,0,a,a,a,a,a,a,0,a,0,a,0,a
a,a,0,0,a,a,a,a,a,a,0,a,0,a,0,a
a,a,0,0,a,a,a,a,a,a,0,a,0,a,0,a
a,a,0,0,a,a,a,a,a,a,0,a,0,a,0,a
a,a,0,0,a,a,a,a,a,a,0,0,0,0,0,a
a,a,0,0,a,a,a,a,a,a,0,0,0,0,0,a
a,a,0,0,a,a,a,a,a,a,0,0,0,0,0,a
a,a,0,0,a,a,a,a,a,a,0,0,0,0,0,a
a,a,0,0,a,a,a,a,a,a,a,0,0,0,a,a
a,a,0,0,a,a,a,a,a,a,a,a,0,a,a,a
a,a,0,0,a,a,a,a,a,a,a,a,0,a,a,a
a,a,0,0,a,a,a,a,a,a,a,a,0,a,a,a
a,a,0,0,a,a,a,a,a,a,a,a,0,a,a,a
a,a,0,0,0,0,0,0,0,0,0,0,0,a,a,a
a,a,a,a,a,a,a,a,a,a,a,a,0,a,a,a
a,a,a,a,a,a,a,a,a,a,a,a,a,a,a,a
NAME grotte 2-c
EXT 12,0 7 12,14
EXT 10,0 7 12,14
EXT 14,0 5 14,0
PAL 2

ROOM 8
a,a,a,d,d,a,a,0,0,a,a,a,a,a,a,a
a,a,a,a,a,a,a,0,0,a,a,a,a,a,a,a
a,a,a,a,a,a,a,0,0,a,a,a,a,a,a,a
a,a,a,a,a,a,a,0,0,a,a,a,a,a,a,a
a,a,a,a,a,a,0,0,0,0,a,a,a,a,a,a
a,a,a,a,a,a,0,0,0,0,a,a,a,a,a,a
a,a,a,a,0,0,0,0,0,0,0,0,a,a,a,a
a,a,a,a,0,0,0,0,0,0,0,0,a,a,a,a
a,a,a,0,0,0,0,0,0,0,0,0,0,a,a,a
a,a,a,0,0,0,0,d,d,0,0,0,0,a,a,a
a,a,a,0,0,0,d,d,d,d,0,0,0,a,a,a
a,a,a,0,0,d,d,d,d,d,d,0,0,a,a,a
a,a,a,0,0,d,d,d,d,d,d,0,0,a,a,a
a,a,a,0,0,d,d,d,d,d,d,0,0,a,a,a
a,a,a,0,0,d,d,d,d,d,d,0,0,a,a,a
a,a,a,0,0,d,d,d,d,d,d,0,0,a,a,a
NAME fin
END undefined 7,9
END undefined 8,9
PAL 3

TIL a
11111111
11111111
11111111
11111111
11111111
11111111
11111111
11111111
WAL true

TIL b
00111100
01111110
11111111
01111110
11111111
01111110
11111111
00011000
WAL true

TIL d
11111111
11111111
11111111
11111111
11111111
11111111
11111111
11111111

SPR 10
00111100
01111110
11111111
11111111
11111111
11111111
01111110
00111100
POS 5 15,9

SPR 11
00111100
01111110
11111111
11111111
11111111
11111111
01111110
00111100
POS 5 15,11

SPR 12
00111100
01111110
11111111
11111111
11111111
11111111
01111110
00111100
POS 5 14,9

SPR 13
00011000
00011000
00111100
00111010
01011001
00100100
00100100
00000100
>
00011000
00011000
00111100
01011100
10011010
00100100
00100100
00100000
DLG SPR_a
POS 5 11,10

SPR 14
11111111
11111111
11111111
11111111
11111111
10000001
10000001
10000001
DLG SPR_b
POS 6 12,7

SPR 15
11111111
11111111
11111111
11111111
11111111
10000001
10000001
10000001
DLG SPR_c
POS 7 12,7

SPR 16
01000000
10100100
00001010
00000000
01000000
10100100
00001010
00000000
>
00000000
01000000
10100100
00001010
00000000
01000000
10100100
00001010
POS 8 7,0

SPR 17
00011000
00011000
00111100
00111010
01011001
00100100
00100100
00000100
>
00011000
00011000
00111100
01011100
10011010
00100100
00100100
00100000
DLG SPR_d
POS 8 9,13

SPR 18
01000000
10100100
00001010
00000000
01000000
10100100
00001010
00000000
>
00000000
01000000
10100100
00001010
00000000
01000000
10100100
00001010
POS 8 8,0

SPR 19
01000000
10100100
00001010
00000000
01000000
10100100
00001010
00000000
>
00000000
01000000
10100100
00001010
00000000
01000000
10100100
00001010
POS 8 7,1

SPR 20
01000000
10100100
00001010
00000000
01000000
10100100
00001010
00000000
>
00000000
01000000
10100100
00001010
00000000
01000000
10100100
00001010
POS 8 9,7

SPR 21
01000000
10100100
00001010
00000000
01000000
10100100
00001010
00000000
>
00000000
01000000
10100100
00001010
00000000
01000000
10100100
00001010
POS 8 10,7

SPR 22
01000000
10100100
00001010
00000000
01000000
10100100
00001010
00000000
>
00000000
01000000
10100100
00001010
00000000
01000000
10100100
00001010
POS 8 11,7

SPR 23
01000000
10100100
00001010
00000000
01000000
10100100
00001010
00000000
>
00000000
01000000
10100100
00001010
00000000
01000000
10100100
00001010
POS 8 3,8

SPR 24
01000000
10100100
00001010
00000000
01000000
10100100
00001010
00000000
>
00000000
01000000
10100100
00001010
00000000
01000000
10100100
00001010
POS 8 4,8

SPR 25
01000000
10100100
00001010
00000000
01000000
10100100
00001010
00000000
>
00000000
01000000
10100100
00001010
00000000
01000000
10100100
00001010
POS 8 5,8

SPR 26
01000000
10100100
00001010
00000000
01000000
10100100
00001010
00000000
>
00000000
01000000
10100100
00001010
00000000
01000000
10100100
00001010
POS 8 6,8

SPR 27
01000000
10100100
00001010
00000000
01000000
10100100
00001010
00000000
>
00000000
01000000
10100100
00001010
00000000
01000000
10100100
00001010
POS 8 7,8

SPR 28
01000000
10100100
00001010
00000000
01000000
10100100
00001010
00000000
>
00000000
01000000
10100100
00001010
00000000
01000000
10100100
00001010
POS 8 8,8

SPR 29
01000000
10100100
00001010
00000000
01000000
10100100
00001010
00000000
>
00000000
01000000
10100100
00001010
00000000
01000000
10100100
00001010

SPR 30
01000000
10100100
00001010
00000000
01000000
10100100
00001010
00000000
>
00000000
01000000
10100100
00001010
00000000
01000000
10100100
00001010
POS 8 3,14

SPR 31
01000000
10100100
00001010
00000000
01000000
10100100
00001010
00000000
>
00000000
01000000
10100100
00001010
00000000
01000000
10100100
00001010
POS 8 4,14

SPR 32
01000000
10100100
00001010
00000000
01000000
10100100
00001010
00000000
>
00000000
01000000
10100100
00001010
00000000
01000000
10100100
00001010
POS 8 3,15

SPR 33
01000000
10100100
00001010
00000000
01000000
10100100
00001010
00000000
>
00000000
01000000
10100100
00001010
00000000
01000000
10100100
00001010
POS 8 4,15

SPR 34
01000000
10100100
00001010
00000000
01000000
10100100
00001010
00000000
>
00000000
01000000
10100100
00001010
00000000
01000000
10100100
00001010
POS 8 11,12

SPR 35
01000000
10100100
00001010
00000000
01000000
10100100
00001010
00000000
>
00000000
01000000
10100100
00001010
00000000
01000000
10100100
00001010
POS 8 12,12

SPR 36
01000000
10100100
00001010
00000000
01000000
10100100
00001010
00000000
>
00000000
01000000
10100100
00001010
00000000
01000000
10100100
00001010
POS 8 11,13

SPR 37
01000000
10100100
00001010
00000000
01000000
10100100
00001010
00000000
>
00000000
01000000
10100100
00001010
00000000
01000000
10100100
00001010
POS 8 12,13

SPR 38
01000000
10100100
00001010
00000000
01000000
10100100
00001010
00000000
>
00000000
01000000
10100100
00001010
00000000
01000000
10100100
00001010
POS 8 11,14

SPR 39
01000000
10100100
00001010
00000000
01000000
10100100
00001010
00000000
>
00000000
01000000
10100100
00001010
00000000
01000000
10100100
00001010
POS 8 12,14

SPR A
00011000
00011000
00111100
00111010
01011001
00100100
00100100
00000100
>
00011000
00011000
00111100
01011100
10011010
00100100
00100100
00100000
POS 0 3,3

SPR a
00011000
00011000
00111100
00111010
01011001
00100100
00100100
00000100
>
00011000
00011000
00111100
01011100
10011010
00100100
00100100
00100000
DLG SPR_1
POS 0 12,3

SPR b
00000000
00000000
00000000
11000000
11111111
11111111
10000001
10000001
DLG SPR_0
POS 0 1,1

SPR c
00000000
00000000
00000000
00000011
11111111
11111111
10000001
10000001
DLG SPR_3
POS 0 14,1

SPR h
00000000
11111111
11111111
11111111
11111111
11111111
10000001
10000001
DLG SPR_2
POS 0 8,7

SPR i
00000000
00000000
10000100
01000110
00111111
00111100
00111100
00100100
>
00000000
00000000
00100100
01000110
00111111
00111100
00111100
00100100
DLG SPR_4
POS 1 1,14

SPR j
00011000
00011000
00111100
00111010
01011001
00100100
00100100
00000100
>
00011000
00011000
00111100
01011100
10011010
00100100
00100100
00100000
DLG SPR_5
POS 1 9,2

SPR k
00111100
01111110
11111111
11111111
11111111
11111111
01111110
00111100
POS 2 15,9

SPR l
00111100
01111110
11111111
11111111
11111111
11111111
01111110
00111100
POS 2 15,11

SPR m
00111100
01111110
11111111
11111111
11111111
11111111
01111110
00111100
POS 2 14,10

SPR n
00011000
00011000
00111100
00111010
01011001
00100100
00100100
00000100
>
00011000
00011000
00111100
01011100
10011010
00100100
00100100
00100000
DLG SPR_6
POS 2 2,9

SPR o
00000000
00000000
01000100
11101110
01000100
01000100
01000100
01000100
POS 3 2,0

SPR p
00000000
00000000
01000100
11101110
01000100
01000100
01000100
01000100
POS 3 3,0

SPR q
00011000
00011000
00111100
00111010
01011001
00100100
00100100
00000100
>
00011000
00011000
00111100
01011100
10011010
00100100
00100100
00100000
DLG SPR_7
POS 3 3,2

SPR r
00000000
00000000
01000100
11101110
01000100
01000100
01000100
01000100
POS 6 2,0

SPR s
00000000
00000000
01000100
11101110
01000100
01000100
01000100
01000100
POS 6 3,0

SPR t
00000000
00000000
01000100
11101110
01000100
01000100
01000100
01000100
POS 7 2,0

SPR u
00000000
00000000
01000100
11101110
01000100
01000100
01000100
01000100
POS 7 3,0

SPR v
11111111
11111111
11111111
11111111
11111111
10000001
10000001
10000001
DLG SPR_8
POS 3 12,7

SPR w
00111100
01111110
11111111
11111111
11111111
11111111
01111110
00111100
POS 4 15,9

SPR x
00111100
01111110
11111111
11111111
11111111
11111111
01111110
00111100
POS 4 15,11

SPR y
00111100
01111110
11111111
11111111
11111111
11111111
01111110
00111100
POS 4 14,10

SPR z
00011000
00011000
00111100
00111010
01011001
00100100
00100100
00000100
>
00011000
00011000
00111100
01011100
10011010
00100100
00100100
00100000
DLG SPR_9
POS 4 11,10

SPR 1a
01000000
10100100
00001010
00000000
01000000
10100100
00001010
00000000
>
00000000
01000000
10100100
00001010
00000000
01000000
10100100
00001010
POS 8 8,1

SPR 1b
01000000
10100100
00001010
00000000
01000000
10100100
00001010
00000000
>
00000000
01000000
10100100
00001010
00000000
01000000
10100100
00001010
POS 8 7,2

SPR 1c
01000000
10100100
00001010
00000000
01000000
10100100
00001010
00000000
>
00000000
01000000
10100100
00001010
00000000
01000000
10100100
00001010
POS 8 8,2

SPR 1d
01000000
10100100
00001010
00000000
01000000
10100100
00001010
00000000
>
00000000
01000000
10100100
00001010
00000000
01000000
10100100
00001010
POS 8 7,3

SPR 1e
01000000
10100100
00001010
00000000
01000000
10100100
00001010
00000000
>
00000000
01000000
10100100
00001010
00000000
01000000
10100100
00001010
POS 8 8,3

SPR 1f
01000000
10100100
00001010
00000000
01000000
10100100
00001010
00000000
>
00000000
01000000
10100100
00001010
00000000
01000000
10100100
00001010
POS 8 6,4

SPR 1g
01000000
10100100
00001010
00000000
01000000
10100100
00001010
00000000
>
00000000
01000000
10100100
00001010
00000000
01000000
10100100
00001010
POS 8 7,4

SPR 1h
01000000
10100100
00001010
00000000
01000000
10100100
00001010
00000000
>
00000000
01000000
10100100
00001010
00000000
01000000
10100100
00001010
POS 8 8,4

SPR 1i
01000000
10100100
00001010
00000000
01000000
10100100
00001010
00000000
>
00000000
01000000
10100100
00001010
00000000
01000000
10100100
00001010
POS 8 9,4

SPR 1j
01000000
10100100
00001010
00000000
01000000
10100100
00001010
00000000
>
00000000
01000000
10100100
00001010
00000000
01000000
10100100
00001010
POS 8 6,5

SPR 1k
01000000
10100100
00001010
00000000
01000000
10100100
00001010
00000000
>
00000000
01000000
10100100
00001010
00000000
01000000
10100100
00001010
POS 8 7,5

SPR 1l
01000000
10100100
00001010
00000000
01000000
10100100
00001010
00000000
>
00000000
01000000
10100100
00001010
00000000
01000000
10100100
00001010
POS 8 8,5

SPR 1m
01000000
10100100
00001010
00000000
01000000
10100100
00001010
00000000
>
00000000
01000000
10100100
00001010
00000000
01000000
10100100
00001010
POS 8 9,5

SPR 1n
01000000
10100100
00001010
00000000
01000000
10100100
00001010
00000000
>
00000000
01000000
10100100
00001010
00000000
01000000
10100100
00001010
POS 8 4,6

SPR 1o
01000000
10100100
00001010
00000000
01000000
10100100
00001010
00000000
>
00000000
01000000
10100100
00001010
00000000
01000000
10100100
00001010
POS 8 5,6

SPR 1p
01000000
10100100
00001010
00000000
01000000
10100100
00001010
00000000
>
00000000
01000000
10100100
00001010
00000000
01000000
10100100
00001010
POS 8 6,6

SPR 1q
01000000
10100100
00001010
00000000
01000000
10100100
00001010
00000000
>
00000000
01000000
10100100
00001010
00000000
01000000
10100100
00001010
POS 8 7,6

SPR 1r
01000000
10100100
00001010
00000000
01000000
10100100
00001010
00000000
>
00000000
01000000
10100100
00001010
00000000
01000000
10100100
00001010
POS 8 8,6

SPR 1s
01000000
10100100
00001010
00000000
01000000
10100100
00001010
00000000
>
00000000
01000000
10100100
00001010
00000000
01000000
10100100
00001010
POS 8 9,6

SPR 1t
01000000
10100100
00001010
00000000
01000000
10100100
00001010
00000000
>
00000000
01000000
10100100
00001010
00000000
01000000
10100100
00001010
POS 8 10,6

SPR 1u
01000000
10100100
00001010
00000000
01000000
10100100
00001010
00000000
>
00000000
01000000
10100100
00001010
00000000
01000000
10100100
00001010
POS 8 11,6

SPR 1v
01000000
10100100
00001010
00000000
01000000
10100100
00001010
00000000
>
00000000
01000000
10100100
00001010
00000000
01000000
10100100
00001010
POS 8 4,7

SPR 1w
01000000
10100100
00001010
00000000
01000000
10100100
00001010
00000000
>
00000000
01000000
10100100
00001010
00000000
01000000
10100100
00001010
POS 8 5,7

SPR 1x
01000000
10100100
00001010
00000000
01000000
10100100
00001010
00000000
>
00000000
01000000
10100100
00001010
00000000
01000000
10100100
00001010
POS 8 6,7

SPR 1y
01000000
10100100
00001010
00000000
01000000
10100100
00001010
00000000
>
00000000
01000000
10100100
00001010
00000000
01000000
10100100
00001010
POS 8 7,7

SPR 1z
01000000
10100100
00001010
00000000
01000000
10100100
00001010
00000000
>
00000000
01000000
10100100
00001010
00000000
01000000
10100100
00001010
POS 8 8,7

SPR 2a
01000000
10100100
00001010
00000000
01000000
10100100
00001010
00000000
>
00000000
01000000
10100100
00001010
00000000
01000000
10100100
00001010
POS 8 9,8

SPR 2b
01000000
10100100
00001010
00000000
01000000
10100100
00001010
00000000
>
00000000
01000000
10100100
00001010
00000000
01000000
10100100
00001010
POS 8 10,8

SPR 2c
01000000
10100100
00001010
00000000
01000000
10100100
00001010
00000000
>
00000000
01000000
10100100
00001010
00000000
01000000
10100100
00001010
POS 8 11,8

SPR 2d
01000000
10100100
00001010
00000000
01000000
10100100
00001010
00000000
>
00000000
01000000
10100100
00001010
00000000
01000000
10100100
00001010
POS 8 12,8

SPR 2e
01000000
10100100
00001010
00000000
01000000
10100100
00001010
00000000
>
00000000
01000000
10100100
00001010
00000000
01000000
10100100
00001010
POS 8 3,9

SPR 2f
01000000
10100100
00001010
00000000
01000000
10100100
00001010
00000000
>
00000000
01000000
10100100
00001010
00000000
01000000
10100100
00001010
POS 8 4,9

SPR 2g
01000000
10100100
00001010
00000000
01000000
10100100
00001010
00000000
>
00000000
01000000
10100100
00001010
00000000
01000000
10100100
00001010
POS 8 5,9

SPR 2h
01000000
10100100
00001010
00000000
01000000
10100100
00001010
00000000
>
00000000
01000000
10100100
00001010
00000000
01000000
10100100
00001010
POS 8 6,9

SPR 2i
01000000
10100100
00001010
00000000
01000000
10100100
00001010
00000000
>
00000000
01000000
10100100
00001010
00000000
01000000
10100100
00001010
POS 8 9,9

SPR 2j
01000000
10100100
00001010
00000000
01000000
10100100
00001010
00000000
>
00000000
01000000
10100100
00001010
00000000
01000000
10100100
00001010
POS 8 10,9

SPR 2k
01000000
10100100
00001010
00000000
01000000
10100100
00001010
00000000
>
00000000
01000000
10100100
00001010
00000000
01000000
10100100
00001010
POS 8 11,9

SPR 2l
01000000
10100100
00001010
00000000
01000000
10100100
00001010
00000000
>
00000000
01000000
10100100
00001010
00000000
01000000
10100100
00001010
POS 8 12,9

SPR 2m
01000000
10100100
00001010
00000000
01000000
10100100
00001010
00000000
>
00000000
01000000
10100100
00001010
00000000
01000000
10100100
00001010
POS 8 3,10

SPR 2n
01000000
10100100
00001010
00000000
01000000
10100100
00001010
00000000
>
00000000
01000000
10100100
00001010
00000000
01000000
10100100
00001010
POS 8 4,10

SPR 2o
01000000
10100100
00001010
00000000
01000000
10100100
00001010
00000000
>
00000000
01000000
10100100
00001010
00000000
01000000
10100100
00001010
POS 8 5,10

SPR 2p
01000000
10100100
00001010
00000000
01000000
10100100
00001010
00000000
>
00000000
01000000
10100100
00001010
00000000
01000000
10100100
00001010
POS 8 10,10

SPR 2q
01000000
10100100
00001010
00000000
01000000
10100100
00001010
00000000
>
00000000
01000000
10100100
00001010
00000000
01000000
10100100
00001010
POS 8 11,10

SPR 2r
01000000
10100100
00001010
00000000
01000000
10100100
00001010
00000000
>
00000000
01000000
10100100
00001010
00000000
01000000
10100100
00001010
POS 8 12,10

SPR 2s
01000000
10100100
00001010
00000000
01000000
10100100
00001010
00000000
>
00000000
01000000
10100100
00001010
00000000
01000000
10100100
00001010
POS 8 3,11

SPR 2t
01000000
10100100
00001010
00000000
01000000
10100100
00001010
00000000
>
00000000
01000000
10100100
00001010
00000000
01000000
10100100
00001010
POS 8 4,11

SPR 2u
01000000
10100100
00001010
00000000
01000000
10100100
00001010
00000000
>
00000000
01000000
10100100
00001010
00000000
01000000
10100100
00001010
POS 8 11,11

SPR 2v
01000000
10100100
00001010
00000000
01000000
10100100
00001010
00000000
>
00000000
01000000
10100100
00001010
00000000
01000000
10100100
00001010
POS 8 12,11

SPR 2w
01000000
10100100
00001010
00000000
01000000
10100100
00001010
00000000
>
00000000
01000000
10100100
00001010
00000000
01000000
10100100
00001010
POS 8 3,12

SPR 2x
01000000
10100100
00001010
00000000
01000000
10100100
00001010
00000000
>
00000000
01000000
10100100
00001010
00000000
01000000
10100100
00001010
POS 8 4,12

SPR 2y
01000000
10100100
00001010
00000000
01000000
10100100
00001010
00000000
>
00000000
01000000
10100100
00001010
00000000
01000000
10100100
00001010
POS 8 3,13

SPR 2z
01000000
10100100
00001010
00000000
01000000
10100100
00001010
00000000
>
00000000
01000000
10100100
00001010
00000000
01000000
10100100
00001010
POS 8 4,13

SPR 3a
01000000
10100100
00001010
00000000
01000000
10100100
00001010
00000000
>
00000000
01000000
10100100
00001010
00000000
01000000
10100100
00001010
POS 8 11,15

SPR 3b
01000000
10100100
00001010
00000000
01000000
10100100
00001010
00000000
>
00000000
01000000
10100100
00001010
00000000
01000000
10100100
00001010
POS 8 12,15

ITM 0
00000000
01110000
00010000
00111000
01111100
01111100
01111100
00111000
NAME fruit
DLG ITM_0

ITM 1
00000000
00000000
00000000
01000010
01111110
01000010
00000000
00000000
NAME os
DLG ITM_1

ITM 2
00000000
00000000
00000000
00000000
00000000
00000000
00000000
00000000

DLG SPR_0
The bed were i wake up.

DLG SPR_1
Hey Man are you ok? What are we doing here? I think we need to go outside and try to find some clue.

DLG SPR_2
"""
It's a white board. Something is write on it.
"Go out and see your environment."
"""

DLG SPR_3
The bed were my friend is wake up.

DLG ITM_0
I find a fruit but i don't know what kind of fruit is?

DLG SPR_4
"""
{
  - {item "os"} < 1 ?
    Oh so cute a little dog. Let's try to touch is head.
    "GRRR GRRR GRRR"
    He's look so angry. I need to try something to calm down this naughty dog.
  - {item "os"} == 1 ?
    "Whouaf, whouaf, slurp" Good boy, you like it. Sorry, but i need to go, i come back later.
}
"""

DLG ITM_1
I find a bone. Let's see the dog whith that.

DLG SPR_5
Were are we seriously? This forest is to big, we need to find a way to go out.

DLG SPR_6
Man this cave is so creepy. Let's go out quickly.

DLG SPR_7
Oh man! That's was to close. I thought we gona die whith that fall.

DLG SPR_8
"""
If you want continue solve this enigma.
" When you pronouce me, i desappear "
Left : Voice
Middle : Noise
Right : Quiet
"""

DLG SPR_9
Man i see light behind this rock. Let's try to push it.

DLG SPR_a
Yes Man! You did it! Let's go outside!

DLG SPR_b
"""
If you want continue solve this enigma.
" When you pronouce me, i desappear "
Left : Voice
Middle : Noise
Right : Quiet
"""

DLG SPR_c
"""
If you want continue solve this enigma.
" When you pronouce me, i desappear "
Left : Voice
Middle : Noise
Right : Quiet
"""

DLG SPR_d
Oh Man, we are finally outside and this cascader is so beautiful.

END 0


END undefined
I hope you enjoy my first game

VAR a
42


