Objective: Kill the guy who invented time machine - to keep this secret away from everyone.

# BITSY VERSION 3.5

! ROOM_FORMAT 1

PAL 0
230,115,0
255,204,153
255,204,153

ROOM 0
0,0,0,0,0,0,0,0,0,0,0,0,0,0,0,0
0,0,0,0,0,0,0,0,0,0,0,0,0,0,0,0
0,0,0,0,0,0,0,0,0,0,0,0,0,0,0,0
0,0,0,0,0,0,0,0,0,0,0,0,0,0,0,0
0,0,0,0,0,0,0,0,0,0,0,0,0,0,0,0
0,0,0,0,0,0,0,0,0,0,0,0,0,0,0,0
0,0,0,0,0,0,0,0,0,0,1e,0,0,0,0,0
0,0,0,0,0,0,0,0,0,0,0,0,0,0,0,0
0,0,1c,0,0,0,0,0,0,0,0,0,0,0,0,0
0,0,a,e,0,0,0,0,0,0,0,0,m,g,0,0
0,k,b,d,0,0,0,0,0,0,0,0,l,h,i,0
w,w,w,w,w,w,w,w,v,t,u,t,u,t,x,0
0,0,0,0,0,0,0,0,0,0,0,0,0,0,0,0
0,0,0,0,0,0,0,0,0,0,0,0,0,0,0,0
0,0,0,0,0,0,0,0,0,0,0,1b,18,17,19,0
0,0,0,0,0,0,0,0,0,0,0,0,0,0,0,0
WAL p
EXT 2,15 1 2,15
PAL 0

ROOM 1
0,0,0,0,0,0,0,0,0,0,0,0,0,0,0,0
0,0,0,0,0,0,0,0,0,0,0,0,0,0,0,0
0,0,0,0,0,0,0,0,0,0,0,0,0,0,0,0
0,0,0,0,0,0,0,0,0,0,0,0,0,0,0,0
0,0,0,0,0,0,0,0,0,0,0,0,0,0,0,0
0,0,0,0,0,0,0,0,0,0,0,0,0,0,0,0
0,0,0,0,0,0,0,0,0,0,1e,0,0,0,0,0
0,0,0,0,0,0,0,0,0,0,0,0,0,0,0,0
0,0,1d,0,0,0,0,0,0,0,0,0,0,0,0,0
0,0,0,a,e,0,0,0,0,0,0,0,m,g,0,0
0,o,c,b,d,0,0,0,0,0,0,0,l,h,i,0
w,w,w,w,w,w,w,w,v,t,u,t,u,t,x,0
0,0,0,0,0,0,0,0,0,0,0,0,0,0,0,0
0,0,0,0,0,0,0,0,0,0,0,0,0,0,0,0
0,0,p,0,0,0,0,0,0,0,0,0,0,0,0,0
0,0,0,0,0,0,0,0,0,0,0,1b,18,17,19,0
WAL p
EXT 1,15 0 1,15
EXT 3,15 2 3,15
PAL 0

ROOM 2
0,0,0,0,0,0,0,0,0,0,0,0,0,0,0,0
0,0,0,0,0,0,0,0,0,0,0,0,0,0,0,0
0,0,0,0,0,0,0,0,0,0,0,0,0,0,0,0
0,0,0,0,0,0,0,0,0,0,0,0,0,0,0,0
0,0,0,0,0,0,0,0,0,0,0,0,0,0,0,0
0,0,0,0,0,0,0,0,0,0,0,0,0,0,0,0
0,0,0,0,0,0,0,0,0,0,1e,0,0,0,0,0
0,0,0,0,0,0,0,0,0,0,0,0,0,0,0,0
0,0,0,0,0,0,0,0,0,0,0,0,0,0,0,0
0,0,0,a,e,j,f,j,f,j,f,j,m,n,0,0
0,0,c,b,d,0,0,0,0,0,0,0,l,h,i,0
w,w,w,w,w,w,w,w,v,t,u,t,u,t,x,0
0,0,0,0,0,0,0,0,0,0,0,0,0,0,0,0
0,0,0,0,0,0,0,0,0,0,0,0,0,0,0,0
0,0,0,p,0,0,0,0,0,0,0,0,0,0,0,0
0,0,p,0,0,0,0,0,0,0,0,0,0,0,0,0
WAL p
EXT 4,15 3 4,15
PAL 0

ROOM 3
0,0,0,0,0,0,0,0,0,0,0,0,0,0,0,0
0,0,0,0,0,0,0,0,0,0,0,0,0,0,0,0
0,0,0,0,0,0,0,0,0,0,0,0,0,0,0,0
0,0,0,0,0,0,0,0,0,0,0,0,0,0,0,0
0,0,0,0,0,0,0,0,0,0,0,0,0,0,0,0
0,0,0,0,0,0,0,0,0,0,0,0,0,0,0,0
0,0,0,0,0,0,0,0,0,0,1e,0,0,0,0,0
0,0,0,0,0,0,0,0,0,0,0,0,0,0,0,0
0,0,0,0,0,0,0,0,0,0,0,0,0,0,0,0
0,0,0,0,a,e,0,0,0,0,0,0,0,0,0,0
0,0,0,k,b,d,0,0,0,0,0,0,r,q,s,0
w,w,w,w,w,w,w,w,v,t,u,t,u,t,x,0
0,0,0,0,0,0,0,0,0,0,0,0,0,0,0,0
0,0,0,0,0,0,0,0,0,0,0,0,0,0,0,0
0,0,0,0,p,0,0,0,0,0,0,0,0,0,0,0
0,0,0,p,0,0,0,0,0,0,0,0,0,0,0,0
WAL p
EXT 5,15 4 5,15
PAL 0

ROOM 4
0,0,0,0,0,0,0,0,0,0,0,0,0,0,0,0
0,0,0,0,0,0,0,0,0,0,0,0,0,0,0,0
0,0,0,0,0,0,0,0,0,0,0,0,0,0,0,0
0,0,0,0,0,0,0,0,0,0,0,0,0,0,0,0
0,0,0,0,0,0,0,0,0,0,0,0,0,0,0,0
0,0,0,0,0,0,0,0,0,0,0,0,0,0,0,0
0,0,0,0,0,0,0,0,0,0,1e,0,0,0,0,0
0,0,0,0,0,0,0,0,0,0,0,0,0,0,0,0
0,0,0,0,0,0,0,0,0,0,0,0,0,0,0,0
0,0,0,0,0,a,e,0,0,0,0,0,0,0,0,0
0,0,0,o,c,b,d,0,0,0,0,0,r,q,s,0
w,w,w,w,w,w,w,w,v,t,u,t,u,t,x,0
0,0,0,0,0,0,0,0,0,0,0,0,0,0,0,0
0,0,0,0,0,0,0,0,0,0,0,0,0,0,0,0
0,0,0,0,0,p,0,0,0,0,0,0,0,0,0,0
0,0,0,0,0,0,0,0,0,0,0,0,0,0,0,0
WAL p
EXT 4,15 3 4,15
EXT 6,15 5 6,15
PAL 0

ROOM 5
0,0,0,0,0,0,0,0,0,0,0,0,0,0,0,0
0,0,0,0,0,0,0,0,0,0,0,0,0,0,0,0
0,0,0,0,0,0,0,0,0,0,0,0,0,0,0,0
0,0,0,0,0,0,0,0,0,0,0,0,0,0,0,0
0,0,0,0,0,0,0,0,0,0,0,0,0,0,0,0
0,0,0,0,0,0,0,0,0,0,0,0,0,0,0,0
0,0,0,0,0,0,0,0,0,0,1e,0,0,0,0,0
0,0,0,0,0,0,0,0,0,0,0,0,0,0,0,0
0,0,0,0,0,0,0,0,0,0,0,0,0,0,0,0
0,0,0,0,0,0,a,e,0,0,0,0,0,0,0,0
0,0,0,o,0,c,b,d,0,0,0,0,r,q,s,0
w,w,w,w,w,w,w,w,v,t,u,t,u,t,x,0
0,0,0,0,0,0,0,0,0,0,0,0,0,0,0,0
0,0,0,0,0,0,0,0,0,0,0,0,0,0,0,0
0,0,0,0,0,0,p,0,0,0,0,0,0,0,0,0
0,0,0,0,0,0,0,0,0,0,0,0,0,0,0,0
WAL p
EXT 5,15 4 5,15
EXT 7,15 6 7,15
PAL 0

ROOM 6
0,0,0,0,0,0,0,0,0,0,0,0,0,0,0,0
0,0,0,0,0,0,0,0,0,0,0,0,0,0,0,0
0,0,0,0,0,0,0,0,0,0,0,0,0,0,0,0
0,0,0,0,0,0,0,0,0,0,0,0,0,0,0,0
0,0,0,0,0,0,0,0,0,0,0,0,0,0,0,0
0,0,0,0,0,0,0,0,0,0,0,0,0,0,0,0
0,0,0,0,0,0,0,0,0,0,1e,0,0,0,0,0
0,0,0,0,0,0,0,0,0,0,0,0,0,0,0,0
0,0,0,0,0,0,0,0,0,0,0,0,0,0,0,0
0,0,0,0,0,0,0,a,e,0,0,0,0,0,0,0
0,0,0,o,0,0,c,b,d,0,0,0,r,q,s,0
w,w,w,w,w,w,w,w,v,t,u,t,u,t,x,0
0,0,0,0,0,0,0,0,0,0,0,0,0,0,0,0
0,0,0,0,0,0,0,0,0,0,0,0,0,0,0,0
0,0,0,0,0,0,0,p,0,0,0,0,0,0,0,0
0,0,0,0,0,0,0,0,0,0,0,0,0,0,0,0
WAL p
EXT 6,15 5 6,15
EXT 8,15 8 9,15
PAL 0

ROOM 8
0,0,0,0,0,0,0,0,0,0,0,0,0,0,0,0
0,0,0,0,0,0,0,0,0,0,0,0,0,0,0,0
0,0,0,0,0,0,0,0,0,0,0,0,0,0,0,0
0,0,0,0,0,0,0,0,0,0,0,0,0,0,0,0
0,0,0,0,0,0,0,0,0,0,0,0,0,0,0,0
0,0,0,0,0,0,0,0,0,0,0,0,0,0,0,0
0,0,0,0,0,0,0,0,0,0,1e,0,0,0,0,0
0,0,0,0,0,0,0,0,0,0,0,0,0,0,0,0
0,0,0,0,0,0,0,0,0,0,0,0,0,0,0,0
0,0,0,0,0,0,0,0,a,e,0,0,0,0,0,0
0,0,0,0,0,0,0,k,b,d,0,0,r,q,s,0
w,w,w,w,w,w,w,w,v,t,u,t,u,t,x,0
0,0,0,0,0,0,0,0,0,0,0,0,0,0,0,0
0,0,0,0,0,0,0,0,0,0,0,0,0,0,0,0
0,0,0,0,0,0,0,0,0,p,0,0,0,0,0,0
0,0,0,0,0,0,0,0,0,0,0,0,0,0,0,0
WAL p
EXT 10,15 9 10,15
PAL 0

ROOM 9
0,0,0,0,0,0,0,0,0,0,0,0,0,0,0,0
0,0,0,0,0,0,0,0,0,0,0,0,0,0,0,0
0,0,0,0,0,0,0,0,0,0,0,0,0,0,0,0
0,0,0,0,0,0,0,0,0,0,0,0,0,0,0,0
0,0,0,0,0,0,0,0,0,0,0,0,0,0,0,0
0,0,0,0,0,0,0,0,0,0,0,0,0,0,0,0
0,0,0,0,0,0,0,0,0,0,1e,0,0,0,0,0
0,0,0,0,0,0,0,0,0,0,0,0,0,0,0,0
0,0,0,0,0,0,0,0,0,0,0,0,0,0,0,0
0,0,0,0,0,0,0,0,0,a,e,0,0,0,0,0
0,0,0,0,0,0,0,o,c,b,d,0,r,q,s,0
w,w,w,w,w,w,w,w,v,t,u,t,u,t,x,0
0,0,0,0,0,0,0,0,0,0,0,0,0,0,0,0
0,0,0,0,0,0,0,0,0,0,0,0,0,0,0,0
0,0,0,0,0,0,0,0,0,0,p,0,0,0,0,0
0,0,0,0,0,0,0,0,0,0,0,0,0,0,0,0
WAL p
EXT 9,15 8 9,15
EXT 11,15 a 11,15
PAL 0

ROOM a
0,0,0,0,0,0,0,0,0,0,0,0,0,0,0,0
0,0,0,0,0,0,0,0,0,0,0,0,0,0,0,0
0,0,0,0,0,0,0,0,0,0,0,0,0,0,0,0
0,0,0,0,0,0,0,0,0,0,0,0,0,0,0,0
0,0,0,0,0,0,0,0,0,0,0,0,0,0,0,0
0,0,0,0,0,0,0,0,0,0,0,0,0,0,0,0
0,0,0,0,0,0,0,0,0,0,1e,0,0,0,0,0
0,0,0,0,0,0,0,0,0,0,0,0,0,0,0,0
0,0,0,0,0,0,0,0,0,0,0,0,0,0,0,0
0,0,0,0,0,0,0,0,0,0,a,e,0,0,0,0
0,0,0,0,0,0,0,o,0,c,b,d,r,q,s,0
w,w,w,w,w,w,w,w,v,t,u,t,u,t,x,0
0,0,0,0,0,0,0,0,0,0,0,0,0,0,0,0
0,0,0,0,0,0,0,0,0,0,0,0,0,0,0,0
0,0,0,0,0,0,0,0,0,0,0,p,0,0,0,0
0,0,0,0,0,0,0,0,0,0,0,0,0,0,0,0
WAL p
EXT 12,15 b 12,15
EXT 10,15 9 10,15
PAL 0

ROOM b
0,0,0,0,0,0,0,0,0,0,0,0,0,0,0,0
0,0,0,0,0,0,0,0,0,0,0,0,0,0,0,0
0,0,0,0,0,0,0,0,0,0,0,0,0,0,0,0
0,0,0,0,0,0,0,0,0,0,0,0,0,0,0,0
0,0,0,0,0,0,0,0,0,0,0,0,0,0,0,0
0,0,0,0,0,0,0,0,0,0,0,0,0,0,0,0
0,0,0,0,0,0,0,0,0,0,1e,0,0,0,0,0
0,0,0,0,0,0,0,0,0,0,0,0,0,0,0,0
0,0,0,0,0,0,0,0,0,0,0,0,0,0,0,0
0,0,0,0,0,0,0,0,0,0,0,a,0,0,0,0
0,0,0,0,0,0,0,o,0,0,z,y,10,q,s,0
w,w,w,w,w,w,w,w,v,t,u,t,u,t,x,0
0,0,0,0,0,0,0,0,0,0,0,0,0,0,0,0
0,0,0,0,0,0,0,0,0,0,0,0,0,0,0,0
0,0,0,0,0,0,0,0,0,0,0,0,p,0,0,0
0,0,0,0,0,0,0,0,0,0,0,0,0,0,0,0
WAL p
EXT 11,15 a 11,15
EXT 13,15 c 13,15
PAL 0

ROOM c
0,0,0,0,0,0,0,0,0,0,0,0,0,0,0,0
0,0,0,0,0,0,0,0,0,0,0,0,0,0,0,0
0,0,0,0,0,0,0,0,0,0,0,0,0,0,0,0
0,0,0,0,0,0,0,0,0,0,0,0,0,0,0,0
0,0,0,0,0,0,0,0,0,0,0,0,0,0,0,0
0,0,0,0,0,0,0,0,0,0,0,0,0,0,0,0
0,0,0,0,0,0,0,0,0,0,1e,0,0,0,0,0
0,0,0,0,0,0,0,0,0,0,0,0,0,0,0,0
0,0,0,0,0,0,0,0,0,0,0,0,0,0,0,0
0,0,0,0,0,0,0,0,0,0,0,13,1b,0,0,0
0,0,0,0,0,0,0,o,0,0,c,12,1a,q,s,0
w,w,w,w,w,w,w,w,v,t,u,t,u,t,x,0
0,0,0,0,0,0,0,0,0,0,0,0,0,0,0,0
0,0,0,0,0,0,0,0,0,0,0,0,0,0,0,0
0,0,0,0,0,0,0,0,0,0,0,0,0,p,0,0
0,0,0,0,0,0,0,0,0,0,0,0,0,0,0,0
WAL p
EXT 12,15 b 12,15
EXT 14,15 d 14,15
PAL 0

ROOM d
0,0,0,0,0,0,0,0,0,0,0,0,0,0,0,0
0,0,0,0,0,0,0,0,0,0,0,0,0,0,0,0
0,0,0,0,0,0,0,0,0,0,0,0,0,0,0,0
0,0,0,0,0,0,0,0,0,0,0,0,0,0,0,0
0,0,0,0,0,0,0,0,0,0,0,0,0,0,0,0
0,0,0,0,0,0,0,0,0,0,0,0,0,0,0,0
0,0,0,0,0,0,0,0,0,0,1e,0,0,0,0,0
0,0,0,0,0,0,0,0,0,0,0,0,0,0,0,0
0,0,0,0,0,0,0,0,0,0,0,0,0,0,0,0
0,0,0,0,0,0,0,0,0,0,0,0,13,e,0,0
0,0,0,0,0,0,0,0,0,0,0,c,12,d,0,0
w,w,w,w,w,w,w,w,v,t,u,t,u,t,x,0
0,0,0,0,0,0,0,0,0,0,0,1b,18,17,19,0
0,0,0,0,0,0,0,0,0,0,0,0,0,0,0,0
0,0,0,0,0,0,0,0,0,0,0,0,0,0,p,0
0,0,0,0,0,0,0,0,0,0,0,0,0,p,0,0
WAL p
EXT 15,15 0 1,15
PAL 0

ROOM e
0,0,0,0,0,0,0,0,0,0,0,0,0,0,0,0
0,0,0,0,0,0,0,0,0,0,0,0,0,0,0,0
0,0,0,0,0,0,0,0,0,0,0,0,0,0,0,0
0,0,0,0,0,0,0,0,0,0,0,0,0,0,0,0
0,0,0,0,0,0,0,0,0,0,0,0,0,0,0,0
0,0,0,0,0,0,0,0,0,0,0,0,0,0,0,0
0,0,0,0,0,0,0,0,0,0,1e,0,0,0,0,0
0,0,0,0,0,0,0,0,0,0,0,0,0,0,0,0
0,0,0,0,0,0,0,0,0,0,0,0,0,0,0,0
0,0,0,0,0,0,0,0,0,0,0,0,0,13,e,0
0,0,0,0,0,0,0,0,0,0,0,0,c,12,d,0
w,w,w,w,w,w,w,w,v,t,u,t,u,t,x,0
0,0,0,0,0,0,0,0,0,0,0,0,0,0,0,0
0,0,0,0,0,0,0,0,0,0,0,1b,18,17,19,0
0,0,0,0,0,0,0,0,0,0,0,0,0,0,p,0
0,0,0,0,0,0,0,0,0,0,0,0,0,p,0,0
WAL p
PAL 0

TIL 10
10000000
01000000
10000000
00000000
00000000
00000001
00000010
00000010
>
00000000
10000000
01000000
01000000
10000000
00000001
00000010
00000010

TIL 12
11010101
01000001
11001001
01000001
01000001
00111111
00010010
00100010
>
01000001
11010101
01000001
11001001
01000001
01000001
00111111
00100010

TIL 13
00111111
11111111
01000001
01010101
01000001
01011101
01000001
01000001
>
00000000
00111111
11111111
01000001
01010101
01000001
01011101
01000001

TIL 14
10110000
01100000
00000000
00000000
00000000
00000001
00000010
00000010
>
00111000
10110000
01100000
00000000
00000000
00000001
00000010
00000010

TIL 17
00000000
00000000
00000000
00100000
11111111
10000100
10001000
11111111
>
00000000
00000000
00000000
00000000
00100000
11111111
10000100
11111111

TIL 18
00000000
00000000
00000000
00000000
00000000
00000001
00000010
00000010
>
00000000
00000000
00000000
00000000
00000000
00000000
00000001
00000010

TIL 19
00000000
00000010
01111110
10101011
10100011
10101011
10000011
11111111
>
00000000
00000000
00000010
01111110
10101011
10100011
10101011
11111111

TIL a
00111111
11111111
01000001
01010101
01000001
01011101
01000001
01110111
>
00000000
00111111
11111111
01000001
01010101
01000001
01011101
01000001

TIL b
11001001
01001001
11000001
01111111
01111111
00111111
00010010
00100010
>
01110111
11001001
01001001
11000001
01111111
01111111
00111111
00100010

TIL c
00000000
00000001
00000000
00000000
00000000
00000000
00000000
00000000
>
00000000
00000000
00000001
00000000
00000000
00000000
00000000
00000000

TIL d
10110000
01100000
00000000
00000000
00000000
00000000
00000000
00000000
>
00111000
10110000
01100000
00000000
00000000
00000000
00000000
00000000

TIL e
00000000
00000000
00000000
00000000
00000000
00000000
00000000
00111000
>
00000000
00000000
00000000
00000000
00000000
00000000
00000000
00000000

TIL f
00000000
00000000
00000000
00000000
00000000
00000000
00000000
00000000
>
00000000
00000000
00000000
00000000
00000000
00000000
00000000
00011000

TIL g
11111100
11111111
10000010
10101010
10000010
10111010
10000010
10000010
>
00000000
11111100
11111111
10000010
10101010
10000010
10111010
10000010

TIL h
10101011
10000010
10010011
10000010
10000010
11111100
01001000
01000100
>
10000010
10101011
10000010
10010011
10000010
10000010
01111100
01000100

TIL i
00000000
10000000
00000000
00000000
00000000
00000000
00000000
00000000
>
00000000
00000000
10000000
00000000
00000000
00000000
00000000
00000000

TIL j
00000000
00000000
00000000
00000000
00000000
00000000
00000000
00011000
>
00000000
00000000
00000000
00000000
00000000
00000000
00000000
00000000

TIL k
00000000
00011001
00100100
00000100
00001000
00010000
00000000
00010000
>
00011000
00100100
00000101
00001000
00010000
00000000
00010000
00000000

TIL l
00001101
00000110
00000000
00000000
00000000
00000000
00000000
00000000
>
00011100
00001101
00000110
00000000
00000000
00000000
00000000
00000000

TIL m
00000000
00000000
00000000
00000000
00000000
00000000
00000000
00011100
>
00000000
00000000
00000000
00000000
00000000
00000000
00000000
00000000

TIL n
11111100
11111111
10101010
10000010
10111010
10111010
10000010
10000010
>
00000000
11111100
11111111
10101010
10000010
10010010
10010010
10000010

TIL o
00000000
00011000
00100100
00000100
00001000
00010000
00000000
00010000

TIL p
00000000
00000000
00000000
00000000
00000000
00000000
00000000
00000000

TIL q
00000000
00000000
00000000
00100000
11111111
10000100
10001000
11111111

TIL r
00000000
00000000
00000000
00000000
00000000
00000001
00000010
00000010

TIL s
00000000
00000010
01111110
10101011
10100011
10101011
10000011
11111111

TIL t
11111111
11111111
00011000
00011000
00011000
00011000
10011001
01000010
>
11111111
11111111
00011000
00011000
00011000
00011000
00011000
10000001

TIL u
11111111
11111111
00000000
00000000
00000000
00000000
00000000
00000000
>
11111111
11111111
00000000
00000000
00000000
00000000
10000001
00000000

TIL v
11111111
11111111
11100000
11110000
11111000
11111100
11111110
11111111

TIL w
11111111
11111111
11111111
11111111
11111111
11111111
11111111
11111111

TIL x
11111111
11111111
00000000
00000000
00000000
00000000
00000000
00000000
>
11111111
11111111
00000000
00000000
00000000
00000000
10000000
00000000

TIL y
11001001
01001001
11000001
01100011
01110111
01111111
00100010
00100010
>
01110111
11001001
01001001
01000001
11000001
01100011
01111111
00100010

TIL z
00000000
00000001
00000000
00000000
00000000
00000000
00000000
00000000
>
00000000
00000000
00000001
00000001
00000000
00000000
00000000
00000000

TIL 1a
10010000
01110000
00010000
00010000
00000000
00000001
00000010
00000010
>
00010000
10010000
01110000
00010000
00010000
00000001
00000010
00000010

TIL 1b
00000000
00000000
00000000
01010100
01010100
01010100
00111000
00010000
>
00000000
00000000
00000000
00000000
01010100
01010100
01010100
00111000

TIL 1c
00000000
00010000
00010000
00010000
00010000
00000000
00010000
00000000
>
00010000
00010000
00010000
00010000
00000000
00010000
00000000
00000000

TIL 1d
00000000
00010000
00010000
00010000
00010000
00000000
00010000
00000000

TIL 1e
01111110
11111111
11111111
11111111
11111111
11111111
11111111
01111110

SPR A
00000000
00000000
00000000
00000000
00000000
00000000
00000000
00000000
POS 0 1,15

SPR a
00000000
00000000
00000000
00000000
00000000
00000000
00000000
00000000
POS 0 0,15

SPR b
00000000
00000000
00000000
00000000
00000000
00000000
00000000
00000000
POS 3 3,15

SPR c
00000000
00000000
00000000
00000000
00000000
00000000
00000000
00000000
POS 8 8,15

SPR d
00000000
00000000
00000000
00000000
00000000
00000000
00000000
00000000
POS 0 1,14

DLG a
You: Put your gun down!     Naked man: You're stupid.

DLG b
Well, that was easy.

DLG c
What a lovely view... I gonna get rid of the body and go swimming.

DLG d
#bitsyjam Sep 17 by Saranomy

