One Dream of Millions

# BITSY VERSION 3.4

! ROOM_FORMAT 1

PAL 0
87,87,87
56,56,56
0,0,0

PAL 1
255,255,255
255,255,255
255,255,255

ROOM 0
b,b,b,b,b,b,b,b,b,b,b,b,b,b,b,b
b,b,b,b,b,b,b,b,b,0,0,0,b,b,b,b
b,b,b,0,0,0,0,0,0,0,0,0,b,b,b,b
b,b,0,0,0,0,0,0,0,0,0,0,0,b,b,0
b,b,0,0,0,0,0,0,0,0,0,0,0,0,b,0
b,b,0,0,0,0,0,0,0,0,0,0,0,0,b,b
b,b,0,0,0,0,0,0,0,0,0,0,0,0,b,b
b,0,0,0,0,0,0,0,0,0,0,0,0,0,b,b
b,b,0,0,0,0,0,0,0,0,0,0,0,0,b,b
b,b,0,0,0,0,0,0,0,0,0,0,0,0,0,0
b,b,0,0,0,0,0,0,0,0,0,0,0,0,b,b
b,b,b,0,0,0,0,0,0,0,0,0,0,0,b,b
b,b,b,0,0,0,0,0,0,0,0,0,0,0,b,b
b,b,b,0,0,0,0,0,0,0,0,0,0,b,b,b
b,b,0,0,0,0,b,b,0,0,0,0,b,b,b,b
b,b,b,b,b,b,b,b,b,b,b,b,b,b,b,b
WAL b,a
EXT 15,9 1 0,9
PAL 0

ROOM 1
b,b,0,0,0,0,0,b,0,b,0,0,0,0,0,0
b,b,b,b,0,0,b,b,0,b,0,0,0,0,0,0
b,b,b,b,b,b,b,0,0,b,b,b,b,b,0,0
b,b,b,b,b,b,0,0,0,0,b,b,b,b,b,0
b,b,b,b,b,0,0,0,0,0,0,b,b,b,b,0
b,b,b,b,0,0,0,0,0,0,0,0,b,b,b,b
b,b,b,0,0,0,0,0,0,0,0,0,b,b,b,b
b,b,0,0,0,0,0,0,0,0,0,0,0,b,b,b
b,b,0,0,0,0,0,0,0,0,0,0,0,0,b,b
0,0,0,0,0,0,0,0,0,0,0,0,0,0,0,b
b,0,0,0,0,0,0,0,0,0,0,0,0,0,0,0
b,b,0,0,0,0,0,0,0,0,0,0,0,0,b,b
b,b,b,0,0,0,0,0,0,0,0,0,b,b,b,0
b,b,b,b,b,0,0,0,0,0,b,b,b,b,b,0
b,b,b,b,b,b,0,b,b,b,b,b,b,b,0,0
b,b,b,b,b,b,b,b,b,b,b,b,0,0,0,0
WAL b,a
EXT 15,10 2 0,10
END undefined 8,0
PAL 0

ROOM 2
b,b,b,b,b,b,b,b,b,b,b,b,b,0,0,0
b,b,b,b,b,b,b,b,b,b,0,0,b,b,0,0
b,b,b,b,b,b,b,b,b,0,0,0,0,b,0,0
b,b,b,b,b,b,b,0,0,0,0,0,0,b,0,0
b,b,b,b,b,0,0,0,0,0,0,0,0,0,b,0
b,b,b,b,0,0,0,0,0,0,0,0,0,0,b,0
b,b,b,0,0,0,0,0,0,0,0,0,0,0,b,0
b,b,b,0,0,0,0,0,0,0,0,0,0,0,0,b
b,b,0,0,0,0,0,0,0,0,0,0,0,0,0,b
b,0,0,0,0,0,0,0,0,0,0,0,0,0,0,0
0,0,0,0,0,0,0,0,0,0,0,0,0,0,0,b
b,0,0,0,0,0,0,0,0,0,0,0,0,0,b,b
b,0,0,0,0,0,0,0,0,0,0,0,0,b,b,0
b,0,0,0,0,0,0,0,0,0,0,0,0,b,b,0
b,0,0,0,0,0,0,0,0,0,0,0,b,b,0,0
b,0,0,0,0,0,0,0,0,0,0,b,b,0,0,0
WAL b,a
EXT 15,9 3 0,8
PAL 0

ROOM 3
0,0,0,0,0,0,0,0,0,0,0,0,0,0,0,0
0,0,b,0,0,0,0,0,0,0,0,0,0,0,0,0
0,0,0,0,0,0,0,b,0,0,0,0,b,0,0,0
0,0,l,0,b,0,l,0,0,0,0,l,0,0,0,0
0,j,i,k,0,j,i,k,0,0,j,i,k,0,0,0
0,f,i,g,0,f,i,g,0,0,f,i,g,0,0,0
0,f,h,g,0,f,h,g,0,0,f,h,g,0,0,0
0,0,0,0,0,0,0,0,0,0,0,0,0,0,0,0
d,d,d,d,d,d,d,d,d,d,d,d,d,d,d,d
0,0,0,0,0,0,0,0,0,0,0,0,0,0,0,0
0,0,0,0,0,b,0,0,0,0,0,0,0,0,0,0
0,0,0,0,0,0,0,b,0,0,0,0,0,0,0,0
0,0,b,0,0,0,0,0,0,0,0,0,b,0,0,0
0,0,0,0,0,0,0,0,0,0,0,0,0,0,0,0
b,0,0,0,0,b,0,0,0,b,0,0,0,0,0,0
0,0,0,0,0,0,0,0,0,0,0,0,0,0,0,0
WAL b,g,f,i,j,k,l,a
EXT 15,8 4 0,14
END undefinee 2,6
END undefinee 6,6
END undefinee 11,6
PAL 0

ROOM 4
0,0,0,0,0,0,0,0,0,0,0,0,l,0,0,0
0,0,0,0,0,0,0,0,0,0,0,j,i,k,0,0
0,0,0,0,0,0,0,0,0,0,0,f,i,g,0,0
0,0,0,0,0,0,0,0,0,0,0,f,i,g,0,0
0,0,j,a,a,a,a,a,k,0,0,f,h,g,0,0
0,j,a,a,a,a,a,a,a,k,0,0,c,0,0,0
0,f,i,i,i,i,i,i,i,g,0,0,c,0,0,0
0,f,i,i,i,i,i,i,i,g,0,0,c,0,0,0
0,f,i,i,i,h,i,i,i,g,0,0,c,0,0,0
0,0,0,0,0,0,0,0,0,0,0,0,c,0,0,0
0,0,0,l,0,0,0,0,0,0,0,0,c,0,0,0
0,0,j,i,k,0,0,0,0,0,0,0,c,0,0,0
0,0,f,h,g,0,0,0,0,0,0,0,c,0,0,0
0,0,0,0,0,0,0,0,0,0,0,0,c,0,0,0
d,d,d,d,d,d,d,d,d,d,d,d,e,0,0,0
0,0,0,0,0,0,0,0,0,0,0,0,0,0,0,0
WAL a
EXT 12,4 5 7,15
END undefinee 5,8
END undefinee 3,12
PAL 0

ROOM 5
a,a,a,a,a,a,a,0,0,a,a,a,a,a,a,a
a,0,0,0,0,0,a,0,0,a,a,a,0,0,0,a
a,0,0,0,0,0,a,0,0,a,0,0,0,0,a,a
a,0,0,0,0,0,0,0,0,0,0,0,0,0,a,a
a,0,0,0,0,0,a,0,0,a,0,0,0,0,0,a
a,0,0,0,0,0,a,0,0,a,0,0,0,0,p,a
a,a,a,a,a,a,a,0,0,a,a,a,a,a,a,a
a,0,t,s,0,0,a,0,0,a,0,0,0,0,0,a
a,0,0,0,0,0,a,0,0,a,0,0,0,0,0,a
a,0,0,0,0,0,0,0,0,0,0,0,0,0,0,a
a,0,q,r,0,0,a,0,0,a,0,0,0,0,0,a
a,0,0,0,0,0,a,0,0,a,a,a,a,a,a,a
a,0,0,0,0,0,a,0,0,a,0,0,n,m,0,a
a,0,0,0,0,0,a,0,0,0,0,0,0,0,o,a
a,0,0,0,0,0,a,0,0,a,0,0,0,0,0,a
a,a,a,a,a,a,a,0,0,a,a,a,a,a,a,a
WAL a
EXT 7,0 6 7,15
EXT 8,0 6 8,15
END undefinef 5,9
END undefineg 10,13
END undefineh 10,9
END undefinei 10,3
END undefinej 5,3
PAL 0

ROOM 6
a,a,a,a,a,a,a,a,a,a,a,a,y,a,a,a
a,t,s,0,0,p,w,x,0,12,0,0,0,0,0,a
a,0,0,0,0,0,0,0,0,0,0,0,0,0,0,a
a,q,r,0,0,0,0,0,0,0,0,0,0,0,0,a
a,0,0,0,0,0,0,0,0,0,0,0,0,0,0,a
a,0,0,0,0,0,0,0,0,0,0,0,0,0,0,a
a,0,0,0,0,0,0,0,0,0,0,0,0,0,0,a
a,0,0,0,0,0,0,0,0,0,0,0,0,0,11,a
a,0,0,0,0,0,0,0,0,0,0,0,0,0,10,a
a,0,0,0,0,0,0,0,0,0,0,0,0,0,0,a
a,0,0,0,0,0,0,0,0,0,0,0,0,0,0,a
a,0,0,0,0,0,0,0,0,0,0,0,0,0,0,a
a,0,0,0,0,0,0,0,0,0,0,0,0,0,0,a
a,u,0,0,0,0,0,0,0,0,0,0,0,z,0,a
a,v,0,0,0,0,0,0,0,0,0,0,0,0,0,a
a,a,a,a,a,a,a,0,0,a,a,a,a,a,a,a
WAL y,10,a
END undefinek 1,13
END undefinel 6,1
END undefinem 12,1
END undefinei 4,1
END undefinef 2,2
END 0 13,13
END undefinen 14,6
END undefinen 13,7
END undefineo 9,2
PAL 0

TIL 10
01111110
00111100
00111100
00111100
00111100
00000000
00000000
00000000

TIL 11
00100000
01110000
11110000
01111010
00101110
00001100
00001000
00001000
>
00100000
01110000
11010000
01111010
00101110
00001100
00001000
00001000

TIL 12
11111111
10110111
10111111
10111011
11111111
11001111
10101111
10011111

TIL a
11111111
11111111
11111111
11111111
11111111
11111111
11111111
11111111

TIL b
00011000
00111100
01111110
01111110
01111110
00111100
00011000
00011000

TIL c
01000001
01001001
01001001
01000001
01000001
01001001
01001001
01000001

TIL d
00000000
11111111
00000000
00000000
01100110
00000000
00000000
11111111

TIL e
01000001
10001001
00001001
00000001
01100001
00000001
00000010
11111100

TIL f
01111111
01100001
01100001
01100001
01100001
01111111
01111111
01111111

TIL g
11111110
10000110
10000110
10000110
10000110
11111110
11111110
11111110

TIL h
11111111
11111111
11111111
11000011
11000011
11000011
11000011
11000011

TIL i
11111111
11000011
11000011
11000011
11000011
11111111
11111111
11111111

TIL j
00000001
00000011
00000111
00001111
00011111
00111111
01111111
11111111

TIL k
10000000
11000000
11100000
11110000
11111000
11111100
11111110
11111111

TIL l
00000000
00000000
00000000
00000000
00011000
00111100
01111110
11111111

TIL m
11111111
00000011
00000001
00000001
00000001
00000001
00000011
11111111

TIL n
11111111
11000000
10000000
10000000
10000000
10000000
11000000
11111111

TIL o
00000011
00000011
00000011
00000001
01111111
01111111
00011110
00001100

TIL p
00000000
00000000
01000001
01111111
00111110
00111110
00111110
00111110

TIL q
00000000
01100000
01111111
01111111
01111111
01111111
01111111
00000000

TIL r
00000000
00000110
11111110
11111110
11111110
11111110
11111110
00000000

TIL s
00000000
11111000
11111000
00000000
00000000
00000000
00000000
00000000

TIL t
00000000
00011111
00011111
00000000
00000000
00000000
00000000
00000000

TIL u
01111110
01000010
01000010
01111110
01000010
01000010
01000010
01000010

TIL v
01000010
01000010
01000010
01111110
00000000
00000000
00000000
00000000

TIL w
00000000
01111110
00000000
00000000
00000000
00000000
00000000
00000000

TIL x
00000000
01100000
01100000
01100000
01100000
01100000
00000000
00000000

TIL y
11111111
10011001
10011001
11111111
11111111
10011001
10011001
11111111

TIL z
00000000
00000000
00000000
00000000
00000000
00000000
00011000
00000000

SPR A
00111100
00111100
00111100
00011000
01111110
10111101
00100100
00100100
POS 0 1,7

SPR a
00000000
00000000
01010001
01110001
01110010
01111100
00111100
00100100
POS 6 3,13

SPR b
00000000
00100001
01100001
11111111
11111111
00111111
00100001
00100001
>
00000000
00100010
01100001
11111111
11111111
00111111
00100001
00100001
POS 1 6,0

SPR c
00111100
01000010
01010110
01010110
01000010
01000010
01111110
00000000
>
00000000
00111100
01000010
01010110
01010110
01000010
01000010
01111110
POS 6 1,7

SPR d
00000000
00000000
00000000
00000100
01111110
00000100
00000000
00000000
>
00000000
00000000
00000100
01111110
00000100
00000000
00000000
00000000
POS 6 14,1

DLG a
Miau?

DLG b
Grrr

DLG c
Buh

DLG d
cut cut cut

END 0
fall throught a trapdoor in another dream...

END undefined
Eaten by wolves...

END undefinee
Wrong House...

END undefinef
Watched too much TV...

END undefineg
Fhushed down the toilet...

END undefineh
Cut by a kitchen knife...

END undefinei
Ran in a trashcan...

END undefinej
Jump scared by a ghost...

END undefinek
Awakend from the dream an thougt why you are dreaming this (end)

END undefinel
Played too much pc...

END undefinem
watched througt the window and saw something scary...

END undefinen
eaten by your own flower...

END undefineo
read too many books...

