Brain's little symbiont.

# BITSY VERSION 5.1

! ROOM_FORMAT 1

PAL 0
NAME intestine
255,191,138
253,255,27
255,33,9

PAL 1
NAME heart
255,158,165
255,22,53
163,60,45

PAL 2
NAME colon
255,205,165
255,156,51
103,140,255

PAL 3
NAME lungs
18,12,122
246,255,119
131,148,222

ROOM 0
0,0,0,0,0,0,0,39,0,0,0,0,0,0,0,0
0,0,0,0,0,0,0,39,0,0,0,0,0,0,0,0
0,0,0,0,0,0,m,0,m,0,0,0,0,0,0,0
0,0,0,0,0,0,m,0,m,0,0,0,0,0,0,0
0,0,0,0,0,0,m,0,m,0,0,0,0,0,0,0
0,0,0,0,0,0,m,0,m,0,0,0,0,0,0,0
0,0,0,0,0,0,m,0,m,0,0,0,0,0,0,0
0,0,0,0,0,0,m,0,m,0,0,0,0,0,0,0
0,0,0,0,0,0,m,0,m,0,0,0,0,0,0,0
0,0,0,0,0,0,m,0,m,0,0,0,0,0,0,0
0,0,0,0,0,0,m,0,m,0,0,0,0,0,0,0
0,0,0,0,0,0,m,0,m,0,0,0,0,0,0,0
0,0,0,0,0,0,m,0,m,0,0,0,0,0,0,0
0,0,0,0,0,0,m,0,m,0,0,0,0,0,0,0
0,0,0,0,0,0,m,0,m,0,0,0,0,0,0,0
0,0,0,0,0,0,m,0,m,0,0,0,0,0,0,0
NAME outerbody
ITM 6 7,4
ITM 7 7,6
ITM 8 7,9
ITM 9 7,10
ITM a 7,14
END undefined 7,15
PAL 0

ROOM 1
0,0,0,0,0,0,0,0,0,0,0,0,0,0,0,0
0,0,0,0,0,0,0,0,0,0,0,0,0,0,0,0
0,0,0,0,0,0,0,p,o,q,u,o,0,0,0,0
0,0,0,0,0,q,g,a,a,a,a,a,e,0,0,0
0,0,0,0,g,a,a,a,a,a,a,a,a,e,0,0
0,0,0,0,a,a,a,12,a,b,d,14,a,a,s,0
0,0,0,j,a,a,13,14,a,e,j,a,a,a,e,0
0,0,0,h,a,a,a,12,16,17,0,v,a,a,a,r
0,0,0,0,v,a,a,a,a,a,e,0,14,a,a,s
0,m,m,m,0,c,a,a,a,a,a,15,a,a,a,t
m,m,m,m,m,m,d,l,n,v,a,y,14,a,b,0
m,m,1h,1f,1e,m,m,m,m,m,19,15,a,b,0,0
0,m,1g,1d,1c,1b,1a,1a,1b,1a,18,14,a,f,0,0
m,m,m,m,m,m,m,m,m,m,m,l,d,m,m,m
0,o,0,w,0,0,0,u,0,0,0,0,3a,o,0,0
a,a,a,a,a,a,a,a,a,a,a,a,a,a,a,a
NAME brain
ITM 1 12,8
ITM 1 10,5
ITM 1 7,7
ITM 1 7,5
ITM 1 11,10
ITM 1 10,7
ITM b 12,14
EXT 2,12 5 8,14
EXT 2,11 5 8,14
EXT 15,14 b 9,1
PAL 0

ROOM 2
h,g,a,a,a,a,a,a,a,a,a,a,a,a,a,a
g,a,a,a,a,a,a,a,a,a,a,a,a,a,a,a
a,a,a,a,x,a,a,a,b,c,a,a,a,c,a,a
a,a,a,b,0,s,n,l,0,j,a,a,i,h,a,a
a,a,a,e,0,0,0,0,0,d,c,b,c,k,a,a
a,a,i,b,0,0,0,0,0,0,0,0,0,j,a,a
a,a,b,0,0,34,0,0,0,0,0,0,0,g,a,i
a,a,e,0,0,0,0,0,0,0,0,0,g,a,a,i
a,a,a,f,0,0,0,0,0,0,0,0,v,a,a,a
c,a,a,y,0,0,0,0,0,0,0,0,h,a,a,a
g,a,e,0,0,0,0,0,0,0,0,0,0,v,a,i
a,a,b,0,0,0,0,0,0,0,0,0,0,p,a,a
a,a,k,t,h,f,0,p,o,q,0,0,0,d,c,a
a,b,0,q,o,g,e,g,a,a,e,q,p,35,w,a
a,e,g,a,a,a,a,a,a,a,a,a,a,e,g,a
a,a,a,a,a,a,a,a,x,a,a,a,a,a,a,a
NAME intestine2
EXT 5,6 3 5,6
EXT 13,13 a 3,15
PAL 0

ROOM 3
h,g,a,a,a,a,11,g,a,a,a,a,x,a,a,a
10,a,a,a,a,a,a,a,a,a,a,a,g,a,a,a
v,a,a,a,z,a,a,a,b,c,a,a,a,a,a,11
g,a,a,a,11,a,a,a,e,j,a,a,i,34,a,a
a,a,a,i,j,z,l,c,j,a,a,a,a,k,a,a
a,a,a,b,0,0,0,0,d,l,z,n,l,j,a,a
a,a,i,g,e,35,0,0,0,0,0,0,0,g,a,i
a,a,a,a,i,0,0,0,0,0,0,10,g,a,a,i
c,z,a,a,a,y,0,0,0,0,j,a,a,a,a,a
j,a,a,a,b,0,0,0,0,0,0,v,a,a,a,a
g,a,a,b,0,0,0,0,0,0,10,e,l,v,a,i
a,a,i,0,0,g,e,g,e,g,a,b,10,a,a,a
a,a,a,y,g,a,a,z,a,a,a,10,v,a,z,a
a,a,i,g,a,a,a,g,a,a,a,i,p,10,v,a
a,a,a,a,a,z,a,a,a,z,a,a,a,e,g,a
a,a,a,a,b,j,a,a,i,v,a,a,a,a,a,a
NAME intestine3
EXT 5,6 2 5,6
EXT 13,3 4 13,3
PAL 0

ROOM 4
h,g,a,a,a,a,11,g,a,a,a,a,x,a,a,a
10,a,a,a,a,a,a,a,a,a,a,a,12,a,a,a
v,a,a,a,z,a,a,a,b,c,a,a,a,a,a,11
g,a,a,a,11,a,a,a,e,j,a,a,i,35,a,a
a,a,a,13,a,a,x,a,j,a,a,a,a,15,a,a
a,13,a,a,11,z,u,a,15,a,z,a,a,j,a,a
a,a,i,z,a,a,12,z,0,16,q,17,16,g,a,i
a,a,a,a,13,a,a,e,w,14,a,a,a,a,a,i
c,z,a,a,a,a,b,u,10,a,x,a,a,a,a,a
j,a,a,a,a,b,g,e,10,12,r,v,a,a,a,a
g,a,a,13,a,15,a,11,v,a,11,10,a,13,a,i
a,a,i,a,12,g,a,a,e,14,a,12,14,a,a,a
a,a,a,z,a,a,a,z,a,a,a,a,15,a,13,a
a,a,i,g,a,a,a,12,a,a,a,i,q,10,a,a
14,a,a,a,a,z,a,a,a,z,a,a,a,e,34,a
v,a,13,a,b,j,a,a,i,v,a,a,a,a,a,a
NAME intestine4
EXT 13,3 3 13,3
EXT 14,14 9 12,0
PAL 0

ROOM 5
a,a,a,a,a,a,a,a,a,a,a,a,a,a,a,a
a,a,a,a,a,a,a,a,a,a,a,a,a,a,a,a
a,a,a,a,a,a,a,a,a,a,a,a,a,a,a,a
a,a,a,a,a,a,a,a,a,a,a,a,a,a,a,a
a,a,a,a,a,a,a,a,a,a,a,a,a,a,a,a
a,a,a,1k,1i,1n,1i,1i,1i,1i,2m,1i,1j,a,a,a
a,a,1k,1l,1p,1o,0,0,0,0,2n,2o,1m,1j,a,a
a,1k,1l,0,1q,0,0,0,0,0,0,2p,0,1m,1j,a
0,2k,0,0,1r,0,0,0,0,0,0,2q,0,0,2l,0
a,1m,1j,0,1s,1t,0,0,0,0,0,2r,0,1k,1l,a
a,a,1m,1j,0,1u,0,0,0,0,2t,2s,1k,1l,a,a
a,a,a,1m,1i,1v,1i,1i,1i,1i,2u,1i,1l,a,a,a
a,a,a,a,a,a,a,a,a,a,a,a,a,a,a,a
a,a,a,a,a,a,a,a,a,a,a,a,a,a,a,a
a,a,a,a,a,a,11,13,12,16,14,a,a,a,a,a
a,a,a,a,a,a,a,a,a,a,a,a,a,a,a,a
NAME eye
EXT 10,14 1 4,12
PAL 0

ROOM 6
0,0,0,0,0,0,0,0,0,0,0,0,0,0,0,0
0,0,0,0,0,0,0,0,0,0,0,0,0,0,0,0
0,0,0,0,0,0,0,0,0,0,0,0,0,0,0,0
0,0,0,0,0,0,0,0,0,0,0,0,0,0,0,0
0,0,0,0,0,0,0,0,0,0,0,0,0,0,0,0
0,0,0,0,0,0,0,0,0,0,0,0,2d,2e,2f,2g
0,0,0,0,0,0,0,0,0,0,2b,2c,0,0,0,2h
0,0,0,0,0,0,0,0,0,0,2a,0,0,0,0,0
0,0,0,0,0,0,0,0,0,0,29,0,0,0,0,0
0,0,0,0,0,0,0,0,0,27,28,0,0,0,0,0
0,0,0,0,0,0,0,m,m,26,25,23,0,0,0,0
0,0,0,0,0,0,0,m,0,0,0,0,24,0,0,0
0,0,0,0,0,0,0,2j,0,0,1w,22,0,0,0,0
0,0,0,0,0,0,2i,0,m,m,1x,0,0,0,0,0
0,0,0,0,0,2i,0,0,0,0,1y,1z,20,0,0,0
0,0,0,0,0,0,0,0,0,0,0,0,21,0,0,0
NAME start
ITM 2 10,11
ITM 3 11,11
ITM 4 11,8
EXT 12,11 1 0,14
PAL 0

ROOM 7
0,0,0,j,a,15,a,13,a,e,q,o,g,a,a,a
0,0,0,h,a,a,x,a,a,a,a,a,a,z,17,13
0,0,0,g,a,13,y,l,n,v,s,n,s,10,a,a
0,0,0,a,a,11,e,0,0,0,p,10,12,a,i,l
0,0,g,a,a,a,b,0,0,0,10,a,a,a,c,k
0,h,a,a,b,c,s,o,w,g,a,z,2w,a,s,0
0,j,a,x,15,12,j,a,a,a,b,0,h,a,y,0
0,p,a,y,j,a,f,l,c,v,f,0,j,a,s,0
0,v,a,e,10,a,y,0,0,0,0,0,10,a,e,0
0,g,a,a,a,b,0,0,0,0,0,v,a,a,k,0
0,z,x,a,i,0,0,0,0,0,0,j,a,b,t,0
0,0,0,v,a,11,0,0,0,0,0,10,a,k,0,0
0,0,0,p,z,a,12,e,0,0,g,a,11,0,0,0
0,0,0,0,10,x,a,a,12,14,a,b,l,0,0,0
0,0,0,0,0,s,v,a,a,a,a,y,0,0,0,0
0,0,0,0,0,0,t,z,15,z,l,s,0,0,0,0
NAME heart
ITM 0 8,8
ITM 0 10,8
ITM 0 6,9
ITM 0 7,11
ITM 0 10,10
ITM 0 8,4
ITM 0 9,3
ITM 0 9,12
EXT 6,1 c 10,12
EXT 5,2 c 10,12
EXT 5,3 c 10,12
EXT 12,5 a 4,1
PAL 1

ROOM 8
0,0,0,0,0,j,a,s,0,0,0,0,0,0,0,0
0,0,0,0,0,g,a,y,0,0,0,0,0,0,0,0
w,p,o,0,w,a,b,s,0,0,0,0,0,0,0,0
a,a,a,e,j,a,e,10,e,0,0,0,0,0,0,0
l,z,a,i,0,v,a,a,14,e,0,0,0,0,0,0
0,v,x,a,e,o,v,c,a,b,0,0,0,0,0,0
0,0,0,v,a,a,r,j,a,k,0,0,0,0,0,0
0,0,0,0,v,a,k,10,a,0,0,0,0,0,0,0
0,0,0,0,j,a,11,j,a,e,0,0,0,0,0,0
0,0,0,0,0,c,a,11,c,a,0,0,0,0,0,0
0,0,0,0,0,j,a,e,0,12,a,0,0,0,0,0
0,0,0,0,0,0,v,a,11,14,a,0,0,0,0,0
0,0,0,0,0,0,0,c,a,a,b,0,0,0,0,0
0,0,0,0,0,0,0,0,0,0,0,0,0,0,0,0
0,0,0,0,0,0,0,0,0,0,0,0,0,0,0,0
0,0,0,0,0,0,0,0,0,0,0,0,0,0,0,0
NAME appendix
EXT 2,2 9 13,2
EXT 3,1 9 13,2
EXT 4,1 9 13,2
PAL 2

ROOM 9
0,0,g,a,a,i,a,a,a,e,10,a,15,a,e,0
0,d,a,b,c,a,b,l,z,a,a,b,j,a,a,e
w,10,a,y,0,l,e,0,0,c,16,0,0,l,z,a
v,a,b,0,q,g,a,e,g,a,i,e,0,0,2w,a
g,a,y,j,a,a,x,a,a,x,a,i,e,q,g,a
a,14,y,0,c,a,y,l,0,0,c,a,a,a,a,b
a,i,0,0,g,a,f,0,0,0,0,l,d,f,l,0
x,a,y,h,a,i,f,0,0,0,0,0,0,0,0,0
a,11,0,0,v,a,11,0,0,0,0,0,0,0,0,0
a,i,0,0,g,a,y,0,0,0,0,0,0,0,0,0
z,a,i,15,a,b,0,0,0,0,0,0,0,0,0,0
a,13,x,e,a,k,0,0,0,0,0,0,0,0,0,0
a,i,2v,14,a,y,0,0,0,0,0,0,0,0,0,0
a,13,12,13,a,e,0,0,0,0,0,0,0,0,0,0
x,a,a,a,b,f,0,0,0,0,0,0,0,0,0,0
0,d,z,c,0,0,0,0,0,0,0,0,0,0,0,0
NAME colon
EXT 14,3 8 4,3
EXT 12,0 4 14,14
EXT 2,12 0 7,3
PAL 2

ROOM a
0,0,h,a,15,a,14,a,a,a,a,e,10,k,0,0
0,0,j,a,e,v,a,b,c,l,v,a,a,11,0,0
0,0,0,v,a,e,16,0,0,0,2y,c,v,a,e,0
0,0,0,0,c,a,a,e,0,2y,2y,0,0,c,a,y
0,0,0,0,0,s,c,a,37,0,38,0,2y,h,a,k
0,0,0,0,0,0,j,a,2z,2y,38,37,u,w,a,0
0,0,0,0,0,0,10,a,k,0,38,2y,38,j,a,y
0,0,0,0,q,g,a,b,2y,0,38,0,38,g,a,k
0,0,0,10,a,a,z,36,37,37,38,0,h,a,b,n
0,0,g,a,b,n,0,38,0,2y,38,n,g,a,f,0
g,a,a,b,0,0,2y,38,2y,2y,38,10,a,b,0,0
a,b,17,o,10,15,e,38,u,p,g,a,b,n,0,0
a,j,a,a,a,a,e,38,10,a,a,b,f,0,0,0
a,12,c,a,i,c,a,a,a,b,l,0,0,0,0,0
v,a,12,z,a,e,d,n,l,0,0,0,0,0,0,0
0,c,a,15,a,s,0,0,0,0,0,0,0,0,0,0
NAME stomach
EXT 3,15 2 13,13
EXT 10,2 a 5,9
EXT 6,10 a 8,9
EXT 8,10 a 7,2
EXT 9,3 a 13,7
EXT 9,9 a 9,6
EXT 9,10 a 11,7
EXT 9,5 a 9,4
EXT 11,6 a 7,2
EXT 8,7 a 8,12
EXT 12,4 a 9,2
EXT 10,3 a 9,6
EXT 4,0 b 10,14
PAL 0

ROOM b
0,0,0,0,0,0,0,h,a,y,h,a,r,0,0,0
0,0,0,0,0,0,0,0,a,k,j,a,y,0,0,0
0,0,0,0,0,0,0,j,a,r,d,a,k,0,0,0
0,0,0,0,h,0,p,g,a,y,j,a,r,0,0,0
0,0,0,0,j,a,a,a,z,0,h,a,e,0,0,0
0,0,0,0,g,a,x,13,y,0,0,c,a,r,0,0
0,0,0,j,a,b,0,q,0,0,0,h,a,y,0,0
0,0,0,h,a,k,0,v,12,s,0,10,a,k,0,0
0,0,0,j,a,r,0,h,a,k,h,a,b,0,0,0
0,0,0,h,a,y,0,10,a,s,j,a,y,0,0,0
0,0,0,d,a,s,0,h,a,y,h,a,r,0,0,0
0,0,0,j,a,k,0,j,a,k,j,a,s,0,0,0
0,0,0,h,a,s,0,d,a,y,h,a,k,0,0,0
0,0,0,j,a,y,0,h,a,r,h,a,y,0,0,0
0,0,0,j,a,s,0,j,a,e,j,a,r,0,0,0
0,0,0,h,a,r,0,d,a,s,h,a,s,0,0,0
NAME throat
EXT 9,15 a 4,0
EXT 10,15 a 4,0
EXT 9,0 1 0,14
EXT 10,0 1 0,14
EXT 5,15 c 8,0
EXT 6,15 c 8,0
EXT 7,15 c 8,0
PAL 0

ROOM c
0,v,a,a,a,11,15,a,15,a,11,g,a,a,11,0
w,g,a,b,c,a,13,a,15,a,a,a,11,c,a,y
j,a,a,s,0,c,a,a,r,0,0,l,0,10,a,e
p,a,b,2x,0,2x,l,d,o,0,0,0,2x,n,c,a
d,a,r,0,0,0,0,j,a,e,0,0,0,p,14,a
p,a,s,0,2x,0,0,j,a,s,0,0,0,2x,j,a
j,a,r,0,0,0,2x,d,a,r,2x,0,2x,0,d,a
w,a,y,0,2x,0,0,14,a,s,0,0,0,0,j,a
p,a,e,2x,0,0,2x,j,a,y,0,2x,0,2x,j,a
0,v,a,e,0,0,0,w,a,e,2x,0,0,0,10,a
0,0,c,a,f,2x,h,g,a,a,r,0,2x,j,a,b
0,0,j,a,r,0,j,a,x,a,r,2x,0,g,a,y
0,0,h,a,e,o,g,a,15,a,e,o,10,a,z,0
0,0,d,c,a,a,a,b,0,c,a,a,a,b,0,0
0,0,0,0,n,d,l,0,0,0,n,l,d,0,0,0
0,0,0,0,0,0,0,0,0,0,0,0,0,0,0,0
NAME lungs
ITM 5 4,8
ITM 5 3,6
ITM 5 4,2
ITM 5 12,2
ITM 5 11,4
ITM 5 13,6
ITM 5 10,7
ITM 5 13,9
ITM 5 11,10
ITM 5 6,7
ITM 5 6,9
ITM 5 5,11
ITM c 9,3
EXT 8,0 b 6,14
EXT 3,3 7 15,1
EXT 5,3 7 15,1
EXT 4,5 7 15,1
EXT 6,6 7 15,1
EXT 4,7 0 0,0
EXT 6,8 7 15,1
EXT 3,8 7 15,1
EXT 5,10 7 15,1
EXT 13,5 7 15,1
EXT 12,6 7 15,1
EXT 10,6 7 15,1
EXT 13,8 7 15,1
EXT 11,8 7 15,1
EXT 10,9 7 15,1
EXT 12,10 7 15,1
EXT 11,11 7 15,1
EXT 12,3 7 15,1
PAL 3

TIL 10
00000000
00001001
00000000
00000001
00000101
00000000
00001100
00100011

TIL 11
11111100
01011000
10100100
01000000
11010000
10000000
01001000
10111010

TIL 12
01000001
10000000
00000001
01100011
10110100
11010101
11100000
01011011

TIL 13
10110101
01100110
01010011
11000011
01001010
00101011
11010001
10011011

TIL 14
01001101
00100010
01110011
10000011
01000001
00110101
00101111
01011001

TIL 15
00000000
00000001
10000010
00100001
10000000
10100010
01000001
00000001

TIL 16
00101100
00000010
00010000
00000000
00000000
00100000
00100000
00001011

TIL 17
00001000
00110000
00001000
00000000
00010000
00000010
00000010
01001010

TIL 18
00000001
00000001
11001010
00111111
11101101
00000011
00000001
00000000
NAME braineye
WAL false

TIL 19
01101110
00010111
00000100
00011010
00010001
00000001
00000000
00000001
NAME brainz2
WAL true

TIL 20
00000000
00000000
00000000
10000000
10000000
10000000
01000000
01000000
NAME face5

TIL 21
01000000
01000000
01000000
10000000
10000000
10000000
10000000
01000000
NAME face6

TIL 22
00000000
00000001
11000010
00111100
00000000
00000000
00000000
00000000
NAME face7
WAL true

TIL 23
00000000
00000000
00000000
00000000
00000000
00000000
11111100
00000011
NAME face8
WAL true

TIL 24
00000000
10000000
01000000
01000000
01000000
01000000
01000000
10000000
NAME face9
WAL false

TIL 25
00000000
11000000
00110000
00010000
00010000
00100000
00100111
00011000
NAME face10
WAL true

TIL 26
00000010
00000001
00000000
00000000
00000000
00000000
00000000
00000000
NAME face11
WAL true

TIL 27
00000000
00000000
00000001
00000010
00000010
00000100
00000100
00000100
NAME face12

TIL 28
01000000
10000000
00000000
00000000
00000000
00000000
00000000
00000000
NAME face13

TIL 29
00000100
00000100
00000100
00000100
00001000
00001000
00010000
00100000
NAME face14

TIL 30
00000000
00010000
00000000
00000000
10000000
00001000
00000010
00000000
NAME wall 3
WAL true

TIL 31
00000000
00000000
00000000
00100000
00000100
00000000
01000010
00110100
NAME wall 4
WAL true

TIL 32
00000000
00000000
00000000
00000000
00000000
00010000
00100100
00000001
NAME wall 5
WAL true

TIL 33
01000000
10000000
00000000
10100000
00000000
00101000
10000000
10000000
NAME wall6
WAL true

TIL 34
00000000
11111111
10000001
11100001
11111001
11111111
11111111
00000000
NAME stairs down

TIL 35
00000000
11111111
10000001
10000111
10011111
11111111
11111111
00000000

TIL 36
00000000
00000000
00010010
00000000
00001000
00000000
00010000
00000000
NAME stomachwall
WAL true

TIL 37
00000000
00000000
00000000
01000010
00010000
00000000
00000000
00000000
NAME stomachwall2
WAL true

TIL 38
00000000
00010000
00000000
00001000
00000000
00001000
00000000
00100000
NAME stomachwall3
WAL true

TIL 39
00010100
00010100
00010100
00010100
00010100
00010100
00010100
00010100

TIL a
01111111
11110111
11011111
11111101
11110111
10111111
11111111
11111101
WAL true

TIL b
11111100
11001000
10000000
01100000
00000000
00000000
00000000
00000000

TIL c
10110001
11111110
01101001
00000001
00000000
00000000
00000000
00000000

TIL d
00000111
00000000
00001000
00000000
00000000
00000000
00000000
00000000

TIL e
00000000
00100000
00000100
10000000
00000000
11001000
10000000
11110000

TIL f
10000000
00000000
00001000
10000000
00000000
00000000
00100000
00000000

TIL g
00000000
00000000
00000001
01010000
00000001
00001110
00011111
01110111

TIL h
00000000
00000000
00000010
00001000
00000000
00000000
00000001
00000000

TIL i
11111110
11101100
10100110
00100000
11000010
11001000
11110110
11011011

TIL j
00000000
00000000
00001010
00000001
00000101
00000001
01000011
00000001

TIL k
00000000
00000000
00000000
01001000
10000000
00000000
00000010
00000000

TIL l
01011110
00011000
00001000
00000000
00000000
00000000
00000000
00000000

TIL m
00000000
00000000
00000000
00000000
00000000
00000000
00000000
00000000
NAME inv wall
WAL true

TIL n
00010000
00000000
00000100
00000000
00000000
00000000
00000000
00000000

TIL o
00000000
00000000
00000000
00000000
00000000
00000000
00001000
01000100

TIL p
00000000
00000000
00000000
00000000
00001000
00000000
00000001
00100000

TIL q
00000000
00000000
00000000
00000000
00000000
00000000
00001000
00111000

TIL r
00000000
00000000
10000000
00000000
10000000
01001000
00000000
00000000

TIL s
01000000
00000100
10000000
00000000
00000000
00000000
10000000
00000000

TIL t
00000000
00000000
00000000
00000000
01000000
00000000
00000000
00000000

TIL u
00000000
00000000
00000000
00000000
00000000
00000000
00001000
00000000

TIL v
00101010
00000011
00000101
00100000
00000001
00000101
00000000
00000001

TIL w
00000000
00000000
00000000
00000000
00000100
00000000
00000000
00000001

TIL x
01111101
11011111
11100101
10000001
01010010
01000011
10000001
00000001

TIL y
00000000
11000000
10110000
10000000
11000000
10000000
00010000
00000000

TIL z
11101011
11100110
01011100
11101000
00101001
10000000
00001001
10000001

TIL 1a
00000000
00010000
01110011
11101101
10111110
00000000
00000000
00000000
NAME braineye

TIL 1b
00000000
00000000
01000000
11100001
10111011
00011111
00000100
00000000

TIL 1c
10000000
10110000
11111000
01011111
00001011
00000100
00000000
00000000

TIL 1d
11110011
11110001
11100000
11000000
00000000
00000000
00000000
00000000

TIL 1e
00000000
00000000
00000000
00000000
00000000
00000000
10000000
11000000

TIL 1f
10000000
11100000
11111000
11111000
11111100
11111100
11111100
11111111

TIL 1g
01000111
01000111
00101111
00101111
00011110
00000000
00000000
00000000

TIL 1h
00000111
00111111
01101111
01001111
01001111
10000111
10000111
10000111

TIL 1i
00000000
00000000
00000000
00000000
11111111
00000000
00000000
00000000
NAME eye1

TIL 1j
00000000
00000000
00000000
00000000
00000000
10000000
01000000
00100000

TIL 1k
00000000
00000000
00000000
00000000
00000000
00000001
00000010
00000100

TIL 1l
00001000
00010000
00100000
01000000
10000000
00000000
00000000
00000000

TIL 1m
00010000
00001000
00000100
00000010
00000001
00000000
00000000
00000000

TIL 1n
00000000
00000000
00000000
00000000
11111111
00001000
00010000
00100000

TIL 1o
00100000
01000000
01000000
10000000
10000000
10000000
00000000
00000000

TIL 1p
00000000
00000000
00000000
00000000
00000000
00000000
00000001
00000001

TIL 1q
00000001
00000001
00000010
00000010
00000010
00000010
00000010
00000100

TIL 1r
00000100
00000100
00000100
00000100
00000100
00000100
00000100
00000100

TIL 1s
00000010
00000010
00000010
00000010
00000001
00000001
00000001
00000000

TIL 1t
00000000
00000000
00000000
00000000
00000000
00000000
00000000
10000000

TIL 1u
10000000
10000000
01000000
01000000
01000000
00100000
00100000
00010000

TIL 1v
00010000
00001000
00001000
00000100
11111111
00000000
00000000
00000000

TIL 1w
00000000
00000000
00001111
00010000
00100000
00100000
00011000
00000100
NAME face1
WAL true

TIL 1x
00000100
00000100
00001000
00001000
00001000
00001000
00000100
00000010
NAME face2
WAL true

TIL 1y
00000010
00000001
00000000
00000000
00000000
00000000
00000000
00000000
NAME face3

TIL 1z
00111100
11000010
00000001
00000000
00000000
00000000
00000000
00000000
NAME face4

TIL 2a
00000001
00000001
00000010
00000010
00000010
00000010
00000100
00000100
NAME face15

TIL 2b
00000000
00000000
00000000
00000000
00000000
00000000
00000000
00000001
NAME face16

TIL 2c
00000011
00001100
00010000
00100000
01000000
01000000
10000000
00000000
NAME face17

TIL 2d
00000000
00000000
00000000
00000000
00000000
00000000
00001111
11110000
NAME face18

TIL 2e
00000000
00000000
00000000
00000000
00000000
00000000
11111111
00000000
NAME face19

TIL 2f
00000000
00000000
00000000
00000000
00000000
00000000
11110000
00001111
NAME face20

TIL 2g
00000000
00000000
00000000
00000000
00000000
00000000
00000000
11000000
NAME face21

TIL 2h
00111000
00000110
00000001
00000000
00000000
00000000
00000000
00000000
NAME face22

TIL 2i
00000001
00000011
00000110
00001100
00011000
00110000
01100000
11000000
NAME fork1

TIL 2j
00000000
00000111
00001000
00010111
00110000
01100000
11000000
10000000
NAME fork2
WAL true

TIL 2k
00001000
00010000
00100000
01000000
10000000
10000000
01000000
00100000
NAME eye corner

TIL 2l
00010000
00001000
00000100
00000010
00000001
00000001
00000010
00000100
NAME eye corner2

TIL 2m
00000000
00000000
00000000
00000000
11111111
00001000
00000100
00000010
NAME eye iris right 1

TIL 2n
00000010
00000001
00000001
00000000
00000000
00000000
00000000
00000000
NAME eye iris right 2

TIL 2o
00000000
00000000
00000000
10000000
10000000
10000000
01000000
01000000
NAME eye iris right 3

TIL 2p
01000000
01000000
00100000
00100000
00100000
00100000
00100000
00010000
NAME eye iris right 4

TIL 2q
00010000
00010000
00010000
00010000
00010000
00010000
00010000
00010000
NAME eye iris right 5

TIL 2r
00100000
00100000
00100000
00100000
01000000
01000000
01000000
10000000
NAME eye iris right 6

TIL 2s
10000000
10000000
00000000
00000000
00000000
00000000
00000000
00000000
NAME eye iris right 7

TIL 2t
00000000
00000000
00000001
00000001
00000001
00000010
00000010
00000100
NAME eye iris right 8

TIL 2u
00000100
00001000
00001000
00010000
11111111
00000000
00000000
00000000
NAME eye iris right 9

TIL 2v
00000000
00111000
01111110
01111110
01111110
00111100
00111000
00000000
>
00000000
00111000
00111100
01111110
01111100
00111100
00010000
00000000
NAME anus

TIL 2w
00010101
00111101
01000110
01011011
01011011
01000010
00111110
00000101
NAME appendix enter

TIL 2x
00000000
11000011
11000011
00011000
11011011
11000011
00011000
00011000
>
00000000
11000011
11011011
00011000
11000011
11011011
00011000
00000000
NAME alveoli

TIL 2y
00000000
00010100
00000000
00101000
00000000
00010100
00000000
00000000
>
00000000
00000000
00101000
00000000
00010100
00000000
00101000
00000000
NAME teleporter

TIL 2z
00000000
00100000
00000000
10000000
00000000
10000000
11000000
00000000
NAME wall 2
WAL true

TIL 3a
01110100
01011100
01010100
01100100
00101100
01101000
01111100
01110100
NAME brainstem

SPR A
00000000
00011100
00010100
00111100
01111000
01110010
00111110
00000000
>
00000000
00011100
00010100
00111100
01111000
01110001
00111110
00000000
POS 6 8,11

SPR a
00010100
00010100
00010100
00010100
00110110
00100010
00111110
00000000
DLG SPR_0
POS 0 7,2

SPR b
11011111
11110110
01111100
01111000
01011100
01110100
01111100
01101000
NAME brain
DLG SPR_1
POS 1 12,13

SPR c
00000000
00111100
01000010
10011001
10011001
01000010
00111100
00000000
NAME eye
DLG SPR_2
POS 5 7,14

SPR d
00001110
00111111
11110111
10111111
11111111
10111000
11010000
01110000
DLG SPR_3
POS 6 8,12

SPR e
01110000
01111110
11111110
10111100
11111100
11111000
01100000
00000000
DLG SPR_4
POS 6 9,12

SPR f
00000000
00000000
00111000
01111110
11100110
10000000
00000000
00000000
NAME appendix
DLG SPR_o
POS 8 8,10

SPR g
00010000
00111000
01111100
00010000
00010000
00010000
00000000
00000000
NAME colon
DLG SPR_5
POS 9 12,2

SPR h
00000000
00011000
00011000
00011000
00011000
00010000
00000000
00011000
NAME colon2
DLG SPR_6
POS 9 3,9

SPR i
00000000
00000000
00000000
00000000
00010000
10100000
11000000
11100000
NAME stomach
DLG SPR_7
POS a 4,10

SPR j
11100000
11000000
10100011
00010011
00000011
00000010
00000000
00000011
NAME stomach2
DLG SPR_8
POS a 8,2

SPR k
00000000
00000000
00010000
00010000
00010000
01111100
00111000
00010000
NAME throat
DLG SPR_9
POS b 6,10

SPR l
00000000
00000000
00010000
00010000
00010000
01111100
00111000
00010000
NAME throat2
DLG SPR_a
POS b 10,7

SPR m
00010000
00111000
01111100
00010000
00010000
00010000
00000000
00000000
NAME throat3
DLG SPR_b
POS b 9,4

SPR n
00100000
01110000
11111000
00100000
00100000
00100000
00000000
00000000
NAME lungs
DLG SPR_c
POS c 9,2

SPR o
00000000
01110000
01100000
01010000
00001000
00000000
00000000
00000000
NAME heart
DLG SPR_d
POS 7 7,3

SPR p
00000000
00001110
00000110
00001010
00010000
00000000
00000000
00000000
NAME heart
DLG SPR_e
POS 7 11,6

SPR q
00000000
01100110
11111111
11100111
11100111
01100110
00000000
00000000
>
00000000
01100110
11111111
11100111
11100111
11100111
01100110
00000000
NAME lungs
DLG SPR_f
POS c 10,3

SPR r
00000000
01100110
10011001
10000001
10000001
01000010
00100100
00011000
NAME heart
DLG SPR_g
POS 7 4,8

SPR s
00100000
00111100
00011110
00001110
00011110
00111100
01111000
01000000
NAME stomach
DLG SPR_h
POS a 11,8

SPR t
00000000
00101010
01010101
01010101
01010101
01010101
01010101
11100011
NAME villi
DLG SPR_i
POS 2 3,11

SPR u
00000000
00101010
01010101
01010101
01010101
01010101
01010101
11100011
NAME villi
DLG SPR_j
POS 2 12,5

SPR v
00000000
00101010
01010101
01010101
01010101
01010101
01010101
11100011
NAME villi
DLG SPR_k
POS 3 4,10

SPR w
00000000
00101010
01010101
01010101
01010101
01010101
01010101
11100011
NAME villi
DLG SPR_l
POS 3 9,9

SPR x
00000000
00101010
01010101
01010101
01010101
01010101
01010101
11100011
NAME villi
DLG SPR_m
POS 4 8,2

SPR y
00011000
00111100
01011010
01011010
11100111
00011000
00011000
00111100
NAME bristol
DLG SPR_n
POS 9 7,2

ITM 0
00011100
01100010
10001001
10100001
10001001
01100010
00010010
00001100
>
00111110
01000001
10010101
10000001
10010010
01000010
00100100
00011100
NAME blood
DLG ITM_0

ITM 1
00000000
01100001
00010110
00001000
00110110
11010001
00001000
00000100
>
10010001
01101010
00101100
11011010
00110111
01010100
01010010
10001001
NAME trauma
DLG ITM_1

ITM 2
00000000
00000000
00000000
00000000
00011111
01111111
01100011
00000000
NAME tounguetip
DLG ITM_2

ITM 3
00000000
00000000
00000000
00000000
11111110
11111111
11111111
00111111
NAME toungueroot
DLG ITM_3

ITM 4
00000000
00111100
01000010
10011001
10011001
01000010
00111100
00000000
NAME eye-cantreach

ITM 5
00011100
01110010
10000010
11000001
00100011
01100000
11011001
00001110
>
00001100
00111011
11000000
10000010
01000001
01110001
00101001
00000110
NAME mucus
DLG ITM_4

ITM 6
00000000
00000000
00000000
00001000
00000000
00000000
00000000
00000000
NAME outro 1
DLG ITM_5

ITM 7
00000000
00000000
00000000
00000000
00010000
00000000
00000000
00000000
NAME outro 2
DLG ITM_6

ITM 8
00000000
00000000
00000000
00000000
00000000
00001000
00000000
00000000
NAME outro 3
DLG ITM_7

ITM 9
00000000
00000000
00100000
00000000
00000000
00000000
00000000
00000000
NAME outro 4
DLG ITM_8

ITM a
00000000
00000000
00000000
00000000
00001000
00000000
00000000
00000000
NAME outro 5
DLG ITM_9

ITM b
01110100
01011100
01010100
01100100
00101100
01101000
01111100
01111100
NAME brainstem
DLG ITM_a

ITM c
00000000
00000000
00000000
00000000
00000000
00000000
00000000
00000000
NAME invisible lung help
DLG ITM_b

DLG ITM_0
"""
{sequence
  - {wvy}{clr1}blood{clr1}{wvy}
  - {wvy}{clr1}blood{clr1}{wvy}
  - {wvy}{clr1}blood{clr1}{wvy}
  - {wvy}{clr1}sweet blood{clr1}{wvy}
  - {wvy}{clr1}soft blood{clr1}{wvy}
  - {wvy}{clr1}sensual blood{clr1}{wvy}
  - {wvy}{clr1}ooooo{clr1}{wvy}
  - {wvy}{clr1}blooooood{clr1}{wvy}
}
"""

DLG ITM_1
"""
{sequence
  - {clr3}{shk}TRAUMA{shk}{clr3}
  - {clr3}{shk}NEED TO COMPARTMENTALIZE{shk}{clr3}
  - {clr3}{shk}TRAUMA{shk}{clr3}
  - {clr3}{shk}SYSTEM OVERLOAD{shk}{clr3}
  - {clr3}{shk}TRAUMA{shk}{clr3}
  - {clr3}{shk}NO SPACE TO COMPUTE NEW INPUT{shk}{clr3}
}
"""

DLG SPR_2
"""
{sequence
  - {wvy}Eye observes. {rbw}YesYes{rbw}{wvy}
  - {wvy}Eye see trauma and show brain? {wvy}
  - {wvy}Eye is confused. Can't tell lies to brain. {rbw}NONONO{rbw}{wvy}
  - {wvy}Eye take {clr3}{shk}TRAUMA{shk}{clr3}. Give to brain. Brain knows best.{wvy}
}
"""

DLG ITM_2
{rbw}YUMMY!{rbw}

DLG ITM_3
{rbw}TASTY!{rbw}

DLG SPR_3
"""
I'll miss you.

My slice of pizza.

My sweet home.
"""

DLG SPR_4
"""
We had some good times together.

You, me and pineapple.
"""

DLG SPR_5
Small intestine

DLG SPR_6
"""
WARNING: Approaching Sphincter.

Point of no return is near.
"""

DLG SPR_7
Towards intestine

DLG SPR_8
Towards throat, or continue with caution...

DLG SPR_9
Lungs and Heart

DLG SPR_a
Digestive tract

DLG SPR_b
Brain

DLG SPR_c
"""
Throat

Take the alveoli to heart.
"""

DLG SPR_d
More oxygen?

DLG SPR_e
Short-cut to the stomach

DLG SPR_f
"""
{
  - {item "mucus"} == 0 ?
    Lungs: Take some mental baggage off your back?
    Sure, but do you see all this mucus?
    I simply have no place to put it.
    I'm so sorry.
    
    But if you were to clean it up...
  - {item "mucus"} >= 0 ?
    Why?
    Are you afraid of work?
    There's still mucus clogging things up.
    I can feel it.
  - {item "mucus"} >= 12 ?
    Oh, but look at all that slime on you!
    It really brings out a marvelous {rbw}luster{rbw} in your skin.
    ...
    
    That thing you wanted to stash here?
    I'm sorry but I must refuse.
    
    I have much more important oxygen business to attend to.
}
"""

DLG SPR_g
"""
{sequence
  - Heart: {rbw}...the same blood never passes the heart twice...{rbw}
  - {rbw}...listen to the flow, there's a music to it...{rbw}
  - {rbw}...it's better to rush slowly...{rbw}
  - {rbw}...bump bump bu-dump bump...{rbw}
  - {rbw}...the simple task brings the largest pleasure...{rbw}
  - {rbw}Nothing is more honorable than a thankful heart!{rbw}
}
"""

DLG SPR_i
"""
Have you heard the news?

Vinegar, lots of vinegar, tea and an egg.
It's the best diet.

All I eat.
"""

DLG SPR_j
"""
I eat everything!

Just as long as its got nothing to do with {shk}SEX{shk}.
What kind of trauma is it?

You haven't looked?

Then it could be {shk}SEX{shk}
"""

DLG SPR_k
Cabbage soup! Only eat cabbage soup.

DLG SPR_l
"""
I eat for five days, then don't for two.
Today is no eat day.
{wvy}Sorry{wvy}
"""

DLG SPR_m
"""
{shk}GLUTEN IS POISON!{shk}

Does the trauma contain {shk}GLUTEN{shk}?

{wvy}Gaah {shk}GLUTEN{shk}{wvy}
"""

DLG SPR_n
"""
{
  - q < 2 ?
    You're a mushy six on my Bristol Stool scale.
    Why don't you go back and try a little harder?
  - q == 2 ?
    Let's compare against my Bristol Stool scale...
    A blobby five, passable, but not perfect.
    Maybe have a chat with brain again?
  - q == 3 ?
    You're a perfect four.
    
    Soft and sausage-like.
    
    Go on. Out you go.
}
"""

DLG SPR_o
"""
{
  - {item "trauma"} == 0 ?
    Appendix: You are just here to mock me right?
    No one ever comes here.
    
    No one cares.
    
    "The appendix is totally useless"
    "Might as well cut it out"
    
    I know your type.
  - q == 0 ?
    Appendix:
    Why are you here?
    Who sent you?
  - q == 1 ?
    Appendix: You are just here to mock me right?
    No one ever... {rbw}What did you say?!{rbw}
    {wvy}Of course I'll help friend.
    {rbw}Best friend{rbw}{wvy}.
    There's plenty of room.
    {wvy}All the room{wvy}
    I'll store your trash, your miseries, your sorrows.
    {wvy}Store all the bad things.{wvy}
    
    {wvy}{rbw}Come back anytime!{rbw}{wvy}{q = 2}
  - q == 2 ?
    {wvy}{rbw}BEST FRIEND{rbw}{wvy}
  - q == 3 ?
    {wvy}You came back!{wvy}
    
    {wvy}Brain says I'm best?{wvy}
    
    {wvy}{rbw}Brain says I'm best?{rbw}{wvy}
    
    {wvy}{rbw}BEST FRIEND{rbw}{wvy}
}
"""

DLG SPR_1
"""
{
  - {item "trauma"} < 6 ?
    Brain:
    {wvy}{shk}TOO MUCH{shk}{wvy}                            
    {wvy}{shk}CAN'T THINK{shk}{wvy}            
    
    {wvy}{shk}NO SPACE{shk}{wvy}
    
    {wvy}{shk}AAAAAAH{shk}{wvy}
    
    {wvy}{shk}TAKE TRAUMA{shk}{wvy}
    
    {wvy}{shk}TAKE ALL{shk}{wvy}
  - q <= 1 ?
    {wvy}{shk}FIND PLACE{shk}{wvy}
    {wvy}{shk}STORE {clr3}TRAUMA{clr3}{shk}{wvy}{q = 1}
  - q == 2 ?
    Much better.
    
    You said appendix took it? App-end-ix?
    Wow! I didn't see that coming.{q = 3}
  - q == 3 ?
    Tell them thanks.
}
"""

DLG ITM_4
"""
{cycle
  - {shk}SLORP{shk}
  - {shk}SPLASH{shk}
  - {shk}SHLOFF{shk}
  - {shk}SPLAT{shk}
}
"""

DLG SPR_h
"""
{
  - q < 2 ?
    Stomach: If I could?
    
    What's its pH?
    
    There's a delicate balance here.
    
    What would happen if the {shk}trauma {shk}corrodes?
    And starts leaking all over the place?
    There would be ulcers high and low!
    {shk}GET OUT OF MY SIGHT{shk}
  - q > 2 ?
    Stomach: So you did a good thing?
    
    La-di-da!
    
    {shk}GET LOST{shk}
}
"""

DLG SPR_0
Sphincter: Sorry, but we're closed for business.

DLG ITM_5
Thank you for playing!

DLG ITM_6
This is how biology works now.

DLG ITM_7
I've got a PhD in Biology

DLG ITM_8
So I know.

DLG ITM_9
{wvy}Trust me{wvy}

DLG ITM_a
"""
{
  - {item "trauma"} < 6 ?
    Brain:
    {wvy}{shk}TOO MUCH{shk}{wvy}                            
    {wvy}{shk}CAN'T THINK{shk}{wvy}            
    
    {wvy}{shk}NO SPACE{shk}{wvy}
    
    {wvy}{shk}AAAAAAH{shk}{wvy}
    
    {wvy}{shk}TAKE TRAUMA{shk}{wvy}
    
    {wvy}{shk}TAKE ALL{shk}{wvy}
  - q == 0 ?
    {wvy}{shk}FIND PLACE{shk}{wvy}
    {wvy}{shk}STORE {clr3}TRAUMA{clr3}{shk}{wvy}{q = 1}
}
"""

DLG ITM_b
"""
CAUTION: We ship everything to the heart.
Step with care or we might ship you too.
"""

END 0


END undefined
The End

VAR q
0

