
Gotta pet 'em all!

# BITSY VERSION 4.8

! ROOM_FORMAT 1

PAL 0
158,224,197
2,153,50
255,255,255

PAL 1
255,145,250
211,2,219
255,255,255

PAL 2
235,159,138
204,77,2
255,255,255

PAL 3
147,198,255
33,42,214
255,255,255

ROOM 0
0,0,0,0,0,0,0,0,0,0,0,0,0,0,0,0
0,0,0,0,0,0,0,0,0,0,0,0,0,0,0,0
0,0,0,0,0,0,0,0,0,0,0,0,0,0,0,0
0,0,0,0,0,0,0,0,0,0,0,0,0,0,0,0
0,0,a,a,a,a,a,a,a,a,a,0,0,0,0,0
0,0,a,0,0,f,f,f,f,f,a,0,0,0,0,0
0,0,a,0,0,0,0,0,0,0,a,0,0,0,0,0
0,0,a,0,0,0,0,0,0,0,a,0,0,0,0,0
0,0,a,0,0,0,0,0,0,0,a,0,0,0,0,0
0,0,a,0,0,0,0,0,0,0,a,0,0,0,0,0
0,0,a,0,0,0,0,0,0,0,a,0,0,0,0,0
0,0,a,a,a,a,b,a,a,a,a,0,0,0,0,0
0,0,0,0,0,0,0,0,0,0,0,0,0,0,0,0
0,0,0,0,0,0,0,0,0,0,0,0,0,0,0,0
0,0,0,0,0,0,0,0,0,0,0,0,0,0,0,0
0,0,0,0,0,0,0,0,0,0,0,0,0,0,0,0
NAME kids room
ITM 0 9,9
EXT 6,11 1 7,4
PAL 1

ROOM 1
0,0,0,0,0,0,0,0,0,0,0,0,0,0,0,0
0,0,0,0,0,0,0,0,0,0,0,0,0,0,0,0
0,0,0,0,0,0,0,0,0,0,0,0,0,0,0,0
0,0,0,0,0,a,a,c,a,a,0,0,0,0,0,0
0,0,0,0,0,a,j,0,j,a,0,0,0,0,0,0
0,0,0,0,0,a,0,0,0,a,0,0,0,0,0,0
0,0,0,0,0,d,0,0,0,e,0,0,0,0,0,0
0,0,0,0,0,a,0,0,0,a,0,0,0,0,0,0
0,0,0,0,0,a,0,0,0,a,0,0,0,0,0,0
0,0,0,0,0,a,a,g,a,a,0,0,0,0,0,0
0,0,0,0,0,0,0,0,0,0,0,0,0,0,0,0
0,0,0,0,0,0,0,0,0,0,0,0,0,0,0,0
0,0,0,0,0,0,0,0,0,0,0,0,0,0,0,0
0,0,0,0,0,0,0,0,0,0,0,0,0,0,0,0
0,0,0,0,0,0,0,0,0,0,0,0,0,0,0,0
0,0,0,0,0,0,0,0,0,0,0,0,0,0,0,0
NAME corridor
EXT 5,6 2 10,6
EXT 9,6 3 4,7
EXT 7,3 0 6,10
PAL 0

ROOM 2
0,0,0,0,0,0,0,0,0,0,0,0,0,0,0,0
0,0,0,0,0,0,0,0,0,0,0,0,0,0,0,0
0,0,0,0,a,a,a,a,a,a,a,a,0,0,0,0
0,0,0,0,a,0,0,i,0,0,0,a,0,0,0,0
0,0,0,0,a,0,0,0,0,0,0,a,0,0,0,0
0,0,0,0,a,0,0,0,0,0,0,a,0,0,0,0
0,0,0,0,a,0,0,0,0,0,0,e,0,0,0,0
0,0,0,0,a,0,0,0,0,0,0,a,0,0,0,0
0,0,0,0,a,0,0,0,0,0,0,a,0,0,0,0
0,0,0,0,a,a,g,a,a,a,a,a,0,0,0,0
0,0,0,0,0,0,0,0,0,0,0,0,0,0,0,0
0,0,0,0,0,0,0,0,0,0,0,0,0,0,0,0
0,0,0,0,0,0,0,0,0,0,0,0,0,0,0,0
0,0,0,0,0,0,0,0,0,0,0,0,0,0,0,0
0,0,0,0,0,0,0,0,0,0,0,0,0,0,0,0
0,0,0,0,0,0,0,0,0,0,0,0,0,0,0,0
NAME living room
ITM 1 5,8
EXT 11,6 1 6,6
END undefined 6,9
PAL 2

ROOM 3
0,0,0,0,0,0,0,0,0,0,0,0,0,0,0,0
0,0,0,0,0,0,0,0,0,0,0,0,0,0,0,0
0,0,0,0,0,0,0,0,0,0,0,0,0,0,0,0
0,0,0,a,a,a,a,a,a,a,a,0,0,0,0,0
0,0,0,a,0,0,0,0,0,0,a,0,0,0,0,0
0,0,0,a,0,0,0,0,0,0,a,0,0,0,0,0
0,0,0,a,0,0,0,0,0,0,a,0,0,0,0,0
0,0,0,d,0,0,0,0,0,0,a,0,0,0,0,0
0,0,0,a,0,0,0,0,0,0,a,0,0,0,0,0
0,0,0,a,0,0,0,0,0,0,a,0,0,0,0,0
0,0,0,a,0,0,0,0,0,0,a,0,0,0,0,0
0,0,0,a,a,a,a,a,a,a,a,0,0,0,0,0
0,0,0,0,0,0,0,0,0,0,0,0,0,0,0,0
0,0,0,0,0,0,0,0,0,0,0,0,0,0,0,0
0,0,0,0,0,0,0,0,0,0,0,0,0,0,0,0
0,0,0,0,0,0,0,0,0,0,0,0,0,0,0,0
NAME kitchen
EXT 3,7 1 8,6
PAL 3

ROOM 4
0,0,0,0,0,0,0,0,0,0,0,0,0,0,0,0
0,0,0,0,0,0,0,0,0,0,0,0,0,0,0,0
0,0,0,0,0,0,0,0,0,0,0,0,0,0,0,0
0,0,0,0,0,0,0,0,0,0,0,0,0,0,0,0
0,0,0,0,0,0,0,0,0,0,0,0,0,0,0,0
0,0,0,0,0,0,0,0,0,0,0,0,0,0,0,0
0,0,0,0,0,0,0,0,0,0,0,0,0,0,0,0
0,0,0,0,0,0,0,0,0,0,0,0,0,0,0,0
0,0,0,0,0,0,0,0,0,0,0,0,0,0,0,0
0,0,0,0,0,0,0,0,0,0,0,0,0,0,0,0
0,0,0,0,0,0,0,0,0,0,0,0,0,0,0,0
0,0,0,0,0,0,0,0,0,0,0,0,0,0,0,0
0,0,0,0,0,0,0,0,0,0,0,0,0,0,0,0
0,0,0,0,0,0,0,0,0,0,0,0,0,0,0,0
0,0,0,0,0,0,0,0,0,0,0,0,0,0,0,0
0,0,0,0,0,0,0,0,0,0,0,0,0,0,0,0
NAME end
PAL 0

TIL a
11111111
11111111
11111111
11111111
11111111
11111111
11111111
11111111
NAME wall
WAL true

TIL b
00000000
00000000
00011000
00011000
01111110
00111100
00011000
00000000
NAME exitdown

TIL c
00000000
00011000
00111100
01111110
00011000
00011000
00000000
00000000
NAME exitup

TIL d
00000000
00010000
00110000
01111100
01111100
00110000
00010000
00000000
NAME exitleft

TIL e
00000000
00001000
00001100
00111110
00111110
00001100
00001000
00000000
NAME exitright

TIL f
11111111
11111111
11111111
01010101
00010001
10111011
11111111
11111111
NAME walldeko
WAL true

TIL g
00000000
00000000
00000000
11111111
11111111
00000000
00000000
00000000
NAME no exit
WAL true

TIL h
00000000
00000000
00000000
00000000
00000000
00000000
00000000
00000000
NAME wallblank
WAL true

TIL i
00000000
11111111
10000001
10000001
10100101
11101111
11111111
00000000
WAL true

TIL j
11111111
10000001
10000001
10000001
10000001
10000001
10000001
11111111
WAL true

SPR 10
00000000
01111111
10000001
10000001
10000001
10000001
10000001
10000001
NAME s4
POS 2 9,3

SPR 11
00000000
00000000
11111111
01111111
01000000
01000000
01000000
01000000
NAME t1
POS 3 7,7

SPR 12
00000000
00000000
11111111
11111110
00000010
00000010
00000010
00000010
NAME t2
POS 3 8,7

SPR 13
00000010
00000010
00000010
00000010
00111110
01111110
01000010
01000010
POS 3 9,7

SPR 14
01000000
01000000
01000000
01000000
01111100
01111110
01000010
01000010
POS 3 6,7

SPR 15
00000000
00000011
00000100
00000100
00000100
00000111
00000111
00000100
POS 3 7,8

SPR 16
00000000
11000000
00100000
00100000
00100000
11100000
11100000
00100000
POS 3 8,8

SPR 17
11111111
10000001
10000001
10100001
10000001
10000001
10000001
11111111
NAME o1
POS 3 5,5

SPR 18
00000000
00000000
00000000
00000000
11111111
10100101
10000001
10100101
NAME o2
POS 3 5,4

SPR 19
11111111
10000001
10111101
10111001
11111111
10000001
10110101
11111111
POS 3 6,5

SPR A
11011110
11111100
11011100
10011000
00111100
00111100
01111110
00100100
POS 0 9,7

SPR a
00000000
00011000
00001100
00000000
01010000
01110000
01111100
00111111
>
00001100
00000110
00000000
00000000
01010000
01110000
01111100
00111111
NAME sleepy cat
DLG SPR_0
POS 0 5,6

SPR b
00000000
00000000
00000000
01111111
11111111
11111111
11111111
10000000
NAME bed1
DLG SPR_7
POS 0 8,6

SPR c
00000001
00000001
00000001
11111111
11111111
11111111
11111111
00000001
NAME bed2
DLG SPR_1
POS 0 9,6

SPR d
10000001
10000101
10000001
10000001
10000001
10000001
11111111
10000000
NAME ward1
DLG SPR_2
POS 0 3,6

SPR e
10000001
10100001
10000001
10000001
10000001
10000001
11111111
00000001
NAME ward2
DLG SPR_3
POS 0 4,6

SPR f
11111111
10000001
10000001
10000001
10000001
10000001
10000001
10000001
NAME ward3
POS 0 3,5

SPR g
11111111
10000001
10000001
10000001
10000001
10000001
10000001
10000001
NAME ward4
POS 0 4,5

SPR h
00000000
00000000
00000100
00000100
00000100
00111100
01111100
01000100
NAME chair
DLG SPR_4
POS 0 4,8

SPR i
00000000
00000000
00000000
00000000
11111111
01111110
01000010
01000010
NAME table
DLG SPR_5
POS 0 3,8

SPR j
00000000
00000000
00000000
01010010
01110010
01111100
00111100
00100100
>
00000000
00000000
01010001
01110010
01111100
00111100
00100100
00000000
NAME playful cat
DLG SPR_8
POS 1 7,8

SPR k
10101011
10101011
11111111
10000001
10101011
10101011
11111111
10000001
NAME shelf1
DLG SPR_b
POS 2 8,4

SPR l
00001000
00010000
00111000
00010000
00111000
00111000
11111111
10000001
NAME shelf2
POS 2 8,3

SPR m
10000000
11000000
11111111
11000000
11000000
11111111
11111111
01000000
NAME sofa1
POS 2 5,4

SPR n
00000001
00000011
11111111
00000011
00000011
11111111
11111111
00000010
NAME sofa2
POS 2 6,4

SPR o
00000000
00000000
00000000
00000000
00111111
01000000
10000000
10000000
NAME sofa3
POS 2 5,3

SPR p
00000000
00000000
00000000
00000000
11111100
00000010
00000001
00000001
NAME sofa4
POS 2 6,3

SPR q
00011111
00010000
00010000
00010000
00010000
00011111
00000011
00001111
>
00011111
00010000
00010000
00010000
00010000
00011111
00000011
00001111
DLG SPR_a
POS 2 5,6

SPR r
11111000
00001000
00001000
00001000
00001000
11111000
11000000
11110000
DLG SPR_9
POS 2 6,6

SPR s
00000000
00000101
00100111
01110010
01110000
00110010
00111010
00111100
>
00001010
00001110
00100100
01110000
01110000
00110010
00111010
00111100
NAME catlove1
DLG SPR_g
POS 3 5,9

SPR t
00000000
01010000
01110000
00100100
00001110
01001110
01011100
00111100
>
10100000
11100000
01000000
00000100
00001110
01001110
01011100
00111100
NAME catlove2
DLG SPR_h
POS 3 4,9

SPR u
00000110
00000110
11111110
00000110
00000110
00000110
00000110
00001111
NAME tree1
DLG SPR_e
POS 2 8,8

SPR v
00000000
00000110
00000110
00000110
00000110
00000110
00000111
00000110
NAME tree2
POS 2 8,7

SPR w
01010000
01110000
01110000
00111100
00111110
00111111
11111101
00000001
NAME royalcat
DLG SPR_6
POS 2 9,7

SPR x
10000001
10000101
10000001
10000001
10000001
10000001
11111111
01000000
NAME s1
DLG SPR_c
POS 2 9,4

SPR y
10000001
10100001
10000001
10000001
10000001
10000001
11111111
00000010
NAME s2
DLG SPR_d
POS 2 10,4

SPR z
00000000
11111110
10000001
10000001
10000001
10000001
10000001
10000001
NAME s3
POS 2 10,3

SPR 1a
00000000
00000000
00000000
00000000
11111111
00000000
00000000
00000000
POS 3 6,4

SPR 1b
11111111
10000001
10011001
11111111
10000001
10110001
10000001
11111111
POS 3 8,5

SPR 1c
11111111
10000001
10011001
11111111
10000001
10001101
10000001
11111111
POS 3 7,5

SPR 1d
00000000
00000000
00000000
00000000
11111111
00000000
00000000
00000000
POS 3 7,4

SPR 1e
00000000
00000000
00000000
00000000
11111111
00000001
00000001
00000001
POS 3 8,4

SPR 1f
10110001
10000001
10000001
10000001
10000001
10000001
11111111
10000001
POS 3 9,5

SPR 1g
01111110
10000001
10000001
10000001
10000001
10000001
10000001
10000001
POS 3 9,4

SPR 1h
00000000
00011100
00011100
00000000
00000000
00011100
00011100
00000000
DLG SPR_f
POS 3 9,10

SPR 1i
10000001
10101001
10101001
11111111
10000001
10110101
10110101
11111111
POS 3 4,5

SPR 1j
00000000
00000000
11111111
11111111
10000001
10000001
10111001
11111111
POS 3 4,4

SPR 1k
00000000
00000000
00011000
00011000
01111110
00111100
00011000
00000000
DLG SPR_i

ITM 0
00000000
00000000
00000000
00011000
00111100
00111100
00011000
00000000
>
00000000
00000000
00000000
00000000
00011000
00111100
00111100
00011000
NAME ball
DLG ITM_0

ITM 1
00000000
00000000
00000000
00000000
00111100
00111100
00100100
00000000
NAME footstool
DLG ITM_1

DLG ITM_0
You picked up a bouncy ball.{ball = 1}

DLG SPR_0
"""
{sequence
  - Mittens is snoozing. She purrs as you stroke her. {a = 1} {cat = cat + 1}
  - As much as she loves it, you need to pet the other kitties, too!
}
"""

DLG SPR_1
"""
{cycle
  - It's your bed.
  - You just got up, don't be lazy!
}
"""

DLG SPR_2
There are no cats hiding in your wardrobe.

DLG SPR_3
There are no cats hiding in your wardrobe.

DLG SPR_4
No time for sitting, cats need to be stroked!

DLG SPR_5
"""
This is where you do your homework.
Bleh.
"""

DLG SPR_7
Mittens sometimes sleep on the end of your bed.

DLG SPR_8
"""
{
  - cat == 0 ?
    Furrsome is too excited to be pet.
  - ball == 1 ?
    You throw the bouncy ball for Furrsome.{cat = cat + 1}
{b = 1}
{ball = 0}
    He chases it a few times before coming over for some cuddles.
  - b == 1 ?
    Furrsome has been stroked. On to new cat cuddles!
}
"""

DLG ITM_1
You found a foot stool.{stool = 1}

DLG SPR_6
"""
{
  - {item "footstool"} < 1 ?
    Thranduil is sitting on the cat tree, looking regal as usual.
    Unfortunately you cannot reach him up there!
  - stool == 1 ?
    You climb on the foot stool and gently stroke Thranduils fur. He gives you an approving wink. {cat = cat + 1} {c = 1} {stool = 0}
  - c == 1 ?
    Thranduil is looking down on you, telling you to go about your cat stroking duty.
}
"""

DLG SPR_9
"""
{
  - cat < 5 ?
    You haven't greeted all kitties!
    Better stroke them all to make sure they feel loved before watching TV.
  - cat == 5 ?
    Everyone feels loved and valued. You decide to watch your favourite cartoon shows until your parents wake up. What a nice weekend!
    
    
    (Congratz, you did it! You can close the game now.)
}
"""

DLG SPR_b
This is were Mom keeps her boring books with the long words.

DLG SPR_c
There are no cats hiding in here.

DLG SPR_d
There are no cats hiding in here.

DLG SPR_e
The cat tree, throne of Thranduil.

DLG SPR_f
Cat bowls, one with water, one with dry food.

DLG SPR_g
"""
{
  - d == 0 ?
    3 of 5 is lovingly grooming 4 of 5.{cat = cat + 2}
{d = 1}
    You give both of them a quick stroke but feel like you are intruding.
  - d == 1 ?
    3 of 5 and 4 of 5 are cuddling. So cute~!
}
"""

DLG SPR_h
"""
{
  - d == 0 ?
    3 of 5 is lovingly grooming 4 of 5.{cat = cat + 2}
{d = 1}
    You give both of them a quick stroke but feel like you are intruding.
  - d == 1 ?
    3 of 5 and 4 of 5 are cuddling. So cute~!
}
"""

DLG SPR_i
"""
{
  - cat < 5 ?
    It's too early to wake your parents and you haven't greeted all kitties!
  - cat == 5 ?
    Finally time to wake your parents and start the weekend!
}
"""

DLG SPR_a
"""
{
  - cat < 5 ?
    You haven't greeted all kitties!
    Better stroke them all to make sure they feel loved before watching TV.
  - cat == 5 ?
    Everyone feels loved and valued. You decide to watch your favourite cartoon shows until your parents wake up. What a nice weekend!
    
    
    (Congratz, you did it! You can close the game now.)
}
"""

END 0


END undefined
{

VAR cat
0

VAR a
0

VAR b
0

VAR c
0

VAR d
0

VAR stool
0

VAR ball
0


