Secret

# BITSY VERSION 3.5

! ROOM_FORMAT 1

PAL 0
0,0,0
255,255,255
255,255,255

ROOM 0
37,2y,2y,2y,2y,2y,2y,2y,2y,2y,2y,2y,2y,2y,2y,36
2w,0,a,0,0,0,0,0,a,a,a,0,a,a,a,2v
2w,30,2z,2z,2z,2z,31,0,c,e,g,e,g,i,a,2v
2w,33,0,3p,0,0,l,0,d,f,h,f,h,j,a,2v
2w,33,3i,3j,3k,3l,l,0,k,k,k,k,k,k,0,2v
2w,33,3o,3n,3n,3m,l,0,o,p,q,r,s,t,u,2v
2w,33,0,0,0,0,l,0,v,w,x,y,z,10,a,2v
2w,32,m,m,m,m,n,0,11,12,13,14,15,16,18,2v
2w,a,0,0,0,0,0,0,19,1a,0,0,0,0,a,2v
2w,a,0,0,0,0,0,0,0,0,0,0,0,0,a,2v
2w,1b,1c,1d,1e,1f,1g,1h,1i,1j,1k,1l,1m,1n,1o,2v
2w,1p,1q,1r,1s,1t,1u,1v,1w,1x,1y,1z,20,21,22,2v
2w,23,24,25,26,27,28,29,2a,2b,2c,2d,2e,2f,2g,2v
2w,2h,2i,2j,2k,2l,2m,2n,2o,2p,2q,2r,2s,2t,0,2v
2w,38,39,3a,3b,3c,3d,3e,3f,3g,a,a,a,a,0,2v
35,2x,2x,2x,2x,2x,2x,2x,2x,2x,2x,2x,2x,2x,2x,34
WAL b,2v,2w,2y,2x
EXT 5,12 1 12,6
EXT 6,12 1 12,6
EXT 8,12 2 4,2
EXT 9,12 2 4,2
EXT 12,13 3 1,1
EXT 13,13 3 1,1
PAL 0

ROOM 1
4n,4n,4n,4n,4n,4n,4n,4n,4n,4n,4n,4n,4n,4n,4n,4n
4n,4n,4n,4n,4n,4n,4n,4n,4n,4n,4n,4n,4n,4n,4n,4n
4n,4n,4n,4n,4n,4n,4n,4n,4n,4n,4n,4n,4n,4n,4n,4n
0,3r,3s,0,3t,3u,0,3v,3w,3x,0,3y,3z,40,0,0
4n,4n,4n,4n,4n,4n,4n,4n,4n,4n,4n,4n,4n,4n,4n,4n
4n,4n,4n,4n,4n,4n,4n,4n,4n,4n,4n,4n,4n,4n,4n,4n
0,0,0,0,41,42,43,44,45,46,47,48,0,0,0,0
4n,4n,4n,4n,4n,4n,4n,4n,4n,4n,4n,4n,4n,4n,4n,4n
4n,4n,4n,4n,4n,4n,4n,4n,4n,4n,4n,4n,4n,4n,4n,4n
0,0,49,4a,4b,0,4c,4d,4e,4f,4g,0,4h,4i,0,0
4n,4n,4n,4n,4n,4n,4n,4n,4n,4n,4n,4n,4n,4n,4n,4n
4n,4n,4n,4n,4n,4n,4n,4n,4n,4n,4n,4n,4n,4n,4n,4n
4m,4m,4m,4m,4m,4m,4j,4k,4l,4m,4m,4m,4m,4m,4m,4m
4n,4n,4n,4n,4n,4n,4n,4n,4n,4n,4n,4n,4n,4n,4n,4n
4n,4n,4n,4n,4n,4n,4n,4n,4n,4n,4n,4n,4n,4n,4n,4n
4n,4n,4n,4n,4n,4n,4n,4n,4n,4n,4n,4n,4n,4n,4n,4n
EXT 6,12 4 1,1
EXT 7,12 4 1,1
EXT 8,12 4 1,1
PAL 0

ROOM 2
4p,4p,0,0,0,0,0,0,0,0,0,0,0,0,4p,4p
4p,4p,4w,4v,4v,4v,4v,4v,4v,4v,4v,4v,4v,4x,4p,4p
4p,4p,4q,0,0,0,0,0,0,0,0,0,0,4r,4p,4p
4p,4p,4q,52,0,54,55,56,57,58,59,5a,0,4r,4p,4p
4p,4p,4q,0,0,5b,5c,53,53,53,53,53,0,4r,4p,4p
4p,4p,4q,0,0,0,0,0,0,0,0,0,0,4r,4p,4p
4p,4p,4q,0,0,0,0,0,0,60,61,62,0,4r,4p,4p
4p,4p,4q,0,0,0,0,0,0,0,0,0,0,4r,4p,4p
4p,4p,4q,52,0,5d,5e,5f,5g,5h,5i,5j,0,4r,4p,4p
4p,4p,4q,0,0,5k,5l,5m,5n,5o,53,53,0,4r,4p,4p
4p,4p,4q,0,0,5p,5q,5r,5s,5t,5u,5v,0,4r,4p,4p
4p,4p,4q,0,0,5w,5x,5y,5z,53,53,53,0,4r,4p,53
4p,4p,4q,0,0,0,0,0,0,0,0,0,0,4r,4p,53
4p,4p,4u,4s,4s,4s,4s,4s,4s,4s,4s,4s,4s,4t,53,4p
4p,4p,0,0,0,0,0,4y,4z,0,0,0,0,0,4p,4p
4p,4p,0,0,0,0,0,50,51,0,0,0,0,0,4p,4p
WAL 53,4t,4r,4q,4n,4w,4v,4u,4x,54,55,56,57,58,5b,52,5a,59,5e,5d,5c,5h,5g,5f,5k,5j,5i,5n,5m,5l,5q,5p,5o,5t,5s,5r,5w,5v,5u,5z,5y,5x,62,61,60
EXT 7,14 4 1,1
EXT 8,14 4 1,1
EXT 7,15 4 1,1
EXT 8,15 4 1,1
PAL 0

ROOM 3
0,0,0,0,0,0,0,0,0,0,0,0,0,0,0,0
0,0,0,0,0,0,0,0,0,0,0,0,0,0,0,0
0,0,4n,4n,0,0,0,0,0,0,0,0,0,0,0,0
0,0,4n,4n,0,0,0,0,0,0,0,0,0,0,0,0
0,0,0,0,0,0,0,0,0,0,0,0,0,0,0,0
0,0,0,0,0,0,0,0,0,0,0,0,0,0,0,0
0,0,0,0,0,0,0,0,0,0,0,0,0,0,0,0
0,0,0,0,0,0,0,0,0,0,0,0,0,0,0,0
0,0,0,0,0,0,0,0,0,0,0,0,0,0,0,0
0,0,0,0,0,0,0,0,0,0,0,0,0,0,0,0
0,0,0,0,0,0,0,0,0,0,0,0,0,0,0,0
0,0,0,0,0,0,0,0,0,0,0,0,0,0,0,0
0,0,0,0,0,0,0,0,0,0,0,0,0,0,0,0
0,0,0,0,0,0,0,0,0,0,0,0,0,0,0,0
0,0,0,0,0,0,0,0,0,0,0,63,64,0,0,0
0,0,0,0,0,0,0,0,0,0,0,0,0,0,0,0
EXT 11,14 4 1,1
EXT 12,14 4 1,1
PAL 0

ROOM 4
0,0,0,0,0,0,0,0,0,0,0,0,0,0,0,0
0,0,0,0,0,0,0,0,0,0,0,0,0,0,0,0
0,0,0,0,0,0,0,0,0,0,0,0,0,0,0,0
0,0,0,0,0,0,0,0,0,0,0,0,0,0,0,0
0,0,0,0,0,65,65,65,65,65,65,0,0,0,0,0
0,0,0,0,0,65,0,0,0,0,65,0,0,0,0,0
0,0,0,0,0,0,0,0,0,0,65,0,0,0,0,0
0,0,0,0,0,0,0,0,0,0,65,0,0,0,0,0
0,0,0,0,0,0,0,65,65,65,65,0,0,0,0,0
0,0,0,0,0,0,0,65,0,0,0,0,0,0,0,0
0,0,0,0,0,0,0,65,0,0,0,0,0,0,0,0
0,0,0,0,0,0,0,0,0,0,0,0,0,0,0,0
0,0,0,0,0,0,0,66,0,0,0,0,0,0,0,0
0,0,0,0,0,0,0,0,0,0,0,0,0,0,0,0
0,0,0,0,0,0,0,0,0,0,0,0,0,0,0,0
0,0,0,0,0,0,0,0,0,0,0,0,0,0,0,0
END 0 7,12
PAL 0

TIL 10
00000000
11100000
01000000
01000000
01000000
01000000
00000000
00000000

TIL 11
00000000
11010101
10010101
11011101
01010101
11010101
00000000
00000000

TIL 12
00000000
11010101
01010101
01010101
01010101
11011101
00000000
00000000

TIL 13
00000000
00110000
00101000
00101000
00101000
10110000
00000000
00000000

TIL 14
00000000
11101101
10101001
10101101
10101001
10101100
00000000
00000000

TIL 15
00000000
01011011
01010010
01011011
01010010
10011010
00000000
00000000

TIL 16
00000000
00000001
10000001
00000001
10000001
10000001
00000000
00000000

TIL 18
00000000
10011000
01010000
10011000
01010000
10011000
00000000
00000000

TIL 19
00000000
11101110
01001010
01001010
01001010
01001110
00000000
00000000

TIL 20
00000000
00100010
00101010
11111111
11111111
00111110
00000000
00000000

TIL 21
00000000
10100100
10100100
11111111
11111111
10110110
00000000
00000000

TIL 22
00000000
00000000
00000000
11111111
11111111
00000000
00000000
00000000

TIL 23
00000000
11010111
10010101
11111111
11111111
10010101
00000000
00000000

TIL 24
00000000
01100001
01010000
11111111
11111111
01100000
00000000
00000000

TIL 25
00000000
11010101
10010101
11111111
11111111
10010101
00000000
00000000

TIL 26
00000000
10000010
00000010
10000011
10000010
10000010
00000000
00000000

TIL 27
00000000
10101100
10101010
10101010
10101010
10101100
00000000
00000000

TIL 28
00000000
11001101
10101001
10101101
10101001
11001101
00000000
00000000

TIL 29
00000000
11000001
01000000
01000000
01000000
01000000
00000000
00000000

TIL 30
00000000
01111111
01000000
01000000
01000000
01000000
01000000
01000000

TIL 31
00000000
11111110
00000010
00000010
00000010
00000010
00000010
00000010

TIL 32
01000000
01000000
01000000
01000000
01000000
01000000
01111111
00000000

TIL 33
01000000
01000000
01000000
01000000
01000000
01000000
01000000
01000000

TIL 34
00000100
00000100
00000100
00000100
00000100
11111100
00000000
00000000

TIL 35
00100000
00100000
00100000
00100000
00100000
00111111
00000000
00000000

TIL 36
00000000
00000000
11111100
00000100
00000100
00000100
00000100
00000100

TIL 37
00000000
00000000
00111111
00100000
00100000
00100000
00100000
00100000

TIL 38
00000000
10101010
10101010
11111111
11111111
11111010
00000000
00000000

TIL 39
00000000
10111011
10101001
11111111
11111111
10101001
00000000
00000000

TIL 40
10011111
10000100
10000100
10000100
10000100
10000100
10000100
10000100

TIL 41
11111110
10010010
10010010
10010010
10010010
10010010
10010010
10010010

TIL 42
11110011
10010010
10010010
10010011
10010000
10010000
10010000
11110011

TIL 43
11001111
00000010
00000010
11000010
01000010
01000010
01000010
11000010

TIL 44
10000000
00000000
00000000
00000000
00000000
00000000
00000000
00000000

TIL 45
11110011
10010010
10010010
10010011
11110010
10000010
10000010
10000011

TIL 46
10011110
00010010
00010010
10010010
00010010
00010010
00010010
10011110

TIL 47
01111001
01001001
01001001
01001001
01111001
01000001
01000001
01000001

TIL 48
00001110
00001000
00001000
00001110
00001000
00001000
00001000
11001110

TIL 49
10010010
10010010
10010010
11110010
10010010
10010010
10010010
10010010

TIL 50
10100000
10100000
10111111
10000000
11111111
00000000
00000000
00000000

TIL 51
00000101
00000101
11111101
00000001
11111111
00000000
00000000
00000000

TIL 52
11111111
10000001
10111001
10101001
10100001
10001001
10000001
11111111

TIL 53
11111111
11111111
11111111
11111111
11111111
11111111
11111111
11111111

TIL 54
11111111
11111111
10010001
10110101
10010101
11010101
10010001
11111111

TIL 55
11111111
11111111
00110011
01010101
00110011
01010101
01010101
11111111

TIL 56
11111111
11111111
01011110
01011110
00011110
10111110
10111110
11111111

TIL 57
11111111
11111111
11001000
11011010
11011000
11011010
11001010
11111111

TIL 58
11111111
11111111
10001000
10101101
10101101
10101101
10101101
11111111

TIL 59
11111111
11111111
11000100
11101101
11101100
11101101
11101100
11111111

TIL 60
11111111
10011011
10101011
10011011
10111011
10111001
11111111
11111111

TIL 61
11111111
00100010
01101010
00100010
01101011
00101010
11111111
11111111

TIL 62
11111111
01001011
11011011
01001011
01011111
01001011
11111111
11111111

TIL 63
00000000
00000000
00000000
00000000
11111111
00000000
00000000
00000000
>
00000000
00000000
11010101
10010101
11011101
01010101
11010101
00000000

TIL 64
00000000
00000000
00000000
00000000
11111111
00000000
00000000
00000000
>
00000000
00000000
01010100
01010100
11011100
01010100
01010100
00000000

TIL 65
11111111
11111111
11111111
11111111
11111111
11111111
11111111
11111111

TIL 66
00000000
00111100
00100100
00000100
00011100
00010000
00000000
00010000

TIL a
00000000
00000000
00000000
00000000
00000000
00000000
00000000
00000000

TIL b
11111111
11111111
11111111
11111111
11111111
11111111
11111111
11111111

TIL c
11111111
11111111
11111111
11100000
11100000
11100000
11100000
11111111

TIL d
11111111
11111111
00000111
00000111
00000111
00000111
11111111
11111111

TIL e
00011100
00011100
00011100
00011100
00011100
00011100
00011111
00011111

TIL f
00011111
00011111
00011100
00011100
00011100
00011100
00011100
00011100

TIL g
00111000
00111000
00111000
00111000
00111000
00111000
11111000
11111000

TIL h
11111000
11111000
00111000
00111000
00111000
00111000
00111000
00111000

TIL i
00111100
00111100
00111100
00111100
00111100
00111100
00111100
00111100

TIL j
00111100
00111100
00000000
00000000
00111100
00111100
00111100
00111100

TIL k
00000000
11111111
00000000
00000000
00000000
00000000
00000000
00000000

TIL l
00000010
00000010
00000010
00000010
00000010
00000010
00000010
00000010

TIL m
00000000
00000000
00000000
00000000
00000000
00000000
11111111
00000000

TIL n
00000010
00000010
00000010
00000010
00000010
00000010
11111110
00000000

TIL o
00000000
11011101
10010101
11010101
01010101
11011101
00000000
00000000

TIL p
00000000
11110110
01010100
01010110
01010100
01010110
00000000
00000000

TIL q
00000000
11101010
01001010
01001110
01001010
01001010
00000000
00000000

TIL r
00000000
10111011
10101010
10101010
10101010
10101011
00000000
00000000

TIL s
00000000
00000000
00000000
00000000
10000000
10000000
00000000
00000000

TIL t
00000000
11101010
01001010
01001110
01001010
01001010
00000000
00000000

TIL u
00000000
11101110
10100100
11100100
10100100
10100100
00000000
00000000

TIL v
00000000
10101110
10101010
11101010
01001010
01001110
00000000
00000000

TIL w
00000000
10100000
10100000
10100000
10100000
11100000
00000000
00000000

TIL x
00000000
11101101
01001001
01001101
01001001
01001101
00000000
00000000

TIL y
00000000
00100000
00100000
00100000
00100000
10110000
00000000
00000000

TIL z
00000000
11001010
10101010
11001010
10101010
11001110
00000000
00000000

TIL 1a
00000000
10011000
10010100
10010100
10010100
11011001
00000000
00000000

TIL 1b
00000000
11101010
01001010
11111111
11111111
01001010
00000000
00000000

TIL 1c
00000000
11011011
10010010
11111111
11111111
11010010
00000000
00000000

TIL 1d
00000000
10111110
10101010
11111111
11111111
10101010
00000000
00000000

TIL 1e
00000000
10100101
10100101
11111111
11111111
10110010
00000000
00000000

TIL 1f
00000000
00011101
00010101
11111111
11111111
00011101
00000000
00000000

TIL 1g
00000000
10001110
00000100
11111111
11111111
00000100
00000000
00000000

TIL 1h
00000000
10101100
10101000
11111111
11111111
10101100
00000000
00000000

TIL 1i
00000000
10101011
10101010
11111111
11111111
01001011
00000000
00000000

TIL 1j
00000000
11101101
01001001
11111111
11111111
01001101
00000000
00000000

TIL 1k
00000000
11110010
01010010
11111111
11111111
01010010
00000000
00000000

TIL 1l
00000000
10111011
10101010
11111111
11111111
10101011
00000000
00000000

TIL 1m
00000000
00000110
00000101
11111111
11111111
00000101
00000000
00000000

TIL 1n
00000000
01101001
01001001
11111111
11111111
01101101
00000000
00000000

TIL 1o
00000000
10111011
00101010
11111111
11111111
10101011
00000000
00000000

TIL 1p
00000000
11100011
10100010
11111111
11111111
10100011
00000000
00000000

TIL 1q
00000000
01110111
00100101
11111111
11111111
00100101
00000000
00000000

TIL 1r
00000000
01110110
00100100
11111111
11111111
00100110
00000000
00000000

TIL 1s
00000000
11111011
10101010
11111111
11111111
10101011
00000000
00000000

TIL 1t
00000000
01110111
01010010
11111111
11111111
01010010
00000000
00000000

TIL 1u
00000000
00000011
00000010
11111111
11111111
00000011
00000000
00000000

TIL 1v
00000000
01110101
01010101
11111111
11111111
01010010
00000000
00000000

TIL 1w
00000000
01011101
01010101
11111111
11111111
01010101
00000000
00000000

TIL 1x
00000000
11100000
00000000
11111111
11111111
11100000
00000000
00000000

TIL 1y
00000000
01110101
00100101
11111111
11111111
00100101
00000000
00000000

TIL 1z
00000000
01101010
01001010
11111111
11111111
01100100
00000000
00000000

TIL 2a
00000000
11011001
10010101
10011001
10010101
10010101
00000000
00000000

TIL 2b
00000000
01011101
01001001
01001001
01001001
11001001
00000000
00000000

TIL 2c
00000000
01000000
01000000
11000001
01000001
01010000
00000000
00000000

TIL 2d
00000000
11101010
01001010
11111111
11111111
01001010
00000000
00000000

TIL 2e
00000000
11010100
10010100
11111111
11111111
11001000
00000000
00000000

TIL 2f
00000000
10101010
10101010
11111111
11111111
11111010
00000000
00000000

TIL 2g
00000000
10010000
10010000
11111111
11111111
11011000
00000000
00000000

TIL 2h
00000000
11011101
10001001
11111111
11111111
11001001
00000000
00000000

TIL 2i
00000000
11011100
01010100
11111111
11111111
11010000
00000000
00000000

TIL 2j
00000000
11101110
10100100
11111111
11111111
10100100
00000000
00000000

TIL 2k
00000000
01110111
01010101
11111111
11111111
01010111
00000000
00000000

TIL 2l
00000000
01110101
00100101
11111111
11111111
00100101
00000000
00000000

TIL 2m
00000000
01011101
01010101
11111111
11111111
01010101
00000000
00000000

TIL 2n
00000000
10000101
00000101
11111111
11111111
11010111
00100000
00000000

TIL 2o
00000000
01110111
01010010
11111111
11111111
01010010
00000000
00000000

TIL 2p
00000000
01010000
01010000
11111111
11111111
01011000
00000000
00000000

TIL 2q
00000000
11101010
01001010
11111111
11111111
01001010
00000000
00000000

TIL 2r
00000000
11010100
10010100
11111110
11111110
11001000
00000000
00000000

TIL 2s
00000000
11010111
10010101
11010101
10010101
10010101
00000000
00000000

TIL 2t
00000000
01100000
01010000
01010000
01010000
01100000
00000000
00000000

TIL 2u
00000000
00000000
00000000
00000000
00000000
00000000
00000000
00000000

TIL 2v
00000100
00000100
00000100
00000100
00000100
00000100
00000100
00000100

TIL 2w
00100000
00100000
00100000
00100000
00100000
00100000
00100000
00100000

TIL 2x
00000000
00000000
00000000
00000000
00000000
11111111
00000000
00000000

TIL 2y
00000000
00000000
11111111
00000000
00000000
00000000
00000000
00000000

TIL 2z
00000000
11111111
00000000
00000000
00000000
00000000
00000000
00000000

TIL 3a
00000000
10000111
00000101
11111111
11111111
00000111
00000000
00000000

TIL 3b
00000000
01010111
01010010
11111111
11111111
01110010
00000000
00000000

TIL 3c
00000000
00000010
00000010
11111111
11111111
00000010
00000000
00000000

TIL 3d
00000000
10111011
10101010
11111111
11111111
10101010
00000000
00000000

TIL 3e
00000000
00110011
10101010
11111111
11111111
00100011
00000000
00000000

TIL 3f
00000000
01110110
01010100
11111111
11111111
01010110
00000000
00000000

TIL 3g
00000000
11000000
10100000
11111111
11111111
11001000
00000000
00000000

TIL 3h
11111111
11111111
11111111
11111111
11111111
11111111
11111111
11111111

TIL 3i
00000000
00000000
00000111
00001111
00011111
00111111
01111111
11111111

TIL 3j
00000000
00000000
11111110
11111111
11111111
11111111
11111111
11111111

TIL 3k
00000000
00000000
00011111
00111111
11111111
11111111
11111111
11111111

TIL 3l
00000000
00000000
11100000
11110000
11111000
11111100
11111110
11111111

TIL 3m
00000000
11111111
11111110
11111100
11111000
11110000
00000000
00000000

TIL 3n
00000000
11111111
11111111
11111111
11111111
11111111
00000000
00000000

TIL 3o
00000000
11111111
01111111
00111111
00011111
00000111
00000000
00000000

TIL 3p
00000000
00000000
00000000
00000000
00000000
00000000
00000000
00000000

TIL 3q
00000000
00000000
00000000
00000100
00000010
00000100
00000000
00000000

TIL 3r
11100001
10010001
10001001
10001001
10001001
10001001
10010001
11100001

TIL 3s
00111000
00100100
00100010
00100010
00100010
00100010
00100100
00111000

TIL 3t
10001011
10001010
10001010
10001010
11111010
00100010
00100010
00100011

TIL 3u
11001001
01001001
01001001
01001001
01001001
01001001
01001001
11001111

TIL 3v
10010011
10010010
10100010
11000010
10100010
10010010
10010010
10010010

TIL 3w
11001111
01001001
01001001
01001001
01001001
01001001
01001001
01001111

TIL 3x
00101010
00101010
00101010
00101010
00101010
00101010
00101010
00111110

TIL 3y
11111001
00100001
00100001
00100001
00100001
00100001
00100001
00100001

TIL 3z
00100111
00100100
00100100
11100111
00100100
00100100
00100100
00100100

TIL 4a
01110001
01001001
01001001
01001001
01001001
01001001
01001001
01110001

TIL 4b
11000000
00000000
00000000
11000000
00000000
00000000
00000000
11000000

TIL 4c
11100011
10010010
10010010
11100011
10010010
10010010
10010010
11100011

TIL 4d
10011111
00000100
00000100
10000100
00000100
00000100
00000100
10000100

TIL 4e
01001001
01001001
01001001
01001001
01001001
01001001
01001001
01111111

TIL 4f
00111001
00100001
00100001
00111001
00100001
00100001
00100001
00111001

TIL 4g
11001111
00001001
00001001
11001001
00001001
00001001
00001001
11001001

TIL 4h
11111001
00100001
00100001
00100001
00100001
00100001
00100001
00100001

TIL 4i
00100111
00100100
00100100
11100111
00100100
00100100
00100100
00100111

TIL 4j
10000010
10000010
10000010
10000010
10000010
10000010
10000010
11110010
>
00000000
00000000
00000000
11111111
11111111
00000000
00000000
00000000

TIL 4k
01111001
01001001
01001001
01001001
01001001
01001001
01001001
01001001
>
00000000
00000000
00000000
11111111
11111111
00000000
00000000
00000000

TIL 4l
11001111
00001000
00001000
11001111
00000001
00000001
00000001
11001111
>
00000000
00000000
00000000
11111111
11111111
00000000
00000000
00000000

TIL 4m
00000000
00000000
00000000
11111111
11111111
00000000
00000000
00000000

TIL 4n
00000000
00000000
00000000
00000000
11111111
00000000
00000000
00000000

TIL 4p
11111111
11111111
11111111
11111111
11111111
11111111
11111111
11111111

TIL 4q
00000010
00000010
00000010
00000010
00000010
00000010
00000010
00000010

TIL 4r
01000000
01000000
01000000
01000000
01000000
01000000
01000000
01000000

TIL 4s
00000000
00000000
00000000
00000000
00000000
00000000
11111111
00000000

TIL 4t
01000000
01000000
01000000
01000000
01000000
01000000
11000000
00000000

TIL 4u
00000010
00000010
00000010
00000010
00000010
00000010
00000011
00000000

TIL 4v
00000000
11111111
00000000
00000000
00000000
00000000
00000000
00000000

TIL 4w
00000000
00000011
00000010
00000010
00000010
00000010
00000010
00000010

TIL 4x
00000000
11000000
01000000
01000000
01000000
01000000
01000000
01000000

TIL 4y
00000000
00000000
00000000
11111111
10000000
10111111
10100000
10100000

TIL 4z
00000000
00000000
00000000
11111111
00000001
11111101
00000101
00000101

TIL 5a
11111111
11111111
10110111
10110111
10110111
10110111
10010011
11111111

TIL 5b
11111111
10101000
10101010
10001010
11011010
11011000
11111111
11111111

TIL 5c
11111111
10101111
10101111
10101111
10101111
10001011
11111111
11111111

TIL 5d
11111111
10100110
10101110
10100110
10101110
10101110
11111111
11111111

TIL 5e
11111111
11010100
11010101
11000100
11010101
11010101
11111111
11111111

TIL 5f
11111111
01010100
01010101
01010100
01010101
01101100
11111111
11111111

TIL 5g
11111111
11110100
11110110
11110110
11110110
11110110
11111111
11111111

TIL 5h
11111111
01111101
11111101
11111101
11111101
11101101
11011111
11111111

TIL 5i
11111111
10011000
10101010
10101010
10101010
10011000
11111111
11111111

TIL 5j
11111111
10001000
10101101
10101101
10101101
10101101
11111111
11111111

TIL 5k
11111111
10010101
10110101
10010001
11010101
10010101
11111111
11111111

TIL 5l
11111111
00010011
01010101
00010011
01010101
01010101
11111111
11111111

TIL 5m
11111111
00111010
01111011
00111011
01111011
00111011
11111111
11111111

TIL 5n
11111111
00111110
01111110
01111110
01111110
01101110
11111111
11111111

TIL 5o
11111111
10011110
10111110
10011110
10111110
10111110
11111111
11111111

TIL 5p
11111111
10010101
10110101
10010001
11010101
10010101
11111111
11111111

TIL 5q
11111111
00010011
01010101
00010011
01010101
01010101
11111111
11111111

TIL 5r
11111111
00111010
01111011
00111011
01111011
00111011
11111111
11111111

TIL 5s
11111111
00111110
01111110
01111110
01111110
01101110
11011111
11111111

TIL 5t
11111111
11100110
11101010
11101010
11101010
11100110
11111111
11111111

TIL 5u
11111111
00100010
10101011
10101011
10101011
00101011
11111111
11111111

TIL 5v
11111111
00111111
01111111
01111111
01111111
01111111
11111111
11111111

TIL 5w
11111111
11111111
10101000
10101010
10001000
10101010
10101010
11111111

TIL 5x
11111111
11111111
10101001
10101011
10101001
10101011
11011001
11111111

TIL 5y
11111111
11111111
11110100
11110110
11110110
11110110
11110110
11111111

TIL 5z
11111111
11111111
01111111
11111111
11111111
11111111
11011111
11111111

SPR 10
00000000
00000000
00000000
00000000
11111111
00000000
00000000
00000000
POS 3 5,6

SPR 11
00000000
00000000
00000000
00000000
11111111
00000000
00000000
00000000
POS 3 6,6

SPR 12
00000000
00000000
00000000
00000000
11111111
00000000
00000000
00000000

SPR 13
00000000
00000000
00000000
00000000
11111111
00000000
00000000
00000000
POS 3 7,6

SPR 14
00000000
00000000
00000000
00000000
11111111
00000000
00000000
00000000
POS 3 8,6

SPR 15
00000000
00000000
00000000
00000000
11111111
00000000
00000000
00000000
POS 3 9,6

SPR 16
00000000
00000000
00000000
00000000
11111111
00000000
00000000
00000000
POS 3 10,6

SPR 17
00000000
00000000
00000000
00000000
11111111
00000000
00000000
00000000
POS 3 11,6

SPR 18
00000000
00000000
00000000
00000000
11111111
00000000
00000000
00000000
POS 3 12,6

SPR 19
00000000
00000000
00000000
00000000
11111111
00000000
00000000
00000000
POS 3 2,7

SPR 20
00000000
00000000
00000000
00000000
11111111
00000000
00000000
00000000
POS 3 9,10

SPR 21
00000000
00000000
00000000
00000000
11111111
00000000
00000000
00000000
POS 3 10,10

SPR 22
00000000
00000000
00000000
00000000
11111111
00000000
00000000
00000000
POS 3 11,10

SPR 23
00000000
00000000
00000000
00000000
11111111
00000000
00000000
00000000
POS 3 12,10

SPR 24
00000000
00000000
00000000
00000000
11111111
00000000
00000000
00000000
POS 3 13,10

SPR 25
00000000
00000000
00000000
00000000
11111111
00000000
00000000
00000000
POS 3 2,11

SPR 26
00000000
00000000
00000000
00000000
11111111
00000000
00000000
00000000
POS 3 4,11

SPR 27
00000000
00000000
00000000
00000000
11111111
00000000
00000000
00000000
POS 3 3,11

SPR 28
00000000
00000000
00000000
00000000
11111111
00000000
00000000
00000000
POS 3 5,11

SPR 29
00000000
00000000
00000000
00000000
11111111
00000000
00000000
00000000
POS 3 6,11

SPR A
00000000
00000000
00000000
00000000
00000000
00000000
00000011
00000011
>
00000000
00000000
00000000
00000000
00000000
00000000
00000000
00000000
POS 0 1,1

SPR c
00000000
00000000
00000000
00000000
11111111
00000000
00000000
00000000
POS 3 2,2

SPR d
00000000
00000000
00000000
00000000
11111111
00000000
00000000
00000000

SPR e
00000000
00000000
00000000
00000000
11111111
00000000
00000000
00000000
POS 3 7,3

SPR f
00000000
00000000
00000000
00000000
11111111
00000000
00000000
00000000
POS 3 4,3

SPR g
00000000
00000000
00000000
00000000
11111111
00000000
00000000
00000000
POS 3 5,3

SPR h
00000000
00000000
00000000
00000000
11111111
00000000
00000000
00000000
POS 3 6,3

SPR i
00000000
00000000
00000000
00000000
11111111
00000000
00000000
00000000

SPR j
00000000
00000000
00000000
00000000
11111111
00000000
00000000
00000000
POS 3 8,3

SPR k
00000000
00000000
00000000
00000000
11111111
00000000
00000000
00000000
POS 3 9,3

SPR l
00000000
00000000
00000000
00000000
11111111
00000000
00000000
00000000
POS 3 10,3

SPR m
00000000
00000000
00000000
00000000
11111111
00000000
00000000
00000000
POS 3 11,3

SPR n
00000000
00000000
00000000
00000000
11111111
00000000
00000000
00000000
POS 3 12,3

SPR o
00000000
00000000
00000000
00000000
11111111
00000000
00000000
00000000
POS 3 13,3

SPR p
00000000
00000000
00000000
00000000
11111111
00000000
00000000
00000000
POS 3 2,4

SPR q
00000000
00000000
00000000
00000000
11111111
00000000
00000000
00000000
POS 3 3,4

SPR r
00000000
00000000
00000000
00000000
11111111
00000000
00000000
00000000
POS 3 4,4

SPR s
00000000
00000000
00000000
00000000
11111111
00000000
00000000
00000000
POS 3 5,4

SPR t
00000000
00000000
00000000
00000000
11111111
00000000
00000000
00000000
POS 3 6,4

SPR u
00000000
00000000
00000000
00000000
11111111
00000000
00000000
00000000
POS 3 7,4

SPR v
00000000
00000000
00000000
00000000
11111111
00000000
00000000
00000000
POS 3 8,4

SPR w
00000000
00000000
00000000
00000000
11111111
00000000
00000000
00000000
POS 3 9,4

SPR x
00000000
00000000
00000000
00000000
11111111
00000000
00000000
00000000
POS 3 2,6

SPR y
00000000
00000000
00000000
00000000
11111111
00000000
00000000
00000000
POS 3 3,6

SPR z
00000000
00000000
00000000
00000000
11111111
00000000
00000000
00000000
POS 3 4,6

SPR 1a
00000000
00000000
00000000
00000000
11111111
00000000
00000000
00000000
POS 3 3,7

SPR 1b
00000000
00000000
00000000
00000000
11111111
00000000
00000000
00000000
POS 3 4,7

SPR 1c
00000000
00000000
00000000
00000000
11111111
00000000
00000000
00000000
POS 3 5,7

SPR 1d
00000000
00000000
00000000
00000000
11111111
00000000
00000000
00000000
POS 3 6,7

SPR 1e
00000000
00000000
00000000
00000000
11111111
00000000
00000000
00000000
POS 3 7,7

SPR 1f
00000000
00000000
00000000
00000000
11111111
00000000
00000000
00000000
POS 3 8,7

SPR 1g
00000000
00000000
00000000
00000000
11111111
00000000
00000000
00000000
POS 3 9,7

SPR 1h
00000000
00000000
00000000
00000000
11111111
00000000
00000000
00000000
POS 3 10,7

SPR 1i
00000000
00000000
00000000
00000000
11111111
00000000
00000000
00000000
POS 3 11,7

SPR 1j
00000000
00000000
00000000
00000000
11111111
00000000
00000000
00000000
POS 3 12,7

SPR 1k
00000000
00000000
00000000
00000000
11111111
00000000
00000000
00000000
POS 3 13,7

SPR 1l
00000000
00000000
00000000
00000000
11111111
00000000
00000000
00000000
POS 3 2,8

SPR 1m
00000000
00000000
00000000
00000000
11111111
00000000
00000000
00000000
POS 3 3,8

SPR 1n
00000000
00000000
00000000
00000000
11111111
00000000
00000000
00000000
POS 3 4,8

SPR 1o
00000000
00000000
00000000
00000000
11111111
00000000
00000000
00000000
POS 3 5,8

SPR 1p
00000000
00000000
00000000
00000000
11111111
00000000
00000000
00000000
POS 3 6,8

SPR 1q
00000000
00000000
00000000
00000000
11111111
00000000
00000000
00000000
POS 3 7,8

SPR 1r
00000000
00000000
00000000
00000000
11111111
00000000
00000000
00000000
POS 3 8,8

SPR 1s
00000000
00000000
00000000
00000000
11111111
00000000
00000000
00000000
POS 3 9,8

SPR 1t
00000000
00000000
00000000
00000000
11111111
00000000
00000000
00000000
POS 3 2,10

SPR 1u
00000000
00000000
00000000
00000000
11111111
00000000
00000000
00000000
POS 3 3,10

SPR 1v
00000000
00000000
00000000
00000000
11111111
00000000
00000000
00000000
POS 3 4,10

SPR 1w
00000000
00000000
00000000
00000000
11111111
00000000
00000000
00000000
POS 3 5,10

SPR 1x
00000000
00000000
00000000
00000000
11111111
00000000
00000000
00000000
POS 3 6,10

SPR 1y
00000000
00000000
00000000
00000000
11111111
00000000
00000000
00000000
POS 3 7,10

SPR 1z
00000000
00000000
00000000
00000000
11111111
00000000
00000000
00000000
POS 3 8,10

SPR 2a
00000000
00000000
00000000
00000000
11111111
00000000
00000000
00000000
POS 3 10,13

SPR 2b
00000000
00000000
00000000
00000000
11111111
00000000
00000000
00000000
POS 3 11,13

SPR 2c
00000000
00000000
00000000
00000000
11111111
00000000
00000000
00000000
POS 3 12,13

DLG 10
confidential confidential confidential confidential confidential confidential confidential confidential confidential confidential

DLG 11
confidential confidential confidential confidential confidential confidential confidential confidential confidential confidential

DLG 12
confidential confidential confidential confidential confidential confidential confidential confidential confidential confidential

DLG 13
confidential confidential confidential confidential confidential confidential confidential confidential confidential confidential

DLG 14
confidential confidential confidential confidential confidential confidential confidential confidential confidential confidential

DLG 15
confidential confidential confidential confidential confidential confidential confidential confidential confidential confidential

DLG 16
confidential confidential confidential confidential confidential confidential confidential confidential confidential confidential

DLG 17
confidential confidential confidential confidential confidential confidential confidential confidential confidential confidential

DLG 18
confidential confidential confidential confidential confidential confidential confidential confidential confidential confidential

DLG 19
confidential confidential confidential confidential confidential confidential confidential confidential confidential confidential

DLG 20
confidential confidential confidential confidential confidential confidential confidential confidential confidential confidential

DLG 21
confidential confidential confidential confidential confidential confidential confidential confidential confidential confidential

DLG 22
confidential confidential confidential confidential confidential confidential confidential confidential confidential confidential

DLG 23
confidential confidential confidential confidential confidential confidential confidential confidential confidential confidential

DLG 24
confidential confidential confidential confidential confidential confidential confidential confidential confidential confidential

DLG 25
confidential confidential confidential confidential confidential confidential confidential confidential confidential confidential

DLG 26
confidential confidential confidential confidential confidential confidential confidential confidential confidential confidential

DLG 27
confidential confidential confidential confidential confidential confidential confidential confidential confidential confidential

DLG 28
confidential confidential confidential confidential confidential confidential confidential confidential confidential confidential

DLG 29
confidential confidential confidential confidential confidential confidential confidential confidential confidential confidential

DLG a


DLG c
confidential confidential confidential confidential confidential confidential confidential confidential confidential confidential

DLG d
confidential confidential confidential confidential confidential confidential confidential confidential confidential confidential

DLG e
confidential confidential confidential confidential confidential confidential confidential confidential confidential confidential

DLG f
confidential confidential confidential confidential confidential confidential confidential confidential confidential confidential

DLG g
confidential confidential confidential confidential confidential confidential confidential confidential confidential confidential

DLG h
confidential confidential confidential confidential confidential confidential confidential confidential confidential confidential

DLG j
confidential confidential confidential confidential confidential confidential confidential confidential confidential confidential

DLG k
confidential confidential confidential confidential confidential confidential confidential confidential confidential confidential

DLG l
confidential confidential confidential confidential confidential confidential confidential confidential confidential confidential

DLG m
confidential confidential confidential confidential confidential confidential confidential confidential confidential confidential

DLG n
confidential confidential confidential confidential confidential confidential confidential confidential confidential confidential

DLG o
confidential confidential confidential confidential confidential confidential confidential confidential confidential confidential

DLG p
confidential confidential confidential confidential confidential confidential confidential confidential confidential confidential

DLG q
confidential confidential confidential confidential confidential confidential confidential confidential confidential confidential

DLG r
confidential confidential confidential confidential confidential confidential confidential confidential confidential confidential

DLG s
confidential confidential confidential confidential confidential confidential confidential confidential confidential confidential

DLG t
confidential confidential confidential confidential confidential confidential confidential confidential confidential confidential

DLG u
confidential confidential confidential confidential confidential confidential confidential confidential confidential confidential

DLG v
confidential confidential confidential confidential confidential confidential confidential confidential confidential confidential

DLG w
confidential confidential confidential confidential confidential confidential confidential confidential confidential confidential

DLG x
confidential confidential confidential confidential confidential confidential confidential confidential confidential confidential

DLG y
confidential confidential confidential confidential confidential confidential confidential confidential confidential confidential

DLG z
confidential confidential confidential confidential confidential confidential confidential confidential confidential confidential

DLG 1a
confidential confidential confidential confidential confidential confidential confidential confidential confidential confidential

DLG 1b
confidential confidential confidential confidential confidential confidential confidential confidential confidential confidential

DLG 1c
confidential confidential confidential confidential confidential confidential confidential confidential confidential confidential

DLG 1d
confidential confidential confidential confidential confidential confidential confidential confidential confidential confidential

DLG 1e
confidential confidential confidential confidential confidential confidential confidential confidential confidential confidential

DLG 1f
confidential confidential confidential confidential confidential confidential confidential confidential confidential confidential

DLG 1g
confidential confidential confidential confidential confidential confidential confidential confidential confidential confidential

DLG 1h
confidential confidential confidential confidential confidential confidential confidential confidential confidential confidential

DLG 1i
confidential confidential confidential confidential confidential confidential confidential confidential confidential confidential

DLG 1j
confidential confidential confidential confidential confidential confidential confidential confidential confidential confidential

DLG 1k
confidential confidential confidential confidential confidential confidential confidential confidential confidential confidential

DLG 1l
confidential confidential confidential confidential confidential confidential confidential confidential confidential confidential

DLG 1m
confidential confidential confidential confidential confidential confidential confidential confidential confidential confidential

DLG 1n
confidential confidential confidential confidential confidential confidential confidential confidential confidential confidential

DLG 1o
confidential confidential confidential confidential confidential confidential confidential confidential confidential confidential

DLG 1p
confidential confidential confidential confidential confidential confidential confidential confidential confidential confidential

DLG 1q
confidential confidential confidential confidential confidential confidential confidential confidential confidential confidential

DLG 1r
confidential confidential confidential confidential confidential confidential confidential confidential confidential confidential

DLG 1s
confidential confidential confidential confidential confidential confidential confidential confidential confidential confidential

DLG 1t
confidential confidential confidential confidential confidential confidential confidential confidential confidential confidential

DLG 1u
confidential confidential confidential confidential confidential confidential confidential confidential confidential confidential

DLG 1v
confidential confidential confidential confidential confidential confidential confidential confidential confidential confidential

DLG 1w
confidential confidential confidential confidential confidential confidential confidential confidential confidential confidential

DLG 1x
confidential confidential confidential confidential confidential confidential confidential confidential confidential confidential

DLG 1y
confidential confidential confidential confidential confidential confidential confidential confidential confidential confidential

DLG 1z
confidential confidential confidential confidential confidential confidential confidential confidential confidential confidential

DLG 2a
confidential

DLG 2b
confidential

END 0
What's something you keep that never gets old

