
You and your brother are separated from the others and brought out.

# BITSY VERSION 4.5

! ROOM_FORMAT 1

PAL 0
204,133,74
161,92,80
254,222,161

PAL 1
255,150,135
217,68,2
253,173,236

PAL 2
167,84,191
150,40,28
169,185,255

PAL 3
37,51,120
21,36,26
255,174,62

PAL 4
254,238,172
183,216,254
254,159,169

PAL 5
NAME test
255,255,255
255,255,255
255,255,255

PAL 6
255,160,52
235,23,4
235,23,4

PAL 7
0,0,0
131,255,79
251,2,255

ROOM 0
0,0,l,0,0,0,c,0,0,c,0,0,0,0,0,0
0,0,0,0,0,0,c,0,l,c,0,0,0,0,0,k
k,0,0,0,l,0,c,0,0,c,0,0,l,0,0,0
0,0,0,0,0,0,c,0,k,c,0,0,0,0,0,0
0,0,0,0,0,0,c,l,0,c,0,0,0,0,0,0
0,0,g,a,a,a,h,0,0,g,a,a,a,h,0,0
0,0,c,l,0,0,0,0,0,0,0,0,0,c,0,0
0,0,c,0,0,l,0,0,0,0,v,0,k,c,0,0
0,0,c,0,0,0,0,0,0,0,0,0,0,c,0,0
l,0,c,0,0,0,0,0,0,v,v,0,0,c,0,l
0,0,c,0,0,0,0,0,0,0,0,0,0,c,0,0
0,0,c,0,0,0,0,0,0,0,0,0,0,c,0,0
0,0,c,0,0,0,0,0,k,l,0,0,0,c,0,0
0,0,c,0,0,0,0,0,0,0,0,0,k,c,0,0
0,l,g,a,a,a,a,h,g,a,a,a,a,h,0,0
0,0,c,0,l,0,l,0,v,l,0,l,0,c,0,k
NAME spawn room
ITM 0 3,15
ITM 0 5,15
ITM 0 10,15
ITM 1 7,15
ITM 1 12,15
EXT 7,0 1 7,15
EXT 8,0 2 7,15
PAL 0

ROOM 1
0,0,0,q,o,p,17,0,17,t,o,r,0,0,q,0
0,0,q,0,o,p,17,0,17,t,o,0,r,q,0,0
0,q,0,0,o,s,0,0,0,0,o,0,0,r,0,0
q,0,0,0,o,s,0,0,0,0,o,0,0,0,r,0
c,0,0,0,n,p,0,0,0,t,n,0,0,0,0,r
0,c,c,g,a,h,u,u,u,g,a,a,a,a,a,a
0,0,0,0,0,0,0,u,0,0,0,0,c,0,g,0
0,0,c,c,0,0,0,0,0,0,v,g,a,a,a,a
c,c,0,c,0,0,0,0,0,0,0,c,0,0,0,0
0,0,0,c,0,0,0,0,0,0,0,c,0,q,k,0
0,0,l,c,0,0,0,0,0,0,0,c,0,0,0,q
l,0,0,c,0,0,0,0,0,0,0,c,0,0,0,0
q,k,0,c,0,0,0,0,0,0,0,c,0,0,0,0
0,q,0,c,0,0,0,v,0,0,0,c,0,q,k,0
0,0,0,g,a,a,h,0,g,a,a,h,0,0,q,0
0,0,0,l,q,q,c,0,c,r,l,r,0,0,0,0
NAME priest "go left"
ITM 4 1,0
ITM 3 12,0
ITM 2 14,6
EXT 15,6 3 0,13
EXT 0,6 4 15,8
EXT 0,7 4 15,8
PAL 0

ROOM 2
l,0,0,q,o,s,17,0,17,t,o,r,0,0,q,0
0,0,q,0,o,p,17,0,17,t,o,0,r,q,0,0
0,q,0,0,o,s,0,0,0,0,o,0,0,r,0,0
q,0,0,0,o,s,0,0,0,0,o,0,0,0,r,0
c,0,0,0,n,p,0,0,0,t,n,0,0,0,0,r
0,c,c,g,a,h,u,u,u,g,a,a,a,a,a,a
0,0,c,0,0,0,0,u,0,0,0,0,0,0,0,0
0,0,c,c,0,v,0,0,0,0,0,g,a,a,a,a
c,c,0,c,0,0,0,0,0,0,0,c,0,0,0,0
0,0,0,c,0,0,v,0,0,0,0,c,0,q,k,0
0,0,l,c,0,0,0,0,0,0,0,c,0,0,0,q
l,0,0,c,0,0,0,0,0,0,0,c,0,0,0,0
q,k,0,c,0,0,0,0,0,0,0,c,0,0,0,0
0,q,0,c,0,0,0,0,0,0,0,c,0,q,k,0
0,0,0,g,a,a,h,0,g,a,a,h,0,0,q,q
0,0,0,l,q,q,c,0,c,r,l,r,0,0,0,0
NAME priest go right room
ITM 4 0,0
ITM 3 12,0
ITM 2 1,6
EXT 15,6 3 0,13
EXT 0,6 4 15,8
EXT 0,7 4 15,8
PAL 0

ROOM 3
0,0,0,0,0,0,0,0,1c,0,0,0,0,0,0,0
0,0,0,0,0,1c,0,0,1c,0,0,0,0,0,0,0
0,0,0,0,0,1c,0,0,1c,0,0,0,0,0,0,0
0,0,0,q,16,16,1b,1b,16,1b,16,r,0,0,0,0
0,0,q,14,13,13,13,13,13,13,13,15,r,0,0,0
0,q,q,n,n,t,z,z,z,p,n,o,r,r,0,0
q,q,0,o,n,t,z,z,z,p,n,o,0,r,r,0
q,0,0,n,n,t,z,z,z,p,n,n,0,0,r,r
0,0,q,o,n,t,z,19,z,p,n,o,r,0,0,r
0,q,0,o,1a,12,18,17,18,11,1a,o,0,r,0,0
1b,0,0,n,1a,w,17,17,17,x,1a,n,1a,0,r,1b
0,0,0,0,1d,1d,1d,1d,1d,1d,1d,0,0,l,0,0
h,0,l,0,0,0,0,0,0,0,0,0,0,0,c,c
0,0,0,0,k,0,0,0,0,0,0,k,0,c,1a,0
a,a,q,1b,1b,1b,1b,r,0,l,0,0,0,c,1a,0
0,q,0,o,z,z,o,0,r,0,q,r,c,1a,q,r
NAME in front of the tent
ITM 3 13,1
ITM 3 0,1
ITM 3 15,4
ITM 4 4,0
ITM 4 0,4
ITM 4 15,1
ITM 4 15,0
ITM 4 10,2
EXT 7,8 c 8,15
PAL 0

ROOM 4
0,1f,0,0,0,0,0,0,0,c,v,0,0,0,0,0
0,1e,v,0,0,0,0,0,0,g,a,a,a,a,a,a
0,0,0,k,0,1f,0,0,0,0,0,q,y,y,r,0
0,0,0,0,0,1e,v,0,0,0,q,0,z,z,0,r
0,0,0,0,0,0,0,c,v,0,10,10,10,10,10,10
0,0,0,0,v,0,0,0,0,0,0,0,0,0,0,0
0,0,0,0,0,0,0,0,0,0,0,0,c,v,0,0
0,0,0,0,0,0,0,0,0,0,0,0,0,0,0,c
0,0,0,0,k,0,0,1f,0,0,0,l,0,0,0,0
0,0,0,0,0,0,0,1e,0,0,0,0,0,0,0,c
0,0,0,0,0,0,0,1e,1g,v,0,0,0,0,0,0
0,0,0,l,0,0,0,0,0,k,0,0,0,c,v,0
0,0,0,0,0,c,v,0,0,0,0,0,0,0,0,q
0,1f,0,0,0,0,0,0,0,0,0,c,v,0,q,0
0,1e,v,q,16,16,16,r,0,0,0,0,0,q,o,z
0,0,q,0,17,17,17,0,r,0,1f,0,q,0,o,z
NAME outskirts of camp
EXT 0,2 5 15,8
EXT 0,3 5 15,8
EXT 0,4 5 15,8
EXT 0,5 5 15,8
EXT 0,6 5 15,8
EXT 0,7 5 15,8
EXT 0,8 5 15,8
EXT 0,9 5 15,8
EXT 0,10 5 15,8
EXT 0,11 5 15,8
EXT 0,12 5 15,8
PAL 1

ROOM 5
0,1e,0,0,d,0,o,0,0,0,0,0,0,1n,1l,1m
0,1e,0,0,0,0,n,1g,1n,1n,1g,1g,1g,1o,1h,v
0,1e,1g,1g,1g,v,1a,0,t,s,0,0,0,12,z,v
0,0,0,0,0,0,0,0,o,0,0,0,0,12,10,0
0,0,0,0,0,d,0,0,o,1g,1g,v,0,0,0,0
0,0,0,0,0,1n,1l,1m,0,0,0,s,0,0,c,0
0,0,d,v,0,t,z,1k,0,0,0,0,0,0,0,0
0,0,0,0,0,1j,1i,p,0,0,0,0,0,0,0,0
0,1a,0,0,1f,0,o,0,0,0,v,v,0,0,0,0
0,0,0,0,1e,0,o,1g,1g,1g,1h,v,0,0,1g,v
0,0,0,0,1e,1g,1g,1g,v,0,10,v,0,0,0,0
0,0,0,0,0,0,0,0,0,0,1n,1n,1m,0,0,0
0,1f,0,0,0,0,l,1c,l,0,t,1i,p,0,0,c
0,1e,1g,1g,v,0,0,d,0,0,k,n,1k,0,0,0
0,0,0,0,k,l,0,0,0,l,0,o,0,0,0,0
0,0,d,0,0,d,k,l,k,0,k,o,1g,1g,1g,1g
NAME desert sunset
EXT 0,15 6 5,9
EXT 0,14 6 5,9
EXT 0,13 6 5,9
EXT 0,12 6 5,9
EXT 0,11 6 5,9
EXT 0,10 6 5,9
EXT 0,9 6 5,9
EXT 0,8 6 5,9
EXT 0,7 6 5,9
EXT 0,6 6 5,9
EXT 0,5 6 5,9
EXT 0,3 6 5,9
EXT 0,4 6 5,9
PAL 2

ROOM 6
1c,1c,1c,1c,1c,1c,1c,1c,1c,1c,1c,1c,1c,1c,1c,1c
1c,1c,1c,1c,1c,1c,1c,1c,1c,1c,1c,1c,1c,1c,1c,1c
1c,1c,1c,1c,1c,1c,1l,1m,1c,1c,1c,1c,1c,1c,1c,1c
1c,1c,1c,1c,1n,1l,1i,z,p,1c,1c,1c,1c,1c,1c,1c
1c,1c,1c,1c,1o,1h,s,10,1k,1m,1c,1c,1c,1c,1c,1c
0,0,1c,0,1j,1i,p,n,t,p,1n,1m,1c,1c,1c,1c
j,i,j,1n,t,o,1h,o,1h,o,1h,1h,1m,1n,1l,1l
1r,1s,1r,1s,1r,o,1r,o,1r,1s,1r,1p,1p,1s,1r,z
x,1a,0,l,0,o,k,1q,0,0,q,z,z,r,x,z
z,x,1a,0,k,1q,0,0,0,0,v,0,11,0,w,z
z,z,x,0,0,1m,0,1p,0,l,0,0,1m,w,z,z
z,z,z,x,1a,0,0,1m,0,0,0,w,17,17,z,z
10,z,z,17,17,x,1n,1l,1m,w,17,17,17,z,z,p
12,1o,z,z,z,17,17,17,17,17,z,z,z,z,z,1k
z,10,z,z,z,z,z,z,z,z,z,z,z,z,z,z
s,1n,1o,z,19,z,z,z,10,z,z,z,s,t,10,z
NAME night camp
ITM 3 0,5
ITM 4 3,5
EXT 0,8 7 13,14
PAL 3

ROOM 7
z,z,z,z,z,z,z,z,z,z,z,z,z,z,z,z
z,19,19,19,z,z,z,z,z,19,18,19,z,z,z,z
z,1h,24,24,z,z,19,z,z,19,24,24,18,1h,1h,1h
z,z,1h,1h,1h,1h,24,z,z,z,z,z,1h,1h,1h,19
1i,z,z,z,1h,1h,1h,1h,1h,1h,1h,z,z,1h,18,17
0,1v,1t,z,z,z,1h,1h,1h,z,1h,1h,z,1h,1h,24
1w,i,1x,1u,z,z,z,z,z,z,z,1h,1h,1h,1h,1h
26,1w,0,1y,1t,z,19,19,z,z,z,z,1h,1h,1h,1h
0,26,1x,1w,1x,1u,m,t,z,19,z,1h,1h,z,z,1h
x,1a,0,21,1x,1x,1y,0,1v,0,1t,z,s,t,z,z
1d,0,0,0,1w,1x,1x,1w,0,1x,0,1t,m,z,z,z
0,x,0,0,0,0,26,0,1x,1w,1x,1x,25,1t,1h,z
0,1d,0,x,0,0,1a,0,0,0,0,1w,1z,0,1u,z
21,0,0,1d,1d,1q,0,x,0,0,0,0,0,1w,1z,1v
1w,26,j,0,0,0,0,1d,1d,1a,25,0,0,1a,0,2m
26,21,0,21,20,0,2m,0,0,0,0,1a,1a,0,0,0
NAME morning mountain base
ITM 5 0,8
EXT 0,8 8 7,8
PAL 4

ROOM 8
z,z,z,z,z,z,z,z,2d,z,z,z,z,2d,z,z
z,1h,2e,2e,z,z,z,z,24,z,z,z,z,24,z,z
z,z,24,24,z,z,z,z,z,z,z,z,z,z,z,z
z,z,z,z,z,z,z,z,z,z,z,z,z,z,z,z
z,z,z,z,z,z,z,z,z,z,z,z,z,z,z,z
z,z,z,z,2c,1h,z,z,z,z,z,z,z,z,z,z
z,z,2d,2c,2a,z,2c,z,z,2c,z,1k,1t,1h,z,z
z,27,2g,2h,1y,2j,1y,2b,1v,0,1v,0,0,1v,1u,2c
z,z,28,2i,2g,2g,2g,2g,2k,28,26,21,1w,20,0,0
z,z,1h,28,21,20,21,0,26,0,0,1a,0,1y,1w,1w
z,z,1h,1h,29,28,20,25,0,1a,12,x,1a,0,0,1a
z,z,1h,1h,1h,1h,1a,1w,20,0,0,1q,1q,0,0,0
z,z,1h,1h,1h,1h,28,1a,1w,21,20,0,1a,12,x,1a
z,z,1h,1h,1h,1h,1h,28,1a,1a,1y,0,0,0,1q,0
2d,2e,1h,2e,2d,1h,1h,2d,2a,1a,1a,20,0,0,0,0
1p,1p,1p,1p,1p,1p,1p,1p,2f,1a,1a,1a,1a,20,0,1a
NAME mountain top
ITM 6 6,8
ITM 6 5,8
ITM 6 4,8
ITM 6 3,8
ITM 6 3,7
ITM 6 2,7
EXT 1,7 9 9,0
PAL 4

ROOM 9
z,z,z,2a,0,1w,0,0,2s,2n,2s,0,0,0,0,0
z,z,1h,2a,0,0,0,1w,2s,2n,2s,0,0,0,0,0
z,z,z,2a,0,20,0,0,2s,2n,2s,20,21,1y,1a,0
z,z,z,28,0,0,1z,0,2s,2n,2s,0,1w,0,21,1y
z,z,z,z,2a,0,1w,0,2s,2n,2s,0,0,1w,1y,0
z,z,z,z,29,0,0,0,2s,2n,2s,1z,1a,0,0,2t
z,z,z,z,z,2a,0,2t,2s,2n,2s,1w,2t,0,0,0
z,z,z,z,z,2a,0,0,2s,2n,2s,0,0,20,1a,0
z,z,z,z,z,28,0,2t,2s,2n,2s,0,0,0,1w,0
z,z,z,z,z,z,2a,0,2s,2n,2s,0,0,0,0,1z
z,z,z,z,z,z,2a,0,2s,2n,2s,0,20,1a,20,0
z,z,z,z,z,z,2o,2t,2s,2n,2s,0,1z,0,1z,1a
z,z,z,z,z,z,28,0,2s,2n,2s,0,1w,1a,1w,0
z,z,z,z,z,z,1h,2a,2s,2n,2s,0,0,20,1a,0
z,z,z,z,z,z,z,2a,2s,2n,2s,0,2t,0,2t,1a
z,z,z,z,z,z,z,2o,2s,0,2s,0,0,0,0,1w
ITM 6 9,1
ITM 6 9,2
ITM 6 9,3
ITM 6 9,4
ITM 6 9,5
ITM 6 9,6
ITM 6 9,7
ITM 6 9,8
ITM 6 9,9
ITM 6 9,10
ITM 6 9,11
ITM 6 9,12
ITM 6 9,13
ITM 6 9,14
ITM 6 9,15
EXT 9,9 a 9,9
PAL 6

ROOM a
z,z,z,2a,0,1c,0,0,2s,2y,2s,1c,1c,1c,1c,1c
z,z,1h,2a,0,1c,1c,1w,2s,2y,2s,0,1c,1c,1c,1c
z,z,z,2a,0,20,1c,1c,2s,2y,2s,20,21,1y,1c,1c
z,z,z,28,0,0,1c,1c,2s,2y,2s,0,1w,0,21,1y
z,z,z,z,2a,0,1w,1c,2s,2y,2s,0,0,1w,1y,0
z,z,z,z,29,0,0,0,2s,2y,2s,1z,1c,1c,0,2t
z,z,z,z,z,2a,1c,2t,2s,2y,2s,1w,2t,1c,1c,0
z,z,z,z,z,2a,1c,0,2w,0,2x,0,0,20,1c,1c
z,z,z,z,z,28,0,2t,2s,2z,2s,0,0,0,1w,1c
z,z,z,z,z,z,2a,1c,2v,0,2u,0,1c,1c,0,1z
z,z,z,z,z,z,2a,1c,2s,0,2s,0,20,1c,20,1c
z,z,z,z,z,z,2o,2t,2s,0,2s,0,1z,1c,1z,1c
z,z,z,z,z,z,28,0,2s,0,2s,0,1w,1c,1w,1c
z,z,z,z,z,z,1h,2a,2s,0,2s,0,0,20,1c,1c
z,z,z,z,z,z,z,2a,2s,0,2s,0,2t,0,1c,1c
z,z,z,z,z,z,z,2o,2s,0,2s,0,0,0,0,1w
NAME fall 2
EXT 9,15 b 8,13
PAL 6

ROOM b
34,34,34,34,34,34,34,34,35,34,17,17,17,17,17,17
35,35,35,34,35,34,35,34,34,34,17,17,w,17,17,17
34,34,34,35,34,34,35,35,35,34,17,24,24,17,17,0
34,34,35,34,34,34,35,34,34,34,w,24,24,x,w,17
34,34,35,34,35,34,34,34,35,34,0,24,24,17,17,17
35,34,34,34,34,34,34,34,34,34,0,24,24,17,17,17
34,34,34,34,35,35,35,34,35,34,2o,24,24,24,x,w
34,34,35,35,34,34,34,35,34,34,34,24,24,24,24,17
35,34,34,34,34,34,34,34,34,34,35,2o,24,24,24,24
34,34,34,34,34,35,34,35,34,34,34,34,24,24,21,20
2d,z,2e,1h,2d,1h,1h,2e,1h,2d,1h,2e,2o,24,24,24
0,0,0,0,0,0,1m,1n,1l,29,0,0,1t,z,z,z
0,0,0,0,0,12,1h,1h,1h,1k,1z,20,0,31,1t,z
0,1f,0,0,0,1a,t,1h,1h,1h,1k,0,21,30,0,1t
0,1e,0,0,0,0,0,1t,10,s,11,11,0,0,0,1f
0,0,0,0,11,0,0,0,1d,0,0,0,0,0,0,1e
END 0 9,15
END 0 6,14
END 0 7,15
END 0 8,15
END 0 5,13
END 0 4,12
END 0 10,15
END 0 11,14
END 0 11,13
END 0 10,11
END 0 11,11
END 0 5,11
END 0 6,11
END 0 7,11
END 0 8,10
END 0 9,10
END 0 12,12
PAL 6

ROOM c
0,0,q,q,0,0,0,3j,3k,3l,0,0,r,0,0,0
0,q,q,0,o,0,0,3d,0,3d,0,o,r,r,0,0
q,q,0,0,o,0,0,3b,3a,3b,0,o,0,r,r,r
q,0,2z,0,o,0,3r,37,39,38,3r,o,0,0,0,r
o,0,0,0,o,0,1d,r,3s,q,1d,o,0,0,2z,o
o,0,0,0,o,0,0,0,36,0,0,o,0,0,0,o
o,0,0,0,o,0,0,36,0,36,0,o,0,0,0,o
o,0,0,0,o,0,0,0,36,0,0,o,0,0,0,o
o,0,0,0,0,0,3g,36,0,36,3h,0,0,0,0,o
o,0,3t,0,0,0,3e,3i,3i,3i,3f,0,0,3t,0,o
o,0,0,0,0,0,3p,0,0,0,3p,0,0,0,0,o
o,0,0,0,0,0,3p,0,3o,0,3p,0,0,0,0,o
o,0,0,0,0,0,3p,0,2b,0,3p,0,0,0,0,o
0,0,0,0,0,0,3p,0,0,0,3p,0,0,0,0,0
2z,0,0,0,0,0,3p,0,0,0,3p,0,0,0,0,2z
0,0,0,0,0,0,3p,0,0,0,3p,0,0,0,0,0
ITM 7 7,5
ITM 7 8,6
ITM 7 7,7
ITM 7 8,8
ITM 7 9,5
ITM 7 9,7
ITM 8 7,10
ITM 9 7,11
ITM a 7,12
ITM c 9,11
ITM d 8,10
END 0 8,11
PAL 7

TIL 10
11111111
11111111
11011101
01011010
00001001
10100000
10000101
00000000

TIL 11
11000000
10100000
00000000
00010000
00100000
00000000
00000000
00000000

TIL 12
00000111
00001011
00000000
00000101
00001000
00000000
00000000
00000000

TIL 13
00000000
00000000
01100110
10011001
00000000
00000000
00000000
11111111

TIL 14
00011000
01101110
01000011
11000001
10000000
10000000
10000000
11111111

TIL 15
00011000
00111100
01100110
11000011
00000001
00000001
00000001
11111111

TIL 16
00000000
10000001
01000010
00111100
00000000
00000000
00011000
00100100
WAL true

TIL 17
01010101
10101010
01010101
10101010
01010101
10101010
01010101
10101010

TIL 18
11111111
10111110
11010111
11101010
01011101
10101010
01110101
10101010

TIL 19
11111111
10111111
11110111
11111110
11011101
10101011
11111101
10101010

TIL 20
00000000
11100000
00110000
00001100
00000110
00000010
00000001
00000001
WAL true

TIL 21
11000000
01111000
00000111
00000000
00000000
00000000
00000000
00000000
WAL true

TIL 22
11111111
11111111
11111111
11111100
11110001
11001010
00010101
10101010

TIL 23
11111100
11100001
10001010
01010101
10101010
01010101
10101010
01010101

TIL 24
01010101
10101010
01010101
11101011
01111101
10101110
11111111
10111011

TIL 25
00111100
00111100
01111000
11110000
11110000
01100000
00000000
00000000

TIL 26
01111111
00111111
00001110
00000000
00000000
00000000
00000000
00000000

TIL 27
11111111
11100000
00000000
00000100
11000001
11110000
11111100
11111111
WAL false

TIL 28
10000000
10000000
11000000
11000000
11010000
11011000
11011000
11111011
WAL true

TIL 29
00000000
00000000
10000010
10010110
10010110
10101110
11111111
11111111

TIL 30
00010000
01100000
10000000
00000000
00000000
00000000
00000000
00000000

TIL 31
00000011
00111110
01000010
01111111
00000010
01111100
01000000
00110000

TIL 32
00000000
00011111
01100001
10000001
10000010
01011100
01100000
10011100

TIL 33
01100000
00110000
00011000
00001100
00000100
00000100
00000100
11111000

TIL 34
11110101
11111011
11110101
11111111
11010111
11101111
11010111
11111111
>
11111111
11010111
11101111
11010111
11111111
11101011
11110111
11101011

TIL 35
11111111
01011111
10111111
01011111
11111111
11101011
11110111
11101011
>
11111111
11111010
11111101
11111010
11010111
11101111
11010111
11111111

TIL 36
00111100
01000000
11011000
10011100
10011100
11011000
01000000
00111100

TIL 37
01000000
00100000
00100000
00110000
00011000
00001100
00000110
00000011

TIL 38
00000010
00000110
00000100
00001100
00011000
00111000
11100000
11000000

TIL 39
11100111
00111100
01111110
00000000
00000000
10000010
00100000
11111111

TIL a
00000000
10011001
00100111
11111111
00101111
11101111
00101100
00011000
WAL true

TIL b
00000001
00000011
00000010
00000001
00000010
00000011
00000010
00000010

TIL c
00011000
00100100
00111100
00101100
00101100
00101111
00011110
00001000
WAL true

TIL d
00001000
00111000
00001000
00001000
00001000
01111100
00001000
00001000

TIL f
10010001
01001000
01001000
00100100
00010100
11111111
00010000
00010000

TIL g
00011000
00100101
00111111
00101111
00101111
00101111
00101100
00011000
WAL true

TIL h
00011000
00100100
00111100
11101100
00101100
11101111
00101110
00011100
WAL true

TIL i
00000000
00000111
00011000
01100000
10000000
00000000
00000000
00000000

TIL j
00000000
00000000
11000000
00111100
00000011
00000000
00000000
00000000

TIL k
00000000
00000000
00000000
00010000
00100100
10101000
01110000
00000000

TIL l
00000000
00000000
01001000
01001010
01000010
00100100
00000000
00000000

TIL m
11101000
11101000
11101000
11101000
11111000
11111100
01101100
00011000

TIL n
00100100
00100100
00100100
00100100
00101100
00101100
00110111
00110110
WAL true

TIL o
00100100
00100100
00100100
00101100
00101100
00111100
00110100
00110100
WAL true

TIL p
11101101
11101000
11111010
11110010
11110000
11001000
10010010
11101000
WAL true

TIL q
00000001
00000010
00000100
00001000
00010000
00100000
01000000
10000000
WAL true

TIL r
10000000
01000000
00100000
00010000
00001000
00000100
00000010
00000001
WAL true

TIL s
11101111
11101011
11111010
11111110
11111100
10001000
10000000
11100000

TIL t
00110111
01101011
01001111
00010111
00111111
00001111
00011111
00110111
WAL true

TIL u
00110000
00100100
01100110
00000010
00011000
00110000
00100110
00000110

TIL v
00000000
00000000
00000000
00000000
10000000
11100000
11111100
11100000

TIL w
00000101
00001010
00010101
00101010
01010101
10101010
01010101
10101010

TIL x
01010000
10101000
01010100
10101010
01010101
10101010
01010101
10101010

TIL y
11111111
01000001
00111110
00000000
00000000
00000000
00000000
00000000

TIL z
11111111
11111111
11111111
11111111
11111111
11111111
11111111
11111111
WAL true

TIL 1a
00000000
00001000
01010001
00000010
01010000
10101000
00010000
10000000

TIL 1b
11111111
00000000
00000000
00000000
00000000
00000000
00000000
11111111
WAL true

TIL 1c
00000000
00001000
01010001
00000010
01010000
10101010
00010000
10000010
>
00000100
00101010
00000001
10101000
00100100
00011000
10000010
00101000

TIL 1d
01010101
10001010
01010101
10101000
00000101
00101000
00000000
00000000

TIL 1e
01001110
11101111
01001110
11011111
01001110
01101111
11001111
01011111
WAL true

TIL 1f
01011010
00100100
01001110
11011111
01001110
01101111
11001110
01011110
WAL true

TIL 1g
00000000
00000000
00000000
00000000
11111111
11111111
11111111
11111111

TIL 1h
11111111
11111111
11111111
11111111
11111111
11111111
11111111
11111111
WAL false

TIL 1i
11111111
11111111
11011101
01011010
00001001
10100000
10000101
00000000
WAL true

TIL 1j
00000111
00001011
00000000
00000101
00001000
00000000
00000000
00000000
WAL true

TIL 1k
11101111
11101011
11111010
11111110
11111100
10001000
10000000
11100000
WAL true

TIL 1l
00000000
00000000
00000000
00000000
00010001
10010011
11111110
11111111

TIL 1m
00000000
00000000
00000000
00000000
11000000
01010110
11110010
11111100

TIL 1n
00000000
00000000
00000000
00000010
00011010
00011111
01100111
00111111

TIL 1o
00110111
01101011
01001111
00010111
00111111
00001111
00011111
00110111
WAL false

TIL 1p
00000000
11111111
11111111
00000000
00000000
00000000
00000000
00000000
WAL true

TIL 1q
01010010
10001001
01000100
00010000
00000000
00000000
00000000
00000000

TIL 1r
00000000
11111111
11111111
10101010
01010100
10101000
01000000
10000000
WAL true

TIL 1s
00000000
11111111
11111111
10101010
01010000
00000000
00000000
00000000
WAL true

TIL 1t
11111111
01111111
00011111
00000111
00000001
00000000
00000000
00000000
WAL true

TIL 1u
00111111
00000111
00010011
00000001
00000001
00000001
00000000
00000000
WAL true

TIL 1v
11111111
01111110
00011100
00000000
00000000
00000000
00000000
00000000
WAL true

TIL 1w
10000000
10000000
01000000
01000000
00111000
00000111
00000000
00000000
WAL true

TIL 1x
00100000
00100000
00011000
00000000
00000000
01001000
00101000
00000110
WAL true

TIL 1y
00000000
00000000
11000000
00111100
00000011
00000000
00000000
00000000
WAL true

TIL 1z
00000000
00000111
00011000
01100000
10000000
00000000
00000000
00000000
WAL true

TIL 2a
11000000
11100000
11100000
11100000
11110000
11110000
11100000
11100000

TIL 2b
11111111
11111111
11111111
01111110
00111000
00000000
00000000
00000000
WAL true

TIL 2c
11111111
11111111
11111111
11111011
11111001
11100001
11000000
10000000
WAL true

TIL 2d
11111111
11111111
11111111
11111111
11111111
11111111
10111111
10111011
WAL true

TIL 2e
11111111
11111111
11111111
11111111
11111111
11111111
11111111
01101111

TIL 2f
00000000
11100000
11110000
00010000
00010000
00001000
00010000
00010000

TIL 2g
00000000
00000000
00000000
01100110
10011001
00000000
00000000
00000000

TIL 2h
00000000
00000000
00000000
00110000
11001000
00010000
00010000
00001000

TIL 2i
00010000
00010000
00001000
00001001
00000110
00000000
00000000
00000000
WAL false

TIL 2j
01111111
00111111
00001110
00000000
00000000
00000000
00000000
00000000
WAL true

TIL 2k
00011000
01101110
01000011
11000001
10000000
10000000
10000000
11111111
WAL true

TIL 2l
11101111
01001110
10000101
10000011
00000000
00000001
01000001
10101110
>
10111011
10110110
10000101
00000011
10000001
00000011
10000101
10101101

TIL 2m
00011000
00100100
00111100
00101100
00101100
00101100
00111100
01111000
WAL true

TIL 2n
00011000
00011000
00011000
00011000
00011000
00011000
00011000
00011000

TIL 2o
10000000
11000000
11000000
11000000
11000000
11100000
11100000
11100000

TIL 2p
00000100
01000101
01000101
01000000
00010000
00010010
01000010
01000000

TIL 2q
00000000
10000010
10000010
10000000
00100000
00100000
00100100
00000100

TIL 2r
00010000
01010001
01010001
01000000
00000100
00001000
01000100
01000001

TIL 2s
00000000
00000000
00000000
00000000
00000000
00000000
00000000
00000000
WAL true

TIL 2t
00000000
00000100
01000100
01101000
00110000
00000101
00000101
00000010

TIL 2u
00000100
00000100
00000010
01100000
10001100
00000100
00000010
00000000
>
00000010
00000010
00000001
00000000
01100000
10000110
00000001
00000000
WAL true

TIL 2v
00010000
00010000
00100000
00000000
00000000
10000011
01100100
00000000
>
00001000
00001000
00010000
00000000
01000011
01000100
00100000
00000000
WAL true

TIL 2w
00000000
00100001
00010010
00010010
00000000
00010000
00010000
00100000
>
01000010
00100010
00100100
00000000
00100000
00100000
01000000
00000000

TIL 2x
00000000
00000110
00101000
11000000
00000000
00000100
00001000
00001000
>
00000011
00100100
11000000
00000000
00000000
00000010
00000100
00000100

TIL 2y
00001000
00010000
00010000
00001000
00001000
00010000
00010000
00001000
>
00010000
00001000
00001000
00010000
00010000
00001000
00001000
00010000

TIL 2z
00000000
00110100
01000010
01000000
00000010
01000010
00101100
00000000
>
00111010
10000000
10000001
10000000
00000001
00000001
10000001
00101110
WAL true

TIL 3a
00010000
00010000
00100000
00100000
00010000
00000000
01111110
11111111

TIL 3b
00000000
00000000
00000000
00000000
00000001
00010000
01000101
00000000

TIL 3c
00000000
00000000
00000000
00001100
00000000
00000000
00000000
00000000

TIL 3d
00000000
00000000
00111000
01000100
00010000
00010000
00000000
00000000

TIL 3e
00010000
00010010
00010010
00010011
00010101
00001111
00000000
00000000

TIL 3f
00101000
00101000
01001000
01101000
11110000
00000000
00000000
00000000

TIL 3g
00000000
00000000
00010000
00010000
00010000
00010100
00010100
00010000

TIL 3h
00000000
00010000
00000000
01001000
00001000
00101000
00001000
00001000

TIL 3i
00000010
00010000
00000000
01000010
11111111
11111111
00000000
00000000
WAL true

TIL 3j
01100011
10011100
01100000
11001111
01111001
11111110
11000000
00000000

TIL 3k
11110000
00011111
01111001
11111000
11111111
00000010
00000000
00000000

TIL 3l
11111000
00011100
01111010
11111101
01110111
00011100
00000011
00000001

TIL 3m
00000011
00000111
00001111
00001011
00001110
00001010
00000111
00000001

TIL 3n
01100000
11010000
01110000
11110000
01110000
11110000
11100000
11000000

TIL 3o
00000000
01111110
01000010
01111010
01111110
00110100
00110100
01111110

TIL 3p
00011000
00011000
00011000
00011000
00011000
00011000
00011000
00011000
WAL true

TIL 3q
00000010
00010000
00000000
01000010
11111111
11111111
00000000
00000000
WAL false

TIL 3r
00000000
00000000
00110000
11011110
10000001
00000000
00000000
00000000

TIL 3s
00111100
00111100
00111100
00111100
00011000
00011000
00011000
00011000

TIL 3t
00011000
00001000
00010000
00001000
00001000
00000000
00010000
00010000

SPR 11
11111111
11000011
11010011
01001010
01100110
00111100
00111100
01011010
>
11111111
11000011
11001011
01010010
01100110
00111100
00111100
01011010
POS 2 7,2

SPR 12
11111001
10001111
11100011
11111001
10011111
11000111
11110001
10011111
POS 2 7,1

SPR 13
00000000
00000000
00000000
00000000
00011000
01111110
10011111
11100111
POS 2 7,0

SPR 14
00000000
00000110
00000110
01110000
01010000
01110010
00000010
11111111
>
00000000
00000000
01010000
00100110
01010110
00000001
00000010
11111111
POS 2 9,2

SPR 15
11110000
11000000
00000000
00000000
00000000
00000000
00000000
00000000
POS 2 9,3

SPR 16
00100000
01000000
10010000
10010000
11110000
01100000
01100000
01100000
>
00000000
01000000
00100000
10010000
10010000
11110000
01100000
01100000
POS 2 6,2

SPR 17
01100010
01111101
00111110
01011111
01101110
00100101
01000110
01100101
>
01100010
01111101
01111110
00111111
01001110
01100101
00100110
01000101
POS 2 6,3

SPR 18
00001110
01101010
01101110
01111111
00101111
00101110
00101010
00101010
>
01101110
01101010
01101110
00111111
00101111
00101110
00101010
00001010
DLG SPR_8
POS 2 5,9

SPR 19
00000000
00000000
00000100
00001010
00001100
00000110
00001010
00001100
POS 2 5,8

SPR A
00000000
00001100
00011010
00010111
01000111
11111110
01111100
01101100
POS 0 6,9

SPR a
00000000
00100000
01011000
01101000
11100010
01111111
00111110
00110110
DLG SPR_0
POS 0 9,9

SPR b
01111100
01111100
01111100
00000000
01111100
01111100
01111100
00000000

SPR c
00001110
01101010
01101110
01111111
00101111
00101110
00101010
00101010
>
01101110
01101010
01101110
00111111
00101111
00101110
00101010
00001010
DLG SPR_2
POS 0 9,7

SPR d
00000000
00000000
00000100
00001010
00001100
00000110
00001010
00001100
DLG SPR_1
POS 0 9,6

SPR e
00001110
01101010
01101110
01111111
00101111
00101110
00101010
00101010
>
01101110
01101010
01101110
00111111
00101111
00101110
00101010
00001010
DLG SPR_3
POS 1 6,13

SPR f
00000000
00100000
01011000
01101000
11100010
01111111
00111110
00110110
DLG SPR_4
POS 1 9,7

SPR g
00100110
01001101
01101010
01101111
00100001
01000001
11110011
00000011
>
01100110
00101101
01001010
01101111
01100001
00100001
01000011
11110011
POS 1 6,4

SPR h
01100000
10110000
01010000
11110000
11000000
11000000
11100000
11100000
POS 1 8,4

SPR i
10100101
01011010
10100101
11111111
10000000
10000000
10000000
10000000
DLG SPR_5
POS 1 7,4

SPR j
10011001
01000010
10011001
01000010
10011001
01000010
10100101
01011010
POS 1 7,3

SPR k
01100010
01111101
00111110
01011111
01101110
00100101
01000110
01100101
>
01100010
01111101
01111110
00111111
01001110
01100101
00100110
01000101
POS 1 6,3

SPR l
00100000
01000000
10010000
10010000
11110000
01100000
01100000
01100000
>
00000000
01000000
00100000
10010000
10010000
11110000
01100000
01100000
POS 1 6,2

SPR m
01000011
10100111
01111110
10111100
01111000
10100000
01100000
10100000
POS 1 8,3

SPR n
11111111
11000011
11010011
01001010
01100110
00111100
00111100
01011010
>
11111111
11000011
11001011
01010010
01100110
00111100
00111100
01011010
POS 1 7,2

SPR o
11111001
10001111
11100011
11111001
10011111
11000111
11110001
10011111
POS 1 7,1

SPR p
00000000
00000000
00000000
00000000
00011000
01111110
10011111
11100111
POS 1 7,0

SPR q
00000000
00000110
00000110
01110000
01010000
01110010
00000010
11111111
>
00000000
00000000
01010000
00100110
01010110
00000001
00000010
11111111
POS 1 9,2

SPR r
11110000
11000000
00000000
00000000
00000000
00000000
00000000
00000000
POS 1 9,3

SPR s
00000000
00100000
01011000
01101000
11100010
01111111
00111110
00110110
DLG SPR_6
POS 2 4,7

SPR t
00100110
01001101
01101010
01101111
00100001
01000001
11110011
00000011
>
01100110
00101101
01001010
01101111
01100001
00100001
01000011
11110011
POS 2 6,4

SPR u
01100000
10110000
01010000
11110000
11000000
11000000
11100000
11100000
POS 2 8,4

SPR v
10011001
01000010
10011001
01000010
10011001
01000010
10100101
01011010
POS 2 7,3

SPR w
10100101
01011010
10100101
11111111
10000000
10000000
10000000
10000000
DLG SPR_7
POS 2 7,4

SPR x
01000011
10100111
01111110
10111100
01111000
10100000
01100000
10100000
POS 2 8,3

SPR 1a
00000000
00000000
00000100
00001010
00001100
00000110
00001010
00001100
POS 1 6,12

SPR 1b
00001110
01101010
01101110
01111111
00101111
00101110
00101010
00101010
>
01101110
01101010
01101110
00111111
00101111
00101110
00101010
00001010
DLG SPR_9
POS 4 3,5

SPR 1c
00001110
01101010
01101110
01111111
00101111
00101110
00101010
00101010
>
01101110
01101010
01101110
00111111
00101111
00101110
00101010
00001010
DLG SPR_a
POS 5 13,9

SPR 1d
00000000
00000000
00000000
00000000
10000111
11111111
11111111
11111111
>
00000000
00000000
00000000
00000000
11000111
11111111
11111111
11111111
DLG SPR_b
POS 5 7,13

SPR 1e
00000000
00000000
00000000
11000000
11100000
11111000
10011110
11111111
>
00000000
00000000
00000000
11100000
11110000
10011100
11111111
11100111
DLG SPR_c
POS 5 8,13

SPR 1f
11111111
10011111
11111001
11111111
11001100
11110000
11100000
11000000
>
11111111
11100111
11111111
11110010
10011100
11110000
11000000
10000000
DLG SPR_d
POS 5 8,14

SPR 1g
11111111
11111111
11111111
11111111
11111111
11111111
11111111
00000011
>
11111111
11111111
11111111
11111111
11111111
11111111
11111111
00000111
DLG SPR_e
POS 5 7,14

SPR 1h
11111111
11111111
11111111
01111111
01111111
00111111
00011111
00001111
>
11111111
11111111
11111111
11111111
01111111
01111111
00111111
00011111
DLG SPR_f
POS 5 6,14

SPR 1i
00000000
00000000
00000000
00000000
00011111
00111111
01111111
11111111
>
00000000
00000000
00000000
00000000
00001111
01111111
11111111
11111111
DLG SPR_g
POS 5 6,13

SPR 1j
00001110
01101010
01101110
01111111
00101111
00101110
00101010
00101010
>
01101110
01101010
01101110
00111111
00101111
00101110
00101010
00001010
DLG SPR_h
POS 6 9,9

SPR 1k
00000000
00001001
01010001
10010000
01011010
01111110
00111100
01111110
>
01000000
10001100
00000100
00101100
00111001
10111110
01111100
01111110
DLG SPR_i
POS 6 7,9

SPR 1l
00001110
01101010
01101110
01111111
00101111
00101110
00101010
00101010
>
01101110
01101010
01101110
00111111
00101111
00101110
00101010
00001010
DLG SPR_j
POS 7 10,13

SPR 1m
00000000
00000000
00000100
00001010
00001100
00000110
00001010
00001100
DLG SPR_k
POS 6 13,9

SPR 1n
00000000
00000000
00000100
00001010
00001100
00000110
00001010
00001100
POS 7 10,12

SPR 1o
00000000
00000000
00000100
00001010
00001100
00000110
00001010
00001100
POS 5 13,8

SPR 1p
00000000
00000000
00000100
00001010
00001100
00000110
00001010
00001100
POS 4 3,4

SPR 1q
00011000
00011000
00111000
00110000
00111000
00011000
00011000
00110000
POS 7 2,15

SPR 1r
00011000
00011110
01111100
01110000
00111000
00011000
00011000
00110000
POS 7 2,14

SPR 1s
00000000
00001111
00001111
00001100
11001100
01111000
00111000
00110000
POS 7 2,13

SPR 1t
00000000
00000000
00111110
11000011
00111111
11101001
10001010
00010000
POS 7 1,13

SPR 1u
00000000
00000000
11110000
10011110
11000010
01110000
00100000
00110000
POS 7 3,13

SPR 1v
00010000
00011000
00111100
00111100
00011000
00000000
00000000
00000000
DLG SPR_l
POS 7 3,14

SPR 1w
00100000
01100000
01100000
01110000
00010000
00000000
00000000
00000000
POS 7 1,14

SPR 1x
00001110
01101010
01101110
01111111
00101111
00101110
00101010
00101010
>
01101110
01101010
01101110
00111111
00101111
00101110
00101010
00001010
DLG SPR_m
POS 8 7,9

SPR 1y
00000000
00001001
01010001
10010000
01011010
01111110
00111100
00011000
>
01000000
10001100
00000100
00101100
00111001
10111110
01111100
00011000
POS c 2,8

SPR 1z
00000000
00001001
01010001
10010000
01011010
01111110
00111100
00011000
>
01000000
10001100
00000100
00101100
00111001
10111110
01111100
00011000
POS c 13,8

ITM 0
00000000
00110000
01001100
10011110
11111111
11111111
01101110
01101010
>
00110000
01001100
10010000
11111110
11111111
01111111
01101110
00001010
NAME tea
DLG ITM_0

ITM 1
00000000
00110000
01001100
10011110
11111111
11111111
01101010
01101010
>
00110000
01001100
10010000
11111110
11111111
01111111
01101110
00001010

ITM 2
00000000
00100000
00000010
00000000
00011000
00000011
00001100
00000000
NAME Trigger from going the wrong way
DLG ITM_1

ITM 3
00000000
01111000
00000000
00000000
00000110
00000000
00000000
00000111
>
00000000
00001111
00000000
00000000
00011000
00000000
00000000
11100000

ITM 4
00000000
11111110
00000000
00000000
00111111
00000000
00000000
00000000
>
00000000
00111111
00000000
00000000
11111100
00000000
00000000
00000000

ITM 5
00000000
00100000
00000010
00000000
00011000
00000011
00001100
00000000

ITM 6
00000000
00000000
00000000
00000000
00000000
00000000
00000000
00000000

ITM 7
00111100
01000000
11011000
10001100
10001100
11000000
01000000
00111100

ITM 8
00000000
00000000
00000000
00000000
00100000
01111000
01111111
00111111
DLG ITM_6

ITM 9
00011111
00011111
00111111
00111111
00111111
00011111
00001111
00000111
DLG ITM_5

ITM a
00000011
00000011
00000111
00000111
00000111
00000111
00000011
00000000
DLG ITM_4

ITM b
11111111
11111111
11111111
11111110
11111000
10000000
00000000
00000000
DLG ITM_3

ITM c
00001001
10000000
11001110
11111111
11111111
11111111
11111110
11000000
DLG ITM_7

ITM d
00000000
00001100
00011110
00000110
00000000
11000000
11111100
11111111
DLG ITM_2

ITM e
00000000
00011000
01001110
00000111
01110101
01001001
00100010
00010100

DLG ITM_0
You found a nice warm cup of tea

DLG SPR_0
"What could they want with us brother?" 

DLG SPR_1
The priest has a large and fancy hat, but the high priest's hat is larger and fancier.

DLG SPR_2
"Come along, We've selected you two to go see the high priest."

DLG SPR_3
"Good luck."

DLG SPR_4
"I've been chosen! I've been chosen to go right and journey with the high priest! See what the lot holds for you brother." 

DLG SPR_5
"The lots have spoken. To the left. The low priest will take you to The Mountain. Your brother will come with me."

DLG ITM_1
"""
"where's that goat going?"
"just take the other one then. It makes no difference"
"""

DLG SPR_6
"I've been selected to travel with the lower priest, to The Mountain in the wilderness. I'm so excited. What has god fated for you?"

DLG SPR_7
"The lots have spoken. To the right. You will come with me to the Tent Of Meeting."

DLG SPR_8
"Don't come to me anymore, little goat, your lot is with the high priest now."

DLG SPR_9
"Come with me, lucky goat. We are to journey to Azazel, for a holy ritual. It's a day's journey west of here."

DLG SPR_a
"Are you tired yet? Maybe you envy your brother, who was allowed to remain at home. I certainly envy the other priest. Drink at this spring, and we will stop for the night soon."

DLG SPR_b
Your thirst abates, but you are still tired, curious, and wary. It seems you have a responsibility now to reach this holy mountain.

DLG SPR_c
Your thirst abates, but you are still tired, curious, and wary. It seems you have a responsibility now to reach this holy mountain.

DLG SPR_d
Your thirst abates, but you are still tired, curious, and wary. It seems you have a responsibility now to reach this holy mountain.

DLG SPR_e
Your thirst abates, but you are still tired, curious, and wary. It seems you have a responsibility now to reach this holy mountain.

DLG SPR_f
Your thirst abates, but you are still tired, curious, and wary. It seems you have a responsibility now to reach this holy mountain.

DLG SPR_g
Your thirst abates, but you are still tired, curious, and wary. It seems you have a responsibility now to reach this holy mountain.

DLG SPR_h
"The other priest is surely finished by now. Let us walk fast, brother-in-mourning, that we may reach the mount tomorrow." 

DLG SPR_i
You stare at the flame and wonder what purpose awaits you.

DLG SPR_j
"As we ascend the mountain, we get closer to God. At the summit we shall put forth the sin offering."

DLG SPR_k
The priest has shed his robings in preperation for sleep. Maybe one day you will wear such a thing. 

DLG SPR_l
What prophecies might these fruit hold? A priest would know. Maybe this is what you will learn here on the mountain.

DLG SPR_m
"This is the ceremonial ribbon. take this end around your horn and go to the precipice. I will say the offering and then join you."

DLG ITM_2
"Welcome lucky goat. Your brother has much work ahead of him, but you are allowed to rest here in the camp. Sit on the altar while I recite a prayer of thanks on your behalf." 

DLG ITM_3
The earth by the altar is covered in blood.

DLG ITM_4
Few are permitted to see the inside of this tent.

DLG ITM_5
You wonder whether you will be allowed to tell your brother about this.

DLG ITM_6
It's warm in the tent and the firelight makes the high priest's breastplate glisten.

DLG ITM_7
Why have they not cleaned the floor since the last sacrifice here? you get blood on your hooves. 

END 0
You wonder, as your vision fuzzes, what happened to your brother.

VAR a
42


