mailfrog

# BITSY VERSION 3.4

! ROOM_FORMAT 1

PAL 0
150,201,54
100,134,140
255,255,255

PAL 1
59,106,213
35,70,94
255,255,255

PAL 2
255,191,149
240,96,91
255,255,255

PAL 3
255,204,120
39,193,232
255,255,255

ROOM 0
c,d,u,v,e,s,t,u,v,d,b,c,s,t,e,u
u,v,s,t,b,c,a,s,t,u,v,e,b,c,e,s
s,t,b,c,e,a,a,a,a,s,t,a,d,e,u,v
u,v,e,d,e,a,a,a,a,a,a,a,a,a,s,t
s,t,d,a,p,p,p,a,a,a,e,d,a,a,u,v
b,c,a,g,j,j,j,h,a,d,d,e,a,a,s,t
v,a,a,o,n,m,o,n,a,a,e,a,a,u,v,a
t,a,a,k,l,k,l,k,q,a,a,a,a,s,t,a
u,v,a,a,a,a,a,a,a,a,a,a,a,a,a,u
s,t,a,a,a,a,a,a,a,a,a,a,a,a,a,s
v,u,v,a,a,a,a,a,a,d,a,a,a,a,b,c
t,s,t,e,d,a,a,a,a,a,d,a,a,u,v,a
b,c,e,d,e,d,a,a,a,a,a,a,e,s,t,a
c,d,e,d,e,e,a,a,a,a,a,d,d,e,u,v
u,v,d,b,c,a,a,a,a,a,a,b,c,e,s,t
s,t,u,v,b,c,a,a,a,a,b,c,u,v,a,a
WAL b,c,u,t,s,v,f,g,h,i,j,n,o
EXT 5,6 2 8,11
EXT 9,15 1 9,0
EXT 6,15 1 6,0
EXT 7,15 1 7,0
EXT 8,15 1 8,0
PAL 0

ROOM 1
c,a,s,t,u,v,a,a,a,a,u,v,s,t,b,c
a,u,v,a,s,t,a,a,a,a,s,t,a,u,v,a
v,s,t,b,c,a,a,a,a,a,a,b,c,s,t,b
t,a,d,a,d,a,a,a,a,a,a,a,a,e,e,d
b,c,d,e,d,e,a,a,a,a,a,a,d,e,d,u
v,a,a,d,e,d,a,a,a,a,a,d,e,d,e,s
t,u,v,a,a,a,a,a,a,a,e,e,d,a,b,c
a,s,t,a,a,a,a,a,a,a,1p,1o,1o,1o,1u,a
c,d,a,a,a,a,a,a,1p,1o,1n,1o,1n,1o,1o,1s
b,c,e,a,a,a,a,1p,1o,1n,1o,1n,1o,1o,1n,u
v,e,d,e,a,a,1q,1o,1o,1o,1n,1o,1o,1n,1o,s
t,e,d,e,e,a,1q,1o,1n,1o,1o,1o,1o,1o,1o,1s
b,c,e,d,d,a,1q,1o,1o,1o,1n,1o,1n,1o,1t,d
d,b,c,e,a,a,a,1r,1o,1o,1o,1o,1o,1t,e,d
e,e,u,v,a,a,a,a,a,a,a,b,c,e,d,e
v,d,s,t,a,a,a,a,a,u,v,a,d,d,d,e
WAL s,t,u,v,c,b,1n,1o
EXT 8,0 0 8,15
EXT 7,0 0 7,15
EXT 6,0 0 6,15
EXT 9,0 0 6,15
EXT 4,15 3 4,0
EXT 5,15 3 5,0
EXT 6,15 3 6,0
EXT 7,15 3 7,0
EXT 8,15 3 8,0
PAL 0

ROOM 2
f,f,f,f,f,f,f,f,f,f,f,f,f,f,f,f
f,f,f,f,f,f,f,f,f,f,f,f,f,f,f,f
f,f,f,f,f,f,f,f,f,f,f,f,f,f,f,f
f,f,12,1i,1h,12,12,1i,1h,12,12,12,1g,12,f,f
f,f,w,y,0,0,0,0,0,0,0,0,0,0,f,f
f,f,x,z,0,0,0,0,0,0,0,0,0,0,f,f
f,f,10,11,0,13,15,14,0,0,1e,1d,1f,0,f,f
f,f,0,0,0,16,18,17,0,0,1e,1c,1f,0,f,f
f,f,0,0,0,16,18,17,0,0,0,0,0,0,f,f
f,f,0,0,0,1a,19,1b,0,0,0,0,0,0,f,f
f,f,0,0,0,0,0,0,0,0,0,0,0,0,f,f
f,f,0,0,0,0,0,1j,1k,0,0,0,0,0,f,f
f,f,f,f,f,f,f,f,f,f,f,f,f,f,f,f
f,f,f,f,f,f,f,f,f,f,f,f,f,f,f,f
f,f,f,f,f,f,f,f,f,f,f,f,f,f,f,f
f,f,f,f,f,f,f,f,f,f,f,f,f,f,f,f
WAL y,w,12,1d,1c,1e,1f,1g,1h,1i,s,f
EXT 7,11 0 5,6
EXT 8,11 0 5,6
PAL 1

ROOM 3
a,a,u,v,a,a,a,a,a,s,t,d,e,b,c,d
u,v,s,t,a,a,a,a,a,a,e,u,v,d,e,e
s,t,d,e,a,a,a,a,a,b,c,s,t,b,c,u
c,e,d,u,v,e,a,a,a,a,a,a,d,d,e,s
a,b,c,s,t,e,e,a,a,a,a,a,d,u,v,e
b,c,a,25,25,25,25,25,25,a,a,a,a,s,t,e
e,u,v,1v,1v,1v,1v,1v,1v,a,a,a,u,v,d,e
c,s,t,1w,1w,1w,1w,1w,1w,a,a,a,s,t,b,c
u,v,e,f,f,22,23,f,f,a,a,a,a,a,a,u
s,t,d,f,f,1l,24,f,f,a,a,a,a,a,a,s
d,u,v,21,1z,1x,1y,1z,20,a,a,a,a,a,d,26
e,s,t,l,l,l,l,l,l,a,a,a,d,d,e,d
c,d,e,e,a,a,a,a,a,a,a,a,e,e,e,d
b,c,e,e,e,a,a,a,a,a,a,d,e,e,d,e
u,v,e,a,a,a,a,a,a,a,d,d,u,v,26,27
s,t,26,27,26,27,26,27,26,27,26,27,s,t,a,a
WAL 1l,22,23,24,21,20,1z,f,25,1v,1w,v,u,t,s,k,b,c,26,27
EXT 15,11 5 0,11
EXT 15,12 5 0,12
EXT 15,13 5 0,13
EXT 4,0 1 4,15
EXT 5,0 1 5,15
EXT 6,0 1 6,15
EXT 7,0 1 7,15
EXT 8,0 1 8,15
EXT 5,10 d 7,12
EXT 6,10 d 8,12
PAL 2

ROOM 4
26,27,26,27,a,0,0,0,26,26,26,27,26,27,26,27
0,0,0,0,0,0,a,0,0,0,0,0,0,0,0,0
0,0,a,0,0,0,0,0,0,0,a,0,0,a,0,0
a,0,0,0,0,a,0,0,0,0,0,0,0,0,0,0
0,2l,2n,2o,2p,2q,2r,2s,0,a,0,0,0,a,0,0
0,2m,0,a,0,0,0,2t,0,0,0,0,0,0,0,a
a,0,0,0,0,a,0,0,0,0,0,0,0,0,0,0
0,0,a,0,0,0,0,2v,0,0,0,a,0,1f,0,a
0,0,0,0,0,0,2e,2j,3i,3i,2j,2d,0,0,0,0
a,0,0,0,1e,0,2g,28,28,28,28,2f,a,0,1f,a
0,0,0,a,0,1e,0,2h,0,0,2h,0,1f,0,0,0
0,a,0,0,0,0,0,0,a,0,0,0,0,0,a,0
2k,2k,0,0,a,0,2k,2k,2k,0,0,a,0,0,0,2k
1o,1n,2k,0,0,2k,1n,1o,1n,2k,2k,0,0,2k,2k,1n
1n,1o,1o,2k,2k,1n,1o,1o,1n,1n,1n,2k,2k,1n,1o,1o
1o,1o,1n,1o,1n,1n,1n,1n,1o,1o,1n,1n,1o,1n,1n,1n
WAL 1o,1n,2h,2g,2f,2e,2d,28,2j,1e,2l,2n,2o,2p,2q,2r,2s,26,27,2v,1f,2k
END 0 8,8
END 0 9,8
END 0 8,10
END 0 9,10
PAL 3

ROOM 5
a,u,v,a,b,c,a,a,a,a,b,c,26,27,26,27
e,s,t,u,v,a,a,a,a,a,a,a,a,a,d,u
v,d,e,s,t,a,e,a,a,a,a,a,b,c,a,s
t,a,b,c,a,a,a,a,a,a,d,a,a,u,v,a
e,u,v,a,a,a,a,e,a,a,a,a,a,s,t,a
a,s,t,a,d,a,a,a,a,a,a,a,d,a,a,b
d,e,b,c,a,a,a,a,27,26,27,26,27,26,27,26
a,a,a,b,c,a,a,2w,d,e,e,d,e,e,d,d
v,b,c,a,a,e,a,2w,e,d,e,e,d,d,e,e
t,a,a,a,a,a,e,a,d,e,g,i,i,i,h,d
26,27,26,27,a,a,a,a,e,d,1w,1w,1w,1w,1w,u
d,d,d,e,a,a,a,a,d,e,f,f,f,f,f,s
d,e,d,d,a,a,a,2x,26,q,f,1x,1y,o,n,26
d,d,e,e,e,d,a,a,a,a,l,l,l,l,l,u
27,u,v,e,d,b,c,u,v,a,a,a,a,a,a,s
d,s,t,u,v,d,a,s,t,a,a,a,a,a,b,c
WAL 2w,27,26,1w,n,o,f,g,h,s,t,u,v,2x,q,1x,1y,i,j,b,c
EXT 6,0 6 6,15
EXT 7,0 6 7,15
EXT 8,0 6 8,15
EXT 9,0 6 9,15
EXT 0,13 3 15,13
EXT 0,12 3 15,12
EXT 0,11 3 15,11
PAL 0

ROOM 6
s,t,u,v,26,26,26,u,v,g,i,i,i,h,e,d
v,a,s,t,d,e,e,s,t,1w,1w,1w,1w,1w,u,v
t,b,c,a,d,e,d,a,q,o,n,m,o,n,s,t
v,a,a,a,a,d,a,e,a,25,25,25,25,25,a,b
t,e,a,a,e,d,d,a,a,a,a,a,a,0,a,u
b,c,a,1p,1o,1o,1n,1u,a,a,a,a,a,a,a,s
2y,a,d,1o,1n,1o,1o,1o,1u,a,a,a,e,a,0,26
2y,d,e,1o,1o,1o,1o,1n,1o,1n,1u,a,a,a,a,a
2y,d,d,1o,1n,1o,1n,1o,1o,1o,1n,1u,a,a,a,a
2y,e,d,1n,1o,1n,1o,1n,1o,1n,1o,1o,1s,a,a,a
2y,d,d,1r,1o,1o,1o,1o,1n,1o,1n,1o,1s,a,a,a
2y,d,e,a,1r,1o,1n,1n,1o,1n,1o,1n,1s,d,26,26
v,d,a,a,a,a,1r,1o,1o,1n,1o,u,v,e,d,b
t,a,0,a,d,a,a,a,a,a,e,s,t,u,v,a
a,b,c,a,a,a,a,a,a,a,u,v,a,s,t,u
26,27,26,27,26,27,a,a,a,a,s,t,a,d,a,s
WAL 1n,g,h,i,j,m,n,o,q,s,t,u,v,1o,1v,1w,26,27,2y,c,b
EXT 15,10 7 0,10
EXT 15,9 7 0,9
EXT 15,8 7 0,8
EXT 15,7 7 0,7
EXT 6,15 5 6,0
EXT 7,15 5 7,0
EXT 8,15 5 8,0
EXT 9,15 5 9,0
PAL 0

ROOM 7
d,b,c,s,t,e,0,s,t,d,b,c,e,s,t,b
c,e,u,v,e,b,c,a,a,b,c,e,u,v,d,b
u,v,s,t,a,a,a,a,a,a,a,d,s,t,b,c
s,t,d,a,a,a,a,a,a,a,a,a,a,a,u,v
e,b,c,a,a,e,a,26,27,26,27,a,a,a,s,t
26,27,26,27,a,a,2w,e,d,e,d,2y,a,e,d,b
a,a,a,a,a,a,2w,g,j,j,h,2y,a,a,u,v
a,a,a,a,a,a,2w,1w,1w,1w,1w,2y,a,a,s,t
a,a,a,d,a,a,2w,f,18,18,18,2y,a,a,b,c
a,a,a,a,a,a,q,f,m,o,n,2y,e,a,a,b
a,a,a,a,a,a,a,l,l,l,l,a,a,a,u,v
27,26,27,26,a,a,a,a,0,a,a,a,a,a,s,t
c,a,a,a,a,a,a,a,0,a,a,a,a,a,a,u
d,u,v,a,a,a,e,b,c,u,v,a,2z,30,a,s
v,s,t,e,b,c,u,v,e,s,t,a,31,32,a,e
t,d,u,v,d,e,s,t,d,d,e,u,v,e,u,v
WAL v,u,t,s,27,26,25,q,18,i,h,g,1w,n,o,1v,j,2y,2w,b,c,f,m
EXT 12,14 a 4,10
EXT 13,14 a 5,10
EXT 13,13 a 5,9
EXT 12,13 a 4,9
PAL 0

ROOM 8
a,a,u,v,a,a,a,a,a,s,t,d,e,b,c,d
u,v,s,t,a,a,a,a,a,a,e,u,v,d,e,e
s,t,a,a,a,a,a,a,a,b,c,s,t,b,c,u
c,a,a,u,v,a,a,a,a,a,a,a,d,d,e,s
a,b,c,s,t,a,a,a,a,a,a,a,d,u,v,e
b,c,a,25,25,25,25,25,25,a,a,a,e,s,t,e
e,u,v,1v,1v,1v,1v,1v,1v,a,a,a,u,v,d,e
c,s,t,1w,1w,1w,1w,1w,1w,a,a,a,s,t,b,c
u,v,e,f,f,22,23,f,f,a,a,a,a,a,a,u
s,t,d,f,f,1l,24,f,f,a,a,a,a,a,a,s
d,u,v,21,1z,1x,1y,1z,20,a,a,a,a,a,d,2w
e,s,t,l,l,l,l,l,l,a,a,a,d,d,e,2w
c,d,e,e,a,a,a,a,a,a,a,a,e,e,e,2w
b,c,e,e,e,a,a,a,a,a,a,d,e,e,d,2w
u,v,e,a,a,a,a,a,a,a,d,d,u,v,26,27
s,t,26,27,a,a,a,a,26,27,26,27,s,t,a,a
WAL 1l,22,23,24,21,20,1z,f,25,1v,1w,v,u,t,s,k,b,c,26,2w,1x,1y,27
EXT 7,15 4 7,0
EXT 6,15 4 6,0
EXT 5,15 4 5,0
EXT 4,15 4 4,0
PAL 2

ROOM a
c,d,u,v,e,s,t,u,v,d,b,c,s,t,e,u
u,v,s,t,b,c,a,s,t,u,v,e,b,c,e,s
s,t,b,c,e,a,a,a,a,s,t,a,d,e,u,v
u,v,e,d,e,a,a,a,a,a,a,a,a,a,s,t
s,t,d,a,p,p,p,a,a,a,e,d,a,a,u,v
b,c,a,g,j,j,j,h,a,d,d,e,a,a,s,t
v,a,a,o,n,m,o,n,a,a,e,a,a,u,v,a
t,a,a,k,l,k,l,k,q,a,a,a,a,s,t,a
u,v,a,a,a,a,a,a,a,a,a,a,a,a,a,u
s,t,a,a,2z,30,a,a,a,a,a,a,a,a,a,s
v,u,v,a,31,32,a,a,a,d,a,a,a,a,b,c
t,s,t,e,d,a,a,a,a,a,d,a,a,u,v,a
b,c,e,d,e,d,a,a,a,a,a,a,e,s,t,a
c,d,e,d,e,e,a,a,a,a,a,d,d,e,u,v
u,v,d,b,c,a,a,a,a,a,a,b,c,e,s,t
s,t,u,v,b,c,a,a,a,a,b,c,u,v,a,a
WAL b,c,u,t,s,v,f,g,h,i,j,n,o
EXT 6,15 b 6,0
EXT 7,15 b 7,0
EXT 8,15 b 8,0
EXT 9,15 b 9,0
EXT 5,6 c 7,11
PAL 0

ROOM b
c,a,s,t,u,v,a,a,a,a,u,v,s,t,b,c
a,u,v,a,s,t,a,a,a,a,s,t,a,u,v,a
v,s,t,b,c,a,a,a,a,a,a,b,c,s,t,b
t,a,d,a,d,a,a,a,a,a,a,a,a,e,e,d
b,c,d,e,d,e,a,a,a,a,a,a,d,e,d,u
v,a,a,d,e,d,a,a,a,a,a,d,e,d,e,s
t,u,v,a,a,a,a,a,a,a,e,e,d,a,b,c
a,s,t,a,a,a,a,a,a,a,1p,1o,1o,1o,1u,a
c,d,a,a,a,a,a,a,1p,1o,1n,1o,1n,1o,1o,1s
b,c,e,a,a,a,a,1p,1o,1n,1o,1n,1o,1o,1n,u
v,e,d,e,a,a,1q,1o,1o,1o,1n,1o,1o,1n,1o,s
t,e,d,e,e,a,1q,1o,1n,1o,1o,1o,1o,1o,1o,1s
b,c,e,d,d,a,1q,1o,1o,1o,1n,1o,1n,1o,1t,d
d,b,c,e,a,a,a,1r,1o,1o,1o,1o,1o,1t,e,d
e,e,u,v,a,a,a,a,a,a,a,b,c,e,d,e
v,d,s,t,a,a,a,a,a,u,v,a,d,d,d,e
WAL s,t,u,v,c,b,1n,1o
EXT 4,15 8 4,0
EXT 5,15 8 5,0
EXT 6,15 8 6,0
EXT 7,15 8 7,0
EXT 8,15 8 8,0
PAL 0

ROOM c
f,f,f,f,f,f,f,f,f,f,f,f,f,f,f,f
f,f,f,f,f,f,f,f,f,f,f,f,f,f,f,f
f,f,f,f,f,f,f,f,f,f,f,f,f,f,f,f
f,f,12,1i,1h,12,12,1i,1h,12,12,12,1g,12,f,f
f,f,w,y,0,0,0,0,0,0,0,0,0,0,f,f
f,f,x,z,0,0,0,0,0,0,0,0,0,0,f,f
f,f,10,11,0,13,15,14,0,0,1e,1d,1f,0,f,f
f,f,0,0,0,16,18,17,0,0,1e,1c,1f,0,f,f
f,f,0,0,0,16,18,17,0,0,0,0,0,0,f,f
f,f,0,0,0,1a,19,1b,0,0,0,0,0,0,f,f
f,f,0,0,0,0,0,0,0,0,0,0,0,0,f,f
f,f,0,0,0,0,0,1j,1k,0,0,0,0,0,f,f
f,f,f,f,f,f,f,f,f,f,f,f,f,f,f,f
f,f,f,f,f,f,f,f,f,f,f,f,f,f,f,f
f,f,f,f,f,f,f,f,f,f,f,f,f,f,f,f
f,f,f,f,f,f,f,f,f,f,f,f,f,f,f,f
WAL y,w,12,1d,1c,1e,1f,1g,1h,1i,s,f
EXT 7,11 a 5,6
EXT 8,11 a 5,6
PAL 1

ROOM d
f,f,f,f,f,f,f,f,f,f,f,f,f,f,f,f
f,f,f,f,f,f,f,f,f,f,f,f,f,f,f,f
f,f,12,1g,12,1i,1h,12,12,1g,12,1i,1h,12,f,f
f,f,0,0,3f,0,0,0,0,0,0,0,0,0,f,f
f,f,3g,0,1j,1k,0,0,0,1j,1k,0,0,0,f,f
f,f,3h,0,0,0,0,0,0,0,0,0,0,0,f,f
f,f,3d,3d,3e,3d,3d,3e,3d,3d,3c,0,3b,3d,f,f
f,f,33,33,33,33,33,33,33,39,34,0,35,3a,f,f
f,f,l,l,l,l,l,l,l,l,l,m,l,l,f,f
f,f,2j,2j,2j,2j,2j,2j,2j,2j,2j,0,2j,2j,f,f
f,f,37,1f,0,0,0,0,0,0,0,0,0,0,f,f
f,f,36,0,0,0,13,15,15,14,0,0,0,0,f,f
f,f,0,0,0,0,1a,19,19,1b,0,0,0,0,f,f
f,f,f,f,f,f,f,f,f,f,f,f,f,f,f,f
f,f,f,f,f,f,f,f,f,f,f,f,f,f,f,f
f,f,f,f,f,f,f,f,f,f,f,f,f,f,f,f
WAL f,l,12,1h,1i,1g,3g,3h,3f,36,37,3d,3e,1f
EXT 7,12 3 5,10
EXT 8,12 3 6,10
PAL 1

TIL 10
01010101
01101000
01000101
01101010
01010001
00101010
00011111
00000000

TIL 11
00010010
10101010
01000110
00101010
01010010
10001100
11111000
00000000

TIL 12
00000000
00000000
00000000
00000000
11111111
00000000
11111111
11111111

TIL 13
00000000
01111111
01000000
01011111
01011111
01011111
01011111
01011111

TIL 14
00000000
11111110
00000010
11111010
11111010
11111010
11111010
11111010

TIL 15
00000000
11111111
00000000
11111111
11111111
11111111
11111111
11111111

TIL 16
01011111
01011111
01011111
01011111
01011111
01011111
01011111
01011111

TIL 17
11111010
11111010
11111010
11111010
11111010
11111010
11111010
11111010

TIL 18
11111111
11111111
11111111
11111111
11111111
11111111
11111111
11111111

TIL 19
11111111
11111111
00000000
11111111
00000000
00000000
00000000
00000000

TIL 20
11111111
11111111
00111111
11011111
10011111
00111111
11111111
11111111

TIL 21
11111111
11111111
11111100
11111011
11111001
11111100
11111111
11111111

TIL 22
11111111
11111111
11111111
11111111
00000000
11111111
00010001
01010001

TIL 23
11111111
11111111
11111111
11111111
00000000
11111111
10001000
10011101

TIL 24
11001101
10001101
11111111
00000000
11111111
11111111
11111111
11111111

TIL 25
11111111
00000000
11111111
00100100
11111111
10010010
11111111
01001001

TIL 26
00000000
00000100
00000000
01000010
11111111
01000010
11111111
01000010

TIL 27
00000000
00000000
00001000
00100001
11111111
00100001
11111111
00100001

TIL 28
00000000
00000000
00000000
00000000
00000000
00000000
00000000
11111111

TIL 30
00000000
01001000
00000100
10100000
11100010
11100000
11111000
11111001

TIL 31
00011111
01011111
01000111
00001111
00000011
00100000
00000000
00001000

TIL 32
11111000
11111000
11110010
11100000
11000000
00000000
00100100
00000000

TIL 33
00000000
11111111
00000000
00000000
00000000
11111111
00000000
00000000

TIL 34
00000000
00000000
00000000
00000000
00000000
11111100
00000010
00000001

TIL 35
00000000
00000000
00000000
00000000
00000000
00111111
01000000
10000000

TIL 36
10001001
10000001
10011101
10000001
10000001
01111110
01000010
01000010

TIL 37
00111100
01000010
10000001
10000001
10110001
10110001
10000101
10000001

TIL 38
00000000
00000000
11111111
00000000
00000000
00000000
00000000
00000000

TIL 39
00000001
11111110
00000000
00000000
00000000
11111111
00000000
00000000

TIL a
00000000
00000100
00000000
00000001
00000000
00000000
01000000
00000000

TIL b
00000011
00000110
00001000
00011010
00010010
00110100
00100110
01001010

TIL c
10000000
11000000
00110000
11010000
00001000
10111100
10000110
01101010

TIL d
00000000
00100010
00010000
00000100
00001110
01000100
00100000
00000010
>
00000000
01000100
00100000
00001000
00011100
10001000
01000000
00000100

TIL e
00000010
00100000
01110000
00100000
00000010
00000000
01001000
00000000
>
00000001
00010000
00111000
00010000
00000001
00000000
00100100
00000000

TIL f
11111111
11111111
11111111
11111111
11111111
11111111
11111111
11111111

TIL g
00000011
00001111
00011010
00110101
01111111
11010110
10101101
11111111

TIL h
11100000
11111000
01011100
10101110
11111111
01101011
10110101
11111111

TIL i
11111111
11011011
10110111
11111110
11011111
10110101
11101011
11111111

TIL j
11111111
11011011
10110111
11111110
11011111
10110101
11101011
11111111

TIL k
10000001
00100100
11111111
01001001
11111111
00100100
11111111
10010010

TIL l
11111111
00000000
11111111
00100100
11111111
10010010
11111111
01001001

TIL m
00000000
01111110
11000011
10111101
10000001
10000101
10000101
10000001

TIL n
11111111
11111111
00011111
00101111
01001111
00011111
11111111
11111111

TIL o
11111111
11111111
11111100
11111001
11111000
11111100
11111111
11111111

TIL p
00000000
00001000
00000000
00000010
00000000
00100000
00000000
11111111

TIL q
00000000
00000100
00011110
00101110
00101110
00010100
00000100
01000100

TIL r
00000000
00000000
00000000
00000000
00000000
00000000
00000000
00000110

TIL s
01000000
00101100
00010010
00001101
00000101
00000110
01001010
00010111

TIL t
01100100
00001100
10101000
11010001
10100000
11100010
01010000
10101000

TIL u
00000000
00001101
00010010
00110000
01001101
00101000
01000010
01010110

TIL v
00000000
10110000
01001001
00001000
01000100
00100100
00001010
10110100

TIL w
00000000
00111111
01111111
01100000
01110000
01110000
01100000
01111111

TIL x
01111111
01101010
01000100
01101010
01010001
01001010
01010100
01100010

TIL y
00000000
11111100
11111110
00000110
00001110
00001110
00000110
11111110

TIL z
10001110
11000110
01100010
10110010
00011010
10101110
01000110
10101010

TIL 1a
01011111
01011111
01000000
01111111
00000000
00000000
00000000
00000000

TIL 1b
11111010
11111010
00000010
11111110
00000000
00000000
00000000
00000000

TIL 1c
10000001
10000001
10000001
10000001
10000001
01111110
01000010
01000010

TIL 1d
00111100
01000010
10000001
10000001
10000001
10000001
10000001
10000001

TIL 1e
00000000
00000000
00111000
00101000
00111110
00111110
00101010
00101010

TIL 1f
00000000
00000000
00011100
00010100
01111100
01111100
01010100
01010100

TIL 1g
00000000
00111100
01010010
01010010
10111101
00000000
11111111
11111111

TIL 1h
00000000
11111100
00010010
00010010
11111101
00000000
11111111
11111111

TIL 1i
00000000
00111111
01001000
01001000
10111111
00000000
11111111
11111111

TIL 1j
00000000
00000000
01111111
01000000
01011111
01000000
01111111
00000000

TIL 1k
00000000
00000000
11111110
00000010
11111010
00000010
11111110
00000000

TIL 1l
00010101
01110001
11111111
00000000
11111111
11111111
11111111
11111111

TIL 1n
11111111
11011111
10101101
11011111
11111011
11110101
10111011
11111111
>
11111111
11101111
11010111
11101111
11111101
11011011
10111111
11110111

TIL 1o
11111111
11111111
11111101
11111011
11011111
10111111
11111111
11110111
>
11111111
11111111
11111011
11110111
11111111
10111111
01111011
11111111

TIL 1p
00000000
00000101
00000001
00000001
00000001
00000001
00000001
11111111

TIL 1q
00000001
00000101
00000001
00000001
00000001
00000001
01000001
00000001

TIL 1r
11111111
00000001
00000001
00000001
00001001
00000001
01000001
00000001

TIL 1s
10000000
10000100
10000000
10000001
10000000
10100000
10000000
10000000

TIL 1t
11111111
10000000
10000100
10000000
10000001
10100000
10000000
10000000

TIL 1u
00000000
10000100
10000000
10000001
10010000
10000000
10000000
11111111

TIL 1v
11111111
00100100
11111111
10010010
11111111
01001001
11111111
00100100

TIL 1w
11111111
00100100
11111111
10010010
11111111
01001001
00000000
01010101

TIL 1x
11111111
11110000
11100011
01110111
01100011
11100000
11110000
11100000

TIL 1y
11111111
00001111
11000111
11100110
11000110
00011111
00000111
00000111

TIL 1z
11111111
11111111
00000000
11011110
10110101
00000000
11111111
10000001

TIL 2d
11000000
00110000
00001000
00000100
00000100
00000010
00000010
00000010

TIL 2e
00000011
00001100
00010000
00100000
00100000
01000000
01000000
01000000

TIL 2f
00000010
00000010
00000010
00000100
00000100
00001000
00110000
11000000

TIL 2g
01000000
01000000
01000000
00100000
00100000
00010000
00001100
00000011

TIL 2h
00101000
00101000
00101000
00101000
00101000
00101000
00010000
00000000

TIL 2j
11111111
00000000
00000000
00000000
00000000
00000000
00000000
00000000

TIL 2k
00000000
00000000
00110011
11001100
00110011
11111111
11010110
10111101
>
00000000
00000000
11001100
00110011
11111111
11011011
10110101
11111011

TIL 2l
00000000
01111111
01010110
01000101
01010101
01111111
01111111
01000000
>
00000000
01000000
01111111
01010110
01000101
01010101
01111111
01111111

TIL 2m
01000000
01000000
01000000
01000000
00000000
00000000
00000000
00000000

TIL 2n
00000000
11111111
11100110
01000100
01011101
11111111
11111111
00000000
>
00000000
00000000
11111111
11100110
01000100
01011101
11111111
11111111

TIL 2o
00000000
11111111
01010110
01101110
11101110
11111111
11111111
00000000
>
11111111
01010110
01101110
11101110
11111111
11111111
00000000
00000000

TIL 2p
00000000
11111111
00101000
01101001
00101010
11111111
11111111
00000000
>
00000000
00000000
11111111
00101000
01101001
00101010
11111111
11111111

TIL 2q
00000000
00000000
11111111
10001010
11011000
11011010
11111111
11111111
>
00000000
11111111
10001010
11011000
11011010
11111111
11111111
00000000

TIL 2r
00000000
11111111
10011101
10101010
10011010
11111111
11111111
00000000
>
00000000
00000000
11111111
10011101
10101010
10011010
11111111
11111111

TIL 2s
00000000
11111000
10101000
11011000
11011000
11111000
11111000
00001000
>
00000000
00001000
11111000
10101000
11011000
11011000
11111000
11111000

TIL 2t
00001000
00001000
00001000
00001000
00000000
00000000
00000000
00000000

TIL 2v
00000000
00111000
00101000
00111000
00111110
00101010
00101010
00000000

TIL 2w
00000001
00000011
00000001
00000001
00001001
00000001
01000011
00000001

TIL 2x
00000001
00000011
00000001
00000001
00001000
00000000
01000000
00000000

TIL 2y
10000000
11000000
10000000
10001000
10000000
10000000
11000010
10000000

TIL 2z
00000000
01000010
00010000
10000011
00001111
00011111
01011111
00011111

TIL 3a
10000000
01111111
00000000
00000000
00000000
11111111
00000000
00000000

TIL 3b
00000000
00000000
00000000
00000000
00000001
00000001
00000001
00000001

TIL 3c
00000000
00000000
00000000
00000000
10000000
10000000
10000000
10000000

TIL 3d
00000000
00000000
00000000
11111111
00000000
00000000
00000000
00000000

TIL 3e
00000000
01111110
11000011
10100101
10011001
10000001
11111111
00000000

TIL 3f
00000000
01111110
10000001
10010101
10000001
01111110
00100100
00000000

TIL 3g
00000000
11000000
00110000
00001000
01001000
00101000
00001000
00001000

TIL 3h
00101000
00001000
01101000
00001000
00001000
00110000
11000000
00000000

TIL 3i
11111111
00000000
00000000
00000000
00000000
00000000
00000000
00000000

SPR 10
00000000
00001100
00011100
00000100
00000100
00011110
01100110
01011001
>
00000000
00000110
00001110
00000010
00000100
00011110
01110011
01001101
POS 4 13,8

SPR 11
00000000
00001010
00001010
00011110
00111010
01111110
11111100
01110100
>
00000000
00000000
00001010
00001010
00011110
00111010
01111110
11111100
POS 4 4,8

SPR 12
00000000
00010100
00001110
11001111
01011100
11111100
11111100
01110100
>
00000000
00000000
00010100
00001110
01101111
11011100
11111100
01111100
POS 4 6,6

SPR 13
00000000
00000000
00000000
00011110
10111111
11111111
01111111
00100010
>
00000000
00000000
00000000
00000000
00011110
00111111
00111111
00011111
POS 4 14,10

SPR 14
00000000
00001001
00001111
00011111
00111011
01011111
01111111
00111111
>
00000000
00000000
00001001
00001111
00011111
00111011
01011111
01111111
POS 4 10,4

SPR 15
00000000
00000000
10000000
11100000
11111000
11111100
11111110
11111111
>
00000000
00000000
00000000
10000000
11100000
11111000
11111100
11111110
POS 4 11,4

SPR 16
00111111
00011111
00011111
00011101
00001101
00000000
00000000
00000000
>
00111111
00111111
00011111
00011111
00011101
00000000
00000000
00000000
POS 4 10,5

SPR 17
11111111
11111110
11111110
11101110
11101100
00000000
00000000
00000000
>
11111111
11111111
11111110
11111110
11101110
00000000
00000000
00000000
POS 4 11,5

SPR 19
00000110
00000100
00011110
00101110
00101110
00010100
00000100
00000100

SPR 20
00100000
00010000
10010100
01001001
00101010
01111110
00111100
00111100
POS d 2,12

SPR 21
00000100
00010100
01010010
00100101
00101000
01111110
00111100
00111100
POS d 13,12

SPR 22
00000000
00000000
00000000
01111110
10000001
11100111
10011001
01100110
POS d 13,4

SPR 23
00000000
00000000
00000000
01111110
10000001
11100111
10011001
01100110
POS d 13,5

SPR 24
00000000
00111110
00111110
00101010
01110010
01011110
01110000
00000000
POS d 10,3

SPR 25
00000000
01111110
01000010
01011010
01000010
00111100
00011000
01111110
POS d 7,3

SPR 26
10000001
10000001
10011001
10100101
11000011
01000010
00100100
00011000
POS d 12,3

SPR 27
10000001
11110001
10101001
10101001
11110001
10000001
10000001
10000001
POS d 12,2

SPR 28
00011100
00101010
01001010
11001010
01110010
01000010
01000010
01111110
POS d 13,10

SPR 29
01000010
00000000
00000000
00000000
00000000
00000000
00000000
00000000
POS d 13,11

SPR A
00000000
00000000
00110110
00101101
01111111
01100001
01111110
01101010
>
00000000
00000000
00000000
00110110
00101101
01111111
01100001
01111110
POS 0 3,9

SPR a
00000000
00000000
00000000
00011100
00110100
00011110
00011110
00010100
>
00000000
00000000
00011100
00110100
00011110
00011110
00100100
00000000
POS 0 12,10

SPR b
00000110
00000100
00011110
00101110
00101110
00010100
00000100
00000100
POS 0 8,7

SPR d
00000000
00000000
01111110
01000010
01011010
01100110
01111110
01000010
POS 2 4,4

SPR e
00000000
01111110
10000001
10100101
10000001
11111111
11100111
11111111
POS 2 11,4

SPR f
00000000
00011100
00010100
01101110
01010010
01000010
01111110
01000010
>
00000000
00011100
00010100
01101110
01000010
01010010
01111110
01000010
POS 2 12,4

SPR g
01111110
01100110
00111100
01000010
01111110
01111010
01111110
01111110
POS 2 10,4

SPR h
00000000
00000000
11111111
10010101
11111111
00000000
11100111
11111111
POS 2 9,4

SPR i
00000000
00000000
11111111
10100001
11111111
00000000
11100111
11111111
POS 2 13,4

SPR j
00000100
00010100
01010010
00100101
00101000
01111110
00111100
00111100
POS 2 6,11

SPR k
00100000
00010000
10010100
01001001
00101010
01111110
00111100
00111100
POS 2 9,11

SPR l
01111110
10000001
10100011
11110111
11110111
10000001
11011001
11111111
POS 2 2,10

SPR m
01111110
10000001
11000001
11100101
11110111
10000001
10100011
11100111
POS 2 2,11

SPR n
00110000
01111000
01111100
01111100
00101000
00100000
00100000
01111100
POS 2 13,11

SPR o
00000000
01010100
01111110
01010100
00101010
01010100
00000000
00000000
POS 2 6,3

SPR p
00000000
00001100
00011100
00000100
00000100
00011110
01100110
01011001
>
00000000
00000110
00001110
00000010
00000100
00011110
01110011
01001101
POS 1 8,6

SPR q
00000000
00001010
00001010
00011110
00111010
01111110
11111100
01110100
>
00000000
00000000
00001010
00001010
00011110
00111010
01111110
11111100
POS 1 5,9

SPR r
00000110
00000100
00011110
00101110
00101110
00010100
00000100
00000100
>
00000000
00000110
00000100
00011110
00101110
00101110
00010100
00000100
POS 3 9,11

SPR s
00000000
00000000
00000000
00011100
00100100
01111111
01111111
00100010
>
00000000
00000000
00111000
01001000
11111110
11111110
01000100
00000000
POS 2 11,9

SPR t
00000000
00111100
01100110
10000001
10010101
10000101
01111110
00111100
>
00000000
00111100
01100110
10000001
10100101
10000101
01111110
00111100
POS 2 5,4

SPR u
01111110
10000001
10100001
10100111
11110111
10000011
11001011
11101111
POS 2 2,9

SPR v
00000000
01111110
10000001
10110101
10000001
01111110
00100100
00100100
POS 3 8,14

SPR w
00000000
01111110
10000001
10110101
10000001
01111110
00100100
00100100
POS 3 14,10

SPR x
00000000
00010101
00010101
00111111
00100000
00111111
00100000
01111111
>
00000000
00001010
00010101
00111111
00100000
00111111
00100000
01111111
POS 4 8,9

SPR y
00000000
01010000
01010000
11111000
00001000
11111000
00001000
11111100
>
00000000
10101000
01010000
11111000
00001000
11111000
00001000
11111100
POS 4 9,9

SPR z
00000000
00000000
00000000
00111000
00101100
01111000
01111000
00101000
>
00000000
00000000
00111000
00101100
01111000
01111000
00100100
00000000
POS 4 3,2

SPR 1a
00000000
01111110
10000001
10110101
10000001
01111110
00100100
00100100
POS 5 10,1

SPR 1b
00000000
00101000
01110000
11110011
00111010
00111111
00111111
00101110
>
00000000
00000000
00101000
01110000
11110110
00111011
00111111
00111110
POS 5 11,14

SPR 1c
00000000
01111110
10000001
10110101
10000001
01111110
00100100
00100100
POS 6 14,6

SPR 1d
00000000
00000000
00000000
00011110
10111111
11111111
01111111
00100010
>
00000000
00000000
00000000
00000000
00011110
00111111
00111111
00011111
POS 6 13,4

SPR 1e
00000110
00000100
00011110
00101110
00101110
00010100
00000100
00000100
>
00000000
00000110
00000100
00011110
00101110
00101110
00010100
00000100
POS a 8,7

SPR 1f
00000000
00001001
00001111
00011111
00111011
01011111
01111111
00111111
>
00000000
00000000
00001001
00001111
00011111
00111011
01011111
01111111
POS 7 8,11

SPR 1g
00000000
00000000
10000000
11100000
11111000
11111100
11111110
11111111
>
00000000
00000000
00000000
10000000
11100000
11111000
11111100
11111110
POS 7 9,11

SPR 1h
00111111
00011111
00011111
00011101
00001101
00000000
00000000
00000000
>
00111111
00111111
00011111
00011111
00011101
00000000
00000000
00000000
POS 7 8,12

SPR 1i
11111111
11111110
11111110
11101110
11101100
00000000
00000000
00000000
>
11111111
11111111
11111110
11111110
11101110
00000000
00000000
00000000
POS 7 9,12

SPR 1j
00000000
01111110
10000001
10110101
10000001
01111110
00100100
00100100
POS 8 14,10

SPR 1k
00000000
01111110
10000001
10110101
10000001
01111110
00100100
00100100
POS 8 8,14

SPR 1l
00000000
00000000
01111110
01000010
01011010
01100110
01111110
01000010
POS c 4,4

SPR 1m
00000000
01111110
10000001
10100101
10000001
11111111
11100111
11111111
POS c 11,4

SPR 1n
00000000
00011100
00010100
01101110
01000010
01000010
01111110
01000010
>
00000000
00011100
00010100
01101110
01000010
01000010
01111110
01000010
POS c 12,4

SPR 1o
00000000
00000000
11111111
10100001
11111111
00000000
11100111
11111111
POS c 13,4

SPR 1p
00000000
00000000
11111111
10010101
11111111
00000000
11100111
11111111
POS c 9,4

SPR 1q
01111110
01100110
00111100
01000010
01111110
01111010
01111110
01111110
POS c 10,4

SPR 1r
00100000
00010000
10010100
01001001
00101010
01111110
00111100
00111100
POS c 6,11

SPR 1s
00000100
00010100
01010010
00100101
00101000
01111110
00111100
00111100
POS c 9,11

SPR 1t
01111110
10000001
10100001
10100111
11110111
10000011
11001011
11101111
POS c 2,9

SPR 1u
01111110
10000001
11000001
11100101
11110111
10000001
10100011
11100111
POS c 2,11

SPR 1v
01111110
10000001
10100011
11110111
11110111
10000001
11011001
11111111
POS c 2,10

SPR 1w
00000000
00000000
00000000
00011100
00100100
01111111
01111111
00100010
>
00000000
00000000
00111000
01001000
11111110
11111110
01000100
00000000
POS c 11,9

SPR 1x
00110000
01111000
01111100
01111100
00101000
00100000
00100000
01111100
POS c 13,11

SPR 1y
00000000
01010100
01111110
01010100
00101010
01010100
00000000
00000000
POS c 6,3

SPR 1z
00000000
00111100
01100110
10000001
10010101
10000101
01111110
00111100
>
00000000
00111100
01100110
10000001
10100101
10000101
01111110
00111100
POS 4 1,7

SPR 2a
00000110
00000100
00011110
00101110
00101110
00010100
00000100
00000100
POS 8 9,11

SPR 2b
00000000
01111110
10000001
10110101
10000001
01111110
00100100
00100100
POS 7 13,12

DLG 10
happy birthday, frog. i hope you like the brand new fishing pole i got you.

DLG 11
hey frog, happy birthday! here - i picked you a wonderful bouquet of flowers. don't they smell just wonderful?

DLG 12
happiest of birthdays my good pal, frog. i know you were learning, so i got you some knitting needles. i hope they come to good use!

DLG 13
hi there frog! i heard your faucet was leaking - i hope you don't mind, but i fixed that for you earlier today. happy birthday!

DLG 14
frog! glad you could make it. happy birthday! i baked you the most wonderful cake, using a recipe in that magazine you delivered to me. i hope it tastes good!

DLG 15


DLG 16
frog! glad you could make it. happy birthday! i baked you the most wonderful cake - i used some of my famous blueberries. i hope you enjoy it.

DLG 17


DLG 18
hey! there's no more letters to deliver... you should head home for the day. 

DLG 19
it's empty.

DLG 20
a potted plant.

DLG 21
a potted plant.

DLG 22
a mail bin. it's empty.

DLG 23
a mail bin. it holds a few letters that need to be sorted.

DLG 24
a pile of letters.

DLG 25
the computer system. it helps you sort the incoming and outgoing mail.

DLG 26
a mail tube. it helps pour the letters into bins.

DLG 27
a mail tube. it helps pour the letters into bins.

DLG 28
a mailbox.

DLG 29
a mailbox.

DLG a
hey! you're late! better head to the post office, there's letters to be delivered!

DLG b
it's empty.

DLG d
a nightstand. your diary is laying here.

DLG e
a stove. you're still learning the ropes, but you've made a few good meals.

DLG f
a sink. the faucet drips, but you've gotten used to it.

DLG g
a refrigerator. there's some leftovers in here.

DLG j
a potted plant.

DLG k
a potted plant.

DLG l
a bookshelf. there's some cookbooks here.

DLG m
a bookshelf. there's some books about fishing and bug-catching.

DLG n
just a lamp.

DLG o
a calendar. today's date is circled.

DLG p
hello. it's a lovely day for fishing, don't you think?

DLG q
good morning, frog! don't the flowers look lovely?

DLG r
it's full of letters! you picked up the letters - better get delivering!

DLG s
your favorite toy truck.

DLG t
your pet fish. he's happy to see you.

DLG u
a bookshelf. there's a book about knitting, some yarn, and a few puzzles.

DLG v
TO THE BEACH

DLG w
TO FOX'S

DLG y
a delicious buttercream and blueberry cake. the candles blow gently in the wind.

DLG z
...surprise...! happy birthday frog! while you were out delivering letters, we set up this little party for you. oh, yeah! i caught you this wonderful worm, i hope he becomes your friend.

DLG x
a delicious buttercream and blueberry cake. the candles blow gently in the wind.

DLG 1a
TO TURTLE'S

DLG 1b
good morning, frog. a letter, for me? why thank you!

DLG 1c
TO BEAR'S

DLG 1d
hey there frog! do you have my package...? oh, wonderful! thank you kindly.

DLG 1e
hm... what's this? you have a letter! there's no sender, but it reads "go to the beach..."

DLG 1f
oh frog, it's good to see you! do you have my very-berry magazine to deliver today? ...excellent! i've been waiting for this latest issue, i was worried it wouldn't arrive on time...

DLG 1j
TO FOX'S

DLG 1k
TO THE BEACH

DLG 1z
your fish blows some bubbles happily.

DLG 1m
a stove. you're still learning the ropes, but you've made a few good meals.

DLG 1n
a sink. the faucet... stopped dripping?

DLG 1w
your favorite toy truck. it's amazing this thing doesn't run out of batteries...!

DLG 1x
still just a lamp.

DLG 1y
a calendar. today's date is circled.

DLG 1r
a potted plant... did it switch places...?

DLG 1s
a potted plant... did it switch places...?

DLG 1q
a refrigerator. there's some leftovers in here.

DLG 1l
a nightstand. your diary is laying here... slightly moved?

DLG 1t
a bookshelf. there's a book about knitting, some yarn, and a few puzzles.

DLG 1u
a bookshelf. there's some books about fishing and bug-catching.

DLG 1v
a bookshelf. there's some cookbooks here.

DLG 2a
it's empty.

DLG 2b
SHORTCUT HOME

END 0
you admire the beautiful cake that bear has baked for you... a delicious buttercream and blueberry cake. the candles blow gently in the wind. you look at all of your friends... they truly did surprise you! closing your eyes, all of your friends start singing. as the song ends, you wish very, very hard... with all your might...!... and blow out the candles. you hope tomorrow will be as special as today...

