Welcome to Bonetown...

# BITSY VERSION 5.2

! ROOM_FORMAT 1

PAL 0
0,0,0
175,191,207
255,255,255

ROOM 0
1i,f,f,f,1i,f,1i,1i,f,f,f,1i,f,1i,f,f
w,w,w,w,w,w,w,w,w,w,w,w,l,w,w,w
t,w,l,w,w,l,w,w,w,w,l,w,w,w,w,s
w,w,m,w,w,w,w,w,m,w,w,w,w,j,g,g
w,w,w,w,w,w,w,w,w,w,w,m,w,h,1i,f
g,g,g,g,g,g,g,g,p,w,w,w,w,h,x,x
f,f,1i,1i,f,f,f,f,n,w,m,w,w,h,x,m
x,x,x,x,x,x,x,x,o,g,g,g,g,q,x,x
x,x,x,x,x,0,x,x,f,f,1i,1i,f,f,x,0
t,m,x,x,x,l,x,x,l,x,x,x,x,x,l,s
x,x,x,x,x,e,x,x,x,x,x,m,x,x,x,x
x,x,x,x,x,x,x,x,x,x,x,x,x,x,x,x
r,r,r,r,r,r,r,r,r,r,r,r,r,r,r,r
d,d,d,d,d,d,d,d,d,d,d,d,d,d,d,d
d,d,d,d,d,d,d,d,d,d,d,d,d,d,d,d
d,d,d,d,d,d,d,d,d,d,d,d,d,d,d,d
EXT 0,9 1 15,9
EXT 15,9 2 0,9
EXT 15,2 2 0,2
EXT 0,2 1 15,2
PAL 0

ROOM 1
n,0,u,f,f,f,1i,f,1i,f,f,f,1i,f,f,f
n,w,w,m,w,w,w,w,w,w,w,w,w,m,w,w
n,w,w,w,w,w,w,w,w,l,w,w,w,w,w,s
n,w,w,w,w,m,w,w,w,w,w,w,w,w,w,w
n,w,w,w,w,w,w,w,w,w,w,w,w,m,w,w
n,w,w,j,g,g,g,g,g,g,g,g,g,g,g,g
n,l,w,h,f,f,1i,1f,f,f,f,1i,1i,1i,f,f
n,w,w,h,x,x,x,e,x,x,x,x,x,x,x,x
n,w,w,h,x,x,x,l,x,x,x,x,m,x,x,x
n,w,w,h,x,x,x,x,x,x,x,x,x,x,x,s
n,w,m,h,x,m,x,x,x,x,l,x,x,x,x,x
n,w,w,h,x,x,x,x,x,x,x,x,x,l,x,x
n,w,w,h,r,r,r,r,r,r,r,r,r,r,r,r
o,g,g,k,d,d,d,d,d,d,d,d,d,d,d,d
f,f,1i,f,d,d,d,d,d,d,d,d,d,d,d,d
r,r,r,r,d,d,d,d,d,d,d,d,d,d,d,d
EXT 15,9 0 0,9
EXT 15,2 0 0,2
EXT 2,0 4 1,15
EXT 7,6 c 6,10
PAL 0

ROOM 2
f,f,f,f,f,f,f,f,f,f,f,f,f,f,f,h
w,w,w,w,w,m,w,w,w,w,w,w,w,l,w,h
t,w,w,w,w,w,w,w,w,l,w,w,w,w,0,h
g,g,g,g,g,e,g,g,g,g,g,p,w,w,w,h
f,1i,1i,f,f,e,f,f,1i,f,f,n,m,w,w,h
x,x,x,x,x,x,x,x,x,x,x,n,w,w,l,h
x,l,x,x,x,x,x,x,x,x,x,n,w,w,w,h
x,x,x,x,x,x,x,m,x,x,x,n,w,w,w,h
x,x,m,x,x,x,x,x,x,x,x,n,w,w,w,h
t,x,x,x,x,x,x,l,x,x,x,n,l,w,w,h
x,x,x,l,x,x,x,x,x,x,x,n,w,w,w,h
x,x,x,x,x,x,x,x,x,x,x,n,w,w,m,h
r,r,r,r,r,r,r,r,r,r,r,n,w,w,w,h
d,d,d,d,d,d,d,d,d,d,d,o,g,g,g,k
d,d,d,d,d,d,d,d,d,d,d,f,1i,f,f,1i
d,d,d,d,d,d,d,d,d,d,d,d,d,d,d,d
EXT 0,9 0 15,9
EXT 0,2 0 15,2
PAL 0

ROOM 4
z,u,f,f,f,f,f,h,f,f,f,f,h,f,f,f
z,z,z,z,z,z,z,h,m,z,l,l,h,z,z,l
z,z,z,z,z,z,z,h,l,l,m,z,h,z,z,s
z,z,z,z,z,z,z,h,z,m,l,l,h,z,z,c
z,z,z,z,z,z,z,h,l,l,l,m,h,z,z,b
z,z,z,z,z,z,z,h,z,z,z,z,h,z,z,c
z,z,z,z,z,z,z,h,z,z,z,z,h,z,z,b
g,g,e,g,g,g,g,k,z,z,z,z,h,z,z,c
1i,f,e,f,1i,f,1i,f,z,z,z,z,h,z,z,b
z,z,z,z,z,z,z,z,z,z,z,z,h,z,z,c
z,z,z,z,z,z,z,z,z,z,z,z,h,z,z,b
g,g,g,g,g,g,e,g,g,g,g,g,k,z,z,c
f,1i,f,1i,f,f,e,f,f,1i,1i,f,f,z,z,b
z,z,z,z,z,z,z,z,z,z,z,z,z,z,z,c
z,z,z,z,z,z,z,z,z,z,z,z,z,z,z,b
w,v,g,g,g,g,g,g,g,g,g,g,g,g,g,g
EXT 1,15 1 2,0
EXT 15,2 5 0,2
EXT 1,0 7 1,15
PAL 0

ROOM 5
f,f,1i,1i,f,f,f,1i,f,1i,f,f,1i,1i,f,f
z,0,z,l,l,z,0,0,z,z,l,l,l,l,0,0
t,0,l,w,w,l,m,0,a,l,a,l,a,z,0,l
c,l,l,w,m,0,l,l,l,l,w,w,w,l,l,0
b,l,m,l,l,w,l,l,a,l,a,w,a,l,l,0
c,l,l,l,l,l,w,l,m,l,l,m,z,l,l,l
b,z,0,l,l,l,0,z,l,l,m,l,m,l,l,l
c,z,0,m,m,l,l,l,14,13,13,13,15,w,l,s
b,z,0,z,l,m,z,l,1c,12,12,12,1d,l,0,l
c,m,l,l,l,l,l,z,1a,c,10,c,1b,l,l,0
b,l,0,0,0,0,l,m,18,b,11,b,19,0,l,0
c,l,0,1o,l,0,l,m,l,m,e,l,l,m,0,l
b,l,0,l,l,0,l,l,l,l,m,l,l,l,0,l
c,l,0,0,0,0,l,z,a,0,a,0,a,l,z,l
b,l,l,l,l,l,l,0,0,z,0,l,0,0,0,0
g,g,g,g,g,g,g,g,g,g,g,g,g,g,g,g
EXT 0,2 4 15,2
EXT 15,7 6 0,7
EXT 10,10 i 6,10
EXT 3,11 j 9,9
PAL 0

ROOM 6
f,f,1i,f,f,f,1i,f,f,f,f,f,1i,1i,f,h
0,0,z,0,0,w,z,0,l,l,0,0,l,0,z,h
0,z,a,m,a,w,a,l,0,14,13,13,13,15,0,h
m,0,l,m,l,0,m,0,0,1c,12,12,12,1d,0,h
0,l,a,m,a,l,a,l,l,18,17,11,17,19,w,h
0,m,m,0,0,l,0,l,w,0,m,e,l,l,w,h
0,m,0,z,0,0,0,l,l,l,l,l,m,m,w,h
t,m,m,m,l,l,l,0,0,l,l,0,l,m,l,h
0,0,l,l,m,l,0,0,z,m,l,0,l,z,l,h
l,l,0,w,0,0,m,z,m,l,l,l,z,0,w,h
l,0,14,13,13,15,l,l,a,m,0,0,a,l,0,h
l,0,1c,12,12,1d,0,0,w,0,l,w,l,l,0,h
0,l,18,11,17,19,l,l,a,l,a,0,a,l,0,h
z,l,l,e,0,0,0,0,m,0,w,l,l,0,0,h
0,w,w,0,z,z,0,0,0,z,w,0,w,z,w,h
g,g,g,g,g,g,g,g,g,g,g,g,g,g,g,k
EXT 0,7 5 15,7
EXT 11,4 g 6,10
EXT 3,12 h 6,10
PAL 0

ROOM 7
f,f,1f,f,f,f,1i,f,f,1i,f,1i,f,f,f,f
c,0,e,0,n,0,0,0,0,0,0,0,0,0,0,0
b,0,0,l,n,0,0,w,0,0,z,0,l,0,w,s
c,w,0,0,n,0,0,0,l,0,0,0,0,z,0,0
b,0,z,0,n,0,0,z,0,0,0,w,0,0,0,0
c,0,0,0,n,0,0,0,0,0,0,m,0,0,0,0
b,0,w,0,o,g,e,g,g,g,g,g,g,g,g,1e
c,0,m,0,1i,f,e,f,1i,f,f,1i,f,f,f,h
b,0,0,0,0,0,0,0,0,0,0,0,0,0,0,h
c,0,0,0,z,0,0,w,0,l,0,z,0,w,0,h
b,0,w,0,0,0,0,0,0,0,0,0,0,0,0,h
g,g,g,g,g,g,g,g,g,g,g,e,g,g,g,h
1i,f,f,1i,f,f,f,1i,f,f,f,e,f,1i,f,h
0,z,0,l,0,0,0,0,m,0,w,0,z,0,0,h
w,0,0,0,0,w,0,z,0,0,0,0,l,0,0,h
0,v,g,g,g,g,g,g,g,g,g,g,g,g,g,k
EXT 1,15 4 1,0
EXT 15,2 8 0,2
EXT 2,0 a 6,10
PAL 0

ROOM 8
f,f,1i,f,f,1i,f,f,f,f,1i,1i,f,f,f,f
0,0,0,0,0,0,0,0,0,0,0,0,1i,f,f,f
t,0,0,0,0,0,0,0,0,0,0,0,0,1i,f,f
0,0,0,0,0,0,0,0,0,0,0,0,0,0,f,f
g,g,g,g,g,g,g,g,p,0,0,j,g,g,g,g
f,f,f,f,f,f,f,f,n,0,0,h,f,f,f,f
f,f,f,f,f,f,f,f,o,e,g,q,f,f,f,f
f,f,f,f,f,f,f,f,f,e,f,f,f,f,f,f
f,f,f,f,f,f,f,f,f,e,f,f,f,f,f,f
f,f,1f,1i,f,f,f,f,f,e,1i,f,f,f,f,f
f,n,e,0,h,f,f,f,n,0,0,0,h,f,f,f
f,n,0,0,10,10,10,10,10,0,0,0,10,10,10,10
f,o,g,g,k,f,f,f,o,g,g,g,k,f,f,f
f,f,f,f,f,f,f,f,f,f,f,f,f,f,f,f
f,f,f,f,f,f,f,f,f,f,f,f,f,f,f,f
f,f,f,f,f,f,f,f,f,f,f,f,f,f,f,f
EXT 0,2 7 15,2
EXT 15,11 9 0,11
EXT 2,9 b 6,10
PAL 0

ROOM 9
f,f,f,f,f,f,f,1i,1i,1i,1i,1i,f,f,f,f
f,f,f,f,f,f,1g,14,13,13,13,15,1h,f,f,f
f,f,f,f,f,f,1g,1c,12,12,12,1d,1h,f,f,f
f,f,f,f,f,f,1g,c,17,16,17,c,1h,f,f,f
f,f,f,f,f,f,1g,b,12,12,12,b,1h,f,f,f
f,f,f,f,f,f,1g,c,17,17,17,c,1h,f,f,f
f,f,f,f,f,f,1g,b,17,16,17,b,1h,f,f,f
f,f,f,f,f,n,0,c,17,17,17,c,0,h,f,f
f,f,f,f,f,n,0,b,12,12,12,b,0,h,f,f
f,f,f,f,f,n,0,c,17,17,17,c,0,h,f,f
f,f,f,f,f,n,0,b,17,11,17,b,0,h,f,f
10,10,10,10,10,10,0,0,0,e,0,0,0,h,f,f
f,f,f,f,f,n,0,0,0,0,0,0,0,h,f,0
f,f,f,f,f,o,g,g,g,g,g,g,g,k,f,f
f,f,f,f,f,f,f,f,f,f,f,f,f,f,f,0
f,f,f,f,f,f,f,f,f,f,f,f,f,f,f,f
EXT 0,11 8 15,11
EXT 9,10 d 6,10
PAL 0

ROOM a
0,0,0,0,0,0,0,0,0,0,0,0,0,0,0,0
0,0,0,0,0,0,0,0,0,0,0,0,0,0,0,0
0,0,0,0,0,0,0,0,0,0,0,0,0,0,0,0
0,0,0,0,0,0,0,0,0,0,0,0,0,0,0,0
0,0,0,0,1j,g,g,g,g,g,1e,0,0,0,0,0
0,0,0,0,n,f,f,f,f,f,h,0,0,0,0,0
0,0,0,0,n,0,0,0,0,0,h,0,0,0,0,0
0,0,0,0,n,0,0,0,0,0,h,0,0,0,0,0
0,0,0,0,n,0,0,0,0,0,h,0,0,0,0,0
0,0,0,0,n,0,0,0,0,0,h,0,0,0,0,0
0,0,0,0,o,g,e,g,g,g,k,0,0,0,0,0
0,0,0,0,0,0,1k,0,0,0,0,0,0,0,0,0
0,0,0,0,0,0,0,0,0,0,0,0,0,0,0,0
0,0,0,0,0,0,0,0,0,0,0,0,0,0,0,0
0,0,0,0,0,0,0,0,0,0,0,0,0,0,0,0
0,0,0,0,0,0,0,0,0,0,0,0,0,0,0,0
ITM 0 6,7
EXT 6,10 7 2,1
PAL 0

ROOM b
0,0,0,0,0,0,0,0,0,0,0,0,0,0,0,0
0,0,0,0,0,0,0,0,0,0,0,0,0,0,0,0
0,0,0,0,0,0,0,0,0,0,0,0,0,0,0,0
0,0,0,0,0,0,0,0,0,0,0,0,0,0,0,0
0,0,0,0,1j,g,g,g,g,g,1e,0,0,0,0,0
0,0,0,0,n,f,f,f,f,f,h,0,0,0,0,0
0,0,0,0,n,0,0,0,0,0,h,0,0,0,0,0
0,0,0,0,n,0,0,0,0,0,h,0,0,0,0,0
0,0,0,0,n,0,0,0,0,0,h,0,0,0,0,0
0,0,0,0,n,0,0,0,0,0,h,0,0,0,0,0
0,0,0,0,o,g,e,g,g,g,k,0,0,0,0,0
0,0,0,0,0,0,1k,0,0,0,0,0,0,0,0,0
0,0,0,0,0,0,0,0,0,0,0,0,0,0,0,0
0,0,0,0,0,0,0,0,0,0,0,0,0,0,0,0
0,0,0,0,0,0,0,0,0,0,0,0,0,0,0,0
0,0,0,0,0,0,0,0,0,0,0,0,0,0,0,0
ITM 4 6,7
EXT 6,10 8 2,10
PAL 0

ROOM c
0,0,0,0,0,0,0,0,0,0,0,0,0,0,0,0
0,0,0,0,0,0,0,0,0,0,0,0,0,0,0,0
0,0,0,0,0,0,0,0,0,0,0,0,0,0,0,0
0,0,0,0,0,0,0,0,0,0,0,0,0,0,0,0
0,0,0,0,1j,g,g,g,g,g,1e,0,0,0,0,0
0,0,0,0,n,f,f,f,f,f,h,0,0,0,0,0
0,0,0,0,n,0,0,0,0,0,h,0,0,0,0,0
0,0,0,0,n,0,0,0,0,0,h,0,0,0,0,0
0,0,0,0,n,0,0,0,0,0,h,0,0,0,0,0
0,0,0,0,n,0,0,0,0,0,h,0,0,0,0,0
0,0,0,0,o,g,e,g,g,g,k,0,0,0,0,0
0,0,0,0,0,0,1k,0,0,0,0,0,0,0,0,0
0,0,0,0,0,0,0,0,0,0,0,0,0,0,0,0
0,0,0,0,0,0,0,0,0,0,0,0,0,0,0,0
0,0,0,0,0,0,0,0,0,0,0,0,0,0,0,0
0,0,0,0,0,0,0,0,0,0,0,0,0,0,0,0
ITM 3 6,6
EXT 6,10 1 7,7
PAL 0

ROOM d
0,0,0,0,0,0,0,0,0,0,0,0,0,0,0,0
0,0,0,0,0,0,0,0,0,0,0,0,0,0,0,0
0,0,0,0,0,0,0,0,0,0,0,0,0,0,0,0
0,0,0,0,0,0,0,0,0,0,0,0,0,0,0,0
0,0,0,0,1j,g,g,g,g,g,1e,0,0,0,0,0
0,0,0,0,n,f,1f,f,f,f,h,0,0,0,0,0
0,0,0,0,n,0,e,0,0,0,h,0,0,0,0,0
0,0,0,0,n,0,0,0,0,0,h,0,0,0,0,0
0,0,0,0,n,0,0,0,0,0,h,0,0,0,0,0
0,0,0,0,n,0,0,0,0,0,h,0,0,0,0,0
0,0,0,0,o,g,e,g,g,g,k,0,0,0,0,0
0,0,0,0,0,0,1k,0,0,0,0,0,0,0,0,0
0,0,0,0,0,0,0,0,0,0,0,0,0,0,0,0
0,0,0,0,0,0,0,0,0,0,0,0,0,0,0,0
0,0,0,0,0,0,0,0,0,0,0,0,0,0,0,0
0,0,0,0,0,0,0,0,0,0,0,0,0,0,0,0
EXT 6,5 e 6,10
EXT 6,10 9 9,11
PAL 0

ROOM e
0,0,0,0,0,0,0,0,0,0,0,0,0,0,0,0
0,0,0,0,0,0,0,0,0,0,0,0,0,0,0,0
0,0,0,0,0,0,0,0,0,0,0,0,0,0,0,0
0,0,0,0,0,0,0,0,0,0,0,0,0,0,0,0
0,0,0,0,1j,g,g,g,g,g,1e,0,0,0,0,0
0,0,0,0,n,f,1f,f,f,f,h,0,0,0,0,0
0,0,0,0,n,0,e,0,0,0,h,0,0,0,0,0
0,0,0,0,n,0,0,0,0,0,h,0,0,0,0,0
0,0,0,0,n,0,0,0,0,0,h,0,0,0,0,0
0,0,0,0,n,0,0,0,0,0,h,0,0,0,0,0
0,0,0,0,o,g,e,g,g,g,k,0,0,0,0,0
0,0,0,0,0,0,1k,0,0,0,0,0,0,0,0,0
0,0,0,0,0,0,0,0,0,0,0,0,0,0,0,0
0,0,0,0,0,0,0,0,0,0,0,0,0,0,0,0
0,0,0,0,0,0,0,0,0,0,0,0,0,0,0,0
0,0,0,0,0,0,0,0,0,0,0,0,0,0,0,0
EXT 6,10 d 6,6
EXT 6,5 f 6,10
PAL 0

ROOM f
0,0,0,0,0,0,0,0,0,0,0,0,0,0,0,0
0,0,0,0,0,0,0,0,0,0,0,0,0,0,0,0
0,0,0,0,0,0,0,0,0,0,0,0,0,0,0,0
0,0,0,0,0,0,0,0,0,0,0,0,0,0,0,0
0,0,0,0,1j,g,g,g,g,g,1e,0,0,0,0,0
0,0,0,0,n,f,1m,f,f,f,h,0,0,0,0,0
0,0,0,0,n,0,1l,0,0,0,h,0,0,0,0,0
0,0,0,0,n,0,0,0,0,0,h,0,0,0,0,0
0,0,0,0,n,0,0,0,0,0,h,0,0,0,0,0
0,0,0,0,n,0,0,0,0,0,h,0,0,0,0,0
0,0,0,0,o,g,e,g,g,g,k,0,0,0,0,0
0,0,0,0,0,0,1k,0,0,0,0,0,0,0,0,0
0,0,0,0,0,0,0,0,0,0,0,0,0,0,0,0
0,0,0,0,0,0,0,0,0,0,0,0,0,0,0,0
0,0,0,0,0,0,0,0,0,0,0,0,0,0,0,0
0,0,0,0,0,0,0,0,0,0,0,0,0,0,0,0
EXT 6,10 e 6,6
PAL 0

ROOM g
0,0,0,0,0,0,0,0,0,0,0,0,0,0,0,0
0,0,0,0,0,0,0,0,0,0,0,0,0,0,0,0
0,0,0,0,0,0,0,0,0,0,0,0,0,0,0,0
0,0,0,0,0,0,0,0,0,0,0,0,0,0,0,0
0,0,0,0,1j,g,g,g,g,g,1e,0,0,0,0,0
0,0,0,0,n,f,f,f,f,f,h,0,0,0,0,0
0,0,0,0,n,0,0,0,0,0,h,0,0,0,0,0
0,0,0,0,n,0,0,0,0,0,h,0,0,0,0,0
0,0,0,0,n,0,0,0,0,0,h,0,0,0,0,0
0,0,0,0,n,0,0,0,0,0,h,0,0,0,0,0
0,0,0,0,o,g,e,g,g,g,k,0,0,0,0,0
0,0,0,0,0,0,1k,0,0,0,0,0,0,0,0,0
0,0,0,0,0,0,0,0,0,0,0,0,0,0,0,0
0,0,0,0,0,0,0,0,0,0,0,0,0,0,0,0
0,0,0,0,0,0,0,0,0,0,0,0,0,0,0,0
0,0,0,0,0,0,0,0,0,0,0,0,0,0,0,0
ITM 1 8,7
EXT 6,10 6 11,5
PAL 0

ROOM h
0,0,0,0,0,0,0,0,0,0,0,0,0,0,0,0
0,0,0,0,0,0,0,0,0,0,0,0,0,0,0,0
0,0,0,0,0,0,0,0,0,0,0,0,0,0,0,0
0,0,0,0,0,0,0,0,0,0,0,0,0,0,0,0
0,0,0,0,1j,g,g,g,g,g,1e,0,0,0,0,0
0,0,0,0,n,f,1n,f,f,f,h,0,0,0,0,0
0,0,0,0,n,0,0,0,0,0,h,0,0,0,0,0
0,0,0,0,n,0,0,0,0,0,h,0,0,0,0,0
0,0,0,0,n,0,0,0,0,0,h,0,0,0,0,0
0,0,0,0,n,0,0,0,0,0,h,0,0,0,0,0
0,0,0,0,o,g,e,g,g,g,k,0,0,0,0,0
0,0,0,0,0,0,1k,0,0,0,0,0,0,0,0,0
0,0,0,0,0,0,0,0,0,0,0,0,0,0,0,0
0,0,0,0,0,0,0,0,0,0,0,0,0,0,0,0
0,0,0,0,0,0,0,0,0,0,0,0,0,0,0,0
0,0,0,0,0,0,0,0,0,0,0,0,0,0,0,0
EXT 6,10 6 3,13
PAL 0

ROOM i
0,0,0,0,0,0,0,0,0,0,0,0,0,0,0,0
0,0,0,0,0,0,0,0,0,0,0,0,0,0,0,0
0,0,0,0,0,0,0,0,0,0,0,0,0,0,0,0
0,0,0,0,0,0,0,0,0,0,0,0,0,0,0,0
0,0,0,0,1j,g,g,g,g,g,1e,0,0,0,0,0
0,0,0,0,n,f,f,f,f,f,h,0,0,0,0,0
0,0,0,0,n,0,0,0,0,0,h,0,0,0,0,0
0,0,0,0,n,0,0,0,0,0,h,0,0,0,0,0
0,0,0,0,n,0,0,0,0,0,h,0,0,0,0,0
0,0,0,0,n,0,0,0,0,0,h,0,0,0,0,0
0,0,0,0,o,g,e,g,g,g,k,0,0,0,0,0
0,0,0,0,0,0,1k,0,0,0,0,0,0,0,0,0
0,0,0,0,0,0,0,0,0,0,0,0,0,0,0,0
0,0,0,0,0,0,0,0,0,0,0,0,0,0,0,0
0,0,0,0,0,0,0,0,0,0,0,0,0,0,0,0
0,0,0,0,0,0,0,0,0,0,0,0,0,0,0,0
ITM 2 8,7
EXT 6,10 5 10,11
PAL 0

ROOM j
0,0,0,0,0,0,0,0,0,0,0,0,0,0,0,0
0,0,0,0,0,0,0,0,0,0,0,0,0,0,0,0
0,0,0,0,1v,1u,1u,1u,1u,1u,1u,1w,0,0,0,0
0,0,0,0,1p,1x,1x,1x,1x,1x,1x,1t,0,0,0,0
0,0,0,0,1p,20,1y,1z,1y,22,24,1t,0,0,0,0
0,0,0,0,1p,21,26,26,26,23,25,1t,0,0,0,0
0,0,0,0,1p,26,26,26,26,26,26,1t,0,0,0,0
0,0,0,0,1p,26,26,26,26,26,26,1t,0,0,0,0
0,0,0,0,1p,26,26,26,26,26,26,1t,0,0,0,0
0,0,0,0,1p,26,26,26,26,1o,26,1t,0,0,0,0
0,0,0,0,1q,1r,1r,1r,1r,1r,1r,1s,0,0,0,0
0,0,0,0,0,0,0,0,0,0,0,0,0,0,0,0
0,0,0,0,0,0,0,0,0,0,0,0,0,0,0,0
0,0,0,0,0,0,0,0,0,0,0,0,0,0,0,0
0,0,0,0,0,0,0,0,0,0,0,0,0,0,0,0
0,0,0,0,0,0,0,0,0,0,0,0,0,0,0,0
EXT 9,9 5 3,11
END 0 7,2
PAL 0

TIL 10
00000000
10101010
01000100
01000100
01000100
01000100
10101010
00000000

TIL 11
00111100
01000010
01110010
01000110
01110010
01000010
01111110
00000000
WAL false

TIL 12
11111111
00000000
10000010
01111100
10000010
00000000
11111111
00000000
WAL true

TIL 13
11111111
10000010
01111100
00000001
00101001
00101000
11000111
11111111
WAL true

TIL 14
01111111
10000010
11111100
10000001
10101001
10101000
11000111
11111111
WAL true

TIL 15
11111110
10000011
01111101
00000001
00101001
00101001
11000111
11111111
WAL true

TIL 16
00000000
01111110
01000010
01111110
01000010
01000010
01111110
00000000
WAL true

TIL 17
10101010
01000100
01010101
01000100
01010101
01000100
11111111
00000000
WAL true

TIL 18
10101010
11000100
11010101
11000100
11010101
11000100
11111111
00000000
WAL true

TIL 19
10101011
01000101
01010101
01000101
01010101
01000101
11111111
00000000
WAL true

TIL 20
01000010
01111110
01111110
01000010
01000110
01111110
01000010
11000011

TIL 21
01000010
01000010
01000010
01000010
01000010
01000010
01111110
01000010

TIL 22
01111110
01000010
01000010
01000010
01000010
01001110
01000010
01000010

TIL 23
01000010
01000010
01000010
01111110
00000000
00000000
00000000
00000000

TIL 24
00000000
01111110
01000010
01111110
01011010
01000010
11111111
00000000

TIL 25
10001001
11111111
10000001
10000001
10000001
00000000
00000000
00000000

TIL 26
00000000
01000000
00000000
00000000
00000100
00000000
01000000
00000000

TIL a
00000000
00111100
01111110
01010010
01111110
01001010
01111110
00000000
NAME grave a
WAL true

TIL b
00111100
00111100
00111100
01111110
11111111
11111111
01111110
00000000
WAL true

TIL c
00000000
01100110
11111111
11111111
01111110
00111100
00111100
00111100
WAL true

TIL d
00000000
00000000
01100100
10011011
00000000
00000000
01100100
10011011
>
00000000
01001100
10110011
00000000
00000000
01001100
10110011
00000000
WAL true

TIL e
11101110
00000000
01110111
00000000
11101110
00000000
01110111
00000000

TIL f
10101011
11000111
01000101
11000111
10111010
01111100
01010100
01111100
WAL true

TIL g
00000000
11111111
11111111
00000000
10111010
01111100
01010100
01111100
WAL true

TIL h
01100000
01101110
01101010
01101110
01101010
01101110
01100000
01100000
WAL true

TIL i
00011011
11101110
10110001
11110000
10110001
11101110
00011011
00001111
WAL true

TIL j
00000000
00111111
01111111
01100000
01101010
01101100
01100100
01101100
WAL true

TIL k
01100000
11101110
11001010
00001110
01110010
11111110
10101000
11111000
WAL true

TIL l
00000000
01100000
01101110
00001110
00000000
00100000
00000110
00000000

TIL m
00000000
01110000
00110010
00000000
00000100
00001100
01000000
00000000

TIL n
00000110
01110110
01010110
01110110
01010110
01110110
00000110
00000110
WAL true

TIL o
00000110
01110111
01010011
01110000
01001110
01111111
00010101
00011111
WAL true

TIL p
00000000
11111100
11111110
00000110
01010110
00110110
00100110
00110110
WAL true

TIL q
01100000
11101110
11001010
00001110
01110010
11111110
10101000
11111000
WAL true

TIL r
00000000
00000000
01100100
11111111
10011011
00000000
01100100
10011011
>
00000000
01001100
11111111
10110011
00000000
01001100
10110011
00000000
WAL false

TIL s
00000000
00100000
00101000
00101010
00101010
00101000
00100000
00000000
>
00000000
01000000
01010000
01010100
01010100
01010000
01000000
00000000

TIL t
00000000
00000010
00001010
00101010
00101010
00001010
00000010
00000000
>
00000000
00000100
00010100
01010100
01010100
00010100
00000100
00000000

TIL u
00000000
00000000
00011000
00000000
00111100
00000000
01111110
00000000
>
00000000
00011000
00000000
00111100
00000000
01111110
00000000
00000000

TIL v
00000000
01111110
00000000
00111100
00000000
00011000
00000000
00000000
>
00000000
00000000
01111110
00000000
00111100
00000000
00011000
00000000

TIL w
00000000
00001000
00000000
01000000
00000000
00010000
00000000
00000000

TIL x
00000001
00000010
00000100
00011000
00100000
01000000
01000000
10000000

TIL y
00000000
00111100
01111110
01100100
01111010
00011110
00010100
00000000

TIL z
00000000
00000000
00010000
01010100
00101000
00000000
00000000
00000000

TIL 1a
10101010
11000100
11010101
11000100
11010101
11000100
10101010
10000000
WAL true

TIL 1b
10101011
01000101
01010101
01000101
01010101
01000101
10101011
00000001
WAL true

TIL 1c
11111111
10000000
10000010
11111100
10000010
10000000
11111111
00000000
WAL true

TIL 1d
11111111
00000001
10000011
01111101
10000011
00000001
11111111
00000000
WAL true

TIL 1e
00000000
11000000
11100000
01101100
01101010
01101110
01101110
01100000
WAL true

TIL 1f
10001000
00111100
01000010
11000010
01000011
01000010
01000010
00000000

TIL 1g
10101010
11000110
01000100
11000110
10111010
01111100
01010100
01111100
WAL true

TIL 1h
00101011
01000111
01000101
01000111
00111010
01111100
01010100
01111100
WAL true

TIL 1i
10101011
11000111
01000101
11000111
10111010
01111100
01010100
00000000
WAL true

TIL 1j
00000000
00000011
00110111
01110110
01010110
01110110
00000110
00000110
WAL true

TIL 1k
10000000
00000000
00000000
00000000
00000000
00000000
00000000
00000000
WAL true

TIL 1l
00000010
00000010
00000010
00000010
00000011
00000010
00000010
00000010
WAL true

TIL 1m
00000000
00011000
00111100
01000010
10000010
00000010
00000010
00000010

TIL 1n
00000000
01111110
01000010
01000010
01000010
01111110
01010010
01001010

TIL 1o
00111100
01000010
10011001
10100101
10100101
10011001
01000010
00111100
>
00000000
00111100
01000010
01011010
01011010
01000010
00111100
00000000

TIL 1p
00000011
00000011
00000011
00000011
00000011
00000011
00000011
00000011

TIL 1q
00000011
00000011
00000000
00000000
00000000
00000000
00000000
00000000

TIL 1r
11111111
11111111
00000000
00000000
00000000
00000000
00000000
00000000

TIL 1s
11000000
11000000
00000000
00000000
00000000
00000000
00000000
00000000

TIL 1t
11000000
11000000
11000000
11000000
11000000
11000000
11000000
11000000

TIL 1u
00000000
00000000
00000000
00000000
00000000
00000000
11111111
11111111

TIL 1v
00000000
00000000
00000000
00000000
00000000
00000000
00000011
00000011

TIL 1w
00000000
00000000
00000000
00000000
00000000
00000000
11000000
11000000

TIL 1x
00000000
00000000
00100000
00000100
01000000
00000000
00000100
00000000

TIL 1y
00000000
00000000
00000000
01000010
00100000
00000000
00000000
11111111

TIL 1z
01111110
01000010
01111110
01000010
01000010
01111110
00000000
11111111

SPR A
00111100
01101010
01111110
11110111
01111110
11111110
01111100
00000000
>
00000000
00111100
01101010
01111110
11110111
01111110
11111110
01111100
POS 0 5,10

SPR a
01011000
00100100
11110100
00001000
00110101
01000111
00111110
00000000
>
00000000
01011000
00100100
11110100
00001000
00110101
01000111
00111110
DLG SPR_0
POS e 8,7

SPR b
10111101
01000010
01100110
01100110
10000001
10100101
00111100
00100100
>
00000000
10111101
01000010
01100110
01100110
10000001
10111101
00100100
DLG SPR_5
POS d 8,7

SPR c
00000000
00000000
00011000
00100100
01000010
10010001
10000001
01111110
>
00000000
00011000
00100100
01000010
01010010
01000010
00111100
00000000
DLG SPR_7
POS h 8,7

SPR d
00000000
00111100
01111110
01010010
01111110
01001010
01111110
00000000
DLG SPR_1
POS 0 5,8

SPR f
00000000
00111100
01111110
01010010
01111110
01001010
01111110
00000000
DLG SPR_a
POS 6 10,10

SPR h
01011110
01011110
11111111
01101010
11111111
01110110
11111100
00000000
>
00000000
01011110
01011110
11111111
01101010
11111111
01110110
11111100
DLG SPR_3
POS 5 4,9

SPR i
10011001
01011010
00000000
01100110
00111100
00000000
00011000
11000011
>
00000000
10011001
01011010
00000000
01100110
00111100
00011000
11000011
DLG SPR_4
POS 2 12,12

SPR j
00100010
01011101
01000001
01011001
10000001
01000001
01000001
01000001
DLG SPR_6
POS f 7,6

SPR k
00000000
00000000
01111100
00000010
00101010
01111010
01111010
00000010
POS f 7,5

SPR l
01111110
01100110
01111110
01111110
00010000
00010000
11100000
11100000
DLG SPR_8
POS h 6,6

SPR m
00111100
01011010
00100100
10000001
00100100
00111100
00011000
00111100
>
00000000
00111100
01011010
00100100
10000001
00100100
00111100
01111110
DLG SPR_9
POS 4 9,2

SPR n
00111100
01111110
01100010
01000010
01100110
01011010
01011010
00100100
DLG SPR_2
POS j 7,6

ITM 0
00101001
01111110
11000111
10111010
01101011
11110011
00001110
00000000
NAME tea
DLG ITM_0

ITM 1
10101010
10101010
11111110
10101010
10101000
10100000
10000000
00000000
NAME xylophone
DLG ITM_1

ITM 2
00011100
00010100
00001000
00001000
00001000
00011100
00011100
00011100
NAME shovel
DLG ITM_2

ITM 3
00000000
00111100
00101100
00111100
00000000
00000000
00000000
00000000
NAME dq
DLG ITM_3

ITM 4
01111110
01000010
01011010
01000010
01001010
01111110
01000010
01111110
NAME hd
DLG ITM_4

DLG SPR_1
"""
Here Lies...

YOU!

All new lost souls please report to Mayor Hat in Bonetown. 
"""

DLG ITM_0
"""
A seashell... 
I can hear the sea..
"""

DLG SPR_3
"""
{sequence
  - Howdy stranger, welcome to Bonetown! I'm Mayor Hat...
    Probly figured that on account of this fine Hat I'm wearing... 
    And let me tell yah. You gotta be pretty high up in the Ghost world 'for they let yah have a hat.
    Anyway I hate to be the one ta tell you this but its mah job.
    You're dead.
    
    I'm also obligated to tell yah, this pulasting portal thing will take you on to the great beyond...
    Unless you have unfinished business like other folks in Bonetown... Well? Have yah?
  - Unfinished businesss?
    ...
    Whut?
    ...
    A mixtape?
    ...
    Whut in tarnation is that?
    ...
}
"""

DLG SPR_4
"""
{
  - {item "0"} == 1 ?
    A shell? An ingress.
    
    To the glorious music of the sea.
    I find my salvation.
    {a = a + 1}
  - else ?
    Waves may come in.
    
    Waves may go out again.
    
    The sea is silent here.
}
"""

DLG SPR_5
"""
Death is the Master here.

This is his house, this his land.
His the end of all things.

...

But he's really not such a bad guy once you get to know him.
"""

DLG SPR_0
"""
I come to beat Death.

Chess, his cherished pastime.

Mine, checkers. And Poorly.

"""

DLG SPR_6
"""
{
  - z == 0 ?
    {shk}BEHOLD.
    
    I AM DEATH. 
    THE END OF ALL THINGS.{shk}
    Yes, Death is the name.
    And Death is my game.
    And speaking of games, I hope you're not here to challenge me to a game of bloody chess...
    
    I don't even play chess and I don't play games for peoples lives...
    
    No Chess! No Checkers! No Noughts and Crosses! And definitely no sodding Backgammon! 
    The only thing I do play is the Xylophone. But I lost mine.{z = 1}
  - x == 1 ?
    My Xylophone... I haven't seen it for 3000 years... 
    Well no, I can't give you your life back... But even better... A song!
    
    You added "Deaths Song" to your mixtape!{x = 2}
{a = a + 1}

  - x == 2 ?
    3000 years since I played this xylophone... I still got it!
  - else ?
    No Battleships! No Cluedo! No Crossbows and Catapults and definitely no sodding Monopoly! 
    
    The only thing I play is the Xylophone. But I lost mine.
}
"""

DLG ITM_1
A Xyplophone made from a ribcage...{x=1}

DLG SPR_7
"""
{
  - d == 1 ?
    You added Dragon Warrior to the mixtape!{a = a + 1}
  - else ?
    Life it is a game?
    
    Mere meat for the eternal grind.
    
    I long to play the hero
}
"""

DLG SPR_8
"""
{
  - d == 1 ?
    A nes, with Dragon Warriors in it.
  - {item "dq"} == 1 ?
    You put Dragon Warriors in the console...{d = 1}
    After a quit blow of course.
  - else ?
    A nes... no games though.
}
"""

DLG ITM_2
A shovel... for digging.

DLG ITM_3
An old game cart. Dragon Warrior for the NES.

DLG SPR_9
"""
{
  - {item "hd"} == 1 ?
    All the other ghosties.
    
    Are Naturals at Haiku.
    
    I can Haiku too.
    
    You added "The poets song" to your mixtape.{a = a + 1}
  - else ?
    All the other ghosties.
    
    Are Naturals at Haiku.
    
    err...
    
    I'm not.
}
"""

DLG ITM_4
Haiku for Dummies.

DLG SPR_a
"""
{
  - l == 1 ?
    Here lied Link.
  - {item "shovel"} == 1 ?
    Here lies Link.
    
    You dig...
    
    You got Links Bones!
    
    You added "Get item tune" to your mix tape. {l = 1}
  - else ?
    Here lies Link.
}
"""

DLG SPR_2
"""
{
  - a == 5 ?
    What's this? A mixtape?
    
    What strange music... I... I...
    
    I love it!
    
    If only I knew where it came from...
    
    You see a bright light from yonder window.
  - else ?
    I can't give her the mixtape yet... Its not finished!
}
"""

END 0
You finally move on...

VAR a
0

VAR z
0

VAR x
0

VAR d
0

VAR l
0

