Frog Bitsy Jam Game           Use the arrows to move!        

# BITSY VERSION 3.4

! ROOM_FORMAT 1

PAL 0
0,82,204
128,159,255
255,255,255

ROOM 0
c,c,c,c,c,c,c,c,c,c,c,c,c,c,c,c
b,0,b,c,b,0,b,c,c,c,c,c,c,c,c,c
0,c,0,c,0,c,0,c,c,c,c,c,c,c,c,c
b,c,b,c,b,c,b,c,b,0,b,0,b,c,c,c
0,c,0,c,0,c,0,c,0,c,c,c,0,c,c,c
b,c,b,0,b,c,b,c,b,0,b,c,b,c,c,c
0,c,c,c,c,c,0,c,c,c,0,c,0,c,c,c
d,c,c,c,c,c,b,c,b,0,b,c,b,0,b,c
c,c,c,c,c,c,0,c,0,c,c,c,c,c,c,c
c,c,c,c,c,c,b,c,b,0,b,0,b,0,b,c
c,c,c,c,c,c,0,c,c,c,c,c,c,c,0,c
c,c,c,c,c,c,b,c,c,c,b,0,b,0,b,c
c,c,c,c,c,c,0,c,c,c,0,c,c,c,c,c
c,c,c,c,c,c,b,c,b,c,b,0,b,0,b,c
c,c,c,c,c,c,0,c,0,c,c,c,c,c,0,c
c,c,c,c,c,c,b,0,b,0,b,0,b,0,b,c
WAL c
END 0 0,7
PAL 0

TIL b
00000000
00111100
01111010
01110110
01101110
01011110
01111100
00000000
>
00000000
00011110
00111101
00111011
00110111
00101111
00111110
00000000

TIL c
00000000
00000000
00100000
01010000
00000100
00001010
00100000
01010000
>
00000000
00000000
00010000
00101000
00000010
00000101
00010000
00101000

TIL d
00011000
01111110
11111111
01011010
01011010
01111110
01100110
01100110
>
00011000
01111110
11111111
01011010
01011010
01111110
01101110
01101110

SPR A
00000000
00100100
01011010
11111110
11111110
00111111
00001111
00010110
>
00000000
00100100
01011010
11111110
11111110
01111111
00001111
00010110
POS 0 15,7

SPR a
00000000
00000000
01010001
01110001
01110010
01111100
00111100
00100100
>
00000000
00000000
01010010
01110010
01110010
01111100
00111100
00100100
POS 0 8,12

DLG a
A cat et you, but you got better.

END 0
Home!

END 1


