
I will never forfeit!

# BITSY VERSION 4.6

! ROOM_FORMAT 1

PAL 0
2,18,255
255,255,255
0,0,0

PAL 1
3,255,241
252,9,255
0,0,0

PAL 2
0,0,0
2,18,255
0,0,0

PAL 3
255,4,8
252,255,3
255,255,255

PAL 4
0,0,0
0,0,0
0,0,0

PAL 5
0,0,0
255,255,255
0,0,0

PAL 6
0,0,0
255,255,255
255,21,4

ROOM 0
l,j,k,l,j,k,l,j,k,l,j,k,l,j,k,l
m,m,m,m,m,m,m,m,m,m,m,m,m,m,m,m
m,m,t,p,p,p,p,p,p,p,p,p,p,s,m,m
m,m,n,0,0,0,0,0,0,0,0,0,0,o,m,m
m,m,n,0,0,a,0,a,0,a,0,a,0,o,m,m
m,m,n,0,a,0,a,0,a,0,a,0,0,o,m,m
m,m,n,0,0,a,0,a,0,a,0,a,0,o,m,m
m,m,n,0,a,0,a,0,a,0,a,0,0,o,m,m
m,m,n,0,0,a,0,a,0,a,0,a,0,o,m,m
m,m,n,0,a,0,a,0,a,0,a,0,0,o,m,m
m,m,n,0,0,a,0,a,0,a,0,a,0,o,m,m
m,m,n,0,a,0,a,0,a,0,a,0,0,o,m,m
m,m,n,0,0,0,0,0,0,0,0,0,0,o,m,m
m,m,u,q,q,q,q,q,q,q,q,q,q,r,m,m
m,m,m,m,m,m,m,m,m,m,m,m,m,m,m,m
j,k,l,j,k,l,j,k,l,j,k,l,j,k,l,j
ITM 0 8,10
ITM 1 7,11
ITM 2 9,11
ITM 3 3,5
ITM 3 12,5
EXT 7,3 1 0,3
EXT 8,12 g 7,11
PAL 0

ROOM 1
v,v,v,v,v,v,v,v,v,v,v,v,v,v,v,v
x,x,x,x,v,v,v,v,v,v,v,v,w,w,w,w
y,y,0,0,v,v,v,v,v,v,v,v,0,0,0,0
0,y,0,0,v,v,v,v,v,v,v,v,0,0,0,0
0,y,0,0,v,v,v,v,v,v,v,v,0,0,0,0
0,y,0,0,v,v,v,v,v,v,v,v,0,0,0,0
0,y,0,v,v,v,v,v,v,v,v,v,v,0,0,0
0,y,0,v,v,v,v,v,v,v,v,v,v,0,0,0
0,y,0,v,v,v,v,v,v,v,v,v,v,0,0,0
0,y,0,v,v,v,v,v,v,v,v,v,v,0,0,0
0,y,0,0,v,v,v,v,v,v,v,v,0,0,0,0
0,y,0,0,v,v,v,v,v,v,v,v,0,0,0,0
0,y,0,0,v,v,v,v,v,v,v,v,0,0,0,0
0,y,0,0,v,v,v,v,v,v,v,v,0,0,0,0
0,y,0,0,0,v,v,v,v,v,v,0,0,0,0,0
0,y,0,0,0,v,v,v,v,v,v,0,0,0,0,0
ITM 5 0,4
ITM 6 0,5
ITM 7 0,6
ITM 9 0,7
ITM a 0,8
ITM b 0,9
ITM c 0,10
EXT 0,10 4 11,7
PAL 2

ROOM 2
l,j,k,l,j,k,l,j,k,l,j,k,l,j,k,l
m,m,m,m,m,m,m,m,m,m,m,m,m,m,m,m
m,m,t,p,p,p,p,p,p,p,p,p,p,s,m,m
m,m,n,14,14,14,14,14,14,14,14,14,14,o,m,m
m,m,n,14,0,a,0,a,0,a,0,a,14,o,m,m
m,m,n,14,a,0,a,0,a,0,a,0,14,o,m,m
m,m,n,14,0,a,0,a,0,a,0,a,14,o,m,m
m,m,n,14,a,0,a,0,a,0,a,0,14,o,m,m
m,m,n,14,0,a,0,a,0,a,0,a,14,o,m,m
m,m,n,14,a,0,a,0,a,0,a,0,14,o,m,m
m,m,n,14,0,a,0,a,0,a,0,a,14,o,m,m
m,m,n,14,a,0,a,0,a,0,a,0,14,o,m,m
m,m,n,14,14,14,14,14,14,14,14,14,14,o,m,m
m,m,u,q,q,q,q,q,q,q,q,q,q,r,m,m
m,m,m,m,m,m,m,m,m,m,m,m,m,m,m,m
j,k,l,j,k,l,j,k,l,j,k,l,j,k,l,j
ITM l 4,5
ITM m 5,5
ITM n 6,5
ITM o 7,5
ITM p 8,5
ITM q 9,5
ITM r 10,5
ITM s 11,5
ITM t 4,4
ITM u 11,4
ITM v 5,4
ITM w 10,4
ITM x 6,4
ITM y 9,4
ITM z 8,4
ITM 10 7,4
END undefined 7,4
PAL 0

ROOM 3
0,0,0,0,0,0,0,0,0,0,0,0,0,0,0,0
0,0,0,0,0,0,0,0,0,0,0,0,0,0,0,0
0,0,0,0,0,0,0,0,0,0,0,0,0,0,0,0
0,0,0,0,0,0,0,0,0,0,0,0,0,0,0,0
0,0,0,0,0,0,0,0,0,0,0,0,0,0,0,0
0,0,0,0,0,0,0,0,0,0,0,0,0,0,0,0
0,0,0,0,0,0,0,0,0,0,0,0,0,0,0,0
0,0,0,0,0,0,0,0,0,0,0,0,0,0,0,0
0,0,0,0,0,0,0,0,0,0,0,0,0,0,0,0
0,0,0,0,0,0,0,0,0,0,0,0,0,0,0,0
0,0,0,0,0,0,0,0,0,0,0,0,0,0,0,0
0,0,0,0,0,0,0,0,0,0,0,0,0,0,0,0
0,0,0,0,0,0,0,0,0,0,0,0,0,0,0,0
0,0,0,0,0,0,0,0,0,0,0,0,0,0,0,0
0,0,0,0,0,0,0,0,0,0,0,0,0,0,0,0
0,0,0,0,0,0,0,0,0,0,0,0,0,0,0,0
PAL 3

ROOM 4
0,0,0,0,0,0,0,0,0,0,0,0,0,0,0,0
0,0,0,0,0,0,0,0,0,0,0,0,0,0,0,0
0,0,0,0,0,0,0,0,0,0,0,0,0,0,0,0
0,0,0,0,0,0,0,0,0,0,0,0,0,0,0,0
0,0,0,0,0,0,0,0,12,11,0,0,0,12,11,0
0,0,0,0,0,0,0,0,10,z,13,13,13,10,z,0
0,0,0,0,0,0,0,0,0,13,14,14,14,13,0,0
0,0,0,0,0,0,0,0,0,13,14,0,14,13,0,0
0,0,0,0,0,0,0,0,0,13,14,0,14,13,0,0
0,0,0,0,0,0,0,0,12,11,13,13,13,12,11,0
0,0,0,0,0,0,0,0,10,z,0,0,0,10,z,0
0,0,0,0,0,0,0,0,0,0,0,0,0,0,0,0
0,0,0,0,0,0,0,0,0,0,0,0,0,0,0,0
0,0,0,0,0,0,0,0,0,0,0,0,0,0,0,0
0,0,0,0,0,0,0,0,0,0,0,0,0,0,0,0
0,0,0,0,0,0,0,0,0,0,0,0,0,0,0,0
ITM d 11,8
EXT 11,8 5 11,7
PAL 3

ROOM 5
0,0,0,0,0,0,0,0,0,0,0,0,0,0,0,0
0,0,0,0,0,0,0,0,0,0,0,0,0,0,0,0
0,0,0,0,0,0,0,0,0,0,0,0,0,0,0,0
a,a,0,0,0,0,0,0,0,0,0,0,0,0,0,0
a,a,a,0,0,0,0,0,12,11,0,0,0,12,11,0
a,a,a,0,0,0,0,0,10,z,13,13,13,10,z,0
a,a,0,0,0,0,0,0,0,13,14,14,14,13,0,0
a,0,0,0,0,0,0,0,0,13,14,0,14,13,0,0
a,0,0,0,0,0,0,0,0,13,14,0,14,13,0,0
a,a,0,0,0,0,0,0,12,11,13,13,13,12,11,0
a,a,0,0,0,0,0,0,10,z,0,0,0,10,z,0
a,a,a,0,0,0,0,0,0,0,0,0,0,0,0,0
a,a,a,0,0,0,0,0,0,0,0,0,0,0,0,0
a,a,a,a,0,0,0,0,0,0,0,0,0,0,0,0
a,a,a,a,0,0,0,0,0,0,0,0,0,0,0,0
0,0,0,0,0,0,0,0,0,0,0,0,0,0,0,0
NAME PAWN
ITM f 11,8
EXT 11,8 6 11,7
PAL 3

ROOM 6
0,0,0,0,0,0,0,0,0,0,0,0,0,0,0,0
a,a,0,a,a,0,0,0,0,0,0,0,0,0,0,0
a,a,0,a,a,0,0,0,0,0,0,0,0,0,0,0
a,a,a,a,a,0,0,0,0,0,0,0,0,0,0,0
a,a,a,a,0,0,0,0,12,11,0,0,0,12,11,0
a,a,a,0,0,0,0,0,10,z,13,13,13,10,z,0
a,a,0,0,0,0,0,0,0,13,14,14,14,13,0,0
a,a,0,0,0,0,0,0,0,13,14,0,14,13,0,0
a,a,a,0,0,0,0,0,0,13,14,0,14,13,0,0
a,a,a,0,0,0,0,0,12,11,13,13,13,12,11,0
a,a,a,0,0,0,0,0,10,z,0,0,0,10,z,0
a,a,a,a,0,0,0,0,0,0,0,0,0,0,0,0
a,a,a,a,0,0,0,0,0,0,0,0,0,0,0,0
a,a,a,a,a,0,0,0,0,0,0,0,0,0,0,0
a,a,a,a,a,0,0,0,0,0,0,0,0,0,0,0
0,0,0,0,0,0,0,0,0,0,0,0,0,0,0,0
NAME ROOK
ITM g 11,8
EXT 11,8 7 11,7
PAL 3

ROOM 7
0,0,0,0,0,0,0,0,0,0,0,0,0,0,0,0
0,0,0,0,0,0,0,0,0,0,0,0,0,0,0,0
a,a,0,0,0,0,0,0,0,0,0,0,0,0,0,0
a,a,a,a,0,0,0,0,0,0,0,0,0,0,0,0
a,0,a,a,a,0,0,0,12,11,0,0,0,12,11,0
a,a,a,a,a,a,0,0,10,z,13,13,13,10,z,0
a,a,a,a,a,a,0,0,0,13,14,14,14,13,0,0
a,0,a,a,a,a,0,0,0,13,14,0,14,13,0,0
a,0,0,a,a,0,0,0,0,13,14,0,14,13,0,0
a,0,0,0,0,0,0,0,12,11,13,13,13,12,11,0
a,a,0,0,0,0,0,0,10,z,0,0,0,10,z,0
a,a,a,0,0,0,0,0,0,0,0,0,0,0,0,0
a,a,a,a,0,0,0,0,0,0,0,0,0,0,0,0
a,a,a,a,a,0,0,0,0,0,0,0,0,0,0,0
a,a,a,a,a,0,0,0,0,0,0,0,0,0,0,0
0,0,0,0,0,0,0,0,0,0,0,0,0,0,0,0
NAME KNIGHT
ITM h 11,8
EXT 11,8 8 11,7
PAL 3

ROOM 8
0,0,0,0,0,0,0,0,0,0,0,0,0,0,0,0
0,a,0,0,0,0,0,0,0,0,0,0,0,0,0,0
a,a,0,0,0,0,0,0,0,0,0,0,0,0,0,0
a,a,a,0,0,0,0,0,0,0,0,0,0,0,0,0
a,a,a,0,0,0,0,0,12,11,0,0,0,12,11,0
a,a,0,0,0,0,0,0,10,z,13,13,13,10,z,0
a,0,0,0,0,0,0,0,0,13,14,14,14,13,0,0
a,0,0,0,0,0,0,0,0,13,14,0,14,13,0,0
a,0,0,0,0,0,0,0,0,13,14,0,14,13,0,0
a,a,0,0,0,0,0,0,12,11,13,13,13,12,11,0
a,a,0,0,0,0,0,0,10,z,0,0,0,10,z,0
a,a,a,0,0,0,0,0,0,0,0,0,0,0,0,0
a,a,a,a,0,0,0,0,0,0,0,0,0,0,0,0
a,a,a,a,a,0,0,0,0,0,0,0,0,0,0,0
a,a,a,a,a,0,0,0,0,0,0,0,0,0,0,0
0,0,0,0,0,0,0,0,0,0,0,0,0,0,0,0
NAME BISHOP
ITM i 11,8
EXT 11,8 9 11,7
PAL 3

ROOM 9
0,0,0,0,0,0,0,0,0,0,0,0,0,0,0,0
a,0,0,0,0,0,0,0,0,0,0,0,0,0,0,0
a,a,0,0,0,0,0,0,0,0,0,0,0,0,0,0
a,0,a,0,0,0,0,0,0,0,0,0,0,0,0,0
0,a,a,0,0,0,0,0,12,11,0,0,0,12,11,0
a,a,0,0,0,0,0,0,10,z,13,13,13,10,z,0
a,a,0,0,0,0,0,0,0,13,14,14,14,13,0,0
a,0,0,0,0,0,0,0,0,13,14,0,14,13,0,0
a,0,0,0,0,0,0,0,0,13,14,0,14,13,0,0
a,0,0,0,0,0,0,0,12,11,13,13,13,12,11,0
a,0,0,0,0,0,0,0,10,z,0,0,0,10,z,0
a,a,0,0,0,0,0,0,0,0,0,0,0,0,0,0
a,a,a,0,0,0,0,0,0,0,0,0,0,0,0,0
a,a,a,a,0,0,0,0,0,0,0,0,0,0,0,0
a,a,a,a,0,0,0,0,0,0,0,0,0,0,0,0
0,0,0,0,0,0,0,0,0,0,0,0,0,0,0,0
NAME QUEEN
ITM j 11,8
EXT 11,8 a 0,0
PAL 3

ROOM a
0,0,0,0,0,0,0,0,0,0,0,0,0,0,0,0
0,14,0,0,0,0,0,0,0,0,0,0,0,0,0,0
0,14,0,0,0,0,0,0,0,0,0,0,0,0,0,0
0,0,0,0,0,0,0,0,0,0,0,0,0,0,0,0
0,0,0,0,0,0,0,0,0,0,0,0,0,0,0,0
0,0,0,0,0,0,0,0,0,0,0,0,0,0,0,0
0,0,0,0,0,0,0,0,0,0,0,0,0,0,0,0
0,0,0,0,0,0,0,0,0,0,0,0,0,0,0,0
0,0,0,0,0,0,0,0,0,0,0,0,0,0,0,0
0,0,0,0,0,0,0,0,0,0,0,0,0,0,0,0
0,0,0,0,0,0,0,0,0,0,0,0,0,0,0,0
0,0,0,0,0,0,0,0,0,0,0,0,0,0,0,0
0,0,0,0,0,0,0,0,0,0,0,0,0,0,0,0
0,0,0,0,0,0,0,0,0,0,0,0,0,0,0,0
0,0,0,0,0,0,0,0,0,0,0,0,0,0,0,0
0,0,0,0,0,0,0,0,0,0,0,0,0,0,0,0
NAME BELIEVE
EXT 0,1 b 0,0
PAL 4

ROOM b
0,0,0,0,0,0,0,0,0,0,0,0,0,0,0,0
0,0,0,0,0,0,0,0,0,0,0,0,0,0,0,0
0,0,0,0,0,0,0,0,0,0,0,0,0,0,0,0
0,0,0,0,0,0,0,0,0,0,0,0,0,0,0,0
0,0,0,0,0,0,0,0,0,0,0,0,0,0,0,0
0,0,0,0,0,0,0,0,0,0,0,0,0,0,0,0
0,0,0,0,0,0,0,0,0,0,0,0,0,0,0,0
0,0,0,0,0,0,0,0,a,0,0,0,0,0,0,0
0,0,0,0,0,0,0,0,0,0,0,0,0,0,0,0
0,0,0,0,0,0,0,0,0,0,0,0,0,0,0,0
0,0,0,0,0,0,0,0,0,0,0,0,0,0,0,0
0,0,0,0,0,0,0,0,0,0,0,0,0,0,0,0
0,0,0,0,0,0,0,0,0,0,0,0,0,0,0,0
0,0,0,0,0,0,0,0,0,0,0,0,0,0,0,0
0,0,0,0,0,0,0,0,0,0,0,0,0,0,0,0
0,0,0,0,0,0,0,0,0,0,0,0,0,0,0,0
EXT 0,1 c 0,0
PAL 5

ROOM c
0,0,0,0,0,0,0,0,0,0,0,0,0,0,0,0
0,0,0,0,0,0,0,0,0,0,0,0,0,0,0,0
0,0,0,0,0,0,0,0,0,0,0,0,0,0,0,0
0,0,0,0,0,0,0,0,0,0,0,0,0,0,0,0
0,0,0,0,0,0,0,0,0,0,0,0,0,0,0,0
0,0,0,0,0,a,0,a,a,0,a,0,0,0,0,0
0,0,0,0,0,a,a,a,a,a,a,0,0,0,0,0
0,0,0,0,0,0,0,a,a,0,0,0,0,0,0,0
0,0,0,0,0,0,0,a,a,0,0,0,0,0,0,0
0,0,0,0,0,0,0,a,a,0,0,0,0,0,0,0
0,0,0,0,0,0,a,a,a,a,0,0,0,0,0,0
0,0,0,0,0,a,a,a,a,a,a,0,0,0,0,0
0,0,0,0,0,0,0,0,0,0,0,0,0,0,0,0
0,0,0,0,0,0,0,0,0,0,0,0,0,0,0,0
0,0,0,0,0,0,0,0,0,0,0,0,0,0,0,0
0,0,0,0,0,0,0,0,0,0,0,0,0,0,0,0
EXT 0,1 d 0,0
PAL 5

ROOM d
0,0,0,0,0,0,0,0,0,0,0,0,0,0,0,0
0,0,0,0,0,0,0,0,0,0,0,0,0,0,0,0
0,0,0,0,0,a,0,a,a,0,a,0,0,0,0,0
0,0,0,0,0,a,a,a,a,a,a,0,0,0,0,0
0,0,0,0,0,a,a,a,a,a,a,0,0,0,0,0
0,0,0,0,0,0,a,a,a,a,0,0,0,0,0,0
0,0,0,0,0,0,a,a,a,a,0,0,0,0,0,0
0,0,0,0,0,0,a,a,a,a,0,0,0,0,0,0
0,0,0,0,0,0,0,a,a,0,0,0,0,0,0,0
0,0,0,0,0,0,0,a,a,0,0,0,0,0,0,0
0,0,0,0,0,0,0,a,a,0,0,0,0,0,0,0
0,0,0,0,0,0,a,a,a,a,0,0,0,0,0,0
0,0,0,0,0,a,a,a,a,a,a,0,0,0,0,0
0,0,0,0,0,0,0,0,0,0,0,0,0,0,0,0
0,0,0,0,0,0,0,0,0,0,0,0,0,0,0,0
0,0,0,0,0,0,0,0,0,0,0,0,0,0,0,0
EXT 0,1 e 0,0
PAL 5

ROOM e
0,0,0,a,0,0,0,a,a,0,0,0,a,0,0,0
0,0,0,a,a,0,0,a,a,0,0,a,a,0,0,0
0,0,0,a,a,a,0,a,a,0,a,a,a,0,0,0
0,0,0,a,a,a,a,a,a,a,a,a,a,0,0,0
0,0,0,0,0,a,a,a,a,a,a,0,0,0,0,0
0,0,0,0,0,0,a,a,a,a,0,0,0,0,0,0
0,0,0,0,0,0,a,a,a,a,0,0,0,0,0,0
0,0,0,0,0,0,a,a,a,a,0,0,0,0,0,0
0,0,0,0,0,0,a,a,a,a,0,0,0,0,0,0
0,0,0,0,0,0,a,a,a,a,0,0,0,0,0,0
0,0,0,0,0,0,a,a,a,a,0,0,0,0,0,0
0,0,0,0,0,0,a,a,a,a,0,0,0,0,0,0
0,0,0,0,0,a,a,a,a,a,a,0,0,0,0,0
0,0,0,a,a,a,a,a,a,a,a,a,a,0,0,0
0,0,a,a,a,a,a,a,a,a,a,a,a,a,0,0
0,0,0,0,0,0,0,0,0,0,0,0,0,0,0,0
EXT 0,1 2 8,11
PAL 5

ROOM f
v,v,v,v,v,v,v,v,v,v,v,v,v,v,v,v
x,x,x,x,v,v,v,v,v,v,v,v,w,w,w,w
y,y,0,0,v,v,v,v,v,v,v,v,0,0,0,0
0,y,0,0,v,v,v,v,v,v,v,v,0,0,0,0
0,y,0,0,v,v,v,v,v,v,v,v,0,0,0,0
0,y,0,0,v,v,v,v,v,v,v,v,0,0,0,0
0,y,0,v,v,v,v,v,v,v,v,v,v,0,0,0
0,y,0,v,v,v,v,v,v,v,v,v,v,0,0,0
0,y,0,v,v,v,v,v,v,v,v,v,v,0,0,0
0,y,0,v,v,v,v,v,v,v,v,v,v,0,0,0
0,y,0,0,v,v,v,v,v,v,v,v,0,0,0,0
0,y,0,0,v,v,v,v,v,v,v,v,0,0,0,0
0,y,0,0,v,v,v,v,v,v,v,v,0,0,0,0
0,y,0,0,v,v,v,v,v,v,v,v,0,0,0,0
0,y,0,0,0,v,v,v,v,v,v,0,0,0,0,0
0,y,0,0,0,v,v,v,v,v,v,0,0,0,0,0
NAME DIALOGUE 2
EXT 0,10 4 11,7
PAL 2

ROOM g
l,j,k,l,j,k,l,j,k,l,j,k,l,j,k,l
m,m,m,m,m,m,m,m,m,m,m,m,m,m,m,m
m,m,t,p,p,p,p,p,p,p,p,p,p,s,m,m
m,m,n,0,0,0,0,0,0,0,0,0,0,o,m,m
m,m,n,0,0,a,0,a,0,a,0,a,0,o,m,m
m,m,n,0,a,0,a,0,a,0,a,0,0,o,m,m
m,m,n,0,0,a,0,a,0,a,0,a,0,o,m,m
m,m,n,0,a,0,a,0,a,0,a,0,0,o,m,m
m,m,n,0,0,a,0,a,0,a,0,a,0,o,m,m
m,m,n,0,a,0,a,0,a,0,a,0,0,o,m,m
m,m,n,0,0,a,0,a,0,a,0,a,0,o,m,m
m,m,n,0,a,0,15,0,15,0,a,0,0,o,m,m
m,m,n,0,0,0,0,0,0,0,0,0,0,o,m,m
m,m,u,q,q,q,q,q,q,q,q,q,q,r,m,m
m,m,m,m,m,m,m,m,m,m,m,m,m,m,m,m
j,k,l,j,k,l,j,k,l,j,k,l,j,k,l,j
ITM s 4,5
ITM s 5,5
ITM s 6,5
ITM s 7,5
ITM s 8,5
ITM s 9,5
ITM s 10,5
ITM s 11,5
ITM t 4,4
ITM t 11,4
ITM v 5,4
ITM v 10,4
ITM x 6,4
ITM x 9,4
ITM z 8,4
ITM 10 7,4
EXT 7,10 0 8,11
END undefinee 7,12
PAL 6

TIL 10
11000101
11000010
11000101
11000000
11000000
11000000
11111111
11111111
>
11000010
11000101
11000010
11000000
11000000
11000000
11111111
11111111

TIL 11
11111111
11111111
00000011
00000011
00000011
10100011
01000011
10100011
>
11111111
11111111
00000011
00000011
00000011
01000011
10100011
01000011

TIL 12
11111111
11111111
11000000
11000000
11000000
11000101
11000010
11000101
>
11111111
11111111
11000000
11000000
11000000
11000010
11000101
11000010

TIL 13
00000000
01111110
01000010
01011010
01011010
01000010
01111110
00000000
>
11111111
10000001
10111101
10100101
10100101
10111101
10000001
11111111

TIL 14
00000000
00000000
00000000
00000000
00000000
00000000
00000000
00000000
NAME INV WALL
WAL true

TIL 15
11111111
11111111
11111111
11111111
11111111
11111111
11111111
11111111
NAME IW2
WAL true

TIL a
11111111
11111111
11111111
11111111
11111111
11111111
11111111
11111111

TIL b
11111111
00000000
11111111
00000000
11111111
00000000
11111111
00000000

TIL c
00000000
11111111
11111111
11111111
11111111
11111111
11111111
00000000

TIL d
00000000
11111100
11111110
11111110
11111110
11111110
11111110
01111110

TIL e
01111110
01111110
01111110
01111110
01111110
01111110
01111110
01111110

TIL f
00000000
00111111
01111111
01111111
01111111
01111111
01111111
01111110

TIL g
01111110
11111110
11111110
11111110
11111110
11111110
11111100
00000000

TIL h
00000000
11111111
11111111
11111111
11111111
11111111
11111111
00000000

TIL i
01111110
01111111
01111111
01111111
01111111
01111111
00111111
00000000

TIL j
00000000
00000000
11010101
10011101
10010101
11010101
00000000
00000000
>
00000000
00000000
10110110
10110110
00010010
10110110
00000000
00000000
>
00000000
00000000
00011000
00111100
00111100
00011000
00000000
00000000

TIL k
00000000
00000000
10110110
10110110
00010010
10110110
00000000
00000000
>
00000000
00000000
00011000
00111100
00111100
00011000
00000000
00000000
>
00000000
00000000
11010101
10011101
10010101
11010101
00000000
00000000

TIL l
00000000
00000000
00011000
00111100
00111100
00011000
00000000
00000000
>
00000000
00000000
11010101
10011101
10010101
11010101
00000000
00000000
>
00000000
00000000
10110110
10110110
00010010
10110110
00000000
00000000

TIL m
00000000
00000000
00000000
00011000
00011000
00000000
00000000
00000000
WAL true

TIL n
00010111
00011101
00010111
00011101
00010111
00011101
00010111
00011101
WAL true

TIL o
11101000
10111000
11101000
10111000
11101000
10111000
11101000
10111000
WAL true

TIL p
00000000
00000000
00000000
11111111
10101010
11111111
01010101
11111111
WAL true

TIL q
11111111
10101010
11111111
01010101
11111111
00000000
00000000
00000000
WAL true

TIL r
10101000
00101000
11101000
00001000
11111000
00000000
00000000
00000000
WAL true

TIL s
00000000
00000000
00000000
11111000
00001000
11101000
00101000
10101000
WAL true

TIL t
00000000
00000000
00000000
00011111
00010000
00010111
00010100
00010101
WAL true

TIL u
00010101
00010100
00010111
00010000
00011111
00000000
00000000
00000000
WAL true

TIL v
11111111
11111111
11111111
11111111
11111111
11111111
11111111
11111111

TIL w
11111111
11111111
11111111
00001111
00001111
00001111
00001111
00001111

TIL x
11111111
11111111
11111111
11110000
11110000
11110000
11110000
11110000

TIL y
00000000
00000000
00000000
00000000
00000000
00000000
00000000
00000000
WAL true

TIL z
10100011
01000011
10100011
00000011
00000011
00000011
11111111
11111111
>
01000011
10100011
01000011
00000011
00000011
00000011
11111111
11111111

SPR A
01011010
00111100
00111100
00011000
00011000
00011000
01111110
11111111
>
00000000
01011010
00111100
00111100
00011000
00011000
01111110
11111111
POS 0 8,11

SPR a
00000000
00000000
00000000
00011000
00011000
00011000
00011000
00111100
DLG SPR_0
POS 0 4,5

SPR b
00000000
00000000
00000000
00011000
00011000
00011000
00011000
00111100
DLG SPR_5
POS 0 5,5

SPR c
00000000
00000000
00000000
00011000
00011000
00011000
00011000
00111100
DLG SPR_6
POS 0 6,5

SPR d
00000000
00000000
00000000
00011000
00011000
00011000
00011000
00111100
DLG SPR_7
POS 0 7,5

SPR e
00000000
00000000
00000000
00011000
00011000
00011000
00011000
00111100
DLG SPR_8
POS 0 8,5

SPR f
00000000
00000000
00000000
00011000
00011000
00011000
00011000
00111100
DLG SPR_9
POS 0 9,5

SPR g
00000000
00000000
00000000
00011000
00011000
00011000
00011000
00111100
DLG SPR_a
POS 0 10,5

SPR h
00000000
00000000
00000000
00011000
00011000
00011000
00011000
00111100
DLG SPR_b
POS 0 11,5

SPR i
00000000
00011110
00111100
01101100
00001100
00011100
00111100
01111110
DLG SPR_c
POS 0 5,4

SPR j
00000000
00011110
00111100
01101100
00001100
00011100
00111100
01111110
DLG SPR_d
POS 0 10,4

SPR k
00000000
01011010
01111110
00111100
00011000
00011000
00111100
01111110
DLG SPR_e
POS 0 11,4

SPR l
00000000
01011010
01111110
00111100
00011000
00011000
00111100
01111110
DLG SPR_f
POS 0 4,4

SPR m
00001000
00011000
00111100
00111100
00011000
00011000
00011000
00111100
DLG SPR_g
POS 0 9,4

SPR n
00001000
00011000
00111100
00111100
00011000
00011000
00011000
00111100
DLG SPR_h
POS 0 6,4

SPR o
00011000
00111100
00111100
00011000
00011000
00111100
01111110
11111111
DLG SPR_i
POS 0 8,4

SPR p
01011010
00111100
00111100
00011000
00011000
00111100
01111110
11111111
DLG SPR_j
POS 0 7,4

SPR q
00000000
00000000
00000000
00000000
00000100
00001100
00111110
00110010
DLG SPR_1
POS 0 6,10

SPR r
00000000
00000000
00000000
00000000
01000000
01100000
11111000
10011000
DLG SPR_2
POS 0 10,10

SPR s
00000000
00000000
00001000
01001100
01000110
11100110
10111110
10011010
DLG SPR_3
POS 0 6,8

SPR t
00000000
00000000
00000000
00000001
00000111
00111111
11111001
01000000
DLG SPR_4
POS 0 11,9

ITM 0
00000000
00000000
00000000
00000000
00000000
00000000
00000000
00000000
NAME tea
DLG ITM_0

ITM 1
00000000
00000000
00000000
00000000
00000000
00000000
00000000
00000000
DLG ITM_1

ITM 2
00000000
00000000
00000000
00000000
00000000
00000000
00000000
00000000
DLG ITM_2

ITM 3
00000000
00000000
00000000
00000000
00000000
00000000
00000000
00000000
NAME OOB
DLG ITM_3

ITM 4
11111111
11111111
11111111
11111111
11111111
11111111
11111111
11111111

ITM 5
00000000
01000000
01000000
01000000
01000000
01000000
01000000
00000000
NAME DIA1
DLG ITM_4

ITM 6
00000000
01100000
01100000
01100000
01100000
01100000
01100000
00000000
NAME DIA2
DLG ITM_5

ITM 7
00000000
01110000
01110000
01110000
01110000
01110000
01110000
00000000
NAME DIA3
DLG ITM_6

ITM 8
00000000
00110000
00000000
00000000
00000000
00000000
00000000
00000000

ITM 9
00000000
01111000
01111000
01111000
01111000
01111000
01111000
00000000
NAME DIA4
DLG ITM_7

ITM 10
01011010
00111100
00111100
00011000
00011000
00011000
01111110
11111111

ITM a
00000000
01111100
01111100
01111100
01111100
01111100
01111100
00000000
NAME DIA5
DLG ITM_8

ITM b
00000000
01111110
01111110
01111110
01111110
01111110
01111110
00000000
NAME DIA6
DLG ITM_9

ITM c
00000000
01111110
01111110
01111110
01111110
01111110
01111110
00000000
NAME DIA 7
DLG ITM_a

ITM d
00000000
00000000
00000000
00000000
00011000
00011000
00011000
00111100
NAME PAWN
DLG ITM_b

ITM e
00000000
00000000
00000000
00000000
00000000
00000000
00000000
00000000

ITM f
00000000
01011010
01111110
00111100
00011000
00011000
00111100
01111110
NAME ROOK
DLG ITM_c

ITM g
00000000
11111000
01111100
00110110
00110000
00111000
00111100
01111110
NAME KNIGHT
DLG ITM_d

ITM h
00001000
00011000
00111100
00111100
00011000
00011000
00011000
00111100
NAME BISHOP
DLG ITM_e

ITM i
00011000
00111100
00111100
00011000
00011000
00011000
01111110
11111111
NAME QUEEN
DLG ITM_f

ITM j
01011010
00111100
00111100
00011000
00011000
00011000
01111110
11111111
NAME KING
DLG ITM_g

ITM k
00000000
00000000
00000000
00000000
00000000
00000000
00000000
00000000
NAME DIA 10
DLG ITM_h

ITM l
00000000
00000000
00000000
00000000
00011000
00011000
00011000
00111100
DLG ITM_i

ITM m
00000000
00000000
00000000
00000000
00011000
00011000
00011000
00111100
DLG ITM_j

ITM n
00000000
00000000
00000000
00000000
00011000
00011000
00011000
00111100
DLG ITM_k

ITM o
00000000
00000000
00000000
00000000
00011000
00011000
00011000
00111100
DLG ITM_l

ITM p
00000000
00000000
00000000
00000000
00011000
00011000
00011000
00111100
DLG ITM_m

ITM q
00000000
00000000
00000000
00000000
00011000
00011000
00011000
00111100
DLG ITM_n

ITM r
00000000
00000000
00000000
00000000
00011000
00011000
00011000
00111100
DLG ITM_o

ITM s
00000000
00000000
00000000
00000000
00011000
00011000
00011000
00111100
DLG ITM_p

ITM t
00000000
01011010
01111110
00111100
00011000
00011000
00111100
01111110
DLG ITM_q

ITM u
00000000
01011010
01111110
00111100
00011000
00011000
00111100
01111110
DLG ITM_r

ITM v
00000000
11111000
01111100
00110110
00110000
00111000
00111100
01111110
DLG ITM_s

ITM w
00000000
11111000
01111100
00110110
00110000
00111000
00111100
01111110
DLG ITM_t

ITM x
00001000
00011000
00111100
00111100
00011000
00011000
00011000
00111100
DLG ITM_u

ITM y
00001000
00011000
00111100
00111100
00011000
00011000
00011000
00111100
DLG ITM_v

ITM z
00011000
00111100
00111100
00011000
00011000
00011000
01111110
11111111
DLG ITM_w

DLG ITM_0
Oh, this hardly seems fair.

DLG ITM_1
I must steel myself for battle!

DLG ITM_2
King to F1.

DLG SPR_1
"""
{sequence
  - "My liege! I did... all I could..."
  - "..."
}
"""

DLG SPR_2
"""
{sequence
  - "My king! They ambushed me...!"
  - "..."
}
"""

DLG SPR_3
"""
{sequence
  - "NEEEIGH!"
  - "Pant... pant..."
  - Woah, girl. It's okay.
  - "..."
}
"""

DLG SPR_4
"""
{sequence
  - "May you gain victory, my lord... My end grows near..."
  - "..."
}
"""

DLG SPR_5
"""
{cycle
  - "We will never let you pass!"
  - "Do I need to repeat myself?"
}
"""

DLG SPR_6
"""
{cycle
  - "We will never let you pass!"
  - "Do I need to repeat myself?"
}
"""

DLG SPR_7
"""
{cycle
  - "We will never let you pass!"
  - "Do I need to repeat myself?"
}
"""

DLG SPR_8
"""
{cycle
  - "We will never let you pass!"
  - "Do I need to repeat myself?"
}
"""

DLG SPR_9
"""
{cycle
  - "We will never let you pass!"
  - "Do I need to repeat myself?"
}
"""

DLG SPR_a
"""
{cycle
  - "We will never let you pass!"
  - "Do I need to repeat myself?"
}
"""

DLG SPR_b
"""
{cycle
  - "We will never let you pass!"
  - "Do I need to repeat myself?"
}
"""

DLG ITM_3
"Oh come on! That's against the rules!"

DLG SPR_0
"""
{cycle
  - "We will never let you pass!"
  - "Do I need to repeat myself?"
}
"""

DLG SPR_c
"NEEEEEIGH!"

DLG SPR_d
"NEEEEEEEIGH?"

DLG SPR_e
"""
{cycle
  - "THAT'S"
  - "CHEATING!"
}
"""

DLG SPR_f
"""
{cycle
  - "THAT'S"
  - "CHEATING!"
}
"""

DLG SPR_g
"Foul being, you desecrate this sacred board!"

DLG SPR_h
"Foul being, you desecrate this sacred board!"

DLG SPR_i
"Cad!"

DLG SPR_j
"You fool! Even with your evil, otherworlds machinations, you cannot defeat me from outside this battlefield!  You have lost, terrible beast, admit defeat!"

DLG ITM_4
"You fool!"

DLG ITM_5
"Even with your otherworldly machinations, you cannot defeat me from outside our world!"

DLG ITM_6
"Return to your place, and await your fate - there may only be one king!"

DLG ITM_7
No, it cannot be! All my kingdom's sacrifice cannot be for naught!

DLG ITM_8
"Despair and weep, for your doom awaits you!"

DLG ITM_9
"""
No.

No!

NOOOOOOOOOOOO!
"""

DLG ITM_a
I must summon my power.  I must become the KING OF KINGS!

DLG ITM_b
The strategy of the pawns!

DLG ITM_c
The power of the rooks!

DLG ITM_d
The special L movement of the knights!

DLG ITM_e
The horizontal/vertical intolerance of the bishops!

DLG ITM_f
My Queen's terrifying strength!

DLG ITM_g
"""
And me...

I believe in myself!
"""

DLG ITM_h
I CAN FEEL THE POWER!

DLG ITM_i
Die, puny ant!

DLG ITM_j
I shall squash you like a bug!

DLG ITM_k
Tremble before my power!

DLG ITM_l
Falter! Fall! 

DLG ITM_m
Kneel, fool!

DLG ITM_n
Bow down to my power!

DLG ITM_o
Out of my way!

DLG ITM_p
Make your peace!

DLG ITM_q
Crumble!

DLG ITM_r
Shatter!

DLG ITM_s
Flee this place, girl - you are no longer under their power!

DLG ITM_t
Fly, fly away! You have your freedom!

DLG ITM_u
Where is your Player now?!

DLG ITM_v
Your Player cannot hear your prayers!

DLG ITM_w
You were a worthy warrior - but none can match my strength!

END 0


END undefined
Old fool! You will never escape the blood on your hands! With a huge blow, the dreaded King was felled. Bloodshed filled the board around the King, and his fury was quelled... but he was now alone. A victory. But at what cost?

END undefinee
The King ran, leaving his army to rot...  BAD END.

VAR a
42


