


# BITSY VERSION 4.5

! ROOM_FORMAT 1

PAL 0
0,0,0
48,83,143
209,149,191

ROOM 2
a,b,b,b,b,b,c,0,0,0,0,0,0,0,0,0
h,o,13,12,11,10,d,0,0,0,0,0,0,0,0,0
h,p,14,7t,7v,z,d,0,0,0,0,0,0,0,0,0
h,q,0,7u,0,y,d,0,0,0,0,0,0,0,0,0
h,r,19,0,1a,x,d,0,0,0,0,0,0,0,0,0
h,s,t,u,v,w,d,0,0,0,0,0,0,0,0,0
g,f,f,f,f,f,e,0,0,0,0,0,0,0,0,0
0,0,0,0,0,0,0,0,0,0,0,0,0,0,0,0
a,2b,2c,2d,2e,2f,b,b,9m,3y,3z,3z,40,41,b,c
h,2m,2n,2o,2p,2q,0,0,42,43,44,45,46,47,0,9g
3v,2y,2z,39,31,34,38,38,48,49,4a,4b,4c,4i,9n,3w
9h,3l,3m,3n,3l,3m,3n,3l,3m,3n,3l,3m,3n,3l,3m,4e
9h,0,0,0,0,0,0,0,0,0,0,0,0,0,0,9g
4f,4g,4g,4g,4g,4g,4g,4g,4g,4g,4g,4g,4g,4g,4g,4h
9h,0,0,0,0,0,0,0,0,0,0,0,0,0,0,9g
g,f,f,f,f,f,f,f,f,f,f,f,f,f,f,e
NAME 1
EXT 15,12 3 0,12
PAL 0

ROOM 3
a,b,b,b,b,b,c,i,b,b,b,1m,1r,b,b,c
h,o,13,12,11,10,d,j,1b,0,1i,1n,1s,1w,0,d
h,p,14,7w,7z,z,d,j,1c,1f,1j,1o,1t,1x,20,d
h,q,0,7x,7y,y,d,j,1d,1g,1k,1p,1u,1y,21,d
h,r,19,0,1a,x,d,j,1e,1h,1l,1q,1v,1z,22,d
h,s,t,u,v,w,d,j,23,24,25,26,27,28,29,2a
g,f,f,f,f,f,e,k,f,f,f,f,f,f,f,e
0,0,0,0,0,0,0,0,0,0,0,0,0,0,0,0
a,2b,2c,2d,2e,2f,b,2b,2c,4p,2e,2f,b,b,b,c
h,4j,4k,4l,4m,4n,0,2m,2n,4o,2p,2q,0,0,0,d
3v,37,35,39,31,32,33,2y,33,39,31,32,35,35,35,3a
4q,3d,3e,3f,3d,3e,3f,3d,3e,3f,3g,3h,3i,3j,3k,4r
9h,0,0,0,0,0,0,0,0,0,0,0,0,0,0,9g
4f,4g,4g,4g,4g,4g,4g,4g,4g,4g,4g,4g,4g,4g,4g,4h
h,0,0,0,0,0,0,0,0,0,0,0,0,0,0,d
g,f,f,f,f,f,f,f,f,f,f,f,f,f,f,e
NAME 2
EXT 15,12 4 0,12
PAL 0

ROOM 4
a,b,b,b,b,b,c,i,b,b,b,1m,1r,b,b,c
h,o,13,12,11,10,d,j,1b,0,1i,1n,1s,1w,0,d
h,p,14,80,16,z,d,j,1c,1f,1j,1o,1t,1x,20,d
h,q,0,81,82,y,d,j,1d,1g,1k,1p,1u,1y,21,d
h,r,19,0,1a,x,d,j,1e,1h,1l,1q,1v,1z,22,d
h,s,t,u,v,w,d,j,23,24,25,26,27,28,29,2a
g,f,f,f,f,f,e,k,f,f,f,f,f,f,f,e
0,0,0,0,0,0,0,0,0,0,0,0,0,0,0,0
a,b,b,b,b,b,b,b,b,b,b,b,b,b,b,c
h,0,0,0,0,0,0,0,0,0,0,0,0,0,0,d
4f,4g,4g,4g,4g,4g,4g,4g,4g,4g,4g,4g,4g,4g,4g,4h
4q,3d,3e,3f,3d,3e,3f,3g,3h,3i,3j,3k,3l,3m,3n,9g
9h,0,0,0,0,0,0,0,0,0,0,0,0,0,0,9g
4f,4g,4g,4g,4g,4g,4g,4g,4g,4g,4g,4g,4g,4g,4g,4h
h,0,0,0,0,0,0,0,0,0,0,0,0,0,0,d
g,f,f,f,f,f,f,f,f,f,f,f,f,f,f,e
NAME 3
EXT 15,12 e 0,12
EXT 15,11 0 0,11
PAL 0

ROOM e
a,b,b,b,b,b,c,i,b,b,b,1m,1r,b,b,c
h,o,13,12,11,10,d,j,1b,0,1i,1n,1s,1w,0,d
h,p,14,83,16,z,d,j,1c,1f,1j,1o,1t,1x,20,d
h,q,0,84,0,y,d,j,1d,1g,1k,1p,1u,1y,21,d
h,r,19,0,85,x,d,j,1e,1h,1l,1q,1v,1z,22,d
h,s,t,u,v,w,d,j,23,24,25,26,27,28,29,2a
g,f,f,f,f,f,e,k,f,f,f,f,f,f,f,e
0,0,0,0,0,0,0,0,0,0,0,0,0,0,0,0
a,b,b,b,b,b,b,b,b,b,b,b,b,b,b,c
h,0,0,0,4s,0,0,0,4t,0,0,0,0,4u,0,d
4f,4g,4g,4g,4g,4g,4g,4g,4g,4g,4g,4g,4g,4g,4g,4h
4q,3d,3e,3f,3d,3e,3f,3g,3h,3i,3j,3k,3l,3m,3n,4r
9h,0,0,0,0,0,0,0,0,0,0,0,0,0,0,9g
4f,4g,4g,4g,4g,4g,4g,4g,4g,4g,4g,4g,4g,4g,4g,4h
h,4u,0,0,0,4u,0,0,0,0,4s,0,0,4t,0,d
g,f,f,f,f,f,f,f,f,f,f,f,f,f,f,e
NAME 4
EXT 15,12 f 0,12
PAL 0

ROOM f
a,b,b,b,b,b,c,i,b,b,b,1m,1r,b,b,c
h,o,13,12,11,10,d,j,1b,0,1i,1n,1s,1w,0,d
h,p,14,86,16,z,d,j,1c,1f,1j,1o,1t,1x,20,d
h,q,0,87,0,y,d,j,1d,1g,1k,1p,1u,1y,21,d
h,r,19,88,89,x,d,j,1e,1h,1l,1q,1v,1z,22,d
h,s,t,u,v,w,d,j,23,24,25,26,27,28,29,2a
g,f,f,f,f,f,e,k,f,f,f,f,f,f,f,e
0,0,0,0,0,0,0,0,0,0,0,0,0,0,0,0
a,b,b,b,b,b,b,b,b,b,b,b,b,b,b,c
h,0,4s,0,4t,0,0,0,0,0,4u,0,0,0,4t,d
4f,4g,4g,4g,4g,4g,4g,4g,4g,4g,4g,4g,4g,4g,4g,4h
4q,3d,3e,3f,3d,3e,3f,3g,3h,3i,3j,3k,3l,3m,3n,4r
9h,0,0,0,0,0,0,0,0,0,0,0,0,0,0,9g
4f,4g,4g,4g,4g,4g,4g,4g,4g,4g,4g,4g,4g,4g,4g,4h
h,0,0,0,0,0,0,4u,0,0,0,0,0,4t,0,d
g,f,f,f,f,f,f,f,f,f,f,f,f,f,f,e
NAME 5
EXT 15,12 h 0,12
PAL 0

ROOM h
a,b,b,b,b,b,c,i,b,b,b,1m,1r,b,b,c
h,o,13,12,11,10,d,j,1b,0,1i,1n,1s,1w,0,d
h,p,14,8a,16,z,d,j,1c,1f,1j,1o,1t,1x,20,d
h,q,0,8b,0,y,d,j,1d,1g,1k,1p,1u,1y,21,d
h,r,19,8c,1a,x,d,j,1e,1h,1l,1q,1v,1z,22,d
h,s,t,u,v,w,d,j,23,24,25,26,27,28,29,2a
g,f,f,f,f,f,e,k,f,f,f,f,f,f,f,e
0,0,0,0,0,0,0,0,0,0,0,0,0,0,0,0
a,b,b,b,b,b,b,50,5a,9i,9p,b,b,b,b,c
h,0,0,0,4s,0,0,4z,59,0,4z,0,0,0,4t,d
4y,4x,4x,4x,4x,4x,4w,0,58,0,4z,0,5c,0,0,d
4q,3d,3e,3f,3d,3e,3f,0,57,0,4z,0,0,4s,0,d
9h,0,0,0,0,0,0,0,56,0,9h,4u,0,0,0,d
4f,4g,4g,4g,4g,4g,4v,0,55,0,4z,0,0,0,5b,d
h,4u,0,0,0,4u,0,4z,54,0,4z,0,0,4t,0,d
g,9j,9j,9j,9j,9j,9j,51,53,9j,9l,9j,9j,9j,9j,e
NAME 6
EXT 9,15 i 9,8
EXT 7,8 0 7,8
EXT 9,8 r 9,15
PAL 0

ROOM i
a,b,b,b,b,b,c,i,b,b,b,1m,1r,b,b,c
h,o,13,12,11,10,d,j,1b,0,1i,1n,1s,1w,0,d
h,p,14,8d,16,z,d,j,1c,1f,1j,1o,1t,1x,20,d
h,q,0,8e,0,y,d,j,1d,1g,1k,1p,1u,1y,21,d
h,r,8g,8f,1a,x,d,j,1e,1h,1l,1q,1v,1z,22,d
h,s,t,u,v,w,d,j,23,24,25,26,27,28,29,2a
g,f,f,f,f,f,e,k,f,f,f,f,f,f,f,e
0,0,0,0,0,0,0,0,0,0,0,0,0,0,0,0
a,b,b,b,b,b,b,50,5a,9i,52,b,b,b,b,c
h,0,5b,0,0,4t,0,4z,59,0,4z,0,0,4s,0,d
h,0,0,0,0,0,0,9h,58,0,4z,56,0,0,5b,d
h,0,0,4u,0,0,0,9h,57,0,4z,0,0,5c,0,d
h,4s,0,0,0,0,0,9h,56,0,9h,0,0,0,0,d
h,0,0,0,5b,0,0,9h,55,0,4z,0,4t,0,0,d
h,4u,0,0,0,0,0,4z,54,0,4z,0,0,0,4u,d
g,9j,9j,9j,9j,9j,9j,51,53,9j,51,9j,9j,9j,9j,e
NAME 7-Bridge
EXT 9,15 j 9,8
PAL 0

ROOM j
a,b,b,b,b,b,c,i,b,b,b,1m,1r,b,b,c
h,o,13,12,11,10,d,j,1b,0,1i,1n,1s,1w,0,d
h,p,14,8h,16,z,d,j,1c,1f,1j,1o,1t,1x,20,d
h,q,8j,8i,0,y,d,j,1d,1g,1k,1p,1u,1y,21,d
h,r,8k,0,1a,x,d,j,1e,1h,1l,1q,1v,1z,22,d
h,s,t,u,v,w,d,j,23,24,25,26,27,28,29,2a
g,f,f,f,f,f,e,k,f,f,f,f,f,f,f,e
0,0,0,0,0,0,0,0,0,0,0,0,0,0,0,0
a,b,b,b,b,b,52,50,5a,9i,52,52,b,b,b,c
h,5e,5f,5e,5f,5e,4z,4z,59,0,4z,5d,5e,5f,5e,d
h,5f,5e,5e,5f,5e,4z,9h,58,0,4z,5g,5f,5e,5e,d
h,5f,5e,5f,5e,5f,4z,9h,57,0,4z,5d,5f,5e,5f,d
h,5e,5f,5f,5f,5e,4z,9h,56,0,9h,5g,5f,5f,5e,d
h,5e,5f,5e,5e,5e,4z,9h,55,0,4z,5d,5f,5e,5e,d
h,5f,5e,5f,5e,5e,4z,4z,54,0,4z,5g,5e,5f,5e,d
g,5j,5l,5j,5l,5l,51,51,53,9j,51,5h,5i,5j,5j,e
NAME 8-Bridge
END 0 10,9
END 0 10,10
END 0 10,11
END 0 10,12
END 0 10,13
END 0 10,14
END 0 10,15
END 0 6,9
END 0 6,10
END 0 6,11
END 0 6,12
END 0 6,13
END 0 6,14
END 0 6,15
PAL 0

ROOM l
a,b,b,b,b,b,c,i,b,b,b,1m,1r,b,b,c
h,o,13,12,11,10,d,j,1b,0,1i,1n,1s,1w,0,d
h,p,14,15,16,z,d,j,1c,1f,1j,1o,1t,1x,20,d
h,q,17,18,0,y,d,j,1d,1g,1k,1p,1u,1y,21,d
h,r,19,0,1a,x,d,j,1e,1h,1l,1q,1v,1z,22,d
h,s,t,u,v,w,d,j,23,24,25,26,27,28,29,2a
g,f,f,f,f,f,e,k,f,f,f,f,f,f,f,e
0,0,0,0,0,0,0,0,0,0,0,0,0,0,0,0
a,b,b,b,b,b,b,50,5a,9i,9k,b,b,b,b,c
h,0,0,0,0,0,0,4z,59,0,4z,0,0,0,0,d
h,0,0,0,0,0,0,9h,58,0,4z,0,0,0,0,d
h,0,0,0,0,0,0,9h,57,0,4z,0,0,0,0,d
h,0,0,0,0,5b,0,9h,56,0,9h,0,4t,0,0,d
h,0,0,0,0,0,0,9h,55,0,4z,0,0,0,0,d
h,5c,0,0,0,0,0,4z,54,0,4z,4u,0,0,0,d
g,9f,9f,9f,9f,9f,9f,51,53,9f,51,9f,9f,9f,9f,e
NAME 8-Cliff
EXT 9,8 m 9,15
PAL 0

ROOM m
a,b,b,b,b,b,c,i,b,b,b,1m,1r,b,b,c
h,o,13,12,11,10,d,j,1b,0,1i,1n,1s,1w,0,d
h,p,14,8o,16,z,d,j,1c,1f,1j,1o,1t,1x,20,d
h,q,8n,8m,0,y,d,j,1d,1g,1k,1p,1u,1y,21,d
h,r,19,0,1a,x,d,j,1e,1h,1l,1q,1v,1z,22,d
h,s,t,u,v,w,d,j,23,24,25,26,27,28,29,2a
g,f,f,f,f,f,e,k,f,f,f,f,f,f,f,e
0,0,0,0,0,0,0,0,0,0,0,0,0,0,0,0
a,b,b,b,b,b,b,50,5a,9i,9k,b,b,b,b,c
h,0,0,0,0,0,0,4z,59,0,4z,0,0,0,0,d
h,0,0,0,0,0,0,9h,58,0,4z,0,0,0,0,d
h,0,0,0,0,0,0,9h,57,0,4z,0,0,0,0,d
h,0,0,0,0,0,0,9h,56,0,9h,0,0,0,0,d
h,0,0,0,0,0,0,9h,55,0,4z,0,0,0,0,d
h,0,0,0,0,0,0,4z,54,0,4z,0,0,0,0,d
g,9j,9j,9j,9j,9j,9j,51,53,9j,51,9j,9j,9j,9j,e
NAME 9
EXT 8,8 0 0,0
EXT 9,8 n 9,15
PAL 0

ROOM n
a,b,b,b,b,b,c,i,b,b,b,1m,1r,b,b,c
h,o,13,12,11,10,d,j,1b,0,1i,1n,1s,1w,0,d
h,p,8r,8o,16,z,d,j,1c,1f,1j,1o,1t,1x,20,d
h,q,8q,8p,0,y,d,j,1d,1g,1k,1p,1u,1y,21,d
h,r,19,0,1a,x,d,j,1e,1h,1l,1q,1v,1z,22,d
h,s,t,u,v,w,d,j,23,24,25,26,27,28,29,2a
g,f,f,f,f,f,e,k,f,f,f,f,f,f,f,e
0,0,0,0,0,0,0,0,0,0,0,0,0,0,0,0
a,b,b,b,b,b,b,b,b,b,b,b,b,b,b,c
h,0,0,0,0,0,0,5m,5m,5m,9q,0,0,0,0,d
h,0,0,0,0,0,0,9h,58,0,4z,0,0,0,0,d
h,0,0,0,0,0,0,9h,57,0,4z,0,0,0,0,d
h,0,0,0,0,0,0,9h,56,0,9h,0,0,0,0,d
h,0,0,0,0,0,0,9h,55,0,4z,0,0,0,0,d
h,0,0,0,0,0,0,4z,54,0,4z,0,0,0,0,d
g,9f,9f,9f,9f,9f,9f,51,53,9f,51,9f,9f,9f,9f,e
NAME 10
EXT 9,9 o 8,15
PAL 0

ROOM o
a,b,b,b,b,b,c,i,b,b,b,1m,1r,b,b,c
h,o,13,12,11,10,d,j,1b,0,1i,1n,1s,1w,0,d
h,p,8w,8t,16,z,d,j,1c,1f,1j,1o,1t,1x,20,d
h,q,8v,8u,0,y,d,j,1d,1g,1k,1p,1u,1y,21,d
h,r,19,0,1a,x,d,j,1e,1h,1l,1q,1v,1z,22,d
h,s,t,u,v,w,d,j,23,24,25,26,27,28,29,2a
g,f,f,f,f,f,e,k,f,f,f,f,f,f,f,e
0,0,0,0,0,0,0,0,0,0,0,0,0,0,0,0
a,8x,8y,8z,b,b,b,b,b,b,b,b,b,b,b,c
h,0,90,0,0,0,7s,7r,7q,7p,0,0,0,0,0,d
h,0,0,0,0,0,7l,7m,7n,7o,0,0,0,0,0,d
76,77,78,79,7a,78,7b,7c,7e,7f,7g,7h,7i,7j,7g,7k
6q,6r,6s,6t,6u,6v,6w,6x,6y,6z,70,71,72,73,74,75
6a,6b,6c,6d,6e,6f,6g,6h,6i,6j,6k,6l,6m,6n,6o,6p
5y,5z,0,60,61,62,63,0,0,0,64,65,66,67,68,69
5n,5o,5p,5q,5r,5s,9f,9f,9f,9f,5t,5u,5v,5w,5x,e
NAME 11
EXT 8,14 p 8,14
PAL 0

ROOM p
a,b,b,b,b,b,c,i,b,b,b,1m,1r,b,b,c
h,o,13,12,11,10,d,j,1b,0,1i,1n,1s,1w,0,d
h,p,8w,8t,16,z,d,j,1c,1f,1j,1o,1t,1x,20,d
h,q,8v,8u,0,y,d,j,1d,1g,1k,1p,1u,1y,21,d
h,r,19,0,1a,x,d,j,1e,1h,1l,1q,1v,1z,22,d
h,s,t,u,v,w,d,j,23,24,25,26,27,28,29,2a
g,f,f,f,f,f,e,k,f,f,f,f,f,f,f,e
0,0,0,0,0,0,0,0,0,0,0,0,0,0,0,0
91,92,93,94,95,b,b,b,b,b,b,b,b,b,b,c
h,9e,9d,9b,96,97,7s,7r,7q,7p,0,0,0,0,0,d
h,0,9c,9a,99,98,7l,7m,7n,7o,0,0,0,0,0,d
76,77,78,79,7a,78,7b,7c,7e,7f,7g,7h,7i,7j,7g,7k
6q,6r,6s,6t,6u,6v,6w,6x,6y,6z,70,71,72,73,74,75
6a,6b,6c,6d,6e,6f,6g,6h,6i,6j,6k,6l,6m,6n,6o,6p
5y,5z,0,60,61,62,63,0,0,0,64,65,66,67,68,69
5n,5o,5p,5q,5r,5s,9f,9f,9f,9f,5t,5u,5v,5w,5x,e
NAME 12
END 1 7,14
END 1 8,13
END 1 9,14
END 1 8,15
PAL 0

ROOM q
0,0,0,0,0,0,0,0,0,0,0,0,0,0,0,0
0,0,0,0,0,0,0,0,0,0,0,0,0,0,0,0
0,0,0,0,0,0,0,0,0,0,0,0,0,0,0,0
0,0,0,0,0,0,0,0,0,0,0,0,0,0,0,0
0,0,0,0,0,0,0,0,0,0,0,0,0,0,0,0
0,0,0,0,0,0,0,0,0,0,0,0,0,0,0,0
0,0,0,0,0,0,0,0,0,0,0,0,0,0,0,0
0,0,0,0,0,0,0,0,0,0,0,0,0,0,0,0
a,b,b,2b,2c,2d,2e,2f,9i,2g,2h,2i,2j,2k,2l,c
h,0,0,2m,2n,2o,2p,2q,0,2r,2v,2t,2u,2v,2w,d
h,0,2x,2y,2z,39,30,34,35,34,38,36,37,35,39,3a
h,0,3b,3c,3d,3e,3f,3g,3h,3i,3j,3k,3l,3m,3n,3o
h,0,9o,0,0,0,0,0,0,0,0,0,0,0,0,9g
h,0,3q,3r,3r,3r,3r,3r,3r,3r,3r,3r,3r,3r,3r,3s
h,0,0,0,0,0,0,0,0,0,0,0,0,0,0,d
g,f,f,f,f,f,f,f,f,f,f,f,f,f,f,e
NAME 0
ITM 0 1,12
EXT 15,12 2 0,12
PAL 0

ROOM r
a,b,b,b,b,b,c,i,b,b,b,1m,1r,b,b,c
h,o,13,12,11,10,d,j,1b,0,1i,1n,1s,1w,0,d
h,p,14,8d,16,z,d,j,1c,1f,1j,1o,1t,1x,20,d
h,q,0,8e,0,y,d,j,1d,1g,1k,1p,1u,1y,21,d
h,r,8g,8f,1a,x,d,j,1e,1h,1l,1q,1v,1z,22,d
h,s,t,u,v,w,d,j,23,24,25,26,27,28,29,2a
g,f,f,f,f,f,e,k,f,f,f,f,f,f,f,e
0,0,0,0,0,0,0,0,0,0,0,0,0,0,0,0
a,b,b,b,b,b,b,50,5a,9i,9k,b,b,b,b,c
h,0,5b,0,0,4t,0,4z,59,0,4z,0,0,4s,0,d
h,0,0,0,0,0,0,9h,58,0,4z,56,0,0,5b,d
h,0,0,4u,0,0,0,9h,57,0,4z,0,0,5c,0,d
h,4s,0,0,0,0,0,9h,56,0,9h,0,0,0,0,d
h,0,0,0,5b,0,0,9h,55,0,4z,0,4t,0,0,d
h,4u,0,0,0,0,0,4z,54,0,4z,0,0,0,4u,d
g,9j,9j,9j,9j,9j,9j,51,53,9j,51,9j,9j,9j,9j,e
NAME 7-Cliff
EXT 7,8 0 5,10
EXT 9,8 l 9,15
PAL 0

TIL 10
00000000
00000000
00000000
00000000
10000000
01000000
00100000
00010000

TIL 11
00000000
11110000
00001100
00000010
00000001
00000000
00000000
00000010

TIL 12
11111111
00000000
01000110
11001001
01000001
01000110
01001111
00000000

TIL 13
00000000
00001111
00110000
01000000
10000000
00000000
00000000
01000000

TIL 14
00100000
00010000
00000000
00000000
00000000
00000000
10000000
00000000

TIL 15
00000000
00000000
00010000
00010000
00010000
00010000
00010000
00010000

TIL 16
00000100
00001000
00000000
00000000
00000000
00000000
00000001
00000000

TIL 17
00000010
00000111
00000011
00000001
00000000
00000000
00000000
00000000

TIL 18
00010000
00010000
10010000
11010000
11110000
01110000
00100000
00000000

TIL 19
00000000
10000000
00000000
00000000
00000000
00000000
00010000
00100000

TIL 20
00000000
11000000
00000000
00000000
00000000
00000000
00000000
00000000

TIL 21
00000000
00000000
00000000
00000000
00000000
00000000
00000000
00001000

TIL 22
11100000
00000000
00000000
00000000
00000000
00000000
00000000
00000000

TIL 23
00011111
00010001
00010001
00000000
00000000
00000000
00000000
00000000

TIL 24
00000000
00011111
00000100
00000100
00000100
00000100
00000000
00000000

TIL 25
00000000
01111101
00010001
00010001
00010001
01111101
00000000
00000000

TIL 26
00000000
00010111
10110100
01010111
00010100
00010111
00000000
00000000

TIL 27
00000000
10100111
00101000
10000110
00000001
10001110
00000000
00000000

TIL 28
00000000
00000000
00000000
00011110
00010000
00011110
00010000
00011110

TIL 29
00000000
00000000
00000000
11010111
11010100
10110100
10110100
10010111

TIL 30
10000000
10000000
11111111
11111111
11111111
00000000
00000000
00000000
WAL true

TIL 31
10000000
10000000
11111111
11111111
11111111
00000000
00000000
00000000
WAL true

TIL 32
00000010
00000010
11111111
11111111
11111111
00000000
00000000
00000000
WAL true

TIL 33
00000000
00000000
11111111
11111111
11111111
00000000
00000000
00000000
WAL true

TIL 34
00000010
00000010
11111111
11111111
11111111
00000000
00000000
00000000
WAL true

TIL 35
00000000
00000000
11111111
11111111
11111111
00000000
00000000
00000000
WAL true

TIL 36
00001000
00001000
11111111
11111111
11111111
00000000
00000000
00000000
WAL true

TIL 37
00010000
00010000
11111111
11111111
11111111
00000000
00000000
00000000
WAL true

TIL 38
00000000
00000000
11111111
11111111
11111111
00000000
00000000
00000000
WAL true

TIL 39
01000000
01000000
11111111
11111111
11111111
00000000
00000000
00000000
WAL true

TIL 40
11111111
00000000
11111100
00000100
11111100
00000100
11111100
00100100

TIL 41
11111111
00000000
00000000
00000000
00000000
11111000
10001000
10001000

TIL 42
00000001
00000001
00000001
00000001
00000001
00000001
00000001
00000001

TIL 43
00100000
00100000
00100000
00100000
00100000
00100011
00100010
00100111

TIL 44
00000000
00000000
00000000
00000000
00000000
11111000
00001000
11111101

TIL 45
00000000
00000000
00000000
00000000
00000000
11111110
10000010
11111111

TIL 46
00100100
00100100
00100100
00100100
00100100
00100100
00100100
00100100

TIL 47
10001000
10001000
11111000
00100000
00100000
00100000
00100000
00100000

TIL 48
00000001
00000001
11111111
11111111
11111111
00000000
00000000
00000000

TIL 49
00100100
00100100
11111111
11111111
11111111
00000000
00000000
00000000

TIL 50
11111111
10000000
10000000
10000000
10000000
10000000
10000000
10000000

TIL 51
10000000
10000000
10000000
10000000
10000000
10000000
10000000
11111111

TIL 52
11111111
10000000
10000000
10000000
10000000
10000000
10000000
10000000

TIL 53
00000000
00001000
00001000
00001000
00001000
00001000
00001000
11111111

TIL 54
00001000
00001000
00001000
00001000
00000000
00000000
00000000
00000000

TIL 55
00001000
00001000
00000000
00000000
00000000
00000000
00000000
00001000

TIL 56
00000000
00000000
00000000
00000000
00000000
00001000
00001000
00001000

TIL 57
00000000
00000000
00000000
00001000
00001000
00001000
00001000
00001000

TIL 58
00000000
00001000
00001000
00001000
00001000
00001000
00000000
00000000

TIL 59
00001000
00001000
00001000
00001000
00000000
00000000
00000000
00000000

TIL 60
00000000
00000000
11110000
00000000
00000000
00000000
00000000
00000000

TIL 61
00000000
00000000
00000000
00000000
00000000
00000000
00111100
00000000

TIL 62
00000001
00000010
00000100
00000100
00001000
00010000
00100000
01000000
WAL true

TIL 63
10000110
00000000
00000000
00000000
00000000
00000000
00000000
00000000

TIL 64
01000000
01000000
01000000
00100000
00100000
00100000
00100000
00010000
WAL true

TIL 65
00000000
00000000
00000000
00000000
00111100
00000000
00000000
00000000

TIL 66
00000000
00000000
00001111
00000000
00000000
00000000
00000000
00000000

TIL 67
00000000
00000000
00000000
00000000
00000000
00000000
00001111
00000000

TIL 68
00000000
00000000
00000000
00001111
00000000
00000000
00000000
00000001

TIL 69
00000001
00000001
00000001
00000001
00000001
00000001
00000001
11100001

TIL 70
00000000
00000000
00000110
00000000
00000000
00000000
00000000
00000000

TIL 71
00000000
00000000
00000000
00000001
00000000
00000000
00000000
00000000

TIL 72
00000000
00000000
00000000
10000000
00000000
00000110
00000000
00000000

TIL 73
11000000
00000000
00000000
00000000
00000110
00000000
00000000
00000000

TIL 74
00000000
00110000
00000000
00000000
00000000
00000110
00000000
00000000

TIL 75
00000001
00000001
00000001
00000001
00011001
00000001
00000001
00000001

TIL 76
11111111
10000000
10000000
10000000
10000000
10001100
10000000
10000000

TIL 77
11111111
00000000
00000000
00000000
11000000
00000000
00000000
00000000

TIL 78
11111111
00000000
00000000
00000000
00000000
00000000
00000000
11000000

TIL 79
11111111
00000000
00000000
00000000
11000000
00000000
00000000
00000000

TIL 80
00000000
00000000
00000000
00000000
00000000
00000000
00000000
11000000

TIL 81
11000000
11000000
11100000
01100000
01100000
01111111
00100000
00000000

TIL 82
00000000
00000000
00000000
00000000
00000000
11111000
00000000
00000000

TIL 83
00000000
00000000
00000000
00000000
00000000
00000000
00000000
11000000

TIL 84
11000000
11000000
11100000
01100000
01100000
01111000
00100110
00000001

TIL 85
01100000
00010001
00000000
00000000
00000000
00000000
00001000
00000100

TIL 86
00000000
00000000
00000000
00000000
00000000
00000000
00000000
11000000

TIL 87
11000000
11000000
11100000
01100000
01100000
01110000
00101000
00000110

TIL 88
00000001
00000000
00000000
00000000
00000000
00000000
00000000
00000000

TIL 89
00000000
11000001
00100000
00000000
00000000
00000000
00001000
00000100

TIL 90
01000010
00111100
00000000
00000000
00000000
00000000
00000000
00000000

TIL 91
00111111
01001000
10000100
10000100
10000010
10000001
10000001
10000000

TIL 92
11111111
00001111
00000000
00000000
00000000
00000000
00000000
10000000

TIL 93
11111111
11111000
00000111
00000000
00000000
00000000
00000000
00000000

TIL 94
11111111
00000000
11000000
00111100
00000011
00000000
00000000
00000000

TIL 95
11111111
00000000
00000000
00000000
10000000
01100000
00011000
00000100

TIL 96
11100010
11111001
11111100
11111110
11111110
11111111
11111111
11111111

TIL 97
00000000
00000000
10000000
10000000
01000000
01000000
01000000
01000000

TIL 98
01000000
01000000
01000000
01000000
01000000
10000000
10000000
00000000

TIL 99
11111111
11001111
10110111
10110110
11001110
11111100
11111000
11100000

TIL a
00111111
01000000
10000000
10000000
10000000
10000000
10000000
10000000
WAL true

TIL b
11111111
00000000
00000000
00000000
00000000
00000000
00000000
00000000
WAL true

TIL c
11111100
00000010
00000001
00000001
00000001
00000001
00000001
00000001
WAL true

TIL d
00000001
00000001
00000001
00000001
00000001
00000001
00000001
00000001
WAL true

TIL e
00000001
00000001
00000001
00000001
00000001
00000001
00000010
11111100
WAL true

TIL f
00000000
00000000
00000000
00000000
00000000
00000000
00000000
11111111
WAL true

TIL g
10000000
10000000
10000000
10000000
10000000
10000000
01000000
00111111
WAL true

TIL h
10000000
10000000
10000000
10000000
10000000
10000000
10000000
10000000
WAL true

TIL i
00001111
00010000
00100000
00100000
00100000
00100000
00100000
00100000
WAL true

TIL j
00100000
00100000
00100000
00100000
00100000
00100000
00100000
00100000
WAL true

TIL k
00100000
00100000
00100000
00100000
00100000
00100000
00010000
00001111
WAL true

TIL l
00000000
00000000
00111111
01000000
10000000
10000000
10000000
10000000
WAL true

TIL m
00000000
00000000
11111111
00000000
00000000
00000000
00000000
00000000
WAL true

TIL n
00000000
00000000
11111100
00000010
00000001
00000001
00000001
00000001
WAL true

TIL o
00000000
00000000
00000000
00000000
00000001
00000010
00000100
00001000

TIL p
00001000
00010000
00100000
00100000
01000000
01000110
01000001
01000000

TIL q
10000000
10000000
10011000
10100100
10011100
10000100
10011000
10000000

TIL r
01000000
01000001
01000110
01000000
00100000
00100000
00010000
00001000

TIL s
00001000
00000100
00000010
00000001
00000000
00000000
00000000
00000000

TIL t
01000000
00000000
00000000
10000000
01000000
00110000
00001111
00000000

TIL u
00000000
00011000
00100000
00111000
00100100
00011000
00000000
11111111

TIL v
00000010
00000000
00000000
00000001
00000010
00001100
11110000
00000000

TIL w
00010000
00100000
01000000
10000000
00000000
00000000
00000000
00000000

TIL x
00000010
10000010
01100010
00000010
00000100
00000100
00001000
00010000

TIL y
00000001
00000001
00111101
00000101
00011001
00000101
00111001
00000001

TIL z
00010000
00001000
00000100
00000100
00000010
01100010
10000010
00000010

TIL 1a
00000000
00000001
00000000
00000000
00000000
00000000
00001000
00000100

TIL 1b
00000000
00000000
11000110
11000110
11000110
11000110
11000110
11000110

TIL 1c
11000110
11010110
11010110
11010110
10010010
10010010
10010010
10010010

TIL 1d
10000010
10000010
10000010
10000010
10000010
10000010
10000010
10000010

TIL 1e
10000010
00000000
00000000
00000000
00000000
00000000
00001110
00010001

TIL 1f
00000000
00000000
00000000
00000000
00000000
00000000
00000000
01000000

TIL 1g
01000000
00000110
01000000
01001000
01001000
01001000
01001000
01001000

TIL 1h
01000010
00000000
00000000
00000000
00000000
00000000
00000000
00000000

TIL 1i
00000000
00000000
00000000
00000000
00000000
00000000
10000000
10000001

TIL 1j
10000010
10000010
10000010
10000010
10000010
10000001
10000000
10000000
>
10000010
10000100
10000101
10000101
10000101
10000100
10000010
10000001

TIL 1k
10000000
10010000
10010111
10010000
10010000
10010000
10010000
10010000

TIL 1l
00010000
00000000
00000000
00000000
00000000
00000000
00000000
00000000

TIL 1m
11111111
00000000
00000000
00000000
00000000
00000000
00000000
00000001
>
11111111
00000000
00000000
00000000
00000000
00000000
00000000
00000000

TIL 1n
00000010
00000100
00001000
00010000
00100010
01000100
10000000
00111000
>
00000000
00000100
00001000
00000001
00100000
01000000
10000000
00000000

TIL 1o
01011100
11111010
11111110
10110110
01111100
00111001
10000010
01111100
>
01110000
10111000
11110100
11111100
01101100
11111001
01110010
00000100

TIL 1p
00000000
00000000
00010010
00010010
10010010
10010010
10010010
10010010
>
11111000
00000000
00010010
00010010
10010010
10010010
10010010
10010010

TIL 1q
10010001
00000000
00000000
00000000
00000000
00000000
00000000
00000000

TIL 1r
11111111
00000000
00000000
00000000
00000000
00000000
10000000
00000000
>
11111111
00000000
00000000
00010000
00100000
01000000
00000000
00000000

TIL 1s
00000000
01000000
10001000
00000000
00100000
01000001
10010100
00000100
>
00100000
01000100
00001000
00000000
00000000
00000001
00010100
00000100

TIL 1t
01000100
10010100
00100100
01000100
10000100
00000100
00000100
00000100

TIL 1u
00000100
10000101
00100100
00100100
00100100
00100100
00100100
00100100

TIL 1v
10100100
00100000
00100000
00100000
00100000
00100000
00100000
00100000

TIL 1w
00000000
00000000
00000000
00000000
00000000
00000000
00000010
00000010
>
00000000
00000000
00000000
01000000
10000000
00000000
00000010
00000010

TIL 1x
00000010
00011010
00000010
00000010
00000010
00000010
00000010
00000010

TIL 1y
00000010
11100010
00000010
00010010
00010010
00010010
00010010
00010010

TIL 1z
00010000
00000000
00000000
00000000
00000000
00000000
00000000
00000000

TIL 2a
00000001
00000001
00000001
10000001
01000001
01000001
01000001
10000001

TIL 2b
11111111
00010000
00010000
00010000
00010000
00010000
00010000
00010011
WAL true

TIL 2c
11111111
00000000
00000000
00000000
00000000
00000000
00000000
11111000

TIL 2d
11111111
00000000
00000000
00000000
00000000
00000000
01111111
01000000

TIL 2e
11111111
00000000
00000000
00000000
00000000
00000000
10000000
10000111

TIL 2f
11111111
00000010
00000010
00000010
00000010
00000010
00000010
11110010

TIL 2g
11111111
00000010
00000010
00000010
00000010
00000010
00000010
00000010

TIL 2h
11111111
00000000
00000000
00000000
00000000
00000000
00000000
11111110

TIL 2i
11111111
00000000
00000000
00000000
00000000
00000000
00001111
00001000

TIL 2j
11111111
00000000
00000000
00000000
00000000
00000000
11110000
00010000

TIL 2k
11111111
00000000
00000000
00000000
00000000
00000000
00000000
11111110

TIL 2l
11111111
01000000
01000000
01000000
01000000
01000000
01000000
01000000

TIL 2m
00010010
00010010
00010011
00010010
00010010
00010011
00010000
00010000
WAL true

TIL 2n
01001000
01001000
11111000
01001000
01001000
11111000
00000000
00000000

TIL 2o
01000000
01000000
01000000
01000000
01000000
01010000
01000000
01000000

TIL 2p
10000100
10000100
10000111
10000100
10000100
10000111
10000000
10000000

TIL 2q
10010010
10010010
11110010
10010010
10010010
11110010
00000010
00000010

TIL 2r
00000010
00000010
00000010
00000010
00000010
00000010
00000010
00000010

TIL 2s
01001001
01001001
01111111
01001001
01001001
01111111
00000000
00000000

TIL 2t
00001000
00001000
00001000
00001000
00001000
00001010
00001000
00001000

TIL 2u
00010000
00010000
00010000
00010000
00010000
00010000
00010000
00010000

TIL 2v
10010010
10010010
11111110
10010010
10010010
11111110
00000000
00000000

TIL 2w
01000000
01000000
01000000
01000000
01000000
01000000
01000000
01000000

TIL 2x
00000000
00000000
00000011
00000011
00000011
00000010
00000010
00000010
WAL true

TIL 2y
00010000
00010000
11111111
11111111
11111111
00000000
00000000
00000000
WAL true

TIL 2z
00000000
00000000
11111111
11111111
11111111
00000000
00000000
00000000
WAL true

TIL 3a
00000001
00000001
11111111
11111111
11111111
00000001
00000001
00000001
WAL true

TIL 3b
00000010
00000010
00000010
00000010
00000010
00000010
00000010
00000010

TIL 3c
00000000
00000000
00000000
00000000
00000000
00000000
00000000
11111110

TIL 3d
00000000
00000000
00000000
00000000
00000000
00000000
00000000
00001111

TIL 3e
00000000
00000000
00000000
00000000
00000000
00000000
00000000
11100000

TIL 3f
00000000
00000000
00000000
00000000
00000000
00000000
00000000
11111110

TIL 3g
00000000
00000000
00000000
00000000
00000000
00000000
00000000
00001111

TIL 3h
00000000
00000000
00000000
00000000
00000000
00000000
00000000
11100000

TIL 3i
00000000
00000000
00000000
00000000
00000000
00000000
00000000
11111110

TIL 3j
00000000
00000000
00000000
00000000
00000000
00000000
00000000
00001111

TIL 3k
00000000
00000000
00000000
00000000
00000000
00000000
00000000
11100000

TIL 3l
00000000
00000000
00000000
00000000
00000000
00000000
00000000
11111110

TIL 3m
00000000
00000000
00000000
00000000
00000000
00000000
00000000
00001111

TIL 3n
00000000
00000000
00000000
00000000
00000000
00000000
00000000
11100000

TIL 3o
00000001
00000001
00000001
00000001
00000001
00000001
00000001
11111111

TIL 3p
00000010
00000010
00000010
00000010
00000010
00000010
00000010
00000010

TIL 3q
00000010
00000010
00000010
00000011
00000000
00000000
00000000
00000000

TIL 3r
00000000
00000000
00000000
11111111
00000000
00000000
00000000
00000000

TIL 3s
00000001
00000001
00000001
11111111
00000001
00000001
00000001
00000001

TIL 3t
11111111
00000000
00000000
00000000
00000000
00000000
00000000
01111111

TIL 3u
01000000
01000000
11111111
11111111
11111111
00000000
00000000
00000000
WAL true

TIL 3v
10000000
10000000
11111111
11111111
11111111
10000000
10000000
10000000

TIL 3w
00000001
00000001
11111111
11111111
11111111
00000001
00000001
00000001

TIL 3x
11111111
00000000
00000001
00000001
00000001
00000001
00000001
00000001

TIL 3y
11111111
00000000
11111111
00000000
11111111
00000000
11111111
00100000

TIL 3z
11111111
00000000
11111111
00000000
11111111
00000000
11111111
00000000

TIL 4a
00000101
00000101
11111111
11111111
11111111
00000000
00000000
00000000

TIL 4b
00000001
00000001
11111111
11111111
11111111
00000000
00000000
00000000

TIL 4c
00100100
00100100
11111111
11111111
11111111
00000000
00000000
00000000

TIL 4d
00000000
00000000
00000000
00000000
00000000
00000000
00100000
00100000

TIL 4e
00000001
00000001
00000001
00000001
00000001
00000001
00000001
11100001

TIL 4f
10000000
10000000
10000000
11111111
10000000
10000000
10000000
10000000

TIL 4g
00000000
00000000
00000000
11111111
00000000
00000000
00000000
00000000

TIL 4h
00000001
00000001
00000001
11111111
00000001
00000001
00000001
00000001

TIL 4i
00100000
00100000
11111111
11111111
11111111
00000000
00000000
00000000

TIL 4j
00010010
00010010
00010011
00010010
00010010
00010011
00010000
00010000

TIL 4k
00001000
01001000
11101000
01001000
01001000
11111000
00000000
00000000

TIL 4l
01000000
01000000
01000000
01000000
01010000
01000000
01000000
01000000

TIL 4m
10000100
10000100
10000100
10000100
10000100
10000111
10000000
10000000

TIL 4n
00010010
00010010
11010010
10010010
10010010
11110010
00000010
00000010

TIL 4o
01001000
01001000
01010000
01100000
01000000
01010000
01000000
01000000

TIL 4p
11111111
00000000
00000000
00000000
00000000
00000000
01111111
01010000

TIL 4q
10000000
10000000
10000000
10000000
10000000
10000000
10000000
11111111

TIL 4r
00000001
00000001
00000001
00000001
00000001
00000001
00000001
11111111

TIL 4s
00000000
00000000
00000000
00000000
00000000
00000100
00100100
00100100

TIL 4t
00000000
00000000
00000000
00000000
00000000
00000000
00000010
00010010

TIL 4u
00000000
00000000
00000000
00000000
00000000
00000000
00100000
00101000

TIL 4v
00000000
00000000
00000000
11110000
00001100
00000010
00000001
00000001

TIL 4w
00000001
00000001
00000010
00001100
11110000
00000000
00000000
00000000

TIL 4x
00000000
00000000
00000000
00000000
11111111
00000000
00000000
00000000

TIL 4y
10000000
10000000
10000000
10000000
11111111
10000000
10000000
10000000

TIL 4z
10000000
10000000
10000000
10000000
10000000
10000000
10000000
10000000

TIL 5a
11111111
00001000
00000000
00000000
00000000
00000000
00000000
00001000

TIL 5b
00000000
00000000
00010000
00101000
00010000
00011000
00110000
00010000

TIL 5c
00000000
00000000
00000000
00000000
00101000
00010000
00011000
01010010

TIL 5d
10000000
10000110
11001001
10110000
10000000
10000000
10000000
10000000

TIL 5e
00000000
00000000
00110000
01001001
00000110
00000000
00000000
00000000

TIL 5f
00000000
10000110
01001001
00110000
00000000
00000000
00000000
00000000

TIL 5g
10000000
10000000
10110000
11001001
10000110
10000000
10000000
10000000

TIL 5h
10000000
10000110
11001001
10110000
10000000
10000000
10000000
11111111

TIL 5i
00000000
10000110
01001001
00110000
00000000
00000000
00000000
11111111

TIL 5j
00000000
00000000
00110000
01001001
00000110
00000000
00000000
11111111

TIL 5l
00000000
10000110
01001000
00110000
00000000
00000000
00000000
11111111

TIL 5m
00000000
00000000
00000000
00000000
00000000
00000000
00000000
11111111

TIL 5n
10000000
10000000
10000000
10000011
10000000
10000000
01000000
00111111

TIL 5o
00000000
00000000
00000000
11000000
00000000
00000000
00000000
11111111

TIL 5p
00000000
00000111
00000000
00000000
00000000
00000000
00000000
11111111

TIL 5q
00000000
10000000
00000000
00000000
00000111
00000000
00000000
11111111

TIL 5r
00000000
00000000
00000001
00000001
10000001
00000010
00000010
11111111
WAL true

TIL 5s
01000000
10000000
00000000
00000000
00000000
00000000
00000000
11111111
WAL false

TIL 5t
00001100
00000010
00000001
00000001
00000000
00000000
00000000
11111111
WAL true

TIL 5u
00000000
00000001
00000000
00000000
10000000
10000000
10000000
11111111

TIL 5v
00000000
11100000
00000000
00000000
00000000
00000000
00000000
11111111

TIL 5w
00000000
00000000
00000000
00000000
01111000
00000000
00000000
11111111

TIL 5x
00000000
00000000
00111100
00000000
00000000
00000000
00000000
11111111

TIL 5y
10011110
10000000
10000000
10000000
10000000
10000000
10000000
11111000

TIL 5z
00000000
00000000
00000000
00000000
00000000
00001111
00000000
00000000

TIL 6a
10000000
10000000
10011100
10000000
10000000
10000000
10000000
10000000

TIL 6b
00000111
00000000
00000000
00000000
00000000
00000000
00000000
00000001

TIL 6c
00000000
00000000
00000000
00001110
00000000
00000000
00000000
11000000

TIL 6d
00000011
00000000
00000000
00000000
00000000
00000111
00000000
00000000

TIL 6e
10000000
00000000
00001110
00000000
00000000
00000000
00000000
00000000

TIL 6f
00000000
00000000
00000000
00000000
00000000
00000000
00000000
11100000

TIL 6g
00000000
01110000
00000000
00000000
00000000
00000000
00000000
01111001
WAL true

TIL 6h
00000000
00000001
00001110
00110000
01000000
10000000
10000000
00000000
WAL true

TIL 6i
01111110
10000001
00000000
00000000
00000000
00000000
00000000
00000000

TIL 6j
00000000
11000000
00110000
00001000
00000110
00000001
00000000
00000000

TIL 6k
00000000
00000000
00000000
00000000
00000000
00000000
10001110
10000000
WAL true

TIL 6l
11100000
00000000
00000000
00000000
00000000
00000001
00000000
00000000

TIL 6m
00000000
00000000
00000001
00000000
00000000
11000000
00000000
00000000

TIL 6n
00000000
00000000
11000000
00000000
00000000
00000000
00001110
00000000

TIL 6o
00000000
00000000
00011100
00000000
00000000
00000000
00000000
00000000

TIL 6p
00000001
00000001
00000001
00000001
01110001
00000001
00000001
00000001

TIL 6q
10000000
10000000
10000000
10000000
10000000
10000000
10000001
10000000

TIL 6r
00110000
00000000
00000000
00000000
00000000
00000000
11000000
00000000

TIL 6s
00000000
00000000
01100000
00000000
00000000
00000000
00000000
00000000

TIL 6t
00000000
00000000
00000000
00110000
00000000
00000000
00000000
00000000

TIL 6u
00000000
00000000
01100000
00000000
00000000
00000000
00000000
00000000

TIL 6v
00000000
00000000
00000000
00000000
00000000
00000000
00011100
00000000

TIL 6w
00000000
00000000
01100000
00000000
00000000
00000000
00000000
00000000

TIL 6x
00000000
00000000
01111111
00000000
00000000
00000000
00000000
11100000

TIL 6y
00000000
00000000
11111110
00000000
00000000
01100000
00000000
00000000
WAL true

TIL 6z
00000000
00000000
00000000
00000000
00000000
00000000
00000000
00000111
WAL true

TIL 7a
11111111
00000000
00000000
00000011
00000000
00000000
00000000
01100000

TIL 7b
11111111
00000000
00000111
00000000
00000000
00000000
00000001
00000000

TIL 7c
11111111
00000000
11111111
00000000
00000000
00000000
11111111
00000000

TIL 7e
11111111
00000000
11111111
00000000
00000000
00000000
11111111
00000000

TIL 7f
11111111
00000000
11100000
00000000
00000000
00000000
10000000
00000011

TIL 7g
11111111
00000000
00000000
00001100
00000000
00000000
00000000
00000000

TIL 7h
11111111
00000000
00000000
00000000
00000000
00000000
00011000
00000000

TIL 7i
11111111
00000000
00000000
00011000
00000000
00000000
00000000
00000000

TIL 7j
11111111
00000000
00000000
00000000
00000000
00000000
00000000
00000000

TIL 7k
11111111
00000001
01100001
00000001
00000001
00000001
00000001
00110001

TIL 7l
00000111
00000000
00000000
00001111
00001111
00001111
00001111
00001111

TIL 7m
11111111
00011111
00111111
11111111
11111111
11111111
11111111
11111111

TIL 7n
11111111
11111111
11111111
11111111
11111000
11111110
11111111
11111111

TIL 7o
11100000
11100000
11110000
11110000
00000000
00000000
11110000
11110000

TIL 7p
00000000
00000000
00000000
00000000
00000000
10000000
11000000
11100000

TIL 7q
00000000
11100000
11111100
11111110
11111111
11111111
11111111
11111111

TIL 7r
00000000
00000111
00111111
01111111
11111111
11111111
11111111
11111111

TIL 7s
00000000
00000000
00000000
00000000
00000000
00000001
00000011
00000111

TIL 7t
00000000
00000000
00000000
00000000
00000000
00000000
00000000
11000001

TIL 7u
11000010
11000010
11100100
01101000
01111000
01110000
00100000
00000000

TIL 7v
00000100
00001000
00000000
00000000
01000000
10000000
10000001
00000000

TIL 7w
00000000
00000000
00000000
00000000
00000000
00000000
00000000
11000000

TIL 7x
11000000
11000000
11100001
01100110
01101000
01110000
00100000
00000000

TIL 7y
00100000
11000000
00000000
00000000
00000000
00000000
00000000
00000000

TIL 7z
00000100
00001000
00000000
00000000
00000000
00000000
00000001
00010000

TIL 8a
00000000
00000000
00000000
00000000
00000000
00000000
00000000
11000000

TIL 8b
11000000
11000000
11100000
01100000
01100000
01110000
00110000
00010000

TIL 8c
00010000
00010000
00010000
00010000
00010000
00010000
00000000
00000000

TIL 8d
00000000
00000000
00000000
00000000
00000000
00000000
00000000
11000000

TIL 8e
11000000
11000000
11100000
01100000
01100000
01110000
00110000
01000000

TIL 8f
10000000
00000000
00000000
00000000
00000000
00000000
00000000
00000000

TIL 8g
00000000
10000001
00000010
00000100
00000000
00000000
00010000
00100000

TIL 8h
00000000
00000000
00000000
00000000
00000000
00000000
00000000
11000000

TIL 8i
11000000
11000000
11100000
01100000
01100000
01110000
00110000
11000000

TIL 8j
00000000
00000000
00000000
00000000
00000000
00000000
00000000
00000001

TIL 8k
00011110
10000000
00000000
00000000
00000000
00000000
00010000
00100000

TIL 8l
00000000
00000000
00000000
00000000
00000000
00000000
00000000
11000000

TIL 8m
11000000
11000000
11100000
01100000
01100000
11110000
00110000
00000000

TIL 8n
00000000
00000000
00000000
00000000
00000000
01111111
00000000
00000000

TIL 8o
00000000
00000000
00000000
00000000
00000000
00000000
00000000
11000000

TIL 8p
11000000
11000000
11100000
01100000
11100000
01110000
00110000
00000000

TIL 8q
00010000
00001000
00000100
00000010
00000001
00000000
00000000
00000000

TIL 8r
00100000
00010000
00000000
00000000
00000000
00000000
10000000
00010000

TIL 8s
00000000
00000000
00000000
00000000
00000000
00000000
00000000
00000000

TIL 8t
00000000
00000000
00000000
00000000
00000000
00000000
00000000
11000000

TIL 8u
11000000
11000000
11100000
11100000
11100000
01110000
00110000
00000000

TIL 8v
00000001
00000001
00000001
00000000
00000000
00000000
00000000
00000000

TIL 8w
00100000
00010000
00000000
00000000
00000100
00000100
10000010
00000010

TIL 8x
11111111
00001000
00000100
00000100
00000010
00000010
00000001
00000000

TIL 8y
11111111
01000010
10000101
10000001
10000001
10010001
01000010
00111100

TIL 8z
11111111
10000000
01000000
01000000
01000000
01000000
10000000
00000000

TIL 9a
11111111
11111111
11111111
01111111
01111111
00111111
00011111
10000111

TIL 9b
00000111
00011111
00110011
01101101
01101101
11110011
11111111
11111111

TIL 9c
00100000
00010000
00001000
00000100
00000010
00000010
00000001
00000000

TIL 9d
00000000
00000000
00000000
00000000
00000000
00000000
10000000
01000000

TIL 9e
01000000
00100000
00010000
00001100
00000010
00000001
00000000
00000000

TIL 9f
00000000
00000000
00000000
00000000
00000000
00000000
00000000
11111111

TIL 9g
00000001
00000001
00000001
00000001
00000001
00000001
00000001
00000001

TIL 9h
10000000
10000000
10000000
10000000
10000000
10000000
10000000
10000000

TIL 9i
11111111
00000000
00000000
00000000
00000000
00000000
00000000
00000000

TIL 9j
00000000
00000000
00000000
00000000
00000000
00000000
00000000
11111111

TIL 9k
11111111
10000000
10000000
10000000
10000000
10000000
10000000
10000000
WAL true

TIL 9l
10000000
10000000
10000000
10000000
10000000
10000000
10000000
11111111

TIL 9m
11111111
00000000
00000001
00000001
00000001
00000001
00000001
00000001
WAL true

TIL 9n
00000000
00000000
11111111
11111111
11111111
00000000
00000000
00000000

TIL 9o
00000010
00000010
00000010
00000010
00000010
00000010
00000010
00000010

TIL 9p
11111111
10000000
10000000
10000000
10000000
10000000
10000000
10000000

TIL 9q
00000000
00000000
00000000
00000000
00000000
00000000
00000000
10000000

SPR 10
00000000
00000000
01010001
01110001
01110010
01111100
00111100
00100100

SPR A
00011100
00010000
00011100
00111000
01111100
10111010
00101000
00101000
>
00000000
00011100
00010000
00111100
01111100
10111010
00101000
00101000
POS q 1,12

SPR a
00000000
00000000
01010001
01110001
01110010
01111100
00111100
00100100
DLG SPR_0

SPR b
00111000
00001000
00111000
00011100
00111110
00111110
00010100
00010100
DLG SPR_j

SPR c
00110000
01001110
01010010
10001010
11000100
00110100
00001100
00000000
DLG SPR_1
POS q 7,14

SPR d
00110000
01001110
01010010
10001010
11000100
00110100
00001100
00000000
DLG SPR_2
POS q 10,11

SPR e
00110000
01001110
01010010
10001010
11000100
00110100
00001100
00000000
DLG SPR_i
POS 2 12,12

SPR f
00000000
00000000
00010000
00101000
00010000
00011000
00110000
00010000
DLG SPR_3
POS e 2,9

SPR g
00000000
00010000
00101000
00010000
00011000
00010000
00110000
00010000
DLG SPR_4
POS e 3,14

SPR i
00000000
00000000
00001000
00010100
00001000
00001100
00011000
00001000
DLG SPR_5
POS e 5,9

SPR j
00000000
00000000
00000000
00000000
00010000
00011000
00110000
10010010
DLG SPR_6
POS e 8,14

SPR k
00000000
00010000
00101000
00111000
00010000
00011000
00110000
00010000
DLG SPR_7
POS e 11,9

SPR l
00000000
00000000
00000000
00000000
00000000
00000100
00100100
00100100
DLG SPR_8
POS f 2,9

SPR m
00000000
00000000
00000000
00000000
00000000
00000000
00000010
00010010
DLG SPR_9

SPR n
00000000
00000000
00000000
00000000
00000000
00000000
00100000
00101000
DLG SPR_a
POS f 6,9

SPR o
00000000
00000000
00000000
00000000
00000000
00001000
01001000
01001000
DLG SPR_b
POS f 9,14

SPR p
00000000
00000000
00000000
00000000
00000000
00000000
00010000
00010100
DLG SPR_c
POS f 13,9

SPR q
00000000
00000000
01010001
01110001
01110010
01111100
00111100
00100100
DLG SPR_d

SPR r
00000000
00000000
00010000
00101000
00010000
00011000
00110000
00010000
DLG SPR_e
POS h 11,9

SPR s
00000000
00000000
00000000
00000000
00000000
00000000
00000010
00010010
DLG SPR_f
POS h 13,14

SPR t
00000000
00000000
00010000
00101000
00010000
00011000
00110000
00010000
DLG SPR_g

SPR u
00000000
00000000
00010000
00101000
00010000
00011000
00110000
00010000
DLG SPR_h
POS r 14,10

SPR w
00111000
00001000
00111000
00011100
00111110
00111110
00010100
00010100
DLG SPR_k
POS 2 15,9

SPR x
00011100
00010000
00011100
00111000
01111100
01111100
00101000
00101000
DLG SPR_l
POS 2 14,9

SPR y
00110000
01001110
01010010
10001010
11000100
00110100
00001100
00000000
DLG SPR_m

SPR z
00111000
00001000
00111000
00011100
00111110
00111110
00010100
00010100
DLG SPR_n
POS 3 9,11

ITM 0
00011100
00010000
00011100
00111000
01111100
10111010
00101000
00101000
>
00000000
00011100
00010000
00111100
01111100
10111010
00101000
00101000
DLG ITM_0

DLG SPR_0
Because the animals could feel it too.

DLG SPR_1
"NEWS FLASH: METEOR TO CRASH THE EARTH. IS THIS THE END?"

DLG SPR_3
I look at the flowers and wish I could be one of them.

DLG SPR_4
Programmed since birth. No feelings, no worries. Just... Water and sun.

DLG SPR_5
So simple, so pure. Clueless. 

DLG SPR_6
Dying without no why's. No how's. Just... Dying.

DLG SPR_7
"""
I hope to be one next time... 
I hope there's a next time.
"""

DLG SPR_8
I still remember when the world found out.

DLG SPR_9
City after city, country after country.

DLG SPR_a
Everyone had their own time of shock. Their own time of fear.

DLG SPR_b
But slowly, each one just accepted their fate.

DLG SPR_c
The fate of mankind. The fate of animals. The fate of the world.

DLG SPR_d
Because animals felt it too. They probably felt it more than us.

DLG SPR_e
Should I wait for my own demise?

DLG SPR_f
Should I end it all before it ends me?

DLG SPR_g
This is where I go.

DLG SPR_h
This is what I chose.

DLG SPR_2
"(...) Scientists all around the world have reached the same conclusion. In one week, exactly at midnight, meteor KS8 will hit the Earth, causing major damage. This is the end of the world as we know it."

DLG SPR_j
So this is it, huh? Never imagined going like this. Some people already went, others are waiting to go. Me? I have nothing to lose so... I'm just waiting here for my release. If you want the best view when it comes, head East.

DLG SPR_k
I will always love you.

DLG SPR_l
We're leaving together.

DLG SPR_m
"Dear diary. Mommy said that soon we will go to a place far away so I can't keep you anymore. She also said to make a paper plane out of this page so it can reach God and he gives us a pretty place to stay. I hope it has ice cream and puppies."

DLG SPR_n
Look at that. Some people could not accept the fact we're all gonna die. They just wasted their time, everything will be pulverized when the comet hits.

DLG SPR_i
DON'T BELIEVE THEM. THIS IS A PLAN OF THE GOVERNMENT. JOIN THE ORACLE AND HIS FAMILY. LIVE FOREVER.

END 0
You jumped and fell. Your body floated for mere seconds before everything went black.

END 1
You watched as the apocalypse happened before your eyes. Then, a big flash and everything went dark.


