You feel like you've been wandering through the dry grasslands for days, and your throat is burning. The sign is the first thing you've seen for... well, you don't remember anything before it.

# BITSY VERSION 3.5

! ROOM_FORMAT 1

PAL 0
232,197,71
42,54,59
42,54,59

PAL 1
55,71,79
84,110,122
84,110,122

PAL 2
249,249,249
100,181,246
100,181,246

ROOM 0
0,0,0,0,0,0,0,0,0,0,0,0,0,0,0,0
0,n,a,a,0,n,a,0,0,0,0,n,a,0,a,0
0,0,0,0,0,0,0,0,0,0,a,o,0,0,n,0
0,0,0,0,0,0,0,0,0,0,0,0,0,0,a,0
0,o,a,0,0,0,0,0,0,0,0,l,14,0,0,0
0,a,0,0,0,0,m,0,11,14,0,0,13,0,a,0
0,0,0,0,m,l,l,0,t,z,y,x,0,0,n,0
0,o,0,12,l,14,m,m,s,u,u,w,0,o,a,0
0,a,0,0,0,m,l,13,r,u,u,v,0,0,o,0
0,0,0,10,0,0,0,0,0,0,0,0,10,0,n,0
0,a,0,0,k,0,0,0,0,0,0,0,0,0,0,0
0,0,0,0,0,0,0,k,0,0,0,0,0,0,a,0
0,o,0,0,0,0,0,0,0,0,0,0,n,0,o,0
0,a,0,0,0,0,0,0,m,0,0,0,0,n,a,0
0,0,n,a,n,0,a,n,a,0,a,o,a,a,0,0
0,0,0,0,0,0,0,0,0,0,0,0,0,0,0,0
WAL 1b,1q,1r,1s,1t,1v,1w,1x,1y,1z,20,21,22,23,24,25,26,27,28,29,2c
EXT 0,0 1 15,0
EXT 0,1 1 15,1
EXT 0,2 1 15,2
EXT 0,3 1 15,3
EXT 0,4 1 15,4
EXT 0,5 1 15,5
EXT 0,6 1 15,6
EXT 0,7 1 15,7
EXT 0,8 1 15,8
EXT 0,9 1 15,9
EXT 0,10 1 15,10
EXT 0,11 1 15,11
EXT 0,12 1 15,12
EXT 0,13 1 15,13
EXT 0,14 1 15,14
EXT 0,15 1 15,15
EXT 9,7 2 2,11
EXT 10,7 2 2,11
EXT 9,8 2 2,11
EXT 10,8 2 2,11
PAL 0

ROOM 1
0,0,0,0,0,a,0,0,0,0,0,0,0,0,0,0
0,0,0,0,0,0,n,0,0,0,n,n,a,0,0,0
0,a,0,0,0,0,0,0,0,0,0,k,a,a,10,0
0,0,0,0,0,o,0,0,0,0,0,0,o,0,0,0
0,0,a,n,a,o,0,0,0,0,0,0,0,0,0,0
0,0,0,0,a,0,0,0,0,10,0,0,0,0,0,0
0,0,0,0,0,0,0,0,0,0,k,0,l,14,13,0
0,0,0,l,14,0,0,0,0,0,0,12,m,11,0,0
0,13,m,m,0,0,0,12,m,0,0,0,0,0,0,0
0,0,0,0,0,0,0,l,0,0,0,0,0,11,0,0
0,0,0,0,0,0,0,0,0,0,0,0,0,0,0,0
0,n,n,0,0,0,0,0,0,0,n,0,0,0,0,0
0,0,n,o,0,0,0,0,0,n,o,n,k,0,0,0
0,0,0,a,0,0,0,0,0,k,0,a,0,0,0,0
0,0,0,0,0,11,0,0,0,0,0,0,0,0,0,0
0,0,0,0,0,0,0,0,0,0,0,0,0,0,12,0
WAL 1b,1q,1r,1s,1t,1v,1w,1x,1y,1z,20,21,22,23,24,25,26,27,28,29,2c
EXT 15,0 0 0,0
EXT 15,1 0 0,1
EXT 15,2 0 0,2
EXT 15,3 0 0,3
EXT 15,4 0 0,4
EXT 15,5 0 0,5
EXT 15,6 0 0,6
EXT 15,7 0 0,7
EXT 15,8 0 0,8
EXT 15,9 0 0,9
EXT 15,10 0 0,10
EXT 15,11 0 0,11
EXT 15,12 0 0,12
EXT 15,13 0 0,13
EXT 15,14 0 0,14
EXT 15,15 0 0,15
PAL 0

ROOM 2
1b,1b,1b,1b,1b,1b,1b,1b,1b,1b,1b,1b,1b,1b,1b,1b
1j,1j,1j,1j,1j,1j,1j,1j,1j,1n,1b,1b,1b,1b,1b,1b
0,0,0,0,0,0,0,0,0,1k,1j,1j,1n,1b,1b,1b
1e,1i,0,0,0,0,0,0,0,15,16,0,1g,1b,1b,1b
1b,1d,1e,1e,1e,1e,1e,1i,0,17,18,1h,1f,1b,1b,1b
1b,1b,1b,1b,1b,1b,1b,1d,1i,19,1a,1g,1b,1b,1b,1b
1b,1b,1m,1n,1b,1m,1n,1b,1d,1e,1e,1f,1b,1b,1b,1b
1b,1b,1c,1g,1m,1l,1k,1n,1b,1b,1b,1b,1m,1j,1n,1b
1b,1b,1c,1k,1l,0,0,1k,1j,1n,1b,1m,1l,0,1g,1b
1b,1m,1l,0,1h,1i,0,0,0,1k,1j,1l,0,0,1k,1j
1b,1c,0,0,1g,1c,0,0,0,0,0,0,0,0,0,0
1b,1c,0,1h,1f,1c,0,0,0,1h,1i,0,0,0,0,0
1b,1c,0,1g,1b,1d,1i,0,0,1g,1d,1i,0,0,0,0
1b,1d,1e,1f,1b,1b,1c,0,1h,1f,1b,1c,0,1h,1e,1e
1b,1b,1b,1b,1b,1b,1d,1e,1f,1b,1b,1d,1e,1f,1b,1b
1b,1b,1b,1b,1b,1b,1b,1b,1b,1b,1b,1b,1b,1b,1b,1b
WAL 1b,1q,1r,1s,1t,1v,1w,1x,1y,1z,20,21,22,23,24,25,26,27,28,29,2c
EXT 15,9 3 0,9
EXT 15,10 3 0,10
EXT 15,11 3 0,11
EXT 15,12 3 0,12
EXT 15,13 3 0,13
EXT 0,1 b 15,1
EXT 0,2 b 15,2
EXT 0,3 b 15,3
END 0 9,3
END 0 9,4
END 0 9,5
END 0 10,3
END 0 10,4
END 0 10,5
PAL 1

ROOM 3
1b,1b,1b,1b,1b,1b,1b,1b,1b,1c,0,0,1g,1b,1b,1b
1b,1b,1b,1b,1b,1b,1m,1j,1j,1l,0,0,1k,1n,1b,1b
1b,1b,1b,1m,1j,1j,1l,0,0,0,0,0,0,1g,1b,1b
1b,1b,1m,1l,0,0,0,0,0,0,0,0,0,1g,1b,1b
1b,1b,1c,0,0,0,0,0,0,0,0,0,0,1k,1n,1b
1b,1b,1c,0,0,0,0,0,0,0,0,0,0,0,1g,1b
1b,1b,1d,1e,1e,1i,0,0,0,0,0,0,0,0,1g,1b
1b,1b,1b,1b,1b,1d,1e,1i,0,0,0,0,0,1h,1f,1b
1b,1b,1b,1m,1j,1j,1j,1l,0,0,1h,1e,1e,1f,1b,1b
1j,1j,1j,1l,0,0,0,0,0,1h,1f,1b,1b,1b,1b,1b
0,0,0,0,0,0,0,0,0,1k,1j,1n,1b,1b,1b,1b
0,0,0,0,0,0,0,0,0,0,0,1k,1n,1b,1b,1b
0,0,0,0,0,0,0,0,0,0,0,0,1g,1b,1b,1b
1e,1e,1e,1e,1i,0,0,0,0,0,0,1h,1f,1b,1b,1b
1b,1b,1b,1b,1d,1e,1i,0,0,0,0,1g,1b,1b,1b,1b
1b,1b,1b,1b,1b,1b,1c,0,0,0,0,1g,1b,1b,1b,1b
WAL 1b,1q,1r,1s,1t,1v,1w,1x,1y,1z,20,21,22,23,24,25,26,27,28,29,2c
EXT 6,15 4 6,0
EXT 7,15 4 7,0
EXT 8,15 4 8,0
EXT 9,15 4 9,0
EXT 10,15 4 10,0
EXT 11,15 4 11,0
EXT 0,9 2 15,9
EXT 0,10 2 15,10
EXT 0,11 2 15,11
EXT 0,12 2 15,12
EXT 0,13 2 15,13
EXT 9,0 c 9,15
EXT 10,0 c 10,15
EXT 11,0 c 11,15
EXT 12,0 c 12,15
PAL 1

ROOM 4
1b,1b,1b,1b,1b,1b,1c,0,0,0,0,1g,1b,1b,1b,1b
1b,1b,1b,1b,1m,1j,1l,0,0,0,0,1g,1b,1b,1b,1b
1b,1b,1m,1j,1l,0,0,0,0,0,0,1k,1n,1b,1b,1b
1b,1b,1d,1i,0,0,0,0,0,0,0,0,1g,1b,1b,1b
1b,1b,1b,1d,1e,1e,1i,0,0,0,0,0,1g,1b,1b,1b
1b,1b,1b,1b,1b,1b,1d,1e,1i,0,0,0,1g,1b,1b,1b
1b,1b,1b,1b,1b,1b,1b,1b,1d,1i,0,1h,1f,1b,1b,1b
1b,1b,1b,1m,1n,1b,1b,1b,1m,1l,1h,1f,1b,1b,1b,1b
1b,1m,1j,1l,1k,1n,1b,1b,1c,0,1g,1b,1b,1b,1b,1b
1b,1c,0,0,0,1k,1n,1m,1l,0,1k,1j,1n,1b,1b,1b
1b,1c,0,0,0,0,1k,1l,0,0,0,0,1k,1j,1j,1j
1b,1c,0,0,0,0,0,0,0,0,0,0,0,0,0,0
1b,1d,1i,0,0,1h,1e,1i,0,0,0,0,0,0,0,0
1b,1b,1c,0,1h,1f,1b,1d,1e,1e,1e,1i,0,0,1h,1e
1b,1b,1d,1e,1f,1b,1b,1b,1b,1b,1b,1d,1e,1e,1f,1b
1b,1b,1b,1b,1b,1b,1b,1b,1b,1b,1b,1b,1b,1b,1b,1b
WAL 1b,1q,1r,1s,1t,1v,1w,1x,1y,1z,20,21,22,23,24,25,26,27,28,29,2c
EXT 15,10 5 0,10
EXT 15,11 5 0,11
EXT 15,12 5 0,12
EXT 15,13 5 0,13
EXT 6,0 3 6,15
EXT 7,0 3 7,15
EXT 8,0 3 8,15
EXT 9,0 3 9,15
EXT 10,0 3 10,15
EXT 11,0 3 11,15
PAL 1

ROOM 5
1b,1b,1b,1b,1b,1b,1b,1b,1b,1b,1b,1b,1b,1b,1b,1b
1b,1b,1b,1m,1j,1j,1j,1n,1b,1b,1b,1b,1b,1b,1b,1b
1b,1b,1m,1l,0,0,0,1k,1j,1j,1j,1n,1b,1b,1b,1b
1b,1b,1d,1i,0,0,0,0,0,0,0,1k,1j,1n,1b,1b
1b,1b,1b,1c,0,0,0,0,0,0,0,0,0,1k,1n,1b
1b,1b,1b,1d,1i,0,0,0,0,0,0,0,1h,1e,1f,1b
1b,1b,1b,1b,1c,0,0,0,0,1h,1e,1e,1f,1b,1b,1b
1b,1b,1b,1b,1c,0,0,0,1h,1f,1b,1b,1b,1b,1b,1b
1b,1b,1b,1b,1c,0,0,0,1k,1j,1n,1b,1b,1b,1b,1b
1b,1b,1b,1m,1l,0,0,0,0,0,1k,1j,1j,1n,1b,1b
1j,1j,1j,1l,0,0,0,0,0,0,0,0,0,1k,1n,1b
0,0,0,0,0,0,0,0,0,0,0,0,0,0,1g,1b
0,0,0,0,0,0,0,0,0,0,0,0,1h,1e,1f,1b
1e,1e,1e,1e,1e,1i,0,0,0,0,0,0,1g,1b,1b,1b
1b,1b,1b,1b,1b,1d,1e,1e,1i,0,0,0,1g,1b,1b,1b
1b,1b,1b,1b,1b,1b,1b,1b,1c,0,0,0,1g,1b,1b,1b
WAL 1b,1q,1r,1s,1t,1v,1w,1x,1y,1z,20,21,22,23,24,25,26,27,28,29,2c
EXT 8,15 6 8,0
EXT 9,15 6 9,0
EXT 10,15 6 10,0
EXT 11,15 6 11,0
EXT 12,15 6 12,0
EXT 0,10 4 15,10
EXT 0,11 4 15,11
EXT 0,12 4 15,12
EXT 0,13 4 15,13
PAL 1

ROOM 6
1b,1b,1b,1b,1b,1b,1b,1b,1c,0,0,0,1g,1b,1b,1b
1b,1m,1n,1b,1b,1b,1b,1b,1c,0,0,0,1k,1n,1b,1b
1b,1c,1k,1n,1b,1b,1b,1b,1d,1i,0,0,0,1k,1n,1b
1j,1l,0,1g,1b,1b,1b,1b,1b,1c,0,0,0,0,1g,1b
0,0,0,1k,1n,1b,1b,1m,1j,1l,0,0,0,0,1g,1b
0,0,0,0,1k,1n,1b,1c,0,0,0,1h,1i,0,1g,1b
0,0,0,0,0,1g,1m,1l,0,0,0,1g,1d,1i,1g,1b
0,0,0,0,0,1k,1l,0,0,0,0,1g,1b,1d,1f,1b
0,0,0,0,0,0,0,0,0,0,0,1g,1b,1b,1b,1b
0,0,0,0,0,0,0,0,0,0,1h,1f,1b,1b,1b,1b
0,0,0,0,0,0,0,1h,1i,0,1k,1n,1b,1b,1b,1b
1e,1i,0,0,0,0,0,1g,1c,0,0,1g,1b,1b,1b,1b
1b,1c,0,0,0,1h,1e,1f,1c,0,0,1k,1j,1n,1b,1b
1b,1d,1e,1e,1e,1f,1b,1b,1d,1i,0,0,1h,1f,1b,1b
1b,1b,1b,1b,1b,1b,1b,1b,1b,1d,1e,1e,1f,1b,1b,1b
1b,1b,1b,1b,1b,1b,1b,1b,1b,1b,1b,1b,1b,1b,1b,1b
WAL 1b,1q,1r,1s,1t,1v,1w,1x,1y,1z,20,21,22,23,24,25,26,27,28,29,2c
EXT 0,3 7 15,3
EXT 0,4 7 15,4
EXT 0,5 7 15,5
EXT 0,6 7 15,6
EXT 0,7 7 15,7
EXT 0,8 7 15,8
EXT 0,9 7 15,9
EXT 0,10 7 15,10
EXT 0,11 7 15,11
EXT 8,0 5 8,15
EXT 9,0 5 9,15
EXT 10,0 5 10,15
EXT 11,0 5 11,15
EXT 12,0 5 12,15
PAL 1

ROOM 7
1b,1b,1b,1b,1b,1b,1b,1b,1b,1b,1b,1b,1b,1b,1b,1b
1b,1b,1b,1b,1b,1m,1j,1n,1b,1b,1b,1b,1b,1b,1b,1b
1b,1b,1b,1b,1m,1l,0,1k,1n,1b,1b,1b,1b,1m,1n,1b
1b,1m,1n,1b,1c,0,0,0,1g,1b,1b,1b,1m,1l,1k,1j
1j,1l,1g,1m,1l,0,0,0,1k,1n,1b,1b,1c,0,0,0
0,0,1k,1l,0,0,0,0,0,1g,1b,1m,1l,0,0,0
0,0,0,0,0,0,0,0,0,1k,1n,1c,0,0,0,0
0,0,0,0,0,0,0,0,0,0,1k,1l,0,0,0,0
0,0,0,0,0,0,0,0,0,0,0,0,0,0,0,0
0,0,0,0,0,0,0,0,1h,1i,0,0,0,0,0,0
0,0,0,0,0,0,0,0,1g,1c,0,0,0,0,0,0
0,0,0,0,0,0,0,1h,1f,1c,0,0,0,0,1h,1e
0,0,0,0,0,0,1h,1f,1b,1c,0,1h,1e,1i,1g,1b
1e,1i,0,0,1h,1p,1f,1b,1b,1d,1i,1g,1b,1d,1f,1b
1b,1d,1e,1e,1f,1o,1b,1b,1b,1b,1d,1f,1b,1b,1b,1b
1b,1b,1b,1b,1b,2b,1b,1b,1b,1b,1b,1b,1b,1b,1b,1b
WAL 1b,1q,1r,1s,1t,1v,1w,1x,1y,1z,20,21,22,23,24,25,26,27,28,29,2c
EXT 0,4 8 15,4
EXT 0,5 8 15,5
EXT 0,6 8 15,6
EXT 0,7 8 15,7
EXT 0,8 8 15,8
EXT 0,9 8 15,9
EXT 0,10 8 15,10
EXT 0,11 8 15,11
EXT 0,12 8 15,12
EXT 0,13 8 15,13
EXT 15,3 6 0,3
EXT 15,4 6 0,4
EXT 15,5 6 0,5
EXT 15,6 6 0,6
EXT 15,7 6 0,7
EXT 15,8 6 0,8
EXT 15,9 6 0,9
EXT 15,10 6 0,10
EXT 15,11 6 0,11
END 1 5,15
PAL 1

ROOM 8
1b,1b,1b,1b,1b,1b,1b,1b,1b,1b,1b,1b,1b,1b,1b,1b
1j,1n,1b,1b,1b,1b,1b,1b,1b,1b,1b,1b,1b,1b,1b,1b
0,1k,1j,1n,1b,1b,1b,1b,1b,1m,1j,1j,1n,1b,1b,1b
1e,1i,0,1k,1j,1n,1b,1b,1m,1l,0,0,1k,1j,1n,1b
1b,1d,1i,0,0,1k,1n,1b,1c,0,0,0,0,0,1k,1j
1b,1b,1c,0,0,0,1g,1m,1l,0,0,0,0,0,0,0
1b,1b,1c,0,0,0,1k,1l,0,1h,1i,0,0,0,0,0
1j,1j,1l,0,0,0,0,0,0,1g,1c,0,0,0,0,0
1e,1i,0,0,0,0,0,0,1h,1f,1c,0,0,0,0,0
1b,1c,0,0,0,13,0,0,1g,1b,1d,1i,0,0,0,0
1b,1c,0,1h,1e,1i,0,0,1g,1b,1b,1d,1i,0,0,0
1b,1d,1i,1g,1b,1c,0,0,1g,1b,1b,1b,1c,0,0,0
1b,1b,1c,1g,1b,1d,1i,0,1g,1b,1b,1b,1d,1e,1i,0
1b,1b,1d,1f,1b,1b,1c,1h,1f,1b,1b,1b,1b,1b,1d,1e
1b,1b,1b,1b,1b,1b,1d,1f,1b,1b,1b,1b,1b,1b,1b,1b
1b,1b,1b,1b,1b,1b,1b,1b,1b,1b,1b,1b,1b,1b,1b,1b
WAL 1b,1q,1r,1s,1t,1v,1w,1x,1y,1z,20,21,22,23,24,25,26,27,28,29,2c
EXT 0,1 9 15,1
EXT 0,2 9 15,2
EXT 0,3 9 15,3
EXT 0,7 9 15,7
EXT 0,8 9 15,8
EXT 15,4 7 0,4
EXT 15,5 7 0,5
EXT 15,6 7 0,6
EXT 15,7 7 0,7
EXT 15,8 7 0,8
EXT 15,9 7 0,9
EXT 15,10 7 0,10
EXT 15,11 7 0,11
EXT 15,12 7 0,12
EXT 15,13 7 0,13
PAL 1

ROOM 9
1b,1b,1c,0,0,0,0,0,0,0,0,1g,1b,1b,1b,1b
1b,1m,1l,0,0,0,0,0,0,0,0,1k,1j,1j,1j,1j
1b,1c,0,0,0,0,0,0,0,0,0,0,0,0,0,0
1b,1c,0,0,0,0,0,0,0,0,0,0,0,1h,1e,1e
1b,1c,0,0,0,0,0,0,0,0,0,0,0,1g,1b,1b
1b,1c,0,0,0,0,0,1h,1i,0,0,0,0,1g,1b,1b
1b,1d,1i,0,0,0,0,1g,1c,0,0,0,0,1k,1n,1b
1b,1b,1c,0,0,0,1h,1f,1c,0,0,0,0,0,1k,1j
1b,1b,1c,0,0,0,1g,1b,1d,1i,0,0,0,0,1h,1e
1b,1b,1c,0,0,0,1g,1b,1b,1c,0,0,0,0,1g,1b
1b,1b,1d,1i,1h,1e,1f,1b,1b,1c,0,0,0,1h,1f,1b
1b,1b,1b,1d,1f,1b,1b,1b,1b,1c,0,0,0,1g,1b,1b
1b,1b,1b,1b,1b,1b,1b,1b,1b,1d,1e,1i,1h,1f,1b,1b
1b,1b,1b,1b,1b,1b,1b,1b,1b,1b,1b,1d,1f,1b,1b,1b
1b,1b,1b,1b,1b,1b,1b,1b,1b,1b,1b,1b,1b,1b,1b,1b
1b,1b,1b,1b,1b,1b,1b,1b,1b,1b,1b,1b,1b,1b,1b,1b
WAL 1b,1q,1r,1s,1t,1v,1w,1x,1y,1z,20,21,22,23,24,25,26,27,28,29,2c
EXT 2,0 a 2,15
EXT 3,0 a 3,15
EXT 4,0 a 4,15
EXT 5,0 a 5,15
EXT 6,0 a 6,15
EXT 7,0 a 7,15
EXT 8,0 a 8,15
EXT 9,0 a 9,15
EXT 10,0 a 10,15
EXT 11,0 a 11,15
EXT 15,1 8 0,1
EXT 15,2 8 0,2
EXT 15,3 8 0,3
EXT 15,7 8 0,7
EXT 15,8 8 0,8
PAL 1

ROOM a
1b,1b,1b,1b,1b,1b,1b,1b,1b,1c,0,0,0,1g,1b,1b
1b,1b,1b,1b,1b,1b,1m,1j,1j,1l,0,0,0,1k,1n,1b
1b,1b,1b,1b,1m,1j,1l,0,0,0,0,0,0,0,1g,1b
1b,1b,1m,1j,1l,0,0,0,0,0,0,0,0,0,1g,1b
1b,1b,1c,0,0,0,0,0,0,0,0,0,0,0,1g,1b
1b,1b,1d,1i,0,0,0,0,0,0,0,0,0,0,1g,1b
1b,1b,1b,1d,1e,1i,0,0,0,0,0,0,0,1h,1f,1b
1b,1b,1b,1b,1b,1d,1i,0,0,0,0,0,0,1g,1b,1b
1b,1b,1b,1b,1m,1j,1l,0,0,0,0,1h,1e,1f,1b,1b
1b,1m,1j,1j,1l,0,0,0,0,1h,1e,1f,1b,1b,1b,1b
1b,1c,0,0,0,0,0,0,0,1k,1j,1j,1n,1b,1b,1b
1b,1c,0,0,0,0,0,0,0,0,0,0,1k,1n,1b,1b
1b,1c,0,0,0,0,0,0,0,0,0,0,0,1g,1b,1b
1b,1c,0,0,0,0,0,0,0,0,0,0,1h,1f,1b,1b
1b,1d,1i,0,0,0,0,0,0,0,0,1h,1f,1b,1b,1b
1b,1b,1c,0,0,0,0,0,0,0,0,1g,1b,1b,1b,1b
WAL 1b,1q,1r,1s,1t,1v,1w,1x,1y,1z,20,21,22,23,24,25,26,27,28,29,2c
EXT 9,0 b 9,15
EXT 10,0 b 10,15
EXT 11,0 b 11,15
EXT 12,0 b 12,15
EXT 13,0 b 13,15
EXT 2,15 9 2,0
EXT 3,15 9 3,0
EXT 4,15 9 4,0
EXT 5,15 9 5,0
EXT 6,15 9 6,0
EXT 7,15 9 7,0
EXT 8,15 9 8,0
EXT 9,15 9 9,0
EXT 10,15 9 10,0
EXT 11,15 9 11,0
PAL 1

ROOM b
1b,1b,1b,1b,1b,1b,1b,1b,1b,1b,1b,1b,1b,1b,1b,1b
1b,1b,1b,1b,1m,1n,1b,1b,1b,1b,1b,1b,1m,1j,1j,1j
1b,1b,1b,1b,1c,1k,1n,1b,1b,1b,1m,1j,1l,0,0,0
1b,1b,1b,1b,1c,0,1g,1b,1b,1m,1l,0,0,0,1h,1e
1b,1b,1b,1b,1c,0,1g,1b,1b,1c,0,0,0,0,1g,1b
1b,1b,1b,1m,1l,0,1g,1b,1m,1l,0,0,0,1h,1f,1b
1b,1b,1b,1c,0,0,1k,1n,1c,0,0,0,0,1g,1b,1b
1b,1b,1b,1c,0,0,0,1g,1c,0,0,0,0,1g,1b,1b
1b,1b,1m,1l,0,0,0,1k,1l,0,0,0,0,1g,1b,1b
1b,1b,1c,0,0,0,0,0,0,0,0,0,0,1g,1b,1b
1b,1b,1c,0,0,0,0,0,0,0,0,0,0,1g,1b,1b
1b,1b,1d,1i,0,0,0,0,0,0,0,0,0,1g,1b,1b
1b,1b,1b,1d,1i,0,0,0,0,0,0,0,0,1k,1n,1b
1b,1b,1b,1b,1d,1e,1e,1i,0,0,0,0,0,0,1g,1b
1b,1b,1b,1b,1b,1b,1b,1d,1e,1i,0,0,0,1h,1f,1b
1b,1b,1b,1b,1b,1b,1b,1b,1b,1c,0,0,0,1g,1b,1b
WAL 1b,1q,1r,1s,1t,1v,1w,1x,1y,1z,20,21,22,23,24,25,26,27,28,29,2c
EXT 15,1 2 0,1
EXT 15,2 2 0,2
EXT 15,3 2 0,3
EXT 9,15 a 9,0
EXT 10,15 a 10,0
EXT 11,15 a 11,0
EXT 12,15 a 12,0
EXT 13,15 a 13,0
PAL 1

ROOM c
1q,1q,1q,1q,1q,1q,1q,1q,1q,1q,1q,1q,1q,1q,1q,1q
1q,1q,1q,1q,1q,1q,1q,1q,1q,1q,1q,1q,1q,1q,1q,1q
1q,1q,24,1s,1s,1s,1s,1s,1s,1s,1s,1y,1q,1q,1q,1q
1q,1q,20,0,2c,0,0,0,0,0,0,1r,1q,1q,1q,1q
1s,1s,1z,2c,2c,0,0,0,0,0,0,1r,1q,1q,1q,1q
0,0,0,0,0,0,0,0,0,0,0,1t,1s,1s,1y,1q
23,23,22,0,0,2c,0,0,0,0,0,0,0,0,1r,1q
1q,1q,20,0,0,0,0,0,0,0,0,0,0,0,1r,1q
1q,1q,20,0,0,0,0,0,0,0,0,0,0,0,1r,1q
1q,1q,21,23,23,23,22,0,0,0,0,0,0,0,1r,1q
1q,1q,1q,1q,1q,1q,20,0,0,0,0,0,0,0,1r,1q
1q,1q,1q,1q,1q,1q,21,23,23,23,22,0,26,23,25,1q
1q,1q,1q,1q,1q,1q,1q,1q,1q,1q,29,27,28,1q,1q,1q
1q,1q,1q,1q,1q,1q,1q,1q,24,1s,1z,0,1t,1y,1q,1q
1q,1q,1q,1q,1q,1q,1q,1q,20,0,0,0,0,1r,1q,1q
1q,1q,1q,1q,1q,1q,1q,1q,20,0,0,0,0,1r,1q,1q
WAL 1q,1r,1s,1t,1v,1w,1x,1y,1z,20,21,22,23,24,25,26,27,28,29,2c
EXT 11,13 e 11,13
EXT 11,11 e 11,11
EXT 9,15 3 9,0
EXT 10,15 3 10,0
EXT 11,15 3 11,0
EXT 12,15 3 12,0
EXT 0,5 d 15,5
PAL 2

ROOM d
1q,1q,1q,1q,24,1s,1s,1s,1s,1s,1y,1q,1q,1q,1q,1q
1q,1q,1q,1q,20,0,0,0,0,0,1r,1q,1q,1q,1q,1q
1q,1q,1q,24,1z,0,0,0,0,0,1t,1s,1s,1s,1y,1q
1q,1q,1q,20,0,0,0,0,0,0,0,0,0,0,1r,1q
1q,24,1s,1z,0,0,0,0,0,0,0,0,0,0,1t,1s
1q,20,0,0,0,0,0,0,0,0,0,0,0,0,0,0
1q,20,0,0,0,0,0,0,0,0,0,0,0,0,26,23
1q,20,0,0,0,0,0,0,0,0,0,0,0,0,1r,1q
1q,20,0,0,0,0,0,0,0,0,0,0,0,0,1r,1q
1q,20,0,2c,2c,2c,2c,2c,2c,2c,2c,0,0,0,1r,1q
1q,20,0,0,0,0,0,0,0,0,0,0,0,0,1r,1q
1q,20,0,2c,2c,2c,2c,2c,2c,2c,2c,0,1x,1w,1v,1q
1q,20,0,0,0,0,0,0,0,0,0,0,1r,1q,1q,1q
1q,20,0,2c,2c,2c,2c,2c,2c,2c,2c,0,1r,1q,1q,1q
1q,21,23,23,23,23,23,23,23,23,23,23,25,1q,1q,1q
1q,1q,1q,1q,1q,1q,1q,1q,1q,1q,1q,1q,1q,1q,1q,1q
WAL 1q,1r,1s,1t,1v,1w,1x,1y,1z,20,21,22,23,24,25,26,27,28,29,2c
EXT 15,5 c 0,5
PAL 2

ROOM e
1q,1q,1q,1q,1q,1q,1q,1q,1q,1q,1q,1q,1q,1q,1q,1q
1q,1q,1q,1q,1q,1q,1q,1q,1q,1q,1q,1q,1q,1q,1q,1q
1q,1q,24,1s,1s,1s,1s,1s,1s,1s,1s,1y,1q,1q,1q,1q
1q,1q,20,0,2c,0,0,0,0,0,0,1r,1q,1q,1q,1q
1s,1s,1z,2c,2c,0,0,0,0,0,0,1r,1q,1q,1q,1q
0,0,0,0,0,0,0,0,0,0,0,1t,1s,1s,1y,1q
23,23,22,0,0,2c,0,0,0,0,0,0,0,0,1r,1q
1q,1q,20,0,0,0,0,0,0,0,0,0,0,0,1r,1q
1q,1q,20,0,0,0,0,0,0,0,0,0,0,0,1r,1q
1q,1q,21,23,23,23,22,0,0,0,0,0,0,0,1r,1q
1q,1q,1q,1q,1q,1q,20,0,0,0,0,0,0,0,1r,1q
1q,1q,1q,1q,1q,1q,21,23,23,23,22,0,26,23,25,1q
1q,1q,1q,1q,1q,1q,1q,1q,1q,1q,29,2a,28,1q,1q,1q
1q,1q,1q,1q,1q,1q,1q,1q,24,1s,1z,0,1t,1y,1q,1q
1q,1q,1q,1q,1q,1q,1q,1q,20,0,0,0,0,1r,1q,1q
1q,1q,1q,1q,1q,1q,1q,1q,20,0,0,0,0,1r,1q,1q
WAL 1q,1r,1s,1t,1v,1w,1x,1y,1z,20,21,22,23,24,25,26,27,28,29,2c
EXT 11,10 c 11,10
EXT 11,14 c 11,14
PAL 2

TIL 10
00000000
00001000
00101010
00101010
00100010
00000000
00000000
00000000

TIL 11
00000000
00000000
00000000
01000010
01000100
00000100
00010000
00000000

TIL 12
00000000
00000000
01000000
00100100
00100100
00000100
00000000
00000000
>
00000000
00000000
01000000
00101000
00100100
00000100
00000000
00000000

TIL 13
00000000
00000000
00000000
00000100
00000100
00100000
00000000
00000000
>
00000000
00000000
00000000
00000010
00000100
00100000
00000000
00000000

TIL 14
00000000
00000000
00100100
01001000
01001010
01000010
00000010
00100000
>
00000000
00000000
01001000
01001000
01001001
01000010
00000010
00100000

TIL 15
00111111
01111111
11110101
11010101
11111111
11010101
11111111
11010101

TIL 16
11111100
11111110
10101111
10101011
11111111
10101011
11111111
10101011

TIL 17
11010101
11010101
11110111
01010101
01010101
11010101
11011101
11010101

TIL 18
10101011
10101011
11101111
10101010
10101010
10101011
10111011
10101011

TIL 19
11010101
11111111
11010101
11111111
11010101
11010101
11010101
11010101

TIL 20
00111000
01111000
11101000
10101000
00111000
01111000
11101000
10101000

TIL 21
00111000
01111000
11101000
10101111
00110011
01111111
11001100
10011001

TIL 22
00000000
00000000
00000000
11111000
00111000
11111000
11101000
10101000

TIL 23
00000000
00000000
00000000
11111111
00110011
11111111
11001100
10011001

TIL 24
00110011
01100110
11001100
10011001
00111111
01110011
11101111
10101000

TIL 25
01110011
01110110
01011100
11011001
00110011
11110110
11001100
10011001

TIL 26
00000000
00000000
00000000
01111111
01110011
01111111
01011100
01011001

TIL 27
00000000
00000000
00000000
11011111
11101111
00000000
00000000
00000000

TIL 28
01110011
01110110
11011100
11011001
11110011
11110110
01011100
01011001

TIL 29
00111000
01111000
11101100
10101111
00111111
01111100
11101000
10101000

TIL a
00000000
00100000
01000000
00000100
00001000
00000000
00010000
00000000

TIL k
00000000
00000000
01000100
01010100
01010100
00010000
00000000
00000000

TIL l
00000000
00100001
01001010
01010010
01010010
01010010
00010000
00000000
>
00000000
01000010
01010010
01010010
01010010
01010010
00010000
00000000

TIL m
00100000
01000000
01000010
01000010
01001010
00010010
00010000
00010000
>
01000000
01000000
01000001
01000010
01010010
00010010
00010000
00010000

TIL n
00000000
00000000
00010000
00100010
00000000
00000000
00001000
00000000

TIL o
00000000
01000000
00000010
00100100
01000000
00000000
00000000
00000000

TIL p
00000000
00000000
00100000
01100000
11111110
01100000
00100000
00000000

TIL q
00000000
00000000
00000100
00000110
01111111
00000110
00000100
00000000

TIL r
00100101
00100110
00011001
00001001
00011110
00100101
00100101
00011011

TIL s
00010010
00010010
00001101
00110010
01001011
01001011
00110111
00011011

TIL t
00000000
00000000
00000000
00000110
00001001
00001001
00000110
00001101

TIL u
11111111
11111111
11111111
11111111
11111111
11111111
11111111
11111111

TIL v
11011000
00110000
01001000
01001000
10111000
10100100
10100100
11011000

TIL w
01100000
10110000
01001000
01001000
00110000
11011000
10100100
10100100

TIL x
00000000
00000000
00000000
00000000
00000000
01100000
10010000
10010000

TIL y
00000000
00000000
01100000
10010110
10011001
01101001
10010110
11111001

TIL z
00000000
00000000
00011000
00100101
01100110
10011010
10010101
01101110

TIL 1a
10101011
11111111
10101011
11111111
10101011
10101011
10101011
10101011

TIL 1b
01100110
11001100
10011001
00110011
01100110
11001100
10011001
00110011

TIL 1c
01110000
11110000
10100000
00110000
01110000
11100000
10110000
00110000

TIL 1d
01100000
11110000
10010000
00110000
01101101
11111111
10011001
00110011

TIL 1e
00000000
00000000
00000000
00000000
11011111
11111110
10011001
00110011

TIL 1f
00000110
00001100
00000101
00001111
11111110
11101100
10011001
00110011

TIL 1g
00000110
00000100
00001101
00001111
00000110
00001100
00001001
00001111

TIL 1h
00000000
00000000
00000000
00000100
00000111
00001110
00000101
00000111

TIL 1i
00000000
00000000
00000000
00000000
11100000
11100000
10110000
00110000

TIL 1j
01100110
11001100
11011001
11111111
00000000
00000000
00000000
00000000

TIL 1k
00000110
00001100
00001101
00000111
00000000
00000000
00000000
00000000

TIL 1l
01100000
11110000
11110000
11000000
00000000
00000000
00000000
00000000

TIL 1m
01100110
11001100
10011011
00111110
01110110
11010000
10010000
00110000

TIL 1n
01100110
11001100
11111101
00111111
00001110
00001100
00001101
00000111

TIL 1o
01100110
11001100
10001001
00010011
00100010
11000100
10001001
00010011

TIL 1p
00000000
00000000
00000000
00000000
11111011
01000100
10001001
00110011

TIL 1q
00110011
01100110
11001100
10011001
00110011
01100110
11001100
10011001

TIL 1r
01110011
01110110
01011100
01011001
01110011
01110110
01011100
01011001

TIL 1s
00110011
01100110
11001100
10011001
11111111
00110011
11111111
00000000

TIL 1t
01110011
01110110
01011100
01011001
01111111
01110011
01111111
00000000

TIL 1v
01110011
11110110
11011100
11111001
00110011
01100110
11001100
10011001

TIL 1w
00000000
11111111
11001100
11111111
00110011
01100110
11001100
10011001

TIL 1x
00000000
01111111
01001100
01011111
01110011
01110110
01011100
01011001

TIL 1y
00110011
01100110
11001100
10011001
11110011
00110110
11011100
01011001

TIL 1z
00111000
01111000
11101000
10101000
11111000
00111000
11111000
00000000

TIL 2a
00000000
00000000
00000000
00000011
10000001
00000000
00000000
00000000

TIL 2b
00100110
11000100
10001001
00010001
00100110
11001100
10001000
00110001

TIL 2c
11111111
10000001
10000001
11111111
10000001
10000001
10000001
11111111

SPR A
00011100
10011100
10011000
01111110
00111101
00111101
00110100
00000110
>
00011100
00011101
00011001
01111110
10111100
10111100
00100110
00110000
POS 1 4,9

SPR a
00000000
00000000
00010010
01110001
11110001
11111110
00111110
00100010
>
00000000
00000000
00010001
01110001
11110001
11111110
00111110
00100010
POS a 11,11

SPR c
00000000
11111100
10001010
10000010
11111110
00010000
00010001
00010100
POS 1 9,11

SPR d
00011011
11011011
11111101
10111111
11111100
01111110
01100110
11100111
>
11011000
11011011
10111111
11111101
00111111
01111110
01100110
11100111
POS 4 3,10

SPR e
01111110
00011000
00100100
01100110
01000010
01111110
00100100
00100100
POS 2 7,10

SPR f
00111000
00111100
00011100
01111110
10011001
00111100
01111110
01111110
POS 5 9,4

SPR g
01111100
01010100
01111100
10011001
11111111
10111101
00111100
00100100
>
00111110
00101010
00111110
10011001
11111111
10111101
00111100
00100100
POS c 8,8

SPR h
00111100
00100100
01111110
11111111
10111101
00111100
10111101
00100100
POS d 10,4

SPR i
00010010
00001001
00001001
00010010
00100100
00100100
00010010
00000000
>
00010010
00100100
00100100
00010010
00001001
00001001
00010010
00000000
POS 6 2,10

SPR j
00011000
00011000
00010010
01111110
10111000
10111100
00100100
00110110
POS 6 2,11

SPR k
00011000
10011000
10011000
10010000
10111100
01011010
00011001
00011001
POS d 4,6

SPR l
00011000
00011000
00010100
00010100
00010000
00000100
00010100
00010000
>
00011000
00011000
00010100
00010100
00010100
00010100
00010000
00000000
POS d 4,7

SPR m
00111000
00111001
00011001
01111110
10111100
10111100
01100100
00001100
>
00111000
10111000
10011000
01111110
00111101
00111101
00101100
01100000
POS 2 4,3

SPR n
01111100
01010100
01111100
10011001
11111111
10111101
00111100
00100100
>
00111110
00101010
00111110
10011001
11111111
10111101
00111100
00100100
POS e 8,8

SPR o
00000000
01111110
10001010
11000010
11111110
00010000
00010010
00010001
>
00000000
01111110
10001010
11000010
11111110
00010000
00010001
00010001
POS 8 4,8

SPR p
00000000
00010100
00001000
00000000
01010000
00100000
00000000
00000000
>
00000000
00000000
00001000
00010100
00000000
00100000
01010000
00000000
POS 8 13,5

SPR q
00000000
00010100
00001000
00000000
01010000
00100000
00000000
00000000
>
00000000
00000000
00001000
00010100
00000000
00100000
01010000
00000000
POS b 5,7

SPR r
00000000
00000000
00000000
00010100
00001000
00000000
00000000
00000000
>
00000000
00000000
00000000
00000000
00001000
00010100
00000000
00000000
POS b 12,4

SPR s
01000000
11111110
10000110
10100010
11011110
00010000
00010000
00010000
POS b 7,11

SPR t
00000000
00000000
00000000
00010100
00001000
00000000
00000000
00000000
>
00000000
00000000
00000000
00000000
00001000
00010100
00000000
00000000
POS 3 6,4

SPR u
00000000
00000000
00000000
00010000
00101000
00000000
00000000
00000000
>
00000000
00000000
00101000
00010000
00000000
00000000
00000000
00000000
POS 3 12,7

DLG a
Woof! <The scraggly dog looks at you with sad, expectant eyes.>

DLG c
            CAVE --->

DLG g
Why [ACTION:LEAVE] the [LOCATION:BUNKER]? We have [ABSTRACT:EVERYTHING] we [ACTION:NEED] here.

DLG j
Ey! I 'ear they've clean water behind the door. I'ven't 'ad a shower in years! I'd go t' tha bunker, but since I want in on 'at door, they won't share nuthin' with me!

DLG l
Harphax vad zeebox the door! Oh, sorry, my universal translator is having issues. I said, there's likely nothing behind the door. I mean, we have enough  supplies to last 3 lifetimes. Whatever's behind the door couldn't possibly be better than this.

DLG m
.gniht a rebmemer t'nac I tub ,rood eht dnoyeb morf emoc I

DLG e
Welcome, traveler. I have been watching over you. I am pleased that you survived the radioactive wastelands above. Now, I have something very important to tell you. Listen closely, as I do not like to repeat myself. There is a door deep within this cave. In fact, one is able to see it now if they peek through the cracks in the wall. What's behind the door? That's for you to discover.

DLG k
Harphax vad zeebox the door! Oh, sorry, my universal translator is having issues. I said, there's likely nothing behind the door. I mean, we have enough  supplies to last 3 lifetimes. Whatever's behind the door couldn't possibly be better than this.

DLG h
Every once in a while, I have to go out into the wastelands to look for supplies or survivors. I never find either.

DLG d
Grrrr! When I find that door, I'm gonna pound it open! I'll prove those hopeless bunker people wrong!

DLG f
Living in a place like this, one must be clever to survive, but living cooped up in a bunker is barely living at all. And if we're going to open that door, then we all need to work together.

DLG o
   DOOR UP AHEAD, 50 METERS

DLG p
*squeak* *squeak*

DLG q
*squeak* *squeak*

DLG r
*squeak*

DLG s
<All the signs look ancient, but this one's too old to read.>

DLG t
*squeak*

DLG u
*squeak*

END 0
You push on the heavy oak door, and are surprised when it opens. What's behind the door? It's a secret.

END 1
Should you stay in a tiny bunker for the rest of your life, or should you look for a door that might not even lead anywhere? Maybe there's a third option. Glancing around the cave, you find an area where the rock wall looks weak. You push on it, and it crumbles, revealing a vast cavern. You step into the darkness...

