
{wvy}Yawn...{wvy}

# BITSY VERSION 4.6

! ROOM_FORMAT 1

PAL 0
NAME browns
151,130,121
105,76,29
255,255,255

PAL 1
136,140,169
194,215,240
255,255,255

ROOM 0
b,b,f,f,n,n,n,f,f,b,f,f,n,n,f,n
b,n,n,f,n,f,b,b,b,n,n,n,n,f,f,n
b,n,b,g,c,o,o,o,o,o,c,c,c,f,f,b
b,n,k,z,0,0,0,0,0,0,0,0,z,h,b,b
b,b,k,18,0,0,0,0,18,19,0,0,0,11,n,n
n,n,k,0,0,0,0,0,0,0,0,0,0,0,h,n
b,n,d,0,0,0,0,0,0,0,0,0,0,19,i,b
b,n,q,19,0,0,0,16,15,17,0,0,0,0,x,u
b,n,d,0,0,0,0,12,13,14,0,18,0,0,w,v
n,n,q,0,0,0,0,0,0,0,0,0,0,0,j,b
n,n,d,0,18,0,0,19,0,0,0,19,0,0,h,n
n,f,q,0,0,0,0,0,0,0,0,0,0,10,n,f
b,b,q,z,0,0,0,0,0,y,0,0,z,h,n,n
b,n,b,f,n,n,1b,10,n,n,f,b,b,b,n,n
b,n,n,b,b,n,n,f,n,n,n,b,b,n,n,b
b,b,n,b,f,f,f,n,n,n,n,n,n,b,b,b
NAME Tomb
ITM 1 5,8
ITM 1 4,7
ITM 1 5,6
ITM 1 6,7
ITM 2 7,3
ITM 2 7,4
ITM 2 7,5
ITM 2 8,6
ITM 2 8,9
ITM 2 8,10
ITM 2 8,11
ITM 2 8,12
EXT 14,7 1 2,7
EXT 14,8 1 2,8
PAL 0

ROOM 1
1i,1w,1o,1o,1q,1o,1o,1o,1q,1o,1o,1z,1o,1o,1q,1o
f,1h,1s,1t,1o,1o,1q,1o,1o,1o,1o,1o,1p,1o,1o,1o
b,1i,0,0,1s,1s,1s,1s,1t,1o,20,1o,1p,1o,1o,1p
n,d,0,0,0,0,1r,1r,0,1s,1t,1o,1o,1o,1o,1o
n,k,0,0,1r,1x,1p,1o,1v,0,0,1t,1o,1o,1o,1o
b,d,0,1w,20,1q,20,1o,1v,0,0,1w,1o,1o,1q,1o
n,q,0,0,1t,20,1o,1p,1v,0,0,0,1t,1o,1o,20
1c,1f,0,0,0,1s,1t,1z,1v,0,0,0,0,1s,1s,1s
1d,1e,0,0,0,0,0,1s,0,0,1r,1r,0,0,0,0
n,q,0,0,0,0,0,0,0,1w,1o,1o,1y,0,0,0
n,1g,0,0,0,0,0,0,0,1x,1o,1o,1o,1y,0,0
b,1h,0,0,1r,1r,0,0,1x,1o,1p,1o,1z,1o,1y,1r
f,1j,0,1w,20,1o,1y,1x,1o,1o,1o,1o,1o,1o,1o,1o
f,1h,0,1x,1o,1o,1o,1p,1o,1o,1o,1o,1o,1p,1o,20
b,1h,1w,1p,1o,1q,1o,1o,1o,1p,1o,1o,1o,1o,1o,1o
b,1i,1w,1o,1o,1o,1o,1z,1o,1o,1o,1q,1o,1o,20,1o
NAME outside1
EXT 1,7 0 13,7
EXT 1,8 0 13,8
EXT 15,7 2 1,7
EXT 15,8 2 1,8
EXT 15,9 2 1,9
EXT 15,10 2 1,10
EXT 15,11 2 1,11
PAL 0

ROOM 2
1o,1o,20,1o,1o,1z,1o,1o,1o,1p,1o,1o,1q,1o,1o,20
1q,1o,1o,1p,1o,1o,1o,1o,1u,1s,1t,1o,1o,1o,1p,1o
1o,1o,20,1o,1o,1o,1u,1s,0,0,0,1s,1t,1o,20,1o
1o,20,1o,1o,1u,1s,0,0,0,0,0,0,0,1t,1o,1o
1p,1o,1o,1u,0,0,0,0,0,0,1r,0,0,1w,1q,1o
1o,1o,1u,0,0,0,0,0,0,1w,1z,1v,0,0,1t,1o
1o,1u,0,0,0,0,0,0,0,0,1s,0,0,0,1w,1o
1s,0,0,0,0,0,0,0,0,0,0,0,0,0,1w,1p
0,0,0,0,0,0,0,0,0,0,0,0,0,0,1w,1o
0,0,0,0,0,0,0,0,0,0,0,0,0,0,1w,1o
0,0,0,0,0,0,0,0,0,0,0,0,0,0,1x,1q
1r,1r,1r,0,0,0,0,0,0,0,0,0,1r,1x,1o,1o
20,1o,1o,1y,0,0,0,0,0,0,0,1w,1o,1q,1o,1o
1o,1p,1o,1z,1v,0,0,0,0,0,0,1x,1q,1o,1o,1z
1o,1o,1o,1o,1y,1r,0,0,0,0,1w,1o,1o,1o,1o,1o
1q,1o,1p,1o,1o,1o,1v,0,0,0,1w,1o,1z,1o,1p,1o
NAME outside2
ITM 3 3,11
ITM 3 3,8
ITM 3 3,9
ITM 3 3,10
ITM 3 4,7
ITM 3 4,6
ITM 3 4,5
ITM 3 5,4
ITM 3 6,3
EXT 0,7 1 14,7
EXT 0,8 1 14,8
EXT 0,9 1 14,9
EXT 0,10 1 14,10
EXT 0,11 1 14,11
EXT 3,12 3 3,12
EXT 4,11 3 4,11
EXT 4,10 3 4,10
EXT 4,9 3 4,9
EXT 4,8 3 4,8
EXT 5,7 3 5,7
EXT 5,6 3 5,6
EXT 5,5 3 5,5
EXT 6,4 3 6,4
EXT 7,3 3 6,3
EXT 6,2 3 5,2
PAL 0

ROOM 3
1o,1o,20,1o,1o,1z,1o,1o,1o,1p,1o,1o,1q,1o,1o,20
1q,1o,1o,1p,1o,1o,1o,1o,1u,1s,1t,1o,1o,1o,1p,1o
1o,1o,20,1o,1o,1o,1u,1s,0,0,0,1s,1t,1o,20,1o
1o,20,1o,1o,1u,1s,0,0,0,0,0,0,0,1t,1o,1o
1p,1o,1o,1u,0,0,0,0,0,0,1r,0,0,1w,1q,1o
1o,1o,1u,0,0,0,0,0,0,1w,1z,1v,0,0,1t,1o
1o,1u,0,0,0,0,0,0,0,0,1s,0,0,0,1w,1o
1s,0,0,0,0,0,0,0,0,0,0,0,0,0,1w,1p
0,0,0,0,0,0,0,0,0,0,0,0,0,0,1w,1o
0,0,0,0,0,0,0,0,0,0,0,0,0,0,1w,1o
0,0,0,0,0,0,0,0,0,0,0,0,0,0,1x,1q
1r,1r,1r,0,0,0,0,0,0,0,0,0,1r,1x,1o,1o
20,1o,1o,1y,0,0,0,0,0,0,0,1w,1o,1q,1o,1o
1o,1p,1o,1z,1v,0,0,0,0,0,0,1x,1q,1o,1o,1z
1o,1o,1o,1o,1y,1r,0,0,0,0,1w,1o,1o,1o,1o,1o
1q,1o,1p,1o,1o,1o,1v,0,0,0,1w,1o,1z,1o,1p,1o
NAME outside2-b
EXT 0,7 1 14,7
EXT 0,8 1 14,8
EXT 0,9 1 14,9
EXT 0,10 1 14,10
EXT 0,11 1 14,11
EXT 6,15 4 6,1
EXT 7,15 4 7,1
EXT 8,15 4 8,1
EXT 9,15 4 9,1
EXT 10,15 4 10,1
PAL 0

ROOM 4
20,1p,1o,1z,1q,1o,1v,0,0,0,1w,1o,1q,1o,1o,1p
1u,22,21,21,23,1s,0,0,0,0,1w,1o,1o,1p,1o,1o
22,21,21,21,21,23,0,0,0,0,0,1t,1z,1o,1o,1p
25,29,26,26,2a,25,0,0,0,0,0,0,1s,1s,1t,1o
1r,28,27,27,2b,0,0,0,0,0,0,0,0,24,24,1t
20,28,27,2c,2b,0,0,0,0,0,0,0,22,21,21,23
1o,1v,0,0,0,0,0,0,0,0,0,0,29,26,26,2a
20,1y,0,0,0,0,0,0,0,0,0,0,28,27,27,2b
1p,1o,1y,0,0,0,0,0,0,0,0,0,28,2c,27,2b
1o,1o,1p,1v,0,0,0,0,0,0,0,0,0,1t,1z,20
20,1q,1o,1v,0,24,0,0,0,0,0,0,0,0,1t,1o
1o,1o,1u,0,22,21,23,0,0,0,0,0,0,0,0,1s
1q,1o,1v,22,21,21,21,23,0,0,0,0,0,0,0,0
1o,20,1y,29,29,26,2a,2a,0,0,0,1r,1r,1r,1r,1r
1q,1o,1p,28,28,27,2b,2b,0,0,1x,1z,1o,1o,1p,1o
1p,1o,1o,28,28,27,2b,2d,1r,1x,1o,1p,1o,1q,1o,20
NAME town1
EXT 6,0 3 6,14
EXT 7,0 3 7,14
EXT 8,0 3 8,14
EXT 9,0 3 9,14
EXT 10,0 3 10,14
EXT 3,5 5 14,7
EXT 13,8 6 1,7
EXT 7,15 7 14,8
EXT 15,11 8 1,2
EXT 15,12 8 1,3
EXT 15,13 8 1,4
PAL 0

ROOM 5
1z,1o,1o,1p,1p,1o,1p,1o,1o,20,1o,1q,1o,1o,1q,1u
1o,20,1o,1o,1o,1o,1o,1o,1o,1p,1o,1o,1o,1o,1u,0
1p,1o,20,1o,27,27,27,27,27,27,27,27,27,27,27,2b
1o,1o,1o,1o,27,27,27,27,27,27,27,27,27,27,27,2b
1o,1o,1o,1p,27,2b,2n,0,0,2h,0,0,0,0,28,2b
1q,1o,1z,1o,27,2b,0,0,0,0,0,0,0,0,28,2b
1o,20,1o,1o,27,2b,0,0,0,0,0,0,0,2m,28,2b
1o,1o,1o,1q,27,2b,0,0,0,0,0,0,0,0,0,0
1o,1p,1o,1o,27,2b,0,0,0,0,0,0,0,0,0,0
1o,1o,1o,20,27,2b,0,0,0,0,0,0,0,0,28,2b
1o,1z,1o,1o,27,2b,0,0,0,2e,2g,2l,0,0,28,2b
1o,1o,1o,1o,27,2b,0,0,0,0,2f,2j,2i,2k,28,2b
1o,1p,1o,1q,27,27,27,27,27,27,27,27,27,27,27,2b
20,1o,1o,1o,27,27,27,27,27,27,27,27,27,27,27,2b
1o,1o,1o,1o,1o,20,1o,1q,1p,1v,0,0,0,0,0,0
1p,1o,20,1o,1z,1o,1p,1o,1o,1y,0,0,0,0,0,0
NAME house1
EXT 15,7 4 3,6
EXT 15,8 4 3,6
PAL 0

ROOM 6
0,0,0,0,0,0,0,1w,1o,1q,1z,1o,1o,1p,1o,1q
0,0,0,0,0,0,0,1w,20,1o,1o,1u,1t,1o,1o,1o
28,27,27,27,27,27,27,27,27,27,27,2b,0,1t,1o,1z
28,27,27,27,27,27,27,27,27,27,27,2b,0,1x,20,1o
28,2b,2l,0,0,0,0,0,0,2n,28,2b,1w,20,1o,20
28,2b,2j,2i,2k,0,0,0,0,0,28,2b,1x,1o,1q,1o
28,2b,2n,0,0,0,0,0,0,0,28,2b,1p,1o,1o,1o
0,0,0,0,0,0,0,0,0,0,28,2b,1s,1t,20,1z
0,0,0,0,0,0,0,0,0,0,28,2b,0,1w,1o,1q
28,2b,0,0,0,0,0,0,0,0,28,2b,0,0,1s,1t
28,2b,2t,0,2o,2v,0,0,0,0,28,2b,0,0,0,0
28,2b,2s,2q,2r,2u,0,0,0,2m,28,2b,0,0,0,0
28,27,27,27,27,27,27,27,27,27,27,2b,0,0,0,0
28,27,27,27,27,27,27,27,27,27,27,2b,0,0,0,0
1o,1q,1o,1o,1q,20,1o,1p,1u,0,0,0,0,0,0,0
20,1o,1z,1o,1o,1o,1q,1o,1v,0,0,0,0,0,0,0
NAME house2
EXT 0,7 4 13,9
EXT 0,8 4 13,9
PAL 0

ROOM 7
1p,1v,0,0,0,0,0,0,0,0,0,0,0,0,0,0
1o,1y,1r,0,0,0,0,0,0,0,0,0,0,0,0,0
1o,1o,20,1v,28,27,27,27,27,27,27,27,27,27,27,2b
1p,1o,1o,1y,28,27,27,27,27,27,27,27,27,27,27,2b
1o,1o,20,1o,28,2b,2m,2o,0,0,0,2l,0,0,28,2b
1z,1o,1o,1o,28,2b,2o,0,0,0,0,2j,2i,2k,28,2b
1o,1o,1o,1p,28,2b,0,0,0,0,0,0,0,0,28,2b
1p,1o,1q,1o,28,2b,0,0,0,0,0,0,0,0,0,0
1o,1o,1o,1o,28,2b,0,2w,0,0,0,0,0,0,0,0
1o,20,1o,1o,28,2b,0,0,0,0,0,0,0,0,28,2b
1z,1o,1o,1q,28,2b,2t,0,2v,0,0,0,2n,0,28,2b
1o,1o,1o,1o,28,2b,2s,2p,2u,0,0,0,2p,0,28,2b
1q,1o,1o,1o,28,27,27,27,27,27,27,27,27,27,27,2b
1o,1q,1o,20,28,27,27,27,27,27,27,27,27,27,27,2b
1o,1o,1o,1o,1o,20,1o,1q,1p,1o,1p,1o,1o,1z,1o,1o
20,1o,1o,1o,1o,1o,1p,1o,1o,1o,1o,1o,1o,1o,1q,1p
NAME house3
EXT 15,7 4 8,15
EXT 15,8 4 8,15
PAL 0

ROOM 8
1o,1q,1o,1o,1o,1p,1o,1o,1o,1o,20,1o,1o,1o,1o,1o
1o,1o,1p,1o,1z,1o,1o,1o,1q,1o,1o,1z,1p,1o,1q,1o
1s,1s,1s,1s,1s,1s,1s,1t,1o,1o,1o,1o,1o,20,1o,20
0,0,0,0,0,0,0,0,1t,20,1o,1q,1o,1o,1o,1o
1r,0,0,0,0,0,0,0,0,1s,1s,1s,1t,1o,1p,1o
1o,1v,0,0,0,0,0,0,0,0,0,0,0,1t,1o,1o
1o,1y,0,0,0,0,0,0,0,0,0,0,0,1x,1o,1o
1z,1o,1v,0,0,1r,0,0,0,0,24,24,1w,1o,1p,1o
1o,1p,1v,0,1w,1p,1y,0,0,22,21,21,23,1o,1o,1o
1o,20,1v,0,0,1t,1u,0,0,29,26,26,2a,1o,1z,1o
1q,1o,1y,0,0,0,0,0,0,28,27,27,2b,1o,1o,1q
1o,1o,1o,1y,0,0,0,0,0,28,2d,27,2b,1o,1o,1o
1o,1o,1p,1o,1v,0,0,0,0,0,1w,1o,1o,1o,1o,1o
1p,1o,20,1o,1v,0,0,0,0,0,1x,20,1o,1p,1p,1o
1o,1o,1o,1o,1y,1r,1r,0,0,1w,1o,1o,1o,1o,1z,1o
1o,1z,1o,1p,1o,1o,1o,1v,0,1w,1o,1p,1o,1o,1o,1o
NAME town2
EXT 0,2 4 14,11
EXT 0,3 4 14,12
EXT 0,4 4 14,13
EXT 7,15 9 7,1
EXT 8,15 9 8,1
EXT 9,15 9 9,1
EXT 10,11 a 8,14
PAL 0

ROOM 9
1o,1o,1o,1z,1o,1o,1o,1v,0,1w,1o,1q,1o,1o,1q,1o
1q,1o,20,1o,1q,1o,1u,0,0,0,1t,1o,1o,20,1o,1z
1o,1o,1o,1q,1o,1o,1v,0,0,0,0,1t,1p,1o,1o,1o
1o,1o,1o,1o,1o,1u,0,0,0,0,0,0,1t,1o,1q,1z
1o,1z,1o,1o,1u,0,0,0,0,0,0,0,1w,1o,1o,1o
1o,1o,1o,1p,1y,0,0,0,0,0,0,0,1w,1p,20,1o
1o,1z,1o,1o,1o,1v,0,0,0,0,0,0,1w,1o,1o,1o
1o,1o,1o,1o,1o,1v,0,0,0,0,0,0,1w,1o,1z,1o
1p,1o,1o,1z,1o,1v,0,0,0,0,0,0,1w,1o,1o,1o
1o,1q,1o,1o,1o,1v,0,0,0,0,0,0,0,1t,1o,1q
1o,1o,1o,1o,1o,1v,0,0,0,0,0,0,0,1x,1o,1q
1o,1z,1o,1o,1z,1v,0,0,0,0,0,0,1w,1q,1o,1o
1o,1o,1o,1q,1o,1v,0,0,0,0,0,0,1w,1o,1o,1p
1o,1q,1o,1o,1o,1y,0,0,0,0,0,0,1w,1o,1o,1o
1o,1z,1o,1p,1o,1o,1v,0,0,0,0,0,1x,1z,1o,1q
20,1o,1o,1o,1o,1q,1y,0,0,0,0,1x,20,1o,1o,1o
NAME outside3
ITM 4 5,5
ITM 4 6,5
ITM 4 8,5
ITM 4 7,5
ITM 4 9,5
ITM 4 11,3
ITM 4 10,4
ITM 5 6,13
ITM 5 7,13
ITM 5 12,10
ITM 5 11,10
ITM 5 10,11
ITM 5 9,12
ITM 5 8,13
EXT 7,0 8 7,14
EXT 8,0 8 8,14
EXT 9,0 8 9,14
EXT 6,15 b 1,1
EXT 7,15 b 2,1
EXT 8,15 b 3,1
EXT 9,15 b 4,1
EXT 10,15 b 5,1
EXT 11,15 b 6,1
PAL 0

ROOM a
0,0,0,1w,1q,1o,20,1o,1o,20,1o,1o,1p,1o,1o,1p
0,0,0,0,1t,1o,1o,1p,1o,1o,1o,1q,1o,1z,1o,1o
0,0,0,0,0,1t,1z,1o,1q,1o,1o,1o,1o,1o,1o,1o
0,0,0,0,0,1w,1o,1o,1o,1o,20,1o,1o,1o,1p,1o
0,0,0,0,0,0,1s,1t,1o,1p,1o,1q,1z,1o,1o,1o
0,0,0,0,0,0,0,0,1t,1o,1o,1o,1o,1o,1o,1z
0,0,0,28,27,27,27,27,27,27,27,27,2b,1o,1p,1o
0,0,0,28,27,27,27,27,27,27,27,27,2b,1o,1o,1o
0,0,0,28,2b,0,2v,0,0,0,0,28,2b,1z,1o,20
0,0,0,28,2b,2p,2u,0,0,0,0,28,2b,1o,1o,1o
0,0,0,28,2b,0,0,0,0,0,0,28,2b,20,1o,1q
0,0,0,28,2b,0,0,0,0,0,0,28,2b,1o,1o,1o
0,0,0,28,2b,0,0,0,0,0,0,28,2b,1q,1o,1q
0,0,0,28,2b,0,0,0,0,0,2o,28,2b,1o,1o,1o
0,0,0,28,27,27,2b,0,0,28,27,27,2b,1o,1p,1o
0,0,0,28,27,27,2b,0,0,28,27,27,2b,1z,1o,1q
NAME house4
EXT 8,15 8 10,12
EXT 7,15 8 10,12
PAL 0

ROOM b
1o,1v,0,0,0,0,1w,1o,1z,1o,1o,1o,1q,1o,1o,1o
1q,1v,0,0,0,0,1w,1o,1o,1q,1o,1o,1o,1o,32,31
1o,1v,0,0,0,0,0,1t,1o,1z,1o,1o,1o,20,2x,0
1o,1y,0,0,0,0,0,0,1t,1o,1o,1p,1o,2y,3i,3i
1p,1o,1v,0,0,0,0,0,0,1t,1o,1o,2y,3i,3h,0
1o,20,1v,0,0,0,0,0,0,0,1s,2z,3i,0,0,3h
1o,1o,1y,0,0,0,0,0,0,0,0,30,0,3c,0,0
1q,1z,1o,1v,0,0,0,0,0,0,0,33,3a,1o,3g,3i
1o,1o,1o,1v,0,0,0,0,0,0,0,0,34,1o,3f,3i
20,1o,1p,1v,0,1x,1y,0,0,0,0,0,35,3d,3e,3h
1o,1o,1u,0,0,1t,1q,1y,0,0,0,0,35,3b,0,0
1p,1o,1y,1r,0,1w,1o,1u,0,0,0,0,36,0,3i,3h
1o,1o,1o,1o,1v,0,1s,0,0,0,0,0,1x,37,0,0
1q,1z,1o,20,1y,0,0,0,0,0,0,1w,1q,39,38,3i
1o,1o,1o,1q,1o,1y,1r,1r,1r,1r,1r,1x,1o,1o,1o,1z
1z,1o,1o,1o,1o,1o,1p,1o,1o,1o,1z,1o,1o,1q,1o,1o
NAME outside4
ITM 6 11,8
ITM 6 11,9
ITM 6 11,10
ITM 6 11,11
ITM 6 11,12
EXT 1,0 9 6,14
EXT 2,0 9 7,14
EXT 3,0 9 8,14
EXT 4,0 9 9,14
EXT 5,0 9 10,14
EXT 6,0 9 11,14
EXT 12,8 c 1,8
EXT 12,9 c 1,8
EXT 12,10 c 1,8
PAL 0

ROOM c
1o,1o,1o,1o,1o,1o,1o,1o,1o,1o,1o,1o,1o,1o,1o,1o
1o,1o,1o,1o,1o,1o,1o,1o,1o,1o,1o,1o,1o,1o,1o,1o
1o,1o,1o,1o,3s,3j,3k,3j,3j,3j,3t,1o,1o,1o,1o,1o
1o,1o,3s,3j,3r,0,19,18,0,0,3u,3j,3k,3t,1o,1o
1o,1o,3v,0,0,0,0,0,0,0,0,0,y,3z,1o,1o
1o,1o,3w,0,0,0,0,0,0,0,0,0,0,3z,1o,1o
1o,1o,3v,0,z,0,0,0,0,0,0,0,0,3u,3t,1o
3j,3j,3r,0,0,0,0,0,0,0,0,0,0,0,0,3z
0,0,0,0,0,0,0,0,0,0,0,0,0,0,3p,3q
3l,3l,41,0,0,0,0,0,0,0,0,0,0,0,3q,1o
1o,1o,3w,0,0,0,0,0,0,0,0,0,0,3p,1o,1o
1o,1o,3x,18,0,0,0,0,0,0,0,z,0,40,1o,1o
1o,1o,3n,3m,3m,3o,0,0,y,0,3p,3m,3l,3q,1o,1o
1o,1o,1o,1o,1o,1o,3n,3l,3l,3m,3q,1o,1o,1o,1o,1o
1o,1o,1o,1o,1o,1o,1o,1o,1o,1o,1o,1o,1o,1o,1o,1o
1o,1o,1o,1o,1o,1o,1o,1o,1o,1o,1o,1o,1o,1o,1o,1o
NAME cave
PAL 0

ROOM d
1o,1o,1o,1o,1o,1o,1o,1o,1o,1o,1o,1o,1o,1o,1o,1o
1o,1o,1o,1o,1o,1o,1o,1o,1o,1o,1o,1o,1o,1o,1o,1o
1o,1o,1o,1o,3s,3j,3k,3j,3j,3j,3t,1o,1o,1o,1o,1o
1o,1o,3s,3j,3r,0,19,18,0,0,3u,3j,3k,3t,1o,1o
1o,1o,3v,0,0,0,0,0,0,0,0,0,y,3z,1o,1o
1o,1o,3w,0,0,0,0,0,0,0,0,0,0,3z,1o,1o
1o,1o,3v,0,z,0,0,0,0,0,0,0,0,3u,3t,1o
3j,3j,3r,0,0,0,0,0,0,0,0,0,0,0,0,3z
0,0,0,0,0,0,0,0,0,0,0,0,0,0,3p,3q
3l,3l,41,0,0,0,0,0,0,0,0,0,0,0,3q,1o
1o,1o,3w,0,0,0,0,0,0,0,0,0,0,3p,1o,1o
1o,1o,3x,18,0,0,0,0,0,0,0,z,0,40,1o,1o
1o,1o,3n,3m,3m,3o,0,0,y,0,3p,3m,3l,3q,1o,1o
1o,1o,1o,1o,1o,1o,3n,3l,3l,3m,3q,1o,1o,1o,1o,1o
1o,1o,1o,1o,1o,1o,1o,1o,1o,1o,1o,1o,1o,1o,1o,1o
1o,1o,1o,1o,1o,1o,1o,1o,1o,1o,1o,1o,1o,1o,1o,1o
NAME cave2
EXT 0,7 e 11,8
EXT 0,8 e 11,9
EXT 0,9 e 11,10
PAL 0

ROOM e
1o,1v,0,0,0,0,1w,1o,1z,1o,1o,1o,1q,1o,1o,1o
1q,1v,0,0,0,0,1w,1o,1o,1q,1o,1o,1o,1o,32,31
1o,1v,0,0,0,0,0,1t,1o,1z,1o,1o,1o,20,2x,0
1o,1y,0,0,0,0,0,0,1t,1o,1o,1p,1o,2y,3i,3i
1p,1o,1v,0,0,0,0,0,0,1t,1o,1o,2y,3i,3h,0
1o,20,1v,0,0,0,0,0,0,0,1s,2z,3i,0,0,3h
1o,1o,1y,0,0,0,0,0,0,0,0,30,0,3c,0,0
1q,1z,1o,1v,0,0,0,0,0,0,0,33,3a,1o,3g,3i
1o,1o,1o,1v,0,0,0,0,0,0,0,0,34,1o,3f,3i
20,1o,1p,1v,0,1x,1y,0,0,0,0,0,35,3d,3e,3h
1o,1o,1u,0,0,1t,1q,1y,0,0,0,0,35,3b,0,0
1p,1o,1y,1r,0,1w,1o,1u,0,0,0,0,36,0,3i,3h
1o,1o,1o,1o,1v,0,1s,0,0,0,0,0,1x,37,0,0
1q,1z,1o,20,1y,0,0,0,0,0,0,1w,1q,39,38,3i
1o,1o,1o,1q,1o,1y,1r,1r,1r,1r,1r,1x,1o,1o,1o,1z
1z,1o,1o,1o,1o,1o,1p,1o,1o,1o,1z,1o,1o,1q,1o,1o
NAME outside5
ITM 7 12,8
ITM 7 12,9
ITM 7 12,10
EXT 1,0 f 6,14
EXT 2,0 f 7,14
EXT 3,0 f 8,14
EXT 4,0 f 9,14
EXT 5,0 f 10,14
EXT 6,0 f 11,14
PAL 0

ROOM f
1o,1o,1o,1z,1o,1o,1o,1v,0,1w,1o,1q,1o,1o,1q,1o
1q,1o,20,1o,1q,1o,1u,0,0,0,1t,1o,1o,20,1o,1z
1o,1o,1o,1q,1o,1o,1v,0,0,0,0,1t,1p,1o,1o,1o
1o,1o,1o,1o,1o,1u,0,0,0,0,0,0,1t,1o,1q,1z
1o,1z,1o,1o,1u,0,0,0,0,0,0,0,1w,1o,1o,1o
1o,1o,1o,1p,1y,0,0,0,0,0,0,0,1w,1p,20,1o
1o,1z,1o,1o,1o,1v,0,0,0,0,0,0,1w,1o,1o,1o
1o,1o,1o,1o,1o,1v,0,0,0,0,0,0,1w,1o,1z,1o
1p,1o,1o,1z,1o,1v,0,0,0,0,0,0,1w,1o,1o,1o
1o,1q,1o,1o,1o,1v,0,0,0,0,0,0,0,1t,1o,1q
1o,1o,1o,1o,1o,1v,0,0,0,0,0,0,0,1x,1o,1q
1o,1z,1o,1o,1z,1v,0,0,0,0,0,0,1w,1q,1o,1o
1o,1o,1o,1q,1o,1v,0,0,0,0,0,0,1w,1o,1o,1p
1o,1q,1o,1o,1o,1y,0,0,0,0,0,0,1w,1o,1o,1o
1o,1z,1o,1p,1o,1o,1v,0,0,0,0,0,1x,1z,1o,1q
20,1o,1o,1o,1o,1q,1y,0,0,0,0,1x,20,1o,1o,1o
NAME outside6
ITM 8 5,5
ITM 8 6,5
ITM 8 7,5
ITM 8 11,3
ITM 8 10,4
ITM 8 9,4
ITM 8 8,4
EXT 7,0 g 7,15
EXT 8,0 g 8,15
EXT 9,0 g 9,15
PAL 0

ROOM g
1o,1q,1o,1o,1o,1p,1o,1o,1o,1o,20,1o,1o,1o,1o,1o
1o,1o,1p,1o,1z,1o,1o,1o,1q,1o,1o,1z,1p,1o,1q,1o
1s,1s,1s,1s,1s,1s,1s,1t,1o,1o,1o,1o,1o,20,1o,20
0,0,0,0,0,0,0,0,1t,20,1o,1q,1o,1o,1o,1o
1r,0,0,0,0,0,0,0,0,1s,1s,1s,1t,1o,1p,1o
1o,1v,0,0,0,0,0,0,0,0,0,0,0,1t,1o,1o
1o,1y,0,0,0,0,0,0,0,0,0,0,0,1x,1o,1o
1z,1o,1v,0,0,1r,0,0,0,0,24,24,1w,1o,1p,1o
1o,1p,1v,0,1w,1p,1y,0,0,22,21,21,23,1o,1o,1o
1o,20,1v,0,0,1t,1u,0,0,29,26,26,2a,1o,1z,1o
1q,1o,1y,0,0,0,0,0,0,28,27,27,2b,1o,1o,1q
1o,1o,1o,1y,0,0,0,0,0,28,2d,27,2b,1o,1o,1o
1o,1o,1p,1o,1v,0,0,0,0,0,1w,1o,1o,1o,1o,1o
1p,1o,20,1o,1v,0,0,0,0,0,1x,20,1o,1p,1p,1o
1o,1o,1o,1o,1y,1r,1r,0,0,1w,1o,1o,1o,1o,1z,1o
1o,1z,1o,1p,1o,1o,1o,1v,0,1w,1o,1p,1o,1o,1o,1o
NAME town3
ITM 9 8,12
ITM 9 7,13
ITM 9 6,14
EXT 0,2 h 14,11
EXT 0,3 h 14,12
EXT 0,4 h 14,13
PAL 0

ROOM h
20,1p,1o,1z,1q,1o,1v,0,0,0,1w,1o,1q,1o,1o,1p
1u,22,21,21,23,1s,0,0,0,0,1w,1o,1o,1p,1o,1o
22,21,21,21,21,23,0,0,0,0,0,1t,1z,1o,1o,1p
25,29,26,26,2a,25,0,0,0,0,0,0,1s,1s,1t,1o
1r,28,27,27,2b,0,0,0,0,0,0,0,0,24,24,1t
20,28,27,2d,2b,0,0,0,0,0,0,0,22,21,21,23
1o,1v,0,0,0,0,0,0,0,0,0,0,29,26,26,2a
20,1y,0,0,0,0,0,0,0,0,0,0,28,27,27,2b
1p,1o,1y,0,0,0,0,0,0,0,0,0,28,2d,27,2b
1o,1o,1p,1v,0,0,0,0,0,0,0,0,0,1t,1z,20
20,1q,1o,1v,0,24,0,0,0,0,0,0,0,0,1t,1o
1o,1o,1u,0,22,21,23,0,0,0,0,0,0,0,0,1s
1q,1o,1v,22,21,21,21,23,0,0,0,0,0,0,0,0
1o,20,1y,29,29,26,2a,2a,0,0,0,1r,1r,1r,1r,1r
1q,1o,1p,28,28,27,2b,2b,0,0,1x,1z,1o,1o,1p,1o
1p,1o,1o,28,28,27,2b,2d,1r,1x,1o,1p,1o,1q,1o,20
NAME town4
EXT 6,0 i 6,14
EXT 7,0 i 7,14
EXT 8,0 i 8,14
EXT 9,0 i 9,14
EXT 10,0 i 10,14
PAL 0

ROOM i
1o,1o,20,1o,1o,1z,1o,1o,1o,1p,1o,1o,1q,1o,1o,20
1q,1o,1o,1p,1o,1o,1o,1o,1u,1s,1t,1o,1o,1o,1p,1o
1o,1o,20,1o,1o,1o,1u,1s,0,0,0,1s,1t,1o,20,1o
1o,20,1o,1o,1u,1s,0,0,0,0,0,0,0,1t,1o,1o
1p,1o,1o,1u,0,0,0,0,0,0,1r,0,0,1w,1q,1o
1o,1o,1u,0,0,0,0,0,0,1w,1z,1v,0,0,1t,1o
1o,1u,0,0,0,0,0,0,0,0,1s,0,0,0,1w,1o
1s,0,0,0,0,0,0,0,0,0,0,0,0,0,1w,1p
0,0,0,0,0,0,0,0,0,0,0,0,0,0,1w,1o
0,0,0,0,0,0,0,0,0,0,0,0,0,0,1w,1o
0,0,0,0,0,0,0,0,0,0,0,0,0,0,1x,1q
1r,1r,1r,0,0,0,0,0,0,0,0,0,1r,1x,1o,1o
20,1o,1o,1y,0,0,0,0,0,0,0,1w,1o,1q,1o,1o
1o,1p,1o,1z,1v,0,0,0,0,0,0,1x,1q,1o,1o,1z
1o,1o,1o,1o,1y,1r,0,0,0,0,1w,1o,1o,1o,1o,1o
1q,1o,1p,1o,1o,1o,1v,0,0,0,1w,1o,1z,1o,1p,1o
NAME outside7
EXT 0,7 j 15,7
EXT 0,8 j 15,8
EXT 0,9 j 15,9
EXT 0,10 j 15,10
EXT 0,11 j 15,11
PAL 0

ROOM j
1i,1w,1o,1o,1q,1o,1o,1o,1q,1o,1o,1z,1o,1o,1q,1o
f,1h,1s,1t,1o,1o,1q,1o,1o,1o,1o,1o,1p,1o,1o,1o
b,1i,0,0,1s,1s,1s,1s,1t,1o,20,1o,1p,1o,1o,1p
n,d,0,0,0,0,1r,1r,0,1s,1t,1o,1o,1o,1o,1o
n,k,0,0,1r,1x,1p,1o,1v,0,0,1t,1o,1o,1o,1o
b,d,0,1w,20,1q,20,1o,1v,0,0,1w,1o,1o,1q,1o
n,q,0,0,1t,20,1o,1p,1v,0,0,0,1t,1o,1o,20
1c,1f,0,0,0,1s,1t,1z,1v,0,0,0,0,1s,1s,1s
1d,1e,0,0,0,0,0,1s,0,0,1r,1r,0,0,0,0
n,q,0,0,0,0,0,0,0,1w,1o,1o,1y,0,0,0
n,1g,0,0,0,0,0,0,0,1x,1o,1o,1o,1y,0,0
b,1h,0,0,1r,1r,0,0,1x,1o,1p,1o,1z,1o,1y,1r
f,1j,0,1w,20,1o,1y,1x,1o,1o,1o,1o,1o,1o,1o,1o
f,1h,0,1x,1o,1o,1o,1p,1o,1o,1o,1o,1o,1p,1o,20
b,1h,1w,1p,1o,1q,1o,1o,1o,1p,1o,1o,1o,1o,1o,1o
b,1i,1w,1o,1o,1o,1o,1z,1o,1o,1o,1q,1o,1o,20,1o
NAME outside8
ITM a 12,8
ITM a 12,7
PAL 0

ROOM k
1i,1w,1o,1o,1q,1o,1o,1o,1q,1o,1o,1z,1o,1o,1q,1o
f,1h,1s,1t,1o,1o,1q,1o,1o,1o,1o,1o,1p,1o,1o,1o
b,1i,0,0,1s,1s,1s,1s,1t,1o,20,1o,1p,1o,1o,1p
n,d,0,0,0,0,1r,1r,0,1s,1t,1o,1o,1o,1o,1o
n,k,0,0,1r,1x,1p,1o,1v,0,0,1t,1o,1o,1o,1o
b,d,0,1w,20,1q,20,1o,1v,0,0,1w,1o,1o,1q,1o
n,q,0,0,1t,20,1o,1p,1v,0,0,0,1t,1o,1o,20
1c,1f,0,0,0,1s,1t,1z,1v,0,0,0,0,1s,1s,1s
1d,1e,0,0,0,0,0,1s,0,0,1r,1r,0,0,0,0
n,q,0,0,0,0,0,0,0,1w,1o,1o,1y,0,0,0
n,1g,0,0,0,0,0,0,0,1x,1o,1o,1o,1y,0,0
b,1h,0,0,1r,1r,0,0,1x,1o,1p,1o,1z,1o,1y,1r
f,1j,0,1w,20,1o,1y,1x,1o,1o,1o,1o,1o,1o,1o,1o
f,1h,0,1x,1o,1o,1o,1p,1o,1o,1o,1o,1o,1p,1o,20
b,1h,1w,1p,1o,1q,1o,1o,1o,1p,1o,1o,1o,1o,1o,1o
b,1i,1w,1o,1o,1o,1o,1z,1o,1o,1o,1q,1o,1o,20,1o
NAME outside9
ITM b 2,7
ITM b 2,8
EXT 1,7 l 13,7
EXT 1,8 l 13,8
PAL 0

ROOM l
b,b,f,f,n,n,n,f,f,b,f,f,n,n,f,n
b,n,n,f,n,f,b,b,b,n,n,n,n,f,f,n
b,n,b,g,c,o,o,o,o,o,c,c,c,f,f,b
b,n,k,z,0,0,0,0,0,0,0,0,z,h,b,b
b,b,k,18,0,0,0,0,18,19,0,0,0,11,n,n
n,n,k,0,0,0,0,0,0,0,0,0,0,0,h,n
b,n,d,0,0,0,0,0,0,0,0,0,0,19,i,b
b,n,q,19,0,0,0,16,46,17,0,0,0,0,x,u
b,n,d,0,0,0,0,43,44,45,0,18,0,0,w,v
n,n,q,0,0,0,0,0,0,0,0,0,0,0,j,b
n,n,d,0,18,0,0,19,0,0,0,19,0,0,h,n
n,f,q,0,0,0,0,0,0,0,0,0,0,10,n,f
b,b,q,z,0,0,0,0,0,y,0,0,z,h,n,n
b,n,b,f,n,n,1b,10,n,n,f,b,b,b,n,n
b,n,n,b,b,n,n,f,n,n,n,b,b,n,n,b
b,b,n,b,f,f,f,n,n,n,n,n,n,b,b,b
NAME tomb2
ITM c 13,6
ITM c 12,7
ITM c 12,8
ITM c 13,9
ITM d 10,3
ITM d 10,4
ITM d 10,5
ITM d 10,11
ITM d 10,10
ITM d 10,12
ITM d 10,6
ITM d 10,7
ITM d 10,8
ITM d 10,9
END 0 7,7
END 0 8,7
END 0 9,7
END 0 7,8
END 0 8,8
END 0 9,8
PAL 0

TIL 10
00000000
00000111
00011001
00100101
01111111
10001001
10101010
10011000
NAME bricks_broken1
WAL true

TIL 11
11111111
10000100
10110000
01000000
00111111
00001001
00001111
00000001
NAME bricks_broken2
WAL true

TIL 12
01111111
01011111
11111111
10101010
11111111
11111111
11111111
11111111
NAME coffin_bl
WAL true

TIL 13
10000011
11110111
11111111
10101010
11111111
11111111
11111111
11111111
NAME coffin_b
WAL true

TIL 14
11111111
11110110
11111110
10101110
11111100
11111100
11111000
11111000
NAME coffin_br
WAL true

TIL 15
00000000
00000000
00000000
00000000
11111111
01010101
11111111
11110111
NAME coffin_t
WAL true

TIL 16
00000000
00000000
00000000
00000000
00011111
00010101
00111111
00101111
NAME coffin_tl
WAL true

TIL 17
00000000
00000000
00000000
00000000
11111111
01010101
11111111
11111011
NAME coffin_tr
WAL false

TIL 18
01000000
00000010
01000000
10101000
01000000
00001100
10010010
00001100
NAME rubble3

TIL 19
00000000
01000000
00000100
00000000
00000100
00001010
10000100
00000000
NAME rubble4

TIL 20
11111111
11111011
11110101
11111011
11111111
11111111
11111111
11111111
NAME grass5
WAL true

TIL 21
00100101
01111110
11111001
01010011
10110111
10100110
01011101
01111101
NAME thatch1
WAL true

TIL 22
00000001
00000011
00000111
00001101
00011010
00110110
01101101
11111101
NAME thatch2
WAL true

TIL 23
10000000
11000000
11100000
00110000
01111000
11110100
01010010
10101111
NAME thatch3
WAL true

TIL 24
00000000
00000000
00000000
00000000
00000000
00000000
00000000
11111111
NAME thatch4

TIL 25
11011001
10010011
11111111
00000000
00000000
00000000
00000000
00000000
NAME thatch5

TIL 26
11011001
10010011
01110110
11111111
00000000
11111111
00000000
11111111
NAME thatch_meet_house
WAL true

TIL 27
00000000
11111111
00000000
11111111
00000000
11111111
00000000
11111111
NAME house1
WAL true

TIL 28
10000000
11111111
10000000
11111111
10000000
11111111
10000000
11111111
NAME house_l
WAL true

TIL 29
11011001
10010011
01110110
11111111
10000000
11111111
10000000
11111111
NAME thatch_house_cL
WAL true

TIL 30
00010000
00010000
00111000
01100000
00100000
01110000
00110001
00110010
NAME mountain4
WAL true

TIL 31
11111111
11111111
11110000
11000000
01000000
00110100
00000100
00000010
NAME mountain5
WAL true

TIL 32
11111111
11111111
11111111
11111111
11111100
11111100
11111100
11111000
NAME mountain6
WAL true

TIL 33
00010000
00111000
00011000
00110000
00001010
00000110
00000001
00000011
NAME mountain8
WAL true

TIL 34
10011111
10111111
11111111
01111111
01111111
01111111
00111111
00011111
NAME m9

TIL 35
00011111
00011111
00011111
00001111
00001111
00001111
00001111
00001111
NAME m10
WAL false

TIL 36
00001111
00001110
00001110
00000100
00001101
00000010
00000101
00000001
NAME m11
WAL true

TIL 37
10000110
10000100
11000000
11010000
11100000
11110100
11111010
11111100
NAME m12
WAL true

TIL 38
00110000
00100000
01100001
01000000
00000000
10000000
11100000
11111000
NAME m13
WAL true

TIL 39
11111100
11111110
11111111
11111111
11111111
11111111
11111111
11111111
NAME m14
WAL true

TIL 40
00011111
00011111
00011111
00011111
00011111
00111111
00111111
00111111
NAME cave18
WAL true

TIL 41
00000000
00000000
00000000
00000000
00000000
10000000
11000000
11100000
NAME cave19
WAL false

TIL 42
00000000
01111100
10000010
10011001
10000001
01111110
00000000
00000000
NAME pillow
WAL true

TIL 43
01111111
01011111
11111111
10101010
11111111
11111111
11111111
11111111
NAME coffinbl_2
WAL false

TIL 44
10000011
11110111
11111111
10101010
11111111
11111111
11111111
11111111
NAME coffin_b2
WAL false

TIL 45
11111111
11110110
11111110
10101110
11111100
11111100
11111000
11111000
NAME coffin_br2
WAL false

TIL 46
00000000
00000000
00000000
00000000
11111111
01010101
11111111
11110111
NAME coffin_t2
WAL false

TIL 47
00000000
00000000
00000000
00000000
00011111
00010101
00111111
00101111
NAME coffin_tl2
WAL true

TIL 48
00000000
00000000
00000000
00000000
11111111
01010101
11111111
11111011
NAME coffin_tr2
WAL true

TIL b
11111111
10000010
10110000
10000000
11111111
00101100
00001000
11001001
NAME bricks1
WAL true

TIL c
11111111
10000010
10110000
10000000
11111111
00101100
00001000
11111111
NAME bricks1_bottom
WAL true

TIL d
11111111
10000011
10110001
10000001
11111111
00101101
00001001
11001001
NAME bricks1_right
WAL true

TIL e
11111111
10000011
10110001
10000001
11111111
00101101
00001001
11111111
NAME bricks1_br_corner
WAL true

TIL f
11111111
10010000
10110010
10000100
11111111
00001000
00101010
01001101
NAME bricks2
WAL true

TIL g
11111111
10010000
10110010
10000100
11111111
00001000
00101010
11111111
NAME bricks2_bottom
WAL true

TIL h
11111111
10000010
10110000
10000000
11111111
10101100
10001000
11001001
NAME bricks1_left
WAL true

TIL i
11111111
10000010
10110000
10000000
11111111
10101100
10001000
11111111
NAME bricks1_lb_corner
WAL true

TIL j
11111111
10010000
10110010
10000100
11111111
10001000
10101010
11001101
NAME bricks2_left
WAL true

TIL k
11111111
10010001
10110011
10000101
11111111
00001001
00101011
01001101
NAME bricks2_right
WAL true

TIL l
11111111
10010000
10110010
10000100
11111111
10001000
10101010
11111111
NAME bricks2_lb_corner
WAL true

TIL m
11111111
10010001
10110011
10000101
11111111
00001001
00101011
11111111
NAME bricks2_rb_corner
WAL true

TIL n
11111111
10000000
10000000
10000000
11111111
00001000
00001000
00001000
NAME bricks3
WAL true

TIL o
11111111
10000000
10000000
10000000
11111111
00001000
00001000
11111111
NAME bricks3_bottom
WAL true

TIL p
11111111
10000000
10000000
10000000
11111111
10001000
10001000
10001000
NAME bricks3_left
WAL true

TIL q
11111111
10000001
10000001
10000001
11111111
00001001
00001001
00001001
NAME bricks3_right
WAL true

TIL r
11111111
10000001
10000001
10000001
11111111
00001001
00001001
11111111
NAME bricks3_rb_corner
WAL true

TIL s
11111111
10000000
10000000
10000000
11111111
10001000
10001000
11111111
NAME bricks3_lb_corner
WAL true

TIL u
11111000
11111100
11111110
11111110
11111111
11111111
11111111
11111111
NAME tombdoor1

TIL v
00000001
11111111
11111111
11111111
11111110
11111110
11111100
11111000
NAME tombdoor2

TIL w
00000000
11111111
11110011
11110011
11111111
11111111
11111111
11111111
NAME tombdoor3

TIL x
11111111
11111111
11111111
11111111
11111111
11110011
11110011
11111111
NAME tombdoor4

TIL y
00000000
00000000
00000000
00000000
00001110
01110001
10001001
11111111
NAME rubble1

TIL z
00001110
10010001
00010001
00001110
00110000
01001001
00110000
00000100
NAME rubble2

TIL 1a
00000000
00000000
00000000
00000000
00000000
00000000
00000000
00000000
NAME rubble5

TIL 1b
10000000
11000000
10111000
11001111
11111111
00001000
00001000
00001000
NAME bricks_broken3
WAL true

TIL 1c
00011111
00111111
01111111
01111111
11111111
11111111
11111111
11111111
NAME tombdoor_r1

TIL 1d
10000000
11111111
11111111
11111111
01111111
01111111
00111111
00011111
NAME tombdoor_r2

TIL 1e
00000000
11111111
10011111
10011111
11111111
11111111
11111111
11111111
NAME tombdoor_r3

TIL 1f
11111111
11111111
11111111
11111111
11111111
10011111
10011111
11111111
NAME tombdoor_r4

TIL 1g
11111111
10010001
10100001
10000110
11111000
00001000
00010000
00100000
NAME bricks_broken4
WAL true

TIL 1h
11100000
10100000
10100000
10100000
11100000
00100000
00010000
00010000
NAME bricks_broken5
WAL true

TIL 1i
11110000
10101000
10000110
10000001
11111111
00001001
01101001
00101011
NAME bricks_broken6
WAL true

TIL 1j
11110000
10010000
11010000
10010000
11100000
00100000
01000000
01000000
WAL true

TIL 1o
11111111
11111111
11111111
11111111
11111111
11111111
11111111
11111111
NAME grass1
WAL true

TIL 1p
11111111
11011111
11011111
10101111
11101111
11111101
11111010
11111110
NAME grass2
WAL true

TIL 1q
11111111
11111011
11110111
11111111
11011111
11011101
10101110
11101111
NAME grass3
WAL true

TIL 1r
00000000
00000000
00000000
00000000
00000000
00000010
01011111
11111111
NAME grass_top1

TIL 1s
11111111
11111111
00100110
00000000
00000000
00000000
00000000
00000000
NAME grass_bottom1

TIL 1t
11111111
11111111
00100111
00000011
00000111
00000111
00000011
00000111
NAME grass_incorner1

TIL 1u
11111111
11111111
11110100
11110000
11100000
11000000
11100000
10000000
NAME grass_incorner2

TIL 1v
11000000
11000000
10000000
11000000
10000000
11100000
11000000
10000000
NAME grass_left1

TIL 1w
00000011
00000111
00000011
00000011
00000011
00000111
00000111
00000011
NAME grass_right1

TIL 1x
00000011
00001111
00000111
00000111
00010011
00011111
11111111
11111111
NAME grass_incorner3

TIL 1y
11000000
11100000
11100000
11000000
11010010
11110110
11111111
11111111
NAME grass_incorner4

TIL 1z
11111111
11011111
10101111
11011111
11111101
11111010
11111101
11111111
NAME grass4
WAL true

TIL 2a
11011001
10010011
01110110
11111111
00000001
11111111
00000001
11111111
NAME thatch_house_cR
WAL true

TIL 2b
00000001
11111111
00000001
11111111
00000001
11111111
00000001
11111111
NAME house_r
WAL true

TIL 2c
11111111
11111111
11111111
11111111
11111111
11111111
11111111
11111111
NAME house_door1

TIL 2d
00100001
11100001
00100001
11100001
00100011
11100001
00100001
11100001
NAME house_door2

TIL 2e
00000000
00000000
00000000
00111000
00101000
11111100
10110100
11111100
NAME blocks

TIL 2f
00000000
11100000
10100000
11100000
00000000
00000000
00000000
00000000
NAME blocks2

TIL 2g
00000000
00000000
00000000
00000000
00000000
00001110
00001010
00001110
NAME blocks3

TIL 2h
00000000
00000000
11111111
11111111
11111111
10000001
10000001
10000001
NAME table

TIL 2i
10111111
00000000
11111111
11111111
00000000
00000000
00000000
00000000
NAME bed1
WAL false

TIL 2j
00000011
00000011
00000011
00000011
00000011
00000000
00000000
00000000
NAME bed2
WAL false

TIL 2k
01000000
11000000
11000000
11000000
11000000
00000000
00000000
00000000
NAME bed3
WAL false

TIL 2l
00000000
00000000
00000000
00000000
00000000
00000110
00000110
00000010
NAME bed4
WAL false

TIL 2m
00010000
00101000
00010000
01111100
01111100
00111000
00111000
00000000
NAME vase1
WAL true

TIL 2n
00000000
00000110
00101100
01100110
00010100
00111100
00111100
00011000
NAME vase2
WAL true

TIL 2o
00000000
00101000
00010000
00101010
00010100
00111100
00111100
00011000
NAME vase3
WAL true

TIL 2p
11111111
11111111
11111111
10000001
10000001
10000001
00000000
00000000
NAME table2
WAL true

TIL 2q
11111111
11111111
11111111
10000000
10000000
10000000
00000000
00000000
NAME table3-a
WAL true

TIL 2r
11111111
11111111
11111111
00000001
00000001
00000001
00000000
00000000
NAME table3-b
WAL true

TIL 2s
01000000
01000000
01000000
01111110
01000010
01000010
00000000
00000000
NAME chair1
WAL true

TIL 2t
00000000
00000000
00000000
00000000
00000000
01000000
01000000
01000000
NAME chair1-b
WAL true

TIL 2u
00000010
00000010
00000010
01111110
01000010
01000010
00000000
00000000
NAME chair2
WAL true

TIL 2v
00000000
00000000
00000000
00000000
00000000
00000010
00000010
00000010
NAME chair2-b
WAL true

TIL 2w
00000011
00000010
00000010
11111111
10000001
10100111
10100111
11111111
NAME radio
WAL true

TIL 2x
11111000
11111000
11111000
11100000
11100000
11100001
11000110
10000000
NAME mountain1
WAL true

TIL 2y
11111110
11111100
11111100
11110000
11100000
11000000
11000100
10011000
NAME mountain2
WAL true

TIL 2z
11111111
11111100
11111000
01111000
01010000
00010000
00010001
00010011
NAME mountain3
WAL true

TIL 3a
00011001
00010011
00000011
00000111
00001111
00001111
00001111
00011111
NAME m15
WAL true

TIL 3b
11111100
11111000
11111001
11110001
11100001
11000011
11000110
10000000
NAME m16
WAL true

TIL 3c
00000001
00100001
11000010
10000000
00011100
00111110
01111111
11111111
NAME m17
WAL true

TIL 3d
11111111
11111111
11111111
11111111
11111111
11111111
11111110
11111110
NAME m18
WAL true

TIL 3e
11111000
11111000
11110000
11100010
10000110
00000100
10000100
00000000
NAME m19
WAL true

TIL 3f
11111100
11111100
11111100
11111110
11111110
11111110
11111110
11111100
NAME m20
WAL true

TIL 3g
10000110
11000100
11000000
11100001
11110010
11111010
11111000
11111000
NAME m21
WAL true

TIL 3h
00000000
01100000
10000000
10000010
00000100
00011000
00000000
10000000
NAME m22
WAL true

TIL 3i
00111000
01000000
00000010
10000100
00001100
00011000
00010000
00010000
NAME m23
WAL true

TIL 3j
11111111
11111111
11001111
00000000
00000000
00000000
00000000
00000000
NAME cave1
WAL true

TIL 3k
11111111
11111111
11111111
01111110
00000000
00000000
00000000
00000000
NAME cave2
WAL true

TIL 3l
00000000
00000000
00000000
00000000
00111110
11111111
11111111
11111111
NAME cave3
WAL true

TIL 3m
00000000
00000000
00000000
00000000
11100000
11111111
11111111
11111111
NAME cave4
WAL true

TIL 3n
10000000
10000000
11000000
11100000
11110000
11111111
11111111
11111111
NAME cave5
WAL true

TIL 3o
00000000
00000000
00000000
00000000
00000000
10000000
11110000
11111111
NAME cave6
WAL true

TIL 3p
00000000
00000000
00000000
00000000
00000000
00000111
00001111
00011111
NAME cave7
WAL true

TIL 3q
00111111
00111111
01111111
11111111
11111111
11111111
11111111
11111111
NAME cave8
WAL true

TIL 3r
11111000
11100000
11000000
00000000
00000000
00000000
00000000
00000000
NAME cave9
WAL true

TIL 3s
11111111
11111111
11111111
11111111
11111110
11111000
11111000
11111000
NAME cave10
WAL true

TIL 3t
11111111
11111111
11111111
11111111
00011111
00000111
00000111
00000011
NAME cave11
WAL true

TIL 3u
00000011
00000011
00000011
00000000
00000000
00000000
00000000
00000000
NAME cave12
WAL false

TIL 3v
11110000
11110000
11110000
11111000
11111000
11111000
11111000
11111000
NAME cave13
WAL true

TIL 3w
11110000
11110000
11110000
11110000
11100000
11100000
11100000
11100000
NAME cave14
WAL true

TIL 3x
11110000
11110000
11110000
11100000
11100000
11000000
11000000
10000000
NAME cave15
WAL true

TIL 3y
00000000
00000000
11000000
11100000
11100000
11110000
11110000
11110000
NAME cave16
WAL true

TIL 3z
00001111
00000111
00000111
00000111
00000111
00001111
00001111
00001111
NAME cave17
WAL true

SPR 10
00000000
00000000
01010001
01110001
01110010
01111100
00111100
00100100
>
00000000
00000000
01010100
01110010
01110010
01111100
00111100
00100100
NAME cat7
DLG SPR_n
POS c 8,9

SPR 11
00000000
00011100
00010100
00111100
01011010
01111110
10011001
01110110
>
00011100
00010100
00111100
01011010
01111110
10011001
01110110
00000000
NAME wiseman2
DLG SPR_p
POS d 14,7

SPR 12
00000000
00000000
01010001
01110001
01110010
01111100
00111100
00100100
>
00000000
00000000
01010100
01110010
01110010
01111100
00111100
00100100
NAME cat8
DLG SPR_q
POS d 13,8

SPR 13
00000000
00000000
00000000
00000000
00000000
00000000
00000000
00000000
NAME locked1
DLG SPR_r
POS g 10,11

SPR 14
00000000
00000000
00000000
00000000
00000000
00000000
00000000
00000000
NAME locked2
DLG SPR_s
POS h 7,15

SPR 15
00000000
00000000
00000000
00000000
00000000
00000000
00000000
00000000
NAME locked3
DLG SPR_t
POS h 13,8

SPR 16
00000000
00000000
00000000
00000000
00000000
00000000
00000000
00000000
NAME locked4
DLG SPR_u
POS h 3,5

SPR 17
00011100
00111110
00010101
00011001
00111110
01011000
00011000
00110100
>
00011100
00111111
00010101
00011010
00111100
01011000
00011000
00110100
NAME arch1b
DLG SPR_w
POS j 2,6

SPR 18
00111000
01111100
00101000
00111000
00011000
00111100
00011000
00100100
>
00011100
00111110
00010100
00011100
00011000
00111100
00011000
00100100
NAME arch2b
DLG SPR_x
POS j 2,9

SPR 19
00001110
00011111
00001010
00001110
00110110
00101111
00100110
11001101
>
11001110
01011111
00101010
00101110
00011110
00000111
00000110
00001101
NAME arch3b
DLG SPR_v
POS j 4,7

SPR A
00011100
00101010
00110110
00011100
00111110
00001100
00000110
00000000
>
00000000
00011100
00101010
00110110
00011100
00111110
00001100
00000110
POS 0 5,7

SPR a
00000000
00000000
01010001
01110001
01110010
01111100
00111100
00100100
>
00000000
00000000
01010100
01110010
01110010
01111100
00111100
00100100
NAME cat
DLG SPR_0
POS 1 2,6

SPR b
00011100
00111110
00010101
00011001
00111110
01011000
00011000
00110100
>
00011100
00111111
00010101
00011010
00111100
01011000
00011000
00110100
NAME arch1
DLG SPR_3
POS 1 9,5

SPR c
00111000
01111100
00101000
00111000
00011000
00111100
00011000
00100100
>
00011100
00111110
00010100
00011100
00011000
00111100
00011000
00100100
NAME arch2
DLG SPR_2
POS 1 4,9

SPR d
00001110
00011111
00001010
00001110
00110110
00101111
00100110
11001101
>
11001110
01011111
00101010
00101110
00011110
00000111
00000110
00001101
NAME arch3
DLG SPR_1
POS 1 13,8

SPR f
00000000
00000000
01010001
01110001
01110010
01111100
00111100
00100100
>
00000000
00000000
01010100
01110010
01110010
01111100
00111100
00100100
NAME cat2
DLG SPR_4
POS 3 7,8

SPR g
00000000
00000000
01010001
01110001
01110010
01111100
00111100
00100100
>
00000000
00000000
01010100
01110010
01110010
01111100
00111100
00100100
NAME cat3
DLG SPR_9
POS 4 10,4

SPR h
00111100
00101100
00111110
01011010
01111000
11011000
11011000
11110100
>
00111100
00101100
01111110
01111010
01011000
11011000
11011000
11110100
NAME villager1
DLG SPR_5
POS 4 5,5

SPR i
00111110
10110100
10011100
01011000
00111000
00011011
00010111
00110111
>
00111110
00110101
00011101
00011010
00011100
11011000
11111000
11110100
NAME villager2
DLG SPR_6
POS 4 12,9

SPR j
01111000
11111000
11010000
01110000
01101000
01110000
01100110
11010110
>
01111000
11111000
11010000
01110000
01101110
01110110
01100000
11010000
NAME villager3
DLG SPR_7
POS 4 3,8

SPR k
00111100
11000110
01111101
10010010
10111010
01111100
00110000
01101000
>
11000110
01111100
00010000
00111000
11111110
10110010
01101010
01111100
NAME villager4
DLG SPR_8
POS 4 10,13

SPR l
00111100
01110100
01111100
01111000
01011000
01011100
01111100
01000110
>
01111000
11101000
11111000
11110000
10111000
01011110
01100100
01000000
NAME villager5
DLG SPR_a
POS 5 8,4

SPR m
00000000
00000000
00000000
00110000
00100000
01100000
01100000
00000000
>
00001100
00000100
00000110
00000110
00000000
00000000
00000000
00000000
NAME musicnote
POS 4 5,4

SPR n
01111100
01111110
00101010
00111010
00011010
00111010
00111110
01100010
>
00111100
00111110
00010110
00011110
00011010
00111010
00111110
01100010
NAME villager6
DLG SPR_b
POS 5 10,4

SPR o
00000000
00000000
00000000
00001000
00011100
00010100
01111100
11010000
>
00000000
00000000
00000000
00001000
00011100
00010100
01111100
11010010
NAME villager7
DLG SPR_c
POS 5 8,10

SPR p
00111000
01111000
01101000
01111000
00110000
01111100
00110000
01101000
>
00111000
01111000
01101000
01111000
00110100
01111000
00110000
01101000
NAME villager8
DLG SPR_e
POS 6 8,7

SPR q
00001111
00000010
00000100
00001111
00000000
11100001
11111111
11111111
>
00000000
00000000
00110000
00010000
00000000
11100001
11111111
11111111
NAME villager9
DLG SPR_d
POS 6 3,4

SPR r
00011100
00111110
00010100
00011100
00001110
00011100
00001100
00011010
>
00001110
00011111
00001010
00001110
00011100
00001110
00001100
00010110
NAME villager10
DLG SPR_g
POS 7 8,8

SPR s
00000000
00000000
00000000
00110000
00100000
01100000
01100000
00000000
>
00001100
00000100
00000110
00000110
00000000
00000000
00000000
00000000
NAME musicnote2
DLG SPR_f
POS 7 7,7

SPR t
00000000
00000000
01010001
01110001
01110010
01111100
00111100
00100100
>
00000000
00000000
01010100
01110010
01110010
01111100
00111100
00100100
NAME cat4
DLG SPR_i
POS 8 4,3

SPR u
00000000
01000000
00100000
00100000
01000000
01000100
00111110
00011111
>
00000000
00000000
00010000
00001000
00111000
01000100
00111110
00011111
NAME mouse
DLG SPR_h
POS 8 3,3

SPR v
00011000
00111100
00101000
00111000
01111000
11011100
10011000
10101100
>
00011000
00111100
00101000
01111000
11011000
10011100
10011000
00101100
NAME villager11
DLG SPR_j
POS a 9,10

SPR w
00000000
00000000
01010001
01110001
01110010
01111100
00111100
00100100
>
00000000
00000000
01010100
01110010
01110010
01111100
00111100
00100100
NAME cat5
DLG SPR_l
POS 9 7,3

SPR x
00000000
01000000
00100000
00100000
01000000
01000100
00111110
00011111
>
00000000
00000000
00010000
00001000
00111000
01000100
00111110
00011111
NAME mouse2
DLG SPR_k
POS 9 6,3

SPR y
00000000
00000000
01010001
01110001
01110010
01111100
00111100
00100100
>
00000000
00000000
01010100
01110010
01110010
01111100
00111100
00100100
NAME cat6
DLG SPR_m
POS b 6,3

SPR z
00000000
00011100
00010100
00111100
01011010
01111110
10011001
01110110
>
00011100
00010100
00111100
01011010
01111110
10011001
01110110
00000000
NAME wiseman
DLG SPR_o
POS c 14,7

ITM 1
00000000
00000000
00000000
00000000
00000000
00000000
00000000
00000000
NAME narration1
DLG ITM_1

ITM 2
00000000
00000000
00000000
00000000
00000000
00000000
00000000
00000000
NAME narration2
DLG ITM_2

ITM 3
00000000
00000000
00000000
00000000
00000000
00000000
00000000
00000000
NAME narration3
DLG ITM_0

ITM 4
00000000
00000000
00000000
00000000
00000000
00000000
00000000
00000000
NAME narration4
DLG ITM_3

ITM 5
00000000
00000000
00000000
00000000
00000000
00000000
00000000
00000000
NAME narration5
DLG ITM_4

ITM 6
00000000
00000000
00000000
00000000
00000000
00000000
00000000
00000000
NAME narration6
DLG ITM_5

ITM 7
00000000
00000000
00000000
00000000
00000000
00000000
00000000
00000000
NAME narration7
DLG ITM_6

ITM 8
00000000
00000000
00000000
00000000
00000000
00000000
00000000
00000000
NAME narration8
DLG ITM_7

ITM 9
00000000
00000000
00000000
00000000
00000000
00000000
00000000
00000000
NAME narration9
DLG ITM_8

ITM a
00000000
00000000
00000000
00000000
00000000
00000000
00000000
00000000
NAME narration10
DLG ITM_9

ITM b
00000000
00000000
00000000
00000000
00000000
00000000
00000000
00000000
NAME narration11
DLG ITM_a

ITM c
00000000
00000000
00000000
00000000
00000000
00000000
00000000
00000000
NAME narration12
DLG ITM_b

ITM d
00000000
00000000
00000000
00000000
00000000
00000000
00000000
00000000
NAME narration13
DLG ITM_c

DLG SPR_0
"""
{sequence
  - Hello spirit.
  - I see you have awoken from your nap.
  - These people? They are explorers.
  - I think they wish to break into your tomb.
  - You should probably see about scaring them off...
}
"""

DLG SPR_1
"""
{sequence
  - I thought this was going to be like the movies.
  - I brought a whip and everything.
  - I've even been practicing.
  - *cracks whip*
}
"""

DLG SPR_2
"""
{sequence
  - I'm not so sure we should be here...
  - The locals say it is {shk}haunted...{shk}
  - 
}
"""

DLG SPR_3
"""
{sequence
  - Surely there must be a way to unblock the door.
  - I don't want to have to break it down.
  - We need to be careful to leave things the way we found them.
  - At least until we can bring this stuff to the museum.
  - 
}
"""

DLG ITM_1
"""
{
  - {item "narration1"} == 1 ?
    {wvy}I hear noises outside{wvy}
}
"""

DLG ITM_2
"""
{
  - {item "narration2"} == 1 ?
    {wvy}I think I should investigate{wvy}
}
"""

DLG ITM_0
"""
{
  - {item "narration3"} == 1 ?
    {wvy}Perhaps I should seek the help of the wise man in the village{wvy}
}
"""

DLG SPR_4
"""
{sequence
  - I wish to accompany you.
  - Please, continue on.
}
"""

DLG SPR_6
"""
{sequence
  - Gotta keep the yard clean.
  - *sweep*
}
"""

DLG SPR_7
"""
{sequence
  - I wish someone would play ball with me.
  - 
}
"""

DLG SPR_5
"""
{sequence
  - Churning butter is a tiresome job.
  - But someone has to do it.
  - I like to sing to make it go faster.
  - {shuffle
  - {wvy}Churn churn churn the butter...{wvy}
  - {wvy}Up down up down...{wvy}
  - {wvy}Making butter all day long...{wvy}
  - {wvy}Chuuuuuuuurn...{wvy}
  - {wvy}Buuuuutterrr...{wvy}
  - {wvy}All day...{wvy}
  - {wvy}All night...{wvy}
}
}
"""

DLG SPR_8
"""
{sequence
  - I hate playing ball.
  - I'd much rather jump rope.
  - 
}
"""

DLG SPR_9
"""
{sequence
  - The wise man must be somewhere around.
  - Perhaps one of the villagers knows.
  - I'm going to find myself a mouse while you do that.
}
"""

DLG SPR_a
"""
{sequence
  - Mom always told me rocking my chair was dangerous.
  - Haven't fallen yet!
  - La la la...
}
"""

DLG SPR_b
"""
{sequence
  - I hope those "archaeologists" aren't causing trouble.
  - I don't trust them.
  - 
}
"""

DLG SPR_c
"""
{shuffle
  - Goo
  - Goo-goo
  - Gah boo
  - Me-na goo
  - Gah goo goo goo
}
"""

DLG SPR_d
"""
{shuffle
  - *Zzz*
  - *Zzzzzzzzz*
  - {shk}*SNORT*{shk}
  - *Zzzzz*
}
"""

DLG SPR_e
"""
{sequence
  - I hear the wise man has gone into hiding.
  - I wonder when he'll return?
  - 
}
"""

DLG SPR_f
"""
{shuffle
  - {wvy}Dance dance!{wvy}
  - {wvy}Dance the night away!{wvy}
  - {wvy}Forget your problems!{wvy}
  - {wvy}Just dance!{wvy}
  - {wvy}Shake it!{wvy}
  - {wvy}Life is music!{wvy}
}
"""

DLG SPR_g
"""
{sequence
  - Dancing is great exercise.
  - Gotta keep in shape.
  - 
}
"""

DLG SPR_h
*squeak*

DLG SPR_i
"""
{sequence
  - We should really hurry.
  - They could be breaking into your tomb any time now.
  - (Who's a good mousey?)
  - (You are! You are!)
  - {shk}*Ahem*{shk} We should get moving.
}
"""

DLG SPR_j
"""
{sequence
  - That old wise man's gone and hidden himself in a cave!
  - He better come out soon!
  - I need his help!
  - How do I keep the others from coming around and bothering me?
  - That's why I moved all the way out here!
  - {shk}To get some peace and quiet!{shk}
  - 
}
"""

DLG SPR_k
*Squeak squeaken*

DLG ITM_3
"""
{
  - {item "narration4"} == 1 ?
    {wvy}I must be getting close...{wvy}
}
"""

DLG ITM_4
"""
{
  - {item "narration5"} == 1 ?
    {wvy}I hope...{wvy}
}
"""

DLG SPR_l
"""
{sequence
  - That old guy said the wise man was in a cave.
  - I bet he's somewhere in the mountains up ahead!
  - Let's go!
}
"""

DLG SPR_m
"""
{sequence
  - This must be the cave!
  - Quick, let's go in.
  - Oh? The mouse?
  - It had to go. Yeah.
  - Let's go.
}
"""

DLG ITM_5
"""
{
  - {item "narration6"} == 1 ?
    {wvy}I hope this is the right place...{wvy}
}
"""

DLG SPR_n
"""
{sequence
  - Well, go on...
  - We've come this far after all.
  - 
}
"""

DLG SPR_o
"""
{sequence
  - Greetings, kind spirit.
  - Your tomb? About to be broken into? That won't do at all.
  - What to do? Why, you're a ghost!
  - You're a friendly sort, but I think you can do it.
  - Scare them away like you mean it!
  - I know you can do it.
  - And... Thank you for finding my kitty. (exit "cave2,13,7")
}
"""

DLG SPR_p
Go scare away those intruders!

DLG SPR_q
"""
{sequence
  - You've done so well so far.
  - Now, go on. You can do it.
  - Me? I shall stay here. Where I belong.
  - Go on now.
}
"""

DLG ITM_6
"""
{
  - {item "narration7"} == 1 ?
    No need to go back in there. Onwards!
}
"""

DLG ITM_7
"""
{
  - {item "narration8"} == 1 ?
    {wvy}I'm not a very scary ghost...{wvy}
}
"""

DLG ITM_8
"""
{
  - {item "narration9"} == 1 ?
    {wvy}But I've got to do this...{wvy}
}
"""

DLG SPR_r
{wvy}The door is locked...{wvy}

DLG SPR_s
{wvy}People must be going to bed...{wvy}

DLG SPR_t
{wvy}It's certainly getting late...{wvy}

DLG SPR_u
{wvy}I should hurry along...{wvy}

DLG ITM_9
"""
{
  - {item "narration10"} == 1 ?
    {wvy}Time to put on my scariest face...{wvy}
}
"""

DLG SPR_v
"""
{sequence
  - {shk}A ghost!{shk}
  - My whip will scare you away!
  - {shk}Why isn't it working?{shk}{t = t + 1}
  - {
      - t >= 3 ?
        {shk}Ahhhhh!{shk}(exit "outside9,4,7")
      - else ?
        {shk}Ahhhhh!{shk}
    }
}
"""

DLG SPR_w
"""
{sequence
  - And if we position a lever here...
  - What...?
  - {shk}A GHOST!{shk}
  - {shk}We should get out of here!{shk}{t = t + 1}
  - {
      - t >= 3 ?
        {shk}Ahhhhh!{shk}(exit "outside9,2,6")
      - else ?
        {shk}Ahhhhh!{shk}
    }
}
"""

DLG SPR_x
"""
{sequence
  - We should...
  - {shk}Ahhh! A Ghost! Ahhhhh!{shk}
  - {shk}I KNEW IT!{shk}
  - I told you guys and you DIDN'T LISTEN!
  - {shk}I'm getting out of here!{shk}{t = t + 1}
  - {
      - t >= 3 ?
        {shk}Ahhhhh!{shk}(exit "outside9,2,9")
      - else ?
        {shk}Ahhhhh!{shk}
    }
}
"""

DLG ITM_a
"""
{
  - {item "narration11"} == 1 ?
    {wvy}Finally. I hope they never come back...{wvy}
}
"""

DLG ITM_b
"""
{
  - {item "narration12"} == 1 ?
    {wvy}That was quite an adventure...{wvy}
}
"""

DLG ITM_c
"""
{
  - {item "narration13"} == 1 ?
    {wvy}And now for some peace and quiet...{wvy}
}
"""

END 0
{wvy}Zzzz...{wvy}

END undefined


VAR t
0


