Du hast verschlafen! Beeil dich, sonst verpasst du den Mathe-Test. Um Bello musst du dich auch noch kÃ¼mmern!

# BITSY VERSION 4.6

! ROOM_FORMAT 1

PAL 0
52,209,192
255,224,144
255,19,45

PAL 1
65,238,255
255,184,5
255,1,16

PAL 2
218,220,255
97,84,207
255,116,100

PAL 3
141,255,251
255,167,61
209,61,28

PAL 4
255,248,204
133,37,41
75,138,255

ROOM 0
g,g,g,c,0,0,0,0,0,0,0,0,0,0,0,0
g,g,g,g,c,0,0,0,0,0,0,0,0,0,0,0
i,l,i,l,l,c,0,0,0,0,0,0,0,0,0,0
y,o,y,n,s,d,c,0,0,0,0,0,0,0,0,0
10,11,10,s,s,s,12,c,0,0,0,0,0,0,0,0
s,s,s,s,s,s,b,d,h,1l,1s,1l,h,1s,h,h
u,t,0,s,s,s,b,h,h,h,1r,h,1r,1r,0,0
v,x,s,s,s,s,b,h,1l,1q,1r,h,1p,1r,h,h
v,r,a,a,a,a,q,1h,1h,1o,1p,1h,1o,f,1h,1h
1h,0,0,0,0,0,0,0,0,0,0,0,0,1n,1n,1n
1n,1n,1n,1n,1n,1n,1n,1n,1n,1n,0,0,0,0,1n,1n
1n,1n,1n,1n,1n,1n,1n,1n,1n,1n,1m,1m,1m,0,1n,1n
1n,1n,1r,0,0,0,0,0,1m,1m,0,0,1r,1n,1n,1n
1n,1r,1m,0,0,0,0,0,0,0,0,1r,1n,1n,1n,1n
1r,0,0,0,0,0,0,1n,1n,1n,1n,1n,1n,1n,1n,0
1n,1n,0,1t,0,0,1r,1r,1n,1r,1n,1n,1n,1n,1n,0
ITM 0 11,12
EXT 3,15 1 3,0
PAL 0

ROOM 1
1n,1n,0,0,0,0,1n,1n,1n,1n,1n,1n,1n,1n,1n,1n
1n,1n,1n,0,0,0,0,0,0,1n,1n,1n,1r,1n,1r,1n
1n,1n,1n,1n,1n,1n,0,0,0,0,0,0,1n,1n,1n,1n
1n,1n,1n,1n,1n,1n,1n,1n,0,0,0,0,0,1n,1n,1n
1r,1r,1r,1r,1n,1n,1n,1n,0,0,0,0,0,1n,1n,1n
1n,1r,1n,1n,1r,1n,0,0,0,0,0,1n,1r,1n,1n,1n
1r,1n,1n,1r,0,0,0,0,0,1r,1r,1n,1n,1n,1n,1n
1n,1n,1r,0,0,0,0,1n,1n,1n,1n,1n,1n,1n,1n,1n
1n,1n,0,0,0,1n,1n,1n,22,21,21,21,20,1n,1n,1n
1n,0,0,0,0,1n,0,1n,23,1w,1w,1w,1z,1x,0,0
1n,0,0,0,0,0,0,24,w,1v,1v,1v,w,1y,0,0
1n,1n,1r,0,0,0,0,0,1u,0,0,25,1u,1n,1n,1n
1n,1n,1n,1n,1n,0,0,0,0,0,0,0,1n,1n,1n,1n
1n,1n,1n,1r,1n,1n,1n,1r,1r,1r,1r,1r,1n,1n,1n,1n
1n,1n,1n,1n,1n,1n,1n,1n,1n,1n,1n,1n,1n,1n,1n,1n
1n,1n,1n,1n,1n,1n,1n,1n,1n,1n,1n,1n,1n,1n,1n,1n
EXT 3,0 0 3,15
EXT 11,10 2 10,13
PAL 1

ROOM 2
r,r,r,r,r,r,r,r,r,r,r,r,r,r,r,r
r,r,r,r,r,r,r,r,r,r,r,r,r,r,r,r
r,r,r,r,r,r,r,r,r,r,r,r,r,r,r,r
r,r,r,r,r,r,r,r,r,r,r,r,r,r,r,r
r,r,r,r,r,r,r,r,r,r,r,r,r,r,r,r
r,r,r,r,r,r,r,r,r,r,r,r,r,r,r,r
r,r,r,r,r,r,r,r,r,r,r,r,r,r,r,r
r,r,r,r,r,r,r,r,r,r,r,r,r,r,r,r
r,r,r,r,r,r,r,r,r,r,r,r,r,r,r,r
r,r,r,r,r,r,r,r,r,r,r,r,r,r,r,r
r,r,r,2c,2b,2c,2b,2c,2b,2c,2b,2c,2b,r,r,r
r,r,r,2d,2e,2d,2e,2d,2e,2d,2e,2d,2e,r,r,r
r,r,r,0,2a,2a,0,2a,2a,0,2a,0,0,r,r,r
r,r,r,2f,2f,2f,2f,2f,2f,2f,0,2f,2f,r,r,r
r,r,r,r,r,r,r,r,r,r,r,r,r,r,r,r
r,r,r,r,r,r,r,r,r,r,r,r,r,r,r,r
ITM 1 3,12
EXT 3,12 3 3,12
PAL 2

ROOM 3
r,r,r,r,r,r,r,r,r,r,r,r,r,r,r,r
r,r,r,r,r,r,r,r,r,r,r,r,r,r,r,r
r,r,r,r,r,r,r,r,r,r,r,r,r,r,r,r
r,r,r,r,r,r,r,r,r,r,r,r,r,r,r,r
r,r,r,r,r,r,r,r,r,r,r,r,r,r,r,r
r,r,r,r,r,r,r,r,r,r,r,r,r,r,r,r
r,r,r,r,r,r,r,r,r,r,r,r,r,r,r,r
r,r,r,r,r,r,r,r,r,r,r,r,r,r,r,r
r,r,r,r,r,r,r,r,r,r,r,r,r,r,r,r
r,r,r,r,r,r,r,r,r,r,r,r,r,r,r,r
r,r,r,2c,2b,2c,2b,2c,2b,2c,2b,2c,2b,r,r,r
r,r,r,2d,2e,2d,2e,2d,2e,2d,2e,2d,2e,r,r,r
r,r,r,0,2a,2a,0,2a,2a,0,2a,0,0,r,r,r
r,r,r,2f,2f,2f,2f,2f,2f,2f,0,2f,2f,r,r,r
r,r,r,r,r,r,r,r,r,r,2w,r,r,r,r,r
r,r,r,r,r,r,r,r,r,r,r,r,r,r,r,r
EXT 10,14 4 5,12
PAL 2

ROOM 4
0,0,0,0,0,0,0,0,0,0,0,0,0,0,0,0
0,0,0,0,0,0,0,0,0,0,0,0,0,0,0,0
0,0,0,0,0,0,2h,2g,0,0,0,0,0,0,0,0
0,0,0,0,0,2n,0,0,2n,0,0,0,0,0,0,0
0,2i,2n,2n,2n,2n,1j,1j,2n,2n,2n,2n,t,0,0,0
0,2v,2n,2n,2n,2n,2n,2n,2n,2n,2n,2n,2u,0,0,0
0,2v,2n,2n,1j,2n,1j,1j,2n,1j,2n,2n,2u,0,0,0
0,2v,2n,2n,2n,2n,2n,2n,2n,2n,2n,2n,2u,0,1r,1r
h,2v,2t,2t,1j,2t,2j,2k,2t,1j,2t,2t,2u,h,1s,1s
2q,2m,2n,2n,2n,2n,2o,2o,2n,2n,2n,2n,2l,2q,2p,2p
0,22,21,21,21,20,0,0,0,0,0,0,0,0,0,0
0,23,1w,1w,1w,1z,1x,1n,1n,0,0,1n,0,0,0,0
24,w,1v,1v,1v,w,1y,0,0,0,1n,1n,0,0,0,0
0,1u,1n,1n,1n,1u,0,0,0,1n,1n,1n,0,0,0,0
0,1n,1n,1n,0,0,0,0,0,1n,0,0,0,0,0,0
0,0,0,1n,0,0,0,0,0,0,0,0,0,0,0,0
ITM 2 11,15
ITM 2 10,15
ITM 2 11,14
ITM 2 12,15
ITM 2 12,13
ITM 2 12,14
ITM 2 10,14
ITM 2 9,15
ITM 2 8,15
ITM 2 7,14
ITM 2 7,15
ITM 2 6,15
ITM 2 14,14
EXT 7,9 5 4,15
PAL 3

ROOM 5
r,r,r,r,r,r,r,r,r,r,r,r,r,r,r,r
r,r,0,0,0,0,0,0,r,r,r,r,r,r,r,r
r,r,0,0,0,0,0,0,0,0,0,0,0,0,0,r
r,r,0,0,0,0,0,0,0,0,0,0,0,0,0,0
r,r,0,0,0,0,0,0,0,0,0,0,0,0,0,r
r,0,0,0,0,0,0,0,0,0,0,0,0,0,0,r
r,0,0,0,0,0,0,0,0,0,0,0,0,0,0,r
r,0,0,0,0,0,0,0,0,r,r,r,2x,r,r,r
r,r,r,r,0,0,0,0,0,r,r,r,r,r,r,0
r,r,r,r,0,0,r,r,r,r,r,r,r,r,r,r
r,r,r,r,0,0,r,r,r,r,r,r,r,r,r,r
r,r,r,r,0,0,r,r,r,r,r,r,r,r,r,r
r,r,r,r,0,0,r,r,r,r,r,r,r,r,r,r
r,r,r,r,0,0,r,r,r,r,r,r,r,r,r,r
r,r,r,r,0,0,r,r,r,r,r,r,r,r,r,r
r,r,r,r,0,0,r,r,r,r,r,r,r,r,r,r
ITM 3 10,6
ITM 3 12,6
END 0 12,7
PAL 4

TIL 10
10101010
00000000
00000000
00010000
00000000
00000000
00100010
00000000
WAL false

TIL 11
10000001
00000000
00000000
00010000
00000000
00000000
00100010
00000000
WAL false

TIL 12
00101010
00010101
00001010
00000101
00000010
00000001
00000011
00000111

TIL 13
01010101
10101010
01010101
10101010
01010101
00101010
00000101
00000000

TIL 14
01010101
10101010
01010101
10101010
01010101
10101010
00000101
00001000

TIL 15
01010101
10101010
01010101
10101010
01010101
00101010
00010101
00000000

TIL 16
01010101
10101010
01010101
10101010
01010101
10101010
00000101
00000010

TIL 17
01010101
10101010
01010101
10101010
01010101
10101010
01010101
00000000

TIL 18
00000000
10000000
01000000
10100000
01010000
10101000
01010100
10101010

TIL 19
01000000
10100000
01010101
10101010
01010101
10101010
01010101
10101010

TIL 20
00000000
00000000
00000000
11111110
11111111
00000101
00000101
00000101
WAL true

TIL 21
00000000
00000000
00000000
11111111
11111111
00000001
00000001
00000001
WAL true

TIL 22
00000000
00000000
00000000
00111111
11111111
11100001
11100001
11100001
WAL true

TIL 23
11100001
11100001
11100001
11111111
11111111
11111111
11111111
01111111
WAL true

TIL 24
00000000
00000000
00010000
00110110
00001011
00010001
00000000
00000000
>
00000000
00000000
10010000
01001000
00001001
01000001
00000000
00000000

TIL 25
00010000
00111000
01010100
00010000
00010000
00010000
00000000
00000000

TIL 26
11111111
00000000
00000000
00000000
00000000
00000000
00000000
00000000
>
00000000
00000000
00000000
00000000
00000000
00000000
00000000
00000000

TIL 27
00000000
00000000
00000000
00000000
00000000
00000000
00000000
00000000
>
00000000
00000000
00000000
00000000
00000000
00000000
00000000
11111111

TIL 28
00000000
00000000
00000000
00000000
01010101
11111111
11111111
11111111

TIL 29
00000000
00000000
00000000
00000000
01010101
11111111
11111111
11111111

TIL a
00000000
00000000
00000000
00000000
01010101
11111111
11111111
11111111

TIL b
00001111
00000111
00001111
00000111
00001111
00000111
00001111
00000111
WAL true

TIL c
10000000
11000000
01100000
10110000
01011000
00101100
01010110
00001011
WAL true

TIL d
00101010
00010101
00001010
00000101
00000010
00000001
00000000
00000000

TIL e
00000000
00000000
00000000
00000000
00000000
00000000
00000000
00000000

TIL f
00000100
00000100
00011000
00110000
00100000
01000000
01000000
01000000

TIL g
01010101
10101010
01010101
10101010
01010101
10101010
01010101
10101010

TIL h
00000000
00000000
00000000
00000000
00000000
00000000
00000000
00000000
WAL true

TIL i
01010101
10101010
01010101
11000011
10000001
00000000
10000001
00000000

TIL j
10101010
01010101
10101010
01010101
10101010
01010101
00101010
01010101

TIL k
10101010
01010101
10101010
01010101
10101010
01010101
00101010
01010100

TIL l
01010101
10101010
01010101
00000000
10101010
00000000
00000000
00000000

TIL m
00000000
00000000
00000000
00000000
00000000
00000000
00000000
00000000

TIL n
10000000
00000000
10000000
00000000
10000000
00000000
10000000
00000000

TIL o
10000001
00000000
10000001
00000000
10000001
00000000
10000001
00000000

TIL p
01010101
00000000
00000000
00000000
00000000
00000000
00000000
00000000

TIL q
00001111
00000111
00001111
00000111
10101111
11111111
11111111
11111111

TIL r
11111111
11111111
11111111
11111111
11111111
11111111
11111111
11111111
WAL true

TIL s
10000000
00000000
00000000
00010000
00000000
00000000
00100010
00000000
WAL true

TIL t
11100000
11111000
11111100
11111110
11111110
11111111
11111111
11111111
WAL true

TIL u
00000111
00011111
00111111
01111111
01111111
11111111
00111111
11111111
WAL true

TIL v
01111111
11111111
01111111
11111111
01111111
11111111
00111111
11111111
WAL true

TIL w
11111111
11111111
11000011
10111101
01111110
11100111
11000011
11100111

TIL x
11111111
11111111
11111111
11110011
11111011
11111011
11110011
11110111
WAL true

TIL y
00000000
01010000
00101000
00010100
00001000
00000100
00000000
00000000

TIL z
00000000
10101010
00000000
01010100
00000000
10101010
00000000
01010100

TIL 1a
00000000
00000000
01010101
10101010
01010101
10101010
01010101
10101010

TIL 1b
00000000
00000000
01010000
10101010
01010101
10101010
01010101
10101010

TIL 1c
00000000
00000000
00000000
10000000
01010000
10101000
01010100
10101010

TIL 1d
00000000
00000000
00000000
10000000
01010000
10101000
01010100
10101010

TIL 1e
01010101
10101010
01010101
10101010
01010101
10101010
01010100
10100000

TIL 1f
01010101
10101010
01010101
10101010
01010100
10101000
00010000
10000000

TIL 1g
00000000
00000000
00000000
00000000
00000001
00000010
00010101
10101010

TIL 1h
00000000
00000010
00000101
00101010
01010101
10101010
01010101
10101010

TIL 1i
01010101
10101010
01010101
10101010
01010101
10101010
01010000
10000000

TIL 1j
00011000
00100100
01000010
10000001
10000001
10000001
10000001
11111111

TIL 1k
00000000
00000000
00000000
00000000
00000000
00000000
00000000
00000000

TIL 1l
00000000
00000000
00000000
00000000
00000000
00000000
00000000
00000000
WAL true

TIL 1m
00000000
00000000
00000000
00000000
00000000
00000000
00000000
00000000

TIL 1n
10000000
00100000
01000100
00001000
00010110
01000100
10001000
00100000
WAL true

TIL 1o
00010010
00010010
00001000
00001100
00000100
00000010
00000010
00000010

TIL 1p
00000001
00000101
00010100
00100000
00100010
01000010
01000000
00000000

TIL 1q
01000000
01010100
00000100
00000001
00000001
00001010
00001001
00000001

TIL 1r
00000010
00000110
00000100
00000001
00000001
00001010
00001001
00000001
>
00000000
00001100
00001000
00001010
00000010
00010100
00010010
00000010

TIL 1s
00100010
00110110
01010100
01000001
01000001
00101010
10101001
10100001
>
01000100
01000100
01100100
00100001
00100001
00100101
10100100
10100000
WAL true

TIL 1t
00001000
00001000
00001000
00001000
00101010
00011100
00001000
00000000

TIL 1u
01111110
00111100
00000000
01000100
00001000
00100000
00000000
00000000

TIL 1v
11111111
00000000
11111111
11111111
00000000
00000000
00000000
00000000

TIL 1w
00000001
00000001
00000001
01111111
01111111
11111111
11111111
11111111
WAL true

TIL 1x
10000000
10000000
10000000
10000000
11000000
11100000
11010000
10010000

TIL 1y
10010000
11110000
11100000
11100000
01100000
00000000
00000000
00000000

TIL 1z
00000101
00000101
00000101
00000101
00000101
11111111
11100111
11111111
WAL true

TIL 2a
00000000
00000000
10000000
10000000
10000000
10000000
11111000
00000000

TIL 2b
11111111
00000000
00000000
00000000
11110000
00010000
00010000
00010000
>
00000000
00000000
00000000
00000000
11110000
00010000
00010000
00010000

TIL 2c
11111111
00000000
00000000
00000000
01111111
01000000
01000000
01000000
>
00000000
00000000
00000000
00000000
01111111
01000000
01000000
01000000

TIL 2d
01000010
01000100
01001000
01000000
01111111
00000000
00000000
00000000
WAL true

TIL 2e
00010000
00010000
00010000
00010000
11110000
00000000
00000000
00000000
WAL true

TIL 2f
00000000
00000000
00101010
00000000
01010101
00000000
01010101
11111111
>
00000000
00000000
00101010
00000000
01010101
00000000
01010101
10101010

TIL 2g
01010000
10101000
01010100
00101010
00010101
00101010
00010101
10101010

TIL 2h
00001010
00010101
00101010
01010100
10101000
01010100
10101000
01010101

TIL 2i
00000111
00011111
00111111
01111111
01111111
11111111
11111111
11111111

TIL 2j
00001011
00010101
00101011
01010101
10101011
11010101
10101010
11010100
WAL true

TIL 2k
01010000
10101000
01010100
10101010
01010101
10101011
01010101
00101011
WAL true

TIL 2l
01010101
10101011
01010101
10101011
01010101
10101011
01010101
10101011

TIL 2m
11010101
10101010
11010101
10101010
11010101
10101010
11010101
10101010

TIL 2n
00000000
10101010
01010100
00101010
01010100
00101010
01010101
00000000
WAL false

TIL 2o
11010101
10101011
11010101
10101011
11010101
10101011
11010101
10101011

TIL 2p
00000100
10010101
10010001
01000010
01100010
00110100
00010100
00010100

TIL 2q
00000000
00000010
00000110
00111111
01111111
11111111
11111111
11111111

TIL 2r
00000000
00000000
00000000
00000000
00000000
00000000
00000000
00000000

TIL 2s
11111100
11111100
11111100
11111100
11111100
11111100
11111100
11111100

TIL 2t
00000000
10101010
01010100
00101010
01010100
00101010
01010101
00000000
WAL true

TIL 2u
01010101
10101011
01010101
10101011
01010101
10101011
01010101
10101011
WAL true

TIL 2v
11010101
10101010
11010101
10101010
11010101
10101010
11010101
10101010
WAL true

TIL 2w
11111111
11111111
11111111
11111111
11111111
11111111
11111111
11111111

TIL 2x
11111111
11111111
11111111
11111111
11111111
11111111
11111111
11111111

SPR A
00011100
00110010
01100010
00010100
00111110
01011101
00010100
00010100
POS 0 1,8

SPR a
00000000
00000000
00101000
00111000
01111000
01111100
00111110
00101110
NAME Bello
DLG SPR_0
POS 0 3,8

SPR b
00111110
00001000
00001000
00001000
00001000
00001000
00001000
00001000
NAME Haltestelle
DLG SPR_1
POS 1 6,10

SPR c
00000000
00000000
00000000
00111110
00111110
00101010
00100010
00101010
POS 1 6,9

SPR d
00111000
01111100
00000100
00111000
01111100
10111010
00101000
00101000
DLG SPR_2
POS 1 11,5

SPR e
00011000
00110100
00100101
00011001
00011111
00011101
00000100
00000110
NAME Busfahrer
DLG SPR_3
POS 2 12,12

SPR f
00011100
00110110
10100100
10111000
10111000
10011100
11111100
00000110
NAME Dennis
DLG SPR_4
POS 2 9,12

SPR j
00011100
00101100
10100100
11011010
10011001
10011100
11111100
00000110
NAME Sandra
DLG SPR_5
POS 2 6,12

SPR k
00011100
00101100
10100100
11011010
10011001
10011100
11111100
00000110
NAME Sandra 2
DLG SPR_8
POS 3 6,12

SPR l
00011100
00110110
10100100
10111000
10111000
10011100
11111100
00000110
NAME Dennis 2
DLG SPR_7
POS 3 9,12

SPR m
00011000
00110100
00100101
00011001
00011111
00011101
00000100
00000110
NAME Busfahrer 2
POS 3 12,12

SPR n
00000000
11111111
10000001
10000001
11111111
10000001
10000001
10000001
DLG SPR_a
POS 4 11,11

SPR o
00000000
01111000
11011000
00001000
01111100
10111010
00101000
00101000
NAME Tim
DLG SPR_9
POS 4 10,10

SPR p
10000000
10000000
10000000
10000000
10000000
10000000
10000000
10000000
DLG SPR_b
POS 5 1,6

SPR q
11111111
00000000
00000000
00000000
00000000
00000000
00000000
00000000
DLG SPR_c
POS 5 5,1

SPR r
11111111
00000000
00000000
00000000
00000000
00000000
00000000
00000000
DLG SPR_d
POS 5 3,1

SPR s
10000000
10000000
10000000
10000000
10000000
10000000
10000000
10000000
DLG SPR_e
POS 5 2,2

SPR t
00000001
00000001
00000001
00000001
00000001
00000001
00000001
00000001
DLG SPR_f
POS 5 8,7

SPR u
00000001
00000001
00000001
00000001
00000001
00000001
00000001
00000001
DLG SPR_g
POS 5 14,4

SPR w
00000000
00000000
00000000
00000000
00000000
00000000
00000000
11111111
DLG SPR_i
POS 5 10,6

SPR x
10000000
10000000
10000000
10000000
10000000
10000000
10000000
10000000
DLG SPR_h
POS 5 2,4

SPR y
11111111
00000000
00000000
00000000
00000000
00000000
00000000
00000000
DLG SPR_j
POS 5 10,2

ITM 0
01100000
11100000
11110000
00111000
00011100
00001111
00000111
00000110
NAME Knochen
DLG ITM_0

ITM 1
00000000
00000000
00000000
00000000
00000000
00001111
00001111
00001111
NAME hausaufgaben
DLG ITM_1

ITM 2
00000000
01010100
01111100
01111100
00111000
00010000
01010100
00111000
NAME Blume

ITM 3
00000000
00000000
00000000
00000000
00000000
00000000
00000000
11111111
DLG ITM_2

DLG ITM_0
Du hast Bellos Knochen gefunden!

DLG SPR_0
"""
{
  - {item "0"} == 1 ?
    "Danke! Wuffwuff" 
    Schnell, der Bus fÃ¤hrt gleich ab!
  - else ?
    Bello: "Wo ist mein Knochen? :("
}
"""

DLG SPR_1
{clr2}"Schulbus - 7.30"{clr2}

DLG SPR_2
Schnell!

DLG SPR_3
"Bitte nicht vom Fahren ablenken!

DLG ITM_1
Du hast Dennis' Hausaufgaben hinter den Sitzen gefunden!

DLG SPR_5
Sandra: "Ich habe damit nichts zu tun!"

DLG SPR_4
"""
{
  - else ?
    Dennis: "Ich kann meine Mathe-Hausaufgaben nicht finden!"
}
"""

DLG SPR_6
"Da sind ja meine Hausaufgaben!Ich glaube wir sind angekommen."

DLG SPR_7
Dennis: "Oh, da sind ja meine Hausaufgaben. Ich glaube wir sind auch schon da."

DLG SPR_8
"OK, ich hab Dennis' Hausaufgaben versteckt. Hihi"

DLG SPR_9
"""
{
  - {item "Blume"} == 1 ?
    "So ein kleiner BlumenstrauÃŸ? :("
  - {item "Blume"} > 6 ?
    "Oh! SchÃ¶n, dass du an mich gedacht hast! WeiÃŸt du in welchem Raum wir den Test schreiben?"
  - {item "Blume"} == 2 ?
    "So ein kleiner BlumenstrauÃŸ? :("
  - {item "Blume"} == 3 ?
    "So ein kleiner BlumenstrauÃŸ? :("
  - {item "Blume"} == 4 ?
    "So ein kleiner BlumenstrauÃŸ? :("
  - {item "Blume"} == 5 ?
    "So ein kleiner BlumenstrauÃŸ? :("
  - {item "Blume"} == 6 ?
    "So ein kleiner BlumenstrauÃŸ? :("
  - else ?
    Tim: "Hey! Heute ist doch mein Geburtstag. hast du mir gar keine Blumen mitgebracht?" :(
}
"""

DLG SPR_a
Schule 

DLG SPR_b
Kunst-Raum

DLG SPR_c
Hausmeister

DLG SPR_d
Englisch

DLG SPR_e
Lehrerzimmer

DLG SPR_f
Mensa

DLG SPR_g
Technik-Raum

DLG SPR_i
Physik

DLG SPR_h
Biologie

DLG SPR_j
Musikraum

DLG ITM_2
Mathe

END 0
Matheraum - Juhu, du hast es pÃ¼nktlich zum Test geschafft!

VAR a
42

