something's jamming the wires so I can't sleep, get on up there and fix it chief!

# BITSY VERSION 5.2

! ROOM_FORMAT 1

PAL 0
214,221,254
68,69,130
66,69,153

ROOM 0
0,0,0,p,r,0,0,0,0,0,0,0,0,0,0,0
o,o,0,0,0,p,0,p,0,0,0,0,0,o,0,0
0,0,0,o,o,0,0,0,r,o,0,0,0,o,0,o
o,0,0,0,0,o,o,0,0,p,0,p,0,p,0,o
0,0,0,0,0,0,0,0,0,0,0,0,0,0,0,r
0,0,o,0,0,o,0,0,0,o,0,0,0,0,0,0
0,0,0,0,0,0,0,0,0,0,0,0,0,0,0,0
0,0,0,0,0,0,0,0,0,0,0,0,0,0,0,0
b,b,i,b,b,b,b,b,b,b,b,c,b,d,q,0
0,0,g,0,0,0,0,0,0,0,0,0,0,e,0,0
k,k,g,k,k,k,k,k,k,j,k,k,k,e,k,j
0,0,g,0,0,0,0,0,j,0,0,0,0,e,j,0
0,0,g,0,0,0,0,j,0,0,0,0,0,e,0,0
0,0,g,0,0,0,j,0,0,0,0,0,j,e,0,0
0,0,g,0,0,j,0,0,0,0,0,j,0,e,0,0
0,0,g,0,j,0,0,0,0,0,j,0,0,e,0,0
EXT 2,15 1 2,0
END 0 0,6
END 0 0,8
END 0 2,6
END 0 3,6
END 0 4,6
END 0 5,6
END 0 6,6
END 0 7,6
END 0 3,9
END 0 8,6
END 0 9,6
END 0 10,6
END 0 11,6
END 0 1,6
END 0 12,6
END 0 12,8
END 0 11,8
END 0 10,8
END 0 9,8
END 0 8,8
END 0 7,8
END 0 6,8
END 0 5,8
END 0 4,8
END 0 3,8
END 0 1,8
END 0 1,9
END 0 1,10
END 0 1,11
END 0 1,12
END 0 1,13
END 0 1,14
END 0 3,10
END 0 3,11
END 0 3,12
END 0 3,13
END 0 3,14
PAL 0

ROOM 1
0,0,g,0,j,0,0,0,0,0,j,0,0,e,0,0
o,o,g,0,0,j,0,0,0,0,0,j,0,e,0,0
0,0,g,o,o,0,j,0,0,o,0,0,j,e,0,o
o,0,g,0,0,o,o,j,0,0,0,0,0,e,0,o
0,0,g,0,0,0,0,0,j,0,0,0,0,e,j,0
k,k,g,k,k,k,k,k,k,j,k,k,k,e,k,j
0,0,g,0,0,0,0,0,0,0,0,0,0,e,0,0
c,c,i,c,c,c,c,c,c,c,c,c,c,d,q,0
0,0,0,0,0,0,0,0,0,0,0,0,0,0,0,0
0,0,0,0,0,0,0,0,0,0,0,0,0,0,0,0
0,0,0,0,0,0,0,0,0,0,0,0,0,0,0,0
0,0,0,0,0,0,0,0,0,0,0,0,0,0,0,r
0,0,0,0,0,0,0,0,0,p,0,p,0,p,0,0
0,0,0,0,0,0,0,0,r,0,0,0,0,0,0,0
0,0,0,0,0,p,0,p,0,0,0,0,0,0,0,0
0,0,0,p,r,0,0,0,0,0,0,0,0,0,0,0
EXT 2,0 0 2,15
END 1 15,11
END 1 4,6
END 1 5,6
END 1 1,6
END 1 3,6
END 1 3,5
END 1 3,4
END 1 3,3
END 1 3,2
END 1 3,1
END 1 3,0
END 1 1,0
END 1 1,1
END 1 1,2
END 1 1,3
END 1 1,4
END 1 1,5
END 1 4,15
END 1 3,15
END 1 14,6
END 1 5,14
END 1 6,14
END 1 7,14
END 1 8,13
END 1 9,12
END 1 6,6
END 1 10,12
END 1 7,6
END 1 11,12
END 1 8,6
END 1 12,12
END 1 9,6
END 1 13,12
END 1 10,6
END 1 11,6
END 1 14,11
END 1 12,6
END 1 15,6
END 2 0,7
END 1 13,6
PAL 0

TIL a
11111111
00000000
00000000
00000000
00000000
00000000
00000000
00000000

TIL b
11111111
00000000
00000000
11111111
00000000
00000000
00000000
00000000

TIL c
11111111
00000000
00000000
11111111
00000000
00000000
00000000
00000000

TIL d
11111111
00111100
00111100
11111111
00111100
00111100
00111100
00111100

TIL e
00111100
00111100
00111100
00111100
00111100
00111100
00111100
00111100

TIL f
00000000
00000000
00000000
00000000
00000000
00000000
00000000
00000000

TIL g
00111100
00111100
00111100
00111100
00111100
00001100
00111100
00111100

TIL h
00000000
00000000
00000000
00001000
01110000
00000000
10100000
00000000

TIL i
11111111
00111100
00111100
11111111
00111100
00001100
00111100
00111100
WAL false

TIL j
00000001
00000010
00000100
00001000
00010000
00100000
01000000
10000000

TIL k
11111111
00000000
00000000
00000000
00000000
00000000
00000000
00000000

TIL l
00000000
00000000
00000010
00100000
00000000
00000000
00010010
00000000

TIL m
00000000
00000010
00100000
00000000
00000000
00000100
00100000
00000000

TIL n
01000000
00000000
00000000
00000001
00000000
01000000
00001000
00000000

TIL o
00000000
00000000
00000000
00000000
00000000
00000000
00000000
00000000
WAL false

TIL p
00000000
00000000
01100000
00110000
00011111
00000000
00000000
00000000

TIL q
11111000
00000100
00000000
11110000
00001000
00001000
00010000
00000000

TIL r
00000000
00000000
00000000
00000000
11000000
01000000
00111110
00000001

TIL s
00000000
00000000
01000000
01000000
01000000
00000000
01000010
00111110

SPR A
00110000
00110110
00111000
11010000
00011000
00001100
00001010
00010000
>
00001100
11001100
00101000
00010100
00010010
00011000
00100100
00010100
POS 0 3,7

SPR a
00000000
00000000
01100000
11010000
01111100
00111111
00011100
00001000
>
00000000
00000000
00000000
01110000
11011101
01111110
00011100
00001000
DLG SPR_0
POS 0 13,7

SPR b
00000000
00000000
01100000
11010000
01111100
00111111
00011100
00001000
>
00000000
00000000
00000000
01110000
11011101
01111110
00011100
00001000
DLG SPR_1
POS 1 13,8

ITM 0
00000000
00000000
00000000
00111100
01100100
00100100
00011000
00000000
NAME tea
DLG ITM_0

DLG SPR_0
"""
Life on a wire
Is bound to inspire
all sorts of allegories
but the truth of the matter
is give me a ladder
and I'd be out of here in a heartbeat.
"""

DLG ITM_0
You found a nice warm cup of tea

DLG SPR_1
"""
The train is what keeps you up.
Or the ocean air
these creaking stairs
whatever flips your cup
the tossed debris
eastbound at 3:00
"""

END 0
As you plummet from the summit, don't forget to hit the ground. If you do you will clip through and maybe someday wrap around.

END 1
all movement is teleportation. sleep is death, temporal theft. sound is just vibration. Birds can't talk and you can't walk.

END 2
Come back down and sing me to bed, with rhyming couplets that I can forget.

VAR a
42

