
The Little Village

# BITSY VERSION 4.8

! ROOM_FORMAT 1

PAL 0
NAME grn gry
146,204,126
150,150,150
102,102,102

PAL 1
NAME Ending 1
0,0,0
255,255,255
104,104,104

PAL 2
NAME night sky
17,33,133
255,255,255
238,222,122

PAL 3
NAME bus 
204,139,90
106,63,117
255,255,255

PAL 4
NAME old house
87,143,69
41,28,16
110,78,77

ROOM 0
a,a,a,a,0,0,0,1y,0,0,0,0,0,0,1y,0
a,a,a,a,0,0,0,0,0,0,0,0,0,0,0,0
a,a,a,a,0,0,0,0,0,0,0,0,0,0,0,0
g,i,i,h,0,0,0,0,1y,0,0,0,0,0,0,0
e,0,0,f,t,t,0,0,0,0,0,0,0,0,0,0
e,0,0,f,t,t,0,0,0,0,0,0,0,0,0,0
e,0,0,f,t,t,t,t,t,t,t,t,t,t,t,t
e,0,0,f,t,t,t,t,t,t,t,t,t,t,t,t
b,d,d,c,t,t,0,0,0,0,0,0,0,0,0,0
l,o,p,m,t,t,0,0,0,0,0,0,0,0,1y,0
j,n,n,k,0,0,0,0,0,0,0,0,0,0,0,0
q,a,a,r,0,0,0,0,0,1y,0,0,0,0,0,0
a,a,a,a,0,0,0,0,0,0,0,0,0,0,0,0
a,a,a,a,0,0,0,0,0,0,0,0,0,0,0,0
a,a,a,a,0,0,0,0,0,0,0,0,0,1y,0,0
a,a,a,a,0,0,0,0,0,0,0,0,0,0,0,0
NAME bus stop
ITM 0 10,5
ITM 1 6,12
EXT 15,7 1 1,7
EXT 15,6 1 1,6
PAL 0

ROOM 1
u,u,u,u,v,0,0,0,0,1y,0,w,u,u,u,u
u,u,u,u,u,v,0,0,0,0,w,u,u,u,u,u
u,u,u,u,u,u,0,0,0,0,u,u,u,u,u,u
u,u,u,u,u,u,0,0,0,0,u,u,u,u,u,u
0,0,0,0,0,0,0,1y,0,0,0,0,0,0,0,0
0,0,0,0,0,0,0,0,0,0,0,0,0,0,0,0
t,t,t,t,t,t,t,t,t,t,t,t,t,t,t,t
t,t,t,t,t,t,t,t,t,t,t,t,t,t,t,t
0,0,0,0,0,0,0,t,t,0,0,0,0,0,0,0
0,0,0,0,0,0,0,t,t,0,0,0,0,0,0,0
0,1y,0,0,0,0,0,t,t,0,0,0,0,0,0,1y
0,0,0,1y,0,0,0,t,t,0,0,0,0,0,0,0
0,0,0,0,0,0,0,t,t,0,0,0,0,0,0,0
0,0,0,0,0,0,0,t,t,0,0,0,0,1y,0,0
0,0,1y,0,0,0,0,t,t,0,0,0,0,0,0,0
0,0,0,0,0,0,0,t,t,0,0,0,0,0,0,0
NAME vllg main
EXT 7,15 2 7,1
EXT 8,15 2 8,1
EXT 7,0 3 7,14
EXT 8,0 3 8,14
EXT 15,6 4 1,6
EXT 15,7 4 1,7
EXT 0,6 0 14,6
EXT 0,7 0 14,7
PAL 0

ROOM 2
0,0,0,0,0,0,0,t,t,0,0,0,0,0,0,0
0,0,0,0,0,0,0,t,t,0,0,1y,0,0,0,0
0,0,0,1y,0,0,0,t,t,0,0,0,0,0,0,0
0,0,0,0,0,0,0,t,t,0,0,0,0,1y,0,0
0,1y,0,0,0,0,t,t,t,t,0,0,0,0,0,0
0,0,0,0,0,t,0,0,0,0,t,0,0,0,0,0
0,0,0,0,t,0,0,0,0,0,0,t,0,0,0,0
0,0,0,t,0,0,0,0,0,0,0,0,t,0,0,0
0,0,0,t,0,0,14,13,13,11,0,0,t,0,0,0
0,0,0,t,0,0,10,15,15,12,0,0,t,0,0,0
0,0,0,t,0,0,y,x,x,z,0,0,t,0,0,0
0,0,0,0,t,0,0,0,0,0,0,t,0,0,0,1c
0,1y,0,0,0,t,0,0,0,0,t,0,0,0,0,0
0,0,0,0,0,0,t,t,t,t,0,0,0,0,0,0
0,0,0,0,0,0,0,0,0,0,0,0,1y,0,0,1c
0,0,0,0,0,0,0,0,0,0,0,0,0,0,0,0
NAME fountain
ITM 3 0,15
EXT 7,0 1 7,14
EXT 8,0 1 8,14
EXT 15,13 4 1,13
EXT 15,12 4 1,12
PAL 0

ROOM 3
0,16,18,18,0,0,0,16,1y,18,18,18,18,0,17,0
17,0,0,0,18,17,1a,0,0,0,0,0,0,0,1b,0
0,0,0,0,0,0,0,0,0,1b,19,0,0,0,0,16
16,19,0,1b,0,17,19,0,16,0,0,18,0,1b,0,0
0,0,1y,16,0,0,0,0,0,0,16,18,18,0,0,1a
1b,0,0,0,1a,0,1d,1d,1d,1d,1d,0,0,0,1y,0
0,17,19,1b,1c,1c,17,0,1a,17,0,0,0,0,0,17
0,1a,0,0,0,0,0,0,0,0,0,1a,0,18,0,0
18,18,0,1b,0,18,0,16,0,0,1b,0,18,18,1y,0
18,16,0,0,18,1d,1d,1d,1c,1c,1c,1d,1d,1d,1d,1d
18,1y,0,18,18,17,0,1b,0,0,0,0,17,0,16,0
18,18,0,0,0,0,0,0,0,17,0,0,0,0,19,0
1b,0,0,1y,0,18,18,18,18,0,0,19,0,1a,0,0
0,16,0,0,18,18,0,1c,1c,1c,1c,1c,0,0,0,16
0,0,1a,0,17,0,1b,0,0,0,0,0,0,1b,0,0
17,0,0,1y,0,0,19,0,0,0,18,18,18,0,17,0
NAME forest
ITM 2 2,1
EXT 7,15 1 7,1
EXT 8,15 1 8,1
END 0 15,1
PAL 0

ROOM 4
0,0,w,v,0,0,0,w,v,0,0,0,w,v,0,0
0,w,u,u,v,0,w,u,u,v,0,w,u,u,v,0
0,u,u,1f,u,0,u,u,1f,u,0,u,u,1f,u,0
0,u,1f,u,u,0,u,1f,u,u,0,u,1f,u,u,0
1d,u,u,0,u,1d,u,u,0,u,1d,u,u,0,u,1d
0,0,0,0,0,0,0,0,0,0,0,0,0,0,0,0
t,t,t,t,t,t,t,t,t,t,t,t,t,t,t,t
t,t,t,t,t,t,t,t,t,t,t,t,t,t,t,t
0,0,0,0,0,0,0,0,0,0,0,0,0,0,0,0
0,0,0,0,0,0,0,0,0,0,0,0,0,0,1y,0
0,0,0,0,0,0,1y,0,0,0,0,0,0,0,0,0
1c,1c,1c,1c,1c,1c,1c,1c,1c,1c,1c,1c,1c,1c,1c,1c
0,0,0,0,0,0,0,0,0,0,0,0,0,0,0,1y
0,0,0,0,0,0,1y,0,0,0,0,0,0,0,0,0
0,0,0,0,0,0,0,0,1y,0,0,0,0,0,0,0
0,0,0,0,0,0,0,0,0,0,0,0,0,0,0,0
NAME vllg cont
EXT 0,6 1 14,6
EXT 0,7 1 14,7
EXT 15,6 5 1,6
EXT 15,7 5 1,7
EXT 0,12 2 14,12
EXT 0,13 2 14,13
EXT 15,12 5 1,12
EXT 15,13 5 1,13
EXT 15,14 5 1,14
EXT 15,15 5 1,15
PAL 0

ROOM 5
0,0,w,v,0,0,0,w,v,0,0,0,w,v,0,0
0,w,u,u,v,0,w,u,u,v,0,w,u,u,v,0
0,u,u,1f,u,0,u,u,1f,u,0,u,u,1f,u,0
0,u,1f,u,u,0,u,1f,u,u,0,u,1f,u,u,0
1d,u,u,0,u,0,u,u,0,u,1d,u,u,0,u,1d
0,0,0,0,0,0,0,0,0,0,0,0,0,0,0,0
t,t,t,t,t,t,t,t,t,t,t,t,t,t,t,t
t,t,t,t,t,t,t,t,t,t,t,t,t,t,t,t
0,0,0,0,0,0,0,0,0,0,0,0,0,1y,0,0
0,0,0,0,1y,0,0,1y,0,0,0,0,0,0,0,0
0,0,0,0,0,0,0,0,0,0,0,0,0,0,0,1y
1c,1c,1c,1c,1c,1c,1c,1c,1c,1c,1c,1c,1c,1c,1c,1c
0,0,1y,0,0,0,0,0,0,0,0,0,0,0,0,0
0,0,0,0,0,0,0,0,0,0,0,0,0,0,0,0
0,0,0,0,0,0,1y,0,0,0,0,0,1y,0,0,0
0,0,0,0,0,0,0,0,0,0,0,0,0,0,0,0
NAME vllg cont2
ITM 4 13,4
EXT 0,6 4 14,6
EXT 0,7 4 14,7
EXT 13,4 6 6,15
EXT 15,6 a 1,6
EXT 15,7 a 1,7
EXT 0,12 4 14,12
EXT 0,13 4 14,13
EXT 0,14 4 14,14
EXT 0,15 4 14,15
EXT 15,13 a 1,13
EXT 15,14 a 1,14
EXT 15,15 a 1,15
EXT 15,12 a 1,12
EXT 4,0 f 4,14
EXT 5,0 f 5,14
EXT 6,0 f 6,14
PAL 0

ROOM 6
1m,1m,1m,1m,1m,1m,1m,1m,1m,1m,1m,1m,1m,1m,1m,1m
1m,1m,1m,1m,1m,1m,1m,1m,1m,1m,1m,1m,1m,1m,1m,1m
1m,1m,1m,1m,1m,1m,1m,1m,1m,0,0,0,0,0,0,1m
1m,1m,1m,1m,1m,1m,1m,0,0,1h,1i,1j,1j,1j,1j,1m
1m,1m,1m,1m,1m,0,0,1h,1i,1l,1l,1j,1j,1j,1j,1m
0,0,0,0,0,1h,1i,1l,1l,1l,1l,1j,1j,1j,1j,1m
1l,1l,1l,1g,1g,1l,1l,1l,1l,1l,1l,1j,1j,1j,1j,1m
1l,1l,1l,1g,1g,1l,1l,1l,1l,1l,1l,1c,1c,1c,1c,1c
1l,1l,1l,1g,1g,1l,1l,1l,1l,1l,1l,1k,1k,1k,1k,1k
1l,1l,1g,1g,1g,1l,1l,1l,1l,1l,1l,1k,1k,1k,1k,1k
1l,1g,1g,1g,1g,1g,1l,1l,1l,1l,1l,1k,1k,1k,1k,1k
0,0,0,0,0,0,0,0,0,0,0,1k,1k,1k,1k,1k
0,0,0,0,0,0,0,0,0,0,0,1k,1k,1k,1k,1k
0,0,0,0,0,0,0,0,0,0,0,0,0,0,0,0
0,0,0,0,0,0,0,0,0,0,0,0,0,0,0,0
0,0,0,0,0,0,1u,0,0,0,0,0,0,0,0,0
NAME inside house
ITM 5 14,6
ITM 7 13,6
ITM 6 14,5
EXT 14,6 7 8,8
EXT 6,15 5 13,5
EXT 0,5 9 14,7
PAL 0

ROOM 7
1c,1c,1c,1c,1c,1c,1c,1c,1c,1c,1c,1c,1c,1c,1c,1c
1r,1u,0,0,0,0,0,0,0,0,0,0,0,0,1u,1s
1r,0,0,0,0,0,0,0,0,0,0,0,0,0,0,1s
1r,0,0,0,0,0,0,0,0,0,0,0,0,0,0,1s
1r,0,0,0,0,0,0,0,0,0,0,0,0,0,0,1s
1r,0,0,0,0,0,0,0,0,0,0,0,0,0,0,1s
1r,0,0,0,0,0,0,0,0,0,0,0,0,0,0,1s
0,0,0,0,0,0,0,0,0,0,0,0,0,0,0,1s
1r,0,0,0,0,0,0,0,0,0,0,0,0,0,0,1s
1r,0,0,0,0,0,0,0,0,0,0,0,0,0,0,1s
1r,0,0,0,0,0,0,0,0,0,0,0,0,0,0,1s
1r,0,0,0,0,0,0,0,0,0,0,0,0,0,0,1s
1r,0,0,0,0,0,0,0,0,0,0,0,0,0,0,1s
1r,0,0,0,0,0,0,0,0,0,0,0,0,0,0,1s
1r,1u,0,0,0,0,0,0,0,0,0,0,0,0,1u,1s
1c,1c,1c,1c,1c,1c,1c,1c,1c,1c,1c,1c,1c,1c,1c,1c
NAME magic
EXT 1,1 7 14,14
EXT 14,1 7 1,14
EXT 14,14 7 1,1
EXT 1,14 7 14,1
EXT 0,7 8 6,12
PAL 1

ROOM 8
0,0,0,1q,0,0,0,0,0,0,0,0,1o,0,0,0
0,0,1p,0,0,0,0,0,0,1p,0,0,0,0,0,1q
0,0,0,0,0,1n,0,0,0,0,0,0,0,0,0,0
0,0,0,0,0,0,0,0,0,0,0,0,0,0,0,0
1t,0,0,0,0,0,0,0,0,0,0,0,0,0,0,0
0,0,1p,0,0,1q,0,0,0,0,0,0,0,0,1p,0
0,0,0,0,0,0,0,0,1p,0,0,1q,0,0,0,0
0,0,0,0,0,0,0,0,0,0,0,0,0,0,0,0
0,0,0,0,0,1o,0,0,0,0,0,0,0,1n,0,0
0,0,0,0,0,0,0,0,0,0,1p,0,0,0,0,0
0,0,1p,0,0,0,0,0,0,0,0,0,0,0,0,1p
0,0,0,0,0,0,0,1q,0,0,0,1q,0,0,0,0
1t,0,0,0,0,0,0,0,0,0,0,0,0,0,0,0
0,0,1o,0,0,0,0,0,0,1o,0,0,0,0,1o,0
0,0,0,1p,0,0,0,1n,0,0,0,0,0,0,0,0
0,0,0,0,0,0,0,0,0,0,0,1p,0,0,0,1q
NAME eyes
END undefined 0,4
END undefined 0,12
PAL 1

ROOM 9
0,0,0,0,0,0,1x,0,1w,0,0,1x,0,w,u,u
1w,0,1x,0,1w,0,0,0,0,0,0,0,w,u,u,u
0,0,0,0,0,0,0,0,0,0,1x,w,u,u,u,u
1x,0,1w,0,0,1x,0,1w,0,0,w,u,u,u,u,u
0,0,0,0,0,0,0,0,0,0,1m,1m,1m,1m,1m,1m
0,0,0,0,1w,0,1x,0,0,0,1m,1m,1m,1m,1m,1m
0,1x,0,0,0,0,0,0,1w,1x,1m,1m,1m,1m,1m,1m
1w,0,0,0,1w,0,0,1w,0,0,0,0,0,0,0,0
0,0,0,0,0,1x,0,0,1v,1v,u,u,u,u,u,u
0,0,0,1x,0,0,0,0,0,0,u,u,u,u,u,u
1x,0,1w,0,0,0,0,1w,0,0,u,1f,u,u,1f,u
0,0,1x,0,0,1x,0,0,0,0,u,u,u,u,u,u
0,1w,0,0,1w,0,0,0,0,1w,u,u,u,u,u,u
0,0,0,0,0,0,0,1w,0,0,u,1f,u,u,1f,u
0,0,1w,0,1w,0,1x,0,0,0,u,u,u,u,u,u
1w,0,0,0,0,0,0,0,0,1w,u,u,u,u,u,u
NAME balcony
EXT 15,7 6 1,5
PAL 2

ROOM a
17,0,0,0,0,0,17,17,0,0,0,0,0,0,0,0
0,17,17,0,0,0,17,0,0,0,1d,1d,0,0,0,0
0,0,0,0,0,0,0,0,0,0,0,0,0,18,18,18
0,0,0,0,1d,1d,1d,0,0,0,0,0,18,18,0,0
1d,1d,1d,1d,0,0,0,0,0,0,0,0,0,0,0,0
0,0,0,0,0,0,0,0,1d,1d,0,0,0,0,0,25
t,t,0,0,0,0,0,0,0,0,0,0,0,0,0,0
t,t,t,t,t,t,t,0,t,t,0,0,0,0,0,0
0,0,t,t,0,0,t,t,t,0,t,0,0,0,0,0
0,0,0,0,0,0,0,t,t,t,0,0,16,0,0,16
0,0,0,0,0,0,0,0,0,0,0,0,0,0,0,0
1c,1c,1c,1c,0,0,1c,0,1c,0,0,0,0,0,0,0
0,0,0,0,0,0,0,0,0,0,16,0,0,0,0,16
0,0,0,0,0,0,0,0,0,0,0,0,1b,0,0,0
0,0,0,0,0,0,0,1b,0,0,0,0,0,0,16,0
0,0,0,0,0,0,0,0,0,0,0,0,16,0,0,0
NAME vllg end
EXT 0,6 5 14,6
EXT 0,7 5 14,7
EXT 0,12 5 14,12
EXT 0,13 5 14,13
EXT 0,14 5 14,14
EXT 0,15 5 14,15
EXT 15,6 b 1,6
EXT 15,7 b 1,7
EXT 15,8 b 1,8
PAL 0

ROOM b
1y,0,0,0,1y,0,24,25,25,23,0,0,1d,1d,1d,1d
0,1d,1d,1d,0,0,24,25,25,23,0,0,0,0,0,0
0,0,0,0,0,0,0,25,25,0,0,1y,0,1b,0,1y
0,0,0,1y,0,0,1z,21,22,20,0,0,0,0,0,0
1y,0,0,0,0,0,0,0,0,0,0,0,1y,0,0,0
0,0,0,1y,0,0,0,0,0,0,0,0,0,0,0,0
0,1y,0,0,0,1b,0,0,0,0,1y,0,0,1y,0,0
0,0,0,0,0,0,0,1y,0,0,0,0,1d,1d,1d,1d
0,1y,0,0,0,0,0,0,0,0,0,0,0,0,0,0
0,0,0,0,0,1y,0,0,0,0,1y,0,0,0,0,1y
0,0,1y,0,0,0,0,0,0,0,0,0,0,0,0,0
1y,0,0,0,0,0,0,0,0,0,0,0,1y,0,0,0
0,0,0,0,0,0,0,0,1y,0,1b,0,0,0,0,0
0,1y,0,0,1y,0,0,0,0,0,0,0,0,1y,0,0
0,0,0,0,0,0,0,0,0,1y,0,0,0,0,0,0
1y,1d,1d,1d,0,0,1y,0,0,0,0,0,0,1b,0,1y
NAME tree
EXT 0,6 a 14,6
EXT 0,7 a 14,7
EXT 0,8 a 14,8
EXT 7,0 c 7,14
EXT 8,0 c 8,14
PAL 0

ROOM c
0,0,0,0,0,0,0,0,0,0,0,28,28,0,0,0
1w,0,28,28,28,0,0,1w,0,0,0,0,0,0,1w,0
0,0,0,1x,0,0,0,0,0,0,0,0,0,0,0,0
0,0,0,0,0,0,0,0,0,0,1x,0,28,28,28,0
1x,0,0,0,0,0,0,0,0,0,0,0,0,0,0,0
0,0,0,0,0,0,28,28,28,28,0,0,0,0,0,1w
0,0,0,0,0,0,0,0,0,0,0,0,0,0,0,0
28,28,28,0,0,1w,0,0,28,28,28,0,0,0,0,0
0,0,0,0,0,0,0,0,0,0,0,0,1x,0,0,0
0,0,0,0,0,0,0,0,0,0,0,0,0,0,0,0
0,0,0,1x,0,0,0,0,0,0,0,0,0,0,0,0
1w,0,0,0,0,28,28,28,28,0,28,28,28,28,0,28
0,28,28,28,28,0,0,0,0,1x,0,0,0,0,1w,0
0,0,0,0,0,0,0,0,0,0,0,0,0,0,0,0
26,26,26,26,26,26,26,26,26,26,26,26,26,26,26,26
27,27,27,27,27,27,27,29,29,27,27,27,27,27,27,27
NAME sky
EXT 7,15 b 7,1
EXT 8,15 b 8,1
EXT 15,14 d 1,14
EXT 15,13 d 1,13
EXT 15,12 d 1,12
PAL 2

ROOM d
28,28,28,28,0,0,0,0,28,28,28,0,0,0,28,28
26,26,26,26,26,26,26,26,26,26,26,26,26,26,26,26
27,27,27,27,27,27,27,27,27,27,27,27,27,27,27,27
0,0,0,0,0,0,0,28,0,0,0,0,g,i,i,h
0,0,0,0,0,0,0,0,0,0,0,0,e,0,0,f
0,0,28,0,28,28,0,0,0,0,0,0,e,0,0,f
0,0,0,0,0,0,0,0,0,0,0,0,e,0,0,f
0,0,28,0,0,0,0,0,0,0,0,0,0,0,0,f
0,0,0,0,0,0,0,0,0,0,0,0,b,d,d,c
0,0,0,0,0,0,0,0,0,0,0,0,l,o,p,m
0,0,0,0,0,0,0,0,0,0,0,0,j,n,n,k
0,0,0,0,0,0,0,0,0,0,0,0,q,a,a,r
0,0,0,0,0,0,0,0,0,0,0,0,a,a,a,a
0,0,0,0,0,0,0,0,0,0,0,0,a,a,a,a
26,26,26,26,26,26,26,26,26,26,26,26,26,26,26,26
27,27,27,27,27,27,27,27,27,27,27,27,27,27,27,27
NAME bus station
ITM 8 12,7
EXT 0,12 c 14,12
EXT 0,13 c 14,13
EXT 0,14 c 14,14
EXT 12,7 e 5,12
PAL 2

ROOM e
1w,0,0,0,a,a,a,a,a,a,a,a,0,0,1x,0
0,0,1x,0,2j,2i,2i,2i,2i,2i,2i,2k,0,1x,0,0
0,0,0,0,2c,2a,2a,t,t,2a,2a,2b,0,0,0,0
1x,0,0,0,2c,0,0,t,t,0,0,2b,0,0,1x,0
0,0,1x,0,2c,2a,2a,t,t,2a,2a,2b,0,1w,0,1w
0,0,0,0,2c,0,0,t,t,0,0,2b,0,0,0,0
0,0,0,0,2c,2a,2a,t,t,2a,2a,2b,0,0,0,0
0,1w,0,1x,2c,0,0,t,t,0,0,2b,0,1w,0,1x
0,0,0,0,2c,2a,2a,t,t,2a,2a,2b,0,0,0,0
1x,0,1w,0,2c,0,0,t,t,0,0,2b,0,0,0,0
0,0,0,0,2c,2a,2a,t,t,2a,2a,2b,0,1x,0,0
0,0,0,0,2c,0,0,t,t,0,0,2b,0,0,0,1w
1w,0,0,0,0,t,t,t,t,0,0,2b,0,0,0,0
0,0,1x,0,2e,2g,2h,2h,2h,2h,2f,2d,0,0,1x,0
0,1x,0,0,a,j,n,n,n,n,k,a,0,1w,0,0
0,0,0,0,a,q,a,a,a,a,r,a,0,0,0,0
NAME inside bus
ITM 9 4,12
ITM a 5,2
EXT 4,12 d 11,7
END undefinee 5,2
PAL 3

ROOM f
0,0,0,0,2m,2n,2l,2l,2l,2l,2p,2o,0,0,0,0
0,0,0,2m,2n,2l,2l,2l,2l,2l,2l,2p,2o,0,0,0
0,0,2m,2n,2l,1f,2l,2l,2l,2l,1f,2l,2p,2o,0,0
1d,2m,2n,2l,2l,2l,2l,2l,2l,2l,2l,2l,2l,2p,2o,1d
0,1d,2l,1f,2l,1f,2l,2l,2l,2l,1f,2l,1f,2l,0,1d
1d,1d,2l,2l,2l,2l,2l,2l,2l,2l,2l,2l,2l,2l,1d,0
0,0,2l,1f,2l,1f,2l,2l,2l,2l,1f,2l,1f,2l,1d,0
0,0,2l,2l,2l,2l,2l,2l,2l,2l,2l,2l,2l,2l,0,0
1d,0,2l,1f,2l,1f,2l,2r,2t,2l,1f,2l,1f,2l,1d,1d
0,1d,2l,2l,2l,2l,2l,2q,2s,2l,2l,2l,2l,2l,1d,0
1y,0,2l,2l,2l,1g,1g,1g,1g,1g,1g,2l,2l,2l,0,0
0,1y,0,0,1g,1g,1g,1g,1g,1g,1g,1g,0,1y,0,1y
0,0,0,1y,0,0,0,0,1y,0,0,0,0,0,0,0
0,1y,0,0,0,1y,0,0,0,0,1y,0,1y,0,0,1y
1y,0,0,0,1y,0,0,0,0,1y,0,0,0,0,1y,0
0,1y,0,0,0,0,0,1y,0,0,0,1y,0,0,0,0
NAME new house
EXT 5,15 5 5,0
EXT 4,15 5 4,0
EXT 6,15 5 6,0
EXT 7,9 g 7,14
EXT 8,9 g 8,14
PAL 4

ROOM g
1m,2w,2x,1m,1m,1m,1m,2w,2x,1m,1m,1m,1m,2w,2x,1m
1m,2w,2x,1m,1m,1m,1m,2w,2x,1m,1m,1m,1m,2w,2x,1m
1m,2u,2v,1m,1m,1m,1m,2u,2v,1m,1m,1m,1m,2u,2v,1m
1m,1m,1m,1m,1m,1m,1m,1m,1m,1m,1m,1m,1m,1m,1m,1m
0,0,0,0,0,0,0,0,0,0,0,0,0,0,0,1m
1j,1j,1j,1j,1j,1l,1g,1g,1g,1g,1l,1j,1j,1j,1j,1j
1j,1j,1j,1j,1j,1l,1g,1g,1g,1g,1l,1j,1j,1j,1j,1j
1j,1j,1j,1j,1j,1l,1g,1g,1g,1g,1l,1j,1j,1j,1j,1j
1k,1k,1k,1k,1k,1l,1g,1g,1g,1g,1l,1k,1k,1k,1k,1k
1k,1k,1k,1k,1k,1g,1g,1g,1g,1g,1g,1k,1k,1k,1k,1k
1k,1k,1k,1k,1k,1g,1g,1g,1g,1g,1g,1k,1k,1k,1k,1k
1k,1k,1k,1k,1k,0,0,0,0,0,0,1k,1k,1k,1k,1k
0,0,0,0,0,0,0,0,0,0,0,0,0,0,0,0
0,0,0,0,0,0,0,0,0,0,0,0,0,0,0,0
0,0,0,0,0,0,0,0,0,0,0,0,0,0,0,0
0,0,0,0,0,0,0,2y,2z,0,0,0,0,0,0,0
NAME old house
EXT 0,4 h 15,10
EXT 0,5 h 15,10
EXT 0,6 h 15,11
EXT 0,7 h 15,11
EXT 7,15 f 7,10
EXT 8,15 f 8,10
PAL 4

ROOM h
1l,1m,1m,2w,2x,1m,1m,2w,2x,1m,1m,2w,2x,1m,1m,1m
1l,1m,1m,2w,2x,1m,1m,2w,2x,1m,1m,2w,2x,1m,1m,1m
1l,1m,1m,2w,2x,1m,1m,2w,2x,1m,1m,2w,2x,1m,1m,1m
1l,1m,1m,2u,2v,1m,1m,2u,2v,1m,1m,2u,2v,1m,1m,1m
1l,1m,1m,1m,1m,1m,1m,1m,1m,1m,1m,1m,1m,1m,1m,1m
1l,1m,1m,1m,1m,1m,1m,1m,1m,1m,1m,1m,1m,1m,1m,1m
1l,1m,1m,1m,1m,1m,1m,1m,1m,1m,1m,1m,1m,1m,1m,1m
1l,1m,1m,1m,1m,1m,1m,1m,1m,1m,1m,1m,1m,1m,1m,1m
1l,1m,1m,1m,1m,1m,1m,1m,1m,1m,1m,1m,1m,1m,1m,1m
1l,1m,1m,1m,0,1m,1m,1m,0,1m,1m,1m,0,1m,1m,1m
1l,1j,1j,1j,1j,1j,1j,1j,1j,1j,1j,1j,1j,1j,1j,1j
1l,1j,1j,1j,1j,1j,1j,1j,1j,1j,1j,1j,1j,1j,1j,1j
1k,1k,1k,1k,1k,1k,1k,1k,1k,1k,1k,1k,1k,1k,1k,1k
1k,1k,1k,1k,1k,1k,1k,1k,1k,1k,1k,1k,1k,1k,1k,1k
1k,1k,1k,1k,1k,1k,1k,1k,1k,1k,1k,1k,1k,1k,1k,1k
1k,1k,1k,1k,1k,1k,1k,1k,1k,1k,1k,1k,1k,1k,1k,1k
NAME left wing
ITM b 4,9
ITM b 12,9
ITM b 8,9
END undefinef 4,9
END undefinef 8,9
END undefinef 12,9
PAL 4

TIL 10
00010011
00010011
00010011
00010011
00010011
00010011
00010011
00010011
NAME f lt side
WAL true

TIL 11
00000000
00000000
00000000
11100000
11010000
11001000
11001000
11001000
NAME f rt top
WAL true

TIL 12
11001000
11001000
11001000
11001000
11001000
11001000
11001000
11001000
NAME f rt side
WAL true

TIL 13
00010000
00010000
00010000
11111111
00010000
00010000
00010000
11111111
NAME f far
WAL true

TIL 14
00000000
00000000
00000000
00000111
00001011
00010011
00010011
00010011
NAME f lt top
WAL true

TIL 15
00010000
00010000
00010000
00111000
01111100
00111000
00000000
00000000
NAME f poles

TIL 16
00000100
11000100
00101000
00010110
00011001
00011000
00011000
00111100
>
00000010
01000100
10101000
00010111
00011000
00011000
00011000
00111100
NAME tree1
WAL true

TIL 17
00011000
00100100
01011010
10111101
01011010
10111101
01011010
00011000
NAME tree2
WAL true

TIL 18
00010000
00010000
00101000
00111000
01101100
01010100
10101010
11010110
NAME tree3
WAL true

TIL 19
00000000
00000000
00000000
00001110
00011111
00100001
01000001
00111110
NAME rock1
WAL true

TIL 20
01001000
01001000
01001110
00011001
11111000
01001100
11000110
00000000
NAME tree right root
WAL true

TIL 21
00000000
00001000
00001000
00000000
11100000
01111111
01011000
11001100
NAME tree lt mid
WAL true

TIL 22
00000100
00000100
01000000
01000000
00000111
11111100
11000100
10000110
NAME tree rt mid
WAL true

TIL 23
00101000
00101000
00001000
10001000
10001000
10001000
00001000
00101000
NAME tree rt
WAL true

TIL 24
00010010
00010010
00010010
00010000
00010001
00010100
00010100
00010000
NAME tree lt
WAL true

TIL 25
00001000
00011100
00101010
00001000
00000000
01001010
01000010
01000000
NAME inside tree

TIL 26
00000000
11000000
00100001
00010010
00010010
01101100
10010010
00001001
>
00000000
01100000
10010000
00001001
00001001
00110110
01001001
10000100
NAME cloud floor
WAL false

TIL 27
01001010
00110000
00001100
00010010
00100001
01001001
10010010
00001100
>
00100101
00011000
00000110
00001001
10010000
10100100
01001001
00000110
NAME cloud under
WAL true

TIL 28
00000000
00110000
01001010
10100101
10000001
01111110
00000000
00000000
>
00000000
00000000
00110000
01001010
10100110
10000010
01111110
00000000
NAME sky whales
WAL true

TIL 29
00010000
01010100
00101000
00010000
00000001
00000001
00000000
00000000
>
00001000
00101010
00010100
00001000
10000000
10000000
00000000
00000000
NAME cloud dwn

TIL a
11111111
11111001
11111111
11111111
11001111
11111111
11111111
11111111
NAME road
WAL true

TIL b
01111111
01100000
01001111
01011111
01011111
01011111
01011111
01011111
NAME lt_window
WAL true

TIL c
11111110
00000110
11110010
11111010
11111010
11111010
11111010
11111010
NAME rt_window
WAL true

TIL d
11111111
00000000
11111111
11111111
11111111
11111111
11111111
11111111
NAME bs_window
WAL true

TIL e
01000000
01000000
11000000
11000000
11000000
11000000
01000000
01000000
NAME lt_side
WAL true

TIL f
00000010
00000010
00000011
00000011
00000011
00000011
00000010
00000010
NAME rt_side
WAL true

TIL g
11111111
11111001
11111111
11111111
10000000
00111111
01000000
01000000
NAME lt_corner
WAL true

TIL h
11111111
11111001
11111111
11111111
00000001
11111100
00000010
00000010
NAME rt_corner
WAL true

TIL i
11111111
11111001
11111111
11111111
00000000
11111111
00000000
00000000
NAME bs_top
WAL true

TIL j
01000000
01000000
01000000
01000000
01011100
01011100
00111111
10001111
NAME lt_light
WAL true

TIL k
00000010
00000010
00000010
00000010
00111010
00111010
11111100
11110001
NAME rt_light
WAL true

TIL l
01011111
01011111
01011111
01011111
01011111
01011111
01011111
01001111
NAME lt_front
WAL true

TIL m
11111010
11111010
11111010
11111010
11111010
11111010
11111010
11110010
NAME rt_front
WAL true

TIL n
00000000
00000000
00000000
00000000
00000000
11111111
11111111
11111111
NAME bot_front
WAL true

TIL o
01111111
01111111
01111111
00111111
00011111
01101111
11110111
11110011
>
11111011
11111011
11111001
11111001
11111010
11111110
11111101
11110011
NAME bs_front
WAL true

TIL p
11111111
11100111
11011011
11011011
11100111
11000011
10100101
11111111
>
11111111
11100111
11000011
11000011
11100111
11000011
10100101
11111111
NAME bs_driver
WAL true

TIL q
11110000
11110000
11110000
11110000
11111111
10011111
11111111
11111111
NAME lt_whl
WAL true

TIL r
00001111
00001001
00001111
00001111
11111111
10011111
11111111
11111111
NAME rt_whl
WAL true

TIL t
01010101
10101010
01010101
10101010
01010101
10101010
01010101
10101010
NAME path

TIL u
00010001
11101110
00010001
11101110
00010001
11101110
00010001
11101110
NAME brk wll
WAL true

TIL v
10000000
11000000
01100000
11110000
00011000
11101100
00010110
11101111
NAME lt roof
WAL true

TIL w
00000001
00000010
00000101
00001110
00010001
00101110
01010001
11101110
NAME rt roof
WAL true

TIL x
11111111
11111111
00000000
00000000
00000000
00000000
11111111
00000000
NAME F front
WAL true

TIL y
00010011
00010001
00010000
00010000
00001000
00000100
00000011
00000000
NAME F left
WAL true

TIL z
11001000
10001000
00001000
00001000
00010000
00100000
11000000
00000000
NAME F right
WAL true

TIL 1a
00000000
00000000
00000000
00111100
01000010
10110001
11001001
01110110
NAME rock2
WAL true

TIL 1b
00000000
00000110
00001000
00001000
01101000
10010110
00001001
00001000
>
00000000
00000100
00001010
00001000
00101000
01010100
00001010
00001000
NAME fern
WAL true

TIL 1c
00000000
01000000
11110010
00001111
00000010
01011110
11100011
01000010
NAME old fence side
WAL true

TIL 1d
00000000
00000000
00000000
00010100
00101010
01010101
10101010
01010101
>
00000000
00000000
00000000
00101000
01010100
10101010
01010101
10101010
NAME bush
WAL true

TIL 1f
11111111
10011001
10011001
10011001
10011001
10011001
10011001
11111111
NAME house window

TIL 1g
11111111
00000000
11111111
00000000
11111111
00000000
11111111
00000000
NAME stairsup

TIL 1h
00000000
00000000
00000000
00000000
00000011
00001110
00110010
11010000
NAME stairsright1

TIL 1i
00000011
00001100
00110000
11101010
10101010
10001010
10000010
10000000
NAME stairsright2
WAL true

TIL 1j
00000000
11101110
00000000
11101110
00000000
11101110
00000000
11101110
NAME 2cd floor

TIL 1k
00000000
10100000
10100000
10101010
10101010
10001010
10000010
00000000
NAME wall1
WAL true

TIL 1l
00000000
01000100
01000000
01000010
01001010
01001010
01000010
00010000
NAME wall2
WAL true

TIL 1m
00000000
00000110
00000000
00000000
00000000
01100000
00000000
00000000
NAME wall3
WAL true

TIL 1n
00000000
00111100
01011010
10011001
10000001
01000010
00111100
00000000
>
00000000
00111100
01000010
10000001
10011001
01011010
00111100
00000000
NAME eye ud

TIL 1o
00000000
00111100
01000010
10110001
10110001
01000010
00111100
00000000
>
00000000
00111100
01000010
10001101
10001101
01000010
00111100
00000000
NAME eye lr

TIL 1p
00011000
00100100
01011010
01011010
01000010
01000010
00100100
00011000
>
00011000
00100100
01000010
01000010
01011010
01011010
00100100
00011000
NAME eyev ud

TIL 1q
00011000
00100100
01000010
01110010
01110010
01000010
00100100
00011000
>
00011000
00100100
01000010
01001110
01001110
01000010
00100100
00011000
NAME eyev lr

TIL 1r
01100000
01000000
00100000
01100000
00100000
01000000
01000000
00100000
NAME old fence left
WAL true

TIL 1s
00000010
00000001
00000011
00000001
00000001
00000010
00000011
00000010
NAME old fence right
WAL true

TIL 1t
00111100
01000010
10100101
10011001
10011001
10100101
01000010
00111100
>
00111100
01000010
10011001
10100101
10100101
10011001
01000010
00111100
NAME summon circle

TIL 1u
00000000
00000000
10000001
01111110
10100101
10100101
01111110
10000001
NAME rug

TIL 1v
10001000
01110111
00000000
00000000
00000000
00000000
00000000
00000000
NAME balcony floor
WAL true

TIL 1w
00000001
00100000
01010000
00100000
00000000
00000000
00000000
00000000
>
00000000
00000000
00100000
00000000
00000000
00000000
00000010
00000000
NAME star1
WAL true

TIL 1x
00000000
00000001
00000000
00000000
00000000
00000000
00001000
00000000
>
00000000
01000000
00000000
00000000
00000000
00001000
00010100
00001000
NAME star2
WAL true

TIL 1y
00000000
00000000
01000000
01010000
00100000
00000010
00000100
00000100
>
00000000
00000000
00010000
01010000
00100000
00001000
00000100
00000100
NAME grass tho

TIL 1z
00010010
00010010
10110000
11111000
00011111
00110010
00100010
00000000
NAME tree left roots
WAL true

TIL 2a
00000000
01111100
10000010
10000010
01111100
10000010
11111110
10000010
>
00000000
00111110
01000001
01000001
00111110
01000001
01111111
01000001
NAME bus seats
WAL false

TIL 2b
01101111
01101001
01101111
01101111
01001111
01011111
01011111
01001111
>
00110111
00110001
00110111
00110111
00100111
00101111
00101111
00100111
NAME bus right wall inside
WAL true

TIL 2c
11110110
11110110
11110110
10010110
11110010
11111010
11111010
11010010
>
11111011
11111011
11111011
10011011
11111001
11111101
11111101
11011001
NAME bus left wall
WAL true

TIL 2d
01001111
01011001
11011111
10011111
10001111
10111111
00111111
11111111
>
00100111
00101001
11101111
11001111
11001111
11011111
00011111
11111111
NAME bus_rt corner
WAL true

TIL 2e
11111011
11110011
11111011
10011001
11111101
11111101
11111100
11001111
>
11111101
11110001
11111101
10011100
11111110
11111110
11111110
11001111
NAME bus_lt corner
WAL true

TIL 2f
11100111
11111111
11111111
11111111
11111111
11111111
00000010
00000010
>
11100111
11111111
11111111
11111111
11111111
11111111
00000010
00000010
NAME bs_rt incorner
WAL true

TIL 2g
00000000
01111111
11111111
11111111
11111111
11111111
01000000
01000000
>
10000000
10111111
11111111
11111111
11111111
11111111
01000000
01000000
NAME bs_lt incorner
WAL true

TIL 2h
00000000
00000000
11111111
11111111
11111111
11111111
11111111
00000000
NAME bus_in window
WAL true

TIL 2i
11111111
00000000
11111111
00000000
11111111
11111111
10000111
11111111
>
11111111
00000000
11111111
00000000
11111111
11111111
11000011
11111111
NAME bus back window
WAL true

TIL 2j
11111001
11110010
11111011
10011010
11111011
11111011
11111011
11001011
>
11111100
11110001
11111101
10011101
11111101
11111101
11111101
11001101
NAME bus back lt
WAL true

TIL 2k
10011111
01011001
11011111
01011111
11011111
11011111
11011111
11011111
>
11001111
00101001
11101111
00101111
11101111
11101111
11101111
11101111
NAME bus back rt
WAL true

TIL 2l
11111111
10001000
11111111
00010001
11111111
10001000
11111111
00010001
NAME house wall
WAL true

TIL 2m
00000001
00000011
00000111
00001111
00011111
00111100
01111111
11110000
NAME lt house roof

TIL 2n
11111111
11001000
11111111
00010001
11111111
10001000
11111111
00010001
NAME in lt house roof

TIL 2o
10000000
11000000
11100000
11110000
11111000
10111100
11111110
00001111
NAME rt house roof

TIL 2p
11111111
10001011
11111111
00010001
11111111
10001000
11111111
00010001
NAME in rt house roof

TIL 2q
11000000
11000000
11000000
11000110
11000010
11000000
11000000
11000000
NAME bot_lt house door

TIL 2r
11111111
10011111
11111000
01100000
11100011
11000100
11000111
11000000
>
11111111
10011111
11111000
01100000
11100011
11000111
11000111
11000000
NAME top_lt house door
WAL true

TIL 2s
00000011
00000011
00000011
01100011
01000011
00000011
00000011
00000011
NAME bot_rt house door

TIL 2t
11111111
11111000
00011111
00000111
11000111
00100011
11100011
00000011
>
11111111
11111000
00011111
00000111
11000111
11100011
11100011
00000011
NAME top_rt house door
WAL true

TIL 2u
00000111
00000011
00000001
00000001
11011001
11011001
10010011
01111110
>
00000111
00000011
00000001
00000001
00000001
10010001
10010011
01111110
NAME lt chandelier

TIL 2v
11100000
11000000
10000000
10000000
10011011
10011011
11001001
01111110
>
11100000
11000000
10000000
10000000
10000000
10001001
11001001
01111110
NAME rt chandelier

TIL 2w
00000001
00000111
00000001
00000001
00000001
01100001
00000001
00000001
NAME lt candle chain

TIL 2x
10000000
10000110
10000000
10000000
10000000
11100000
10000000
10000000
NAME rt candle chain

TIL 2y
00000000
00111111
01000000
10001111
10010000
10001111
01000000
00111111
>
00000000
11000000
10111111
01110000
01101111
01110000
10111111
11000000
NAME rug lt

TIL 2z
00000000
11111100
00000010
11110001
00001001
11110001
00000010
11111100
>
00000000
00000011
11111101
00001110
11110110
00001110
11111101
00000011
NAME rug rt

SPR 10
00000000
00111111
01000001
10011101
01000001
00111111
00010100
00010100
NAME vllg sign
DLG SPR_o
POS b 0,5

SPR 11
00111100
00100100
00100100
00100100
00011000
00011000
00011000
00111100
>
00111100
00111100
00100100
00111100
00011000
00011000
00011000
00111100
NAME bus sign leaving
DLG SPR_p
POS d 11,5

SPR 12
00011000
00100100
00100100
00011000
00100100
01011010
01011010
11100111
>
00011000
00111100
00111100
00011000
00100100
01011010
01011010
11100111
NAME bus driver
DLG SPR_q
POS e 10,12

SPR 13
00111100
01000010
10011001
10100101
01100110
00111100
00111110
00111100
>
00111100
01000010
10011001
10100101
01100110
00111100
01111100
00111100
NAME old lady
DLG SPR_r
POS e 10,3

SPR 14
00011000
00111100
00100100
00111000
01110000
01011000
01010100
01010100
>
00000000
00011000
00111100
00100100
01111000
01010000
01011000
01010100
NAME old man
DLG SPR_s
POS e 5,5

SPR 15
00000000
00000000
01011010
11100111
10100101
00011000
00011100
00011000
>
00000000
01000010
11111111
10100101
00100100
00011000
00011100
00011000
NAME little girl
DLG SPR_t
POS e 9,7

SPR 16
00000000
00010000
01100101
10000111
10000111
10001110
01111110
01111110
>
00000000
00000000
01100000
10010101
10000111
10000111
01111110
01111111
NAME cat2
DLG SPR_u
POS e 5,9

SPR 17
00000000
00111000
00100100
00111000
11111100
01111100
00111000
00101000
>
00000000
00111000
00100100
00111000
01111100
01111100
00111000
00101000
NAME bird man
DLG SPR_v
POS g 6,11

SPR A
00011000
00100100
00100100
00011000
00111100
00011000
00011000
00010000
>
00011000
00100100
00100100
00011000
00111100
00011000
00011000
00001000
POS 0 4,7

SPR a
00000000
00000000
01010000
01010000
11110011
11111111
00111110
00110110
>
00000000
00000000
00000000
01010000
01010000
11110011
11111111
00111110
NAME Bun-Bun
DLG SPR_0
POS 0 12,7

SPR b
00111100
00100100
00100100
00100100
00011000
00011000
00011000
00111100
>
00111100
00111100
00100100
00111100
00011000
00011000
00011000
00111100
NAME bs_sign
DLG SPR_1
POS 0 4,5

SPR c
00000010
00000010
00000011
00000011
00000011
00000011
00000010
00000010
NAME bs_door
DLG SPR_2
POS 0 3,7

SPR d
00000000
10100110
11101000
11100100
01100010
01110010
01111010
01111100
>
00000000
10100110
11101001
11101000
01100100
01110010
01111010
01111100
NAME cat
DLG SPR_3
POS 1 11,10

SPR e
11000001
11000001
11000001
11000001
11000101
11000001
11000001
11000001
NAME wrong lock
DLG SPR_4
POS 1 3,3

SPR f
10000011
10000011
10000011
10000011
10100011
10000011
10000011
10000011
NAME left lock
DLG SPR_5
POS 1 12,3

SPR g
00000000
01111100
10000010
10101010
10101010
10000010
01010100
01010100
NAME skull1
DLG SPR_6
POS 2 7,7

SPR h
00000000
00000000
00111000
01000100
01010010
01000110
00100010
00100100
NAME skull2
DLG SPR_7
POS 2 8,7

SPR k
00111100
01000010
10011001
10111101
10111101
10110101
10111101
10111101
>
00111100
01000010
10011001
10111101
10111101
10101101
10111101
10111101
NAME cave
DLG SPR_d
POS 3 15,0

SPR l
11111111
11000001
11000001
11000001
11000101
11000001
11000001
11000001
NAME door copy1
DLG SPR_8
POS 4 3,4

SPR m
11111111
11000001
11000001
11000001
11000101
11000001
11000001
11000001
NAME door copy2
DLG SPR_9
POS 4 8,4

SPR n
11111111
11000001
11000001
11000001
11000101
11000001
11000001
11000001
NAME door copy3
DLG SPR_a
POS 4 13,4

SPR o
00000000
00010000
00101000
00101000
00110000
01100000
00110000
00101000
>
00010000
00101000
00101000
00110000
01100000
00100000
01010000
01000000
NAME walking man
DLG SPR_c
POS 4 3,14

SPR p
00000000
00011000
00110100
00110100
00111000
00111000
00011100
00011000
>
00000000
00011000
00111100
00111100
00111000
00111000
00111100
00011000
NAME little girl
DLG SPR_b
POS 4 11,13

SPR q
11111111
11000001
11000001
11000001
11000101
11000001
11000001
11000001
NAME door copy4
DLG SPR_e
POS 5 3,4

SPR r
11111111
11000001
11000001
11000001
11000101
11000001
11000001
11000001
NAME door copy5
DLG SPR_f
POS 5 8,4

SPR s
00001000
00001000
00111110
01111110
11111111
01111100
00111110
00000111
NAME hole1
DLG SPR_g
POS 6 1,13

SPR t
00001000
00001000
00111110
01111110
11111111
01111100
00111110
00000111
NAME hole2
DLG SPR_h
POS 6 12,14

SPR u
00000000
00111100
01000010
10001101
10001101
01000010
00111100
00000000
>
00000000
00111100
01000010
10110001
10110001
01000010
00111100
00000000
NAME EyeH
DLG SPR_i
POS 8 10,3

SPR v
00011000
00100100
01001110
01001110
01000010
01000010
00100100
00011000
>
00011000
00100100
01000010
01000010
01001110
01001110
00100100
00011000
NAME EyeV
DLG SPR_j
POS 8 1,7

SPR w
00000000
00000000
00000000
00000010
00000001
00000001
00000001
00000001
>
00000000
00000000
00000000
00000010
00000010
00000001
00000001
00000001
NAME balcony gate
DLG SPR_k
POS 9 7,7

SPR x
00000000
11111100
10000010
10111001
10000010
11111100
00101000
00101000
NAME warning sign
DLG SPR_l
POS a 15,5

SPR y
00010000
00010000
00010000
00010111
00010010
00010000
00011100
00010000
>
00010000
00010000
00010000
00010000
00010111
00010000
00011100
00010000
NAME tree face
DLG SPR_m
POS b 6,2

SPR z
00000000
00110000
01101000
00111000
00011100
00011101
00011111
00010100
>
00000000
00110000
01101000
00111000
00011100
00011100
00011111
00010101
NAME bench bird
DLG SPR_n
POS b 14,12

ITM 0
00000000
00000000
00000000
00011011
01111100
11111000
00000000
00000000
>
00000000
00000000
00000000
00011010
01111101
11111000
00000000
00000000
NAME carrot
DLG ITM_0

ITM 1
00000000
00000000
00011000
00111100
00111100
00011010
00000010
00000100
>
00000000
00000000
00011000
00111100
00111100
00011010
00000010
00000001
NAME yarn ball
DLG ITM_1

ITM 2
00000000
00000000
00000000
00100000
01011110
00100010
00000000
00000000
NAME right key
DLG ITM_2

ITM 3
00000000
00000000
00000000
00000100
01111010
01000100
00000000
00000000
NAME left key
DLG ITM_3

ITM 4
11111111
11000001
11000001
11000001
11000101
11000001
11000001
11000001
NAME door copy6
DLG ITM_4

ITM 5
00010001
00000000
10111100
00111100
00100100
10111100
00111100
00000001
>
10000000
00111100
00111101
00100100
00111100
00111101
00000000
10001000
NAME tome
DLG ITM_5

ITM 6
00000000
11101110
00000000
11101110
00000000
11101110
00000000
11101110
NAME tome step
DLG ITM_6

ITM 7
00000000
11101110
00000000
11101110
00000000
11101110
00000000
11101110
NAME tome step2
DLG ITM_7

ITM 8
01000000
01000000
11000000
11000000
11000000
11000000
01000000
01000000
NAME bus_leaving out
DLG ITM_8

ITM 9
11110110
11110110
11110110
10010110
11110010
11111010
11111010
11001010
>
11111011
11111011
11111011
10011011
11111001
11111101
11111101
11001101
NAME bus_leaving in
DLG ITM_9

ITM a
00000000
01111100
10000010
10000010
01111100
10000010
11111110
10000010
>
00000000
00111110
01000001
01000001
00111110
01000001
01111111
01000001
NAME bus seat gone

ITM b
01111110
11000011
10000001
10000001
10000101
10000101
10000001
10000001
NAME bedroom door
DLG ITM_a

DLG ITM_0
You found a... strange vegetable.

DLG SPR_0
"""
"Hi! Welcome to our home! Do you have any carrots?"{
  - {item "yarn ball"} == 1 ?
    
    "Oh. You have a yarn ball. It's good to meet another cat..."
  - {item "carrot"} == 1 ?
    
    "Oh! You have a carrot! It's great to meet another bunny!"
}
"""

DLG ITM_1
You found.. a yarn ball?

DLG SPR_1
"The next bus comes in an hour."

DLG SPR_2
You just got here! You can't leave yet!

DLG SPR_3
"""
"What's a human like you doing here?"{
  - {item "right key"} == 1 ?
    
    "Oh. You found the keys. Good luck getting in though, the last humans that lived there barricaded the doors shut..."
  - {item "left key"} == 1 ?
    
    "Oh. You found the keys. Good luck getting in though, the last humans that lived there barricaded the doors shut..."
}
"""

DLG SPR_4
"""
This is someone else's house. You can't just walk in!{
  - {item "right key"} == 1 ?
    
    Well, the right key fits the lock... But it still won't open.
}
"""

DLG SPR_5
"""
This is someone else's house. You can't just walk in!{
  - {item "left key"} == 1 ?
    
    Well, this is the right lock for the left key... It doesn't open.
}
"""

DLG SPR_7
"""
did you want to escape?{
  - {item "right key"} == 1 ?
    
    {shk}"You found the right key..."{shk}
}
"""

DLG ITM_2
You found the right key! Maybe it goes in the wrong lock?

DLG ITM_3
You found the left key! Maybe it goes in the right lock?

DLG SPR_6
"""
why did you come here?{
  - {item "left key"} == 1 ?
    
    {shk}"You found my key..."{shk}
}
"""

DLG SPR_8
It's just painted on...

DLG SPR_9
It's just painted on...

DLG SPR_a
It's just painted on...

DLG SPR_b
"""
{
  - {item "0"} == 1 ?
    "I hate carrots and I hate you."
  - else ?
    ...
}
"""

DLG SPR_c
"""
"The cat is my friend, yes , oh yes, {shk}FINALLY{shk}"{
  - {item "0"} == 1 ?
    
    "Ah! I see you have a carrot. I want to be friends with the bunny. {shk}How much for the carrot?{shk}"
  - {item "yarn ball"} == 1 ?
    
    {rbw}"You are friends with the cat as well?"{rbw}
}
"""

DLG SPR_d
{wvy}{shk}RROOAARRR{shk}{wvy}

DLG SPR_e
It's just painted on...

DLG SPR_f
It's just painted on...

DLG ITM_4
Oh wait, you can open this one!

DLG SPR_g
That's a deep hole...

DLG SPR_h
That's a deep hole...

DLG ITM_5
"""
{rbw}OH GOODNESS WHERE ARE YOU{rbw}
{shk}how did you get here?!{shk} 
"""

DLG ITM_6
This looks magic...

DLG ITM_7
This looks magic...

DLG SPR_i
{wvy}"Eye sees you"{wvy}

DLG SPR_j
{shk}The eye watches{shk}

DLG SPR_k
Dang. The stars are pretty tonight. Can we just stay here?

DLG SPR_l
"Talking tree ahead. Be wary of it's bark."

DLG SPR_m
"What do you want? To leave? Fine. Climb in around back."

DLG SPR_n
"That tree has been here for such a long time. I wish I could talk to it and become it's {wvy}friend{wvy}"

DLG SPR_o
back to the village

DLG SPR_p
"The bus is leaving. Will you be leaving too?"

DLG ITM_8
Ready to leave then?

DLG SPR_q
"You ready to go yet?"

DLG ITM_9
Oh, you're staying?

DLG SPR_r
"Leaving home for the first time, dear? I remember how it felt that first time..."

DLG SPR_s
"Heading out on your own, eh? Have fun on your adventure!"

DLG SPR_t
"Did your friends not like you, mister? Mom always says the people who matter won't care..."

DLG SPR_u
"Mew!"

DLG SPR_v
"Ah, a new human has arrived... Will you be staying here with your friends? We have some extra bedrooms in the left wing..."

DLG ITM_a
"Here is your bedroom..."

END 0
I don't know how you got here, but you were eaten by a bear.

END undefined
Oh crud. I think you were devoured. You were delicious.

END undefinee
You left the village. The ride home was calm and comfortable.

END undefinef
You sleep until morning. When you wake, you decide it might not be too bad to stick around for a while... You befriend the villagers and never leave your new home.

VAR a
42


