
The Tram

# BITSY VERSION 4.5

! ROOM_FORMAT 1

PAL 0
NAME Tram
41,37,35
191,161,105
255,137,91

PAL 1
NAME Outside
18,22,41
178,193,235
254,249,171

PAL 2
NAME Inside
18,22,41
227,181,170
254,249,171

PAL 3
NAME Memory
227,181,170
18,22,41
255,250,172

PAL 4
NAME Old
209,193,134
41,37,35
255,250,172

PAL 5
0,51,54
255,180,118
255,255,255

ROOM 0
0,0,0,0,0,0,0,0,0,0,0,0,0,0,1f,0
0,0,1f,0,0,0,0,0,0,0,0,0,0,0,0,0
0,0,0,0,0,0,0,0,0,0,0,0,1g,0,0,0
0,0,0,0,0,0,0,0,0,1f,0,0,0,0,0,0
0,0,1g,0,0,0,0,0,0,0,0,0,0,1f,0,0
0,0,0,0,0,1f,0,0,0,0,0,0,0,0,0,0
0,0,0,0,0,0,0,1f,0,0,0,0,0,0,0,1f
0,1f,0,0,0,0,0,0,0,0,0,0,0,0,0,0
0,0,0,0,0,0,0,0,0,0,0,0,0,0,0,0
0,0,g,g,g,g,g,g,g,g,g,g,g,g,0,0
0,h,w,w,w,w,w,w,w,w,w,w,w,w,f,0
0,i,v,m,l,v,v,u,t,v,v,m,l,v,e,0
0,j,0,p,0,q,p,s,r,q,p,0,q,p,d,0
k,o,c,c,b,c,c,b,b,c,c,b,c,c,n,k
x,x,x,x,x,x,x,x,x,x,x,x,x,x,x,x
0,0,0,0,0,0,0,0,0,0,0,0,0,0,0,0
NAME Tram 1
EXT 4,11 1 4,12
EXT 3,11 1 3,12
EXT 11,11 1 11,12
EXT 12,11 1 12,12
EXT 7,11 2 14,11
EXT 8,11 2 14,11
PAL 0

ROOM 1
0,0,0,0,0,0,0,0,0,0,0,0,0,0,0,0
0,0,0,0,0,0,0,0,0,0,0,0,0,0,0,0
0,0,0,0,0,0,0,0,0,0,0,0,0,0,0,0
0,0,0,0,0,0,0,0,0,0,0,0,0,0,0,0
0,0,0,0,0,0,0,0,0,0,0,0,0,0,0,0
0,0,0,0,0,0,0,0,0,0,0,0,0,0,0,0
0,0,0,0,0,0,12,11,0,0,0,0,0,0,13,0
0,0,0,0,13,0,12,11,0,0,0,0,12,11,14,0
0,0,0,0,y,0,10,z,0,0,0,0,10,z,y,0
0,0,g,g,g,g,g,g,g,g,g,g,g,g,0,0
0,h,w,w,w,w,w,w,w,w,w,w,w,w,f,0
0,i,v,m,l,v,v,u,t,v,v,m,l,v,e,0
0,j,0,p,0,q,p,s,r,q,p,0,q,p,d,0
k,o,c,c,b,c,c,b,b,c,c,b,c,c,n,k
x,x,x,x,x,x,x,x,x,x,x,x,x,x,x,x
0,0,0,0,0,0,0,0,0,0,0,0,0,0,0,0
NAME Tram 1b
EXT 3,11 0 3,12
EXT 4,11 0 4,12
EXT 11,11 0 11,12
EXT 12,11 0 12,12
EXT 7,11 2 14,11
EXT 8,11 2 14,11
PAL 0

ROOM 2
0,1g,0,0,0,0,1f,0,0,0,0,0,1f,0,0,0
0,0,0,0,0,0,0,0,1f,0,0,0,0,0,0,1f
1f,0,0,0,0,1g,0,0,0,0,0,0,0,1f,0,0
0,0,0,0,1f,0,0,0,0,0,0,1f,0,0,0,1g
0,1f,0,0,0,0,0,0,0,1f,0,0,0,0,0,0
17,18,18,18,18,18,18,18,18,18,18,19,0,0,0,0
17,18,18,18,18,18,18,18,18,18,18,19,0,1f,0,0
17,18,18,18,18,18,18,18,18,18,18,19,0,0,0,0
17,18,18,18,18,18,18,18,18,18,18,19,0,0,0,0
17,18,18,18,18,18,18,18,18,18,18,19,0,0,1a,0
17,18,18,18,18,18,18,18,18,18,18,19,0,17,18,19
17,1c,1e,1d,18,0,0,18,1c,1e,1d,19,0,17,0,19
1b,1b,1b,1b,1b,0,0,1b,1b,1b,1b,1b,0,17,0,19
0,0,0,0,0,0,0,0,0,0,0,0,0,0,0,0
15,15,15,15,15,15,15,15,15,15,15,15,15,15,15,15
0,16,0,16,0,16,0,16,0,16,0,16,0,16,0,16
NAME Bar Out 1
EXT 5,11 3 5,11
EXT 6,11 3 6,11
EXT 10,13 a 10,13
EXT 8,13 a 8,13
PAL 1

ROOM 3
0,1g,0,0,0,0,1f,0,0,0,0,0,1f,0,0,0
0,0,0,0,0,0,0,0,1f,0,0,0,0,0,0,1f
1f,0,0,0,0,1g,0,0,0,0,0,0,0,1f,0,0
0,0,0,0,1f,0,0,0,0,0,0,1f,0,0,0,1g
0,1f,0,0,0,0,0,0,0,1f,0,0,0,0,0,0
17,18,18,18,18,18,18,18,18,18,18,19,0,0,0,0
17,0,1l,0,0,0,0,0,0,1k,0,19,0,1f,0,0
17,0,1j,1h,1h,1h,1h,3l,1h,1i,0,19,0,0,0,0
17,0,0,0,0,0,0,0,0,0,0,19,0,0,0,0
17,1m,1n,0,1m,1n,0,0,0,1o,1m,19,0,0,1a,0
17,1p,0,0,0,0,0,1m,1n,0,0,19,0,17,18,19
17,0,1o,1m,1n,0,0,0,0,1m,1n,19,0,17,0,19
1b,1b,1b,1b,1b,0,0,1b,1b,1b,1b,1b,0,17,0,19
0,0,0,0,0,0,0,0,0,0,0,0,0,0,0,0
15,15,15,15,15,15,15,15,15,15,15,15,15,15,15,15
0,16,0,16,0,16,0,16,0,16,0,16,0,16,0,16
NAME Bar In 1
EXT 5,12 2 5,12
EXT 6,12 2 6,12
EXT 9,10 4 9,10
PAL 2

ROOM 4
0,1g,0,0,0,0,1f,0,0,0,0,0,1f,0,0,0
0,0,0,0,0,0,0,0,1f,0,0,0,0,0,0,1f
1f,0,0,0,0,1g,0,0,0,0,0,0,0,1f,0,0
0,0,0,0,1f,0,0,0,0,0,0,1f,0,0,0,1g
0,1f,0,0,0,0,0,0,0,1f,0,0,0,0,0,0
17,18,18,18,18,18,18,18,18,18,18,19,0,0,0,0
17,0,1l,0,0,0,0,0,0,1k,0,19,0,1f,0,0
17,0,1j,1h,1h,1h,1h,3l,1h,1i,0,19,0,0,0,0
17,0,0,0,0,0,0,0,0,0,0,19,0,0,0,0
17,1m,1n,0,1m,1n,0,0,0,1o,1m,19,0,0,1a,0
17,1p,0,0,0,0,0,1m,1n,0,0,19,0,17,18,19
17,0,1o,1m,1n,0,0,0,0,1m,1n,19,0,17,0,19
1b,1b,1b,1b,1b,0,0,1b,1b,1b,1b,1b,0,17,0,19
0,0,0,0,0,0,0,0,0,0,0,0,0,0,0,0
15,15,15,15,15,15,15,15,15,15,15,15,15,15,15,15
0,16,0,16,0,16,0,16,0,16,0,16,0,16,0,16
NAME Bar In 1b
EXT 5,12 5 5,12
EXT 6,12 5 6,12
EXT 7,13 5 7,13
EXT 11,13 5 11,13
PAL 0

ROOM 5
0,1g,0,0,0,0,1f,0,0,0,0,0,1f,0,0,0
0,0,0,0,0,0,0,0,1f,0,0,0,0,0,0,1f
1f,0,0,0,0,1g,0,0,0,0,0,0,0,1f,0,0
0,0,0,0,1f,0,0,0,0,0,0,1f,0,0,0,1g
0,1f,0,0,0,0,0,0,0,1f,0,0,0,0,0,0
17,18,18,18,18,18,18,18,18,18,18,19,0,0,0,0
17,18,18,18,18,18,18,18,18,18,18,19,0,1f,0,0
17,18,18,18,18,18,18,18,18,18,18,19,0,0,0,0
17,18,18,18,18,18,18,18,18,18,18,19,0,0,0,0
17,18,18,18,18,18,18,18,18,18,18,19,0,0,1a,0
17,18,18,18,18,18,18,18,18,18,18,19,0,17,18,19
17,1c,1e,1d,18,0,0,18,1c,1e,1d,19,0,17,0,19
1b,1b,1b,1b,1b,0,0,1b,1b,1b,1b,1b,0,17,0,19
0,0,0,0,0,0,0,0,0,0,0,0,0,0,0,0
15,15,15,15,15,15,15,15,15,15,15,15,15,15,15,15
0,16,0,16,0,16,0,16,0,16,0,16,0,16,0,16
NAME Bar Out 1b
EXT 5,11 4 5,11
EXT 6,11 4 6,11
EXT 14,11 6 9,12
EXT 8,13 t 8,13
EXT 10,13 t 10,13
PAL 1

ROOM 6
0,0,0,0,0,0,0,0,0,0,0,0,0,0,0,0
0,0,0,1f,0,0,0,0,0,0,0,1g,0,0,1f,0
0,0,0,0,0,0,0,0,0,0,0,0,0,0,0,0
0,0,0,0,0,0,0,0,1f,0,0,0,0,0,0,0
0,0,0,0,0,0,0,0,0,0,0,0,0,0,0,0
1f,0,0,0,0,0,0,0,0,0,0,0,0,0,0,0
0,0,1f,0,0,0,0,0,0,0,0,0,0,1f,0,0
0,1g,0,0,0,0,0,0,0,0,0,0,0,0,0,0
0,0,0,0,0,0,0,0,0,0,0,0,0,0,0,0
0,0,g,g,g,g,g,g,g,g,g,g,g,g,0,0
0,h,w,w,w,w,w,w,w,w,w,w,w,w,f,0
0,i,v,m,l,v,v,u,t,v,v,m,l,v,e,0
0,j,0,p,0,q,p,s,r,q,p,0,q,p,d,0
k,o,c,c,b,c,c,b,b,c,c,b,c,c,n,k
x,x,x,x,x,x,x,x,x,x,x,x,x,x,x,x
0,0,0,0,0,0,0,0,0,0,0,0,0,0,0,0
NAME Tram 2
EXT 3,11 7 3,12
EXT 4,11 7 4,12
EXT 11,11 7 11,12
EXT 12,11 7 12,12
EXT 7,11 8 14,14
EXT 8,11 8 14,14
PAL 0

ROOM 7
0,0,0,0,0,0,0,0,0,0,0,0,0,0,0,0
0,0,0,0,0,0,0,0,0,0,0,0,0,0,0,0
0,0,0,0,0,0,0,0,0,0,0,0,0,0,0,0
0,0,0,0,0,0,0,0,0,0,0,0,0,0,0,0
0,0,0,0,0,0,0,0,0,0,0,0,0,0,0,0
0,0,0,0,0,0,0,0,0,0,0,0,0,0,0,0
0,0,0,0,0,0,0,0,12,11,0,0,0,0,0,0
0,0,0,0,0,0,13,0,12,11,0,1r,1s,1u,0,0
0,0,0,0,0,0,y,0,10,z,0,1q,1t,1v,0,0
0,0,g,g,g,g,g,g,g,g,g,g,g,g,0,0
0,h,w,w,w,w,w,w,w,w,w,w,w,w,f,0
0,i,v,m,l,v,v,u,t,v,v,m,l,v,e,0
0,j,0,p,0,q,p,s,r,q,p,0,q,p,d,0
k,o,c,c,b,c,c,b,b,c,c,b,c,c,n,k
x,x,x,x,x,x,x,x,x,x,x,x,x,x,x,x
0,0,0,0,0,0,0,0,0,0,0,0,0,0,0,0
NAME Tram 2b
EXT 3,11 6 3,12
EXT 4,11 6 4,12
EXT 11,11 6 11,12
EXT 12,11 6 12,12
EXT 7,11 8 14,14
EXT 8,11 8 14,14
PAL 0

ROOM 8
0,1g,17,28,18,18,28,19,0,0,0,0,0,1g,0,0
1f,0,17,18,18,18,18,19,0,0,1f,0,0,0,0,1f
0,0,17,28,18,18,28,19,0,0,0,0,0,0,0,0
0,1f,17,18,18,18,18,19,0,0,0,0,1f,0,0,0
0,0,17,28,18,18,28,19,0,0,0,1g,0,0,0,0
0,2a,17,18,18,18,18,19,2a,0,0,34,35,36,34,35
0,29,1b,1b,0,0,1b,1b,29,0,32,31,38,37,31,38
25,1z,1b,1b,0,0,1b,1b,1z,1y,0,39,39,39,39,39
26,0,0,0,0,0,0,0,0,0,1y,0,3b,0,0,3a
26,0,0,0,0,0,0,0,0,0,20,0,0,3c,0,0
1w,0,0,0,0,0,0,0,0,0,0,1y,0,0,3b,0
1x,1x,1x,1x,1x,1x,1x,1x,1x,1w,0,0,1z,1y,0,3c
22,23,23,24,23,23,22,23,22,27,0,0,0,0,1y,0
23,24,24,22,22,24,24,24,23,27,1w,0,0,0,0,1y
24,22,24,24,24,0,22,24,24,24,1x,1x,1w,0,0,0
0,22,22,23,23,24,0,0,24,22,24,23,22,1w,0,0
NAME Party 1
EXT 5,6 9 5,6
EXT 4,6 9 4,6
PAL 1

ROOM 9
0,1g,17,28,18,18,28,19,0,0,0,0,0,1g,0,0
1f,0,17,18,18,18,18,19,0,0,1f,0,0,0,0,1f
0,0,17,28,18,18,28,19,0,0,0,0,0,0,0,0
0,1f,17,18,18,18,18,19,0,0,0,0,1f,0,0,0
0,0,17,28,2b,2c,28,19,0,0,0,1g,0,0,0,0
0,2a,17,18,0,0,18,19,2a,0,0,34,35,36,34,35
0,29,1b,1b,0,0,1b,1b,29,0,32,31,38,37,31,38
25,1z,1b,1b,0,0,1b,1b,1z,1y,0,39,39,39,39,39
26,0,0,0,0,0,0,0,0,0,1y,0,3b,0,0,3a
26,0,0,0,0,0,0,0,0,0,20,0,0,3c,0,0
1w,0,0,0,0,0,0,0,0,0,0,1y,0,0,3b,0
1x,1x,1x,1x,1x,1x,1x,1x,1x,1w,0,0,1z,1y,0,3c
22,23,23,24,23,23,22,23,22,27,0,0,0,0,1y,0
23,24,24,22,22,24,24,24,23,27,1w,0,0,0,0,1y
24,22,24,24,24,0,22,24,24,24,1x,1x,1w,0,0,0
0,22,22,23,23,24,0,0,24,22,24,23,22,1w,0,0
NAME Party 1b
EXT 5,7 8 5,7
EXT 4,7 8 4,7
EXT 4,4 b 6,14
EXT 5,4 b 6,14
PAL 2

ROOM a
0,1g,0,0,0,0,1f,0,0,0,0,0,1f,0,0,0
0,0,0,0,0,0,0,0,1f,0,0,0,0,0,0,1f
1f,0,0,0,0,1g,0,0,0,0,0,0,0,1f,0,0
0,0,0,0,1f,0,0,0,0,0,0,1f,0,0,0,1g
0,1f,0,0,0,0,0,0,0,1f,0,0,0,0,0,0
17,18,18,18,18,18,18,18,18,18,18,19,0,0,0,0
17,0,1l,0,0,0,0,0,0,1k,0,19,0,1f,0,0
17,0,1j,1h,1h,1h,1h,1h,1h,1i,0,19,0,0,0,0
17,0,0,0,0,0,0,0,0,0,0,19,0,0,0,0
17,1m,1n,0,1m,1n,0,0,0,1o,1m,19,0,0,1a,0
17,1p,0,0,0,0,0,1m,1n,0,0,19,0,17,18,19
17,0,1o,1m,1n,0,0,0,0,1m,1n,19,0,17,0,19
1b,1b,1b,1b,1b,0,0,1b,1b,1b,1b,1b,0,17,0,19
0,0,0,0,0,0,0,0,0,0,0,0,0,0,0,0
15,15,15,15,15,15,15,15,15,15,15,15,15,15,15,15
0,16,0,16,0,16,0,16,0,16,0,16,0,16,0,16
NAME Bar Out 1c
EXT 5,12 5 5,12
EXT 6,12 5 6,12
EXT 7,13 2 7,13
EXT 11,13 2 11,13
PAL 1

ROOM b
0,0,0,0,0,0,0,1f,0,1g,0,0,0,0,0,0
0,0,0,0,1f,0,0,0,0,0,0,0,0,1f,0,0
1f,0,0,0,0,0,0,0,0,0,0,0,0,0,0,0
0,0,0,0,0,2l,2k,2k,2k,2k,2j,1f,0,0,0,0
0,0,0,1g,0,2h,0,0,0,0,2i,0,0,0,0,0
0,0,1f,0,0,2h,0,0,0,0,2i,0,1g,0,0,1f
0,0,0,0,0,2h,0,0,0,0,2i,0,0,0,0,0
0,0,0,0,0,2g,2e,2e,2e,2e,2f,0,0,0,0,0
0,0,0,0,0,17,18,18,18,18,19,0,0,1f,0,0
0,0,0,0,1f,17,18,18,18,18,19,0,0,0,0,0
1f,0,0,1f,0,17,0,2c,0,2d,19,1f,0,0,0,0
0,0,0,0,0,17,0,18,0,0,19,0,0,0,1f,0
0,0,0,0,0,17,0,18,0,0,19,0,0,0,0,0
0,1f,0,0,0,17,0,18,0,1n,19,0,0,0,0,1g
0,0,0,0,0,17,0,18,1p,0,19,0,1f,0,0,0
0,0,0,0,0,17,18,18,18,18,19,0,0,0,0,0
NAME Party Ins 1
EXT 7,10 c 7,10
PAL 2

ROOM c
0,0,0,0,0,0,0,1f,0,1g,0,0,0,0,0,0
0,0,0,0,1f,0,0,0,0,0,0,0,0,1f,0,0
1f,0,0,0,0,0,0,0,0,0,0,0,0,0,0,0
0,0,0,0,0,2l,2k,2k,2k,2k,2j,1f,0,0,0,0
0,0,0,1g,0,2h,0,0,0,0,2i,0,0,0,0,0
0,0,1f,0,0,2h,0,0,0,0,2i,0,1g,0,0,1f
0,0,0,0,0,2h,0,0,0,0,2i,0,0,0,0,0
0,0,0,0,0,2g,2e,2e,2e,2e,2f,0,0,0,0,0
0,0,0,0,0,17,18,18,18,18,19,0,0,1f,0,0
0,0,0,0,1f,17,18,18,18,18,19,0,0,0,0,0
1f,0,0,1f,0,17,0,2c,0,2d,19,1f,0,0,0,0
0,0,0,0,0,17,0,18,0,0,19,0,0,0,1f,0
0,0,0,0,0,17,0,18,0,0,19,0,0,0,0,0
0,1f,0,0,0,17,0,18,0,1n,19,0,0,0,0,1g
0,0,0,0,0,17,0,18,1p,0,19,0,1f,0,0,0
0,0,0,0,0,17,18,18,18,18,19,0,0,0,0,0
NAME Party Ins 1b
EXT 8,12 d 8,12
EXT 9,12 d 9,12
PAL 2

ROOM d
0,0,0,0,0,0,0,1f,0,1g,0,0,0,0,0,0
0,0,0,0,1f,0,0,0,0,0,0,0,0,1f,0,0
1f,0,0,0,0,0,0,0,0,0,0,0,0,0,0,0
0,0,0,0,0,2l,2k,2k,2k,2k,2j,1f,0,0,0,0
0,0,0,1g,0,2h,0,0,0,0,2i,0,0,0,0,0
0,0,1f,0,0,2h,0,0,0,0,2i,0,1g,0,0,1f
0,0,0,0,0,2h,0,0,0,0,2i,0,0,0,0,0
0,0,0,0,0,2g,2e,2e,2e,2e,2f,0,0,0,0,0
0,0,0,0,0,17,18,18,18,18,19,0,0,1f,0,0
0,0,0,0,1f,17,18,18,18,18,19,0,0,0,0,0
1f,0,0,1f,0,17,0,2c,0,2d,19,1f,0,0,0,0
0,0,0,0,0,17,0,18,0,0,19,0,0,0,1f,0
0,0,0,0,0,17,0,18,0,0,19,0,0,0,0,0
0,1f,0,0,0,17,0,18,0,1n,19,0,0,0,0,1g
0,0,0,0,0,17,0,18,1p,0,19,0,1f,0,0,0
0,0,0,0,0,17,18,18,18,18,19,0,0,0,0,0
NAME Pary Ins 1c
EXT 6,14 e 4,4
PAL 0

ROOM e
0,1g,17,28,18,18,28,19,0,0,0,0,0,1g,0,0
1f,0,17,18,18,18,18,19,0,0,1f,0,0,0,0,1f
0,0,17,28,18,18,28,19,0,0,0,0,0,0,0,0
0,1f,17,18,18,18,18,19,0,0,0,0,1f,0,0,0
0,0,17,28,2b,2c,28,19,0,0,0,1g,0,0,0,0
0,2a,17,18,0,0,18,19,2a,0,0,34,35,36,34,35
0,29,1b,1b,0,0,1b,1b,29,0,32,31,38,37,31,38
25,1z,1b,1b,0,0,1b,1b,1z,1y,0,39,39,39,39,39
26,0,0,0,0,0,0,0,0,0,1y,0,3b,0,0,3a
26,0,0,0,0,0,0,0,0,0,20,0,0,3c,0,0
1w,0,0,0,0,0,0,0,0,0,0,1y,0,0,3b,0
1x,1x,1x,1x,1x,1x,1x,1x,1x,1w,0,0,1z,1y,0,3c
22,23,23,24,23,23,22,23,22,27,0,0,0,0,1y,0
23,24,24,22,22,24,24,24,23,27,1w,0,0,0,0,1y
24,22,24,24,24,0,22,24,24,24,1x,1x,1w,0,0,0
0,22,22,23,23,24,0,0,24,22,24,23,22,1w,0,0
NAME Party 2
EXT 5,7 f 5,7
EXT 4,7 f 4,7
EXT 4,4 d 6,14
EXT 5,4 d 6,14
PAL 2

ROOM f
0,1g,17,28,18,18,28,19,0,0,0,0,0,1g,0,0
1f,0,17,18,18,18,18,19,0,0,1f,0,0,0,0,1f
0,0,17,28,18,18,28,19,0,0,0,0,0,0,0,0
0,1f,17,18,18,18,18,19,0,0,0,0,1f,0,0,0
0,0,17,28,18,18,28,19,0,0,0,1g,0,0,0,0
0,2a,17,18,18,18,18,19,2a,0,0,34,35,36,34,35
0,29,1b,1b,0,0,1b,1b,29,0,32,31,38,37,31,38
25,1z,1b,1b,0,0,1b,1b,1z,1y,0,39,39,39,39,39
26,0,0,0,0,0,0,0,0,0,1y,0,3b,0,0,3a
26,0,0,0,0,0,0,0,0,0,20,0,0,3c,0,0
1w,0,0,0,0,0,0,0,0,0,0,1y,0,0,3b,0
1x,1x,1x,1x,1x,1x,1x,1x,1x,1w,0,0,1z,1y,0,3c
22,23,23,24,23,23,22,23,22,27,0,0,0,0,1y,0
23,24,24,22,22,24,24,24,23,27,1w,0,0,0,0,1y
24,22,24,24,24,0,22,24,24,24,1x,1x,1w,0,0,0
0,22,22,23,23,24,0,0,24,22,24,23,22,1w,0,0
NAME Party 2b
EXT 5,6 e 5,6
EXT 4,6 e 4,6
EXT 15,15 g 9,12
PAL 1

ROOM g
0,0,0,0,0,0,0,0,0,0,0,0,1f,0,0,0
0,1f,0,0,0,0,0,0,0,0,0,0,0,0,0,0
0,0,1g,0,0,0,0,0,1f,0,0,0,0,1g,0,0
0,0,0,0,0,0,0,0,0,0,0,0,0,0,0,0
0,0,0,1f,0,0,0,0,0,0,0,0,0,0,1f,0
0,0,0,0,0,0,0,0,0,0,0,1f,0,0,0,0
1f,0,0,0,0,0,0,0,0,1g,0,0,0,0,0,0
0,0,1f,0,0,0,0,0,0,0,0,0,0,1f,0,0
0,0,0,0,0,0,0,0,0,0,0,0,0,0,0,0
0,0,g,g,g,g,g,g,g,g,g,g,g,g,0,0
0,h,w,w,w,w,w,w,w,w,w,w,w,w,f,0
0,i,v,m,l,v,v,u,t,v,v,m,l,v,e,0
0,j,0,p,0,q,p,s,r,q,p,0,q,p,d,0
k,o,c,c,b,c,c,b,b,c,c,b,c,c,n,k
x,x,x,x,x,x,x,x,x,x,x,x,x,x,x,x
0,0,0,0,0,0,0,0,0,0,0,0,0,0,0,0
NAME Tram 3
EXT 3,11 h 3,12
EXT 4,11 h 4,12
EXT 11,11 h 11,12
EXT 7,11 i 0,11
EXT 8,11 i 0,11
PAL 0

ROOM h
0,0,0,0,0,0,0,0,0,0,0,0,0,0,0,0
0,0,0,0,0,0,0,0,0,0,0,0,0,0,0,0
0,0,0,0,0,0,0,0,0,0,0,0,0,0,0,0
0,0,0,0,0,0,0,0,0,0,0,0,0,0,0,0
0,0,0,0,0,0,0,0,0,0,0,0,0,0,0,0
0,0,0,13,0,0,0,0,0,0,0,0,0,0,0,0
0,0,0,14,13,0,0,0,0,0,0,0,13,0,0,0
35,36,0,14,14,0,0,0,0,12,11,0,14,0,0,0
38,37,3d,y,y,0,0,0,0,10,z,0,y,0,0,0
39,0,g,g,g,g,g,g,g,g,g,g,g,g,0,0
0,h,w,w,w,w,w,w,w,w,w,w,w,w,f,0
0,i,v,m,l,v,v,u,t,v,v,m,l,v,e,0
0,j,0,p,0,q,p,s,r,q,p,0,q,p,d,0
k,o,c,c,b,c,c,b,b,c,c,b,c,c,n,k
x,x,x,x,x,x,x,x,x,x,x,x,x,x,x,x
0,0,0,0,0,0,0,0,0,0,0,0,0,0,0,0
NAME Tram 3b
EXT 3,11 g 3,12
EXT 4,11 g 4,12
EXT 11,11 g 11,12
EXT 12,11 7 12,12
EXT 7,11 i 0,11
EXT 8,11 i 0,11
PAL 0

ROOM i
0,1f,0,2h,0,0,0,0,0,0,0,17,18,0,18,18
0,0,1g,2h,0,0,0,0,0,0,0,17,18,0,18,18
1f,0,0,2h,0,0,0,0,0,0,0,0,0,0,0,0
0,0,0,2g,2e,2e,2e,2e,2e,2e,2e,2e,2e,2e,2e,2e
0,0,1f,17,18,18,18,18,18,18,18,18,18,18,18,18
0,0,0,17,1c,1d,18,18,18,18,1c,1d,18,18,1c,1d
1f,0,0,17,18,18,18,18,18,18,18,18,18,18,18,18
0,0,0,17,1c,1d,18,18,18,18,1c,1d,18,18,1c,1d
0,0,0,17,18,18,18,18,18,18,18,18,18,18,18,18
1a,0,0,17,18,18,18,2n,2m,18,18,18,18,18,18,18
18,19,0,17,1c,1d,18,18,18,18,1c,1d,18,18,1c,1d
0,19,2a,17,18,18,18,0,0,18,18,18,18,18,18,18
0,19,29,1b,1b,1b,1b,0,0,1b,1b,1b,1b,1b,1b,1b
0,0,0,0,0,0,0,0,0,0,0,0,0,0,0,0
15,15,15,15,15,15,15,15,15,15,15,15,15,15,15,15
16,0,16,0,16,0,16,0,16,0,16,0,16,0,16,0
NAME Hosp Out 1
EXT 7,11 j 7,11
EXT 8,11 j 8,11
PAL 1

ROOM j
0,1f,0,2h,0,0,0,0,0,0,0,17,18,0,18,18
0,0,1g,2h,0,0,0,0,0,0,0,17,18,0,18,18
1f,0,0,2h,0,0,0,0,0,0,0,0,0,0,0,0
0,0,0,2g,2e,2e,2e,2e,2e,2e,2e,2e,2e,2e,2e,2e
0,0,1f,17,18,18,18,18,18,18,18,18,18,18,18,18
0,0,0,17,1c,1d,18,18,18,18,1c,1d,18,18,1c,1d
1f,0,0,17,18,18,18,18,18,18,18,18,18,18,18,18
0,0,0,17,1c,1d,18,18,18,18,1c,1d,18,18,1c,1d
0,0,0,17,18,18,18,2b,2c,18,18,18,18,18,18,18
1a,0,0,17,18,18,18,0,0,18,18,18,18,18,18,18
18,19,0,17,1c,1d,18,0,0,18,1c,1d,18,18,1c,1d
0,19,2a,17,18,18,18,0,0,18,18,18,18,18,18,18
0,19,29,1b,1b,1b,1b,0,0,1b,1b,1b,1b,1b,1b,1b
0,0,0,0,0,0,0,0,0,0,0,0,0,0,0,0
15,15,15,15,15,15,15,15,15,15,15,15,15,15,15,15
16,0,16,0,16,0,16,0,16,0,16,0,16,0,16,0
NAME Hosp Out 1b
EXT 7,12 i 7,12
EXT 8,12 i 8,12
EXT 7,8 k 11,14
EXT 8,8 k 12,14
PAL 2

ROOM k
0,0,0,0,0,0,0,0,0,0,0,0,0,0,0,0
0,0,0,0,0,0,0,0,0,0,0,0,0,0,0,0
0,0,0,0,0,0,0,0,0,0,3t,3p,3p,3u,0,0
0,0,0,0,0,0,0,0,0,0,3o,3g,0,3n,0,0
0,0,0,0,0,0,0,0,0,0,3o,0,0,3n,0,0
0,0,0,0,0,3t,3p,3p,3p,3p,3s,0,0,3n,0,0
0,0,0,0,0,3o,0,0,0,3m,2p,0,0,3n,0,0
0,0,0,0,0,3o,1o,0,2u,0,2p,0,0,3n,0,0
0,0,0,0,0,3o,0,0,0,v,2c,0,0,3n,0,0
0,0,0,0,0,3o,1o,0,0,0,2p,0,0,3n,0,0
0,0,0,0,0,3o,0,0,0,2d,2p,0,0,3n,0,0
0,0,0,0,0,3v,3q,3q,3q,3q,3r,0,0,3n,0,0
0,0,0,0,0,0,0,0,0,0,3o,0,0,3n,0,0
0,0,0,0,0,0,0,0,0,0,3o,0,0,3n,0,0
0,0,0,0,0,0,0,0,0,0,3o,2b,2c,3n,0,0
0,0,0,0,0,0,0,0,0,0,0,v,v,0,0,0
NAME Hosp In 1
EXT 11,14 j 7,8
EXT 12,14 j 8,8
EXT 10,8 l 11,8
PAL 2

ROOM l
0,0,0,0,0,0,0,0,0,0,0,0,0,0,0,0
0,0,0,0,0,0,0,0,0,0,0,0,0,0,0,0
0,0,0,0,0,0,0,0,0,0,3t,3p,3p,3u,0,0
0,0,0,0,0,0,0,0,0,0,3o,0,0,3n,0,0
0,0,0,0,0,0,0,0,0,0,3o,0,0,3n,0,0
0,0,0,0,0,3t,3p,3p,3p,3p,3s,0,0,3n,0,0
0,0,0,0,0,3o,0,0,0,3m,2p,0,0,3n,0,0
0,0,0,0,0,3o,1o,0,2u,0,2p,0,0,3n,0,0
0,0,0,0,0,3o,0,0,0,v,2c,0,0,3n,0,0
0,0,0,0,0,3o,1o,0,0,0,2p,0,0,3n,0,0
0,0,0,0,0,3o,0,0,0,2d,2p,0,0,3n,0,0
0,0,0,0,0,3v,3q,3q,3q,3q,3r,0,0,3n,0,0
0,0,0,0,0,0,0,0,0,0,3o,0,0,3n,0,0
0,0,0,0,0,0,0,0,0,0,3o,0,0,3n,0,0
0,0,0,0,0,0,0,0,0,0,3o,2b,2c,3n,0,0
0,0,0,0,0,0,0,0,0,0,0,v,v,0,0,0
NAME Hosp In 1b
EXT 11,14 m 7,8
EXT 12,14 m 8,8
EXT 10,8 l 11,8
PAL 0

ROOM m
0,1f,0,2h,0,0,0,0,0,0,0,17,18,0,18,18
0,0,1g,2h,0,0,0,0,0,0,0,17,18,0,18,18
1f,0,0,2h,0,0,0,0,0,0,0,0,0,0,0,0
0,0,0,2g,2e,2e,2e,2e,2e,2e,2e,2e,2e,2e,2e,2e
0,0,1f,17,18,18,18,18,18,18,18,18,18,18,18,18
0,0,0,17,1c,1d,18,18,18,18,1c,1d,18,18,1c,1d
1f,0,0,17,18,18,18,18,18,18,18,18,18,18,18,18
0,0,0,17,1c,1d,18,18,18,18,1c,1d,18,18,1c,1d
0,0,0,17,18,18,18,2b,2c,18,18,18,18,18,18,18
1a,0,0,17,18,18,18,0,0,18,18,18,18,18,18,18
18,19,0,17,1c,1d,18,0,0,18,1c,1d,18,18,1c,1d
0,19,2a,17,18,18,18,0,0,18,18,18,18,18,18,18
0,19,29,1b,1b,1b,1b,0,0,1b,1b,1b,1b,1b,1b,1b
0,0,0,0,0,0,0,0,0,0,0,0,0,0,0,0
15,15,15,15,15,15,15,15,15,15,15,15,15,15,15,15
16,0,16,0,16,0,16,0,16,0,16,0,16,0,16,0
NAME Hosp Out 2b
EXT 7,12 n 7,12
EXT 8,12 n 8,12
EXT 7,8 l 11,14
EXT 8,8 l 12,14
PAL 2

ROOM n
0,1f,0,2h,0,0,0,0,0,0,0,17,18,0,18,18
0,0,1g,2h,0,0,0,0,0,0,0,17,18,0,18,18
1f,0,0,2h,0,0,0,0,0,0,0,0,0,0,0,0
0,0,0,2g,2e,2e,2e,2e,2e,2e,2e,2e,2e,2e,2e,2e
0,0,1f,17,18,18,18,18,18,18,18,18,18,18,18,18
0,0,0,17,1c,1d,18,18,18,18,1c,1d,18,18,1c,1d
1f,0,0,17,18,18,18,18,18,18,18,18,18,18,18,18
0,0,0,17,1c,1d,18,18,18,18,1c,1d,18,18,1c,1d
0,0,0,17,18,18,18,18,18,18,18,18,18,18,18,18
1a,0,0,17,18,18,18,2n,2m,18,18,18,18,18,18,18
18,19,0,17,1c,1d,18,18,18,18,1c,1d,18,18,1c,1d
0,19,2a,17,18,18,18,0,0,18,18,18,18,18,18,18
0,19,29,1b,1b,1b,1b,0,0,1b,1b,1b,1b,1b,1b,1b
0,0,0,0,0,0,0,0,0,0,0,0,0,0,0,0
15,15,15,15,15,15,15,15,15,15,15,15,15,15,15,15
16,0,16,0,16,0,16,0,16,0,16,0,16,0,16,0
NAME Hosp Out 2
EXT 7,11 m 7,11
EXT 8,11 m 8,11
EXT 0,11 o 9,12
PAL 1

ROOM o
0,0,0,0,0,0,1f,0,0,0,0,0,0,0,0,0
0,0,1f,0,0,0,0,1f,0,0,0,0,0,0,0,1g
0,0,0,0,0,0,0,0,0,1f,0,0,0,0,0,0
0,0,0,0,0,1g,0,0,0,0,0,0,0,0,0,0
0,0,0,0,0,0,0,0,0,0,0,0,0,0,1f,0
0,0,0,0,0,0,0,0,0,0,0,0,0,0,0,0
1f,0,0,0,0,0,1f,0,0,0,0,0,0,0,0,0
0,0,0,1f,0,0,0,0,0,0,0,0,1f,0,0,0
0,0,0,0,0,0,0,0,0,0,0,0,0,0,1g,0
0,0,g,g,g,g,g,g,g,g,g,g,g,g,0,0
0,h,w,w,w,w,w,w,w,w,w,w,w,w,f,0
0,i,v,m,l,v,v,u,t,v,v,m,l,v,e,0
0,2y,0,p,0,q,p,s,r,q,p,0,q,p,2x,0
2z,2v,2w,2w,2v,2w,2w,2v,2v,2w,2w,2v,2w,2w,2v,2z
30,30,30,30,30,30,30,30,30,30,30,30,30,30,30,30
0,0,0,0,0,0,0,0,0,0,0,0,0,0,0,0
NAME Tram 4
EXT 3,11 p 3,12
EXT 4,11 p 4,12
EXT 11,11 h 11,12
EXT 8,11 q 0,12
EXT 7,11 q 0,12
PAL 0

ROOM p
0,0,0,0,0,0,1f,0,0,0,0,0,0,0,0,0
0,0,1f,0,0,0,0,1f,0,0,0,0,0,0,0,1g
0,0,0,0,0,0,0,0,0,1f,0,0,0,0,0,0
0,0,0,0,0,1g,0,0,0,0,0,0,0,0,0,0
0,0,0,0,0,0,0,0,0,0,0,0,0,0,1f,0
0,0,0,0,0,0,0,0,0,0,0,0,0,0,0,0
1f,0,0,0,0,0,1f,0,0,0,0,0,0,0,0,0
0,0,0,1f,0,0,0,0,0,0,0,0,1f,0,0,0
0,0,0,0,0,0,0,0,0,0,0,0,0,0,1g,0
0,0,g,g,g,g,g,g,g,g,g,g,g,g,0,0
0,h,w,w,w,w,w,w,w,w,w,w,w,w,f,0
0,i,v,m,l,v,v,u,t,v,v,m,l,v,e,0
0,2y,0,p,0,q,p,s,r,q,p,0,q,p,2x,0
2z,2v,2w,2w,2v,2w,2w,2v,2v,2w,2w,2v,2w,2w,2v,2z
30,30,30,30,30,30,30,30,30,30,30,30,30,30,30,30
0,0,0,0,0,0,0,0,0,0,0,0,0,0,0,0
NAME Tram 4b
EXT 3,11 o 3,12
EXT 4,11 o 4,12
EXT 11,11 h 11,12
EXT 7,11 q 0,12
EXT 8,11 q 0,12
PAL 2

ROOM q
0,1f,0,2h,0,0,0,0,0,0,0,17,18,0,18,18
0,0,1g,2h,0,0,0,0,0,0,0,17,18,0,18,18
1f,0,0,2h,0,0,0,0,0,0,0,0,0,0,0,0
0,0,0,2g,2e,2e,2e,2e,2e,2e,2e,2e,2e,2e,2e,2e
0,0,1f,17,18,18,18,18,18,18,18,18,18,18,18,18
0,0,0,17,1c,1d,18,18,18,18,1c,1d,18,18,1c,1d
1f,0,0,17,18,18,18,18,18,18,18,18,18,18,18,18
0,0,0,17,1c,1d,18,18,18,18,1c,1d,18,18,1c,1d
0,0,0,17,18,18,18,18,18,18,18,18,18,18,18,18
1a,0,0,17,18,18,18,2n,2m,18,18,18,18,18,18,18
18,19,0,17,1c,1d,18,18,18,18,1c,1d,18,18,1c,1d
0,19,2a,17,18,18,18,0,0,18,18,18,18,18,18,18
0,19,29,1b,1b,1b,1b,0,0,1b,1b,1b,1b,1b,1b,1b
0,0,0,0,0,0,0,0,0,0,0,0,0,0,0,0
15,15,15,15,15,15,15,15,15,15,15,15,15,15,15,15
16,0,16,0,16,0,16,0,16,0,16,0,16,0,16,0
NAME End 1
EXT 7,11 r 7,11
EXT 8,11 r 8,11
PAL 1

ROOM r
0,1f,0,2h,0,0,0,0,0,0,0,17,18,0,18,18
0,0,1g,2h,0,0,0,0,0,0,0,17,18,0,18,18
1f,0,0,2h,0,0,0,0,0,0,0,0,0,0,0,0
0,0,0,2g,2e,2e,2e,2e,2e,2e,2e,2e,2e,2e,2e,2e
0,0,1f,17,18,18,18,18,18,18,18,18,18,18,18,18
0,0,0,17,1c,1d,18,18,18,18,1c,1d,18,18,1c,1d
1f,0,0,17,18,18,18,18,18,18,18,18,18,18,18,18
0,0,0,17,1c,1d,18,18,18,18,1c,1d,18,18,1c,1d
0,0,0,17,18,18,18,2b,2c,18,18,18,18,18,18,18
1a,0,0,17,18,18,18,0,0,18,18,18,18,18,18,18
18,19,0,17,1c,1d,18,0,0,18,1c,1d,18,18,1c,1d
0,19,2a,17,18,18,18,0,0,18,18,18,18,18,18,18
0,19,29,1b,1b,1b,1b,0,0,1b,1b,1b,1b,1b,1b,1b
0,0,0,0,0,0,0,0,0,0,0,0,0,0,0,0
15,15,15,15,15,15,15,15,15,15,15,15,15,15,15,15
16,0,16,0,16,0,16,0,16,0,16,0,16,0,16,0
NAME End 2
EXT 7,12 q 7,12
EXT 8,12 q 8,12
EXT 7,8 s 11,14
EXT 8,8 s 12,14
PAL 2

ROOM s
0,0,0,0,0,0,0,0,0,0,0,0,0,0,0,0
0,0,0,0,0,0,0,0,0,0,0,0,0,0,0,0
0,0,0,0,0,0,0,0,0,0,3o,0,0,3n,0,0
0,0,0,0,0,0,0,0,0,0,3o,0,0,3n,0,0
0,0,0,0,0,0,0,0,0,0,3o,0,0,3n,0,0
0,0,0,0,0,3t,3p,3p,3p,3p,3s,0,0,3n,0,0
0,0,0,0,0,3o,0,0,0,3m,2p,0,0,3n,0,0
0,0,0,0,0,3o,1o,0,2u,0,2p,0,0,3n,0,0
0,0,0,0,0,3o,0,0,0,v,0,0,0,3n,0,0
0,0,0,0,0,3o,1o,0,0,0,2p,0,0,3n,0,0
0,0,0,0,0,3o,0,0,0,2d,2p,0,0,3n,0,0
0,0,0,0,0,3v,3q,3q,3q,3q,3r,0,0,3n,0,0
0,0,0,0,0,0,0,0,0,0,3o,0,0,3n,0,0
0,0,0,0,0,0,0,0,0,0,3o,0,0,3n,0,0
0,0,0,0,0,0,0,0,0,0,3o,2b,2c,3n,0,0
0,0,0,0,0,0,0,0,0,0,0,v,v,0,0,0
NAME End 3
END undefined 10,8
END undefined 11,1
END undefined 12,1
PAL 0

ROOM t
0,1g,0,0,0,0,1f,0,0,0,0,0,1f,0,0,0
0,0,0,0,0,0,0,0,1f,0,0,0,0,0,0,1f
1f,0,0,0,0,1g,0,0,0,0,0,0,0,1f,0,0
0,0,0,0,1f,0,0,0,0,0,0,1f,0,0,0,1g
0,1f,0,0,0,0,0,0,0,1f,0,0,0,0,0,0
17,18,18,18,18,18,18,18,18,18,18,19,0,0,0,0
17,0,1l,0,0,0,0,0,0,1k,0,19,0,1f,0,0
17,0,1j,1h,1h,1h,1h,1h,1h,1i,0,19,0,0,0,0
17,0,0,0,0,0,0,0,0,0,0,19,0,0,0,0
17,1m,1n,0,1m,1n,0,0,0,1o,1m,19,0,0,1a,0
17,1p,0,0,0,0,0,1m,1n,0,0,19,0,17,18,19
17,0,1o,1m,1n,0,0,0,0,1m,1n,19,0,17,0,19
1b,1b,1b,1b,1b,0,0,1b,1b,1b,1b,1b,0,17,0,19
0,0,0,0,0,0,0,0,0,0,0,0,0,0,0,0
15,15,15,15,15,15,15,15,15,15,15,15,15,15,15,15
0,16,0,16,0,16,0,16,0,16,0,16,0,16,0,16
NAME Bar In 1d
EXT 5,12 5 5,12
EXT 6,12 5 6,12
EXT 7,13 5 7,13
EXT 11,13 5 11,13
PAL 1

TIL 10
00111000
00111111
00110000
00111111
00110110
00010000
00100010
00001000

TIL 11
10000000
11000000
00000000
11111000
00000000
11100000
00000000
10000000

TIL 12
00111000
00111111
00000000
00111111
00110000
00111110
00000000
00111100

TIL 13
00111100
00000000
00110100
00000000
00111100
00110000
00111000
00100000

TIL 14
00111100
00100000
00111100
00000000
00110000
00000000
00111000
00111100

TIL 15
11111101
10011111
00000000
00000000
00000000
00000000
00000000
00000000
WAL true

TIL 16
00000000
00000000
00000000
00111100
00111100
00000000
00000000
00000000

TIL 17
01111111
01111111
01111111
01111111
01111111
01111111
00000000
11111111
WAL true

TIL 18
11111111
11111111
11111111
11111111
11111111
11111111
00000000
11111111
WAL true

TIL 19
11111110
11111110
11111110
11111110
11111110
11111110
00000000
11111111
WAL true

TIL 20
00000011
00000011
00000001
00000001
00000011
00000011
00000011
00000011
WAL true

TIL 21
00000001
00000011
00000110
00001100
00011010
00110011
01100000
11001101
WAL true

TIL 22
00010010
01101000
10000000
10001110
11001110
00010000
10001100
11000000
WAL true

TIL 23
00000010
01010000
01000001
00001100
00010000
10011001
11001110
00110001
WAL true

TIL 24
01000000
01010000
00000100
00000000
00010010
01000000
01101010
00001010
WAL true

TIL 25
00000001
00000011
00000110
00001100
00011000
00110000
01100000
11000000
WAL true

TIL 26
11000000
10000000
11000000
10000000
10000000
10000000
11000000
11000000
WAL true

TIL 27
11000011
00000011
00111001
00100001
00110001
10011011
11000001
00010011
WAL true

TIL 28
00000000
11111111
10100001
11000011
10000101
10001001
11111111
00000000
WAL true

TIL 29
00010000
00010000
00010000
00010000
00010000
00010000
00010000
00111000
WAL true

TIL 30
00000000
01110111
01110111
00000000
11111111
00000000
00000000
00000000

TIL 31
01000100
10100010
10010001
11111111
11111111
01000010
01000010
00000000

TIL 32
00000000
00000000
00000000
00101111
10101111
00000010
00000010
00000000

TIL 33
00000000
00000000
00000000
11111111
11111111
01000010
01000010
00000000

TIL 34
00000000
00000000
00000000
00000000
00000011
00001100
00010010
00101001

TIL 35
00000000
00000000
00111100
11000011
00100100
00011000
00011000
00100100

TIL 36
00000000
00000000
00000000
00000000
11000000
00110000
01001000
10010100

TIL 37
00100010
01000101
10001001
11111111
11111111
01000010
01000010
00000000

TIL 38
11000011
11000011
00100100
11111111
11111111
01000010
01000010
00000000

TIL 39
01000010
00000000
01000010
01000010
00000000
00000000
01000010
00000000

TIL a
11111111
10000001
10000001
10011001
10011001
10000001
10000001
11111111

TIL b
11111111
11111111
00000000
00000000
00000000
00000000
00000000
00000000
>
00000000
11111111
11111111
00000000
00000000
00000000
00000000
00000000
WAL true

TIL c
11111111
11111111
01000010
01011010
01011010
01000010
00111100
00000000
>
00000000
11111111
11111111
01000010
01011010
01011010
01000010
00111100
WAL true

TIL d
00000011
00000011
00000011
00000011
00000011
00000111
00000110
00000011
>
00000011
00000011
00000011
00000011
00000011
00000011
00000110
00000110
WAL true

TIL e
00001100
00001100
00000110
00000110
00000110
00000011
00000011
00000011
WAL true

TIL f
11100000
11110000
00110000
00110000
00011000
00011000
00011000
00001100
WAL true

TIL g
00000000
00000000
00000000
00000000
00000000
00000000
11111111
11111111
WAL true

TIL h
00000111
00001111
00001100
00001100
00011000
00011000
00011000
00110000
WAL true

TIL i
00110000
00110000
01100000
01100000
01100000
11000000
11000000
11000000
WAL true

TIL j
11000000
11000000
11000000
11000000
11000000
01100000
01100000
11000000
>
11000000
11000000
11000000
11000000
11000000
11000000
01100000
01100000
WAL true

TIL k
01100110
01100110
00000000
00000000
00000000
00000000
00000000
00000000
>
00000000
01100110
01100110
00000000
00000000
00000000
00000000
00000000

TIL l
11111110
00100001
01000001
10000011
00000101
00001001
11111110
00000000
WAL false

TIL m
01111111
10001000
10010000
10100000
11000001
10000010
01111111
00000000
WAL false

TIL n
11111111
11111111
00000000
00000000
00000000
00000000
00000000
00000000
>
00000011
11111111
11111111
00000000
00000000
00000000
00000000
00000000
WAL true

TIL o
11111111
11111111
00000000
00000000
00000000
00000000
00000000
00000000
>
11000000
11111111
11111111
00000000
00000000
00000000
00000000
00000000
WAL true

TIL p
00000000
01000000
01000000
01000000
01111100
01111100
00101000
01111110

TIL q
00000000
00000100
00000100
00000100
00111100
00111100
00010100
01111110

TIL r
10000010
10000010
10000010
10100010
10000010
10000010
10000010
11111110

TIL s
01000001
01000001
01000001
01000101
01000001
01000001
01000001
01111111

TIL t
00000000
11111110
10000010
10000010
10000010
10000010
10000010
10000010

TIL u
00000000
01111111
01000001
01000001
01000001
01000001
01000001
01000001

TIL v
00000000
00000000
00000000
00000000
00000000
00000000
00000000
00000000
WAL true

TIL w
10101010
01010101
00000000
10001000
00000000
00100000
00000010
00000000
WAL true

TIL x
00000000
01110111
01110111
00000000
11111111
00000000
00000000
00000000
>
00000000
11101110
11101110
00000000
11111111
00000000
00000000
00000000

TIL y
00111100
00100000
00111100
00101000
00100100
00010000
00100100
00001000

TIL z
00001100
11100000
11000000
11111000
00000000
10010000
00000000
10001000

TIL 1a
00111100
01100000
01111110
01111000
00111100
00011000
00011000
00011000

TIL 1b
00110110
11010101
11000001
11000010
00011010
10110001
00000110
00110110
WAL true

TIL 1c
01111111
01001000
01010000
01100000
01000001
01000010
01000100
01111111

TIL 1d
11111110
00100010
01000010
10000010
00000110
00001010
00010010
11111110

TIL 1e
11111111
00100000
01000000
10000000
00000001
00000010
00000100
11111111

TIL 1f
00000000
00000000
00000000
00000000
00010000
00000000
00000000
00000000

TIL 1g
00000000
00000000
00000000
00000000
00010000
00000000
00000000
00000000
>
00000000
00000000
00000000
00010000
00101000
00010000
00000000
00000000

TIL 1h
00000000
00000000
11111111
11111111
00000000
11111111
11111111
11111111
WAL true

TIL 1i
00001100
00001100
11111100
11111100
00001000
11111100
11111100
11111100
WAL true

TIL 1j
00110000
00110000
00111111
00111111
00010000
00111111
00111111
00111111
WAL true

TIL 1k
00001100
00001100
00001100
00001100
00001100
00001100
00001100
00001100
WAL true

TIL 1l
00110000
00110000
00110000
00110000
00110000
00110000
00110000
00110000
WAL true

TIL 1m
00000000
00111100
01111110
01111110
00111100
00000000
00011000
00111100
WAL true

TIL 1n
00000000
00000100
00000100
00000100
00111100
00111100
00100100
00000000

TIL 1o
00000000
00100000
00100000
00100000
00111100
00111100
00100100
00000000

TIL 1p
00000000
00100100
00111100
00100100
00111100
00111100
00100100
00000000

TIL 1q
00111111
00111111
01111111
00111011
00101010
00000000
00010001
00000000

TIL 1r
00000000
00000001
00000011
00000111
00001111
00001111
00011111
00111111

TIL 1s
00111100
11111111
11111111
10001000
11111111
00000000
11111111
11001000

TIL 1t
11111111
10000000
11111011
10101001
10101001
00000000
00010001
00000000

TIL 1u
00000000
10000000
11000000
00000000
11110000
00000000
11111000
10100000

TIL 1v
11111100
00000000
11110010
11000000
01010100
00000000
01000100
00000000

TIL 1w
10000000
11000000
01100000
00110000
11011000
11001100
00100110
10011011
WAL true

TIL 1x
11111111
10010111
00000000
10111000
00110010
00000110
11000000
11010100
WAL true

TIL 1y
10000000
11000000
01100000
00110000
00011000
00001100
00000110
00000011
WAL true

TIL 1z
11111111
10111011
00000000
00000000
00000000
00000000
00000000
00000000
WAL true

TIL 2a
00111000
00101000
00010000
00101000
00111000
00010000
00010000
00010000
>
00111000
10111010
00010000
00111000
10111010
00010000
00010000
00010000
WAL true

TIL 2b
01111111
01000001
01000001
01000001
01000101
01000001
01000001
01111111

TIL 2c
11111110
10000010
10000010
10000010
10100010
10000010
10000010
11111110

TIL 2d
00000000
01111110
01000010
01000010
01111110
00011000
00011000
00111100

TIL 2e
00000000
00000000
11111111
10010000
00100001
01000010
10000100
00001001
WAL true

TIL 2f
00000010
00000010
11111110
10001010
00010010
00100110
01001010
10010010
WAL true

TIL 2g
01000000
01000000
01111111
01010000
01100001
01000010
01000100
01001001
WAL true

TIL 2h
01000000
01000000
01000000
01000000
01000000
01000000
01000000
01000000

TIL 2i
00000010
00000010
00000010
00000010
00000010
00000010
00000010
00000010

TIL 2j
00000000
00000000
11111110
10010010
00100110
01001010
10010010
11111110

TIL 2k
00000000
00000000
11111111
10001000
00010001
00100010
01000100
11111111

TIL 2l
00000000
00000000
01111111
01001000
01010001
01100010
01000100
01111111

TIL 2m
11111111
00111111
00001111
00001111
00111111
11111111
00000000
11111111

TIL 2n
11111111
11111100
11110000
11110000
11111100
11111111
00000000
11111111

TIL 2o
11111111
00000000
11111111
11111111
11111111
11111111
11111111
11111111
WAL true

TIL 2p
00000001
00000001
00000001
00000001
00000001
00000001
00000001
00000001
WAL true

TIL 2q
10111111
10111111
10111111
10111111
10111111
10111111
10111111
10111111
WAL true

TIL 2r
11111111
11111111
11111111
11111111
11111111
11111111
00000000
11111111
WAL true

TIL 2s
11111111
00000001
11111101
11111101
11111101
11111101
11111101
11111101
WAL true

TIL 2t
11111101
11111101
11111101
11111101
11111101
11111101
00000001
11111111
WAL true

TIL 2u
01111110
01111110
01111110
01111110
01111110
01111110
01111110
01000010

TIL 2v
11111111
11111111
00000000
00000000
00000000
00000000
00000000
00000000
WAL true

TIL 2w
11111111
11111111
01000010
01011010
01011010
01000010
00111100
00000000
WAL true

TIL 2x
00000011
00000011
00000011
00000011
00000011
00000111
00000110
00000011
WAL true

TIL 2y
11000000
11000000
11000000
11000000
11000000
01100000
01100000
11000000
WAL true

TIL 2z
01100110
01100110
00000000
00000000
00000000
00000000
00000000
00000000

TIL 3a
00000000
00000000
00000000
00101000
00011000
00000000
00000000
00000000
>
00000000
00000000
00101000
01000100
00100100
00011100
00000000
00000000

TIL 3b
00000000
00000000
00000000
00101000
00111000
00000000
00000000
00000000
>
00000000
00000000
00101000
01000100
01000100
00111000
00000000
00000000

TIL 3c
00000000
01100000
00000000
00000000
00000110
00000000
00000000
00000000
>
00000000
00010000
01100000
00000000
00000001
00000110
00000000
00000000

TIL 3d
00000000
00000000
00000000
11010000
11010100
01000000
01000000
00000000

TIL 3e
11111111
11111111
11111111
11111111
11111111
11111111
11111111
11111111
WAL true

TIL 3f
10111111
01011111
10101111
01010111
10101011
01010101
10101010
01010101

TIL 3g
00000000
00000000
00000000
00000000
00000000
00000000
00000000
00000000

TIL 3h
00101010
00010101
00000010
00000001
00000010
00000001
00000000
00000000

TIL 3i
11111101
11111101
11111101
11111101
11111101
11111101
11111101
11111101
WAL true

TIL 3j
11111111
11111111
11111111
11111111
11111111
11111111
11111100
11111101
WAL true

TIL 3k
11111101
11111100
11111111
11111111
11111111
11111111
11111111
11111111
WAL true

TIL 3l
00000000
00000000
11111111
11111111
00000000
11111111
11111111
11111111
WAL false

TIL 3m
00011110
00010010
00011110
01001000
10111100
10100100
10111100
00100100

TIL 3n
10100000
10100000
10100000
10100000
10100000
10100000
10100000
10100000
WAL true

TIL 3o
00000101
00000101
00000101
00000101
00000101
00000101
00000101
00000101
WAL true

TIL 3p
00000000
00000000
00000000
00000000
00000000
11111111
00000000
11111111
WAL true

TIL 3q
11111111
00000000
11111111
00000000
00000000
00000000
00000000
00000000
WAL true

TIL 3r
11111111
00000001
11111101
00000101
00000101
00000101
00000101
00000101
WAL true

TIL 3s
00000101
00000101
00000101
00000101
00000101
11111101
00000001
11111111
WAL true

TIL 3t
00000000
00000000
00000000
00000000
00000000
00000111
00000100
00000101
WAL true

TIL 3u
00000000
00000000
00000000
00000000
00000000
11100000
00100000
10100000
WAL true

TIL 3v
00000101
00000100
00000111
00000000
00000000
00000000
00000000
00000000
WAL true

SPR 10
11111100
10011010
01010101
01011001
11010101
01010101
00000010
11111100
>
11111100
00000010
00000001
00000001
00000001
00000001
00000010
11111100
POS 5 6,9

SPR 11
00000000
00000000
01010000
01010000
01110000
01111000
00111110
00101101
>
00000000
00000000
01010000
01010000
01110000
01111000
00111111
00101100
DLG SPR_8
POS 6 2,12

SPR 12
00110000
00001000
00011000
00011100
00011100
00111100
00101000
00101000
>
00110000
00001000
00011000
00011100
00011100
00111010
00101000
00101000
DLG SPR_9
POS 6 13,12

SPR 13
00000000
00000000
00000000
00000000
00000100
00100000
00100100
00000000
POS 7 8,5

SPR 14
00000000
00000000
00000000
00000000
00100000
00000000
00100000
00000000
POS 7 6,6

SPR 15
00000000
00000000
00000000
00000000
00010000
00000000
00000000
00000000
>
00000010
10000100
00000000
00000000
00000001
01000000
10000100
00000010
POS 7 1,5

SPR 16
00000010
10000100
00000000
00000000
00000001
01000000
10000100
00000010
>
00000000
00000000
00000000
00000000
00010000
00000000
00010000
00000000
POS 7 6,1

SPR 17
00000010
10000100
00000000
00000000
00000001
01000000
10000100
00000010
>
00000000
00000000
00000000
00000000
00010000
00000000
00010000
00000000
POS 7 14,6

SPR 18
00000000
00000000
00000000
00000000
00010000
00000000
00000000
00000000
>
00000010
10000100
00000000
00000000
00000001
01000000
10000100
00000010
POS 7 11,3

SPR 19
00000000
00000000
01010000
01010000
01110000
01111000
00111111
00101100
>
00000000
00000000
01010000
01010000
01110000
01111001
00111110
00101100
DLG SPR_a
POS 7 2,12

SPR 20
00000000
00000000
00000000
00000000
00000000
00100000
00101000
00000000
POS h 9,6

SPR 21
00000000
00000000
00000000
00000000
00010000
00000000
00000000
00000000
>
00000010
10000100
00000000
00000000
00000001
01000000
10000100
00000010
POS h 11,1

SPR 22
00000000
00000000
00000000
00000000
00010000
00000000
00000000
00000000
>
00000010
10000100
00000000
00000000
00000001
01000000
10000100
00000010
POS h 1,2

SPR 23
00000010
10000100
00000000
00000000
00000001
01000000
10000100
00000010
>
00000000
00000000
00000000
00000000
00010000
00000000
00010000
00000000
POS h 7,5

SPR 24
00000010
10000100
00000000
00000000
00000001
01000000
10000100
00000010
>
00000000
00000000
00000000
00000000
00010000
00000000
00010000
00000000
POS h 14,7

SPR 25
00110000
00001000
00011000
00011100
00011100
00111100
00101000
00101000
POS h 13,12

SPR 26
00011000
00011000
00000000
00110000
01101100
01111100
00101000
00101000
>
00011000
00011000
00000000
00100000
01111100
01111100
00101000
00101000
DLG SPR_f
POS h 12,12

SPR 27
00000000
00000000
00001010
00001010
00001110
00011110
11111100
00110100
>
00000000
00000000
00001010
00001010
00001110
10011110
01111100
00110100
DLG SPR_g
POS h 2,12

SPR 28
00011000
00011000
00110000
00111000
00110100
00111100
00000100
00000100
POS k 6,7

SPR 29
00000000
00000000
00000000
00011000
00011000
00000100
00111100
01011000
POS k 8,6

SPR A
00011000
00011000
00000100
00011010
00011010
00011110
00010100
00010100
POS 0 4,12

SPR a
00000000
00000000
01010000
01010000
01110000
01111110
00111101
00100101
>
00000000
00000000
01010000
01010000
01110000
01111110
00111110
00100101
DLG SPR_0
POS 0 2,12

SPR b
00000000
00000000
00000000
00000000
00010000
00000000
00000000
00000000
>
00000010
10000100
00000000
00000000
00000001
01000000
10000100
00000010
POS 1 4,3

SPR c
00000010
10000100
00000000
00000000
00000001
01000000
10000100
00000010
>
00000000
00000000
00000000
00000000
00010000
00000000
00010000
00000000
POS 1 10,5

SPR d
00000000
00000000
00000000
00000000
00010000
00000000
00000000
00000000
>
00000010
10000100
00000000
00000000
00000001
01000000
10000100
00000010
POS 1 13,2

SPR e
00000000
00000000
00000000
00000000
00010000
00000000
00000000
00000000
>
00000010
10000100
00000000
00000000
00000001
01000000
10000100
00000010
POS 1 2,7

SPR f
00000000
00000000
00000000
00000000
00100000
00000000
00100000
00000000
POS 1 4,6

SPR g
00000000
00000000
00000000
00000000
00000100
00100000
00100100
00000000
POS 1 6,5

SPR h
00000000
00000000
00000000
00000000
00000000
00100000
00101000
00000000
POS 1 12,6

SPR i
00000000
00000000
00000000
00000000
00000000
00000000
00000000
00000000
POS 1 14,5

SPR j
00000000
00000000
01010000
01010000
01110000
01111100
00111110
00100101
>
00000000
00000000
01010000
01010000
01110000
01111100
00111111
00100100
DLG SPR_1
POS 1 2,12

SPR k
00111111
01110001
10101010
10110010
10101011
10111010
01000000
00111111
>
00111111
01000000
10000000
10000000
10000000
10000000
01000000
00111111
POS 2 5,9

SPR l
11111100
10011010
01010101
01011001
11010101
01010101
00000010
11111100
>
11111100
00000010
00000001
00000001
00000001
00000001
00000010
11111100
POS 2 6,9

SPR m
01100000
01110000
11111000
00011000
00111000
00111000
00101000
00101000
>
00000000
01110000
11111000
00011000
00111000
00111000
00101000
00101000
DLG SPR_2
POS 2 12,10

SPR n
00011000
00011000
00111000
01011100
01100100
00111000
00100100
00100100
>
00011000
00011000
00111000
01011100
01100110
00111000
00100100
00100100
DLG SPR_3
POS 2 4,13

SPR o
00000000
00000000
00000000
00000000
00010000
00000000
00000000
00000000
>
00000010
10000100
00000000
00000000
00000001
01000000
10000100
00000010

SPR p
00000010
10000100
00000000
00000000
00000001
01000000
10000100
00000010
>
00000000
00000000
00000000
00000000
00010000
00000000
00010000
00000000

SPR q
01100000
01110000
11111000
00011000
00111000
00111000
00101000
00101000
>
00000000
01110000
11111000
00011000
00111000
00111000
00101000
00101000
POS 3 12,10

SPR r
00011000
00011000
00111000
01011100
01100100
00111000
00100100
00100100
>
00011000
00011000
00111000
01011100
01100110
00111000
00100100
00100100
POS 3 4,13

SPR s
00000000
00000000
00000000
01011000
10111000
01000100
01111100
00111100
>
00000000
00000000
00000000
00011000
10011000
11100100
01111100
00111100
DLG SPR_s
POS 3 7,6

SPR t
00110000
00001000
00011000
00011100
00011100
00111100
00101000
00101000
DLG SPR_4
POS 3 10,11

SPR u
01100000
01110000
11111000
00011000
00111000
00111000
00101000
00101000
>
00000000
01110000
11111000
00011000
00111000
00111000
00101000
00101000
DLG SPR_5
POS 4 12,10

SPR v
00011000
00011000
00111000
01011100
01100100
00111000
00100100
00100100
>
00011000
00011000
00111000
01011100
01100110
00111000
00100100
00100100
POS 4 4,13

SPR w
00000000
00000000
00000000
01011000
10111000
01000100
01111100
00111100
>
00000000
00000000
00000000
00011000
10011000
11100100
01111100
00111100
DLG SPR_t
POS 4 7,6

SPR x
01100000
01110000
11111000
00011000
00111000
00111000
00101000
00101000
>
00000000
01110000
11111000
00011000
00111000
00111000
00101000
00101000
DLG SPR_6
POS 5 12,10

SPR y
00011000
00011000
00111000
01011100
01100100
00111000
00100100
00100100
>
00011000
00011000
00111000
01011100
01100110
00111000
00100100
00100100
DLG SPR_7
POS 5 4,13

SPR z
00111111
01110001
10101010
10110010
10101011
10111010
01000000
00111111
>
00111111
01000000
10000000
10000000
10000000
10000000
01000000
00111111
POS 5 5,9

SPR 1a
00110000
00001000
00011000
00011100
00011100
00111100
00101000
00101000
>
00110000
00001000
00011000
00011100
00011100
00111000
00101000
00101000
DLG SPR_b
POS 7 13,12

SPR 1b
00011000
00011000
00110100
00111100
00110000
00111000
00101000
00101000
>
00011000
00011010
00110000
00111110
00110000
00111000
00101000
00101000
DLG SPR_c
POS 8 3,8

SPR 1c
00011000
00011000
00110100
00111100
00110000
00111000
00101000
00101000
>
00011000
00011010
00110000
00111110
00110000
00111000
00101000
00101000
POS 9 3,8

SPR 1d
00011000
00011000
00111000
01011100
01100100
00111000
00100100
00100100
>
00011000
00011000
00111000
01011100
01100110
00111000
00100100
00100100
POS a 4,13

SPR 1e
01100000
01110000
11111000
00011000
00111000
00111000
00101000
00101000
>
00000000
01110000
11111000
00011000
00111000
00111000
00101000
00101000
POS a 12,10

SPR 1f
00000000
00000000
00000000
01011000
10111000
01000100
01111100
00111100
>
00000000
00000000
00000000
00011000
10011000
11100100
01111100
00111100
POS a 3,6

SPR 1g
00000000
00000000
00000000
00011000
00011000
00000000
00111110
01111101
>
00000000
00000000
00000000
00011000
00011000
00000000
00111110
01111110
POS a 6,6

SPR 1h
00110000
00001000
00011000
00011100
00011100
00111100
00101000
00101000
POS a 10,11

SPR 1i
01001100
01001100
00111110
00001101
00001101
00011100
00010100
00010100
>
10011000
01011000
00111110
00001101
00001101
00011100
00010100
00010100
POS a 8,8

SPR 1j
00000000
01011000
10011000
01111100
00111110
00111110
00100100
00100100
>
00000000
00111000
01011000
01111100
00111110
00111110
00100100
00100100
POS a 5,9

SPR 1k
01001100
01001100
00111010
00011110
00110000
00110000
00101000
00101000
>
00011000
00011000
01110000
10111100
10011010
00011000
00010100
00010100
POS a 2,11

SPR 1l
00011000
00011000
00110010
01111010
01110000
00111000
00101000
00101000
>
00011000
00011010
00110001
01111100
01110000
00111000
00101000
00101000
POS a 8,11

SPR 1m
01011001
01011001
00111110
00001100
00001100
00011100
00010100
00010100
>
00001100
00001100
01111110
00001101
00001101
00011100
00010100
00010100
POS a 9,10

SPR 1n
01100000
01100000
00111110
01110000
01110000
01111000
00101000
00101000
>
01100000
01100100
00111100
01110000
01110000
01111000
00101000
00101000
POS a 1,7

SPR 1o
00000000
00110000
00111000
00001100
00101110
00011110
00010100
00010100
>
00011000
00011000
01101110
00001101
00001101
00010100
00011011
00000000
POS a 4,8

SPR 1p
00011000
00011000
00110010
01111010
01110000
00111000
00101000
00101000
>
00011000
00011010
00110001
01111100
01110000
00111000
00101000
00101000
POS b 8,12

SPR 1q
01011001
01011001
00111110
00001100
00001100
00011100
00010100
00010100
>
00001100
00001100
01111110
00001101
00001101
00011100
00010100
00010100
POS b 9,13

SPR 1r
00011000
00011000
00000000
00110000
01101100
01111100
00101000
00101000
POS b 8,14

SPR 1s
00000000
00000000
00000000
00000000
00010000
00000000
00000000
00000000
>
00000010
10000100
00000000
00000000
00000001
01000000
10000100
00000010
POS b 1,1

SPR 1t
00000010
10000100
00000000
00000000
00000001
01000000
10000100
00000010
>
00000000
00000000
00000000
00000000
00010000
00000000
00010000
00000000
POS b 14,2

SPR 1u
00011000
00011000
00000000
00110000
01101100
01111100
00101000
00101000
POS c 8,14

SPR 1v
00000000
00000000
00001010
00001010
00001110
00011110
01111100
10110100
>
00000000
00000000
00001010
00001010
00001110
00011110
11111100
00110100
DLG SPR_e
POS g 2,12

SPR 1w
00110000
00001000
00011000
00011100
00011100
00111100
00101000
00101000
POS g 13,12

SPR 1x
00011000
00011000
00000000
00110000
01101100
01111100
00101000
00101000
>
00011000
00011000
00000000
00110000
01110100
01111100
00101000
00101000
DLG SPR_d
POS g 12,12

SPR 1y
00000000
00000000
00000000
00000000
00100000
00000000
00100000
00000000
POS h 12,5

SPR 1z
00000000
00000000
00000000
00000000
00000100
00100000
00100100
00000000
POS h 3,4

SPR 2a
00000000
00000000
00000000
00011000
00011000
00000100
00111100
01011000
POS l 8,6

SPR 2b
00110000
00001000
00011000
00011100
00011100
00111000
00101000
00101000
>
00110000
00001000
00011000
00011100
00011100
00111100
00101000
00101000
POS o 13,12

SPR 2c
00011000
00011000
00000000
00110000
01101100
01111100
00101000
00101000
>
00011000
00011000
00000000
00110000
01110100
01111100
00101000
00101000
POS o 12,12

SPR 2d
00011000
00011000
00110000
00111000
00110100
00111100
00000100
00000100
DLG SPR_i
POS o 10,12

SPR 2e
00000000
00000000
00001010
00001010
00001110
00001110
11111100
00111100
>
00000000
00000000
00001010
00001010
00001110
00001110
01111100
10111100
DLG SPR_h
POS o 2,12

SPR 2f
00011000
00011000
00110000
00111000
00110100
00111100
00000100
00000100
DLG SPR_j
POS p 10,12

SPR 2g
00000000
00000000
00001010
00001010
00001110
00001110
01111100
10111100
>
00000000
00000000
00001010
00001010
00001110
00001110
00111100
11111100
DLG SPR_k
POS p 2,12

SPR 2h
00000000
00000000
00000000
00011000
00011000
00000100
00111100
01011000
POS s 8,6

SPR 2i
00000000
00000000
00000000
00000000
00000000
00000000
00000000
00000000
DLG SPR_l
POS q 0,11

SPR 2j
00110000
00001000
00011000
00011100
00011100
00111000
00101000
00101000
>
00110000
00001000
00011000
00011100
00011100
00111100
00101000
00101000
DLG SPR_m
POS q 10,13

SPR 2k
00110000
00001000
00011000
00011100
00011100
00111000
00101000
00101000
>
00110000
00001000
00011000
00011100
00011100
00111100
00101000
00101000
POS r 10,13

SPR 2l
00011000
00011000
00000000
00110000
01101100
01111100
00101000
00101000
>
00011000
00011000
00000000
00110000
01110100
01111100
00101000
00101000
DLG SPR_n
POS r 7,9

SPR 2m
00000000
00011000
00011100
00001110
00011110
00011110
00010100
00010100
>
00000000
00011000
01011100
00001110
00011110
00011110
00010100
00010100
DLG SPR_o
POS i 12,13

SPR 2n
00000000
00011000
00011100
00001110
00011110
00011110
00010100
00010100
>
00000000
00011000
01011100
00001110
00011110
00011110
00010100
00010100
POS j 12,13

SPR 2o
00000000
00011000
00011100
00001110
00011110
00011110
00010100
00010100
>
00000000
00011000
01011100
00001110
00011110
00011110
00010100
00010100
POS m 12,13

SPR 2p
00000000
00011000
00011100
00001110
00011110
00011110
00010100
00010100
>
00000000
00011000
01011100
00001110
00011110
00011110
00010100
00010100
DLG SPR_p
POS n 12,13

SPR 2q
00000000
00000000
00001010
00001010
00001110
00001110
11111100
00111100
>
00000000
00000000
00001010
00001010
00001110
00001110
01111100
10111100
DLG SPR_q
POS s 11,3

SPR 2r
00011000
00011000
00110100
00111100
00110000
00111000
00101000
00101000
>
00011000
00011010
00110000
00111110
00110000
00111000
00101000
00101000
POS e 3,8

SPR 2s
00011000
00011000
00110100
00111100
00110000
00111000
00101000
00101000
>
00011000
00011010
00110000
00111110
00110000
00111000
00101000
00101000
DLG SPR_r
POS f 3,8

SPR 2t
01100000
01110000
11111000
00011000
00111000
00111000
00101000
00101000
>
00000000
01110000
11111000
00011000
00111000
00111000
00101000
00101000
POS t 12,10

SPR 2u
00011000
00011000
00111000
01011100
01100100
00111000
00100100
00100100
>
00011000
00011000
00111000
01011100
01100110
00111000
00100100
00100100
POS t 4,13

SPR 2v
00000000
00000000
00000000
01011000
10111000
01000100
01111100
00111100
>
00000000
00000000
00000000
00011000
10011000
11100100
01111100
00111100
POS t 7,6

ITM 0
00000000
00000000
00000000
00111100
01100100
00100100
00011000
00000000
NAME tea
DLG ITM_0

DLG ITM_0
You found a nice warm cup of tea

DLG SPR_0
"""
{sequence
  - On a night like this.
    
    You should really look out the window.
  - Look out the window.
}
"""

DLG SPR_1
"""
{sequence
  - Do they celebrate the death of old sins?
    Or the birth of new ones?
  - What if everything just stays the same?
}
"""

DLG SPR_2
"""
{sequence
  - Sorry.
    
    I'm usually not like this...
  - No, not like this.
}
"""

DLG SPR_4
"""
{sequence
  - How far away do plan to run?
    
    I'm not here.
  - I'm not here.
}
"""

DLG SPR_5
There is no time left.

DLG SPR_6
"""
{sequence
  - This...
    
    This isn't me.
  - Soon I'll be new.
}
"""

DLG SPR_7
"""
{sequence
  - Are you ready to leave?
    
    In the end...
  - It's the only thing you can do.
}
"""

DLG SPR_3
"""
{sequence
  - Come inside.
    
    I could have sworn you never left.
  - Come inside.
}
"""

DLG SPR_8
"""
{sequence
  - Are you afraid of the new year?
    
    Or is it the old one you fear?
  - The past is already gone.
}
"""

DLG SPR_9
"""
{sequence
  - I got lost... somewhere on the way.
    I don't know who I am anymore.
  - Do you know?
}
"""

DLG SPR_a
"""
{sequence
  - These old places.
    
    All you can do is watch.
  - They are only memories.
}
"""

DLG SPR_b
"""
{sequence
  - I'm afraid of the future.
    
    I don't want to become lost again.
    Do you...
  - Do you know who I am?
}
"""

DLG SPR_c
"""
{sequence
  - You look familiar.
    
    And yet...
    
    Different.
  - There's only bad memories up there.
}
"""

DLG SPR_d
"""
{sequence
  - I lost friends and family... on my way here.
    It hurt.
    
    Too much.
    
    I'm afraid of the loss that the new year will bring.
  - I'm afraid.
}
"""

DLG SPR_e
"""
{sequence
  - All you hear are echoes.
    
    Bouncing against old memories.
  - The voices are already gone.
}
"""

DLG SPR_f
"""
{sequence
  - I choose to leave them behind.
    
    It hurt.
    
    But would continue to hurt more if I didn't give up.
  - Now I'm alone.
}
"""

DLG SPR_g
"""
{sequence
  - Does the new year change people?
    
    Or is it the other way around?
  - Can you be anything other than yourself?
}
"""

DLG SPR_h
"""
{sequence
  - Sometimes there is nothing you can do.
    Just...
  - Try to live.
}
"""

DLG SPR_i
"""
{sequence
  - I've spent so much time sitting there...
    Crying.
    
    At the hospital.
    
    Not being able to do anything.
    
    I'm afraid of sitting another year there.
  - There is nothing I can do.
}
"""

DLG SPR_j
"""
{sequence
  - I'm afraid of facing another year like this one.
    Just sitting there.
    
    But...
    
    I'm more afraid of giving up.
  - Are we ready to go?
}
"""

DLG SPR_k
"""
{sequence
  - The Tram has stopped.
    
    There's no more stations left.
    
    Just you and yourself.
    
    Are you still afraid?
  - There's only one way you can go.
}
"""

DLG SPR_m
"""
{sequence
  - I'm not something static, or defined.
    I'm always changing.
    
    That is who I am.
    
    I'm not afraid anymore.
  - I know what I am.
}
"""

DLG SPR_n
"""
{sequence
  - I've lost friends and family.
    
    Some I'll miss, some I'll replace with other friends.
    But everything changes, in the end.
    If I keep holding on, I'll only bleed.
  - I'm never completely alone.
}
"""

DLG SPR_o
"""
{sequence
  - I've never seen you here before.
    
    Only sick people come here.
  - Not everything gets new tonight.
}
"""

DLG SPR_p
"""
{sequence
  - You're doing the right thing.
    
    Yes.
    
    I wouldn't wanna celebrate here either.
  - Some doesn't have a choice, I guess.
}
"""

DLG SPR_q
"""
{sequence
  - You can only regret the past.
    
    Never change it.
    
    Only repeat it...
    
    Or try to do differently.
  - The past is already gone.
}
"""

DLG SPR_r
"""
{sequence
  - I lied.
    
    There's no one there.
  - Though.
    
    You remind me of someone I used to know.
  - A friend.
}
"""

DLG SPR_s
"""
{sequence
  - The new year starts soon.
    
    It's usually more people here on a night like this.
  - But you're always here.
}
"""

DLG SPR_t
"""
{sequence
  - The new year starts soon.
    
    It's usually more people here on a night like this.
  - But you're always here.
}
"""

DLG SPR_l
"""
{sequence
  - There is only one way forward.
    
    No matter how afraid you are.
  - There is only one way forward.
}
"""

END 0


END undefined
Sometimes the only thing you can do is move forward.

VAR a
42


