In the middle of the night

# BITSY VERSION 3.5

! ROOM_FORMAT 1

PAL 0
26,24,81
148,121,247
255,255,255

ROOM 0
0,^,0,*,0,^,^,^,0,0,*,0,0,*,*,0
0,^,.,0,.,^,^,^,.,.,0,0,*,0,0,.
.,|,^,.,^,|,|,^,^,^,w,w,w,w,w,^
^,0,^,^,|,0,0,|,|,|,w,w,w,w,.,^
^,.,^,^,0,0,=,0,0,0,0,0,0,0,^,^
^,^,^,^,0,.,0,0,.,0,0,0,0,0,^,^
^,^,^,^,.,^,0,.,^,0,=,0,0,0,^,^
^,^,^,^,^,^,.,^,^,0,0,0,.,0,^,^
|,^,^,|,|,|,^,|,|,0,0,0,^,0,^,|
0,^,|,0,0,0,|,0,0,0,0,0,^,0,^,=
.,^,\\,0,0,/,0,=,0,0,0,0,|,0,^,0
^,^,0,0,0,0,0,0,0,0,=,0,0,0,|,.
^,^,0,0,0,0,0,0,=,0,0,.,0,0,0,^
^,|,0,0,0,.,0,0,0,0,.,^,.,.,0,^
^,.,.,.,.,^,.,.,.,.,^,^,^,^,.,^
^,^,^,^,^,^,^,^,^,^,^,^,^,^,^,^
WAL ^,.

TIL *
00000000
00100000
00100000
11011000
00100000
00100000
00000010
00000000

TIL ^
00111100
00111100
01111110
01111110
01111110
11111111
11111111
11111111

TIL .
00011000
00011000
00111100
00111100
00111100
01111110
01111110
01111110

TIL |
00011000
00011000
00011000
00011000
00011000
00011000
00000000
00000000

TIL Y
00011000
00011000
00011000
00011000
00000000
00000000
00000000
00000000

TIL =
00000000
00000100
00001000
01001000
00100010
00100100
00000100
00000000

TIL /
00000000
00000000
00000000
00000000
00000000
00100000
11100000
00100000

TIL \\
00000000
00000000
00000000
00000000
00000000
00000100
00000111
00000100

TIL w
00000000
00000000
10011001
01100110
00000000
00000000
11001100
00110011

SPR T
00011111
00011000
00111100
00111100
01101110
01101110
11101111
11101111
POS 0 3,10

SPR t
11111000
00000100
00000100
00000010
00000010
00000001
00000001
11111111
POS 0 4,10

SPR A
00111100
01111110
00101110
00100110
00011100
00111110
01010101
00010100
POS 0 2,11

SPR B
00011000
00111100
00111100
01111110
01111110
01111110
00011000
00011000
POS 0 14,12

SPR P
00011000
00111100
00111100
01111110
01111110
01111110
00011000
00011000
POS 0 5,3

SPR D
00000000
00000000
00000000
00011000
01111110
00100100
00100100
00111100
POS 0 6,11

SPR H
00000011
00011100
00001000
00001000
00111100
01011110
01011110
00111100
POS 0 11,9

SPR l
00000000
00000000
10011001
01100110
00000000
00000000
11001100
00110011
POS 0 10,3

SPR a
00000000
00000000
10011001
01100110
00000000
00000000
11001100
00110011
POS 0 11,3

SPR k
00000000
00000000
10011001
01100110
00000000
00000000
11001100
00110011
POS 0 12,3

SPR e
00000000
00000000
10011001
01100110
00000000
00000000
11001100
00110011
POS 0 13,3

SPR M
00000000
01000100
00000100
00011011
00000100
10000100
00000000
00010000
POS 0 3,0

SPR I
00000000
00000000
00000000
00100000
00000000
00000000
00000010
00000000
POS 0 10,0

SPR L
00000000
00000001
01000000
00000100
00000000
00000000
00000000
00000000
POS 0 12,1

SPR K
00000000
00000000
00000000
01000000
00000000
00000000
00000010
00000000
POS 0 13,0

SPR Y
00000000
00000001
00100000
00100000
11011000
00100000
00100000
00000000
POS 0 14,0

DLG B
*rustle* Oh shit a bear!       ...         ..        .         No, it's a squirrel. Still, better try somewhere else.

DLG H
It took us an hour to hang our pack up there.

DLG D
Beyond the lamplight all is darkness, and quiet.

DLG P
...                             (Relief at last.)              ...                             (Please look away for a moment! It's rude to watch, even in videogames.)

DLG T
Our tent looks cozy, but... I really need to pee.

DLG t
Our tent looks cozy, but... I really need to pee.

DLG l
Reflected in the lake, between tall mossy trees, the Milky Way. The stars are brighter out here.

DLG a
Reflected in the lake, between tall mossy trees, the Milky Way. The stars are brighter out here.

DLG k
Reflected in the lake, between tall mossy trees, the Milky Way. The stars are brighter out here.

DLG e
Reflected in the lake, between tall mossy trees, the Milky Way. The stars are brighter out here.

