
A forest fire has started in the distance, quickly making its way towards you...

# BITSY VERSION 4.8

! ROOM_FORMAT 1

PAL 0
NAME palettte0
102,51,0
204,102,0
255,204,153

PAL 1
79,40,0
157,94,20
231,194,148

PAL 2
50,29,5
129,65,1
182,153,116

PAL 3
23,12,0
94,56,13
163,138,105

ROOM 0
0,e,0,0,e,d,d,0,0,b,0,0,b,q,0,i
0,0,e,0,0,0,d,0,0,0,b,q,0,0,0,h
0,0,0,0,e,d,b,0,q,0,0,0,0,0,f,g
0,c,0,0,0,d,0,0,0,0,0,0,0,0,0,0
0,0,0,0,0,0,0,0,0,0,0,0,b,q,0,b
0,0,0,e,0,d,0,0,0,0,b,0,0,0,b,0
e,0,0,0,0,d,0,0,0,0,0,0,0,q,0,q
0,0,0,0,0,d,0,0,0,0,0,0,0,p,k,j
0,0,0,0,e,d,0,0,0,0,0,0,0,0,p,k
e,0,0,e,0,0,0,0,0,0,b,0,0,b,0,0
0,0,c,0,0,d,0,0,0,0,q,b,0,0,q,b
0,0,0,0,0,d,0,0,0,0,0,0,q,b,0,b
0,e,0,e,0,d,0,0,0,0,0,0,0,0,q,n
0,0,0,0,0,0,0,0,b,0,0,0,0,0,o,o
0,c,0,0,0,d,b,0,0,0,q,n,0,0,0,m
e,0,0,0,e,0,d,0,0,b,n,n,l,0,0,0
NAME L8
ITM 0 7,7
ITM 0 7,5
ITM 0 7,4
ITM 0 7,3
ITM 0 7,8
ITM 0 7,9
ITM 0 7,10
ITM 0 7,11
ITM 0 7,12
ITM 0 7,13
ITM 0 7,14
ITM 0 7,15
ITM 0 7,2
ITM 0 7,1
ITM 0 7,0
ITM 0 7,6
EXT 8,0 1 8,0
EXT 8,1 1 8,1
EXT 8,2 1 8,2
EXT 8,3 1 8,3
EXT 8,4 1 8,4
EXT 8,5 1 8,5
EXT 8,6 1 8,6
EXT 8,7 1 8,7
EXT 8,8 1 8,8
EXT 8,9 1 8,9
EXT 8,10 1 8,10
EXT 8,11 1 8,11
EXT 8,12 1 8,12
EXT 8,14 1 8,14
EXT 8,15 1 8,15
PAL 0

ROOM 1
0,e,0,0,e,d,d,e,0,b,0,0,b,q,0,i
0,0,e,0,0,0,d,d,0,0,b,q,0,0,0,h
0,0,0,0,e,d,c,0,q,q,0,0,0,0,f,g
0,c,0,0,0,d,0,d,0,0,0,0,0,0,0,0
0,0,0,0,0,0,0,d,0,0,0,0,b,q,0,b
0,0,0,e,0,d,e,0,0,0,b,0,0,0,b,0
e,0,0,0,0,d,0,d,0,0,0,0,0,q,0,q
0,0,0,0,0,d,0,d,0,0,0,0,0,p,k,j
0,0,0,0,e,d,0,d,0,0,0,0,0,0,p,k
e,0,0,e,0,0,0,e,0,0,b,0,0,b,0,0
0,0,c,0,0,d,0,d,0,0,q,b,0,0,q,b
0,0,0,0,0,d,e,0,0,0,0,0,q,b,0,b
0,e,0,e,0,d,0,d,0,0,0,0,0,0,q,n
0,0,0,0,0,0,0,d,b,0,0,0,0,0,o,o
0,c,0,0,0,d,c,d,0,0,q,n,0,0,0,m
e,0,0,0,e,0,d,d,0,b,n,n,l,0,0,0
NAME L9
ITM 2 9,2
ITM 2 9,3
ITM 2 9,4
ITM 2 9,5
ITM 2 9,6
ITM 2 9,7
ITM 2 9,8
ITM 2 9,9
ITM 2 9,10
ITM 2 9,11
ITM 2 9,12
ITM 2 9,14
ITM 2 9,13
ITM 2 9,1
EXT 8,0 0 0,0
EXT 10,2 2 10,2
EXT 10,3 2 10,3
EXT 10,4 2 10,4
EXT 10,6 2 10,6
EXT 10,7 2 10,7
EXT 10,8 2 10,8
EXT 10,10 2 10,10
EXT 10,11 2 10,11
EXT 10,12 2 10,12
EXT 10,13 2 10,13
EXT 10,14 2 10,14
PAL 1

ROOM 2
0,e,0,0,e,d,d,e,0,c,0,0,b,q,0,i
0,0,e,0,0,0,d,d,0,d,b,q,0,0,0,h
0,0,0,0,e,d,c,0,q,q,0,0,0,0,f,g
0,c,0,0,0,d,0,d,0,d,0,0,0,0,0,0
0,0,0,0,0,0,0,d,0,0,0,0,b,q,0,b
0,0,0,e,0,d,e,0,0,d,b,0,0,0,b,0
e,0,0,0,0,d,0,d,0,d,0,0,0,q,0,q
0,0,0,0,0,d,0,d,0,d,0,0,0,p,k,j
0,0,0,0,e,d,0,d,0,0,0,0,0,0,p,k
e,0,0,e,0,0,0,e,0,d,b,0,0,b,0,0
0,0,c,0,0,d,0,d,0,d,q,b,0,0,q,b
0,0,0,0,0,d,e,0,0,d,0,0,q,b,0,b
0,e,0,e,0,d,0,d,0,0,0,0,0,0,q,n
0,0,0,0,0,0,0,d,c,d,0,0,0,0,o,o
0,c,0,0,0,d,c,d,0,d,q,n,0,0,0,m
e,0,0,0,e,0,d,d,0,c,n,n,l,0,0,0
NAME L10
ITM 3 11,0
ITM 3 11,2
ITM 3 11,3
ITM 3 11,4
ITM 3 11,5
ITM 3 11,6
ITM 3 11,7
ITM 3 11,8
ITM 3 11,9
ITM 3 11,1
ITM 3 11,11
ITM 3 11,12
ITM 3 11,13
EXT 8,0 0 0,0
EXT 12,1 3 12,1
EXT 12,2 3 12,2
EXT 12,3 3 12,3
EXT 12,5 3 12,5
EXT 12,6 3 12,6
EXT 12,7 3 12,7
EXT 12,8 3 12,8
EXT 12,9 3 12,9
EXT 12,10 3 12,10
EXT 12,11 3 12,11
EXT 12,12 3 12,12
EXT 12,13 3 12,13
EXT 12,14 3 12,14
PAL 2

ROOM 3
0,e,0,0,e,d,d,e,0,c,0,d,b,q,0,i
0,0,e,0,0,0,d,d,0,0,c,d,0,0,0,h
0,0,0,0,e,d,c,0,q,q,0,0,0,0,f,g
0,c,0,0,0,d,0,d,0,0,0,0,0,0,0,0
0,0,0,0,0,0,0,d,e,0,0,d,b,q,0,b
0,0,0,e,0,d,e,0,0,0,c,d,0,0,b,0
e,0,0,0,0,d,0,d,0,0,0,d,0,q,0,q
0,0,0,0,0,d,e,d,0,e,0,d,0,p,k,j
0,0,0,0,e,d,0,d,0,0,0,d,0,0,p,k
e,0,0,e,0,0,0,e,0,0,c,0,0,b,0,0
0,0,c,0,0,d,0,d,0,0,q,b,0,0,q,b
0,0,0,0,0,d,e,0,e,0,0,d,q,b,0,b
0,e,0,e,0,d,0,d,0,0,0,d,0,0,q,n
0,0,0,0,0,0,0,d,c,0,0,0,0,0,o,o
0,c,0,0,0,d,c,d,e,0,q,n,0,0,0,m
e,0,0,0,e,0,d,d,0,c,n,n,l,0,0,0
NAME L11
ITM 4 13,0
ITM 4 13,1
ITM 4 13,2
ITM 4 13,3
ITM 5 13,5
ITM 5 13,6
ITM 5 13,7
ITM 5 13,8
ITM 6 13,12
ITM 6 13,13
ITM 6 13,14
ITM 6 13,15
EXT 8,0 0 0,0
EXT 13,15 4 0,0
EXT 14,15 4 1,0
EXT 15,15 4 2,0
EXT 15,1 5 3,7
EXT 15,7 8 0,7
EXT 15,8 8 0,8
PAL 3

ROOM 4
0,0,0,o,0,b,0,0,0,0,b,0,0,0,b,0
o,0,w,0,o,0,0,b,0,0,0,0,b,0,q,0
0,o,0,0,0,o,0,0,q,b,0,0,0,0,0,b
0,o,0,w,w,0,o,o,0,0,0,q,b,0,0,0
b,0,o,0,0,0,0,0,o,o,o,o,o,o,o,o
0,0,o,0,0,w,0,0,0,0,0,0,0,0,0,0
0,b,o,0,v,0,0,0,w,0,w,0,0,w,0,0
q,0,o,0,0,0,v,0,0,0,0,v,0,0,0,0
0,o,0,0,0,w,0,0,0,w,0,w,0,0,w,0
o,0,0,v,0,0,0,0,v,0,0,0,0,w,0,0
0,0,w,0,0,v,0,0,0,w,0,0,w,0,0,v
0,0,0,0,0,0,0,w,0,0,0,0,0,0,0,0
s,r,r,r,r,r,r,r,r,r,r,r,r,r,r,t
0,0,0,0,0,0,0,0,0,0,0,0,0,0,0,0
0,0,0,u,0,0,0,0,0,u,0,0,0,0,0,0
u,0,0,0,0,0,u,0,0,0,0,0,0,u,0,0
NAME beach a
ITM 7 3,3
ITM 7 2,3
ITM 7 4,3
ITM 7 5,3
EXT 3,4 6 3,4
EXT 4,4 6 4,4
EXT 5,4 6 5,4
PAL 0

ROOM 5
0,0,0,0,0,0,0,0,0,0,0,0,0,0,0,0
0,0,0,0,0,0,0,0,0,0,0,0,0,0,0,0
0,0,0,0,0,0,0,0,0,0,0,0,0,0,0,0
0,0,0,15,y,y,y,y,y,y,y,y,12,0,0,0
0,0,0,10,0,0,0,0,0,0,0,0,11,0,0,0
0,0,d,10,0,16,17,0,0,16,17,0,11,0,0,0
0,0,d,10,0,18,18,0,0,18,18,0,11,0,0,0
0,0,d,0,0,0,0,0,0,0,0,0,11,0,0,0
0,0,d,10,0,0,0,0,0,0,0,0,11,0,0,0
0,0,0,10,0,16,17,0,0,0,0,0,11,0,0,0
0,0,0,10,0,18,18,0,0,0,1b,1c,11,0,0,0
0,0,0,10,0,0,0,0,0,0,1a,0,11,0,0,0
0,0,0,14,z,z,z,z,z,z,z,z,13,0,0,0
0,0,0,0,0,0,0,0,0,0,0,0,0,0,0,0
0,0,0,0,0,0,0,0,0,0,0,0,0,0,0,0
0,0,0,0,0,0,0,0,0,0,0,0,0,0,0,0
NAME pavillon
ITM 9 4,5
ITM 9 4,10
ITM 9 4,7
ITM 9 6,7
EXT 7,4 7 7,4
EXT 7,5 7 7,5
EXT 7,6 7 7,6
EXT 7,7 7 7,7
EXT 7,8 7 7,8
EXT 7,9 7 7,9
EXT 7,10 7 7,10
EXT 7,11 7 7,11
PAL 0

ROOM 6
0,0,0,o,0,c,0,e,0,0,c,0,0,0,c,0
o,0,w,0,o,0,e,c,0,0,0,e,c,0,q,0
0,o,0,0,0,o,0,0,q,c,e,0,0,0,0,c
0,o,0,w,w,0,o,o,e,0,0,q,c,0,e,0
c,0,o,0,0,0,0,0,o,o,o,o,o,o,o,o
0,e,o,0,0,w,0,0,0,0,0,0,0,0,0,0
e,c,o,0,v,0,0,0,w,0,w,0,0,w,0,0
q,0,o,0,0,0,v,0,0,0,0,v,0,0,0,0
0,o,0,0,0,w,0,0,0,w,0,w,0,0,w,0
o,0,0,v,0,0,0,0,v,0,0,0,0,w,0,0
0,0,w,0,0,v,0,0,0,w,0,0,w,0,0,v
0,0,0,0,0,0,0,w,0,0,0,0,0,0,0,0
s,r,r,r,r,r,r,r,r,r,r,r,r,r,r,t
0,0,0,0,0,0,0,0,0,0,0,0,0,0,0,0
0,0,0,u,0,0,0,0,0,u,0,0,0,0,0,0
u,0,0,0,0,0,u,0,0,0,0,0,0,u,0,0
NAME beach b
ITM 8 5,6
ITM 8 11,6
ITM 8 8,8
ITM 8 7,10
ITM 8 3,9
ITM 8 5,9
ITM 8 12,8
ITM 8 14,9
END undefined 10,10
PAL 1

ROOM 7
0,0,0,0,0,0,0,0,0,0,0,0,0,0,0,0
0,0,0,0,0,0,0,0,0,0,0,0,0,0,0,0
0,0,0,0,0,0,0,0,0,0,0,0,0,0,0,0
0,0,0,15,y,y,y,y,y,y,y,y,12,0,0,0
0,0,0,10,0,0,0,0,0,0,0,0,11,0,0,0
0,0,d,10,0,16,17,0,0,16,17,0,11,0,0,0
0,0,d,10,0,18,18,0,0,18,18,0,11,0,0,0
0,0,d,0,0,0,0,0,0,0,0,0,11,0,0,0
0,0,d,10,0,0,0,0,0,0,0,0,11,0,0,0
0,0,0,10,0,16,17,0,0,0,0,0,11,0,0,0
0,0,0,10,0,18,18,0,0,0,1b,1c,11,0,0,0
0,0,0,10,0,0,0,0,0,0,1a,0,11,0,0,0
0,0,0,14,z,z,z,z,z,z,z,z,13,0,0,0
0,0,0,0,0,0,0,0,0,0,0,0,0,0,0,0
0,0,0,0,0,0,0,0,0,0,0,0,0,0,0,0
0,0,0,0,0,0,0,0,0,0,0,0,0,0,0,0
NAME pavillon b
ITM a 10,7
ITM a 5,7
ITM a 8,5
ITM a 4,10
ITM a 7,9
ITM a 8,8
ITM a 7,11
ITM a 7,5
END 0 3,7
PAL 1

ROOM 8
0,0,0,0,0,0,0,q,0,0,0,0,0,q,b,0
0,b,0,q,b,q,0,0,b,0,0,b,0,0,0,0
0,0,0,0,0,0,b,0,0,0,q,0,q,0,b,0
0,q,0,q,0,0,1d,1d,1d,1d,1d,1d,1d,1d,1d,1d
0,0,b,0,b,1f,0,0,1k,1k,0,0,1k,1k,0,0
0,b,0,0,1f,0,0,0,0,0,0,0,0,0,0,0
1d,1d,1d,1f,1e,1h,0,0,0,0,0,0,0,0,0,0
k,k,k,k,1e,1h,1i,0,0,1i,0,0,0,1i,0,0
j,j,j,j,1e,1h,0,0,1i,0,0,0,0,0,0,1i
1d,1d,1d,j,1e,1h,0,0,0,0,0,0,1i,0,0,0
0,0,0,1g,1e,1h,0,1i,0,0,1i,0,0,0,1i,0
b,0,0,0,1g,0,0,0,0,0,0,0,0,0,0,0
0,0,b,0,0,1g,0,0,1j,1j,0,0,1j,1j,0,0
0,q,0,b,0,0,1g,1d,1d,1d,1d,1d,1d,1d,1d,1d
q,0,q,0,0,b,0,0,0,0,0,0,q,0,0,0
0,b,0,q,0,0,q,0,b,0,b,0,0,b,0,q
NAME car a
ITM b 5,8
ITM b 1,7
ITM b 3,8
ITM b 5,7
EXT 6,5 9 6,5
EXT 6,6 9 6,6
EXT 6,7 9 6,7
EXT 6,8 9 6,8
EXT 6,9 9 6,9
EXT 6,10 9 6,10
EXT 6,11 9 6,11
EXT 6,12 9 6,12
PAL 0

ROOM 9
0,0,e,0,0,0,0,e,0,0,e,0,0,e,c,0
0,c,0,e,c,q,0,0,c,0,0,c,0,0,0,0
0,0,0,0,0,0,c,0,0,0,q,0,q,0,b,0
0,e,0,e,0,0,1d,1d,1d,1d,1d,1d,1d,1d,1d,1d
0,0,c,0,b,1f,0,0,1k,1k,0,0,1k,1k,0,0
0,b,0,0,1f,0,0,0,0,0,0,0,0,0,0,0
1d,1d,1d,1f,1e,1h,0,0,0,0,0,0,0,0,0,0
k,k,k,k,1e,1h,1i,0,0,1i,0,0,0,1i,0,0
j,j,j,j,1e,1h,0,0,1i,0,0,0,0,0,0,1i
1d,1d,1d,j,1e,1h,0,0,0,0,0,0,1i,0,0,0
0,0,0,1g,1e,1h,0,1i,0,0,1i,0,0,0,1i,0
b,0,0,0,1g,0,0,0,0,0,0,0,0,0,0,0
0,0,b,0,0,1g,0,0,1j,1j,0,0,1j,1j,0,0
0,0,0,c,0,0,1g,1d,1d,1d,1d,1d,1d,1d,1d,1d
e,0,e,0,0,c,0,0,0,0,0,0,e,0,0,0
0,c,0,e,0,0,e,0,c,0,c,0,0,c,0,e
NAME car b
ITM c 7,7
ITM c 9,5
ITM c 8,9
ITM c 10,7
ITM c 14,8
ITM c 11,9
ITM c 10,11
ITM c 13,10
END undefinee 11,5
PAL 1

ROOM a
0,0,0,0,0,0,0,q,0,b,0,0,b,q,0,0
0,b,0,b,0,q,d,0,0,0,b,q,0,0,0,1i
0,0,q,0,0,d,b,0,q,0,0,0,1i,0,1i,0
q,0,0,0,q,d,0,0,0,1i,0,1i,0,0,0,0
0,b,0,0,0,0,0,0,1i,0,0,0,b,q,0,b
0,0,0,0,0,d,0,0,0,0,b,0,0,0,b,0
0,0,0,0,1p,1r,1q,0,0,0,0,0,0,q,0,q
0,b,0,0,0,1m,0,0,0,1i,0,1i,0,0,0,0
0,0,0,0,1o,d,1n,0,0,0,0,0,1i,0,1i,0
0,q,0,0,0,1l,0,0,0,0,b,0,0,0,0,1i
0,0,0,0,0,0,0,0,0,0,q,b,0,0,q,0
0,b,0,0,b,d,0,q,0,0,0,0,q,b,0,b
0,0,0,0,0,d,0,0,0,0,0,0,0,0,q,0
0,q,0,b,0,0,0,0,b,0,0,0,0,0,0,0
b,0,q,0,q,d,b,0,0,0,q,0,0,b,0,q
0,q,0,0,0,0,d,0,0,b,0,0,0,0,0,0
NAME title
EXT 8,0 1 8,0
EXT 8,1 1 8,1
EXT 8,2 1 8,2
EXT 8,3 1 8,3
EXT 8,4 1 8,4
EXT 8,5 1 8,5
EXT 8,6 1 8,6
EXT 8,7 1 8,7
EXT 8,8 1 8,8
EXT 8,9 1 8,9
EXT 8,10 1 8,10
EXT 8,11 1 8,11
EXT 8,12 1 8,12
EXT 8,14 1 8,14
EXT 8,15 1 8,15
PAL 0

TIL 10
01010000
01000100
01010000
01000100
01010000
01000100
01010000
01000100
WAL true

TIL 11
00001010
00100010
00001010
00100010
00001010
00100010
00001010
00100010
WAL true

TIL 12
00000000
11111100
00000010
11111010
00001010
11101010
00101010
00101010
WAL true

TIL 13
00101010
00101010
11101010
00001010
11111010
00000010
11111100
00000000
WAL true

TIL 14
01010100
01010100
01010111
01010000
01011111
01000000
00111111
00000000
WAL true

TIL 15
00000000
00111111
01000000
01011111
01010000
01010111
01010100
01010100
WAL true

TIL 16
11111111
11111111
11111111
10110000
10100000
10100000
10100000
10000000
WAL true

TIL 17
11111111
11111111
11111111
00001101
00000101
00000101
00000101
00000001
WAL true

TIL 18
00000000
00000000
11111111
11111111
10100101
10100101
10000001
00000000

TIL 19
00000000
00000000
00000000
00000000
00000000
00000000
00000000
00000000

TIL a
00000000
01000010
00010000
00011000
00111100
01111110
00111100
00111000
>
01000010
00010000
00001000
00011100
00111100
00111110
00011110
00011100
NAME fire
WAL true

TIL b
00111000
01111110
01111110
01111000
00011000
00011000
00011000
01111110
NAME tree
WAL true

TIL c
00000000
00000000
01101001
00111110
00010000
00010000
00010000
00111100
NAME burnttree
WAL true

TIL d
00000000
00000000
00000000
00000000
00000000
00000000
00000000
00000000
NAME invisiblewall
WAL true

TIL e
00000000
00010000
00000100
00000000
01010000
00000010
00001000
00000000
NAME burntsoil
WAL true

TIL f
00000000
00000000
00000001
00000011
00000101
00001110
00011101
11111110
WAL true

TIL g
00111111
11011101
10111011
11011101
10111011
11011101
10111011
11011101
WAL true

TIL h
00111111
00101010
00101010
00111111
00101010
00111111
00101010
00101010

TIL i
00000000
00011111
00111111
01111111
01111111
00101010
00101010
00101010
WAL true

TIL j
00000000
00000000
00000000
01101100
00000000
00110110
00000000
00000000

TIL k
00000000
00000000
01101100
00000000
00110110
00000000
00000000
00000000

TIL l
00000000
00000000
00000000
00000000
00100000
00111100
00111100
00000000
WAL true

TIL m
00000000
00000000
00000000
00000000
00111100
00111100
00000100
00000000
WAL true

TIL n
00000000
00000000
00000000
00000000
00111000
00111100
00011100
00000000
WAL true

TIL o
00000000
00000000
00000000
00000000
00111000
00111100
00011100
00000000
WAL true

TIL p
00000000
00000000
00000000
00101100
00000000
00010110
00000000
00000000

TIL q
00000000
00000000
00000000
00000000
00000000
00000000
00010000
00011000

TIL r
00000000
00000000
00000000
10000001
01110010
00001100
00000000
00000000
WAL true

TIL s
10000000
01100000
00111100
00000111
00000000
00000000
00000000
00000000
WAL true

TIL t
00000001
00000110
00011100
11110000
00000000
00000000
00000000
00000000
WAL true

TIL u
00000000
00000000
01010000
00100000
00000000
00001010
00000100
00000000
>
00000000
00000000
00101000
00010000
00000000
00010100
00001000
00000000

TIL v
00000000
00000001
00000000
00000000
00000000
00100000
00000000
00000000

TIL w
00000000
10000000
00000000
00000000
00000000
00000000
00000001
00000000

TIL x
00000000
00000000
00000000
00000000
00000000
00000000
00000000
00000000

TIL y
00000000
11111111
00000000
10101010
00000000
01010101
00000000
00000000
WAL true

TIL z
00000000
00000000
10101010
00000000
01010101
00000000
11111111
00000000
WAL true

TIL 1a
10001000
10100000
10001000
10100000
10001000
10100000
10001000
10100000
WAL true

TIL 1b
00000000
01111111
10000000
10101010
10000000
10100101
10001000
10100000
WAL true

TIL 1c
00000000
11111111
00000000
10101010
00000000
01010101
00000000
00000000
WAL true

TIL 1d
00000000
00000000
00000000
00000000
00011000
00111000
00111000
10111010
NAME post
WAL true

TIL 1e
00000000
00000000
00000000
01101000
00000000
00110100
00000000
00000000

TIL 1f
00000000
00000010
00010000
00111000
00111000
00111000
00000000
10000000
WAL true

TIL 1g
10000000
00000000
00010000
00111000
00111000
00111000
00000010
00000000
WAL true

TIL 1h
00000000
00000000
00100000
01110000
01110000
00100000
00000000
00000000
WAL false

TIL 1i
00000000
01000000
00000001
00000000
10000000
00000000
00000010
00000000

TIL 1j
00000000
00000000
00000000
00000000
00000000
00000000
01111110
11111111
WAL true

TIL 1k
00000000
00000000
00000000
00000000
00000000
00000000
11111111
01111110
WAL true

TIL 1l
10000001
00111100
00100100
00111100
00011000
00000000
00000000
00000000

TIL 1m
00000000
00000000
00000000
00011000
00111100
00100100
00111100
10000001

TIL 1n
10000000
00000000
01110000
01011000
01011000
01110000
00000000
10000000

TIL 1o
00000001
00000000
00001110
00011010
00011010
00001110
00000000
00000001

TIL 1p
00000000
00000000
00000000
00111111
01001111
01011111
01111111
00000000

TIL 1q
00000000
00000000
00000000
11111100
11111100
11111000
11110000
00000000

TIL 1r
00000000
00000000
00000000
11111111
11111111
11111111
11111111
00000000

SPR 10
01000010
00010000
00011000
00111100
00111100
01111110
00111100
00011000
>
00000100
00101000
00011000
00111000
01111100
00111110
00111100
00011000
POS 1 0,13

SPR 11
01000010
00010000
00011000
00111100
00111100
01111110
00111100
00011000
>
00000100
00101000
00011000
00111000
01111100
00111110
00111100
00011000
POS 1 1,11

SPR 12
01000010
00010000
00011000
00111100
00111100
01111110
00111100
00011000
>
00000100
00101000
00011000
00111000
01111100
00111110
00111100
00011000
POS 1 2,8

SPR 13
01000010
00010000
00011000
00111100
00111100
01111110
00111100
00011000
>
00000100
00101000
00011000
00111000
01111100
00111110
00111100
00011000
POS 1 4,6

SPR 14
01000010
00010000
00011000
00111100
00111100
01111110
00111100
00011000
>
00000100
00101000
00011000
00111000
01111100
00111110
00111100
00011000
POS 1 1,5

SPR 15
01000010
00010000
00011000
00111100
00111100
01111110
00111100
00011000
>
00000100
00101000
00011000
00111000
01111100
00111110
00111100
00011000
POS 1 3,3

SPR 16
01000010
00010000
00011000
00111100
00111100
01111110
00111100
00011000
>
00000100
00101000
00011000
00111000
01111100
00111110
00111100
00011000
POS 1 0,2

SPR 17
01000010
00010000
00011000
00111100
00111100
01111110
00111100
00011000
>
00000100
00101000
00011000
00111000
01111100
00111110
00111100
00011000
POS 2 2,15

SPR 18
01000010
00010000
00011000
00111100
00111100
01111110
00111100
00011000
>
00000100
00101000
00011000
00111000
01111100
00111110
00111100
00011000
POS 2 0,13

SPR 19
01000010
00010000
00011000
00111100
00111100
01111110
00111100
00011000
>
00000100
00101000
00011000
00111000
01111100
00111110
00111100
00011000
POS 2 3,13

SPR 20
01000010
00010000
00011000
00111100
00111100
01111110
00111100
00011000
>
00000100
00101000
00011000
00111000
01111100
00111110
00111100
00011000
POS 3 1,11

SPR 21
01000010
00010000
00011000
00111100
00111100
01111110
00111100
00011000
>
00000100
00101000
00011000
00111000
01111100
00111110
00111100
00011000
POS 3 0,13

SPR 22
01000010
00010000
00011000
00111100
00111100
01111110
00111100
00011000
>
00000100
00101000
00011000
00111000
01111100
00111110
00111100
00011000
POS 3 2,15

SPR 23
01000010
00010000
00011000
00111100
00111100
01111110
00111100
00011000
>
00000100
00101000
00011000
00111000
01111100
00111110
00111100
00011000
POS 3 5,13

SPR 24
01000010
00010000
00011000
00111100
00111100
01111110
00111100
00011000
>
00000100
00101000
00011000
00111000
01111100
00111110
00111100
00011000
POS 3 3,13

SPR 25
01000010
00010000
00011000
00111100
00111100
01111110
00111100
00011000
>
00000100
00101000
00011000
00111000
01111100
00111110
00111100
00011000
POS 3 4,11

SPR 26
01000010
00010000
00011000
00111100
00111100
01111110
00111100
00011000
>
00000100
00101000
00011000
00111000
01111100
00111110
00111100
00011000
POS 3 7,11

SPR 27
01000010
00010000
00011000
00111100
00111100
01111110
00111100
00011000
>
00000100
00101000
00011000
00111000
01111100
00111110
00111100
00011000
POS 3 9,12

SPR 28
01000010
00010000
00011000
00111100
00111100
01111110
00111100
00011000
>
00000100
00101000
00011000
00111000
01111100
00111110
00111100
00011000
DLG SPR_e
POS 3 11,3

SPR 29
01000010
00010000
00011000
00111100
00111100
01111110
00111100
00011000
>
00000100
00101000
00011000
00111000
01111100
00111110
00111100
00011000
DLG SPR_d
POS 3 11,2

SPR 30
01000010
00010000
00011000
00111100
00111100
01111110
00111100
00011000
>
00000100
00101000
00011000
00111000
01111100
00111110
00111100
00011000
POS 6 15,1

SPR 31
10000100
11001100
01111000
00110001
00111111
00111110
01100010
01000100
NAME dear
POS 5 10,8

SPR 32
00000000
00000000
00000000
00000000
00101000
00101100
00111100
00011000
NAME squirrel
POS 5 6,4

SPR 33
00000000
00000000
00000000
00000000
01100010
11100010
11111110
01111100
NAME dog
POS 5 11,9

SPR 34
00000000
00000000
00000000
00000000
00001100
01001100
00110000
00010000
NAME bird
POS 5 5,8

SPR 35
00000000
00000000
00000000
00000010
00000110
00011100
01101000
01101000
POS 5 10,4

SPR 36
10000100
11001100
01111000
00110001
00111111
00111110
01100010
01000100
>
10000100
11001100
01111000
00110001
00111111
00111110
00100010
00100100
POS 7 10,8

SPR 37
00000000
00000000
00000000
00000000
00101000
00101100
00111100
00011000
>
00000000
00000000
00000000
00000000
01001000
00101100
00111100
00011000
POS 7 6,4

SPR 38
00000000
00000000
00000000
00000000
01100010
11100010
11111110
01111100
>
00000000
00000000
00000000
00000000
01100010
10100010
11111110
01111100
POS 7 11,9

SPR 39
00000000
00000000
00000000
00000000
00001100
01001100
00110000
00010000
>
00000000
00000000
00000000
00000000
00000000
01001000
00110110
00010110
POS 7 5,8

SPR A
00001100
00111100
00100100
00101100
00011000
00111100
00101000
01001000
>
00001100
00111100
00100100
00100100
00011000
00111100
00101000
00101000
POS 0 6,7

SPR b
01000010
00010000
00011000
00111100
00111100
01111110
00111100
00011000
>
00000100
00101000
00011000
00111000
01111100
00111110
00111100
00011000
NAME fire
POS 0 5,13

SPR c
01000010
00010000
00011000
00111100
00111100
01111110
00111100
00011000
>
00000100
00101000
00011000
00111000
01111100
00111110
00111100
00011000
DLG SPR_0
POS 0 4,11

SPR d
01000010
00010000
00011000
00111100
00111100
01111110
00111100
00011000
>
00000100
00101000
00011000
00111000
01111100
00111110
00111100
00011000
DLG SPR_1
POS 0 3,13

SPR e
01000010
00010000
00011000
00111100
00111100
01111110
00111100
00011000
>
00000100
00101000
00011000
00111000
01111100
00111110
00111100
00011000
DLG SPR_2
POS 0 2,15

SPR f
01000010
00010000
00011000
00111100
00111100
01111110
00111100
00011000
>
00000100
00101000
00011000
00111000
01111100
00111110
00111100
00011000
DLG SPR_3
POS 0 0,13

SPR g
01000010
00010000
00011000
00111100
00111100
01111110
00111100
00011000
>
00000100
00101000
00011000
00111000
01111100
00111110
00111100
00011000
DLG SPR_4
POS 0 5,9

SPR h
01000010
00010000
00011000
00111100
00111100
01111110
00111100
00011000
>
00000100
00101000
00011000
00111000
01111100
00111110
00111100
00011000
DLG SPR_5
POS 0 5,4

SPR i
01000010
00010000
00011000
00111100
00111100
01111110
00111100
00011000
>
00000100
00101000
00011000
00111000
01111100
00111110
00111100
00011000
DLG SPR_6
POS 1 7,2

SPR j
01000010
00010000
00011000
00111100
00111100
01111110
00111100
00011000
>
00000100
00101000
00011000
00111000
01111100
00111110
00111100
00011000
DLG SPR_7
POS 0 5,1

SPR k
01000010
00010000
00011000
00111100
00111100
01111110
00111100
00011000
>
00000100
00101000
00011000
00111000
01111100
00111110
00111100
00011000
POS 0 1,11

SPR l
01000010
00010000
00011000
00111100
00111100
01111110
00111100
00011000
>
00000100
00101000
00011000
00111000
01111100
00111110
00111100
00011000
POS 0 2,8

SPR m
01000010
00010000
00011000
00111100
00111100
01111110
00111100
00011000
>
00000100
00101000
00011000
00111000
01111100
00111110
00111100
00011000
POS 0 1,5

SPR n
01000010
00010000
00011000
00111100
00111100
01111110
00111100
00011000
>
00000100
00101000
00011000
00111000
01111100
00111110
00111100
00011000
POS 0 3,3

SPR o
01000010
00010000
00011000
00111100
00111100
01111110
00111100
00011000
>
00000100
00101000
00011000
00111000
01111100
00111110
00111100
00011000
POS 0 0,2

SPR p
01000010
00010000
00011000
00111100
00111100
01111110
00111100
00011000
>
00000100
00101000
00011000
00111000
01111100
00111110
00111100
00011000
POS 0 4,6

SPR q
01000010
00010000
00011000
00111100
00111100
01111110
00111100
00011000
>
00000100
00101000
00011000
00111000
01111100
00111110
00111100
00011000
DLG SPR_8
POS 1 7,5

SPR r
01000010
00010000
00011000
00111100
00111100
01111110
00111100
00011000
>
00000100
00101000
00011000
00111000
01111100
00111110
00111100
00011000
DLG SPR_9
POS 1 7,11

SPR s
01000010
00010000
00011000
00111100
00111100
01111110
00111100
00011000
>
00000100
00101000
00011000
00111000
01111100
00111110
00111100
00011000
POS 1 5,1

SPR t
01000010
00010000
00011000
00111100
00111100
01111110
00111100
00011000
>
00000100
00101000
00011000
00111000
01111100
00111110
00111100
00011000
POS 1 5,4

SPR u
01000010
00010000
00011000
00111100
00111100
01111110
00111100
00011000
>
00000100
00101000
00011000
00111000
01111100
00111110
00111100
00011000
POS 1 6,7

SPR v
01000010
00010000
00011000
00111100
00111100
01111110
00111100
00011000
>
00000100
00101000
00011000
00111000
01111100
00111110
00111100
00011000
POS 1 5,9

SPR w
01000010
00010000
00011000
00111100
00111100
01111110
00111100
00011000
>
00000100
00101000
00011000
00111000
01111100
00111110
00111100
00011000
POS 1 4,11

SPR x
01000010
00010000
00011000
00111100
00111100
01111110
00111100
00011000
>
00000100
00101000
00011000
00111000
01111100
00111110
00111100
00011000
POS 1 5,13

SPR y
01000010
00010000
00011000
00111100
00111100
01111110
00111100
00011000
>
00000100
00101000
00011000
00111000
01111100
00111110
00111100
00011000
POS 1 3,13

SPR z
01000010
00010000
00011000
00111100
00111100
01111110
00111100
00011000
>
00000100
00101000
00011000
00111000
01111100
00111110
00111100
00011000
POS 1 2,15

SPR 1a
01000010
00010000
00011000
00111100
00111100
01111110
00111100
00011000
>
00000100
00101000
00011000
00111000
01111100
00111110
00111100
00011000
POS 2 5,13

SPR 1b
01000010
00010000
00011000
00111100
00111100
01111110
00111100
00011000
>
00000100
00101000
00011000
00111000
01111100
00111110
00111100
00011000
POS 2 1,11

SPR 1c
01000010
00010000
00011000
00111100
00111100
01111110
00111100
00011000
>
00000100
00101000
00011000
00111000
01111100
00111110
00111100
00011000
POS 2 4,11

SPR 1d
01000010
00010000
00011000
00111100
00111100
01111110
00111100
00011000
>
00000100
00101000
00011000
00111000
01111100
00111110
00111100
00011000
POS 2 7,11

SPR 1e
01000010
00010000
00011000
00111100
00111100
01111110
00111100
00011000
>
00000100
00101000
00011000
00111000
01111100
00111110
00111100
00011000
POS 2 2,8

SPR 1f
01000010
00010000
00011000
00111100
00111100
01111110
00111100
00011000
>
00000100
00101000
00011000
00111000
01111100
00111110
00111100
00011000
POS 2 5,9

SPR 1g
01000010
00010000
00011000
00111100
00111100
01111110
00111100
00011000
>
00000100
00101000
00011000
00111000
01111100
00111110
00111100
00011000
POS 2 6,7

SPR 1h
01000010
00010000
00011000
00111100
00111100
01111110
00111100
00011000
>
00000100
00101000
00011000
00111000
01111100
00111110
00111100
00011000
POS 2 4,6

SPR 1i
01000010
00010000
00011000
00111100
00111100
01111110
00111100
00011000
>
00000100
00101000
00011000
00111000
01111100
00111110
00111100
00011000
POS 2 7,5

SPR 1j
01000010
00010000
00011000
00111100
00111100
01111110
00111100
00011000
>
00000100
00101000
00011000
00111000
01111100
00111110
00111100
00011000
POS 2 1,5

SPR 1k
01000010
00010000
00011000
00111100
00111100
01111110
00111100
00011000
>
00000100
00101000
00011000
00111000
01111100
00111110
00111100
00011000
POS 2 3,3

SPR 1l
01000010
00010000
00011000
00111100
00111100
01111110
00111100
00011000
>
00000100
00101000
00011000
00111000
01111100
00111110
00111100
00011000
POS 2 0,2

SPR 1m
01000010
00010000
00011000
00111100
00111100
01111110
00111100
00011000
>
00000100
00101000
00011000
00111000
01111100
00111110
00111100
00011000
POS 2 5,1

SPR 1n
01000010
00010000
00011000
00111100
00111100
01111110
00111100
00011000
>
00000100
00101000
00011000
00111000
01111100
00111110
00111100
00011000
POS 2 7,2

SPR 1o
01000010
00010000
00011000
00111100
00111100
01111110
00111100
00011000
>
00000100
00101000
00011000
00111000
01111100
00111110
00111100
00011000
DLG SPR_a
POS 2 9,4

SPR 1p
01000010
00010000
00011000
00111100
00111100
01111110
00111100
00011000
>
00000100
00101000
00011000
00111000
01111100
00111110
00111100
00011000
DLG SPR_b
POS 2 9,12

SPR 1q
01000010
00010000
00011000
00111100
00111100
01111110
00111100
00011000
>
00000100
00101000
00011000
00111000
01111100
00111110
00111100
00011000
DLG SPR_c
POS 2 9,8

SPR 1r
01000010
00010000
00011000
00111100
00111100
01111110
00111100
00011000
>
00000100
00101000
00011000
00111000
01111100
00111110
00111100
00011000
POS 3 0,2

SPR 1s
01000010
00010000
00011000
00111100
00111100
01111110
00111100
00011000
>
00000100
00101000
00011000
00111000
01111100
00111110
00111100
00011000
POS 3 3,3

SPR 1t
01000010
00010000
00011000
00111100
00111100
01111110
00111100
00011000
>
00000100
00101000
00011000
00111000
01111100
00111110
00111100
00011000
POS 3 5,1

SPR 1u
01000010
00010000
00011000
00111100
00111100
01111110
00111100
00011000
>
00000100
00101000
00011000
00111000
01111100
00111110
00111100
00011000
POS 3 7,2

SPR 1v
01000010
00010000
00011000
00111100
00111100
01111110
00111100
00011000
>
00000100
00101000
00011000
00111000
01111100
00111110
00111100
00011000
POS 3 1,5

SPR 1w
01000010
00010000
00011000
00111100
00111100
01111110
00111100
00011000
>
00000100
00101000
00011000
00111000
01111100
00111110
00111100
00011000
POS 3 5,6

SPR 1x
01000010
00010000
00011000
00111100
00111100
01111110
00111100
00011000
>
00000100
00101000
00011000
00111000
01111100
00111110
00111100
00011000
POS 3 8,7

SPR 1y
01000010
00010000
00011000
00111100
00111100
01111110
00111100
00011000
>
00000100
00101000
00011000
00111000
01111100
00111110
00111100
00011000
POS 3 2,8

SPR 1z
01000010
00010000
00011000
00111100
00111100
01111110
00111100
00011000
>
00000100
00101000
00011000
00111000
01111100
00111110
00111100
00011000
POS 3 5,9

SPR 2a
01000010
00010000
00011000
00111100
00111100
01111110
00111100
00011000
>
00000100
00101000
00011000
00111000
01111100
00111110
00111100
00011000
DLG SPR_f
POS 3 11,9

SPR 2b
01000010
00010000
00011000
00111100
00111100
01111110
00111100
00011000
>
00000100
00101000
00011000
00111000
01111100
00111110
00111100
00011000
DLG SPR_g
POS 3 11,13

SPR 2c
01000010
00010000
00011000
00111100
00111100
01111110
00111100
00011000
>
00000100
00101000
00011000
00111000
01111100
00111110
00111100
00011000
POS 2 9,2

SPR 2d
00000000
00000000
00000000
00000000
00000000
00000000
00000000
00000000

SPR 2e
00011000
00100100
01000010
10000001
10000001
10011001
10000001
11111111
NAME boat
POS 4 10,11

SPR 2f
10000001
11111111
10000001
10011001
10000001
01000010
00100100
00011000
POS 4 10,12

SPR 2l
00000000
00000000
00000000
00000000
00000000
00000000
00000000
00000000
POS 5 3,2

SPR 2m
00000000
00000000
00110000
00111000
00011000
00000100
00000010
00000001
POS 4 9,11

SPR 2n
00000000
00000000
00001100
00011100
00011000
00100000
01000000
10000000
POS 4 11,11

SPR 2o
00000000
00000000
00000000
00000000
00000000
00000000
00000000
00000000

SPR 2p
10001001
01001010
00011000
00011000
00111100
00011000
01000010
10000001
>
10000001
01010010
00010000
00111000
00111100
00011000
01000010
10000001
POS 5 11,11

SPR 2q
00011000
00100100
01000010
10000001
10000001
10011001
10000001
11111111
POS 6 10,11

SPR 2r
00000000
00000000
00110000
00111000
00011000
00000100
00000010
00000001
POS 6 9,11

SPR 2s
00000000
00000000
00001100
00011100
00011000
00100000
01000000
10000000
POS 6 11,11

SPR 2t
10000001
11111111
10000001
10011001
10000001
01000010
00100100
00011000
POS 6 10,12

SPR 2u
01000010
00010000
00011000
00111100
00111100
01111110
00111100
00011000
>
00000100
00101000
00011000
00111000
01111100
00111110
00111100
00011000
POS 6 0,3

SPR 2v
01000010
00010000
00011000
00111100
00111100
01111110
00111100
00011000
>
00000100
00101000
00011000
00111000
01111100
00111110
00111100
00011000
POS 6 1,7

SPR 2w
01000010
00010000
00011000
00111100
00111100
01111110
00111100
00011000
>
00000100
00101000
00011000
00111000
01111100
00111110
00111100
00011000
POS 6 6,2

SPR 2x
01000010
00010000
00011000
00111100
00111100
01111110
00111100
00011000
>
00000100
00101000
00011000
00111000
01111100
00111110
00111100
00011000
POS 6 9,0

SPR 2y
01000010
00010000
00011000
00111100
00111100
01111110
00111100
00011000
>
00000100
00101000
00011000
00111000
01111100
00111110
00111100
00011000
POS 6 13,2

SPR 2z
01000010
00010000
00011000
00111100
00111100
01111110
00111100
00011000
>
00000100
00101000
00011000
00111000
01111100
00111110
00111100
00011000
POS 6 10,3

SPR 3a
00000000
00000000
00000000
00000010
00000110
00011100
01101000
01101000
>
00000000
00000000
00000000
01100010
01100110
00011100
00001000
00001000
POS 7 10,4

SPR 3b
10001001
01001010
00011000
00011000
00111100
00011000
01000010
10000001
>
10000001
01010010
00010000
00111000
00111100
00011000
01000010
10000001
POS 7 11,11

SPR 3c
01000010
00010000
00011000
00111100
00111100
01111110
00111100
00011000
>
00000100
00101000
00011000
00111000
01111100
00111110
00111100
00011000
POS 7 5,3

SPR 3d
01000010
00010000
00011000
00111100
00111100
01111110
00111100
00011000
>
00000100
00101000
00011000
00111000
01111100
00111110
00111100
00011000
POS 7 6,12

SPR 3e
01000010
00010000
00011000
00111100
00111100
01111110
00111100
00011000
>
00000100
00101000
00011000
00111000
01111100
00111110
00111100
00011000
POS 7 12,7

SPR 3f
01000010
00010000
00011000
00111100
00111100
01111110
00111100
00011000
>
00000100
00101000
00011000
00111000
01111100
00111110
00111100
00011000
POS 7 9,12

SPR 3g
01000010
00010000
00011000
00111100
00111100
01111110
00111100
00011000
>
00000100
00101000
00011000
00111000
01111100
00111110
00111100
00011000
POS 7 3,11

SPR 3h
01000010
00010000
00011000
00111100
00111100
01111110
00111100
00011000
>
00000100
00101000
00011000
00111000
01111100
00111110
00111100
00011000
POS 7 12,5

SPR 3i
01000010
00010000
00011000
00111100
00111100
01111110
00111100
00011000
>
00000100
00101000
00011000
00111000
01111100
00111110
00111100
00011000
POS 7 8,3

SPR 3j
00000000
00111100
01000010
11000011
11100111
01111110
01011010
01011010
POS 8 12,5

SPR 3k
01011010
01011010
01111110
01111110
01000010
01111110
00000000
00000000
POS 8 12,6

SPR 3l
01011010
01011010
01111110
01111110
01000010
01111110
00000000
00000000
POS 9 12,6

SPR 3m
00000000
00111100
01000010
11000011
11100111
01111110
01011010
01011010
POS 9 12,5

SPR 3n
01000010
00010000
00011000
00111100
00111100
01111110
00111100
00011000
>
00000100
00101000
00011000
00111000
01111100
00111110
00111100
00011000
POS 9 2,2

SPR 3o
01000010
00010000
00011000
00111100
00111100
01111110
00111100
00011000
>
00000100
00101000
00011000
00111000
01111100
00111110
00111100
00011000
POS 9 5,0

SPR 3p
01000010
00010000
00011000
00111100
00111100
01111110
00111100
00011000
>
00000100
00101000
00011000
00111000
01111100
00111110
00111100
00011000
POS 9 10,1

SPR 3q
01000010
00010000
00011000
00111100
00111100
01111110
00111100
00011000
>
00000100
00101000
00011000
00111000
01111100
00111110
00111100
00011000
POS 9 5,3

SPR 3r
01000010
00010000
00011000
00111100
00111100
01111110
00111100
00011000
>
00000100
00101000
00011000
00111000
01111100
00111110
00111100
00011000
POS 9 4,14

SPR 3s
01000010
00010000
00011000
00111100
00111100
01111110
00111100
00011000
>
00000100
00101000
00011000
00111000
01111100
00111110
00111100
00011000
POS 9 1,14

SPR 3t
01000010
00010000
00011000
00111100
00111100
01111110
00111100
00011000
>
00000100
00101000
00011000
00111000
01111100
00111110
00111100
00011000
POS 9 9,14

SPR 3u
01000010
00010000
00011000
00111100
00111100
01111110
00111100
00011000
>
00000100
00101000
00011000
00111000
01111100
00111110
00111100
00011000
POS 9 12,15

SPR 3v
01000010
00010000
00011000
00111100
00111100
01111110
00111100
00011000
>
00000100
00101000
00011000
00111000
01111100
00111110
00111100
00011000
POS 9 4,12

SPR 3w
01000010
00010000
00011000
00111100
00111100
01111110
00111100
00011000
>
00000100
00101000
00011000
00111000
01111100
00111110
00111100
00011000
POS 9 15,0

SPR 3x
01000010
00010000
00011000
00111100
00111100
01111110
00111100
00011000
>
00000100
00101000
00011000
00111000
01111100
00111110
00111100
00011000
POS 9 0,0

SPR 3y
01000010
00010000
00011000
00111100
00111100
01111110
00111100
00011000
>
00000100
00101000
00011000
00111000
01111100
00111110
00111100
00011000
POS 9 1,13

SPR 3z
10001001
01001010
00011000
00011000
00111100
00011000
01000010
10000001
>
10000001
01010010
00010000
00111000
00111100
00011000
01000010
10000001
POS a 5,8

ITM 0
00000000
00000000
10011110
10010010
10011110
10010010
11011110
00000000
NAME L8
DLG ITM_0

ITM 2
00000000
00000000
10011110
10010010
10011110
10000010
11000010
00000000
NAME L9
DLG ITM_1

ITM 3
00000000
00000000
10010111
10010101
10010101
10010101
11010111
00000000
NAME L10
DLG ITM_2

ITM 4
00000000
00000000
10010101
10010100
10010100
10010100
11010100
00000000
NAME L11 A
DLG ITM_3

ITM 5
00000000
00000000
10010101
10010101
10010100
10010100
11010100
00000000
NAME L11 B
DLG ITM_4

ITM 6
00000000
00000000
10010101
10010101
10010101
10010100
11010100
00000000
NAME L11 C
DLG ITM_5

ITM 7
00000000
11110011
10010010
11110010
10010010
10010010
11110010
00000000
NAME B 1 A
DLG ITM_6

ITM 8
00000000
11110011
10010011
11110010
10010010
10010010
11110010
00000000
NAME B 1 B
DLG ITM_7

ITM 9
00000000
11110011
10010010
11110010
10000010
10000010
10000010
00000000
NAME P 1 A
DLG ITM_8

ITM a
00000000
11110011
10010011
11110010
10000010
10000010
10000010
00000000
NAME P 1 B
DLG ITM_9

ITM b
00000000
11110011
10000010
10000010
10000010
10000010
11110010
00000000
NAME C 1 A
DLG ITM_a

ITM c
00000000
11110011
10000011
10000010
10000010
10000010
11110010
00000000
NAME C 1 B
DLG ITM_b

DLG ITM_0
"""
{cycle
  - Oh my... This fire is really catching up to me.
  - Damn leg.
  - Think Fritz, think.
  - Is Em gonna be okay?
  - I need to get the fuck outta here.
  - I don't know where to go.
  - Jeez, I'm gonna die crawling up and down in this smoking forest, am I?
  - I don't know where to go. Maybe to the right.
}
"""

DLG ITM_1
"""
{cycle
  - I can't see... there is so much ash in the air.
  - Why did I jump from that tree like an idiot?
  - Come on Fritz, this is not where you die.
  - There should be enough for Em.
  - Please.
  - Breathe.
  - Even the bugs know where to go when there is a fire!
  - Keep going, you're going great.
}
"""

DLG SPR_0
"""
{cycle
  - Oucchhh, it hurts.
  - Stop touching it, Fritz.
  - Move away from the fire.
  - This isn't a game.
}
"""

DLG SPR_1
"""
{cycle
  - Oucchhh, it burns... Obviously.
  - What are you doing, Fritz.
  - Move away from the fire.
  - This isn't cool.
}
"""

DLG SPR_2
"""
{cycle
  - Fire burns.
  - Fritz, you dummy!
  - Move away before it really hurts
  - This isn't a game.
}
"""

DLG SPR_3
"""
{cycle
  - It burns.
  - Stop playing with it, Fritz.
  - Move away from the fire.
  - Not cool.
}
"""

DLG SPR_4
"""
{cycle
  - Fire burns.
  - Fritz, you dummy!
  - Move away from the fire.
  - Not cool
}
"""

DLG SPR_5
"""
{cycle
  - Oucchhh, it burns... Obviously.
  - Stop touching it, Fritz.
  - Move away from the fire.
  - This isn't a game.
}
"""

DLG SPR_6
"""
{cycle
  - Obviously, it will hurt you.
  - Fritz, hands off.
  - You need gloves or something
  - This isn't VR.
}
"""

DLG SPR_7
"""
{cycle
  - Oucchhh.
  - Fritz!!!
  - Buzz off.
  - No, it's hot.
}
"""

DLG SPR_8
"""
{cycle
  - It burns. No way
  - Don't touch it, Fritz.
  - Move away from the fire.
  - This isn't a game.
}
"""

DLG SPR_9
"""
{cycle
  - Fire is always super hot.
  - Fritz, step away.
  - Fire is bad for you.
  - This is not VR.
}
"""

DLG SPR_a
"""
{cycle
  - Hot. Hot. Hot.
  - Stop touching it, Fritz.
  - Move away from the fire.
  - This isn't a game.
}
"""

DLG SPR_b
"""
{cycle
  - Obviously, you got hurt.
  - ...
  - It's the same as an open stove.
  - Noooo.
}
"""

DLG SPR_c
"""
{cycle
  - Please. For me.
  - Fritz, just be cool.
  - Fire is not your friend.
  - Move back.
}
"""

DLG ITM_2
"""
{cycle
  - Is help on its way? Probably not.
  - I don't have time for a makeshift splint!
  - I can't bring shame to my grandfather's name.
  - I need Em as much as she needs me.
  - Let's go...
  - I see something ahead.
  - How does this fire know where to go?
  - I need to make up my mind.
}
"""

DLG ITM_3
"""
{cycle
  - It's a pavilion. Maybe there are survivors inside.
  - Quick, let's get inside this brick structure.
  - Maybe someone has water.
  - Maybe even a first aid kit.
}
"""

DLG ITM_4
"""
{cycle
  - A bricked road out of here.
  - Maybe a parking.
  - Cars for a quick getaway.
  - Come on now, let's find a good samaritan.
}
"""

DLG ITM_5
"""
{cycle
  - If I go this way, maybe I can reach the water.
  - Water fights fire.
  - Like rock... nothing beats rock.
  - Maybe there's a boat. Some kind of water boat.
}
"""

DLG SPR_d
"""
{cycle
  - It burns.
  - Stop touching it, Fritz.
  - Move away from the fire.
}
"""

DLG SPR_e
"""
{cycle
  - Fire is your enemy.
  - Fritz! What are you doing?
  - Move away from the fire.
}
"""

DLG SPR_f
"""
{cycle
  - Oucchhh.
  - No Fritz.
  - Move away from the fire.
}
"""

DLG SPR_g
"""
{cycle
  - My hand.
  - Stop touching it, Fritz.
  - Move away from the fire.
  - This isn't a game.
}
"""

DLG ITM_6
"""
{cycle
  - Oh, thank fuck! A boat.
  - Maybe there's even food on it... don't press your luck, Fritz.
  - I need serious medical attention.
  - I can see the bone.
}
"""

DLG ITM_7
"""
{cycle
  - In your face, you dumb fire. I'm on sand now!
  - I'll be on water, your mortal enemy.
  - I'll tell my children and my grandchildren how I bested you.
  - First: boat. Second: pet Em.
  - I am bleeding a lot... maybe I should go.
  - No time for dilly-dallying, Fritz.
  - Let's oar outta here.
  - I need to make up my mind.
}
"""

DLG ITM_8
"""
{cycle
  - Wow. "Everyone" is here.
  - No sudden moves, Fritz. Be cool.
  - They are all so eerily calm.
  - I don't think that deer knows how to clean a wound.
}
"""

DLG ITM_9
"""
{cycle
  - Ahhhh shit...
  - Fritz, who hides out in a one-exit room?
  - I never got to eat papaya.
  - Em needs you... the door is still clear.
  - This fire is straight savage.
  - Focus Fritz... maybe you can make a break for it?
  - Let's bust out of here, with this broken leg.
  - Quick, this place is going to be dust soon.
}
"""

DLG ITM_a
"""
{cycle
  - Oh boy, oh boy... that's a car!
  - I'm getting in that car, believe you me.
  - I'm breaking some windows.
  - I need to leave in that car.
}
"""

DLG ITM_b
"""
{cycle
  - Can this fire chill for like a second?
  - I can't wait to sit down.
  - I might make it after all
  - If we make it out alive, Em can have all the treats in the world.
  - Why I'm still waiting around here?
  - Hot wiring a car? Easy peasy, Fritz!
  - Remember the time you were in a burning forest? Right now.
  - Fritz. Car. Now.
}
"""

END 0
On your way out of the pavilion, the blaze catches you first, then the animals. Safe at home is your cat that you forgot to feed this morning.

END undefined
You get on the boat. As you float down the river, the forest behind you burns to a crisp. You manage to go home and feed your hungry little cat Em.

END undefinee
You don't even have to break the windows or hot-wire this car. The back door is unlocked and a spare key is in the glove compartment. "Now to the hospital.. or maybe I should swing by my place to check on my cat."

VAR a
42


