
Maybe I should just leave

# BITSY VERSION 4.8

! ROOM_FORMAT 1

PAL 0
154,94,21
225,175,17
255,255,255

ROOM 0
0,0,0,0,g,0,0,0,0,0,0,0,0,0,0,0
0,a,a,a,f,a,a,a,a,a,a,a,a,a,a,0
0,a,0,0,0,0,0,0,0,0,0,0,0,0,a,0
0,a,0,0,0,0,0,0,0,h,j,j,j,i,a,0
0,a,0,0,0,0,0,0,0,k,l,l,l,m,a,0
0,a,0,0,0,0,0,0,0,0,0,0,0,0,a,0
0,a,0,0,0,0,0,0,0,0,0,0,0,0,a,0
0,a,0,0,0,0,0,0,0,e,d,s,0,0,a,0
0,a,0,0,0,0,0,0,0,0,0,0,0,0,a,0
0,a,0,e,d,s,0,0,0,0,0,0,0,0,a,0
0,a,0,0,0,0,0,0,0,0,0,0,0,0,a,0
0,a,0,0,0,0,0,0,0,0,e,d,s,0,a,0
0,a,0,0,0,0,0,0,0,0,0,0,0,0,a,0
0,a,0,0,0,0,0,0,0,0,0,0,0,0,a,0
0,a,a,0,0,a,a,a,a,a,a,a,a,a,a,0
0,0,0,0,0,0,0,0,0,0,0,0,0,0,0,0
NAME bar
ITM 0 9,2
ITM 0 11,2
ITM 0 13,2
EXT 4,1 1 4,13
END 0 3,14
END 0 4,14
PAL 0

ROOM 1
0,0,0,0,0,0,0,0,0,0,0,0,0,0,0,0
0,0,0,0,0,0,0,0,0,0,0,0,0,0,0,0
0,0,0,0,0,0,0,0,0,0,0,0,0,0,0,0
0,0,0,0,0,0,0,0,0,0,0,0,0,0,0,0
0,0,0,0,0,0,0,0,0,0,0,0,0,0,0,0
0,0,0,0,0,0,0,0,0,0,0,0,0,0,0,0
0,0,0,0,0,0,0,0,0,0,0,0,0,0,0,0
0,a,a,a,a,a,a,a,a,a,a,a,a,a,a,0
0,a,0,n,n,n,n,n,n,b,c,c,c,0,a,0
0,a,0,n,n,n,n,n,n,c,c,c,c,0,a,0
0,a,0,o,c,q,o,c,q,0,0,0,0,0,a,0
0,a,0,p,u,r,p,u,r,0,0,0,0,0,a,0
0,a,0,0,0,0,0,0,0,0,0,0,0,0,a,0
0,a,0,0,0,0,0,0,0,0,0,0,0,0,a,0
0,a,a,a,0,a,a,a,a,a,a,a,a,a,a,0
0,0,0,0,0,0,0,0,0,0,0,0,0,0,0,0
NAME toilet
EXT 4,14 0 4,2
PAL 0

TIL a
11111111
10000001
10000001
10011001
10011001
10000001
10000001
11111111
WAL true

TIL b
11111111
11111111
11101011
11010111
10101111
11011111
10111111
11111111
NAME mirror_a
WAL true

TIL c
11111111
11111111
11111111
11111111
11111111
11111111
11111111
11111111
NAME mirror b
WAL true

TIL d
00000000
00000000
11111111
11111111
11111111
10000001
10000001
10000001
NAME table
WAL true

TIL e
00000000
00011000
00011000
00011000
00011000
00011110
00010010
00010010
NAME chair

TIL f
01000010
01000010
01111110
01111110
01111110
01111010
01111110
01111110
NAME door
WAL false

TIL g
00000000
00000000
00000000
00000000
00000000
01111110
01000010
01000010
NAME door top
WAL false

TIL h
11111111
01000000
01001111
01011111
01011111
01011111
01011111
01011111
NAME bar

TIL i
11111111
00000010
11110010
11111010
11111010
11111010
11111010
11111010
NAME barr

TIL j
11111111
00000000
11111111
11111111
11111111
11111111
11111111
11111111
NAME barc

TIL k
01011111
01011111
01001111
01000000
01111111
00000000
00000000
00000000
NAME barbl

TIL l
11111111
11111111
11111111
00000000
11111111
00000000
00000000
00000000
NAME barbc

TIL m
11111010
11111010
11110010
00000010
11111110
00000000
00000000
00000000
NAME barbr

TIL n
11111110
11111110
11111110
11111110
11111110
11111110
11111110
00000000
NAME bathroom tile
WAL true

TIL o
10111111
10111111
10011111
11011111
11011111
10011111
10111111
10111111
NAME stall
WAL true

TIL p
10111111
10111111
10111111
10111111
10111111
10100000
10100000
10100000
NAME bathroom stall base
WAL false

TIL q
11111101
11111101
11111101
11111101
11111101
11111101
11111101
11111101
NAME stall right
WAL true

TIL r
11111101
11111101
11111101
11111101
11111101
00000101
00000101
00000101
NAME stall bot right
WAL false

TIL s
00000000
00011000
00011000
00011000
00011000
01111000
01001000
01001000
NAME chair right

TIL u
11111111
11111111
11111111
11111111
11111111
00000000
00000000
00000000

SPR A
00011000
00011000
00011000
00111100
01111110
10111101
00100100
00100100
POS 0 4,4

SPR a
00000000
00000000
01010001
01110001
01110010
01111100
00111100
00100100
DLG SPR_0
POS 0 8,12

SPR b
00011000
00011000
00011000
00111100
01111110
10111101
00100100
00100100
NAME guy a
DLG SPR_1
POS 0 12,7

SPR c
00011000
00011000
00011000
00111100
01111110
10111101
00100100
00100100
NAME guy b
DLG SPR_2
POS 0 9,11

SPR d
00011000
00011000
00011000
00111100
01111110
10111101
00100100
00100100
NAME guy c
DLG SPR_3
POS 0 6,9

SPR e
00011000
01111110
10011001
10000001
10000001
01111110
00111100
00000000
NAME sinka
DLG SPR_4
POS 1 11,10

SPR f
00011000
01111110
10011001
10000001
10000001
01111110
00111100
00000000
NAME sinkb
DLG SPR_5
POS 1 10,10

ITM 0
00000000
00000000
00111100
01111100
01111100
01100100
00100100
00011000
NAME beer
DLG ITM_0

DLG SPR_0
"""
{sequence
  - I'm a cat.
  - Also, I'm the only one here that is actually cool.
  - {shk}You should flee!{shk}
}
"""

DLG ITM_0
A cold beer to endure the night.

DLG SPR_1
"""
{sequence
  - Hey, {rbw}cool glasses{rbw}!
    Do you like mine?
  - Don't you think Elon Musk is cool?
    I think he's the coolest person in the universe!
}
"""

DLG SPR_2
"""
{sequence
  - Do you like {wvy}cats{wvy}?
    I love cats!
  - Now that we're friends...
    Don't you think it's a pity we will die of overpopulation?
    I do!
    I think poor people should 
    stop having children
    before that happens!
}
"""

DLG SPR_3
"""
{sequence
  - Oh, so you like movies?
    Me too!
  - I heard you made a game about {wvy}making abortion legal{wvy}!
  - I'm against legal abortion =D
}
"""

DLG SPR_4
"""
{sequence
  - {shk}I'm surrounded by fascist and terrible people!{shk}
  - I should leave!
}
"""

DLG SPR_5
"""
{sequence
  - {shk}I'm surrounded by fascist and terrible people!{shk}
  - I should leave!
}
"""

END 0
You're glad to finally leave this place.

VAR a
42


