Morning

# BITSY VERSION 3.4

! ROOM_FORMAT 1

PAL 0
192,192,192
255,255,0
249,242,170

PAL 1
0,0,64
255,255,255
255,255,255

ROOM 0
0,0,0,0,0,0,0,0,0,0,0,0,0,0,0,0
0,i,i,i,i,i,i,i,i,i,i,i,i,i,i,0
0,i,0,0,0,0,0,0,0,0,0,0,0,0,i,0
0,i,0,0,0,0,0,0,0,0,0,0,0,0,i,0
0,i,0,0,0,0,0,0,0,0,0,0,0,0,i,0
0,i,0,0,0,0,0,0,0,0,0,0,0,0,i,0
0,i,0,0,0,0,0,0,0,0,0,0,0,0,i,0
0,i,0,0,0,0,0,0,0,0,0,0,0,0,i,0
0,i,0,0,0,0,0,0,0,0,0,0,0,0,i,0
0,i,0,0,0,0,0,0,0,0,0,0,0,0,i,0
0,i,0,0,0,0,0,0,0,0,0,0,0,0,i,0
0,i,0,0,0,0,0,0,0,0,0,0,0,0,i,0
0,i,0,0,0,0,0,0,a,0,0,0,0,0,i,0
0,i,0,0,0,0,0,0,0,0,0,0,0,0,i,0
0,i,i,i,i,i,i,i,b,i,i,i,i,i,i,0
0,0,0,0,0,0,0,0,0,0,0,0,0,0,0,0
WAL i
EXT 8,14 1 7,0
PAL 1

ROOM 1
0,0,0,i,0,0,0,0,0,0,0,i,0,0,0,0
0,0,0,i,0,0,0,0,0,0,0,i,0,0,0,0
0,0,0,0,i,0,0,0,0,0,i,0,0,0,0,0
0,0,0,0,i,0,0,0,0,0,i,0,0,0,0,0
0,0,0,0,i,i,0,0,0,i,i,0,0,0,0,0
0,0,0,0,0,i,0,0,0,i,0,0,0,0,0,0
0,0,0,0,0,i,0,0,0,i,0,0,0,0,0,0
0,0,0,0,0,i,0,0,0,i,0,0,0,0,0,0
0,0,0,0,0,i,0,0,0,i,0,0,0,0,0,0
0,0,0,0,0,i,0,0,0,i,0,0,0,0,0,0
0,0,0,0,0,i,0,0,0,i,0,0,0,0,0,0
0,0,0,0,0,i,0,0,0,i,0,0,0,0,0,0
0,0,0,0,0,i,0,0,0,i,0,0,0,0,0,0
0,0,0,0,0,i,0,0,0,i,0,0,0,0,0,0
0,0,0,0,0,i,0,0,0,i,0,0,0,0,0,0
0,0,0,0,0,i,0,0,0,i,0,0,0,0,0,0
EXT 7,15 2 15,15
EXT 6,15 2 15,15
EXT 8,15 2 15,15
PAL 1

ROOM 2
0,0,0,0,0,0,0,0,0,0,0,0,f,f,0,0
0,0,0,0,0,0,0,0,0,0,0,e,d,d,g,0
0,0,0,0,0,a,c,0,0,0,0,e,d,d,g,0
0,0,0,0,a,c,0,c,0,0,0,0,z,z,0,0
0,0,0,a,a,c,c,0,c,0,0,0,0,0,0,0
0,0,a,a,c,0,c,c,0,c,0,0,0,0,0,0
0,a,c,c,a,0,a,a,0,a,c,0,0,0,0,0
a,0,0,c,c,a,a,0,a,0,0,c,0,0,0,0
j,y,j,y,j,y,j,y,j,y,j,y,j,y,v,t
w,0,0,0,0,0,0,0,0,0,0,0,0,0,s,h
0,0,0,w,0,w,0,w,0,w,0,w,0,w,s,h
w,0,w,0,0,0,0,0,0,0,0,0,0,0,s,h
0,0,0,0,0,w,0,w,0,w,0,w,0,w,s,h
x,p,x,p,x,p,p,p,p,p,p,p,p,q,r,h
h,h,h,h,h,h,h,h,h,h,h,h,h,h,h,h
h,h,h,h,h,h,h,h,h,h,h,h,h,h,h,h
WAL i
END 0 13,15
END 0 13,14
END 0 14,13
END 0 15,13
PAL 0

TIL a
00000111
00001100
00111000
00100000
01000000
01000000
11000000
10000000

TIL b
01111110
00111100
00111100
00111100
00111100
00111100
00111100
01111110

TIL c
11110000
00011000
00001000
00001100
00000100
00000100
00000111
00000001

TIL d
11111111
11111111
11111111
11111111
11111111
11111111
11111111
11111111

TIL e
00001111
00111111
01111111
11111111
01111111
00111111
00001111
00000011

TIL f
00000000
00001000
00011100
00111100
00111110
01111110
01111111
11111111

TIL g
11000000
11110000
11111100
11111110
11111111
11111110
11111100
11110000

TIL h
01110111
10111110
01110111
11111011
11101111
11011101
11110110
01111111
>
01110111
10111110
01110111
11111011
11101111
11011101
11110110
01111111

TIL i
00000000
00000000
00000000
00011000
00011000
00000000
00000000
00000000

TIL j
11111111
11111111
00000000
00000000
00000000
00000000
00000000
00000000

TIL k
11000000
11110000
00111100
00001111
00000011
00000000
00000000
00000000

TIL l
00000000
00000000
00000000
00000000
11000000
11000000
11000000
11000000

TIL m
11000000
11000000
11000000
11000000
11000000
11000000
11000000
11000000

TIL n
11000000
11000000
11000000
11000000
00000000
00000000
00000000
00000000

TIL o
00000000
00000000
00000000
00000011
00001111
00111100
11110000
11000000

TIL p
00000000
00000000
00000000
00000000
00000000
00000000
11111111
11111111

TIL q
00000000
00000000
00000000
00000011
00001111
00011101
11110110
01111111

TIL r
11110111
11111110
11110111
11111011
11101111
11011101
11110110
01111111
>
11110111
11111110
11110111
11111011
11101111
11011101
11110110
01111111

TIL s
11110111
11111110
11110111
11111011
11101111
11011101
11110110
11111111
>
11110111
11111110
11110111
11111011
11101111
11011101
11110110
11111111

TIL t
11111111
11111111
01110111
11111011
11101111
11011101
11110110
01111111
>
11111111
11111111
01110111
11111011
11101111
11011101
11110110
01111111

TIL u
00000000
00000000
00000000
00000000
00000001
00000001
00000010
00000111

TIL v
11111111
11111111
00000000
00000000
00000011
00011011
01101111
10111111

TIL w
11000000
01100000
00110000
00011000
00001100
00000110
00000011
00000001

TIL x
11000000
01100000
00110000
00011000
00001100
00000110
11111111
11111111

TIL y
11111111
11111111
00110000
00011000
00001100
00000110
00000011
00000001

TIL z
11111111
11111110
01111110
01111100
00111100
00111000
00010000
00000000

SPR A
00111100
01100110
00011000
00011000
00011000
00011000
00011000
00011000
>
00111100
01100110
00011000
00011000
00011000
00011000
00100100
01100110
POS 0 8,3

SPR a
11000011
10011001
11100111
11100111
11100111
11100111
11100111
11100111
POS 0 8,12

SPR b
00000000
00000000
00000000
00000000
00000000
00000000
00000000
00000000

SPR c
11000011
10011001
11100111
11100111
11100111
11100111
11100111
11100111
POS 1 8,14

DLG a
Come on, let's go to the beach!

DLG c
Hurry up... It's almost dawn!

END 0
Isn't it beautiful?


