Levitation

# BITSY VERSION 3.4

! ROOM_FORMAT 1

PAL 0
93,141,103
60,34,29
239,197,105

PAL 1
93,141,103
12,40,110
239,197,105

PAL 2
83,149,181
12,40,110
239,197,105

PAL 3
154,136,186
50,37,69
239,197,105

PAL 4
77,158,181
12,40,110
239,197,105

PAL 5
63,107,158
12,40,90
239,197,105

PAL 6
182,123,191
60,34,29
239,197,105

PAL 7
72,167,181
12,40,110
239,197,105

PAL 8
42,65,135
12,40,70
239,197,105

ROOM 0
0,0,i,0,0,i,i,d,d,d,e,c,h,h,h,0
0,i,0,i,h,0,0,d,e,e,e,c,0,0,0,i
i,0,0,h,0,0,0,d,e,e,e,c,h,0,i,0
h,0,h,0,i,0,i,d,e,e,e,c,0,h,0,i
0,i,0,0,0,i,0,d,e,e,e,c,0,0,i,0
0,0,0,0,0,0,0,d,e,e,e,c,0,0,0,0
0,0,0,0,0,0,0,d,e,e,e,c,0,0,0,0
0,0,0,0,0,0,0,d,e,e,e,c,0,0,0,0
0,0,0,0,0,0,0,d,e,e,e,c,0,0,0,0
0,0,0,0,0,0,0,d,e,0,e,c,0,0,0,0
0,0,0,0,0,0,b,d,e,b,0,c,0,0,0,0
a,0,0,0,0,0,b,d,0,0,b,0,0,0,0,0
0,a,a,0,a,0,0,b,0,0,b,b,0,a,0,0
0,0,0,a,0,a,a,b,b,b,a,b,0,a,0,a
0,0,0,0,0,b,0,a,a,b,0,a,a,b,a,0
0,0,0,0,0,0,b,0,b,0,b,0,0,0,b,0
WAL a,1k,1y,1x,1w,1v,1u,1t,1s,1r,1q,1p,1o,1n,1m,1l,1j,1i,1h,1g,1f,1e,1d,1c,1b,1a,19,18,17
EXT 0,0 1 0,15
EXT 1,0 1 1,15
EXT 2,0 1 2,15
EXT 3,0 1 3,15
EXT 4,0 1 4,15
EXT 5,0 1 5,15
EXT 6,0 1 6,15
EXT 7,0 1 6,15
EXT 8,0 3 6,15
EXT 9,0 3 6,15
EXT 10,0 3 6,15
EXT 11,0 3 6,15
EXT 12,0 3 12,15
EXT 13,0 3 13,15
EXT 14,0 3 14,15
EXT 15,0 3 15,15
PAL 0

ROOM 1
h,0,0,0,0,0,0,0,e,e,e,0,0,0,0,0
0,i,0,0,0,0,0,i,e,e,e,0,0,0,0,i
i,0,h,0,0,0,h,0,e,e,e,0,i,i,h,0
0,i,0,i,i,h,0,i,e,e,e,h,0,i,0,i
0,0,e,e,0,0,h,0,e,e,e,0,i,0,i,0
h,h,0,e,e,e,0,d,e,e,e,c,h,0,0,e
0,i,h,0,e,0,i,d,e,e,e,c,0,0,e,e
e,e,0,i,e,h,0,d,e,e,e,c,0,e,e,0
0,e,0,0,e,0,i,d,e,e,e,c,e,e,0,i
i,e,0,e,e,h,0,d,e,e,e,c,e,e,h,0
i,e,e,e,0,i,0,d,e,e,e,c,e,0,i,0
h,0,i,e,i,0,e,d,e,e,e,c,0,i,0,i
0,i,h,e,e,e,e,d,e,e,e,c,0,i,h,0
i,i,0,0,e,e,e,d,e,e,e,c,h,0,i,0
0,h,0,h,0,0,e,d,e,e,e,c,0,i,0,h
h,0,i,0,i,h,0,d,e,e,e,c,h,0,0,i
WAL 1k,1y,1x,1w,1v,1u,1t,1s,1r,1q,1p,1o,1n,1m,1l,1j,1i,1h,1g,1f,1e,1d,1c,1b,1a,19,18,17
EXT 0,0 2 0,15
EXT 1,0 2 1,15
EXT 2,0 2 2,15
EXT 3,0 2 3,15
EXT 4,0 2 4,15
EXT 5,0 2 5,15
EXT 6,0 2 6,15
EXT 7,0 2 7,15
EXT 8,0 2 8,15
EXT 9,0 2 9,15
EXT 10,0 2 10,15
EXT 11,0 2 11,15
EXT 12,0 2 12,15
EXT 13,0 2 13,15
EXT 14,0 2 14,15
EXT 15,0 2 15,15
PAL 0

ROOM 2
0,0,i,h,0,0,0,0,0,i,0,0,0,0,0,i
0,0,i,h,0,0,i,i,h,0,0,0,i,0,h,0
i,h,0,0,i,h,0,0,0,e,0,e,0,0,h,i
0,0,e,0,0,h,0,h,0,0,e,0,0,0,0,i
i,i,0,e,0,h,0,0,i,h,0,e,0,i,h,0
h,0,0,e,0,0,i,h,0,h,i,0,e,h,0,e
0,i,0,0,e,0,0,0,i,0,i,0,e,0,e,0
h,0,e,e,0,e,e,0,0,e,0,h,0,e,0,i
0,e,0,0,0,i,0,e,e,0,0,e,0,e,h,0
h,0,i,i,h,0,0,e,e,0,e,0,0,e,0,h
0,i,h,0,0,i,h,0,e,0,e,0,e,0,h,0
0,0,h,i,0,i,i,0,e,0,e,e,0,i,h,h
0,0,h,0,i,0,0,0,e,e,e,0,i,0,h,0
0,h,i,0,0,0,0,0,e,e,e,0,0,i,0,h
0,0,0,0,0,0,0,0,e,e,e,0,0,0,0,0
h,0,0,0,0,0,0,0,e,e,e,0,0,0,0,0
WAL 1k,1y,1x,1w,1v,1u,1t,1s,1r,1q,1p,1o,1n,1m,1l,1j,1i,1h,1g,1f,1e,1d,1c,1b,1a,19,18,17
EXT 0,0 6 0,15
EXT 1,0 6 1,15
EXT 2,0 6 2,15
EXT 3,0 6 3,15
EXT 4,0 6 4,15
EXT 5,0 6 5,15
EXT 6,0 6 6,15
EXT 7,0 6 7,15
EXT 8,0 6 8,15
EXT 9,0 6 9,15
EXT 10,0 6 10,15
EXT 11,0 6 11,15
EXT 12,0 6 12,15
EXT 13,0 6 13,15
EXT 14,0 6 14,15
EXT 15,0 6 15,15
PAL 0

ROOM 3
0,i,0,i,i,0,i,d,e,c,h,h,0,h,h,0
0,h,i,0,i,h,0,0,e,h,0,0,0,0,i,0
h,0,i,e,0,0,i,h,0,0,i,h,i,i,0,h
i,e,0,e,e,h,0,0,0,h,0,0,0,0,h,0
0,e,0,e,e,0,0,h,i,0,i,0,i,e,0,e
h,0,e,e,e,e,h,0,i,h,i,h,0,0,e,0
i,e,0,0,e,e,0,i,0,i,0,0,h,0,e,i
h,0,0,i,e,e,e,d,0,0,e,0,0,e,0,i
0,i,i,0,0,e,e,d,h,i,0,e,e,e,h,0
i,i,i,h,i,0,e,e,0,0,h,e,e,0,0,i
0,h,0,0,i,i,e,d,e,e,0,c,0,i,i,0
h,0,i,i,0,i,0,d,e,e,0,c,h,0,0,h
0,h,0,h,0,i,i,d,e,e,e,c,0,i,i,0
0,i,h,0,i,h,0,d,e,e,e,c,0,i,h,h
i,0,0,i,h,0,h,d,e,e,e,c,h,0,0,h
0,i,i,0,0,0,i,d,e,e,e,c,0,i,h,0
WAL 1k,1y,1x,1w,1v,1u,1t,1s,1r,1q,1p,1o,1n,1m,1l,1j,1i,1h,1g,1f,1e,1d,1c,1b,1a,19,18,17
EXT 0,0 4 0,15
EXT 1,0 4 1,15
EXT 2,0 4 2,15
EXT 3,0 4 3,15
EXT 4,0 4 4,15
EXT 5,0 4 5,15
EXT 6,0 4 6,15
EXT 7,0 4 6,15
EXT 8,0 5 6,15
EXT 9,0 5 6,15
EXT 10,0 5 10,15
EXT 11,0 5 11,15
EXT 12,0 5 12,15
EXT 13,0 5 13,15
EXT 14,0 5 14,15
EXT 15,0 5 15,15
PAL 0

ROOM 4
0,0,g,g,g,0,g,0,g,g,0,0,g,0,0,g
0,g,0,0,g,0,0,g,0,0,g,g,g,0,f,0
0,g,0,0,g,0,0,f,0,f,f,f,f,f,f,0
0,0,0,g,g,f,f,f,f,k,n,g,g,g,f,g
g,g,g,g,0,f,k,j,j,l,o,n,g,0,g,g
0,0,g,0,f,k,l,h,0,i,b,o,n,g,g,0
f,f,f,f,f,m,b,0,0,i,0,b,o,n,f,f
f,q,f,k,j,l,0,h,i,i,h,0,0,o,j,j
j,p,j,l,h,0,i,h,0,0,0,b,0,b,b,0
b,b,i,h,0,i,i,h,h,i,h,i,h,0,0,b
i,h,0,0,i,h,0,0,i,0,0,0,i,h,0,0
0,0,i,h,0,0,0,h,0,0,0,0,0,h,i,0
h,h,0,h,h,i,h,i,h,i,h,0,0,0,0,0
0,0,i,0,0,h,0,0,0,0,0,i,0,0,0,0
0,h,i,0,h,0,i,h,i,i,0,0,i,0,0,0
h,0,0,i,h,0,h,i,h,0,h,0,0,0,0,0
WAL 1k,1y,1x,1w,1v,1u,1t,1s,1r,1q,1p,1o,1n,1m,1l,1j,1i,1h,1g,1f,1e,1d,1c,1b,1a,19,18,17
EXT 0,0 7 0,15
EXT 1,0 7 1,15
EXT 2,0 7 2,15
EXT 3,0 7 3,15
EXT 4,0 7 4,15
EXT 5,0 7 5,15
EXT 6,0 7 6,15
EXT 7,0 7 7,15
EXT 8,0 7 8,15
EXT 9,0 7 9,15
EXT 10,0 7 10,15
EXT 11,0 7 11,15
EXT 12,0 7 12,15
EXT 13,0 7 13,15
EXT 14,0 7 14,15
EXT 15,0 7 15,15
PAL 1

ROOM 5
0,0,g,0,0,g,0,0,0,0,0,f,0,0,f,0
0,0,g,g,g,g,g,0,g,g,g,0,f,f,f,f
g,g,0,0,0,0,g,g,g,0,g,0,0,0,0,f
0,0,f,f,f,f,0,g,0,0,0,f,f,f,0,0
f,f,f,q,f,f,0,0,f,0,g,g,0,0,g,g
f,k,j,p,j,n,f,f,0,f,0,g,g,g,g,0
j,l,h,0,b,o,j,n,f,f,0,0,0,g,0,0
i,i,i,i,0,0,b,m,f,q,f,f,g,g,0,f
i,i,0,i,i,h,0,o,j,p,n,f,f,0,0,f
0,0,0,h,i,h,i,i,h,0,o,n,f,f,f,k
0,0,0,0,h,i,0,i,i,0,b,o,j,j,j,l
0,0,b,0,0,0,0,0,i,i,i,i,0,b,b,0
0,b,0,0,0,0,0,0,0,0,0,h,i,i,0,h
0,0,0,b,0,0,0,0,0,0,0,0,0,i,i,h
0,0,0,0,0,i,i,i,0,0,0,h,i,i,i,0
0,h,i,i,i,0,0,0,i,i,i,i,i,0,i,i
WAL 1k,1y,1x,1w,1v,1u,1t,1s,1r,1q,1p,1o,1n,1m,1l,1j,1i,1h,1g,1f,1e,1d,1c,1b,1a,19,18,17
EXT 0,0 7 0,15
EXT 1,0 7 1,15
EXT 2,0 7 2,15
EXT 3,0 7 3,15
EXT 4,0 7 4,15
EXT 5,0 7 5,15
EXT 6,0 7 6,15
EXT 7,0 7 7,15
EXT 8,0 7 8,15
EXT 9,0 7 9,15
EXT 10,0 7 10,15
EXT 11,0 7 11,15
EXT 12,0 7 12,15
EXT 13,0 7 13,15
EXT 14,0 7 14,15
EXT 15,0 7 15,15
PAL 1

ROOM 6
0,0,0,0,0,g,g,0,g,g,0,0,0,g,0,0
0,g,0,g,f,f,0,f,f,g,0,g,f,f,f,0
0,0,0,g,0,0,0,0,0,g,0,g,0,0,0,f
0,g,f,0,0,g,0,g,0,0,g,0,f,f,f,0
g,f,0,f,0,0,0,0,0,f,0,f,0,0,0,0
0,g,g,0,0,g,g,0,0,0,0,g,g,0,f,0
j,n,g,g,0,g,0,0,g,f,0,g,0,0,0,g
h,o,n,g,g,q,g,k,j,j,j,n,g,g,k,j
0,i,h,i,h,p,j,i,i,h,i,o,j,j,i,h
0,i,h,i,h,i,h,h,h,h,0,i,h,i,i,0
h,0,h,i,i,i,h,h,0,h,h,i,0,i,i,0
i,i,i,i,i,h,0,i,i,0,h,h,i,0,h,h
0,0,h,0,h,0,i,i,i,h,0,0,0,0,i,0
i,h,h,i,h,0,0,i,h,0,i,i,i,h,h,i
0,h,i,0,h,0,i,0,0,h,i,i,i,h,h,i
i,i,0,0,0,0,0,h,0,0,0,0,0,i,i,0
WAL 1k,1y,1x,1w,1v,1u,1t,1s,1r,1q,1p,1o,1n,1m,1l,1j,1i,1h,1g,1f,1e,1d,1c,1b,1a,19,18,17
EXT 0,0 7 0,15
EXT 1,0 7 1,15
EXT 2,0 7 2,15
EXT 3,0 7 3,15
EXT 4,0 7 4,15
EXT 5,0 7 5,15
EXT 6,0 7 6,15
EXT 7,0 7 7,15
EXT 8,0 7 8,15
EXT 9,0 7 9,15
EXT 10,0 7 10,15
EXT 11,0 7 11,15
EXT 12,0 7 12,15
EXT 13,0 7 13,15
EXT 14,0 7 14,15
EXT 15,0 7 15,15
PAL 1

ROOM 7
y,x,z,10,11,y,x,z,14,10,11,y,14,z,15,16
0,w,w,w,0,0,w,w,w,w,0,w,w,w,0,0
0,w,w,w,0,0,w,w,w,0,w,w,w,0,0,0
w,w,w,0,0,w,w,w,w,w,w,w,0,0,0,0
w,w,w,0,0,w,w,w,w,w,w,w,0,0,0,0
w,w,0,0,w,w,w,w,w,w,w,0,0,0,0,0
w,t,v,v,v,u,w,w,w,t,v,v,v,u,0,0
t,r,f,f,g,s,v,v,v,r,f,f,g,s,v,v
r,f,0,0,0,f,f,f,f,f,0,0,g,f,f,f
f,0,g,f,f,0,g,g,g,0,f,f,g,g,0,0
g,0,g,g,0,f,0,g,f,0,0,f,g,0,g,g
0,0,0,0,f,0,g,0,g,f,0,f,f,f,f,f
f,f,0,f,g,0,0,f,0,0,f,0,0,g,f,0
g,g,g,g,g,0,f,g,g,0,g,f,g,f,f,g
0,f,f,f,f,0,0,0,0,f,f,0,0,g,0,0
0,g,0,0,g,g,g,f,f,0,0,g,f,f,0,0
WAL 1k,1y,1x,1w,1v,1u,1t,1s,1r,1q,1p,1o,1n,1m,1l,1j,1i,1h,1g,1f,1e,1d,1c,1b,1a,19,18,17
EXT 0,0 8 0,15
EXT 1,0 8 1,15
EXT 2,0 8 2,15
EXT 3,0 8 3,15
EXT 4,0 8 4,15
EXT 5,0 9 5,15
EXT 6,0 9 6,15
EXT 7,0 9 7,15
EXT 8,0 9 8,15
EXT 9,0 9 9,15
EXT 10,0 9 10,15
EXT 11,0 a 11,15
EXT 12,0 a 12,15
EXT 13,0 a 13,15
EXT 14,0 a 14,15
EXT 15,0 a 15,15
PAL 2

ROOM 8
0,0,0,0,0,0,0,0,0,0,0,0,0,0,0,0
0,0,0,0,0,0,0,0,0,0,0,0,0,0,0,0
0,0,0,0,0,0,0,0,0,0,0,0,0,0,0,0
0,0,0,0,0,0,0,0,0,0,y,v,v,v,11,0
0,y,v,11,0,0,0,0,0,0,0,0,0,0,0,0
0,0,0,0,0,0,y,v,11,0,0,0,0,0,0,0
12,13,z,10,x,14,z,15,16,0,0,0,0,0,0,0
0,0,w,w,w,w,0,0,0,0,0,y,v,v,11,0
0,0,w,w,w,0,0,0,0,0,0,0,0,0,0,0
0,w,w,0,0,0,y,12,10,14,z,13,14,z,15,16
0,w,w,0,0,0,0,0,w,w,w,w,w,w,0,0
w,w,0,0,0,0,0,w,w,w,w,w,w,0,0,0
w,w,0,y,x,z,10,12,13,14,z,10,11,0,0,0
w,0,0,0,w,w,w,w,w,w,w,0,0,0,0,0
w,0,0,w,w,0,w,w,w,w,0,0,0,0,0,0
0,0,w,w,0,w,w,w,w,0,0,0,0,0,0,0
WAL 1k,1y,1x,1w,1v,1u,1t,1s,1r,1q,1p,1o,1n,1m,1l,1j,1i,1h,1g,1f,1e,1d,1c,1b,1a,19,18,17
EXT 0,0 e 0,15
EXT 1,0 e 1,15
EXT 2,0 e 2,15
EXT 3,0 e 3,15
EXT 4,0 e 4,15
EXT 5,0 e 5,15
EXT 6,0 e 6,15
EXT 7,0 e 7,15
EXT 8,0 e 8,15
EXT 9,0 e 9,15
EXT 10,0 e 10,15
EXT 11,0 e 11,15
EXT 12,0 e 12,15
EXT 13,0 e 13,15
EXT 14,0 e 14,15
EXT 15,0 e 15,15
PAL 3

ROOM 9
0,0,0,0,0,0,0,0,11,0,0,0,0,0,0,0
0,0,0,y,y,v,v,11,0,0,0,0,0,0,0,0
0,0,0,0,w,0,w,0,0,0,0,0,0,0,0,0
0,0,0,0,0,w,0,0,0,0,0,0,0,0,11,11
0,0,18,17,19,1a,0,0,0,0,y,v,v,11,11,0
0,1e,1c,0,0,1b,1d,0,0,0,0,0,w,0,0,0
1i,1g,0,0,w,0,1f,1h,0,0,0,w,0,0,0,0
1k,0,b,0,0,w,0,y,x,z,10,12,13,14,15,16
0,0,0,b,0,0,0,0,0,0,w,w,w,0,0,0
0,0,b,0,0,0,0,0,0,0,w,w,0,0,0,0
0,b,0,0,0,0,0,0,0,w,w,0,0,0,0,0
0,0,0,0,0,0,0,0,0,w,w,0,0,0,0,0
0,0,0,0,0,0,0,0,w,w,0,0,0,0,0,0
0,0,0,0,0,0,0,0,w,w,0,0,0,0,0,0
0,0,0,0,0,0,0,w,w,w,0,0,0,0,0,0
0,0,0,0,0,0,w,w,w,0,0,0,0,0,0,0
WAL 1y,1x,1w,1v,1u,1t,1s,1r,1q,1p,1o,1n,1m,1l
EXT 0,0 f 0,15
EXT 1,0 f 1,15
EXT 2,0 f 2,15
EXT 3,0 f 3,15
EXT 4,0 f 4,15
EXT 5,0 f 5,15
EXT 6,0 f 6,15
EXT 7,0 f 7,15
EXT 8,0 f 8,15
EXT 9,0 f 9,15
EXT 10,0 f 10,15
EXT 11,0 f 11,15
EXT 12,0 f 12,15
EXT 13,0 f 13,15
EXT 14,0 f 14,15
EXT 15,0 f 15,15
PAL 4

ROOM a
0,0,0,0,0,0,b,0,0,b,0,0,0,0,0,0
0,0,0,0,0,b,0,0,0,0,0,0,0,b,0,0
0,0,0,0,0,b,0,0,0,0,0,0,0,0,0,0
0,b,0,0,0,0,t,v,b,v,b,0,0,b,0,0
0,0,0,0,b,0,s,u,0,0,t,0,b,0,0,0
0,0,b,b,0,0,0,s,v,v,r,0,0,0,0,0
0,0,0,0,b,0,b,0,0,0,0,0,0,b,0,0
0,b,0,0,t,b,v,u,0,0,0,b,0,0,0,0
0,0,0,t,r,b,t,r,b,0,b,0,t,v,u,0
0,0,0,s,v,v,r,0,0,t,v,b,r,b,b,0
0,0,0,0,0,0,0,0,0,s,v,u,b,t,r,0
0,0,0,0,0,0,0,0,0,0,0,s,v,r,0,0
0,0,0,0,0,0,0,0,0,0,0,0,0,0,0,0
0,0,y,x,z,10,11,0,0,0,0,0,0,0,0,0
0,0,0,w,w,w,0,0,y,x,z,13,10,11,0,0
0,0,w,w,w,0,0,0,0,w,w,w,0,0,0,0
WAL 1k,1y,1x,1w,1v,1u,1t,1s,1r,1q,1p,1o,1n,1m,1l,1j,1i,1h,1g,1f,1e,1d,1c,1b,1a,19,18,17
EXT 0,0 g 0,15
EXT 1,0 g 1,15
EXT 2,0 g 2,15
EXT 3,0 g 3,15
EXT 4,0 g 4,15
EXT 5,0 g 5,15
EXT 6,0 g 6,15
EXT 7,0 g 7,15
EXT 8,0 g 8,15
EXT 9,0 g 9,15
EXT 10,0 g 10,15
EXT 11,0 g 11,15
EXT 12,0 g 12,15
EXT 13,0 g 13,15
EXT 14,0 g 14,15
EXT 15,0 g 15,15
PAL 5

ROOM e
0,0,0,0,0,0,0,21,0,0,0,0,0,0,0,0
0,0,0,0,0,0,0,0,20,0,0,0,0,0,0,0
0,0,0,0,0,0,0,1z,0,0,0,0,0,0,0,0
0,0,0,0,0,0,18,17,19,1a,0,0,0,0,0,0
0,0,0,0,0,1e,1c,0,0,1b,1d,0,0,0,0,0
0,0,0,0,1i,1g,23,0,25,0,1f,1h,0,0,0,0
0,0,1s,1r,1k,0,0,22,0,0,0,1j,1l,0,0,0
1v,1u,1t,0,0,0,26,0,24,0,0,0,1m,1n,1o,1p
1w,0,0,0,0,0,0,0,0,0,0,0,0,0,0,1q
0,0,0,0,b,0,0,0,0,0,0,b,0,0,0,0
0,b,0,0,0,b,0,0,0,0,0,0,0,b,0,0
0,0,b,0,0,0,0,0,0,0,0,0,0,b,0,0
0,0,b,0,0,0,0,0,0,0,0,0,b,0,0,0
0,0,0,b,0,b,0,0,0,0,b,0,0,0,0,0
0,0,0,0,0,0,0,0,0,0,0,0,b,b,0,0
0,0,0,0,0,0,0,0,0,0,0,0,0,0,0,0
WAL 1y,1x,1w,1v,1u,1t,1s,1r,1q,1p,1o,1n,1m,1l,1k,1j,1i,1h,1g,1f,1e,1d,1c,1b,1a,19,18,17
END undefined 7,6
PAL 6

ROOM f
0,0,0,0,0,0,0,0,0,21,0,0,0,0,0,0
0,0,0,0,0,0,0,0,0,0,20,0,0,0,0,0
0,0,0,0,0,0,0,0,0,1z,0,0,0,0,0,0
0,0,0,0,0,0,0,18,17,19,1a,0,0,0,0,0
0,0,0,0,0,0,1e,1c,0,0,1b,1d,0,0,0,0
0,0,0,0,0,1i,1g,0,23,0,25,1f,1h,0,0,0
0,0,0,1s,1r,1k,0,0,0,22,0,0,1j,1l,0,0
0,1v,1u,1t,0,0,0,0,26,0,24,0,0,1m,1n,1o
1x,1w,0,0,0,0,0,0,0,0,0,0,0,0,0,0
0,0,0,0,0,0,b,0,0,0,0,0,0,0,0,0
0,0,0,0,0,b,0,0,0,0,0,0,0,0,b,0
0,0,b,b,0,0,0,0,0,0,0,0,0,b,0,0
0,0,0,0,0,0,0,0,0,0,0,0,0,0,b,0
0,0,0,0,b,0,0,0,0,0,0,0,b,0,0,0
0,0,0,0,0,b,0,0,0,0,0,b,0,0,0,0
0,0,0,0,0,0,0,0,0,0,0,0,0,0,0,0
WAL 1k,1y,1x,1w,1v,1u,1t,1s,1r,1q,1p,1o,1n,1m,1l,1j,1i,1h,1g,1f,1e,1d,1c,1b,1a,19,18,17
END undefinee 9,6
PAL 7

ROOM g
0,0,0,0,0,0,0,0,0,0,0,0,0,0,0,0
0,0,0,0,0,0,0,0,0,0,0,0,0,0,0,0
0,0,0,0,0,0,0,0,0,21,0,0,0,0,0,0
0,0,0,0,0,0,0,0,0,0,20,0,0,0,0,0
0,0,0,0,0,0,0,0,0,1z,0,0,0,0,0,0
0,0,0,0,0,0,0,0,18,17,19,1a,0,0,0,0
0,0,0,0,0,0,0,1e,1c,0,0,1b,1d,0,0,0
0,0,0,0,0,0,1i,1g,23,0,25,0,1f,1h,0,0
0,0,0,0,1s,1r,1k,0,0,22,0,0,0,1j,1l,0
0,0,1v,1u,1t,0,0,0,26,0,24,0,0,0,1m,1n
1y,1x,1w,0,0,0,0,b,0,0,0,0,0,0,0,0
0,0,0,0,0,b,0,0,0,0,0,0,b,0,0,0
0,0,0,0,b,0,0,0,0,0,0,0,0,0,0,0
0,0,0,b,0,0,0,0,0,0,0,b,0,b,0,0
0,0,0,0,b,0,0,0,0,0,b,0,0,0,0,0
0,0,0,0,0,0,0,0,0,0,0,0,0,0,0,0
WAL 1k,1y,1x,1w,1v,1u,1t,1s,1r,1q,1p,1o,1n,1m,1l,1j,1i,1h,1g,1f,1e,1d,1c,1b,1a,19,18,17
END undefinef 9,8
PAL 8

TIL 10
00000000
00000000
00000000
00000001
00000001
00011011
11111110
11110100

TIL 11
00000100
00011000
01100000
11000000
00000000
00000000
00000000
00000000

TIL 12
00000000
00000000
00000000
10000000
11100000
01111000
00011111
00000111

TIL 13
00000000
00000000
00000000
00000000
00000010
00110111
11111101
11011000

TIL 14
00000000
00000000
00000000
00000000
00000110
10001111
11111001
01110000

TIL 15
00000000
00000001
00000010
00000100
00011000
00100000
11000000
10000000

TIL 16
01110000
10000000
00000000
00000000
00000000
00000000
00000000
00000000

TIL 17
00000000
00000111
00111100
11100000
00000000
11100000
00111100
00000111

TIL 18
00000000
00000000
00000000
00000011
00001110
00001011
00011000
00110000

TIL 19
00000000
11100000
00111100
00000111
00000000
00000111
00111100
11100000

TIL 20
01000000
00000000
00000000
01000000
00000000
10000000
00100000
10000000
>
10000000
00000000
01000000
00000000
10000000
00100000
00000000
01000000

TIL 21
00000001
00000100
00000000
00000010
00000000
00000100
00000000
00000001
>
00000010
00000000
00000100
00000000
00000010
00000000
00000101
00000000

TIL 22
00011000
00000000
00000000
10000001
10000001
00000000
00000000
00011000

TIL 23
00000000
00000000
00000000
00000000
00000000
00000001
00000010
00000100

TIL 24
00100000
01000000
10000000
00000000
00000000
00000000
00000000
00000000

TIL 25
00000000
00000000
00000000
00000000
00000000
10000000
01000000
00100000

TIL 26
00000100
00000010
00000001
00000000
00000000
00000000
00000000
00000000

TIL a
00000000
00010100
10100010
00000000
00001010
01010001
10000000
00000000

TIL b
00000000
00000100
01001000
00101010
00101001
00101001
00100001
00000001

TIL c
01101110
01101110
01110100
11110100
01110100
00111011
00111011
01101010

TIL d
01101110
01101111
01110101
11110101
01110100
00111011
00111011
01101010

TIL e
01101110
01101111
11110101
11110101
01110100
10111011
10111011
01101010

TIL f
00110000
01111001
01001111
11000000
00111110
01100011
11000000
00000000
>
00000100
00011111
10110001
11100000
00000000
11000001
01111011
00001110

TIL g
00000000
00111000
01101111
11000000
00011100
01110111
11000000
00000000
>
00000000
00000000
00111011
11101110
00000000
11000001
01111111
00000000

TIL h
00000011
00000110
00001100
11101000
10111000
00001100
00000110
00000011

TIL i
10000000
11100000
00100000
00111101
00010111
00110000
00100000
11100000

TIL j
00000000
00000000
00000000
11111111
00000000
00000000
00000000
00000000

TIL k
00000000
00000000
00000000
00011111
00010000
00010000
00010000
00010000

TIL l
00010000
00010000
00010000
11110000
00000000
00000000
00000000
00000000

TIL m
00010000
00010000
00010000
00010000
00010000
00010000
00010000
00010000

TIL n
00000000
00000000
00000000
11110000
00010000
00010000
00010000
00010000

TIL o
00010000
00010000
00010000
00011111
00000000
00000000
00000000
00000000

TIL p
00100100
00100100
00100100
11100111
00000000
00000000
00000000
00000000

TIL q
00000000
00000000
00000000
00111100
00100100
00100100
00100100
00100100

TIL r
00010000
00010000
00100000
11000000
00000000
00000000
00000000
00000000

TIL s
00010000
00010000
00001000
00000101
00000000
00000000
00000000
00000000

TIL t
00000000
00000000
00000000
00000101
00001000
00010000
00000000
00010000

TIL u
00000000
00000000
00000000
11000000
00100000
00010000
00000000
00010000

TIL v
00000000
00000000
00000000
10101101
00000000
00000000
00000000
00000000

TIL w
00000010
00100000
00000000
00000100
01000000
00000000
00000100
00100000

TIL x
00000000
00000000
00000000
00000000
11000000
01000001
01111111
00111110

TIL y
10000000
01000000
00110000
00001100
00000011
00000000
00000000
00000000

TIL z
00000000
00000000
00000000
00000000
00001100
11111110
11110011
00000001

TIL 1a
00000000
00000000
00000000
11000000
01110000
11010000
00011000
00001100

TIL 1b
00000100
00000110
00000010
00000011
00000001
00000000
00000000
00000000

TIL 1c
00100000
01100000
01000000
11000000
10000000
00000000
00000000
00000000

TIL 1d
00000000
00000000
00000000
00000000
10000000
11000000
01100000
00110000

TIL 1e
00000000
00000000
00000000
00000000
00000001
00000011
00000110
00001100

TIL 1f
00011000
00001100
00000110
00000011
00000001
00000000
00000000
00000000

TIL 1g
00011000
00110000
01100000
11000000
10000000
00000000
00000000
00000000

TIL 1h
00000000
00000000
00000000
00000000
11000000
01100000
00110000
00011100

TIL 1i
00000000
00000000
00000000
00000000
00000011
00000110
00001100
00111000

TIL 1j
00000110
00000011
00000001
00000000
00000000
00000000
00000000
00000000

TIL 1k
01100000
11000000
10000000
00000000
00000000
00000000
00000000
00000000

TIL 1l
00000000
00000000
10000000
11000000
01000000
01100000
00111000
00001111

TIL 1m
00000001
00000000
00000000
00000000
00000000
00000000
00000000
00000000

TIL 1n
11110000
00011000
00001111
00000000
00000000
00000000
00000000
00000000

TIL 1o
00000000
00000000
10000000
11100000
00111100
00000111
00000000
00000000

TIL 1p
00000000
00000000
00000000
00000000
00000000
10000000
11000000
01110000

TIL 1q
00011000
00001110
00000011
00000000
00000000
00000000
00000000
00000000

TIL 1r
00000000
00000000
00000011
00000110
00001100
00111000
11100000
00000000

TIL 1s
00000000
00000000
00000000
00000000
00000000
00000000
00000001
00001111

TIL 1t
00111000
01100000
11000000
10000000
00000000
00000000
00000000
00000000

TIL 1u
00000000
00000000
00000000
00000011
00001110
01111000
11000000
00000000

TIL 1v
00000000
00000000
00000000
00000000
00000000
00000000
00000111
00111100

TIL 1w
11100000
00000000
00000000
00000000
00000000
00000000
00000000
00000000

TIL 1x
00000011
00011110
11110000
00000000
00000000
00000000
00000000
00000000

TIL 1y
00000000
00000000
00000011
00111110
11100000
00000000
00000000
00000000

TIL 1z
00000001
00000100
00000000
00000010
00001000
00000000
00000100
00000000
>
00000010
00000000
00000100
00000000
00000010
00001000
00000000
00000100

SPR A
00111100
01011010
10111101
00011000
00100100
00110100
01010010
00111100
POS 0 8,12

SPR a
00000000
00000000
01010001
01110001
01110010
01111100
00111100
00100100
>
00000000
00000000
01010100
01110010
01110010
01111100
00111100
00100100
POS 0 10,12

SPR b
00000000
00000000
00000000
10000010
11000111
11111101
10001111
00000110
>
01000100
00101000
00000000
00010000
10000010
11010111
11111101
10001111
POS 7 9,10

SPR c
00000000
00000000
01000010
10100101
00011000
00000000
00000000
00000000
POS 6 1,2

SPR d
00000001
00000010
10010010
01101001
10001001
00000101
00000010
00000000
POS 4 12,7

SPR e
01100110
01100110
00011000
00100100
00011000
00011000
00100100
11000011
>
01100110
01100110
00011000
00100100
00011000
00011000
00100100
01100110
POS 5 6,10

SPR f
00010000
00010000
00011000
00001000
00011000
00010000
00111100
00000000
POS e 9,10

SPR g
00101000
00010000
00010100
00011000
00101000
00001000
00001000
00011000
POS e 9,9

SPR h
00000000
00000001
00100001
00100010
01000100
10000100
01000100
00101000
>
00000000
00000010
00010001
00010001
00100010
01000010
01000100
00101000
POS e 9,8

SPR i
00000000
00001000
01001000
00101010
00101001
00101001
00101001
00101001
>
00000000
00000100
00101000
00101001
00101001
00101001
00101001
00101001
POS f 11,10

SPR j
00101001
00101001
00101001
00101001
00100001
00000001
00000000
00000000
POS f 11,11

SPR k
00001000
00010100
00010100
00010100
00001000
00011100
00110110
00000000
POS g 10,12

SPR l
01000001
00100010
01010101
10001000
00010100
00010100
00010100
00001000
POS g 10,11

SPR m
00000001
10000000
00000000
00000000
00000000
00000000
00010000
00000000
POS g 3,4

SPR n
00000000
00000001
00010000
00000000
00000000
10000000
00000000
00000100
POS g 1,2

SPR o
00000000
01000001
00000000
00000000
00000000
00000000
01000010
00000000
POS g 14,1

SPR p
00000000
00001000
00000000
00000000
10000000
00000000
00000001
00000000
POS g 13,4

SPR q
00000000
00000000
00000010
01000000
00000000
00010000
00000000
00000001
POS g 14,5

SPR r
00000000
00010000
00000001
00000000
00000000
00000010
01000000
00000000
POS g 5,3

SPR s
00110000
00110000
00110000
00110000
00011000
00011100
00001110
00000011
POS g 1,7

SPR t
00000000
00000000
00000000
00000000
00000110
00001100
00011000
00011000
POS g 1,6

SPR u
00000000
00000000
01110000
11010010
01110011
00111100
00011110
00000000
POS a 8,4

SPR v
00000000
00000000
00000000
00000000
00000000
00000000
00000000
00000000

SPR w
00000000
00000000
11000011
00100100
00011000
00000000
00000000
00000000
>
00000000
00000000
01000010
10100101
00011000
00000000
00000000
00000000
POS 8 3,1

SPR x
00000000
00000000
01100000
10111110
11111101
00010100
00100010
00100010
POS 9 4,9

DLG a
Meow .. mrrrr .. go up and float sideways .. but never go down.

DLG c
Squawk! squawk! .. people don't fly!

DLG b
Aroooo .. aroooo .. don't fall into the sea.

DLG d
Sss .. sss .. I like the tall grass by the sea.

DLG e
Fsst .. fsst .. I like to sneak through the tops of the trees.

DLG f
One day I will be the biggest tree on the volcano .. the sunset will sparkle on my leaves .. I will shine gloriously .. pink and gold.

DLG j
Oh to be the tallest flowering grass .. basking in the midday sun. The wind brushes gently across my petals.

DLG l


DLG k
Oh night flower who likes the stars .. their distant light falling gently on my petals.

DLG u
Quack .. quack .. I don't see many floating people here in the mountains.

DLG w
Kee ..kee .. I love to circle around way up here above the clouds.

DLG x
Gaha .. bah .. the grass up here is fine and green .. the air is crisp and cold.

END 0


END undefined
Ending of the sapling.

END undefinee
Ending of the flowering grass.

END undefinef
Ending of the night flower.

