
{wvy}{clr2}sophrosune{clr2}{wvy}: the virtue of self-control

# BITSY VERSION 4.6

! ROOM_FORMAT 1

PAL 0
8,8,8
227,163,108
236,236,235

PAL 1
41,38,37
213,217,219
219,121,45

PAL 2
0,0,0
255,255,255
0,0,0

PAL 3
25,25,25
255,255,255
25,25,25

PAL 4
41,38,37
255,255,255
41,38,37

ROOM 0
0,0,1w,0,0,0,0,0,0,0,1w,0,0,0,0,1w
0,0,0,0,1w,0,1p,1n,1p,1o,0,0,0,1w,0,0
0,0,0,0,0,12,15,1r,1q,13,11,1w,0,0,0,1w
1w,0,0,1w,0,10,0,0,0,0,z,0,1w,0,1w,0
0,0,0,0,0,10,0,0,0,0,z,0,0,0,0,0
0,0,1w,0,1w,10,22,22,22,22,z,1w,0,1k,1w,0
0,0,0,1w,0,10,20,y,y,y,z,0,0,0,0,0
0,1w,0,0,0,1a,y,y,y,21,1i,0,1w,0,1w,0
0,0,0,1w,0,1h,0,1j,1x,1j,1g,0,0,0,0,0
1w,0,0,0,0,1f,1x,1p,1j,1p,1e,0,0,0,0,0
0,0,1w,0,1w,v,u,u,x,1y,17,0,1w,0,0,1w
1w,0,0,0,0,1d,1m,1b,1b,1z,1c,0,0,0,0,0
0,0,1w,0,0,1d,1b,1b,1l,1b,1c,0,0,0,1w,0
0,0,0,0,0,0,0,0,0,0,0,0,1w,0,0,0
0,0,0,1w,0,0,0,0,0,0,0,0,0,0,1w,0
0,0,0,0,0,0,0,0,0,0,0,0,0,0,0,0
EXT 9,5 2 9,11
EXT 8,5 2 8,11
EXT 7,5 2 7,11
EXT 6,5 2 6,11
PAL 0

ROOM 2
41,41,41,41,41,41,41,41,41,41,41,41,41,41,41,41
0,3f,0,3p,1b,1b,0,1b,0,0,3p,0,0,3f,0,1n
2d,2e,0,1b,0,0,3p,0,1b,1b,1b,1b,2d,2e,1b,0
2b,2c,1b,1b,1b,1b,1b,1n,0,3p,0,1n,2b,2c,1b,0
2b,2c,1b,1t,1n,1b,1b,0,1b,1t,1b,0,2b,2c,1b,1t
2b,2c,1b,1b,1b,3p,1n,1b,0,3p,0,3p,2b,2c,1b,0
2b,2c,3p,1b,1b,1b,1b,1b,3f,1b,1b,1b,2b,2c,1b,1b
2h,2g,3h,3h,3h,3h,3h,3h,3h,3h,3h,3s,2h,2g,3h,3o
3m,3i,3k,0,4a,0,3r,0,0,3r,3w,4a,3m,3i,3k,3n
3q,3l,3j,3y,0,0,0,0,0,0,0,0,3w,3l,3j,2a
3q,0,3z,3x,40,0,3w,0,0,0,0,3r,0,0,2a,2a
0,0,0,0,0,3v,22,22,22,22,3u,0,0,2a,2a,2a
1b,1b,1b,1b,1b,1c,24,25,25,26,1d,1b,1b,1b,1b,1b
1b,1b,1b,1b,1b,28,2k,23,2k,23,27,1b,1b,1b,1b,1b
1b,1b,1b,1b,1b,28,23,2i,23,2k,27,1b,1b,1b,1b,1b
1b,1b,1b,1b,1b,28,2j,2j,2j,2j,27,1b,1b,1b,1b,1b
EXT 0,10 3 15,3
EXT 0,9 3 15,2
PAL 0

ROOM 3
0,0,0,1d,1b,42,1c,1d,1b,2a,1b,1b,1c,1b,1b,1c
0,0,0,1d,1b,1b,1c,1d,1b,1b,1b,1b,4c,4b,3h,3h
0,0,0,1d,1b,1b,1c,1d,1b,1b,1b,1b,4d,0,0,3q
0,0,0,1d,1b,1b,1c,1d,1b,1b,1b,1c,4d,0,0,3q
0,0,0,1d,1b,1b,1c,4c,3h,3h,3h,3h,4e,0,38,0
0,0,0,1d,1a,1b,1c,4f,0,0,0,0,0,0,0,0
0,0,0,1d,1b,1b,1c,3f,0,39,0,0,0,0,0,0
0,0,0,1d,1b,1b,1c,0,0,0,0,0,38,0,0,0
0,0,0,1d,1b,1b,1c,0,0,0,0,0,0,0,3f,0
0,0,0,1d,1b,1b,1c,0,0,1o,0,0,0,0,0,0
0,0,0,1d,1b,1l,1c,0,0,0,0,0,0,4h,4g,4g
0,0,0,4o,1r,44,67,43,y,y,y,43,66,44,1d,1b
0,0,0,4j,4m,4n,4k,43,y,y,21,43,4l,4m,4n,4i
0,0,0,0,0,0,0,45,20,y,y,45,0,0,0,0
0,0,0,0,0,0,0,48,47,47,47,48,0,0,0,0
0,0,0,0,0,0,0,0,0,0,0,0,0,0,0,0
EXT 9,15 7 8,1
PAL 0

ROOM 4
0,0,1w,0,0,0,0,0,0,0,0,0,0,0,0,1w
0,0,0,0,0,0,0,0,0,0,1w,0,0,0,0,0
0,0,0,0,0,1w,0,0,0,0,0,0,0,1w,0,0
1w,0,0,0,0,0,0,0,0,0,0,0,0,0,0,1w
0,0,8c,8v,0,0,0,0,0,1w,0,0,2l,2m,0,0
2l,2m,1b,1b,8f,8h,1b,8e,8w,0,8g,8y,2b,2c,8d,8x
2b,2c,8c,3d,1m,1b,3e,1b,1l,1b,1b,8e,2b,2c,1b,1m
8z,90,8k,8l,8m,8n,0,8o,8p,8j,8p,18,8z,8i,8p,8r
1x,0,0,0,0,0,0,0,3r,0,0,0,0,0,0,8q
0,0,0,0,0,0,0,0,0,0,1x,0,0,0,83,2a
18,38,18,79,0,0,75,18,8y,0,0,0,0,86,2a,2a
0,0,0,0,0,0,0,0,76,0,0,0,0,8t,2a,2a
0,0,0,0,1x,0,0,79,0,0,0,1x,0,0,88,8s
0,8h,8e,8d,0,88,0,0,91,0,0,0,8e,85,8f,8h
1b,1b,1b,1b,8d,28,0,0,0,2p,88,8c,1b,1b,1b,1b
1b,1b,1l,1b,1b,28,8u,0,0,2o,27,1b,1b,1b,1m,1b
ITM 0 9,5
ITM 0 6,7
EXT 7,14 6 7,5
EXT 8,14 6 8,5
PAL 1

ROOM 5
6k,6l,6n,6f,0,0,0,77,78,79,0,4p,0,3a,0,0
6n,6k,6h,0,0,0,0,0,76,0,0,74,73,72,0,0
6k,6k,6f,0,0,6i,0,0,0,0,0,0,0,70,0,0
6l,6k,6f,3q,0,6i,3p,0,75,0,3q,1x,0,70,0,0
6k,6k,6f,0,2v,2u,9y,2t,75,30,0,0,0,70,0,2r
6l,6k,6f,0,2w,75,36,20,36,31,0,0,0,70,2r,2r
6k,6k,6f,0,2w,36,75,0,76,77,0,3p,0,70,2r,0
6k,6k,6f,0,2y,2x,2x,2z,2x,33,0,0,6y,6z,0,6w
6m,6k,6f,3q,0,1x,0,0,0,0,3q,0,6x,6v,0,0
6k,6k,6g,0,0,0,0,0,0,0,0,0,6x,6w,1w,6t
6k,6k,6k,6f,0,0,0,0,0,0,0,0,6x,0,6u,6t
6k,6l,6l,6f,0,0,76,0,0,38,0,37,6x,1w,6q,6s
6k,6n,6k,6f,0,0,0,0,75,0,0,6y,6z,6o,6r,6p
6l,6k,6k,6f,0,0,3p,0,39,0,0,70,6w,6c,6d,6e
6k,6k,6k,6g,0,0,0,0,0,0,71,6z,6b,4s,4s,4s
6k,6m,6k,6k,2r,0,39,78,0,0,6a,65,69,4s,4s,4s
ITM 0 6,5
EXT 8,0 b 9,15
EXT 7,0 b 8,15
EXT 9,0 b 10,15
PAL 1

ROOM 6
0,0,1w,1w,0,0,w,0,0,0,1w,0,0,0,1w,1w
w,0,0,0,1w,0,0,0,0,0,0,0,1w,1w,0,w
0,1w,0,0,0,0,0,0,w,0,0,1w,0,0,0,1w
1w,0,0,1w,0,9m,9m,9m,9m,9m,9f,0,1w,63,64,65
36,9c,9b,0,9d,9e,0,0,0,0,9g,0,62,4s,4s,4s
4s,4s,4s,4s,4s,5u,9l,0,0,9k,60,61,4s,4s,4s,4s
23,96,23,36,23,23,20,18,20,7d,23,96,96,96,23,36
93,94,23,96,23,1a,19,20,y,21,1i,23,23,36,0,0
99,0,95,92,92,1e,0,1j,0,37,1g,92,97,99,0,4t
0,0,98,0,98,1f,37,0,3f,0,2s,98,99,0,0,4s
0,0,0,0,0,2s,u,9j,9h,1y,17,0,0,0,4t,4s
1w,0,0,0,0,2s,1l,1b,5c,1z,1c,0,1w,0,4u,4s
5u,0,0,w,0,1d,1m,5f,5d,2s,1c,0,0,0,4s,4s
4s,5u,0,0,0,1d,1z,5e,5g,1b,1c,0,0,0,4s,4s
4s,4s,5s,5m,5n,5y,5x,9i,5i,9i,5m,5n,w,0,5q,4s
4s,4s,5u,5p,5o,0,0,5v,5w,5l,5p,5o,0,5m,5n,5r
EXT 8,15 c 7,0
PAL 1

ROOM 7
0,0,0,0,0,0,0,0,0,0,0,0,0,0,0,0
0,0,0,0,0,0,0,0,0,0,0,0,0,0,0,0
0,0,0,0,0,0,0,0,0,0,0,0,0,0,0,0
0,0,0,0,0,0,0,0,0,0,0,0,0,0,0,0
0,0,0,0,0,0,0,0,0,0,0,0,0,0,0,0
0,0,0,0,0,0,0,0,0,0,0,0,0,0,0,0
0,0,0,0,0,0,0,0,0,0,0,0,0,0,0,0
0,0,0,0,0,0,0,0,0,0,0,0,0,0,0,0
0,0,0,0,0,0,0,0,0,0,0,0,0,0,0,0
0,0,0,0,0,0,0,0,0,0,0,0,0,0,0,0
0,0,0,0,0,0,0,0,0,0,0,0,0,0,0,0
0,0,0,0,0,0,0,0,0,0,0,0,0,0,0,0
0,0,0,0,0,0,0,0,0,0,0,0,0,0,0,0
0,0,0,0,0,0,0,0,0,0,0,0,0,0,0,0
0,0,0,0,0,0,0,0,0,0,0,0,0,0,0,0
0,0,0,0,0,0,0,0,0,0,0,0,0,0,0,0
NAME room7
EXT 7,1 9 8,4
EXT 9,1 9 8,4
EXT 8,2 9 8,4
EXT 8,0 9 8,4
PAL 2

ROOM 9
0,0,0,0,0,0,0,0,0,0,0,0,0,0,0,0
0,0,0,0,0,0,0,0,0,0,0,0,0,0,0,0
0,0,0,0,0,0,0,0,0,0,0,0,0,0,0,0
0,0,0,0,0,0,0,0,0,0,0,0,0,0,0,0
0,0,0,0,0,0,0,0,0,0,0,0,0,0,0,0
0,0,0,0,0,0,0,0,0,0,0,0,0,0,0,0
0,0,0,0,0,0,0,0,0,0,0,0,0,0,0,0
0,0,0,0,0,0,0,0,0,0,0,0,0,0,0,0
0,0,0,0,0,0,0,0,0,0,0,0,0,0,0,0
0,0,0,0,0,0,0,0,0,0,0,0,0,0,0,0
0,0,0,0,0,0,0,0,0,0,0,0,0,0,0,0
0,0,0,0,0,0,0,0,0,0,0,0,0,0,0,0
0,0,0,0,0,0,0,0,0,0,0,0,0,0,0,0
0,0,0,0,0,0,0,0,0,0,0,0,0,0,0,0
0,0,0,0,0,0,0,0,0,0,0,0,0,0,0,0
0,0,0,0,0,0,0,0,0,0,0,0,0,0,0,0
EXT 9,4 a 8,9
EXT 8,3 a 8,9
EXT 7,4 a 8,9
EXT 8,5 a 8,9
PAL 3

ROOM a
0,0,0,0,0,0,0,0,0,0,0,0,0,0,0,0
0,0,0,0,0,0,0,0,0,0,0,0,0,0,0,0
0,0,0,0,0,0,0,0,0,0,0,0,0,0,0,0
0,0,0,0,0,0,0,0,0,0,0,0,0,0,0,0
0,0,0,0,0,0,0,0,0,0,0,0,0,0,0,0
0,0,0,0,0,0,0,0,0,0,0,0,0,0,0,0
0,0,0,0,0,0,0,0,0,0,0,0,0,0,0,0
0,0,0,0,0,0,0,0,0,0,0,0,0,0,0,0
0,0,0,0,0,0,0,0,0,0,0,0,0,0,0,0
0,0,0,0,0,0,0,0,0,0,0,0,0,0,0,0
0,0,0,0,0,0,0,0,0,0,0,0,0,0,0,0
0,0,0,0,0,0,0,0,0,0,0,0,0,0,0,0
0,0,0,0,0,0,0,0,0,0,0,0,0,0,0,0
0,0,0,0,0,0,0,0,0,0,0,0,0,0,0,0
0,0,0,0,0,0,0,0,0,0,0,0,0,0,0,0
0,0,0,0,0,0,0,0,0,0,0,0,0,0,0,0
EXT 8,8 5 7,15
EXT 9,9 5 7,15
EXT 8,10 5 7,15
EXT 7,9 5 7,15
PAL 4

ROOM b
0,0,0,0,0,6u,0,0,0,6w,0,1x,0,0,86,0
0,0,6u,0,0,0,0,1w,0,0,0,0,81,7q,7n,7m
0,1w,0,0,0,0,0,0,0,0,85,84,83,0,0,7l
0,0,6w,0,0,0,0,80,7z,1b,1b,1c,7p,0,0,7k
6u,0,0,1w,0,0,7z,81,7n,7s,7r,7n,82,0,38,0
0,0,0,0,0,0,0,4f,0,0,0,0,0,0,0,0
0,1x,0,7v,7m,7u,7x,a4,0,39,0,0,0,0,0,0
0,0,0,7w,7j,7i,1c,83,0,0,0,0,38,0,0,0
0,6w,0,1d,1b,1b,1c,0,0,0,0,0,0,0,3f,0
0,0,0,1d,1b,1b,1c,0,0,1o,0,0,0,0,0,0
0,0,7y,1d,1b,1l,1c,0,0,0,0,0,0,4h,4g,4g
1w,0,79,4o,1r,44,44,43,7d,y,7c,43,7t,44,1d,1b
0,0,79,79,79,79,4k,7b,7e,y,21,43,0,79,79,79
6w,0,0,0,0,0,0,7h,7c,y,7d,7a,0,0,0,1x
0,0,0,6u,0,0,0,7f,0,0,0,7g,0,0,6u,0
0,1x,0,0,0,0,0,83,0,0,0,83,6w,0,0,0
EXT 15,3 4 0,10
EXT 15,2 4 0,9
PAL 1

ROOM c
23,2k,23,23,92,92,7c,3a,0,0,a1,a2,23,2i,23,23
23,23,92,a3,0,0,0,3f,39,0,0,0,9z,23,23,2k
2i,a0,0,9n,0,0,0,38,0,0,0,0,0,9z,23,23
a0,0,e,d,h,0,0,0,3p,0,0,0,0,0,23,23
0,0,0,c,g,0,0,0,3a,0,1w,0,37,0,9z,23
0,0,0,b,f,0,0,0,3p,3p,0,0,0,0,0,6r
0,0,0,9x,9w,0,1w,0,0,0,0,0,0,0,0,9z
0,0,37,0,57,55,7z,8x,55,5b,54,55,9b,0,1w,0
0,0,0,53,9o,5a,5a,5a,5a,9y,5a,5a,9p,0,0,0
0,0,0,52,0,0,0,0,0,6j,0,0,59,58,0,0
0,0,0,50,52,2z,0,0,3a,0,0,1x,59,52,0,0
0,0,0,0,4z,4y,9u,9t,9v,9t,9s,9q,9r,0,0,0
0,0,0,0,0,0,0,0,0,0,0,0,0,0,37,0
0,1w,0,0,0,1w,0,0,0,0,0,0,0,0,0,0
0,0,0,0,0,0,0,0,0,0,0,1w,0,0,0,0
1x,0,0,0,0,0,0,1w,0,0,0,0,0,0,0,0
EXT 9,9 g 8,2
PAL 1

ROOM g
0,0,0,0,0,0,0,0,0,0,0,w,0,0,0,0
0,0,w,0,0,a5,0,0,0,0,0,0,0,0,0,w
0,0,0,0,0,0,0,0,0,0,0,0,0,0,0,0
0,0,0,0,0,0,0,0,0,0,0,0,0,0,0,0
0,0,w,0,0,0,0,0,0,w,0,0,0,a5,0,0
0,0,0,0,0,0,0,0,0,0,0,0,0,0,0,0
0,0,0,0,0,a5,0,0,0,0,0,0,0,0,0,0
0,0,0,0,0,0,0,0,0,0,w,0,0,0,0,0
0,0,0,0,0,0,0,0,0,0,0,0,0,0,0,0
0,0,0,w,0,0,0,0,0,0,0,0,0,w,0,0
0,0,0,0,0,0,0,0,0,0,0,0,0,0,0,0
0,a5,0,0,0,0,0,w,0,0,0,0,0,a5,0,0
0,0,0,0,0,0,0,0,0,0,0,0,0,0,0,0
0,0,0,0,0,0,0,0,0,0,0,0,0,0,0,0
0,0,0,w,0,0,0,0,a5,0,0,0,w,0,0,0
0,0,0,0,0,0,0,0,0,0,0,0,0,0,0,0
END undefined 8,4
END undefined 7,3
END undefined 9,3
END undefined 8,2
END undefined 7,4
END undefined 7,2
END undefined 9,2
END undefined 9,4
PAL 2

TIL 10
00000111
00000111
00000111
00000111
00000111
00000111
00000111
00000111
WAL true

TIL 11
00000000
00000000
00000000
10000000
11000000
11000000
11000000
11100000
WAL true

TIL 12
00000000
00000000
00000000
00000001
00000011
00000011
00000011
00000111
WAL true

TIL 13
00000000
11111111
11111111
00000001
00000000
00000000
00000000
00000000
WAL true

TIL 14
00000000
11111111
11111111
00000000
00000000
00000000
00000000
00000000
WAL true

TIL 15
00000000
11111111
11111111
10000000
00000000
00000000
00000000
00000000
WAL true

TIL 16
00000000
00000000
00000000
00000000
00000000
00000000
00000000
00000000

TIL 17
00011100
00011100
00011100
00111100
01111000
11110000
11100000
11000000
WAL true

TIL 18
00000000
00000000
10001101
01000000
00011010
00000000
10000010
11010000
WAL false

TIL 19
01010010
00000100
00010001
01000000
10001011
00100000
01001111
10110000
WAL false

TIL 20
00000000
00000000
11101111
00000000
11011111
00000000
11111011
00000000

TIL 21
00000000
00000000
11111101
00000000
11111011
00000000
11111011
00000000

TIL 22
00000000
00011000
00100100
11000011
00011000
01111110
11111111
00000000

TIL 23
11111111
11111111
11111111
11111111
11111111
11111111
11111111
11111111

TIL 24
00000110
00011000
01100000
10000000
00000011
00011111
00111111
01111111
WAL true

TIL 25
11111111
00000000
00000000
00000000
11111111
11111111
11111111
11111111
WAL true

TIL 26
01100000
00011000
00000110
00000001
11111000
11111100
11111110
11111111
WAL true

TIL 27
01011010
01001000
01011010
01001000
01011010
01001000
01011010
01001000
WAL true

TIL 28
01011010
00010010
01011010
00010010
01011010
00010010
01011010
00010010
WAL true

TIL 29
11111100
00000000
00000000
00000000
00000000
00000000
00000000
00000000
WAL true

TIL 30
00000000
10111000
11111100
01001100
00001100
00001000
00110000
01100000
WAL true

TIL 31
00100010
01001000
10011000
00010000
00100000
00000000
00000000
00000000

TIL 32
00000000
00000000
00000000
00000000
00000000
00000000
00000000
00000000

TIL 33
00000000
00000000
00000000
01000000
10000000
10110000
01000000
11000000
WAL true

TIL 34
00001010
01100110
00101100
00000000
00000000
00000000
00000000
00000000

TIL 35
00010000
00110000
01000000
01000000
00000000
00000000
00000000
00000000

TIL 36
01111110
10001100
10111101
11110011
10001100
11101001
01011110
01111110
WAL true

TIL 37
00000000
00000010
00000100
00000000
00111110
01110011
00111110
00000000
>
00000010
01000100
00101000
00000000
00111110
01111111
00111110
00000000

TIL 38
00000000
00000000
01000100
00000000
00101000
00000000
00100010
00000000

TIL 39
00000000
00000000
00010000
00100100
00000000
01010100
00100100
00000000

TIL 40
00000000
00000000
00000000
10000000
11000000
11100000
11110000
11110000

TIL 41
00000000
11111111
10000000
10000000
11000001
01111111
00111110
00000000
WAL true

TIL 42
00000011
01000000
00001100
11100000
00011110
11000001
00000000
00111101

TIL 43
01011101
01011101
01011101
01011101
01011101
01011101
01011101
01011101
WAL true

TIL 44
11111111
11111111
11111111
00000000
00000000
00000000
00000000
00000000
WAL true

TIL 45
01011101
01011101
01011101
01011101
01011101
01011101
01011101
01111111
WAL true

TIL 46
11111110
11111110
11111110
01111110
01111110
01111110
01111110
01111110
WAL true

TIL 47
01000010
10000001
00011000
00100100
00100100
00011000
10000001
01111110

TIL 48
01000010
10000001
00011000
00111100
00111100
00011000
10000001
01111110

TIL 49
00000000
11111111
11111111
00000000
00000000
00000000
00000000
00000000
WAL true

TIL 50
00011000
11000111
01100001
00011100
00000010
00000001
00000000
00000000
WAL true

TIL 51
00011100
11110000
00000011
00111110
11000000
00000000
00000000
00000000
WAL true

TIL 52
10000000
01000000
01000000
01100000
00100000
00100000
00010000
10001000
WAL true

TIL 53
00000100
00000000
00000100
00011101
00010001
00000000
01000110
01001100
WAL true

TIL 54
00000000
00001111
01111000
10000000
00000111
01111100
01000000
00000000
WAL true

TIL 55
00000000
11000000
01110000
00011110
00000000
11000000
00111110
00000000
WAL true

TIL 56
00000000
00000000
11111111
10000001
00000001
11111001
00010001
00010001
WAL true

TIL 57
00000000
00000000
01111111
01100000
01000011
11001110
10010000
10010000
WAL true

TIL 58
01000000
00000000
01000000
01000000
00000000
01000000
01000000
01000000
WAL true

TIL 59
00000000
00000010
00000100
00000100
00000100
00000100
00000000
00000000
WAL true

TIL 60
00000000
00000000
00011011
00111011
00110111
00110111
00111111
01111111
WAL true

TIL 61
00000000
00000000
11110111
11111011
11111111
11111111
11111111
11111111
WAL true

TIL 62
00000000
00000001
00000011
00000111
00001111
00011111
00111111
01111111
WAL true

TIL 63
00000000
00000000
00000000
00000001
00000011
00000111
00000111
00001111
WAL true

TIL 64
00000000
00000000
11111111
11111111
11111111
11111111
11111111
11111111
WAL true

TIL 65
00000000
00000000
11111011
11110111
11110111
11110111
11111111
11111111
WAL true

TIL 66
00111111
01111111
01111111
01000000
01000000
01000000
01000000
01000000
WAL true

TIL 67
11111110
11111111
11111111
00000001
00000001
00000001
00000001
00000001
WAL true

TIL 68
00100000
00100000
00110010
10010110
01110100
01111100
01111000
00111000
WAL true

TIL 69
01111111
00111111
10011111
11001111
11100111
11110011
11111001
11111100
WAL true

TIL 70
00100000
01110000
00100000
00100000
00100000
01110000
00100000
00100000
WAL true

TIL 71
00000000
00000000
00000000
00000000
00000001
00000000
00000001
00000000
WAL true

TIL 72
00000000
00000000
00000000
00000000
00000000
10000000
01000000
00100000
WAL true

TIL 73
00000000
00000000
01001000
11111110
01001001
00000000
00000000
00000000
WAL true

TIL 74
00001000
00000100
00000010
00000001
00000000
00000000
00000000
00000000
WAL true

TIL 75
00000000
00000000
00001100
01000000
00010010
00000000
01001010
00000000

TIL 76
00000000
00000000
00001100
01000000
00010010
00000000
01001010
00010000

TIL 77
01000000
10001110
00011000
10000100
00011000
01100110
10000000
00100100

TIL 78
00000100
00010000
00100010
00001000
01010000
00000100
01001000
00010000

TIL 79
00000110
00000000
00000000
00110000
00000000
00000000
00000000
00000000

TIL 80
00011000
10011100
11011100
00110110
00011010
00001000
00000000
00000000
WAL true

TIL 81
00000000
00000110
00000100
00011000
00010010
01011000
00000000
00100000
WAL true

TIL 82
01100000
01100000
11000000
00000000
00000000
00000000
00000000
00000000
WAL true

TIL 83
00000000
00000000
00000000
00100000
00010000
00000000
00110000
00000000
WAL true

TIL 84
00000000
00000000
01110000
01111000
01111000
11111100
10111100
11110000
WAL true

TIL 85
00111000
00111100
01111100
01111100
01011100
01101110
11101110
11110010
WAL true

TIL 86
00000000
00000000
00000000
00001110
00111111
01111101
00011110
00000000
WAL true

TIL 87
00000000
00000000
00000000
00000000
00000000
00000000
00000000
00000000

TIL 88
01000000
00010000
00100010
00110000
00001100
01100000
00111100
00000100
WAL true

TIL 89
10000000
11000000
11100000
11110000
11111000
11111100
11111110
11111111
WAL true

TIL 90
01001000
10000100
01000100
00110100
11111000
00000000
00000000
00000000
WAL true

TIL 91
00100000
00000000
10011000
00000000
00000000
01000000
00000000
00000000

TIL 92
11111111
11111111
11111111
11111111
11111111
10001110
00000000
00000000
WAL true

TIL 93
11111111
11111111
11111111
11111111
00111100
10010101
00000000
00000000
WAL true

TIL 94
11111111
11111111
11111111
11111111
00111111
10011111
00001111
00000011
WAL true

TIL 95
11111111
11111111
11111111
01111111
00111111
00011111
00000000
00000000
WAL true

TIL 96
11111111
11111001
11110011
11100111
11101111
11001100
10011101
11111011
WAL true

TIL 97
11111111
11111111
11111100
11111100
11111000
11111000
01110000
00000000
WAL true

TIL 98
00100010
00001010
00000000
00100010
00000000
00001000
00000000
00000000

TIL 99
00100010
00001000
00000010
00100000
00000000
00001000
00000000
00000000

TIL a
00101010
00010101
00001010
00000100
00001000
01010100
10101010
11111110
WAL false

TIL b
00001111
00001111
00001111
00011111
00011111
00111111
00111111
01111111
NAME tree 1
WAL true

TIL c
00111111
00001111
00000111
00000111
00000111
00001111
00001111
00001111
WAL true

TIL d
10010101
10010101
01010101
01010101
10111101
10111111
11111111
00011111
WAL true

TIL e
00000010
00000001
00000110
00010010
00001101
00000010
00000001
00000000
WAL true

TIL f
11000000
11000000
11100000
11100000
11110000
11110000
11111000
11111100
WAL true

TIL g
10010000
11100000
11000000
11000000
11000000
11000000
11000000
11000000
WAL true

TIL h
00100100
01100100
01001000
10010000
10010011
11100110
11001000
11111000
WAL true

TIL i
00010110
00001000
01010010
01000001
00101010
01000110
00100000
00011010

TIL j
00000000
01000000
10010010
00000000
00010010
00000000
00100100
00000000

TIL k
00000000
00000000
00000000
11000000
11110000
11111111
11111111
11111111
WAL true

TIL l
11111100
11111111
11111111
11111111
11111111
11111111
11111111
11111111
WAL true

TIL m
00000000
00000000
00000000
00000000
10000000
11000000
11110000
11111000
WAL true

TIL n
11111000
11111110
11111111
11111111
11111111
11111111
11111111
11111111
WAL true

TIL o
00111111
00111111
00111111
01111011
01110001
11111011
11111111
11111111

TIL p
00000000
10000000
11000000
11110000
01111111
01111111
00111111
00011111

TIL q
11100000
01110000
01110000
00110000
11110000
11111000
11111000
11111000

TIL r
00001100
00000111
00000011
00000000
00000000
00000000
00000000
00000000

TIL s
00000000
00000000
00000000
00000000
00000000
11100000
00100000
00011000

TIL t
00000000
00000000
00000000
00000100
00001111
00011000
00010000
00000000

TIL u
00000000
00000000
00000000
00000000
00000000
11111111
11111111
11111111
WAL true

TIL v
00111000
00111000
00111000
00111100
00011110
00001111
00000111
00000011
WAL true

TIL w
00000000
00000000
00010000
00000000
00000000
00000000
00000000
00000000
>
00000000
00010000
00101000
00010000
00000000
00000000
00000000
00000000

TIL x
00000000
00000000
00000000
00000000
00000000
11011011
11011110
10111111
WAL true

TIL y
00000000
00000000
11111111
00000000
11111111
00000000
11111111
00000000

TIL z
11100000
11100000
11100000
11100000
11100000
11100000
11100000
11100000
WAL true

TIL 1a
11110111
00111110
11010001
01101000
10011100
01111110
01100001
00001100
WAL true

TIL 1b
00000000
01111100
11111110
11111110
11111110
11111110
11111110
01111100
WAL true

TIL 1c
00011000
01111100
11111100
11111100
11111000
11110000
11100000
00000000
WAL true

TIL 1d
01111000
01111110
01111110
01111110
00111110
00011110
00001110
00000000
WAL true

TIL 1e
00001000
00010000
00010010
00100110
00101000
00010001
00011111
00110000
WAL true

TIL 1f
00010000
00000000
00100100
00110100
01001000
00111000
00010100
11110100
WAL true

TIL 1g
00110000
10100000
01010000
01000010
00001100
00010001
00111111
00110011
WAL true

TIL 1h
10000000
01100100
00100100
00110000
01111101
00111101
00010100
11110100
WAL true

TIL 1i
00000000
00010010
00010010
00100110
00100100
01111100
01101000
11111100
WAL true

TIL 1j
00000000
00000000
00001000
00000000
10010100
00000000
00001001
00000000

TIL 1k
00000000
00000000
00000000
00000000
00000000
00000000
00000000
00000000

TIL 1l
00000000
01111100
11111010
11010110
11000110
11101110
11110110
00111000
WAL true

TIL 1m
00000000
01011100
11101010
11101010
11110110
11111110
11110110
00111000
WAL true

TIL 1n
00000011
11000000
00001100
11100000
00011110
11000001
00000000
11111101

TIL 1o
00000000
00000000
00000000
01011000
00000000
10111010
00000000
11111000

TIL 1p
00000000
10011110
00000000
01101001
00000010
01110000
00000000
00011101

TIL 1q
00000000
10011010
01100111
00000000
00000000
00000000
00000000
00000000
WAL true

TIL 1r
00000000
10011111
11101111
00000000
00000000
00000000
00000000
00000000
WAL true

TIL 1s
00000011
11000000
00001100
11100000
00011110
11000001
00000000
11111101

TIL 1t
00010000
00011000
00100100
01010100
11111111
11111111
01111110
00111100
>
00010000
00110100
00101010
01001010
11111111
11111111
01111110
00111100
WAL true

TIL 1u
00000000
00111111
01111100
11111001
11111000
01111100
00111111
00000000
>
00000000
00111111
01000000
10000000
10000000
01000000
00111111
00000000

TIL 1v
00000000
11111100
00111110
00011111
00011111
00111110
11111100
00000000
>
00000000
11111100
00000010
00000001
00000001
00000010
11111100
00000000

TIL 1w
00000010
00000100
00000000
00010000
00100000
00000000
00000000
00000000
>
00000100
00001000
00000000
00000000
00100010
00000100
00000000
00000000

TIL 1x
00000000
00000000
00000000
00010100
00100010
10010010
01000100
00111000
>
00000000
00000010
00000100
00000000
00001000
00000000
00000000
00000000

TIL 1y
00000000
00000000
00000000
00000000
01001100
01101110
00001000
00010000
>
00000000
00000000
00000000
00000000
00001000
01101110
00100010
00100010
WAL true

TIL 1z
00000000
01101100
11101010
11111110
11111110
11110110
11110110
01111100
>
00000000
01111100
11101010
11101010
11111010
11111110
11111110
01110100
WAL true

TIL 2a
01111011
10000000
00111111
11101111
00100000
01011011
11110000
00001111
WAL true

TIL 2b
00100100
00100100
00100100
00100100
00100100
00100100
00100100
00100100
WAL true

TIL 2c
10010000
10010000
10010000
10010000
10010000
10010000
10010000
10010000
WAL true

TIL 2d
00000000
01111111
10000000
10101000
10010100
01000000
00111111
00100100
WAL true

TIL 2e
00000000
11111000
00000100
01010100
10100100
00001000
11110000
10010000
WAL true

TIL 2f
00000000
00000000
00000000
00000000
00000000
00000000
00000000
00000000

TIL 2g
00001000
00000100
00000100
00000100
11111000
00000000
00000000
11111000
WAL true

TIL 2h
01000000
10000000
10000000
10000000
01111111
00000000
00000000
00000000
WAL true

TIL 2i
11111111
11110111
11101111
11111101
10111011
11111111
11111111
11111111
>
11111111
11111011
11110111
11111111
10111111
01111101
11111011
11110111
WAL true

TIL 2j
11111111
11111111
11111111
11111111
11111111
11100111
10000001
00000000
WAL true

TIL 2k
11111111
11111111
11101111
11111101
10111011
11111111
11111111
11111111
>
11111111
11111011
11110111
11111111
11111111
10111101
11111011
11111111
WAL true

TIL 2l
00000001
00000010
00001100
00010100
00100100
00100100
00100100
00100100
WAL true

TIL 2m
11000000
10100000
10010000
10010000
10010000
10010000
10010000
10010000
WAL true

TIL 2n
00000000
00000011
00000010
11111110
10000111
00111110
11111110
10000111

TIL 2o
00001111
00110001
01100101
11000111
00011011
01110111
11001111
01001111

TIL 2p
00000010
00000011
00000011
00000011
00000011
00000011
00000111
00000111
WAL true

TIL 2q
00000110
00011100
01111100
11000110
00000100
00111110
00111000
00000000

TIL 2r
01100000
01100000
01100000
01000000
01100000
01100000
01100000
01100000
WAL true

TIL 2s
00000000
00000110
00001110
00111111
00111111
01111100
00110110
00010000
WAL true

TIL 2t
00000000
11111111
01101111
11001110
00000000
00000000
00000000
00000000
WAL true

TIL 2u
00000000
11111111
11111111
11111111
00000000
11011001
00000000
10010110
WAL true

TIL 2v
00000000
01111111
11111110
11000111
11000000
01000000
11000000
01000000
WAL true

TIL 2w
11000000
11000000
11000100
11000100
11000100
11000100
11000100
11000000
WAL true

TIL 2x
00000000
00000000
00000000
00000000
00000110
11111111
00110000
00000000
WAL true

TIL 2y
11000000
11000000
11000000
11000000
11000000
01111111
00000000
01110010
WAL true

TIL 2z
00000000
00000000
00000000
00000000
00011110
11111111
00110000
00000110
WAL true

TIL 3a
00000000
00000010
00001100
01000000
00000111
00011000
00000000
00000000

TIL 3b
00000000
00111100
01111110
01111110
01111110
01111110
00111100
00000000
WAL true

TIL 3c
00000000
00111100
01000010
01000010
01000010
01000010
00111100
00000000
WAL true

TIL 3d
00000000
00110100
01110110
01101110
01011110
01111110
00111100
00000000
WAL true

TIL 3e
00000000
00110100
01110110
01101110
01011110
01110110
00111000
00000000
WAL true

TIL 3f
00000000
01001100
00000000
00100000
00010000
00000110
01100000
00000000
WAL false

TIL 3g
00000000
11000110
10101000
11001000
10101000
10101000
11000110
00000000

TIL 3h
00000000
11111111
11111111
00000000
00100010
00000000
00000000
00000000
WAL true

TIL 3i
11111100
11111110
11111111
11111111
01111111
00111111
00011111
00001111

TIL 3j
11111100
11111110
11111111
11111111
11111111
01111111
00111111
00011111

TIL 3k
00000000
00000000
00000000
10000000
11000000
11100000
11110000
11111000

TIL 3l
00000111
00000111
00000011
00000001
00000000
00000000
00000000
00000000

TIL 3m
00000001
00000001
00000000
00000000
00000000
00000000
00000000
00000000

TIL 3n
01111110
01100110
01100110
01100110
00100100
01100110
01100110
01100110
WAL true

TIL 3o
00000000
00000000
01100110
01100110
00100100
01100110
01100110
01100110
WAL true

TIL 3p
00000000
00000000
00000000
01100000
00000000
00001100
00000000
00000000

TIL 3q
00000000
00111100
01000010
01011010
01011010
01000010
00111100
00000000

TIL 3r
00000000
01000000
00010010
00100000
00100010
00011100
10000001
01000000

TIL 3s
00000000
11111110
11111110
00000000
00100010
00000000
00000000
00000000
WAL true

TIL 3t
00000000
00000000
00000000
00000000
00000000
00000000
01111100
11111111

TIL 3u
00000000
00000000
00000000
10000000
01000000
01000000
00000000
00000000

TIL 3v
00000000
00000000
00000000
00000001
00000010
00000010
00000000
00000000

TIL 3w
00000000
00000000
00000000
00100000
00000000
00000000
00001000
00000000

TIL 3x
11111100
11111110
11111111
11111111
11111111
01111111
00111111
00011111

TIL 3y
00000000
00000000
00000000
10000000
11000000
11100000
11110000
11111000

TIL 3z
00001111
00000111
00000011
00000001
00000000
00000000
00000000
00000000

TIL 4a
11000000
11100000
01110000
00110000
00000000
00000000
00000000
00000000

TIL 4b
00000000
11111111
11111111
00000000
00010001
00000000
00000000
00000000
WAL true

TIL 4c
00000000
00000111
00001111
00011100
00111001
00110000
00110100
00110000
WAL true

TIL 4d
00110000
00110000
00110100
00110000
00110000
00110000
00110100
00110000
WAL true

TIL 4e
00110000
11110100
11100000
00000000
00100000
00000000
00000000
00000000
WAL true

TIL 4f
00110000
00100000
00000000
00010000
00100000
00000000
00010000
00000000
WAL true

TIL 4g
00000000
00000000
00000000
00000000
00000000
00000000
11111111
11111111
WAL true

TIL 4h
00000000
00000000
00000000
00000000
00000000
00000000
00000001
00000011
WAL true

TIL 4i
00000000
00000000
01010101
10101010
00000000
00000000
00000000
11111111
WAL true

TIL 4j
10000000
10000000
10010101
10101010
10000000
11000000
11100000
01111111
WAL true

TIL 4k
00000001
00000001
01010101
10101001
00000001
00000011
00000111
11111110
WAL true

TIL 4l
01000000
01000000
01010101
01001010
01000000
01100000
01110000
00111111
WAL true

TIL 4m
00000000
00000000
01010001
10101011
00000011
00000001
00000000
11111111
WAL true

TIL 4n
00000000
00000000
10010101
11001010
11000000
10000000
00000000
11111111
WAL true

TIL 4o
00111100
00000000
11110000
01111110
00000000
01000000
01110110
00000000
WAL true

TIL 4p
00001000
00001000
00001000
00011100
00001000
00001000
00001000
00001000

TIL 4q
00000000
11000100
01100100
01010100
00010100
00011000
00001000
00000000

TIL 4r
00000000
00111100
01111110
01111110
01111110
01111100
00110000
00000000
WAL true

TIL 4s
11111111
11111111
11111111
11111111
11111111
11111111
11111111
11111111
WAL true

TIL 4t
00000111
00000111
00001111
00001111
00011111
00011111
00011111
00011111
WAL true

TIL 4u
01111111
01111111
11111111
11111111
11111111
11111111
11111111
11111111
WAL true

TIL 4v
00111100
01111100
01111010
11100010
11101011
11111010
01110000
01100111
WAL true

TIL 4w
00110100
01110100
10110100
10101010
00101000
10010010
11010011
00010011
WAL true

TIL 4x
00000000
00000011
00001100
00111000
11100001
00000011
00001110
11111000
WAL true

TIL 4y
00000000
00000000
00000000
00000000
11100101
00111000
00000000
11111111
WAL true

TIL 4z
00000000
10000000
01100000
00111100
10000111
11000000
00110000
00011111
WAL true

TIL 5a
11000111
11111011
10111100
11101111
00000000
00000000
00000000
00000000
WAL true

TIL 5b
01000010
01111110
01000010
01111110
01000010
01111110
01000010
01111110

TIL 5c
01000010
01100110
00101100
00101000
00011000
00010100
00010110
00000010

TIL 5d
00001000
10010000
11011000
01010000
00101100
00100100
01000110
01000010

TIL 5e
10000001
01000011
00000010
01000100
00110100
00010100
00001000
00001100

TIL 5f
00000000
00000000
00000000
00001100
00000010
00000010
00000001
00000000

TIL 5g
00000100
10000100
01101100
00101000
01011000
01001100
10000100
10000110

TIL 5h
00001000
00001000
10010000
01010001
01111110
00011000
00111000
00101100

TIL 5i
01000001
01000001
00100010
00000100
00010100
00001000
00001000
00011000

TIL 5j
00100100
00100100
00101100
00011011
00010001
00011000
00111100
00100100

TIL 5k
00000010
00000100
10001100
11011000
01011100
00010100
00110011
00100001

TIL 5l
00000000
00000000
01000000
00000000
11010000
00111000
00000100
00000010

TIL 5m
00000001
00000111
00001111
00011101
00111111
01111111
01111111
11011111
WAL true

TIL 5n
11000000
11100000
11110000
10111000
11111100
11111010
11111111
11111111
WAL true

TIL 5o
11111100
11110110
11111110
11111111
11111110
11111111
11101110
11111111
WAL true

TIL 5p
00111111
01111111
11111111
11011111
01111111
11011111
01011111
01011111
WAL true

TIL 5q
00111111
00111111
00111111
00111111
00011111
00011111
00001111
00000111
WAL true

TIL 5r
01111111
01111111
00111111
00111111
00011111
00011111
00001111
00001111
WAL true

TIL 5s
00000000
00000000
00000000
00000000
00000000
10000000
11000000
11100000
WAL true

TIL 5t
00001111
01110000
11000010
00000111
11111100
01000000
00000000
00000000
WAL true

TIL 5u
11111000
11111100
11111100
11111110
11111111
11111111
11111111
11111111
WAL true

TIL 5v
00000000
00111100
01111110
01110110
01111110
01001110
00011100
00000000
WAL true

TIL 5w
00000000
00101100
01110010
01111110
01111110
01111000
00100000
00000000
WAL false

TIL 5x
00111010
00000000
00000110
01101000
00000000
11111111
11111111
00000000
WAL true

TIL 5y
00011010
00011001
00011000
00011001
00001110
00001111
00000011
00000000
WAL true

TIL 5z
00011000
00011000
00011000
00011000
00011000
00011000
00011000
00011000
WAL true

TIL 6a
00000000
00000000
00000000
00000001
00000011
00001111
00011111
00111111
WAL true

TIL 6b
00000001
00000111
00001111
00011111
00111111
00111111
01111111
01111111
WAL true

TIL 6c
11111111
11111000
11100000
10000111
00011111
00111111
11111111
11111111
WAL true

TIL 6d
11111111
00000000
00000000
11111111
11111111
11111111
11111111
11111111
WAL true

TIL 6e
00000111
00011111
01111111
11111111
11111111
11111111
11111111
11111111
WAL true

TIL 6f
10010000
11010000
01100000
11100000
01100000
11100000
11010000
10010000
WAL true

TIL 6g
10000000
10100000
01100000
01100000
00011000
00001000
00001110
00000011
WAL true

TIL 6h
00000001
00000010
00001100
00011000
00110000
01100000
11000000
10000000
WAL true

TIL 6i
00000000
00000000
00001000
00110000
01101000
00000100
00100010
00001001
WAL true

TIL 6j
00000000
00000011
00011000
00000100
00100010
00001000
00000000
00000000

TIL 6k
11110110
11111111
11101101
11101111
11101010
11101010
10101010
10101010
WAL true

TIL 6l
01110111
11111111
11101101
11111111
11111010
11101011
10111110
11101010
WAL true

TIL 6m
11111111
11111111
11111101
10011011
11001011
11101011
11100111
11100111
>
11111111
11111111
00111111
10011101
11001011
11001011
11101011
11100111
WAL true

TIL 6n
11011111
11101111
11100101
10010011
11000011
11101011
11100111
11100111
>
11111111
11111011
00110011
10010101
11000011
11001011
11101011
11100111
WAL true

TIL 6o
00001111
00011111
00111111
01111111
11111111
11111111
11111111
11111111
WAL true

TIL 6p
11111111
11111111
11111111
11111111
11111110
01111100
10100000
10000000
WAL true

TIL 6q
00000000
00000000
00000000
00000000
00011111
00111111
01111111
11111111
WAL true

TIL 6r
11111111
11111111
11111111
11111111
11111111
11111111
11111111
11111111
WAL true

TIL 6s
00000011
00000111
00011111
11001111
11110111
11111111
11111111
11111111
WAL true

TIL 6t
00000000
00000111
00001000
00011000
00100001
00101110
00001000
01110000
WAL true

TIL 6u
00000000
00000000
00000010
01001100
00101000
00101000
00101000
00001000

TIL 6v
00000000
00110000
00011100
01011110
11101110
11111110
00000000
00000000
WAL true

TIL 6w
00000000
00000000
00000000
00000000
00000000
00000010
00010100
01010100

TIL 6x
00010000
00111000
00010000
00010000
00010000
00111000
00010000
00010000
WAL true

TIL 6y
00000000
00000000
00000000
00000001
00000010
00000100
00001000
00010000
WAL true

TIL 6z
00100000
01000000
10000000
00000000
00000000
00000000
00000000
00000000
WAL true

TIL 7a
00110100
00110100
00111000
00111000
01111010
01111000
01000010
01000000
WAL true

TIL 7b
00110110
00110100
00111000
00111000
00011010
00100000
00000000
00000000
WAL true

TIL 7c
00000000
00000000
10111100
00000000
11011101
00000000
10110011
00000000

TIL 7d
00000000
00000000
10110100
00001000
11100101
00100000
10010011
00000000
WAL true

TIL 7e
00000000
00000000
00001111
00000000
00000000
00110001
00000000
00000100

TIL 7f
00000000
00010100
00000000
01100000
00000000
00101100
11011100
00000000
WAL true

TIL 7g
00000000
00000000
00001010
00011110
00000000
00101100
11011111
00000000
WAL true

TIL 7h
00000000
00000000
00000011
00001100
00000011
00001100
00000001
00000010

TIL 7i
00000000
00000000
00000000
00110100
00101110
01111110
01101110
11011110
WAL true

TIL 7j
00000000
00000000
00000000
00000000
00100000
01111100
11111110
11111101
WAL true

TIL 7k
00000000
00111100
01000010
01010010
01011010
01100010
00111100
00000000

TIL 7l
00000000
00010100
01000010
01000000
01011010
00100010
00110100
00000000

TIL 7m
00111011
11000000
00111111
00000000
00000000
00000000
00000000
00000000
WAL true

TIL 7n
00000000
11111111
11111111
00000000
00000000
00000000
00000000
00000000
WAL true

TIL 7o
00110000
00110000
00110000
00110000
00110000
00110000
00110000
00110000
WAL true

TIL 7p
00110000
00110000
00100000
00000000
00110000
00010000
00110000
00110000
WAL true

TIL 7q
00000000
11101111
11011011
00000000
00000000
00000000
00000000
00000000
WAL true

TIL 7r
00000000
11000110
01010001
00000000
00000000
00000000
00000000
00000000
WAL true

TIL 7s
00000000
11111110
11010001
00000000
00000100
00000000
00110000
01000000
WAL true

TIL 7t
00000000
01001111
00000011
00100000
01011100
00110011
00001110
01000000
WAL true

TIL 7u
00111101
10000000
00000000
00000000
00000000
00000000
00000000
00000000
WAL true

TIL 7v
00000000
00000010
00000100
00001000
00010000
00100000
01000000
00000000
WAL true

TIL 7w
10000000
10000000
10000000
10000000
10000000
10000000
10000000
00000000
WAL true

TIL 7x
10000000
11000000
01100000
00110000
00011000
00001000
00000000
00000100
WAL true

TIL 7y
00000000
00000000
00001110
00111110
01111110
00111100
01110000
00000000
WAL true

TIL 7z
00000000
00001000
11000111
00011000
11100010
00111111
00011101
00000000
WAL true

TIL 8a
00000000
00000001
00000001
00000111
00001111
00011111
01111111
11111111
WAL true

TIL 8b
10011110
10111100
10111011
10111011
11111011
11110111
11111111
11111111
WAL true

TIL 8c
00000000
00000100
00001110
00111110
00111110
01111110
01111110
01111100
WAL true

TIL 8d
00000000
01000000
11100000
11100000
11110000
11111000
11111100
01111100
WAL true

TIL 8e
00000000
01100000
11101100
11101100
11001110
11011110
11111100
01111100
WAL true

TIL 8f
00000000
00000000
00000100
00011110
10111110
11111110
11111110
01111100
WAL true

TIL 8g
00000000
00000000
00000000
01010110
11011010
11011110
11111110
01110100
WAL true

TIL 8h
00000000
00000000
00000000
00000000
00010000
10110000
11001100
01100100
WAL true

TIL 8i
00001000
00000100
00000100
00000100
11111000
00000000
00000000
00000000
WAL true

TIL 8j
00000000
00000000
01101010
00010000
00100100
00000000
00000000
00000000
WAL true

TIL 8k
00000000
00000000
10100010
01010000
00000100
00000000
00000000
00000000
WAL true

TIL 8l
00000000
00000000
11101010
00111111
00000000
00000000
00000000
00000000
WAL true

TIL 8m
00000000
00000000
11111111
11110110
00000000
00000000
00000000
00000000
WAL true

TIL 8n
00000000
00000000
10000000
11110000
00000000
00000000
00000000
00000000
WAL true

TIL 8o
00000000
00000000
00000011
00010101
00000000
00000000
00000000
00000000
WAL true

TIL 8p
00000000
00000000
01110111
11111110
00000000
00000000
00000000
00000000
WAL true

TIL 8q
00000000
00000001
00000011
00000111
00011111
00101111
00111111
11111111
WAL true

TIL 8r
00000000
01101010
11000110
00011001
00000000
00000000
00000001
00000000
WAL true

TIL 8s
00000000
10011110
00000000
01101001
00000010
01110000
00000000
00011101
WAL true

TIL 8t
00000000
00000000
00000000
01011000
00000000
10111010
00000000
11111000
WAL true

TIL 8u
10100000
11100000
11010000
10001000
10101100
11010110
11010010
11111111
WAL true

TIL 8v
00000000
10000000
00000000
01000000
01000000
00100000
00110000
00001000
WAL true

TIL 8w
00000000
00000000
00000000
00000000
00000000
11111101
00000000
00000000
WAL true

TIL 8x
00000000
00000000
00000000
00000001
00000011
10111111
00000000
00000000
WAL true

TIL 8y
00000000
00000000
00000000
00000000
00000000
11000110
00011000
00000000
WAL true

TIL 8z
01000001
10001000
10000100
10010000
01001111
00000000
00000000
00000000
WAL true

TIL 9a
00000000
00000000
10110100
00001000
11100101
00100000
10010011
11010001
WAL true

TIL 9b
00000000
00000000
00000000
00000000
10000000
11100000
01110010
01110100
WAL true

TIL 9c
00000000
00000000
11000000
01100000
10110000
01100000
10010000
01111010
WAL true

TIL 9d
00000000
00000000
00000110
00001100
00000110
00001110
00011111
00111111
WAL true

TIL 9e
00000000
00011110
00011100
00000000
01111010
00000000
01111000
00111100
WAL true

TIL 9f
10000000
00000000
11000000
00100000
00000000
01010000
01111000
00000000
WAL true

TIL 9g
10000000
01011110
00011100
00000000
01111010
00000000
01111000
00111100
WAL true

TIL 9h
00000000
00000000
00000000
00000000
00000000
11100001
10011100
00000000
WAL false

TIL 9i
00111010
00000000
00000110
01101000
00000000
11101110
11110100
00000000
WAL true

TIL 9j
00000000
00000000
00000000
00000000
00000000
11110111
11101111
11101101
WAL true

TIL 9k
00000000
00000000
00000001
00000010
00000100
00001101
00011000
00110110
WAL true

TIL 9l
00000000
00000000
00000000
01000000
00100000
10010000
11010000
11110100
WAL true

TIL 9m
00000000
00000000
00000000
00000000
00000000
00000000
00000000
00000000
WAL true

TIL 9n
00000000
00000000
00000000
00001000
00001000
01001010
00101010
00111001
WAL true

TIL 9o
00000011
00001110
00111011
00101110
00111100
00111000
00100000
00010000
WAL true

TIL 9p
10010000
01011000
01001000
01100100
00100010
00100010
00010001
10001001
WAL true

TIL 9q
00000000
00000000
00000000
00000000
00000011
00001111
11111111
11111111
WAL true

TIL 9r
00000100
00000000
00000100
00011101
00010001
10000000
01000110
00001100
WAL true

TIL 9s
00000000
00000000
00000000
00000000
00000000
11110000
11111111
11111111
WAL true

TIL 9t
00000000
00000000
00000000
00000000
00000000
00000000
11111111
11111111
WAL true

TIL 9u
00000000
00000000
00000000
00000000
00000000
10000000
01111101
00000011
WAL true

TIL 9v
00000000
00000000
00000000
00000000
00000000
11111100
10000011
00000000
WAL true

TIL 9w
00111110
00011001
00010000
00100000
00000000
00000000
00000000
00000000
WAL true

TIL 9x
11001111
10000110
01000011
00000001
00000000
00000000
00000000
00000000
WAL true

TIL 9y
01000010
01111110
01000010
01111110
01000010
01111110
01000010
01000010

TIL 9z
11111111
11111111
11111111
11111111
11111111
01111111
00111111
00001111
WAL true

TIL a0
11111111
11111111
11111111
11111111
11111110
11111100
11111000
11110000
WAL true

TIL a1
11111111
11111111
11111111
01111111
00111111
00001111
00000000
00000000
WAL true

TIL a2
11111111
11111111
11111111
11111111
11111111
11111111
00111111
00001111
WAL true

TIL a3
11111111
11111111
11111111
11111111
11111110
11111000
00000000
00000000
WAL true

TIL a4
00000000
01001100
00000000
00100000
00010000
00000110
01100000
00000000
WAL true

TIL a5
00000000
00010100
00001000
00010100
00000000
00000000
00000000
00000000
>
00000000
00001000
00010100
00001000
00000000
00000000
00000000
00000000

SPR 10
00000000
00000000
11111111
00000000
11111111
00000000
11111111
00000000
POS 3 10,13

SPR 11
00000000
00000000
11101111
00000000
11011111
00000000
11111011
00000000
POS 3 8,13

SPR 12
01000010
10000001
00011000
10100101
00100100
00011000
11000011
00111100

SPR 13
00000000
00000000
00000011
01010111
00000011
00000000
00000000
00000000
POS 3 10,15

SPR 14
00000000
00000000
11000000
11101010
11000000
00000000
00000000
00000000
POS 3 8,15

SPR 15
00000000
00000000
00000000
10000000
00000000
00000000
00000000
00000000
POS 3 11,15

SPR 16
00000000
00000000
00000000
00000001
00000000
00000000
00000000
00000000
POS 3 7,15

SPR 17
00111100
01011010
01011010
00111100
01111110
01111110
00111100
00011000
POS 3 8,4

SPR 18
00001000
00010100
00001000
00000000
00001000
00111110
00111110
00011100
>
00010100
00001000
00010100
00001000
00001000
00111110
00111110
00011100
POS 3 7,10

SPR 19
00111100
00011000
00011000
00111100
01111110
01111110
00111100
00011000

SPR 20
00000000
00000000
00000000
00000000
00000000
00000000
00000000
00111011
POS 5 4,3

SPR 21
00000000
00100000
00100000
00001000
00010000
00000000
00000000
00000000
POS 5 12,4

SPR 22
00000000
00000010
01000000
00001000
00010000
00000000
00000010
00000000
POS 4 12,8

SPR 23
00000000
00000000
00100000
00000010
00001110
00011010
00101100
00000000
POS 4 2,8

SPR 24
00000000
00000000
00000000
00000000
00000000
00000000
01010101
11111111
POS 4 8,15

SPR 25
00000000
00000000
00000000
00000000
00000000
00000000
01010101
11111111
POS 4 7,15

SPR 26
00000000
00000000
00000000
00001000
00010100
00001001
00001101
00011001
POS 6 5,15

SPR 27
00000000
00000000
00000000
00001000
00010100
00001000
00001100
00011000

SPR 28
00000000
00000000
00000010
00000100
01000100
00101100
00011000
00001000
POS 6 12,15

SPR 29
00000000
00100000
01000000
10000000
10000000
00100000
01000000
01000000
POS 6 6,15

SPR A
00001000
00000000
00011110
00111101
01011100
00011100
00010100
00000100
>
00010000
00000000
00111100
01111010
10111001
00111000
00101000
00100000
POS 0 7,9

SPR a
00000000
00000000
01010001
01110001
01110010
01111100
00111100
00100100

SPR b
01100000
10110000
01100000
01100000
11110000
01100000
01100000
01100000
DLG SPR_0

SPR c
00000000
00000000
00100000
00000010
00001110
00011010
00101100
00000000
POS b 7,9

SPR d
00000000
00000010
01000000
00001000
00010000
00000000
00000010
00000000
POS b 10,5

SPR e
00000000
00100000
00100000
00001000
00011000
00000000
00000000
00000000

SPR f
00000000
00000000
00000000
00000000
00000000
00000000
00000000
01111011
POS 5 7,3

SPR g
00000000
00000000
00000000
00000000
00000000
00000000
00000000
11111110
POS 5 8,3

SPR h
00000000
00000000
00000000
00000000
00000000
00000000
00000000
11011111
POS 5 6,3

SPR i
00000000
00000000
00000000
00000000
00000000
00000000
00000000
00111011
POS b 11,10

SPR j
00000000
00000000
00000000
00000000
00000000
00000000
00000000
11111111
POS 5 5,3

SPR k
00000000
00000000
00000000
00000000
00000000
00000000
00000000
11110000
POS 5 9,3

SPR l
00000000
00111100
01011010
00111100
01010110
01101010
00111100
00011000
POS 3 10,4

SPR m
00111100
01011010
01011010
00111100
01110110
01101110
00111100
00011000
POS 2 9,7

SPR n
00000000
00011100
00100010
01001001
01001001
00100010
00011100
00000000

SPR o
00010100
00001000
00010100
00001000
00001000
00111110
00111110
00011100
>
00001000
00010100
00001000
00000000
00001000
00111110
00111110
00011100
POS 3 11,10

SPR p
00000000
00111100
01011010
00111100
01101010
01010110
00111100
00011000
POS 2 3,7

SPR q
00000000
00000100
00001000
00010000
00000010
00000100
00000000
00000000
>
00000000
00000000
00010000
00100010
00000100
00001000
00000000
00000000
POS 3 0,2

SPR r
00000000
00000100
00001000
00010000
00000010
00000100
00000000
00000000
>
00000000
00000000
00010000
00100010
00000100
00001000
00000000
00000000
POS 3 2,1

SPR s
00000000
00000000
00000000
00000000
00000000
00000000
00000000
00000000

SPR t
00000000
00000100
00001000
00010000
00000010
00000100
00000000
00000000
>
00000000
00000000
00010000
00100010
00000100
00001000
00000000
00000000
POS 3 1,5

SPR u
00000000
00000100
00001000
00010000
00000010
00000100
00000000
00000000
>
00000000
00000000
00010000
00100010
00000100
00001000
00000000
00000000
POS 3 0,8

SPR v
00000000
00000000
00000000
00100010
00010100
00001000
00001000
00001000
>
00000000
00000000
00000000
00001000
00100100
00011000
00001000
00001000
POS 3 5,13

SPR w
00000000
00000000
00000000
00100010
00010100
00001000
00001000
00001000
>
00000000
00000000
00000000
00001000
00100100
00011000
00001000
00001000
POS 3 13,14

SPR x
00000000
00000000
00000000
00000010
00100010
00010100
01001100
00111000
>
00000000
00000000
00000000
00000001
00001001
00010010
00101100
00111000
POS 3 14,13

SPR y
00000010
00000100
00000000
00111110
01111111
00111110
00000000
00000000
>
00100010
00010100
00000000
00111110
01100111
00111110
00000000
00000000
POS 3 1,11

SPR z
00000000
00000000
11111111
00000000
11111111
00000000
11111111
00000000

SPR 1a
00000000
00000000
00000000
00000000
00000001
10010000
01001010
00000000
POS 3 0,10

SPR 1b
00000000
00000000
00000000
00000000
00000001
10010000
01001010
00000000

SPR 1c
01000010
10000001
00011000
10100101
00100100
00011000
11000011
00111100

SPR 1d
01000010
10000001
00011000
10100101
00100100
00011000
11000011
00111100

SPR 1e
01000010
10000001
00011000
10100101
00100100
00011000
11000011
00111100

SPR 1f
00000000
00000000
00011000
00100100
00100100
00011000
00000000
00000000

SPR 1g
01000010
10000001
00011000
10111101
00111100
00011000
11000011
00111100
POS 3 11,14

SPR 1h
01000010
10000001
00011000
10111101
00111100
00011000
11000011
00111100
POS 3 7,14

SPR 1i
00000000
00000000
11111111
00000000
11111111
00000000
11111111
00000000
POS 3 8,12

SPR 1j
00000000
00000000
11111111
00000000
11111111
00000000
11111111
00000000
POS 3 8,11

SPR 1k
00000000
00000000
00000000
00000000
00000000
00000000
00000000
00000000

SPR 1l
00000000
00000000
11111111
00000000
11111111
00000000
11111111
00000000
POS 3 10,11

SPR 1m
00000000
00000000
11111101
00000000
11111011
00000000
11111011
00000000
POS 3 10,12

SPR 1n
00000000
00000000
00000100
00000110
00001000
00110000
00010000
00000000
POS c 10,9

SPR 1o
00011000
00110100
00101100
00011100
00000000
00000000
00000000
00000000

SPR 1p
00000000
10000010
01101100
10000010
01101100
00000000
00000000
00000000

SPR 1q
00000000
00000000
00000100
00001000
10010000
01100000
01100000
10010000
POS c 7,10

SPR 1r
00000100
01001110
01001110
01011010
00101100
00000010
11000100
00001000
POS c 10,10

SPR 1s
00000000
00011111
00001110
00000000
00000000
00000000
00000000
00000000

SPR 1t
00000000
00000000
00000000
00000000
00000000
00000000
00000000
00000000

SPR 1u
00000000
00000000
00000000
00000000
00000000
00000000
00000000
00000000
POS 4 9,5

SPR 1v
00000000
00100010
01100000
01001001
00010010
00000100
00001100
00000000
POS b 14,9

SPR 1w
00000000
00000000
00000000
00000100
00000010
00001000
00000010
00000000
POS b 13,9

SPR 1x
00000000
00100010
01100000
01001001
00010010
00000100
00001100
00000000
POS 5 8,8

SPR 1y
00000000
00000000
00000000
00000100
00000010
00001000
00000010
00000000
POS 5 4,9

SPR 1z
00000000
00000000
00000000
00000000
00000001
10010000
01001010
00000000

SPR 2a
00000000
00000000
00000000
00000000
00010000
00010010
00010100
00010100
POS 6 2,13

SPR 2b
00000000
00000000
00000000
00100010
00010100
00001000
00001000
00001000
>
00000000
00000000
00000000
00001000
00100100
00011000
00001000
00001000
POS c 2,5

SPR 2c
00111100
01011010
01011010
00111100
01111110
01111110
00111100
00011000

SPR 2d
00111100
01011010
01011010
00111100
01010110
01101010
00111100
00011000
POS c 5,9

SPR 2e
00000000
00000000
00000000
00000000
00000000
01000000
00010000
01000010
POS c 6,9

SPR 2f
00000000
00000000
00000000
00000010
00100010
00010100
01001100
00111000
>
00000000
00000000
00000000
00000001
00001001
00010010
00101100
00111000
POS 6 9,15

ITM 0
00000000
00000000
00000000
00000000
01110110
01101110
01110110
00111100

ITM 1
00000000
00000000
01000000
00000000
00001100
00001000
00000000
00000000

ITM 2
00000000
00100100
01100000
01000110
01101100
00000100
00000000
00000000

DLG a
niaou

DLG SPR_0
{wvy}ego tragoudao{wvy}

DLG SPR_1
{wvy}{wvy}

END 0


END undefined
you have rested for {clr2}so long{clr2}. forgive us for disturbing you.


