Hove

# BITSY VERSION 4.0

! ROOM_FORMAT 1

PAL 0
55,59,114
117,181,45
255,255,255

PAL 1
NAME 1default
247,188,109
238,113,23
255,255,255

PAL 2
5,130,88
247,188,109
255,255,255

PAL 3
127,200,190
242,223,51
255,255,255

PAL 4
235,85,111
118,29,68
255,255,255

PAL 5
117,181,44
11,130,88
255,255,255

PAL 6
255,255,255
209,14,79
235,85,111

PAL 7
134,97,155
52,59,115
255,255,255

PAL 8
35,183,219
255,255,255
52,59,115

PAL 9
247,188,108
118,29,68
255,255,255

PAL a
247,188,108
141,66,52
255,255,255

WAL e,f,h,i,j,k,q,r,u,y,15,18,17,1d,1e,1f,1q,1s,20,1z,1y,s,1i,1m

ROOM 4
0,0,k,k,0,0,0,0,0,0,0,0,0,0,0,0
0,0,j,j,j,j,0,0,l,0,0,0,j,j,0,k
0,0,i,i,i,i,0,0,0,v,0,0,i,i,j,j
0,0,e,g,h,f,0,0,0,x,0,0,e,h,g,f
0,0,0,0,0,0,0,0,0,0,0,0,0,0,0,0
0,l,0,0,0,0,0,m,0,0,0,n,0,0,0,m
15,15,15,15,15,15,15,15,15,0,l,0,0,m,0,0
u,u,u,u,u,u,u,u,u,0,0,0,l,0,15,15
u,p,0,u,u,u,0,m,0,m,0,0,0,0,u,0
u,p,11,0,0,0,0,0,0,0,0,n,u,u,u,u
0,0,z,0,0,p,0,0,p,0,u,u,u,u,u,u
0,0,0,0,0,0,0,0,0,p,0,0,0,0,0,0
p,p,0,0,0,0,0,19,19,0,0,0,0,0,p,0
q,q,q,q,q,q,q,14,14,q,q,q,q,q,q,q
0,s,0,0,0,0,17,14,14,18,0,s,0,s,0,s
0,0,16,0,0,0,17,14,14,18,0,0,0,16,0,0
NAME 3
LNK R 9
LNK L 5
LNK U j
ITM 2 2,12
ITM d 12,12
ITM 3 8,3
ITM 2 11,12
ITM 2 15,12
PAL 1

ROOM 5
0,l,0,0,0,0,0,0,v,0,0,0,v,0,0,0
0,0,j,j,j,j,0,l,x,0,0,0,x,k,0,0
0,0,i,j,i,i,0,0,0,v,0,j,j,j,0,0
v,0,e,g,h,f,0,v,0,x,0,e,g,e,0,p
x,0,0,0,0,0,0,x,0,0,v,0,0,l,0,0
0,0,0,l,0,l,0,0,0,0,x,0,l,0,0,m
15,15,u,u,0,0,15,15,15,0,0,0,0,m,0,0
u,u,u,u,15,15,u,u,u,15,15,15,15,15,15,15
u,u,u,u,u,u,u,u,u,u,u,u,u,u,u,u
u,u,u,u,0,0,11,0,11,0,0,0,u,u,u,u
u,u,u,0,11,0,z,0,z,0,11,0,0,11,0,0
u,0,0,0,z,0,0,0,0,0,z,0,0,z,0,0
p,0,0,0,0,0,0,0,0,0,0,0,0,0,p,0
q,q,q,q,q,q,q,q,q,q,q,q,q,q,q,q
0,s,0,0,0,0,0,r,0,0,0,s,0,s,0,s
0,0,16,0,0,0,0,0,0,0,0,0,0,16,0,0
NAME 2
LNK R 4
LNK L 7
LNK U i
ITM 3 8,4
ITM 3 10,2
ITM 3 1,3
ITM 3 11,5
ITM 9 5,11
ITM 9 7,10
ITM 9 9,11
ITM 9 12,11
ITM 2 2,12
ITM 2 8,12
ITM 2 15,11
ITM 1 6,12
ITM 1 3,11
PAL 1

ROOM 7
u,l,0,0,0,0,0,0,v,0,0,0,v,0,0,0
u,1n,0,0,l,0,0,l,x,0,l,0,x,0,0,v
u,0,0,0,0,0,0,0,0,v,0,0,v,0,0,x
u,0,1a,1d,1f,1g,0,v,0,x,0,0,x,0,1h,1h
u,l,0,1e,1e,0,0,x,0,0,v,0,l,0,0,0
u,0,0,1b,1c,0,0,0,0,0,x,0,v,0,0,v
u,0,1a,0,0,1g,0,0,0,l,0,0,x,0,0,x
u,v,0,0,0,0,0,0,u,u,u,u,u,15,15,15
u,x,0,0,l,0,0,u,u,u,u,u,u,u,u,u
u,u,u,u,u,u,u,u,u,u,u,u,u,u,u,u
u,u,u,u,u,u,u,u,u,u,0,0,0,0,0,0
u,u,u,u,u,u,u,u,u,0,0,0,0,0,0,0
u,u,u,u,u,u,u,u,0,0,0,0,0,0,p,0
q,q,q,q,q,q,q,q,q,q,q,q,q,q,q,q
0,s,0,0,0,0,0,r,0,0,0,s,0,s,0,s
0,0,16,0,0,0,0,0,0,0,0,0,0,16,0,0
NAME 1
LNK R 5
LNK U h
ITM 3 6,4
ITM 3 8,3
ITM 3 12,5
ITM 3 14,2
ITM 3 13,1
ITM 3 2,8
ITM 2 11,12
ITM 1 8,12
ITM 1 11,10
ITM 1 13,11
PAL 1

ROOM 9
0,0,v,0,0,0,1i,q,q,1i,l,0,0,0,0,0
0,0,x,0,v,0,1i,q,q,1i,l,0,l,0,0,0
0,v,0,0,x,o,1i,q,q,1i,0,0,l,l,0,0
0,x,0,v,0,0,1i,q,q,1i,l,l,l,l,l,0
o,v,0,x,0,l,1i,q,q,1i,0,l,l,l,0,0
0,x,0,0,o,0,1i,q,q,1i,0,0,0,0,0,0
15,15,15,15,15,u,r,q,q,r,u,u,u,u,u,u
u,u,u,u,u,u,1i,r,r,1i,u,u,u,u,u,u
u,p,0,u,u,u,1i,1j,1j,1i,u,u,u,u,u,u
u,0,0,u,u,u,1i,1j,1j,1i,u,u,u,u,u,u
0,0,0,0,0,0,1i,1j,1j,1i,0,u,u,u,u,u
0,0,0,0,p,0,1i,1j,1j,1i,p,0,0,0,0,0
p,p,0,0,0,0,1i,1j,1j,1i,0,0,0,0,p,0
q,q,q,q,q,r,r,r,r,r,q,q,q,q,q,q
0,s,0,16,0,0,0,r,0,16,0,s,0,s,0,s
0,0,16,0,0,16,0,0,0,r,0,0,s,0,0,16
NAME 4
LNK L 4
LNK U a
ITM 4 2,5
ITM 4 4,3
ITM 4 2,2
ITM 4 5,1
ITM 8 14,4
ITM 1 2,12
ITM 1 13,11
ITM 1 1,9
ITM 2 5,12
ITM 2 13,12
PAL 1

ROOM a
0,0,v,0,0,0,1i,q,q,1i,0,0,0,l,l,0
0,0,x,0,v,0,1i,q,q,1i,0,0,0,0,0,0
0,v,0,0,x,o,1i,q,q,1i,0,v,0,v,0,v
0,x,0,v,0,0,1i,q,q,1i,0,x,0,x,0,x
o,v,0,x,0,l,1i,q,q,1i,0,0,v,0,v,0
0,x,0,0,o,14,1l,1l,1l,1l,14,0,x,0,x,0
0,0,0,0,0,14,1k,1k,1k,1k,14,0,0,v,0,v
0,v,0,v,0,v,1i,q,q,1i,0,0,0,x,0,x
0,w,0,w,0,w,1i,q,q,1i,v,0,v,0,v,0
v,0,v,0,v,0,1i,q,q,1i,x,0,x,0,x,0
w,0,w,0,w,0,1i,q,q,1i,0,v,0,v,0,v
0,v,0,v,0,0,1i,q,q,1i,0,x,0,x,0,x
0,w,0,w,0,0,1i,q,q,1i,v,0,v,0,v,0
v,0,v,0,v,0,1i,q,q,1i,x,0,x,0,x,0
w,0,w,0,w,0,1i,q,q,1i,0,v,0,v,0,v
0,0,0,0,0,0,1i,q,q,1i,0,x,0,x,0,x
NAME 8
LNK L j
LNK U b
LNK D 9
ITM 4 1,13
ITM 4 4,11
ITM 4 3,9
ITM 4 0,11
ITM 4 4,7
ITM 4 0,7
ITM 4 2,4
ITM 4 4,3
ITM 4 0,2
ITM 4 3,1
ITM a 10,10
ITM a 11,12
ITM a 15,4
ITM a 12,14
ITM a 15,8
ITM a 12,2
PAL 1

ROOM b
l,0,0,0,v,0,0,0,v,0,0,0,0,0,0,0
0,v,0,l,x,v,0,v,x,0,0,0,l,0,v,0
l,x,0,0,0,x,l,x,0,0,l,0,v,0,x,0
q,q,q,q,q,q,q,q,q,1m,0,0,x,0,0,0
1i,1i,1i,1i,1i,1i,1i,1i,1i,1i,0,0,0,l,l,0
1i,1i,1i,1i,1i,1i,1i,1i,q,1i,l,j,j,j,j,k
q,q,q,q,q,q,1m,q,q,1i,0,i,i,i,i,j
0,0,0,v,0,v,1i,q,q,1i,0,e,i,i,i,i
0,l,0,w,0,w,1i,q,q,1i,0,0,e,h,g,f
v,0,v,0,0,0,1i,q,q,1i,l,l,0,0,0,0
w,0,w,0,0,l,1i,q,q,1i,0,v,0,0,0,v
0,v,0,l,0,0,1i,q,q,1i,0,x,0,0,0,x
0,w,0,0,0,0,1i,q,q,1i,v,0,0,0,v,l
v,0,l,0,v,0,1i,q,q,1i,x,0,l,0,x,0
w,0,0,0,w,0,1i,q,q,1i,l,0,0,v,0,v
0,0,0,0,0,0,1i,q,q,1i,0,0,0,x,0,x
NAME 12
LNK L k
LNK U c
LNK D a
ITM 4 1,13
ITM 4 2,11
ITM 4 5,13
ITM 3 0,11
ITM 3 1,10
ITM 3 4,8
ITM 3 12,10
ITM 3 11,12
ITM 3 14,14
ITM a 13,12
ITM a 14,10
ITM 8 9,1
ITM 8 4,2
PAL 1

ROOM c
15,15,15,15,15,15,15,15,15,15,15,15,15,15,15,15
y,y,y,y,y,y,y,y,y,y,y,y,y,y,y,y
1p,1p,1p,1p,1p,1p,1p,1p,1p,1p,1p,1p,1p,1p,1p,1p
0,l,l,0,v,l,0,l,0,0,0,x,0,v,0,0
0,v,0,0,x,0,0,0,0,0,0,0,0,x,l,0
0,x,0,19,0,l,0,0,j,j,0,k,0,0,0,0
0,0,0,0,19,0,j,j,i,i,j,j,0,0,19,0
19,0,0,l,l,0,i,i,i,i,i,i,0,0,0,0
0,0,0,0,0,0,e,1o,1o,1s,1o,f,0,0,l,0
0,v,0,0,0,0,0,e,h,g,f,1g,l,v,0,0
0,x,0,0,l,l,0,0,1h,1h,0,0,0,x,0,0
0,0,l,0,v,0,0,0,0,0,0,0,0,0,0,0
0,0,l,0,x,0,0,0,0,0,0,0,l,l,l,0
0,0,0,0,0,v,0,l,v,0,v,l,v,0,0,0
0,0,0,19,0,x,0,0,x,0,x,0,x,0,19,0
0,19,0,0,0,0,0,0,0,0,0,0,0,0,0,0
NAME 16
LNK L d
LNK D b
ITM c 12,3
ITM c 13,5
PAL 1

ROOM d
15,15,15,15,15,15,15,15,15,15,1h,1h,1h,15,15,15
y,y,y,y,y,y,y,y,y,y,1h,1h,1h,y,y,y
1p,1p,1p,1p,1p,1p,1p,1p,1p,1p,1h,1h,1h,1p,1p,1p
0,0,0,j,j,j,0,0,1h,1h,1h,1h,1h,1h,1h,0
0,0,j,i,i,i,j,0,m,1h,1h,1h,1h,1r,1q,0
0,0,h,i,i,i,h,0,0,l,1h,1h,1h,0,o,o
0,0,0,e,g,f,0,0,0,0,0,0,0,0,0,0
0,0,0,0,14,0,0,l,0,0,0,v,0,0,0,0
0,0,0,0,0,0,0,0,0,0,0,x,0,0,0,0
0,0,l,v,0,0,0,0,0,l,l,0,0,0,0,0
0,0,0,x,0,0,l,0,l,o,0,0,0,v,0,l
0,v,0,0,0,0,0,0,l,0,0,0,0,x,0,0
0,x,m,0,0,0,0,0,0,v,0,0,0,m,0,0
v,0,0,0,v,l,0,0,0,x,0,0,l,0,v,0
x,v,0,0,x,o,0,0,0,0,m,0,0,0,x,0
0,x,0,0,0,l,l,0,m,0,0,m,0,0,0,0
NAME 15
LNK R c
LNK L e
LNK D k
ITM 8 2,14
ITM 8 1,13
ITM 8 2,11
PAL 1

ROOM f
15,15,15,15,15,15,15,15,15,15,15,15,15,15,15,15
y,y,y,y,y,y,y,y,y,y,y,y,y,y,y,y
u,1p,1p,1p,1p,1p,1p,1p,1p,1p,1p,1p,1p,1p,1p,1p
u,0,0,0,0,k,0,0,0,0,0,0,0,0,0,0
u,0,j,j,j,j,j,0,m,0,0,0,0,0,0,0
u,0,h,i,i,i,h,0,0,0,l,0,0,19,o,o
u,0,l,e,g,f,0,0,0,l,0,0,0,0,0,0
14,0,0,0,14,0,0,l,0,l,0,v,0,0,0,0
14,14,0,0,0,0,0,0,0,0,0,x,0,0,0,0
14,14,0,0,p,q,q,q,p,0,0,0,l,0,l,0
14,0,0,p,q,q,q,q,q,p,0,0,0,v,0,l
u,v,0,0,p,q,q,q,p,0,0,0,0,x,0,0
u,x,m,0,0,p,q,q,p,v,0,0,0,m,0,0
u,0,0,0,0,0,0,0,0,x,0,0,l,0,v,0
u,v,0,0,l,o,0,19,0,0,m,0,0,0,x,0
u,x,l,0,0,l,l,0,m,0,0,m,0,0,0,0
NAME 13
LNK R e
LNK D g
ITM a 2,11
ITM a 10,7
ITM a 13,13
PAL 1

ROOM e
15,15,15,15,15,15,15,15,15,15,15,15,15,15,15,15
y,y,y,y,y,y,y,y,y,y,y,y,y,y,y,y
1p,1p,1p,1p,1p,1p,1p,1p,1p,1p,1p,1p,1p,1p,1p,1p
0,l,l,0,v,l,0,l,0,0,0,0,0,v,0,l
0,v,0,0,0,0,0,0,v,0,v,0,v,x,l,0
0,x,0,0,0,l,0,0,w,v,w,v,w,0,0,0
0,0,l,l,0,0,0,k,0,w,0,w,0,0,19,0
l,0,0,0,0,j,j,j,0,l,0,0,0,0,0,0
0,0,0,0,0,e,g,f,0,0,0,0,0,0,l,0
0,v,0,l,0,0,0,0,0,0,0,1g,l,0,0,0
0,x,0,0,0,0,v,0,v,0,v,0,v,0,0,0
0,0,0,v,0,v,x,v,x,v,x,v,x,0,0,19
0,l,0,x,0,x,v,x,0,x,v,x,0,l,l,0
0,0,v,0,v,0,x,0,v,0,x,0,0,0,0,0
l,0,x,0,x,0,0,0,x,0,0,0,l,0,19,0
0,0,0,0,0,0,0,0,0,0,0,0,0,0,0,0
NAME 14
LNK R d
LNK L f
LNK D l
ITM 6 7,13
ITM 6 8,12
ITM 6 7,10
ITM 6 12,12
ITM 6 13,10
ITM 8 11,10
ITM 8 5,13
ITM 8 4,11
ITM 8 12,6
ITM 8 13,5
PAL 1

ROOM g
u,0,0,0,0,0,0,0,0,0,0,0,0,0,0,0
u,0,v,0,l,0,o,o,o,0,l,l,0,0,0,0
u,0,w,o,0,0,0,0,o,0,0,l,l,l,0,0
u,0,o,l,0,0,1h,1h,1h,1h,1h,1h,0,o,o,0
u,o,0,l,0,1h,1h,1h,1h,1h,1h,1h,1h,0,0,0
u,o,0,0,1h,1h,1v,1v,1v,1v,1v,1h,1h,0,0,0
u,0,o,0,1h,1h,1u,v,v,v,1w,1h,1h,1h,o,0
u,0,0,0,1h,1h,1u,v,v,v,1w,1h,1h,1h,0,0
u,0,l,0,1h,1h,1u,w,w,l,1w,1h,1h,1h,0,0
u,0,o,0,1h,1h,1t,1t,1t,1t,1t,1h,0,0,0,0
u,0,l,0,0,1h,1h,1h,1h,1h,1h,1h,0,0,o,0
u,o,0,0,0,0,0,1h,1h,1h,0,0,0,o,0,0
u,o,v,0,0,0,o,0,0,0,0,0,o,0,0,0
u,0,x,0,0,0,0,0,0,l,0,0,0,0,0,0
u,0,o,o,0,0,0,v,0,0,0,v,0,0,0,0
u,0,0,0,0,0,0,x,0,0,0,x,0,0,0,0
NAME 9
LNK R l
LNK U f
LNK D h
PAL 1

ROOM h
u,0,0,0,l,0,v,0,v,0,0,v,0,0,v,0
u,0,m,0,v,0,x,0,x,0,0,x,0,0,x,l
u,0,0,0,x,0,l,v,0,v,0,o,0,o,o,0
u,0,v,0,o,0,o,x,0,x,0,0,v,0,v,0
u,0,x,l,0,0,0,0,0,m,0,0,x,n,x,n
u,0,m,0,0,0,v,0,o,0,0,m,0,l,0,0
u,o,0,0,1x,1x,x,0,20,q,q,q,q,1m,n,0
u,0,o,m,0,0,o,0,1i,1i,1i,1i,1i,1i,o,20
q,q,q,q,q,q,q,q,1y,1i,1i,1i,1i,1z,q,1i
u,1i,1i,1i,1i,1i,1i,1i,1i,1i,1i,1i,1i,1i,1i,1i
u,1i,1i,1i,1i,1i,1i,1i,1i,1i,1i,1i,1i,1i,1i,1i
u,1i,1i,1i,1i,1i,1i,1i,1i,1i,1i,1i,1i,1i,20,q
q,q,q,q,q,q,q,q,q,q,q,q,q,q,1y,0
u,o,0,0,l,0,l,l,v,0,l,0,0,0,v,0
u,0,0,v,l,0,l,0,x,0,0,0,v,0,x,o
u,l,0,x,l,0,l,0,0,l,0,o,x,0,o,o
NAME 5
LNK R i
LNK U g
LNK D 7
ITM b 7,5
ITM b 5,1
ITM b 10,2
ITM b 8,2
ITM b 13,3
ITM 2 4,7
PAL 1

ROOM i
0,0,0,0,0,0,1i,q,q,1i,0,0,0,0,0,0
0,v,0,0,o,o,1i,q,0,1i,0,0,0,l,0,0
0,x,0,0,0,0,1l,1l,1l,1l,0,0,l,0,v,0
o,0,0,0,v,0,1k,1k,1k,1k,0,l,v,0,x,0
0,0,v,0,x,0,1i,q,q,1i,0,0,x,0,0,0
o,0,x,p,0,o,1i,q,q,1i,0,0,0,0,0,0
q,q,q,q,q,q,1y,q,q,1i,0,v,0,l,0,0
1i,1i,1i,1i,1i,1i,1i,1i,q,1i,0,x,0,v,0,v
1i,1i,1i,1i,1i,1i,1i,1i,1i,1i,0,v,0,x,0,x
1i,q,q,q,q,q,q,q,q,1y,0,x,0,0,0,0
1y,0,0,0,0,0,0,0,l,0,0,0,0,l,0,0
0,0,0,j,j,0,k,0,v,l,0,0,0,0,0,0
0,l,0,i,i,j,j,0,x,0,0,k,0,p,l,0
0,0,0,e,g,h,f,0,0,0,j,j,j,0,v,0
l,v,0,p,0,l,0,0,l,0,e,g,f,0,x,0
0,x,0,0,0,0,0,0,0,0,0,0,0,0,0,0
NAME 6
LNK R j
LNK L h
LNK U l
LNK D 5
ITM b 12,8
ITM b 14,7
ITM b 12,6
ITM b 13,3
ITM b 15,2
ITM 3 1,4
ITM 3 3,3
ITM 3 2,2
ITM 3 2,15
ITM 3 14,15
PAL 1

ROOM j
0,j,j,j,0,0,0,0,0,0,0,v,0,0,0,v
0,e,g,f,o,0,o,0,0,0,0,x,v,0,v,x
0,0,0,0,0,0,0,v,0,0,0,l,x,0,x,0
0,o,o,0,0,0,n,x,0,v,0,0,0,0,0,0
0,r,0,0,0,0,0,n,0,x,o,0,v,0,0,0
0,v,0,0,0,k,0,0,0,0,0,0,x,0,v,0
0,x,0,0,j,j,j,j,j,0,0,0,0,o,x,0
0,0,0,0,i,i,h,i,i,0,0,v,0,0,0,0
0,l,v,0,e,h,g,h,f,0,r,x,0,v,0,o
r,0,x,0,0,0,0,0,0,0,0,0,0,x,0,0
0,l,0,v,0,0,0,0,0,v,0,0,0,0,0,0
0,v,0,x,0,l,0,l,0,x,0,v,0,o,0,0
0,x,0,0,0,0,0,0,0,0,0,x,0,0,0,0
0,0,0,0,v,0,0,0,v,0,0,0,0,0,o,0
0,0,p,0,x,0,0,0,x,0,0,0,p,0,0,0
p,p,0,0,0,p,0,0,0,0,0,0,0,0,0,0
NAME 7
LNK R a
LNK L i
LNK U k
LNK D 4
ITM 3 5,14
ITM 3 9,14
ITM 3 12,12
ITM 3 10,11
ITM 3 14,9
ITM 3 10,3
ITM 3 12,0
ITM 3 2,5
PAL 1

ROOM k
l,0,0,0,v,0,0,0,v,0,0,0,0,0,0,0
0,v,0,l,x,0,0,0,x,0,0,0,l,0,v,0
l,x,0,20,q,q,q,q,q,1m,l,0,0,23,24,0
q,q,q,1y,1i,1i,1i,1i,1i,1z,q,q,q,21,22,q
1i,1i,1i,1i,1i,1i,1i,1i,1i,1i,1i,1i,17,21,22,18
1i,1i,1i,1i,1i,1i,1i,1i,1i,1i,1i,1i,17,21,22,18
q,q,q,1m,1i,1i,1i,1i,1i,1i,1i,1i,17,21,22,18
0,0,0,1z,1m,1i,1i,1i,1i,1i,20,q,q,21,22,q
0,0,v,0,1z,1m,1i,1i,1i,20,1y,0,v,0,0,v
0,0,x,0,0,1z,q,q,q,1y,0,0,x,0,0,x
0,0,0,0,v,0,0,v,0,0,0,0,0,0,0,0
0,v,0,0,x,0,0,x,0,v,0,0,v,0,0,v
0,x,0,0,0,0,v,0,0,x,0,0,x,0,0,x
0,0,v,0,0,0,x,v,0,0,0,0,0,0,0,0
0,0,x,0,0,0,0,x,0,0,0,0,v,0,0,v
0,0,0,0,0,0,0,0,0,0,0,0,x,0,0,x
NAME 11
LNK R b
LNK L l
LNK U d
LNK D j
ITM 3 6,14
ITM 3 3,12
ITM 3 1,14
ITM 3 1,9
ITM 3 5,1
PAL 1

ROOM l
0,0,0,0,0,0,v,0,0,v,v,0,0,0,0,0
0,0,0,0,0,0,x,0,o,x,x,0,o,0,0,0
0,v,0,v,v,0,0,0,0,0,0,0,0,0,0,0
0,x,v,x,x,0,20,q,q,q,q,q,q,q,q,q
0,o,x,0,v,0,1i,q,1i,1i,1i,1i,1i,1i,1i,1i
0,0,0,v,x,0,1i,q,q,1i,1i,1i,1i,1i,1i,1i
0,0,0,x,0,v,1i,q,q,20,q,q,q,q,q,q
v,0,v,0,0,x,1i,q,q,1i,0,0,0,o,0,0
x,0,x,v,0,0,1i,q,q,1i,0,v,0,0,v,0
0,0,0,x,o,0,1i,q,q,1i,0,x,0,0,x,0
0,0,v,0,0,0,1i,q,q,1i,o,0,0,v,0,0
0,0,x,0,0,0,1i,q,q,1i,0,0,0,x,0,0
o,0,v,0,v,0,1i,q,q,1i,0,v,0,0,v,0
0,0,x,0,x,0,1i,q,q,1i,0,x,0,0,x,0
0,0,0,o,0,0,1i,q,q,1i,0,o,v,0,0,0
0,0,0,0,0,0,1i,1i,q,1i,0,0,x,0,0,0
NAME 10
LNK R k
LNK L g
LNK U e
LNK D i
ITM 6 3,10
ITM 6 1,7
ITM 6 3,4
ITM 6 5,3
ITM 6 2,2
ITM 8 0,3
ITM 8 4,6
ITM 8 3,7
ITM 8 3,13
ITM 8 3,11
ITM 3 10,12
ITM 3 13,14
ITM 3 15,12
ITM 3 14,10
ITM 3 12,8
ITM 3 15,8
PAL 1

TIL 10
00000000
00001100
00010010
11010010
00110110
10010011
11001101
00100001
NAME undefined

TIL 11
00000000
00111000
00101000
00101100
11101111
10101001
10000010
01010110
>
00000000
01110000
10010000
01001011
01101101
10101001
10001010
01010100
NAME undefined

TIL 14
11001111
10000000
10001110
01110001
00000001
01111111
10000001
11111111
NAME undefined

TIL 15
11111111
01110010
01011000
11001110
10011011
10010001
10010001
10010001
NAME undefined

TIL 16
00000000
00000000
00000000
00010000
00101000
01000100
10000010
00000000
>
00000000
00000000
00000000
00000000
00000000
00010000
00101000
00000000
NAME undefined

TIL 17
00000000
00000001
00000010
00000100
00000100
00000100
00000010
00000001
>
00000000
00000000
00000001
00000010
00000010
00000010
00000001
00000000
NAME undefined

TIL 18
00000000
10000000
01000000
00100000
00100000
00100000
01000000
10000000
>
00000000
00000000
10000000
01000000
01000000
01000000
10000000
00000000
NAME undefined

TIL 19
00000000
00000000
00001100
01110010
10001010
01100111
10001001
01111110
NAME undefined

TIL 20
00000000
00000000
00000000
00001100
00010011
00010000
00010000
00001000
>
00000000
00000000
00000000
00001110
00010001
00010000
00001000
00001000
NAME undefined

TIL 21
11100000
10111111
10100000
10100111
10111000
11100111
10111100
10100011
NAME undefined

TIL 22
00000111
01111101
10001101
11100101
00011101
01100111
10001101
01110111
NAME undefined

TIL 23
00000000
00000000
00000000
00000000
00000000
11100000
10100000
10100000
NAME undefined

TIL 24
00100100
00100100
01000011
10010000
00001100
00000111
00000101
00000101
NAME undefined

TIL e
11111111
11111111
11111111
11111111
11111111
11111111
01111111
00011111
NAME undefined

TIL f
11111111
11111111
11111111
11111111
11111111
11111111
11111110
11111000
NAME undefined

TIL g
11111111
10000001
10000001
10000001
10000001
10000001
10111101
10000001
NAME undefined

TIL h
11111111
11111111
11000011
11000011
11011011
11000011
11111111
01111110
NAME undefined

TIL i
10010010
10010010
10010010
10010010
10010010
10010010
10010010
01101101
NAME undefined

TIL j
11111111
10010010
10010010
10010010
10010010
10010010
10010010
01101101
NAME undefined

TIL k
10000110
01000100
01000100
00101100
00010000
00111100
00100100
00100100
>
01100110
01000100
01101100
00101000
00010000
00111100
00100100
00100100
NAME undefined

TIL l
10000000
10100000
00001100
00010010
00001100
01100000
10010000
01100000
>
00100000
10101100
00010010
00001100
01100100
10010000
01100000
00100000
NAME undefined

TIL m
00100000
00101000
00101001
00000001
01000101
01000100
01010101
00010001
>
00001000
00101001
00101001
00100001
00000001
01010100
01010101
00010001
NAME undefined

TIL n
01000000
00000010
00000100
01000100
10100100
00100000
00100000
00000010
>
01000000
00000010
00000101
01000100
00100100
00100000
00100000
00000010
NAME undefined

TIL o
00000000
00010100
00100100
00000010
00000000
01010000
01001000
00101000
>
00000000
01000001
00100001
00000010
00000000
00100100
01000100
00101000
NAME undefined

TIL p
00000000
00000110
00001001
00000000
00110000
01001000
00000000
00000000
NAME undefined

TIL q
00000000
00000000
00000000
00111000
11000100
00000011
00000000
00000000
>
00000000
00000000
00000000
00000011
10001100
01110000
00000000
00000000
NAME undefined

TIL r
00000000
00000100
00001010
00100000
01010000
10001000
00000010
00000101
>
00000100
00001010
00010001
00000000
00100000
01010010
00000101
00001000
NAME undefined

TIL s
00000000
00000000
00000000
00001000
00010100
00100010
01000001
00000000
>
00000000
00000000
00000000
00000000
00000000
00001000
00010100
00000000
NAME undefined

TIL u
10101100
01110011
01011000
11001110
10011011
10010001
10010001
10010001
NAME undefined

TIL v
01111000
11001110
10000011
10000001
10000001
10000011
11000110
01111100
>
01111100
11000010
10000010
10000011
10000001
10000011
01000110
01111100
NAME undefined

TIL w
00100100
00100100
00101100
00100100
01100110
01000010
01001010
10010001
NAME undefined

TIL x
00100100
00100100
01000011
10010000
00001100
00000000
00000000
00000000
NAME undefined

TIL y
11111111
01010101
01010101
01010101
01010101
01010101
01010101
11111111
NAME undefined

TIL z
01001000
01101000
00101100
00100100
00100100
00110100
00011000
00011000
NAME undefined

TIL 1a
00000010
00000101
00000010
00000010
00000000
00000000
00000000
00000000
NAME undefined

TIL 1b
10001011
10010000
10101111
10101000
11001011
11001000
10001000
10001000
NAME undefined

TIL 1c
11010001
00001001
11110101
00010101
11010011
00010011
00010001
00010001
NAME undefined

TIL 1d
00001111
00010001
00100001
00100001
01000001
01000001
10000001
10000001
NAME undefined

TIL 1e
10000001
10000001
10000001
10000001
10000001
10000001
10000001
10000001
NAME undefined

TIL 1f
11110000
10001000
10000100
10000100
10110010
10111010
10011001
10000001
NAME undefined

TIL 1g
01000000
10100000
01000000
01000000
00000000
00000000
00000000
00000000
NAME undefined

TIL 1h
10001110
10010001
01100001
00110001
01001110
10001010
01001001
00110110
NAME undefined

TIL 1i
00010000
00001000
00001000
00001000
00010000
00010000
00100000
00100000
>
00001000
00001000
00010000
00010000
00100000
00100000
00100000
00010000
NAME undefined

TIL 1j
00000000
00000000
00000000
00000000
01000100
10101010
00010000
00000000
>
00000000
00000000
00000000
00101000
01010100
00000000
00000000
00000000
NAME undefined

TIL 1k
00110101
01010101
01010110
01010110
11111111
10101101
10010011
11111111
NAME undefined

TIL 1l
11111111
10110011
10010101
11111111
01010101
01010101
01010110
10010101
NAME undefined

TIL 1m
00000000
00000000
00000000
00110000
11001000
00001000
00001000
00010000
>
00000000
00000000
00000000
00000000
10000000
01110000
00001000
00001000
NAME undefined

TIL 1n
00000000
00001100
11110010
10000001
10000001
10000011
11000110
01111100
>
00000000
00011100
11100011
10000001
10000001
10000011
01000110
01111100
NAME undefined

TIL 1o
11111111
11111111
11111111
11111111
11111111
11111111
11111111
11111111
NAME undefined

TIL 1p
01010011
00001000
00000000
11111111
10000001
11111111
11000001
00100000
>
01010011
00001000
00000000
11111111
10000001
11111111
10100001
00100000
NAME undefined

TIL 1q
00000000
00000000
11111110
11011010
01001010
11100010
00100100
00111100
NAME undefined

TIL 1r
00000000
00000000
11111111
10100100
11001001
11111111
00000000
00000000
NAME undefined

TIL 1s
11100111
11001011
10101101
01101010
01100110
10111101
11011011
11100111
NAME undefined

TIL 1t
11111111
10000001
10010101
11111111
01000101
00100110
10111000
01000100
NAME undefined

TIL 1u
01111100
10100100
01110100
01111100
10100100
10110100
01100100
01111100
NAME undefined

TIL 1v
10001000
10001001
10110110
01000100
11111111
10000101
11100001
11111111
NAME undefined

TIL 1w
00111001
00100010
00100110
00111001
00100001
00101101
00110010
00111001
NAME undefined

TIL 1x
11111111
00011000
11111111
11111111
00000000
00000000
11111111
01000100
NAME undefined

TIL 1y
00000100
00000100
00001000
10001000
01110000
00000000
00000000
00000000
>
00010000
00001000
00001000
11001000
00110000
00000000
00000000
00000000
NAME undefined

TIL 1z
00100000
00010000
00010000
00010011
00001100
00000000
00000000
00000000
>
00001000
00001000
00010000
00010001
00001110
00000000
00000000
00000000
NAME undefined

SPR A
00011100
00101000
00111100
01111100
11111100
11111000
01001000
01010000
>
00011100
00101000
00111100
01111100
11111110
01111000
01001000
10001000
POS 4 7,10

SPR a
00000000
00000000
01010001
01110001
01110010
01111100
00111100
00100100
DLG SPR_0

SPR c
00001000
00011000
11111000
00011111
11011111
11011111
11111111
00011000
DLG SPR_1
POS j 5,9

SPR d
11111111
10011000
10011000
10011000
10011000
10011000
11111111
00000000
POS 4 5,15

SPR e
11111000
00010100
00010010
00010010
00010110
00011010
11110010
00000100
DLG SPR_4
POS 4 6,15

SPR f
00000000
00000000
00000000
00000011
00000011
00000111
00000100
00000000
POS 4 4,15

SPR g
00000000
11111111
00011001
01000101
10101001
11111111
00011000
00011000
DLG SPR_5
POS 5 6,3

SPR h
11111111
11100011
10011101
11110111
10101001
11111111
00011000
00011000
DLG SPR_3
POS d 2,7

SPR i
00000000
00000000
00000000
00000000
00100000
01101110
00111100
00001000
>
00000000
00000000
00000000
00000000
00000000
00100000
01101110
00111100
DLG SPR_2
POS d 2,6

SPR j
00000000
11111111
00011001
01000101
10101001
11111111
00011000
00011000
DLG SPR_6
POS 5 14,3

SPR k
00000000
11111111
00011001
01000101
10101001
11111111
00011000
00011000
DLG SPR_7
POS b 11,8

SPR l
11111111
10000001
10000001
10000001
10000001
10000001
10111101
10000001
DLG SPR_8
POS c 9,9

SPR m
11111111
10000001
10000001
10000001
10000001
10000001
10111101
10000001
DLG SPR_9
POS d 4,6

SPR n
11111111
10000001
10000001
10000001
10000001
10000001
10111101
10000001
DLG SPR_a
POS f 4,6

SPR o
11111111
10000001
10000001
10000001
10000001
10000001
10111101
10000001
DLG SPR_b
POS j 6,8

SPR p
11111111
10000001
10000001
10000001
10000001
10000001
10111101
10000001
DLG SPR_c
POS b 14,8

ITM 0
00000000
00000000
00000000
00111100
01100100
00100100
00011000
00000000
NAME tea
DLG ITM_0

ITM 1
00000000
00000000
00000000
01001100
10111010
00110000
00010000
00111000
DLG ITM_1

ITM 2
00000000
00000000
00000011
00011111
00111111
01001110
01001100
00110000
DLG ITM_2

ITM 3
00000010
00000110
01101010
10110100
10010110
01101011
00001001
00000110
DLG ITM_a

ITM 4
00001100
00111000
01101100
01011100
11100110
10111010
01010100
00111000
DLG ITM_8

ITM 5
00000000
00001000
00111100
01001010
10010010
10010010
01101100
00000000
DLG ITM_3

ITM 6
00001100
00011000
00100100
00101100
00011000
00100100
01001100
00111000
DLG ITM_b

ITM 8
00000000
00001000
00010000
00111100
00100100
00101100
00011000
00000000
DLG ITM_5

ITM 9
00000000
00111000
01001100
01110100
10100100
10001000
01110000
00000000
DLG ITM_d

ITM a
00000011
00111100
01111010
01010010
11000110
10001100
10111000
11100000
DLG ITM_7

ITM b
00000000
00001000
00011000
00100100
00101100
00011000
00000000
00000000
DLG ITM_6

ITM c
00001100
00010100
01100100
10010010
11010110
01101001
01001101
00110110
DLG ITM_9

ITM d
00000000
00000000
00011100
00100010
01010101
01101011
00100010
00011100
>
00000000
00000000
00011100
00100010
01101011
01010101
00100010
00011100
NAME Giant shell
DLG ITM_c

DLG SPR_0
I'm a cat

DLG ITM_0
You found a nice warm cup of tea

DLG SPR_1
Mailbox says hello

DLG ITM_1
coral

DLG ITM_2
conch

DLG SPR_2
Tweet Tweet

DLG SPR_3
Since your last visit we had a lot of time. Sad that you missed it

DLG ITM_3
Peach

DLG ITM_4
pine

DLG ITM_5
Apple

DLG ITM_6
Orange

DLG ITM_7
Lemon

DLG ITM_8
Durian

DLG ITM_9
Lychee

DLG ITM_a
1A Cherry

DLG ITM_b
Pear

DLG ITM_c
Giant shell

DLG ITM_d
?

DLG SPR_4
Sorry we are just trying to secure the island from the last storm. Come back in a few days

DLG SPR_5
Here lives Jay

DLG SPR_6
Here lives Lorenzo

DLG SPR_7
Here lives Jan

DLG SPR_8
"""
{rbw}Melinda already did your job while you struggeld with your live. She is always there for you <3{rbw}
"""

DLG SPR_9
"""
{shk}Without your brother you wouldnt even have startet or kept through. He was one of the few who belived in you{shk}
"""

DLG SPR_a
Here you can sell all your fruits. All fruit even when you got enought money you stil sell more and dont enjoy finshing or shit

DLG SPR_b
You love your home since you found minimalism. It looks good enough that it does not bother you

DLG SPR_c
"""
{clr1}Why is no one here? Maybe the dev was to lazy to do it. Oh yes he actually was, what a {wvy}shame{wvy} it could have been so much better. Maybe next time make a smaller piece that you dont spend 2 hours getting your actual AC City in it{clr1}
"""

VAR a
42


