Beetle Boy - a little game I made. interact with things that are the same color as you.

# BITSY VERSION 5.3

! ROOM_FORMAT 1

PAL 0
NAME outside
168,255,145
40,138,36
0,0,0

PAL 1
234,129,255
139,94,186
0,0,0

PAL 2
NAME town
227,255,174
160,194,102
0,0,0

PAL 3
NAME horse domain
255,163,35
113,254,92
0,0,0

PAL 4
NAME codeland
74,156,255
42,32,168
0,0,0

PAL 5
NAME end of world
0,0,0
71,255,5
255,255,255

ROOM 0
0,0,0,0,0,0,0,0,0,0,0,0,0,0,0,0
0,a,a,a,a,a,a,a,a,a,a,a,a,a,a,0
0,a,0,0,0,0,a,0,g,a,0,n,m,j,a,0
0,a,1c,c,0,0,a,0,0,a,0,0,l,k,a,0
0,a,0,0,0,0,a,0,0,a,0,0,0,0,a,0
0,a,a,a,a,e,a,a,e,a,e,a,a,a,a,0
0,a,h,0,a,o,o,o,o,o,o,o,o,o,a,0
0,a,h,0,a,o,o,o,o,o,o,o,o,o,a,0
0,a,h,0,f,o,o,o,o,o,o,o,o,o,a,0
0,a,a,a,a,o,o,o,o,o,o,o,o,p,f,0
0,a,i,0,f,o,o,o,o,o,o,o,o,o,a,0
0,a,i,0,a,o,o,o,o,o,o,o,o,o,a,0
0,a,i,0,a,o,o,o,o,o,o,o,o,o,a,0
0,a,i,0,a,o,o,o,o,o,o,o,o,o,a,0
0,a,a,a,a,a,a,a,a,a,a,a,a,a,a,0
0,0,0,0,0,0,0,0,0,0,0,0,0,0,0,0
NAME beetle house
EXT 15,9 1 0,9
PAL 1

ROOM 1
0,0,0,y,0,0,0,0,0,0,y,0,0,0,0,0
0,0,0,0,0,0,0,y,0,0,0,0,0,0,0,0
y,0,0,y,y,y,y,y,y,y,y,0,0,0,0,0
0,0,0,y,x,x,x,x,x,x,y,0,y,0,0,0
0,y,0,y,x,t,q,q,u,x,y,y,0,0,y,0
0,0,0,y,x,s,x,x,s,x,y,0,0,0,0,0
0,0,y,y,x,s,x,x,s,x,y,y,z,10,y,y
y,y,y,y,x,s,x,x,s,x,x,x,x,x,x,x
x,x,x,x,x,s,x,x,v,q,q,q,q,q,q,q
q,q,q,q,q,r,x,x,x,x,x,x,x,x,x,x
x,x,x,x,x,x,x,y,y,y,y,y,y,y,y,y
y,y,y,y,y,y,y,y,0,0,0,0,0,0,0,0
0,y,0,0,0,0,y,0,0,0,0,y,0,0,0,0
0,0,0,y,0,0,0,0,0,0,y,0,0,0,0,0
y,0,0,0,0,0,0,0,y,0,0,0,0,y,0,0
0,0,0,y,0,0,0,0,0,0,0,0,0,0,0,0
NAME walkway 1
EXT 15,8 2 0,8
PAL 0

ROOM 2
0,0,0,0,0,0,0,0,0,0,0,0,0,0,0,14
0,0,0,0,0,0,0,0,0,0,0,0,0,0,0,14
y,0,0,0,0,0,0,y,0,0,0,0,0,0,0,14
y,y,0,0,0,0,0,0,0,0,0,0,0,0,0,14
y,y,y,y,0,0,0,0,0,0,0,0,0,0,0,14
y,11,12,y,0,0,0,0,0,0,0,0,0,0,0,14
y,y,y,y,0,0,0,0,0,y,0,0,0,0,0,14
y,y,y,y,0,0,0,0,0,0,0,0,0,0,0,0
q,q,q,q,13,0,0,0,0,0,0,0,0,0,0,0
y,y,y,y,0,0,0,0,0,0,0,0,0,0,0,0
y,y,y,y,0,0,0,0,0,0,0,0,0,0,y,14
y,y,y,0,0,0,y,0,0,0,0,y,0,0,0,14
y,y,0,0,y,0,0,0,0,0,0,0,0,0,0,14
y,0,0,0,0,0,0,0,y,0,0,0,y,0,0,14
y,y,0,y,0,0,0,0,0,0,0,0,0,0,0,14
0,0,y,0,0,y,0,0,y,14,14,14,14,14,14,14
NAME end of road
EXT 15,7 3 0,7
EXT 15,8 3 0,8
EXT 15,9 3 0,9
EXT 0,8 1 15,8
PAL 0

ROOM 3
0,0,0,0,0,0,0,0,y,0,0,0,0,0,0,y
0,0,0,0,y,0,0,0,0,0,0,0,0,y,0,0
0,0,0,0,0,0,0,y,0,0,0,0,0,0,0,0
y,0,0,0,0,0,0,y,0,1d,1d,1d,0,0,0,0
0,0,y,0,0,0,1d,1d,1d,1d,1d,1d,1d,1d,0,0
0,0,0,0,0,1d,1d,1d,1d,1d,1d,1d,1d,1d,1d,0
0,0,1d,1d,1d,1d,1d,1d,1d,1d,1d,1d,1d,1d,1d,1d
1d,1d,1d,1d,1d,1d,1d,1d,1d,0,0,0,1d,1d,1d,1d
1d,1d,1d,1d,1d,1d,0,0,0,0,0,0,0,0,1d,1d
1d,1d,1d,1d,1d,0,0,0,0,0,0,0,0,0,0,1d
1d,1d,0,0,0,0,0,0,0,y,0,0,0,0,0,0
0,0,0,0,0,0,0,0,0,0,0,0,0,0,0,0
0,0,0,0,0,0,y,0,0,0,0,0,0,y,0,0
0,0,y,0,0,0,0,0,0,0,0,0,0,0,0,0
0,0,0,0,0,0,0,0,y,0,y,0,0,0,0,0
0,0,0,0,y,0,0,0,0,0,0,0,0,y,0,0
NAME town square
ITM 0 13,8
EXT 15,6 4 0,6
EXT 15,7 4 0,7
EXT 15,8 4 0,8
EXT 15,9 4 0,9
EXT 0,7 2 15,7
EXT 0,8 2 15,8
EXT 0,9 0 0,0
PAL 2

ROOM 4
0,0,0,0,0,1e,1e,1g,1f,1f,0,0,0,0,0,0
0,y,0,0,0,0,1d,1d,1d,0,0,0,y,0,0,y
0,0,0,0,0,0,1d,1d,1d,0,0,0,0,0,0,0
0,0,0,0,y,0,1d,1d,1d,0,y,0,0,0,0,0
y,0,0,0,0,0,1d,1d,1d,0,0,y,0,0,y,0
0,0,0,0,0,0,1d,1d,1d,0,0,0,0,0,0,0
1d,1d,1d,1d,1d,1d,1d,1d,1d,1d,1d,1d,1d,1d,1d,1d
1d,1d,1d,1d,1d,1d,1d,1d,1d,1d,1d,1d,1d,1d,1d,1d
1d,1d,1d,1d,1d,1d,1d,1d,1d,1d,1d,1d,1d,1d,1d,1d
1d,1d,1d,1d,1d,1d,1d,1d,1d,1d,1d,1d,1d,1d,1d,1d
0,0,0,0,0,0,0,0,1d,1d,1d,0,0,0,0,0
0,0,0,0,0,0,y,0,1d,1d,1d,y,0,0,0,0
0,0,y,0,0,0,0,0,1d,1d,1d,0,0,0,y,0
0,0,0,0,0,0,0,0,1d,1d,1d,0,0,0,0,0
0,0,0,y,0,0,0,0,1d,1d,1d,0,y,0,0,y
0,0,0,0,0,0,0,1e,1e,1g,1f,1f,0,0,0,0
NAME options
EXT 7,0 5 7,15
EXT 9,15 6 9,1
EXT 15,6 7 0,6
EXT 15,7 7 0,7
EXT 15,8 7 0,8
EXT 15,9 7 0,9
EXT 0,6 3 15,6
EXT 0,7 3 15,7
EXT 0,8 3 15,8
EXT 0,9 3 15,9
PAL 2

ROOM 5
0,0,0,0,0,0,0,0,0,0,0,0,0,0,0,0
0,a,a,a,a,a,a,a,a,a,a,a,a,a,a,0
0,a,0,0,0,a,0,1i,0,a,0,1i,0,0,a,0
0,a,1h,1i,0,a,0,0,0,a,1h,0,0,a,a,0
0,a,0,0,0,a,1h,0,0,a,0,0,0,1h,a,0
0,a,a,a,e,a,a,a,e,a,a,a,e,a,a,0
0,a,0,0,0,0,0,0,0,0,0,0,0,0,a,0
0,a,0,1j,0,0,0,0,0,0,0,1j,0,0,a,0
0,a,0,0,0,e,0,0,0,0,0,0,0,0,a,0
0,a,0,0,0,0,0,0,0,0,0,0,0,0,a,0
0,a,0,0,0,1j,0,0,0,0,0,0,0,0,a,0
0,a,0,0,0,0,0,0,0,0,0,0,0,0,a,0
0,a,0,1j,0,0,0,0,0,0,0,1j,0,0,a,0
0,a,0,0,0,0,0,0,0,0,0,0,0,0,a,0
0,a,a,a,a,a,a,e,a,a,a,a,a,a,a,0
0,0,0,0,0,0,0,0,0,0,0,0,0,0,0,0
NAME horse man
EXT 7,15 4 7,1
PAL 3

ROOM 6
0,0,0,0,0,0,0,0,0,0,0,0,0,0,0,0
0,a,a,a,a,a,a,a,a,e,a,a,a,a,a,0
0,a,1q,0,0,0,0,0,0,0,0,0,0,0,a,0
0,a,1q,0,0,0,1j,0,0,0,0,0,1j,0,a,0
0,a,1q,0,0,0,0,0,0,0,0,0,0,0,a,0
0,a,1q,0,1j,0,0,0,0,0,0,0,0,0,a,0
0,a,1q,0,0,0,0,0,0,0,0,0,0,0,a,0
0,a,1q,0,0,0,0,0,0,0,0,0,0,0,a,0
0,a,a,a,a,a,0,a,1q,0,0,0,1j,0,a,0
0,a,1q,0,0,0,0,a,1q,0,0,0,0,0,a,0
0,a,1q,1k,1l,0,0,a,1q,0,0,0,0,0,a,0
0,a,1q,1m,1n,0,0,a,1q,0,0,0,0,0,a,0
0,a,1q,1o,1p,0,0,a,1q,0,0,1j,0,0,a,0
0,a,1q,0,0,0,0,a,1q,0,0,0,0,0,a,0
0,a,a,a,a,a,a,a,a,a,a,a,a,a,a,0
0,0,0,0,0,0,0,0,0,0,0,0,0,0,0,0
NAME codeland
EXT 9,1 4 9,15
PAL 4

ROOM 7
0,0,0,0,0,0,0,0,y,0,0,0,0,0,0,0
0,0,y,0,0,0,0,0,0,0,0,0,0,0,0,0
0,0,0,0,0,0,0,0,0,0,0,y,0,0,y,y
0,0,0,0,0,y,0,0,0,0,0,0,0,y,y,x
0,0,0,0,0,0,0,0,0,0,0,0,y,y,x,x
0,0,0,0,0,0,0,0,0,0,0,y,y,x,x,x
1d,1d,1g,0,0,0,0,0,0,0,0,y,x,x,x,x
1d,1d,1g,0,y,0,0,0,0,0,y,y,x,x,1r,x
1d,1d,1g,0,0,0,0,0,0,0,y,x,x,x,x,x
1d,1d,1g,0,0,0,0,0,0,y,y,x,x,x,x,x
0,0,0,0,0,0,y,0,0,y,y,y,x,x,x,x
0,0,0,0,0,0,0,0,0,0,0,y,y,x,x,x
0,0,0,0,0,0,0,0,0,0,0,0,y,y,x,x
0,y,0,0,y,0,0,0,0,0,0,y,0,y,y,x
0,0,0,0,0,0,0,0,y,0,0,0,0,0,y,y
0,0,0,0,0,0,0,0,0,0,0,0,0,0,0,0
NAME teleport
EXT 14,7 c 14,9
EXT 0,6 4 15,6
EXT 0,7 4 15,7
EXT 0,8 4 15,8
EXT 0,9 4 15,9
PAL 2

ROOM 9
a,0,0,0,0,0,0,0,0,0,0,a,0,0,0,0
0,0,0,0,0,0,0,a,0,0,0,0,0,0,0,a
0,0,0,a,0,0,0,0,0,0,a,0,0,0,0,0
0,0,0,0,0,0,0,0,0,0,0,0,0,0,0,a
0,a,0,0,0,a,0,0,0,0,0,0,0,0,0,0
0,0,0,0,0,0,0,0,0,0,0,0,a,0,0,a
0,0,0,0,0,0,0,0,0,0,0,0,0,0,0,a
0,0,0,a,0,0,0,0,0,0,0,0,0,z,10,0
0,0,0,0,0,0,0,0,0,0,0,0,0,0,0,a
0,a,0,0,0,a,0,0,0,0,0,0,0,0,0,a
0,0,0,0,0,0,0,0,0,0,0,a,0,0,0,0
0,0,0,0,0,0,0,0,0,0,0,0,0,0,a,0
0,0,0,0,0,0,a,0,0,0,0,0,0,0,0,0
0,0,0,a,0,0,0,0,0,0,a,0,0,0,0,0
a,0,0,0,0,0,0,0,0,0,0,0,0,0,0,0
0,0,0,0,a,0,0,0,0,0,0,0,0,0,a,0
NAME eow
EXT 15,7 a 0,7
PAL 5

ROOM a
0,0,0,0,0,0,0,0,0,0,0,0,0,0,0,0
0,0,0,0,0,0,0,0,0,0,0,0,0,0,0,0
0,0,0,0,0,0,0,0,0,0,0,0,0,0,0,0
0,0,0,0,0,0,0,0,0,0,0,0,0,0,0,0
0,0,0,0,0,1x,1y,1y,1y,1y,1z,0,0,0,0,0
0,0,0,0,0,1s,0,0,0,0,1t,0,0,0,0,0
0,0,0,0,0,1s,0,0,0,0,1t,0,0,0,0,0
0,0,0,0,0,1s,0,0,0,0,1t,0,0,0,0,24
0,0,0,0,0,1s,0,0,0,0,1t,0,0,0,0,22
0,0,0,0,0,1u,1v,1v,1v,1v,1w,0,0,0,0,23
0,0,0,0,0,0,0,20,21,0,0,0,0,0,0,0
0,0,0,0,0,0,0,0,0,0,0,0,0,0,0,0
0,0,0,0,0,0,0,0,0,0,0,0,0,0,0,0
0,0,0,0,0,0,0,0,0,0,0,0,0,0,0,0
0,0,0,0,0,0,0,0,0,0,0,0,0,0,0,0
0,0,0,0,0,0,0,0,0,0,0,0,0,0,0,0
NAME eow2
EXT 15,8 b 9,7
PAL 5

ROOM b
0,0,0,0,0,0,0,0,0,0,0,0,0,0,0,0
0,0,0,0,0,0,0,0,0,0,0,0,0,0,0,0
0,0,0,0,0,0,0,0,0,0,0,0,0,0,0,0
0,0,0,0,0,0,0,0,0,0,0,0,0,0,0,0
0,0,0,0,0,0,0,0,0,0,0,0,0,0,0,0
0,0,0,0,0,0,0,0,0,0,0,0,0,0,0,0
0,0,0,0,0,a,a,a,a,a,a,0,0,0,0,0
0,0,0,0,0,a,0,0,0,0,a,0,0,0,0,0
0,0,0,0,0,a,0,0,0,0,a,0,0,0,0,0
0,0,0,0,0,a,a,a,a,a,a,0,0,0,0,0
0,0,0,0,0,0,0,0,0,0,0,0,0,0,0,0
0,0,0,0,0,0,0,0,0,0,0,0,0,0,0,0
0,0,0,0,0,0,0,0,0,0,0,0,0,0,0,0
0,0,0,0,0,0,0,0,0,0,0,0,0,0,0,0
0,0,0,0,0,0,0,0,0,0,0,0,0,0,0,0
0,0,0,0,0,0,0,0,0,0,0,0,0,0,0,0
END 0 7,7
END 0 6,8
PAL 5

ROOM c
0,0,0,0,0,0,0,0,0,0,0,0,0,0,0,0
0,a,a,a,a,a,a,a,a,a,a,a,a,a,a,0
0,a,0,0,0,0,a,0,g,a,0,n,m,j,a,0
0,a,1c,c,0,0,a,0,0,a,0,0,l,k,a,0
0,a,0,0,0,0,a,0,0,a,0,0,0,0,a,0
0,a,a,a,a,e,a,a,e,a,e,a,a,a,a,0
0,a,h,0,a,o,o,o,o,o,o,o,o,o,a,0
0,a,h,0,a,o,o,o,o,o,o,o,o,o,a,0
0,a,h,0,f,o,o,o,o,o,o,o,o,o,a,0
0,a,a,a,a,o,o,o,o,o,o,o,o,p,f,0
0,a,i,0,f,o,o,o,o,o,o,o,o,o,a,0
0,a,i,0,a,o,o,o,o,o,o,o,o,o,a,0
0,a,i,0,a,o,o,o,o,o,o,o,o,o,a,0
0,a,i,0,a,o,o,o,o,o,o,o,o,o,a,0
0,a,a,a,a,a,a,a,a,a,a,a,a,a,a,0
0,0,0,0,0,0,0,0,0,0,0,0,0,0,0,0
ITM 1 5,5
EXT 3,2 9 0,8
EXT 2,3 9 0,8
PAL 1

TIL 10
00011000
11110100
00000010
01010001
00000010
11110100
00011000
00001000
NAME sign half2

TIL 11
11111111
10000000
10100100
10110101
10000000
11111111
00100000
00100000
NAME town sign

TIL 12
11111111
00000001
00110101
10010101
00000001
11111111
00000010
00000010
NAME sign1/2

TIL 13
11101001
11110010
00101110
11110100
11111101
00100010
11111100
11010010
NAME brokesphalt

TIL 14
10111110
01010101
10101011
11010101
10101011
11010101
10101010
01111101
NAME hedge
WAL true

TIL 20
00011111
00000000
00111111
00100000
00100000
00111111
01000000
10000000

TIL 21
11111100
00000000
11111100
00000100
00000100
11111100
00000010
00000001

TIL 22
10000000
11111111
10010010
01001001
01001001
10010010
11111111
10000000
>
10000000
11111111
01001001
00100100
00100100
01001001
11111111
10000000

TIL 23
11111111
00000000
00000000
00000000
00000000
00000000
00000000
00000000

TIL 24
00000000
00000000
00000000
00000000
00000000
00000000
00000000
11111111

TIL a
11111111
10000001
10000001
10000001
10000001
10000001
10000001
11111111
NAME wall
WAL true

TIL c
00000000
11111110
00000010
00000010
00000010
00000010
11111110
00000010
NAME bed2

TIL d
00000000
00111000
00101100
00100100
01111110
01000010
01000010
00000000
NAME dresser

TIL e
00000000
01000000
11111111
00000000
11111111
01000000
00000000
00000000
NAME door

TIL f
00101000
00101000
00101000
00101000
00101000
00101000
01101100
00101000
NAME door2

TIL g
00000000
00001110
00001010
00001010
01111110
00100010
00011010
00100010
NAME toilet

TIL h
10110000
11010000
10110000
11010000
10110000
11010000
10110000
11010000
NAME shelves

TIL i
10101000
11001000
10101000
10011000
10101000
11001000
10101000
10011000
NAME more shelves

TIL j
00000000
11111110
00100010
00100010
00100010
00100010
00100010
00100010
NAME bd's bed1

TIL k
00100010
00100010
00100010
00100010
00100010
00100010
11111110
00000010
NAME bd's bed2

TIL l
01000000
01000000
01000000
01000000
01000000
01000000
01111111
01000000
NAME bdb3

TIL m
00000000
01111111
01000000
01000000
01000000
01000000
01000000
01000000
NAME bdb4

TIL n
00011110
01110010
01000010
01011010
01000010
11111111
10000001
11111111
>
00011110
01110010
01000010
01000010
01000010
11111111
10000001
11111111
NAME dad's puter

TIL o
00000000
01000010
00000000
00011000
00011000
00000000
01000010
00000000
NAME floor

TIL p
10101010
01111111
11000000
01010101
11001010
01000000
11111111
01010101
NAME carpet

TIL q
11111111
11111111
00100100
11111111
11111111
00100100
11111111
11111111
NAME asphalt

TIL r
11011011
11011011
00111111
11111011
11111011
00100111
11111111
11111111
NAME asphalt corner1

TIL s
11011011
11011011
11111111
11011011
11011011
11111111
11011011
11011011
NAME asphalt straight2

TIL t
11111111
11111111
11100100
11011111
11011111
11111100
11011011
11011011
NAME asphalt corner

TIL u
11111111
11111111
00100111
11111011
11111011
00111111
11011011
11011011
NAME asphalt c 3

TIL v
11011011
11011011
11111100
11011111
11011111
11100100
11111111
11111111

TIL w
00000000
00000100
00001010
01010100
00101010
00101010
00000000
00000000
NAME flower

TIL x
00100000
10000000
00010010
01010000
00010000
10000100
00010000
01010101
>
00100000
10000000
00010010
01001000
00010000
10000100
00001000
01010101
NAME grass

TIL y
00000100
00000100
01010000
01000000
00010100
00000000
01010010
00000000
>
00001000
00000100
10010000
01000000
00010100
00000000
01010010
00000000
NAME sparse grass

TIL z
00000000
11111111
10000000
10010101
10000000
11111111
01000000
01000000
NAME sign half1

TIL 1c
00000000
01111111
01001000
01001000
01001000
01001000
01111111
01000000
NAME bed half

TIL 1d
00100100
01001001
10010010
00100100
01001001
10010010
00100100
01001001
NAME town path

TIL 1e
01010101
10101010
10101011
11101110
10111010
11101110
10101011
10101010
NAME gate
WAL true

TIL 1f
10101010
01010101
11010101
01110111
01011101
01110111
11010101
01010101
NAME gate2
WAL true

TIL 1g
00100100
01001000
00010010
00100100
01001000
00010010
00100100
01001000
NAME pathpath

TIL 1h
00000000
00010000
00001000
00111100
00100100
00100100
00011000
00000000

TIL 1i
00000000
00000000
00100000
01111100
00100100
00100100
00000000
00000000
>
00000000
00000000
00010000
01111100
00100100
01000010
00000000
00000000
NAME horse

TIL 1j
00000000
00000010
00000000
01000000
00000000
00000000
00001000
00000000

TIL 1k
00000000
11111111
10000000
10011111
10100000
10100000
10101100
10100000
>
00000000
11111111
10000000
10011111
10100000
10100000
10100000
10100000

TIL 1l
00000000
11111111
00000001
11111001
00000101
00000101
00110101
00000101
>
00000000
11111111
00000001
11111001
00000101
00000101
00000101
00000101

TIL 1m
10100000
10100000
10100111
10100000
10011111
10000000
11111111
00000100
>
10100000
10100000
10100000
10100000
10011111
10000000
11111111
00000100

TIL 1n
00000101
00000101
11100101
00000101
11111001
00000001
11111111
00100000
>
00000101
00000101
00000101
00000101
11111001
00000001
11111111
00100000

TIL 1o
00111000
01100000
10000000
11111111
10000000
11111111
00000000
00000000

TIL 1p
00011000
00000110
00000001
11111111
00000001
11111111
00000000
00000000

TIL 1q
00000000
11101010
00000000
11110000
00000100
00000000
11111000
00000000

TIL 1r
00000000
01000010
00111100
01000010
00111100
01000010
01000010
01111110
>
10000001
00000000
00111100
01000010
00111100
01000010
01000010
01111110

TIL 1s
01010000
01010000
01010000
01010000
01010000
01010000
01010000
01010000

TIL 1t
00001010
00001010
00001010
00001010
00001010
00001010
00001010
00001010

TIL 1u
01010000
01010000
01010000
01010000
01001111
01000000
01111111
00000000

TIL 1v
00000000
00000000
00000000
00000000
11111111
00000000
11111111
00000000

TIL 1w
00001010
00001010
00001010
00001010
11110010
00000010
11111110
00000000

TIL 1x
00000000
01111111
01000000
01001111
01010000
01010000
01010000
01010000

TIL 1y
00000000
11111111
00000000
11111111
00000000
00000000
00000000
00000000

TIL 1z
00000000
11111110
00000010
11110010
00001010
00001010
00001010
00001010
>
00000000
11111110
00000010
11110010
00001010
00101010
00001010
00001010

SPR A
00000000
00000000
01000000
00100100
00011000
00111100
00011000
00100100
>
00000000
00000000
00000010
00100100
00011000
00111100
00011000
00100100
POS 0 3,2

SPR a
10000010
11000011
00111100
00111100
11111011
00111100
00111100
11000011
>
01000001
11000011
00111100
00111100
11011111
00111100
00111100
11000011
NAME beetledad
DLG SPR_0
POS 0 9,12

SPR b
00000000
00011100
00110100
00100100
01111110
01000010
01111110
00000000
>
00000000
00011100
00110100
00101100
01111110
01000010
01111110
00000000
NAME comp
DLG SPR_1
POS 0 2,2

SPR c
00000000
01000000
11111111
00000000
11111111
01000000
00000000
00000000
NAME dad's door
DLG SPR_2
POS 0 10,5

SPR d
00000000
00000000
00000000
00011000
00110100
00101100
00011000
00111100
DLG SPR_3
POS 1 9,9

SPR e
01111100
11111100
10000110
11000110
11111110
01011010
00111110
00100010
>
01111100
11111100
11000110
10000110
11111110
10111010
00111110
00100010
NAME bonson
DLG SPR_4
POS 2 8,9

SPR f
00000000
00011000
00100100
01010011
10111100
00100100
01010100
01110111
>
00000000
00011000
00100100
11010010
00100101
00111100
01010100
01111110
NAME jogi
DLG SPR_5
POS 3 10,4

SPR g
00011100
11110111
10000001
11010111
01010100
01010100
01010100
01111100
>
00011100
11110111
10000010
11010111
01010100
01010100
01010100
01111100
NAME horse
DLG SPR_6
POS 4 3,3

SPR h
00010000
00111000
11111100
10101111
11111010
01010011
01011110
01010010
>
00010000
00111000
11111100
11011110
11111011
01010011
01011110
01010010
DLG SPR_7
POS 5 5,8

SPR i
00000000
01000000
11111111
01010101
10101010
11111111
01000000
00000000
NAME code door
DLG SPR_8
POS 6 6,8

SPR j
00010000
00101000
01111100
00101000
00111000
00101100
00111100
01100110
>
00000000
00111000
01101100
00111000
00101000
00111100
00101100
01100110
NAME cordo
DLG SPR_9
POS 6 10,5

SPR k
00100100
00100100
00111110
01000100
10111101
11000111
01001100
11110110
>
00100100
00100100
00111110
00100010
00111100
11000111
11001101
11110110
DLG SPR_a
POS 7 7,7

SPR l
00000000
01000000
11111111
00000000
11111111
01000000
00000000
00000000
NAME bb's door
DLG SPR_b
POS 8 5,5

SPR m
10000010
11000011
00111100
00111100
11111011
00111100
00111100
11000011
>
01000001
11000011
00111100
00111100
11011111
00111100
00111100
11000011
NAME bd2
DLG SPR_c
POS c 12,9

SPR n
00010000
00101000
01111100
00101000
00111000
00101100
00111100
01100110
>
00000000
00111000
01101100
00111000
00101000
00111100
00101100
01100110
NAME cordo2
DLG SPR_d
POS 9 8,7

SPR o
10000010
11000011
00111100
00111100
11111011
00111100
00111100
11000011
>
01000001
11000011
00111100
00111100
11011111
00111100
00111100
11000011
NAME bd3
DLG SPR_e
POS a 8,11

SPR p
00000000
00011100
00110100
00100100
01111110
01000010
01111110
00000000
>
00000000
00011100
00110100
00101100
01111110
01000010
01111110
00000000
POS b 6,7

SPR q
00000000
01000000
11111111
00000000
11111111
01000000
00000000
00000000
NAME dad's door2
DLG SPR_f
POS c 10,5

SPR r
00000000
00011100
00110100
00100100
01111110
01000010
01111110
00000000
>
00000000
00011100
00110100
00101100
01111110
01000010
01111110
00000000
NAME comp2
POS c 2,2

ITM 0
10011001
00010000
00100100
10010011
11001001
00100100
00001000
10011001
>
01001100
00010001
10100100
10001010
01010001
00100101
10001000
00110010
NAME star
DLG ITM_0

ITM 1
00000000
01000000
11111111
00000000
11111111
01000000
00000000
00000000
NAME bb's door
DLG ITM_1

DLG ITM_0
Okay cool now bring it over.

DLG SPR_0
"""
Hello Beetle Boy. Have fun on your walk today. 
Don't touch your computer.
"""

DLG SPR_1
"""
Your computer.
You got it taken away after you spooked the neighbor's horse, causing it to run onto the freeway. 
Don't touch it.
"""

DLG SPR_2
"""
The door to Beetle Dad's room. Oh my god. What are you doing.
You can't go in there, that's where the big computer is.
"""

DLG SPR_3
You're allergic to flowers. Better not take it.

DLG SPR_4
"""
Hey Beetle Boy. 
My family is thinking of moving west, what with the world ending and whatnot. 
Crazy stuff, huh.
Anyway, Jogi is just over that aways. 
"""

DLG SPR_5
"""
{
  - {item "0"} == 1 ?
    Okay thanks dude. I stepped in some wet cement and now I can't move but at least I got this thing haha right dude. Okay see you around okay.
  - else ?
    Beetle Boy! Okay I found a falling star but I need you to grab it and get it for me. Thanks dude.
}
"""

DLG SPR_6
The horse eyes you. It sure is awfully tall. It could crush you with one step of its powerful legs. Sleep with one eye open, little beetle, it seems to say. Lest your exoskeleton shatter to indifferent hoof.

DLG SPR_7
"""
Beetle Boy you piece of shit. You no good goddamn lousy troublemaker. 
This is not the way things are done, Beetle Boy, you ass. 
One does not simply walk onto a man's property after spookin' a horse that was under that man's care - no matter if he had been planning to shoot that old, infirm beast and turn it into delicious Horse Patties - and then expect a warm reception!
Now, I'll be the first to admit, there is a time and a place for a proper spookin'. But at the world's premier Horse Hotel is not the area to be going all bookus spookus, Beetle Boy, you turd-spelunker. 
Why, if everyone just went all bookity spookity wherever they pleased, there would be an utter collapse of good, old-fashioned American values, replaced by writhing masses of zealots devoted to their god Horse-Spookin'!
Now get out of my hotel, you anus.
"""

DLG SPR_8
Behind that door lies the God Code Emulator! Don't go in there or the world won't end!

DLG SPR_9
Heyo there Beetle Beetle Boy! I've finally finished the end of the world program, and it'll activate pretty pretty soon. I'd clear out if I were you, little bro bro.

DLG SPR_a
"""
Beetle Boy getcho ass home. Dontcha know the world bouta end?
Hop into my teleporter.
"""

DLG SPR_b
You've been waiting for this moment for a whole week.

DLG SPR_c
Alright, Beetle Boy, I think you've earned your computer privileges back! Have fun.

DLG ITM_1
You've been waiting for this moment for a whole week.

DLG SPR_d
"""
One end of the world, as promised, Beetle Boy. Thanks for getting rid of that creepy old horse.
I did as you asked, and now you can use the Ultimate End of the World Computer. Hope it's fun!
"""

DLG SPR_e
"""
Beetle Boy, ending the world wasn't very nice of you. 
As such, I've taken away your computer privileges again.
Go to your room and think about what you've done.
"""

DLG SPR_f
Still can't go in there.

END 0
Nice try.

VAR a
42

