


# BITSY VERSION 4.8

! ROOM_FORMAT 1

PAL 0
144,113,204
238,234,255
255,255,255

ROOM 0
0,0,0,0,0,0,0,0,0,0,0,0,0,0,0,0
0,0,0,0,0,0,0,0,0,0,0,0,0,0,0,0
0,0,0,0,0,0,0,0,0,0,0,0,0,0,0,0
0,0,0,0,0,0,0,0,0,0,0,0,0,0,0,0
0,0,0,0,0,0,0,0,0,0,0,0,0,0,0,0
0,0,0,0,0,0,0,0,0,0,0,0,0,0,0,0
0,0,0,a,b,c,d,e,g,g,g,k,f,0,0,0
0,0,0,h,s,s,i,i,i,i,s,t,j,0,0,0
0,0,0,m,r,q,0,0,0,0,u,v,o,0,0,0
0,0,0,n,w,w,w,w,w,w,w,w,p,0,0,0
0,0,0,0,0,0,0,0,0,0,0,0,0,0,0,0
0,0,0,0,0,0,0,0,0,0,0,0,0,0,0,0
0,0,0,0,0,0,0,0,0,0,0,0,0,0,0,0
0,0,0,0,0,0,0,0,0,0,0,0,0,0,0,0
0,0,0,0,0,0,0,0,0,0,0,0,0,0,0,0
0,0,0,0,0,0,0,0,0,0,0,0,0,0,0,0
END 0 5,8
END 1 10,8
PAL 0

TIL a
11111111
10000000
10010000
10010001
10010001
10010001
10010001
10011100
NAME TL-ToolBar

TIL b
11111111
00000000
11000111
00101000
00101000
00101011
00101000
11000111
NAME TL2-ToolBar

TIL c
11111111
00000000
00000110
00001001
00001001
10001001
10001001
00000110
NAME TL3-Toolbar

TIL d
11111111
00000000
01001011
01001001
01001001
01001001
01001001
00110001
NAME TR3-ToolBar

TIL e
11111111
00000000
10011100
00100010
00000100
00001000
00000000
00001000
NAME TR2-ToolBar

TIL f
11111111
00000001
00000001
01101101
00111001
00111001
01101101
00000001
NAME TR-ToolBar

TIL g
11111111
00000000
00000000
00000000
00000000
00000000
00000000
00000000
NAME Filler-Toolbar

TIL h
10000000
11111111
10000000
10000000
10000000
10000000
10000000
10000000
NAME TL-Form

TIL i
00000000
11111111
00000000
00000000
00000000
00000000
00000000
00000000
NAME Top-Form
WAL true

TIL j
00000001
11111111
00000001
00000001
00000001
00000001
00000001
00000001
NAME TR-Form
WAL true

TIL k
11111111
00000001
00000001
00000001
00000001
00000001
00000001
00000001
NAME FillerWall-Toolbar

TIL l
00000001
11111111
00000000
00000000
00000000
00000000
00000000
11111111
NAME Top-FormNotch

TIL m
10000000
10000000
10000000
10000000
10000000
10000000
10000000
10000000
NAME L-Wall

TIL n
10000000
10000000
10000000
10000000
10000000
10000000
10000000
11111111
NAME LL-Wall

TIL o
00000001
00000001
00000001
00000001
00000001
00000001
00000001
00000001
NAME R-Wall

TIL p
00000001
00000001
00000001
00000001
00000001
00000001
00000001
11111111
NAME RR-Wall

TIL q
00000001
10001101
01010001
10001001
00000101
10011001
00000001
11111111
NAME Yes-Right

TIL r
10000000
10101001
10101010
10011011
10001010
10110001
10000000
11111111
NAME Yes-Left

TIL s
00000000
11111111
00000000
00000000
00000000
00000000
00000000
11111111
NAME Top-FormB
WAL true

TIL t
00000001
11111111
00000000
00000000
00000000
00000000
00000000
11111111
NAME Top-FormC
WAL true

TIL u
10000000
10001001
10001101
10001011
10001001
10001001
10000000
11111111
NAME No-Left

TIL v
00000001
00110001
01001001
01001001
01001001
00110001
00000001
11111111
NAME No-Right

TIL w
00000000
00000000
00000000
00000000
00000000
00000000
00000000
11111111
NAME Bottom-Form
WAL true

SPR A
00000000
00111110
00000110
00001010
00010010
00100010
01000000
00000000
POS 0 7,8

SPR a
00000000
00000000
00000000
00000000
00000000
00000000
00000000
00000000
POS 0 8,12

ITM 0
00000000
00000000
00000000
00111100
01100100
00100100
00011000
00000000
NAME tea
DLG ITM_0

DLG ITM_0
You found a nice warm cup of tea

END 0
coward

END 1
{rbw}{wvy}yes{wvy}{rbw}

VAR a
42


