Pet the cat

# BITSY VERSION 3.4

! ROOM_FORMAT 1

PAL 0
0,0,0
255,255,255
255,255,255

ROOM 0
0,0,0,0,0,0,0,0,0,0,0,0,0,0,0,0
0,a,a,0,a,a,a,a,a,a,a,a,a,a,a,0
0,a,0,0,0,0,0,0,0,0,0,0,0,0,a,0
0,a,0,0,0,0,0,0,0,0,0,0,0,0,a,0
0,a,0,0,0,0,0,0,0,0,0,0,0,0,a,0
0,a,0,0,0,0,0,0,0,0,0,0,0,0,a,0
0,a,a,a,a,a,0,0,0,0,0,0,0,0,a,0
0,a,0,0,0,a,0,0,0,0,0,0,0,0,a,0
0,a,0,0,0,a,0,0,0,0,0,0,0,0,a,0
0,a,0,0,0,a,0,0,0,0,0,0,0,0,a,0
0,a,0,0,0,a,0,0,0,0,0,0,0,0,a,0
0,a,0,0,0,a,0,0,0,0,0,0,0,0,a,0
0,a,0,0,0,a,0,0,0,0,0,0,0,0,a,0
0,a,0,0,0,0,0,0,0,0,0,0,0,0,a,0
0,a,a,a,a,a,a,a,a,a,a,a,a,a,a,0
0,0,0,0,0,0,0,0,0,0,0,0,0,0,0,0
WAL a
EXT 3,1 1 3,14
END 0 7,12
END 0 8,11
END 0 9,12
END 0 8,13
END 1 3,7
END 1 2,8
END 4 12,13
END 4 13,12
END 3 10,9
END 5 4,8
PAL 0

ROOM 1
0,0,0,0,0,0,0,0,0,0,0,0,0,0,0,0
0,0,0,0,0,0,0,0,0,0,0,0,0,0,0,0
0,0,0,0,0,0,0,0,0,0,c,c,c,0,0,0
0,0,0,0,0,0,0,0,0,c,c,c,c,0,0,0
0,0,0,0,0,0,0,0,c,c,c,c,c,0,0,0
0,0,0,0,0,0,0,0,c,c,c,c,0,0,0,0
0,0,0,0,0,0,0,c,c,c,0,0,0,0,0,0
0,0,0,0,0,0,c,c,c,0,0,0,0,0,0,0
0,0,0,0,0,c,c,c,c,0,0,0,0,0,0,0
0,0,0,0,c,c,c,c,0,0,0,0,0,0,0,0
0,0,0,c,c,c,c,0,0,0,0,0,0,0,0,0
0,0,c,c,c,c,0,0,0,0,0,0,0,0,0,0
0,c,c,c,c,0,0,0,0,0,0,0,0,0,0,0
0,c,c,c,0,0,0,0,0,0,0,0,0,0,0,0
0,c,c,c,0,0,0,0,0,0,0,0,0,0,0,0
0,0,0,0,0,0,0,0,0,0,0,0,0,0,0,0
END 2 10,3
END 2 11,4
END 2 12,3
END 2 11,2
END 6 1,0
PAL 0

TIL a
11111111
10000001
10000001
10011001
10011001
10000001
10000001
11111111

TIL b
00000000
00000000
00000000
00000000
00000000
00000000
00000000
00000000

TIL c
01010101
10101010
01010101
10101010
01010101
10101010
01010101
10101010

SPR A
00000000
00011000
00011000
00111100
01111110
01111110
00100100
00100100
>
00000000
00000000
00011000
00011000
00111100
01111110
01111110
00100100
POS 0 3,3

SPR a
00000000
00000000
01010001
01110001
01110010
01111100
00111100
00100100
POS 0 8,12

SPR b
00100100
00011000
11111111
10000001
10000001
10000001
11111111
01000010
POS 0 11,9

SPR c
11111111
11111111
11111111
10000001
10000001
10000001
10000001
11111111
POS 0 2,7

SPR d
00000000
00000000
00000000
01111110
10000001
01111110
00100100
00111100
POS 1 11,3

SPR e
00000000
11110000
10010000
10010000
10011110
10000010
10000010
11111110
POS 0 9,9

SPR f
01111110
10000001
10111101
10100101
10100101
10111101
10000001
01111110
POS 0 13,13

SPR g
11111111
10000001
10011001
10100101
10011001
10000001
10000001
11111111
POS 0 4,7

SPR h
00111100
01000010
01000010
01000010
01000010
00111100
00100100
00100100
POS 1 1,1

DLG a
I'm a cat

DLG b
Hmmh.. what a great show!

END 0
You Pet the cat, What a great ending!

END 1
You're going to bed... its too hard to sleep because cat meows many times...

END 2
Well, it's seems to be happened.... cats is dead now

END 3
You sitting and Watching TV with Epilepsy, cat's eye need medicine....

END 4
You use cat food bag, you feed cat with cat foods.... feels good....

END 5
You use "Condom" to [BEEP] the cat, what an pedophile

END 6
You found secret ending? yup thats what iv'e do... any coincidence?

