
become as clouds

# BITSY VERSION 4.5

! ROOM_FORMAT 1

PAL 0
NAME grass
255,116,147
255,196,148
240,250,249

PAL 1
NAME sky2
132,194,255
255,255,255
255,255,255

PAL 2
NAME sky1
255,178,212
255,255,255
255,255,255

PAL 3
NAME sky3
83,198,255
255,255,255
255,255,255

PAL 4
NAME sky4
3,135,255
255,255,255
255,255,255

ROOM 0
0,0,0,0,0,0,0,0,0,0,a,a,a,a,a,a
0,0,0,0,0,0,0,0,0,a,a,a,a,a,a,a
0,0,0,0,0,0,0,0,0,a,a,a,a,a,a,a
0,0,0,0,0,0,0,0,0,0,a,a,a,a,a,a
0,0,0,0,0,0,0,0,0,0,0,a,a,a,a,a
0,a,a,a,a,0,0,0,0,0,0,0,0,0,0,0
a,a,a,a,a,a,0,0,0,0,0,0,0,0,0,0
a,a,a,a,a,a,0,0,0,0,0,0,0,0,0,0
0,a,a,a,a,0,0,0,0,0,0,0,0,0,0,0
0,0,0,0,0,0,0,0,0,0,0,0,0,0,0,0
0,0,0,0,0,0,0,0,0,0,0,0,0,0,a,a
0,0,0,0,0,0,0,0,0,0,0,0,0,a,a,a
0,0,0,0,0,0,0,0,0,0,0,0,0,a,a,a
0,0,0,0,0,0,0,0,0,0,0,0,0,0,a,a
0,0,0,0,0,0,0,0,0,0,0,0,0,0,0,0
0,0,0,0,0,0,0,0,0,0,0,0,0,0,0,0
NAME sky1
EXT 0,0 2 0,15
EXT 1,0 2 1,15
EXT 2,0 2 2,15
EXT 3,0 2 3,15
EXT 4,0 2 4,15
EXT 5,0 2 5,15
EXT 6,0 2 6,15
EXT 7,0 2 7,15
EXT 8,0 2 8,15
PAL 2

ROOM 1
0,0,0,0,0,0,0,0,0,0,0,0,0,0,0,0
0,0,0,0,0,0,0,0,0,0,0,0,0,0,0,0
0,0,0,0,0,0,0,0,0,0,0,0,0,0,0,0
0,0,0,0,0,0,0,0,0,0,0,0,0,0,0,0
0,0,0,0,0,0,0,0,0,0,0,0,0,0,0,0
0,0,0,0,0,0,0,0,0,0,0,0,0,0,0,0
0,0,0,0,0,0,0,0,0,0,0,0,0,0,0,0
0,0,0,0,0,0,0,0,0,0,0,0,0,0,0,0
0,0,0,0,0,0,0,0,0,0,0,0,0,0,0,0
b,b,b,b,b,b,b,b,b,b,b,b,b,b,b,b
c,c,c,c,c,c,c,c,c,c,c,c,c,c,c,c
c,c,c,c,c,c,c,c,c,c,c,c,c,c,c,c
c,c,c,c,c,c,c,c,c,c,c,c,c,c,c,c
c,c,c,c,c,c,c,c,c,c,c,c,c,c,c,c
c,c,c,c,c,c,c,c,c,c,c,c,c,c,c,c
c,c,c,c,c,c,c,c,c,c,c,c,c,c,c,c
NAME Start
EXT 0,0 0 0,15
EXT 1,0 0 1,15
EXT 2,0 0 2,15
EXT 3,0 0 3,15
EXT 4,0 0 4,15
EXT 5,0 0 5,15
EXT 6,0 0 6,15
EXT 7,0 0 7,15
EXT 8,0 0 8,15
EXT 9,0 0 9,15
EXT 10,0 0 10,15
EXT 11,0 0 11,15
EXT 12,0 0 12,15
EXT 13,0 0 13,15
EXT 14,0 0 14,15
EXT 15,0 0 15,15
PAL 0

ROOM 2
0,0,0,0,0,0,0,0,0,0,0,0,0,0,0,0
0,0,0,0,0,0,0,0,0,0,0,0,0,0,0,0
0,0,0,0,a,a,a,a,a,a,a,a,0,0,0,0
0,0,0,0,a,a,a,a,a,a,a,a,0,0,0,0
0,0,a,a,a,a,a,a,a,a,a,a,a,a,0,0
0,0,a,a,a,a,a,a,a,a,a,a,a,a,0,0
0,0,a,a,a,a,a,a,a,a,a,a,a,a,0,0
0,0,a,a,a,a,a,a,a,a,a,a,a,a,0,0
0,0,0,0,a,a,a,a,a,a,a,a,0,0,0,0
0,0,0,0,a,a,a,a,a,a,a,a,0,0,0,0
0,0,0,0,0,0,0,0,0,0,0,0,0,0,0,0
0,0,0,0,0,0,0,0,0,0,0,0,0,0,0,0
0,0,0,0,0,0,0,0,0,0,0,0,0,0,0,0
0,0,0,0,0,0,0,0,0,0,0,0,0,0,0,0
0,0,0,0,0,0,0,0,0,0,0,0,0,0,0,0
0,0,0,0,0,0,0,0,0,0,a,a,a,a,a,a
NAME sky2
EXT 0,0 3 0,15
EXT 1,0 3 1,15
EXT 2,0 3 2,15
EXT 3,0 3 3,15
EXT 4,0 3 4,15
EXT 5,0 3 5,15
EXT 6,0 3 6,15
EXT 7,0 3 7,15
EXT 8,0 3 8,15
EXT 9,0 3 9,15
EXT 10,0 3 10,15
EXT 11,0 3 11,15
EXT 12,0 3 12,15
EXT 13,0 3 13,15
EXT 14,0 3 14,15
EXT 15,0 3 15,15
PAL 1

ROOM 3
0,0,0,a,a,a,0,0,0,0,0,0,a,a,0,0
0,0,a,a,a,a,a,0,0,0,0,a,a,a,a,0
0,a,a,a,a,a,a,a,0,0,0,a,a,a,a,a
0,a,a,a,a,a,a,a,0,0,0,a,a,a,a,0
0,0,a,a,a,a,a,0,0,0,0,0,a,a,0,0
0,0,0,a,a,a,0,0,0,0,0,0,0,0,0,0
0,0,0,a,0,0,0,0,0,0,0,0,0,0,0,0
a,a,a,a,0,0,0,0,0,0,0,0,0,0,0,0
a,a,a,a,a,0,0,0,0,0,0,0,0,0,0,0
a,a,a,a,0,0,0,0,0,0,a,a,a,0,0,0
0,0,0,0,0,0,0,0,a,a,a,a,a,a,a,0
0,0,0,0,0,0,0,0,a,a,a,a,a,a,a,0
0,0,0,0,0,0,0,0,0,0,a,a,a,0,0,0
0,0,0,0,0,0,0,0,0,0,0,0,0,0,0,0
0,0,0,0,0,0,0,0,0,0,0,0,0,0,0,0
0,0,0,0,0,0,0,0,0,0,0,0,0,0,0,0
NAME sky3
EXT 6,0 4 6,15
EXT 7,0 4 7,15
EXT 8,0 4 8,15
EXT 9,0 4 9,15
EXT 10,0 4 10,15
PAL 3

ROOM 4
a,a,0,a,a,a,a,a,a,a,a,a,a,a,a,a
a,a,0,a,a,a,a,a,a,a,a,a,a,a,a,a
a,a,0,a,a,a,a,a,a,a,0,0,a,a,a,a
a,a,0,a,a,a,a,a,0,0,0,0,a,a,a,a
a,0,0,a,0,a,a,0,0,a,a,0,a,a,a,a
a,0,a,a,0,a,a,0,a,a,a,0,a,a,a,a
a,0,0,a,0,0,0,0,a,a,a,0,a,a,a,a
a,a,0,a,a,0,a,a,a,a,a,0,a,a,a,a
a,0,0,a,a,0,0,0,a,0,a,0,0,0,0,a
a,a,0,a,a,0,0,a,a,0,0,0,a,0,a,a
a,a,0,a,a,0,a,a,a,a,a,0,a,0,a,a
a,0,0,a,0,0,a,a,a,a,a,0,a,a,a,a
a,0,a,a,0,a,a,a,a,a,a,0,a,a,a,a
a,0,0,0,0,a,a,0,a,0,0,0,a,a,a,a
a,a,0,a,a,a,0,0,0,0,0,0,a,a,a,a
a,a,0,a,a,a,0,0,0,0,0,0,a,a,a,a
NAME cloudcity
EXT 2,0 5 2,15
PAL 4

ROOM 5
a,a,a,a,a,a,a,a,a,a,a,a,a,a,a,a
a,a,0,0,0,0,0,a,0,0,0,0,0,0,a,a
a,a,0,0,0,0,a,a,a,0,0,0,0,0,a,0
a,a,0,0,0,a,a,a,a,a,0,0,0,0,a,a
a,a,0,0,0,0,a,0,a,0,0,0,0,0,a,a
a,a,0,0,0,0,0,0,0,0,0,0,0,0,a,a
a,a,0,0,0,0,0,0,0,0,0,0,0,0,a,a
a,a,0,0,0,0,0,0,0,0,0,0,0,0,a,a
a,a,0,0,0,0,0,0,0,0,0,a,a,0,a,a
a,a,0,0,0,0,0,0,0,a,a,a,a,a,a,a
a,a,0,0,a,a,0,0,0,a,a,a,a,a,a,0
a,a,0,0,0,0,0,0,0,0,0,a,a,0,a,a
a,a,0,0,0,0,0,0,0,0,0,0,0,0,a,a
a,a,0,0,0,0,0,0,0,0,0,0,0,0,a,a
a,a,0,0,0,a,a,a,a,a,a,a,a,a,a,a
a,a,0,a,a,a,a,a,a,a,a,a,a,a,a,a
NAME skyfinal
END undefined 7,4
PAL 4

TIL a
00011000
00111100
01111110
11111111
11111111
11111111
00111100
00011000
WAL true

TIL b
00000000
00000000
00000000
00000000
01000001
10110110
11111111
11111111
WAL true

TIL c
11111111
11111111
11111111
11111111
11111111
11111111
11111111
11111111

TIL d
00011000
00111100
01111110
11111111
11111111
11111111
00111111
00011111
WAL true

TIL e
11111111
11111111
11111111
11111111
11111111
11111111
11111111
11111111
WAL true

TIL f
11111111
11111111
11111111
11111111
11111111
11111111
11111100
11111000
WAL true

SPR 10
00011000
00111100
01011010
11011011
11111111
01111110
00100100
00011000
>
00011000
00111100
01011010
11011011
10111101
01100110
00100100
00011000
DLG SPR_i
POS 3 8,11

SPR 11
00011000
00111100
01011010
11011011
11111111
01111110
00100100
00011000
>
00011000
00111100
01011010
11011011
10111101
01100110
00100100
00011000
DLG SPR_j
POS 3 14,10

SPR 12
00011000
00111100
01011010
11011011
11111111
01111110
00100100
00011000
>
00011000
00111100
01011010
11011011
10111101
01100110
00100100
00011000
DLG SPR_k
POS 4 8,13

SPR 13
00011000
00111100
01011010
11011011
11111111
01111110
00100100
00011000
>
00011000
00111100
01011010
11011011
10111101
01100110
00100100
00011000
DLG SPR_l
POS 4 9,8

SPR 14
00011000
00111100
01011010
11011011
11111111
01111110
00100100
00011000
>
00011000
00111100
01011010
11011011
10111101
01100110
00100100
00011000
DLG SPR_m
POS 4 2,12

SPR 15
00011000
00111100
01011010
11011011
11111111
01111110
00100100
00011000
>
00011000
00111100
01011010
11011011
10111101
01100110
00100100
00011000
DLG SPR_n
POS 4 1,7

SPR 16
00011000
00111100
01011010
11011011
11111111
01111110
00100100
00011000
>
00011000
00111100
01011010
11011011
10111101
01100110
00100100
00011000
DLG SPR_o
POS 4 2,5

SPR 17
00011000
00111100
01011010
11011011
11111111
01111110
00100100
00011000
>
00011000
00111100
01011010
11011011
10111101
01100110
00100100
00011000
POS 4 13,11

SPR 18
00000000
00000000
00111100
01111110
11111111
11111111
01111110
00000000
>
00000000
00000000
00000000
00111100
01111110
11111111
11111111
01111110
DLG SPR_p
POS 4 13,10

SPR 19
00011000
00111100
01011010
11011011
11111111
01111110
00100100
00011000
>
00011000
00111100
01011010
11011011
10111101
01100110
00100100
00011000
DLG SPR_q
POS 4 4,3

SPR A
00111100
01111110
01111110
00111100
00011000
00100100
00011000
00000000
>
00000000
00111100
01111110
01111110
00111100
00011000
00100100
00011000
POS 1 7,8

SPR a
00000000
00000000
00111100
01111110
11111111
11111111
01111110
00000000
>
00000000
00000000
00000000
00111100
01111110
11111111
11111111
01111110
DLG SPR_0
POS 1 2,5

SPR b
00000000
00000000
00111100
01111110
11111111
11111111
01111110
00000000
>
00000000
00000000
00000000
00111100
01111110
11111111
11111111
01111110
DLG SPR_1
POS 1 11,7

SPR c
00000000
00000000
00111100
01111110
11111111
11111111
01111110
00000000
>
00000000
00000000
00000000
00111100
01111110
11111111
11111111
01111110
DLG SPR_2
POS 1 8,2

SPR d
00000000
00000000
00111100
01111110
11111111
11111111
01111110
00000000
>
00000000
00000000
00000000
00111100
01111110
11111111
11111111
01111110
DLG SPR_3
POS 1 14,1

SPR e
00000000
00000000
00111100
01111110
11111111
11111111
01111110
00000000
>
00000000
00000000
00000000
00111100
01111110
11111111
11111111
01111110
DLG SPR_4

SPR f
00000000
00000000
00111100
01111110
11111111
11111111
01111110
00000000
>
00000000
00000000
00000000
00111100
01111110
11111111
11111111
01111110
DLG SPR_5
POS 0 6,12

SPR g
00000000
00000000
00111100
01111110
11111111
11111111
01111110
00000000
>
00000000
00000000
00000000
00111100
01111110
11111111
11111111
01111110
DLG SPR_6
POS 0 13,7

SPR h
00000000
00000000
00111100
01111110
11111111
11111111
01111110
00000000
>
00000000
00000000
00000000
00111100
01111110
11111111
11111111
01111110
DLG SPR_7
POS 0 2,2

SPR i
00000000
00000000
00111100
01111110
11111111
11111111
01111110
00000000
>
00000000
00000000
00000000
00111100
01111110
11111111
11111111
01111110
DLG SPR_b
POS 2 4,12

SPR j
00000000
00000000
00111100
01111110
11111111
11111111
01111110
00000000
>
00000000
00000000
00000000
00111100
01111110
11111111
11111111
01111110
DLG SPR_t
POS 5 7,6

SPR k
01111100
01000010
01000010
01111100
01111100
01000010
01000010
01111100

SPR l
01111100
01000000
01000000
01111000
01000000
01000000
01000000
01111100

SPR m
01111100
10000000
10000000
10000000
10000000
10000000
10000000
01111100

SPR n
01111100
10000010
10000010
10000010
10000010
10000010
10000010
01111100

SPR o
10000010
11000110
10101010
10010010
10010010
10010010
10010010
10010010

SPR p
00000000
00000000
00000000
00000000
00000000
00000000
00000000
00000000

SPR q
01111100
01000000
01000000
01111000
01000000
01000000
01000000
01111100

SPR r
00011000
00111100
01011010
11011011
11111111
01111110
00100100
00011000
>
00011000
00111100
01011010
11011011
10111101
01100110
00100100
00011000
DLG SPR_8
POS 2 7,9

SPR s
00011000
00111100
01011010
11011011
11111111
01111110
00100100
00011000
>
00011000
00111100
01011010
11011011
10111101
01100110
00100100
00011000
DLG SPR_9
POS 2 11,2

SPR t
00011000
00111100
01011010
11011011
11111111
01111110
00100100
00011000
>
00011000
00111100
01011010
11011011
10111101
01100110
00100100
00011000
DLG SPR_a
POS 2 2,4

SPR u
00011000
00111100
01011010
11011011
11111111
01111110
00100100
00011000
>
00011000
00111100
01011010
11011011
10111101
01100110
00100100
00011000
DLG SPR_c
POS 3 3,6

SPR v
00011000
00111100
01011010
11011011
11111111
01111110
00100100
00011000
>
00011000
00111100
01011010
11011011
10111101
01100110
00100100
00011000
DLG SPR_d
POS 3 10,9

SPR w
00011000
00111100
01011010
11011011
11111111
01111110
00100100
00011000
>
00011000
00111100
01011010
11011011
10111101
01100110
00100100
00011000
DLG SPR_e
POS 3 12,4

SPR x
00011000
00111100
01011010
11011011
11111111
01111110
00100100
00011000
>
00011000
00111100
01011010
11011011
10111101
01100110
00100100
00011000
DLG SPR_f
POS 3 2,9

SPR y
00011000
00111100
01011010
11011011
11111111
01111110
00100100
00011000
>
00011000
00111100
01011010
11011011
10111101
01100110
00100100
00011000
DLG SPR_g
POS 3 6,4

SPR z
00011000
00111100
01011010
11011011
11111111
01111110
00100100
00011000
>
00011000
00111100
01011010
11011011
10111101
01100110
00100100
00011000
DLG SPR_h
POS 3 11,2

SPR 1a
00011000
00111100
01011010
11011011
11111111
01111110
00100100
00011000
>
00011000
00111100
01011010
11011011
10111101
01100110
00100100
00011000
DLG SPR_r
POS 4 10,1

SPR 1b
00000000
00000000
00000000
00000000
00000000
00000000
00000000
00000000

SPR 1c
00000000
00000000
00111100
01111110
11111111
11111111
01111110
00000000
>
00000000
00000000
00000000
00111100
01111110
11111111
11111111
01111110
DLG SPR_s
POS 4 2,15

SPR 1d
00000000
00000000
00111100
01111110
11111111
11111111
01111110
00000000
>
00000000
00000000
00000000
00111100
01111110
11111111
11111111
01111110

SPR 1e
00011000
00111100
01011010
11011011
11111111
01111110
00100100
00011000
>
00011000
00111100
01011010
11011011
10111101
01100110
00100100
00011000
DLG SPR_u
POS 5 9,10

SPR 1f
00011000
00111100
01011010
11011011
11111111
01111110
00100100
00011000
>
00011000
00111100
01011010
11011011
10111101
01100110
00100100
00011000
DLG SPR_v
POS 5 5,14

SPR 1g
00000000
00000000
00111100
01111110
11111111
11111111
01111110
00000000
>
00000000
00000000
00000000
00111100
01111110
11111111
11111111
01111110
DLG SPR_w

ITM 0
00000000
00000000
00000000
00111100
01100100
00100100
00011000
00000000
NAME tea
DLG ITM_0

DLG ITM_0
You found a nice warm cup of tea

DLG SPR_0
who are you?

DLG SPR_1
"""
scary place down there.

must be bad!
"""

DLG SPR_2
nice day for a float eh

DLG SPR_4
"""
when it gets hot I have to pee.

nothing wrong with that!
"""

DLG SPR_5
"""
be careful around the big clouds.
they're intimidating.
"""

DLG SPR_6
i'm too scared to move

DLG SPR_7
"""
the big clouds aren't bad clouds

they're just shy
"""

DLG SPR_8
"""
big clouds are just a bunch of little ones like me.
we protect each other!
"""

DLG SPR_9
"""
this spot is mine.

sorry!
"""

DLG SPR_a
fear me! fear me! don't come near me!

DLG SPR_b
"""
this is an especially big cloud.

kinda cute!
"""

DLG SPR_3
you look cool!

DLG SPR_c
i'm a new cloud! bridge cloud!

DLG SPR_d
spot's taken!

DLG SPR_e
move along pal

DLG SPR_f
i love windy days!

DLG SPR_g
i hate windy days!

DLG SPR_h
are you even a cloud?

DLG SPR_i
sure is nice to be around people that like you

DLG SPR_j
"""
i know you're not a cloud

but I won't tell
"""

DLG SPR_k
"""
welcome to cloud city

home of the nimbi
"""

DLG SPR_l
"""
want to cloud next to me?

haha just kidding you smell.
"""

DLG SPR_m
"""
they're opening some suburbs up top.
just means my spot is worth more!
"""

DLG SPR_n
"""
i could never leave downtown.

the city!!
"""

DLG SPR_o
everything is going to heck

DLG SPR_p
"""
finally, my piece of the pie.

cloud pie.
"""

DLG SPR_q
go nimbi!

DLG SPR_r
"""
welcome to my store!

sorry we're closed.
"""

DLG SPR_s
i don't live here, but i love here.

DLG SPR_t
"""
i was gonna move in here but I dunno
im ok

"""

DLG SPR_u
"""
this is a safe neighbourhood

i see everything
"""

DLG SPR_v
"""
welcome home

excuse me i'm on the phone here
"""

DLG SPR_w
"""
not so safe on your own anymore

bandits
"""

END 0


END undefined
home is not so far

VAR a
42


