
you died...

# BITSY VERSION 4.0

! ROOM_FORMAT 1

PAL 0
80,100,113
52,56,89
64,41,44

PAL 1
255,255,255
255,255,255
255,255,255

ROOM 0
a,a,a,a,a,a,a,a,a,a,a,a,a,a,a,a
r,s,r,s,s,s,r,s,r,s,r,s,s,r,s,r
t,t,t,t,t,t,t,t,t,t,t,t,t,t,t,t
p,p,q,q,q,q,q,q,q,q,q,q,q,p,q,q
q,q,q,p,p,p,p,0,p,q,p,p,0,p,p,p
p,p,p,p,p,q,p,p,p,p,q,p,p,p,q,p
p,p,p,p,0,p,q,p,q,0,p,p,p,p,0,p
p,0,u,p,u,p,0,p,q,p,p,0,p,p,p,q
q,p,0,p,0,p,p,q,u,p,p,p,u,p,p,0
u,v,0,u,0,0,0,p,0,0,0,p,0,v,0,u
q,0,0,u,0,p,0,0,p,q,0,v,u,0,p,0
0,0,0,0,0,0,v,0,0,0,0,0,0,0,0,0
k,k,k,k,k,k,k,k,k,k,k,k,k,k,k,k
0,0,0,0,0,0,d,c,c,f,c,f,e,0,0,0
a,a,a,a,a,a,a,a,a,a,a,a,a,a,a,a
a,a,a,a,a,a,a,a,a,a,a,a,a,a,a,a
NAME 1
WAL a,k,l,1m
EXT 15,13 1 0,13
PAL 0

ROOM 1
a,a,a,a,a,a,a,a,a,a,a,a,a,a,a,a
r,s,r,s,s,s,r,s,r,s,r,s,s,r,s,r
t,t,t,t,t,t,t,t,t,t,t,t,t,t,t,t
p,p,q,q,q,q,q,q,q,q,q,q,q,p,q,q
q,q,q,p,p,p,p,0,p,q,p,p,0,p,p,p
p,p,p,p,p,q,p,p,p,p,q,p,p,p,q,p
p,p,p,p,0,p,q,p,q,0,p,p,p,p,0,p
p,0,u,p,u,p,0,p,q,p,p,0,p,p,p,q
q,p,0,p,0,p,p,q,u,p,p,p,u,p,p,0
u,v,0,u,0,0,0,p,0,0,0,p,0,v,0,u
q,0,0,u,0,p,0,0,p,q,0,v,u,0,p,0
0,0,0,0,0,0,v,0,0,0,0,0,0,0,0,0
k,k,k,k,k,k,k,k,k,k,k,k,k,k,k,k
0,0,0,d,e,0,0,0,0,0,0,d,f,e,0,0
a,a,a,a,a,a,a,a,a,a,a,a,a,a,a,a
a,a,a,a,a,a,a,a,a,a,a,a,a,a,a,a
NAME 2
WAL a,k,l,1m
EXT 0,13 0 15,13
EXT 15,13 2 0,13
PAL 0

ROOM 2
a,a,a,a,a,a,a,a,a,a,a,a,a,a,a,a
r,s,r,s,s,s,r,s,r,s,r,s,s,r,s,r
t,t,t,t,t,t,t,t,t,t,t,t,t,t,t,t
p,p,q,q,q,q,q,q,q,q,0,11,12,p,q,q
q,q,q,p,p,p,p,0,p,q,13,13,y,z,p,p
p,p,p,p,p,q,p,p,p,p,1h,1f,1i,1j,q,p
p,p,p,p,0,p,q,p,q,0,1h,p,b,1h,0,p
p,0,u,p,u,p,0,p,q,p,1k,1l,h,1f,p,q
q,p,0,p,0,p,p,q,u,p,p,1h,i,1g,p,0
u,v,0,u,0,0,0,p,0,0,0,1h,b,1f,0,u
q,0,0,u,0,p,0,0,p,q,0,1m,w,k,p,0
0,0,0,0,0,0,v,0,0,0,0,k,b,k,0,0
k,k,k,k,k,k,k,k,k,k,k,k,g,k,k,k
0,0,0,0,0,0,0,0,0,0,0,0,g,0,0,0
a,a,a,a,a,a,a,a,a,a,a,a,a,a,a,a
a,a,a,a,a,a,a,a,a,a,a,a,a,a,a,a
NAME 3
WAL a,k,l,1g,1h,1i,1j,1l,1k,1m
EXT 0,13 1 15,13
EXT 15,13 3 0,13
PAL 0

ROOM 3
a,a,a,a,a,a,a,a,a,a,a,a,a,a,a,a
r,s,r,s,s,s,r,s,r,s,r,s,s,r,s,r
t,t,t,t,t,t,t,t,t,t,t,t,t,t,t,t
p,p,q,q,q,q,q,q,q,q,q,q,q,p,q,q
q,q,q,p,p,p,p,0,p,q,p,p,0,p,p,p
p,p,p,p,y,q,p,p,p,p,q,p,p,p,q,p
p,p,0,13,x,p,q,p,q,0,p,p,p,0,0,p
p,0,u,1f,i,1g,0,p,q,p,p,0,14,15,p,q
q,p,0,1l,h,1h,p,q,u,p,p,p,x,p,p,0
u,v,0,1f,g,k,0,p,0,0,0,p,b,v,0,u
q,0,0,1f,g,1h,0,0,p,q,0,v,i,16,p,0
0,0,0,k,b,k,v,0,0,0,0,0,g,0,0,0
k,k,k,k,w,k,k,k,k,k,k,k,1n,k,k,k
0,0,0,d,m,f,c,e,0,0,0,0,g,0,0,0
a,a,a,a,a,a,a,a,a,a,a,a,a,a,a,a
a,a,a,a,a,a,a,a,a,a,a,a,a,a,a,a
NAME 4
WAL a,k,l,1n,1h,1g,1i,1m,1f,1l,13,y
EXT 0,13 2 15,13
EXT 15,13 4 0,13
PAL 0

ROOM 4
a,a,a,a,a,a,a,a,a,a,a,a,a,a,a,a
r,s,r,s,s,s,r,s,r,s,r,s,s,r,s,r
t,t,t,t,t,t,t,t,t,t,t,t,t,t,t,t
p,p,q,q,q,q,q,q,q,q,q,q,q,p,q,q
q,q,q,p,p,p,p,0,p,q,p,p,0,p,p,p
p,p,p,p,p,q,p,p,p,p,q,p,p,p,q,p
p,p,p,p,0,p,q,p,q,0,p,p,p,p,0,p
p,0,u,p,u,p,0,p,q,p,p,0,p,p,p,q
q,p,0,p,0,p,p,q,14,15,0,p,u,p,p,0
u,v,0,u,0,0,0,k,x,k,0,p,0,v,0,u
q,0,0,u,0,p,0,k,i,16,k,v,u,0,p,0
0,0,0,0,0,0,v,0,b,k,0,0,0,0,0,0
k,k,k,k,k,k,k,13,h,k,k,k,k,k,k,k
0,0,0,0,0,0,0,d,m,c,e,0,0,0,0,0
a,a,a,a,a,a,a,a,a,a,a,a,a,a,a,a
a,a,a,a,a,a,a,a,a,a,a,a,a,a,a,a
NAME 5
WAL a,k,l,1m,x
EXT 0,13 3 15,13
EXT 15,13 5 0,13
PAL 0

ROOM 5
a,a,a,a,a,a,a,a,a,a,a,a,a,a,a,a
r,s,r,s,s,s,r,s,r,s,r,s,s,r,s,r
t,t,t,t,t,t,t,t,t,t,t,t,t,t,t,t
p,p,q,q,q,q,q,q,q,q,q,q,q,p,q,q
q,q,q,p,p,p,p,0,p,q,p,p,0,p,p,p
p,p,p,p,p,q,p,p,p,p,q,p,p,p,q,p
p,p,p,p,0,p,q,p,q,0,p,p,p,p,0,p
p,0,u,p,u,p,0,p,q,p,p,0,p,p,p,q
q,p,0,p,0,p,p,q,u,p,p,p,u,p,p,0
u,v,0,u,0,0,0,p,0,0,0,p,0,v,0,u
q,0,0,u,0,p,0,0,p,q,0,v,u,0,p,0
0,0,0,0,0,0,v,0,0,0,0,0,0,0,0,0
k,k,k,k,k,k,k,k,k,k,k,k,k,k,k,k
0,0,0,0,0,0,0,0,0,0,0,0,d,c,f,e
a,a,a,a,a,a,a,a,a,a,a,a,a,a,a,a
a,a,a,a,a,a,a,a,a,a,a,a,a,a,a,a
NAME 6
WAL a,k,l,1m
EXT 0,13 4 15,13
EXT 15,13 6 0,13
PAL 0

ROOM 6
a,a,a,a,a,a,a,a,a,a,a,a,a,a,a,a
r,s,r,s,s,s,r,s,r,s,r,s,s,r,s,r
t,t,t,t,t,t,t,t,t,t,t,t,t,t,t,t
p,p,q,q,q,q,q,q,q,q,q,q,q,p,q,q
q,q,q,p,p,p,p,0,p,q,p,p,0,p,p,p
p,p,p,p,p,q,p,p,p,p,q,p,p,p,q,p
p,p,p,p,0,p,q,p,q,0,p,p,p,p,0,p
p,0,u,p,u,p,0,p,q,p,p,0,p,p,p,q
q,p,0,p,0,p,p,q,u,p,p,p,u,p,p,0
u,v,0,u,0,0,0,p,0,0,0,p,0,v,0,u
q,0,0,u,0,p,0,0,p,q,0,v,u,0,p,0
0,0,0,0,0,0,v,0,0,0,k,0,0,0,k,0
k,k,k,k,k,k,k,k,k,k,k,18,0,19,k,k
0,0,0,0,0,d,e,0,0,0,0,18,0,19,d,c
a,a,a,a,a,a,a,a,a,a,a,a,a,a,a,a
a,a,a,a,a,a,a,a,a,a,a,a,a,a,a,a
NAME 7
WAL a,k,l,1m
EXT 15,13 7 0,13
EXT 0,13 5 15,13
PAL 0

ROOM 7
a,a,a,a,a,a,a,a,a,a,a,a,a,a,a,a
r,s,r,s,s,s,r,s,r,s,r,s,s,r,s,r
t,t,t,t,t,t,t,t,t,t,t,t,t,t,t,t
p,p,q,q,q,q,q,q,q,q,q,q,q,p,q,q
q,q,q,p,p,p,p,0,p,q,p,p,11,11,p,p
p,p,p,p,p,q,p,p,p,p,q,p,z,13,y,p
p,p,p,p,y,p,q,p,q,0,p,p,p,p,x,p
p,0,u,p,x,16,0,p,q,p,p,0,0,p,i,16
q,p,0,15,h,p,p,11,u,p,p,14,15,p,h,0
u,v,0,u,w,0,0,p,y,0,0,x,0,v,i,j
q,0,0,u,b,p,0,0,x,q,0,b,u,0,w,0
0,0,0,0,i,0,v,0,i,0,0,b,0,0,b,0
0,0,0,0,g,0,0,0,i,16,0,i,16,n,h,0
0,0,0,d,m,c,e,0,h,0,d,m,e,0,g,0
a,a,a,a,a,a,a,a,a,a,a,a,a,a,a,a
a,a,a,a,a,a,a,a,a,a,a,a,a,a,a,a
NAME 8
WAL a,k,l,1m
EXT 15,13 8 0,13
EXT 0,13 6 15,13
PAL 0

ROOM 8
a,a,a,a,a,a,a,a,a,a,a,a,a,a,a,a
r,s,r,s,s,s,r,s,r,s,r,s,s,r,s,r
t,t,t,t,t,t,t,t,t,t,t,t,t,t,t,t
p,p,q,q,q,q,q,q,q,q,q,q,q,p,q,q
q,y,q,p,p,p,p,0,p,q,u,p,u,0,p,p
p,x,p,p,p,q,p,p,p,p,q,p,0,p,0,p
p,h,p,p,0,p,q,p,14,0,p,p,p,p,0,p
p,b,u,p,0,y,0,p,x,p,p,14,0,p,y,0
q,g,u,0,0,x,p,0,g,p,p,x,0,p,x,1c
u,g,0,u,14,h,0,p,i,16,0,h,0,v,g,0
q,b,0,u,g,g,0,0,b,q,0,g,u,0,g,0
0,i,16,0,i,x,14,15,i,0,0,b,0,0,b,0
0,h,14,0,g,w,x,0,i,16,0,i,16,0,h,0
0,w,x,d,m,1b,m,c,1a,c,f,m,c,f,m,c
a,a,a,a,a,a,a,a,a,a,a,a,a,a,a,a
a,a,a,a,a,a,a,a,a,a,a,a,a,a,a,a
NAME 9
WAL a,k,l,1m
EXT 15,13 9 0,13
EXT 0,13 7 15,13
PAL 0

ROOM 9
a,a,a,a,a,a,a,a,a,a,a,a,a,a,a,a
r,s,r,s,s,s,r,s,r,s,r,s,s,r,s,r
t,t,t,t,t,t,t,t,t,t,t,t,t,t,t,t
p,p,q,q,q,q,q,q,q,q,q,q,q,p,q,q
q,y,q,p,p,p,p,0,p,q,p,p,12,0,p,p
p,x,p,p,p,q,p,p,p,p,q,p,0,12,0,p
p,h,p,p,0,p,q,p,14,0,p,p,p,p,0,p
p,b,u,p,0,y,0,p,x,p,p,14,0,p,y,0
q,w,0,0,v,x,p,0,g,p,p,x,0,p,x,1c
u,g,q,u,14,h,0,p,i,16,0,h,0,v,g,v
q,b,0,u,g,w,0,0,b,q,0,g,u,0,g,0
0,i,16,0,i,x,14,0,i,0,0,b,0,0,i,0
0,h,14,0,g,w,x,0,i,16,0,i,16,0,h,0
f,m,1d,d,m,1b,m,c,1a,c,f,m,c,f,m,c
a,a,a,a,a,a,a,a,a,a,a,a,a,a,a,a
a,a,a,a,a,a,a,a,a,a,a,a,a,a,a,a
NAME 10
WAL a,k,l,1m
EXT 15,13 a 0,13
EXT 0,13 8 15,13
PAL 0

ROOM 10
a,a,a,a,a,a,a,a,a,a,a,a,a,a,a,a
a,a,a,a,a,a,a,a,a,a,a,a,a,a,a,a
a,a,a,a,a,a,a,a,a,a,a,a,a,a,a,a
a,a,a,a,a,a,a,a,a,a,a,a,a,a,a,a
a,a,a,a,a,a,a,a,a,a,a,a,a,a,a,a
a,a,a,a,a,a,a,a,a,a,a,a,a,a,a,a
a,a,a,a,a,a,a,a,a,a,a,a,a,a,a,a
a,a,a,a,a,a,a,a,a,a,a,a,a,a,a,a
a,a,a,a,a,a,a,a,a,a,a,a,a,a,a,a
a,a,a,a,a,a,a,a,a,a,a,a,a,a,a,a
a,a,a,a,a,a,a,a,a,a,a,a,a,a,a,a
r,s,r,s,s,r,s,s,r,r,r,s,r,s,r,s
p,u,t,p,p,t,u,v,t,p,u,t,p,q,t,u
f,c,c,f,c,f,c,f,f,c,c,f,c,c,f,f
a,a,a,a,a,a,a,a,a,a,a,a,a,a,a,a
a,a,a,a,a,a,a,a,a,a,a,a,a,a,a,a
NAME 36-End
WAL a,k,l,1m
END undefined 4,13
PAL 0

ROOM a
a,a,a,a,a,a,a,a,a,a,a,a,a,a,a,a
r,s,r,s,s,s,r,s,r,s,r,s,s,r,s,r
t,t,t,t,t,t,t,t,t,t,t,t,t,t,t,t
p,p,q,q,q,q,q,q,q,q,q,q,q,p,q,q
q,q,q,p,p,p,p,0,p,q,p,p,0,p,p,p
p,p,p,p,p,q,p,p,p,p,q,p,p,p,q,p
p,11,p,p,0,p,q,p,q,0,p,p,p,p,0,p
0,z,y,z,0,p,0,p,q,p,p,0,p,p,p,q
q,n,x,j,0,p,p,q,u,p,p,p,u,p,p,0
u,v,b,u,0,0,0,p,0,0,0,p,0,v,0,u
q,13,h,u,0,p,0,0,p,q,0,v,u,0,p,0
0,0,i,16,0,0,v,0,0,0,0,0,0,0,0,0
k,k,w,k,k,k,k,k,k,k,k,k,k,k,k,k
f,c,1a,f,e,0,0,0,0,0,0,0,0,0,0,0
a,a,a,a,a,a,a,a,a,a,a,a,a,a,a,a
a,a,a,a,a,a,a,a,a,a,a,a,a,a,a,a
NAME 11
WAL a,k,l,1m,w
EXT 15,13 b 0,13
EXT 0,13 9 15,13
PAL 0

ROOM b
a,a,a,a,a,a,a,a,a,a,a,a,a,a,a,a
r,s,r,s,s,s,r,s,r,s,r,s,s,r,s,r
t,t,t,t,t,t,t,t,t,t,t,t,t,t,t,t
p,p,q,q,q,q,q,q,q,q,q,q,q,p,q,q
q,q,q,p,p,p,p,0,p,q,p,p,0,p,p,p
p,p,p,p,p,q,p,p,p,p,q,p,p,p,q,p
p,p,p,p,0,p,q,p,q,0,p,p,p,p,0,p
p,0,u,p,u,p,0,p,q,p,p,0,p,p,p,q
q,p,0,p,0,p,p,q,u,p,p,p,u,p,p,0
u,v,0,u,0,0,0,p,0,0,0,p,0,v,0,u
q,0,0,u,0,p,0,0,p,q,0,v,u,0,p,0
0,0,0,0,0,0,v,0,0,0,k,k,k,0,0,0
k,k,k,k,k,k,k,k,k,k,0,0,0,k,k,k
0,0,0,0,0,0,0,0,d,f,c,f,f,e,0,0
a,a,a,a,a,a,a,a,a,a,a,a,a,a,a,a
a,a,a,a,a,a,a,a,a,a,a,a,a,a,a,a
NAME 12
WAL a,k,l,1m
EXT 15,13 c 0,13
EXT 0,13 a 15,13
PAL 0

ROOM c
a,a,a,a,a,a,a,a,a,a,a,a,a,a,a,a
r,s,r,s,s,s,r,s,r,s,r,s,s,r,s,r
t,t,t,t,t,t,t,t,t,t,t,t,t,t,t,t
p,p,q,q,q,q,q,q,q,q,q,q,q,p,q,q
q,q,q,p,p,p,p,0,p,q,p,p,0,p,p,p
p,p,p,p,p,q,p,p,p,p,q,p,p,p,q,p
p,p,p,p,0,p,q,p,q,0,p,p,p,p,0,p
p,0,u,p,u,p,0,p,q,p,p,0,p,p,p,q
q,p,0,p,0,p,p,q,u,p,p,p,u,14,p,0
u,v,0,u,0,0,0,p,0,0,0,p,15,x,10,u
q,0,0,u,0,p,k,0,p,q,0,v,u,b,p,0
0,0,0,k,k,k,1m,k,k,k,k,k,k,h,k,k
k,k,k,0,0,0,0,0,0,0,0,0,0,i,16,0
0,0,0,0,0,0,0,0,0,0,0,0,0,b,0,0
a,a,a,a,a,a,a,a,a,a,a,a,a,a,a,a
a,a,a,a,a,a,a,a,a,a,a,a,a,a,a,a
NAME 13
WAL a,k,l,h,1m
EXT 15,13 d 0,13
EXT 0,13 b 15,13
PAL 0

ROOM d
a,a,a,a,a,a,a,a,a,a,a,a,a,a,a,a
r,s,r,s,s,s,r,s,r,s,r,s,s,r,s,r
t,t,t,t,t,t,t,t,t,t,t,t,t,t,t,t
p,p,q,q,q,q,q,q,q,q,q,q,q,p,q,q
q,q,q,p,p,p,p,0,p,q,p,p,0,p,p,p
p,p,p,p,p,q,p,p,p,p,q,p,p,p,q,p
p,p,p,p,0,p,q,p,q,0,p,p,p,p,0,p
p,0,u,p,u,p,0,p,q,p,p,0,p,p,p,q
q,p,0,p,0,p,p,q,u,p,p,p,u,p,p,0
u,v,0,u,0,0,0,p,0,0,0,p,0,v,0,u
q,0,0,u,0,p,0,0,p,q,0,v,u,0,p,0
0,0,0,a,0,0,v,0,0,0,0,0,0,k,k,0
k,k,18,0,19,k,k,k,k,k,k,k,k,14,14,k
0,1e,18,0,19,d,e,d,f,e,0,0,1e,1i,1i,16
a,a,a,a,a,a,a,a,a,a,a,a,a,a,a,a
a,a,a,a,a,a,a,a,a,a,a,a,a,a,a,a
NAME 14
WAL a,k,l,1m
EXT 0,13 c 15,13
EXT 15,13 e 0,13
PAL 0

ROOM e
a,a,a,a,a,a,a,a,a,a,a,a,a,a,a,a
r,s,r,s,s,s,r,s,r,s,r,s,s,r,s,r
t,t,t,t,t,t,t,t,t,t,t,t,t,t,t,t
p,p,q,q,q,q,q,q,q,q,q,q,q,p,q,q
q,q,q,p,p,p,p,0,p,q,p,p,0,p,p,p
p,p,p,p,p,q,p,p,p,p,q,p,p,p,q,p
p,p,p,p,0,p,q,p,q,0,p,p,p,p,0,p
p,0,u,p,u,p,0,p,q,p,p,0,p,p,p,q
q,p,0,p,0,p,p,q,u,p,p,p,u,p,p,0
u,v,0,u,0,0,0,p,0,0,0,p,0,v,0,u
q,0,0,u,0,p,0,0,p,q,0,v,u,0,p,0
0,0,0,0,0,0,v,0,0,0,0,0,0,0,0,0
k,k,k,k,k,k,k,k,k,k,k,k,k,k,k,k
0,0,0,0,0,1o,1o,1o,1o,1o,1o,1o,1o,1o,1o,1o
a,a,a,a,a,a,a,a,a,a,a,a,a,a,a,a
a,a,a,a,a,a,a,a,a,a,a,a,a,a,a,a
NAME 15
WAL a,k,l,1m
EXT 15,13 f 0,13
PAL 0

ROOM f
a,a,a,a,a,a,a,a,a,a,a,a,a,a,a,a
r,s,r,s,s,s,r,s,r,s,r,s,s,r,s,r
t,t,t,t,t,t,t,t,t,t,t,t,t,t,t,t
p,p,q,q,q,q,q,q,q,q,q,q,q,p,q,q
q,q,q,p,p,p,p,0,p,q,p,p,0,p,p,p
p,p,p,p,p,q,p,p,p,p,q,p,p,p,q,p
p,p,p,p,0,p,q,p,q,0,p,p,p,p,0,p
p,0,u,p,u,p,0,p,q,p,p,0,p,1h,1f,q
q,p,0,p,0,p,p,q,u,p,p,p,1f,14,z,k
u,v,0,u,0,0,0,p,0,v,0,1h,k,x,k,u
q,0,0,u,0,p,0,0,p,k,k,v,u,b,p,k
0,0,0,0,0,0,v,0,k,n,y,k,13,h,k,0
k,k,k,k,k,k,k,k,k,o,1i,0,k,i,0,k
1o,1o,1o,1o,1o,1o,1o,1o,1o,1o,1p,1o,1o,1p,1o,1o
a,a,a,a,a,a,a,a,a,a,a,a,a,a,a,a
a,a,a,a,a,a,a,a,a,a,a,a,a,a,a,a
NAME 16
WAL a,k,l,1m,1h,1f
EXT 15,13 g 0,13
PAL 0

ROOM g
a,a,a,a,a,a,a,a,a,a,a,a,a,a,a,a
r,s,r,s,s,s,r,s,r,s,r,s,s,r,s,r
t,t,t,t,t,t,t,t,t,t,t,t,t,t,t,t
p,p,q,q,q,q,q,q,q,q,q,q,q,p,q,q
q,q,q,p,p,p,p,0,p,q,p,p,0,p,p,p
p,p,p,p,p,q,p,p,p,p,q,p,p,p,q,p
p,p,p,p,0,p,q,p,q,1x,1y,p,p,p,0,p
p,0,u,p,u,p,0,p,q,w,p,0,p,p,p,q
q,p,0,p,0,p,p,q,u,w,p,p,u,p,p,0
u,v,0,u,0,0,0,p,0,g,0,p,0,v,0,u
q,0,0,u,0,p,0,0,p,g,0,v,u,0,p,0
0,0,0,0,0,k,k,0,0,l,0,k,k,0,0,0
k,k,k,k,k,1q,1r,k,k,l,k,1q,1r,k,k,k
1o,1o,1o,1o,1s,1t,1u,1v,0,g,1s,1t,1u,1v,0,0
a,a,a,a,a,a,a,a,a,a,a,a,a,a,a,a
a,a,a,a,a,a,a,a,a,a,a,a,a,a,a,a
NAME 17
WAL a,k,l,1m
EXT 15,13 h 0,13
EXT 0,13 f 15,13
PAL 0

ROOM h
a,a,a,a,a,a,a,a,a,a,a,a,a,a,a,a
r,s,r,s,s,s,r,s,r,s,r,s,s,r,s,r
t,t,t,t,t,t,t,t,t,t,t,t,t,t,t,t
p,p,q,q,q,q,q,q,q,q,q,q,q,p,q,q
q,q,q,p,p,p,p,0,p,q,p,p,0,p,p,p
p,p,0,p,p,q,p,p,p,p,q,p,p,p,q,p
p,p,p,1x,1y,p,q,p,q,0,p,1x,1y,p,0,p
p,0,u,g,u,p,0,p,q,p,p,g,p,p,p,q
q,p,0,w,0,p,p,q,u,p,p,g,u,p,p,0
u,v,0,w,0,0,0,p,0,0,0,w,0,v,0,u
q,0,0,l,0,p,0,0,p,q,0,g,u,0,p,0
0,0,0,l,0,0,0,0,0,0,0,g,0,0,0,0
k,k,k,l,k,k,k,k,k,k,k,l,k,k,k,k
0,0,0,g,0,0,0,0,0,0,0,g,0,0,0,0
a,a,a,a,a,a,a,a,a,a,a,a,a,a,a,a
a,a,a,a,a,a,a,a,a,a,a,a,a,a,a,a
NAME 18
WAL a,k,l,1m
EXT 15,13 i 0,13
EXT 0,13 g 15,13
PAL 0

ROOM i
a,a,a,a,a,a,a,a,a,a,a,a,a,a,a,a
r,s,r,s,s,s,r,s,r,s,r,s,s,r,s,r
t,t,t,t,t,t,t,t,t,t,t,t,t,t,t,t
p,p,q,q,q,q,q,q,q,q,q,q,q,p,q,q
q,q,q,p,p,p,p,0,p,q,p,p,0,p,p,p
p,p,0,p,p,q,p,p,p,p,q,p,p,p,q,p
p,p,p,1x,1y,p,q,p,q,0,p,0,0,p,0,p
p,0,u,w,u,p,0,p,q,p,0,1h,0,0,p,q
q,p,q,g,0,p,p,q,u,0,21,1z,22,24,0,0
u,v,0,w,0,0,0,p,0,1z,20,2m,2m,23,22,u
q,0,v,w,0,p,0,0,p,2m,1w,2m,2m,1w,2m,0
0,v,0,g,0,0,0,21,1z,2m,2m,2m,2m,2m,2m,1h
k,k,k,l,1h,k,1z,20,a,a,2m,a,a,25,26,k
0,0,d,m,e,0,2m,1w,1w,2m,2m,29,2m,27,28,0
a,a,a,a,a,a,a,a,a,a,a,a,a,a,a,a
a,a,a,a,a,a,a,a,a,a,a,a,a,a,a,a
NAME 19
WAL a,k,l,1m,1h,2a,1z,20,25,26
EXT 10,12 j 2,13
EXT 0,13 h 15,13
PAL 0

ROOM j
a,a,a,a,a,a,a,a,a,a,a,a,a,a,a,a
r,s,s,r,s,s,r,r,r,s,s,s,r,s,r,s
t,t,t,q,t,q,q,t,t,p,p,q,p,p,t,p
q,q,t,q,t,0,q,q,t,0,t,0,t,p,p,t
0,t,p,v,q,u,p,q,p,u,p,0,p,q,p,p
q,v,u,0,q,0,q,0,0,q,0,v,q,0,q,v
q,0,u,v,0,0,u,u,q,0,0,q,0,v,0,q
v,q,0,0,0,u,v,0,0,0,q,0,u,0,v,0
a,a,a,a,a,a,a,a,a,a,a,a,a,a,a,a
a,2r,2s,0,0,0,0,0,0,0,0,0,0,0,0,2n
a,2t,0,0,0,0,0,0,0,0,2i,2f,2j,0,0,2n
2n,0,0,0,0,0,0,0,0,0,2h,2e,2g,0,0,2n
2n,0,2u,0,0,0,0,2p,0,0,2d,2b,2d,0,0,2n
a,0,2v,2q,0,0,0,2o,29,0,2a,2c,2a,2k,0,2n
2m,2l,2l,2l,2l,2l,2l,2l,2l,2l,2l,2l,2l,2l,2l,2l
2m,2m,2m,2m,2m,2m,2m,2m,2m,2m,2m,2m,2m,2m,2m,a
NAME 20-inside
WAL a,k,l,1m,2l,2m
EXT 15,13 k 1,13
PAL 0

ROOM k
a,a,a,a,a,a,a,a,a,a,a,a,a,a,a,a
r,s,s,r,s,s,r,r,r,s,s,s,r,s,r,s
t,t,t,q,t,q,q,t,t,p,p,q,p,p,t,p
q,q,t,q,t,0,q,q,t,0,t,0,t,p,p,t
0,t,p,v,q,u,p,q,p,u,p,0,p,q,p,p
q,v,u,0,q,0,q,0,0,q,0,v,q,0,q,v
q,0,u,v,0,0,u,u,q,0,0,q,0,v,0,q
v,q,0,0,0,u,v,0,0,0,q,0,u,0,v,0
a,a,a,a,a,a,a,a,a,a,a,a,a,a,a,a
0,2n,3f,0,0,0,0,0,0,0,0,0,0,k,k,3i
0,2n,3e,3c,0,32,31,35,30,0,0,0,k,k,3i,3g
0,2n,3b,3d,3a,33,34,39,2z,3a,0,k,k,3i,3g,3h
k,2n,k,k,2o,2w,2x,37,2y,3k,0,k,3i,3g,3h,a
0,2n,0,3a,3j,29,0,3k,3k,3k,0,0,0,3h,a,3k
2l,2l,2l,2l,2l,2l,2l,2l,2l,2l,2l,2l,2l,2l,2l,2l
2m,2m,2m,2m,2m,2m,2m,2m,2m,2m,2m,2m,2m,2m,2m,a
NAME 21-bottle
WAL a,k,l,1m,2l,2m,3h,40
EXT 1,13 j 15,13
EXT 15,10 l 3,10
PAL 0

ROOM l
a,a,a,a,a,a,a,a,a,a,a,a,a,a,a,a
r,s,r,r,s,s,r,s,s,r,r,s,r,s,s,r
t,p,t,p,t,t,p,0,p,t,t,0,u,p,t,t
0,0,p,0,q,p,u,0,p,0,p,p,p,0,p,q
q,u,0,0,0,p,d,c,f,e,0,0,0,p,q,0
0,p,0,p,d,a,a,a,a,a,a,e,p,0,0,p
0,u,d,a,a,a,a,a,a,a,a,a,a,e,u,0
d,a,a,3m,3l,0,0,0,0,2n,3o,3n,a,a,a,e
a,3m,3l,0,0,0,0,0,0,2n,0,0,3o,3n,a,a
3l,0,0,0,0,0,2u,0,0,2n,0,2u,0,0,3o,a
0,3i,3g,0,3p,3p,2v,0,0,2n,0,2v,0,0,2p,a
3i,3g,3h,2l,2l,2l,2l,2l,2l,2l,2l,2l,2l,2l,2l,a
a,a,a,a,a,a,a,a,a,a,a,a,a,a,a,a
a,a,a,a,a,a,a,a,a,a,a,a,a,a,a,a
a,a,a,a,a,a,a,a,a,a,a,a,a,a,a,a
a,a,a,a,a,a,a,a,a,a,a,a,a,a,a,a
NAME 22-up1
WAL a,2l,3h
EXT 6,9 n 6,10
EXT 11,9 o 11,10
PAL 0

ROOM n
a,a,a,a,a,a,a,a,a,a,a,a,a,a,a,a
r,s,r,r,s,s,r,s,s,r,r,s,r,s,s,r
t,p,t,p,t,t,p,0,p,t,t,0,u,p,t,t
0,0,p,0,q,p,u,0,p,0,p,p,p,0,p,q
q,u,0,0,0,p,d,c,f,e,0,0,0,p,q,0
0,p,0,p,d,a,a,a,a,a,a,e,p,0,0,p
0,u,d,a,a,a,a,a,a,a,a,a,a,e,u,0
d,a,a,3m,3l,0,0,0,0,3q,a,a,a,a,a,e
a,3m,3l,3x,3w,3z,42,0,3a,3q,a,a,a,a,a,a
2n,0,0,2w,3v,41,43,0,44,3q,a,a,a,a,a,a
2n,3t,3u,0,0,0,2u,0,45,3q,a,a,a,a,a,a
3s,2l,2l,2l,2l,2l,2v,2l,2l,3r,a,a,a,a,a,a
a,a,a,a,a,a,a,a,a,a,a,a,a,a,a,a
a,a,a,a,a,a,a,a,a,a,a,a,a,a,a,a
a,a,a,a,a,a,a,a,a,a,a,a,a,a,a,a
a,a,a,a,a,a,a,a,a,a,a,a,a,a,a,a
NAME 23-r.1
WAL a,3r,3q,41,40,2l,2n
EXT 6,11 q 6,10
PAL 0

ROOM o
a,a,a,a,a,a,a,a,a,a,a,a,a,a,a,a
r,s,r,r,s,s,r,s,s,r,r,s,r,s,s,r
t,p,t,p,t,t,p,0,p,t,t,0,u,p,t,t
0,0,p,0,q,p,u,0,p,0,p,p,p,0,p,q
q,u,0,0,0,p,d,c,f,e,0,0,0,p,q,0
0,p,0,p,d,a,a,a,a,a,a,e,p,0,0,p
0,u,d,a,a,a,a,a,a,a,a,a,a,e,u,0
d,a,a,a,a,a,a,a,a,46,3o,3n,a,a,a,e
a,a,a,a,a,a,a,a,a,46,3x,3z,3o,3n,a,a
a,a,a,a,a,a,a,a,a,46,4b,41,k,4a,49,a
a,a,a,a,a,a,a,a,a,46,45,2u,0,47,48,a
a,a,a,a,a,a,a,a,a,3s,2l,2v,2l,2l,2l,a
a,a,a,a,a,a,a,a,a,a,a,a,a,a,a,a
a,a,a,a,a,a,a,a,a,a,a,a,a,a,a,a
a,a,a,a,a,a,a,a,a,a,a,a,a,a,a,a
a,a,a,a,a,a,a,a,a,a,a,a,a,a,a,a
NAME 24-r.2
WAL a,4c,2l,46,4b,41,k,4a,49
EXT 11,11 q 11,10
PAL 0

ROOM p
a,a,a,a,a,a,a,a,a,a,a,a,a,a,a,a
r,s,s,r,s,s,r,r,r,s,s,s,r,s,r,s
t,t,t,q,t,q,q,t,t,p,p,q,p,p,t,p
q,q,t,q,t,0,q,q,t,0,t,0,t,p,p,t
0,t,p,v,q,u,p,q,p,u,p,0,p,q,p,p
q,v,u,0,q,0,q,0,0,q,0,v,q,0,q,v
q,0,u,v,0,0,u,u,q,0,0,q,0,v,0,q
v,q,0,0,0,u,v,0,0,0,q,0,u,0,v,0
a,a,a,a,a,a,a,a,a,a,a,a,a,a,a,a
0,2n,3f,0,0,0,0,0,0,0,0,0,0,k,k,3i
0,2n,3e,3c,0,32,31,35,30,0,0,0,k,k,3i,3g
0,2n,3b,3d,3a,33,34,39,2z,3a,0,k,k,3i,3g,3h
k,2n,k,k,2o,2w,2x,37,2y,3k,0,k,3i,3g,3h,2m
0,2n,0,3a,3j,29,0,3k,3k,3k,0,0,0,4d,2m,3k
2l,2l,2l,2l,2l,2l,2l,2l,2l,2l,2l,2l,2l,2l,2l,2l
a,a,a,a,a,a,a,a,a,a,a,a,a,a,a,2m
NAME 25-bottle2
WAL a,k,l,1m,2l,3h,40
EXT 15,10 l 3,10
EXT 15,12 r 14,13
PAL 0

ROOM q
a,a,a,a,a,a,a,a,a,a,a,a,a,a,a,a
r,s,r,r,s,s,r,s,s,r,r,s,r,s,s,r
t,p,t,p,t,t,p,0,p,t,t,0,u,p,t,t
0,0,p,0,q,p,u,0,p,0,p,p,p,0,p,q
q,u,0,0,0,p,d,c,f,e,0,0,0,p,q,0
0,p,0,p,d,a,a,a,a,a,a,e,p,0,0,p
0,u,d,a,a,a,a,a,a,a,a,a,a,e,u,0
d,a,a,3m,3l,0,0,0,0,2n,3o,3n,a,a,a,e
a,3m,3l,0,0,0,0,0,0,2n,0,0,3o,3n,a,a
3l,0,0,0,0,0,2u,0,0,2n,0,2u,0,0,3o,a
0,3i,3g,0,3p,3p,2v,0,0,2n,0,2v,0,0,2p,a
3i,3g,3h,2l,2l,2l,2l,2l,2l,2l,2l,2l,2l,2l,2l,a
a,a,a,a,a,a,a,a,a,a,a,a,a,a,a,a
a,a,a,a,a,a,a,a,a,a,a,a,a,a,a,a
a,a,a,a,a,a,a,a,a,a,a,a,a,a,a,a
a,a,a,a,a,a,a,a,a,a,a,a,a,a,a,a
NAME 26-up2
WAL a,2l,3h
EXT 6,9 n 6,10
EXT 11,9 o 11,10
EXT 2,10 p 15,10
PAL 0

ROOM r
a,a,a,a,a,a,a,a,a,a,a,a,a,a,a,a
r,s,s,r,s,s,r,r,r,s,s,s,r,s,r,s
t,t,t,q,t,q,q,t,t,p,p,q,p,p,t,p
q,q,t,q,t,0,q,q,t,0,t,0,t,p,p,t
0,t,p,v,q,u,p,q,p,u,p,0,p,q,p,p
q,v,u,0,q,0,q,0,0,q,0,v,q,0,q,v
q,0,u,v,0,0,u,u,q,0,0,q,0,v,0,q
0,q,0,d,f,e,d,c,c,f,e,0,u,0,d,f
q,1z,a,a,a,a,a,a,a,a,a,a,a,a,a,a
0,a,0,37,2y,0,37,2y,0,37,2y,0,37,2y,0,0
u,a,0,4q,4q,4q,4q,4q,4q,4r,4n,0,4k,4k,4k,4k
0,2n,0,0,0,0,0,0,0,0,4n,0,45,4n,4n,4n
v,2n,0,0,4e,4f,0,0,4p,4o,4n,0,45,0,0,0
e,2n,0,4g,4h,4i,4j,0,4l,4m,4n,0,45,3k,2u,3k
a,a,2l,2l,2l,2l,2l,2l,2l,2l,2l,2l,2l,2l,2v,2l
2m,2m,2m,2m,2m,2m,2m,2m,2m,2m,2m,2m,2m,2m,2m,a
NAME 27-gara.
WAL a,k,l,1m,2l,3h,40
EXT 0,13 s 15,13
PAL 0

ROOM s
a,a,a,a,a,a,a,a,a,a,a,a,a,a,a,a
r,s,r,s,s,s,r,s,r,s,r,s,s,r,s,r
t,t,t,t,t,t,t,t,t,t,t,t,t,t,t,t
p,p,q,q,q,q,q,q,q,q,q,q,q,p,q,q
q,q,q,p,p,p,p,0,p,q,p,p,0,p,p,p
p,p,p,p,p,q,p,p,p,p,q,p,p,p,q,p
p,p,p,p,0,p,q,p,q,0,p,p,p,p,0,p
p,0,u,p,u,p,0,p,q,p,p,0,p,p,p,q
q,p,0,p,0,p,p,q,u,p,p,p,u,p,p,0
u,v,0,u,0,0,0,p,0,0,0,p,0,v,0,u
q,0,0,u,0,p,0,0,p,q,0,v,u,0,p,0
0,0,0,0,0,0,v,0,0,0,0,0,0,0,0,0
k,k,k,k,k,k,k,k,k,k,k,k,k,k,k,k
c,f,e,d,f,c,e,0,d,c,f,c,e,0,0,0
a,a,a,a,a,a,a,a,a,a,a,a,a,a,a,a
a,a,a,a,a,a,a,a,a,a,a,a,a,a,a,a
NAME 28
WAL a,k,l,1m
EXT 0,13 t 15,13
PAL 0

ROOM t
a,a,a,a,a,a,a,a,a,a,a,a,a,a,a,a
r,s,r,s,s,s,r,s,r,s,r,s,s,r,s,r
t,t,t,t,t,t,t,t,t,t,t,t,t,t,t,t
p,p,q,q,q,q,q,q,q,q,q,q,q,p,q,q
q,q,q,p,p,p,p,0,p,q,p,p,0,p,p,p
p,p,p,p,p,q,p,p,p,p,q,p,p,p,q,p
p,p,p,p,0,p,q,p,q,0,p,p,p,p,0,p
p,0,u,p,u,p,0,p,q,p,p,0,p,p,p,q
q,p,0,p,0,p,p,q,u,p,p,p,u,p,p,0
u,v,0,u,0,0,0,p,0,0,0,p,0,v,0,u
q,0,0,u,0,p,0,0,p,q,0,v,u,0,p,0
0,0,0,0,0,0,v,0,0,0,0,0,0,0,0,0
k,k,k,k,k,k,k,k,k,k,k,k,k,k,k,k
c,f,f,c,c,f,e,0,d,c,f,e,0,0,0,d
a,a,a,a,a,a,a,a,a,a,a,a,a,a,a,a
a,a,a,a,a,a,a,a,a,a,a,a,a,a,a,a
NAME 29
WAL a,k,l,1m
EXT 0,13 u 15,13
PAL 0

ROOM u
a,a,a,a,a,a,a,a,a,a,a,a,a,a,a,a
r,s,r,s,s,s,r,s,r,s,r,s,s,r,s,r
t,t,t,t,t,t,t,t,t,t,t,t,t,t,t,t
p,p,q,q,q,q,q,q,q,q,q,q,q,p,q,q
q,q,q,p,p,p,p,0,p,q,p,p,0,p,p,p
p,p,p,p,p,q,p,p,p,p,q,p,p,p,q,p
p,p,p,p,0,p,q,p,q,0,p,p,p,p,0,p
p,0,u,p,u,p,0,p,q,p,p,0,p,p,p,q
q,p,0,p,0,p,p,q,u,p,p,p,u,p,p,0
u,v,0,u,0,0,0,p,0,0,0,p,0,v,0,u
q,0,0,u,0,p,0,0,p,q,0,v,u,0,p,0
0,0,0,0,0,0,v,0,0,0,0,0,0,0,0,0
k,k,k,k,k,k,k,k,k,k,k,k,k,k,k,k
c,f,c,e,d,f,f,c,f,c,f,c,f,c,f,c
a,a,a,a,a,a,a,a,a,a,a,a,a,a,a,a
a,a,a,a,a,a,a,a,a,a,a,a,a,a,a,a
NAME 30
WAL a,k,l,1m
EXT 0,13 v 15,13
PAL 0

ROOM v
a,a,a,a,a,a,a,a,a,a,a,a,a,a,a,a
a,a,a,a,a,a,a,a,a,a,a,a,a,a,a,a
s,s,s,r,s,s,r,r,s,s,r,r,s,r,s,r
p,t,t,q,t,q,t,q,q,q,t,q,q,p,t,q
t,q,q,p,p,p,p,0,t,q,p,p,0,t,p,p
p,p,p,t,p,q,p,p,p,p,q,p,p,p,q,t
p,p,p,p,0,p,q,p,q,0,p,p,p,p,0,p
p,0,u,p,u,p,0,p,q,p,p,0,p,p,p,q
q,p,0,p,0,p,p,q,u,p,p,p,u,p,p,0
u,v,0,u,0,0,0,p,0,0,0,p,0,v,0,u
q,0,0,u,0,p,0,0,p,q,0,v,u,0,p,0
0,0,0,0,0,0,v,0,0,0,0,0,0,0,0,0
k,k,k,k,k,k,k,k,k,k,k,k,k,k,k,k
f,f,c,f,c,f,f,c,c,f,c,f,f,f,c,f
a,a,a,a,a,a,a,a,a,a,a,a,a,a,a,a
a,a,a,a,a,a,a,a,a,a,a,a,a,a,a,a
NAME 31
WAL a,k,l,1m
EXT 0,13 w 15,13
PAL 0

ROOM w
a,a,a,a,a,a,a,a,a,a,a,a,a,a,a,a
a,a,a,a,a,a,a,a,a,a,a,a,a,a,a,a
a,a,a,a,a,a,a,a,a,a,a,a,a,a,a,a
a,a,a,a,a,a,a,a,a,a,a,a,a,a,a,a
r,s,s,r,s,r,s,r,s,r,s,s,r,r,s,r
p,t,p,t,t,q,p,t,p,t,q,t,p,t,t,t
p,p,t,p,t,p,q,p,t,0,t,p,p,p,0,p
t,0,u,p,u,p,t,p,q,p,p,0,t,p,p,t
q,p,0,p,0,p,p,q,u,p,p,p,u,p,p,0
u,t,0,t,p,0,0,t,0,0,t,p,0,v,t,u
q,0,0,u,0,p,0,0,p,q,0,v,u,0,p,0
0,p,0,0,0,0,v,p,0,0,0,0,0,p,0,p
k,k,k,p,k,k,k,k,k,p,k,k,k,k,k,k
c,f,c,f,f,c,c,f,c,c,f,c,c,c,f,f
a,a,a,a,a,a,a,a,a,a,a,a,a,a,a,a
a,a,a,a,a,a,a,a,a,a,a,a,a,a,a,a
NAME 32
WAL a,k,l,1m
EXT 0,13 x 15,13
PAL 0

ROOM x
a,a,a,a,a,a,a,a,a,a,a,a,a,a,a,a
a,a,a,a,a,a,a,a,a,a,a,a,a,a,a,a
a,a,a,a,a,a,a,a,a,a,a,a,a,a,a,a
a,a,a,a,a,a,a,a,a,a,a,a,a,a,a,a
a,a,a,a,a,a,a,a,a,a,a,a,a,a,a,a
a,a,a,a,a,a,a,a,a,a,a,a,a,a,a,a
s,r,s,s,r,r,s,s,r,s,s,r,s,r,r,s
t,0,u,t,u,p,t,p,t,p,p,t,t,p,p,t
q,p,t,p,0,p,p,q,u,p,p,p,u,t,p,t
u,t,0,t,p,t,0,t,0,0,t,p,0,v,t,u
q,t,0,u,0,p,0,0,p,q,t,v,u,0,p,0
t,p,0,0,0,0,v,p,0,0,0,t,0,p,0,p
k,k,k,p,k,k,k,k,k,p,k,k,k,k,k,k
f,f,c,f,c,f,c,f,c,c,f,c,f,c,c,f
a,a,a,a,a,a,a,a,a,a,a,a,a,a,a,a
a,a,a,a,a,a,a,a,a,a,a,a,a,a,a,a
NAME 33
WAL a,k,l,1m
EXT 0,13 y 15,13
PAL 0

ROOM y
a,a,a,a,a,a,a,a,a,a,a,a,a,a,a,a
a,a,a,a,a,a,a,a,a,a,a,a,a,a,a,a
a,a,a,a,a,a,a,a,a,a,a,a,a,a,a,a
a,a,a,a,a,a,a,a,a,a,a,a,a,a,a,a
a,a,a,a,a,a,a,a,a,a,a,a,a,a,a,a
a,a,a,a,a,a,a,a,a,a,a,a,a,a,a,a
a,a,a,a,a,a,a,a,a,a,a,a,a,a,a,a
a,a,a,a,a,a,a,a,a,a,a,a,a,a,a,a
s,s,r,s,r,r,s,r,s,r,s,r,s,s,r,s
u,t,0,t,p,t,0,t,0,t,p,p,t,v,t,u
q,t,0,u,0,p,t,0,p,q,t,v,u,p,p,0
t,p,0,0,t,0,v,p,0,0,0,t,0,p,0,p
k,k,k,p,k,k,k,k,k,p,k,k,k,0,0,k
c,f,c,c,f,f,c,f,f,c,f,f,c,f,f,f
a,a,a,a,a,a,a,a,a,a,a,a,a,a,a,a
a,a,a,a,a,a,a,a,a,a,a,a,a,a,a,a
NAME 34
WAL a,k,l,1m
EXT 0,13 z 15,13
PAL 0

ROOM z
a,a,a,a,a,a,a,a,a,a,a,a,a,a,a,a
a,a,a,a,a,a,a,a,a,a,a,a,a,a,a,a
a,a,a,a,a,a,a,a,a,a,a,a,a,a,a,a
a,a,a,a,a,a,a,a,a,a,a,a,a,a,a,a
a,a,a,a,a,a,a,a,a,a,a,a,a,a,a,a
a,a,a,a,a,a,a,a,a,a,a,a,a,a,a,a
a,a,a,a,a,a,a,a,a,a,a,a,a,a,a,a
a,a,a,a,a,a,a,a,a,a,a,a,a,a,a,a
a,a,a,a,a,a,a,a,a,a,a,a,a,a,a,a
a,a,a,a,a,a,a,a,a,a,a,a,a,a,a,a
s,r,r,s,r,r,s,s,r,r,s,s,r,s,r,s
u,p,t,u,p,t,0,p,p,t,p,q,v,p,u,p
p,u,v,p,k,k,u,v,0,p,u,k,p,q,v,u
f,c,f,c,c,f,c,c,f,f,c,c,f,c,f,c
a,a,a,a,a,a,a,a,a,a,a,a,a,a,a,a
a,a,a,a,a,a,a,a,a,a,a,a,a,a,a,a
NAME 35
WAL a,k,l,1m
EXT 0,13 10 15,13
PAL 0

TIL 10
00000000
00000000
00000000
11000100
00101000
00010000
00001100
00000010
NAME undefined

TIL 11
00000000
00000000
00000000
00000000
00000000
01111100
10100110
01000011
NAME undefined

TIL 12
00000000
00000010
00100000
00000000
10000100
00010000
00000000
10000001
>
00000000
01001000
00000000
00000000
00000010
01000000
00000000
10000010
NAME undefined

TIL 13
10000111
01011000
00100000
01000000
01000000
10000000
00000000
00000000
NAME undefined

TIL 14
00001000
01010001
01001011
00100110
00101100
00111000
00011001
00011001
NAME undefined

TIL 15
11000010
10100001
00011010
00000100
00000100
00000010
00000100
00001000
NAME undefined

TIL 16
00000000
00010000
01100000
10010000
01000000
00000000
00000000
00000000
NAME undefined

TIL 17
00000000
00000010
00000110
00000110
00010110
00100110
00010110
01111110
NAME undefined

TIL 18
00001100
00001000
00001000
00001000
00001100
00001000
00001000
00001000
NAME undefined

TIL 19
01100000
01000000
01000000
01000000
01100000
01000000
01000000
01000000
NAME undefined

TIL 20
00111111
11111111
11111111
11111111
11111111
11111111
11111111
11111111
NAME undefined

TIL 21
00000000
10001000
00000000
00000000
00000010
00000000
00000011
00001111
>
00000000
00000000
00100000
00000010
00000000
01000000
00000011
00001111
NAME undefined

TIL 22
00000000
00000000
11000000
11110000
11111100
11111111
11111111
11111111
NAME undefined

TIL 23
11111100
11111111
11111111
11111111
11111111
11111111
11111111
11111111
NAME undefined

TIL 24
00000000
00010000
00000000
00001000
10000000
00000000
11000000
11110000
>
00000000
01000000
00000010
00000000
00000000
00001000
11000000
11110000
NAME undefined

TIL 25
11111111
00000100
00000100
00000100
00001000
00001000
01001000
00010000
>
11111111
00000100
00000100
00100100
00000100
00000100
00000100
00000100
NAME undefined

TIL 26
11111111
00100001
00100001
01000001
01000001
01000001
01000001
10000001
>
11111111
00100001
00100001
00100001
00100001
00100001
00100001
00100001
NAME undefined

TIL 27
00011111
00000000
00000000
00000000
00000000
00000000
01101000
01101100
>
00000111
00000000
00000000
00000000
00000000
00000000
01101000
01101100
NAME undefined

TIL 28
00000001
00000001
00001001
00000001
00000001
01000001
00000001
00000001
>
11100001
00000101
00000001
01000001
00000001
00000101
00000001
00000001
NAME undefined

TIL 29
01111110
11111111
11111111
01111110
00110100
00110100
00110100
01110110
NAME undefined

TIL 30
00000000
00000000
00000000
00000000
11111100
00000100
00000100
00100100
>
00000000
00000000
00000000
00000000
11111100
00000100
10000100
00000100
NAME undefined

TIL 31
00000000
00000000
00000000
00000000
11111111
00000001
00000001
00001001
>
00000000
00000000
00000000
00000000
11111111
00000001
00010001
10000001
NAME undefined

TIL 32
00000000
00000000
00000000
00000000
00111111
00100000
00100000
00100010
>
00000000
00000000
00000000
00000000
00111111
00100000
00100100
00100000
NAME undefined

TIL 33
00100000
00100000
00111111
00111111
00100000
00100010
00100000
00100000
>
00100000
00100000
00111111
00111111
00100000
00100001
00100000
00100000
NAME undefined

TIL 34
00000001
00000001
11111111
11111111
00000001
00000001
00000001
00100001
>
00000001
00000001
11111111
11111111
00000001
00000001
00001001
00000001
NAME undefined

TIL 35
00000000
00000000
00000000
00000000
11111111
10000000
10000000
10000000
NAME undefined

TIL 37
10000000
10000000
10000000
10000000
10010000
11111111
00000000
00000000
>
10000000
10100000
10000001
10000000
10000000
11111111
00000000
00000000
NAME undefined

TIL 38
10000000
10000000
11111111
10000000
10000000
10000000
10000000
10000000
NAME undefined

TIL 39
10000000
10000000
11111111
11111111
10000000
10000000
10100100
10000000
>
10000000
10000000
11111111
11111111
10000000
10000010
10000000
10100000
NAME undefined

TIL 40
00110000
00100010
00100000
00100000
00100000
00111111
00000000
00000000
>
00101000
00100000
00100000
00101000
00100000
00111111
00000000
00000000
NAME undefined

TIL 41
00111111
00011111
00101111
00001111
00001111
11111111
00001111
00001101
>
00111111
00011111
00001111
00001111
00001111
11111111
00001111
00001101
NAME undefined

TIL 42
00000000
00000000
11000000
00000000
00000000
00000000
00000000
00000000
NAME undefined

TIL 43
00000000
10000000
10000000
00000000
00000000
00000000
00000000
00000000
NAME undefined

TIL 44
11111111
10000001
10000001
10000001
10000001
10000101
10000001
10000001
NAME undefined

TIL 45
11111111
10000001
10011001
10000001
11111111
10000001
10011001
10000001
NAME undefined

TIL 46
11111000
11111000
11111000
11111000
11111000
11111000
11111000
11111000
NAME undefined

TIL 47
11111100
10010010
10010101
10010010
10010000
11111111
10010000
10010000
NAME undefined

TIL 48
00111111
01000001
10100001
01000001
00000001
11111111
00001001
00001001
NAME undefined

TIL 49
11111111
00111111
00101111
11000011
00100000
10100000
01000000
00100000
NAME undefined

TIL a
11111111
11111111
11111111
11111111
11111111
11111111
11111111
11111111
NAME undefined

TIL b
00111000
00011000
00011100
00011000
00011100
00011000
00011000
00011000
NAME undefined

TIL c
00000000
00000000
00101100
01111110
11111111
11111111
11111111
11111111
NAME undefined

TIL d
00000000
00000000
00000000
00000000
00000001
00000011
00001111
01111111
NAME undefined

TIL e
00000000
00000000
00000000
00000000
10000000
11110000
11111100
11111110
NAME undefined

TIL f
00000000
00000000
00000000
01100000
11110011
11111111
11111111
11111111
NAME undefined

TIL g
00011000
00011000
00011000
00011000
00011000
00011000
00011000
00011000
NAME undefined

TIL h
00011000
10011000
01011000
00111000
00011000
00011000
00011000
00011000
NAME undefined

TIL i
00011000
00011000
00011000
00011001
00011010
00011010
00011100
00011000
NAME undefined

TIL j
00000100
00011000
01100100
10100010
00010010
00010001
00000000
00000000
NAME undefined

TIL k
00000000
00000000
00000000
00000000
00000000
00000000
00000000
00000000
NAME undefined

TIL l
00011000
00011000
00011000
00011000
00011000
00011000
00011000
00011000
NAME undefined

TIL m
00011000
00011000
00011000
01111000
11111011
11111111
11111111
11111111
NAME undefined

TIL n
00001110
00110001
11000010
00001100
00110000
01001000
00000000
00000000
NAME undefined

TIL o
00000000
00000000
00000001
00000110
00000000
00000000
00000000
00000000
NAME undefined

TIL p
10000000
00010000
00000001
00000000
00000000
00000100
00000000
01000000
>
00000000
00000000
00010000
10000000
00000001
00000000
01000100
00000000
NAME undefined

TIL q
00000000
00000100
01000000
00000000
00010000
00000000
00000000
00000010
>
00000000
00000000
00010010
00000000
00000000
01000000
00000010
00000000
NAME undefined

TIL r
11111111
11110111
11111111
10111111
11100111
11110101
10100011
01000100
>
11111111
11111111
11111011
11111111
01101111
10111011
10110101
00010010
NAME undefined

TIL s
11111111
11111111
10111111
11111111
11111011
10101110
10011011
00000001
>
10111111
11111111
11110111
11111111
11011111
10011110
10100101
01010100
NAME undefined

TIL t
10100010
00010000
01000100
00000001
01000000
00001000
00000010
01000000
>
01010000
00001001
10010000
00100100
00000001
00000000
10000100
00010000
NAME undefined

TIL u
00000000
00000000
00100000
00000000
00000000
00000010
00010000
00000000
>
00000000
00001000
00000000
00000000
00000100
01000000
00000000
00000000
NAME undefined

TIL v
00000000
00001000
00000000
00000000
00000000
00100000
00000000
00000000
>
00000000
00000000
00000000
01000000
00000000
00001000
00000000
00000000
NAME undefined

TIL w
00011000
00011000
00111000
00011000
00011000
00011010
00011000
00011000
>
00011000
00011000
00011000
00011000
00011100
01011000
00011000
00011000
NAME undefined

TIL x
00011110
10011100
01011000
00111001
00011010
00011100
00011000
00011000
NAME undefined

TIL y
11000000
01000000
01100000
00110000
00110000
00011000
00011001
00011001
NAME undefined

TIL z
00000100
00001000
00010100
00010010
01100010
10010001
00000000
00000000
NAME undefined

TIL 1a
00011000
10011000
01011000
00111011
10011111
11111111
11111111
11111111
NAME undefined

TIL 1b
00011000
00011000
00011000
00011011
10011111
11111111
11111111
11111111
NAME undefined

TIL 1c
00000000
00000000
00001000
10001000
01110000
10000000
01000000
00000000
NAME undefined

TIL 1d
00011110
10011100
01011000
00111001
00011010
10011100
11111000
11111100
NAME undefined

TIL 1e
00000000
00000000
00000000
00000000
00000000
00000000
00010000
00001000
NAME undefined

TIL 1f
00000000
00000000
00100000
00000000
00000000
00000010
00010000
00000000
>
00000000
00001000
00000000
00000000
00000100
01000000
00000000
00000000
NAME undefined

TIL 1g
00000100
00011000
01100100
10100010
00010010
00010001
00000000
00000000
NAME undefined

TIL 1h
10000000
00010000
00000001
00000000
00000000
00000100
00000000
01000000
>
00000000
00000000
00010000
10000000
00000001
00000000
01000100
00000000
NAME undefined

TIL 1i
00011110
10011100
01011000
00111001
00011010
00011100
00011000
00011000
NAME undefined

TIL 1j
00000000
00000000
00000000
11000100
00101000
00010000
00001100
00000010
NAME undefined

TIL 1k
00000000
00000000
00000001
00000110
00000000
00000000
00000000
00000000
NAME undefined

TIL 1l
00001110
00110001
11000010
00001100
00110000
01001000
00000000
00000000
NAME undefined

TIL 1m
00000000
00001000
00000000
00000000
00000000
00100000
00000000
00000000
>
00000000
00000000
00000000
01000000
00000000
00001000
00000000
00000000
NAME undefined

TIL 1n
00111000
00011000
00011100
00011000
00011100
00011000
00011000
00011000
NAME undefined

TIL 1o
00000000
00000000
00000000
00000000
11111111
01000010
01000010
01000010
NAME undefined

TIL 1p
00011000
00011000
00011000
00011000
11111111
01011010
01011010
01011010
NAME undefined

TIL 1q
00000000
00001111
00110011
01000011
10000011
10000011
10000011
11111111
NAME undefined

TIL 1r
00000000
11111100
11111110
11000011
11000001
11000001
11000001
11111111
NAME undefined

TIL 1s
00111111
11111111
11111111
01111111
01111111
11111111
11111000
11110111
NAME undefined

TIL 1t
11111111
11110011
11111111
11111111
11111111
11111111
01111111
10111111
NAME undefined

TIL 1u
11111111
11111111
11111111
11111111
11111111
11111111
11111110
11111101
NAME undefined

TIL 1v
11111110
11111111
11111111
11111110
11111111
11111111
00011111
11101111
NAME undefined

TIL 1w
10001000
11111111
10001000
10001000
10001000
11111111
11111111
11111111
NAME undefined

TIL 1x
00000000
00000100
00000000
01000000
00001000
00000000
00001111
00011111
>
00000000
01000000
00000000
00000010
00000000
01000000
00001111
00011111
NAME undefined

TIL 1y
00000000
00000000
00000100
00100000
00000000
00000000
11000100
11100000
>
00000000
00000000
00000000
00001000
10000000
00000000
11000000
11100100
NAME undefined

TIL 1z
00100000
00000000
00000011
10001111
00111111
11111111
11111111
11111111
>
00000000
00001000
01000011
00001111
00111111
11111111
11111111
11111111
NAME undefined

TIL 2a
10100101
11011011
10100101
11011011
10100101
11011011
10100101
11011011
NAME undefined

TIL 2b
11111111
11011011
00100100
11011011
00100100
11011011
00100100
11111111
NAME undefined

TIL 2c
00000000
00001000
01010000
01001010
00101010
00110100
01001010
00111100
>
00000000
00010000
01010100
00100100
01010010
00110100
00011000
00111100
NAME undefined

TIL 2d
11111111
11011011
10100101
11011011
10100101
11011011
10100101
11011011
NAME undefined

TIL 2e
00000000
00000000
00000000
11111111
00000000
00000000
01111110
11111111
NAME undefined

TIL 2f
11111111
00000000
10000000
00000000
00000000
10000000
00000000
00000000
NAME undefined

TIL 2g
01000100
10000100
00011000
11100000
00000000
00000000
00000000
00000000
NAME undefined

TIL 2h
00100000
00100000
00011000
00000111
00000000
00000000
00000000
00000000
NAME undefined

TIL 2i
00000111
00011000
00100000
00100001
00100000
00100100
00101001
00100010
NAME undefined

TIL 2j
11100000
00011000
00000100
00000100
00000100
01000100
10010100
00100100
NAME undefined

TIL 2k
00100000
00110000
00110000
00110000
01001000
01111000
01001000
01111000
NAME undefined

TIL 2l
11111111
00100000
11111111
00000010
11111111
00100000
11111111
00000010
NAME undefined

TIL 2m
11111111
11111111
11111111
11111111
11111111
11111111
11111111
11111111
NAME undefined

TIL 2n
11111000
01111000
01111000
01111000
01111000
01111000
01111000
11111000
NAME undefined

TIL 2o
11111111
01001111
01001111
00101111
00101111
00011111
00011111
00001111
NAME undefined

TIL 2p
00010000
00010000
01010010
00101100
11111111
10000001
01000010
00111100
NAME undefined

TIL 2q
00000000
00000000
00000000
01110100
01010010
01010110
11111111
01000010
NAME undefined

TIL 2r
01010101
11010101
00100101
11011001
00010010
11100100
00001010
11110001
NAME undefined

TIL 2s
00000000
11100000
00000000
00000000
00000000
00000000
00000000
00000000
NAME undefined

TIL 2t
01000000
01000000
00000000
00000000
00000000
00000000
00000000
00000000
NAME undefined

TIL 2u
11111111
10000001
10111101
10111101
10111101
10111101
10111101
10111101
NAME undefined

TIL 2v
10111101
10110001
10111101
10111101
10111101
10111101
10111101
10000001
NAME undefined

TIL 2w
00110000
00100010
00100000
00100000
00100000
00111111
00000000
00000000
>
00101000
00100000
00100000
00101000
00100000
00111111
00000000
00000000
NAME undefined

TIL 2x
00000001
00000001
00100001
00000001
00000001
11111111
00000000
00000000
>
00000001
00000001
00000001
00000001
00000001
11111111
00000000
00000000
NAME undefined

TIL 2y
00000100
00000100
00000100
00000100
00000100
11111100
00000000
00000000
>
00000100
00100100
00000100
00000100
00000100
11111100
00000000
00000000
NAME undefined

TIL 2z
00000100
00000100
11111100
11111100
00000100
00000100
00100100
00000100
>
00000100
00000100
11111100
11111100
00000100
00000100
00000100
00000100
NAME undefined

TIL 3a
00000000
00000010
00000010
00000111
00000111
01110111
11110111
01110111
NAME undefined

TIL 3b
10010000
10010100
10001011
10010111
10010000
11111111
00000000
00000000
NAME undefined

TIL 3c
00000000
00000000
00000000
00000000
11111100
10000100
01000100
10100100
NAME undefined

TIL 3d
00100100
10100100
01000100
10100100
00100100
11111100
00000000
00000000
NAME undefined

TIL 3e
10101010
10010010
11111110
00000000
11111111
10000111
10001000
10010010
NAME undefined

TIL 3f
00000000
00000000
00000000
00000000
11111110
10000010
10101010
10010010
NAME undefined

TIL 3g
00000011
00000110
00001100
00011100
00111100
01101100
11001100
10001100
NAME undefined

TIL 3h
00001111
00001111
00001111
00001111
11111111
11111111
11111111
11111111
NAME undefined

TIL 3i
00000000
00000000
00000000
00000000
00000000
00000000
00000000
00000001
NAME undefined

TIL 3j
00001111
00001111
00001111
00001111
00001111
00101111
01101111
01101111
NAME undefined

TIL 3k
11111111
10000001
11111111
10000001
10000001
10000101
10000001
10000001
NAME undefined

TIL 3l
11111111
11111100
11110000
11000000
00000000
00000000
00000000
00000000
NAME undefined

TIL 3m
11111111
11111111
11111111
11111111
11111111
11111100
11110000
11000000
NAME undefined

TIL 3n
11111111
11111111
11111111
11111111
11111111
00111111
00001111
00000011
NAME undefined

TIL 3o
11111111
00111111
00001111
00000011
00000000
00000000
00000000
00000000
NAME undefined

TIL 3p
11111111
10010000
10110101
10110101
11111111
10000100
10101110
11101110
NAME undefined

TIL 3q
01111111
01111111
01111111
01111111
01111111
01111111
01111111
01111111
NAME undefined

TIL 3r
11111111
01111111
11111111
01111111
11111111
01111111
11111111
11111111
NAME undefined

TIL 3s
11111111
11111000
11111111
11111001
11111111
11111000
11111111
11111001
NAME undefined

TIL 3t
11111111
10010100
10011000
11110000
11111000
10100101
11111111
10010000
NAME undefined

TIL 3u
11111111
00000001
00000001
00000001
00000011
10000011
11001101
00111001
NAME undefined

TIL 3v
00000000
00000000
00000000
00000100
00000000
11111111
00000000
00000000
>
00000000
00000000
00100001
00000000
00000000
11111111
00000000
00000000
NAME undefined

TIL 3w
00000000
00000000
11111111
00000000
11111111
00000000
00001000
00000000
>
00000000
00000000
11111111
00000000
11111111
00000000
00000000
01000000
NAME undefined

TIL 3x
00000000
00000000
11111111
00000000
00111111
00100000
00100000
00100010
>
00000000
00000000
11111111
00000000
00111111
00100000
00100100
00100000
NAME undefined

TIL 3z
00000000
00000000
11111111
10101010
11111111
11111111
01111111
00111111
>
00000000
00000000
11111111
10101010
11111111
11111111
01111111
10111111
NAME undefined

TIL 4a
00000000
00000000
00000100
00000011
00000100
00000101
00000010
00000100
NAME undefined

TIL 4b
00110000
00100010
00100000
00111000
01010100
01101111
01010100
00111000
>
00101000
00100000
00100000
00111000
01010100
01101111
01010100
00111000
NAME undefined

TIL 4c
10111101
10110001
10111101
10111101
10111101
10111101
10111101
10000001
NAME undefined

TIL 4d
00001111
00001111
00001111
00001111
11111111
11111111
11111111
11111111
NAME undefined

TIL 4e
00000000
00000111
00001011
00001011
00001011
10100111
11010011
11111111
NAME undefined

TIL 4f
00000000
11100000
11101000
11100000
01100010
11010010
11001001
11111111
NAME undefined

TIL 4g
00111111
11111111
11001111
01011101
00111110
11111111
11111000
00110111
NAME undefined

TIL 4h
11111111
11110011
11111111
11111111
11111111
11011000
01100111
10111111
NAME undefined

TIL 4i
11111111
11101111
11110110
11101111
00011111
11101111
11110110
11111101
NAME undefined

TIL 4j
10110110
11110111
11111111
11111110
11111111
11111111
00011111
11101100
NAME undefined

TIL 4k
00000000
00001110
00010001
01010001
01010001
11111111
00000000
00000000
NAME undefined

TIL 4l
00010000
00111111
00100000
00100000
00100000
01111100
01101100
01010100
NAME undefined

TIL 4m
01000000
11100000
00100000
00100000
00100000
00100000
00100000
00100000
NAME undefined

TIL 4n
00000000
00000010
00001010
01001010
11001010
11111111
00000000
00000000
NAME undefined

TIL 4o
00000000
00000000
00000000
00000000
00000000
00000000
00000000
10000000
NAME undefined

TIL 4p
00000000
00000000
00000000
00000000
00000000
00000010
00000001
00001100
NAME undefined

TIL 4q
00000000
11111111
10100000
11000000
10000000
10011100
10000000
11111111
NAME undefined

TIL 4r
00000000
10000000
10000000
10000000
10000000
10000000
10000000
10000000
NAME undefined

SPR 10
00000000
00000000
00000000
00000011
00110111
01111111
01111111
00111111
>
00000000
00000000
00000000
00000000
00000011
00110111
01111111
01111111
DLG SPR_n
POS n 1,9

SPR 11
00000000
00000000
00000000
11000000
11100000
11111000
11111110
11111111
>
00000000
00000000
00000000
00000000
11100000
11110000
11111100
11111111
POS n 2,9

SPR 12
10010111
01101100
11111111
01001110
11111111
00111110
11111111
00001000
DLG SPR_o
POS p 15,14

SPR 13
10010111
01101100
11111111
01001110
11111111
00111110
11111111
00001000
DLG SPR_r
POS r 12,14

SPR 14
00000000
00000111
00001011
00001011
00001011
10100111
11010011
11111111
DLG SPR_q
POS r 4,12

SPR 15
00000000
11100000
11101000
11100000
01100010
10010010
10001001
11111111
DLG SPR_p
POS r 5,12

SPR 16
10010111
01101100
11111111
01001110
11111111
00111110
11111111
00001000
DLG SPR_t
POS r 5,14

SPR 17
10010111
01101100
11111111
01001110
11111111
00111110
11111111
00001000
DLG SPR_s
POS r 6,14

SPR A
00001100
00011100
00011100
00011000
00010000
00010000
00010000
00001000
>
00000000
00001100
00011100
00011100
00011000
00010000
00010000
00100000
POS 0 1,13

SPR a
00000000
00001000
00011100
00111100
00011100
00011110
00011111
00000100
DLG SPR_0
POS 4 7,11

SPR b
00000000
00000000
00011000
00111100
00111110
01001111
00000101
00000100
DLG SPR_1
POS 2 11,6

SPR c
00000000
00000000
00000000
00000111
00000110
00001110
00011110
00000100
DLG SPR_2
POS 3 5,6

SPR d
00000000
00000000
00000000
11111111
10010010
10010010
11111111
00001000
DLG SPR_3
POS 6 11,11

SPR e
00000000
00000000
00000000
11111111
01001001
01001001
11111111
00000000
DLG SPR_4
POS 6 12,11

SPR f
00000000
00000000
00000000
11111100
00100100
00100100
11111100
01000000
DLG SPR_5
POS 6 13,11

SPR g
00000000
00000000
00000000
00000000
00110000
01100000
11100000
01000000
DLG SPR_6
POS 8 7,10

SPR h
00000000
00000000
00000000
00011000
01111000
10110000
00111000
00010000
>
00000000
00000000
00000000
00000000
01100000
10110000
00111000
00010000
DLG SPR_7
POS 9 10,11

SPR i
11111111
10000001
11010111
10000001
11111111
00011000
00011000
00011000
DLG SPR_e
POS b 11,13

SPR j
00000000
00000010
00000110
00000110
00010110
00100110
00010110
01111110
DLG SPR_8
POS c 12,13

SPR k
00000000
00000010
00000110
00000110
00000110
00000110
00000110
01111110
DLG SPR_9
POS c 6,13

SPR l
00000000
00000010
00000110
00000110
00000110
00000110
00000110
01111110
DLG SPR_a
POS c 10,13

SPR m
00000000
00000010
00000110
00000110
01000110
10100110
00010110
01111110
DLG SPR_b
POS c 8,13

SPR n
00000000
00000010
00000110
00000110
00000110
00000110
00000110
01111110
DLG SPR_c
POS c 14,13

SPR o
00000000
00000010
00000110
00000110
00000110
00000110
00000110
01111110
DLG SPR_d
POS c 4,13

SPR p
00000000
00000000
00000000
11111111
10010010
10010010
11111111
00001000
DLG SPR_g
POS d 2,11

SPR q
00000000
00000000
00000000
11111111
01001001
01001001
11111111
00000000
DLG SPR_h
POS d 3,11

SPR r
00000000
00000000
00000000
11111100
00100100
00100100
11111100
01000000
DLG SPR_i
POS d 4,11

SPR s
11111111
10011001
11000011
11111111
10100101
11100111
10101101
10100101
DLG SPR_f
POS i 11,13

SPR t
00000000
00000001
00001111
00011111
00111111
01111110
01111100
00111111
>
00000000
00000000
00000111
00011111
00111111
01111110
01111100
00111111
DLG SPR_j
POS j 8,12

SPR u
11000000
11100000
10100000
11000000
00000000
00000000
00000000
10000000
>
00000000
11100000
11110000
11010000
01100000
00000000
00000000
10000000
POS j 9,12

SPR v
00000000
00000100
00000100
01001110
01101110
01101110
01101110
01101110
DLG SPR_k
POS k 4,11

SPR y
00000000
00000000
00000001
00000001
00111101
00100101
00110101
00101101
DLG SPR_l

SPR z
00000000
00000000
11100000
00100000
01100000
10100000
00100000
11100000
DLG SPR_m

ITM 0
00000000
00000000
00000000
00111100
01100100
00100100
00011000
00000000
DLG ITM_0

DLG SPR_0
Twee

DLG ITM_0
You got a cup of tea! Nice.

DLG SPR_1
*Chirp*

DLG SPR_2
Bye bye.

DLG SPR_3
The life you lived...

DLG SPR_4
...let it go...

DLG SPR_5
...for you are stuck here now.

DLG SPR_6
Ungratreful brat.

DLG SPR_7
Stop.

DLG SPR_8
Home.

DLG SPR_9
Heavy snow is covering the names.

DLG SPR_a
Unreadable.

DLG SPR_b
I knew you.

DLG SPR_c
Fifteen years old.

DLG SPR_d
Whatever was written here has been whisked away by time.

DLG SPR_e
Do not remove flowers.

DLG SPR_f
I shouldn't enter.

DLG SPR_g
We sometimes meet hardships and obstacles in life...

DLG SPR_h
...it is then that some of us choose to look towards the heavens...

DLG SPR_i
...Maybe then, the answers will come to you.

DLG SPR_j
*Sob*

DLG SPR_k
A strong odor is lingering in the empty bottles.

DLG SPR_l
A family photo.

DLG SPR_m
A family photo.

DLG SPR_n
Dried tears follow the creases of her face.

DLG SPR_o
Gross.

DLG SPR_p
The car is a complete wreck

DLG SPR_q
The car is a complete wreck.

DLG SPR_r
I don't want to be here anymore.

DLG SPR_s
Sticky.

DLG SPR_t
Sticky.

END 0


END undefined
You wander off alone...


