This is my room, and I am on my phone 

# BITSY VERSION 5.3

! ROOM_FORMAT 1

PAL 0
70,27,99
101,104,104
98,73,83

ROOM 0
0,d,0,0,d,0,d,0,d,0,0,0,0,0,0,0
0,a,0,0,0,0,0,0,a,0,0,0,0,0,0,0
0,a,0,0,0,0,0,0,a,0,0,0,0,0,0,0
0,a,0,0,0,0,0,c,a,d,0,0,0,0,0,0
0,0,a,0,0,0,c,c,a,0,0,0,0,0,0,0
0,0,a,0,0,c,a,a,a,0,0,0,0,0,0,0
0,0,a,0,c,a,a,0,a,d,0,0,0,0,0,0
0,0,a,c,a,0,0,0,a,0,0,0,0,0,0,0
0,0,a,0,0,0,0,0,a,d,0,0,0,0,0,0
a,a,0,0,0,0,0,0,0,0,0,0,0,0,0,0
c,c,a,0,0,0,0,0,0,0,0,0,0,0,0,0
d,d,a,0,0,0,0,0,0,0,d,0,0,e,0,0
d,0,0,0,0,0,0,0,c,d,0,c,a,0,c,e
0,d,c,0,0,0,0,0,d,0,0,c,0,c,a,b
d,0,0,0,0,0,c,d,0,c,c,a,d,0,c,b
c,0,c,0,c,d,0,0,0,c,a,d,c,c,0,d
ITM 0 3,0
END 0 3,0
PAL 0

TIL a
11111111
11111111
11111111
11111111
11111111
11111111
11111111
11111111

TIL b
11111111
11111111
11111111
11111111
11111111
11111111
11111111
11111111

TIL c
00000001
00000011
00000111
00001111
00011111
00111111
01111111
11111111

TIL d
11111111
11111110
11111100
11111000
11110000
11100000
11000000
10000000

TIL e
10000000
11000000
11100000
11110000
11111000
11111100
11111110
11111111

SPR 10
00000000
00100000
00100000
00001000
00001000
00000000
00000010
01000010
>
00001000
01001000
01000010
00000010
00100000
00100000
00000000
00001000
DLG SPR_3
POS 0 11,0

SPR 11
00000000
00100000
00100000
00001000
00001000
00000000
00000010
01000010
>
00001000
01001000
01000010
00000010
00100000
00100000
00000000
00001000
DLG SPR_4
POS 0 13,1

SPR 12
00000000
00100000
00100000
00001000
00001000
00000000
00000010
01000010
>
00001000
01001000
01000010
00000010
00100000
00100000
00000000
00001000
DLG SPR_5
POS 0 6,8

SPR A
00000000
00100000
00100000
00001000
00001000
00000000
00000010
01000010
>
00001000
01001000
01000010
00000010
00100000
00100000
00000000
00001000
POS 0 11,3

SPR e
00000000
00100000
00100000
00001000
00001000
00000000
00000010
01000010
>
00001000
01001000
01000010
00000010
00100000
00100000
00000000
00001000
DLG SPR_j
POS 0 4,8

SPR f
00000000
00100000
00100000
00001000
00001000
00000000
00000010
01000010
>
00001000
01001000
01000010
00000010
00100000
00100000
00000000
00001000
DLG SPR_6
POS 0 11,6

SPR g
00000000
00100000
00100000
00001000
00001000
00000000
00000010
01000010
>
00001000
01001000
01000010
00000010
00100000
00100000
00000000
00001000
DLG SPR_i
POS 0 13,7

SPR i
00000000
00100000
00100000
00001000
00001000
00000000
00000010
01000010
>
00001000
01001000
01000010
00000010
00100000
00100000
00000000
00001000
DLG SPR_h
POS 0 10,9

SPR k
00000000
00100000
00100000
00001000
00001000
00000000
00000010
01000010
>
00001000
01001000
01000010
00000010
00100000
00100000
00000000
00001000
DLG SPR_g
POS 0 3,3

SPR m
00000000
00100000
00100000
00001000
00001000
00000000
00000010
01000010
>
00001000
01001000
01000010
00000010
00100000
00100000
00000000
00001000
DLG SPR_f
POS 0 5,2

SPR o
00000000
00100000
00100000
00001000
00001000
00000000
00000010
01000010
>
00001000
01001000
01000010
00000010
00100000
00100000
00000000
00001000
DLG SPR_e
POS 0 7,1

SPR p
00000000
00100000
00100000
00001000
00001000
00000000
00000010
01000010
>
00001000
01001000
01000010
00000010
00100000
00100000
00000000
00001000
DLG SPR_d
POS 0 7,7

SPR q
00000000
00100000
00100000
00001000
00001000
00000000
00000010
01000010
>
00001000
01001000
01000010
00000010
00100000
00100000
00000000
00001000
DLG SPR_9
POS 0 10,2

SPR r
00000000
00100000
00100000
00001000
00001000
00000000
00000010
01000010
>
00001000
01001000
01000010
00000010
00100000
00100000
00000000
00001000
DLG SPR_a
POS 0 8,4

SPR t
00000000
00100000
00100000
00001000
00001000
00000000
00000010
01000010
>
00001000
01001000
01000010
00000010
00100000
00100000
00000000
00001000
DLG SPR_b
POS 0 13,5

SPR v
00000000
00100000
00100000
00001000
00001000
00000000
00000010
01000010
>
00001000
01001000
01000010
00000010
00100000
00100000
00000000
00001000
DLG SPR_c
POS 0 12,8

SPR w
00000000
00100000
00100000
00001000
00001000
00000000
00000010
01000010
>
00001000
01001000
01000010
00000010
00100000
00100000
00000000
00001000
DLG SPR_8
POS 0 12,3

SPR x
00000000
00100000
00100000
00001000
00001000
00000000
00000010
01000010
>
00001000
01001000
01000010
00000010
00100000
00100000
00000000
00001000
DLG SPR_7
POS 0 3,4

SPR y
00000000
00100000
00100000
00001000
00001000
00000000
00000010
01000010
>
00001000
01001000
01000010
00000010
00100000
00100000
00000000
00001000
DLG SPR_1
POS 0 2,1

SPR z
00000000
00100000
00100000
00001000
00001000
00000000
00000010
01000010
>
00001000
01001000
01000010
00000010
00100000
00100000
00000000
00001000
DLG SPR_2
POS 0 2,2

ITM 0
00010000
00010000
00011000
00111111
11111100
00011000
00001000
00001000
>
00000000
00000000
00100100
00011000
00011000
00100100
00000000
00000000
NAME tea

DLG SPR_1
I can fill my brain with words

DLG SPR_2
And I can fill my brain with pictures

DLG SPR_3
and I can fill my brain with numbers

DLG SPR_4
and I can fill my brain with ways of moving

DLG SPR_5
ways of feeling

DLG SPR_6
Nothing but the sound of rain

DLG SPR_7
But I don't know how to fill my brain with

DLG SPR_8
And I cant conceive that a day has passed til

DLG SPR_9
I'm waking up after having collapsed

DLG SPR_a
I can't fill my hands with labour on command

DLG SPR_b
I have to wait for random chance

DLG SPR_c
But they're other people's words

DLG SPR_d
And other peoples pictures

DLG SPR_e
and other peoples numbers

DLG SPR_f
and other peoples movements and feelings

DLG SPR_g
But it's my sound of rain and my car alarm

DLG SPR_h
And maybe if I can fill my brain to the top I

DLG SPR_i
Won't have to drain it of slop as long as as long

DLG SPR_j
as the rain doesn't stop

END 0
And then I get out of my bed to go right up to the window to look at the rain, and smell it, and hear it better.

VAR a
42

