
---------- ONE YEAR ----------- // a writer dealing with loss // BED. TELEVISION. TABLE. DESK.

# BITSY VERSION 4.6

! ROOM_FORMAT 1

PAL 0
NAME january
152,193,217
223,243,227
255,209,186

PAL 1
NAME febuary
178,201,171
255,209,186
146,182,177

PAL 2
NAME march
57,61,63
231,109,131
178,201,171

PAL 3
NAME april
191,192,192
79,93,117
231,109,131

PAL 4
NAME may
252,247,197
213,185,66
191,192,192

PAL 5
NAME june
248,221,164
212,81,19
213,185,66

PAL 6
NAME july
246,174,45
51,101,138
212,81,19

PAL 7
NAME august
79,0,11
246,174,45
206,66,87

PAL 8
NAME september
251,186,114
79,0,11
202,83,16

PAL 9
NAME october
89,2,23
202,83,16
47,72,88

PAL a
NAME november
47,72,88
159,180,199
127,124,175

PAL b
NAME december
127,124,175
25,11,40
104,87,98

ROOM 0
a,a,a,a,a,a,a,a,a,a,a,a,a,a,a,a
a,a,a,a,a,a,a,a,a,a,a,a,a,a,a,a
a,a,a,a,a,a,a,a,a,a,a,a,a,a,a,a
a,1a,19,16,0,12,0,0,0,w,v,s,t,o,n,a
a,1b,18,15,0,13,z,10,11,x,y,r,q,p,m,a
a,b,c,14,e,e,f,g,h,e,e,i,j,k,l,a
a,0,0,0,0,0,0,0,0,0,0,0,0,0,0,a
a,0,0,0,0,0,0,0,0,0,0,0,1c,0,0,1j
a,0,0,0,0,0,0,0,0,0,0,0,0,0,0,a
a,0,0,0,0,0,0,0,0,0,0,0,0,0,0,a
a,0,0,0,1e,0,0,0,0,0,0,0,0,0,0,a
a,0,0,0,1d,0,1f,1g,1h,1i,1c,0,0,0,0,a
a,a,a,a,a,a,a,a,a,a,a,a,a,a,a,a
a,a,a,a,a,a,a,a,a,a,a,a,a,a,a,a
a,a,a,a,a,a,a,a,a,a,a,a,a,a,a,a
a,a,a,a,a,a,a,a,a,a,a,a,a,a,a,a
NAME january
ITM 0 6,7
ITM 1 8,9
EXT 15,7 d 2,11
PAL 0

ROOM 1
a,a,a,a,a,a,a,a,a,a,a,a,a,a,a,a
a,a,a,a,a,a,a,a,a,a,a,a,a,a,a,a
a,a,a,a,a,a,a,a,a,a,a,a,a,a,a,a
a,1a,19,16,0,12,0,0,0,1l,1k,s,t,o,n,a
a,1b,18,15,0,13,z,10,11,1m,1n,r,q,p,m,a
a,b,c,14,e,e,f,g,h,e,e,i,j,k,l,a
a,0,0,0,0,0,0,0,0,0,0,0,0,0,0,a
a,0,0,0,0,0,0,0,0,0,0,0,1c,0,0,1j
a,0,0,0,0,0,0,0,0,0,0,0,0,0,0,a
a,0,0,0,0,0,0,0,0,0,0,0,0,0,0,a
a,0,0,0,1e,0,0,0,0,0,0,0,0,0,0,a
a,0,0,0,1d,0,1f,1g,1h,1i,1c,0,0,0,0,a
a,a,a,a,a,a,a,a,a,a,a,a,a,a,a,a
a,a,a,a,a,a,a,a,a,a,a,a,a,a,a,a
a,a,a,a,a,a,a,a,a,a,a,a,a,a,a,a
a,a,a,a,a,a,a,a,a,a,a,a,a,a,a,a
NAME febuary
ITM 2 14,7
EXT 15,7 e 2,11
PAL 1

ROOM 2
a,a,a,a,a,a,a,a,a,a,a,a,a,a,a,a
a,a,a,a,a,a,a,a,a,a,a,a,a,a,a,a
a,a,a,a,a,a,a,a,a,a,a,a,a,a,a,a
a,1a,19,16,0,12,0,0,0,1q,1r,s,t,o,n,a
a,1b,18,15,0,13,z,10,11,1p,1o,r,q,p,m,a
a,b,c,14,e,e,f,g,h,e,e,i,j,k,l,a
a,0,0,0,0,0,0,0,0,0,0,0,0,0,0,a
a,0,0,0,0,0,0,0,0,0,0,0,1c,0,0,1j
a,0,0,0,0,0,0,0,0,0,0,0,0,0,0,a
a,0,0,0,0,0,0,0,0,0,0,0,0,0,0,a
a,0,0,0,1e,0,0,0,0,0,0,0,0,0,0,a
a,0,0,0,1d,0,1f,1g,1h,1i,1c,0,0,0,0,a
a,a,a,a,a,a,a,a,a,a,a,a,a,a,a,a
a,a,a,a,a,a,a,a,a,a,a,a,a,a,a,a
a,a,a,a,a,a,a,a,a,a,a,a,a,a,a,a
a,a,a,a,a,a,a,a,a,a,a,a,a,a,a,a
NAME march
ITM 8 4,6
ITM 9 6,9
EXT 15,7 f 2,11
PAL 2

ROOM 3
a,a,a,a,a,a,a,a,a,a,a,a,a,a,a,a
a,a,a,a,a,a,a,a,a,a,a,a,a,a,a,a
a,a,a,a,a,a,a,a,a,a,a,a,a,a,a,a
a,1a,19,16,0,12,0,0,0,1s,1t,s,t,o,n,a
a,1b,18,15,0,13,z,10,11,1u,1v,r,q,p,m,a
a,b,c,14,e,e,f,g,h,e,e,i,j,k,l,a
a,0,0,0,0,0,0,0,0,0,0,0,0,0,0,a
a,0,0,0,0,0,0,0,0,0,0,0,1c,0,0,1j
a,0,0,0,0,0,0,0,0,0,0,0,0,0,0,a
a,0,0,0,0,0,0,0,0,0,0,0,0,0,0,a
a,0,0,0,1e,0,0,0,0,0,0,0,0,0,0,a
a,0,0,0,1d,0,1f,1g,1h,1i,1c,0,0,0,0,a
a,a,a,a,a,a,a,a,a,a,a,a,a,a,a,a
a,a,a,a,a,a,a,a,a,a,a,a,a,a,a,a
a,a,a,a,a,a,a,a,a,a,a,a,a,a,a,a
a,a,a,a,a,a,a,a,a,a,a,a,a,a,a,a
NAME april
ITM 3 14,7
EXT 15,7 g 2,11
PAL 3

ROOM 4
a,a,a,a,a,a,a,a,a,a,a,a,a,a,a,a
a,a,a,a,a,a,a,a,a,a,a,a,a,a,a,a
a,a,a,a,a,a,a,a,a,a,a,a,a,a,a,a
a,1a,19,16,0,12,0,0,0,1l,1k,s,t,o,n,a
a,1b,18,15,0,13,z,10,11,1m,1n,r,q,p,m,a
a,b,c,14,e,e,f,g,h,e,e,i,j,k,l,a
a,0,0,0,0,0,0,0,0,0,0,0,0,0,0,a
a,0,0,0,0,0,0,0,0,0,0,0,1c,0,0,1j
a,0,0,0,0,0,0,0,0,0,0,0,0,0,0,a
a,0,0,0,0,0,0,0,0,0,0,0,0,0,0,a
a,0,0,0,1e,0,0,0,0,0,0,0,0,0,0,a
a,0,0,0,1d,0,1f,1g,1h,1i,1c,0,0,0,0,a
a,a,a,a,a,a,a,a,a,a,a,a,a,a,a,a
a,a,a,a,a,a,a,a,a,a,a,a,a,a,a,a
a,a,a,a,a,a,a,a,a,a,a,a,a,a,a,a
a,a,a,a,a,a,a,a,a,a,a,a,a,a,a,a
NAME may
ITM a 9,9
EXT 15,7 h 2,11
PAL 4

ROOM 5
a,a,a,a,a,a,a,a,a,a,a,a,a,a,a,a
a,a,a,a,a,a,a,a,a,a,a,a,a,a,a,a
a,a,a,a,a,a,a,a,a,a,a,a,a,a,a,a
a,1a,19,16,0,12,0,0,0,1l,1k,s,t,o,n,a
a,1b,18,15,0,13,z,10,11,1m,1n,r,q,p,m,a
a,b,c,14,e,e,f,g,h,e,e,i,j,k,l,a
a,0,0,0,0,0,0,0,0,0,0,0,0,0,0,a
a,0,0,0,0,0,0,0,0,0,0,0,1c,0,0,1j
a,0,0,0,0,0,0,0,0,0,0,0,0,0,0,a
a,0,0,0,0,0,0,0,0,0,0,0,0,0,0,a
a,0,0,0,1e,0,0,0,0,0,0,0,0,0,0,a
a,0,0,0,1d,0,1f,1g,1h,1i,1c,0,0,0,0,a
a,a,a,a,a,a,a,a,a,a,a,a,a,a,a,a
a,a,a,a,a,a,a,a,a,a,a,a,a,a,a,a
a,a,a,a,a,a,a,a,a,a,a,a,a,a,a,a
a,a,a,a,a,a,a,a,a,a,a,a,a,a,a,a
NAME june
ITM 4 14,7
EXT 15,7 i 2,11
PAL 5

ROOM 6
a,a,a,a,a,a,a,a,a,a,a,a,a,a,a,a
a,a,a,a,a,a,a,a,a,a,a,a,a,a,a,a
a,a,a,a,a,a,a,a,a,a,a,a,a,a,a,a
a,1a,19,16,0,12,0,0,0,1l,1k,s,t,o,n,a
a,1b,18,15,0,13,z,10,11,1m,1n,r,q,p,m,a
a,b,c,14,e,e,f,g,h,e,e,i,j,k,l,a
a,0,0,0,0,0,0,0,0,0,0,0,0,0,0,a
a,0,0,0,0,0,0,0,0,0,0,0,1c,0,0,1j
a,0,0,0,0,0,0,0,0,0,0,0,0,0,0,a
a,0,0,0,0,0,0,0,0,0,0,0,0,0,0,a
a,0,0,0,1e,0,0,0,0,0,0,0,0,0,0,a
a,0,0,0,1d,0,1f,1g,1h,1i,1c,0,0,0,0,a
a,a,a,a,a,a,a,a,a,a,a,a,a,a,a,a
a,a,a,a,a,a,a,a,a,a,a,a,a,a,a,a
a,a,a,a,a,a,a,a,a,a,a,a,a,a,a,a
a,a,a,a,a,a,a,a,a,a,a,a,a,a,a,a
NAME july
ITM b 5,9
EXT 15,7 j 2,11
PAL 6

ROOM 7
a,a,a,a,a,a,a,a,a,a,a,a,a,a,a,a
a,a,a,a,a,a,a,a,a,a,a,a,a,a,a,a
a,a,a,a,a,a,a,a,a,a,a,a,a,a,a,a
a,1a,19,16,0,12,0,0,0,1l,1k,s,t,o,n,a
a,1b,18,15,0,13,z,10,11,1m,1n,r,q,p,m,a
a,b,c,14,e,e,f,g,h,e,e,i,j,k,l,a
a,0,0,0,0,0,0,0,0,0,0,0,0,0,0,a
a,0,0,0,0,0,0,0,0,0,0,0,1c,0,0,1j
a,0,0,0,0,0,0,0,0,0,0,0,0,0,0,a
a,0,0,0,0,0,0,0,0,0,0,0,0,0,0,a
a,0,0,0,1e,0,0,0,0,0,0,0,0,0,0,a
a,0,0,0,1d,0,1f,1g,1h,1i,1c,0,0,0,0,a
a,a,a,a,a,a,a,a,a,a,a,a,a,a,a,a
a,a,a,a,a,a,a,a,a,a,a,a,a,a,a,a
a,a,a,a,a,a,a,a,a,a,a,a,a,a,a,a
a,a,a,a,a,a,a,a,a,a,a,a,a,a,a,a
NAME august
ITM 5 14,7
EXT 15,7 k 2,11
PAL 7

ROOM 8
a,a,a,a,a,a,a,a,a,a,a,a,a,a,a,a
a,a,a,a,a,a,a,a,a,a,a,a,a,a,a,a
a,a,a,a,a,a,a,a,a,a,a,a,a,a,a,a
a,1a,19,16,0,12,0,0,0,1l,1k,s,t,o,n,a
a,1b,18,15,0,13,z,10,11,1m,1n,r,q,p,m,a
a,b,c,14,e,e,f,g,h,e,e,i,j,k,l,a
a,0,0,0,0,0,0,0,0,0,0,0,0,0,0,a
a,0,0,0,0,0,0,0,0,0,0,0,1c,0,0,1j
a,0,0,0,0,0,0,0,0,0,0,0,0,0,0,a
a,0,0,0,0,0,0,0,0,0,0,0,0,0,0,a
a,0,0,0,1e,0,0,0,0,0,0,0,0,0,0,a
a,0,0,0,1d,0,1f,1g,1h,1i,1c,0,0,0,0,a
a,a,a,a,a,a,a,a,a,a,a,a,a,a,a,a
a,a,a,a,a,a,a,a,a,a,a,a,a,a,a,a
a,a,a,a,a,a,a,a,a,a,a,a,a,a,a,a
a,a,a,a,a,a,a,a,a,a,a,a,a,a,a,a
NAME september
EXT 15,7 l 2,11
PAL 8

ROOM 9
a,a,a,a,a,a,a,a,a,a,a,a,a,a,a,a
a,a,a,a,a,a,a,a,a,a,a,a,a,a,a,a
a,a,a,a,a,a,a,a,a,a,a,a,a,a,a,a
a,a,a,a,a,a,a,a,a,a,a,a,a,a,a,a
a,a,a,a,0,0,0,0,0,0,0,0,0,a,a,a
a,a,a,a,0,1w,1x,1y,1z,1x,20,21,0,a,a,a
a,a,a,a,0,0,0,0,0,0,0,0,0,a,a,a
a,a,a,a,a,a,a,a,a,a,a,a,a,a,a,a
a,a,a,a,a,a,a,a,a,a,a,a,a,a,a,a
a,a,a,a,a,a,a,a,a,a,a,a,a,a,a,a
a,a,a,a,a,a,a,a,a,a,a,a,a,a,a,a
a,a,0,0,0,0,0,0,0,0,0,0,0,0,a,a
a,a,a,a,a,a,a,a,a,a,a,a,a,a,a,a
a,a,a,a,a,a,a,a,a,a,a,a,a,a,a,a
a,a,a,a,a,a,a,a,a,a,a,a,a,a,a,a
a,a,a,a,a,a,a,a,a,a,a,a,a,a,a,a
NAME january title
EXT 13,11 0 1,6
PAL 0

ROOM a
a,a,a,a,a,a,a,a,a,a,a,a,a,a,a,a
a,a,a,a,a,a,a,a,a,a,a,a,a,a,a,a
a,a,a,a,a,a,a,a,a,a,a,a,a,a,a,a
a,1a,19,16,0,12,0,0,0,1l,1k,s,t,o,n,a
a,1b,18,15,0,13,z,10,11,1m,1n,r,q,p,m,a
a,b,c,14,e,e,f,g,h,e,e,i,j,k,l,a
a,0,0,0,0,0,0,0,0,0,0,0,0,0,0,a
a,0,0,0,0,0,0,0,0,0,0,0,1c,0,0,1j
a,0,0,0,0,0,0,0,0,0,0,0,0,0,0,a
a,0,0,0,0,0,0,0,0,0,0,0,0,0,0,a
a,0,0,0,1e,0,0,0,0,0,0,0,0,0,0,a
a,0,0,0,1d,0,1f,1g,1h,1i,1c,0,0,0,0,a
a,a,a,a,a,a,a,a,a,a,a,a,a,a,a,a
a,a,a,a,a,a,a,a,a,a,a,a,a,a,a,a
a,a,a,a,a,a,a,a,a,a,a,a,a,a,a,a
a,a,a,a,a,a,a,a,a,a,a,a,a,a,a,a
NAME october
EXT 15,7 m 2,11
PAL 9

ROOM b
a,a,a,a,a,a,a,a,a,a,a,a,a,a,a,a
a,a,a,a,a,a,a,a,a,a,a,a,a,a,a,a
a,a,a,a,a,a,a,a,a,a,a,a,a,a,a,a
a,1a,19,16,0,12,0,0,0,1l,1k,s,t,o,n,a
a,1b,18,15,0,13,z,10,11,1m,1n,r,q,p,m,a
a,b,c,14,e,e,f,g,h,e,e,i,j,k,l,a
a,0,0,0,0,0,0,0,0,0,0,0,0,0,0,a
a,0,0,0,0,0,0,0,0,0,0,0,1c,0,0,1j
a,0,0,0,0,0,0,0,0,0,0,0,0,0,0,a
a,0,0,0,0,0,0,0,0,0,0,0,0,0,0,a
a,0,0,0,1e,0,0,0,0,0,0,0,0,0,0,a
a,0,0,0,1d,0,1f,1g,1h,1i,1c,0,0,0,0,a
a,a,a,a,a,a,a,a,a,a,a,a,a,a,a,a
a,a,a,a,a,a,a,a,a,a,a,a,a,a,a,a
a,a,a,a,a,a,a,a,a,a,a,a,a,a,a,a
a,a,a,a,a,a,a,a,a,a,a,a,a,a,a,a
NAME november
ITM 6 14,7
EXT 15,7 n 2,11
PAL a

ROOM c
a,a,a,a,a,a,a,a,a,a,a,a,a,a,a,a
a,a,a,a,a,a,a,a,a,a,a,a,a,a,a,a
a,a,a,a,a,a,a,a,a,a,a,a,a,a,a,a
a,1a,19,16,0,12,0,0,0,w,v,s,t,o,n,a
a,1b,18,15,0,13,z,10,11,x,y,r,q,p,m,a
a,b,c,14,e,e,f,g,h,e,e,i,j,k,l,a
a,0,0,0,0,0,0,0,0,0,0,0,0,0,0,a
a,0,0,0,0,0,0,0,0,0,0,0,1c,0,0,1j
a,0,0,0,0,0,0,0,0,0,0,0,0,0,0,a
a,0,0,0,0,0,0,0,0,0,0,0,0,0,0,a
a,0,0,0,1e,0,0,0,0,0,0,0,0,0,0,a
a,0,0,0,1d,0,1f,1g,1h,1i,1c,0,0,0,0,a
a,a,a,a,a,a,a,a,a,a,a,a,a,a,a,a
a,a,a,a,a,a,a,a,a,a,a,a,a,a,a,a
a,a,a,a,a,a,a,a,a,a,a,a,a,a,a,a
a,a,a,a,a,a,a,a,a,a,a,a,a,a,a,a
NAME december
ITM 7 14,7
END undefined 15,7
PAL b

ROOM d
a,a,a,a,a,a,a,a,a,a,a,a,a,a,a,a
a,a,a,a,a,a,a,a,a,a,a,a,a,a,a,a
a,a,a,a,a,a,a,a,a,a,a,a,a,a,a,a
a,a,a,a,a,a,a,a,a,a,a,a,a,a,a,a
a,a,a,0,0,0,0,0,0,0,0,0,0,a,a,a
a,a,a,0,22,23,24,20,1z,1x,20,21,0,a,a,a
a,a,a,0,0,0,0,0,0,0,0,0,0,a,a,a
a,a,a,a,a,a,a,a,a,a,a,a,a,a,a,a
a,a,a,a,a,a,a,a,a,a,a,a,a,a,a,a
a,a,a,a,a,a,a,a,a,a,a,a,a,a,a,a
a,a,a,a,a,a,a,a,a,a,a,a,a,a,a,a
a,a,0,0,0,0,0,0,0,0,0,0,0,0,a,a
a,a,a,a,a,a,a,a,a,a,a,a,a,a,a,a
a,a,a,a,a,a,a,a,a,a,a,a,a,a,a,a
a,a,a,a,a,a,a,a,a,a,a,a,a,a,a,a
a,a,a,a,a,a,a,a,a,a,a,a,a,a,a,a
NAME febuary title
EXT 13,11 1 1,6
PAL 1

ROOM e
a,a,a,a,a,a,a,a,a,a,a,a,a,a,a,a
a,a,a,a,a,a,a,a,a,a,a,a,a,a,a,a
a,a,a,a,a,a,a,a,a,a,a,a,a,a,a,a
a,a,a,a,a,a,a,a,a,a,a,a,a,a,a,a
a,a,a,a,0,0,0,0,0,0,0,0,0,a,a,a
a,a,a,a,0,0,25,1x,20,26,27,0,0,a,a,a
a,a,a,a,0,0,0,0,0,0,0,0,0,a,a,a
a,a,a,a,a,a,a,a,a,a,a,a,a,a,a,a
a,a,a,a,a,a,a,a,a,a,a,a,a,a,a,a
a,a,a,a,a,a,a,a,a,a,a,a,a,a,a,a
a,a,a,a,a,a,a,a,a,a,a,a,a,a,a,a
a,a,0,0,0,0,0,0,0,0,0,0,0,0,a,a
a,a,a,a,a,a,a,a,a,a,a,a,a,a,a,a
a,a,a,a,a,a,a,a,a,a,a,a,a,a,a,a
a,a,a,a,a,a,a,a,a,a,a,a,a,a,a,a
a,a,a,a,a,a,a,a,a,a,a,a,a,a,a,a
NAME march
EXT 13,11 2 1,6
PAL 2

ROOM f
a,a,a,a,a,a,a,a,a,a,a,a,a,a,a,a
a,a,a,a,a,a,a,a,a,a,a,a,a,a,a,a
a,a,a,a,a,a,a,a,a,a,a,a,a,a,a,a
a,a,a,a,a,a,a,a,a,a,a,a,a,a,a,a
a,a,a,0,0,0,0,0,0,0,0,0,a,a,a,a
a,a,a,0,0,1x,28,20,29,2a,0,0,a,a,a,a
a,a,a,0,0,0,0,0,0,0,0,0,a,a,a,a
a,a,a,a,a,a,a,a,a,a,a,a,a,a,a,a
a,a,a,a,a,a,a,a,a,a,a,a,a,a,a,a
a,a,a,a,a,a,a,a,a,a,a,a,a,a,a,a
a,a,a,a,a,a,a,a,a,a,a,a,a,a,a,a
a,a,0,0,0,0,0,0,0,0,0,0,0,0,a,a
a,a,a,a,a,a,a,a,a,a,a,a,a,a,a,a
a,a,a,a,a,a,a,a,a,a,a,a,a,a,a,a
a,a,a,a,a,a,a,a,a,a,a,a,a,a,a,a
a,a,a,a,a,a,a,a,a,a,a,a,a,a,a,a
NAME april title
EXT 13,11 3 1,6
PAL 3

ROOM g
a,a,a,a,a,a,a,a,a,a,a,a,a,a,a,a
a,a,a,a,a,a,a,a,a,a,a,a,a,a,a,a
a,a,a,a,a,a,a,a,a,a,a,a,a,a,a,a
a,a,a,a,a,a,a,a,a,a,a,a,a,a,a,a
a,a,a,a,0,0,0,0,0,0,0,0,0,a,a,a
a,a,a,a,0,0,0,25,1x,21,0,0,0,a,a,a
a,a,a,a,0,0,0,0,0,0,0,0,0,a,a,a
a,a,a,a,a,a,a,a,a,a,a,a,a,a,a,a
a,a,a,a,a,a,a,a,a,a,a,a,a,a,a,a
a,a,a,a,a,a,a,a,a,a,a,a,a,a,a,a
a,a,a,a,a,a,a,a,a,a,a,a,a,a,a,a
a,a,0,0,0,0,0,0,0,0,0,0,0,0,a,a
a,a,a,a,a,a,a,a,a,a,a,a,a,a,a,a
a,a,a,a,a,a,a,a,a,a,a,a,a,a,a,a
a,a,a,a,a,a,a,a,a,a,a,a,a,a,a,a
a,a,a,a,a,a,a,a,a,a,a,a,a,a,a,a
NAME may title
EXT 13,11 4 1,6
PAL 4

ROOM h
a,a,a,a,a,a,a,a,a,a,a,a,a,a,a,a
a,a,a,a,a,a,a,a,a,a,a,a,a,a,a,a
a,a,a,a,a,a,a,a,a,a,a,a,a,a,a,a
a,a,a,a,a,a,a,a,a,a,a,a,a,a,a,a
a,a,a,0,0,0,0,0,0,0,0,0,0,a,a,a
a,a,a,0,0,0,1w,1z,1y,23,0,0,0,a,a,a
a,a,a,0,0,0,0,0,0,0,0,0,0,a,a,a
a,a,a,a,a,a,a,a,a,a,a,a,a,a,a,a
a,a,a,a,a,a,a,a,a,a,a,a,a,a,a,a
a,a,a,a,a,a,a,a,a,a,a,a,a,a,a,a
a,a,a,a,a,a,a,a,a,a,a,a,a,a,a,a
a,a,0,0,0,0,0,0,0,0,0,0,0,0,a,a
a,a,a,a,a,a,a,a,a,a,a,a,a,a,a,a
a,a,a,a,a,a,a,a,a,a,a,a,a,a,a,a
a,a,a,a,a,a,a,a,a,a,a,a,a,a,a,a
a,a,a,a,a,a,a,a,a,a,a,a,a,a,a,a
NAME june title
EXT 13,11 5 1,6
PAL 5

ROOM i
a,a,a,a,a,a,a,a,a,a,a,a,a,a,a,a
a,a,a,a,a,a,a,a,a,a,a,a,a,a,a,a
a,a,a,a,a,a,a,a,a,a,a,a,a,a,a,a
a,a,a,a,a,a,a,a,a,a,a,a,a,a,a,a
a,a,a,0,0,0,0,0,0,0,0,0,0,a,a,a
a,a,a,0,0,0,1w,1z,2a,21,0,0,0,a,a,a
a,a,a,0,0,0,0,0,0,0,0,0,0,a,a,a
a,a,a,a,a,a,a,a,a,a,a,a,a,a,a,a
a,a,a,a,a,a,a,a,a,a,a,a,a,a,a,a
a,a,a,a,a,a,a,a,a,a,a,a,a,a,a,a
a,a,a,a,a,a,a,a,a,a,a,a,a,a,a,a
a,a,0,0,0,0,0,0,0,0,0,0,0,0,a,a
a,a,a,a,a,a,a,a,a,a,a,a,a,a,a,a
a,a,a,a,a,a,a,a,a,a,a,a,a,a,a,a
a,a,a,a,a,a,a,a,a,a,a,a,a,a,a,a
a,a,a,a,a,a,a,a,a,a,a,a,a,a,a,a
NAME july title
EXT 13,11 6 1,6
PAL 6

ROOM j
a,a,a,a,a,a,a,a,a,a,a,a,a,a,a,a
a,a,a,a,a,a,a,a,a,a,a,a,a,a,a,a
a,a,a,a,a,a,a,a,a,a,a,a,a,a,a,a
a,a,a,a,a,a,a,a,a,a,a,a,a,a,a,a
a,a,a,0,0,0,0,0,0,0,0,0,0,a,a,a
a,a,a,0,0,1x,1z,2b,1z,2c,2d,0,0,a,a,a
a,a,a,0,0,0,0,0,0,0,0,0,0,a,a,a
a,a,a,a,a,a,a,a,a,a,a,a,a,a,a,a
a,a,a,a,a,a,a,a,a,a,a,a,a,a,a,a
a,a,a,a,a,a,a,a,a,a,a,a,a,a,a,a
a,a,a,a,a,a,a,a,a,a,a,a,a,a,a,a
a,a,0,0,0,0,0,0,0,0,0,0,0,0,a,a
a,a,a,a,a,a,a,a,a,a,a,a,a,a,a,a
a,a,a,a,a,a,a,a,a,a,a,a,a,a,a,a
a,a,a,a,a,a,a,a,a,a,a,a,a,a,a,a
a,a,a,a,a,a,a,a,a,a,a,a,a,a,a,a
NAME august title
EXT 13,11 7 1,6
PAL 7

ROOM k
a,a,a,a,a,a,a,a,a,a,a,a,a,a,a,a
a,a,a,a,a,a,a,a,a,a,a,a,a,a,a,a
a,a,a,a,a,a,a,a,a,a,a,a,a,a,a,a
a,a,a,a,a,a,a,a,a,a,a,a,a,a,a,a
a,a,a,0,0,0,0,0,0,0,0,0,0,0,a,a
a,a,a,0,2c,23,28,2d,23,25,24,23,20,0,a,a
a,a,a,0,0,0,0,0,0,0,0,0,0,0,a,a
a,a,a,a,a,a,a,a,a,a,a,a,a,a,a,a
a,a,a,a,a,a,a,a,a,a,a,a,a,a,a,a
a,a,a,a,a,a,a,a,a,a,a,a,a,a,a,a
a,a,a,a,a,a,a,a,a,a,a,a,a,a,a,a
a,a,0,0,0,0,0,0,0,0,0,0,0,0,a,a
a,a,a,a,a,a,a,a,a,a,a,a,a,a,a,a
a,a,a,a,a,a,a,a,a,a,a,a,a,a,a,a
a,a,a,a,a,a,a,a,a,a,a,a,a,a,a,a
a,a,a,a,a,a,a,a,a,a,a,a,a,a,a,a
NAME september title
EXT 13,11 8 1,6
PAL 8

ROOM l
a,a,a,a,a,a,a,a,a,a,a,a,a,a,a,a
a,a,a,a,a,a,a,a,a,a,a,a,a,a,a,a
a,a,a,a,a,a,a,a,a,a,a,a,a,a,a,a
a,a,a,a,a,a,a,a,a,a,a,a,a,a,a,a
a,a,a,0,0,0,0,0,0,0,0,0,a,a,a,a
a,a,a,0,2e,26,2d,2e,24,23,20,0,a,a,a,a
a,a,a,0,0,0,0,0,0,0,0,0,a,a,a,a
a,a,a,a,a,a,a,a,a,a,a,a,a,a,a,a
a,a,a,a,a,a,a,a,a,a,a,a,a,a,a,a
a,a,a,a,a,a,a,a,a,a,a,a,a,a,a,a
a,a,a,a,a,a,a,a,a,a,a,a,a,a,a,a
a,a,0,0,0,0,0,0,0,0,0,0,0,0,a,a
a,a,a,a,a,a,a,a,a,a,a,a,a,a,a,a
a,a,a,a,a,a,a,a,a,a,a,a,a,a,a,a
a,a,a,a,a,a,a,a,a,a,a,a,a,a,a,a
a,a,a,a,a,a,a,a,a,a,a,a,a,a,a,a
NAME october title
EXT 13,11 a 1,6
PAL 9

ROOM m
a,a,a,a,a,a,a,a,a,a,a,a,a,a,a,a
a,a,a,a,a,a,a,a,a,a,a,a,a,a,a,a
a,a,a,a,a,a,a,a,a,a,a,a,a,a,a,a
a,a,a,a,a,a,a,a,a,a,a,a,a,a,a,a
a,a,a,0,0,0,0,0,0,0,0,0,0,a,a,a
a,a,a,0,1y,2e,2f,23,25,24,23,20,0,a,a,a
a,a,a,0,0,0,0,0,0,0,0,0,0,a,a,a
a,a,a,a,a,a,a,a,a,a,a,a,a,a,a,a
a,a,a,a,a,a,a,a,a,a,a,a,a,a,a,a
a,a,a,a,a,a,a,a,a,a,a,a,a,a,a,a
a,a,a,a,a,a,a,a,a,a,a,a,a,a,a,a
a,a,0,0,0,0,0,0,0,0,0,0,0,0,a,a
a,a,a,a,a,a,a,a,a,a,a,a,a,a,a,a
a,a,a,a,a,a,a,a,a,a,a,a,a,a,a,a
a,a,a,a,a,a,a,a,a,a,a,a,a,a,a,a
a,a,a,a,a,a,a,a,a,a,a,a,a,a,a,a
NAME november title
EXT 13,11 b 1,6
PAL a

ROOM n
a,a,a,a,a,a,a,a,a,a,a,a,a,a,a,a
a,a,a,a,a,a,a,a,a,a,a,a,a,a,a,a
a,a,a,a,a,a,a,a,a,a,a,a,a,a,a,a
a,a,a,a,a,a,a,a,a,a,a,a,a,a,a,a
a,a,a,0,0,0,0,0,0,0,0,0,0,a,a,a
a,a,a,0,2g,23,26,23,25,24,23,20,0,a,a,a
a,a,a,0,0,0,0,0,0,0,0,0,0,a,a,a
a,a,a,a,a,a,a,a,a,a,a,a,a,a,a,a
a,a,a,a,a,a,a,a,a,a,a,a,a,a,a,a
a,a,a,a,a,a,a,a,a,a,a,a,a,a,a,a
a,a,a,a,a,a,a,a,a,a,a,a,a,a,a,a
a,a,0,0,0,0,0,0,0,0,0,0,0,0,a,a
a,a,a,a,a,a,a,a,a,a,a,a,a,a,a,a
a,a,a,a,a,a,a,a,a,a,a,a,a,a,a,a
a,a,a,a,a,a,a,a,a,a,a,a,a,a,a,a
a,a,a,a,a,a,a,a,a,a,a,a,a,a,a,a
NAME december title
EXT 13,11 c 1,6
PAL b

TIL 10
00000000
00000000
00000000
00011111
00100000
01001100
10011100
11111111

TIL 11
00000000
00000000
00000000
11111000
00000100
00100010
10101001
11111111

TIL 12
00010000
00010000
00010000
00010000
00111000
01000100
01000100
10000010

TIL 13
11111110
00101000
00010000
01000100
10010010
00010000
00000000
00000000
>
11111110
00101000
00010000
00000000
00000000
00000000
00000000
00000000

TIL 14
00010000
00010000
10010010
01010100
01111100
11111111
00000000
00000000
WAL true

TIL 15
00010100
00010100
00010000
00010000
00010000
00010000
00010000
00010000
>
00010100
00010100
00010100
00010000
00010000
00010000
00010000
00010000

TIL 16
00000000
00000000
00000000
00000000
00000000
00111000
01000100
11111110

TIL 17
00000100
00000100
00000100
00000100
00000100
00000100
11111111
00000000

TIL 18
01001000
11111000
10101000
10101000
10101000
10101000
10101000
11111000

TIL 19
00000000
00000000
00000000
11111000
01001000
01001000
01001000
01001000

TIL 20
00000000
00111000
01000100
01000100
01111000
01110000
01001100
00000000

TIL 21
00000000
01000010
01000010
01000010
00111100
00011000
00011000
00000000

TIL 22
00000000
01111110
01000000
01000000
01111000
01000000
01000000
00000000

TIL 23
00000000
01111100
01000000
01110000
01000000
01000000
01111100
00000000

TIL 24
00000000
01111100
01000100
01111110
01000010
01000010
01111110
00000000

TIL 25
00000000
01000010
01100110
01011010
01000010
01000010
01000010
00000000

TIL 26
00000000
01111110
01000000
01000000
01000000
01000000
01111110
00000000

TIL 27
00000000
01000010
01000010
01111110
01000010
01000010
01000010
00000000

TIL 28
00000000
01111110
01000010
01000010
01111110
01000000
01000000
00000000

TIL 29
00000000
00111110
00001000
00001000
00001000
00001000
00111110
00000000

TIL a
11111111
11111111
11111111
11111111
11111111
11111111
11111111
11111111
WAL true

TIL b
10101001
10101001
10101001
10101001
10101001
11111111
00000000
00000000
WAL true

TIL c
01001000
01001000
01001000
01001000
01001000
11111111
00000000
00000000
WAL true

TIL e
00000000
00000000
00000000
00000000
00000000
11111111
00000000
00000000
WAL true

TIL f
00011000
01111110
01000010
01000010
00100100
11111111
00000000
00000000
WAL true

TIL g
10101001
10101001
10101001
10101001
10101001
11111111
00000000
00000000
WAL true

TIL h
01101001
01101001
01101001
01101001
01101001
11111111
00000000
00000000
WAL true

TIL i
11111111
10000000
10000000
10000000
10000000
11111111
00000000
00000000
WAL true

TIL j
11111111
00000001
00000001
00000001
00000001
11111111
00000000
00000000
WAL true

TIL k
00010000
00010000
00010000
00010000
00010000
11111111
00000000
00000000
WAL true

TIL l
00000101
00000101
00000101
00000101
00000111
11111111
00000000
00000000
WAL true

TIL m
00000101
00000101
00010101
00010101
00010101
00010101
00000101
00000101

TIL n
00000000
11111111
00000011
11111101
00000101
00000101
00000101
00000101

TIL o
00000000
00000111
00001000
00011111
00010000
00010000
00010000
00010000

TIL p
00010000
00010000
00010000
00010000
00010000
00010000
00010000
00010000

TIL q
00000011
00000011
00000011
00000011
11111111
00000001
00111001
00000001

TIL r
11000000
11000000
11000000
11000000
11111111
10000000
10011100
10000000

TIL s
00000000
11111111
10000000
11000000
01000000
11111111
11000000
11111111

TIL t
00000000
11111111
00000001
00000011
00000010
11111111
00000011
11111111

TIL v
00000000
00000000
00000000
00000000
11111000
11011000
01111000
11111000
>
00000000
00000000
00000000
00000000
11111000
11111000
11011000
01111000

TIL w
00000000
00000000
00000000
00000000
00011111
00011101
00010111
00011111
>
00000000
00000000
00000000
00000000
00011111
00011111
00011101
00010111

TIL x
00011011
00011111
00010101
00011111
00011111
00000000
00000000
00000000
>
00011111
00011011
00011111
00010101
00011111
00000000
00000000
00000000

TIL y
11011000
01111000
11101000
11111000
11111000
00000000
00000000
00000000
>
11111000
11011000
01111000
11101000
11111000
00000000
00000000
00000000

TIL z
00010000
00011000
00001101
00000110
01000100
00101100
00011000
00011000

TIL 1a
00000000
00000000
00000000
11111111
10100101
10100101
10100101
10100101

TIL 1b
10100101
11111111
10010010
10010010
10010010
10010010
10010010
11111111

TIL 1c
00000100
00000100
00000100
00000100
01111100
01000100
01000100
01000100
WAL true

TIL 1d
00001010
00001010
00001010
11111010
10000010
11111110
10000010
10000010
WAL true

TIL 1e
00000000
00000000
00000000
00000000
00000000
00000000
00001110
00001010
WAL true

TIL 1f
00000011
00000100
00001000
00001000
00001000
00001000
00001100
00001011
WAL true

TIL 1g
11111111
00000000
00001111
00011100
00011100
00001111
00000000
11111111
WAL true

TIL 1h
11111111
00000000
11110000
00111000
00111000
11110000
00000000
11111111
WAL true

TIL 1i
11000000
00100000
00010000
00010000
00010000
00010000
00110000
11010000
WAL true

TIL 1j
00000011
00000011
00000011
00000011
00000011
00000011
00000011
00000011

TIL 1k
00000000
00000000
00000000
00000000
11111000
00001000
00001000
00001000

TIL 1l
00000000
00000000
00000000
00000000
00011111
00010000
00010000
00010000

TIL 1m
00010000
00010000
00010000
00010000
00011111
00000000
00000000
00000000

TIL 1n
00001000
00001000
00001000
00001000
11111000
00000000
00000000
00000000

TIL 1o
11111000
11111000
11111000
11111000
11111000
00000000
00000000
00000000

TIL 1p
00011111
00011111
00011111
00011111
00011111
00000000
00000000
00000000

TIL 1q
00000000
00000000
00000000
00000000
00011111
00011111
00011111
00011111

TIL 1r
00000000
00000000
00000000
00000000
11111000
11111000
11111000
11111000

TIL 1s
00000000
00000000
00000000
00000000
00011111
00011011
00011110
00011110
>
00000000
00000000
00000000
00000000
00011111
00011011
00011011
00011110

TIL 1t
00000000
00000000
00000000
00000000
11111000
10101000
11101000
11111000
>
00000000
00000000
00000000
00000000
11111000
10111000
10101000
11101000

TIL 1u
00011111
00011011
00011011
00011111
00011111
00000000
00000000
00000000
>
00011110
00011111
00011011
00011011
00011111
00000000
00000000
00000000

TIL 1v
11011000
01011000
01111000
11111000
11111000
00000000
00000000
00000000
>
11111000
11011000
01011000
01111000
11111000
00000000
00000000
00000000

TIL 1w
00000000
00111110
00000100
00000100
01000100
01000100
00111000
00000000

TIL 1x
00000000
00011000
00100100
01000010
01111110
01000010
01000010
00000000

TIL 1y
00000000
01000010
01100010
01010010
01001010
01000110
01000010
00000000

TIL 1z
00000000
01000010
01000010
01000010
01000010
01000010
00111100
00000000

TIL 2a
00000000
01000000
01000000
01000000
01000000
01000000
01111110
00000000

TIL 2b
00000000
01111110
01000000
01000000
01000110
01000010
01111110
00000000

TIL 2c
00000000
00111110
01000000
00111100
00000010
00000010
01111100
00000000

TIL 2d
00000000
01111110
00011000
00011000
00011000
00011000
00011000
00000000

TIL 2e
00000000
00111100
01000010
01000010
01000010
01000010
00111100
00000000

TIL 2f
00000000
01000010
01000010
00100100
00100100
00011000
00011000
00000000

TIL 2g
00000000
01111100
01000010
01000010
01000010
01000010
01111100
00000000

SPR 10
00000000
00000110
00000110
11111110
00000010
11111010
00001010
00001010
DLG SPR_1
POS 0 2,7

SPR 11
01010000
01111111
01000000
01000000
01000000
01000000
01000000
01000000
DLG SPR_2
POS 0 1,8

SPR 12
00001010
11111110
00000010
00000010
00000010
00000010
00000010
00000010
DLG SPR_3
POS 0 2,8

SPR 13
00000010
00000010
00000010
11111110
00000110
00000000
00000000
00000000
DLG SPR_4
POS 0 2,9

SPR 14
01000000
01000000
01000000
01111111
01100000
00000000
00000000
00000000
DLG SPR_5
POS 0 1,9

SPR 18
10000111
10000111
10000111
10000111
10000001
11111111
01000010
01000010
>
10000101
10000101
10000101
10000111
10000001
11111111
01000010
01000010
DLG SPR_c
POS 0 1,11

SPR 19
00000000
00000000
01000010
00100100
00011000
11111111
10000001
10000111
DLG SPR_b
POS 0 1,10

SPR 20
00000000
00000000
00000000
00011100
00100010
01000001
01000001
01000001

SPR 22
00000000
00000000
00000000
00001100
00010100
00100100
00000100
00000100

SPR 23
00000100
00000100
00000100
00111111
00000000
00000000
00000000
00000000

SPR 24
00000000
01100000
01100000
01111111
01000000
01011111
01010000
01010000
DLG SPR_t
POS 1 1,7

SPR 25
00000000
00000110
00000110
11111110
00000010
11111010
00001010
00001010
DLG SPR_s
POS 1 2,7

SPR 26
01010000
01111111
01000000
01000000
01000000
01000000
01000000
01000000
DLG SPR_r
POS 1 1,8

SPR 27
00001010
11111110
00000010
00000010
00000010
00000010
00000010
00000010
DLG SPR_q
POS 1 2,8

SPR 28
00000010
00000010
00000010
11111110
00000110
00000000
00000000
00000000
DLG SPR_p
POS 1 2,9

SPR 29
01000000
01000000
01000000
01111111
01100000
00000000
00000000
00000000
DLG SPR_o
POS 1 1,9

SPR 30
11111111
00000001
00011001
00000001
00011001
00100101
00100101
00011001
DLG SPR_13
POS 2 11,7

SPR 31
11111111
00000000
00000000
00000000
00000000
00000000
00000000
00000000
DLG SPR_12
POS 2 10,7

SPR 32
00000000
00000000
01000010
00100100
00011000
11111111
10000001
10000111
DLG SPR_11
POS 2 1,10

SPR 33
10000111
10000111
10000111
10000111
10000001
11111111
01000010
01000010
>
10000101
10000101
10000101
10000111
10000001
11111111
01000010
01000010
DLG SPR_10
POS 2 1,11

SPR 34
01000000
01000000
01000000
01111111
01100000
00000000
00000000
00000000
DLG SPR_z
POS 2 1,9

SPR 35
00000010
00000010
00000010
11111110
00000110
00000000
00000000
00000000
DLG SPR_y
POS 2 2,9

SPR 36
00001010
11111110
00000010
00000010
00000010
00000010
00000010
00000010
DLG SPR_x
POS 2 2,8

SPR 37
01010000
01111111
01000000
01000000
01000000
01000000
01000000
01000000
DLG SPR_w
POS 2 1,8

SPR 38
00000000
00000110
00000110
11111110
00000010
11111010
00001010
00001010
DLG SPR_v
POS 2 2,7

SPR 39
00000000
01100000
01100000
01111111
01000000
01011111
01010000
01010000
DLG SPR_u
POS 2 1,7

SPR 40
00000000
00000000
00000000
00001100
00010100
00100100
00000100
00000100

SPR 41
00000100
00000100
00000100
00111111
00000000
00000000
00000000
00000000

SPR 42
00000000
00000000
00000000
01111110
01000000
01000000
01000000
00111100

SPR 43
00000010
00000010
00000010
01111100
00000000
00000000
00000000
00000000

SPR 44
00000000
00000000
00000100
00000100
00001000
00001000
00010000
00010000

SPR 45
00100000
00100000
01000000
01000000
00000000
00000000
00000000
00000000

SPR 46
00000000
00000000
00000000
00011100
00100010
01000001
01000001
01000001

SPR 47
01000001
01000001
00100010
00011100
00000000
00000000
00000000
00000000

SPR 48
00000000
00000000
00000000
00000110
00001010
00010010
00100010
01000010

SPR 49
01111111
00000010
00000010
00000010
00000000
00000000
00000000
00000000

SPR 50
00000000
01100000
01100000
01111111
01000000
01011111
01010000
01010000
DLG SPR_2m
POS 5 1,7

SPR 51
00000000
00000110
00000110
11111110
00000010
11111010
00001010
00001010
DLG SPR_2l
POS 5 2,7

SPR 52
01010000
01111111
01000000
01000000
01000000
01000000
01000000
01000000
DLG SPR_2k
POS 5 1,8

SPR 53
00001010
11111110
00000010
00000010
00000010
00000010
00000010
00000010
DLG SPR_2j
POS 5 2,8

SPR 54
00000010
00000010
00000010
11111110
00000110
00000000
00000000
00000000
DLG SPR_2i
POS 5 2,9

SPR 55
01000000
01000000
01000000
01111111
01100000
00000000
00000000
00000000
DLG SPR_2h
POS 5 1,9

SPR 56
11111111
00000001
00011001
00000001
00011001
00100101
00100101
00011001
DLG SPR_2g
POS 5 11,7

SPR 57
11111111
00000000
00000000
00000000
00000000
00000000
00000000
00000000
DLG SPR_2f
POS 5 10,7

SPR 58
00000000
00000000
11111111
00000000
00000000
00000000
00000000
00000000
DLG SPR_2e
POS 5 10,8

SPR 59
00000001
00000001
11111111
00001100
00001100
00000000
00000000
00000000
DLG SPR_2d
POS 5 11,8

SPR 60
01000000
01000000
01000000
01111111
01100000
00000000
00000000
00000000
DLG SPR_2s
POS 6 1,9

SPR 61
00000010
00000010
00000010
11111110
00000110
00000000
00000000
00000000
DLG SPR_2r
POS 6 2,9

SPR 62
00001010
11111110
00000010
00000010
00000010
00000010
00000010
00000010
DLG SPR_2q
POS 6 2,8

SPR 63
01010000
01111111
01000000
01000000
01000000
01000000
01000000
01000000
DLG SPR_2p
POS 6 1,8

SPR 64
00000000
00000110
00000110
11111110
00000010
11111010
00001010
00001010
DLG SPR_2o
POS 6 2,7

SPR 65
00000000
01100000
01100000
01111111
01000000
01011111
01010000
01010000
DLG SPR_2n
POS 6 1,7

SPR 66
00000000
00000000
00000000
00111100
01000010
00000010
00000010
00000100

SPR 67
00001000
00010000
00100000
01111111
00000000
00000000
00000000
00000000

SPR 68
00000000
00000000
00000000
01111110
00000100
00001000
00010000
00111100

SPR 69
00000010
00000010
00000010
00111100
00000000
00000000
00000000
00000000

SPR 70
00000000
00000000
00000000
00000110
00001010
00010010
00100010
01000010

SPR 71
01111111
00000010
00000010
00000010
00000000
00000000
00000000
00000000

SPR 72
00000000
00000000
00000100
00000100
00001000
00001000
00010000
00010000

SPR 73
00100000
00100000
01000000
01000000
00000000
00000000
00000000
00000000

SPR 74
00000000
00000000
00000000
00011100
00100010
01000001
01000001
01000001

SPR 75
01000001
01000001
00100010
00011100
00000000
00000000
00000000
00000000

SPR 76
00000000
00000000
00000000
00011110
00100001
00100001
00100001
00011110

SPR 77
00100001
00100001
00100001
00011110
00000000
00000000
00000000
00000000

SPR 78
00000000
00000000
01000010
00100100
00011000
11111111
10000001
10000111
DLG SPR_3q
POS 8 1,10

SPR 79
10000111
10000111
10000111
10000111
10000001
11111111
01000010
01000010
>
10000101
10000101
10000101
10000111
10000001
11111111
01000010
01000010
DLG SPR_3p
POS 8 1,11

SPR 80
10111101
10000001
10011001
10000101
10000001
11111111
10000001
10000001
DLG SPR_4b
POS a 14,11

SPR 81
11111111
10000001
10111101
10100101
10100101
10100101
10100101
10100101
DLG SPR_5a
POS a 14,10

SPR 82
10000111
10000111
10000111
10000111
10000001
11111111
01000010
01000010
>
10000101
10000101
10000101
10000111
10000001
11111111
01000010
01000010
DLG SPR_4d
POS a 1,11

SPR 83
00000000
00000000
01000010
00100100
00011000
11111111
10000001
10000111
DLG SPR_4c
POS a 1,10

SPR 84
00000000
00000000
01000010
00100100
00011000
11111111
10000001
10000111
DLG SPR_4t
POS b 1,10

SPR 85
10000111
10000111
10000111
10000111
10000001
11111111
01000010
01000010
>
10000101
10000101
10000101
10000111
10000001
11111111
01000010
01000010
DLG SPR_4s
POS b 1,11

SPR 86
11111111
10000001
10111101
10100101
10100101
10100101
10100101
10100101
DLG SPR_4r
POS b 14,10

SPR 87
10111101
10000001
10011001
10000101
10000001
11111111
10000001
10000001
DLG SPR_4q
POS b 14,11

SPR 88
11111111
00000001
00011001
00000001
00011001
00100101
00100101
00011001
DLG SPR_4p
POS b 11,7

SPR 89
11111111
00000000
00000000
00000000
00000000
00000000
00000000
00000000
DLG SPR_4o
POS b 10,7

SPR A
00011000
00011000
00011000
00111100
01111110
10111101
00100100
00100100
POS 9 2,11

SPR z
00000000
01100000
01100000
01111111
01000000
01011111
01010000
01010000
DLG SPR_0
POS 0 1,7

SPR 1e
11111111
00000000
00000000
00000000
10000000
01000000
01000000
10000000
DLG SPR_6
POS 0 10,7

SPR 1f
11111111
00000001
00011001
00000001
00011001
00100101
00100101
00011001
DLG SPR_7
POS 0 11,7

SPR 1g
00000000
00000000
11111111
00000000
00000000
00000000
00000000
00000000
DLG SPR_9
POS 0 10,8

SPR 1h
00000001
00000001
11111111
00001100
00001100
00000000
00000000
00000000
DLG SPR_5c
POS 0 11,8

SPR 1i
00001000
00001000
00001111
00000011
00000011
00000000
00000000
00000000
DLG SPR_8
POS 0 9,8

SPR 1j
00001111
00001000
00001000
00001000
00001001
00001010
00001010
00001001
DLG SPR_a
POS 0 9,7

SPR 1o
10111101
10000001
10011001
10000101
10000001
11111111
10000001
10000001
DLG SPR_d
POS 0 14,11

SPR 1p
11111111
10000001
10111101
10100101
10100101
10100101
10100101
10100101
DLG SPR_1q
POS 0 14,10

SPR 1t
00000000
00000000
00000000
00111100
01000010
00000010
00000010
00000100

SPR 1u
00001000
00010000
00100000
01111111
00000000
00000000
00000000
00000000

SPR 1v
00000000
00000000
00000000
01111110
00000010
00000010
00000100
00000100

SPR 1w
00001000
00001000
00010000
00010000
00000000
00000000
00000000
00000000

SPR 1x
00000000
00000000
00000100
00000100
00001000
00001000
00010000
00010000

SPR 1y
00100000
00100000
01000000
01000000
00000000
00000000
00000000
00000000

SPR 1z
01000001
01000001
00100010
00011100
00000000
00000000
00000000
00000000

SPR 2a
10000111
10000111
10000111
10000111
10000001
11111111
01000010
01000010
>
10000101
10000101
10000101
10000111
10000001
11111111
01000010
01000010
DLG SPR_n
POS 1 1,11

SPR 2b
00000000
00000000
01000010
00100100
00011000
11111111
10000001
10000111
DLG SPR_m
POS 1 1,10

SPR 2c
11111111
00000000
00000000
00000000
10000000
01000000
01000000
10000000
DLG SPR_l
POS 1 10,7

SPR 2d
11111111
00000001
00011001
00000001
00011001
00100101
00100101
00011001
DLG SPR_k
POS 1 11,7

SPR 2e
00000000
00000000
11111111
00000000
00000000
00000000
00000000
00000000
DLG SPR_j
POS 1 10,8

SPR 2f
00000001
00000001
11111111
00001100
00001100
00000000
00000000
00000000
DLG SPR_i
POS 1 11,8

SPR 2g
00001000
00001000
00001111
00000011
00000011
00000000
00000000
00000000
DLG SPR_h
POS 1 9,8

SPR 2h
00001111
00001000
00001000
00001000
00001001
00001010
00001010
00001001
DLG SPR_g
POS 1 9,7

SPR 2i
10111101
10000001
10011001
10000101
10000001
11111111
10000001
10000001
DLG SPR_f
POS 1 14,11

SPR 2j
11111111
10000001
10111101
10100101
10100101
10100101
10100101
10100101
DLG SPR_e
POS 1 14,10

SPR 2k
00000000
00000000
00000000
00001100
00010100
00100100
00000100
00000100

SPR 2l
00000100
00000100
00000100
00111111
00000000
00000000
00000000
00000000

SPR 2m
00000000
00000000
00000000
00011110
00100001
00100001
00100001
00011110

SPR 2n
00100001
00100001
00100001
00011110
00000000
00000000
00000000
00000000

SPR 2o
00000000
00000000
00000100
00000100
00001000
00001000
00010000
00010000

SPR 2p
00100000
00100000
01000000
01000000
00000000
00000000
00000000
00000000

SPR 2q
01000001
01000001
00100010
00011100
00000000
00000000
00000000
00000000

SPR 2r
00000000
00000000
00000000
00011100
00100010
01000001
01000001
01000001

SPR 2s
00000000
00000000
00000000
00111100
01000010
00000010
00000010
00000100

SPR 2t
00001000
00010000
00100000
01111111
00000000
00000000
00000000
00000000

SPR 2u
11111111
10000001
10111101
10100101
10100101
10100101
10100101
10100101
DLG SPR_1r
POS 2 14,10

SPR 2v
10111101
10000001
10011001
10000101
10000001
11111111
10000001
10000001
DLG SPR_18
POS 2 14,11

SPR 2w
00001111
00001000
00001000
00001000
00001000
00001000
00001000
00001000
DLG SPR_17
POS 2 9,7

SPR 2x
00001000
00001000
00001111
00000011
00000011
00000000
00000000
00000000
DLG SPR_16
POS 2 9,8

SPR 2y
00000001
00000001
11111111
00001100
00001100
00000000
00000000
00000000
DLG SPR_15
POS 2 11,8

SPR 2z
00000000
00000000
11111111
00000000
00000000
00000000
00000000
00000000
DLG SPR_14
POS 2 10,8

SPR 3a
00000000
00000000
00000000
00111100
01000010
00000010
00000010
00000100

SPR 3b
00001000
00010000
00100000
01111111
00000000
00000000
00000000
00000000

SPR 3c
00000000
00000000
00000000
00011100
00100010
01000001
01000001
01000001

SPR 3d
01000001
01000001
00100010
00011100
00000000
00000000
00000000
00000000

SPR 3e
00000000
00000000
00000100
00000100
00001000
00001000
00010000
00010000

SPR 3f
00100000
00100000
01000000
01000000
00000000
00000000
00000000
00000000

SPR 3g
00000000
00000000
00000000
00011100
00100010
01000001
01000001
01000001

SPR 3h
01000001
01000001
00100010
00011100
00000000
00000000
00000000
00000000

SPR 3i
00000000
01100000
01100000
01111111
01000000
01011111
01010000
01010000
DLG SPR_1o
POS 3 1,7

SPR 3j
00000000
00000110
00000110
11111110
00000010
11111010
00001010
00001010
DLG SPR_1n
POS 3 2,7

SPR 3k
01010000
01111111
01000000
01000000
01000000
01000000
01000000
01000000
DLG SPR_1m
POS 3 1,8

SPR 3l
00001010
11111110
00000010
00000010
00000010
00000010
00000010
00000010
DLG SPR_1l
POS 3 2,8

SPR 3m
00000010
00000010
00000010
11111110
00000110
00000000
00000000
00000000
DLG SPR_1k
POS 3 2,9

SPR 3n
01000000
01000000
01000000
01111111
01100000
00000000
00000000
00000000
DLG SPR_1j
POS 3 1,9

SPR 3o
11111111
00000001
00011001
00000001
00011001
00100101
00100101
00011001
DLG SPR_1i
POS 3 11,7

SPR 3p
00000000
00000000
11111111
00000000
00000000
00000000
00000000
00000000
DLG SPR_1h
POS 3 10,8

SPR 3q
11111111
00000000
00000000
00000000
00000000
00000000
00000000
00000000
DLG SPR_1g
POS 3 10,7

SPR 3r
00000001
00000001
11111111
00001100
00001100
00000000
00000000
00000000
DLG SPR_1f
POS 3 11,8

SPR 3s
00001000
00001000
00001111
00000011
00000011
00000000
00000000
00000000
DLG SPR_1e
POS 3 9,8

SPR 3t
00001111
00001000
00001000
00001000
00001000
00001000
00001000
00001000
DLG SPR_1d
POS 3 9,7

SPR 3u
10111101
10000001
10011001
10000101
10000001
11111111
10000001
10000001
DLG SPR_19
POS 3 14,11

SPR 3v
11111111
10000001
10111101
10100101
10100101
10100101
10100101
10100101
DLG SPR_1b
POS 3 14,10

SPR 3w
10000111
10000111
10000111
10000111
10000001
11111111
01000010
01000010
>
10000101
10000101
10000101
10000111
10000001
11111111
01000010
01000010
DLG SPR_1c
POS 3 1,11

SPR 3x
00000000
00000000
01000010
00100100
00011000
11111111
10000001
10000111
DLG SPR_1a
POS 3 1,10

SPR 3y
00000000
00000000
00000000
00000110
00001010
00010010
00100010
01000010

SPR 3z
01111111
00000010
00000010
00000010
00000000
00000000
00000000
00000000

SPR 4a
00000000
00000000
01000010
00100100
00011000
11111111
10000001
10000111
DLG SPR_25
POS 4 1,10

SPR 4b
10000111
10000111
10000111
10000111
10000001
11111111
01000010
01000010
>
10000101
10000101
10000101
10000111
10000001
11111111
01000010
01000010
DLG SPR_26
POS 4 1,11

SPR 4c
11111111
10000001
10111101
10100101
10100101
10100101
10100101
10100101
DLG SPR_1t
POS 4 14,10

SPR 4d
10111101
10000001
10011001
10000101
10000001
11111111
10000001
10000001
DLG SPR_1s
POS 4 14,11

SPR 4e
00001111
00001000
00001000
00001000
00001000
00001000
00001000
00001000
DLG SPR_24
POS 4 9,7

SPR 4f
00001000
00001000
00001111
00000011
00000011
00000000
00000000
00000000
DLG SPR_23
POS 4 9,8

SPR 4g
00000001
00000001
11111111
00001100
00001100
00000000
00000000
00000000
DLG SPR_22
POS 4 11,8

SPR 4h
00000000
00000000
11111111
00000000
00000000
00000000
00000000
00000000
DLG SPR_21
POS 4 10,8

SPR 4i
11111111
00000000
00000000
00000000
00000000
00000000
00000000
00000000
DLG SPR_20
POS 4 10,7

SPR 4j
11111111
00000001
00011001
00000001
00011001
00100101
00100101
00011001
DLG SPR_1z
POS 4 11,7

SPR 4k
01000000
01000000
01000000
01111111
01100000
00000000
00000000
00000000
DLG SPR_1y
POS 4 1,9

SPR 4l
00000010
00000010
00000010
11111110
00000110
00000000
00000000
00000000
DLG SPR_1x
POS 4 2,9

SPR 4m
00001010
11111110
00000010
00000010
00000010
00000010
00000010
00000010
DLG SPR_1w
POS 4 2,8

SPR 4n
01010000
01111111
01000000
01000000
01000000
01000000
01000000
01000000
DLG SPR_1v
POS 4 1,8

SPR 4o
00000000
00000110
00000110
11111110
00000010
11111010
00001010
00001010
DLG SPR_1u
POS 4 2,7

SPR 4p
00000000
01100000
01100000
01111111
01000000
01011111
01010000
01010000
DLG SPR_1p
POS 4 1,7

SPR 4q
00000000
00000000
00000000
00011100
00100010
01000001
01000001
01000001

SPR 4r
01000001
01000001
00100010
00011100
00000000
00000000
00000000
00000000

SPR 4s
00000000
00000000
00000000
00011110
00100001
00100001
00100001
00011110

SPR 4t
00100001
00100001
00100001
00011110
00000000
00000000
00000000
00000000

SPR 4u
00000000
00000000
00000100
00000100
00001000
00001000
00010000
00010000

SPR 4v
00100000
00100000
01000000
01000000
00000000
00000000
00000000
00000000

SPR 4w
00000000
00000000
00000000
00011100
00100010
01000001
01000001
01000001

SPR 4x
01000001
01000001
00100010
00011100
00000000
00000000
00000000
00000000

SPR 4y
00000000
00000000
00000000
01111110
01000000
01000000
01000000
00111100

SPR 4z
00000010
00000010
00000010
01111100
00000000
00000000
00000000
00000000

SPR 5a
00001000
00001000
00001111
00000011
00000011
00000000
00000000
00000000
DLG SPR_2c
POS 5 9,8

SPR 5b
00001111
00001000
00001000
00001000
00001000
00001000
00001000
00001000
DLG SPR_2b
POS 5 9,7

SPR 5c
10111101
10000001
10011001
10000101
10000001
11111111
10000001
10000001
DLG SPR_2a
POS 5 14,11

SPR 5d
11111111
10000001
10111101
10100101
10100101
10100101
10100101
10100101
DLG SPR_29
POS 5 14,10

SPR 5e
10000111
10000111
10000111
10000111
10000001
11111111
01000010
01000010
>
10000101
10000101
10000101
10000111
10000001
11111111
01000010
01000010
DLG SPR_28
POS 5 1,11

SPR 5f
00000000
00000000
01000010
00100100
00011000
11111111
10000001
10000111
DLG SPR_27
POS 5 1,10

SPR 5g
00000000
00000000
00000000
00001100
00010100
00100100
00000100
00000100

SPR 5h
00000100
00000100
00000100
00111111
00000000
00000000
00000000
00000000

SPR 5i
00000000
00000000
00000000
00001000
00010000
00100000
00100000
00111100

SPR 5j
00100010
00100010
00100010
00011100
00000000
00000000
00000000
00000000

SPR 5k
00000000
00000000
00000100
00000100
00001000
00001000
00010000
00010000

SPR 5l
00100000
00100000
01000000
01000000
00000000
00000000
00000000
00000000

SPR 5m
00000000
00000000
00000000
00011100
00100010
01000001
01000001
01000001

SPR 5n
01000001
01000001
00100010
00011100
00000000
00000000
00000000
00000000

SPR 5o
00000000
00000000
00000000
00001000
00010000
00100000
00100000
00111100

SPR 5p
00100010
00100010
00100010
00011100
00000000
00000000
00000000
00000000

SPR 5q
00000000
00000000
01000010
00100100
00011000
11111111
10000001
10000111
DLG SPR_5b
POS 6 1,10

SPR 5r
10000111
10000111
10000111
10000111
10000001
11111111
01000010
01000010
>
10000101
10000101
10000101
10000111
10000001
11111111
01000010
01000010
DLG SPR_31
POS 6 1,11

SPR 5s
11111111
10000001
10111101
10100101
10100101
10100101
10100101
10100101
DLG SPR_30
POS 6 14,10

SPR 5t
10111101
10000001
10011001
10000101
10000001
11111111
10000001
10000001
DLG SPR_2z
POS 6 14,11

SPR 5u
00001111
00001000
00001000
00001000
00001000
00001000
00001000
00001000
DLG SPR_2y
POS 6 9,7

SPR 5v
00001000
00001000
00001111
00000011
00000011
00000000
00000000
00000000
DLG SPR_2x
POS 6 9,8

SPR 5w
00000001
00000001
11111111
00001100
00001100
00000000
00000000
00000000
DLG SPR_2w
POS 6 11,8

SPR 5x
00000000
00000000
11111111
00000000
00000000
00000000
00000000
00000000
DLG SPR_2v
POS 6 10,8

SPR 5y
11111111
00000000
00000000
00000000
00000000
00000000
00000000
00000000
DLG SPR_2u
POS 6 10,7

SPR 5z
11111111
00000001
00011001
00000001
00011001
00100101
00100101
00011001
DLG SPR_2t
POS 6 11,7

SPR 6a
00000000
00000000
00000000
01111110
00000100
00001000
00010000
00111100

SPR 6b
00000010
00000010
00000010
00111100
00000000
00000000
00000000
00000000

SPR 6c
00000000
00000000
00000100
00000100
00001000
00001000
00010000
00010000

SPR 6d
00100000
00100000
01000000
01000000
00000000
00000000
00000000
00000000

SPR 6e
00000000
00000000
00000000
00011100
00100010
01000001
01000001
01000001

SPR 6f
01000001
01000001
00100010
00011100
00000000
00000000
00000000
00000000

SPR 6g
00000000
00000000
00000000
01111110
00000010
00000010
00000100
00000100

SPR 6h
00001000
00001000
00010000
00010000
00000000
00000000
00000000
00000000
DLG SPR_3i

SPR 6i
00000000
01100000
01100000
01111111
01000000
01011111
01010000
01010000
DLG SPR_3h
POS 7 1,7

SPR 6j
00000000
00000110
00000110
11111110
00000010
11111010
00001010
00001010
DLG SPR_3g
POS 7 2,7

SPR 6k
01010000
01111111
01000000
01000000
01000000
01000000
01000000
01000000
DLG SPR_3f
POS 7 1,8

SPR 6l
00001010
11111110
00000010
00000010
00000010
00000010
00000010
00000010
DLG SPR_3e
POS 7 2,8

SPR 6m
00000010
00000010
00000010
11111110
00000110
00000000
00000000
00000000
DLG SPR_3d
POS 7 2,9

SPR 6n
01000000
01000000
01000000
01111111
01100000
00000000
00000000
00000000
DLG SPR_3c
POS 7 1,9

SPR 6o
11111111
00000001
00011001
00000001
00011001
00100101
00100101
00011001
DLG SPR_3b
POS 7 11,7

SPR 6p
11111111
00000000
00000000
00000000
00000000
00000000
00000000
00000000
DLG SPR_3a
POS 7 10,7

SPR 6q
00000000
00000000
11111111
00000000
00000000
00000000
00000000
00000000
DLG SPR_39
POS 7 10,8

SPR 6r
00000001
00000001
11111111
00001100
00001100
00000000
00000000
00000000
DLG SPR_38
POS 7 11,8

SPR 6s
00001000
00001000
00001111
00000011
00000011
00000000
00000000
00000000
DLG SPR_37
POS 7 9,8

SPR 6t
00001111
00001000
00001000
00001000
00001000
00001000
00001000
00001000
DLG SPR_36
POS 7 9,7

SPR 6u
10111101
10000001
10011001
10000101
10000001
11111111
10000001
10000001
DLG SPR_35
POS 7 14,11

SPR 6v
11111111
10000001
10111101
10100101
10100101
10100101
10100101
10100101
DLG SPR_34
POS 7 14,10

SPR 6w
10000111
10000111
10000111
10000111
10000001
11111111
01000010
01000010
>
10000101
10000101
10000101
10000111
10000001
11111111
01000010
01000010
DLG SPR_33
POS 7 1,11

SPR 6x
00000000
00000000
01000010
00100100
00011000
11111111
10000001
10000111
DLG SPR_32
POS 7 1,10

SPR 6y
00000000
00000000
00000000
00001100
00010100
00100100
00000100
00000100

SPR 6z
00000100
00000100
00000100
00111111
00000000
00000000
00000000
00000000

SPR 7a
11111111
10000001
10111101
10100101
10100101
10100101
10100101
10100101
DLG SPR_3x
POS 8 14,10

SPR 7b
10111101
10000001
10011001
10000101
10000001
11111111
10000001
10000001
DLG SPR_3y
POS 8 14,11

SPR 7c
11111111
00000001
00011001
00000001
00011001
00100101
00100101
00011001
DLG SPR_3r
POS 8 11,7

SPR 7d
11111111
00000000
00000000
00000000
00000000
00000000
00000000
00000000
DLG SPR_3s
POS 8 10,7

SPR 7e
00001111
00001000
00001000
00001000
00001000
00001000
00001000
00001000
DLG SPR_3t
POS 8 9,7

SPR 7f
00001000
00001000
00001111
00000011
00000011
00000000
00000000
00000000
DLG SPR_3u
POS 8 9,8

SPR 7g
00000001
00000001
11111111
00001100
00001100
00000000
00000000
00000000
DLG SPR_3v
POS 8 11,8

SPR 7h
00000000
00000000
11111111
00000000
00000000
00000000
00000000
00000000
DLG SPR_3w
POS 8 10,8

SPR 7i
01000000
01000000
01000000
01111111
01100000
00000000
00000000
00000000
DLG SPR_3o
POS 8 1,9

SPR 7j
00000010
00000010
00000010
11111110
00000110
00000000
00000000
00000000
DLG SPR_3n
POS 8 2,9

SPR 7k
00001010
11111110
00000010
00000010
00000010
00000010
00000010
00000010
DLG SPR_3m
POS 8 2,8

SPR 7l
01010000
01111111
01000000
01000000
01000000
01000000
01000000
01000000
DLG SPR_3l
POS 8 1,8

SPR 7m
00000000
00000110
00000110
11111110
00000010
11111010
00001010
00001010
DLG SPR_3k
POS 8 2,7

SPR 7n
00000000
01100000
01100000
01111111
01000000
01011111
01010000
01010000
DLG SPR_3j
POS 8 1,7

SPR 7o
00000000
01100000
01100000
01111111
01000000
01011111
01010000
01010000
DLG SPR_3z
POS a 1,7

SPR 7p
00000000
00000110
00000110
11111110
00000010
11111010
00001010
00001010
DLG SPR_40
POS a 2,7

SPR 7q
01010000
01111111
01000000
01000000
01000000
01000000
01000000
01000000
DLG SPR_41
POS a 1,8

SPR 7r
00001010
11111110
00000010
00000010
00000010
00000010
00000010
00000010
DLG SPR_42
POS a 2,8

SPR 7s
00000010
00000010
00000010
11111110
00000110
00000000
00000000
00000000
DLG SPR_43
POS a 2,9

SPR 7t
01000000
01000000
01000000
01111111
01100000
00000000
00000000
00000000
DLG SPR_44
POS a 1,9

SPR 7u
00000000
00000000
11111111
00000000
00000000
00000000
00000000
00000000
DLG SPR_45
POS a 10,8

SPR 7v
00000001
00000001
11111111
00001100
00001100
00000000
00000000
00000000
DLG SPR_46
POS a 11,8

SPR 7w
00001000
00001000
00001111
00000011
00000011
00000000
00000000
00000000
DLG SPR_47
POS a 9,8

SPR 7x
00001111
00001000
00001000
00001000
00001000
00001000
00001000
00001000
DLG SPR_48
POS a 9,7

SPR 7y
11111111
00000000
00000000
00000000
00000000
00000000
00000000
00000000
DLG SPR_49
POS a 10,7

SPR 7z
11111111
00000001
00011001
00000001
00011001
00100101
00100101
00011001
DLG SPR_4a
POS a 11,7

SPR 8a
00001111
00001000
00001000
00001000
00001000
00001000
00001000
00001000
DLG SPR_4n
POS b 9,7

SPR 8b
00001000
00001000
00001111
00000011
00000011
00000000
00000000
00000000
DLG SPR_4m
POS b 9,8

SPR 8c
00000001
00000001
11111111
00001100
00001100
00000000
00000000
00000000
DLG SPR_4l
POS b 11,8

SPR 8d
00000000
00000000
11111111
00000000
00000000
00000000
00000000
00000000
DLG SPR_4k
POS b 10,8

SPR 8e
01000000
01000000
01000000
01111111
01100000
00000000
00000000
00000000
DLG SPR_4j
POS b 1,9

SPR 8f
00000010
00000010
00000010
11111110
00000110
00000000
00000000
00000000
DLG SPR_4i
POS b 2,9

SPR 8g
00001010
11111110
00000010
00000010
00000010
00000010
00000010
00000010
DLG SPR_4h
POS b 2,8

SPR 8h
01010000
01111111
01000000
01000000
01000000
01000000
01000000
01000000
DLG SPR_4g
POS b 1,8

SPR 8i
00000000
00000110
00000110
11111110
00000010
11111010
00001010
00001010
DLG SPR_4f
POS b 2,7

SPR 8j
00000000
01100000
01100000
01111111
01000000
01011111
01010000
01010000
DLG SPR_4e
POS b 1,7

SPR 8k
00000000
01100000
01100000
01111111
01000000
01011111
01010000
01010000
DLG SPR_4u
POS c 1,7

SPR 8l
00000000
00000110
00000110
11111110
00000010
11111010
00001010
00001010
DLG SPR_4v
POS c 2,7

SPR 8m
01010000
01111111
01000000
01000000
01000000
01000000
01000000
01000000
DLG SPR_4w
POS c 1,8

SPR 8n
00001010
11111110
00000010
00000010
00000010
00000010
00000010
00000010
DLG SPR_4x
POS c 2,8

SPR 8o
00000010
00000010
00000010
11111110
00000110
00000000
00000000
00000000
DLG SPR_4y
POS c 2,9

SPR 8p
01000000
01000000
01000000
01111111
01100000
00000000
00000000
00000000
DLG SPR_4z
POS c 1,9

SPR 8q
00000001
00000001
11111111
00001100
00001100
00000000
00000000
00000000
DLG SPR_50
POS c 11,8

SPR 8r
00000000
00000000
11111111
00000000
00000000
00000000
00000000
00000000
DLG SPR_51
POS c 10,8

SPR 8s
00001000
00001000
00001111
00000011
00000011
00000000
00000000
00000000
DLG SPR_52
POS c 9,8

SPR 8t
00001111
00001000
00001000
00001000
00001000
00001000
00001000
00001000
DLG SPR_53
POS c 9,7

SPR 8u
11111111
00000000
00000000
00000000
00000000
00000000
00000000
00000000
DLG SPR_54
POS c 10,7

SPR 8v
11111111
00000001
00011001
00000001
00011001
00100101
00100101
00011001
DLG SPR_55
POS c 11,7

SPR 8w
10111101
10000001
10011001
10000101
10000001
11111111
10000001
10000001
DLG SPR_56
POS c 14,11

SPR 8x
11111111
10000001
10111101
10100101
10100101
10100101
10100101
10100101
DLG SPR_57
POS c 14,10

SPR 8y
10000111
10000111
10000111
10000111
10000001
11111111
01000010
01000010
>
10000101
10000101
10000101
10000111
10000001
11111111
01000010
01000010
DLG SPR_59
POS c 1,11

SPR 8z
00000000
00000000
01000010
00100100
00011000
11111111
10000001
10000111
DLG SPR_58
POS c 1,10

ITM 0
00000110
00001001
00001001
00010010
00100010
01111100
01100000
00000000
NAME amulet
DLG ITM_0

ITM 1
01111111
11000001
11010101
11010101
11000001
11111111
11111110
00000000
DLG ITM_1

ITM 2
00000000
00000000
00000000
00000000
00000000
00000000
00000000
00000000
DLG ITM_2

ITM 3
00000000
00000000
00000000
00000000
00000000
00000000
00000000
00000000
DLG ITM_3

ITM 4
00000000
00000000
00000000
00000000
00000000
00000000
00000000
00000000
DLG ITM_4

ITM 5
00000000
00000000
00000000
00000000
00000000
00000000
00000000
00000000
DLG ITM_5

ITM 6
00000000
00000000
00000000
00000000
00000000
00000000
00000000
00000000
DLG ITM_6

ITM 7
00000000
00000000
00000000
00000000
00000000
00000000
00000000
00000000
DLG ITM_7

ITM 8
00000100
00001110
00011001
00110100
01100010
11010000
01001000
00100000
DLG ITM_8

ITM 9
00001000
00010100
00100010
01001001
10000010
01000100
00101000
00010000
DLG ITM_9

ITM a
01111111
11000001
11010101
11010101
11000001
11111111
11111110
00000000
DLG ITM_a

ITM b
00000000
00000000
00000000
00000000
00111110
01100011
11000001
11111111
DLG ITM_b

DLG ITM_0
her necklace. left behind.

DLG SPR_0
our bed. cold, empty. sheets are unmade. they still smell like her.

DLG SPR_1
our bed. cold, empty. sheets are unmade. they still smell like her.

DLG SPR_2
our bed. cold, empty. sheets are unmade. they still smell like her.

DLG SPR_3
our bed. cold, empty. sheets are unmade. they still smell like her.

DLG SPR_4
our bed. cold, empty. sheets are unmade. they still smell like her.

DLG SPR_5
our bed. cold, empty. sheets are unmade. they still smell like her.

DLG SPR_6
two places set. she comes home from work at four. i make dinner at six. two places set.

DLG SPR_7
two places set. she comes home from work at four. i make dinner at six. two places set.

DLG SPR_8
two places set. she comes home from work at four. i make dinner at six. two places set.

DLG SPR_9
two places set. she comes home from work at four. i make dinner at six. two places set.

DLG SPR_a
two places set. she comes home from work at four. i make dinner at six. two places set.

DLG SPR_b
the television flickers. my eyes won't focus on the images before me. time passes with careless abundance.

DLG SPR_c
the television flickers. my eyes won't focus on the images before me. time passes with careless abundance.

DLG SPR_d
my writing desk. i need to write, a speech? for who? who listens to my words now? she'll be home soon.

DLG ITM_1
one of her favourite books. a leatherbound copy of a fiction novel. the pages well read.

DLG ITM_2
"""
...
...
... she's gone.
...
she's gone.
oh my god she's gone.
she's gone she's gone she's gone she's gone she's gone she's gone
...
...
please.
...
...
you can't be gone.
"""

DLG SPR_e
she can't be gone.

DLG SPR_f
she can't be gone.

DLG SPR_g
she can't be gone.

DLG SPR_h
she can't be gone.

DLG SPR_i
she can't be gone.

DLG SPR_j
she can't be gone.

DLG SPR_k
she can't be gone.

DLG SPR_l
she can't be gone.

DLG SPR_m
she can't be gone.

DLG SPR_n
she can't be gone.

DLG SPR_o
she can't be gone.

DLG SPR_p
she can't be gone.

DLG SPR_q
she can't be gone.

DLG SPR_r
she can't be gone.

DLG SPR_s
she can't be gone.

DLG SPR_t
she can't be gone.

DLG SPR_u
the bed is too hot. and she fucking left. the sunlight woke me early, burning into my retinas. now it's black outside.

DLG SPR_v
the bed is too hot. and she fucking left. the sunlight woke me early, burning into my retinas. now it's black outside.

DLG SPR_w
the bed is too hot. and she fucking left. the sunlight woke me early, burning into my retinas. now it's black outside.

DLG SPR_x
the bed is too hot. and she fucking left. the sunlight woke me early, burning into my retinas. now it's black outside.

DLG SPR_y
the bed is too hot. and she fucking left. the sunlight woke me early, burning into my retinas. now it's black outside.

DLG SPR_z
the bed is too hot. and she fucking left. the sunlight woke me early, burning into my retinas. now it's black outside.

DLG SPR_10
flicking through the channels. it's all bullshit. wars rage. politicians argue. she left.

DLG SPR_11
flicking through the channels. it's all bullshit. wars rage. politicians argue. she left.

DLG SPR_12
i clear her plate away. she doesn't need it anymore. i throw it in the sink too hard, and it smashes.

DLG SPR_13
i clear her plate away. she doesn't need it anymore. i throw it in the sink too hard, and it smashes.

DLG SPR_14
i clear her plate away. she doesn't need it anymore. i throw it in the sink too hard, and it smashes.

DLG SPR_15
i clear her plate away. she doesn't need it anymore. i throw it in the sink too hard, and it smashes.

DLG SPR_16
i clear her plate away. she doesn't need it anymore. i throw it in the sink too hard, and it smashes.

DLG SPR_17
i clear her plate away. she doesn't need it anymore. i throw it in the sink too hard, and it smashes.

DLG SPR_18
"""
i write furiously. mountains of papers detailing my angers with every stroke of my pen. i write letters to the grave, asking her. 
'why?'
"""

DLG SPR_19
why did she leave?

DLG SPR_1a
why did she leave?

DLG SPR_1b
why did she leave?

DLG SPR_1c
why did she leave?

DLG SPR_1d
why did she leave?

DLG SPR_1e
why did she leave?

DLG SPR_1f
why did she leave?

DLG SPR_1g
why did she leave?

DLG SPR_1h
why did she leave?

DLG SPR_1i
why did she leave?

DLG SPR_1j
why did she leave?

DLG SPR_1k
why did she leave?

DLG SPR_1l
why did she leave?

DLG SPR_1m
why did she leave?

DLG SPR_1n
why did she leave?

DLG SPR_1o
why did she leave?

DLG ITM_3
"""
...
...
...
... i'm sorry
i'm so sorry for my anger my love
...
...
...
i'm sorry
...
i know you didn't mean to leave
"""

DLG SPR_1p
it's too bright to sleep in late. i start going to church on sundays, looking for answers between the pages of a book, like i always have.

DLG SPR_1q
my writing desk. i need to write, a speech? for who? who listens to my words now? she'll be home soon.

DLG SPR_1r
"""
i write furiously. mountains of papers detailing my angers with every stroke of my pen. i write letters to the grave, asking her. 
'why?'
"""

DLG SPR_1s
i write letters to the preacher, begging for forgiveness. i ask for answers. i write essays on how i can fix this. fix the gaping hole in my stomach. i write poems to god, asking for her to be returned.

DLG SPR_1t
i write letters to the preacher, begging for forgiveness. i ask for answers. i write essays on how i can fix this. fix the gaping hole in my stomach. i write poems to god, asking for her to be returned.

DLG SPR_1u
it's too bright to sleep in late. i start going to church on sundays, looking for answers between the pages of a book, like i always have.

DLG SPR_1v
it's too bright to sleep in late. i start going to church on sundays, looking for answers between the pages of a book, like i always have.

DLG SPR_1w
it's too bright to sleep in late. i start going to church on sundays, looking for answers between the pages of a book, like i always have.

DLG SPR_1x
it's too bright to sleep in late. i start going to church on sundays, looking for answers between the pages of a book, like i always have.

DLG SPR_1y
it's too bright to sleep in late. i start going to church on sundays, looking for answers between the pages of a book, like i always have.

DLG SPR_1z
i forget to eat sometimes. i can almost hear her voice berating me. the things i would do to hear that again.

DLG SPR_20
i forget to eat sometimes. i can almost hear her voice berating me. the things i would do to hear that again.

DLG SPR_21
i forget to eat sometimes. i can almost hear her voice berating me. the things i would do to hear that again.

DLG SPR_22
i forget to eat sometimes. i can almost hear her voice berating me. the things i would do to hear that again.

DLG SPR_23
i forget to eat sometimes. i can almost hear her voice berating me. the things i would do to hear that again.

DLG SPR_24
i forget to eat sometimes. i can almost hear her voice berating me. the things i would do to hear that again.

DLG SPR_25
i watch tv, but i'm just consuming media. documentaries, daily news, it's all the same.

DLG SPR_26
i watch tv, but i'm just consuming media. documentaries, daily news, it's all the same.

DLG SPR_27
please bring her back.

DLG SPR_28
please bring her back.

DLG SPR_29
please bring her back.

DLG SPR_2a
please bring her back.

DLG SPR_2b
please bring her back.

DLG SPR_2c
please bring her back.

DLG SPR_2d
please bring her back.

DLG SPR_2e
please bring her back.

DLG SPR_2f
please bring her back.

DLG SPR_2g
please bring her back.

DLG SPR_2h
please bring her back.

DLG SPR_2i
please bring her back.

DLG SPR_2j
please bring her back.

DLG SPR_2k
please bring her back.

DLG SPR_2l
please bring her back.

DLG SPR_2m
please bring her back.

DLG ITM_4
"""
i know it.
i know i can never bring her back.
i look for answers everywhere, but the world has none.
i'm sorry Lucy, i know you'd want me to move on.
but i think of you everyday
and i -
i don't know how to leave you behind.
...
i'm sorry.
"""

DLG SPR_2n
the air is so warm, i find it hard to get out of bed anymore. instead i just lie there, curled around the space she used to be. this month is blue.

DLG SPR_2o
the air is so warm, i find it hard to get out of bed anymore. instead i just lie there, curled around the space she used to be. this month is blue.

DLG SPR_2p
the air is so warm, i find it hard to get out of bed anymore. instead i just lie there, curled around the space she used to be. this month is blue.

DLG SPR_2q
the air is so warm, i find it hard to get out of bed anymore. instead i just lie there, curled around the space she used to be. this month is blue.

DLG SPR_2r
the air is so warm, i find it hard to get out of bed anymore. instead i just lie there, curled around the space she used to be. this month is blue.

DLG SPR_2s
the air is so warm, i find it hard to get out of bed anymore. instead i just lie there, curled around the space she used to be. this month is blue.

DLG SPR_2t
i'm forgetting to eat again. i'm not keeping track of my weight, but i can see it in how my clothes hang of my body, lifeless.

DLG SPR_2u
i'm forgetting to eat again. i'm not keeping track of my weight, but i can see it in how my clothes hang of my body, lifeless.

DLG SPR_2v
i'm forgetting to eat again. i'm not keeping track of my weight, but i can see it in how my clothes hang of my body, lifeless.

DLG SPR_2w
i'm forgetting to eat again. i'm not keeping track of my weight, but i can see it in how my clothes hang of my body, lifeless.

DLG SPR_2x
i'm forgetting to eat again. i'm not keeping track of my weight, but i can see it in how my clothes hang of my body, lifeless.

DLG SPR_2y
i'm forgetting to eat again. i'm not keeping track of my weight, but i can see it in how my clothes hang of my body, lifeless.

DLG SPR_2z
my hands twitch, and i think I've run out of words. i receive letters, but cant return them. i try to sketch, trace, get anything down on paper, instead, i look at the swimming letters before me. nothing makes sense anymore.

DLG SPR_30
my hands twitch, and i think I've run out of words. i receive letters, but cant return them. i try to sketch, trace, get anything down on paper, instead, i look at the swimming letters before me. nothing makes sense anymore.

DLG SPR_31
i spend most of my time watching tv. some small part of my mind knows that i shouldn't be doing this, that i should have some motivation, to do anything. but i just... don't.

DLG SPR_32
there's nothing.

DLG SPR_33
there's nothing.

DLG SPR_34
there's nothing.

DLG SPR_35
there's nothing.

DLG SPR_36
there's nothing.

DLG SPR_37
there's nothing.

DLG SPR_38
there's nothing.

DLG SPR_39
there's nothing.

DLG SPR_3a
there's nothing.

DLG SPR_3b
there's nothing.

DLG SPR_3c
there's nothing.

DLG SPR_3d
there's nothing.

DLG SPR_3e
there's nothing.

DLG SPR_3f
there's nothing.

DLG SPR_3g
there's nothing.

DLG SPR_3h
there's nothing.

DLG SPR_3i
there's nothing

DLG ITM_5
"""
i can't live like this
...
Lucy, if you saw me like this...
i'm not going anywhere, i'm static, stuck, i know you'd hate me for it, you were... so forward.
maybe that's why i never had to be.
...
fuck.
...
i miss you.
"""

DLG SPR_3j
"""
it's september, and the trees are curling in on themselves. 
it's september, and i can get out of bed again.
it's september, and i find it.
the letter.
"""

DLG SPR_3k
"""
it's september, and the trees are curling in on themselves. 
it's september, and i can get out of bed again.
it's september, and i find it.
the letter.
"""

DLG SPR_3l
"""
it's september, and the trees are curling in on themselves. 
it's september, and i can get out of bed again.
it's september, and i find it.
the letter.
"""

DLG SPR_3m
"""
it's september, and the trees are curling in on themselves. 
it's september, and i can get out of bed again.
it's september, and i find it.
the letter.
"""

DLG SPR_3n
"""
it's september, and the trees are curling in on themselves. 
it's september, and i can get out of bed again.
it's september, and i find it.
the letter.
"""

DLG SPR_3o
"""
it's september, and the trees are curling in on themselves. 
it's september, and i can get out of bed again.
it's september, and i find it.
the letter.
"""

DLG SPR_3p
i find it behind the magazine rack by the tv, tucked away like a secret. it's inside an old envelope, covered in dust, i pull it out, and recognise the handwriting instantly.

DLG SPR_3q
i find it behind the magazine rack by the tv, tucked away like a secret. it's inside an old envelope, covered in dust, i pull it out, and recognise the handwriting instantly.

DLG SPR_3r
oh my god, it's her's. this handwriting, the familiar curves of the lettering, it stirs something inside of me. it's her's.

DLG SPR_3s
oh my god, it's her's. this handwriting, the familiar curves of the lettering, it stirs something inside of me. it's her's.

DLG SPR_3t
oh my god, it's her's. this handwriting, the familiar curves of the lettering, it stirs something inside of me. it's her's.

DLG SPR_3u
oh my god, it's her's. this handwriting, the familiar curves of the lettering, it stirs something inside of me. it's her's.

DLG SPR_3v
oh my god, it's her's. this handwriting, the familiar curves of the lettering, it stirs something inside of me. it's her's.

DLG SPR_3w
oh my god, it's her's. this handwriting, the familiar curves of the lettering, it stirs something inside of me. it's her's.

DLG SPR_3x
"""
"My Love.
It's your birthday soon, the big three zero, lucky you! Now you can join me in the ongoing existential crisis that is middle age. Congrats. Love, these past ten years have been the best of my life, and I owe that to you. Here's to many more.
All my love.
Lucy." 
"""

DLG SPR_3y
"""
"My Love.
It's your birthday soon, the big three zero, lucky you! Now you can join me in the ongoing existential crisis that is middle age. Congrats. Love, these past ten years have been the best of my life, and I owe that to you. Here's to many more.
All my love.
Lucy." 
"""

DLG SPR_3z
i keep the letter on my bedside table, close to me. it's the first new thing i found from her after she passed, fresh after so long.

DLG SPR_40
i keep the letter on my bedside table, close to me. it's the first new thing i found from her after she passed, fresh after so long.

DLG SPR_41
i keep the letter on my bedside table, close to me. it's the first new thing i found from her after she passed, fresh after so long.

DLG SPR_42
i keep the letter on my bedside table, close to me. it's the first new thing i found from her after she passed, fresh after so long.

DLG SPR_43
i keep the letter on my bedside table, close to me. it's the first new thing i found from her after she passed, fresh after so long.

DLG SPR_44
i keep the letter on my bedside table, close to me. it's the first new thing i found from her after she passed, fresh after so long.

DLG SPR_45
it's like a breath of fresh air into my lungs, a glass of water on a hot day. that letter awakens some life in me, something lively and young. it's like she's back.

DLG SPR_46
it's like a breath of fresh air into my lungs, a glass of water on a hot day. that letter awakens some life in me, something lively and young. it's like she's back.

DLG SPR_47
it's like a breath of fresh air into my lungs, a glass of water on a hot day. that letter awakens some life in me, something lively and young. it's like she's back.

DLG SPR_48
it's like a breath of fresh air into my lungs, a glass of water on a hot day. that letter awakens some life in me, something lively and young. it's like she's back.

DLG SPR_49
it's like a breath of fresh air into my lungs, a glass of water on a hot day. that letter awakens some life in me, something lively and young. it's like she's back.

DLG SPR_4a
it's like a breath of fresh air into my lungs, a glass of water on a hot day. that letter awakens some life in me, something lively and young. it's like she's back.

DLG SPR_4b
i begin to write responses to the letter. pages of literature containing everything i want to say to her. they pile up on my desk in a messy stack, growing and growing. 

DLG SPR_4c
i can't just sit and watch tv anymore. i'm fidgety, always needing to get up and move around. it's probably a good thing.

DLG SPR_4d
i can't just sit and watch tv anymore. i'm fidgety, always needing to get up and move around. it's probably a good thing.

DLG SPR_4e
i love you, Lucy.

DLG SPR_4f
i love you, Lucy.

DLG SPR_4g
i love you, Lucy.

DLG SPR_4h
i love you, Lucy.

DLG SPR_4i
i love you, Lucy.

DLG SPR_4j
i love you, Lucy.

DLG SPR_4k
i love you, Lucy.

DLG SPR_4l
i love you, Lucy.

DLG SPR_4m
i love you, Lucy.

DLG SPR_4n
i love you, Lucy.

DLG SPR_4o
i love you, Lucy.

DLG SPR_4p
i love you, Lucy.

DLG SPR_4q
i love you, Lucy.

DLG SPR_4r
i love you, Lucy.

DLG SPR_4s
i love you, Lucy.

DLG SPR_4t
i love you, Lucy.

DLG ITM_6
goodbye.

DLG SPR_4u
it's december, and Lucy's gone. but she left me with memories, of her, of our time together. she changed me, as a person, and so she lives on in me.

DLG SPR_4v
it's december, and Lucy's gone. but she left me with memories, of her, of our time together. she changed me, as a person, and so she lives on in me.

DLG SPR_4w
it's december, and Lucy's gone. but she left me with memories, of her, of our time together. she changed me, as a person, and so she lives on in me.

DLG SPR_4x
it's december, and Lucy's gone. but she left me with memories, of her, of our time together. she changed me, as a person, and so she lives on in me.

DLG SPR_4y
it's december, and Lucy's gone. but she left me with memories, of her, of our time together. she changed me, as a person, and so she lives on in me.

DLG SPR_4z
it's december, and Lucy's gone. but she left me with memories, of her, of our time together. she changed me, as a person, and so she lives on in me.

DLG SPR_50
i learn to live how i used to. different, but not bad. i adjust, adapt, learn to live without her. it's okay. i know i'll get used to it.

DLG SPR_51
i learn to live how i used to. different, but not bad. i adjust, adapt, learn to live without her. it's okay. i know i'll get used to it.

DLG SPR_52
i learn to live how i used to. different, but not bad. i adjust, adapt, learn to live without her. it's okay. i know i'll get used to it.

DLG SPR_53
i learn to live how i used to. different, but not bad. i adjust, adapt, learn to live without her. it's okay. i know i'll get used to it.

DLG SPR_54
i learn to live how i used to. different, but not bad. i adjust, adapt, learn to live without her. it's okay. i know i'll get used to it.

DLG SPR_55
i learn to live how i used to. different, but not bad. i adjust, adapt, learn to live without her. it's okay. i know i'll get used to it.

DLG SPR_56
i compile all my writings, essays, letters, poems. i gather them off and send them to my publisher. she loves them, suggests i print them in an anthology. i send it to my brother, he responds positively. i smile. a collection of my memories of her.

DLG SPR_57
i compile all my writings, essays, letters, poems. i gather them off and send them to my publisher. she loves them, suggests i print them in an anthology. i send it to my brother, he responds positively. i smile. a collection of my memories of her.

DLG SPR_58
the tv is replaying christmas specials of old shows. i watch them for a while, finally content. 

DLG SPR_59
the tv is replaying christmas specials of old shows. i watch them for a while, finally content. 

DLG ITM_7
i don't forget her. i can't. but i do move on. not in a leaving her behind kind of way, more in an acceptance that she's not coming with me.

DLG SPR_5a
i begin to write responses to the letter. pages of literature containing everything i want to say to her. they pile up on my desk in a messy stack, growing and growing. 

DLG SPR_5b
i spend most of my time watching tv. some small part of my mind knows that i shouldn't be doing this, that i should have some motivation, to do anything. but i just... don't.

DLG SPR_5c
two places set. she comes home from work at four. i make dinner at six. two places set.

DLG ITM_8
her comb, some hairs remain stuck between the teeth. i throw it in the bin.

DLG ITM_9
newspaper, nothing relevant. more hatred for the things we don't understand. 

DLG ITM_a
todays paper, something about a corrupt politician. repetitive. 

DLG ITM_b
a pile of clothes. i can't find the energy to clean up. 

END 0


END undefined
the years pass, inevitably looping with the will of the universe. and it's, actually... okay.

VAR a
42


