
I need inspiration...

# BITSY VERSION 4.3

! ROOM_FORMAT 1

PAL 0
153,110,204
255,49,31
13,240,255

ROOM 0
a,a,a,a,a,a,a,a,a,a,a,a,a,a,a,a
a,0,0,0,0,0,0,0,0,0,0,0,0,0,0,a
a,0,0,0,0,0,0,0,0,0,0,0,0,0,0,a
a,0,0,0,0,0,0,0,0,0,0,b,0,0,0,a
a,0,0,0,0,0,0,0,0,0,0,0,0,0,0,a
a,0,0,0,0,0,0,0,0,0,0,0,0,0,0,a
a,0,0,0,0,0,0,0,0,0,0,0,0,0,0,a
a,0,0,0,0,0,0,0,0,0,0,0,0,0,0,a
a,0,0,0,0,0,0,0,0,0,0,0,0,0,0,a
a,0,0,0,0,0,0,0,0,0,0,0,0,0,0,a
a,0,0,0,0,0,0,0,0,0,0,0,0,0,0,a
a,0,0,0,0,0,0,0,0,0,0,0,0,0,0,a
a,0,0,0,0,0,0,0,0,0,0,0,0,0,0,a
a,0,0,0,0,0,0,0,0,0,0,0,0,0,0,a
a,0,0,0,0,0,0,0,0,0,0,0,0,0,0,a
a,a,a,a,a,a,a,a,a,a,a,a,a,a,a,a
WAL a
EXT 9,12 1 9,12
EXT 10,11 1 10,11
EXT 11,12 1 11,12
EXT 10,13 1 10,13
PAL 0

ROOM 1
a,a,a,a,a,a,a,a,a,a,a,a,a,a,a,a
a,0,0,0,0,0,0,0,0,0,0,0,0,0,0,a
a,0,0,0,0,0,0,0,0,0,0,0,0,0,0,a
a,0,0,0,0,0,0,0,0,0,0,0,0,0,0,a
a,0,0,0,0,0,0,0,0,0,0,0,0,0,0,a
a,0,0,0,0,0,0,0,0,0,0,0,0,0,0,a
a,0,0,0,0,0,0,0,0,0,0,0,0,0,0,a
a,0,0,0,0,0,0,0,0,0,0,0,0,0,0,a
a,0,0,0,0,0,0,0,0,0,0,0,0,0,0,a
a,0,0,0,0,0,0,0,0,0,0,0,0,0,0,a
a,0,0,0,0,0,0,0,0,0,0,0,0,0,0,a
a,0,0,0,0,0,0,0,0,0,0,0,0,0,0,a
a,0,0,0,0,0,0,0,0,0,0,0,0,0,0,a
a,0,0,0,0,0,0,0,0,0,0,0,0,0,0,a
a,0,0,0,0,0,0,0,0,0,0,0,0,0,0,a
a,a,a,a,a,a,a,a,a,a,a,a,a,a,a,a
END 0 8,12
END 0 10,10
END 0 12,12
END 0 10,14
END 0 9,13
END 0 11,11
END 0 9,11
END 0 11,13
PAL 0

TIL a
10000000
11111111
00000001
11111111
10000000
11111111
00000001
11111111

TIL b
00000000
00000000
00000000
00000000
00000000
00000000
00000000
00000000

SPR A
00000000
01000000
00010001
00101000
00000000
00010010
01000010
00010000
>
01000000
00010001
00000000
01000100
00000000
00001001
10000000
00001010
POS 0 4,4

SPR a
11000011
11100111
01111110
00111100
00111100
01111110
11100111
11000011
>
00111100
00011000
10011001
11111111
11111111
10011001
00011000
00111100
DLG SPR_0
POS 1 10,12

SPR b
11000011
11100111
01111110
00111100
00111100
01111110
11100111
11000011
>
00111100
00011000
10011001
11111111
11111111
10011001
00011000
00111100
POS 0 10,12

ITM 0
00000000
00000000
00000000
00111100
01100100
00100100
00011000
00000000
NAME tea
DLG ITM_0

DLG ITM_0
You found a nice warm cup of tea

DLG SPR_0
"""
ME: Wow. You look UNINSPIRED!

Me: your not wrong.

ME: How about we go on an inspirational journey!!
me: well i mean, i would but im kinda busy...
ME: TOO BAD!!
"""

END 0
me: this was fun

VAR a
42


