The Library

# BITSY VERSION 2.3

! ROOM_FORMAT 1

PAL 0
36,45,61
74,118,169
248,160,50

ROOM 0
0,0,0,0,k,u,u,u,u,u,u,k,0,0,0,0
0,u,u,u,k,u,u,u,u,u,u,k,u,u,u,0
0,u,0,0,k,w,v,v,v,v,x,k,0,0,u,0
0,u,0,0,0,0,0,0,0,0,0,0,0,0,u,0
0,u,0,0,0,0,0,0,0,0,0,0,0,0,u,0
0,u,0,0,0,0,0,0,0,0,0,0,0,0,u,0
0,u,0,0,0,0,0,0,0,0,0,0,0,0,u,0
0,u,0,0,0,0,0,0,0,0,0,0,0,0,u,0
0,u,0,0,0,0,0,0,0,0,0,0,0,0,u,0
0,u,0,0,0,0,0,0,0,0,0,0,0,0,u,0
0,u,0,0,0,0,0,0,0,0,0,0,0,0,u,0
0,u,0,0,0,0,0,0,0,0,0,0,0,0,u,0
0,u,0,0,0,0,0,0,0,0,0,0,0,0,u,0
0,u,0,0,0,0,0,0,0,0,0,0,0,0,u,0
0,u,u,u,u,u,u,u,u,u,u,u,u,u,u,0
0,0,0,0,0,0,0,0,0,0,0,0,0,0,0,0
WAL a,z,1h,1j,1q,1r,1s,1t,1u,1v,1w,k,21,20,23,24,2j,2i,2h,2f,2e,2d,2c,2b,2a,29,28,27,26
EXT 5,0 k 6,12
EXT 6,0 k 6,12
EXT 7,0 k 6,12
EXT 8,0 k 7,13
EXT 9,0 k 7,13
EXT 10,0 k 7,13

ROOM 1
17,16,0,0,0,0,1j,1j,1j,1j,1j,1j,1j,1j,1j,1j
15,15,0,0,0,0,0,0,0,0,0,0,1j,1j,1j,1j
1j,1j,1j,0,0,0,0,0,0,0,0,0,0,0,1j,1j
1j,0,0,0,0,0,0,0,0,0,0,0,0,0,0,1j
1j,0,0,0,1z,1z,1o,1z,1z,1o,1z,1z,0,0,0,1j
1j,1h,1h,1h,1z,1o,f,f,f,f,1o,1z,1h,1h,1h,1j
1j,1v,1r,1t,1o,f,f,1z,1z,f,f,1o,1t,1v,1t,1j
1j,1u,1q,1s,1z,f,1z,1z,1z,1z,f,1z,1s,1u,1s,1j
1j,1h,1h,1h,1z,f,1z,1z,1z,1z,f,1z,1w,1j,1j,1j
1j,1t,1v,1r,1o,f,f,1z,1z,f,f,1o,1j,1j,1j,1j
1j,1s,1u,1q,1z,1o,f,f,f,f,1o,1z,1j,v,v,1j
1j,0,0,0,1z,1z,1o,1z,1z,1o,1z,1z,1j,w,x,1j
1j,0,0,0,0,0,0,0,0,0,0,0,0,0,0,1j
1j,1j,0,0,0,0,0,0,0,0,0,0,0,0,0,1j
1j,1j,1j,1j,0,0,0,0,0,0,0,0,0,0,0,1j
1j,1j,1j,1j,1j,1j,1j,1j,1j,1j,1j,1j,1j,1j,1j,1j
WAL a,z,1h,1j,1q,1r,1s,1t,1u,1v,1w,k,21,20,23,24,2j,2i,2h,2f,2e,2d,2c,2b,2a,29,28,27,26
EXT 6,4 e 6,4
EXT 8,4 e 8,4
EXT 9,4 e 9,4
EXT 8,5 e 8,5
EXT 9,5 e 9,5
EXT 10,5 e 10,5
EXT 8,6 e 8,6
EXT 7,6 e 7,6
EXT 5,5 e 5,5
EXT 5,6 e 5,6
EXT 5,7 e 5,7
EXT 6,8 e 6,8
EXT 7,8 e 7,8
EXT 11,9 e 11,9
EXT 8,8 e 8,8
EXT 9,8 e 9,8
EXT 10,7 e 10,7
EXT 10,10 e 10,10
EXT 8,9 e 8,9
EXT 7,10 e 7,10
EXT 7,11 e 7,11
EXT 9,11 e 9,11
EXT 0,0 c 14,0
EXT 0,1 c 14,1
EXT 6,11 e 6,11
EXT 5,11 e 5,11
EXT 4,11 e 4,11
EXT 4,10 e 4,10
EXT 11,11 e 11,11
EXT 10,11 e 10,11
EXT 11,10 e 11,10
EXT 4,4 e 4,4
EXT 5,4 e 5,4
EXT 11,4 e 11,4
EXT 10,4 e 10,4
EXT 11,5 e 11,5
EXT 13,10 b 7,14
EXT 14,10 b 8,14

ROOM 3
1j,0,0,0,0,0,0,0,0,0,0,0,0,0,0,0
1j,0,0,0,0,0,0,0,0,0,0,0,0,0,0,0
1j,1h,1h,1h,0,0,0,0,0,0,0,0,0,0,0,0
1j,1r,1t,1v,0,0,0,0,0,0,0,0,0,0,0,0
1j,j,j,j,0,0,0,0,0,0,0,0,0,0,0,0
1j,0,0,0,0,0,0,0,0,0,0,0,0,0,0,0
1j,z,z,z,z,0,0,0,z,z,z,z,0,0,0,0
1j,1h,1h,1h,g,g,g,g,g,g,g,g,g,g,g,g
1j,1v,1t,1r,0,0,0,0,0,0,0,0,0,0,e,0
1j,1u,1q,1s,0,0,h,0,0,1o,0,0,1o,0,0,0
1j,0,0,0,0,0,0,0,0,0,0,0,0,0,0,e
1j,1h,1h,1h,0,0,1o,0,0,1o,0,0,0,0,0,0
1j,1r,1t,1v,0,0,0,0,0,0,0,0,1o,0,0,0
1j,1q,1s,1u,0,0,0,0,0,0,h,0,0,0,17,16
1j,0,0,h,0,0,1o,0,0,0,0,0,0,0,15,15
1j,1j,1j,1j,1j,1j,1j,1j,1j,1j,1j,1j,1j,1j,1j,1j
WAL z,a,1h,1j,1q,1r,1s,1t,1u,1v,1w,k,21,20,23,24,2j,2i,2h,2f,2e,2d,2c,2b,2a,29,28,27,26
EXT 15,8 4 1,8
EXT 15,9 4 1,9
EXT 15,10 4 1,10
EXT 15,11 4 1,11
EXT 15,7 4 1,7
EXT 10,3 3 10,7
EXT 11,3 3 11,7
EXT 11,4 3 11,7
EXT 11,5 3 11,7
EXT 12,6 3 12,7
EXT 13,6 3 13,7
EXT 14,6 3 14,7
EXT 14,4 3 14,7
EXT 13,4 3 13,7
EXT 13,3 3 13,7
EXT 13,2 3 13,7
EXT 10,4 3 10,7
EXT 9,5 3 9,7
EXT 8,5 3 8,7
EXT 7,5 3 7,7
EXT 7,6 3 7,7
EXT 5,6 3 5,7
EXT 5,5 3 5,7
EXT 5,4 3 5,7
EXT 6,3 3 6,7
EXT 7,3 3 7,7
EXT 8,3 3 8,7
EXT 8,2 3 8,7
EXT 9,1 3 9,7
EXT 10,1 3 10,7
EXT 11,1 3 11,7
EXT 12,1 3 12,7
EXT 15,12 4 1,12
EXT 15,13 c 1,0
EXT 15,14 c 1,1
EXT 15,5 4 1,5

ROOM 4
0,0,0,0,k,u,1b,1c,1c,1d,u,k,0,0,0,1j
0,0,0,0,k,u,u,u,u,u,u,k,0,0,0,1j
0,0,0,0,u,u,u,u,u,u,u,u,0,0,0,1j
0,0,0,0,j,j,j,j,j,j,j,j,0,0,0,1j
0,0,0,0,0,0,z,z,0,0,0,0,0,0,0,1j
0,0,0,0,0,0,0,0,0,0,0,0,0,0,0,1j
0,0,z,0,0,0,0,0,0,0,0,0,z,z,z,1j
g,g,g,g,1h,1h,1h,1h,1h,g,g,g,g,g,g,1j
0,0,0,0,1r,1t,1v,1t,1t,0,0,0,0,0,0,1j
0,e,0,0,1q,1s,1u,1q,1s,0,h,1o,0,0,0,1j
0,0,0,0,0,0,0,0,0,0,0,0,0,0,0,1j
0,1o,0,0,1o,0,0,e,0,0,0,0,0,0,0,1j
0,1o,0,0,0,0,0,0,1o,0,0,1o,0,0,h,1j
1j,1j,e,0,1o,0,0,0,1o,0,h,0,0,0,0,1j
1j,1j,1j,0,0,0,0,0,0,0,0,0,0,0,0,1j
1j,1j,1j,1j,1j,1j,1j,1j,1j,1j,1j,1j,1j,1j,1j,1j
WAL z,a,1h,1j,1q,1r,1s,1t,1u,1v,1w,k,21,20,23,24,2j,2i,2h,2f,2e,2d,2c,2b,2a,29,28,27,26
EXT 0,7 3 14,7
EXT 0,8 3 14,8
EXT 0,9 3 14,9
EXT 0,10 3 14,10
EXT 0,11 3 14,11
EXT 0,12 3 14,12
EXT 1,6 4 1,7
EXT 1,3 4 1,7
EXT 2,3 4 2,7
EXT 2,5 4 2,7
EXT 3,3 4 3,7
EXT 3,5 4 3,7
EXT 9,6 4 9,7
EXT 9,4 4 9,7
EXT 10,4 4 10,7
EXT 10,6 4 10,7
EXT 11,6 4 11,7
EXT 12,5 4 12,7
EXT 12,4 4 12,7
EXT 12,3 4 12,7
EXT 4,3 4 3,7
EXT 3,6 4 3,7
EXT 5,4 4 3,7
EXT 5,5 4 3,7
EXT 6,5 4 3,7
EXT 7,5 4 9,7
EXT 8,4 4 9,7
EXT 12,2 4 12,7
EXT 12,1 4 12,7
EXT 3,2 4 3,7
EXT 3,1 4 3,7
EXT 3,0 4 3,7
EXT 6,0 a 6,14
EXT 7,0 a 7,14
EXT 8,0 a 8,14
EXT 9,0 a 9,14
EXT 0,5 3 14,5
EXT 0,4 4 1,7
EXT 10,3 4 10,7

ROOM 6
k,0,0,0,0,k,w,v,v,x,k,0,0,0,0,k
0,k,0,0,0,0,0,0,0,0,0,0,0,0,k,0
0,0,k,0,0,0,0,0,0,0,0,0,0,k,0,0
0,0,0,k,0,0,0,0,0,0,0,0,k,0,0,0
0,0,k,0,b,m,b,m,b,m,b,s,k,0,0,0
0,0,k,0,l,b,t,b,t,b,t,b,0,k,0,0
0,0,k,0,b,t,b,t,b,t,b,n,0,k,0,0
0,0,k,0,l,b,t,b,t,b,t,b,0,k,0,0
0,0,k,0,b,t,b,t,b,t,b,n,0,k,0,0
0,0,k,0,l,b,t,b,t,b,t,b,0,k,0,0
0,0,k,0,b,t,b,t,b,t,b,n,0,k,0,0
0,0,0,k,q,b,o,b,o,b,o,b,k,0,0,0
0,0,0,k,0,0,0,0,0,0,0,0,k,0,0,0
0,0,k,0,0,0,0,0,0,0,0,0,0,k,0,0
0,k,0,0,0,0,0,0,0,0,0,0,0,0,k,0
k,0,0,0,0,k,w,v,v,x,k,0,0,0,0,k
WAL z,a,1h,1j,1q,1r,1s,1t,1u,1v,1w,k,21,20,23,24,2j,2i,2h,2f,2e,2d,2c,2b,2a,29,28,27,26
EXT 9,11 7 8,7
EXT 9,10 7 8,8
EXT 11,11 7 7,8
EXT 11,10 7 7,8
EXT 11,9 7 8,9
EXT 10,8 7 7,6
EXT 9,8 7 6,7
EXT 8,8 7 8,7
EXT 8,7 7 7,7
EXT 9,6 7 5,6
EXT 9,5 7 7,6
EXT 10,4 7 7,7
EXT 8,10 7 8,8
EXT 7,10 7 8,8
EXT 6,9 7 8,7
EXT 7,4 7 8,7
EXT 7,5 7 8,8
EXT 6,8 7 7,8
EXT 6,7 7 5,5
EXT 6,6 7 7,8
EXT 8,11 7 7,7
EXT 7,11 7 7,8
EXT 6,11 7 8,6
EXT 5,11 7 8,6
EXT 4,11 7 8,8
EXT 6,4 7 7,9
EXT 5,4 7 8,7
EXT 4,4 7 8,6
EXT 11,4 7 8,8
EXT 6,0 8 6,14
EXT 7,0 8 7,14
EXT 8,0 8 8,14
EXT 9,0 8 9,14
EXT 6,15 d 6,1
EXT 7,15 d 7,1
EXT 8,15 d 8,1
EXT 9,15 d 9,1

ROOM 7
0,0,0,0,0,0,0,0,0,0,0,0,0,0,0,0
0,0,0,0,0,0,0,0,0,0,0,0,0,0,0,0
0,0,0,0,0,0,0,0,0,0,0,0,0,0,0,0
0,0,0,1j,1j,1j,1j,1j,1j,1j,1j,1j,1j,0,0,0
0,0,0,1j,1o,1o,1o,1o,1o,1o,1o,1o,1j,0,0,0
0,0,0,1j,1o,0,0,0,0,0,0,1o,1j,0,0,0
0,0,0,1j,1o,0,0,0,0,0,0,1o,1j,0,0,0
0,0,0,1j,1o,0,0,0,0,0,0,1o,1j,0,0,0
0,0,0,1j,1o,0,0,0,0,0,0,1o,1j,0,0,0
0,0,0,1j,1o,0,0,0,0,0,0,1o,1j,0,0,0
0,0,0,1j,1o,0,0,0,0,0,0,1o,1j,0,0,0
0,0,0,1j,1o,1o,1o,1o,1o,1o,1o,1o,1j,0,0,0
0,0,0,1j,1j,1j,1j,1j,1j,1j,0,0,0,1j,1j,0
0,0,0,0,0,0,0,0,0,1j,0,0,0,1y,1j,0
0,0,0,0,0,0,0,0,0,0,1j,0,0,0,1j,0
0,0,0,0,0,0,0,0,0,0,1j,1j,1j,1j,1j,0
WAL z,a,1h,1j,1q,1r,1s,1t,1u,1v,1w,k,21,20,23,24,2j,2i,2h,2f,2e,2d,2c,2b,2a,29,28,27,26
EXT 13,13 d 14,1

ROOM 8
z,z,z,0,u,u,u,u,u,u,u,u,z,z,z,z
z,0,0,0,u,u,u,u,u,u,u,u,0,0,0,z
z,0,0,0,u,u,u,u,u,u,u,u,0,0,0,z
z,0,0,0,0,0,0,0,0,y,0,0,0,0,0,z
z,0,0,0,0,0,0,0,0,y,y,y,y,0,0,z
z,0,0,0,0,14,14,14,14,14,14,0,y,0,0,z
z,0,0,0,0,14,14,14,y,y,y,0,y,0,0,0
0,0,0,0,0,0,0,14,y,0,y,0,y,0,0,z
z,0,0,0,y,y,y,y,y,0,y,0,y,0,0,z
0,0,0,0,y,14,14,14,14,14,y,y,y,0,0,z
0,0,0,0,y,14,14,14,14,14,14,0,0,0,0,z
0,0,0,0,y,y,y,y,y,y,0,0,0,0,0,z
0,0,0,0,0,0,0,0,0,y,0,0,0,0,0,z
0,0,0,0,u,u,u,u,u,13,u,u,0,0,0,z
0,0,0,0,u,u,u,u,u,u,u,u,0,0,0,z
0,0,0,0,k,k,w,v,v,x,k,k,z,z,z,z
WAL z,a,1h,1j,1q,1r,1s,1t,1u,1v,1w,k,21,20,23,24,2j,2i,2h,2f,2e,2d,2c,2b,2a,29,28,27,26
EXT 6,15 6 6,1
EXT 7,15 6 7,1
EXT 8,15 6 8,1
EXT 9,15 6 9,1

ROOM a
z,z,z,z,0,u,u,u,u,u,u,u,0,0,0,0
z,0,0,0,u,u,u,u,u,u,u,u,0,0,0,0
z,0,0,0,u,u,u,u,u,u,u,u,0,0,0,0
z,0,0,0,0,0,0,y,0,0,0,0,0,0,0,0
z,0,0,0,0,y,y,y,0,0,0,0,0,0,0,0
z,0,0,0,y,y,0,0,0,0,0,0,0,0,0,0
z,0,y,y,y,0,0,14,14,0,0,0,0,0,0,0
z,0,y,0,0,0,0,14,14,0,0,0,0,0,0,0
z,0,y,0,y,y,y,y,y,y,y,0,0,0,0,0
z,0,y,0,y,0,0,14,14,0,y,0,0,0,0,0
z,0,y,0,y,0,0,0,0,0,y,0,0,0,0,0
z,0,y,y,y,0,0,y,y,y,y,0,0,0,0,0
z,0,0,0,0,0,0,y,0,0,0,0,0,0,0,0
z,0,0,0,u,u,u,10,u,u,u,u,0,0,0,0
z,0,0,0,u,u,u,u,u,u,u,u,0,0,0,0
z,z,z,z,k,k,1e,1f,1f,1g,k,k,z,z,z,z
WAL z,a,1h,1j,1q,1r,1s,1t,1u,1v,1w,k,21,20,23,24,2j,2i,2h,2f,2e,2d,2c,2b,2a,29,28,27,26
EXT 6,15 4 6,1
EXT 7,15 4 7,1
EXT 8,15 4 8,1
EXT 9,15 4 9,1

ROOM b
z,z,z,z,u,u,u,u,u,u,u,u,z,z,z,z
z,0,0,0,u,u,u,u,u,u,u,u,0,0,0,z
z,0,0,0,u,u,u,u,u,u,u,u,0,0,0,z
z,0,0,0,0,0,0,0,0,0,y,0,0,0,0,z
z,0,0,0,0,0,0,0,0,0,y,y,0,0,0,z
z,0,y,y,y,y,y,y,y,0,0,y,0,0,0,z
z,0,y,0,0,14,14,14,y,14,y,y,0,0,0,z
z,0,y,y,y,y,14,14,y,14,y,0,0,0,0,z
z,0,0,0,0,y,0,14,y,y,y,0,0,0,0,z
z,0,0,y,y,y,0,14,14,0,0,0,0,0,0,z
z,0,0,y,0,0,0,0,0,0,0,0,0,0,0,z
z,0,0,y,y,y,y,y,y,0,0,0,0,0,0,z
z,0,0,0,0,0,0,0,y,0,0,0,0,0,0,z
z,0,0,0,u,u,u,u,12,u,u,u,0,0,0,z
z,0,0,0,u,u,u,u,u,u,u,u,0,0,0,z
z,z,z,z,k,k,w,v,v,x,k,k,z,z,z,z
WAL z,a,1h,1j,1q,1r,1s,1t,1u,1v,1w,k,21,20,23,24,2j,2i,2h,2f,2e,2d,2c,2b,2a,29,28,27,26
EXT 7,15 1 13,11
EXT 6,15 1 13,11
EXT 8,15 1 14,11
EXT 9,15 1 14,11

ROOM c
17,16,15,0,0,0,0,0,0,0,0,0,0,16,15,15
15,15,15,0,0,0,0,0,0,0,0,0,0,15,15,15
1j,1j,1j,0,0,0,0,0,0,0,0,0,0,1j,1j,1j
1j,0,0,0,0,0,0,0,0,0,0,0,0,0,0,0
1j,0,0,0,1h,1h,1h,1h,1h,1h,1h,1h,1h,0,0,0
1j,0,0,0,0,0,0,0,0,0,0,0,0,0,0,0
1j,0,0,0,0,0,0,0,0,0,0,0,0,0,0,0
1j,0,0,1o,1o,1o,1o,1o,1o,1o,1o,1o,1o,1o,1o,1o
1j,0,1o,1o,1o,1o,1o,1o,1o,1o,1o,1o,1o,1o,1o,1o
1j,0,1o,1o,1h,1h,1h,1h,1h,1h,1h,1h,1h,1o,1o,0
1j,0,1o,1o,0,0,0,0,0,0,0,0,0,1o,0,0
1j,0,1o,1o,0,0,0,0,0,0,0,0,0,1o,0,0
1j,0,1o,1o,1o,1o,1o,1o,1o,1o,1o,1o,1o,1o,0,0
1j,0,0,1o,1o,1o,1o,1o,1o,1o,1o,1o,1o,0,0,0
1j,0,0,0,0,0,0,0,0,0,0,0,0,0,0,0
1j,1j,1j,1j,1j,1j,1j,1j,1j,1j,1j,1j,1j,1j,1j,1j
WAL 1h,z,a,1j,1q,1r,1s,1t,1u,1v,1w,k,21,20,23,24,2j,2i,2h,2f,2e,2d,2c,2b,2a,29,28,27,26
EXT 0,0 3 14,13
EXT 0,1 3 14,14
EXT 15,0 1 1,0
EXT 15,1 1 1,1
EXT 15,3 e 1,3
EXT 15,4 e 1,4
EXT 15,5 e 1,5
EXT 15,6 e 1,6
EXT 15,7 e 1,7
EXT 15,8 e 1,8
EXT 15,9 e 1,9
EXT 15,14 e 1,14
EXT 15,13 e 1,13
EXT 15,12 e 1,12
EXT 15,11 e 1,11
EXT 15,10 e 1,10

ROOM d
1j,1j,1j,1j,1j,1j,w,v,v,x,1j,1j,1j,1j,1j,1j
1j,1j,1j,1j,0,k,0,1o,1o,0,k,0,0,0,0,1p
1j,1j,1j,0,0,0,0,1o,1o,0,0,0,0,0,0,1j
0,0,0,1o,1o,1o,1o,1o,1o,0,0,0,0,0,0,1j
0,0,0,1o,1o,1o,1o,1o,1o,0,0,0,0,0,0,1j
0,0,0,1o,1o,0,0,0,0,0,0,0,0,0,0,1j
0,0,0,1o,1o,0,0,25,24,25,0,0,25,24,25,1j
1o,1o,1o,1o,1o,0,0,0,0,0,0,0,0,0,0,1j
1o,1o,1o,1o,1o,0,0,0,0,0,0,0,0,0,0,1j
0,0,0,0,0,0,0,25,24,25,0,0,25,24,25,1j
0,0,0,1h,1h,1h,0,0,0,0,0,0,0,0,0,1j
0,0,0,1t,1r,1v,0,0,0,0,0,0,0,0,0,1j
0,0,0,1q,1s,1u,0,25,24,25,0,0,25,24,25,1j
0,0,0,0,0,0,0,0,0,0,0,0,0,0,0,1j
0,0,0,0,0,0,0,0,0,0,0,0,0,0,0,1j
1j,1j,1j,1j,1j,1j,1j,1j,1j,1j,1j,1j,1j,1j,1j,1j
WAL z,a,1h,1j,1q,1r,1s,1t,1u,1v,1w,k,21,20,23,24,2j,2i,2h,2f,2e,2d,2c,2b,2a,29,28,27,26
EXT 6,0 6 6,14
EXT 7,0 6 7,14
EXT 8,0 6 8,14
EXT 9,0 6 9,14
EXT 15,1 7 12,13
EXT 0,3 e 14,3
EXT 0,4 e 14,4
EXT 0,5 e 14,5
EXT 0,6 e 14,6
EXT 0,7 e 14,7
EXT 0,8 e 14,8
EXT 0,14 e 14,14
EXT 0,13 e 14,13
EXT 0,12 e 14,12
EXT 0,11 e 14,11
EXT 0,10 e 14,10
EXT 0,9 e 14,9

ROOM e
1j,1j,1j,1j,1j,a,1m,1l,1l,1n,a,1j,1j,1j,1j,1j
1j,1j,1j,1j,a,a,0,1o,1o,0,a,a,1j,1j,1j,1j
1j,1j,1j,a,a,a,1k,1o,1o,1k,a,a,a,1j,1j,1j
0,0,0,0,0,0,0,1o,1o,0,0,0,0,0,0,0
0,0,0,0,0,0,1o,1o,1o,1o,0,0,0,0,0,0
0,0,0,0,0,1o,u,1o,1o,u,1o,0,0,0,0,0
0,0,0,0,1o,u,u,1o,1o,u,u,1o,0,0,0,0
1o,1o,1o,1o,1o,1o,1o,1o,1o,1o,1o,1o,1o,1o,1o,1o
1o,1o,1o,1o,1o,1o,1o,1o,1o,1o,1o,1o,1o,1o,1o,1o
0,0,0,0,1o,u,u,1o,1o,u,u,1o,0,0,0,0
0,0,0,0,0,1o,u,1o,1o,u,1o,0,0,0,0,0
0,0,1h,1h,0,0,1o,1o,1o,1o,0,0,1h,1h,0,0
0,0,1r,1t,0,0,0,1o,1o,0,0,0,1r,1t,0,0
0,0,1q,1s,0,0,0,1o,1o,0,0,0,1q,1s,0,0
0,0,0,0,0,0,0,1o,1o,0,0,0,0,0,0,0
1j,1j,1j,1j,1j,1j,1o,1o,1o,1o,1j,1j,1j,1j,1j,1j
WAL z,a,1h,1j,1q,1r,1s,1t,1u,1v,1w,k,21,20,23,24,2j,2i,2h,2f,2e,2d,2c,2b,2a,29,28,27,26
EXT 0,3 c 14,3
EXT 0,4 c 14,4
EXT 0,5 c 14,5
EXT 0,6 c 14,6
EXT 0,7 c 14,7
EXT 0,8 c 14,8
EXT 0,9 c 14,9
EXT 0,14 c 14,14
EXT 0,13 c 14,13
EXT 0,12 c 14,12
EXT 0,11 c 14,11
EXT 0,10 c 14,10
EXT 15,3 d 1,3
EXT 15,4 d 1,4
EXT 15,5 d 1,5
EXT 15,6 d 1,6
EXT 15,7 d 1,7
EXT 15,8 d 1,8
EXT 15,9 d 1,9
EXT 15,14 d 1,14
EXT 15,13 d 1,13
EXT 15,12 d 1,12
EXT 15,11 d 1,11
EXT 15,10 d 1,10
EXT 6,0 f 6,14
EXT 7,0 f 7,14
EXT 8,0 f 8,14
EXT 9,0 f 9,14
EXT 6,15 k 6,4
EXT 7,15 k 7,4
EXT 8,15 k 8,4
EXT 9,15 k 9,4

ROOM f
0,0,0,0,u,u,w,v,v,x,u,u,0,0,0,0
0,0,0,0,u,u,u,u,u,u,u,u,0,0,0,0
0,0,0,0,u,u,u,u,u,u,u,u,0,0,0,0
0,0,0,0,0,0,0,0,0,0,0,0,0,0,0,0
0,0,0,0,0,0,0,0,0,0,0,0,0,0,0,0
0,0,0,0,0,0,0,0,0,0,0,0,0,0,0,0
0,0,0,0,0,0,0,14,14,0,0,0,0,0,0,0
0,0,0,0,0,0,0,14,14,0,0,0,0,0,0,0
0,0,0,0,0,0,0,14,14,0,0,0,0,0,0,0
0,0,0,0,0,0,0,14,14,0,0,0,0,0,0,0
0,0,0,0,0,0,0,0,0,0,0,0,0,0,0,0
0,0,0,0,0,0,0,0,0,0,0,0,0,0,0,0
0,0,0,0,0,0,0,0,0,0,0,0,0,0,0,0
0,0,0,0,u,u,u,10,u,u,u,u,0,0,0,0
0,0,0,0,u,u,u,u,u,u,u,u,0,0,0,0
0,0,0,0,u,u,1e,1f,1f,1g,u,u,0,0,0,0
WAL z,a,1h,1j,1q,1r,1s,1t,1u,1v,1w,k,21,20,23,24,2j,2i,2h,2f,2e,2d,2c,2b,2a,29,28,27,26
EXT 6,15 e 6,1
EXT 7,15 e 7,1
EXT 8,15 e 8,1
EXT 9,15 e 9,1
EXT 6,0 g 6,14
EXT 7,0 g 7,14
EXT 8,0 g 8,14
EXT 9,0 g 9,14
EXT 6,12 e 7,8
EXT 6,11 e 8,8
EXT 7,10 e 8,8
EXT 8,10 e 7,8
EXT 9,10 e 7,8
EXT 9,9 e 7,8
EXT 8,12 e 7,8
EXT 9,12 e 7,8
EXT 10,12 e 8,8
EXT 11,11 e 8,8
EXT 11,10 e 8,8
EXT 11,9 e 7,8
EXT 11,8 e 7,8
EXT 10,7 e 7,8
EXT 9,7 e 7,8
EXT 8,7 e 8,8
EXT 7,7 e 7,8
EXT 8,9 e 7,8
EXT 7,9 e 7,8
EXT 6,9 e 7,8
EXT 5,9 e 7,7
EXT 5,10 e 7,8
EXT 5,11 e 7,8
EXT 6,7 e 7,8
EXT 5,7 e 7,8
EXT 4,7 e 7,7
EXT 3,7 e 7,8
EXT 3,8 e 7,8
EXT 3,9 e 8,8
EXT 3,10 e 7,8
EXT 5,6 e 7,8
EXT 6,5 e 7,7
EXT 7,5 e 7,8
EXT 8,4 e 7,8
EXT 8,3 e 7,7
EXT 6,3 e 8,8
EXT 5,3 e 8,7
EXT 4,4 e 8,8
EXT 3,5 e 8,7
EXT 2,5 e 7,8
EXT 1,6 e 8,8
EXT 1,7 e 7,8
EXT 1,8 e 7,8
EXT 1,9 e 8,8
EXT 1,10 e 7,8
EXT 1,11 e 8,7
EXT 2,12 e 8,8
EXT 3,12 e 8,7
EXT 4,12 e 7,8
EXT 5,12 e 8,8
EXT 3,13 e 8,8
EXT 3,14 e 8,8
EXT 3,15 e 8,7
EXT 12,14 e 7,8
EXT 12,15 e 7,8
EXT 9,3 e 7,8
EXT 10,3 e 8,8
EXT 11,3 e 8,8
EXT 12,2 e 8,7
EXT 12,1 e 8,7
EXT 4,3 e 7,8
EXT 3,2 e 8,7
EXT 3,1 e 7,7

ROOM g
0,0,0,0,u,u,w,v,v,x,u,u,0,0,0,0
0,0,0,0,u,u,u,u,u,u,u,u,0,0,0,0
0,0,0,0,u,u,u,u,u,u,u,u,0,0,0,0
0,0,0,0,0,0,0,0,0,0,0,0,0,0,0,0
0,0,0,0,0,0,0,0,0,0,0,0,0,0,0,0
0,0,0,0,0,0,0,0,0,0,0,0,0,0,0,0
0,0,0,0,0,14,14,14,14,14,14,0,0,0,0,0
0,0,0,0,0,14,14,14,14,14,14,0,0,0,0,0
0,0,0,0,0,0,0,14,14,0,0,0,0,0,0,0
0,0,0,0,0,0,0,14,14,0,0,0,0,0,0,0
0,0,0,0,0,0,0,0,0,0,0,0,0,0,0,0
0,0,0,0,0,0,0,0,0,0,0,0,0,0,0,0
0,0,0,0,0,0,0,0,0,0,0,0,0,0,0,0
0,0,0,0,u,u,u,u,12,u,u,u,0,0,0,0
0,0,0,0,u,u,u,u,u,u,u,u,0,0,0,0
0,0,0,0,u,u,w,v,v,x,u,u,0,0,0,0
WAL z,a,1h,1j,1q,1r,1s,1t,1u,1v,1w,k,21,20,23,24,2j,2i,2h,2f,2e,2d,2c,2b,2a,29,28,27,26
EXT 6,15 f 6,1
EXT 7,15 f 7,1
EXT 8,15 f 8,1
EXT 9,15 f 9,1
EXT 6,0 h 6,14
EXT 7,0 h 7,14
EXT 8,0 h 8,14
EXT 9,0 h 9,14
EXT 7,12 e 7,8
EXT 6,12 e 8,8
EXT 5,12 e 7,8
EXT 4,12 e 7,8
EXT 3,12 e 8,8
EXT 2,11 e 8,8
EXT 2,10 e 7,7
EXT 2,9 e 7,8
EXT 3,8 e 7,8
EXT 4,8 e 8,7
EXT 2,8 e 8,8
EXT 1,7 e 7,8
EXT 1,6 e 7,8
EXT 1,5 e 7,8
EXT 2,4 e 7,8
EXT 3,4 e 8,8
EXT 4,4 e 7,8
EXT 5,4 e 7,8
EXT 6,4 e 7,8
EXT 7,4 e 8,8
EXT 8,4 e 7,8
EXT 9,4 e 7,7
EXT 9,5 e 8,8
EXT 9,6 e 8,7
EXT 9,7 e 7,7
EXT 10,5 e 7,8
EXT 11,3 e 8,7
EXT 12,4 e 7,7
EXT 12,5 e 7,8
EXT 12,6 e 8,8
EXT 11,7 e 7,8
EXT 11,8 e 7,8
EXT 10,9 e 7,8
EXT 9,9 e 7,8
EXT 8,9 e 7,7
EXT 7,8 e 8,8
EXT 7,7 e 8,8
EXT 7,6 e 8,7
EXT 6,6 e 7,8
EXT 5,6 e 7,8
EXT 4,6 e 7,7
EXT 3,6 e 7,8
EXT 6,7 e 7,7
EXT 6,8 e 7,8
EXT 6,9 e 8,8
EXT 4,10 e 7,8
EXT 5,10 e 7,7
EXT 9,12 e 7,8
EXT 9,11 e 7,7
EXT 8,10 e 7,8
EXT 7,10 e 7,8
EXT 6,10 e 7,8
EXT 10,12 e 7,8
EXT 12,14 e 7,8
EXT 12,15 e 7,8
EXT 3,14 e 7,8
EXT 3,15 e 7,7
EXT 9,3 e 7,7
EXT 8,3 e 7,7
EXT 12,2 e 8,7
EXT 12,1 e 8,7
EXT 3,1 e 8,8
EXT 3,2 e 7,8
EXT 4,3 e 7,8
EXT 5,3 e 7,8
EXT 6,3 e 8,7
EXT 7,3 e 7,7

ROOM h
0,0,0,0,u,u,w,v,v,x,u,u,0,0,0,0
0,0,0,0,u,u,u,u,u,u,u,u,0,0,0,0
0,0,0,0,u,u,u,u,u,u,u,u,0,0,0,0
0,0,0,0,0,0,0,0,0,0,0,0,0,0,0,0
0,0,0,0,0,0,0,0,0,0,0,0,0,0,0,0
0,0,0,0,0,14,14,14,14,14,14,0,0,0,0,0
0,0,0,0,0,14,14,14,14,14,14,0,0,0,0,0
0,0,0,0,0,0,0,14,14,0,0,0,0,0,0,0
0,0,0,0,0,0,0,14,14,0,0,0,0,0,0,0
0,0,0,0,0,14,14,14,14,14,14,0,0,0,0,0
0,0,0,0,0,14,14,14,14,14,14,0,0,0,0,0
0,0,0,0,0,0,0,0,0,0,0,0,0,0,0,0
0,0,0,0,0,0,0,0,0,0,0,0,0,0,0,0
0,0,0,0,u,u,u,u,u,13,u,u,0,0,0,0
0,0,0,0,u,u,u,u,u,u,u,u,0,0,0,0
0,0,0,0,u,u,w,v,v,x,u,u,0,0,0,0
WAL z,a,1h,1j,1q,1r,1s,1t,1u,1v,1w,k,21,20,23,24,2j,2i,2h,2f,2e,2d,2c,2b,2a,29,28,27,26
EXT 6,15 g 6,1
EXT 7,15 g 7,1
EXT 8,15 g 8,1
EXT 9,15 g 9,1
EXT 8,12 e 7,7
EXT 7,12 e 7,8
EXT 6,12 e 7,8
EXT 5,12 e 7,7
EXT 4,12 e 7,7
EXT 3,10 e 7,8
EXT 3,11 e 7,7
EXT 5,10 e 7,7
EXT 6,10 e 7,7
EXT 7,10 e 7,8
EXT 8,10 e 7,8
EXT 9,10 e 7,8
EXT 10,10 e 8,8
EXT 10,11 e 8,8
EXT 10,12 e 8,7
EXT 12,14 e 7,8
EXT 12,15 e 8,8
EXT 3,14 e 8,8
EXT 3,15 e 8,7
EXT 11,10 e 8,8
EXT 12,10 e 8,8
EXT 13,9 e 7,7
EXT 13,8 e 8,8
EXT 13,7 e 8,7
EXT 13,6 e 8,7
EXT 13,5 e 8,7
EXT 13,4 e 8,7
EXT 12,3 e 8,7
EXT 11,3 e 8,8
EXT 10,3 e 7,8
EXT 12,2 e 7,8
EXT 12,1 e 8,8
EXT 8,3 e 7,8
EXT 7,3 e 7,8
EXT 6,3 e 7,8
EXT 5,3 e 8,7
EXT 4,3 e 7,8
EXT 3,2 e 8,8
EXT 3,1 e 8,8
EXT 3,9 e 7,8
EXT 3,8 e 7,8
EXT 4,7 e 8,8
EXT 5,7 e 7,8
EXT 6,7 e 7,8
EXT 7,7 e 7,8
EXT 7,6 e 7,8
EXT 8,5 e 7,8
EXT 9,5 e 8,7
EXT 11,5 e 8,8
EXT 11,6 e 7,8
EXT 11,7 e 8,8
EXT 11,8 e 8,7
EXT 10,5 e 8,8
EXT 9,7 e 8,8
EXT 9,8 e 7,8
EXT 9,9 e 8,8
EXT 8,9 e 7,7
EXT 7,9 e 7,7
EXT 6,9 e 8,7
EXT 5,9 e 8,7
EXT 6,0 i 6,15
EXT 7,0 i 7,15
EXT 8,0 i 8,15
EXT 9,0 i 9,15
EXT 8,4 e 8,7

ROOM i
0,0,0,0,0,z,z,z,z,z,z,0,0,0,0,0
0,0,0,0,z,z,u,u,u,0,z,z,0,0,0,0
0,0,0,z,z,u,u,u,u,u,u,z,z,0,0,0
0,0,0,z,u,u,u,u,u,u,u,u,z,0,0,0
0,0,0,z,u,0,0,0,0,0,0,u,z,0,0,0
0,0,0,z,u,0,0,0,0,0,0,u,z,0,0,0
0,0,z,z,u,0,0,0,0,0,0,u,z,z,0,0
0,0,z,u,u,0,0,0,0,0,0,u,u,z,0,0
0,0,z,u,0,0,0,0,0,0,0,u,u,z,0,0
0,0,z,u,u,u,u,u,u,u,u,u,u,z,0,0
0,0,0,20,z,22,u,u,u,u,20,z,22,z,0,0
0,0,0,21,z,1o,u,13,13,u,1o,z,23,0,0,0
0,0,z,z,1o,1o,u,u,u,u,1o,1o,z,z,0,0
0,z,1o,1o,1o,1o,u,12,12,u,1o,1o,1o,1o,z,0
1o,1o,1o,1o,1o,1o,u,u,u,u,1o,1o,1o,1o,1o,1o
1o,1o,1o,1o,1o,1o,u,10,10,u,1o,1o,1o,1o,1o,1o
WAL z,k,21,22,20,23,24,2j,2i,2h,2f,2e,2d,2c,2b,2a,29,28,27,26

ROOM j
0,0,0,0,0,0,0,0,0,0,0,0,0,0,0,0
0,0,0,0,0,0,0,0,0,0,0,0,0,0,0,0
0,0,0,0,0,0,0,0,0,0,0,0,0,0,0,0
0,0,0,0,0,0,0,0,0,0,0,0,0,0,0,0
0,0,0,0,0,0,0,0,0,0,0,0,0,0,0,0
0,0,0,0,0,0,0,0,0,0,0,0,0,0,0,0
0,0,0,0,0,0,0,0,0,0,0,0,0,0,0,0
0,0,0,0,0,0,0,0,0,0,0,0,0,0,0,0
0,0,0,0,0,0,0,0,0,0,0,0,0,0,0,0
0,0,0,0,0,0,0,0,0,0,0,0,0,0,0,0
0,0,0,0,0,0,0,0,0,0,0,0,0,0,0,0
0,0,0,0,0,0,0,0,0,0,0,0,0,0,0,0
0,0,0,0,0,0,0,0,0,0,0,0,0,0,0,0
0,0,0,0,0,0,0,0,0,0,0,0,0,0,0,0
0,0,0,0,0,0,0,0,0,0,0,0,0,0,0,0
0,0,0,0,0,0,0,0,0,0,0,0,0,0,0,0
WAL 2j,2i,2h,2f,2e,2d,2c,2b,2a,29,28,27,26

ROOM k
29,29,2c,29,29,29,2p,2l,2l,2q,29,29,29,2d,29,29
26,26,2c,29,29,29,2k,2n,2o,2m,29,29,29,2d,26,26
0,0,2a,29,2h,29,2k,2r,2s,2m,29,2h,29,2b,0,0
0,0,27,26,2i,26,2k,2n,2o,2m,26,2i,26,28,0,0
0,0,0,0,2j,0,1o,1o,1o,1o,0,2j,0,0,0,0
0,2g,0,0,0,0,1o,1o,1o,1o,0,0,0,0,0,0
0,0,0,0,0,0,1o,1o,1o,1o,0,0,2g,0,0,0
0,0,0,2e,0,2f,1o,1o,1o,1o,2f,0,0,0,2g,0
0,0,0,0,0,0,1o,1o,1o,1o,0,0,0,0,0,0
0,0,2g,0,2f,0,1o,1o,1o,1o,0,2f,0,0,0,0
0,0,0,0,0,1o,1o,1o,1o,1o,1o,0,0,0,0,0
2g,0,0,2f,1o,1o,1o,1o,1o,1o,1o,1o,2f,0,2e,0
0,0,0,0,1o,1o,0,0,2g,0,1o,1o,0,0,0,0
0,2e,0,2f,1o,1o,2g,0,0,0,1o,1o,2f,0,0,0
0,0,0,0,1o,1o,1o,1o,1o,1o,1o,1o,0,0,2g,0
0,0,0,2f,0,1o,1o,1o,1o,1o,1o,0,2f,0,0,0
WAL 2j,2i,2h,2f,2e,2d,2c,2b,2a,29,28,27,26
EXT 6,3 e 6,14
EXT 7,3 e 7,14
EXT 8,3 e 8,14
EXT 9,3 e 9,14

TIL 10
11000011
10000001
00011000
00011000
00011000
00011000
10000001
11000011

TIL 11
11000011
10000001
00000000
00011000
00011000
00000000
10000001
11000011

TIL 12
11000011
10000001
01111110
01111110
00011000
00011000
10000001
11000011

TIL 13
10000001
01111110
01111110
00011000
00011000
01111110
01111110
10000001

TIL 14
00000000
00000000
00000000
00011000
00011000
00000000
00000000
00000000

TIL 15
01010101
01010101
01010101
01010101
01010101
01010101
01010101
01010101

TIL 16
00000001
00000101
00010101
01010101
01010101
01010101
01010101
01010101

TIL 17
00000000
00000000
00000000
00000000
00000001
00000101
00010101
01010101

TIL 20
10000000
10000000
10000000
10000000
10000000
10000000
10000000
10000000

TIL 21
10000000
00000000
10000000
00000000
10000000
00000000
00000000
00000000

TIL 22
00000001
00000001
00000001
00000001
00000001
00000001
00000001
00000001

TIL 23
00000001
00000000
00000001
00000000
00000001
00000000
00000000
00000000

TIL 24
00000000
11111111
10101011
11010101
11111111
11111111
00011000
00111100

TIL 25
00000000
00000000
00000000
00000000
00000000
01111110
01111110
01000010

TIL 26
00100010
11111111
10001000
11111111
00100010
11111111
00000000
11111111

TIL 27
00010010
00011111
00010000
00011111
00010100
00111111
01000000
01111111

TIL 28
01001000
11111000
00001000
11111000
01001000
11111100
00000010
11111110

TIL 29
00100000
11111111
00000100
11111111
00100000
11111111
10001000
11111111

TIL a
11111111
11111111
11111111
11111111
11111111
11111111
11111111
11111111

TIL b
11111111
10011111
11001011
11100011
11100011
11100100
11011111
11111111

TIL c
00000000
00000000
00000000
00000000
00000000
00000000
00000000
00000000

TIL d
00000000
00000000
00001000
00000100
01111110
00000100
00001000
00000000

TIL e
00000000
00000000
00100000
00000000
00000001
00000000
00000000
00000000

TIL f
00000000
00000001
00000011
00110000
01110000
01110100
00000110
00000000

TIL g
00000000
00000000
00000000
00000000
00000000
10000100
01111011
00000000
>
00000000
00000000
00000000
00000000
10000010
01111111
00111000
00000000

TIL h
00000000
00000000
00000100
00000000
00000000
00000000
00100000
00000000

TIL i
11111111
10000001
11111111
10000001
11111111
10000001
11111111
10000001

TIL j
00000000
01111011
10000100
00000000
00000000
00000000
00000000
00000000
>
00000000
00111000
01111111
10000010
00000000
00000000
00000000
00000000

TIL k
00111100
01000010
10011001
10110001
10100101
10001101
01000010
00111100

TIL l
10000000
10000010
10010100
10001000
10000110
10001010
10000000
10000000

TIL m
11111111
00000000
00000000
00100100
00010100
00101000
00000100
00000010

TIL n
00000001
01000001
01000101
00101001
00110001
01001001
00000001
00000001

TIL o
00000000
00000100
00110100
00001000
00010100
00100010
00000000
11111111

TIL p
11111111
10000000
10000000
10010010
10001100
10010100
10000010
10000000

TIL q
10000000
10000100
10000110
10001100
10011000
10100000
10000000
11111111

TIL r
00000001
00000101
00101001
00010001
00101001
01000001
00000001
11111111

TIL s
11111111
00000001
00100101
00010101
00011001
00100101
00000101
00000001

TIL t
00000000
00100100
00011000
00001000
00011100
00100010
00000000
00000000

TIL u
01111110
10111101
11011011
11100111
11100111
11011011
10111101
01111110

TIL v
11111111
00000000
11111111
00000000
11111111
00000000
11111111
00000000

TIL w
11111111
00000000
01111111
00000000
00111111
00000000
00011111
00000000

TIL x
11111111
00000000
11111110
00000000
11111100
00000000
11111000
00000000

TIL y
00000000
01111110
01111110
01100110
01100110
01111110
01111110
00000000

TIL z
00000000
00000000
00000000
00000000
00000000
00000000
00000000
00000000

TIL 1b
00000000
10000000
10000000
10000000
11100111
11011011
10111101
01111110

TIL 1c
00000000
00000000
00000000
00000000
11100111
11011011
10111101
01111110

TIL 1d
00000000
00000001
00000001
00000001
11100111
11011011
10111101
01111110

TIL 1e
01111110
10111101
11011011
11100111
10000000
10000000
10000000
00000000

TIL 1f
01111110
10111101
11011011
11100111
00000000
00000000
00000000
00000000

TIL 1g
01111110
10111101
11011011
11100111
00000001
00000001
00000001
00000000

TIL 1h
00000000
11111111
11111111
11111111
11111111
11111111
11111111
11111111

TIL 1i
00000000
00000000
11111111
00000000
00000000
11111111
00000000
00000000

TIL 1j
11111111
10000001
10000001
10011001
10011001
10000001
10000001
11111111

TIL 1k
00000000
00000000
00000000
00000000
00000000
00000000
00000000
00000000

TIL 1l
11111111
11111111
00000000
00000000
00000000
00000000
00000000
00000000

TIL 1m
11111111
11111111
11110000
11100000
11000000
10000000
00000000
00000000

TIL 1n
11111111
11111111
00001111
00000111
00000011
00000001
00000000
00000000

TIL 1o
00000110
01100110
01110000
01110000
00000100
00001110
00001100
00000000

TIL 1p
10000000
10100000
10101000
10101010
10101010
10101010
10101010
10101010

TIL 1q
10000001
11111111
10100001
10101101
11111111
10010011
10010011
11111111

TIL 1r
11111111
11001001
11001001
11111111
10100001
10100001
11111111
10000001

TIL 1s
10000001
11111111
10101001
10101001
11111111
10100011
10100011
11111111

TIL 1t
11111111
10010101
10010101
11111111
10000001
10110001
11111111
10000001

TIL 1u
10100001
11111111
10001001
10111001
11111111
10000001
10001101
11111111

TIL 1v
11111111
10100101
10100101
11111111
10001101
10001101
11111111
10100001

TIL 1w
00000000
11111111
10000101
10110101
11111111
10100001
10100001
11111111

TIL 1x
00001111
00000000
00000111
00000000
00000011
00000000
00000001
00000000

TIL 1y
00000001
00000101
00010101
01010101
01010101
01010101
01010101
01010101

TIL 1z
00000000
01000000
01101000
00111000
00110000
01101100
00000010
00000000

TIL 2a
00010000
00011111
00010000
00011111
00010000
00011111
00010000
00011111

TIL 2b
00001000
11111000
00001000
11111000
00001000
11111000
00001000
11111000

TIL 2c
00010000
11111111
01010000
11111111
00010000
11111111
00010000
11111111

TIL 2d
00001000
11111111
00001010
11111111
00001000
11111111
00001000
11111111

TIL 2e
00000000
00111100
01000010
01000010
01111110
01010010
01010010
10100101

TIL 2f
11101111
10010001
11000001
00100010
01000100
10010011
10101001
11000111

TIL 2g
00000000
00000000
00000010
01000100
00101000
00010000
00000000
00000000
>
00000000
00000000
00000000
00100110
00101000
00010000
00000000
00000000

TIL 2h
00111100
01000010
01000010
10100101
10011001
01000010
00100100
01000010

TIL 2i
01000010
10100101
10011001
10000001
01000010
00111100
00011000
00011000

TIL 2j
00011000
00100100
01111110
00000000
00000000
00000000
00000000
00000000

TIL 2k
10010010
10010010
10010010
10010010
10010010
10010010
10010010
10010010

TIL 2l
11111111
01001010
01001010
01001010
01001010
01001010
01001010
01001010

TIL 2m
01001001
01001001
01001001
01001001
01001001
01001001
01001001
01001001

TIL 2n
01001010
01001010
01001010
01001010
01001010
01001010
01001010
01001010

TIL 2o
01010010
01010010
01010010
01010010
01010010
01010010
01010010
01010010

TIL 2p
00011111
00110010
01010010
01010010
10010010
10010010
10010010
10010010

TIL 2q
11111000
01001100
01001010
01001010
01001001
01001001
01001001
01001001

TIL 2r
01001010
01001010
01001010
01011110
01010010
01011110
01001010
01001010

TIL 2s
01010010
01010010
01010010
01111010
01001010
01111010
01010010
01010010

SPR 10
00000000
01010100
01110010
00111000
00100110
00110010
00011110
00111110
>
01000010
00000000
01010000
00110100
00101010
00111000
00111110
00111110
POS 9 11,0

SPR 11
00000000
01010100
01110010
00111000
00100110
00110010
00011110
00111110
>
01000010
00000000
01010000
00110100
00101010
00111000
00111110
00111110
POS 9 4,13

SPR 12
00000000
01010100
01110010
00111000
00100110
00110010
00011110
00111110
>
01000010
00000000
01010000
00110100
00101010
00111000
00111110
00111110
POS 9 11,13

SPR 13
00100100
00111100
01111110
01100010
01110110
01100010
01111100
11111110
>
00000000
01000010
00111100
01111110
01100010
01110110
01100010
11111110
POS 8 5,1

SPR 14
00100100
00111100
01111110
01000110
01101110
01000110
00111110
01111111
>
00000000
01000010
00111100
01111110
01000110
01101110
01000110
01111111
POS 8 10,1

SPR 15
00111111
00100000
00101111
00100000
00101101
00100000
01111111
11111111
POS 8 7,0

SPR 16
11111100
00000100
01110100
00000100
11100100
00000100
11111110
11111111
POS 8 8,0

SPR 17
00111111
00100000
00101111
00100000
00101101
00100000
01111111
11111111
POS 9 7,0

SPR 18
11111100
00000100
01110100
00000100
11100100
00000100
11111110
11111111
POS 9 8,0

SPR 19
00111111
00100000
00101111
00100000
00101101
00100000
01111111
11111111
POS a 7,0

SPR 20
11111111
10000101
10000101
11111111
10000001
10110001
11111111
10000101
POS c 10,10

SPR 21
11111111
10000001
10000001
11111111
10000001
10001101
11111111
10100001
POS c 11,10

SPR 22
11111111
10010101
10010101
11111111
10000001
10000001
11111111
10000001
POS c 12,10

SPR 23
11111111
10010101
10010101
11111111
10000001
10000001
11111111
10000001
POS c 8,5

SPR 24
11111111
10000001
10000001
11111111
10000001
10001101
11111111
10100001
POS c 6,5

SPR 25
11111111
10010001
10011101
11111111
10000001
10110001
11111111
10000001
POS c 4,5

SPR 26
11111111
10110001
10110001
11111111
10000101
10000101
11111111
10000001
POS c 10,5

SPR 27
11111111
10011001
10011001
11111111
10100101
10100101
11111111
10000001
POS c 9,5

SPR 28
11111111
11001011
11001011
11111111
10100101
10100101
11111111
10000001
POS c 11,5

SPR 29
11111111
10001001
10001001
11111111
10100001
10101101
11111111
10000001
POS c 12,5

SPR 30
11111111
11111111
11111111
11111111
11111111
11111111
11111111
11111111
POS i 9,3

SPR 31
11111111
11111111
10011001
10011001
10011001
10011001
10011001
11111111
POS i 7,3

SPR 32
11111111
11111111
10011001
10011001
10011001
10011001
10011001
11111111
POS i 8,3

SPR 33
11111111
11111111
11111111
11111111
11111111
11111111
11111111
11111111
POS i 5,4

SPR 34
11111111
11111111
11111111
11111111
11111111
11111111
11111111
11111111
POS i 10,4

SPR 35
11111111
11111111
11111111
11111111
11111111
11111111
10000000
10000000
POS i 6,4

SPR 36
11111111
11111111
11111111
11111111
11111111
11111111
00000001
00000001
POS i 9,4

SPR 37
11110000
11100000
11000000
10000111
00001000
00010001
00100001
00100001
POS i 7,4

SPR 38
00001111
00000111
00000011
11100001
00010000
10001000
10000100
10000100
POS i 8,4

SPR 39
10000000
10000000
11111111
11111111
11111111
11111111
11111111
11111111
POS i 6,5

SPR 40
00100100
00111100
01111110
01110110
01110110
01111110
01111100
11111110
>
00000000
00100100
00111100
01111110
01110110
01110110
01111110
11111111
POS i 5,15

SPR 41
00100100
00111100
01111110
01101110
01101110
01111110
00111110
01111111
>
00000000
00100100
00111100
01111110
01101110
01101110
01111110
01111111
POS i 10,15

SPR 42
00100100
00111100
01111110
01000110
01101110
01111110
00111110
01111111
>
00000000
00100100
00111100
01111110
01000110
01101110
01111110
01111111
POS i 10,13

SPR 43
00100100
00111100
01111110
01100010
01110110
01111110
01111100
11111110
>
00000000
00100100
00111100
01111110
01100010
01110110
01111110
11111111
POS i 5,13

SPR 44
00100100
00111100
01111110
01000110
01101110
01000110
00111110
01111111
>
00000000
00100100
00111100
01111110
01000110
01101110
01000110
01111111
POS i 10,11

SPR 45
00000000
01010100
01110010
00111000
00100110
00110010
00011110
00111110
>
01000010
00000000
01010000
00110100
00101010
00111000
00111110
00111110
POS i 0,13

SPR 46
00000000
01010100
01110010
00111000
00100110
00110010
00011110
00111110
>
01000010
00000000
01010000
00110100
00101010
00111000
00111110
00111110
POS i 15,13

SPR 47
00000000
01010100
01110010
00111000
00100110
00110010
00011110
00111110
>
01000010
00000000
01010000
00110100
00101010
00111000
00111110
00111110
POS i 3,6

SPR 48
00000000
01010100
01110010
00111000
00100110
00110010
00011110
00111110
>
01000010
00000000
01010000
00110100
00101010
00111000
00111110
00111110
POS i 12,6

SPR 49
00000000
01010100
01110010
00111000
00100110
00110010
00011110
00111110
>
01000010
00000000
01010000
00110100
00101010
00111000
00111110
00111110
POS i 4,2

SPR 50
00100100
00111100
01111110
01110110
01110110
01111110
01111100
11111110
>
00000000
00100100
00111100
01111110
01110110
01110110
01111110
11111111
POS 3 5,13

SPR 51
00100100
00111100
01111110
01101110
01101110
01111110
00111110
01111111
>
00000000
00100100
00111100
01111110
01101110
01101110
01111110
01111111
POS 3 11,9

SPR 52
00000000
00000000
00000000
00000000
00000000
00000000
00000000
00000000

SPR 53
00100100
00111100
01111110
01000110
01101110
01111110
00111110
01111111
>
00000000
00100100
00111100
01111110
01000110
01101110
01111110
01111111
POS 1 9,2

SPR 54
00100100
00111100
01111110
01100010
01110110
01111110
01111100
11111110
>
00000000
00100100
00111100
01111110
01100010
01110110
01111110
11111111
POS 1 1,11

SPR 55
00100100
00111100
01111110
01000110
01101110
01111110
00111110
01111111
>
00000000
00100100
00111100
01111110
01000110
01101110
01111110
01111111
POS c 10,13

SPR 56
00100100
00111100
01111110
01100010
01110110
01111110
01111100
11111110
>
00000000
00100100
00111100
01111110
01100010
01110110
01111110
11111111
POS c 6,8

SPR 57
00000000
00000000
00000000
00000000
00000000
00000000
00000000
00000000

SPR 58
00100100
00111100
01111110
01100010
01110110
01111110
01111100
11111110
>
00000000
00100100
00111100
01111110
01100010
01110110
01111110
11111111
POS e 2,4

SPR 59
00100100
00111100
01111110
01000110
01101110
01000110
00111110
01111111
>
00000000
00100100
00111100
01111110
01000110
01101110
01000110
01111111
POS e 10,5

SPR A
00100100
00111100
01111110
01011010
01100110
01111110
00100100
00100100
>
00000000
01000010
00111100
01111110
01011010
01111110
01111110
00100100
POS k 7,12

SPR a
00000000
00000000
01010001
01110001
01110010
01111100
00111100
00100100
POS 0 8,4

SPR c
10001001
11111111
10110101
10110101
11111111
11001001
11001001
11111111
POS c 5,6

SPR d
10100001
11111111
11000101
11000101
11111111
10010001
10010001
11111111
POS c 6,6

SPR e
10000011
11111111
10001101
10001101
11111111
10100001
10100001
11111111
POS c 7,6

SPR f
10000001
11111111
10001001
10001001
11111111
10100001
10100001
11111111
POS c 8,6

SPR g
10000001
11111111
10100101
10100101
11111111
10000011
10110011
11111111
POS c 9,6

SPR h
10000001
11111111
11000001
11011101
11111111
10000101
10000101
11111111
POS c 10,6

SPR i
00000001
11111111
10001101
10001101
11111111
10100001
10100001
11111111
POS c 11,6

SPR j
10001101
11111111
10000001
10110001
11111111
10010101
10010101
11111111
POS c 12,6

SPR k
10000101
11111111
11100001
11100001
11111111
10000101
10000101
11111111
POS c 4,11

SPR l
10100011
11111111
10010001
10010001
11111111
10101011
10101011
11111111
POS c 5,11

SPR m
10000001
11111111
10110101
10110101
11111111
10001101
10001101
11111111
POS c 6,11

SPR n
10100001
11111111
10000101
10110101
11111111
10000001
10001101
11111111
POS c 7,11

SPR o
10100001
11111111
10000001
10110001
11111111
10101011
10101011
11111111
POS c 8,11

SPR p
10000001
11111111
10100001
10100001
11111111
10000001
10000001
11111111
POS c 9,11

SPR q
10000101
11111111
10000001
10000001
11111111
10100001
10100001
11111111
POS c 10,11

SPR r
10100001
11111111
10010001
10010001
11111111
10001001
10001001
11111111
POS c 11,11

SPR s
10000001
11111111
10000101
10000101
11111111
10001001
10111001
11111111
POS c 12,11

SPR t
00100100
00111100
01111110
01111110
01110110
01111110
01111100
11111110
>
00000000
00100100
00111100
01111110
01111110
01110110
01111110
11111111

SPR u
00100100
00111100
01111110
01100010
01110110
01100010
01111100
11111110
>
00000000
00100100
00111100
01111110
01100010
01110110
01100010
11111111
POS 6 5,13

SPR v
00000000
01010100
01110010
00111000
00100110
00110010
00011110
00111110
>
01000010
00000000
01010000
00110100
00101010
00111000
00111110
00111110
POS 8 11,0

SPR w
00000000
01010100
01110010
00111000
00100110
00110010
00011110
00111110
>
01000010
00000000
01010000
00110100
00101010
00111000
00111110
00111110
POS 8 4,0

SPR x
00000000
01010100
01110010
00111000
00100110
00110010
00011110
00111110
>
01000010
00000000
01010000
00110100
00101010
00111000
00111110
00111110
POS 8 11,13

SPR y
00000000
01010100
01110010
00111000
00100110
00110010
00011110
00111110
>
01000010
00000000
01010000
00110100
00101010
00111000
00111110
00111110
POS 8 4,13

SPR z
00000000
01010100
01110010
00111000
00100110
00110010
00011110
00111110
>
01000010
00000000
01010000
00110100
00101010
00111000
00111110
00111110
POS 9 4,0

SPR 1a
11111100
00000100
01110100
00000100
11100100
00000100
11111110
11111111
POS a 8,0

SPR 1b
00111111
00100000
00101111
00100000
00101101
00100000
01111111
11111111
POS b 7,0

SPR 1c
11111100
00000100
01110100
00000100
11100100
00000100
11111110
11111111
POS b 8,0

SPR 1d
00000000
01010100
01110010
00111000
00100110
00110010
00011110
00111110
>
01000010
00000000
01010000
00110100
00101010
00111000
00111110
00111110
POS a 11,13

SPR 1e
00000000
01010100
01110010
00111000
00100110
00110010
00011110
00111110
>
01000010
00000000
01010000
00110100
00101010
00111000
00111110
00111110
POS a 4,13

SPR 1f
00000000
01010100
01110010
00111000
00100110
00110010
00011110
00111110
>
01000010
00000000
01010000
00110100
00101010
00111000
00111110
00111110
POS a 4,0

SPR 1g
00000000
01010100
01110010
00111000
00100110
00110010
00011110
00111110
>
01000010
00000000
01010000
00110100
00101010
00111000
00111110
00111110
POS a 11,0

SPR 1j
00100100
00111100
01111110
01110110
01110110
01111110
01111100
11111110
>
00000000
01000010
00111100
01111110
01110110
01110110
01111110
11111110
POS a 5,1

SPR 1k
00100100
00111100
01111110
01101110
01101110
01111110
00111110
01111111
>
00000000
01000010
00111100
01111110
01101110
01101110
01111110
01111111
POS a 10,1

SPR 1l
00100100
00111100
01111110
01100010
01110110
01111110
01111100
11111110
>
00000000
01000010
00111100
01111110
01100010
01110110
01111110
11111110
POS b 5,1

SPR 1m
00100100
00111100
01111110
01000110
01101110
01111110
00111110
01111111
>
00000000
01000010
00111100
01111110
01000110
01101110
01111110
01111111
POS b 10,1

SPR 1n
00000000
01010100
01110010
00111000
00100110
00110010
00011110
00111110
>
01000010
00000000
01010000
00110100
00101010
00111000
00111110
00111110
POS b 11,0

SPR 1o
00000000
01010100
01110010
00111000
00100110
00110010
00011110
00111110
>
01000010
00000000
01010000
00110100
00101010
00111000
00111110
00111110
POS b 4,0

SPR 1p
00000000
01010100
01110010
00111000
00100110
00110010
00011110
00111110
>
01000010
00000000
01010000
00110100
00101010
00111000
00111110
00111110
POS b 11,13

SPR 1q
00000000
01010100
01110010
00111000
00100110
00110010
00011110
00111110
>
01000010
00000000
01010000
00110100
00101010
00111000
00111110
00111110
POS b 4,13

SPR 1r
10001101
11111111
10100101
10100101
11111111
10011001
10011001
11111111
POS c 4,6

SPR 1s
11111111
10010111
10010111
11111111
10100101
10100101
11111111
10001001
POS c 5,5

SPR 1t
11111111
10110001
10110001
11111111
10000101
10000101
11111111
10000001
POS c 7,5

SPR 1u
11111111
10110001
10110001
11111111
10000101
10000101
11111111
10000001
POS c 9,10

SPR 1v
11111111
10100001
10100001
11111111
10001001
10001001
11111111
10000101
POS c 4,10

SPR 1w
11111111
10100101
10100101
11111111
10000001
10011001
11111111
10100011
POS c 5,10

SPR 1x
11111111
10010001
10011101
11111111
10000001
10110001
11111111
10000001
POS c 6,10

SPR 1y
11111111
10000001
10001101
11111111
10000001
10000001
11111111
10100001
POS c 7,10

SPR 1z
11111111
10100101
10100101
11111111
10001001
10001001
11111111
10100001
POS c 8,10

SPR 2a
00000000
01010100
01110010
00111000
00100110
00110010
00011110
00111110
>
01000010
00000000
01010000
00110100
00101010
00111000
00111110
00111110
POS e 5,3

SPR 2b
00000000
01010100
01110010
00111000
00100110
00110010
00011110
00111110
>
01000010
00000000
01010000
00110100
00101010
00111000
00111110
00111110
POS e 10,3

SPR 2c
00000000
01010100
01110010
00111000
00100110
00110010
00011110
00111110
>
01000010
00000000
01010000
00110100
00101010
00111000
00111110
00111110
POS f 4,13

SPR 2d
00000000
01010100
01110010
00111000
00100110
00110010
00011110
00111110
>
01000010
00000000
01010000
00110100
00101010
00111000
00111110
00111110
POS f 11,13

SPR 2e
00000000
01010100
01110010
00111000
00100110
00110010
00011110
00111110
>
01000010
00000000
01010000
00110100
00101010
00111000
00111110
00111110
POS f 4,0

SPR 2f
00000000
01010100
01110010
00111000
00100110
00110010
00011110
00111110
>
01000010
00000000
01010000
00110100
00101010
00111000
00111110
00111110
POS f 11,0

SPR 2g
00100100
00111100
01111110
01110110
01110110
01111110
01111100
11111110
>
00000000
00100100
00111100
01111110
01110110
01110110
01111110
11111111
POS f 6,13

SPR 2h
00000000
01010100
01110010
00111000
00100110
00110010
00011110
00111110
>
01000010
00000000
01010000
00110100
00101010
00111000
00111110
00111110
POS g 4,13

SPR 2i
00000000
01010100
01110010
00111000
00100110
00110010
00011110
00111110
>
01000010
00000000
01010000
00110100
00101010
00111000
00111110
00111110
POS g 11,13

SPR 2j
00000000
01010100
01110010
00111000
00100110
00110010
00011110
00111110
>
01000010
00000000
01010000
00110100
00101010
00111000
00111110
00111110
POS g 4,0

SPR 2k
00000000
01010100
01110010
00111000
00100110
00110010
00011110
00111110
>
01000010
00000000
01010000
00110100
00101010
00111000
00111110
00111110
POS g 11,0

SPR 2l
00100100
00111100
01111110
01100010
01110110
01111110
01111100
11111110
>
00000000
00100100
00111100
01111110
01100010
01110110
01111110
11111111
POS g 6,13

SPR 2m
00000000
01010100
01110010
00111000
00100110
00110010
00011110
00111110
>
01000010
00000000
01010000
00110100
00101010
00111000
00111110
00111110
POS h 4,0

SPR 2n
00000000
01010100
01110010
00111000
00100110
00110010
00011110
00111110
>
01000010
00000000
01010000
00110100
00101010
00111000
00111110
00111110
POS h 11,0

SPR 2o
00000000
01010100
01110010
00111000
00100110
00110010
00011110
00111110
>
01000010
00000000
01010000
00110100
00101010
00111000
00111110
00111110
POS h 4,13

SPR 2p
00000000
01010100
01110010
00111000
00100110
00110010
00011110
00111110
>
01000010
00000000
01010000
00110100
00101010
00111000
00111110
00111110
POS h 11,13

SPR 2q
00100100
00111100
01111110
01100010
01110110
01100010
01111100
11111110
>
00000000
00100100
00111100
01111110
01100010
01110110
01100010
11111111
POS h 6,13

SPR 2r
00000000
00111111
01111111
11111111
11111111
11111111
11111111
11111111
POS i 6,1

SPR 2s
11111111
11111111
11111111
11111111
11111111
11111111
11111111
11111111
POS i 6,2

SPR 2t
11111111
11111111
11111111
11111111
11111111
11111111
11111111
11111111
POS i 7,2

SPR 2u
11111111
11111111
11111111
11111111
11111111
11111111
11111111
11111111
POS i 8,2

SPR 2v
11111111
11111111
11111111
11111111
11111111
11111111
11111111
11111111
POS i 9,2

SPR 2w
00000000
11111100
11111110
11111111
11111111
11111111
11111111
11111111
POS i 9,1

SPR 2x
00001111
00011111
00111111
01111111
11111111
11111111
11111111
11111111
POS i 5,3

SPR 2y
11110000
11111000
11111100
11111110
11111111
11111111
11111111
11111111
POS i 10,3

SPR 2z
11111111
11111111
11111111
11111111
11111111
11111111
11111111
11111111
POS i 6,3

SPR 3a
00000001
00000001
11111111
11111111
11111111
11111111
11111111
11111111
POS i 9,5

SPR 3b
11111111
11111111
11111111
11111111
11111111
11111111
11111111
11111111
POS i 10,5

SPR 3c
11111111
11111111
11111111
11111111
11111111
11111111
11111111
11111111
POS i 5,5

SPR 3d
00100001
00010001
00010001
00001000
10000111
11000000
11100000
11110000
POS i 7,5

SPR 3e
10000100
10001000
10001000
00010000
11100001
00000011
00000111
00001111
POS i 8,5

SPR 3f
11111111
11110000
11110000
11111111
11110101
11110101
11111111
11111111
POS i 7,6

SPR 3g
11111111
00001111
00001111
11111111
10101111
10101111
11111111
11111111
POS i 8,6

SPR 3h
11111111
11111111
11011111
11011111
11011111
11011111
11011111
11011111
POS i 6,6

SPR 3i
11111111
11111111
11111011
11111011
11111011
11111011
11111011
11111011
POS i 9,6

SPR 3j
11111111
11111111
11111111
11111111
11111111
11111111
11111111
11111111
POS i 5,6

SPR 3k
11111111
11111111
11111111
11111111
11111111
11111111
11111111
11111111
POS i 10,6

SPR 3l
11111111
11111111
11111111
11111111
11111111
11111111
11111111
11111111
POS i 7,7

SPR 3m
11111111
11111111
11111111
11111111
11111111
11111111
11111111
11111111
POS i 8,7

SPR 3n
11011111
11011111
11011111
11011111
11011111
10111111
01111111
11111111
POS i 6,7

SPR 3o
11111011
11111011
11111011
11111011
11111011
11111101
11111110
11111111
POS i 9,7

SPR 3p
11111111
11111111
11111111
11111111
11111111
11111111
11110000
11111111
POS i 5,7

SPR 3q
11111111
11111111
11111111
11111111
11111111
11111111
00001111
11111111
POS i 10,7

SPR 3r
00001111
00011111
00111111
01111111
01111111
11111111
11111111
11111111
POS i 4,8

SPR 3s
11111111
11111111
11111111
11111111
11111111
11111111
11111111
11111111
POS i 5,8

SPR 3t
11111111
11111111
11111111
11111111
11111111
11111111
11111111
11111111
POS i 6,8

SPR 3u
11111111
11111111
11111111
11111111
11111111
11111111
11111111
11111111
POS i 7,8

SPR 3v
11111111
11111111
11111111
11111111
11111111
11111111
11111111
11111111
POS i 8,8

SPR 3w
11111111
11111111
11111111
11111111
11111111
11111111
11111111
11111111
POS i 9,8

SPR 3x
11111111
11111111
11111111
11111111
11111111
11111111
11111111
11111111
POS i 10,8

SPR 3y
11110000
11111000
11111100
11111110
11111110
11111111
11111111
11111111
POS i 11,8

SPR 3z
00100100
00111100
01111110
01100010
01110110
01100010
01111100
11111110
>
00000000
00100100
00111100
01111110
01100010
01110110
01100010
11111111
POS i 5,11

SPR 4a
00000000
01010100
01110010
00111000
00100110
00110010
00011110
00111110
>
01000010
00000000
01010000
00110100
00101010
00111000
00111110
00111110
POS i 11,2

SPR 4b
00000000
01010100
01110010
00111000
00100110
00110010
00011110
00111110
>
01000010
00000000
01010000
00110100
00101010
00111000
00111110
00111110
POS i 3,12

SPR 4c
00000000
01010100
01110010
00111000
00100110
00110010
00011110
00111110
>
01000010
00000000
01010000
00110100
00101010
00111000
00111110
00111110
POS i 12,12

SPR 4d
00100100
00111100
01111110
01111110
01111110
01111110
00111110
01111111
>
00000000
00100100
00111100
01111110
01111110
01111110
01111110
01111111
POS i 14,14

SPR 4e
00100100
00111100
01111110
01111110
01111110
01111110
01111100
11111110
>
00000000
00100100
00111100
01111110
01111110
01111110
01111110
11111111
POS i 3,14

SPR 4f
00100100
00111100
01111110
01111110
01111110
01111110
00111110
01111111
>
00000000
00100100
00111100
01111110
01111110
01111110
01111110
01111111
POS i 12,14

SPR 4g
00100100
00111100
01111110
01111110
01111110
01111110
01111100
11111110
>
00000000
00100100
00111100
01111110
01111110
01111110
01111110
11111111
POS i 1,14

SPR 4h
00000000
01010100
01110010
00111000
00100110
00110010
00011110
00111110
>
01000010
00000000
01010000
00110100
00101010
00111000
00111110
00111110
POS d 3,2

SPR 4i
00100100
00111100
01111110
01100010
01110110
01100010
01111100
11111110
>
00000000
00100100
00111100
01111110
01100010
01110110
01100010
11111111
POS d 7,9

SPR 4j
00100100
00111100
01111110
01000110
01101110
01000110
00111110
01111111
>
00000000
00100100
00111100
01111110
01000110
01101110
01000110
01111111
POS d 9,9

SPR 4k
00100100
00111100
01111110
01100010
01110110
01100010
01111100
11111110
>
00000000
00100100
00111100
01111110
01100010
01110110
01100010
11111111
POS d 12,6

SPR 4l
00100100
00111100
01111110
01000110
01101110
01111110
00111110
01111111
>
00000000
00100100
00111100
01111110
01000110
01101110
01111110
01111111
POS d 14,6

SPR 4m
00100100
00111100
01111110
01110110
01110110
01111110
01111100
11111110
>
00000000
00100100
00111100
01111110
01110110
01110110
01111110
11111111
POS d 12,12

SPR 4n
00100100
00111100
01111110
01000110
01101110
01000110
00111110
01111111
>
00000000
00100100
00111100
01111110
01000110
01101110
01000110
01111111
POS d 9,12

SPR 4s
00100100
00111100
01111110
01111110
01110110
01111110
01111100
11111110
>
00000000
00100100
00111100
01111110
01111110
01110110
01111110
11111111
POS k 6,6

SPR 4t
00100100
00111100
01111110
01111110
01101110
01111110
00111110
01111111
>
00000000
00100100
00111100
01111110
01111110
01101110
01111110
01111111
POS k 9,8

SPR 4u
00000000
00000000
00000000
00000000
00000000
00000000
00000000
00000000

SPR 4v
00100100
00111100
01111110
01000110
01101110
01000110
00111110
01111111
>
00000000
00100100
00111100
01111110
01000110
01101110
01000110
01111111
POS 7 12,12

SPR 4w
00000000
00000000
00000000
00000000
00000000
00000000
00000000
00000000

SPR 4x
00100100
00111100
01111110
01110110
01110110
01111110
01111100
11111110
>
00000000
00100100
00111100
01111110
01110110
01110110
01111110
11111111
POS 4 11,8

SPR 4y
00100100
00111100
01111110
01101110
01101110
01111110
00111110
01111111
>
00000000
00100100
00111100
01111110
01101110
01101110
01111110
01111111
POS 4 12,8

SPR 4z
00100100
00111100
01111110
01101110
01101110
01111110
00111110
01111111
>
00000000
00100100
00111100
01111110
01101110
01101110
01111110
01111111
POS 4 7,10

SPR 5a
00100100
00111100
01111110
01100010
01110110
01100010
01111100
11111110
>
00000000
00100100
00111100
01111110
01100010
01110110
01100010
11111111
POS e 5,10

SPR 5b
00100100
00111100
01111110
01101110
01101110
01111110
00111110
01111111
>
00000000
00100100
00111100
01111110
01101110
01101110
01111110
01111111
POS e 13,14

SPR 5c
00000000
01010100
01110010
00111000
00100110
00110010
00011110
00111110
>
01000010
00000000
01010000
00110100
00101010
00111000
00111110
00111110
POS e 11,3

SPR 5d
00000000
01010100
01110010
00111000
00100110
00110010
00011110
00111110
>
01000010
00000000
01010000
00110100
00101010
00111000
00111110
00111110
POS e 4,3

DLG 13
"Congratulations, you completed the trial! Use your new found knowledge well."

DLG 14
"I wanted to base this trial around Go Fish... But I was outvoted."

DLG 15
"May the knowledge you've earned, guide your path towards the inner sanctum of The Library."

DLG 16
"May the knowledge you've earned, guide your path towards the inner sanctum of The Library."

DLG 17
"May the knowledge you've earned, guide your path towards the inner sanctum of The Library."

DLG 18
"May the knowledge you've earned, guide your path towards the inner sanctum of The Library."

DLG 19
"May the knowledge you've earned, guide your path towards the inner sanctum of The Library."

DLG 40
"Bask in it's almighty glory!"

DLG 41
"If you got here through trial and error, I admire your tenacity."

DLG 42
"I can't... stop... bopping!"

DLG 43
"Welcome to the inner sanctum of The Library!"

DLG 44
"So... What do we do now?"

DLG 50
"We have a little bit of a leak down here..."

DLG 51
"I wouldn't try and go out there if I was you! It's really deep with a strong current!"

DLG 53
"Be careful up here. The floor might cave in below your feet."

DLG 54
"I've been trapped over here for three weeks..."

DLG 55
"I like trashy romance novels and I'm proud of it!"

DLG 56
"Meh. The movies better."

DLG 58
"I really do prefer these cultist robes over the standard library card!"

DLG 59
"First you must obtain knowledge, then you can pass through to the inner sanctum."

DLG a
"I'm a cat... And you encountered a bug! You shouldn't be here! This is my house! Get out of here!"

DLG c
"Going Down: A Guide To Elevator Maintenance."

DLG d
"No Time Left: Working With a Deadline, Volume I."

DLG e
"A Collection of My Words" by Elliot Downey.

DLG f
"Downtown Awflen: Restaurants, Entertainment and Nightlife."

DLG g
"The Writings of Chuck Hark."

DLG h
"Off the Starboard!" by B.Beard.

DLG i
"You Have The Right To Remain Silent" by S.U Yu.

DLG j
"When The Clock Strikes Midnight: Working With A Deadline, Volume II."

DLG k
"The Right Hand of Dog: The Unofficial Bible of Canine Obedience."

DLG l
"Stay The Course: A Retiree's Guide To Golf Resorts."

DLG m
"Going Down South: A Guide To Love Making."

DLG n
"Lateral Thinking: The Creative Use of Angles."

DLG o
"Below The Belt: The Art of Manscaping."

DLG p
"The Wild History of The Wild West."

DLG q
"Watch Your Six" by I.C. Yu.

DLG r
"Cooking With Leftovers."

DLG s
"Sixteen Feet Under: An Introduction to Palaeontology."

DLG t
"Welcome to The Library"

DLG u
"This chess board was once part of the trial, however it's seen better days... Just like the rest of this place..."

DLG 1r
"Slightly Left of Centre: So You're A Social Democrat?" by Jane Green. 

DLG 1q


DLG 4v
"You took quite a fall back there! Better watch your step next time."

DLG 4t
"Welcome to The Library."

DLG 4s
"Knowledge lies ahead."

DLG 4i
"Knight to F8!"

DLG 4j
"Oh geez! It's only his fourth turn and I'm already sweating bullets!"

DLG 4m
"I wish I had someone to play with..."

DLG 4n
"I wish I had someone to play with..."

DLG 1j
"Congratulations, you completed the trial! And your lungs aren't even full of water!"

DLG 1k
"I wish I had a photographic memory! That, or a piece of paper."

DLG 4x
"I wish I had my floaties!"

DLG 4y
"This beats a real beach any day!"

DLG 4z
"Decades of knowledge down the toilet!" 

DLG 1l
"Congratulations, you completed the trial! Books are the key to all knowledge!"

DLG 1m
"I just guessed my way up here!"

DLG 1a
"May the knowledge you've earned, guide your path towards the inner sanctum of The Library."

DLG 1b
"May the knowledge you've earned, guide your path towards the inner sanctum of The Library."

DLG 1c
"May the knowledge you've earned, guide your path towards the inner sanctum of The Library."

DLG 2g
"Proceed with your new knowledge."

DLG 2l
"Go forth with what thou haveth learnth!"

DLG 2q
"The guy before me gets way to into the whole final trial thing..."

DLG 2k


DLG 4e
"It took me five months to get here!"

DLG 4f
"I just got here through trial and error!"

DLG 4g
"All hail the golden bunny!"

DLG 4d
"I expected more."

DLG 3z
"Hey! This is just a credits sequence!"

DLG 3r
"Welcome to the inner sanctum of The Library, my child of knowledge. May your future with us be bright! For now, I will leave you with this parting wisdom... The Library was created by Tom Hambly, using the Bitsy Game Maker developed by Adam Le Doux. Thanks for playing!... Do what you will with this knowledge."

DLG 3s
"Welcome to the inner sanctum of The Library, my child of knowledge. May your future with us be bright! For now, I will leave you with this parting wisdom... The Library was created by Tom Hambly, using the Bitsy Game Maker developed by Adam Le Doux. Thanks for playing!... Do what you will with this knowledge."

DLG 3t
"Welcome to the inner sanctum of The Library, my child of knowledge. May your future with us be bright! For now, I will leave you with this parting wisdom... The Library was created by Tom Hambly, using the Bitsy Game Maker developed by Adam Le Doux. Thanks for playing!... Do what you will with this knowledge."

DLG 3u
"Welcome to the inner sanctum of The Library, my child of knowledge. May your future with us be bright! For now, I will leave you with this parting wisdom... The Library was created by Tom Hambly, using the Bitsy Game Maker developed by Adam Le Doux. Thanks for playing!... Do what you will with this knowledge."

DLG 3v
"Welcome to the inner sanctum of The Library, my child of knowledge. May your future with us be bright! For now, I will leave you with this parting wisdom... The Library was created by Tom Hambly, using the Bitsy Game Maker developed by Adam Le Doux. Thanks for playing!... Do what you will with this knowledge."

DLG 3w
"Welcome to the inner sanctum of The Library, my child of knowledge. May your future with us be bright! For now, I will leave you with this parting wisdom... The Library was created by Tom Hambly, using the Bitsy Game Maker developed by Adam Le Doux. Thanks for playing!... Do what you will with this knowledge."

DLG 3x
"Welcome to the inner sanctum of The Library, my child of knowledge. May your future with us be bright! For now, I will leave you with this parting wisdom... The Library was created by Tom Hambly, using the Bitsy Game Maker developed by Adam Le Doux. Thanks for playing!... Do what you will with this knowledge."

DLG 3y
"Welcome to the inner sanctum of The Library, my child of knowledge. May your future with us be bright! For now, I will leave you with this parting wisdom... The Library was created by Tom Hambly, using the Bitsy Game Maker developed by Adam Le Doux. Thanks for playing!... Do what you will with this knowledge."

DLG 5b
"I just came here to return an overdue book... Now I've been in this cult for two years!"

DLG 5a
"If you wish to join The Order of The Library, proceed through to the inner sanctum... If you're looking for periodicals, proceed to my left."

