
Ray Nexus Presents...

# BITSY VERSION 4.8

! ROOM_FORMAT 1

PAL 0
255,255,255
0,0,0
0,0,0

PAL 1
255,255,255
0,0,0
255,255,255

PAL 2
255,255,255
0,0,0
0,0,0

ROOM 0
b,b,b,a,a,a,a,a,b,a,a,a,a,a,b,a
b,a,b,a,b,b,b,b,b,b,b,b,b,a,b,b
b,a,a,a,b,a,a,a,b,a,a,a,b,a,a,a
b,a,b,b,b,a,b,a,b,a,b,a,b,b,b,b
b,a,b,a,b,b,b,a,b,a,b,b,b,a,a,b
b,a,b,a,a,a,a,a,b,a,a,a,a,a,b,a
b,a,b,a,b,a,b,b,b,b,b,a,b,b,b,b
b,a,b,a,b,a,b,b,b,b,b,a,b,a,a,a
b,a,b,b,b,a,b,b,b,b,b,a,b,b,b,b
b,b,a,a,a,a,b,b,b,b,b,a,a,a,a,b
a,b,b,a,b,a,b,b,b,b,b,a,b,a,b,b
a,a,b,a,b,a,a,a,a,a,a,a,b,a,b,a
a,b,b,a,b,b,b,b,b,b,b,a,b,a,b,a
b,b,a,b,b,a,a,b,a,a,a,b,b,b,b,a
b,a,a,b,a,a,b,b,b,b,a,b,a,a,a,b
b,b,b,a,b,b,b,a,a,b,a,b,b,b,b,b
NAME Centro-Lab-SA
ITM 0 2,1
ITM 0 2,0
ITM 0 1,0
ITM 0 0,0
ITM 0 0,1
ITM 0 0,2
ITM 0 0,3
ITM 0 0,4
ITM 0 0,5
ITM 0 0,6
ITM 0 0,7
ITM 0 0,8
ITM 0 0,9
ITM 0 1,9
ITM 0 1,10
ITM 0 2,10
ITM 0 2,11
ITM 0 2,12
ITM 0 1,12
ITM 0 1,13
ITM 0 0,13
ITM 0 0,14
ITM 0 0,15
ITM 0 1,15
ITM 0 2,15
ITM 0 3,14
ITM 0 3,13
ITM 0 4,13
ITM 0 4,12
ITM 0 4,11
ITM 0 4,10
ITM 0 6,10
ITM 0 6,9
ITM 0 6,8
ITM 0 7,8
ITM 0 7,9
ITM 0 7,10
ITM 0 8,10
ITM 0 9,10
ITM 0 9,9
ITM 0 9,8
ITM 0 8,8
ITM 0 9,7
ITM 0 9,6
ITM 0 8,6
ITM 0 7,6
ITM 0 7,7
ITM 0 6,7
ITM 0 6,6
ITM 0 10,6
ITM 0 10,7
ITM 0 10,8
ITM 0 10,9
ITM 0 10,10
ITM 0 8,5
ITM 0 8,4
ITM 0 8,3
ITM 0 8,2
ITM 0 8,1
ITM 0 8,0
ITM 0 7,1
ITM 0 6,1
ITM 0 5,1
ITM 0 4,1
ITM 0 4,2
ITM 0 4,3
ITM 0 3,3
ITM 0 2,3
ITM 0 2,4
ITM 0 2,5
ITM 0 2,6
ITM 0 2,7
ITM 0 2,8
ITM 0 3,8
ITM 0 4,8
ITM 0 4,7
ITM 0 4,6
ITM 0 4,4
ITM 0 5,4
ITM 0 6,4
ITM 0 6,3
ITM 0 9,1
ITM 0 10,1
ITM 0 12,1
ITM 0 11,1
ITM 0 12,2
ITM 0 12,3
ITM 0 12,4
ITM 0 11,4
ITM 0 10,4
ITM 0 10,3
ITM 0 13,3
ITM 0 14,3
ITM 0 15,3
ITM 0 15,4
ITM 0 15,1
ITM 0 14,1
ITM 0 14,0
ITM 0 14,5
ITM 0 15,6
ITM 0 14,6
ITM 0 13,6
ITM 0 12,6
ITM 0 12,7
ITM 0 12,8
ITM 0 13,8
ITM 0 14,8
ITM 0 15,8
ITM 0 15,9
ITM 0 15,10
ITM 0 14,10
ITM 0 14,11
ITM 0 14,12
ITM 0 14,13
ITM 0 13,13
ITM 0 12,13
ITM 0 12,12
ITM 0 12,11
ITM 0 12,10
ITM 0 11,13
ITM 0 11,14
ITM 0 11,15
ITM 0 12,15
ITM 0 14,15
ITM 0 13,15
ITM 0 15,15
ITM 0 10,12
ITM 0 9,12
ITM 0 8,12
ITM 0 7,12
ITM 0 6,12
ITM 0 5,12
ITM 0 7,13
ITM 0 7,14
ITM 0 8,14
ITM 0 9,14
ITM 0 9,15
ITM 0 6,14
ITM 0 6,15
ITM 0 5,15
ITM 0 4,15
ITM 0 15,14
EXT 8,0 2 8,15
EXT 14,0 2 14,15
EXT 1,0 2 1,15
EXT 15,1 5 0,1
EXT 15,3 5 0,3
EXT 15,14 5 0,14
EXT 11,15 7 11,0
EXT 9,15 7 9,0
EXT 1,15 7 1,0
PAL 0

ROOM 1
a,a,a,a,a,a,a,a,a,a,a,a,a,a,a,a
a,b,b,b,b,b,b,b,a,b,b,b,a,b,b,b
a,b,a,a,a,a,a,b,a,b,a,b,b,b,a,b
a,b,b,a,e,a,b,b,a,b,a,a,a,a,a,a
a,a,b,a,b,a,b,a,a,b,a,b,b,b,b,a
a,b,b,a,b,a,b,b,a,b,b,a,b,a,b,b
a,b,a,a,b,a,a,b,a,a,b,a,b,a,a,a
a,b,b,a,b,b,a,a,b,b,b,a,b,b,b,b
a,a,b,a,a,b,b,b,b,a,a,a,a,b,a,b
a,b,b,b,a,a,a,b,a,b,b,b,a,a,a,b
a,b,a,b,b,a,b,b,a,b,a,b,b,b,b,b
a,b,a,a,b,a,b,a,a,b,a,a,a,a,a,b
a,b,b,a,b,a,b,b,a,b,a,b,b,b,a,b
a,a,b,a,b,a,a,b,b,b,a,b,b,b,a,b
a,b,b,a,b,b,b,b,a,b,a,b,b,b,a,b
a,b,a,a,a,a,a,b,a,b,a,a,b,a,a,b
NAME Esq-Sup-Izq-Lab-SA
ITM 0 15,2
ITM 0 15,1
ITM 0 14,1
ITM 0 13,1
ITM 0 13,2
ITM 0 12,2
ITM 0 11,2
ITM 0 11,1
ITM 0 10,1
ITM 0 9,1
ITM 0 9,2
ITM 0 9,3
ITM 0 9,4
ITM 0 9,5
ITM 0 10,5
ITM 0 10,6
ITM 0 10,7
ITM 0 9,7
ITM 0 8,7
ITM 0 7,6
ITM 0 7,5
ITM 0 6,5
ITM 0 6,4
ITM 0 6,3
ITM 0 7,3
ITM 0 7,2
ITM 0 7,1
ITM 0 6,1
ITM 0 5,1
ITM 0 4,1
ITM 0 3,1
ITM 0 2,1
ITM 0 1,1
ITM 0 1,2
ITM 0 1,3
ITM 0 2,3
ITM 0 2,4
ITM 0 2,5
ITM 0 1,5
ITM 0 1,6
ITM 0 1,7
ITM 0 2,7
ITM 0 2,8
ITM 0 4,7
ITM 0 4,6
ITM 0 4,5
ITM 0 4,4
ITM 0 5,8
ITM 0 5,7
ITM 0 6,8
ITM 0 7,8
ITM 0 8,8
ITM 0 11,4
ITM 0 12,4
ITM 0 13,4
ITM 0 14,4
ITM 0 14,5
ITM 0 15,5
ITM 0 12,5
ITM 0 12,6
ITM 0 13,7
ITM 0 12,7
ITM 0 13,8
ITM 0 14,7
ITM 0 15,7
ITM 0 3,9
ITM 0 2,9
ITM 0 1,9
ITM 0 7,9
ITM 0 9,9
ITM 0 10,9
ITM 0 11,9
ITM 0 15,8
ITM 0 15,9
ITM 0 15,10
ITM 0 14,10
ITM 0 13,10
ITM 0 12,10
ITM 0 11,10
ITM 0 9,10
ITM 0 7,10
ITM 0 6,10
ITM 0 4,10
ITM 0 3,10
ITM 0 1,10
ITM 0 1,11
ITM 0 1,12
ITM 0 2,12
ITM 0 4,12
ITM 0 4,11
ITM 0 6,11
ITM 0 6,12
ITM 0 7,12
ITM 0 9,11
ITM 0 9,12
ITM 0 15,11
ITM 0 15,12
ITM 0 13,12
ITM 0 11,12
ITM 0 12,12
ITM 0 11,13
ITM 0 11,14
ITM 0 12,14
ITM 0 13,14
ITM 0 13,13
ITM 0 12,15
ITM 0 15,15
ITM 0 15,14
ITM 0 15,13
ITM 0 9,13
ITM 0 9,14
ITM 0 9,15
ITM 0 8,13
ITM 0 7,13
ITM 0 7,14
ITM 0 7,15
ITM 0 6,14
ITM 0 5,14
ITM 0 4,14
ITM 0 4,13
ITM 0 2,13
ITM 0 2,14
ITM 0 1,14
ITM 0 1,15
ITM 0 4,3
EXT 15,2 2 0,2
EXT 15,5 2 0,5
EXT 12,15 4 12,0
EXT 9,15 4 9,0
EXT 7,15 4 7,0
EXT 1,15 4 1,0
EXT 4,3 d 4,3
PAL 0

ROOM 2
a,b,a,a,a,a,a,a,a,a,a,a,a,a,b,a
a,b,b,b,b,a,b,a,b,b,b,b,b,a,b,b
b,a,b,a,b,a,b,a,a,a,a,a,b,a,a,a
b,a,b,a,b,a,b,b,b,b,b,b,b,b,b,b
a,a,b,a,b,a,b,a,b,a,a,a,a,a,a,a
b,b,b,a,b,b,a,a,b,b,b,a,b,b,b,a
a,a,a,b,a,b,a,b,b,a,b,a,b,a,a,a
a,b,b,b,a,b,b,a,b,a,b,b,b,a,b,b
a,b,a,b,a,a,b,a,a,a,b,a,b,a,b,a
a,a,a,b,a,b,b,b,b,b,b,a,b,a,b,a
a,b,a,b,a,a,a,a,b,a,a,a,a,a,b,a
a,b,a,b,b,b,b,a,b,a,b,b,b,b,b,a
a,b,a,a,b,a,a,a,b,a,b,a,a,a,a,a
a,b,b,b,b,a,b,b,b,a,b,a,b,b,b,a
a,b,a,a,a,a,b,a,a,a,b,a,b,a,b,a
a,b,a,b,b,b,b,a,b,b,b,b,b,a,b,a
NAME UP-Lab-SA
ITM 0 1,15
ITM 0 1,14
ITM 0 1,13
ITM 0 1,12
ITM 0 1,11
ITM 0 1,10
ITM 0 1,8
ITM 0 1,7
ITM 0 2,7
ITM 0 0,2
ITM 0 0,3
ITM 0 1,1
ITM 0 1,0
ITM 0 2,1
ITM 0 3,1
ITM 0 4,1
ITM 0 4,2
ITM 0 2,2
ITM 0 2,3
ITM 0 4,3
ITM 0 4,4
ITM 0 2,4
ITM 0 2,5
ITM 0 1,5
ITM 0 0,5
ITM 0 3,6
ITM 0 3,7
ITM 0 3,8
ITM 0 3,9
ITM 0 3,10
ITM 0 3,11
ITM 0 4,11
ITM 0 5,11
ITM 0 6,11
ITM 0 4,12
ITM 0 4,13
ITM 0 3,13
ITM 0 2,13
ITM 0 3,15
ITM 0 4,15
ITM 0 5,15
ITM 0 6,15
ITM 0 6,14
ITM 0 6,13
ITM 0 7,13
ITM 0 8,13
ITM 0 8,12
ITM 0 8,11
ITM 0 8,10
ITM 0 8,9
ITM 0 7,9
ITM 0 6,9
ITM 0 5,9
ITM 0 6,8
ITM 0 6,7
ITM 0 5,7
ITM 0 5,5
ITM 0 4,5
ITM 0 5,6
ITM 0 6,4
ITM 0 6,3
ITM 0 6,2
ITM 0 6,1
ITM 0 7,3
ITM 0 8,3
ITM 0 8,4
ITM 0 8,5
ITM 0 8,6
ITM 0 8,7
ITM 0 7,6
ITM 0 9,5
ITM 0 10,5
ITM 0 10,6
ITM 0 10,7
ITM 0 10,8
ITM 0 10,9
ITM 0 9,9
ITM 0 11,7
ITM 0 12,7
ITM 0 12,6
ITM 0 12,5
ITM 0 13,5
ITM 0 14,5
ITM 0 15,3
ITM 0 14,3
ITM 0 13,3
ITM 0 12,3
ITM 0 11,3
ITM 0 10,3
ITM 0 9,3
ITM 0 8,1
ITM 0 9,1
ITM 0 10,1
ITM 0 11,1
ITM 0 12,1
ITM 0 12,2
ITM 0 15,1
ITM 0 14,1
ITM 0 14,0
ITM 0 15,7
ITM 0 14,7
ITM 0 14,11
ITM 0 13,11
ITM 0 12,11
ITM 0 11,11
ITM 0 10,11
ITM 0 10,12
ITM 0 10,13
ITM 0 10,14
ITM 0 10,15
ITM 0 9,15
ITM 0 8,15
ITM 0 12,15
ITM 0 11,15
ITM 0 12,14
ITM 0 12,13
ITM 0 13,13
ITM 0 14,13
ITM 0 14,14
ITM 0 14,15
ITM 0 12,9
ITM 0 12,8
ITM 0 14,8
ITM 0 14,9
ITM 0 14,10
EXT 1,0 9 1,15
EXT 14,0 9 14,15
EXT 0,2 1 15,2
EXT 0,5 1 15,5
EXT 1,15 0 1,0
EXT 8,15 0 8,0
EXT 14,15 0 14,0
EXT 15,1 3 0,1
EXT 15,3 3 0,3
EXT 15,7 3 0,7
PAL 0

ROOM 3
a,a,a,a,a,a,a,a,a,a,a,a,a,a,a,a
b,b,b,b,b,b,b,b,b,b,b,b,b,b,b,a
a,a,b,a,a,a,a,b,a,a,a,a,b,b,b,a
b,a,b,a,b,b,a,b,a,b,b,a,b,b,b,a
b,a,b,a,a,b,a,b,a,a,b,a,a,a,a,a
b,a,b,a,b,b,a,b,b,b,b,a,b,b,b,a
a,a,a,a,b,a,a,a,a,a,b,a,b,a,b,a
b,a,b,b,b,b,b,a,b,b,b,b,b,a,b,a
b,a,a,a,a,a,b,b,b,a,a,a,a,a,b,a
b,a,b,b,b,a,a,a,b,a,b,b,b,b,b,a
b,b,b,a,b,b,b,a,b,a,b,a,a,a,a,a
b,a,a,a,a,b,a,a,b,a,a,a,b,b,b,a
b,b,b,b,a,b,b,a,b,b,b,b,b,a,b,a
a,a,a,b,b,a,b,a,a,a,a,a,a,a,b,a
b,b,b,a,b,a,b,b,b,a,b,b,b,a,b,a
b,a,b,b,b,a,b,a,b,b,b,a,b,b,b,a
NAME Esq-Sup-Der-Lab-SA
ITM 0 0,15
ITM 0 0,14
ITM 0 1,14
ITM 0 2,14
ITM 0 2,15
ITM 0 3,15
ITM 0 4,15
ITM 0 4,14
ITM 0 4,13
ITM 0 3,13
ITM 0 3,12
ITM 0 2,12
ITM 0 1,12
ITM 0 0,12
ITM 0 0,11
ITM 0 0,10
ITM 0 0,9
ITM 0 0,8
ITM 0 0,7
ITM 0 1,10
ITM 0 2,10
ITM 0 2,9
ITM 0 3,9
ITM 0 4,9
ITM 0 4,10
ITM 0 5,10
ITM 0 6,10
ITM 0 5,11
ITM 0 5,12
ITM 0 6,12
ITM 0 6,14
ITM 0 6,13
ITM 0 6,15
ITM 0 7,14
ITM 0 8,14
ITM 0 8,15
ITM 0 9,15
ITM 0 10,15
ITM 0 10,14
ITM 0 11,14
ITM 0 12,14
ITM 0 12,15
ITM 0 13,15
ITM 0 14,15
ITM 0 14,14
ITM 0 14,13
ITM 0 14,12
ITM 0 14,11
ITM 0 13,11
ITM 0 12,11
ITM 0 12,12
ITM 0 11,12
ITM 0 10,12
ITM 0 9,12
ITM 0 8,12
ITM 0 8,11
ITM 0 8,10
ITM 0 8,9
ITM 0 8,7
ITM 0 8,8
ITM 0 7,8
ITM 0 6,8
ITM 0 6,7
ITM 0 5,7
ITM 0 4,7
ITM 0 3,7
ITM 0 2,7
ITM 0 4,6
ITM 0 4,5
ITM 0 5,5
ITM 0 5,4
ITM 0 5,3
ITM 0 4,3
ITM 0 0,5
ITM 0 0,4
ITM 0 0,3
ITM 0 2,5
ITM 0 2,4
ITM 0 2,3
ITM 0 2,2
ITM 0 0,1
ITM 0 1,1
ITM 0 2,1
ITM 0 3,1
ITM 0 4,1
ITM 0 5,1
ITM 0 6,1
ITM 0 7,1
ITM 0 7,2
ITM 0 7,3
ITM 0 7,4
ITM 0 7,5
ITM 0 8,5
ITM 0 9,5
ITM 0 10,5
ITM 0 10,4
ITM 0 10,3
ITM 0 9,3
ITM 0 8,1
ITM 0 9,1
ITM 0 10,1
ITM 0 11,1
ITM 0 12,1
ITM 0 12,2
ITM 0 12,3
ITM 0 13,3
ITM 0 14,3
ITM 0 14,2
ITM 0 14,1
ITM 0 13,1
ITM 0 10,6
ITM 0 9,7
ITM 0 10,7
ITM 0 11,7
ITM 0 12,7
ITM 0 12,6
ITM 0 12,5
ITM 0 13,5
ITM 0 14,5
ITM 0 14,6
ITM 0 14,7
ITM 0 14,8
ITM 0 14,9
ITM 0 13,9
ITM 0 12,9
ITM 0 11,9
ITM 0 10,9
ITM 0 10,10
EXT 0,1 2 15,1
EXT 0,3 2 15,3
EXT 0,7 2 15,7
EXT 6,15 5 6,0
PAL 0

ROOM 4
a,b,a,b,b,b,a,b,a,b,b,a,b,a,b,a
a,b,b,b,a,b,b,b,a,a,b,a,b,a,b,a
a,a,a,a,a,a,a,a,a,b,b,a,b,a,b,a
a,b,b,b,b,b,b,b,b,a,b,a,b,a,b,a
a,b,a,a,a,a,a,a,b,a,a,a,b,a,b,a
a,b,a,b,a,b,b,b,b,a,b,b,b,b,b,a
a,b,a,b,a,b,a,a,b,a,b,a,a,a,b,a
a,b,a,b,b,b,b,a,b,a,b,a,b,a,b,a
a,b,a,a,a,a,b,a,b,b,b,b,b,a,a,a
a,b,b,b,b,a,b,a,a,a,a,a,b,a,b,a
b,b,a,a,a,a,b,a,b,b,b,a,b,a,b,b
a,a,a,b,b,b,b,b,b,a,b,a,a,a,a,b
a,b,b,b,a,a,a,a,b,a,b,b,b,b,b,b
a,b,a,b,b,b,b,a,b,a,a,a,a,a,b,a
a,b,a,a,a,a,b,a,b,b,b,a,b,b,b,a
a,b,a,b,b,b,b,a,a,a,b,b,b,a,a,a
NAME Izq-Lab-SA
ITM 0 1,0
ITM 0 1,1
ITM 0 2,1
ITM 0 3,1
ITM 0 3,0
ITM 0 4,0
ITM 0 5,0
ITM 0 5,1
ITM 0 6,1
ITM 0 7,1
ITM 0 7,0
ITM 0 9,0
ITM 0 10,0
ITM 0 10,1
ITM 0 10,2
ITM 0 9,2
ITM 0 10,3
ITM 0 12,0
ITM 0 12,1
ITM 0 12,2
ITM 0 12,3
ITM 0 12,4
ITM 0 12,5
ITM 0 11,5
ITM 0 10,5
ITM 0 13,5
ITM 0 14,5
ITM 0 14,4
ITM 0 14,3
ITM 0 14,2
ITM 0 14,1
ITM 0 14,0
ITM 0 14,7
ITM 0 14,6
ITM 0 12,7
ITM 0 12,8
ITM 0 12,9
ITM 0 12,10
ITM 0 14,9
ITM 0 14,10
ITM 0 15,10
ITM 0 15,11
ITM 0 11,8
ITM 0 10,8
ITM 0 10,7
ITM 0 10,6
ITM 0 9,8
ITM 0 8,8
ITM 0 8,7
ITM 0 8,6
ITM 0 8,5
ITM 0 8,4
ITM 0 8,3
ITM 0 5,3
ITM 0 6,3
ITM 0 7,3
ITM 0 4,3
ITM 0 1,3
ITM 0 2,3
ITM 0 3,3
ITM 0 1,4
ITM 0 1,5
ITM 0 1,6
ITM 0 1,7
ITM 0 1,8
ITM 0 1,10
ITM 0 0,10
ITM 0 1,9
ITM 0 2,9
ITM 0 3,9
ITM 0 4,9
ITM 0 7,5
ITM 0 6,5
ITM 0 5,5
ITM 0 5,6
ITM 0 5,7
ITM 0 4,7
ITM 0 3,7
ITM 0 3,6
ITM 0 3,5
ITM 0 6,7
ITM 0 6,8
ITM 0 6,9
ITM 0 6,10
ITM 0 6,11
ITM 0 7,11
ITM 0 8,11
ITM 0 8,10
ITM 0 9,10
ITM 0 10,10
ITM 0 10,11
ITM 0 10,12
ITM 0 11,12
ITM 0 12,12
ITM 0 13,12
ITM 0 14,12
ITM 0 15,12
ITM 0 14,13
ITM 0 14,14
ITM 0 12,14
ITM 0 13,14
ITM 0 12,15
ITM 0 10,15
ITM 0 11,15
ITM 0 10,14
ITM 0 9,14
ITM 0 8,14
ITM 0 8,13
ITM 0 8,12
ITM 0 5,11
ITM 0 4,11
ITM 0 3,11
ITM 0 3,12
ITM 0 3,13
ITM 0 4,13
ITM 0 5,13
ITM 0 6,13
ITM 0 6,14
ITM 0 6,15
ITM 0 5,15
ITM 0 4,15
ITM 0 3,15
ITM 0 2,12
ITM 0 1,12
ITM 0 1,13
ITM 0 1,14
ITM 0 1,15
EXT 1,0 1 1,15
EXT 7,0 1 7,15
EXT 9,0 1 9,15
EXT 12,0 1 12,15
EXT 0,10 b 15,10
EXT 1,15 6 1,0
EXT 3,15 6 3,0
PAL 0

ROOM 5
a,a,a,a,a,a,b,a,a,a,a,a,a,a,a,a
b,b,b,b,b,b,b,b,b,b,b,a,b,b,b,a
a,a,a,a,a,b,a,a,b,a,b,a,b,a,b,a
b,b,a,b,b,b,b,a,b,a,b,a,b,a,b,a
a,b,a,a,a,a,b,a,b,a,b,b,b,a,b,a
a,b,b,b,b,a,b,a,b,a,a,a,a,a,b,a
a,b,a,a,a,a,a,b,b,b,a,b,b,b,b,a
a,b,a,b,b,b,a,b,a,b,a,a,b,a,a,a
a,b,a,a,a,b,b,b,a,b,b,a,b,a,b,b
a,b,b,b,b,b,a,b,a,a,b,a,b,a,b,b
a,a,a,a,a,a,a,b,b,a,b,a,b,a,b,a
b,b,b,a,b,b,b,a,b,a,b,a,b,a,b,a
b,a,b,a,b,a,b,a,b,a,b,a,b,a,b,a
b,a,b,b,b,a,b,a,b,a,b,a,a,a,b,a
b,a,b,a,a,a,b,a,b,a,b,b,b,b,b,a
a,a,a,a,a,a,a,a,b,a,a,a,a,a,a,a
NAME Der-Lab-SA
ITM 0 0,14
ITM 0 0,13
ITM 0 0,12
ITM 0 0,11
ITM 0 1,11
ITM 0 2,11
ITM 0 2,12
ITM 0 2,13
ITM 0 2,14
ITM 0 3,13
ITM 0 4,13
ITM 0 4,12
ITM 0 4,11
ITM 0 5,11
ITM 0 6,11
ITM 0 6,13
ITM 0 6,12
ITM 0 6,14
ITM 0 8,15
ITM 0 8,14
ITM 0 8,13
ITM 0 8,12
ITM 0 8,11
ITM 0 8,10
ITM 0 7,10
ITM 0 7,8
ITM 0 7,9
ITM 0 6,8
ITM 0 5,8
ITM 0 5,7
ITM 0 4,7
ITM 0 3,7
ITM 0 5,9
ITM 0 4,9
ITM 0 3,9
ITM 0 2,9
ITM 0 1,9
ITM 0 1,8
ITM 0 1,7
ITM 0 1,6
ITM 0 1,5
ITM 0 1,4
ITM 0 1,3
ITM 0 0,3
ITM 0 2,5
ITM 0 3,5
ITM 0 4,5
ITM 0 0,1
ITM 0 1,1
ITM 0 2,1
ITM 0 3,1
ITM 0 4,1
ITM 0 5,1
ITM 0 6,1
ITM 0 6,0
ITM 0 7,1
ITM 0 5,2
ITM 0 5,3
ITM 0 4,3
ITM 0 3,3
ITM 0 6,3
ITM 0 6,4
ITM 0 6,5
ITM 0 8,1
ITM 0 8,2
ITM 0 8,3
ITM 0 8,4
ITM 0 8,5
ITM 0 7,6
ITM 0 8,6
ITM 0 7,7
ITM 0 9,6
ITM 0 9,7
ITM 0 9,8
ITM 0 10,8
ITM 0 10,9
ITM 0 10,10
ITM 0 10,11
ITM 0 10,12
ITM 0 10,13
ITM 0 10,14
ITM 0 11,14
ITM 0 12,14
ITM 0 13,14
ITM 0 14,14
ITM 0 14,13
ITM 0 14,12
ITM 0 14,11
ITM 0 14,10
ITM 0 14,9
ITM 0 14,8
ITM 0 15,8
ITM 0 15,9
ITM 0 12,12
ITM 0 12,11
ITM 0 12,10
ITM 0 12,9
ITM 0 12,8
ITM 0 12,7
ITM 0 11,6
ITM 0 12,6
ITM 0 13,6
ITM 0 14,6
ITM 0 14,5
ITM 0 14,4
ITM 0 14,3
ITM 0 14,2
ITM 0 14,1
ITM 0 13,1
ITM 0 12,1
ITM 0 12,2
ITM 0 12,3
ITM 0 12,4
ITM 0 11,4
ITM 0 10,4
ITM 0 10,3
ITM 0 10,2
ITM 0 10,1
ITM 0 9,1
EXT 0,14 0 15,14
EXT 6,0 3 6,15
EXT 0,1 0 15,1
EXT 0,3 0 15,3
EXT 15,8 c 0,8
EXT 15,9 c 0,9
EXT 8,15 8 8,0
PAL 0

ROOM 6
a,b,a,b,a,a,a,b,b,b,a,a,a,b,b,b
a,b,a,b,a,b,b,b,a,b,b,b,b,b,a,a
a,b,a,a,a,b,a,b,a,a,a,a,a,b,b,b
a,b,b,b,b,b,a,b,b,b,b,b,a,a,b,a
a,a,a,a,a,a,a,a,a,a,a,b,b,a,b,b
a,b,a,b,b,b,b,b,b,b,a,a,b,a,a,b
a,b,a,b,a,a,a,a,a,b,b,a,b,a,b,b
a,b,a,b,a,b,b,b,a,a,b,a,b,a,b,a
a,b,b,b,a,b,b,b,b,b,b,a,a,a,b,b
a,b,a,b,a,b,b,b,a,a,b,a,b,b,b,a
a,b,a,b,a,a,a,a,a,b,b,a,b,a,b,b
a,b,a,b,b,b,a,b,b,b,a,a,b,a,a,b
a,b,a,a,a,a,a,a,a,a,a,b,b,a,b,b
a,b,a,b,b,b,a,b,b,b,a,b,a,a,b,a
a,b,b,b,a,b,b,b,a,b,b,b,a,b,b,b
a,a,a,a,a,a,a,a,a,a,a,a,a,a,a,a
NAME Esq-Inf-Izq-Lab-SA
ITM 0 1,0
ITM 0 1,1
ITM 0 1,3
ITM 0 1,2
ITM 0 2,3
ITM 0 3,1
ITM 0 3,0
ITM 0 3,3
ITM 0 4,3
ITM 0 5,3
ITM 0 5,2
ITM 0 5,1
ITM 0 6,1
ITM 0 7,1
ITM 0 7,0
ITM 0 7,2
ITM 0 7,3
ITM 0 8,3
ITM 0 9,3
ITM 0 9,1
ITM 0 9,0
ITM 0 8,0
ITM 0 10,1
ITM 0 11,1
ITM 0 12,1
ITM 0 13,1
ITM 0 13,0
ITM 0 14,0
ITM 0 15,0
ITM 0 13,2
ITM 0 14,2
ITM 0 15,2
ITM 0 14,3
ITM 0 14,4
ITM 0 15,5
ITM 0 15,4
ITM 0 15,6
ITM 0 14,6
ITM 0 14,7
ITM 0 15,8
ITM 0 14,8
ITM 0 14,9
ITM 0 13,9
ITM 0 12,9
ITM 0 14,10
ITM 0 15,10
ITM 0 15,11
ITM 0 15,12
ITM 0 14,12
ITM 0 12,10
ITM 0 12,11
ITM 0 12,12
ITM 0 11,12
ITM 0 11,13
ITM 0 11,14
ITM 0 14,13
ITM 0 13,14
ITM 0 14,14
ITM 0 15,14
ITM 0 10,14
ITM 0 9,14
ITM 0 9,13
ITM 0 8,13
ITM 0 7,13
ITM 0 7,14
ITM 0 6,14
ITM 0 5,14
ITM 0 5,13
ITM 0 4,13
ITM 0 3,13
ITM 0 3,14
ITM 0 2,14
ITM 0 1,14
ITM 0 1,13
ITM 0 1,12
ITM 0 1,11
ITM 0 1,10
ITM 0 1,9
ITM 0 1,8
ITM 0 1,5
ITM 0 1,6
ITM 0 1,7
ITM 0 2,8
ITM 0 3,8
ITM 0 3,7
ITM 0 3,6
ITM 0 3,5
ITM 0 4,5
ITM 0 5,5
ITM 0 6,5
ITM 0 7,5
ITM 0 8,5
ITM 0 9,5
ITM 0 9,6
ITM 0 10,6
ITM 0 10,7
ITM 0 10,8
ITM 0 9,8
ITM 0 8,8
ITM 0 7,8
ITM 0 7,7
ITM 0 6,7
ITM 0 5,7
ITM 0 5,8
ITM 0 5,9
ITM 0 6,9
ITM 0 7,9
ITM 0 10,9
ITM 0 10,10
ITM 0 9,10
ITM 0 9,11
ITM 0 8,11
ITM 0 7,11
ITM 0 5,11
ITM 0 4,11
ITM 0 3,11
ITM 0 3,10
ITM 0 3,9
ITM 0 12,7
ITM 0 12,6
ITM 0 12,5
ITM 0 12,4
ITM 0 11,4
ITM 0 11,3
ITM 0 10,3
EXT 1,0 4 1,15
EXT 3,0 4 3,15
EXT 15,14 7 0,14
PAL 0

ROOM 7
a,b,a,a,a,a,a,b,a,b,a,b,a,a,a,a
a,b,b,b,a,b,b,b,a,b,a,b,b,b,b,b
a,a,a,b,a,b,a,a,a,b,a,a,a,a,b,a
a,b,b,b,a,b,b,b,a,b,b,b,b,b,b,a
a,b,a,a,a,a,a,b,a,a,a,b,a,a,a,a
a,b,a,b,b,a,b,b,b,a,b,b,b,b,b,a
a,b,a,b,a,a,b,a,b,a,a,a,a,a,b,a
a,b,b,b,b,a,b,a,b,b,b,b,a,b,b,b
a,a,a,a,b,a,b,a,b,a,a,a,a,a,a,b
a,b,b,a,b,b,b,a,b,b,b,b,b,a,b,b
a,b,a,b,b,a,b,b,a,a,a,a,b,b,b,a
a,b,b,b,a,a,a,b,a,b,b,b,a,a,b,a
a,b,a,b,b,b,a,b,b,b,a,b,a,b,b,a
a,b,a,a,a,b,a,a,a,a,a,b,a,b,a,a
b,b,a,b,b,b,a,b,b,b,b,b,a,b,b,b
a,a,a,a,a,a,a,b,b,a,a,a,a,a,a,a
NAME DOWN-Lab-SA
ITM 0 1,0
ITM 0 1,1
ITM 0 2,1
ITM 0 3,1
ITM 0 3,2
ITM 0 3,3
ITM 0 2,3
ITM 0 1,3
ITM 0 1,5
ITM 0 1,4
ITM 0 1,6
ITM 0 1,7
ITM 0 2,7
ITM 0 3,7
ITM 0 3,6
ITM 0 3,5
ITM 0 4,5
ITM 0 4,7
ITM 0 4,8
ITM 0 4,9
ITM 0 4,10
ITM 0 3,10
ITM 0 2,9
ITM 0 1,9
ITM 0 1,10
ITM 0 1,11
ITM 0 1,12
ITM 0 1,13
ITM 0 1,14
ITM 0 0,14
ITM 0 2,11
ITM 0 3,11
ITM 0 3,12
ITM 0 4,12
ITM 0 5,12
ITM 0 5,13
ITM 0 5,14
ITM 0 4,14
ITM 0 3,14
ITM 0 5,3
ITM 0 5,2
ITM 0 5,1
ITM 0 6,1
ITM 0 7,1
ITM 0 7,0
ITM 0 7,3
ITM 0 6,3
ITM 0 7,4
ITM 0 7,5
ITM 0 6,5
ITM 0 6,6
ITM 0 6,7
ITM 0 6,8
ITM 0 6,9
ITM 0 5,9
ITM 0 6,10
ITM 0 7,10
ITM 0 8,9
ITM 0 8,7
ITM 0 8,8
ITM 0 8,6
ITM 0 8,5
ITM 0 9,7
ITM 0 10,7
ITM 0 11,7
ITM 0 10,5
ITM 0 11,5
ITM 0 12,5
ITM 0 13,5
ITM 0 14,5
ITM 0 14,6
ITM 0 13,7
ITM 0 14,7
ITM 0 15,7
ITM 0 11,4
ITM 0 9,0
ITM 0 9,2
ITM 0 9,1
ITM 0 9,3
ITM 0 10,3
ITM 0 11,3
ITM 0 12,3
ITM 0 13,3
ITM 0 14,3
ITM 0 14,2
ITM 0 14,1
ITM 0 15,1
ITM 0 13,1
ITM 0 12,1
ITM 0 11,1
ITM 0 11,0
ITM 0 15,8
ITM 0 15,9
ITM 0 14,9
ITM 0 14,10
ITM 0 13,10
ITM 0 12,10
ITM 0 12,9
ITM 0 11,9
ITM 0 10,9
ITM 0 9,9
ITM 0 7,11
ITM 0 7,12
ITM 0 8,12
ITM 0 9,12
ITM 0 9,11
ITM 0 10,11
ITM 0 11,11
ITM 0 11,12
ITM 0 13,12
ITM 0 14,12
ITM 0 14,11
ITM 0 13,14
ITM 0 13,13
ITM 0 14,14
ITM 0 15,14
ITM 0 11,13
ITM 0 11,14
ITM 0 10,14
ITM 0 9,14
ITM 0 8,14
ITM 0 7,14
ITM 0 7,15
ITM 0 8,15
EXT 1,0 0 1,15
EXT 9,0 0 9,15
EXT 11,0 0 11,15
EXT 0,14 6 15,14
EXT 15,1 8 0,1
EXT 15,14 8 0,14
EXT 7,15 a 7,0
EXT 8,15 a 8,0
PAL 0

ROOM 8
b,b,b,b,b,a,b,a,b,b,a,b,b,b,b,a
b,a,a,a,a,a,b,a,a,b,a,b,a,a,b,a
b,b,b,b,b,a,b,a,b,b,a,b,a,b,b,a
a,a,a,a,b,b,b,b,b,a,b,b,a,b,a,a
b,b,b,a,a,b,a,a,a,a,b,a,b,b,b,a
b,a,b,b,a,b,b,b,b,b,b,a,b,a,b,a
b,b,a,b,a,b,a,a,a,a,a,a,b,a,b,a
a,b,a,a,a,b,a,b,b,b,b,a,b,a,b,a
a,b,a,b,a,b,b,b,a,a,b,a,a,b,b,a
a,b,a,b,a,a,a,a,a,b,b,b,a,b,a,a
b,b,b,b,a,b,b,b,a,b,b,b,a,b,b,a
b,a,a,a,a,b,a,b,a,b,b,b,a,a,b,a
b,b,b,b,a,b,b,a,a,a,a,a,a,b,b,a
a,b,a,b,a,a,b,b,b,b,a,b,b,b,a,a
b,b,a,b,b,b,a,b,a,b,b,b,a,b,b,a
a,a,a,a,a,a,a,a,a,a,a,a,a,a,a,a
NAME Esq-Inf-Der-Lab-SA
ITM 0 4,0
ITM 0 3,0
ITM 0 2,0
ITM 0 1,0
ITM 0 0,0
ITM 0 0,1
ITM 0 0,2
ITM 0 1,2
ITM 0 2,2
ITM 0 3,2
ITM 0 4,2
ITM 0 4,3
ITM 0 5,3
ITM 0 6,3
ITM 0 6,2
ITM 0 6,1
ITM 0 6,0
ITM 0 7,3
ITM 0 8,3
ITM 0 8,2
ITM 0 9,2
ITM 0 9,1
ITM 0 9,0
ITM 0 8,0
ITM 0 12,0
ITM 0 13,0
ITM 0 14,0
ITM 0 14,1
ITM 0 14,2
ITM 0 13,2
ITM 0 11,1
ITM 0 11,0
ITM 0 11,2
ITM 0 11,3
ITM 0 10,3
ITM 0 13,3
ITM 0 13,4
ITM 0 14,4
ITM 0 12,4
ITM 0 12,5
ITM 0 12,6
ITM 0 12,7
ITM 0 14,7
ITM 0 14,6
ITM 0 14,5
ITM 0 14,8
ITM 0 13,8
ITM 0 13,9
ITM 0 13,10
ITM 0 14,10
ITM 0 14,11
ITM 0 14,12
ITM 0 13,12
ITM 0 13,13
ITM 0 13,14
ITM 0 14,14
ITM 0 12,13
ITM 0 11,13
ITM 0 11,14
ITM 0 10,14
ITM 0 9,14
ITM 0 9,13
ITM 0 8,13
ITM 0 7,14
ITM 0 7,13
ITM 0 6,13
ITM 0 6,12
ITM 0 5,12
ITM 0 5,11
ITM 0 5,10
ITM 0 6,10
ITM 0 7,10
ITM 0 7,11
ITM 0 9,11
ITM 0 9,10
ITM 0 9,9
ITM 0 10,9
ITM 0 11,9
ITM 0 11,10
ITM 0 11,11
ITM 0 10,11
ITM 0 10,8
ITM 0 10,7
ITM 0 9,7
ITM 0 8,7
ITM 0 7,8
ITM 0 7,7
ITM 0 6,8
ITM 0 5,8
ITM 0 5,7
ITM 0 5,6
ITM 0 5,5
ITM 0 5,4
ITM 0 6,5
ITM 0 7,5
ITM 0 9,5
ITM 0 10,5
ITM 0 10,4
ITM 0 8,5
ITM 0 3,6
ITM 0 3,5
ITM 0 2,5
ITM 0 2,4
ITM 0 1,4
ITM 0 0,4
ITM 0 0,5
ITM 0 0,6
ITM 0 1,6
ITM 0 1,7
ITM 0 1,8
ITM 0 1,9
ITM 0 3,8
ITM 0 3,9
ITM 0 3,10
ITM 0 2,10
ITM 0 1,10
ITM 0 0,10
ITM 0 0,11
ITM 0 0,12
ITM 0 1,12
ITM 0 2,12
ITM 0 3,12
ITM 0 3,13
ITM 0 3,14
ITM 0 4,14
ITM 0 5,14
ITM 0 1,13
ITM 0 0,14
ITM 0 1,14
EXT 8,0 5 8,15
EXT 0,1 7 15,1
EXT 0,14 7 15,14
PAL 0

ROOM 9
d,d,d,d,d,d,d,d,d,d,d,d,d,d,d,d
d,0,0,0,0,0,0,0,0,0,0,0,0,0,0,d
d,0,0,0,0,0,0,0,0,0,0,0,0,0,0,d
d,0,0,m,l,l,l,l,l,l,l,l,k,0,0,d
d,0,0,n,0,0,0,0,0,0,0,0,j,0,0,d
d,0,0,o,h,h,h,h,h,h,h,h,i,0,0,d
d,0,0,0,0,0,0,0,0,0,0,0,0,0,0,d
d,0,0,0,0,0,0,0,0,0,0,0,0,0,0,d
d,0,0,0,0,0,0,0,0,0,0,0,0,0,0,d
d,0,0,0,0,0,0,0,0,0,0,0,0,0,0,d
d,0,0,0,0,0,0,0,0,0,0,0,0,0,0,d
d,0,0,c,0,c,0,0,0,0,c,0,c,0,0,d
d,0,0,0,0,0,0,0,0,0,0,0,0,0,0,d
d,0,0,a,0,a,0,0,0,0,a,0,a,0,0,d
a,a,a,a,0,a,0,0,0,0,a,0,a,a,a,a
a,0,0,0,0,a,0,0,0,0,a,0,0,0,0,a
NAME Exit-UP-View-SA
ITM 2 6,4
ITM 2 9,4
ITM 2 11,4
ITM 2 4,4
EXT 1,15 2 1,0
EXT 14,15 2 14,0
EXT 4,4 h 4,4
EXT 6,4 h 6,4
EXT 9,4 h 9,4
EXT 11,4 h 11,4
PAL 0

ROOM 12
d,d,d,d,d,d,d,d,d,d,d,d,d,d,d,d
d,0,0,0,0,0,0,0,0,0,0,0,0,0,0,0
d,0,0,0,m,l,k,0,0,0,0,0,0,0,0,0
d,0,0,0,n,0,j,0,0,0,0,0,0,0,0,0
d,0,0,0,n,0,j,0,0,0,0,0,0,0,0,0
d,0,0,0,n,0,j,0,0,0,0,0,0,0,0,0
d,0,0,0,n,0,j,0,0,0,0,0,0,0,0,0
d,0,0,0,n,0,j,0,0,0,0,0,0,0,0,0
d,0,0,0,n,0,j,0,0,0,0,0,0,0,0,0
d,0,0,0,n,0,j,0,0,0,0,c,0,a,a,a
d,0,0,0,n,0,j,0,0,0,0,0,0,0,0,0
d,0,0,0,o,h,i,0,0,0,0,c,0,a,a,a
d,0,0,0,0,0,0,0,0,0,0,0,0,0,0,0
d,0,0,0,0,0,0,0,0,0,0,0,0,0,0,0
d,0,0,0,0,0,0,0,0,0,0,0,0,0,0,0
d,d,d,d,d,d,d,d,d,d,d,d,d,d,d,d
ITM 4 5,3
ITM 4 5,5
ITM 4 5,8
ITM 4 5,10
EXT 15,10 t 0,10
PAL 0

ROOM 13
d,d,d,d,d,d,d,d,d,d,d,d,d,d,d,d
0,0,0,0,0,0,0,0,0,0,0,0,0,0,0,d
0,0,0,0,0,0,0,0,0,0,0,0,0,0,0,d
0,0,0,0,0,0,0,0,0,0,0,0,0,0,0,d
0,0,0,0,0,0,0,0,0,0,m,l,k,0,0,d
0,0,0,0,0,0,0,0,0,0,n,0,j,0,0,d
0,0,0,0,0,0,0,0,0,0,n,0,j,0,0,d
a,a,a,0,c,0,0,0,0,0,n,0,j,0,0,d
0,0,0,0,0,0,0,0,0,0,n,0,j,0,0,d
0,0,0,0,0,0,0,0,0,0,n,0,j,0,0,d
a,a,a,0,c,0,0,0,0,0,n,0,j,0,0,d
0,0,0,0,0,0,0,0,0,0,n,0,j,0,0,d
0,0,0,0,0,0,0,0,0,0,n,0,j,0,0,d
0,0,0,0,0,0,0,0,0,0,o,h,i,0,0,d
0,0,0,0,0,0,0,0,0,0,0,0,0,0,0,d
d,d,d,d,d,d,d,d,d,d,d,d,d,d,d,d
ITM 4 11,5
ITM 4 11,7
ITM 4 11,12
ITM 4 11,10
EXT 0,8 u 15,8
EXT 0,9 u 15,9
PAL 0

ROOM 14
d,d,d,b,d,d,d,b,d,d,d,d,d,d,d,d
d,d,d,b,d,d,d,b,d,d,d,d,d,d,d,d
d,d,d,b,d,d,d,b,d,d,d,d,d,d,d,d
d,d,d,e,d,d,d,b,d,d,d,d,d,d,d,d
d,d,d,d,d,d,d,b,d,d,d,d,d,d,d,d
d,d,d,d,d,d,d,b,d,d,d,d,d,d,d,d
d,d,d,d,d,d,d,e,d,d,d,d,d,d,d,d
d,d,d,d,d,d,d,d,d,d,d,d,d,d,d,d
d,d,d,d,d,d,d,d,d,d,d,d,d,d,d,d
d,d,d,d,d,d,d,d,d,d,d,d,d,d,d,d
d,d,d,d,d,d,d,d,d,d,d,d,d,d,d,d
d,d,d,d,d,d,d,d,d,d,d,d,d,d,d,d
d,d,d,d,d,d,d,d,d,d,d,d,d,d,d,d
d,d,d,d,d,d,d,d,d,d,d,d,d,d,d,d
d,d,d,d,d,d,d,d,d,d,d,d,d,d,d,d
d,d,d,d,d,d,d,d,d,d,d,d,d,d,d,d
EXT 7,0 15 7,15
PAL 0

ROOM 15
d,d,d,d,d,d,d,b,d,d,d,d,d,d,d,d
d,d,d,d,d,d,d,b,d,d,d,d,d,d,d,d
d,d,d,d,d,d,d,b,d,d,d,d,d,d,d,d
d,d,d,d,d,d,d,b,d,d,d,d,d,d,d,d
d,d,d,d,d,d,d,b,d,d,d,d,d,d,d,d
d,d,d,d,d,d,d,b,d,d,d,d,d,d,d,d
d,d,d,d,d,d,d,b,d,d,d,d,d,d,d,d
d,d,d,d,d,d,d,b,d,d,d,d,d,d,d,d
d,d,d,d,d,d,d,b,d,d,d,d,d,d,d,d
b,b,b,b,b,d,d,b,d,d,d,d,d,d,d,d
d,d,d,d,b,d,d,b,d,d,d,d,d,d,d,d
d,d,d,d,b,d,d,b,d,d,d,d,d,d,d,d
d,d,d,d,b,d,d,b,d,d,d,d,d,d,d,d
d,d,d,d,b,d,d,b,d,d,d,d,d,d,d,d
d,d,d,d,b,d,d,b,d,d,d,d,d,d,d,d
d,d,d,d,b,d,d,b,d,d,d,d,d,d,d,d
EXT 0,9 m 15,9
EXT 4,15 o 4,0
EXT 7,15 14 7,0
EXT 7,0 16 7,15
PAL 0

ROOM 16
d,d,d,d,d,d,d,d,d,d,d,d,d,d,d,d
d,d,d,d,d,d,d,d,d,d,d,d,d,d,d,d
d,d,d,d,d,d,d,d,d,d,d,d,d,d,d,d
d,d,d,d,d,d,d,d,d,d,d,d,d,d,d,d
d,d,d,d,f,f,f,f,f,f,f,d,d,d,d,d
d,d,d,d,f,b,b,b,b,b,f,d,d,d,d,d
d,d,d,d,f,b,b,b,b,b,f,d,d,d,d,d
d,d,d,d,f,b,b,b,b,b,f,d,d,d,d,d
d,d,d,d,f,b,b,b,b,b,f,d,d,d,d,d
d,d,d,d,f,b,b,b,b,b,f,d,d,d,d,d
d,d,d,d,f,f,b,b,b,f,f,d,d,d,d,d
d,d,d,d,d,d,d,b,d,d,d,d,d,d,d,d
d,d,d,d,d,d,d,b,d,d,d,d,d,d,d,d
d,d,d,d,d,d,d,b,d,d,d,d,d,d,d,d
d,d,d,d,d,d,d,b,d,d,d,d,d,d,d,d
d,d,d,d,d,d,d,b,d,d,d,d,d,d,d,d
ITM 8 7,7
EXT 7,7 1c 7,7
PAL 0

ROOM 17
d,d,d,d,d,d,d,d,d,d,d,d,d,d,d,d
d,d,d,d,d,d,d,d,d,d,d,d,d,d,d,d
d,d,d,d,d,d,d,d,d,d,d,d,d,d,d,d
d,d,d,d,d,d,d,d,d,d,d,d,d,d,d,d
d,d,d,d,d,d,d,d,d,d,d,d,d,d,d,d
d,d,d,d,d,d,d,d,d,d,d,d,d,d,d,d
d,d,d,d,d,d,d,d,d,d,d,d,d,d,d,d
d,d,d,d,d,d,d,d,d,d,d,d,d,d,d,d
d,d,d,d,d,d,d,d,d,d,d,d,d,d,d,d
d,d,d,d,d,d,d,d,d,d,d,d,d,d,d,d
d,d,d,d,d,d,d,d,d,d,e,b,b,b,b,b
d,d,d,d,d,d,d,d,d,d,d,d,d,d,d,d
d,d,d,d,d,d,d,d,d,d,d,d,d,d,d,d
d,d,d,d,d,d,d,d,d,d,d,d,d,d,d,d
d,d,d,d,d,d,d,d,d,d,d,d,d,d,d,d
d,d,d,d,d,d,d,d,d,d,d,d,d,d,d,d
EXT 10,10 s 10,10
EXT 15,10 18 0,10
PAL 0

ROOM 18
d,d,d,d,d,d,d,d,d,d,d,d,d,d,d,d
d,d,d,d,d,d,d,d,d,d,d,d,d,d,d,d
d,d,d,d,d,d,d,d,d,d,d,d,d,d,d,d
d,d,d,d,d,d,d,d,d,d,d,d,d,d,d,d
d,d,d,d,d,d,d,d,d,d,d,d,d,d,d,d
d,d,d,d,d,d,d,d,d,d,d,d,d,d,d,d
d,d,d,d,d,d,d,d,d,d,d,d,d,d,d,d
d,d,d,d,d,d,d,d,d,d,d,d,d,d,d,d
d,d,d,d,d,d,d,d,d,d,d,d,d,d,d,d
d,d,d,d,d,d,d,d,d,d,d,d,d,d,d,d
b,b,b,b,e,d,d,d,d,d,d,d,d,d,d,d
d,d,d,d,d,d,d,d,d,d,d,d,d,d,d,d
d,d,d,d,d,d,d,d,d,d,d,d,d,d,d,d
d,d,d,d,d,d,d,d,d,d,d,d,d,d,d,d
d,d,d,d,d,d,d,d,d,d,d,d,d,d,d,d
d,d,d,d,d,d,d,d,d,d,d,d,d,d,d,d
ITM 9 4,10
EXT 4,10 19 4,10
PAL 0

ROOM 19
d,d,d,d,d,d,d,d,d,d,d,d,d,d,d,d
d,d,d,d,d,d,d,d,d,d,d,d,d,d,d,d
d,d,d,d,d,d,d,d,d,d,d,d,d,d,d,d
d,d,d,d,d,d,d,d,d,d,d,d,d,d,d,d
d,d,d,d,d,d,d,d,d,d,d,d,d,d,d,d
d,d,d,d,d,d,d,d,d,d,d,d,d,d,d,d
d,d,d,d,d,d,d,d,d,d,d,d,d,d,d,d
d,d,d,d,t,d,d,d,d,d,d,d,d,d,d,d
d,d,d,s,s,s,s,s,s,d,d,d,d,d,d,d
d,d,d,s,s,s,s,s,s,d,d,d,d,d,d,d
d,d,d,s,1f,s,s,s,s,d,d,d,d,d,d,d
d,d,d,s,s,s,s,s,s,u,d,d,d,d,d,d
d,d,d,s,s,s,s,s,s,d,d,d,d,d,d,d
d,d,d,d,d,d,d,d,d,d,d,d,d,d,d,d
d,d,d,d,d,d,d,d,d,d,d,d,d,d,d,d
d,d,d,d,d,d,d,d,d,d,d,d,d,d,d,d
EXT 9,11 1a 9,11
EXT 4,7 1b 4,6
PAL 0

ROOM a
d,0,0,0,0,0,a,0,0,a,0,0,0,0,0,d
d,0,0,0,0,0,a,0,0,a,0,0,0,0,0,d
d,0,0,0,0,0,a,0,0,a,0,0,0,0,0,d
d,0,0,0,0,0,0,0,0,0,0,0,0,0,0,d
d,0,0,0,0,0,c,0,0,c,0,0,0,0,0,d
d,0,0,0,0,0,0,0,0,0,0,0,0,0,0,d
d,0,0,0,0,0,0,0,0,0,0,0,0,0,0,d
d,0,0,0,0,0,0,0,0,0,0,0,0,0,0,d
d,0,0,0,0,0,0,0,0,0,0,0,0,0,0,d
d,0,0,m,l,l,l,l,l,l,l,l,k,0,0,d
d,0,0,n,0,0,0,0,0,0,0,0,j,0,0,d
d,0,0,o,h,h,h,h,h,h,h,h,i,0,0,d
d,0,0,0,0,0,0,0,0,0,0,0,0,0,0,d
d,0,0,0,0,0,0,0,0,0,0,0,0,0,0,d
d,0,0,0,0,0,0,0,0,0,0,0,0,0,0,d
d,d,d,d,d,d,d,d,d,d,d,d,d,d,d,d
NAME Exit-DOWN-View-SA
ITM 1 4,10
ITM 1 6,10
ITM 1 9,10
ITM 1 11,10
EXT 7,0 7 7,15
EXT 8,0 7 8,15
EXT 4,10 i 4,10
EXT 6,10 i 6,10
EXT 9,10 i 9,10
EXT 11,10 i 11,10
PAL 0

ROOM b
d,d,d,d,d,d,d,d,d,d,d,d,d,d,d,d
d,0,0,0,0,0,0,0,0,0,0,0,0,0,0,0
d,0,0,0,m,l,k,0,0,0,0,0,0,0,0,0
d,0,0,0,n,0,j,0,0,0,0,0,0,0,0,0
d,0,0,0,n,0,j,0,0,0,0,0,0,0,0,0
d,0,0,0,n,0,j,0,0,0,0,0,0,0,0,0
d,0,0,0,n,0,j,0,0,0,0,0,0,0,0,0
d,0,0,0,n,0,j,0,0,0,0,0,0,0,0,0
d,0,0,0,n,0,j,0,0,0,0,0,0,0,0,0
d,0,0,0,n,0,j,0,0,0,0,c,0,a,a,a
d,0,0,0,n,0,j,0,0,0,0,0,0,0,0,0
d,0,0,0,o,h,i,0,0,0,0,c,0,a,a,a
d,0,0,0,0,0,0,0,0,0,0,0,0,0,0,0
d,0,0,0,0,0,0,0,0,0,0,0,0,0,0,0
d,0,0,0,0,0,0,0,0,0,0,0,0,0,0,0
d,d,d,d,d,d,d,d,d,d,d,d,d,d,d,d
NAME Exit-LEFT-View-SA
ITM 2 5,3
ITM 2 5,5
ITM 2 5,8
ITM 2 5,10
EXT 15,10 4 0,10
EXT 5,3 j 5,3
EXT 5,5 j 5,5
EXT 5,8 j 5,8
EXT 5,10 j 5,10
PAL 0

ROOM c
d,d,d,d,d,d,d,d,d,d,d,d,d,d,d,d
0,0,0,0,0,0,0,0,0,0,0,0,0,0,0,d
0,0,0,0,0,0,0,0,0,0,0,0,0,0,0,d
0,0,0,0,0,0,0,0,0,0,0,0,0,0,0,d
0,0,0,0,0,0,0,0,0,0,m,l,k,0,0,d
0,0,0,0,0,0,0,0,0,0,n,0,j,0,0,d
0,0,0,0,0,0,0,0,0,0,n,0,j,0,0,d
a,a,a,0,c,0,0,0,0,0,n,0,j,0,0,d
0,0,0,0,0,0,0,0,0,0,n,0,j,0,0,d
0,0,0,0,0,0,0,0,0,0,n,0,j,0,0,d
a,a,a,0,c,0,0,0,0,0,n,0,j,0,0,d
0,0,0,0,0,0,0,0,0,0,n,0,j,0,0,d
0,0,0,0,0,0,0,0,0,0,n,0,j,0,0,d
0,0,0,0,0,0,0,0,0,0,o,h,i,0,0,d
0,0,0,0,0,0,0,0,0,0,0,0,0,0,0,d
d,d,d,d,d,d,d,d,d,d,d,d,d,d,d,d
NAME Exit-RIGHT-View-SA
ITM 2 11,10
ITM 2 11,12
ITM 2 11,7
ITM 2 11,5
EXT 0,8 5 15,8
EXT 0,9 5 15,9
EXT 11,5 k 11,5
EXT 11,7 k 11,7
EXT 11,10 k 11,10
EXT 11,12 k 11,12
PAL 0

ROOM d
d,d,d,d,b,d,d,d,d,d,d,d,d,d,d,d
d,d,d,d,b,d,d,d,d,d,d,d,d,d,d,d
d,d,d,d,b,d,d,d,d,d,d,d,d,d,d,d
d,d,d,d,e,d,d,d,d,d,d,d,d,d,d,d
d,d,d,d,d,d,d,d,d,d,d,d,d,d,d,d
d,d,d,d,d,d,d,d,d,d,d,d,d,d,d,d
d,d,d,d,d,d,d,d,d,d,d,d,d,d,d,d
d,d,d,d,d,d,d,d,d,d,d,d,d,d,d,d
d,d,d,d,d,d,d,d,d,d,d,d,d,d,d,d
d,d,d,d,d,d,d,d,d,d,d,d,d,d,d,d
d,d,d,d,d,d,d,d,d,d,d,d,d,d,d,d
d,d,d,d,d,d,d,d,d,d,d,d,d,d,d,d
d,d,d,d,d,d,d,d,d,d,d,d,d,d,d,d
d,d,d,d,d,d,d,d,d,d,d,d,d,d,d,d
d,d,d,d,d,d,d,d,d,d,d,d,d,d,d,d
d,d,d,d,d,d,d,d,d,d,d,d,d,d,d,d
NAME Secret-Pass-1-SA
EXT 4,3 1 4,3
EXT 4,0 e 4,15
PAL 0

ROOM e
d,d,d,d,d,d,d,d,d,d,d,d,d,d,d,d
d,d,d,d,d,d,d,d,d,d,d,d,d,d,d,d
d,d,d,d,d,d,d,d,d,d,d,d,d,d,d,d
d,d,d,d,d,d,d,d,d,d,d,d,d,d,d,d
d,d,d,d,d,d,d,d,d,d,d,d,d,d,d,d
d,d,d,d,d,d,d,d,d,d,d,d,d,d,d,d
d,d,d,d,d,d,d,d,d,d,d,d,d,d,d,d
d,d,d,d,d,d,d,d,d,d,d,d,d,d,d,d
d,d,d,d,d,d,d,d,d,d,d,d,d,d,d,d
b,b,b,b,b,d,d,d,d,d,d,d,d,d,d,d
d,d,d,d,b,d,d,d,d,d,d,d,d,d,d,d
d,d,d,d,b,d,d,d,d,d,d,d,d,d,d,d
d,d,d,d,b,d,d,d,d,d,d,d,d,d,d,d
d,d,d,d,b,d,d,d,d,d,d,d,d,d,d,d
d,d,d,d,b,d,d,d,d,d,d,d,d,d,d,d
d,d,d,d,b,d,d,d,d,d,d,d,d,d,d,d
NAME Secret-Pass-2-SA
EXT 4,15 d 4,0
EXT 0,9 f 15,9
PAL 0

ROOM f
d,d,d,d,d,d,d,d,d,d,d,d,d,d,d,d
d,d,d,d,d,d,d,d,d,d,d,d,d,d,d,d
d,d,d,d,d,d,d,d,d,d,d,d,d,d,d,d
d,d,d,d,d,d,d,d,d,d,d,d,d,d,d,d
d,d,d,d,d,d,d,d,d,d,d,d,d,d,d,d
d,d,d,d,d,d,d,d,d,d,d,d,d,d,d,d
d,d,d,d,d,d,d,d,d,d,d,d,d,d,d,d
d,d,d,d,d,d,d,d,d,d,d,d,d,d,d,d
d,d,d,d,d,d,d,d,d,d,d,d,d,d,d,d
d,d,d,d,d,d,d,d,d,d,e,b,b,b,b,b
d,d,d,d,d,d,d,d,d,d,d,d,d,d,d,d
d,d,d,d,d,d,d,d,d,d,d,d,d,d,d,d
d,d,d,d,d,d,d,d,d,d,d,d,d,d,d,d
d,d,d,d,d,d,d,d,d,d,d,d,d,d,d,d
d,d,d,d,d,d,d,d,d,d,d,d,d,d,d,d
d,d,d,d,d,d,d,d,d,d,d,d,d,d,d,d
NAME Secret-Pass-3-SA
EXT 10,9 g 10,9
EXT 15,9 e 0,9
PAL 0

ROOM g
d,d,d,d,d,d,d,d,d,d,d,d,d,d,d,d
d,d,d,d,d,d,d,d,d,d,d,d,d,d,d,d
d,d,d,d,d,d,d,d,d,d,d,d,d,d,d,d
d,d,d,d,d,f,f,f,f,f,f,f,d,d,d,d
d,d,d,d,f,g,g,g,g,g,g,g,f,d,d,d
d,d,d,f,g,g,0,0,0,0,0,g,f,d,d,d
d,d,d,f,g,p,a,0,0,p,0,g,f,d,d,d
d,d,d,f,g,0,q,0,0,0,0,g,f,d,d,d
d,d,d,f,g,p,0,0,0,p,0,g,f,d,d,d
d,d,d,f,g,0,p,0,0,0,e,g,f,d,d,d
d,d,d,f,g,0,0,p,0,0,g,g,f,d,d,d
d,d,d,f,g,g,g,g,g,g,g,f,d,d,d,d
d,d,d,d,f,f,f,f,f,f,f,d,d,d,d,d
d,d,d,d,d,d,d,d,d,d,d,d,d,d,d,d
d,d,d,d,d,d,d,d,d,d,d,d,d,d,d,d
d,d,d,d,d,d,d,d,d,d,d,d,d,d,d,d
NAME Secret-Room-1-A-SA
ITM 3 10,8
ITM 3 9,9
EXT 10,9 f 10,9
EXT 8,6 l 8,6
PAL 0

ROOM h
d,d,d,d,d,d,d,d,d,d,d,d,d,d,d,d
d,0,0,0,0,0,0,0,0,0,0,0,0,0,0,d
d,0,0,0,0,0,0,0,0,0,0,0,0,0,0,d
d,0,0,m,l,l,l,l,l,l,l,l,k,0,0,d
d,0,0,n,0,0,0,0,0,0,0,0,j,0,0,d
d,0,0,o,h,h,h,h,h,h,h,h,i,0,0,d
d,0,0,0,0,0,0,0,0,0,0,0,0,0,0,d
d,0,0,0,0,0,0,0,0,0,0,0,0,0,0,d
d,0,0,0,0,0,0,0,0,0,0,0,0,0,0,d
d,0,0,0,0,0,0,0,0,0,0,0,0,0,0,d
d,0,0,0,0,0,0,0,0,0,0,0,0,0,0,d
d,0,0,c,0,c,0,0,0,0,c,0,c,0,0,d
d,0,0,0,0,0,0,0,0,0,0,0,0,0,0,d
d,0,0,a,0,a,0,0,0,0,a,0,a,0,0,d
a,a,a,a,0,a,0,0,0,0,a,0,a,a,a,a
a,0,0,0,0,a,0,0,0,0,a,0,0,0,0,a
NAME Exit-UP-SA
ITM 1 4,4
ITM 1 6,4
ITM 1 9,4
ITM 1 11,4
EXT 1,15 2 1,0
EXT 14,15 2 14,0
END GoodEnd1 3,4
END GoodEnd1 4,3
END GoodEnd1 5,4
END GoodEnd1 4,5
END GoodEnd1 6,5
END GoodEnd1 6,3
END GoodEnd1 7,4
END GoodEnd1 8,4
END GoodEnd1 9,3
END GoodEnd1 9,5
END GoodEnd1 10,4
END GoodEnd1 11,3
END GoodEnd1 12,4
END GoodEnd1 11,5
PAL 0

ROOM i
d,0,0,0,0,0,a,0,0,a,0,0,0,0,0,d
d,0,0,0,0,0,a,0,0,a,0,0,0,0,0,d
d,0,0,0,0,0,a,0,0,a,0,0,0,0,0,d
d,0,0,0,0,0,0,0,0,0,0,0,0,0,0,d
d,0,0,0,0,0,c,0,0,c,0,0,0,0,0,d
d,0,0,0,0,0,0,0,0,0,0,0,0,0,0,d
d,0,0,0,0,0,0,0,0,0,0,0,0,0,0,d
d,0,0,0,0,0,0,0,0,0,0,0,0,0,0,d
d,0,0,0,0,0,0,0,0,0,0,0,0,0,0,d
d,0,0,m,l,l,l,l,l,l,l,l,k,0,0,d
d,0,0,n,0,0,0,0,0,0,0,0,j,0,0,d
d,0,0,o,h,h,h,h,h,h,h,h,i,0,0,d
d,0,0,0,0,0,0,0,0,0,0,0,0,0,0,d
d,0,0,0,0,0,0,0,0,0,0,0,0,0,0,d
d,0,0,0,0,0,0,0,0,0,0,0,0,0,0,d
d,d,d,d,d,d,d,d,d,d,d,d,d,d,d,d
NAME Exit-DOWN-SA
ITM 1 4,10
ITM 1 6,10
ITM 1 9,10
ITM 1 11,10
EXT 7,0 7 7,15
EXT 8,0 7 8,15
END BadEnd1 4,9
END BadEnd1 3,10
END BadEnd1 4,11
END BadEnd1 5,10
END BadEnd1 7,10
END BadEnd1 6,9
END BadEnd1 6,11
END BadEnd1 8,10
END BadEnd1 9,9
END BadEnd1 10,10
END BadEnd1 9,11
END BadEnd1 11,9
END BadEnd1 12,10
END BadEnd1 11,11
PAL 0

ROOM j
d,d,d,d,d,d,d,d,d,d,d,d,d,d,d,d
d,0,0,0,0,0,0,0,0,0,0,0,0,0,0,0
d,0,0,0,m,l,k,0,0,0,0,0,0,0,0,0
d,0,0,0,n,0,j,0,0,0,0,0,0,0,0,0
d,0,0,0,n,0,j,0,0,0,0,0,0,0,0,0
d,0,0,0,n,0,j,0,0,0,0,0,0,0,0,0
d,0,0,0,n,0,j,0,0,0,0,0,0,0,0,0
d,0,0,0,n,0,j,0,0,0,0,0,0,0,0,0
d,0,0,0,n,0,j,0,0,0,0,0,0,0,0,0
d,0,0,0,n,0,j,0,0,0,0,c,0,a,a,a
d,0,0,0,n,0,j,0,0,0,0,0,0,0,0,0
d,0,0,0,o,h,i,0,0,0,0,c,0,a,a,a
d,0,0,0,0,0,0,0,0,0,0,0,0,0,0,0
d,0,0,0,0,0,0,0,0,0,0,0,0,0,0,0
d,0,0,0,0,0,0,0,0,0,0,0,0,0,0,0
d,d,d,d,d,d,d,d,d,d,d,d,d,d,d,d
NAME Exit-LEFT-SA
ITM 2 5,3
ITM 2 5,5
ITM 2 5,8
ITM 2 5,10
EXT 15,10 4 0,10
END GoodEnd1 5,2
END GoodEnd1 4,3
END GoodEnd1 6,3
END GoodEnd1 5,4
END GoodEnd1 4,5
END GoodEnd1 6,5
END GoodEnd1 5,6
END GoodEnd1 5,7
END GoodEnd1 4,8
END GoodEnd1 6,8
END GoodEnd1 5,9
END GoodEnd1 4,10
END GoodEnd1 6,10
END GoodEnd1 5,11
PAL 0

ROOM k
d,d,d,d,d,d,d,d,d,d,d,d,d,d,d,d
0,0,0,0,0,0,0,0,0,0,0,0,0,0,0,d
0,0,0,0,0,0,0,0,0,0,0,0,0,0,0,d
0,0,0,0,0,0,0,0,0,0,0,0,0,0,0,d
0,0,0,0,0,0,0,0,0,0,m,l,k,0,0,d
0,0,0,0,0,0,0,0,0,0,n,0,j,0,0,d
0,0,0,0,0,0,0,0,0,0,n,0,j,0,0,d
a,a,a,0,c,0,0,0,0,0,n,0,j,0,0,d
0,0,0,0,0,0,0,0,0,0,n,0,j,0,0,d
0,0,0,0,0,0,0,0,0,0,n,0,j,0,0,d
a,a,a,0,c,0,0,0,0,0,n,0,j,0,0,d
0,0,0,0,0,0,0,0,0,0,n,0,j,0,0,d
0,0,0,0,0,0,0,0,0,0,n,0,j,0,0,d
0,0,0,0,0,0,0,0,0,0,o,h,i,0,0,d
0,0,0,0,0,0,0,0,0,0,0,0,0,0,0,d
d,d,d,d,d,d,d,d,d,d,d,d,d,d,d,d
NAME Exit-RIGHT-SA
ITM 2 11,5
ITM 2 11,7
ITM 2 11,10
ITM 2 11,12
EXT 0,8 5 15,8
EXT 0,9 5 15,9
END GoodEnd1 11,4
END GoodEnd1 10,5
END GoodEnd1 12,5
END GoodEnd1 11,6
END GoodEnd1 10,7
END GoodEnd1 12,7
END GoodEnd1 11,8
END GoodEnd1 11,9
END GoodEnd1 10,10
END GoodEnd1 12,10
END GoodEnd1 11,11
END GoodEnd1 10,12
END GoodEnd1 12,12
END GoodEnd1 11,13
PAL 0

ROOM l
d,d,d,d,d,d,d,d,d,d,d,d,d,d,d,d
d,d,d,d,d,d,d,d,d,d,d,d,d,d,d,d
d,d,d,d,d,d,d,d,d,d,d,d,d,d,d,d
d,d,d,d,d,f,f,f,f,f,f,f,d,d,d,d
d,d,d,d,f,g,g,g,g,g,g,g,f,d,d,d
d,d,d,f,g,g,0,0,0,0,0,g,f,d,d,d
d,d,d,f,g,p,a,0,0,p,0,g,f,d,d,d
d,d,d,f,g,0,b,0,0,0,0,g,f,d,d,d
d,d,d,f,g,p,0,0,0,p,0,g,f,d,d,d
d,d,d,f,g,0,p,0,0,0,e,g,f,d,d,d
d,d,d,f,g,0,0,p,0,0,g,g,f,d,d,d
d,d,d,f,g,g,g,g,g,g,g,f,d,d,d,d
d,d,d,d,f,f,f,f,f,f,f,d,d,d,d,d
d,d,d,d,d,d,d,d,d,d,d,d,d,d,d,d
d,d,d,d,d,d,d,d,d,d,d,d,d,d,d,d
d,d,d,d,d,d,d,d,d,d,d,d,d,d,d,d
NAME Secret-Room-1-A-SB
EXT 10,9 0 0,0
PAL 0

ROOM m
d,d,d,d,d,d,d,d,d,d,d,d,d,d,d,d
d,d,d,d,d,d,d,d,d,d,d,d,d,d,d,d
d,d,d,d,d,d,d,d,d,d,d,d,d,d,d,d
d,d,d,d,d,d,d,d,d,d,d,d,d,d,d,d
d,d,d,d,d,d,d,d,d,d,d,d,d,d,d,d
d,d,d,d,d,d,d,d,d,d,d,d,d,d,d,d
d,d,d,d,d,d,d,d,d,d,d,d,d,d,d,d
d,d,d,d,d,d,d,d,d,d,d,d,d,d,d,d
d,d,d,d,d,d,d,d,d,d,d,d,d,d,d,d
d,d,d,d,d,d,d,d,d,d,e,b,b,b,b,b
d,d,d,d,d,d,d,d,d,d,d,d,d,d,d,d
d,d,d,d,d,d,d,d,d,d,d,d,d,d,d,d
d,d,d,d,d,d,d,d,d,d,d,d,d,d,d,d
d,d,d,d,d,d,d,d,d,d,d,d,d,d,d,d
d,d,d,d,d,d,d,d,d,d,d,d,d,d,d,d
d,d,d,d,d,d,d,d,d,d,d,d,d,d,d,d
NAME Pasillo-3-B
EXT 10,9 l 10,9
EXT 15,9 n 0,9
PAL 0

ROOM n
d,d,d,d,d,d,d,d,d,d,d,d,d,d,d,d
d,d,d,d,d,d,d,d,d,d,d,d,d,d,d,d
d,d,d,d,d,d,d,d,d,d,d,d,d,d,d,d
d,d,d,d,d,d,d,d,d,d,d,d,d,d,d,d
d,d,d,d,d,d,d,d,d,d,d,d,d,d,d,d
d,d,d,d,d,d,d,d,d,d,d,d,d,d,d,d
d,d,d,d,d,d,d,d,d,d,d,d,d,d,d,d
d,d,d,d,d,d,d,d,d,d,d,d,d,d,d,d
d,d,d,d,d,d,d,d,d,d,d,d,d,d,d,d
b,b,b,b,b,d,d,d,d,d,d,d,d,d,d,d
d,d,d,d,b,d,d,d,d,d,d,d,d,d,d,d
d,d,d,d,b,d,d,d,d,d,d,d,d,d,d,d
d,d,d,d,b,d,d,d,d,d,d,d,d,d,d,d
d,d,d,d,b,d,d,d,d,d,d,d,d,d,d,d
d,d,d,d,b,d,d,d,d,d,d,d,d,d,d,d
d,d,d,d,b,d,d,d,d,d,d,d,d,d,d,d
NAME Pasillo-2-B
EXT 0,9 m 15,9
EXT 4,15 o 4,0
PAL 0

ROOM o
d,d,d,d,b,d,d,d,d,d,d,d,d,d,d,d
d,d,d,d,b,d,d,d,d,d,d,d,d,d,d,d
d,d,d,d,b,d,d,d,d,d,d,d,d,d,d,d
d,d,d,d,e,d,d,d,d,d,d,d,d,d,d,d
d,d,d,d,d,d,d,d,d,d,d,d,d,d,d,d
d,d,d,d,d,d,d,d,d,d,d,d,d,d,d,d
d,d,d,d,d,d,d,d,d,d,d,d,d,d,d,d
d,d,d,d,d,d,d,d,d,d,d,d,d,d,d,d
d,d,d,d,d,d,d,d,d,d,d,d,d,d,d,d
d,d,d,d,d,d,d,d,d,d,d,d,d,d,d,d
d,d,d,d,d,d,d,d,d,d,d,d,d,d,d,d
d,d,d,d,d,d,d,d,d,d,d,d,d,d,d,d
d,d,d,d,d,d,d,d,d,d,d,d,d,d,d,d
d,d,d,d,d,d,d,d,d,d,d,d,d,d,d,d
d,d,d,d,d,d,d,d,d,d,d,d,d,d,d,d
d,d,d,d,d,d,d,d,d,d,d,d,d,d,d,d
NAME Pasillo-1-B
EXT 4,0 n 4,15
EXT 4,3 q 4,3
PAL 0

ROOM p
b,b,b,a,a,a,a,a,b,a,a,a,a,a,b,a
b,a,b,a,b,b,b,b,b,b,b,b,b,a,b,b
b,a,a,a,b,a,a,a,b,a,a,a,b,a,a,a
b,a,b,b,b,a,b,a,b,a,b,a,b,b,b,b
b,a,b,a,b,b,b,a,b,a,b,b,b,a,a,b
b,a,b,a,a,a,a,a,b,a,a,a,a,a,b,a
b,a,b,a,b,a,b,b,b,b,b,a,b,b,b,b
b,a,b,a,b,a,b,b,b,b,b,a,b,a,a,a
b,a,b,b,b,a,b,b,b,b,b,a,b,b,b,b
b,b,a,a,a,a,b,b,b,b,b,a,a,a,a,b
a,b,b,a,b,a,b,b,b,b,b,a,b,a,b,b
a,a,b,a,b,a,a,a,a,a,a,a,b,a,b,a
a,b,b,a,b,b,b,b,b,b,b,a,b,a,b,a
b,b,a,b,b,a,a,b,a,a,a,b,b,b,b,a
b,a,a,b,a,a,b,b,b,b,a,b,a,a,a,b
b,b,b,a,b,b,b,a,a,b,a,b,b,b,b,b
NAME Centro-Lab-SB
ITM 0 15,1
ITM 0 14,1
ITM 0 14,0
ITM 0 15,4
ITM 0 15,3
ITM 0 14,3
ITM 0 13,3
ITM 0 12,3
ITM 0 12,4
ITM 0 11,4
ITM 0 10,4
ITM 0 10,3
ITM 0 12,2
ITM 0 12,1
ITM 0 11,1
ITM 0 10,1
ITM 0 9,1
ITM 0 8,1
ITM 0 8,0
ITM 0 8,2
ITM 0 8,3
ITM 0 8,4
ITM 0 8,5
ITM 0 8,6
ITM 0 7,6
ITM 0 6,6
ITM 0 6,7
ITM 0 6,8
ITM 0 6,9
ITM 0 6,10
ITM 0 7,10
ITM 0 8,10
ITM 0 9,10
ITM 0 10,10
ITM 0 10,9
ITM 0 10,8
ITM 0 10,7
ITM 0 10,6
ITM 0 9,6
ITM 0 9,7
ITM 0 9,8
ITM 0 8,8
ITM 0 8,9
ITM 0 7,9
ITM 0 7,8
ITM 0 7,7
ITM 0 15,6
ITM 0 14,6
ITM 0 14,5
ITM 0 13,6
ITM 0 12,6
ITM 0 12,7
ITM 0 12,8
ITM 0 14,8
ITM 0 13,8
ITM 0 15,8
ITM 0 15,9
ITM 0 15,10
ITM 0 14,10
ITM 0 14,11
ITM 0 14,12
ITM 0 14,13
ITM 0 13,13
ITM 0 12,13
ITM 0 12,12
ITM 0 12,11
ITM 0 12,10
ITM 0 11,13
ITM 0 11,14
ITM 0 11,15
ITM 0 12,15
ITM 0 13,15
ITM 0 14,15
ITM 0 15,15
ITM 0 15,14
ITM 0 9,15
ITM 0 9,14
ITM 0 8,14
ITM 0 7,14
ITM 0 7,13
ITM 0 7,12
ITM 0 8,12
ITM 0 9,12
ITM 0 10,12
ITM 0 6,14
ITM 0 6,15
ITM 0 5,15
ITM 0 4,15
ITM 0 6,12
ITM 0 5,12
ITM 0 4,12
ITM 0 4,11
ITM 0 4,10
ITM 0 4,13
ITM 0 3,13
ITM 0 3,14
ITM 0 2,15
ITM 0 1,15
ITM 0 0,15
ITM 0 0,14
ITM 0 0,13
ITM 0 1,13
ITM 0 1,12
ITM 0 2,12
ITM 0 2,11
ITM 0 2,10
ITM 0 1,10
ITM 0 1,9
ITM 0 0,9
ITM 0 0,8
ITM 0 0,7
ITM 0 0,6
ITM 0 0,5
ITM 0 0,4
ITM 0 0,3
ITM 0 0,2
ITM 0 0,1
ITM 0 0,0
ITM 0 1,0
ITM 0 2,0
ITM 0 2,1
ITM 0 7,1
ITM 0 6,1
ITM 0 5,1
ITM 0 4,1
ITM 0 4,2
ITM 0 4,3
ITM 0 3,3
ITM 0 2,3
ITM 0 2,4
ITM 0 2,5
ITM 0 2,6
ITM 0 2,7
ITM 0 2,8
ITM 0 3,8
ITM 0 4,8
ITM 0 4,7
ITM 0 4,6
ITM 0 4,4
ITM 0 5,4
ITM 0 6,4
ITM 0 6,3
ITM 0 9,9
EXT 8,0 r 8,15
EXT 1,0 r 1,15
EXT 14,0 r 14,15
EXT 15,1 u 0,1
EXT 15,3 u 0,3
EXT 11,15 w 11,0
EXT 9,15 w 9,0
EXT 1,15 w 1,0
EXT 15,14 u 0,14
PAL 0

ROOM q
a,a,a,a,a,a,a,a,a,a,a,a,a,a,a,a
a,b,b,b,b,b,b,b,a,b,b,b,a,b,b,b
a,b,a,a,a,a,a,b,a,b,a,b,b,b,a,b
a,b,b,a,e,a,b,b,a,b,a,a,a,a,a,a
a,a,b,a,b,a,b,a,a,b,a,b,b,b,b,a
a,b,b,a,b,a,b,b,a,b,b,a,b,a,b,b
a,b,a,a,b,a,a,e,a,a,b,a,b,a,a,a
a,b,b,a,b,b,a,a,b,b,b,a,b,b,b,b
a,a,b,a,a,b,b,b,b,a,a,a,a,b,a,b
a,b,b,b,a,a,a,b,a,b,b,b,a,a,a,b
a,b,a,b,b,a,b,b,a,b,a,b,b,b,b,b
a,b,a,a,b,a,b,a,a,b,a,a,a,a,a,b
a,b,b,a,b,a,b,b,a,b,a,b,b,b,a,b
a,a,b,a,b,a,a,b,b,b,a,b,b,b,a,b
a,b,b,a,b,b,b,b,a,b,a,b,b,b,a,b
a,b,a,a,a,a,a,b,a,b,a,a,b,a,a,b
NAME Esq-Sup-Izq-Lab-SB
ITM 0 15,1
ITM 0 14,1
ITM 0 15,2
ITM 0 13,1
ITM 0 13,2
ITM 0 12,2
ITM 0 11,2
ITM 0 11,1
ITM 0 10,1
ITM 0 9,1
ITM 0 9,2
ITM 0 9,3
ITM 0 9,4
ITM 0 9,5
ITM 0 10,5
ITM 0 10,6
ITM 0 10,7
ITM 0 9,7
ITM 0 8,7
ITM 0 8,8
ITM 0 7,8
ITM 0 6,8
ITM 0 5,8
ITM 0 5,7
ITM 0 4,7
ITM 0 4,6
ITM 0 4,5
ITM 0 4,4
ITM 0 7,5
ITM 0 6,5
ITM 0 6,4
ITM 0 6,3
ITM 0 7,3
ITM 0 7,2
ITM 0 7,1
ITM 0 6,1
ITM 0 5,1
ITM 0 4,1
ITM 0 3,1
ITM 0 2,1
ITM 0 1,1
ITM 0 1,2
ITM 0 1,3
ITM 0 2,3
ITM 0 2,4
ITM 0 2,5
ITM 0 1,5
ITM 0 1,6
ITM 0 1,7
ITM 0 2,7
ITM 0 2,8
ITM 0 1,9
ITM 0 2,9
ITM 0 3,9
ITM 0 3,10
ITM 0 4,10
ITM 0 4,11
ITM 0 4,12
ITM 0 4,13
ITM 0 4,14
ITM 0 5,14
ITM 0 2,13
ITM 0 2,12
ITM 0 1,12
ITM 0 1,11
ITM 0 1,10
ITM 0 2,14
ITM 0 1,14
ITM 0 1,15
ITM 0 7,15
ITM 0 7,14
ITM 0 6,14
ITM 0 7,13
ITM 0 8,13
ITM 0 7,12
ITM 0 6,12
ITM 0 6,11
ITM 0 6,10
ITM 0 7,10
ITM 0 7,9
ITM 0 9,9
ITM 0 9,10
ITM 0 9,11
ITM 0 9,12
ITM 0 9,13
ITM 0 9,14
ITM 0 9,15
ITM 0 12,15
ITM 0 12,14
ITM 0 11,14
ITM 0 11,13
ITM 0 11,12
ITM 0 12,12
ITM 0 13,12
ITM 0 13,13
ITM 0 13,14
ITM 0 15,15
ITM 0 15,14
ITM 0 15,13
ITM 0 15,12
ITM 0 15,11
ITM 0 15,10
ITM 0 14,10
ITM 0 13,10
ITM 0 12,10
ITM 0 11,10
ITM 0 11,9
ITM 0 10,9
ITM 0 13,8
ITM 0 13,7
ITM 0 14,7
ITM 0 15,7
ITM 0 15,8
ITM 0 15,9
ITM 0 12,7
ITM 0 12,6
ITM 0 12,5
ITM 0 11,4
ITM 0 12,4
ITM 0 13,4
ITM 0 14,4
ITM 0 14,5
ITM 0 15,5
ITM 6 7,6
EXT 15,2 r 0,2
EXT 15,5 r 0,5
EXT 12,15 t 12,0
EXT 9,15 t 9,0
EXT 7,15 t 7,0
EXT 1,15 t 1,0
EXT 4,3 o 4,3
EXT 7,6 14 7,6
PAL 0

ROOM r
a,b,a,a,a,a,a,a,a,a,a,a,a,a,b,a
a,b,b,b,b,a,b,a,b,b,b,b,b,a,b,b
b,a,b,a,b,a,b,a,a,a,a,a,b,a,a,a
b,a,b,a,b,a,b,b,b,b,b,b,b,b,b,b
a,a,b,a,b,a,b,a,b,a,a,a,a,a,a,a
b,b,b,a,b,b,a,a,b,b,b,a,b,b,b,a
a,a,a,b,a,b,a,b,b,a,b,a,b,a,a,a
a,b,b,b,a,b,b,a,b,a,b,b,b,a,b,b
a,b,a,b,a,a,b,a,a,a,b,a,b,a,b,a
a,a,a,b,a,b,b,b,b,b,b,a,b,a,b,a
a,b,a,b,a,a,a,a,b,a,a,a,a,a,b,a
a,b,a,b,b,b,b,a,b,a,b,b,b,b,b,a
a,b,a,a,b,a,a,a,b,a,b,a,a,a,a,a
a,b,b,b,b,a,b,b,b,a,b,a,b,b,b,a
a,b,a,a,a,a,b,a,a,a,b,a,b,a,b,a
a,b,a,b,b,b,b,a,b,b,b,b,b,a,b,a
NAME UP-Lab-SB
ITM 0 1,0
ITM 0 1,1
ITM 0 2,1
ITM 0 0,2
ITM 0 0,3
ITM 0 2,2
ITM 0 2,3
ITM 0 2,4
ITM 0 2,5
ITM 0 1,5
ITM 0 0,5
ITM 0 3,1
ITM 0 4,1
ITM 0 4,2
ITM 0 4,3
ITM 0 4,4
ITM 0 4,5
ITM 0 5,5
ITM 0 5,6
ITM 0 5,7
ITM 0 6,7
ITM 0 6,8
ITM 0 6,9
ITM 0 5,9
ITM 0 7,9
ITM 0 8,9
ITM 0 9,9
ITM 0 8,7
ITM 0 8,6
ITM 0 7,6
ITM 0 8,5
ITM 0 8,4
ITM 0 8,3
ITM 0 7,3
ITM 0 6,4
ITM 0 6,2
ITM 0 6,3
ITM 0 6,1
ITM 0 9,3
ITM 0 10,3
ITM 0 11,3
ITM 0 12,3
ITM 0 12,2
ITM 0 12,1
ITM 0 11,1
ITM 0 10,1
ITM 0 9,1
ITM 0 8,1
ITM 0 13,3
ITM 0 14,3
ITM 0 15,3
ITM 0 15,1
ITM 0 14,1
ITM 0 14,0
ITM 0 14,5
ITM 0 13,5
ITM 0 12,5
ITM 0 12,6
ITM 0 12,7
ITM 0 11,7
ITM 0 10,7
ITM 0 10,6
ITM 0 10,5
ITM 0 9,5
ITM 0 10,8
ITM 0 10,9
ITM 0 12,8
ITM 0 12,9
ITM 0 14,9
ITM 0 14,8
ITM 0 14,7
ITM 0 15,7
ITM 0 14,10
ITM 0 14,11
ITM 0 13,11
ITM 0 12,11
ITM 0 11,11
ITM 0 10,11
ITM 0 10,12
ITM 0 10,13
ITM 0 10,14
ITM 0 11,15
ITM 0 10,15
ITM 0 12,14
ITM 0 12,13
ITM 0 14,13
ITM 0 3,6
ITM 0 1,7
ITM 0 1,8
ITM 0 2,7
ITM 0 3,7
ITM 0 3,8
ITM 0 3,9
ITM 0 3,10
ITM 0 3,11
ITM 0 1,11
ITM 0 1,10
ITM 0 4,11
ITM 0 5,11
ITM 0 6,11
ITM 0 8,11
ITM 0 8,10
ITM 0 14,15
ITM 0 14,14
ITM 0 13,13
ITM 0 12,15
ITM 0 9,15
ITM 0 8,12
ITM 0 8,13
ITM 0 8,15
ITM 0 7,13
ITM 0 6,13
ITM 0 6,14
ITM 0 6,15
ITM 0 5,15
ITM 0 4,15
ITM 0 3,15
ITM 0 4,12
ITM 0 4,13
ITM 0 3,13
ITM 0 2,13
ITM 0 1,12
ITM 0 1,13
ITM 0 1,14
ITM 0 1,15
EXT 1,0 y 1,15
EXT 14,0 y 14,15
EXT 0,2 q 15,2
EXT 0,5 q 15,5
EXT 1,15 p 1,0
EXT 8,15 p 8,0
EXT 14,15 p 14,0
EXT 15,1 s 0,1
EXT 15,3 s 0,3
EXT 15,7 s 0,7
PAL 0

ROOM s
a,a,a,a,a,a,a,a,a,a,a,a,a,a,a,a
b,b,b,b,b,b,b,b,b,b,b,b,b,b,b,a
a,a,b,a,a,a,a,b,a,a,a,a,b,b,b,a
b,a,b,a,b,b,a,b,a,b,b,a,b,b,b,a
b,a,b,a,a,b,a,b,a,a,b,a,a,a,a,a
b,a,b,a,b,b,a,b,b,b,b,a,b,b,b,a
a,a,a,a,b,a,a,a,a,a,b,a,b,a,b,a
b,a,b,b,b,b,b,a,b,b,b,b,b,a,b,a
b,a,a,a,a,a,b,b,b,a,a,a,a,a,b,a
b,a,b,b,b,a,a,a,b,a,b,b,b,b,b,a
b,b,b,a,b,b,b,a,b,a,b,a,a,a,a,a
b,a,a,a,a,b,a,a,b,a,a,a,b,b,b,a
b,b,b,b,a,b,b,a,b,b,b,b,b,a,b,a
a,a,a,b,b,a,b,a,a,a,a,a,a,a,b,a
b,b,b,a,b,a,b,b,b,a,b,b,b,a,b,a
b,a,b,b,b,a,b,a,b,b,b,a,b,b,b,a
NAME Esq-Sup-Der-Lab-SB
ITM 0 0,1
ITM 0 1,1
ITM 0 2,1
ITM 0 2,2
ITM 0 2,3
ITM 0 2,4
ITM 0 2,5
ITM 0 3,1
ITM 0 4,1
ITM 0 5,1
ITM 0 7,1
ITM 0 6,1
ITM 0 8,1
ITM 0 9,1
ITM 0 10,1
ITM 0 11,1
ITM 0 12,1
ITM 0 13,1
ITM 0 14,1
ITM 0 14,2
ITM 0 14,3
ITM 0 13,3
ITM 0 12,3
ITM 0 12,2
ITM 0 9,3
ITM 0 10,3
ITM 0 10,4
ITM 0 9,5
ITM 0 8,5
ITM 0 7,5
ITM 0 7,4
ITM 0 7,3
ITM 0 7,2
ITM 0 5,3
ITM 0 4,3
ITM 0 4,5
ITM 0 5,4
ITM 0 5,5
ITM 0 0,3
ITM 0 0,4
ITM 0 0,5
ITM 0 4,6
ITM 0 4,7
ITM 0 3,7
ITM 0 2,7
ITM 0 5,7
ITM 0 6,7
ITM 0 6,8
ITM 0 7,8
ITM 0 8,8
ITM 0 8,7
ITM 0 9,7
ITM 0 10,7
ITM 0 10,6
ITM 0 10,5
ITM 0 11,7
ITM 0 12,7
ITM 0 12,6
ITM 0 12,5
ITM 0 13,5
ITM 0 14,5
ITM 0 14,6
ITM 0 14,7
ITM 0 14,8
ITM 0 14,9
ITM 0 13,9
ITM 0 12,9
ITM 0 11,9
ITM 0 10,9
ITM 0 8,9
ITM 0 8,10
ITM 0 8,11
ITM 0 5,11
ITM 0 5,10
ITM 0 6,10
ITM 0 4,10
ITM 0 4,9
ITM 0 3,9
ITM 0 2,9
ITM 0 2,10
ITM 0 1,10
ITM 0 0,11
ITM 0 0,10
ITM 0 0,9
ITM 0 0,8
ITM 0 0,7
ITM 0 0,12
ITM 0 1,12
ITM 0 2,12
ITM 0 3,12
ITM 0 3,13
ITM 0 4,13
ITM 0 4,14
ITM 0 4,15
ITM 0 3,15
ITM 0 2,15
ITM 0 2,14
ITM 0 1,14
ITM 0 0,14
ITM 0 0,15
ITM 0 6,15
ITM 0 6,14
ITM 0 6,13
ITM 0 6,12
ITM 0 5,12
ITM 0 7,14
ITM 0 8,14
ITM 0 8,15
ITM 0 9,15
ITM 0 10,15
ITM 0 10,14
ITM 0 11,14
ITM 0 12,14
ITM 0 12,15
ITM 0 13,15
ITM 0 14,15
ITM 0 14,14
ITM 0 14,13
ITM 0 14,12
ITM 0 14,11
ITM 0 13,11
ITM 0 12,11
ITM 0 12,12
ITM 0 11,12
ITM 0 10,12
ITM 0 9,12
ITM 0 8,12
ITM 7 10,10
EXT 0,1 r 15,1
EXT 0,3 r 15,3
EXT 0,7 r 15,7
EXT 6,15 u 6,0
EXT 10,10 17 10,10
PAL 0

ROOM t
a,b,a,b,b,b,a,b,a,b,b,a,b,a,b,a
a,b,b,b,a,b,b,b,a,a,b,a,b,a,b,a
a,a,a,a,a,a,a,a,a,b,b,a,b,a,b,a
a,b,b,b,b,b,b,b,b,a,b,a,b,a,b,a
a,b,a,a,a,a,a,a,b,a,a,a,b,a,b,a
a,b,a,b,a,b,b,b,b,a,b,b,b,b,b,a
a,b,a,b,a,b,a,a,b,a,b,a,a,a,b,a
a,b,a,b,b,b,b,a,b,a,b,a,b,a,b,a
a,b,a,a,a,a,b,a,b,b,b,b,b,a,a,a
a,b,b,b,b,a,b,a,a,a,a,a,b,a,b,a
b,b,a,a,a,a,b,a,b,b,b,a,b,a,b,b
a,a,a,b,b,b,b,b,b,a,b,a,a,a,a,b
a,b,b,b,a,a,a,a,b,a,b,b,b,b,b,b
a,b,a,b,b,b,b,a,b,a,a,a,a,a,b,a
a,b,a,a,a,a,b,a,b,b,b,a,b,b,b,a
a,b,a,b,b,b,b,a,a,a,b,b,b,a,a,a
NAME Izq-Lab-SB
ITM 0 1,0
ITM 0 1,1
ITM 0 2,1
ITM 0 3,1
ITM 0 3,0
ITM 0 4,0
ITM 0 5,0
ITM 0 5,1
ITM 0 6,1
ITM 0 7,1
ITM 0 7,0
ITM 0 9,0
ITM 0 10,0
ITM 0 10,1
ITM 0 10,2
ITM 0 10,3
ITM 0 9,2
ITM 0 12,0
ITM 0 12,1
ITM 0 12,2
ITM 0 12,3
ITM 0 12,4
ITM 0 12,5
ITM 0 11,5
ITM 0 10,5
ITM 0 10,6
ITM 0 10,7
ITM 0 10,8
ITM 0 11,8
ITM 0 12,8
ITM 0 12,7
ITM 0 12,9
ITM 0 12,10
ITM 0 9,8
ITM 0 8,8
ITM 0 8,7
ITM 0 8,6
ITM 0 8,5
ITM 0 8,4
ITM 0 8,3
ITM 0 7,3
ITM 0 6,3
ITM 0 5,3
ITM 0 4,3
ITM 0 3,3
ITM 0 2,3
ITM 0 1,3
ITM 0 1,4
ITM 0 1,5
ITM 0 1,6
ITM 0 1,7
ITM 0 1,8
ITM 0 1,9
ITM 0 2,9
ITM 0 3,9
ITM 0 4,9
ITM 0 1,10
ITM 0 0,10
ITM 0 3,5
ITM 0 3,6
ITM 0 3,7
ITM 0 4,7
ITM 0 5,7
ITM 0 5,6
ITM 0 5,5
ITM 0 6,5
ITM 0 7,5
ITM 0 6,7
ITM 0 6,8
ITM 0 6,9
ITM 0 6,10
ITM 0 3,11
ITM 0 4,11
ITM 0 5,11
ITM 0 6,11
ITM 0 7,11
ITM 0 8,11
ITM 0 8,10
ITM 0 9,10
ITM 0 10,10
ITM 0 10,11
ITM 0 10,12
ITM 0 11,12
ITM 0 12,12
ITM 0 13,12
ITM 0 14,12
ITM 0 15,12
ITM 0 15,11
ITM 0 15,10
ITM 0 14,10
ITM 0 14,9
ITM 0 14,7
ITM 0 14,5
ITM 0 14,6
ITM 0 13,5
ITM 0 14,4
ITM 0 14,3
ITM 0 14,2
ITM 0 14,1
ITM 0 14,0
ITM 0 14,13
ITM 0 14,14
ITM 0 13,14
ITM 0 12,14
ITM 0 12,15
ITM 0 11,15
ITM 0 10,15
ITM 0 10,14
ITM 0 9,14
ITM 0 8,14
ITM 0 8,13
ITM 0 8,12
ITM 0 3,15
ITM 0 4,15
ITM 0 5,15
ITM 0 6,15
ITM 0 6,14
ITM 0 6,13
ITM 0 5,13
ITM 0 4,13
ITM 0 3,13
ITM 0 3,12
ITM 0 2,12
ITM 0 1,12
ITM 0 1,13
ITM 0 1,14
ITM 0 1,15
EXT 1,0 q 1,15
EXT 7,0 q 7,15
EXT 9,0 q 9,15
EXT 12,0 q 12,15
EXT 1,15 v 1,0
EXT 3,15 v 3,0
EXT 0,10 12 15,10
PAL 0

ROOM u
a,a,a,a,a,a,b,a,a,a,a,a,a,a,a,a
b,b,b,b,b,b,b,b,b,b,b,a,b,b,b,a
a,a,a,a,a,b,a,a,b,a,b,a,b,a,b,a
b,b,a,b,b,b,b,a,b,a,b,a,b,a,b,a
a,b,a,a,a,a,b,a,b,a,b,b,b,a,b,a
a,b,b,b,b,a,b,a,b,a,a,a,a,a,b,a
a,b,a,a,a,a,a,b,b,b,a,b,b,b,b,a
a,b,a,b,b,b,a,b,a,b,a,a,b,a,a,a
a,b,a,a,a,b,b,b,a,b,b,a,b,a,b,b
a,b,b,b,b,b,a,b,a,a,b,a,b,a,b,b
a,a,a,a,a,a,a,b,b,a,b,a,b,a,b,a
b,b,b,a,b,b,b,a,b,a,b,a,b,a,b,a
b,a,b,a,b,a,b,a,b,a,b,a,b,a,b,a
b,a,b,b,b,a,b,a,b,a,b,a,a,a,b,a
b,a,b,a,a,a,b,a,b,a,b,b,b,b,b,a
a,a,a,a,a,a,a,a,b,a,a,a,a,a,a,a
NAME Der-Lab-SB
ITM 0 0,1
ITM 0 1,1
ITM 0 2,1
ITM 0 3,1
ITM 0 4,1
ITM 0 5,1
ITM 0 6,1
ITM 0 6,0
ITM 0 7,1
ITM 0 8,1
ITM 0 9,1
ITM 0 10,1
ITM 0 10,2
ITM 0 10,3
ITM 0 10,4
ITM 0 12,4
ITM 0 11,4
ITM 0 12,3
ITM 0 12,2
ITM 0 12,1
ITM 0 13,1
ITM 0 14,1
ITM 0 14,2
ITM 0 14,3
ITM 0 14,4
ITM 0 14,5
ITM 0 14,6
ITM 0 11,6
ITM 0 13,6
ITM 0 12,6
ITM 0 12,7
ITM 0 12,8
ITM 0 12,9
ITM 0 12,10
ITM 0 12,11
ITM 0 14,11
ITM 0 14,10
ITM 0 14,9
ITM 0 15,9
ITM 0 15,8
ITM 0 14,8
ITM 0 9,8
ITM 0 9,7
ITM 0 9,6
ITM 0 8,6
ITM 0 8,5
ITM 0 8,4
ITM 0 8,3
ITM 0 8,2
ITM 0 6,3
ITM 0 5,3
ITM 0 4,3
ITM 0 3,3
ITM 0 5,2
ITM 0 6,4
ITM 0 6,5
ITM 0 7,6
ITM 0 7,7
ITM 0 7,8
ITM 0 6,8
ITM 0 5,8
ITM 0 5,7
ITM 0 4,7
ITM 0 3,7
ITM 0 4,5
ITM 0 3,5
ITM 0 2,5
ITM 0 1,5
ITM 0 1,4
ITM 0 1,3
ITM 0 0,3
ITM 0 1,6
ITM 0 1,7
ITM 0 1,8
ITM 0 1,9
ITM 0 2,9
ITM 0 3,9
ITM 0 4,9
ITM 0 5,9
ITM 0 7,9
ITM 0 7,10
ITM 0 8,10
ITM 0 8,11
ITM 0 10,11
ITM 0 10,10
ITM 0 10,9
ITM 0 10,8
ITM 0 6,11
ITM 0 5,11
ITM 0 4,11
ITM 0 2,11
ITM 0 1,11
ITM 0 0,11
ITM 0 14,12
ITM 0 14,13
ITM 0 14,14
ITM 0 13,14
ITM 0 11,14
ITM 0 12,14
ITM 0 10,14
ITM 0 10,13
ITM 0 10,12
ITM 0 12,12
ITM 0 8,12
ITM 0 8,13
ITM 0 8,14
ITM 0 8,15
ITM 0 6,14
ITM 0 6,13
ITM 0 6,12
ITM 0 4,12
ITM 0 4,13
ITM 0 3,13
ITM 0 2,12
ITM 0 2,13
ITM 0 2,14
ITM 0 0,14
ITM 0 0,13
ITM 0 0,12
EXT 0,14 0 15,14
EXT 6,0 s 6,15
EXT 0,1 p 15,1
EXT 0,3 p 15,3
EXT 15,8 13 0,8
EXT 15,9 13 0,9
EXT 8,15 x 8,0
PAL 0

ROOM v
a,b,a,b,a,a,a,b,b,b,a,a,a,b,b,b
a,b,a,b,a,b,b,b,a,b,b,b,b,b,a,a
a,b,a,a,a,b,a,b,a,a,a,a,a,b,b,b
a,b,b,b,b,b,a,b,b,b,b,b,a,a,b,a
a,a,a,a,a,a,a,a,a,a,a,b,b,a,b,b
a,b,a,b,b,b,b,b,b,b,a,a,b,a,a,b
a,b,a,b,a,a,a,a,a,b,b,a,b,a,b,b
a,b,a,b,a,b,b,b,a,a,b,a,b,a,b,a
a,b,b,b,a,b,b,b,b,b,b,a,a,a,b,b
a,b,a,b,a,b,b,b,a,a,b,a,b,b,b,a
a,b,a,b,a,a,a,a,a,b,b,a,b,a,b,b
a,b,a,b,b,b,a,b,b,b,a,a,b,a,a,b
a,b,a,a,a,a,a,a,a,a,a,b,b,a,b,b
a,b,a,b,b,b,a,b,b,b,a,b,a,a,b,a
a,b,b,b,a,b,b,b,a,b,b,b,a,b,b,b
a,a,a,a,a,a,a,a,a,a,a,a,a,a,a,a
NAME Esq-Inf-Izq-Lab-SB
ITM 0 3,0
ITM 0 3,1
ITM 0 1,0
ITM 0 1,1
ITM 0 1,2
ITM 0 1,3
ITM 0 2,3
ITM 0 3,3
ITM 0 4,3
ITM 0 5,3
ITM 0 5,2
ITM 0 5,1
ITM 0 6,1
ITM 0 7,1
ITM 0 7,0
ITM 0 8,0
ITM 0 9,0
ITM 0 9,1
ITM 0 10,1
ITM 0 11,1
ITM 0 12,1
ITM 0 13,1
ITM 0 13,0
ITM 0 14,0
ITM 0 15,0
ITM 0 7,2
ITM 0 7,3
ITM 0 8,3
ITM 0 9,3
ITM 0 10,3
ITM 0 11,3
ITM 0 11,4
ITM 0 12,4
ITM 0 12,6
ITM 0 12,5
ITM 0 12,7
ITM 0 13,2
ITM 0 14,2
ITM 0 15,2
ITM 0 14,3
ITM 0 14,4
ITM 0 15,4
ITM 0 15,5
ITM 0 15,6
ITM 0 14,6
ITM 0 14,7
ITM 0 14,8
ITM 0 15,8
ITM 0 14,9
ITM 0 14,10
ITM 0 15,10
ITM 0 15,11
ITM 0 13,9
ITM 0 12,9
ITM 0 12,10
ITM 0 12,11
ITM 0 9,11
ITM 0 8,11
ITM 0 7,11
ITM 0 9,10
ITM 0 10,10
ITM 0 10,9
ITM 0 10,8
ITM 0 9,8
ITM 0 8,8
ITM 0 7,8
ITM 0 7,7
ITM 0 6,7
ITM 0 5,7
ITM 0 5,8
ITM 0 5,9
ITM 0 6,9
ITM 0 7,9
ITM 0 10,7
ITM 0 10,6
ITM 0 9,6
ITM 0 9,5
ITM 0 8,5
ITM 0 7,5
ITM 0 6,5
ITM 0 5,5
ITM 0 4,5
ITM 0 3,5
ITM 0 3,6
ITM 0 3,7
ITM 0 3,8
ITM 0 2,8
ITM 0 1,8
ITM 0 1,7
ITM 0 1,6
ITM 0 1,5
ITM 0 3,9
ITM 0 3,10
ITM 0 3,11
ITM 0 4,11
ITM 0 5,11
ITM 0 1,9
ITM 0 1,10
ITM 0 1,11
ITM 0 15,12
ITM 0 14,12
ITM 0 14,13
ITM 0 13,14
ITM 0 14,14
ITM 0 15,14
ITM 0 12,12
ITM 0 11,12
ITM 0 11,13
ITM 0 11,14
ITM 0 10,14
ITM 0 9,14
ITM 0 9,13
ITM 0 8,13
ITM 0 7,13
ITM 0 7,14
ITM 0 6,14
ITM 0 5,14
ITM 0 5,13
ITM 0 4,13
ITM 0 3,13
ITM 0 3,14
ITM 0 2,14
ITM 0 1,14
ITM 0 1,13
ITM 0 1,12
EXT 1,0 t 1,15
EXT 3,0 t 3,15
EXT 15,14 w 0,14
PAL 0

ROOM w
a,b,a,a,a,a,a,b,a,b,a,b,a,a,a,a
a,b,b,b,a,b,b,b,a,b,a,b,b,b,b,b
a,a,a,b,a,b,a,a,a,b,a,a,a,a,b,a
a,b,b,b,a,b,b,b,a,b,b,b,b,b,b,a
a,b,a,a,a,a,a,b,a,a,a,b,a,a,a,a
a,b,a,b,b,a,b,b,b,a,b,b,b,b,b,a
a,b,a,b,a,a,b,a,b,a,a,a,a,a,b,a
a,b,b,b,b,a,b,a,b,b,b,b,a,b,b,b
a,a,a,a,b,a,b,a,b,a,a,a,a,a,a,b
a,b,b,a,b,b,b,a,b,b,b,b,b,a,b,b
a,b,a,b,b,a,b,b,a,a,a,a,b,b,b,a
a,b,b,b,a,a,a,b,a,b,b,b,a,a,b,a
a,b,a,b,b,b,a,b,b,b,a,b,a,b,b,a
a,b,a,a,a,b,a,a,a,a,a,b,a,b,a,a
b,b,a,b,b,b,a,b,b,b,b,b,a,b,b,b
a,a,a,a,a,a,a,b,b,a,a,a,a,a,a,a
NAME DOWN-Lab-SB
ITM 0 15,1
ITM 0 14,1
ITM 0 13,1
ITM 0 12,1
ITM 0 11,1
ITM 0 11,0
ITM 0 9,0
ITM 0 9,1
ITM 0 9,2
ITM 0 9,3
ITM 0 10,3
ITM 0 11,3
ITM 0 12,3
ITM 0 13,3
ITM 0 14,3
ITM 0 14,2
ITM 0 7,0
ITM 0 7,1
ITM 0 6,1
ITM 0 5,1
ITM 0 5,2
ITM 0 5,3
ITM 0 6,3
ITM 0 7,3
ITM 0 7,4
ITM 0 11,4
ITM 0 1,4
ITM 0 1,3
ITM 0 2,3
ITM 0 3,3
ITM 0 3,2
ITM 0 3,1
ITM 0 2,1
ITM 0 1,1
ITM 0 1,0
ITM 0 1,5
ITM 0 1,6
ITM 0 1,7
ITM 0 2,7
ITM 0 3,7
ITM 0 3,6
ITM 0 3,5
ITM 0 4,5
ITM 0 4,7
ITM 0 6,6
ITM 0 6,5
ITM 0 7,5
ITM 0 8,5
ITM 0 8,6
ITM 0 8,7
ITM 0 9,7
ITM 0 10,7
ITM 0 11,7
ITM 0 10,5
ITM 0 11,5
ITM 0 12,5
ITM 0 13,5
ITM 0 14,5
ITM 0 14,6
ITM 0 13,7
ITM 0 14,7
ITM 0 15,7
ITM 0 6,7
ITM 0 2,9
ITM 0 1,9
ITM 0 1,10
ITM 0 1,11
ITM 0 2,11
ITM 0 3,11
ITM 0 3,10
ITM 0 4,10
ITM 0 4,9
ITM 0 4,8
ITM 0 5,9
ITM 0 6,9
ITM 0 6,8
ITM 0 6,10
ITM 0 7,10
ITM 0 7,11
ITM 0 8,9
ITM 0 8,8
ITM 0 9,9
ITM 0 10,9
ITM 0 11,9
ITM 0 12,9
ITM 0 12,10
ITM 0 13,10
ITM 0 14,10
ITM 0 14,11
ITM 0 14,9
ITM 0 15,9
ITM 0 15,8
ITM 0 11,11
ITM 0 10,11
ITM 0 9,11
ITM 0 0,14
ITM 0 1,14
ITM 0 1,13
ITM 0 1,12
ITM 0 3,12
ITM 0 4,12
ITM 0 5,12
ITM 0 5,13
ITM 0 5,14
ITM 0 4,14
ITM 0 3,14
ITM 0 7,12
ITM 0 8,12
ITM 0 9,12
ITM 0 11,12
ITM 0 11,13
ITM 0 11,14
ITM 0 10,14
ITM 0 9,14
ITM 0 8,14
ITM 0 7,14
ITM 0 7,15
ITM 0 8,15
ITM 0 15,14
ITM 0 14,14
ITM 0 13,14
ITM 0 13,13
ITM 0 13,12
ITM 0 14,12
EXT 1,0 p 1,15
EXT 9,0 p 9,15
EXT 11,0 p 11,15
EXT 0,14 v 15,14
EXT 15,1 x 0,1
EXT 15,14 x 0,14
EXT 7,15 z 7,0
EXT 8,15 z 8,0
PAL 0

ROOM x
b,b,b,b,b,a,b,a,b,b,a,b,b,b,b,a
b,a,a,a,a,a,b,a,a,b,a,b,a,a,b,a
b,b,b,b,b,a,b,a,b,b,a,b,a,b,b,a
a,a,a,a,b,b,b,b,b,a,b,b,a,b,a,a
b,b,b,a,a,b,a,a,a,a,b,a,b,b,b,a
b,a,b,b,a,b,b,b,b,b,b,a,b,a,b,a
b,b,a,b,a,b,a,a,a,a,a,a,b,a,b,a
a,b,a,a,a,b,a,b,b,b,b,a,b,a,b,a
a,b,a,b,a,b,b,b,a,a,b,a,a,b,b,a
a,b,a,b,a,a,a,a,a,b,b,b,a,b,a,a
b,b,b,b,a,b,b,b,a,b,b,b,a,b,b,a
b,a,a,a,a,b,a,b,a,b,b,b,a,a,b,a
b,b,b,b,a,b,b,a,a,a,a,a,a,b,b,a
a,b,a,b,a,a,b,b,b,b,a,b,b,b,a,a
b,b,a,b,b,b,a,b,a,b,b,b,a,b,b,a
a,a,a,a,a,a,a,a,a,a,a,a,a,a,a,a
NAME Esq-Inf-Der-Lab-SB
ITM 0 0,0
ITM 0 0,1
ITM 0 0,2
ITM 0 1,2
ITM 0 2,2
ITM 0 3,2
ITM 0 4,2
ITM 0 4,3
ITM 0 5,3
ITM 0 4,0
ITM 0 3,0
ITM 0 2,0
ITM 0 1,0
ITM 0 6,0
ITM 0 6,1
ITM 0 6,2
ITM 0 6,3
ITM 0 7,3
ITM 0 8,3
ITM 0 8,2
ITM 0 9,2
ITM 0 9,1
ITM 0 9,0
ITM 0 8,0
ITM 0 11,0
ITM 0 12,0
ITM 0 13,0
ITM 0 14,0
ITM 0 14,1
ITM 0 14,2
ITM 0 13,2
ITM 0 13,3
ITM 0 11,3
ITM 0 11,2
ITM 0 11,1
ITM 0 10,3
ITM 0 10,4
ITM 0 10,5
ITM 0 9,5
ITM 0 8,5
ITM 0 7,5
ITM 0 6,5
ITM 0 5,5
ITM 0 5,4
ITM 0 3,6
ITM 0 3,5
ITM 0 2,5
ITM 0 2,4
ITM 0 1,4
ITM 0 0,4
ITM 0 0,5
ITM 0 0,6
ITM 0 1,6
ITM 0 1,7
ITM 0 1,8
ITM 0 1,9
ITM 0 1,10
ITM 0 0,10
ITM 0 0,11
ITM 0 2,10
ITM 0 3,10
ITM 0 3,9
ITM 0 3,8
ITM 0 5,6
ITM 0 5,7
ITM 0 5,8
ITM 0 6,8
ITM 0 7,8
ITM 0 7,7
ITM 0 8,7
ITM 0 9,7
ITM 0 10,7
ITM 0 10,8
ITM 0 10,9
ITM 0 11,9
ITM 0 11,10
ITM 0 11,11
ITM 0 10,11
ITM 0 9,11
ITM 0 9,10
ITM 0 9,9
ITM 0 7,11
ITM 0 7,10
ITM 0 6,10
ITM 0 5,10
ITM 0 5,11
ITM 0 14,11
ITM 0 14,10
ITM 0 13,10
ITM 0 13,9
ITM 0 13,8
ITM 0 14,8
ITM 0 14,7
ITM 0 14,6
ITM 0 14,5
ITM 0 14,4
ITM 0 13,4
ITM 0 12,4
ITM 0 12,5
ITM 0 12,6
ITM 0 12,7
ITM 0 14,12
ITM 0 13,12
ITM 0 13,13
ITM 0 13,14
ITM 0 14,14
ITM 0 12,13
ITM 0 11,13
ITM 0 11,14
ITM 0 10,14
ITM 0 9,14
ITM 0 9,13
ITM 0 8,13
ITM 0 7,13
ITM 0 7,14
ITM 0 6,13
ITM 0 6,12
ITM 0 5,12
ITM 0 5,14
ITM 0 4,14
ITM 0 3,14
ITM 0 3,13
ITM 0 3,12
ITM 0 2,12
ITM 0 1,12
ITM 0 0,12
ITM 0 1,13
ITM 0 1,14
ITM 0 0,14
EXT 8,0 u 8,15
EXT 0,1 w 15,1
EXT 0,14 w 15,14
PAL 0

ROOM y
d,d,d,d,d,d,d,d,d,d,d,d,d,d,d,d
d,0,0,0,0,0,0,0,0,0,0,0,0,0,0,d
d,0,0,0,0,0,0,0,0,0,0,0,0,0,0,d
d,0,0,m,l,l,l,l,l,l,l,l,k,0,0,d
d,0,0,n,0,0,0,0,0,0,0,0,j,0,0,d
d,0,0,o,h,h,h,h,h,h,h,h,i,0,0,d
d,0,0,0,0,0,0,0,0,0,0,0,0,0,0,d
d,0,0,0,0,0,0,0,0,0,0,0,0,0,0,d
d,0,0,0,0,0,0,0,0,0,0,0,0,0,0,d
d,0,0,0,0,0,0,0,0,0,0,0,0,0,0,d
d,0,0,0,0,0,0,0,0,0,0,0,0,0,0,d
d,0,0,c,0,c,0,0,0,0,c,0,c,0,0,d
d,0,0,0,0,0,0,0,0,0,0,0,0,0,0,d
d,0,0,a,0,a,0,0,0,0,a,0,a,0,0,d
a,a,a,a,0,a,0,0,0,0,a,0,a,a,a,a
a,0,0,0,0,a,0,0,0,0,a,0,0,0,0,a
NAME Exit-UP-SB
ITM 4 4,4
ITM 4 6,4
ITM 4 9,4
ITM 4 11,4
EXT 1,15 r 1,0
EXT 14,15 r 14,0
PAL 0

ROOM z
d,0,0,0,0,0,a,0,0,a,0,0,0,0,0,d
d,0,0,0,0,0,a,0,0,a,0,0,0,0,0,d
d,0,0,0,0,0,a,0,0,a,0,0,0,0,0,d
d,0,0,0,0,0,0,0,0,0,0,0,0,0,0,d
d,0,0,0,0,0,c,0,0,c,0,0,0,0,0,d
d,0,0,0,0,0,0,0,0,0,0,0,0,0,0,d
d,0,0,0,0,0,0,0,0,0,0,0,0,0,0,d
d,0,0,0,0,0,0,0,0,0,0,0,0,0,0,d
d,0,0,0,0,0,0,0,0,0,0,0,0,0,0,d
d,0,0,m,l,l,l,l,l,l,l,l,k,0,0,d
d,0,0,n,0,0,0,0,0,0,0,0,j,0,0,d
d,0,0,o,h,h,h,h,h,h,h,h,i,0,0,d
d,0,0,0,0,0,0,0,0,0,0,0,0,0,0,d
d,0,0,0,0,0,0,0,0,0,0,0,0,0,0,d
d,0,0,0,0,0,0,0,0,0,0,0,0,0,0,d
d,d,d,d,d,d,d,d,d,d,d,d,d,d,d,d
NAME Exit-DOWN-SB
ITM 5 4,10
ITM 5 6,10
ITM 5 9,10
ITM 5 11,10
EXT 7,0 w 7,15
EXT 8,0 w 8,15
PAL 0

ROOM 1a
d,d,d,d,d,d,d,d,d,d,d,d,d,d,d,d
d,d,d,d,d,d,d,d,d,d,d,d,d,d,d,d
d,d,d,d,d,d,d,d,d,d,d,d,d,d,d,d
d,d,d,d,d,d,d,d,d,d,d,d,d,d,d,d
d,d,d,d,d,d,d,d,d,d,d,d,d,d,d,d
d,d,d,d,d,d,d,d,d,d,d,d,d,d,d,d
d,d,d,d,d,d,d,d,d,d,d,d,d,d,d,d
d,d,d,d,d,d,d,d,d,d,d,d,d,d,d,d
d,d,d,d,d,d,d,d,d,d,s,s,x,d,d,d
d,d,d,d,d,d,d,d,d,d,s,s,x,d,d,d
d,d,d,d,d,d,d,d,d,d,s,s,w,d,d,d
d,d,d,d,d,d,d,d,d,v,s,s,s,d,d,d
d,d,d,d,d,d,d,d,d,d,s,s,s,d,d,d
d,d,d,d,d,d,d,d,d,d,d,d,d,d,d,d
d,d,d,d,d,d,d,d,d,d,d,d,d,d,d,d
d,d,d,d,d,d,d,d,d,d,d,d,d,d,d,d
EXT 9,11 19 9,11
PAL 0

ROOM 1b
d,1c,0,0,1b,0,0,0,1c,0,0,0,1c,0,1d,0
d,0,1d,0,1b,0,1d,0,0,0,1d,0,0,0,0,0
d,0,0,0,1b,0,0,1c,1d,1c,0,0,1d,0,0,0
d,1d,0,1c,1b,1d,0,1d,1e,0,1c,0,0,0,1d,0
d,0,0,0,1b,0,1d,0,0,0,1d,0,1d,0,0,0
d,0,1d,0,1b,0,0,1d,0,1d,0,1c,0,0,1d,0
d,0,0,1c,1b,0,1c,0,0,0,1c,1d,0,0,0,0
d,1d,1a,15,15,15,15,15,15,15,15,15,15,17,1d,0
d,0,13,16,16,16,16,16,16,16,16,16,16,z,0,0
d,1c,13,16,16,16,16,16,16,16,16,16,16,z,0,1c
d,0,13,16,16,16,16,16,16,16,16,16,16,z,1c,0
d,1d,13,16,16,16,16,16,16,16,16,16,16,z,0,1d
d,0,13,16,16,16,16,16,16,16,16,16,16,z,1c,0
d,1c,19,11,11,11,11,11,11,11,11,11,11,18,0,1c
d,0,1d,0,1c,0,0,0,1d,0,0,0,1c,0,1d,0
d,1c,0,1c,0,1d,0,1c,0,1c,0,1d,0,1c,0,0
EXT 4,6 19 4,7
END goodend2 4,0
PAL 0

ROOM 1c
d,d,d,d,d,d,d,d,d,d,d,d,d,d,d,d
d,d,d,d,d,d,d,d,d,d,d,d,d,d,d,d
d,d,d,d,d,d,d,d,d,d,d,d,d,d,d,d
d,d,d,d,d,d,d,d,d,d,d,d,d,d,d,d
d,d,d,d,f,f,f,f,f,f,f,d,d,d,d,d
d,d,d,d,f,g,g,b,g,g,f,d,d,d,d,d
d,d,d,d,f,g,b,b,b,g,f,d,d,d,d,d
d,d,d,d,f,b,b,b,b,b,f,d,d,d,d,d
d,d,d,d,f,g,b,b,b,g,f,d,d,d,d,d
d,d,d,d,f,g,g,b,g,g,f,d,d,d,d,d
d,d,d,d,f,f,f,f,f,f,f,d,d,d,d,d
d,d,d,d,d,d,d,d,d,d,d,d,d,d,d,d
d,d,d,d,d,d,d,d,d,d,d,d,d,d,d,d
d,d,d,d,d,d,d,d,d,d,d,d,d,d,d,d
d,d,d,d,d,d,d,d,d,d,d,d,d,d,d,d
d,d,d,d,d,d,d,d,d,d,d,d,d,d,d,d
EXT 8,7 1d 7,7
EXT 7,6 1d 7,7
EXT 6,7 1d 7,7
EXT 7,8 1d 7,7
PAL 0

ROOM 1d
d,d,d,d,d,d,d,d,d,d,d,d,d,d,d,d
d,d,d,d,d,d,d,d,d,d,d,d,d,d,d,d
d,d,d,d,d,d,d,d,d,d,d,d,d,d,d,d
d,d,d,d,d,d,d,d,d,d,d,d,d,d,d,d
d,d,d,d,d,d,d,d,d,d,d,d,d,d,d,d
d,d,d,d,d,f,f,f,f,f,d,d,d,d,d,d
d,d,d,d,d,f,g,b,g,f,d,d,d,d,d,d
d,d,d,d,d,f,b,b,b,f,d,d,d,d,d,d
d,d,d,d,d,f,g,b,g,f,d,d,d,d,d,d
d,d,d,d,d,f,f,f,f,f,d,d,d,d,d,d
d,d,d,d,d,d,d,d,d,d,d,d,d,d,d,d
d,d,d,d,d,d,d,d,d,d,d,d,d,d,d,d
d,d,d,d,d,d,d,d,d,d,d,d,d,d,d,d
d,d,d,d,d,d,d,d,d,d,d,d,d,d,d,d
d,d,d,d,d,d,d,d,d,d,d,d,d,d,d,d
d,d,d,d,d,d,d,d,d,d,d,d,d,d,d,d
EXT 8,7 1e 7,7
EXT 7,6 1e 7,7
EXT 6,7 1e 7,7
EXT 7,8 1e 7,7
PAL 0

ROOM 1e
d,d,d,d,d,d,d,d,d,d,d,d,d,d,d,d
d,d,d,d,d,d,d,d,d,d,d,d,d,d,d,d
d,d,d,d,d,d,d,d,d,d,d,d,d,d,d,d
d,d,d,d,d,d,d,d,d,d,d,d,d,d,d,d
d,d,d,d,d,d,d,d,d,d,d,d,d,d,d,d
d,d,d,d,d,d,d,d,d,d,d,d,d,d,d,d
d,d,d,d,d,d,1h,1h,1h,d,d,d,d,d,d,d
d,d,d,d,d,d,1h,1h,1h,d,d,d,d,d,d,d
d,d,d,d,d,d,1h,1h,1h,d,d,d,d,d,d,d
d,d,d,d,d,d,d,d,d,d,d,d,d,d,d,d
d,d,d,d,d,d,d,d,d,d,d,d,d,d,d,d
d,d,d,d,d,d,d,d,d,d,d,d,d,d,d,d
d,d,d,d,d,d,d,d,d,d,d,d,d,d,d,d
d,d,d,d,d,d,d,d,d,d,d,d,d,d,d,d
d,d,d,d,d,d,d,d,d,d,d,d,d,d,d,d
d,d,d,d,d,d,d,d,d,d,d,d,d,d,d,d
EXT 8,7 1f 7,7
EXT 7,6 1f 7,7
EXT 6,7 1f 7,7
EXT 7,8 1f 7,7
PAL 0

ROOM 1f
d,d,d,d,d,d,d,d,d,d,d,d,d,d,d,d
d,d,d,d,d,d,d,d,d,d,d,d,d,d,d,d
d,d,d,d,d,d,d,d,d,d,d,d,d,d,d,d
d,d,d,d,d,d,d,d,d,d,d,d,d,d,d,d
d,d,d,d,d,d,d,d,d,d,d,d,d,d,d,d
d,d,d,d,d,d,d,d,d,d,d,d,d,d,d,d
d,d,d,d,d,d,1g,1g,1g,d,d,d,d,d,d,d
d,d,d,d,d,d,1g,1h,1g,d,d,d,d,d,d,d
d,d,d,d,d,d,1g,1g,1g,d,d,d,d,d,d,d
d,d,d,d,d,d,d,d,d,d,d,d,d,d,d,d
d,d,d,d,d,d,d,d,d,d,d,d,d,d,d,d
d,d,d,d,d,d,d,d,d,d,d,d,d,d,d,d
d,d,d,d,d,d,d,d,d,d,d,d,d,d,d,d
d,d,d,d,d,d,d,d,d,d,d,d,d,d,d,d
d,d,d,d,d,d,d,d,d,d,d,d,d,d,d,d
d,d,d,d,d,d,d,d,d,d,d,d,d,d,d,d
END goodend3 7,6
END goodend3 6,7
END goodend3 7,8
END goodend3 8,7
PAL 0

ROOM 1g
0,0,0,0,0,0,0,0,0,0,0,0,0,0,0,0
0,0,0,0,0,0,0,0,0,0,0,0,0,0,0,0
0,0,0,0,0,0,0,0,0,0,0,0,0,0,0,0
0,0,0,0,1u,1v,1w,1x,1y,1z,20,21,0,0,0,0
0,0,0,0,22,23,24,25,26,27,28,29,0,0,0,0
0,0,0,0,0,2a,2b,2c,2d,2e,2f,0,0,0,0,0
0,0,0,0,0,0,2g,2h,0,0,0,0,0,0,0,0
0,0,0,0,0,0,0,0,0,0,0,0,0,0,0,0
0,0,0,0,0,0,0,0,0,0,0,0,0,0,0,0
0,0,0,0,0,0,0,0,0,0,0,0,0,0,0,0
0,0,0,0,0,0,0,0,0,0,0,0,0,0,0,0
0,0,0,0,0,0,0,0,0,0,0,0,0,0,0,0
0,0,1i,1j,1k,1l,1m,1n,1o,1p,1q,1r,1s,1t,0,0
0,0,0,0,0,0,0,0,0,0,0,0,0,0,0,0
0,0,0,0,0,0,0,0,0,0,0,0,0,0,0,0
0,0,0,0,0,0,0,0,0,0,0,0,0,0,0,0
EXT 7,8 0 8,9
EXT 6,9 0 8,9
EXT 7,10 0 8,9
EXT 8,9 0 8,9
PAL 1

TIL 11
10001000
01010101
00100010
01010101
10001000
01010101
00100010
11111111

TIL 13
10001000
11010101
10100010
11010101
10001000
11010101
10100010
11010101

TIL 15
11111111
01010101
00100010
01010101
10001000
01010101
00100010
01010101

TIL 16
10001000
01010101
00100010
01010101
10001000
01010101
00100010
01010101

TIL 17
11111111
01010101
00100011
01010101
10001001
01010101
00100011
01010101

TIL 18
10001001
01010101
00100011
01010101
10001001
01010101
00100011
11111111

TIL 19
10001000
11010101
10100010
11010101
10001000
11010101
10100010
11111111

TIL 20
01101111
01101111
01101100
01101100
10001111
10001111
10001100
10001100

TIL 21
11000000
11000000
00000000
00000000
11000000
11000000
00000000
00000000

TIL 22
11000011
11000011
00000000
00000000
00000000
00000000
00000000
00000000

TIL 23
01111110
01111110
00000000
01111011
01001010
01001010
01001011
01001000

TIL 24
00001111
00001111
00000000
11000000
01000000
01000111
11000100
00011100

TIL 25
00011111
00011111
00000000
00000011
00000010
11111010
00001010
00001010

TIL 26
10001111
10001111
00000000
11000000
01000000
01111100
00000100
00000111

TIL 27
11000110
11000110
00000000
00011110
00010010
01110011
01000000
01000000

TIL 28
00001111
00001111
00000000
00000000
00000000
10000000
10000000
10000000

TIL 29
11000000
11000000
00000000
00000000
00000000
00000000
00000000
00000000

TIL a
00000000
00000000
00000000
00000000
00000000
00000000
00000000
00000000
NAME Wall
WAL true

TIL b
00000000
00000000
00000000
00000100
00000000
01000000
00000000
00000000
NAME Footprints

TIL c
00011100
00011010
00010101
00011010
00011100
00010000
00010000
01111110
>
00011000
00010100
00011010
00010101
00011010
00010100
00010000
01111110
NAME FLAG
WAL true

TIL d
11111111
11111111
11111111
11111111
11111111
11111111
11111111
11111111
NAME Block
WAL true

TIL e
11111111
10101011
11110101
10101011
10110101
11101011
10110101
11111111
NAME Stair

TIL f
10101010
01010101
10101010
01010101
10101010
01010101
10101010
01010101
NAME Shadows-A
WAL true

TIL g
00000000
00100010
00000000
10001000
00000000
00100010
00000000
10001000
NAME Shadows-B
WAL true

TIL h
00000000
11111111
00000000
00000000
00000000
00000000
00000000
00000000
NAME Mesa-A

TIL i
10000000
00000000
00000000
00000000
00000000
00000000
00000000
00000000
NAME Mesa-B

TIL j
01000000
01000000
01000000
01000000
01000000
01000000
01000000
01000000
NAME Mesa-C

TIL k
00000000
00000000
00000000
00000000
00000000
00000000
00000000
10000000
NAME Mesa-D

TIL l
00000000
00000000
00000000
00000000
00000000
00000000
11111111
00000000
NAME Mesa-E

TIL m
00000000
00000000
00000000
00000000
00000000
00000000
00000000
00000001
NAME Mesa-F

TIL n
00000010
00000010
00000010
00000010
00000010
00000010
00000010
00000010
NAME Mesa-G

TIL o
00000001
00000000
00000000
00000000
00000000
00000000
00000000
00000000
NAME Mesa-H

TIL p
00000000
00000100
00001010
00000000
00100000
01010000
00000010
00000101
NAME Dirt-Stuff

TIL q
01111110
10000001
10111101
11000011
10111101
11111111
10000001
01111110
NAME Empty-Dish

TIL r
01101110
10010010
10100101
11011011
10111101
11111111
10000001
01111110
NAME Full-Dish
WAL true

TIL s
11010110
00000000
01110101
00000000
01011111
00000000
11101011
00000000

TIL t
11111111
11111111
11111111
11010101
10101011
11111111
10000101
00000000

TIL u
01111111
00110111
00101111
00110111
00101111
01110111
00101111
01111111

TIL v
11111110
11110100
11101100
11110100
11101100
11110110
11101100
11111110

TIL w
10010100
10000010
10011000
10100100
10100100
10011000
10000000
11111111

TIL x
10000100
10010000
10001010
10010001
10001100
10100000
10100100
10001010

TIL z
10001001
01010101
00100011
01010101
10001001
01010101
00100011
01010101

TIL 1a
11111111
11010101
10100010
11010101
10001000
11010101
10100010
11010101

TIL 1b
00000000
00100010
00000000
10001000
00000000
00100010
00000000
10001000
WAL true

TIL 1c
00000000
00000000
00000000
00100000
01000000
01000000
00000000
00000000
>
00000000
00000000
00000000
01000000
01000000
01000000
00000000
00000000

TIL 1d
00000000
00000000
00000100
00100100
01000100
01000000
00000000
00000000
>
00000000
00000000
00000010
01000100
01000100
01000000
00000000
00000000

TIL 1e
00000000
00000000
00000000
00100000
01000000
01000000
00011100
00000000
>
00000000
00000000
00000000
01000000
01000000
01000100
00011000
00000000

TIL 1f
11111111
10001011
10100001
10101011
10001001
10100011
10001001
11111111

TIL 1g
11111111
11111111
11111111
11111111
11111111
11111111
11111111
11111111
WAL false

TIL 1h
10101010
01010101
10101010
01010101
10101010
01010101
10101010
01010101
WAL true

TIL 1i
00000000
00000000
00000000
00000000
00001111
00000000
00000000
00000000
>
00000000
00000000
00000000
00000000
00000000
00000000
00000000
00000000

TIL 1j
00000000
00000000
11110000
01001010
01001011
01110010
01000010
11000110
>
00000000
00000000
00000000
00000000
00000000
00000000
00000000
00000000

TIL 1k
00000000
00000000
00000000
10011000
00100101
00111000
00100000
00011101
>
00000000
00000000
00000000
00000000
00000000
00000000
00000000
00000000

TIL 1l
00000000
00000000
00000000
11100111
00001000
11000110
00100001
11001110
>
00000000
00000000
00000000
00000000
00000000
00000000
00000000
00000000

TIL 1m
00000000
00000000
00010001
00010001
00010101
00010101
00010101
00001010
>
00000000
00000000
00000000
00000000
00000000
00000000
00000000
00000000

TIL 1n
00000000
00000000
00010000
00101001
00101000
01000100
01111101
01000100
>
00000000
00000000
00000000
00000000
00000000
00000000
00000000
00000000

TIL 1o
00000000
00000000
11110111
00000010
11100010
00010010
00010010
11100111
>
00000000
00000000
00000000
00000000
00000000
00000000
00000000
00000000

TIL 1p
00000000
00000000
10000000
01000010
01000111
01000010
01000010
10000001
>
00000000
00000000
00000000
00000000
00000000
00000000
00000000
00000000

TIL 1q
00000000
00000000
00000000
00000000
00110000
01001000
01001000
00110000
>
00000000
00000000
00000000
00000000
00000000
00000000
00000000
00000000

TIL 1r
00000000
00000000
00000000
11100100
10010100
11100100
10000100
10000010
>
00000000
00000000
00000000
00000000
00000000
00000000
00000000
00000000

TIL 1s
00000000
00000000
00000000
01100101
00010101
01110101
10010010
01110010
>
00000000
00000000
00000000
00000000
00000000
00000000
00000000
00000000

TIL 1t
00000000
00000000
00000000
00000000
00000000
01111000
00000000
00000000
>
00000000
00000000
00000000
00000000
00000000
00000000
00000000
00000000

TIL 1u
00111100
00111100
11000011
11000011
11000011
11000011
11111111
11111111

TIL 1v
01111110
01111110
01100001
01100001
01111110
01111110
01100001
01100001

TIL 1w
00110000
00110000
10110000
10110000
00110000
00110000
10110000
10110000

TIL 1x
11000111
11000111
11011000
11011000
11000111
11000111
11000000
11000000

TIL 1y
11101111
11101111
00000011
00000011
10000011
10000011
01100011
01100011

TIL 1z
11011000
11011000
00011000
00011000
00011001
00011001
00011001
00011001

TIL 2a
01001011
01001010
01001010
01001010
01001010
01001010
01111011
00000000

TIL 2b
11010011
01010010
01010010
01010011
01011100
01000100
11000111
00000111

TIL 2c
11001010
01001010
01001010
11001010
00001010
00001010
11001011
11001000

TIL 2d
01111001
01001001
01001001
01001001
01001001
01001001
11001111
00000000

TIL 2e
01110011
00010010
00010010
00010011
00011100
00000100
00000111
00000000

TIL 2f
10000000
00000000
00000000
10000000
10000000
10000000
10000000
00000000

TIL 2g
00000100
00000100
00000111
00000000
00000000
00000000
00000000
00000000

TIL 2h
00111000
00100000
11100000
00000000
00000000
00000000
00000000
00000000

SPR 10
00000000
00000000
00000010
00100000
00000000
00000100
01000000
00000000
>
00000000
00000100
00000000
00000000
00100100
00000000
00100000
00000000
NAME Flies-F
DLG SPR_f

SPR 11
11111110
10011111
01110010
11111111
11000111
10111110
00011000
00011000
NAME Cartel-1B
DLG SPR_g
POS p 8,7

SPR 12
11111110
10011111
01110010
11111111
11000111
10111110
00011000
00011000
NAME Cartel-2B
DLG SPR_h
POS q 12,13

SPR 13
11111110
10011111
01110010
11111111
11000111
10111110
00011000
00011000
NAME Cartel-3B
DLG SPR_i
POS s 13,2

SPR 14
11111110
10011111
01110010
11111111
11000111
10111110
00011000
00011000
NAME Cartel-4B
DLG SPR_j
POS v 6,8

SPR 15
11111110
10011111
01110010
11111111
11000111
10111110
00011000
00011000
NAME Cartel-5B
DLG SPR_k
POS x 10,10

SPR 16
00111111
01010000
01010000
01010000
01010000
01010000
01010000
00111111
NAME Fridge
POS 1a 12,11

SPR 17
00111111
01010000
01010000
01010000
01010000
01010000
01010000
00111111
POS 1a 12,12

SPR 18
10000001
10100101
10000001
10000001
10100101
10000001
11111111
01010101
POS 1a 11,8

SPR 19
10000001
10100101
10000001
10000001
10100101
10000001
11111111
01010101
POS 1a 10,8

SPR A
00011000
00011000
00011000
01111110
10111101
10111101
00100100
00100100
>
00000000
00011000
00011000
00011000
11111111
10111101
00111100
00100100
NAME Cartel-A
POS 1g 7,9

SPR a
11111110
10011111
01110010
11111111
11000111
10111110
00011000
00011000
NAME Cartel-A
DLG SPR_1
POS 1 12,13

SPR b
11111110
10011111
01110010
11111111
11000111
10111110
00011000
00011000
NAME Cartel-B
DLG SPR_2
POS 3 13,2

SPR c
11111110
10011111
01110010
11111111
11000111
10111110
00011000
00011000
NAME Cartel-C
DLG SPR_3
POS 6 6,8

SPR d
11111110
10011111
01110010
11111111
11000111
10111110
00011000
00011000
NAME Cartel-D
DLG SPR_4
POS 8 10,10

SPR e
00000000
00011010
01011000
00111100
01111110
10111101
10100101
00010100
>
00000000
01011000
00011010
00111100
01111110
10111101
10100101
00010100
NAME Old-Man
DLG SPR_a
POS l 7,6

SPR n
00000000
01000000
00001010
00010100
00100010
01011010
01000010
00111100
>
00000000
00000010
01001000
00010100
00100010
01011010
01000010
00111100
NAME Shit
DLG SPR_5
POS g 5,10

SPR o
00000000
00001000
00010100
00101010
01011010
01011010
10100101
01111110
>
00000000
00010000
00101000
01010100
01011010
01011010
10100101
01111110
NAME Fire
DLG SPR_6
POS g 7,7

SPR p
00000000
00000000
00000010
00100000
00000000
00000100
01000000
00000000
>
00000000
00000100
00000000
00000000
00100100
00000000
00100000
00000000
NAME Flies-A
DLG SPR_7
POS g 5,9

SPR q
00000000
00000000
00000010
00100000
00000000
00000100
01000000
00000000
>
00000000
00000100
00000000
00000000
00100100
00000000
00100000
00000000
NAME Flies-B
DLG SPR_8
POS g 8,5

SPR r
00000000
00000000
00000010
00100000
00000000
00000100
01000000
00000000
>
00000000
00000100
00000000
00000000
00100100
00000000
00100000
00000000
NAME Flies-C
DLG SPR_9
POS g 5,7

SPR t
01111110
10000001
10111101
11000011
10111101
11111111
10000001
01111110
NAME Dish
DLG SPR_l
POS l 6,7

SPR u
11111110
10011111
01110010
11111111
11000111
10111110
00011000
00011000
NAME Cartel-E
DLG SPR_0
POS 0 8,7

SPR v
00000000
00011010
01011000
00111100
01111110
10111101
10100101
00010100
>
00000000
01011000
00011010
00111100
01111110
10111101
10100101
00010100
NAME Old-Man-2
POS g 7,6

SPR w
00000000
01000000
00001010
00010100
00100010
01011010
01000010
00111100
>
00000000
00000010
01001000
00010100
00100010
01011010
01000010
00111100
NAME Shit-B
DLG SPR_b
POS l 5,10

SPR x
00000000
00001000
00010100
00101010
01011010
01011010
10100101
01111110
>
00000000
00010000
00101000
01010100
01011010
01011010
10100101
01111110
NAME Fire-B
DLG SPR_c
POS l 7,7

SPR y
00000000
00000000
00000010
00100000
00000000
00000100
01000000
00000000
>
00000000
00000100
00000000
00000000
00100100
00000000
00100000
00000000
NAME Flies-D
DLG SPR_d
POS l 8,5

SPR z
00000000
00000000
00000010
00100000
00000000
00000100
01000000
00000000
>
00000000
00000100
00000000
00000000
00100100
00000000
00100000
00000000
NAME Flies-E
DLG SPR_e
POS l 5,9

SPR 1a
01111110
10000001
10111101
11000011
10111101
11111111
10000001
01111110
NAME Dish2
DLG SPR_m

ITM 0
00000000
00000000
00000000
00000000
00000000
00000000
00000000
00000000
NAME Huella-a

ITM 1
00000000
00000000
00000000
00001110
00010010
00100100
01011010
00111100
NAME Good-Pizza
DLG ITM_1

ITM 2
00000000
00000000
00000000
00001110
00010010
00100100
01011010
00111100
NAME Bad-Pizza
DLG ITM_0

ITM 3
00000000
00000000
00000000
00000000
00000000
00000000
00000000
00000000
NAME Mensaje
DLG ITM_2

ITM 4
00000000
00000000
00000000
00001110
00010010
00100100
01011010
00111100
NAME Bad-Item
DLG ITM_3

ITM 5
00000000
00000000
00000000
00001110
00010010
00100100
01011010
00111100
NAME Good-Item
DLG ITM_4

ITM 6
00000000
00000000
00000000
00000000
00000000
00000000
00000000
00000000
NAME Trampa
DLG ITM_5

ITM 7
00000000
00000000
00000000
00000000
00000000
00000000
00000000
00000000
NAME FREE
DLG ITM_6

ITM 8
00000000
00000000
00000000
00000100
00000000
01000000
00000000
00000000
DLG ITM_7

ITM 9
11111111
10101011
11110101
10101011
10110101
11101011
10110101
11111111
DLG ITM_8

DLG SPR_0
"""
Welcome test subject Number: Â°Â°Â°Â°
You have been selected at random, to test your methods of orientation in this super Invisible Labyrinth.
Find the exit and you will be rewarded with a slice of pizza.

{rbw}{wvy}Good luck.{wvy}{rbw}
"""

DLG SPR_1
"""
{cycle
  - There are 4 possible exits.
    
    Choose the correct one and you will be {wvy}rewarded{wvy}...
  - (There's something else written below, it's almost illegible.)
  - {shk}You are not the only one here, please help me.{shk}
}
"""

DLG SPR_2
"""
Come to the party to eat
{shk}POÂ°SÂ°Â°{shk} {wvy}PIZZA{wvy}
(Part of the text is erased and almost unintelligible)
"""

DLG SPR_3
"""
The gift:

{shk}Â°Â°ISÂ°Â°{shk}
PIZZA
(Part of the text is erased and almost unintelligible)
"""

DLG SPR_4
"""
Savor the victory:

{shk}Â°Â°Â°Â°ON{shk}
PIZZA
(Part of the text is erased and almost unintelligible).
"""

DLG SPR_5
"""
{
  - {item "Bad-Pizza"} >= 1 ?
    {shk}Smells really horrible...{shk}
    Look, there's a key here
    
    YOU OBTAIN A KEY
}{sequence
  - {shk}Smells really horrible...{shk}
    
    Why I smell it in first place?
  - {shk}Smells really horrible...{shk}
    
    Why I smell again?
}
"""

DLG SPR_6
Is warm and {wvy}comfy{wvy}...

DLG ITM_0
"""
You eat the {wvy}pizza{wvy}.


{wvy}It tastes good.{wvy}

{shk}But you start to feel bad ...{shk}
"""

DLG SPR_a
"""
{sequence
  - I thought my eyes deceived me.
    
    A long time ago I do not see another human being around here. My only friends ended up being these flies.
    It is good to be able to find another person here before die.
    I just wish I could eat that {wvy}pizza{wvy}...
  - I just wish I could eat that {wvy}pizza{wvy}...
  - It would be nice to be able to taste that {wvy}pizza{wvy}...
  - ...
}{
  - {item "Good-Pizza"} >= 1 ?
    "You give a slice of pizza to the old man."
    Old Man: I did not think that one day I could eat this delight.
    Thank you very much, good man, you have made me happy the day :)
    
    
    I tell you something
    
    There is a subduct in the right corner of the labyrinth, I do not know exactly where it is, but that's where they come in and leave the test subjects, look for it and you can get out of here, I'm too weak to go, but having already tried the pizza I'm happy
    
    Thank you very much and good luck.
  - {item "Bad-Pizza"} >= 1 ?
    "You give a slice of pizza to the old man."
    Old Man: It's delicious... 
    
    But this poisoned. Do not worry, I know it's not your fault
    Thank you anyway for the intention.
    Look at the corner mound, there is a key that opens a hatch in the corridor that surrounds this entrance, and leads out of this labyrinth.
    
    Good luck {wvy}friend{wvy}...
    
    ...
    
    "He's Dead"
}
"""

DLG ITM_1
"""
You ate the {rbw}{wvy}pizza{wvy}{rbw}

The taste is {wvy}magnificent{wvy}, you have never tasted anything like it.

"{wvy}Congratulations{wvy}.
You have managed to complete the challenge and obtained the reward ..."

"""

DLG SPR_7
"""
{cycle
  - UGH, I hate this insects...
  - Old Man: Please don't kill them...
}
"""

DLG SPR_8
"""
{cycle
  - UGH, I hate this insects...
  - Old Man: Please don't kill them...
}
"""

DLG SPR_9
"""
{cycle
  - UGH, I hate this insects...
  - Old Man: Please don't kill them...
}
"""

DLG ITM_2
"""
Old Man: Are you real?

Come over so I can see you ...
"""

DLG SPR_b
"""
{sequence
  - {shk}Smells really horrible...{shk}
    
    Why I smell it in first place?
  - {shk}Smells really horrible...{shk}
    
    Why I smell again?
}
"""

DLG SPR_c
Is warm and {wvy}comfy{wvy}...

DLG SPR_d
"""
{cycle
  - UGH, I hate this insects...
  - Old Man: Please don't kill them...
}
"""

DLG SPR_e
"""
{cycle
  - UGH, I hate this insects...
  - Old Man: Please don't kill them...
}
"""

DLG SPR_f
"""
{cycle
  - UGH, I hate this insects...
  - Old Man: Please don't kill them...
}
"""

DLG SPR_g
"""
Welcome test subject Number: Â°Â°Â°Â°
You have been selected at random, to test your methods of orientation in this super Invisible Labyrinth.
Find the exit and you will be rewarded with a slice of pizza.

{rbw}{wvy}Good luck.{wvy}{rbw}
"""

DLG SPR_h
"""
{cycle
  - There are 4 possible exits.
    
    Choose the correct one and you will be {wvy}rewarded{wvy}...
  - (There's something else written below, it's almost illegible.)
  - {shk}You are not the only one here, please help me.{shk}
}
"""

DLG SPR_i
"""
Come to the party to eat
{shk}POÂ°SÂ°Â°{shk} {wvy}PIZZA{wvy}
(Part of the text is erased and almost unintelligible)
"""

DLG SPR_j
"""
The gift:

{shk}Â°Â°ISÂ°Â°{shk}
PIZZA
(Part of the text is erased and almost unintelligible)
"""

DLG SPR_k
"""
Savor the victory:

{shk}Â°Â°Â°Â°ON{shk}
PIZZA
(Part of the text is erased and almost unintelligible).
"""

DLG ITM_3
You took a slice of pizza.

DLG ITM_4
You took a slice of pizza.

DLG ITM_5
"""

You found the hatch and used the key

The hatch is open.
"""

DLG ITM_6
You Found a hatch.

DLG ITM_7
"""
The walls are collapsing around you ...
It's a trap
"""

DLG SPR_l
The plate is full of dust.

DLG SPR_m
The plate is full of dust.

DLG ITM_8
"""
The hatch closed behind you.

You can't open it.
"""

END BadEnd1
{shk}BUT YOU WILL NEVER GET OUT OF HERE.{shk}

END GoodEnd1
{shk}You died trying...{shk}

END goodend2
      {rbw}You are free.{rbw}

END goodend3
You died crushed...

VAR a
42


