POP

# BITSY VERSION 5.0

! ROOM_FORMAT 1

PAL 0
203,181,199
255,92,194
255,17,4

PAL 1
203,181,199
255,92,194
136,254,217

PAL 2
136,144,153
92,64,69
136,254,217

PAL 3
192,192,192
255,255,255
255,255,255

PAL 4
42,61,184
176,217,255
255,255,255

PAL 5
102,95,154
92,64,69
136,254,217

ROOM 0
0,0,s,r,0,0,0,0,0,0,0,s,r,0,0,0
0,j,a,a,q,0,t,a,q,0,j,a,a,q,0,0
0,k,a,b,a,p,a,d,a,0,k,a,b,a,p,0
0,k,a,a,o,0,a,e,a,0,k,a,a,o,0,0
0,l,a,n,0,0,u,a,o,0,l,a,n,0,0,0
0,0,m,0,0,0,0,0,0,0,0,m,0,0,0,0
0,0,0,0,0,0,0,0,0,0,0,0,17,17,17,17
0,0,0,0,0,0,2p,0,0,0,0,2p,17,0,13,16
0,0,0,0,0,0,0,0,2q,2r,0,0,17,0,14,15
0,0,0,0,0,0,0,0,0,0,0,0,17,17,17,17
0,0,0,0,0,0,0,0,0,0,0,0,0,0,0,0
0,0,0,0,0,0,0,0,0,0,0,0,0,0,0,0
0,0,0,0,0,0,0,0,0,0,0,0,0,0,0,0
0,0,0,0,0,0,0,0,0,0,0,0,0,0,0,0
0,0,0,0,0,0,0,0,0,0,0,0,0,0,0,0
0,0,0,0,0,0,0,0,0,0,0,0,0,0,0,0
NAME start
EXT 14,7 1 0,13
END undefined 14,8
PAL 0

ROOM 1
0,0,0,0,0,0,0,0,0,0,0,0,0,0,0,0
0,0,0,0,0,0,0,0,0,0,0,0,0,0,0,0
0,1a,1b,1a,0,1c,16,1a,16,1e,1f,1p,1p,0,0,0
0,0,0,0,0,0,0,0,0,0,0,1p,1p,1p,0,0
0,0,0,0,0,0,0,0,0,0,0,1p,1p,1p,0,0
0,0,0,0,0,1w,1v,1v,1v,1u,1p,1p,1p,1p,0,0
0,0,0,1p,1p,1r,1x,1y,0,1t,1p,1p,1p,1p,1p,0
0,0,0,1p,1p,1p,1p,1p,1p,1p,1p,0,1p,1p,1p,1p
0,0,1p,0,0,1p,1l,a,0,1p,1p,0,0,0,0,1p
1p,1p,1p,1p,0,1p,1k,a,1j,1p,1p,1p,1p,1p,1p,1p
1p,1p,1p,1p,0,1p,1g,1h,1i,1p,1p,1p,1p,1p,1p,1p
0,1p,1p,1p,0,1p,1q,1o,1q,1p,1p,1p,1p,1p,1p,1p
1p,1p,1p,1p,1p,1p,1p,1n,1p,1p,1p,1p,1p,1p,1p,1p
0,0,0,0,0,0,0,1m,0,0,0,0,0,0,0,0
18,18,18,18,18,18,18,18,18,18,18,18,18,18,18,18
19,19,19,19,19,19,19,19,19,19,19,19,19,19,19,19
NAME lvlsele1
EXT 7,12 2 5,10
PAL 1

ROOM 2
a,a,a,a,a,a,a,a,a,a,a,a,a,a,a,a
a,a,a,a,a,a,a,a,a,a,a,a,a,a,a,a
a,a,a,a,a,a,a,a,a,a,a,a,a,a,a,24
a,a,a,a,a,a,a,a,a,a,a,a,2a,2b,0,0
a,a,a,a,a,a,a,a,a,a,a,29,0,0,0,0
a,a,a,a,a,a,a,a,a,a,a,28,0,0,0,0
a,a,a,a,24,24,24,24,24,24,27,0,0,0,0,0
a,a,a,23,0,0,0,0,0,0,0,0,a,a,a,22
a,a,a,23,0,0,0,0,0,0,0,0,a,a,a,a
a,a,a,23,0,0,0,0,0,0,0,0,a,26,a,a
a,a,a,23,0,0,0,0,0,0,0,0,a,26,a,a
a,a,a,23,0,0,0,0,0,0,0,0,a,26,a,a
a,a,a,23,0,0,0,0,0,0,0,0,a,a,a,a
a,a,a,a,a,22,22,22,22,22,22,22,a,a,a,a
a,a,a,a,a,a,a,a,a,a,a,a,a,a,a,a
a,a,a,a,a,a,a,a,a,a,a,a,a,a,a,a
NAME lvl1
ITM 1 12,6
EXT 15,3 3 0,3
EXT 15,4 3 0,4
EXT 15,5 3 0,5
EXT 15,6 3 0,6
PAL 2

ROOM 3
a,a,a,a,a,a,a,a,a,a,a,a,a,a,a,a
a,a,a,a,a,a,a,a,a,a,a,a,a,a,a,a
a,a,a,a,a,a,a,a,a,a,a,a,a,a,a,24
0,0,0,0,0,0,0,0,0,0,0,0,0,0,2c,2c
0,0,0,0,0,0,0,0,0,0,0,0,0,0,2c,2c
0,0,0,0,0,0,0,0,0,0,0,0,0,0,2c,2c
0,0,0,0,0,0,0,0,0,0,0,0,0,0,2c,2c
a,a,a,0,0,0,0,0,0,0,0,0,0,0,a,a
a,a,a,23,0,0,0,0,0,0,0,0,0,a,a,a
a,a,a,23,0,0,0,0,0,0,0,0,0,26,a,a
a,a,a,23,0,0,0,0,0,0,0,0,0,26,a,a
a,a,a,23,0,0,0,0,0,0,0,0,0,26,a,a
a,a,a,23,a,0,0,0,0,0,0,0,25,a,a,a
a,a,a,a,a,22,2c,2c,2c,2c,2c,22,a,a,a,a
a,a,a,a,a,a,2c,0,2c,2c,0,a,a,a,a,a
a,a,a,a,a,a,0,2c,0,2c,2c,a,a,a,a,a
EXT 0,4 4 15,4
EXT 0,6 4 15,6
EXT 0,3 0 0,0
EXT 13,4 9 13,4
EXT 13,5 9 13,5
PAL 2

ROOM 5
a,a,a,a,a,a,a,a,a,2e,a,a,a,a,a,a
a,a,a,a,a,a,a,a,a,2e,a,a,a,a,a,a
a,a,a,a,a,a,a,a,a,2e,a,a,a,a,a,24
2c,2c,0,0,0,0,0,0,0,2g,0,0,0,0,2c,2c
2c,2c,0,0,0,0,0,0,0,0,0,0,0,0,2c,2c
2c,2c,0,0,0,0,0,0,0,0,0,0,0,0,2c,2c
2c,2c,0,0,0,0,0,0,0,0,0,0,0,0,2c,2c
a,a,a,0,0,0,0,0,0,0,0,0,0,0,a,a
a,a,a,23,0,0,0,0,0,0,0,0,0,a,a,a
a,a,a,23,0,0,0,0,0,0,0,0,0,26,a,a
a,a,a,23,0,0,0,0,0,0,0,0,0,26,a,a
a,a,a,23,0,0,0,0,0,0,0,0,0,26,a,a
a,a,a,23,a,0,0,0,0,0,0,0,25,a,a,a
a,a,a,a,a,22,0,0,0,0,0,22,a,a,a,a
a,a,a,a,a,a,0,0,0,0,0,a,a,a,a,a
a,a,a,a,a,a,0,0,0,0,0,a,a,a,a,a
EXT 0,4 4 15,4
EXT 0,6 4 15,6
EXT 9,0 6 9,15
PAL 2

ROOM 6
0,0,0,0,0,0,0,0,2d,2e,2d,0,0,0,0,0
0,0,0,0,0,0,0,0,2d,2e,2d,0,0,0,0,0
0,0,0,0,0,0,0,0,2d,2e,2d,0,0,0,0,0
0,0,0,0,0,0,0,0,2d,2e,2d,0,0,0,0,0
0,0,0,0,0,0,0,0,2d,2e,2d,0,0,0,0,0
0,0,0,0,0,0,0,0,2d,2e,2d,0,0,0,0,0
0,0,0,0,0,0,0,0,2d,2e,2d,0,0,0,0,0
0,0,0,0,0,0,0,0,2d,2e,2d,0,0,0,0,0
0,0,0,0,0,0,0,0,2d,2e,2d,0,0,0,0,0
0,0,0,0,0,0,0,0,2d,2e,2d,0,0,0,0,0
0,0,0,0,0,0,0,0,2d,2e,2d,0,0,0,0,0
0,0,0,0,0,0,0,2d,2d,2e,2d,0,0,0,0,0
0,0,0,0,0,0,0,2d,2d,2e,2d,0,0,0,0,0
0,0,0,0,0,0,0,2d,2d,2e,2d,0,0,0,0,0
0,0,0,0,0,0,0,2d,2d,2e,2d,0,0,0,0,0
0,0,0,0,0,0,0,2d,2d,2e,2d,0,0,0,0,0
EXT 9,0 7 9,15
PAL 0

ROOM 7
0,0,0,0,2h,0,0,0,0,0,0,0,0,0,2l,0
0,0,0,0,2h,0,0,0,0,0,0,0,0,0,2l,0
0,0,0,0,2h,0,0,0,0,0,0,0,0,0,2l,0
0,0,0,0,2h,0,0,0,0,0,0,0,0,0,2l,0
0,0,0,0,2h,0,0,0,0,0,0,0,0,0,2l,0
0,0,0,0,2h,0,0,0,0,0,0,0,0,0,2l,0
0,0,0,0,2h,0,0,0,0,0,0,0,0,0,2l,0
0,0,0,0,2h,0,0,0,0,0,0,0,0,0,2l,0
0,0,0,0,2h,0,0,0,0,0,0,0,0,0,2l,0
0,0,0,0,2h,0,0,0,0,0,0,0,0,0,2l,0
0,0,0,0,2h,0,0,0,0,0,0,0,0,0,2l,0
0,0,0,0,2h,0,0,0,0,0,0,0,0,0,2l,0
0,0,0,0,2h,0,0,0,0,0,0,0,0,0,2l,0
0,0,0,0,2j,2i,2i,2i,2i,0,2i,2i,2i,2k,0,0
0,0,0,0,0,0,0,0,0,2f,0,0,0,0,0,0
0,0,0,0,0,0,0,0,2d,2e,2d,0,0,0,0,0
EXT 5,0 8 5,15
EXT 6,0 8 6,15
EXT 7,0 8 7,15
EXT 8,0 8 8,15
EXT 9,0 8 9,15
EXT 10,0 8 10,15
EXT 11,0 8 11,15
EXT 12,0 8 12,15
EXT 13,0 8 13,15
PAL 3

ROOM 8
0,0,0,0,2h,2c,2c,2c,2c,2c,2c,2c,2c,0,2l,0
0,0,0,0,2h,2c,2c,2c,2c,2c,2c,2c,2c,0,2l,0
0,0,0,0,2h,2c,2c,2c,2c,2c,2c,2c,2c,0,2l,0
0,0,0,0,2h,0,0,0,0,0,0,0,0,0,2l,0
0,0,0,0,2h,0,0,0,0,0,0,0,0,0,2l,0
0,0,0,0,2h,0,0,0,0,0,0,0,0,0,2l,0
0,0,0,0,2h,0,0,0,0,0,0,0,0,0,2l,0
0,0,0,0,2h,0,0,0,0,0,0,0,0,0,2l,0
0,0,0,0,2h,0,0,0,0,0,0,0,0,0,2l,0
0,0,0,0,2h,0,0,0,0,0,0,0,0,0,2l,0
0,0,0,0,2h,0,0,0,0,0,0,0,0,0,2l,0
0,0,0,0,2h,0,0,0,0,0,0,0,0,0,2l,0
0,0,0,0,2h,0,0,0,0,0,0,0,0,0,2l,0
0,0,0,0,2h,0,0,0,0,0,0,0,0,0,2l,0
0,0,0,0,2h,0,0,0,0,0,0,0,0,0,2l,0
0,0,0,0,2h,0,0,0,0,0,0,0,0,0,2l,0
PAL 3

ROOM 9
a,a,a,a,a,a,a,a,a,a,a,a,a,a,a,a
a,a,a,a,a,a,a,a,a,a,a,a,a,a,a,a
a,a,a,a,a,a,a,a,a,a,a,a,a,a,a,24
0,0,0,0,0,0,0,0,0,0,0,0,0,0,2c,2c
0,0,0,0,0,0,0,0,0,0,0,0,0,0,2s,2s
0,0,0,0,0,0,0,0,0,0,0,0,0,0,2s,2s
0,0,0,0,0,0,0,0,0,0,0,0,0,0,2c,2c
a,a,a,0,0,0,0,0,0,0,0,0,0,0,a,a
a,a,a,23,0,0,0,0,0,0,0,0,0,a,a,a
a,a,a,23,0,0,0,0,0,0,0,0,0,26,a,a
a,a,a,23,0,0,0,0,0,0,0,0,0,26,a,a
a,a,a,23,0,0,0,0,0,0,0,0,0,26,a,a
a,a,a,23,a,0,0,0,0,0,0,0,25,a,a,a
a,a,a,a,a,22,2c,2c,2c,2c,2c,22,a,a,a,a
a,a,a,a,a,a,2c,0,2c,2c,0,a,a,a,a,a
a,a,a,a,a,a,0,2c,0,2c,2c,a,a,a,a,a
EXT 0,4 4 15,4
EXT 0,6 4 15,6
EXT 0,3 0 0,0
EXT 15,4 a 0,4
EXT 15,5 a 0,5
PAL 2

ROOM a
a,a,a,a,a,a,a,a,a,a,a,a,a,a,a,a
a,a,a,a,a,a,a,a,a,a,a,a,a,a,a,a
a,a,a,a,a,a,a,a,a,a,a,a,a,a,a,a
2c,0,0,0,0,0,0,0,0,0,a,a,a,a,a,a
2s,0,0,0,0,0,0,0,0,0,0,0,a,a,a,a
2s,0,0,0,0,0,0,0,0,0,0,0,0,0,a,a
2c,0,0,0,0,0,0,0,0,0,0,0,0,0,0,0
a,a,a,a,a,a,a,a,a,a,a,a,a,a,a,a
a,a,a,a,a,a,a,a,a,a,a,a,a,a,a,a
a,a,a,a,a,a,a,a,a,a,a,a,a,a,a,a
a,a,a,a,a,a,a,a,a,a,a,a,a,a,a,a
a,a,a,a,a,a,2t,2u,a,a,a,a,a,a,a,a
a,a,a,a,a,a,a,2v,a,a,a,a,a,a,a,a
a,a,a,a,a,a,a,2w,a,a,a,a,a,a,a,a
a,a,a,a,a,a,a,a,a,a,a,a,a,a,a,a
a,a,a,a,a,a,a,a,a,a,a,a,a,a,a,a
EXT 15,6 b 0,6
PAL 2

ROOM b
a,a,a,a,a,a,a,a,a,a,a,a,a,a,a,a
0,a,a,a,a,a,a,a,a,a,a,a,a,a,a,0
0,0,a,a,a,a,a,a,a,a,a,a,a,a,0,0
0,0,0,0,0,0,0,0,0,0,0,0,0,0,0,0
0,0,0,0,0,0,0,0,0,0,0,0,0,0,0,0
2d,2d,2d,2d,2d,2d,2d,2d,2d,0,0,0,0,0,0,0
0,0,0,0,0,0,2x,2y,2d,0,0,0,0,0,0,0
a,a,a,a,a,a,a,2e,2d,0,0,0,0,0,0,0
a,a,a,a,a,a,a,2e,2d,0,0,0,0,0,0,0
a,a,a,a,a,a,a,2e,2d,0,0,0,0,0,0,0
a,a,a,a,a,a,a,2e,2d,0,0,0,0,0,0,0
a,a,a,a,a,a,a,2e,2d,0,0,0,0,0,0,0
a,a,a,a,a,a,a,2e,2d,0,0,0,0,0,0,0
a,a,a,a,a,a,a,2e,2d,0,0,0,0,0,0,0
a,a,a,a,a,a,a,2e,2d,0,0,0,0,0,0,0
a,a,a,a,a,a,a,2e,2d,0,0,0,0,0,0,0
EXT 7,15 c 7,0
PAL 2

ROOM c
0,0,0,0,0,0,2d,2e,2d,0,0,0,0,0,0,0
0,0,0,0,0,0,2d,2e,2d,0,0,0,0,0,0,0
0,0,0,0,0,0,2d,2e,2d,0,0,0,0,0,0,0
0,0,0,0,0,0,2d,2e,2d,0,0,0,0,0,0,0
0,0,0,0,0,0,2d,2e,2d,0,0,0,0,0,0,0
0,0,0,0,0,0,2d,2e,2d,0,0,0,0,0,0,0
0,0,0,0,0,0,2d,2e,2d,0,0,0,0,0,0,0
0,0,0,0,0,0,2d,2e,2d,0,0,0,0,0,0,0
0,0,0,0,0,0,2d,2e,2d,0,0,0,0,0,0,0
0,0,0,0,0,0,2d,2e,2d,0,0,0,0,0,0,0
0,0,0,0,0,0,2d,2e,2d,0,0,0,0,0,0,0
0,0,0,0,0,0,2d,2e,2d,0,0,0,0,0,0,0
0,0,0,0,0,0,2d,2e,2d,0,0,0,0,0,0,0
0,0,0,0,0,0,2d,2e,2d,0,0,0,0,0,0,0
0,0,0,0,0,0,2d,2e,2d,0,0,0,0,0,0,0
0,0,0,0,0,0,2d,2e,2d,0,0,0,0,0,0,0
EXT 7,15 d 7,0
PAL 2

ROOM d
a,a,a,a,a,a,a,2e,2d,0,0,0,0,0,0,0
a,a,a,a,a,a,a,2e,2d,0,0,0,0,0,0,0
a,a,a,a,a,a,a,2e,2d,0,0,0,0,0,0,0
a,a,a,a,a,a,a,2e,2d,0,0,0,0,0,0,0
a,a,a,a,a,a,a,2e,2d,0,0,0,0,0,0,0
a,a,a,a,a,a,a,2e,2d,0,0,0,0,0,0,0
a,a,a,a,a,a,a,2e,2d,0,0,0,0,0,0,0
a,a,a,a,a,a,a,2e,2d,0,0,0,0,0,0,0
a,a,a,a,a,a,a,2e,2d,0,0,0,0,0,0,0
a,a,a,a,a,a,a,2e,2d,0,0,0,0,0,0,0
a,a,a,a,a,a,a,2e,2d,0,0,0,0,0,0,0
a,a,a,a,a,a,a,2e,2d,0,0,0,0,0,0,0
a,a,a,a,a,a,a,2e,2d,2d,2d,2d,2d,2d,2d,2d
a,a,a,a,a,a,a,2z,30,0,0,0,0,0,0,0
a,a,a,a,a,a,a,31,31,31,31,31,31,31,31,31
a,a,a,a,a,a,a,32,32,32,32,32,32,32,32,32
EXT 15,13 e 0,13
PAL 2

ROOM e
a,a,a,a,a,a,a,a,a,a,a,a,a,a,a,a
a,a,a,a,a,a,a,a,a,a,a,a,a,a,a,a
a,a,a,a,a,a,a,a,a,a,a,a,a,a,a,a
a,a,a,a,a,a,a,a,a,a,a,a,a,a,a,a
a,a,a,a,a,a,a,a,a,a,a,a,a,a,a,a
a,a,a,a,a,a,a,a,a,a,a,a,a,a,a,a
a,a,a,a,a,a,a,a,a,a,a,a,a,a,a,a
a,a,a,a,a,a,a,a,a,a,a,a,a,a,a,a
a,a,a,a,a,a,a,a,a,a,a,a,a,a,a,a
a,a,a,a,0,0,0,0,0,0,0,0,0,0,0,0
a,a,a,0,0,0,0,0,0,0,0,0,0,0,0,0
a,a,0,0,0,0,0,0,0,0,0,0,0,0,0,0
a,0,0,0,0,0,0,0,0,0,0,0,0,0,0,0
0,0,0,0,0,0,0,0,0,0,0,0,0,0,0,0
a,a,a,a,a,a,a,a,a,a,a,a,a,a,a,a
a,a,a,a,a,a,a,a,a,a,a,a,a,a,a,a
EXT 15,9 f 0,9
EXT 15,10 f 0,10
EXT 15,11 f 0,11
EXT 15,12 f 0,12
EXT 15,13 f 0,13
PAL 2

ROOM f
a,a,a,a,a,a,a,a,a,a,a,a,a,a,a,a
a,a,a,a,a,a,a,a,a,a,a,a,a,a,a,a
a,a,a,a,a,a,a,a,a,a,a,a,a,a,a,a
a,a,a,a,a,a,a,a,a,a,a,a,a,a,a,a
a,a,a,a,a,a,a,a,a,a,a,a,a,a,a,a
a,a,a,a,a,a,a,a,a,a,a,a,a,a,a,a
a,a,a,a,a,a,a,a,a,a,a,a,a,a,a,a
a,a,a,a,a,a,a,a,a,a,a,a,a,a,a,a
a,a,a,a,a,a,a,a,a,a,a,a,a,a,a,a
0,0,0,0,0,0,0,0,0,0,0,0,3k,0,0,0
0,0,0,0,0,0,0,0,0,0,0,3i,3h,3g,0,0
0,0,0,0,0,0,0,0,0,0,0,3j,3e,3f,0,0
0,0,0,0,0,0,0,0,0,0,0,0,3k,0,0,0
0,0,0,0,0,0,0,0,0,0,0,0,0,0,0,0
a,a,a,a,a,a,a,a,a,a,a,a,a,a,a,a
a,a,a,a,a,a,a,a,a,a,a,a,a,a,a,a
END undefined 12,11
END undefined 12,10
PAL 5

TIL 10
00000001
00000011
00000011
00000011
00000011
00000011
00000011
00000011

TIL 11
00000011
00000011
00000011
00000011
00000011
00000011
00000011
00000001

TIL 12
00000000
00000000
00000000
00000000
00000000
00000000
00000000
00000000

TIL 13
11000011
11100111
01111110
00111100
00011000
00011000
00011000
00011000

TIL 14
11000011
11100011
11110011
11111011
11011111
11001111
11000111
11000011

TIL 15
01111110
01100110
01100110
01100110
01100110
01100110
01100110
01111110

TIL 16
01111110
01111110
01100000
01111110
01111110
01100000
01111110
01111110

TIL 17
00000000
00000000
00000000
00000000
00000000
00000000
00000000
00000000
WAL true

TIL 18
11111111
01010101
11111111
01010101
11111111
11111111
11111111
11111111
>
11111111
10101010
11111111
10101010
11111111
11111111
11111111
11111111
WAL true

TIL 19
11111111
11111111
11111111
11111111
11111111
11111111
11111111
11111111
WAL true

TIL 20
10101010
01010101
10101010
01010101
10101010
01010101
10101010
01010101

TIL 21
10101010
11010101
10101010
11010101
11101010
10111101
11101010
11111111

TIL 22
11111111
11111111
11111111
11111111
11111111
11111111
11111111
11111111
WAL true

TIL 23
11111111
11111111
11111111
11111111
11111111
11111111
11111111
11111111
WAL true

TIL 24
11111111
11111111
11111111
11111111
11111111
11111111
11111111
11111111
WAL true

TIL 25
01111111
11111111
11111111
11111111
11111111
11111111
11111111
11111111
WAL true

TIL 26
11111111
11111111
11111111
11111111
11111111
11111111
11111111
11111111
WAL true

TIL 27
11111111
11111111
11111111
11111111
11111111
11111111
11111111
11111110
WAL true

TIL 28
11111111
11111111
11111111
11111111
11111111
11111111
11111111
11111110
WAL true

TIL 29
11111111
11111111
11111111
11111111
11111111
11111111
11111111
11111111
WAL true

TIL 30
00000000
00000000
11110000
10111000
01101100
10111110
11010110
01111110

TIL 31
11111111
11111111
10101010
11111111
10101010
11111111
10101010
11111111
WAL true

TIL 32
10101010
11111111
10101010
11111111
10101010
11111111
10101010
11111111
WAL true

TIL 33
00100000
00100000
00100000
00100000
00110000
00011000
00001100
00000111

TIL 34
00000111
00011100
00110000
00100000
00100000
00100000
00100000
00100000

TIL 35
00000000
11111111
00000000
00000000
00000000
00000000
00000000
00000000

TIL 36
00000111
00011000
00100000
01000000
01000000
10000000
10000000
10000000

TIL 37
11100000
00011000
00000100
00000010
00000010
00000001
00000001
00000001

TIL 38
11111111
00000000
00000000
00000000
00000000
00000000
00000000
00000000

TIL 39
00000000
11111111
00000000
11111111
00000000
11111111
00000000
11111111
>
00000000
11111111
00000000
11111111
00000000
11111111
00000000
11111111

TIL a
11111111
11111111
11111111
11111111
11111111
11111111
11111111
11111111
WAL true

TIL b
11111111
11100111
11000011
10000001
10000001
11000011
11100111
11111111

TIL c
00000000
00000000
00000000
00000000
00000000
00000000
00000000
00000000

TIL d
11100111
11000011
10000001
10000001
10000001
10000001
10000001
10000001

TIL e
10000001
10000001
10000001
10000001
10000001
10000001
11000011
11100111

TIL f
00000001
00000001
00000011
00000111
00000111
00000111
00001111
00001111

TIL g
11111100
11111100
11111000
11111000
11110000
11110000
11100000
11100000

TIL h
01111111
00111111
00000111
00000011
00000011
00000111
00001111
01111111

TIL i
11111100
11111100
11111000
11111000
11110000
11000000
10000000
00000000

TIL j
00000001
00000011
00000011
00000011
00000111
00000111
00000111
00000111

TIL k
00000111
00000111
00000111
00000111
00000111
00000111
00000111
00000111

TIL l
00000111
00000111
00000111
00000111
00000011
00000011
00000001
00000001

TIL m
11111111
01111110
00000000
00000000
00000000
00000000
00000000
00000000

TIL n
11111111
11111110
11000000
11000000
11000000
11000000
11000000
10000000

TIL o
11111111
11111110
11111100
11111000
11110000
11100000
11000000
10000000

TIL p
10000000
11000000
11000000
11000000
11000000
11000000
11000000
10000000

TIL q
10000000
11000000
11100000
11110000
11111000
11111100
11111110
11111111

TIL r
00000000
00000000
00000000
00000000
00000000
00000000
11111110
11111111

TIL s
00000000
00000000
00000000
00000000
00000000
00000000
01111111
11111111

TIL t
00000001
00000011
00000111
00001111
00011111
00111111
01111111
11111111

TIL u
11111111
01111111
00111111
00011111
00001111
00000111
00000011
00000001

TIL v
10000000
11000000
11000000
11000000
11000000
11000000
11000000
11000000

TIL w
11000000
11000000
11000000
11000000
11000000
11000000
11000000
10000000

TIL x
11111111
01111110
00000000
00000000
00000000
00000000
01111110
11111111

TIL y
00000000
00000000
00000000
00000000
00000000
00000000
01111110
11111111

TIL z
00000001
00000011
00000011
00000011
00000011
00000011
00000011
00000001

TIL 1a
00000000
01100000
01100000
01100000
01100000
01111110
01111110
00000000

TIL 1b
00000000
01100110
01100110
01100110
01100110
00011000
00011000
00000000

TIL 1c
00011100
00111100
01100000
01111100
00111100
00000110
01111110
01111100

TIL 1d
00000000
00000000
00000000
00000000
00000000
00000000
00000000
00000000

TIL 1e
00000000
00111100
01100000
01000000
11000000
11100000
00111110
00000000

TIL 1f
11111111
11111111
00011000
00011000
00011000
00011000
00011000
00011000

TIL 1g
00011111
00011111
00011111
00011111
00011111
00011111
00000000
00000000

TIL 1h
11111111
11111111
11111111
11111111
11111111
11111111
00000000
00000000

TIL 1i
11111000
11111000
11111000
11111000
11111000
11111000
00000000
00000000

TIL 1j
00000000
00000000
00000000
00000000
00000000
00000000
11111000
11111000

TIL 1k
00000000
00000000
00000000
00000000
00000000
00000000
00011111
00011111

TIL 1l
00000111
00000111
00000111
00000111
00000111
00000111
00000111
00000111

TIL 1m
11111111
10000001
11111111
10000001
11111111
10000001
11111111
10000001

TIL 1n
10101011
11010101
10101011
11110101
10101011
11010101
10111111
11111111

TIL 1o
00000000
00000000
00000000
00000000
00111100
01011110
10101111
11010111
WAL true

TIL 1p
00000000
00000000
00000000
00000000
00000000
00000000
00000000
00000000
WAL true

TIL 1q
00000000
00100000
01110000
00100000
00000100
00001110
00000100
00000000
>
00000000
00000000
00100000
01110100
00101110
00000100
00000000
00000000

TIL 1r
10000000
10000000
10000000
10000000
10000000
10000000
01111111
00000000

TIL 1s
00000000
00000000
00000000
00000000
00000000
00000000
11111111
00000000

TIL 1t
00000001
00000001
00000001
00000001
00000001
00000001
11111110
00000000

TIL 1u
11111110
00000001
00000001
00000001
00000001
00000001
00000001
00000001

TIL 1v
11111111
00000000
00000000
00000000
00000000
00000000
00000000
00000000

TIL 1w
01111111
10000000
10000000
10000000
10000000
10000000
10000000
10000000

TIL 1x
00111100
01111110
01101010
01111110
00111100
00011000
00011000
00100100
>
00000000
00000000
00000000
00000000
00000000
00000000
00000000
00000000

TIL 1y
00000000
00000000
00000000
00000000
00000000
00000000
00000000
00000000
>
00111100
01111110
01101010
01111110
00111100
00011000
00011000
00100100

TIL 1z
11111111
10101010
01010101
10101010
01010101
10101010
01010101
10101010

TIL 2a
11111111
11111111
11111111
11111111
11111111
11111111
11111111
11111111
WAL true

TIL 2b
11111111
11111111
11111111
11111111
11111111
11111111
11111111
11111110
WAL true

TIL 2c
01111100
11011110
10111111
11111111
11111111
01111111
01111111
00111110
WAL true

TIL 2d
00000000
00000000
00000000
00000000
00000000
00000000
00000000
00000000
WAL true

TIL 2e
00100100
00110100
00101100
00100100
00110100
00101100
00100100
00110100
>
00101100
00100100
00110100
00101100
00100100
00110100
00101100
00100100

TIL 2f
00000000
00000000
00000000
00000000
01111110
01101010
01010110
00101100

TIL 2g
00110100
00101100
00110100
01101010
01010110
01111110
00000000
00000000

TIL 2h
01000000
10000000
10000000
10000000
10000000
10000000
10000000
01000000
WAL true

TIL 2i
00000000
00000000
00000000
00000000
00000000
00000000
10000001
01111110
WAL true

TIL 2j
10000000
10000000
10000000
10000000
10000000
10000000
10000000
01111111
WAL true

TIL 2k
00000001
00000001
00000001
00000001
00000001
00000001
00000001
11111110
WAL true

TIL 2l
10000000
01000000
01000000
01000000
01000000
01000000
01000000
10000000
WAL true

TIL 2m
00000000
00100000
01110000
00100000
00000100
00001110
00000100
00000000
>
00000000
00000000
00100000
01110000
00100000
00000100
00001110
00000100

TIL 2n
11111111
11111111
01100110
00000000
00000000
00000000
00000000
00000000

TIL 2o
11111111
11111111
11111111
11111111
11111111
11111111
11111111
11111111

TIL 2p
00000000
00111100
01111110
01111110
01111110
01111110
01111110
00111100

TIL 2q
10000000
10000000
10000000
10000000
10000000
11000000
01000000
01111111

TIL 2r
00000001
00000001
00000001
00000001
00000001
00000011
00000010
11111110

TIL 2s
01000000
00000101
10100000
01110100
00000001
10010100
01001110
00010000

TIL 2t
11111111
11100000
10000000
10100000
10000000
10000111
10001111
10111111
WAL true

TIL 2u
11111111
00011111
00001111
00000111
00000011
00000001
00000001
10000001
WAL true

TIL 2v
10000001
10000001
10000001
10000001
10000001
10000001
10000001
10000001
WAL true

TIL 2w
10000001
10000001
10000001
10000001
10011001
10011001
10011001
10011001
WAL true

TIL 2x
00000000
00000000
00000000
00011110
00111111
01010101
01111111
01101010

TIL 2y
00000000
00000000
00000000
00000000
11100000
01011000
11101100
10110100

TIL 2z
00110100
00101100
00101111
00110101
01011111
11110101
10101111
01110101

TIL 3a
10000000
10000000
10000000
10000000
10000000
10000000
10000000
10000000

TIL 3b
01010101
01010101
01010101
01010101
01010101
01010101
01010101
01010101
>
10101011
10101011
10101011
10101011
10101011
10101011
10101011
10101011

TIL 3c
00010111
11101011
00011101
11110110
00001010
11110100
00011000
11100000
>
11101001
00010101
11100011
00001010
11110110
00001100
11111000
11100000

TIL 3d
11111011
11010100
10101011
01010100
01010011
00101100
00011011
00000111
>
10000100
10101011
11010100
01101011
01101100
00110011
00011100
00000111

TIL 3e
11010101
10101010
11010101
01101010
01010101
00101010
00011101
00000111
>
11111111
11111111
11111111
01111111
01111111
00111111
00011111
00000111

TIL 3f
10101011
01010101
10101011
01010110
10101010
01010100
10111000
11100000
>
11111111
11111111
11111111
11111110
11111110
11111100
11111000
11100000
WAL true

TIL 3g
11100000
01011000
10101100
01010110
10101010
01010101
10101011
01010101
>
11100000
11111000
11111100
11111110
11111110
11111111
11111111
11111111
WAL true

TIL 3h
00000111
00011101
00101010
01010101
01101010
11010101
10101010
11010101
>
00000111
00011111
00111111
01111111
01111111
11111111
11111111
11111111

TIL 3i
01111111
01010101
01010101
01010101
01010101
01010101
01010101
01010101

TIL 3j
01010101
01010101
01010101
01010101
01010101
01010101
01010101
01111111

TIL 3k
00000000
00000000
00000000
00000000
00000000
00000000
00000000
00000000
WAL true

SPR 20
11111111
00000000
00000000
00000000
00000000
00000000
00000000
00000000
POS 1 8,5

SPR 21
11111110
00000001
00000001
00000001
00000001
00000001
00000001
00000001
POS 1 9,5

SPR A
00111100
01111110
01101010
01111110
00111100
00011000
00011000
00100100
POS 0 13,7

SPR a
01111000
01111111
01110000
01111000
01111100
01110011
01110000
01010000
>
01111000
01111111
01111111
01110000
01110000
01110000
01110000
01010000
DLG SPR_0
POS 8 7,3

SPR c
00000000
00000000
00000000
00000000
00000000
00000000
00000000
00000000

SPR 1c
01111111
10000000
10001000
10011100
10001000
10000000
10000000
10000000
POS 1 5,5

SPR 1g
11111110
00000001
00000001
00000001
00000001
00000001
00000001
00000001

SPR 1h
11111111
10101011
01010101
10101011
01010101
10101011
01010101
11111110
POS 1 9,7

SPR 1i
11111111
10101010
01010101
10101010
01010101
10101010
01010101
11111111
POS 1 8,7

SPR 1j
11111111
10101010
01010101
10101010
01010101
10101010
01010101
11111111
POS 1 7,7

SPR 1k
11111111
10101010
01010101
10101010
01010101
10101010
01010101
11111111
POS 1 6,7

SPR 1l
11111111
10101010
11010101
10101010
11010101
10101010
11010101
01111111
POS 1 5,7

SPR 1m
10000000
10000000
10000000
10000000
10000000
10000000
10000000
10000000
>
10000000
10000000
10000000
10000000
10000000
10000000
10000000
10000000
POS 1 5,6

SPR 1n
00000001
00000001
00000001
00000001
00000001
00000001
00000001
00000001
POS 1 9,6

SPR 1o
00000000
00000000
00000000
00000000
00000000
00000000
00000000
00000000
>
00111100
01101010
01111110
01111110
01111110
01111110
01111110
01000010

SPR 1p
00111000
11010110
10101011
11010101
10111111
11110111
11111111
00111110
>
00111000
11010110
10101011
11010101
10111111
11111111
11111111
00111110
DLG SPR_1
POS 1 12,13

SPR 1q
00001100
00011110
11111100
11111100
00001100
00001100
00001100
00010010
>
00001100
11111110
00000100
00001100
11111100
00001100
00001100
00010010
DLG SPR_2
POS 3 10,12

SPR 1r
00001100
00011110
11111100
11111100
00001100
00001100
00001100
00010010
>
00001100
11111110
00000100
00001100
11111100
00001100
00001100
00010010
DLG SPR_3
POS 3 11,11

SPR 1s
00001100
00011110
11111100
11111100
00001100
00001100
00001100
00010010
>
00001100
11111110
00000100
00001100
11111100
00001100
00001100
00010010
DLG SPR_4
POS 5 10,12

SPR 1t
00001100
00011110
11111100
11111100
00001100
00001100
00001100
00010010
>
00001100
11111110
00000100
00001100
11111100
00001100
00001100
00010010
DLG SPR_5
POS 5 11,11

SPR 1u
00001100
00011110
11111100
11111100
00001100
00001100
00001100
00010010
>
00001100
11111110
00000100
00001100
11111100
00001100
00001100
00010010
DLG SPR_6
POS 9 10,12

SPR 1v
00001100
00011110
11111100
11111100
00001100
00001100
00001100
00010010
>
00001100
11111110
00000100
00001100
11111100
00001100
00001100
00010010
DLG SPR_7
POS 9 11,11

SPR 1w
00001100
00011110
11111100
11111100
00001100
00001100
00001100
00010010
>
00001100
11111110
00000100
00001100
11111100
00001100
00001100
00010010
DLG SPR_8
POS a 11,4

SPR 1x
00001100
00011110
11111100
11111100
00001100
00001100
00001100
00010010
>
00001100
11111110
00000100
00001100
11111100
00001100
00001100
00010010
DLG SPR_9
POS e 10,11

SPR 1y
11111111
00000000
00000000
00000000
00000000
00000000
00000000
00000000
POS 1 6,5

SPR 1z
11111111
00000000
00000000
00000000
00000000
00000000
00000000
00000000
POS 1 7,5

ITM 0
00000000
00000000
00000000
00111100
01100100
00100100
00011000
00000000
NAME tea
DLG ITM_0

ITM 1
00010000
00101000
00001000
00001000
00010100
00001000
00010100
00001000
>
00010000
00101000
00001000
00010100
00001000
00010100
00001000
00010100
NAME Dynmo
DLG ITM_1

DLG ITM_0
You found a nice warm cup of tea

DLG SPR_1
I am the magical blocking bolder

DLG ITM_1
{wvy}{rbw}You got the dynmo{rbw}{wvy}

DLG SPR_2
WE GOTTA GET RID OF THESE VERY HARD TO BLOW UP BOULDERS (Ps. I think you can blow up those rocks at the top right with your Dynmo)

DLG SPR_3
Bein on the job is tirin I'll tell you what.

DLG SPR_4
WE GOTTA MOVE THESE NOTHING

DLG SPR_5
Bein on the hard work is job I'll tell me what

DLG SPR_0
"""
{shk}I HAVE HAD ENOUGH WITH THESE ROCKS{shk}{
  - {item "Dynmo"} == 1 ?
    HEY YOU GOT SOME DYNMO MAYBE I COULD BLOW UP THESE ROCKS
  - else ?
    Wow you resisted the urge to get dynmo come right this way sir
}
"""

DLG SPR_6
Oh good you got rid of those easy rocks right there

DLG SPR_7
Thank you for lessening my workload 

DLG SPR_8
Warning: Some Dimension shifting is required in order to lower you down. Side Effects may include: Vomiting, Flatness, Developing a taste for Steely Dan, And other such things. See a doctor if any of these issues persist

DLG SPR_9
You made it!!! Great, us at the excavation united team are glad to see that you made it out of that dimensional shift. usually we gotta coax em out by playing Steely Dan albums on repeat till they give in.

END 0


END undefined
You entered the warble portal. CONGRATS YOU FINISHED THE LEVEL 1 DEMO

VAR a
42

