A 'lil game. Created by POP'D, in a day or so.                  This game is kind of dark, so prepare yourself.         Sensitive content ahead!

# BITSY VERSION 3.7

! ROOM_FORMAT 1

PAL 0
255,255,255
0,0,0
0,0,0

PAL 1
0,0,0
255,255,255
255,255,255

PAL 2
255,0,188
0,0,0
0,0,0

PAL 3
255,249,74
0,0,0
0,0,0

PAL 4
17,0,255
255,255,255
255,255,255

PAL 5
244,0,255
255,255,255
255,255,255

PAL 6
163,255,145
0,0,0
0,0,0

ROOM 0
0,0,0,0,0,0,0,b,0,0,0,0,0,0,0,0
0,0,0,0,0,0,0,0,0,0,0,0,b,0,0,0
0,0,0,0,0,0,0,0,0,c,0,0,0,0,0,0
0,c,0,0,0,0,0,0,0,0,0,0,0,0,0,0
0,0,0,0,0,0,0,0,0,0,0,0,0,0,c,0
0,0,0,0,0,0,0,0,0,0,0,0,0,0,0,0
0,0,0,0,0,0,0,0,0,0,0,0,0,0,0,0
0,0,0,b,0,0,0,0,0,0,0,0,0,0,0,0
0,0,0,0,0,0,0,0,0,0,0,0,0,0,0,0
0,c,0,0,0,0,0,c,0,0,0,0,0,0,0,0
0,0,0,0,0,0,0,0,0,0,0,0,0,b,0,0
0,0,0,0,c,0,0,0,0,0,0,0,0,0,0,0
0,0,0,0,0,0,0,0,0,0,0,0,0,0,0,0
0,0,0,0,0,0,0,0,0,b,0,0,0,0,c,0
0,0,b,0,0,0,0,0,0,0,0,0,0,0,0,0
0,0,0,0,0,0,0,0,0,0,0,0,0,0,0,0
EXT 15,15 1 0,0
PAL 0

ROOM 1
b,0,0,0,0,0,0,0,0,b,0,0,0,c,0,0
0,0,0,0,0,0,0,0,0,0,0,0,0,0,0,0
0,0,0,0,c,0,0,0,0,0,0,0,0,0,0,0
0,0,0,0,0,0,0,0,0,0,0,0,0,b,0,0
0,0,0,0,0,0,0,0,0,0,0,0,0,0,0,0
0,0,c,0,0,0,0,0,0,0,0,0,0,0,0,0
0,0,0,0,0,0,0,b,0,0,0,0,0,0,0,0
0,0,0,0,0,0,0,0,0,0,0,0,0,0,0,0
0,0,0,0,0,0,0,0,0,0,b,0,0,0,0,0
0,0,0,0,0,0,0,0,0,0,0,0,0,0,0,b
0,0,b,0,0,0,0,0,0,0,0,0,0,0,0,0
0,0,0,0,0,0,0,0,0,0,0,0,0,0,0,0
0,0,0,0,0,0,0,0,0,0,0,0,0,0,0,0
0,0,0,0,0,0,0,b,0,0,0,0,c,0,0,0
0,0,0,0,0,0,0,0,0,0,0,0,0,0,0,0
b,0,0,0,0,0,0,0,0,0,0,0,0,0,0,0
EXT 15,15 2 0,0
EXT 0,0 0 15,15
PAL 0

ROOM 2
0,0,0,0,0,0,0,0,0,c,0,0,0,0,0,0
0,0,b,0,0,0,0,0,0,0,0,0,0,0,0,c
0,0,0,0,0,0,0,0,0,0,0,0,0,0,0,0
0,0,0,0,0,0,0,c,0,0,0,0,0,0,0,0
0,0,0,0,0,0,0,0,0,0,0,0,0,0,0,0
0,0,0,0,0,0,0,0,0,0,0,0,0,0,0,0
0,0,0,0,0,0,0,0,0,0,0,0,0,0,0,0
0,b,0,0,0,0,0,e,f,0,0,0,0,0,0,0
0,0,0,0,0,0,0,d,g,0,0,0,0,0,0,0
0,0,0,0,0,0,0,i,h,0,0,0,b,0,0,0
0,0,0,0,0,0,0,0,0,0,0,0,0,0,0,0
0,0,0,0,0,0,0,0,0,0,0,0,0,0,0,0
0,0,b,0,0,0,0,0,0,0,0,0,0,0,0,0
0,0,0,0,0,0,0,0,b,0,0,0,0,0,0,0
0,0,0,0,0,0,0,0,0,0,0,0,0,0,0,c
c,0,0,0,0,0,0,0,0,0,0,c,0,0,0,0
EXT 7,9 3 7,9
EXT 8,9 3 8,9
EXT 0,0 1 15,15
PAL 0

ROOM 3
0,0,0,0,0,0,0,0,0,c,0,0,0,0,0,0
0,0,b,0,0,0,0,0,0,0,0,0,0,0,0,c
0,0,0,0,0,0,0,0,0,0,0,0,0,0,0,0
0,0,0,0,0,0,0,c,0,0,0,0,0,0,0,0
0,0,0,0,0,0,0,0,0,0,0,0,0,0,0,0
0,0,0,0,0,0,0,0,0,0,0,0,0,0,0,0
0,0,0,0,0,0,0,0,0,0,0,0,0,0,0,0
0,b,0,0,0,0,0,e,f,0,0,0,0,0,0,0
0,0,0,0,0,0,0,d,g,0,0,0,0,0,0,0
0,0,0,0,0,0,0,i,h,0,0,0,b,0,0,0
0,0,0,0,0,0,0,0,0,0,0,0,0,0,0,0
0,0,0,0,0,0,0,0,0,0,0,0,0,0,0,0
0,0,b,0,0,0,0,0,0,0,0,0,0,0,0,0
0,0,0,0,0,0,0,0,b,0,0,0,0,0,0,0
0,0,0,0,0,0,0,0,0,0,0,0,0,0,0,c
c,0,0,0,0,0,0,0,0,0,0,c,0,0,0,0
EXT 15,15 4 0,0
EXT 8,9 2 8,9
EXT 7,9 2 7,9
PAL 1

ROOM 4
c,0,0,0,0,0,0,0,0,0,0,0,0,0,0,0
0,0,0,0,0,0,0,0,0,0,0,0,0,0,0,0
0,0,0,0,0,0,0,0,0,0,0,0,0,0,0,0
0,0,0,0,b,0,0,0,0,0,0,0,0,c,0,0
0,0,0,0,0,0,0,0,0,0,0,0,0,0,0,0
0,0,0,0,0,0,0,0,0,b,0,0,0,0,0,0
0,0,0,0,0,0,0,0,0,0,0,0,0,0,0,0
b,0,0,0,0,0,0,0,0,0,0,0,0,0,0,0
0,0,0,0,0,0,0,0,c,0,0,0,0,0,0,0
0,0,0,0,0,0,0,0,0,0,0,0,0,0,b,0
0,0,0,0,0,0,0,0,0,0,0,0,0,0,0,0
0,0,0,0,0,0,0,0,0,0,0,0,0,0,0,0
0,0,0,0,0,0,0,0,0,b,0,0,0,0,0,0
0,0,0,0,0,0,0,0,0,0,0,0,0,0,0,0
0,0,b,0,0,0,0,0,0,0,0,0,0,0,0,0
0,0,0,0,0,0,0,0,0,0,0,0,0,0,c,0
EXT 15,15 5 0,0
EXT 0,0 3 15,15
PAL 1

ROOM 5
0,0,0,0,0,0,0,0,0,0,0,0,0,0,0,0
0,0,0,0,0,0,0,0,0,0,0,0,0,0,0,0
0,0,c,0,0,0,0,0,0,0,0,0,0,0,0,0
0,0,0,0,0,0,0,0,c,0,0,0,0,0,0,0
0,0,0,0,0,0,0,0,0,0,0,0,0,0,0,0
0,0,0,0,0,0,0,0,0,0,0,0,c,0,0,0
0,0,0,0,0,0,0,0,0,0,0,0,0,0,0,0
0,0,0,0,0,0,e,f,0,0,0,0,0,0,0,0
0,0,0,0,0,0,d,g,0,0,0,0,0,0,0,0
0,0,0,0,0,0,i,h,0,0,0,0,0,0,0,0
0,0,0,0,0,0,0,0,0,0,0,0,0,0,0,0
0,0,0,0,0,0,0,0,0,0,0,0,0,0,0,0
0,0,c,0,0,0,0,0,0,0,0,0,0,0,0,0
0,0,0,0,0,0,0,0,0,0,0,0,0,c,0,0
0,0,0,0,0,0,0,0,0,0,0,0,0,0,0,0
0,0,0,0,0,0,0,0,c,0,0,0,0,0,0,0
EXT 6,9 6 8,9
EXT 7,9 6 9,9
EXT 0,0 4 15,15
PAL 1

ROOM 6
0,0,0,0,0,0,0,0,0,0,0,0,0,0,0,b
0,0,0,0,0,0,c,0,0,0,0,0,0,0,0,0
0,0,0,0,0,0,0,0,0,0,0,0,0,0,0,0
0,0,0,0,b,0,0,0,0,0,0,0,0,0,0,0
0,0,0,0,0,0,0,0,0,0,0,0,0,0,0,0
0,0,0,0,0,0,0,0,0,0,0,0,0,0,0,0
0,0,0,0,0,0,0,0,0,0,0,0,0,c,0,0
0,c,0,0,0,0,0,0,e,f,0,0,0,0,0,0
0,0,0,0,0,0,c,0,d,g,0,0,0,0,0,0
0,0,0,0,0,0,0,0,i,h,0,0,0,b,0,0
0,0,0,0,0,0,0,0,c,0,0,0,0,0,0,0
0,0,0,0,0,0,0,0,0,0,0,0,0,0,0,0
0,0,0,0,0,0,0,0,0,0,0,0,0,0,0,0
0,c,0,0,0,0,0,0,0,0,0,0,0,0,0,0
0,0,0,0,0,0,0,0,0,0,0,0,0,0,0,0
0,0,0,0,0,0,0,0,0,c,0,0,0,0,0,0
EXT 15,15 7 0,0
EXT 9,9 0 0,0
EXT 8,9 5 6,9
PAL 2

ROOM 7
0,0,0,0,0,0,0,0,0,0,0,0,0,0,0,0
0,0,0,0,0,0,0,0,0,0,0,0,0,0,0,0
0,0,c,0,0,0,0,0,0,0,0,0,0,c,0,0
0,0,0,0,0,0,0,0,0,0,0,0,0,0,0,0
0,0,0,0,0,0,0,b,0,0,0,0,0,0,0,0
0,0,0,0,0,0,0,0,0,0,0,0,0,0,0,0
0,0,0,0,0,0,0,0,0,0,0,0,0,0,0,0
0,0,0,b,0,0,0,0,0,0,0,0,0,0,0,0
0,0,0,0,0,0,0,0,0,0,0,0,0,0,0,0
0,c,0,0,0,0,0,0,0,0,0,0,0,0,0,0
0,0,0,0,0,0,0,0,0,0,0,0,0,0,0,0
0,0,0,0,0,0,0,0,0,0,0,0,0,0,0,0
0,0,0,0,0,0,0,0,0,0,0,0,0,0,b,0
0,0,0,0,c,0,0,0,0,0,0,0,0,0,0,0
0,b,0,0,0,0,0,0,0,0,0,0,0,0,0,0
0,0,0,0,0,0,0,0,0,0,0,0,0,0,0,0
EXT 15,15 8 0,0
EXT 0,0 6 15,15
PAL 2

ROOM 8
0,0,0,0,0,0,0,0,0,0,c,0,0,0,0,0
0,0,0,0,0,0,0,0,0,0,0,0,0,0,0,0
0,0,0,0,0,0,0,0,0,0,0,0,0,0,0,0
0,0,b,0,0,0,0,0,0,c,0,0,0,0,0,0
0,0,0,0,0,0,0,0,0,0,0,0,0,0,0,0
0,0,0,0,0,0,0,0,0,0,0,0,0,0,0,0
0,0,0,0,0,0,0,0,0,0,0,0,0,0,0,0
0,0,0,0,0,0,c,0,0,0,0,0,0,0,0,0
0,0,0,0,0,0,0,0,0,0,0,0,0,0,0,0
0,0,0,0,0,0,0,0,0,0,0,0,0,0,0,0
0,0,0,0,0,0,0,0,0,0,0,0,0,0,0,0
0,0,0,0,0,0,0,0,0,0,0,0,0,0,0,0
0,b,0,0,0,0,0,0,0,0,0,0,0,0,0,0
0,0,0,0,0,0,0,0,0,0,0,0,0,0,b,0
0,0,0,0,0,0,0,0,0,0,0,0,0,0,0,0
0,0,0,0,0,0,0,0,0,0,0,0,0,0,0,0
EXT 0,0 7 15,15
EXT 15,15 9 0,0
PAL 2

ROOM 9
0,0,0,0,0,0,0,0,0,0,0,0,0,0,0,0
0,0,0,0,0,0,0,0,0,0,0,b,0,0,0,0
0,0,0,c,0,0,0,0,0,0,0,0,0,0,0,0
0,0,0,0,0,0,0,0,0,0,0,0,0,0,0,0
0,0,0,0,0,0,0,0,0,0,0,0,0,0,0,0
0,0,0,0,0,0,0,0,0,0,0,0,0,0,0,0
0,0,0,0,0,0,0,0,0,0,0,0,0,0,0,c
0,0,c,0,0,0,0,e,f,0,0,0,0,0,0,0
0,0,0,0,0,0,0,d,g,0,0,0,0,0,0,0
0,0,0,0,0,0,0,i,h,0,0,0,0,0,0,0
0,0,0,0,0,0,0,0,0,0,0,0,0,0,0,0
0,0,0,0,0,0,0,0,0,0,0,0,0,0,0,0
0,0,b,0,0,0,0,0,0,0,0,0,0,0,0,0
0,0,0,0,0,0,0,0,0,0,0,0,0,b,0,0
0,0,0,0,0,0,0,0,0,c,0,0,0,0,0,0
0,0,0,0,0,0,0,0,0,0,0,0,0,0,0,0
EXT 0,0 8 15,15
EXT 7,9 a 6,8
EXT 8,9 a 7,8
PAL 2

ROOM a
0,0,0,0,0,0,0,0,0,0,0,0,0,0,0,0
0,0,0,0,0,0,0,0,0,0,0,0,0,0,c,0
0,0,0,0,0,0,0,0,0,0,0,0,0,0,0,0
0,0,b,0,0,0,0,0,0,0,0,0,0,0,0,0
0,0,0,0,0,0,0,0,0,0,0,0,0,0,0,0
0,0,0,0,0,0,0,0,0,0,0,0,0,0,0,0
0,0,0,0,0,0,e,f,0,0,0,0,0,0,0,0
0,0,0,0,0,0,d,g,0,0,0,0,0,0,0,0
0,0,0,0,0,0,i,h,0,0,b,0,0,0,0,0
0,0,0,0,0,0,0,0,0,0,0,0,0,0,0,0
0,0,0,0,0,0,0,0,0,0,0,0,0,0,0,0
0,0,0,0,0,0,0,0,0,0,0,0,0,0,0,0
0,0,0,0,0,0,0,0,0,0,0,0,0,0,0,0
0,0,c,0,0,0,0,0,0,0,0,0,0,0,0,0
0,0,0,0,0,0,0,0,0,0,0,0,0,0,0,0
0,0,0,0,0,0,0,0,0,0,0,0,0,c,0,0
EXT 6,8 9 7,9
EXT 7,8 9 8,9
EXT 15,15 b 0,0
PAL 3

ROOM b
0,0,0,0,0,0,0,0,0,0,0,0,0,0,0,0
0,0,0,0,0,0,0,0,0,0,0,0,0,0,0,0
0,0,0,b,0,0,0,0,0,0,0,0,0,0,0,0
0,0,0,0,0,0,0,0,0,0,0,0,c,0,0,0
0,0,0,0,0,0,0,0,0,0,0,0,0,0,0,0
0,0,0,0,0,0,0,0,0,0,0,0,0,0,0,0
0,0,0,0,0,0,0,c,0,0,0,0,0,0,0,0
0,0,0,0,0,0,0,0,0,0,0,0,0,0,0,0
0,0,0,0,0,0,0,0,0,0,0,0,0,0,0,0
0,0,0,0,0,0,0,0,0,0,0,0,0,0,0,0
0,0,0,b,0,0,0,0,0,0,0,0,0,0,0,0
0,0,0,0,0,0,0,0,0,0,0,0,0,0,0,0
0,0,0,0,0,0,0,0,0,0,0,0,0,0,0,0
0,0,0,0,0,0,0,0,0,0,0,0,0,0,0,0
0,0,0,0,0,0,0,0,0,0,0,0,0,0,0,c
0,0,0,0,0,c,0,0,0,0,0,0,0,0,0,0
EXT 0,0 a 15,15
EXT 15,15 c 0,0
PAL 3

ROOM c
0,0,0,0,0,0,0,0,0,0,0,0,0,0,0,0
0,0,0,0,0,0,0,0,0,0,0,0,c,0,0,0
0,0,0,0,0,0,0,0,0,0,0,0,0,0,0,0
0,0,0,0,0,0,0,b,0,0,0,0,0,0,0,0
0,0,0,0,0,0,0,0,0,0,0,0,0,0,0,0
0,0,c,0,0,0,0,0,0,0,0,0,0,0,0,0
0,0,0,0,0,0,0,0,0,0,0,0,0,0,0,0
0,0,0,0,0,0,0,0,0,0,0,0,0,0,0,0
0,0,0,0,0,0,0,0,0,0,0,0,0,0,0,0
0,0,0,0,0,0,0,0,0,0,0,0,0,0,0,0
0,0,0,0,0,0,0,0,0,0,0,0,0,0,0,0
0,0,0,0,0,0,0,0,0,0,0,0,0,0,b,0
0,0,0,0,0,0,0,0,0,0,c,0,0,0,0,0
0,b,0,0,0,0,0,0,0,0,0,0,0,0,0,0
0,0,0,0,0,0,0,0,0,0,0,0,0,0,0,0
0,0,0,0,0,0,0,0,0,0,0,0,0,0,0,0
EXT 15,15 d 0,0
PAL 3

ROOM d
0,0,0,0,0,0,0,0,0,0,0,0,0,0,0,0
0,0,0,0,0,0,0,0,0,0,0,0,0,0,0,0
0,0,0,b,0,0,0,0,0,0,0,0,0,0,0,0
0,0,0,0,0,0,0,0,0,0,0,0,b,0,0,0
0,0,0,0,0,0,0,0,0,0,0,0,0,0,0,0
0,0,0,0,0,0,0,0,0,0,0,0,0,0,0,0
0,0,0,0,0,0,0,b,0,0,0,0,0,0,0,0
0,0,0,0,0,0,0,0,0,0,0,0,0,0,0,0
0,0,0,0,0,0,0,0,0,0,0,0,0,0,0,0
0,0,0,0,0,0,0,0,0,0,0,0,0,0,0,0
0,0,0,c,0,0,0,0,0,0,0,0,0,0,0,0
0,0,0,0,0,0,0,0,0,0,0,0,0,0,0,0
0,0,0,0,0,0,0,0,0,0,0,0,0,0,0,0
0,0,0,0,0,0,0,0,0,0,0,0,0,0,0,0
0,0,0,0,0,0,0,0,0,0,0,0,0,0,0,c
0,0,0,0,0,c,0,0,0,0,0,0,0,0,0,0
EXT 10,8 m 0,0
EXT 11,9 m 0,0
EXT 12,8 m 0,0
EXT 11,7 m 0,0
PAL 3

ROOM e
0,0,0,0,0,0,0,0,0,0,0,0,0,0,0,0
0,0,0,0,0,0,0,0,0,0,0,0,0,0,0,0
0,0,0,0,0,0,0,0,0,0,0,0,0,0,0,0
0,0,0,0,0,0,0,0,0,b,0,0,0,0,0,0
0,0,0,0,0,b,0,0,0,0,0,0,0,0,0,0
0,0,0,0,0,0,0,0,0,0,0,0,0,0,0,0
0,0,0,0,0,0,0,0,0,0,0,0,0,0,0,0
0,0,0,0,0,0,0,0,0,0,0,0,0,0,0,0
b,0,0,0,0,0,0,0,0,0,0,0,0,0,0,0
0,0,0,0,0,0,0,0,0,0,0,0,0,0,0,0
0,0,0,0,0,0,0,0,0,0,0,0,0,0,0,0
0,0,0,0,0,0,0,0,0,0,0,0,0,0,0,0
0,0,0,0,0,0,0,0,0,0,0,0,0,0,0,0
0,0,0,0,0,0,0,0,0,0,0,0,0,b,0,0
0,0,0,b,0,0,0,0,0,0,0,0,0,0,0,0
0,0,0,0,0,0,0,0,0,0,0,0,0,0,0,0
EXT 15,15 f 0,0
PAL 3

ROOM f
0,0,0,0,0,0,0,0,0,0,0,0,0,b,0,0
0,0,0,0,0,0,0,0,b,0,0,0,0,0,0,0
0,0,0,0,0,0,0,0,0,0,0,0,0,0,0,0
0,0,0,b,0,0,0,0,0,0,0,0,0,0,0,0
0,0,0,0,0,0,0,0,0,0,0,0,0,0,0,0
0,0,0,0,0,0,0,0,0,0,0,0,0,0,0,0
0,0,0,0,0,0,0,0,e,f,0,0,0,0,0,0
0,0,0,0,0,0,0,0,d,g,0,0,0,0,0,0
0,0,0,0,0,0,0,0,i,h,0,0,0,0,0,0
0,0,0,0,0,0,0,0,0,0,0,0,0,0,0,0
0,0,0,b,0,0,0,0,0,0,0,0,0,0,0,0
0,0,0,0,0,0,0,0,0,0,0,0,0,0,0,0
0,0,0,0,0,0,0,0,0,0,0,0,0,0,0,0
0,0,0,0,0,0,0,0,0,0,0,0,0,0,0,0
0,0,0,0,0,0,0,0,0,0,0,b,0,0,0,0
0,0,0,0,0,0,0,0,0,0,0,0,0,0,0,0
EXT 8,8 g 7,9
EXT 9,8 g 8,9
PAL 3

ROOM g
0,0,0,0,0,0,0,0,0,0,0,0,0,0,0,0
0,0,0,0,0,0,0,0,0,0,0,0,0,0,0,0
0,0,b,0,0,0,0,0,0,0,0,0,0,0,0,0
0,0,0,0,0,0,0,0,b,0,0,0,0,0,0,0
0,0,0,0,0,0,0,0,0,0,0,0,0,0,0,0
0,0,0,0,0,0,0,0,0,0,0,0,0,0,0,0
0,0,0,0,0,0,0,0,0,0,0,0,0,0,0,0
0,0,0,0,0,0,0,e,f,0,0,b,0,0,0,0
0,0,0,0,0,0,0,d,g,0,0,0,0,0,0,0
0,0,0,0,0,0,0,i,h,0,0,0,0,0,0,0
0,0,0,0,0,0,0,0,0,0,0,0,0,0,0,0
0,0,0,0,0,0,0,0,0,0,0,0,0,0,0,0
b,0,0,0,0,0,0,0,0,0,0,0,0,0,0,0
0,0,0,0,0,0,0,0,0,0,0,b,0,0,0,0
0,0,0,0,0,0,0,0,0,0,0,0,0,0,0,0
0,0,0,0,0,0,0,0,0,0,0,0,0,0,0,0
EXT 15,15 h 0,0
PAL 4

ROOM h
0,0,0,0,0,0,0,0,0,0,0,0,0,0,0,0
0,b,0,0,0,0,0,0,0,0,0,0,0,0,0,0
0,0,0,0,0,0,0,0,0,b,0,0,0,0,0,0
0,0,0,0,0,0,0,0,0,0,0,0,0,0,0,0
0,0,0,0,0,0,0,0,0,0,0,0,0,0,0,0
0,0,0,0,0,0,0,0,0,0,0,0,0,0,0,0
0,0,0,0,0,0,0,0,0,0,0,0,0,0,0,0
0,0,0,0,0,0,0,0,0,0,0,0,0,0,0,0
0,0,0,0,0,m,n,o,p,q,0,0,0,0,0,0
b,0,0,0,0,0,0,0,0,0,0,0,0,0,0,0
0,0,0,0,0,0,0,0,0,0,0,0,0,0,0,0
0,0,0,0,0,0,0,0,0,0,0,0,0,0,0,0
0,0,0,0,0,0,0,0,0,b,0,0,0,0,0,0
0,0,0,0,0,0,0,0,0,0,0,0,0,0,0,b
0,0,0,0,b,0,0,0,0,0,0,0,0,0,0,0
0,0,0,0,0,0,0,0,0,0,0,0,0,0,0,0
EXT 15,15 i 0,0
PAL 4

ROOM i
0,0,0,0,b,0,0,0,0,0,0,0,0,0,0,0
0,0,0,0,0,0,0,0,0,0,0,0,0,0,0,0
0,0,0,0,0,0,0,0,0,0,0,0,0,0,0,0
0,0,0,0,0,0,0,0,0,0,0,b,0,0,0,0
0,0,0,0,0,0,0,0,0,0,0,0,0,0,0,0
0,0,0,0,0,0,0,0,0,0,0,0,0,0,0,0
0,0,0,0,0,0,0,0,0,0,0,0,0,0,0,0
0,0,b,0,0,0,0,0,0,0,0,0,0,0,0,0
0,0,0,0,0,0,0,0,0,0,0,0,0,0,0,0
0,0,0,0,0,0,0,0,0,0,0,0,0,0,0,0
0,0,0,0,0,0,0,0,0,0,0,0,0,0,0,0
0,0,0,0,0,0,b,0,0,0,0,0,0,0,0,0
0,0,0,0,0,0,0,0,0,0,0,b,0,0,0,0
0,0,0,0,0,0,0,0,0,0,0,0,0,0,0,0
0,0,0,0,0,0,0,0,0,0,0,0,0,0,0,0
0,0,0,0,0,0,0,0,0,0,0,0,0,0,0,0
EXT 15,15 j 0,0
PAL 4

ROOM j
0,0,0,0,0,0,0,0,0,0,0,0,0,0,0,0
0,0,0,0,0,0,0,0,0,0,0,0,0,0,0,0
0,0,0,0,0,0,0,0,0,0,0,0,0,0,0,0
0,0,0,0,b,0,0,0,0,0,0,0,0,0,0,0
0,0,0,0,0,0,0,0,0,0,0,0,0,0,0,0
0,0,0,0,0,0,0,0,0,0,0,0,0,0,0,0
0,0,0,0,0,0,0,e,f,0,0,c,0,0,0,0
0,0,0,0,0,0,0,d,g,0,0,0,0,0,0,0
0,0,0,0,0,0,0,i,h,0,0,0,0,0,0,0
0,0,0,0,0,0,0,0,0,0,0,0,0,0,0,0
0,0,0,0,0,0,0,0,0,0,0,0,0,0,0,0
0,0,0,0,b,0,0,0,0,0,0,0,0,0,0,0
0,0,0,0,0,0,0,0,0,0,0,0,0,0,0,0
0,0,0,0,0,0,0,0,0,0,0,0,0,0,0,0
0,0,0,0,0,0,0,0,0,0,0,0,0,0,b,0
0,0,0,0,0,0,0,0,0,0,0,0,0,0,0,0
EXT 7,8 k 7,8
EXT 8,8 k 8,8
PAL 4

ROOM k
0,0,0,0,0,0,0,0,0,0,0,0,0,0,0,0
0,0,0,0,0,0,0,0,0,0,0,0,0,0,0,0
0,0,0,b,0,0,0,0,0,0,0,0,0,0,0,0
0,0,0,0,0,0,0,0,0,0,0,0,0,0,0,0
0,0,0,0,0,0,0,0,0,0,0,0,b,0,0,0
0,0,0,0,0,0,0,0,0,0,0,0,0,0,0,0
0,0,0,0,0,0,0,e,f,0,0,0,0,0,0,0
0,0,0,0,0,0,0,d,g,0,0,0,0,0,0,0
0,0,0,0,0,0,0,i,h,0,0,0,0,0,0,0
0,0,0,0,0,0,0,0,0,0,0,0,0,0,0,0
0,0,0,0,0,0,0,0,0,0,0,0,0,0,0,0
0,0,0,0,0,0,0,0,0,0,0,0,0,0,0,0
0,c,0,0,0,0,0,0,0,0,0,0,0,0,0,0
0,0,0,0,0,0,0,0,0,0,0,0,0,0,0,0
0,0,0,0,0,0,0,0,0,0,0,0,0,0,0,0
0,0,0,0,0,0,0,0,0,0,0,b,0,0,0,0
EXT 15,15 l 0,0
PAL 6

ROOM l
0,0,0,0,0,0,0,0,0,0,0,0,0,0,0,0
0,0,0,0,0,0,0,0,0,b,0,0,0,0,0,0
0,0,0,0,0,0,0,0,0,0,0,0,0,0,0,0
0,0,0,0,0,0,0,0,0,0,0,0,0,0,0,0
0,c,0,0,0,0,0,0,0,0,0,0,0,0,0,0
0,0,0,0,0,0,0,0,0,0,0,0,0,0,0,0
0,0,0,0,0,0,0,0,0,0,0,0,0,0,0,0
0,0,0,0,0,0,0,0,0,0,0,0,0,0,0,0
0,0,0,0,0,0,0,0,0,0,0,c,0,0,0,0
0,0,0,0,0,0,0,0,0,0,0,0,0,0,0,0
0,0,0,0,0,0,0,0,0,0,0,0,0,0,0,0
0,0,0,0,0,0,0,0,0,0,0,0,0,0,0,0
0,0,0,b,0,0,0,0,0,0,0,0,0,0,0,0
0,0,0,0,0,0,0,0,0,0,0,0,0,0,0,0
0,0,0,0,0,0,0,0,0,0,0,b,0,0,0,0
0,0,0,0,0,0,0,0,0,0,0,0,0,0,0,0
EXT 15,15 n 0,0
PAL 6

ROOM m
0,0,0,0,0,0,0,0,0,0,0,0,0,0,0,0
0,0,0,0,c,0,0,0,0,0,0,0,0,0,0,0
0,0,0,0,0,0,0,0,0,0,b,0,0,0,0,0
0,0,0,0,0,0,0,0,0,0,0,0,0,0,0,0
0,0,0,0,0,0,0,0,0,0,0,0,0,0,0,0
0,0,0,0,0,0,0,0,0,0,0,0,0,0,0,0
0,c,0,0,0,0,0,0,0,0,0,0,0,0,0,0
0,0,0,0,0,0,0,0,0,0,0,0,0,0,0,0
0,0,0,0,0,0,0,0,0,0,0,0,0,0,c,0
0,0,0,0,0,0,0,0,0,0,0,0,0,0,0,0
0,0,0,0,0,0,0,0,0,0,0,0,0,0,0,0
0,0,0,0,0,0,0,0,0,0,0,0,0,0,0,0
0,0,0,0,0,b,0,0,0,0,0,0,0,0,0,0
0,0,0,0,0,0,0,0,0,0,b,0,0,0,0,0
0,0,0,0,0,0,0,0,0,0,0,0,0,0,0,0
0,0,0,0,0,0,0,0,0,0,0,0,0,0,0,0
EXT 15,15 e 0,0
PAL 3

ROOM n
0,0,0,0,0,0,0,0,0,0,0,0,0,0,0,0
0,0,0,0,0,0,0,0,0,0,0,0,0,0,0,0
0,0,0,0,0,0,0,0,0,0,c,0,0,0,0,0
0,0,0,0,0,0,0,0,0,0,0,0,0,0,0,0
0,0,0,0,0,0,0,0,0,0,0,0,0,0,0,0
0,0,0,0,b,0,0,0,0,0,0,0,0,0,0,0
0,0,0,0,0,0,0,0,0,0,0,0,0,0,0,0
0,0,0,0,0,0,0,0,0,0,0,0,0,0,0,0
0,0,0,0,0,0,0,0,0,0,0,0,0,0,0,0
0,0,0,0,0,0,0,0,0,0,0,0,0,0,0,0
0,0,0,0,0,0,0,0,b,0,0,0,0,0,0,0
0,0,c,0,0,0,0,0,0,0,0,0,0,0,0,0
0,0,0,0,0,0,0,0,0,0,0,0,0,0,0,0
0,0,0,0,0,0,0,0,0,0,0,0,0,0,0,0
0,0,0,0,0,0,0,0,0,0,0,0,0,0,c,0
0,0,0,0,0,0,0,0,0,0,0,0,0,0,0,0
PAL 6

TIL 10
10000001
01000010
00111100
00011000
00011000
00011000
00011000
00011000

TIL a
11111111
11111111
11111111
11111111
11111111
11111111
11111111
11111111

TIL b
00000000
00000000
00000000
00001000
00010000
00010000
00001000
00010000
>
00000000
00000000
00000000
00100000
00010000
00010000
00100000
00010000

TIL c
00000000
00000000
00000000
00100000
00010000
00010000
00100000
00010000
>
00000000
00000000
00000000
00001000
00010000
00010000
00001000
00010000

TIL d
01000000
01000000
01000000
01000000
01000000
01000000
01000000
01000000

TIL e
00111111
01000000
01000000
01000000
01000000
01000000
01000000
01000000

TIL f
11111100
00000010
00000010
00000010
00000010
00000010
00000010
00000010

TIL g
00000010
00000010
00111010
00111010
00111010
00000010
00000010
00000010

TIL h
00000010
00000010
00000010
00000010
00101010
01010110
11111110
11111111

TIL i
01000000
01000000
01000000
01000000
01010101
01101010
01111111
11111111

TIL j
11111111
11111111
11111111
11111110
11111100
11111000
11110000
11100000
>
11111111
11111111
11111110
11111100
11111000
11110000
11100000
11000000

TIL k
00000000
00111100
11100000
00000000
00000110
00111110
00000000
00000000

TIL l
00000000
00000000
00000000
00000000
00000000
00000000
00000000
00000000

TIL m
11111111
10000000
10000000
11111111
00000001
00000001
00000001
11111111

TIL n
11111111
10000001
10000001
11111111
10000001
10000001
10000001
10000001

TIL o
11111111
11111111
00011000
00011000
00011000
00011000
00011000
00011000

TIL p
11111111
10000001
10000001
11111111
10000001
10000001
10000001
10000001

TIL q
11000001
11100001
10110001
10011001
10001101
10000111
10000011
10000001

TIL r
00000000
01000010
00000000
01000010
01000010
01000010
01111110
00000000

TIL s
10000001
10000001
10000001
10000001
11111111
10000001
10000001
10000001

TIL t
11111111
10000001
10000001
10000001
10000001
10000001
10000001
11111111

TIL u
10010010
10010010
10010010
10010010
10010010
10010010
10010010
11111110

TIL v
11111110
10000000
10000000
10000000
10000000
10000000
10000000
11111110

TIL w
11111111
10000001
10000001
10000001
10000001
10000001
10000001
11111111

TIL x
10000001
10000001
10000001
10000001
10000001
10000001
10000001
11111111

TIL y
10000000
10000000
10000000
10000000
10000000
10000000
10000000
11111110

TIL z
11111100
10000010
10000010
10000010
10000010
10000010
10000010
11111100

SPR 10
00000000
00000000
01010001
01110001
01110010
01111100
00111100
00100100
DLG SPR_t
POS h 9,5

SPR 11
00000000
00011000
00111100
00011000
01111110
01111110
00111100
00100100
>
00000000
00000000
00011000
00111100
00011000
01111110
01111110
00100100
DLG SPR_u
POS i 8,7

SPR 12
00000000
00000000
01010001
01110001
01110010
01111100
00111100
00100100
DLG SPR_v
POS j 12,13

SPR 13
00000000
11111111
10101011
11010101
10110101
11001011
11111111
00011000
DLG SPR_w
POS k 10,10

SPR 14
00000000
00000000
00111110
00100011
00110011
11111110
10011010
01110000
DLG SPR_x
POS l 11,10

SPR 15
00000000
00000000
00111110
00100011
00110011
11111110
10011010
01110000
>
00000000
00000000
00111110
00100011
00110011
11111110
10011010
01110000
DLG SPR_y
POS l 3,8

SPR 16
00000000
00011000
00111100
00011000
01111110
01111110
00111100
00100100
>
00000000
00000000
00011000
00111100
00011000
01111110
01111110
00100100
DLG SPR_z
POS l 8,8

SPR 17
00000000
11111111
10101011
11010101
10110101
11001011
11111111
00011000
DLG SPR_10
POS m 7,7

SPR 18
00000000
11111111
10000001
10000001
10100101
10000001
10000001
11111111
>
11111111
10000001
10000001
10100101
10000001
10000001
11111111
00000000
DLG SPR_11
POS n 2,8

SPR 19
00000000
11111111
10000001
10000001
10100101
10000001
10000001
11111111
>
11111111
10000001
10000001
10100101
10000001
10000001
11111111
00000000
DLG SPR_12
POS n 12,5

SPR A
00111100
00100100
00100100
01111100
10111100
00111100
00100100
00100100
>
00111100
00100100
00100100
10111100
01111100
00111100
00100100
00100100
POS 0 0,0

SPR a
00000000
00000000
01010001
01110001
01110010
01111100
00111100
00100100
DLG SPR_0
POS 1 12,11

SPR b
00000000
11111111
10101011
11010101
10110101
11001011
11111111
00011000
DLG SPR_1
POS 0 4,2

SPR c
00000000
11111111
10101011
11010101
10110101
11001011
11111111
00011000
DLG SPR_2
POS 0 10,6

SPR d
00000000
11111111
10101011
11010101
10110101
11001011
11111111
00011000
DLG SPR_3
POS 3 10,11

SPR e
00000000
00011000
00111100
00011000
01111110
01111110
00111100
00100100
>
00000000
00000000
00011000
00111100
00011000
01111110
01111110
00100100
DLG SPR_4
POS 4 9,1

SPR f
00111100
00100100
01100110
01111110
00100100
00100100
00100100
01100110
>
00000000
00111100
00100100
01100110
01111110
00100100
00100100
01100110
DLG SPR_5
POS 4 1,11

SPR g
00000000
00000000
00000000
00111100
01100110
01111110
00100100
00100100
>
00000000
00000000
00000000
00000000
00111100
01100110
01111110
00100100
DLG SPR_6
POS 4 2,11

SPR h
00000000
11111111
10101011
11010101
10110101
11001011
11111111
00011000
DLG SPR_7
POS 6 6,12

SPR i
00111100
01111110
01111110
01111110
00111100
00111100
00111100
00100100
>
00000000
00111100
01111110
01111110
01111110
00111100
00111100
00100100
DLG SPR_8
POS 7 11,10

SPR j
00000000
00011000
00111100
00011000
01111110
01111110
00111100
00100100
>
00000000
00000000
00011000
00111100
00011000
01111110
01111110
00100100
DLG SPR_9
POS 7 13,8

SPR k
00111100
00100100
01100110
01111110
00100100
00100100
00100100
01100110
>
00000000
00111100
00100100
01100110
01111110
00100100
00100100
01100110
DLG SPR_a
POS 7 2,4

SPR l
00000000
00000000
01010001
01110001
01110010
01111100
00111100
00100100
DLG SPR_b

SPR m
00000000
00000000
00000000
00111100
01100110
01111110
00100100
00100100
>
00000000
00000000
00000000
00000000
00111100
01100110
01111110
00100100
DLG SPR_c
POS 8 9,10

SPR n
00000000
11111111
10101011
11010101
10110101
11001011
11111111
00011000
DLG SPR_d
POS a 11,10

SPR o
00000000
01111110
01000010
01000010
01111110
00111100
00100100
00100100
>
00000000
00000000
01111110
01000010
01000010
01111110
00111100
00100100
DLG SPR_e
POS b 11,8

SPR p
00000000
01111110
01111110
01111110
01111110
00111100
00100100
00100100
>
00000000
00000000
01111110
01111110
01111110
01111110
00111100
00100100
DLG SPR_f
POS b 4,12

SPR q
00010000
00011000
00011000
00011000
00111100
00011000
00011000
00000000
>
00000000
00010000
00011000
00011000
00011000
00111100
00011000
00011000
DLG SPR_j
POS c 7,7

SPR r
00000000
01111110
01000010
01000010
01111110
00111100
00100100
00100100
>
00000000
00000000
01111110
01000010
01000010
01111110
00111100
00100100
DLG SPR_k
POS d 11,8

SPR s
00000000
01111110
01111110
01111110
01111110
00111100
00100100
00100100
>
00000000
00000000
01111110
01111110
01111110
01111110
00111100
00100100
DLG SPR_l
POS d 4,12

SPR t
00000000
00000000
01111110
01111110
01111110
01111110
00111100
01100100
>
00000000
01111110
01111110
01111110
01111110
00111100
00100100
00100100
DLG SPR_m
POS e 6,7

SPR u
00000000
00000000
00111110
00100011
00110011
11111110
10011010
01110000
DLG SPR_n
POS e 7,7

SPR v
00000000
11111111
10101011
11010101
10110101
11001011
11111111
00011000
DLG SPR_o
POS g 10,11

SPR w
00000000
00000000
01010001
01110001
01110010
01111100
00111100
00100100
DLG SPR_p
POS h 5,5

SPR x
00000000
00000000
01010001
01110001
01110010
01111100
00111100
00100100
DLG SPR_q
POS h 6,5

SPR y
00000000
00000000
01010001
01110001
01110010
01111100
00111100
00100100
DLG SPR_r
POS h 7,5

SPR z
00000000
00000000
01010001
01110001
01110010
01111100
00111100
00100100
DLG SPR_s
POS h 8,5

ITM 0
00000000
00000000
00000000
00111100
01100100
00100100
00011000
00000000
DLG ITM_0

DLG SPR_0
I am a character! I display dialogue!

DLG ITM_0
You got a cup of tea! Nice.

DLG SPR_1
This is a sign. Go to signs for information about the scene.

DLG SPR_2
This is another sign. Go to the bottom right corner to progress.

DLG SPR_3
I see you've noticed the door. Doors bring you to new scenes. Now that the tutorial's done, move onto the next page.

DLG SPR_4
A cool breeze reminds me of the good old days. Don't you agree? Then again, you can't really respond. Hm.

DLG SPR_5
I hate my life.

DLG SPR_6
I hate your life.

DLG SPR_7
Welcome to Pinkington.

DLG SPR_8
I've seen the strangest things. I want to die.

DLG SPR_9
That boy over there saw me kill someone.

DLG SPR_a
I hate my life.

DLG SPR_b
Do not trust these people. Meow. 

DLG SPR_c
I hate everyone, but you are my special, special, friend.

DLG SPR_d
Welcome to the Yellow Place.

DLG SPR_e
Whatchu want? 

DLG SPR_f
See my brother over there? I need him dead. In the next room there is a dagger. Kill my brother and I'll reward you greatly.

DLG SPR_g
You pick up the knife. Off to do your dirty deed, I see?

DLG SPR_h
Go and get this over with.

DLG SPR_i
NO!

DLG SPR_j
You pick up the dagger. Off to do your dirty deed, I see.

DLG SPR_k
NO!

DLG SPR_l
Go on and get this over with

DLG SPR_m
You have done well. Sell your soul to me, and become G-d.

DLG SPR_n
The corpse is still rotting.

DLG SPR_o
Welcome to the Blue Zone.

DLG SPR_p
meow satan

DLG SPR_q
meow satan

DLG SPR_r
meow satan

DLG SPR_s
meow satan

DLG SPR_t
meow satan

DLG SPR_u
The SatanCats are watching us. Take caution in your actions.

DLG SPR_v
I don't like Satan, but I want to act cool in front of the other cats. What should I do?

DLG SPR_w
Welcome to Greenland.

DLG SPR_x
A half eaten body lies on the floor.

DLG SPR_y
A half eaten body lies on the floor.

DLG SPR_z
I ate these people and married their souls. I'd do the same to you, but you're my son's special special friend.

DLG SPR_10
How could you?

DLG SPR_11
I just got killed, eaten, and married. What a day, am I right?

DLG SPR_12
I want a divorce

