
Space Mayhem

# BITSY VERSION 4.8

! ROOM_FORMAT 1

PAL 0
NAME Colors
0,0,0
49,60,97
255,255,255

ROOM 0
0,0,0,0,0,0,0,0,0,0,0,0,0,0,0,0
0,0,0,0,0,0,0,0,0,0,0,0,0,0,0,0
0,0,0,0,0,0,0,0,0,0,0,0,0,0,0,0
0,0,0,0,0,0,0,0,0,0,0,0,0,0,0,0
0,0,0,0,0,0,0,0,0,0,0,0,0,0,n,0
0,0,0,0,0,0,0,0,0,0,0,0,d,o,d,d
0,0,k,0,0,0,0,0,0,0,0,0,d,d,d,d
d,d,d,d,l,l,0,0,0,0,0,0,o,d,d,d
d,d,d,h,0,0,l,0,0,0,l,l,d,d,o,d
d,d,d,d,a,0,0,l,0,l,0,0,e,d,d,d
j,j,j,j,f,a,0,0,l,0,0,b,d,d,d,d
i,i,i,i,0,f,a,0,0,0,b,g,d,o,d,d
c,c,c,c,c,c,c,c,c,c,c,c,c,c,c,c
d,d,d,d,d,d,d,d,d,d,d,d,d,d,d,d
d,d,d,d,d,d,d,d,d,d,d,d,d,d,d,d
d,d,d,d,d,d,d,d,d,d,d,d,d,d,d,d
NAME Space
ITM 1 7,11
EXT 12,9 1 2,13
EXT 14,4 1 4,1
EXT 15,3 2 1,14
PAL 0

ROOM 1
d,d,d,d,m,d,d,d,d,d,d,d,d,d,d,d
d,d,d,d,m,d,d,d,d,d,d,d,d,d,d,d
d,d,0,l,m,l,0,0,0,0,0,0,0,0,d,d
d,d,0,l,m,l,0,0,0,0,0,0,0,0,d,d
d,d,0,l,m,l,0,0,0,0,0,0,0,0,d,d
d,d,l,l,m,l,l,l,l,l,0,0,0,0,d,d
o,d,0,0,m,0,0,n,0,0,q,0,0,0,d,d
d,d,p,p,p,p,p,m,p,p,r,0,0,0,d,d
d,d,0,0,0,0,l,m,l,0,0,0,0,0,d,d
d,o,0,0,0,0,l,m,l,0,0,0,0,0,d,d
d,d,0,0,0,0,l,m,l,0,0,0,0,0,d,d
d,d,0,0,0,0,l,m,l,0,0,0,0,0,d,d
o,d,l,l,l,l,l,m,l,0,0,0,0,0,d,d
d,e,0,0,0,0,0,m,0,0,0,0,0,0,h,d
d,d,d,d,d,d,d,d,d,o,d,d,d,d,d,d
d,d,d,d,o,d,d,d,d,d,d,d,d,d,d,d
NAME Room
ITM 0 7,13
EXT 1,13 0 11,9
EXT 4,0 0 15,4
PAL 0

ROOM 2
0,0,0,0,0,0,0,0,0,0,0,0,0,0,0,0
0,0,0,0,0,0,0,0,0,0,0,0,0,0,0,0
0,0,0,0,0,0,0,0,0,0,0,0,0,0,0,0
0,0,0,0,0,0,0,0,0,0,0,0,0,0,0,0
0,0,0,0,0,0,0,0,0,0,0,0,0,0,0,0
0,0,0,0,0,0,0,0,0,0,0,0,0,0,0,0
0,0,0,0,0,0,0,0,0,0,0,0,0,0,0,0
0,0,0,0,0,0,0,0,0,0,0,0,0,0,0,0
0,0,0,0,0,0,0,0,0,0,0,0,0,0,0,0
0,0,0,0,0,0,0,0,0,0,0,0,0,0,0,0
0,0,0,0,0,0,0,0,0,0,0,0,0,0,0,0
0,0,0,0,0,0,0,0,0,0,0,0,0,0,0,0
0,0,0,0,0,0,0,0,0,0,0,0,0,0,0,0
0,l,l,l,l,l,l,l,l,0,0,0,0,0,0,0
0,0,0,0,0,0,s,0,0,0,n,0,0,0,0,0
d,d,d,d,d,d,d,d,d,d,d,d,d,d,d,d
NAME MoreSpace
ITM 2 9,14
ITM 3 6,14
EXT 0,14 0 15,4
END 0 9,14
PAL 0

TIL a
11000000
11000000
01110000
00110000
00011100
00001100
00000111
00000011
NAME StairLeft
WAL true

TIL b
00000011
00000011
00001110
00001100
00111000
00110000
11100000
11000000
NAME StairRight
WAL true

TIL c
00000000
11101110
11111111
11111111
11111111
11111111
11111111
11111111
NAME Ground
WAL true

TIL d
11111111
11111111
11111111
11111111
11111111
11111111
11111111
11111111
NAME Fill
WAL true

TIL e
11111111
10000001
10000001
10111101
10011001
10000001
10000001
11111111
NAME Door

TIL f
00000001
00000000
00000000
00000000
00000000
00000000
00000000
00000000
NAME StairBottomLeft

TIL g
10000000
00000000
00000000
00000000
00000000
00000000
00000000
00000000
NAME StairBottomRight

TIL h
11111111
10000001
10000001
10100101
10011001
10000001
10000001
11111111
NAME DoorLocked
WAL true

TIL i
00011000
00011000
00011000
00011000
00011000
00011000
00011000
00111100
NAME ShipBaseStand

TIL j
11111111
00011000
00011000
00011000
00011000
00011000
00011000
00011000
NAME ShipBase
WAL false

TIL k
00000000
01100000
01110000
01111000
01111000
01111100
01111100
11111110
NAME ShipFin
WAL false

TIL l
00000000
00000000
00000000
00000000
00000000
00000000
00000000
00000000
NAME Barrier
WAL true

TIL m
01111110
01000010
01111110
01000010
01111110
01000010
01111110
01000010
NAME Ladder

TIL n
00000000
00000000
00000000
00000000
00000011
00001100
00110000
11000000
NAME Hatch

TIL o
11100111
11001111
10000001
00100001
01100001
11000001
11000011
11100111
NAME Ruined
WAL true

TIL p
11111111
00000000
00000000
00000000
00000000
00000000
00000000
00000000
NAME Plank
WAL true

TIL q
00000000
00000000
00000000
00000000
11100000
01000000
01000000
01000000
NAME FenceTop
WAL true

TIL r
11100000
00000000
00000000
00000000
00000000
00000000
00000000
00000000
NAME FenceBottom
WAL true

TIL s
00000100
00001100
00011100
00111100
01111100
11111000
00011000
11111111
NAME Antenna

SPR A
00000000
00111100
01000010
01010111
11010110
01000010
01111100
00100100
>
00000000
00111100
01000010
01010110
11010111
01000010
01111100
00100100
POS 0 4,8

SPR a
00000000
00100100
00111100
01000010
01101010
11000011
01000010
00110100
NAME Slimry
DLG SPR_0
POS 1 8,13

ITM 0
00000000
00000000
00000000
00000000
00000000
00000000
01110000
01110000
NAME AirTank
DLG ITM_0

ITM 1
00000000
00000000
00000000
00000000
00000000
00000000
00000000
00000000
NAME Comunnicate
DLG ITM_1

ITM 2
00000000
00000000
00000111
01110010
10111010
11111100
11111000
01110000
NAME SpaceWhale

ITM 3
00000000
00001000
00001000
00101100
01001100
11111000
00010000
11110111
NAME BrokenAntenna
DLG ITM_3

DLG SPR_0
"""
*fzzt* Slimin here. Dead Slimry was found also. *fzzt*
Slimry: What do you mean?

*fzzt* Slimin here. Slimry is actually alive. *fzzt*
Slimry: Now, could you please hand me my air tank? Thanks.
"""

DLG ITM_0
*fzzt* Slimin here. Air tank was found. *fzzt*

DLG ITM_1
*fzzt* Slimin here. Alpha Base is in ruins. Checking out Alpha Base. *fzzt*

DLG ITM_3
*fzzt* Slimin here. Antenna was broken, fixing it right now. *fzzt*

END 0
*fzzt* Slimin here. Whale just came out of nowhere. And it's not an ordinary whale. It's a space whale. *fzzt*

VAR a
42


