
You knock on the door, but it's already open.

# BITSY VERSION 4.3

! ROOM_FORMAT 1

PAL 0
183,158,204
247,210,246
255,242,255

ROOM 0
h,g,g,g,g,g,g,g,g,f,h,g,g,g,g,f
a,0,0,0,0,0,0,0,0,e,a,0,0,0,0,e
a,0,0,0,0,0,0,0,0,e,a,0,0,0,0,e
a,0,0,0,0,0,0,0,0,e,a,0,0,0,0,e
a,0,0,0,0,0,0,0,0,e,a,0,0,0,0,e
a,0,0,0,j,b,b,b,b,d,c,b,b,0,0,e
a,0,0,0,e,h,g,g,g,g,g,g,g,0,0,e
a,0,0,0,e,a,0,0,0,0,0,0,0,0,0,e
a,0,0,0,e,a,0,0,0,0,0,0,0,0,0,e
a,0,0,0,e,a,0,0,0,0,0,0,0,0,0,e
a,0,0,0,e,c,b,b,b,b,b,b,b,0,0,e
a,0,0,0,e,h,g,g,g,g,g,g,g,0,0,e
a,0,0,0,e,a,0,0,0,0,0,0,0,0,0,e
a,0,0,0,0,0,0,0,0,0,0,0,0,0,0,e
a,0,0,0,e,a,0,0,0,0,0,0,0,0,0,e
c,b,b,b,d,c,b,b,b,b,b,b,b,b,b,d
WAL a,b,c,d,e,f,h,g
ITM 2 6,8
ITM 0 14,1
ITM 1 1,1
ITM 2 1,14
ITM 3 14,14
ITM 4 8,1
ITM 5 8,4
ITM 6 11,1
ITM 7 11,4
ITM 8 6,14
ITM 9 6,12
ITM a 1,4
ITM c 12,12
ITM d 5,1
ITM e 3,14
ITM b 1,8
END 0 8,1
PAL 0

TIL a
11000000
11000000
11000000
11000000
11000000
11000000
11000000
11000000

TIL b
00000000
00000000
00000000
00000000
00000000
00000000
11111111
11111111

TIL c
11000000
11000000
11000000
11000000
11000000
11000000
11111111
11111111

TIL d
00000011
00000011
00000011
00000011
00000011
00000011
11111111
11111111

TIL e
00000011
00000011
00000011
00000011
00000011
00000011
00000011
00000011

TIL f
11111111
11111111
00000011
00000011
00000011
00000011
00000011
00000011

TIL g
11111111
11111111
00000000
00000000
00000000
00000000
00000000
00000000

TIL h
11111111
11111111
11000000
11000000
11000000
11000000
11000000
11000000

TIL i
00000011
00000011
00000000
00000000
00000000
00000000
00000000
00000000

TIL j
00000000
00000000
00000000
00000000
00000000
00000000
00000011
00000011

SPR A
00000000
00011000
00101100
00011110
00011110
00011110
00010100
00010100
POS 0 14,8

SPR a
00000000
00000000
00000000
11111111
11111111
10000001
10000001
10000001
DLG SPR_0
POS 0 6,8

ITM 0
00000000
00000000
11100000
10111110
11100100
00000000
00000000
00000000
NAME key
DLG ITM_0

ITM 1
00000000
00000000
00000000
00000000
00000000
00000000
00001110
00001100
DLG ITM_1

ITM 2
00000000
00000000
01000000
01000000
01000000
01000000
01000000
01110000
NAME hockey stick
DLG ITM_2

ITM 3
00000000
00000000
00000000
00010000
00101000
00111000
00000000
00000000
NAME ring
DLG ITM_3

ITM 4
00000000
00101000
00111000
00010000
01111100
00111000
00101000
00000000
NAME teddy
DLG ITM_4

ITM 5
00000000
00000000
00010000
00111000
00011000
00111000
00010000
00000000
NAME puzzle piece
DLG ITM_5

ITM 6
00001000
00011100
00111110
00001000
00001000
00101000
00111000
00000000
NAME umbrella
DLG ITM_6

ITM 7
00001000
00001000
00001000
00001000
00111100
00101000
00111000
00000000
NAME sword
DLG ITM_7

ITM 8
00000000
00000000
00000000
00110110
00110110
01110111
00110110
00000000
NAME mittens
DLG ITM_8

ITM 9
00000000
00000000
00000000
00000000
00011000
01111110
01111110
01111110
NAME briefcase
DLG ITM_9

ITM a
00000000
00000000
00000000
00000000
00011110
01111100
01011100
01111100
NAME jug
DLG ITM_a

ITM b
00000000
01111110
01000010
01000010
01000010
01000010
01111110
00000000
NAME frame
DLG ITM_b

ITM c
00000000
00111100
00011000
00011000
00111100
01111110
11111111
11111111
NAME dress
DLG ITM_c

ITM d
00000000
00000000
00010000
00111000
00010000
00010000
00111000
00111000
NAME flower
DLG ITM_d

ITM e
00000000
00111000
01111100
01101100
01111100
00111000
00000000
00000000
DLG ITM_e

DLG ITM_0
The key is shiny.

DLG SPR_0
"""
A note on the table reads, "Take only what you need. Leave everything else."{
  - {item "0"} == 1 ?

  - else ?

}{sequence
  - 
  - 
}{sequence
  - 
  - 
}
"""

DLG ITM_1
The tea is hot.

DLG ITM_2
The hockey stick is for lefties.

DLG ITM_3
The ring doesn't fit.

DLG ITM_4
This teddy bear has been well-loved.

DLG ITM_5
This puzzle piece is lost.

DLG ITM_6
It's bad luck to open an umbrella inside.

DLG ITM_7
You don't know how to fence.

DLG ITM_8
It's a matching pair of mittens.

DLG ITM_9
The briefcase is locked.

DLG ITM_a
The milk in the jug has curdled.

DLG ITM_b
There's no painting in this frame.

DLG ITM_c
It's a wedding dress. 

DLG ITM_d
The flowers need water.

DLG ITM_e
You don't have a record player.

END 0
Sorry, that doesn't belong to you. You have to leave now.


