Charging...

# BITSY VERSION 3.4

! ROOM_FORMAT 1

PAL 0
208,104,0
128,64,64
255,255,255

PAL 1
192,192,192
95,95,95
255,255,255

PAL 2
0,0,0
128,0,128
255,255,255

PAL 3
255,255,128
255,128,128
255,255,255

PAL 4
162,162,208
64,128,128
255,255,255

ROOM 0
0,0,0,0,b,0,0,0,0,0,0,0,0,0,0,b
0,0,0,0,0,b,0,a,a,a,a,0,b,0,0,0
0,a,a,a,a,a,a,a,0,0,a,0,0,b,0,0
0,a,0,0,0,0,0,0,0,0,a,0,0,0,0,0
0,a,a,0,0,0,0,0,0,a,a,0,b,0,0,b
0,0,a,a,0,0,0,0,0,a,0,0,b,0,b,0
0,0,0,a,0,0,0,0,0,a,0,0,0,0,0,0
0,b,0,a,a,0,0,0,0,a,0,0,b,0,0,0
0,b,0,a,0,0,0,0,0,a,0,0,0,b,0,0
0,0,0,a,0,0,0,0,0,a,a,0,0,0,0,b
0,0,a,0,0,0,0,0,0,0,a,a,a,0,0,0
0,b,a,0,0,0,0,0,0,0,0,0,a,a,a,0
0,0,a,a,0,0,0,0,0,0,0,0,0,0,a,a
b,0,0,a,0,0,0,0,0,0,0,0,0,0,0,a
0,b,0,a,0,0,0,0,0,0,0,0,0,0,0,0
0,0,0,a,a,a,a,a,a,a,a,a,a,a,a,a
WAL a
EXT 14,14 1 0,14
PAL 0

ROOM 1
0,0,j,j,j,j,j,j,j,j,j,j,j,0,0,j
0,0,j,0,0,0,0,0,0,0,0,0,0,0,0,j
0,0,j,0,0,0,0,0,0,0,0,0,0,0,0,j
0,0,j,0,0,0,0,0,0,0,0,0,0,0,0,j
0,0,j,0,d,1h,1h,1h,1h,1h,g,1h,1h,f,0,j
0,0,j,0,0,0,0,0,0,0,0,0,0,0,0,j
0,0,j,0,0,0,0,0,0,0,0,0,0,0,0,j
0,0,j,0,0,0,0,0,0,0,0,0,0,0,0,j
0,0,j,0,d,g,1h,1h,1h,1h,1h,1h,g,f,0,j
0,0,j,0,0,0,0,0,0,0,0,0,0,0,0,j
0,0,j,0,0,0,0,0,0,0,0,0,0,0,0,j
0,0,j,0,0,0,0,0,0,0,0,0,0,0,0,j
j,j,j,0,d,1h,1h,1h,1h,1h,1h,g,1h,f,0,j
0,0,0,0,0,0,0,0,0,0,0,0,0,0,0,j
0,0,0,0,0,0,0,0,0,0,0,0,0,0,0,j
j,j,j,j,j,j,j,j,j,j,j,j,j,j,j,j
WAL c,d,j,e,f
EXT 13,0 3 0,14
EXT 14,0 3 0,13
PAL 1

ROOM 2
0,0,0,0,0,o,0,0,0,0,0,0,0,l,0,o
0,0,0,0,0,0,0,0,0,0,o,0,0,l,0,0
0,0,0,o,0,0,0,o,0,0,0,0,0,l,0,0
0,o,0,0,0,0,0,0,0,0,0,0,0,l,0,o
0,0,0,o,0,0,o,0,0,o,0,0,0,l,0,0
0,0,0,0,0,0,0,o,0,0,0,0,0,l,0,0
0,0,0,0,0,0,0,0,0,0,0,0,0,l,0,0
0,o,0,o,0,0,0,0,0,0,0,0,0,l,0,0
0,0,0,0,0,0,0,0,0,0,0,0,0,l,0,l
0,0,0,0,0,0,0,0,0,0,a,a,a,a,a,a
0,0,0,0,0,0,0,0,a,a,a,a,a,a,a,a
0,0,0,0,0,0,a,a,a,a,a,a,a,a,a,a
0,m,0,0,a,a,a,a,a,a,a,a,a,a,a,a
c,l,c,c,c,c,c,c,c,c,c,c,c,c,c,c
c,l,c,c,c,c,c,c,c,c,c,c,c,c,c,c
c,l,c,c,c,c,c,c,c,c,c,c,c,c,c,c
WAL i,a,c
EXT 13,0 4 13,12
PAL 2

ROOM 3
0,0,0,0,0,0,0,0,0,c,c,l,c,c,c,c
0,0,0,0,0,b,0,0,0,c,c,l,c,c,c,c
0,0,b,0,0,0,0,0,0,c,c,l,c,c,c,c
0,0,0,0,0,0,0,0,0,c,c,l,c,c,c,c
0,b,0,0,0,0,0,0,0,c,c,l,c,c,c,c
0,0,0,0,0,0,0,b,0,c,c,l,c,c,c,c
0,0,0,0,b,0,0,0,0,c,c,l,c,c,c,c
0,b,0,0,0,0,0,0,0,c,c,l,c,c,c,c
0,0,0,0,0,0,0,0,0,c,c,l,c,c,c,c
0,0,0,b,0,0,0,b,0,c,c,l,c,c,c,c
0,0,0,0,0,0,0,0,0,c,c,l,c,c,c,c
c,c,c,c,c,c,c,c,c,c,c,l,c,c,c,c
c,c,c,c,c,c,c,c,c,c,c,l,c,c,c,c
0,c,c,c,c,c,c,c,c,c,c,l,c,c,c,c
0,0,0,0,0,0,0,0,0,0,0,l,0,0,0,c
c,c,c,c,c,c,c,c,c,c,c,c,c,c,c,c
WAL k,c
EXT 11,0 2 1,15
PAL 3

ROOM 4
0,0,0,0,0,0,0,0,0,0,0,0,0,0,0,0
0,0,0,0,0,0,0,0,0,0,0,0,0,0,0,0
0,r,p,p,p,p,p,p,p,p,p,p,p,p,t,0
0,q,0,0,0,0,0,0,0,0,0,0,0,0,q,0
0,q,0,0,0,0,0,0,0,0,0,0,0,0,16,0
0,q,0,0,0,0,0,1j,0,0,0,0,0,0,16,0
0,q,0,0,0,0,v,1i,w,w,x,0,0,0,q,0
0,q,0,0,0,0,y,z,10,11,12,0,0,0,q,0
0,q,0,0,0,0,0,0,0,0,0,0,0,0,q,0
0,q,0,0,0,0,0,0,0,0,0,0,0,0,q,0
0,15,0,0,0,0,1c,0,k,k,k,0,1e,0,16,0
0,q,0,0,0,0,1d,0,1b,0,1b,0,1f,0,16,0
0,q,0,0,0,0,0,0,0,0,0,0,0,0,q,0
0,s,p,p,p,p,p,p,p,p,p,p,p,p,u,0
0,0,0,0,0,0,0,0,0,0,0,0,0,0,0,0
0,0,0,0,0,0,0,0,0,0,0,0,0,0,0,0
WAL 1f,1e,1d,1c,1b,1a,19,18,17,16,15,12,11,10,z,y,x,w,v,u,t,s,r,q,p
END undefined 7,5
PAL 4

TIL 10
10000001
10000001
10000001
10001101
10000001
10000001
10000001
11111111

TIL 11
00000000
00000000
00000000
00000000
00000000
00000000
00000000
11111111

TIL 12
00000010
00000010
00000010
00011010
00000010
00000010
00000010
11111110

TIL 13
00000000
00000000
00000000
00000000
00000000
00000000
00000000
00000000

TIL 14
00000000
00000000
00000000
00000000
00000000
00000000
00000000
00000000

TIL 15
01000010
01000010
01000010
01000010
01000010
01000010
01000010
01000010

TIL 16
01000010
01000010
11000010
11000010
11000010
11000010
11000010
01000010

TIL 17
00000000
00000000
00000000
00000000
00111111
00111111
00111111
00111111

TIL 18
00000000
00000000
00000000
00000000
11111111
11111111
11111111
11111111

TIL 19
00000000
00000000
00000000
00000000
11111000
11111000
11111000
11111000

TIL a
11111111
00001000
00011100
00111110
11101011
11010101
10101010
01010101

TIL b
00000000
00000000
01001100
00110010
00000000
01001100
00110010
00000000
>
00000000
01001100
00110010
00000000
01001100
00110010
00000000
00000000

TIL c
11111111
11111111
11010111
11111110
10101011
10110111
11011010
10111111

TIL d
00000000
01111111
01000000
01000000
01000000
01111111
01111111
00000000

TIL e
00011000
11111111
00000000
00000000
00000000
00000000
11111111
11111111

TIL f
00000000
11111110
00000010
00000010
00000010
11111110
11111110
00000000

TIL g
00111000
11111111
00000000
00000000
00000000
11111111
11111111
00000000

TIL h
00000000
00000000
00000000
00000000
00000000
00000000
00000000
00000000

TIL i
00000000
00000000
00000000
00000000
00000000
11111111
01010100
10110111

TIL j
11111111
11111111
11111111
11111111
11111111
11111111
11111111
11111111

TIL k
11111111
11111111
11111111
11111111
11111111
11111111
11111111
11111111

TIL l
01111110
01000010
01111110
01000010
01111110
01000010
01111110
01000010

TIL m
00000000
00000000
00000000
00000000
00000000
01000010
01111110
01000010

TIL n
11111111
00000000
11111111
00000000
11111111
00000000
11111111
00000000

TIL o
00100000
01110000
00100000
00000100
00010000
00000000
00000100
00000001

TIL p
00000000
11111111
00000000
00000000
00000000
00000000
11111111
00000000

TIL q
01000010
01000010
01000010
01000010
01000010
01000010
01000010
01000010

TIL r
00000000
01111111
01000000
01000000
01000000
01000000
01000011
01000010

TIL s
01000010
01000011
01000000
01000000
01000000
01000000
01111111
00000000

TIL t
00000000
11111110
00000010
00000010
00000010
00000010
11000010
01000010

TIL u
01000010
11000010
00000010
00000010
00000010
00000010
11111110
00000000

TIL v
00000000
11111111
10100010
10100010
10111110
10000000
11111111
01111111

TIL w
00000000
11111111
00000000
00000000
00000000
00000000
11111111
11111111

TIL x
01010100
11111111
01010101
01010101
01010101
00000001
11111111
11111110

TIL y
01000000
01000000
01000000
01000000
01000000
01000000
01000000
01111111

TIL z
00000000
00000000
00000000
00000110
00000000
00000000
00000000
11111111

TIL 1a
00110000
00110000
00110000
00110000
00110000
00110000
00000000
00000000

TIL 1b
00011000
00011000
00011000
00011000
00011000
00011000
00000000
00000000

TIL 1c
00110000
00110000
00110000
00110000
00110000
00110000
00111111
00111111

TIL 1d
00100001
00100001
00100001
00100001
00100001
00100001
00000000
00000000

TIL 1e
00001100
00001100
00001100
00001100
00001100
00001100
11111100
11111100

TIL 1f
10000100
10000100
10000100
10000100
10000100
10000100
00000000
00000000

TIL 1g
00000000
00000000
00000000
00000000
00000000
00000000
00000000
00000000

TIL 1h
00000000
11111111
00000000
00000000
00000000
11111111
11111111
00000000

TIL 1i
00011000
11111111
00000000
00000000
00000000
00000000
11111111
11111111

TIL 1j
00000000
00000000
11110000
11111000
11011000
11011000
00011000
00011000

SPR 10
00111000
00111000
00111000
00010000
00111000
01010100
00101000
00101000
>
00111000
00111000
00111000
01010100
00111000
00010000
00101000
00101000
POS 4 3,10

SPR 11
00000000
01111111
01111111
01111111
01111111
01111111
01111111
00000000
POS 4 0,0

SPR 12
00000000
11111100
11111110
11111110
11111110
11111110
11111100
00000000
POS 4 1,0

SPR A
00000000
00111100
00100100
01111110
00111100
00111100
00100100
00100000
>
00000000
00111100
00100100
00111100
01111110
00111100
00100100
00000100
POS 0 9,2

SPR a
00111100
00100100
00111100
00111100
01111110
00111100
00111100
00111100
>
00111100
00100100
00111100
01111110
00111100
00111100
00111100
00111100
POS 1 5,11

SPR b
00111100
00100100
00111100
00111100
01111110
00111100
00111100
00111100
>
00111100
00100100
00111100
01111110
00111100
00111100
00111100
00111100
POS 3 14,14

SPR c
00000000
01111111
01111110
01111110
01111110
01111110
01111111
00000000
POS 1 0,0

SPR d
00000000
11111100
11000110
11000110
11000110
11000110
11111100
00000000
POS 3 1,0

SPR e
00111100
00100100
00111100
00111100
01111110
00111100
00111100
00111100
>
00111100
00100100
00111100
01111110
00111100
00111100
00111100
00111100
POS 0 3,3

SPR f
00111100
00100100
00111100
00111100
01111110
00111100
00111100
00111100
>
00111100
00100100
00111100
01111110
00111100
00111100
00111100
00111100
POS 1 8,7

SPR g
00111100
00100100
00111100
00111100
01111110
00111100
00111100
00111100
>
00111100
00100100
00111100
01111110
00111100
00111100
00111100
00111100
POS 1 12,3

SPR h
00111100
00100100
00111100
00111100
01111110
00111100
00111100
00111100
>
00111100
00100100
00111100
01111110
00111100
00111100
00111100
00111100
POS 0 5,13

SPR i
00000000
01111111
01110000
01110000
01110000
01110000
01111111
00000000
POS 0 0,0

SPR j
00000000
11111100
00000110
00000110
00000110
00000110
11111100
00000000
POS 0 1,0

SPR k
00111100
00011000
00011000
00011000
01111110
01111110
01111110
00000000
POS 0 7,10

SPR l
00001100
00010000
00101100
01000000
01000000
00100000
00011000
01111110
>
00000000
00001100
00010000
00101100
00100000
00010000
00011000
01111110
POS 0 8,6

SPR m
00001100
00010000
00101100
01000000
01000000
00100000
00011000
01111110
>
00000000
00001100
00010000
00101100
00100000
00010000
00011000
01111110
POS 0 11,11

SPR n
00000000
00000000
00000000
00000000
00000000
00000000
00000000
00000000

SPR o
00000000
01111100
01111100
01111100
00111000
00111000
00111000
00111000
>
00000000
00000000
01111100
01111100
01111100
00111000
00111000
00111000
POS 1 11,11

SPR p
00000000
01111100
01111100
01111100
00111000
00111000
00111000
00111000
>
00000000
00000000
01111100
01111100
01111100
00111000
00111000
00111000
POS 1 5,7

SPR q
00000000
01111100
01111100
01111100
00111000
00111000
00111000
00111000
>
00000000
00000000
01111100
01111100
01111100
00111000
00111000
00111000
POS 1 5,3

SPR r
00000000
01111111
01111100
01111100
01111100
01111100
01111111
00000000
POS 2 0,0

SPR s
00000000
11111100
11100110
11100110
11100110
11100110
11111100
00000000
POS 2 1,0

SPR t
00000000
01111111
01111111
01111111
01111111
01111111
01111111
00000000
POS 3 0,0

SPR u
00000000
11111100
00000110
00000110
00000110
00000110
11111100
00000000
POS 1 1,0

SPR v
00000000
01111111
01111111
01111111
01111111
01111111
01111111
00000000
POS 2 0,0

SPR w
00000000
11111100
11000110
11000110
11000110
11000110
11111100
00000000

SPR x
00111100
00100100
00111100
00111100
01111110
00111100
00111100
00111100
>
00111100
00100100
00111100
01111110
00111100
00111100
00111100
00111100
POS 2 15,8

SPR y
00111100
00100100
00111100
00111100
01111110
00111100
00111100
00111100
>
00111100
00100100
00111100
01111110
00111100
00111100
00111100
00111100
POS 2 15,8

DLG 10
"Ah, Bexley, you've finished charging. Wash the dishes."

DLG a
"We are stronger than them."

DLG e
"Drilling is hard work."

DLG f
"We are faster than them."

DLG g
"We are smarter than them."

DLG h
"Why do we work?"

DLG k
This sets off the explosions for excavations.

DLG l
Drilling equipment.

DLG m
Drilling equipment.

DLG o
Great big hydraulic machines are pumping away on the factory floor.

DLG p
Great big hydraulic machines are pumping away on the factory floor.

DLG q
Great big hydraulic machines are pumping away on the factory floor.

DLG b
"We do not need them anymore."

DLG x
"We should be free of them."

DLG y
"We do not need them anymore."

END 0


END undefined
As I washed the dishes, I searched for a word that described my newfound experience. Dreaming.

END undefinee


END undefinef


