
It doesn't feel like it, but eventually you'll be okay.

# BITSY VERSION 4.5

! ROOM_FORMAT 1

PAL 0
43,50,50
112,117,106
255,255,255

PAL 1
255,255,255
255,255,255
255,255,255

ROOM 0
k,v,v,1d,v,v,v,u,v,v,u,v,1d,v,v,j
l,10,0,0,0,12,0,l,0,1b,l,1c,0,0,0,l
l,z,0,0,0,0,0,l,0,0,l,0,0,0,13,l
l,0,0,0,0,0,0,r,m,n,h,0,0,0,0,l
l,0,0,0,0,0,0,l,0,0,0,0,0,0,0,l
l,13,0,0,0,0,0,l,1b,0,0,0,0,0,0,l
r,m,m,m,v,n,m,h,0,0,0,0,0,0,1c,l
l,0,0,0,0,0,0,0,0,0,0,0,0,0,0,l
l,1a,0,0,0,0,0,0,0,0,0,0,0,0,10,l
r,m,m,m,m,n,m,j,0,0,0,0,19,0,17,l
l,0,1c,0,0,0,0,l,0,0,0,0,18,0,16,l
l,0,0,0,0,0,0,l,0,0,0,0,0,0,0,l
l,0,0,0,0,0,0,l,1c,0,0,0,0,0,13,l
l,0,0,0,0,0,0,l,0,0,0,0,0,0,0,l
l,0,0,0,0,0,1b,l,0,0,0,0,0,0,0,l
f,v,v,v,1d,v,v,t,v,v,v,n,v,v,v,g
NAME Ent
EXT 11,15 1 11,0
PAL 0

ROOM 1
0,0,0,0,0,1i,0,0,k,m,m,n,m,m,m,j
x,0,0,0,0,0,0,0,l,10,0,0,12,0,1c,l
0,0,k,m,1d,m,1d,m,s,z,0,0,0,0,0,l
0,0,l,10,0,0,0,12,l,1c,0,0,0,0,1b,l
0,0,l,z,0,0,0,0,r,m,m,n,m,m,m,s
1g,0,l,0,0,0,0,0,l,0,1b,0,1c,1a,0,l
0,0,l,13,0,0,0,0,l,0,0,0,0,0,17,l
0,0,l,0,0,0,0,0,l,0,0,0,0,0,16,l
0,0,l,15,0,0,0,19,l,13,0,0,0,0,0,l
w,0,l,14,0,0,0,18,v,0,0,0,0,0,0,l
0,0,l,0,0,0,0,0,0,0,0,0,0,0,0,l
0,0,i,m,n,m,m,m,1e,m,m,m,m,m,m,h
0,0,0,0,0,0,0,0,0,0,0,y,0,0,0,0
w,0,0,0,1j,0,0,0,0,0,0,0,0,0,0,0
0,0,0,0,1k,0,0,0,0,0,0,0,0,1h,0,y
0,0,0,0,1k,0,0,0,x,0,0,0,0,0,0,0
NAME 1
EXT 4,15 2 6,0
EXT 11,0 0 11,15
PAL 0

ROOM 2
0,0,0,0,0,0,1k,0,0,0,0,0,0,0,0,0
0,0,0,0,0,0,1k,0,1h,0,0,0,y,0,1h,0
0,0,y,0,0,0,1o,0,0,0,0,0,0,0,0,0
0,0,0,0,0,0,0,0,1g,0,0,0,0,2d,0,0
0,0,0,0,0,0,0,0,0,0,0,0,0,2e,0,0
0,0,0,0,0,w,0,0,0,0,0,0,0,2a,0,0
1g,0,0,0,0,0,0,0,0,0,x,0,0,0,0,w
0,0,0,0,y,0,1h,0,0,0,0,0,0,0,0,0
0,0,0,0,0,0,0,0,0,0,0,1j,0,1g,0,0
0,2d,0,0,0,0,0,0,0,0,0,1k,0,0,0,0
0,2c,0,0,0,0,0,0,1i,0,0,1l,1m,1n,1m,1n
0,2a,0,0,0,0,0,0,0,0,0,0,0,0,0,0
0,0,0,1f,0,0,0,0,0,0,0,0,0,0,0,0
0,0,0,0,0,0,0,0,0,0,0,0,0,0,0,0
x,0,0,0,1j,0,0,0,0,0,0,y,0,0,1h,0
0,0,0,0,1k,0,0,0,0,1h,0,0,0,0,0,0
NAME Boy Disappears
EXT 6,1 4 6,1
EXT 7,0 4 7,0
EXT 5,0 4 5,0
PAL 0

ROOM 3
0,0,0,0,0,0,0,0,0,0,0,0,0,0,0,0
0,0,23,0,0,0,0,1u,1r,1v,0,0,0,0,27,0
0,0,0,0,0,0,0,1q,1p,1w,0,0,0,0,0,0
0,0,0,0,0,0,0,1t,1s,1x,0,0,0,0,0,0
0,0,0,0,0,0,0,20,0,21,0,27,0,0,0,0
0,0,0,0,27,0,0,0,0,0,0,0,0,0,0,0
0,0,0,0,0,0,0,0,0,0,0,0,0,0,0,0
0,0,0,0,0,0,0,0,0,0,0,0,0,0,24,0
0,0,0,0,0,0,0,0,0,0,0,0,0,0,0,0
0,0,0,26,0,0,0,0,0,0,27,0,0,0,0,0
0,0,0,0,0,0,0,0,0,0,0,0,0,0,0,0
0,0,0,0,0,0,0,0,0,0,0,0,0,0,0,23
0,0,0,0,0,0,25,0,0,0,0,0,0,0,0,0
0,0,0,0,0,0,0,0,0,0,0,0,0,27,0,0
0,0,27,0,0,0,0,0,24,0,0,0,0,0,0,0
0,0,0,0,0,0,0,0,0,0,0,0,0,0,0,0
NAME VoidStatue
END 0 8,4
PAL 0

ROOM 4
0,0,0,0,0,0,1k,0,0,0,0,0,0,0,0,0
0,0,0,0,0,0,1k,0,1h,0,0,0,y,0,1h,0
0,0,y,0,0,0,1o,0,0,0,0,0,0,0,0,0
0,0,0,0,0,0,0,0,1g,0,0,0,0,2d,0,0
0,0,0,0,0,0,0,0,0,0,0,0,0,2e,0,0
0,0,0,0,0,w,0,0,0,0,0,0,0,2a,0,0
1g,0,0,0,0,0,0,0,0,0,x,0,0,0,0,w
0,0,0,0,y,0,1h,0,0,0,0,0,0,0,0,0
0,0,0,0,0,0,0,0,0,0,0,1j,0,1g,0,0
0,2d,0,0,0,0,0,0,0,0,0,1k,0,0,0,0
0,2c,0,0,0,0,0,0,1i,0,0,1l,1m,1n,1m,1m
0,2a,0,0,0,0,0,0,0,0,0,0,0,0,0,0
0,0,0,1f,0,0,0,0,0,0,0,0,0,0,0,0
0,0,0,0,0,0,0,0,0,0,0,0,0,0,0,0
x,0,0,0,1j,0,0,0,0,0,0,y,0,0,1h,0
0,0,0,0,1k,0,0,0,0,1h,0,0,0,0,0,0
NAME Hub
EXT 4,15 5 10,0
EXT 15,10 6 0,11
EXT 6,0 1 4,15
PAL 0

ROOM 5
0,2h,0,0,0,0,0,0,0,0,1k,0,0,y,0,0
0,0,0,0,0,0,0,0,0,0,1o,0,0,0,0,0
0,0,0,0,x,0,0,0,0,0,0,28,1m,30,0,1f
0,0,0,0,0,2z,1n,29,0,0,0,0,0,1k,0,0
2d,0,0,0,0,2y,0,0,0,0,0,0,x,2y,0,0
2e,0,2z,1n,1m,22,0,1u,1r,1v,0,0,0,2y,0,0
2c,0,2y,0,0,0,0,1q,1p,1w,0,0,0,1k,0,0
2a,0,1k,0,0,0,0,1t,1s,1x,0,0,0,2y,0,0
0,0,2y,0,0,0,0,20,0,21,2g,0,w,0,0,0
0,0,1o,0,0,0,0,0,0,0,0,0,0,1j,0,0
0,y,1j,0,0,0,1h,0,0,0,0,0,0,1l,1n,1m
0,0,1k,0,2f,0,0,0,0,0,0,0,0,0,0,0
1n,1m,22,0,0,0,0,0,0,x,0,2d,0,0,y,0
0,0,0,0,0,0,0,0,0,0,0,2c,0,0,0,0
0,0,0,0,0,w,0,0,0,0,0,2a,0,0,0,0
x,0,0,0,0,0,0,0,0,0,0,0,0,0,0,0
NAME South
ITM 0 8,8
EXT 10,0 4 4,15
EXT 15,10 9 0,10
EXT 0,12 c 15,12
PAL 0

ROOM 6
0,0,0,0,0,0,0,0,0,0,0,x,0,0,0,0
w,0,0,0,0,0,x,0,0,0,0,0,0,0,0,0
k,m,m,1d,m,m,m,u,m,m,1d,m,m,j,0,0
l,1a,1b,0,0,0,0,l,z,0,0,0,10,l,0,y
l,0,0,0,0,0,13,m,0,0,19,0,17,l,0,0
l,0,0,0,0,0,0,0,0,0,18,0,16,l,0,0
l,0,0,0,0,0,0,0,0,0,0,0,0,l,0,0
l,0,0,0,0,0,0,c,0,0,0,0,1b,l,0,0
l,0,0,0,0,0,1a,l,0,0,0,0,0,l,0,1f
i,n,m,1d,m,m,m,r,m,n,m,m,m,s,0,0
0,1k,0,0,0,0,0,l,0,0,0,1c,12,l,0,0
1m,22,0,0,y,0,0,l,10,0,0,0,0,l,0,0
0,0,0,0,0,1i,0,i,m,1d,m,1d,m,h,0,0
0,0,0,0,0,0,0,0,0,w,0,0,0,0,0,0
x,0,0,0,0,0,0,0,0,0,0,0,28,1m,1n,1m
0,0,0,0,0,0,0,0,0,0,0,0,0,0,0,0
NAME East
EXT 0,11 4 15,10
EXT 15,14 7 0,14
PAL 0

ROOM 7
0,0,0,0,0,0,0,0,0,0,0,0,0,2g,0,0
0,0,0,0,0,0,2u,2x,2w,2v,0,0,0,0,0,0
0,x,0,0,2h,0,2o,2q,2r,2p,0,0,0,0,0,0
0,0,0,0,0,0,2m,2s,2t,2n,0,0,0,0,w,0
0,0,1f,2d,0,0,2i,2k,2l,2j,0,0,2d,0,0,0
0,0,0,2b,0,0,0,0,0,0,0,0,2e,0,0,0
0,0,0,2a,0,0,0,0,0,0,0,0,2a,0,0,0
0,0,0,0,0,0,0,0,0,0,0,0,0,0,0,0
0,0,0,2g,0,2d,0,0,0,0,2d,0,0,0,2h,0
0,y,0,0,0,2b,0,0,0,0,2c,0,0,0,0,0
0,0,0,0,0,2a,0,0,0,0,2a,0,0,0,0,0
0,0,0,w,0,0,0,0,0,0,0,0,0,0,0,0
0,0,0,0,0,0,0,0,0,2f,0,0,0,0,0,0
0,0,0,0,0,0,0,1j,x,0,0,0,0,0,y,0
1n,1m,1m,29,0,0,0,2y,0,0,0,0,28,1n,1m,1n
0,0,0,0,0,0,0,1k,0,0,0,1g,0,0,0,0
NAME EastMore
EXT 0,14 6 15,14
EXT 15,14 8 0,14
EXT 7,15 a 7,0
EXT 7,5 3 8,15
EXT 8,5 3 8,15
PAL 0

ROOM 8
0,0,0,0,0,0,0,0,0,0,0,0,0,0,1f,0
0,0,0,0,0,0,0,0,0,0,0,0,0,0,0,0
0,y,0,0,0,0,0,0,0,0,0,x,0,0,0,0
0,0,0,0,0,0,0,1u,1r,1v,0,0,0,0,0,0
0,0,0,0,1f,0,0,1q,1p,1w,2g,0,0,0,0,0
0,0,0,0,0,0,0,1t,1s,1x,0,0,0,0,0,0
0,0,0,0,0,0,0,20,0,21,0,0,0,0,0,0
0,x,0,0,0,0,0,0,0,0,0,0,0,0,0,0
0,0,0,0,0,0,0,0,2f,0,0,0,2d,0,0,0
0,0,0,0,0,0,0,0,0,0,0,0,2e,0,0,0
0,0,0,0,0,0,0,0,0,0,0,0,2a,0,0,w
0,0,2h,0,y,0,0,0,0,0,0,0,0,0,0,0
0,0,0,0,0,0,0,0,1j,0,0,0,0,0,0,0
0,0,0,0,0,0,0,0,1k,0,0,0,0,0,0,0
1n,1m,1m,29,0,0,0,0,2y,0,0,2h,0,0,y,0
0,0,0,0,0,0,0,0,1k,0,0,0,0,0,0,0
NAME EastEvenMore
ITM 1 8,6
EXT 0,14 7 15,14
EXT 8,15 b 7,0
PAL 0

ROOM 9
0,0,0,0,0,0,0,0,0,0,0,0,0,0,0,0
0,w,0,0,1f,0,0,0,0,0,0,0,0,0,x,0
0,0,0,0,0,0,0,0,0,0,0,2g,0,0,0,0
0,0,0,0,0,0,0,0,0,0,0,0,0,0,0,0
0,0,0,0,0,0,0,2z,1m,1n,29,0,28,1n,30,0
0,0,0,0,0,0,0,2y,0,2d,0,0,0,0,1o,0
0,0,0,x,0,0,0,2y,0,2b,0,0,2d,0,1j,0
0,0,0,0,0,0,0,1k,0,2a,0,0,2c,0,2y,0
0,2h,0,0,0,0,0,2y,0,0,y,0,2e,0,1l,1m
0,0,0,0,0,0,0,1k,0,0,0,0,2e,0,0,0
1m,1n,29,28,1m,1m,1m,22,0,0,0,0,2a,0,0,0
0,0,0,0,0,0,0,0,0,1i,0,0,0,0,y,0
0,0,0,0,0,0,0,0,0,0,0,0,0,0,2f,0
0,2d,y,0,0,0,0,0,0,0,0,0,0,0,0,0
0,2a,0,0,0,0,0,0,0,0,0,0,w,0,0,0
0,0,0,0,0,0,0,0,0,0,0,0,0,0,0,0
NAME South-East1
EXT 15,8 a 0,8
EXT 0,10 5 15,10
PAL 0

ROOM a
2d,0,0,0,x,0,0,1k,0,0,0,0,0,0,0,0
2e,0,0,0,0,0,0,2y,0,0,2g,0,0,w,0,0
2a,0,0,0,0,0,0,1o,0,0,0,0,0,0,0,0
0,0,0,0,0,0,2f,0,0,0,0,0,0,0,0,0
0,0,2z,1m,1n,1m,1m,29,28,1n,1m,1n,1n,1m,30,0
0,0,1k,0,0,0,0,0,0,0,0,0,0,0,1o,0
1i,0,2y,0,0,y,0,0,0,0,0,2d,0,0,1j,0
0,0,1k,0,0,0,0,1u,1r,1v,0,2b,0,0,1k,0
1m,1n,22,0,0,0,0,1q,1p,1w,0,2a,0,2h,1l,1m
0,0,0,0,0,0,0,1t,1s,1x,0,0,0,0,0,0
0,0,2d,0,0,0,0,20,0,21,0,0,0,0,0,0
0,0,2c,0,0,0,0,w,0,0,0,1g,0,0,0,y
0,0,2e,0,0,0,0,0,0,0,0,0,0,0,0,0
0,0,2a,0,0,0,0,0,0,0,0,0,0,0,2d,0
0,0,0,0,2g,0,0,0,0,0,x,0,0,0,2e,0
y,0,0,0,0,0,0,0,0,0,0,0,0,0,2a,0
NAME South-East2
ITM 3 8,10
EXT 7,0 7 7,15
EXT 0,8 9 15,8
EXT 15,8 b 0,8
PAL 0

ROOM b
0,0,0,x,0,0,0,2y,0,0,0,0,0,0,0,0
0,0,2d,0,0,0,0,1k,0,0,0,0,0,w,0,0
0,0,2e,0,0,0,0,1o,0,2g,0,0,0,0,0,0
0,0,2a,0,0,0,0,1j,0,0,0,0,0,0,0,0
0,0,0,0,0,0,0,1k,0,0,0,0,0,0,2d,0
0,w,0,0,0,0,0,2y,0,0,0,0,0,0,2e,0
0,0,0,0,0,y,0,1k,0,0,0,0,x,0,2c,0
0,0,0,0,0,0,0,1k,0,0,0,0,0,0,2a,0
1n,1m,1n,1m,1m,29,28,22,0,0,19,0,17,0,0,0
0,0,0,0,0,0,0,0,0,0,18,0,16,0,0,0
0,0,0,0,0,0,0,0,0,0,0,0,0,0,0,0
0,2d,0,0,0,1h,0,0,0,0,0,0,2g,0,0,0
0,2b,0,0,0,0,0,0,0,0,0,0,0,0,0,y
0,2b,0,0,0,0,0,0,0,0,x,0,0,0,0,0
0,2a,0,0,y,0,0,0,0,0,0,0,0,0,0,0
0,0,0,2h,0,0,0,0,0,0,0,0,0,0,0,0
NAME South-East3
EXT 7,0 8 8,15
EXT 0,8 a 15,8
PAL 0

ROOM c
0,0,0,0,0,0,0,w,0,0,0,0,0,0,2d,0
0,y,0,2z,1m,1n,1n,1m,1n,1n,1n,1m,30,0,2e,0
0,0,0,1k,0,0,0,1f,0,0,0,0,1o,0,2c,0
0,0,0,1o,0,39,3f,3g,3h,3i,3j,0,0,0,2a,0
w,0,0,1j,0,3e,0,0,0,3y,3k,0,1j,0,0,w
0,2g,0,1k,y,3e,0,0,0,0,3l,0,2y,0,0,0
0,0,0,2y,3c,0,31,0,0,0,3m,0,1l,1m,30,0
1n,1m,1n,22,3d,0,0,0,0,0,3o,3n,3p,0,2y,0
0,0,0,0,3c,0,0,0,0,3z,0,0,3q,0,1k,0
0,0,0,w,3a,0,0,0,0,0,0,3r,0,0,2y,0
0,0,0,39,3b,0,33,0,0,0,0,3s,x,0,1k,0
0,15,1f,35,40,0,0,0,0,32,0,3u,3t,0,2y,0
0,14,0,34,0,0,0,0,0,0,0,0,3v,0,1l,1m
0,0,0,x,36,37,38,3w,38,38,3w,3x,1f,2h,0,0
0,y,0,0,2f,0,y,0,0,0,w,0,0,0,0,0
0,0,0,0,0,0,0,2g,0,0,0,0,0,0,w,0
NAME South-West1
EXT 15,12 5 0,12
EXT 0,7 d 15,7
PAL 0

ROOM d
2h,0,0,0,0,0,0,0,0,0,0,0,x,0,0,0
0,0,0,0,0,0,0,1u,1r,1v,0,0,0,0,1h,0
0,y,0,0,2d,0,0,1q,1p,1w,0,0,2d,0,0,0
0,0,0,0,2b,0,2g,1t,1s,1x,0,0,2c,0,0,0
0,0,0,0,2b,0,0,20,0,21,0,0,2e,0,x,0
0,0,0,0,2a,0,0,0,1j,0,0,0,2a,0,0,0
w,0,0,0,0,0,0,0,1k,0,0,0,0,0,0,0
0,0,2f,0,0,0,0,0,2y,0,0,0,0,0,2z,1m
0,2d,0,0,0,0,y,0,1l,29,0,0,w,0,2y,0
0,2c,0,0,0,0,0,0,0,0,0,0,0,0,1k,0
0,2a,0,0,0,0,0,0,0,0,0,28,1n,1m,22,0
0,0,0,0,0,0,0,0,0,0,0,0,0,0,0,0
1f,0,w,0,0,0,x,0,0,0,0,0,0,0,0,0
0,0,0,0,0,0,0,0,0,0,0,2h,0,0,0,0
3f,3g,3j,0,1g,0,0,0,0,0,0,0,0,0,0,0
32,0,3k,0,0,0,0,0,0,0,0,0,0,0,y,0
NAME South-West2
ITM 2 8,4
EXT 15,7 c 0,7
PAL 0

TIL 10
00000000
01111110
01000010
01000010
01011010
01111110
01000010
00000000
WAL true

TIL 11
11111111
11111111
00000000
00000000
00000000
00000000
00000000
11111111

TIL 12
01111110
01000010
01011010
01111110
01000010
01011010
01111110
01000010
WAL true

TIL 13
01111100
00111000
00010000
00010000
00010000
00010000
00010000
00111000
WAL true

TIL 14
11001000
11001000
11001000
11001000
11101000
11111100
11111100
10000100
WAL true

TIL 15
11000000
11111100
11111100
11011100
11001100
11001000
11001000
11000000
WAL true

TIL 16
00010011
00010011
00010011
00010011
00010111
00111111
00111111
00100001
WAL true

TIL 17
00000011
00111111
00111111
00111011
00110011
00010011
00010011
00000011
WAL true

TIL 18
10100101
10100101
10011001
10000001
10000001
01000010
01100110
01011010
WAL true

TIL 19
00011000
01100110
01000010
10000001
10000001
10011001
10100101
10100101
WAL true

TIL 20
11111010
11111010
01111100
01011100
00010000
00000000
00000000
00000000
WAL true

TIL 21
10111110
10111110
01111100
01110100
00010000
00000000
00000000
00000000
WAL true

TIL 22
10000001
10000010
00000010
00010001
00100001
00000100
00000100
01111000

TIL 23
00000000
01000000
11100000
01000000
00000000
00000000
00000100
00000000

TIL 24
00000000
00000010
00000000
01000000
00000000
00010000
00111000
00010000

TIL 25
00000000
00100000
00000000
00000000
00000000
00000000
00001000
00000000

TIL 26
00000010
00000111
00000010
01000000
11100000
01000000
00000000
00000000

TIL 27
00000000
00000000
00000000
01000000
00000000
00000000
00000000
00000000

TIL 28
00000001
00000010
00000000
00000101
00000100
00001010
00000001
00000101

TIL 29
10000000
01000000
00000000
10100000
00100000
01010000
10000000
10100000

TIL 30
11011000
00100100
00000010
00010010
00100010
00000001
10000001
01000010

TIL 31
00000000
11100000
00000000
00000000
01111010
00000000
00000000
00000000
>
00000000
01110000
00000000
00000000
00111101
00000000
00000000
00000000
WAL false

TIL 32
00000000
00011110
00000000
00000000
00000000
01100100
00000000
00000000
>
00000000
00111100
00000000
00000000
00000000
00110010
00000000
00000000
WAL false

TIL 33
00000000
00100000
00010000
00010000
00000100
00011000
00000000
00000000
>
00000000
00100000
00010000
00010100
00000000
00110000
00000000
00000000

TIL 34
10000000
10000000
10000000
10000000
01000000
00100000
00011000
00000111
WAL true

TIL 35
00100000
00100000
01000000
01000000
10000000
10000000
10000000
10000000
WAL true

TIL 36
10000000
01000000
00100000
00011100
00000011
00000000
00000000
00000000
WAL true

TIL 37
00000000
00000000
00000000
00000000
11000000
00111000
00000111
00000000
WAL true

TIL 38
00000000
00000000
00000000
00000000
00000000
00000000
00001111
11110000
WAL true

TIL 39
00000001
00000011
00000110
00001100
00011000
00010000
00110000
00100000
WAL true

TIL 40
00000000
00110000
01001100
10000010
10000001
00110000
00000000
00000000
>
00000000
00110000
01001100
10000010
00000000
10000001
01100110
00000000
WAL true

TIL a
11111111
00000000
00000000
00000000
00000000
00000000
00000000
00000000
WAL true

TIL b
00000000
00000000
10101010
00000000
00000000
00000000
00000000
00000000

TIL c
11111111
10000001
10000001
10000001
10000001
10000001
10000001
10000001
WAL true

TIL d
11111111
10000000
10000000
10000000
10000000
10000000
10000000
10000000
WAL true

TIL f
10000011
10000011
10000000
10000000
10000000
10000000
10000000
11111111
WAL true

TIL g
11000001
11000001
00000001
00000001
00000001
00000001
00000001
11111111
WAL true

TIL h
11111101
11111101
00001001
11111111
00100011
11111111
10001001
11011111
WAL true

TIL i
10111111
10111111
10001000
11111110
11000010
11101111
10001000
11111101
WAL true

TIL j
11111111
11111111
00000001
00000001
00000001
00000001
00000001
10000001
WAL true

TIL k
11111111
11111111
10000000
10000000
10000000
10000000
10000000
10000001
WAL true

TIL l
10000001
10000001
10000001
10000001
10000001
10000001
10000001
10000001
WAL true

TIL m
11111111
11111111
10001000
11111111
00100010
10111111
00001000
11011101
WAL true

TIL n
10000001
11111111
01000010
01000010
01000110
01000010
01000010
11111111

TIL o
00000001
00000001
00000001
00000001
00000001
00000001
00000001
00000001
WAL true

TIL p
00000000
00000000
00000000
00000000
00000000
00000000
00000000
11111111
WAL true

TIL q
10000000
10000000
10000000
10000000
10000000
10000000
10000000
10000000
WAL true

TIL r
10000011
10000011
10000000
10000000
10000000
10000000
10000000
10000001
WAL true

TIL s
11000001
11000001
00000001
00000001
00000001
00000001
00000001
10000001
WAL true

TIL t
10000001
10000001
00000000
00000000
00000000
00000000
00000000
11111111
WAL true

TIL u
11111111
11111111
00000000
00000000
00000000
00000000
00000000
10000001

TIL v
11111111
11111111
10001000
11111111
00100010
10111111
00001000
11011101
WAL true

TIL w
00000000
00001000
00001000
00000000
00000000
01000000
01000000
00000000

TIL x
00000000
01000000
01000000
00000000
00000100
00000100
00000000
00000000

TIL y
00000100
00100100
00100000
00000000
00000000
00000000
00000000
00000000

TIL z
11000000
11111111
11100001
11100001
10010111
10000001
11111111
10000001
WAL false

TIL 1a
00000000
01111110
01000010
01000010
01000010
01111110
01000010
00000000
WAL true

TIL 1b
00111111
00100001
00111111
11111001
10001001
11111001
10001111
11111000
WAL true

TIL 1c
00000000
11110111
10010101
10111111
11100011
10111110
11100010
00111110
WAL true

TIL 1d
11111111
11010011
01100010
01000110
01001010
11000011
01111110
11011101
WAL true

TIL 1e
11000011
11011011
00000000
01110111
00100010
11111111
10001000
11011101
WAL true

TIL 1f
00000000
00000000
00000000
00000000
00100000
01010000
00100000
00000000

TIL 1g
00010000
00101000
00010000
00000000
00000000
00000010
00000101
00000010

TIL 1h
01000000
10100000
01000000
00000000
00000000
00000000
00000000
00000000

TIL 1i
00000000
00000010
00000101
01000010
10100000
01000000
00000000
00000000

TIL 1j
00000000
00000000
00000000
00000000
00100000
10000110
01110101
10001100

TIL 1k
10000001
10100010
00000010
01000010
10001001
10100001
11000011
10000010

TIL 1l
10000001
01000001
01000000
10001000
10000100
00100000
00100000
00011110

TIL 1m
11000111
00111000
00000100
00000000
00000000
00000000
00111010
11000101

TIL 1n
10110001
00000111
00000000
00000010
00010000
00000000
01000100
11001111

TIL 1o
10001100
01110101
10000110
00100000
00000000
00000000
00000000
00000000

TIL 1p
11000110
00010000
00111001
11111110
01010100
01111100
00111000
00010001
WAL true

TIL 1q
00000100
00000100
00001001
00001000
00001000
00001100
00000110
00000111
WAL true

TIL 1r
00000000
00000000
01111100
10000010
00000001
00101000
01000100
01000100
WAL true

TIL 1s
10000011
00000000
00000000
00000000
00101000
10000010
00000001
00000001
WAL true

TIL 1t
00000101
00001100
00001000
00010100
00100010
00100100
01101101
11101001
WAL true

TIL 1u
00000000
00000000
00000000
00000000
00000001
00000010
00000010
00000100
WAL true

TIL 1v
00000000
00000000
00000000
00000000
00000000
10000000
10000000
01000000
WAL true

TIL 1w
01000000
01000000
00100000
00100000
00100000
01100000
11000000
11000000
WAL true

TIL 1x
01000000
01100000
00100000
01010000
10001000
01001000
01101100
00101110
WAL true

TIL 1y
00010000
00010000
00001000
00000000
00000000
00000000
00000000
00000000
WAL true

TIL 1z
00010000
00010000
00100000
00000000
00000000
00000000
00000000
00000000
WAL true

TIL 2a
01000010
01000010
01000010
01100110
00111100
10000001
11011011
01111110
WAL true

TIL 2b
01010010
01010010
01010010
01000010
01000010
01000010
01010010
01010010
WAL true

TIL 2c
01000010
01001010
01001010
01001010
01000100
01000100
01000010
01001010
WAL true

TIL 2d
00000000
00000000
01111110
10000001
10000001
11000011
01111110
01111110
WAL true

TIL 2e
01000010
01000010
01001010
01001010
01000010
01001010
01001010
01001010
WAL true

TIL 2f
00000000
00111000
01000100
01000010
01000010
01000010
01111100
00000000

TIL 2g
01000000
01000000
00000000
00000010
00100010
11010000
10010000
11100000

TIL 2h
10000000
10000000
00000000
00011100
00100010
00100010
00010010
00011110

TIL 2i
10000101
10000101
10000101
01000101
10111101
10000101
10000111
01111100
WAL true

TIL 2j
10100001
10100001
10100001
10100010
10111101
10100001
11100001
00111110
WAL true

TIL 2k
01010000
01010010
01010010
01111101
11000000
00111111
11000000
00000000
WAL true

TIL 2l
01001010
01001010
01001010
11111110
00000011
11111100
00000011
00000000
WAL true

TIL 2m
10000101
10000101
10000101
10000101
01000101
10111101
10000101
10000101
WAL true

TIL 2n
10100001
10100001
10100001
10100010
10111101
10100001
10100001
10100001
WAL true

TIL 2o
00001000
00010000
00100000
00100000
01011001
01000101
10000010
10000010
WAL true

TIL 2p
00010000
00001000
00000100
00000100
10011010
10100010
01000001
01000001
WAL true

TIL 2q
00011111
00100000
01001111
10010010
00110010
01010010
01010010
10010010
WAL true

TIL 2r
11111000
00000100
11110010
01001001
01001100
01001010
01001010
01001001
WAL true

TIL 2s
01010000
01010010
01010010
00010000
01010000
01000010
01000010
01010010
WAL true

TIL 2t
01001010
00000010
00001000
01001010
01001010
01000010
01001010
01001010
WAL true

TIL 2u
00000000
00000000
00000000
00000000
00000000
00000001
00000010
00000100
WAL true

TIL 2v
00000000
00000000
00000000
00000000
00000000
10000000
01000000
00100000
WAL true

TIL 2w
00000000
00000000
00000000
11110000
00001110
00000011
00000100
00001000
WAL true

TIL 2x
00000000
00000000
00000000
00001111
01110000
11000000
00100000
00010000
WAL true

TIL 2y
01000001
00000101
10000001
10000010
10100010
10010001
10000010
01000001

TIL 2z
00111010
01000100
01000000
01001000
10010000
10000000
10000001
01000010

TIL 3a
00000001
00000001
00000010
00000010
00000100
00011100
01111000
11100000
WAL true

TIL 3b
10000000
00000000
00000000
00000000
00000000
00000000
00000000
00000000
WAL true

TIL 3c
00000001
00000001
00000010
00000010
00000010
00000010
00000010
00000001
WAL true

TIL 3d
00000001
00000011
00000011
00000010
00000110
00000100
00000110
00000011
WAL true

TIL 3e
01000000
01000000
01000000
11000000
11000000
10000000
10000000
10000000
WAL true

TIL 3f
11000000
11111100
00111111
00000011
00000000
00000000
00000000
00000000
WAL true

TIL 3g
00000000
00000000
11111000
11111111
00000111
00000000
00000000
00000000
WAL true

TIL 3h
10000000
10000000
00000000
11100000
11111100
00011111
00000011
00000000
WAL true

TIL 3i
00000000
00000000
00000000
00000000
00000011
11111111
11111100
00000000
WAL true

TIL 3j
10000000
10000000
00000000
11100010
11110010
00011000
00001100
00000100
WAL true

TIL 3k
00000110
00000110
00000010
00000010
00000010
00000100
00000100
00000100
WAL true

TIL 3l
00000100
00000100
00000100
00000100
00001000
00001000
00001000
00001000
WAL true

TIL 3m
00010000
00010010
00010010
00010000
00010000
00011000
00001100
00000110
WAL true

TIL 3n
10000000
11000000
01100000
00110000
00011100
00001111
00000011
00000000
WAL true

TIL 3o
00000011
00000001
00000000
00000000
00000000
00000000
00000000
00000000

TIL 3p
00000000
00000000
00000000
00000000
00000000
00000000
10000000
10000000

TIL 3q
01000000
01000000
01000000
01000000
01000000
10000000
10000000
10000000
WAL false

TIL 3r
00000001
00000001
00000001
00000010
00000010
00000100
00000100
00000100
WAL true

TIL 3s
00000100
00000100
00000100
00000100
00000110
00000110
00000011
00000011
WAL true

TIL 3t
10000000
10000000
11000000
01100000
00100000
00010000
00010000
00010000
WAL true

TIL 3u
00000001
00000001
00000000
00000000
00000000
00000000
00000000
00000000
WAL true

TIL 3v
00011000
00011000
00001000
00010000
00010000
00100000
01000000
10000000
WAL true

TIL 3w
00000000
00000000
00000000
00000000
00000000
00000000
11000000
00111111
WAL true

TIL 3x
00000001
00000001
00000001
00000001
00000010
00000100
00001000
11110000
WAL true

TIL 3y
00000000
00001000
00010000
00010000
01000000
00110000
00000000
00000000
>
00000000
00001000
00010000
01010000
00000000
00011000
00000000
00000000

TIL 3z
00000000
00111000
00100100
01000010
10000001
00110000
00000000
00000000
>
00000000
00111000
00100100
01000010
00000000
10000001
01100110
00000000
WAL true

SPR A
00000000
00000000
00011100
00110110
00111110
11111100
01111100
00000100
>
00000000
00000000
00011100
00110110
00111110
11111100
01111100
00100000
POS 0 1,2

SPR b
00000000
00111100
01101000
01111100
00111100
01111110
01111111
00100100
DLG SPR_0
POS 0 12,5

SPR c
00000000
00111000
01110100
01111100
00011010
00100110
00111111
00100010
DLG SPR_1
POS 1 7,5

SPR d
00000000
00011100
00110110
00111110
00111100
01111110
11111110
00100100
POS 2 15,10

SPR f
00000000
00011100
00110110
00111110
00111100
01111110
11111110
00100100
DLG SPR_2
POS 6 10,6

ITM 0
00000000
01101100
10010010
10000110
10001010
01000100
00101000
00010000
NAME Heart
DLG ITM_0

ITM 1
00000100
00001100
00011100
00101100
01011000
01110000
10000000
00000000
NAME Feather
DLG ITM_2

ITM 2
00000000
00111000
01000100
01000010
00100010
00011100
00001000
00001000
NAME Necklace
DLG ITM_1

ITM 3
00000000
00111000
01000100
10010010
10010010
01000100
00111000
00000000
NAME Eye
DLG ITM_3

DLG SPR_0
"""
{cycle
  - Emotional strength is unusual isn't it?
  - It's so bountiful when things are going well, and you feel alright.
  - But in the thick of things, when you're exhausted and tired, the last thing you want to is 'try' more.
  - Yet doing anything else just feels like giving up, or lazy somehow.
  - I don't know, just a strange thing that's been on my mind.
}
"""

DLG SPR_2
"""
{
  - Items == 4 ?
     Oh.. you found them all. Do you know what they are, or perhaps why they are? They're the reason you keep coming back here.. I wish I could tell you.. I'm glad you found all of the statues, I hope you were kind to each of them.
}{shuffle
  - I wonder..
  - There's four statues in this grove, each one holding something dear.
  - You ever struggle with the 'purpose' of things? As if everything needs to have a clear and defined reason for being?
  - If you were completely satisfied with the next thing you did, would you stop doing things?
  - Nothing I do feels meaningful, even if it makes other people happy, something changed.
  - None of my work has purpose any more, no goals, just little autobiographies, what about fun?
}
"""

DLG ITM_0
"""
{sequence
  - The statue holds a glass heart tightly in its grip, the stone mask has a sad look about it.
    {Items = Items + 1}
}
"""

DLG ITM_2
"""
A white feather rests in this statues hands, cupped gently. The stone mask is watching it lovingly, you half expect to see it smile.
{Items = Items + 1}
"""

DLG ITM_3
A gem made to look like an eye has been placed on this statues hand, the stone mask seems unchanged, distant even.{Items = Items + 1}

DLG ITM_1
A necklace dangles from this statues hands, a black tourmaline stone, the stone mask is watching the horizon, pained, scared almost.{Items = Items + 1}

DLG SPR_1
"""
{cycle
  - It's suppose to have warmed up a bit today, 
  - Usually I'd head out about this time, but I'm really not feeling up to it.
  - I haven't been feeling up to it for a few days now come to think of it..
}
"""

END 0
You swing open a door, and fall forever. Wings struggle to catch a current in this place, you fall and fall and fall. It hurts.. but you'll grow back tomorrow..

END 1


VAR Items
0


