"This should help with those daydreams you've been having."

# BITSY VERSION 3.4

! ROOM_FORMAT 1

PAL 0
255,255,255
0,0,0
0,0,0

PAL 1
0,255,0
0,205,255
0,0,0

PAL 2
234,255,255
0,0,32
0,0,0

ROOM 0
0,0,0,0,0,a,0,0,0,0,a,0,0,0,0,0
0,0,0,0,0,a,0,0,0,0,a,0,0,0,0,0
0,0,0,0,0,a,0,0,0,0,a,0,0,0,0,0
0,0,0,0,0,a,0,0,0,0,a,0,0,0,0,0
0,0,0,0,0,a,0,0,0,0,a,0,0,0,0,0
0,0,0,0,0,a,0,0,0,0,a,0,0,0,0,0
0,0,0,0,0,a,0,0,0,0,a,0,0,0,0,0
0,0,0,0,0,a,0,0,0,0,a,0,0,0,0,0
0,0,0,0,0,a,0,0,0,0,a,0,0,0,0,0
0,0,0,0,0,a,0,0,0,0,a,0,0,0,0,0
0,0,0,0,0,a,0,0,0,0,a,0,0,0,0,0
0,0,0,0,0,a,0,0,0,0,a,0,0,0,0,0
0,0,0,0,0,a,0,0,0,0,a,0,0,0,0,0
0,0,0,0,0,a,0,0,0,0,a,0,0,0,0,0
a,a,a,a,a,a,0,0,0,0,a,a,a,a,a,a
0,0,0,0,0,0,0,0,0,0,0,0,0,0,0,0
WAL 16,17,18,a
EXT 7,0 1 7,15
EXT 8,0 1 8,15
EXT 6,0 1 6,15
EXT 9,0 1 9,15
PAL 2

ROOM 1
0,0,0,0,0,0,a,0,0,a,0,0,0,0,0,0
0,0,0,0,0,0,a,0,0,a,0,0,0,0,0,0
0,0,0,0,0,0,a,0,0,a,0,0,0,0,0,0
0,0,0,0,0,0,a,0,0,a,0,0,0,0,0,0
0,0,0,0,0,0,a,0,0,a,0,0,0,0,0,0
0,0,0,0,0,0,a,0,0,a,0,0,0,0,0,0
0,0,0,0,0,0,a,0,0,a,0,0,0,0,0,0
0,0,0,0,0,a,a,0,0,a,a,0,0,0,0,0
0,0,0,0,0,a,0,0,0,0,a,0,0,0,0,0
0,0,0,0,0,a,0,0,0,0,a,0,0,0,0,0
0,0,0,0,0,a,0,0,0,0,a,0,0,0,0,0
0,0,0,0,0,a,0,0,0,0,a,0,0,0,0,0
0,0,0,0,0,a,0,0,0,0,a,0,0,0,0,0
0,0,0,0,0,a,0,0,0,0,a,0,0,0,0,0
0,0,0,0,0,a,0,0,0,0,a,0,0,0,0,0
0,0,0,0,0,a,0,0,0,0,a,0,0,0,0,0
WAL 16,17,18,a
PAL 2

ROOM 2
0,0,0,0,0,0,0,0,0,0,0,0,0,0,0,0
0,0,0,0,0,0,12,a,a,13,0,0,0,0,0,0
0,0,0,0,0,0,a,a,a,a,0,0,0,0,0,0
0,0,0,0,0,0,a,a,a,a,0,0,0,0,0,0
0,0,0,0,0,0,17,0,0,18,0,0,0,0,0,0
0,0,0,0,0,0,17,0,0,18,0,0,0,0,0,0
0,0,0,0,0,0,15,16,16,14,0,0,0,0,0,0
0,0,0,0,0,0,a,0,0,a,0,0,0,0,0,0
0,0,0,0,0,0,a,0,0,a,0,0,0,0,0,0
0,0,0,0,0,0,a,0,0,a,0,0,0,0,0,0
0,0,0,0,0,0,a,0,0,a,0,0,0,0,0,0
0,0,0,0,0,0,a,0,0,a,0,0,0,0,0,0
0,0,0,0,0,0,a,0,0,a,0,0,0,0,0,0
0,0,0,0,0,0,a,0,0,a,0,0,0,0,0,0
0,0,0,0,0,0,a,0,0,a,0,0,0,0,0,0
0,0,0,0,0,0,a,0,0,a,0,0,0,0,0,0
WAL 16,17,18,a
EXT 7,7 3 7,7
EXT 8,7 3 8,7
PAL 0

ROOM 3
0,0,0,0,0,0,0,0,0,0,0,0,0,0,0,0
0,0,0,0,0,0,12,a,a,13,0,0,0,0,0,0
0,0,0,0,0,0,a,a,a,a,0,0,0,0,0,0
0,0,0,0,0,0,a,a,a,a,0,0,0,0,0,0
0,0,0,h,f,p,17,0,0,18,e,p,o,0,0,0
0,0,0,0,0,0,17,0,0,18,0,0,0,0,0,0
0,0,0,0,0,0,15,16,16,14,0,0,0,0,0,0
0,0,0,0,0,0,a,0,0,a,0,0,0,0,0,0
0,0,0,0,0,0,a,0,0,a,0,0,0,0,0,0
0,0,0,0,0,0,a,0,0,a,0,0,0,0,0,0
0,0,0,0,0,0,a,0,0,a,0,0,0,0,0,0
0,0,0,0,0,0,a,0,0,a,0,0,0,0,0,0
0,0,0,0,0,0,a,0,0,a,0,0,0,0,0,0
0,0,0,0,0,0,a,0,0,a,0,0,0,0,0,0
0,0,0,0,0,0,a,0,0,a,0,0,0,0,0,0
0,0,0,0,0,0,a,0,0,a,0,0,0,0,0,0
WAL 16,17,18,a
EXT 7,15 4 7,0
EXT 8,15 4 8,0
PAL 0

ROOM 4
0,0,0,0,0,0,a,0,0,a,0,0,0,0,0,0
0,0,0,0,0,0,a,0,0,a,0,0,0,0,0,0
0,0,0,0,0,0,a,0,0,a,0,0,0,0,0,0
0,0,0,0,0,0,a,0,0,a,0,0,0,0,0,0
0,0,0,0,0,0,a,0,0,a,0,0,0,0,0,0
0,0,0,0,0,0,a,0,0,a,0,0,0,0,0,0
0,0,0,0,0,0,a,0,0,a,0,0,0,0,0,0
0,0,0,0,0,a,a,0,0,a,a,0,0,0,0,0
0,0,0,0,0,a,0,0,0,0,a,0,0,0,0,0
0,0,0,0,0,a,0,0,0,0,a,0,0,0,0,0
0,0,0,0,0,a,0,0,0,0,a,0,0,0,0,0
0,0,0,0,0,a,0,0,0,0,a,0,0,0,0,0
0,0,0,0,0,a,0,0,0,0,a,0,0,0,0,0
0,0,0,0,0,a,0,0,0,0,a,0,0,0,0,0
0,0,0,0,0,a,0,0,0,0,a,0,0,0,0,0
0,0,0,0,0,a,0,0,0,0,a,0,0,0,0,0
WAL 16,17,18,a
EXT 6,15 5 6,0
EXT 7,15 5 7,0
EXT 8,15 5 8,0
EXT 9,15 5 9,0
PAL 0

ROOM 5
0,0,0,0,0,a,0,0,0,0,a,0,0,0,0,0
0,0,0,0,0,a,0,0,0,0,a,0,0,0,0,0
0,0,0,0,0,a,0,0,0,0,a,0,0,0,0,0
0,0,0,0,0,a,0,0,0,0,a,0,0,0,0,0
0,0,0,0,0,a,0,0,0,0,a,0,0,0,0,0
0,0,0,0,0,a,0,0,0,0,a,0,0,0,0,0
0,0,0,0,0,a,0,0,0,0,a,0,0,0,0,0
0,0,0,0,0,a,0,0,0,0,a,0,0,0,0,0
0,0,0,0,0,a,0,0,0,0,a,0,0,0,0,0
0,0,0,0,0,a,0,0,0,0,a,0,0,0,0,0
0,0,0,0,0,a,0,0,0,0,a,0,0,0,0,0
0,0,0,0,0,a,0,0,0,0,a,0,0,0,0,0
0,0,0,0,0,a,0,0,0,0,a,0,0,0,0,0
0,0,0,0,0,a,0,0,0,0,a,0,0,0,0,0
a,a,a,a,a,a,0,0,0,0,a,a,a,a,a,a
0,0,0,0,0,0,0,0,0,0,0,0,0,0,0,0
WAL 16,17,18,a
EXT 0,15 6 6,2
EXT 15,15 6 9,2
PAL 0

ROOM 6
0,0,0,a,i,p,t,q,j,u,b,m,a,0,0,0
0,0,0,a,a,a,a,a,a,a,a,a,a,0,0,0
0,0,0,0,0,0,0,a,a,0,0,0,0,0,0,0
0,0,0,0,0,0,0,0,0,0,0,0,0,0,0,0
0,0,q,b,s,l,j,o,h,0,m,p,u,0,0,0
0,0,0,0,0,0,0,0,0,0,0,0,0,0,0,0
0,0,a,d,a,d,a,d,a,d,a,d,a,d,0,0
0,0,a,b,a,b,a,b,a,b,a,b,a,b,0,0
0,0,a,s,a,s,a,s,a,s,a,s,a,s,0,0
0,a,a,a,a,a,a,a,a,a,a,a,a,a,0,0
0,d,a,0,a,d,a,d,a,d,a,d,a,d,0,0
0,b,a,0,a,b,a,b,a,b,a,b,a,b,0,0
0,s,a,0,a,s,a,s,a,s,a,s,a,s,0,0
0,0,0,0,0,0,0,0,0,0,0,0,0,0,0,0
0,0,0,0,0,0,0,0,0,0,0,0,0,0,0,0
a,a,a,a,a,a,f,z,j,u,a,a,a,a,a,a
WAL a
EXT 6,15 7 6,0
EXT 7,15 7 7,0
EXT 8,15 7 8,0
EXT 9,15 7 9,0
PAL 0

ROOM 7
0,0,0,0,t,j,e,f,y,b,m,l,0,0,0,0
a,a,a,a,a,a,a,a,a,a,a,a,a,a,a,a
0,0,0,0,0,0,0,0,0,0,0,0,0,0,0,0
0,0,0,0,0,0,0,0,0,0,0,0,0,0,0,0
0,0,0,0,0,0,0,0,0,0,0,0,0,0,0,0
0,0,0,0,0,0,0,0,0,0,0,0,0,0,0,0
0,0,0,0,0,0,0,0,0,0,0,0,0,0,0,0
0,0,0,0,0,t,u,s,f,f,u,0,0,0,0,0
0,0,0,0,0,0,0,0,0,0,0,0,0,0,0,0
0,0,0,0,0,0,0,0,0,0,0,0,0,0,0,0
0,0,0,0,0,0,0,0,0,0,0,0,0,0,0,0
0,0,0,0,0,0,0,0,0,0,0,0,0,0,0,0
0,0,0,0,0,0,0,0,0,0,0,0,0,0,0,0
0,0,0,0,0,0,0,0,0,0,0,0,0,0,0,0
a,a,a,a,a,a,a,a,a,a,a,a,a,a,a,a
0,0,0,0,t,j,e,f,y,b,m,l,0,0,0,0
WAL a
EXT 0,0 8 14,6
EXT 0,15 e 14,8
EXT 15,15 i 1,15
PAL 0

ROOM 8
0,0,0,0,0,0,0,0,a,0,a,u,0,0,0,0
0,0,0,0,0,0,0,0,a,0,a,s,0,0,0,0
0,0,0,0,0,0,0,0,a,0,a,f,0,0,0,0
0,0,0,0,0,0,0,0,a,t,a,f,0,0,0,0
d,0,0,0,0,0,0,0,a,j,a,0,u,s,f,f
b,0,0,0,0,0,0,0,a,e,a,a,a,a,a,a
s,0,0,0,0,0,0,0,a,f,y,b,m,l,0,0
0,0,0,t,0,0,0,0,a,a,a,a,a,a,a,a
0,0,0,u,0,0,0,0,0,0,0,0,0,0,0,0
0,t,u,s,f,f,u,0,0,0,0,0,0,0,0,0
0,0,0,f,0,0,0,0,0,0,0,0,0,0,0,0
0,0,0,f,0,0,0,0,0,0,0,0,0,0,0,0
0,0,0,u,0,0,0,0,d,b,s,0,0,0,0,0
0,0,0,0,0,0,0,0,0,0,0,0,0,0,0,0
0,0,0,0,0,0,0,0,0,0,0,0,0,0,0,0
0,0,0,0,0,0,0,0,0,0,0,0,0,0,0,0
WAL a
EXT 9,0 9 15,14
EXT 15,6 7 1,0
PAL 0

ROOM 9
0,a,0,0,0,0,0,0,0,0,0,0,0,0,a,0
0,a,0,0,0,0,0,0,0,0,0,0,0,0,a,0
0,a,0,0,0,0,0,0,0,0,0,0,0,0,a,0
0,a,0,0,0,0,0,0,0,0,0,0,0,0,a,0
t,a,0,0,0,0,0,0,0,0,0,0,0,0,a,t
j,a,0,0,0,0,0,0,t,0,0,0,0,0,a,j
e,a,0,0,0,0,0,0,u,0,0,0,0,0,a,e
f,a,0,0,0,0,0,0,s,0,0,0,0,0,a,f
y,a,0,0,0,0,0,0,f,0,0,0,0,0,a,y
b,a,0,0,0,0,0,0,f,0,0,0,0,0,a,b
m,a,0,0,0,0,0,0,u,0,0,0,0,0,a,m
l,a,0,0,0,0,0,0,0,0,0,0,0,0,a,l
0,a,0,0,0,0,0,0,0,0,0,0,0,0,a,0
0,a,0,0,0,0,0,0,0,0,0,0,0,0,a,0
0,a,0,0,0,0,0,0,0,0,0,0,0,0,a,0
0,a,0,0,0,0,0,0,0,0,0,0,0,0,a,0
WAL a
EXT 15,0 a 15,14
EXT 0,15 b 6,1
EXT 15,15 8 9,1
EXT 0,0 a 0,14
PAL 0

ROOM a
0,a,0,0,0,0,0,0,0,0,0,0,0,0,a,0
0,a,0,0,0,0,0,0,0,0,0,0,0,0,a,0
0,a,0,0,0,0,0,0,0,0,0,0,0,0,a,0
0,0,0,0,0,0,0,0,0,0,0,0,0,0,0,0
a,0,0,0,0,0,0,0,0,0,0,0,0,0,0,a
0,0,0,0,0,0,0,0,t,0,0,0,0,0,0,0
0,0,0,0,0,0,0,0,u,0,0,0,0,0,0,0
0,0,0,0,0,0,0,0,s,0,0,0,0,0,0,0
0,0,0,0,0,t,u,s,f,f,u,0,0,0,0,0
0,0,0,0,0,0,0,0,f,0,0,0,0,0,0,0
0,0,0,0,0,0,0,0,u,0,0,0,0,0,0,0
a,0,0,0,0,0,0,0,0,0,0,0,0,0,0,a
0,0,0,0,0,0,0,0,0,0,0,0,0,0,0,0
0,a,0,0,0,0,0,0,0,0,0,0,0,0,a,0
0,a,0,0,0,0,0,0,0,0,0,0,0,0,a,0
0,a,0,0,0,0,0,0,0,0,0,0,0,0,a,0
WAL a
EXT 0,15 9 0,1
EXT 15,15 9 15,1
EXT 0,0 h 14,0
PAL 0

ROOM b
g,j,s,f,0,a,0,a,0,0,0,0,0,0,0,0
e,f,q,u,0,a,0,a,0,0,0,0,0,0,0,0
0,0,0,0,0,a,0,a,0,0,0,0,0,0,0,0
0,0,0,0,0,a,0,a,0,0,0,0,0,0,0,0
0,0,0,0,0,a,0,a,0,0,0,0,0,0,0,0
a,a,a,a,a,a,0,a,0,0,0,t,0,0,0,0
0,0,0,0,0,0,0,a,0,0,0,u,0,0,0,0
a,a,a,a,a,a,a,a,0,0,0,s,0,0,0,0
0,0,0,0,0,0,0,0,0,0,0,f,0,0,0,0
0,0,0,0,0,0,0,t,u,s,f,f,u,0,0,0
0,0,0,0,0,0,0,0,0,0,0,u,0,0,0,0
0,0,0,0,0,0,0,0,0,0,0,0,0,0,0,0
0,0,0,0,0,0,0,0,0,0,0,0,0,0,0,0
0,0,0,0,d,b,s,0,0,0,0,0,0,0,0,0
0,0,0,0,0,0,0,0,0,0,0,0,0,0,0,0
0,0,0,0,0,0,0,0,0,0,0,0,0,0,0,0
WAL a
EXT 0,6 c 14,0
EXT 6,0 9 0,14
PAL 0

ROOM c
0,0,0,0,t,j,e,f,y,b,m,l,0,0,0,0
a,a,a,a,a,a,a,a,a,a,a,a,a,a,a,a
0,0,0,0,0,0,0,0,0,0,0,0,0,0,0,0
0,0,0,0,0,0,0,0,0,0,0,0,0,0,0,0
0,0,0,0,0,0,0,0,0,0,0,0,0,0,0,0
0,0,0,0,0,0,0,0,0,0,0,0,0,0,0,0
0,0,0,0,0,0,0,0,0,0,0,0,0,0,0,0
0,0,0,0,0,t,u,s,f,f,u,0,0,0,0,0
0,0,0,0,0,0,0,0,0,0,0,0,0,0,0,0
0,0,0,0,0,0,0,0,0,0,0,0,0,0,0,0
0,0,0,0,0,0,0,0,0,0,0,0,0,0,0,0
0,0,0,0,0,0,0,0,0,0,0,0,0,0,0,0
0,0,0,0,0,0,0,0,0,0,0,0,0,0,0,0
0,0,0,0,0,0,0,0,0,0,0,0,0,0,0,0
a,a,a,a,a,a,a,a,a,a,a,a,a,a,a,a
0,0,0,0,t,j,e,f,y,b,m,l,0,0,0,0
WAL a
EXT 0,0 d 14,3
EXT 15,15 e 1,8
EXT 0,15 d 14,12
EXT 15,0 b 1,6
PAL 0

ROOM d
0,0,0,0,0,0,0,0,a,0,a,0,i,b,s,e
0,0,0,0,0,0,0,0,a,0,a,0,y,b,s,f
0,0,0,0,0,0,0,0,a,0,a,a,a,a,a,a
0,0,0,0,0,0,0,0,a,0,0,0,0,0,0,0
0,0,0,0,0,0,0,0,a,0,a,a,a,a,a,a
0,0,0,t,0,0,0,0,0,0,0,0,0,0,0,0
0,0,t,u,s,f,f,u,0,0,d,b,s,0,0,0
0,0,0,s,0,0,0,0,0,0,0,0,0,0,0,0
0,0,0,f,0,0,0,0,0,0,0,0,0,0,0,0
0,0,0,f,0,0,0,0,0,0,0,0,0,d,b,s
0,0,0,u,0,0,0,0,0,0,0,0,0,0,0,0
0,0,0,0,0,0,0,0,a,0,a,a,a,a,a,a
0,0,0,0,0,0,0,0,a,0,0,0,0,0,0,0
0,0,0,0,d,0,0,0,a,0,a,a,a,a,a,a
0,0,0,0,b,0,0,0,a,0,a,0,0,0,0,0
0,0,0,0,s,0,0,0,a,0,a,0,t,i,p,q
WAL a
EXT 15,12 c 1,15
EXT 15,3 c 1,0
EXT 9,0 f 15,14
PAL 0

ROOM e
0,0,0,0,0,0,0,0,0,0,0,0,0,0,0,0
0,0,0,0,0,0,0,0,0,0,0,0,0,0,0,0
0,0,0,0,0,0,0,0,0,0,0,0,0,0,0,0
0,0,0,0,0,t,u,s,f,f,u,0,0,0,0,0
0,0,0,0,0,0,0,0,0,0,0,0,0,0,0,0
0,0,0,0,0,0,0,0,0,0,0,0,0,0,0,0
0,0,0,0,0,0,0,0,0,0,0,0,0,0,0,0
a,a,a,a,a,a,a,a,a,a,a,a,a,a,a,a
0,0,0,0,0,0,0,0,0,0,0,0,0,0,0,0
a,a,a,a,a,a,a,0,0,a,a,a,a,a,a,a
0,0,0,0,0,0,0,0,0,0,0,0,0,0,0,0
e,f,o,u,j,t,u,0,0,0,0,0,0,0,0,0
0,0,0,0,0,0,0,0,0,0,0,0,0,0,0,0
a,0,a,0,a,0,a,0,a,0,a,0,a,0,a,0
0,0,0,0,0,0,0,0,0,0,0,0,0,0,0,0
0,0,u,s,b,j,o,0,u,s,b,d,l,t,0,0
WAL a
EXT 15,8 7 1,15
EXT 0,8 c 14,15
END 0 7,15
END 0 0,15
END 0 1,15
END 0 2,15
END 0 3,15
END 0 4,15
END 0 5,15
END 0 6,15
END 0 8,15
END 0 9,15
END 0 10,15
END 0 11,15
END 0 12,15
END 0 13,15
END 0 14,15
END 0 15,15
PAL 0

ROOM f
0,a,0,0,0,0,0,0,0,0,0,0,0,0,a,0
0,a,0,0,0,0,0,0,0,0,0,0,0,0,a,0
0,a,0,0,0,0,0,0,0,0,0,0,0,0,a,0
0,a,0,0,0,0,0,0,0,0,0,0,0,0,a,0
t,a,0,0,0,0,0,0,0,0,0,0,0,0,a,t
j,a,0,0,0,0,0,0,t,0,0,0,0,0,a,j
e,a,0,0,0,0,0,0,u,0,0,0,0,0,a,e
f,a,0,0,0,0,0,0,s,0,0,0,0,0,a,f
y,a,0,0,0,0,0,0,f,0,0,0,0,0,a,y
b,a,0,0,0,0,0,0,f,0,0,0,0,0,a,b
m,a,0,0,0,0,0,0,u,0,0,0,0,0,a,m
l,a,0,0,0,0,0,0,0,0,0,0,0,0,a,l
0,a,0,0,0,0,0,0,0,0,0,0,0,0,a,0
0,a,0,0,0,0,0,0,0,0,0,0,0,0,a,0
0,a,0,0,0,0,0,0,0,0,0,0,0,0,a,0
0,a,0,0,0,0,0,0,0,0,0,0,0,0,a,0
WAL a
EXT 15,15 d 9,1
EXT 15,0 g 9,14
PAL 0

ROOM g
0,0,0,0,0,0,0,0,a,0,a,0,n,b,j,m
0,0,0,0,0,0,0,0,a,0,a,0,0,0,0,0
0,0,0,0,0,0,0,0,a,0,a,a,a,a,a,a
0,0,0,0,0,0,0,0,a,0,0,0,0,0,0,0
0,0,0,0,0,0,0,0,a,0,a,a,a,a,a,a
0,0,0,t,0,0,0,0,0,0,0,0,0,0,0,0
0,0,t,u,s,f,f,u,0,0,0,0,0,0,0,0
0,0,0,s,0,0,0,0,0,0,0,0,0,0,0,0
0,0,0,f,0,0,0,0,0,0,0,0,0,0,0,0
0,0,0,f,0,0,0,0,0,0,0,0,0,0,0,0
0,0,0,u,0,0,0,0,0,0,0,0,0,0,0,0
0,0,0,0,0,0,0,0,a,0,a,a,a,a,a,a
0,0,0,0,0,0,0,0,a,0,0,0,0,0,0,0
0,0,0,0,d,0,0,0,a,0,a,a,a,a,a,a
0,0,0,0,b,0,0,0,a,0,a,0,0,0,0,0
0,0,0,0,s,0,0,0,a,0,a,0,g,p,p,e
WAL a
EXT 9,15 f 15,1
EXT 15,12 h 1,15
EXT 15,3 h 1,0
PAL 0

ROOM h
0,0,0,0,t,j,e,f,y,b,m,l,0,0,0,0
a,a,a,a,a,a,a,a,a,a,a,a,a,a,a,a
0,0,0,0,0,0,0,0,0,0,0,0,0,0,0,0
0,0,0,0,0,0,0,0,0,0,0,0,0,0,0,0
0,0,0,0,0,0,0,0,0,0,0,0,0,0,0,0
0,0,0,0,0,0,0,0,0,0,0,0,0,0,0,0
0,0,0,0,0,0,0,0,0,0,0,0,0,0,0,0
0,0,0,0,0,t,u,s,f,f,u,0,0,0,0,0
0,0,0,0,0,0,0,0,0,0,0,0,0,0,0,0
0,0,0,0,0,0,0,0,0,0,0,0,0,0,0,0
0,0,0,0,0,0,0,0,0,0,0,0,0,0,0,0
0,0,0,0,0,0,0,0,0,0,0,0,0,0,0,0
0,0,0,0,0,0,0,0,0,0,0,0,0,0,0,0
0,0,0,0,0,0,0,0,0,0,0,0,0,0,0,0
a,a,a,a,a,a,a,a,a,a,a,a,a,a,a,a
0,0,0,0,t,j,e,f,y,b,m,l,0,0,0,0
WAL a
EXT 0,15 g 14,12
EXT 0,0 g 14,3
EXT 15,0 a 0,1
PAL 0

ROOM i
0,0,0,0,0,0,0,0,0,0,0,0,0,0,0,0
a,a,a,a,a,a,a,a,0,0,0,0,0,0,0,0
0,0,0,0,0,0,0,0,0,0,0,0,0,0,0,0
0,0,0,0,0,0,0,0,0,0,0,0,0,0,0,0
0,0,0,0,0,0,0,0,0,0,0,0,0,0,0,0
0,0,0,0,0,0,0,0,0,0,0,0,0,0,0,0
0,0,0,0,0,0,0,0,0,0,0,0,0,0,0,0
0,0,0,0,0,0,0,0,0,0,0,0,0,0,0,0
0,0,0,0,0,0,0,0,0,0,0,0,0,0,0,0
0,0,0,0,0,0,0,0,0,0,0,0,0,0,0,0
0,0,0,0,0,0,0,0,0,0,0,0,0,0,0,0
0,0,0,0,0,0,0,0,0,0,0,0,0,0,0,0
0,0,0,0,0,0,0,0,0,0,0,0,0,0,0,0
0,0,0,0,0,0,0,0,0,0,0,0,0,0,0,0
a,a,a,a,a,a,a,a,0,0,0,0,0,0,0,0
0,0,0,0,0,0,0,0,0,0,0,0,0,0,0,0
WAL a
EXT 0,15 7 14,15
EXT 15,0 j 0,0
EXT 15,1 j 0,1
EXT 15,2 j 0,2
EXT 15,3 j 0,3
EXT 15,4 j 0,4
EXT 15,5 j 0,5
EXT 15,6 j 0,6
EXT 15,7 j 0,7
EXT 15,8 j 0,8
EXT 15,9 j 0,9
EXT 15,10 j 0,10
EXT 15,11 j 0,11
EXT 15,12 j 0,12
EXT 15,13 j 0,13
EXT 15,14 j 0,14
EXT 15,15 j 0,15
PAL 0

ROOM j
0,0,0,0,0,0,0,0,0,0,0,0,0,0,19,0
0,0,0,0,0,0,0,0,0,0,0,0,0,0,19,0
0,0,0,0,0,0,0,0,0,0,0,0,0,19,19,0
0,0,0,0,0,0,0,0,0,0,0,0,19,19,0,0
0,0,0,0,0,0,0,0,0,0,0,0,19,19,0,0
0,0,0,0,0,0,0,0,0,0,19,19,19,19,0,0
0,0,0,0,0,0,0,0,0,0,19,19,19,0,0,0
0,0,0,0,0,0,0,0,0,0,19,19,19,0,0,0
0,0,0,0,0,0,0,0,0,19,19,19,0,0,0,0
0,0,0,0,0,0,0,0,0,19,19,0,0,0,0,0
0,0,0,0,0,0,0,0,19,19,0,0,0,0,0,0
0,0,0,0,0,0,0,0,19,0,0,0,0,0,0,0
0,0,0,0,0,0,0,0,19,0,0,0,0,0,0,0
0,0,0,0,0,0,0,19,19,0,0,0,0,0,0,0
0,0,0,0,0,0,19,19,0,0,0,0,0,0,0,0
0,0,0,0,0,0,19,0,0,0,0,0,0,0,0,0
WAL a
END 1 13,0
END 1 13,1
END 1 12,2
END 1 11,3
END 1 11,4
END 1 10,4
END 1 9,5
END 1 9,6
END 1 9,7
END 1 8,8
END 1 8,9
END 1 7,10
END 1 7,11
END 1 7,12
END 1 6,13
END 1 5,14
END 1 5,15
PAL 1

TIL 10
00000000
01000010
00100100
00011000
00011000
00011000
00011000
00000000

TIL 11
00000000
01111110
00000010
01111110
01000000
01000000
01111110
00000000

TIL 12
00000001
00000011
00000111
00001111
00011111
00111111
01111111
11111111

TIL 13
10000000
11000000
11100000
11110000
11111000
11111100
11111110
11111111

TIL 14
00000001
00000010
00000100
00001000
00010000
00100000
01000000
10000000

TIL 15
10000000
01000000
00100000
00010000
00001000
00000100
00000010
00000001

TIL 16
00000000
00000000
00000000
00000000
00000000
00000000
00000000
11111111

TIL 17
10000000
10000000
10000000
10000000
10000000
10000000
10000000
10000000

TIL 18
00000001
00000001
00000001
00000001
00000001
00000001
00000001
00000001

TIL 19
10111111
11111011
11111111
10111111
11111011
11111111
10111111
11111011
>
11111011
10111111
11111111
11111011
10111111
11111111
11111011
10111111

TIL a
11111111
11111111
11111111
11111111
11111111
11111111
11111111
11111111

TIL b
00000000
01111110
01000010
01111110
01000010
01000010
01000010
00000000

TIL c
00000000
01111110
01000010
01111100
01000010
01000010
01111110
00000000

TIL d
00000000
01111110
01000000
01000000
01000000
01000000
01111110
00000000

TIL e
00000000
01111100
01000010
01000010
01000010
01000010
01111100
00000000

TIL f
00000000
01111110
01000000
01111110
01000000
01000000
01111110
00000000

TIL g
00000000
01111110
01000000
01111110
01000000
01000000
01000000
00000000

TIL h
00000000
01111110
01000000
01000000
01000110
01000010
01111110
00000000

TIL i
00000000
01000010
01000010
01111110
01000010
01000010
01000010
00000000

TIL j
00000000
01111110
00011000
00011000
00011000
00011000
01111110
00000000

TIL k
00000000
00000010
00000010
00000010
00000010
01000010
01111110
00000000

TIL l
00000000
01000110
01011000
01100000
01100000
01011000
01000110
00000000

TIL m
00000000
01000000
01000000
01000000
01000000
01000000
01111110
00000000

TIL n
00000000
01000010
01100110
01011010
01000010
01000010
01000010
00000000

TIL o
00000000
01000010
01100010
01010010
01001010
01000110
01000010
00000000

TIL p
00000000
01111110
01000010
01000010
01000010
01000010
01111110
00000000

TIL q
00000000
01111110
01000010
01111110
01000000
01000000
01000000
00000000

TIL r
00000000
01111110
01000010
01000010
01001010
01000110
01111110
00000000

TIL s
00000000
01111110
01000010
01111110
01100000
01011000
01000110
00000000

TIL t
00000000
01111110
01000000
01111110
00000010
00000010
01111110
00000000

TIL u
00000000
01111110
00011000
00011000
00011000
00011000
00011000
00000000

TIL v
00000000
01000010
01000010
01000010
01000010
01000010
01111110
00000000

TIL w
00000000
01000010
01000010
00100100
00100100
00011000
00011000
00000000

TIL y
00000000
01000010
01000010
01000010
01011010
01100110
01000010
00000000

TIL z
00000000
01000010
00100100
00011000
00011000
00100100
01000010
00000000

SPR A
00000000
00011000
00011000
00111100
01011010
00011000
00100100
00100100
POS 2 7,15

SPR a
00011000
00011000
00100100
00100100
01000010
01000010
01111110
00100100
POS 0 6,10

SPR b
00011000
00011000
00100100
00100100
01000010
01000010
01111110
00100100
POS 0 9,3

SPR c
00011000
00011000
00100100
00100100
01000010
01000010
01111110
00100100
POS 2 8,11

SPR d
00011000
00011000
00100100
00100100
01000010
01000010
01111110
00100100
POS 3 8,11

SPR e
00011000
00011000
00100100
00100100
01000010
01000010
01111110
00100100
POS 4 6,8

SPR f
00011000
00011000
00100100
00100100
01000010
01000010
01111110
00100100
POS 4 9,8

SPR g
00011000
00011000
00100100
00100100
01000010
01000010
01111110
00100100
POS 5 9,3

SPR h
00011000
00011000
00100100
00100100
01000010
01000010
01111110
00100100
POS 5 6,10

SPR i
00000000
01111110
01000010
01000010
01000010
01111110
00011000
00011000
POS i 11,8

SPR j
00011000
00011000
00111100
01011010
00011000
00011000
00100100
00100100
POS 7 15,0

SPR k
00011000
00011000
00111100
01011010
00011000
00011000
00100100
00100100
POS a 15,0

SPR l
00011000
00011000
00111100
01011010
00011000
00011000
00100100
00100100
POS d 9,15

SPR m
00011000
00011000
00111100
01011010
00011000
00011000
00100100
00100100
POS g 9,0

SPR n
00011000
00011000
00111100
01011010
00011000
00011000
00100100
00100100
POS h 15,15

DLG a
This should help with those daydreams you've been having.

DLG b
Trust us, we're doctors.

DLG c
Here, take some water with your pill.

DLG d
That wasn't so bad, was it?

DLG e
You can go on home now.

DLG f
Do you feel better now?

DLG g
Take this pill once daily.

DLG h
Take care!

DLG i
RIVER AHEAD

DLG j
Thinking in words is the only correct way to think.

DLG k
Only criminals think in images.

DLG l
Visual thinking is a sin.

DLG m
Words are truth, images are lies.

DLG n
Never trust a visual thinker...

END 0
A train brings swift release from your prison of words.

END 1
The medication has worn off. Do you want to take it again?

