Runaway

# BITSY VERSION 4.8

! ROOM_FORMAT 1

PAL 0
0,0,0
140,140,140
255,255,255

PAL 1
153,78,0
166,166,166
255,220,208

PAL 2
2,112,4
0,0,0
255,255,255

PAL 3
61,30,1
41,1,1
115,115,115

PAL 4
208,240,255
156,156,156
255,255,255

ROOM 0
0,0,0,0,0,0,0,0,0,0,0,0,0,0,0,0
0,0,0,0,0,0,0,0,0,0,0,0,0,0,0,0
0,0,0,0,0,0,0,0,0,0,0,0,0,0,0,0
0,0,0,0,0,0,0,0,0,0,0,0,0,0,0,0
0,0,0,0,0,0,0,0,0,0,0,0,0,0,0,0
0,a,a,a,a,a,a,a,a,a,a,a,a,a,a,a
0,a,0,0,0,0,0,0,0,0,0,0,0,0,0,0
0,a,0,0,0,0,0,0,0,0,0,0,0,0,0,0
0,a,0,0,0,0,0,0,0,0,0,0,0,0,0,0
0,a,a,a,a,a,a,a,a,a,a,a,a,a,a,a
0,0,0,0,0,0,0,0,0,0,0,0,0,0,0,0
0,0,0,0,0,0,0,0,0,0,0,0,0,0,0,0
0,0,0,0,0,0,0,0,0,0,0,0,0,0,0,0
0,0,0,0,0,0,0,0,0,0,0,0,0,0,0,0
0,0,0,0,0,0,0,0,0,0,0,0,0,0,0,0
0,0,0,0,0,0,0,0,0,0,0,0,0,0,0,0
EXT 15,7 1 0,7
PAL 0

ROOM 1
0,0,0,0,0,0,0,0,0,0,0,0,0,0,0,0
0,0,0,0,0,0,0,0,0,0,0,0,0,0,0,0
0,0,0,0,0,0,0,0,0,0,0,0,0,0,0,0
0,0,0,0,0,0,0,0,0,0,0,0,0,0,0,0
0,0,0,0,0,0,0,0,0,0,0,0,0,0,0,0
a,a,a,a,a,a,a,a,a,a,a,a,a,a,a,a
0,0,0,0,0,0,0,0,0,0,0,0,0,0,0,0
0,0,0,0,0,0,0,0,0,0,0,0,0,0,0,b
0,0,0,0,0,0,0,0,0,0,0,0,0,0,0,0
a,a,a,a,a,a,a,a,a,a,a,a,a,a,a,a
0,0,0,0,0,0,0,0,0,0,0,0,0,0,0,0
0,0,0,0,0,0,0,0,0,0,0,0,0,0,0,0
0,0,0,0,0,0,0,0,0,0,0,0,0,0,0,0
0,0,0,0,0,0,0,0,0,0,0,0,0,0,0,0
0,0,0,0,0,0,0,0,0,0,0,0,0,0,0,0
0,0,0,0,0,0,0,0,0,0,0,0,0,0,0,0
ITM 0 14,7
EXT 15,7 2 0,7
PAL 0

ROOM 2
0,h,i,i,i,i,i,i,i,i,i,i,i,i,e,0
0,c,0,0,0,0,0,0,0,0,0,0,0,j,c,0
0,c,0,0,0,0,0,0,0,0,0,0,0,0,c,0
0,c,0,0,0,0,0,0,0,0,0,0,0,0,c,0
0,c,0,0,0,0,0,0,0,0,0,0,0,0,c,0
i,g,0,0,0,0,0,0,0,0,0,0,0,0,c,0
0,0,0,0,0,0,0,0,0,0,0,0,0,0,c,0
0,0,0,0,0,0,0,0,0,0,0,0,0,0,c,0
0,0,0,0,0,0,0,0,0,0,0,0,0,0,c,0
i,e,0,0,0,0,0,0,0,0,0,0,0,0,d,e
0,c,0,0,0,0,0,0,0,0,0,0,0,0,0,f
0,c,0,0,0,0,0,0,0,0,0,0,0,0,0,f
0,c,0,0,0,0,0,0,0,0,0,0,0,0,h,g
0,c,0,0,0,0,0,0,0,0,0,0,0,0,c,0
0,d,i,i,i,i,i,i,i,i,i,i,i,i,g,0
0,0,0,0,0,0,0,0,0,0,0,0,0,0,0,0
ITM 1 14,11
ITM 1 3,1
ITM 1 5,13
EXT 13,1 3 15,15
PAL 1

ROOM 3
k,k,0,k,k,k,k,k,k,k,k,k,0,k,k,k
k,0,k,k,k,k,k,k,k,k,k,k,k,0,k,k
0,k,k,k,k,k,k,k,k,k,k,k,k,k,0,k
0,k,k,k,k,k,k,k,k,k,k,k,k,k,0,k
0,k,k,k,0,0,k,k,k,0,0,k,k,k,0,k
0,k,k,k,0,0,k,k,k,0,0,k,k,k,0,k
0,k,k,k,k,k,k,k,k,k,k,k,k,k,0,k
0,k,k,k,k,k,k,k,k,k,k,k,k,k,0,k
k,0,k,k,k,k,k,0,k,k,k,k,k,0,k,k
k,k,0,k,k,k,k,k,k,k,k,k,0,k,k,k
k,0,k,k,k,k,k,k,k,k,k,k,k,0,k,k
k,0,k,k,k,k,k,k,k,k,k,k,k,0,k,k
k,0,k,k,k,0,0,0,0,0,k,k,k,0,k,k
k,0,0,k,k,k,k,k,k,k,k,k,0,k,k,k
k,k,k,0,k,k,k,k,k,k,k,0,k,k,k,k
k,k,k,k,0,0,0,0,0,0,0,0,k,k,k,k
EXT 0,0 4 0,1
PAL 2

ROOM 4
i,i,i,i,i,i,i,i,i,i,i,i,i,i,e,0
0,0,0,0,0,0,0,0,0,0,0,0,0,0,f,0
0,0,0,0,0,0,0,0,0,0,0,0,0,0,f,0
i,i,i,i,i,i,i,i,i,i,i,e,0,0,f,0
0,0,0,0,0,0,0,0,0,0,0,f,0,0,f,0
0,0,0,0,0,0,0,0,0,0,0,f,0,0,f,0
0,0,0,0,0,0,0,0,0,0,0,f,0,0,f,0
0,0,0,0,0,0,0,0,0,0,0,f,0,0,f,0
0,0,0,0,0,0,0,0,0,0,0,f,0,0,f,0
0,0,0,0,0,0,0,0,0,0,0,f,0,0,f,0
0,0,0,0,0,0,0,0,0,0,0,f,0,0,f,0
0,0,0,0,0,0,0,0,0,0,0,f,0,0,f,0
0,0,0,0,0,0,0,0,0,0,0,f,0,0,f,0
0,0,0,0,0,0,0,0,0,0,0,f,0,0,f,0
0,0,0,0,0,0,0,0,0,0,0,f,0,0,f,0
0,0,0,0,0,0,0,0,0,0,0,f,0,0,f,0
EXT 12,15 5 12,0
PAL 3

ROOM 5
0,0,0,0,0,0,0,0,0,0,0,f,0,0,f,0
0,0,0,0,0,0,0,0,0,0,0,f,0,0,f,0
0,0,0,0,0,0,0,0,0,0,0,f,0,0,f,0
0,0,0,0,0,0,0,0,0,0,0,f,0,0,f,0
0,0,0,0,0,0,0,0,0,0,0,f,0,0,f,0
0,0,0,0,0,0,0,0,0,0,0,f,0,0,f,0
0,0,0,0,0,0,0,0,0,0,0,f,0,0,f,0
i,i,i,i,i,i,i,i,i,i,i,g,0,0,f,0
0,0,0,0,0,0,0,0,0,0,0,0,0,0,f,0
i,i,i,i,i,i,i,i,i,i,i,i,i,i,g,0
0,0,0,0,0,0,0,0,0,0,0,0,0,0,0,0
0,0,0,0,0,0,0,0,0,0,0,0,0,0,0,0
i,i,i,i,i,i,i,i,i,i,i,i,i,i,i,i
0,0,0,0,0,0,0,0,0,0,0,0,0,0,0,0
i,i,i,i,i,i,i,i,i,i,i,i,i,i,i,i
0,0,0,0,0,0,0,0,0,0,0,0,0,0,0,0
EXT 0,8 5 0,13
EXT 15,13 6 0,13
PAL 3

ROOM 6
0,0,0,0,0,0,0,0,0,0,0,f,0,f,0,0
0,0,0,0,0,0,0,0,0,0,0,f,0,f,0,0
0,0,0,0,0,0,0,0,0,0,0,f,0,f,0,0
0,0,0,0,0,0,0,0,0,0,0,f,0,f,0,0
0,0,h,i,i,i,i,i,i,i,i,g,0,f,0,0
0,0,c,0,0,0,0,0,0,0,0,0,0,f,0,0
0,0,c,0,h,i,i,i,i,i,i,e,0,f,0,0
0,h,g,0,c,0,0,0,0,0,0,f,0,f,0,0
0,f,0,0,d,e,0,0,0,0,0,f,0,f,0,0
0,f,0,0,0,c,0,0,0,0,0,f,0,f,0,0
0,d,i,i,i,g,0,0,0,0,0,f,0,f,0,0
0,0,0,0,0,0,0,0,0,0,0,f,0,f,0,0
i,i,i,i,i,i,i,i,i,i,i,g,0,f,0,0
0,0,0,0,0,0,0,0,0,0,0,0,0,f,0,0
i,i,i,i,i,i,i,i,i,i,i,i,i,g,0,0
0,0,0,0,0,0,0,0,0,0,0,0,0,0,0,0
ITM 1 2,9
EXT 12,0 7 1,8
PAL 3

ROOM 7
k,0,0,0,0,0,0,0,0,0,0,0,l,l,l,l
k,0,0,0,0,0,0,0,0,0,0,0,l,l,l,l
k,0,0,0,0,0,0,0,0,0,0,0,l,l,l,l
k,h,i,e,0,0,0,0,0,0,0,0,l,l,l,l
k,c,0,c,0,0,0,0,0,0,0,0,l,l,l,l
k,d,i,g,0,0,0,0,0,0,0,0,l,l,l,l
k,0,0,0,0,0,0,0,0,0,0,0,l,l,l,l
k,0,0,0,0,0,0,0,0,0,0,0,l,l,l,l
k,0,0,0,0,0,0,0,0,0,0,0,l,l,l,l
k,0,0,0,0,0,0,0,0,0,0,0,l,l,l,l
k,0,0,0,0,0,0,0,0,0,0,0,l,l,l,l
k,0,0,0,0,0,0,0,0,0,0,0,l,l,l,l
k,0,0,0,0,0,0,0,0,0,0,0,l,l,l,l
k,0,0,0,0,0,0,0,0,0,0,0,l,l,l,l
k,0,0,0,0,0,0,0,0,0,0,0,l,l,l,l
k,0,0,0,0,0,0,0,0,0,0,0,l,l,l,l
END undefined 15,5
PAL 4

TIL a
11111111
10000001
10000001
10011001
10011001
10000001
10000001
11111111
WAL true

TIL b
00000000
00010000
00011000
11111100
11111100
00011000
00010000
00000000
>
00000000
00000100
00000110
00111111
00111111
00000110
00000100
00000000

TIL c
00111110
00111110
00111110
00111110
00111110
00111110
00111110
00111110
WAL true

TIL d
00111110
00111110
00111111
00111111
00111111
00011111
00001111
00000000
WAL true

TIL e
00000000
00000000
11110000
11111000
11111100
11111110
11111110
00111110
WAL true

TIL f
00111110
00111110
00111110
00111110
00111110
00111110
00111110
00111110
WAL true

TIL g
00111110
00111110
11111110
11111110
11111110
11111100
11111000
00000000
WAL true

TIL h
00000000
00000000
00011111
00111111
00111111
00111111
00111111
00111110
WAL true

TIL i
00000000
00000000
11111111
11111111
11111111
11111111
11111111
00000000
WAL true

TIL j
00000000
01111110
01000010
01011010
01011010
01000010
01111110
00000000
>
11111111
10000001
10111101
10100101
10100101
10111101
10000001
11111111
NAME portal

TIL k
00000000
00011000
00011000
00111100
00111100
01111110
01111110
00011000
NAME tree

TIL l
11111111
11111111
11111111
11111111
11111111
11111111
11111111
11111111
NAME road
WAL false

TIL m
00000000
00000000
00000000
00000000
00000000
00000000
00000000
00000000

SPR A
00000000
01110011
10110011
01110111
10111011
10111011
00110011
00110011
>
00000000
11110011
00110011
01110111
10111011
00110011
01010101
10011001
POS 0 2,7

SPR a
11111111
11111111
11111111
11111111
11111111
11111111
11111111
11111111
NAME box
DLG SPR_0
POS 6 3,9

SPR b
01000000
10100100
10000100
01100111
01111111
01111100
10011100
10000011
>
01100010
10010100
10000111
01100110
01111101
01111100
10001110
10000001
NAME vicious dog
POS 7 2,4

ITM 0
01010010
00011000
00100101
00011000
00011000
11011000
10111000
01111110
>
00001001
10011000
00100100
00011000
00011000
11011000
10111000
01111110
NAME candlelight
DLG ITM_1

ITM 1
00000000
01111110
01000000
01011010
01011010
00000010
01111110
00000000
>
00000000
01011110
01000010
01011010
01011010
01000010
01111010
00000000
NAME power orb
DLG ITM_0

DLG ITM_0
You have found a power orb.

DLG ITM_1
You found a lit candle. It illuminates the area around you as you enter the next corridor.

DLG SPR_0
*You use the box to climb back out of the chamber.*

END 0


END undefined
Noticing the vicious dog in a cage, you and your partner realize that this escape is only the beginning...

VAR a
42

