rainy gay, i mean day

# BITSY VERSION 5.3

! ROOM_FORMAT 1

PAL 0
255,222,142
0,0,0
255,255,255

ROOM 0
0,0,18,18,18,18,18,18,18,18,18,18,18,0,0,0
0,0,15,17,16,0,0,0,0,0,0,19,1a,0,0,0
0,0,11,0,11,0,1d,0,1e,0,0,q,q,0,0,0
0,0,r,s,t,1b,1b,1b,1b,1c,1b,q,q,0,0,0
0,c,0,0,0,0,0,b,b,0,0,0,0,f,0,0
0,c,0,0,0,0,0,b,b,0,0,0,0,f,0,0
0,c,0,12,0,12,0,b,b,0,12,0,13,f,0,0
0,c,0,0,0,0,0,b,b,0,0,0,0,f,0,0
0,c,1g,1i,1m,1j,1g,1g,1g,1k,1g,1l,1g,f,0,0
0,c,0,0,0,0,0,0,0,0,0,0,0,f,0,0
0,c,0,0,0,0,0,0,0,0,0,0,0,f,0,0
0,c,0,0,0,0,0,0,0,0,0,0,0,f,0,0
0,c,0,0,0,0,0,0,0,0,0,0,0,f,0,0
0,0,1g,1g,1g,1g,1g,1g,1g,1g,1g,1g,1g,0,0,0
0,0,0,0,0,0,0,0,0,0,0,0,0,0,0,0
0,0,0,0,0,0,0,0,0,0,0,0,0,0,0,0
NAME room 1
ITM 1 8,10
ITM 2 8,9
PAL 0

TIL 10
00000001
11111110
00000000
00000000
00000000
00000000
00000000
00000000

TIL 11
11111111
11111111
11111111
11111111
11111111
11111111
11111111
11111111

TIL 12
00000000
00000000
00000000
11000011
00000000
00000000
00000000
00000000

TIL 13
00000000
00000000
00000000
11000011
00000000
00000000
00000000
00000000

TIL 14
00011000
00011000
00011000
00011000
00011000
00011000
00011000
00011000

TIL 15
01000100
01000100
11111111
11111111
11111111
11111111
11111111
11111111

TIL 16
00100010
00100010
11111111
11111111
11111111
11111111
11111111
11111111

TIL 17
00000000
00000000
11111111
11111111
11111111
11111111
11111111
11111111

TIL 18
00000000
11111111
01010101
01010101
01010101
11111111
11111111
11111111

TIL 19
01000000
01000000
01000000
01111111
11111111
11111111
11111111
11111111

TIL a
11111111
00000000
00000000
00000000
00000000
00000000
00000000
00000000

TIL b
11111111
00000000
11111111
00000000
11111111
00000000
11111111
00000000

TIL c
00000001
00000001
00000001
00000001
00000001
00000001
00000001
00000001

TIL d
00000000
00000000
00000000
00000000
00000000
00000000
00000000
11111111

TIL e
10000000
10000000
10000000
10000000
10000000
10000000
10000000
11111111

TIL f
10000000
10000000
10000000
10000000
10000000
10000000
10000000
10000000

TIL g
00000001
00000001
00000001
00000001
00000001
00000001
00000001
11111111

TIL h
11111111
10000000
10000000
10000000
10000000
10000000
10000000
10000000

TIL i
11111111
00000001
00000001
00000001
00000001
00000001
00000001
00000001

TIL j
00000000
00000000
00000000
00000000
00000000
00000000
11111111
00000000

TIL k
00000000
00000000
00000000
00000000
00000000
00000000
11111111
00000000

TIL l
00000001
00000001
00000001
00000001
00000001
00000001
11111111
00000001

TIL o
00000000
00000000
00000000
00000000
00000000
00000000
00000000
00000000

TIL p
00000001
00000001
00000001
00000001
00000001
00000001
00000001
11111110

TIL q
11111111
11111111
11111111
11111111
11111111
11111111
11111111
11111111

TIL r
11111111
11111111
11111111
11111111
11111111
11111111
11111111
11111111

TIL s
11111111
00011000
00011000
00011000
00011000
00011000
00011000
11111111
>
11111111
00100100
00100100
00100100
00100100
00100100
00100100
11111111

TIL t
11111111
11111111
11111111
11111111
10111111
11111111
11111111
11111111

TIL u
11111111
11111111
11111111
11111111
11111111
11111111
11111111
11111111

TIL v
10000000
11111111
00000000
00000000
00000000
00000000
00000000
00000000

TIL w
00000000
11111111
00000000
00000000
00000000
00000000
00000000
00000000

TIL x
00000010
11111110
00000000
00000000
00000000
00000000
00000000
00000000

TIL y
00000000
00000000
00000000
00000000
00000000
00000000
11111111
00000000

TIL z
11111111
00000000
01111111
00000000
00000000
00000000
00000000
00000000

TIL 1a
00000010
00000010
00000010
11111111
11111111
11111111
11111111
11111111

TIL 1b
00000000
11111111
00110011
00110011
11001100
11001100
00110011
00110011

TIL 1c
00011000
11011011
00011011
00011011
11011000
11011000
11011011
00011000

TIL 1d
00011000
00011010
00011100
00011000
00011000
00011000
00011000
00011000

TIL 1e
00011000
01011000
00111000
00011100
00011000
00011000
00011000
00011000

TIL 1f
10000000
10000000
10000000
00000000
00000000
00000000
00000000
00000000

TIL 1g
11111111
00000000
00000000
00000000
00000000
00000000
00000000
00000000

TIL 1i
11111111
00000000
01110000
01110000
11111000
00000000
10100000
00000000

TIL 1j
11111111
00000000
00001110
00010111
00000111
00001111
00000000
00001010

TIL 1k
11111111
00000000
00000000
00001100
00011110
00111111
00000000
00010100

TIL 1l
11111111
00000000
01110000
01110000
11111000
00000000
01010000
00000000

TIL 1m
11111111
00000000
00000000
00011110
00111111
00000000
00010100
00000000

SPR 10
01000000
10010001
00100010
01000000
00001000
00010010
00100100
10000000
>
00000000
10000000
00100010
01000100
10000000
00010000
00100100
01001000

SPR 11
01000000
10010001
00100010
01000000
00001000
00010010
00100100
10000000
>
00000000
10000000
00100010
01000100
10000000
00010000
00100100
01001000
POS 0 3,10

SPR 12
01000000
10010001
00100010
01000000
00001000
00010010
00100100
10000000
>
00000000
10000000
00100010
01000100
10000000
00010000
00100100
01001000
POS 0 2,10

SPR 13
01000000
10010001
00100010
01000000
00001000
00010010
00100100
10000000
>
00000000
10000000
00100010
01000100
10000000
00010000
00100100
01001000

SPR 14
01000000
10010001
00100010
01000000
00001000
00010010
00100100
10000000
>
00000000
10000000
00100010
01000100
10000000
00010000
00100100
01001000

SPR 15
01000000
10010001
00100010
01000000
00001000
00010010
00100100
10000000
>
00000000
10000000
00100010
01000100
10000000
00010000
00100100
01001000

SPR 16
01000000
10010001
00100010
01000000
00001000
00010010
00100100
10000000
>
00000000
10000000
00100010
01000100
10000000
00010000
00100100
01001000

SPR 17
01000000
10010001
00100010
01000000
00001000
00010010
00100100
10000000
>
00000000
10000000
00100010
01000100
10000000
00010000
00100100
01001000

SPR 18
01000000
10010001
00100010
01000000
00001000
00010010
00100100
10000000
>
00000000
10000000
00100010
01000100
10000000
00010000
00100100
01001000
POS 0 3,4

SPR 19
01000000
10010001
00100010
01000000
00001000
00010010
00100100
10000000
>
00000000
10000000
00100010
01000100
10000000
00010000
00100100
01001000
POS 0 4,4

SPR 20
01000000
10010001
00100010
01000000
00001000
00010010
00100100
10000000
>
00000000
10000000
00100010
01000100
10000000
00010000
00100100
01001000
POS 0 12,4

SPR 21
01000000
10010001
00100010
01000000
00001000
00010010
00100100
10000000
>
00000000
10000000
00100010
01000100
10000000
00010000
00100100
01001000
POS 0 12,5

SPR 22
00000000
00111110
01111111
01111111
01111111
00111111
00011110
00000000
>
00000000
00111110
01101101
01111111
01011101
00110111
00011110
00000000
POS 0 11,7

SPR 23
01000000
10010001
00100010
01000000
00001000
00010010
00100100
10000000
>
00000000
10000000
00100010
01000100
10000000
00010000
00100100
01001000
POS 0 11,6

SPR 24
01000000
10010001
00100010
01000000
00001000
00010010
00100100
10000000
>
00000000
10000000
00100010
01000100
10000000
00010000
00100100
01001000
POS 0 9,6

SPR 25
01000000
00010001
00100000
00000000
00001000
00010010
00000000
00000000
>
00000000
00000000
00100000
01000100
00000000
00010000
00000100
00000000
POS 0 10,7

SPR 26
01000000
00010001
00100000
00000000
00001000
00010010
00000000
00000000
>
00000000
00000000
00100000
01000100
00000000
00010000
00000100
00000000
POS 0 3,7

SPR 27
01000000
00010001
00100000
00000000
00001000
00010010
00000000
00000000
>
00000000
00000000
00100000
01000100
00000000
00010000
00000100
00000000
POS 0 5,7

SPR 28
01000000
00010001
00100000
00000000
00001000
00010010
00000000
00000000
>
00000000
00000000
00100000
01000100
00000000
00010000
00000100
00000000
POS 0 4,7

SPR 29
01000000
00010001
00100000
00000000
00001000
00010010
00000000
00000000
>
00000000
00000000
00100000
01000100
00000000
00010000
00000100
00000000
POS 0 12,7

SPR 30
01000000
10010001
00100010
01000000
00001000
00010010
00100100
10000000
>
00000000
10000000
00100010
01000100
10000000
00010000
00100100
01001000
POS 0 3,11

SPR 31
01000000
10010001
00100010
01000000
00001000
00010010
00100100
10000000
>
00000000
10000000
00100010
01000100
10000000
00010000
00100100
01001000
POS 0 5,11

SPR 32
01000000
10010001
00100010
01000000
00001000
00010010
00100100
10000000
>
00000000
10000000
00100010
01000100
10000000
00010000
00100100
01001000
POS 0 6,11

SPR 33
01000000
10010001
00100010
01000000
00001000
00010010
00100100
10000000
>
00000000
10000000
00100010
01000100
10000000
00010000
00100100
01001000
POS 0 7,11

SPR 34
01000000
10010001
00100010
01000000
00001000
00010010
00100100
10000000
>
00000000
10000000
00100010
01000100
10000000
00010000
00100100
01001000

SPR 35
01000000
10010001
00100010
01000000
00001000
00010010
00100100
10000000
>
00000000
10000000
00100010
01000100
10000000
00010000
00100100
01001000
POS 0 10,11

SPR 36
01000000
10010001
00100010
01000000
00001000
00010010
00100100
10000000
>
00000000
10000000
00100010
01000100
10000000
00010000
00100100
01001000
POS 0 12,10

SPR 37
01000000
10010001
00100010
01000000
00001000
00010010
00100100
10000000
>
00000000
10000000
00100010
01000100
10000000
00010000
00100100
01001000
POS 0 12,11

SPR 38
01000000
10010001
00100010
01000000
00001000
00010010
00100100
10000000
>
00000000
10000000
00100010
01000100
10000000
00010000
00100100
01001000
POS 0 2,12

SPR 39
01000000
10010001
00100010
01000000
00001000
00010010
00100100
10000000
>
00000000
10000000
00100010
01000100
10000000
00010000
00100100
01001000
POS 0 3,12

SPR A
00000000
00111100
01111110
11111111
00010000
00010101
00110000
00000000
POS 0 8,11

SPR a
00000000
00100000
01111000
01111000
00000000
00101000
00000000
00000000
NAME girl
DLG SPR_0
POS 0 7,9

SPR b
00000000
00111110
01111111
01111111
01111111
00111111
00011110
00000000
>
00000000
00111110
01101101
01111111
01011101
00110111
00011110
00000000
POS 0 4,5

SPR c
11111111
10001001
10010001
10100101
10001001
10010001
10100001
11111111
>
11111111
10000001
10000011
10100101
11001001
10000001
10000001
11111111
POS 0 3,2

SPR d
01111111
01001001
01011001
01101101
01001001
01011001
01101001
01111111
>
01111111
01001001
01001011
01101101
01001001
01001001
01001001
01111111
POS 0 11,2

SPR e
00011000
00111100
00100100
00111100
00100100
00111100
00100100
00111100
POS 0 9,2

SPR f
00011110
01111111
01111111
11111111
11111111
11111111
00111110
00011100
>
00001111
00111111
00111111
01111111
01111111
01111111
00011111
00001110
POS 0 1,0

SPR g
01111100
11111110
11111111
01111110
00000000
01111100
11111000
11111100
>
11111000
11111100
11111110
11111100
10000000
11111000
11110000
11111000
POS 0 13,0

SPR h
01111100
11111110
01111110
00000000
00000000
00000000
00010000
00000000
>
00111110
01111111
00111111
00000000
00000000
00000000
00100000
00000000
POS 0 0,0

SPR i
00000000
00001000
00000000
00011100
00111110
01111111
00111100
00000000
>
00000000
00000100
00000000
00111000
01111100
11111110
01111000
00000000
POS 0 14,0

SPR j
00000000
00000000
00111100
01111010
11111111
11101110
01111110
00111100
POS 0 8,1

SPR k
00000000
00000000
00111100
01111110
11011111
11111010
01111110
00111100
POS 0 6,1

SPR l
01000000
10010001
00100010
01000000
00001000
00010010
00100100
10000000
>
00000000
10000000
00100010
01000100
10000000
00010000
00100100
01001000
POS 0 7,1

SPR m
01000000
10010001
00100010
01000000
00001000
00010010
00100100
10000000
>
00000000
10000000
00100010
01000100
10000000
00010000
00100100
01001000
POS 0 7,2

SPR n
01000000
10010001
00100010
01000000
00001000
00010010
00100100
10000000
>
00000000
10000000
00100010
01000100
10000000
00010000
00100100
01001000
POS 0 5,1

SPR o
01000000
10010001
00100010
01000000
00001000
00010010
00100100
10000000
>
00000000
10000000
00100010
01000100
10000000
00010000
00100100
01001000
POS 0 5,2

SPR p
01000000
10010001
00100010
01000000
00001000
00010010
00100100
10000000
>
00000000
10000000
00100010
01000100
10000000
00010000
00100100
01001000
POS 0 9,1

SPR q
01000000
10010001
00100010
01000000
00001000
00010010
00100100
10000000
>
00000000
10000000
00100010
01000100
10000000
00010000
00100100
01001000
POS 0 10,1

SPR r
01000000
10010001
00100010
01000000
00001000
00010010
00100100
10000000
>
00000000
10000000
00100010
01000100
10000000
00010000
00100100
01001000
POS 0 10,2

SPR s
01000000
10010001
00100010
01000000
00001000
00010010
00100100
10000000
>
00000000
10000000
00100010
01000100
10000000
00010000
00100100
01001000
POS 0 0,1

SPR t
01000000
10010001
00100010
01000000
00001000
00010010
00100100
10000000
>
00000000
10000000
00100010
01000100
10000000
00010000
00100100
01001000
POS 0 1,1

SPR u
01000000
10010001
00100010
01000000
00001000
00010010
00100100
10000000
>
00000000
10000000
00100010
01000100
10000000
00010000
00100100
01001000
POS 0 0,2

SPR v
01000000
10010001
00100010
01000000
00001000
00010010
00100100
10000000
>
00000000
10000000
00100010
01000100
10000000
00010000
00100100
01001000
POS 0 1,2

SPR w
01000000
10010001
00100010
01000000
00001000
00010010
00100100
10000000
>
00000000
10000000
00100010
01000100
10000000
00010000
00100100
01001000
POS 0 13,1

SPR x
01000000
10010001
00100010
01000000
00001000
00010010
00100100
10000000
>
00000000
10000000
00100010
01000100
10000000
00010000
00100100
01001000
POS 0 14,1

SPR y
01000000
10010001
00100010
01000000
00001000
00010010
00100100
10000000
>
00000000
10000000
00100010
01000100
10000000
00010000
00100100
01001000
POS 0 13,2

SPR z
01000000
10010001
00100010
01000000
00001000
00010010
00100100
10000000
>
00000000
10000000
00100010
01000100
10000000
00010000
00100100
01001000
POS 0 14,2

SPR 1a
01000000
10010001
00100010
01000000
00001000
00010010
00100100
10000000
>
00000000
10000000
00100010
01000100
10000000
00010000
00100100
01001000
POS 0 3,5

SPR 1b
01000000
10010001
00100010
01000000
00001000
00010010
00100100
10000000
>
00000000
10000000
00100010
01000100
10000000
00010000
00100100
01001000
POS 0 5,4

SPR 1c
01000000
10010001
00100010
01000000
00001000
00010010
00100100
10000000
>
00000000
10000000
00100010
01000100
10000000
00010000
00100100
01001000

SPR 1d
01000000
10010001
00100010
01000000
00001000
00010010
00100100
10000000
>
00000000
10000000
00100010
01000100
10000000
00010000
00100100
01001000
POS 0 5,5

SPR 1e
01000000
10010001
00100010
01000000
00001000
00010010
00100100
10000000
>
00000000
10000000
00100010
01000100
10000000
00010000
00100100
01001000
POS 0 6,4

SPR 1f
01000000
10010001
00100010
01000000
00001000
00010010
00100100
10000000
>
00000000
10000000
00100010
01000100
10000000
00010000
00100100
01001000
POS 0 6,5

SPR 1g
01000000
10010001
00100010
01000000
00001000
00010010
00100100
10000000
>
00000000
10000000
00100010
01000100
10000000
00010000
00100100
01001000
POS 0 2,5

SPR 1h
00000000
00111110
01111111
01111111
01111111
00111111
00011110
00000000
>
00000000
00111110
01101101
01111111
01011101
00110111
00011110
00000000

SPR 1i
00000000
00111110
01111111
01111111
01111111
00111111
00011110
00000000
>
00000000
00111110
01101101
01111111
01011101
00110111
00011110
00000000
POS 0 2,4

SPR 1j
01000000
10010001
00100010
01000000
00001000
00010010
00100100
10000000
>
00000000
10000000
00100010
01000100
10000000
00010000
00100100
01001000
POS 0 2,6

SPR 1k
01000000
10010001
00100010
01000000
00001000
00010010
00100100
10000000
>
00000000
10000000
00100010
01000100
10000000
00010000
00100100
01001000
POS 0 4,6

SPR 1l
01000000
10010001
00100010
01000000
00001000
00010010
00100100
10000000
>
00000000
10000000
00100010
01000100
10000000
00010000
00100100
01001000
POS 0 6,6

SPR 1m
01000000
10010001
00100010
01000000
00001000
00010010
00100100
10000000
>
00000000
10000000
00100010
01000100
10000000
00010000
00100100
01001000
POS 0 1,3

SPR 1n
01000000
10010001
00100010
01000000
00001000
00010010
00100100
10000000
>
00000000
10000000
00100010
01000100
10000000
00010000
00100100
01001000
POS 0 13,3

SPR 1o
01000000
10010001
00100010
01000000
00001000
00010010
00100100
10000000
>
00000000
10000000
00100010
01000100
10000000
00010000
00100100
01001000

SPR 1p
01000000
10010001
00100010
01000000
00001000
00010010
00100100
10000000
>
00000000
10000000
00100010
01000100
10000000
00010000
00100100
01001000

SPR 1q
01000000
10010001
00100010
01000000
00001000
00010010
00100100
10000000
>
00000000
10000000
00100010
01000100
10000000
00010000
00100100
01001000

SPR 1r
01000000
10010001
00100010
01000000
00001000
00010010
00100100
10000000
>
00000000
10000000
00100010
01000100
10000000
00010000
00100100
01001000

SPR 1s
01000000
10010001
00100010
01000000
00001000
00010010
00100100
10000000
>
00000000
10000000
00100010
01000100
10000000
00010000
00100100
01001000

SPR 1t
00000000
00111110
01111111
01111111
01111111
00111111
00011110
00000000
>
00000000
00111110
01101101
01111111
01011101
00110111
00011110
00000000
POS 0 2,9

SPR 1u
01000000
10010001
00100010
01000000
00001000
00010010
00100100
10000000
>
00000000
10000000
00100010
01000100
10000000
00010000
00100100
01001000
POS 0 10,5

SPR 1v
01000000
10010001
00100010
01000000
00001000
00010010
00100100
10000000
>
00000000
10000000
00100010
01000100
10000000
00010000
00100100
01001000
POS 0 11,4

SPR 1w
01000000
10010001
00100010
01000000
00001000
00010010
00100100
10000000
>
00000000
10000000
00100010
01000100
10000000
00010000
00100100
01001000
POS 0 10,4

SPR 1x
01000000
10010001
00100010
01000000
00001000
00010010
00100100
10000000
>
00000000
10000000
00100010
01000100
10000000
00010000
00100100
01001000
POS 0 9,5

SPR 1y
00000000
00111110
01111111
01111111
01111111
00111111
00011110
00000000
>
00000000
00111110
01101101
01111111
01011101
00110111
00011110
00000000
POS 0 9,4

SPR 1z
01000000
10010001
00100010
01000000
00001000
00010010
00100100
10000000
>
00000000
10000000
00100010
01000100
10000000
00010000
00100100
01001000
POS 0 11,5

SPR 2a
01000000
00010001
00100000
00000000
00001000
00010010
00000000
00000000
>
00000000
00000000
00100000
01000100
00000000
00010000
00000100
00000000
POS 0 2,7

SPR 2b
01000000
00010001
00100000
00000000
00001000
00010010
00000000
00000000
>
00000000
00000000
00100000
01000100
00000000
00010000
00000100
00000000

SPR 2c
01000000
00010001
00100000
00000000
00001000
00010010
00000000
00000000
>
00000000
00000000
00100000
01000100
00000000
00010000
00000100
00000000
POS 0 3,9

SPR 2d
01000000
00010001
00100000
00000000
00001000
00010010
00000000
00000000
>
00000000
00000000
00100000
01000100
00000000
00010000
00000100
00000000
POS 0 9,7

SPR 2e
01000000
00010001
00100000
00000000
00001000
00010010
00000000
00000000
>
01001001
00000000
00100000
01000100
00000000
00010000
00000100
00000000
POS 0 4,9

SPR 2f
01000000
00010001
00100000
00000000
00001000
00010010
00000000
00000000
>
01001001
00000000
00100000
01000100
00000000
00010000
00000100
00000000

SPR 2g
01000000
10010001
00100010
01000000
00001000
00010010
00100100
10000000
>
00000000
10000000
00100010
01000100
10000000
00010000
00100100
01001000

SPR 2h
01000000
10010001
00100010
01000000
00001000
00010010
00100100
10000000
>
00000000
10000000
00100010
01000100
10000000
00010000
00100100
01001000
POS 0 6,9

SPR 2i
01000000
10010001
00100010
01000000
00001000
00010010
00100100
10000000
>
00000000
10000000
00100010
01000100
10000000
00010000
00100100
01001000

SPR 2j
01000000
10010001
00100010
01000000
00001000
00010010
00100100
10000000
>
00000000
10000000
00100010
01000100
10000000
00010000
00100100
01001000

SPR 2k
01000000
10010001
00100010
01000000
00001000
00010010
00100100
10000000
>
00000000
10000000
00100010
01000100
10000000
00010000
00100100
01001000
POS 0 9,9

SPR 2l
01000000
10010001
00100010
01000000
00001000
00010010
00100100
10000000
>
00000000
10000000
00100010
01000100
10000000
00010000
00100100
01001000
POS 0 10,9

SPR 2m
01000000
10010001
00100010
01000000
00001000
00010010
00100100
10000000
>
00000000
10000000
00100010
01000100
10000000
00010000
00100100
01001000
POS 0 4,10

SPR 2n
01000000
10010001
00100010
01000000
00001000
00010010
00100100
10000000
>
00000000
10000000
00100010
01000100
10000000
00010000
00100100
01001000
POS 0 5,10

SPR 2o
01000000
00010001
00100000
00000000
00001000
00010010
00000000
00000000
>
00000000
00000000
00100000
01000100
00000000
00010000
00000100
00000000
POS 0 11,9

SPR 2p
01000000
00010001
00100000
00000000
00001000
00010010
00000000
00000000
>
00000000
00000000
00100000
01000100
00000000
00010000
00000100
00000000
POS 0 9,10

SPR 2q
01000000
10010001
00100010
01000000
00001000
00010010
00100100
10000000
>
00000000
10000000
00100010
01000100
10000000
00010000
00100100
01001000
POS 0 7,10

SPR 2r
01000000
10010001
00100010
01000000
00001000
00010010
00100100
10000000
>
00000000
10000000
00100010
01000100
10000000
00010000
00100100
01001000
POS 0 6,10

SPR 2s
01000000
10010001
00100010
01000000
00001000
00010010
00100100
10000000
>
00000000
10000000
00100010
01000100
10000000
00010000
00100100
01001000
POS 0 10,10

SPR 2t
01000000
10010001
00100010
01000000
00001000
00010010
00100100
10000000
>
00000000
10000000
00100010
01000100
10000000
00010000
00100100
01001000
POS 0 11,10

SPR 2u
01000000
10010001
00100010
01000000
00001000
00010010
00100100
10000000
>
00000000
10000000
00100010
01000100
10000000
00010000
00100100
01001000

SPR 2v
01000000
10010001
00100010
01000000
00001000
00010010
00100100
10000000
>
00000000
10000000
00100010
01000100
10000000
00010000
00100100
01001000
POS 0 2,11

SPR 2w
00000000
00111110
01111111
01111111
01111111
00111111
00011110
00000000
>
00000000
00111110
01101101
01111111
01011101
00110111
00011110
00000000
POS 0 5,9

SPR 2x
00000000
00111110
01111111
01111111
01111111
00111111
00011110
00000000
>
00000000
00111110
01101101
01111111
01011101
00110111
00011110
00000000
POS 0 12,9

SPR 2y
00000000
00111110
01111111
01111111
01111111
00111111
00011110
00000000
>
00000000
00111110
01101101
01111111
01011101
00110111
00011110
00000000
POS 0 4,11

SPR 2z
00000000
00111110
01111111
01111111
01111111
00111111
00011110
00000000
>
00000000
00111110
01101101
01111111
01011101
00110111
00011110
00000000
POS 0 11,11

SPR 3a
01000000
10010001
00100010
01000000
00001000
00010010
00100100
10000000
>
00000000
10000000
00100010
01000100
10000000
00010000
00100100
01001000
POS 0 4,12

SPR 3b
01000000
10010001
00100010
01000000
00001000
00010010
00100100
10000000
>
00000000
10000000
00100010
01000100
10000000
00010000
00100100
01001000
POS 0 5,12

SPR 3c
01000000
10010001
00100010
01000000
00001000
00010010
00100100
10000000
>
00000000
10000000
00100010
01000100
10000000
00010000
00100100
01001000
POS 0 6,12

SPR 3d
01000000
10010001
00100010
01000000
00001000
00010010
00100100
10000000
>
00000000
10000000
00100010
01000100
10000000
00010000
00100100
01001000
POS 0 7,12

SPR 3e
01000000
10010001
00100010
01000000
00001000
00010010
00100100
10000000
>
00000000
10000000
00100010
01000100
10000000
00010000
00100100
01001000
POS 0 8,12

SPR 3f
01000000
10010001
00100010
01000000
00001000
00010010
00100100
10000000
>
00000000
10000000
00100010
01000100
10000000
00010000
00100100
01001000
POS 0 9,12

SPR 3g
01000000
10010001
00100010
01000000
00001000
00010010
00100100
10000000
>
00000000
10000000
00100010
01000100
10000000
00010000
00100100
01001000
POS 0 9,11

SPR 3h
01000000
10010001
00100010
01000000
00001000
00010010
00100100
10000000
>
00000000
10000000
00100010
01000100
10000000
00010000
00100100
01001000
POS 0 10,12

SPR 3i
01000000
10010001
00100010
01000000
00001000
00010010
00100100
10000000
>
00000000
10000000
00100010
01000100
10000000
00010000
00100100
01001000
POS 0 11,12

SPR 3j
01000000
10010001
00100010
01000000
00001000
00010010
00100100
10000000
>
00000000
10000000
00100010
01000100
10000000
00010000
00100100
01001000
POS 0 12,12

ITM 0
00000000
00000000
00000000
00111100
01100100
00100100
00011000
00000000
NAME tea
DLG ITM_0

ITM 1
00000000
10000000
00010100
00101000
01000000
00000000
00001000
01010010
>
01000000
10001010
00010100
00100001
00000000
10000100
00001001
00000010
NAME monolog 1
DLG ITM_1

ITM 2
00000000
10000000
00010100
00101000
01000000
00000000
00001000
01010010
>
01000000
10001010
00010100
00100001
00000000
10000100
00001001
00000010
NAME monolog 2
DLG ITM_2

DLG ITM_0
You found a nice warm cup of tea

DLG SPR_0
...

DLG ITM_1
it was a friday. i was on my way to catch the train home for the weekend, when suddenly there she was. her hands covering her beret she stood shivering in the rain. no coat, short skirt and high heels. clearly she spent the past hour doing her hair and make up and now it was on the brink of 'all for nothing'

DLG ITM_2
"""
without saying anything i went to stand next to her, inching my umbrella sideways so it covered her too. for a few seconds she held up her hand in confusion, then she saw me.
then she smiled.

while we waited for the light to turn green she chatted away happily, about where she was headed, that she bought the beret especially and was afraid it'd get ruined if it weren't for me and my umbrella. 

(endNow "at that moment i wished the light would stay red forever.") 
"""

VAR a
42

