Sublime jungle

# BITSY VERSION 5.1

! ROOM_FORMAT 1

PAL 0
0,0,0
1,209,81
255,50,4
255,255,255

PAL 1
0,0,0
255,50,4
255,75,26
255,255,255

PAL 2
0,0,0
240,4,4
240,35,23
255,255,255

PAL 3
0,0,0
145,27,2
207,20,20
255,255,255

PAL 4
0,0,0
25,25,25
54,5,1
255,255,255

PAL 5
0,0,0
0,0,0
0,0,0

ROOM 0
0,b,b,b,b,b,b,b,b,b,0,0,0,0,b,b
b,b,b,b,b,b,b,b,b,b,b,b,0,0,b,b
b,b,b,b,c,0,0,d,0,d,b,b,b,b,b,b
0,b,0,d,0,0,0,0,b,b,b,b,b,b,b,0
b,b,0,e,f,0,c,b,b,b,b,b,b,b,0,0
b,b,0,0,0,0,0,0,b,b,b,0,0,b,0,0
b,b,0,c,0,0,0,d,0,0,0,0,0,0,0,0
b,b,0,0,0,c,0,0,0,0,0,0,c,0,0,b
b,b,b,b,0,0,0,0,0,c,0,b,0,0,0,b
0,b,b,b,b,0,0,0,0,0,c,0,0,0,b,b
0,0,b,b,b,b,0,0,0,0,0,0,0,d,b,b
b,b,b,b,b,0,0,0,0,0,0,0,c,0,b,b
b,b,0,0,0,0,b,0,0,0,0,0,0,0,b,b
0,b,b,0,c,b,b,0,d,0,0,0,0,b,b,b
b,b,b,b,b,b,b,b,b,b,b,b,b,b,b,b
b,b,b,b,b,b,b,b,b,b,b,b,b,b,b,b
EXT 6,15 1 6,1
EXT 5,15 1 5,1
EXT 4,15 1 5,1
EXT 3,15 1 4,1
EXT 2,15 1 4,1
EXT 15,6 2 1,6
EXT 15,5 2 1,5
EXT 15,4 2 1,4
EXT 15,3 2 1,3
PAL 0

ROOM 1
b,b,0,0,0,0,0,b,b,b,b,b,b,b,b,b
c,0,b,b,0,0,d,0,0,0,0,c,b,b,0,b
0,b,b,0,0,0,c,0,0,0,0,b,b,b,c,0
b,b,b,b,0,0,0,0,d,0,0,b,b,b,0,0
b,b,b,b,b,b,0,0,d,0,0,b,b,b,b,b
b,b,c,0,b,b,b,b,0,d,0,0,0,b,b,b
b,b,0,c,c,b,b,b,0,d,d,0,c,b,b,b
b,b,b,0,b,b,b,c,0,0,d,0,0,0,b,b
b,b,0,b,b,c,0,0,0,0,d,0,0,b,b,b
b,b,b,b,b,b,0,0,0,d,d,0,0,0,b,b
b,0,b,b,b,b,0,0,0,d,d,0,0,c,b,b
b,b,b,b,b,b,0,0,d,d,0,0,0,0,b,b
b,b,b,b,c,0,0,d,d,d,0,0,0,b,b,0
g,g,g,g,g,g,g,g,g,g,g,g,g,g,g,g
0,c,0,h,0,0,0,d,d,0,0,0,0,c,0,0
0,0,0,0,c,c,0,d,d,0,0,0,0,h,c,0
EXT 2,0 a 5,14
EXT 3,0 a 6,14
EXT 4,0 a 7,14
EXT 5,0 a 8,14
EXT 6,0 a 8,14
PAL 0

ROOM 2
b,b,0,b,d,b,b,b,d,b,b,c,b,b,b,b
b,b,d,c,0,0,b,b,b,b,b,b,b,b,b,b
b,b,b,b,b,0,b,b,d,d,d,d,0,0,0,b
0,0,0,0,b,b,b,b,d,d,0,0,0,0,0,d
d,d,0,0,0,b,b,b,b,0,c,0,h,h,h,0
d,d,d,c,c,0,b,b,b,0,0,0,d,h,h,0
0,0,0,d,c,0,b,b,0,0,0,0,h,h,h,0
b,0,0,0,0,d,0,0,0,0,0,0,0,0,0,b
b,0,0,0,b,0,d,d,d,d,0,0,0,b,b,b
b,b,0,0,0,b,0,0,0,0,0,0,0,b,d,b
b,b,b,0,0,b,0,0,0,c,0,0,b,b,b,b
b,0,b,b,b,0,b,0,0,0,c,0,b,b,b,b
b,0,0,0,c,0,b,0,d,d,0,0,b,b,0,0
b,0,0,b,b,b,b,b,0,d,d,b,b,0,0,b
b,b,c,0,0,b,b,b,b,b,b,b,b,b,b,0
b,b,b,b,b,b,b,b,b,b,b,b,b,b,b,b
NAME ecit1
EXT 0,3 a 14,4
EXT 0,4 a 14,5
EXT 0,5 a 14,6
EXT 0,6 a 14,7
EXT 15,6 6 1,6
EXT 15,4 6 1,4
EXT 15,3 6 1,5
EXT 15,5 6 1,6
PAL 0

ROOM 3
0,0,0,0,0,0,0,0,0,0,0,0,0,0,0,0
0,e,f,0,0,0,0,0,0,0,0,0,0,0,0,0
0,0,0,0,0,0,0,17,17,17,0,0,0,0,0,0
0,0,0,0,0,0,18,a,a,a,11,0,0,0,o,0
0,0,0,0,0,16,0,i,i,i,0,k,l,m,n,0
0,0,0,0,0,15,0,d,12,i,13,0,0,0,0,0
0,0,0,0,0,0,14,14,0,14,0,0,0,0,0,0
0,b,0,0,0,0,u,t,0,0,0,0,u,t,0,0
0,u,t,0,0,b,v,10,s,e,f,w,v,10,s,0
w,v,z,q,0,x,0,0,r,q,0,x,0,0,r,q
x,b,0,p,y,0,0,0,0,p,y,0,b,0,0,p
0,0,0,0,0,0,0,b,0,0,0,0,0,0,0,0
j,j,j,j,j,j,j,j,j,j,j,j,j,j,j,j
19,19,19,19,19,19,19,19,19,19,19,19,19,19,19,19
19,19,19,19,19,19,19,19,19,19,19,19,19,19,19,19
19,19,19,19,19,19,19,19,19,19,19,19,19,19,19,19
EXT 7,5 m 7,5
PAL 0

ROOM 4
b,b,b,b,b,b,b,b,0,0,d,0,0,0,b,b
b,b,b,b,c,0,c,0,0,d,0,0,0,b,b,b
b,b,b,0,0,0,0,0,d,d,0,0,b,b,b,b
b,b,b,b,b,b,b,b,d,b,b,b,b,b,b,b
b,c,b,b,b,c,b,b,d,b,1d,1c,b,b,b,b
b,b,c,0,0,0,0,d,d,0,1a,1b,0,b,b,b
b,b,b,0,1d,1c,0,c,d,d,0,c,0,b,b,b
b,b,b,0,1a,1b,0,0,0,d,0,0,b,b,b,b
b,b,b,0,0,0,0,c,0,0,c,0,b,b,b,b
b,b,c,0,0,c,0,0,0,0,1d,1c,b,b,b,b
1h,1h,0,1d,1c,0,0,0,0,0,1a,1b,0,b,b,b
1e,1e,1g,1a,1b,0,1h,0,c,0,0,c,b,b,b,b
1e,1e,1e,1g,1h,1f,1e,1g,0,0,1h,1h,1h,1h,1h,b
1e,1e,1e,1e,1e,1e,1e,1e,1g,1f,1e,1e,1e,1e,1e,1g
1e,1e,1e,1e,1e,1e,1e,1e,1e,1e,1e,1e,1e,1e,1e,1e
1e,1e,1e,1e,1e,1e,1e,1e,1e,1e,1e,1e,1e,1e,1e,1e
NAME village
EXT 12,0 f 13,14
EXT 11,0 f 12,14
EXT 10,0 f 11,14
EXT 9,0 f 10,14
EXT 8,0 f 9,14
PAL 0

ROOM 5
0,0,0,0,h,h,0,0,0,1i,b,b,b,b,b,b
h,h,0,0,0,h,0,0,0,1i,b,b,b,b,b,b
h,h,h,0,0,0,0,1d,1c,1i,b,0,d,0,b,b
h,h,h,0,h,h,0,1a,1b,1i,0,0,0,0,0,0
0,h,h,0,h,h,0,0,0,1i,0,c,c,d,0,0
0,0,0,0,0,0,0,0,0,1i,0,0,0,c,c,0
0,0,1d,1c,0,0,d,d,d,1i,0,0,0,0,c,0
0,0,1a,1b,0,0,d,d,d,0,0,0,0,0,0,0
0,0,0,0,d,d,d,d,d,0,d,0,0,0,0,0
h,h,0,0,d,d,d,d,d,1i,0,0,c,d,c,0
d,d,h,d,d,d,d,d,d,1i,0,0,0,0,0,0
d,d,d,d,d,d,0,0,0,1i,0,0,0,0,0,d
d,d,d,d,0,h,h,h,0,1i,b,0,0,0,0,0
d,d,0,0,h,h,h,0,0,1i,b,b,b,0,0,b
h,d,0,0,h,h,0,0,0,1i,b,b,b,b,b,b
0,0,0,0,0,0,0,0,0,1i,b,b,b,b,b,b
EXT 15,3 d 1,4
EXT 15,4 d 1,4
EXT 15,5 d 1,5
EXT 15,6 d 1,6
EXT 15,7 d 1,7
EXT 15,8 d 1,8
EXT 15,9 d 1,9
EXT 15,10 d 1,10
EXT 15,11 d 1,11
EXT 15,12 d 1,12
EXT 9,7 l 9,7
EXT 9,8 l 9,8
PAL 0

ROOM 6
b,b,b,b,b,0,0,0,0,0,0,b,b,b,b,b
b,c,b,b,b,0,0,0,c,0,0,b,b,0,b,0
b,b,b,b,0,0,c,c,0,0,b,c,b,b,b,c
0,b,b,b,0,0,c,0,0,0,b,b,b,0,b,b
0,0,0,0,0,0,0,d,d,0,b,0,c,b,b,b
d,d,d,d,0,d,d,0,0,b,b,b,0,b,b,b
0,0,0,d,d,0,0,0,b,b,0,b,b,b,b,b
b,0,0,0,0,d,d,0,b,b,c,c,b,b,0,b
b,b,0,0,0,0,d,d,d,b,b,b,b,b,b,b
b,b,b,b,c,b,0,0,d,d,0,0,0,0,b,b
b,0,b,b,b,0,d,0,0,0,0,0,0,0,0,0
b,b,0,b,b,d,d,c,c,0,0,0,0,0,0,0
b,b,b,b,b,d,0,0,c,0,0,b,b,0,0,0
b,b,b,0,b,d,d,0,0,0,b,b,b,b,b,b
b,b,b,b,0,0,0,0,0,0,b,0,c,b,b,b
b,0,b,b,b,0,0,0,0,b,b,b,b,b,b,b
EXT 0,4 b 14,4
EXT 0,5 b 14,5
EXT 0,6 b 14,6
EXT 5,0 7 5,14
EXT 6,0 7 6,14
EXT 7,0 7 7,14
EXT 8,0 7 8,14
EXT 9,0 7 9,14
EXT 10,0 7 10,14
EXT 5,15 c 5,1
EXT 6,15 c 6,1
EXT 8,15 c 9,1
EXT 7,15 c 8,1
EXT 15,10 g 1,10
EXT 15,11 g 1,11
EXT 15,12 g 1,12
PAL 0

ROOM 7
b,b,0,0,b,b,b,b,0,c,c,c,0,b,b,b
0,b,c,b,b,0,b,b,0,b,0,0,b,b,b,b
b,b,b,b,b,b,b,b,b,b,b,b,b,b,b,0
b,b,b,b,b,b,b,b,b,b,0,0,0,0,0,0
b,c,b,b,0,0,0,0,b,0,0,0,0,0,c,0
b,b,b,0,0,0,c,c,0,0,0,0,0,0,0,0
b,b,0,b,0,0,0,0,0,0,0,c,c,d,d,0
b,b,0,0,0,0,0,0,0,0,0,d,d,0,0,0
b,0,0,0,c,c,0,0,0,0,d,d,0,0,0,0
b,b,b,0,c,0,0,0,0,0,0,0,0,0,b,b
b,b,b,0,0,0,0,d,d,0,c,0,0,b,b,b
b,0,b,b,0,b,0,d,0,0,0,0,0,b,b,0
b,b,b,b,b,0,d,0,0,0,0,0,b,b,0,b
b,b,b,0,0,0,0,d,0,0,0,b,b,0,0,0
b,b,b,b,b,0,0,0,0,c,0,b,b,b,b,0
b,b,b,b,b,0,0,0,0,0,0,b,b,b,b,b
EXT 5,15 6 5,1
EXT 6,15 6 6,1
EXT 7,15 6 7,1
EXT 8,15 6 8,1
EXT 9,15 6 9,1
EXT 10,15 6 9,1
EXT 15,3 8 1,5
EXT 15,4 8 1,4
EXT 15,5 8 1,6
EXT 15,6 8 1,7
EXT 15,7 8 1,8
EXT 15,8 8 1,9
PAL 0

ROOM 8
b,b,b,b,b,b,b,b,b,b,0,b,b,0,0,0
0,0,b,b,b,b,b,b,b,b,b,0,0,b,0,0
b,b,b,b,b,b,0,0,b,b,0,0,b,0,b,0
0,0,b,b,0,0,0,0,0,0,b,b,0,0,b,b
0,c,0,0,0,c,0,d,d,0,0,b,b,0,b,b
0,0,0,0,d,d,d,d,0,0,0,0,b,b,b,b
0,d,d,d,d,0,0,0,0,0,c,0,b,b,0,b
0,0,0,0,0,0,0,0,0,0,0,0,0,b,b,b
0,0,0,0,0,0,0,0,c,0,0,0,0,0,b,b
0,0,0,0,0,b,0,0,d,0,0,0,0,b,b,b
c,0,b,b,b,0,0,0,0,0,0,0,b,b,0,b
0,b,b,b,b,b,0,0,0,0,b,b,b,b,b,b
b,b,b,b,b,b,b,0,0,b,b,b,0,0,0,b
b,b,b,b,b,b,b,b,b,b,0,b,b,b,0,b
b,b,b,b,b,0,b,b,b,0,0,0,b,b,b,b
0,b,b,b,b,b,b,b,b,b,b,b,b,b,0,0
ITM 1 10,8
EXT 0,4 7 14,3
EXT 0,5 7 14,4
EXT 0,6 7 14,5
EXT 0,7 7 14,6
EXT 0,8 7 14,7
EXT 0,9 7 14,8
EXT 0,10 7 14,8
PAL 0

ROOM 9
0,0,0,0,0,0,0,0,0,0,0,0,0,0,0,0
0,0,0,0,0,0,0,0,0,0,0,0,0,0,0,0
0,0,0,0,0,0,0,0,0,0,0,0,0,0,0,0
0,0,0,0,0,0,0,0,0,0,0,0,0,0,0,0
0,0,0,0,0,u,t,0,0,0,0,0,u,t,0,0
0,0,0,0,w,v,z,r,q,0,0,w,v,z,s,0
q,0,0,0,x,0,0,0,p,q,0,x,0,0,r,q
p,u,t,y,0,0,0,0,0,p,y,0,0,0,0,p
1n,1n,1n,1n,1n,1n,1n,1n,1n,1n,1n,1n,1n,1n,1n,1n
1m,1m,1m,1m,1m,1m,1m,1m,1m,1m,1m,1m,1m,1m,1m,1m
1l,1l,1l,1l,1l,1l,1l,1l,1l,1l,1l,1l,1l,1l,1l,1l
b,0,b,b,b,c,0,d,d,0,0,b,b,b,c,b
b,b,b,b,0,0,0,d,d,0,0,0,b,b,b,b
c,b,b,0,c,0,d,d,0,0,c,0,c,b,b,b
b,b,b,b,0,0,d,0,c,0,0,0,b,b,b,0
b,b,c,b,c,0,d,d,0,0,b,b,b,b,b,b
EXT 4,15 j 5,1
EXT 5,15 j 6,1
EXT 6,15 j 7,1
EXT 7,15 j 8,1
EXT 8,15 j 9,1
EXT 9,15 j 10,1
PAL 0

ROOM 10
0,c,0,b,b,b,b,b,0,d,0,0,c,b,b,0
0,d,b,c,b,b,b,0,0,d,0,0,0,0,b,0
0,b,0,b,b,b,b,c,0,d,0,0,b,0,b,b
b,b,b,b,0,b,0,c,0,0,0,0,0,b,b,b
0,b,b,b,b,b,b,0,c,0,0,c,0,b,0,c
b,b,b,b,b,b,b,0,0,d,0,c,c,b,b,0
b,b,b,b,b,0,0,b,0,d,0,0,0,b,b,b
b,0,b,b,b,0,0,0,d,0,0,0,b,0,b,0
b,b,b,b,b,b,b,0,0,d,0,0,b,b,0,c
0,b,b,b,0,b,b,0,0,0,0,c,0,b,c,c
c,0,b,c,0,b,b,0,d,d,d,0,0,b,b,0
0,b,b,c,c,b,b,b,0,d,d,d,0,b,b,b
b,0,b,c,b,0,b,b,0,0,d,d,0,b,b,0
b,b,b,c,c,c,b,b,0,0,0,0,0,0,b,b
b,0,b,b,0,b,b,b,0,0,c,c,c,0,b,0
b,b,b,b,b,b,b,b,0,c,c,0,0,0,b,b
NAME az6
EXT 12,0 z 12,14
EXT 11,0 z 11,14
EXT 10,0 z 10,14
EXT 9,0 z 9,14
EXT 8,0 z 8,14
EXT 13,15 11 11,1
EXT 12,15 11 12,1
EXT 11,15 11 11,1
EXT 10,15 11 10,1
EXT 9,15 11 9,1
EXT 8,15 11 8,1
PAL 0

ROOM 11
b,b,b,b,b,b,b,0,0,0,d,0,0,0,b,b
b,b,b,b,c,0,c,0,0,d,0,0,0,b,b,b
b,b,b,0,0,0,0,0,d,d,0,0,b,b,b,b
b,b,b,b,b,b,b,b,d,b,b,b,b,b,b,b
b,c,b,b,b,c,b,b,d,b,1d,1c,b,b,b,b
b,b,c,0,0,0,0,d,d,0,1a,1b,0,b,b,b
b,b,b,0,1d,1c,0,c,d,d,0,c,0,b,b,b
b,b,b,0,1a,1b,0,0,0,d,0,0,b,b,b,b
b,b,b,0,0,0,0,c,0,0,c,0,b,b,b,b
b,b,c,0,0,c,0,0,0,0,1d,1c,b,b,b,b
1h,1h,0,1d,1c,0,0,0,0,0,1a,1b,0,b,b,b
1e,1e,1g,1a,1b,0,1h,0,c,0,0,c,b,b,b,b
1e,1e,1e,1g,1h,1f,1e,1g,0,0,1h,1h,1h,1h,1h,b
1e,1e,1e,1e,1e,1e,1e,1e,1g,1f,1e,1e,1e,1e,1e,1g
1e,1e,1e,1e,1e,1e,1e,1e,1e,1e,1e,1e,1e,1e,1e,1e
1e,1e,1e,1e,1e,1e,1e,1e,1e,1e,1e,1e,1e,1e,1e,1e
NAME villageend
EXT 8,3 12 8,3
PAL 1

ROOM 12
b,b,b,b,b,b,b,0,0,0,d,0,0,0,b,b
b,b,b,b,c,0,c,0,0,d,0,0,0,b,b,b
b,b,b,0,0,0,0,0,d,d,0,0,b,b,b,b
b,b,b,b,b,b,b,b,d,b,b,b,b,b,b,b
b,c,b,b,b,c,b,b,d,b,1d,1c,b,b,b,b
b,b,c,0,0,0,0,d,d,0,1a,1b,0,b,b,b
b,b,b,0,1d,1c,0,c,d,d,0,c,0,b,b,b
b,b,b,0,1a,1b,0,0,0,d,0,0,b,b,b,b
b,b,b,0,0,0,0,c,0,0,c,0,b,b,b,b
b,b,c,0,0,c,0,0,0,0,1d,1c,b,b,b,b
1h,1h,0,1d,1c,0,0,0,0,0,1a,1b,0,b,b,b
1e,1e,1g,1a,1b,0,1h,0,c,0,0,c,b,b,b,b
1e,1e,1e,1g,1h,1f,1e,1g,0,0,1h,1h,1h,1h,1h,b
1e,1e,1e,1e,1e,1e,1e,1e,1g,1f,1e,1e,1e,1e,1e,1g
1e,1e,1e,1e,1e,1e,1e,1e,1e,1e,1e,1e,1e,1e,1e,1e
1e,1e,1e,1e,1e,1e,1e,1e,1e,1e,1e,1e,1e,1e,1e,1e
NAME villageend2
EXT 8,5 13 8,5
PAL 1

ROOM 13
b,b,b,b,b,b,b,0,0,0,d,0,0,0,b,b
b,b,b,b,c,0,c,0,0,d,0,0,0,b,b,b
b,b,b,0,0,0,0,0,d,d,0,0,b,b,b,b
b,b,b,b,b,b,b,b,d,b,b,b,b,b,b,b
b,c,b,b,b,c,b,b,d,b,1d,1c,b,b,b,b
b,b,c,0,0,0,0,d,d,0,1a,1b,0,b,b,b
b,b,b,0,1d,1c,0,c,d,d,0,c,0,b,b,b
b,b,b,0,1a,1b,0,0,0,d,0,0,b,b,b,b
b,b,b,0,0,0,0,c,0,0,c,0,b,b,b,b
b,b,c,0,0,c,0,0,0,0,1d,1c,b,b,b,b
1h,1h,0,1d,1c,0,0,0,0,0,1a,1b,0,b,b,b
1e,1e,1g,1a,1b,0,1h,0,c,0,0,c,b,b,b,b
1e,1e,1e,1g,1h,1f,1e,1g,0,0,1h,1h,1h,1h,1h,b
1e,1e,1e,1e,1e,1e,1e,1e,1g,1f,1e,1e,1e,1e,1e,1g
1e,1e,1e,1e,1e,1e,1e,1e,1e,1e,1e,1e,1e,1e,1e,1e
1e,1e,1e,1e,1e,1e,1e,1e,1e,1e,1e,1e,1e,1e,1e,1e
NAME villageend3
END 1 8,6
PAL 1

ROOM a
0,b,b,b,b,b,b,b,b,b,0,0,0,0,b,b
b,b,b,b,b,b,b,b,b,b,b,b,0,0,b,b
b,b,b,b,c,0,0,d,0,d,b,b,b,b,b,b
0,b,0,d,0,0,0,0,b,b,b,b,b,b,b,0
b,b,0,1o,1p,0,c,b,b,b,b,b,b,b,0,0
b,b,0,0,0,0,0,0,b,b,b,0,0,b,0,0
b,b,0,c,0,0,0,d,0,0,0,0,0,0,0,0
b,b,0,0,0,c,0,0,0,0,0,0,c,0,0,b
b,b,b,b,0,0,0,0,0,c,0,b,0,0,0,b
0,b,b,b,b,0,0,0,0,0,c,0,0,0,b,b
0,0,b,b,b,b,0,0,0,0,d,0,0,d,b,b
b,b,b,b,b,0,0,0,0,d,0,0,c,0,b,b
b,b,0,0,0,0,b,0,d,0,0,0,0,0,b,b
0,b,b,0,c,0,0,0,d,0,0,0,0,b,b,b
b,b,b,b,b,0,d,d,0,b,b,b,b,b,b,b
b,b,0,0,0,d,0,b,b,b,b,b,b,b,b,b
NAME crash2
EXT 6,15 1 6,1
EXT 5,15 1 5,1
EXT 4,15 1 5,1
EXT 3,15 1 4,1
EXT 2,15 1 4,1
EXT 15,6 b 1,6
EXT 15,5 b 1,5
EXT 15,4 b 1,4
EXT 15,3 b 1,3
EXT 4,4 u 8,14
EXT 3,4 u 8,14
PAL 0

ROOM b
b,b,0,b,d,b,b,b,d,b,b,c,b,b,b,b
b,b,d,c,0,0,b,b,b,b,b,b,b,b,b,b
b,b,b,b,b,0,b,b,d,d,d,d,0,0,0,b
0,0,0,0,b,b,b,b,d,d,0,0,0,0,0,d
d,d,0,0,0,b,b,b,b,0,c,0,h,h,h,0
d,d,d,c,c,0,b,b,b,0,0,0,d,h,h,0
0,0,0,d,c,0,b,b,0,0,0,0,h,h,h,0
b,0,0,0,0,d,0,0,0,0,0,0,0,0,0,b
b,0,0,0,b,0,d,d,d,d,0,0,0,b,b,b
b,b,0,0,0,b,0,0,0,0,0,0,0,b,d,b
b,b,b,0,0,b,0,0,0,c,0,0,b,b,b,b
b,0,b,b,b,0,b,0,0,0,c,0,b,b,b,b
b,0,0,0,c,0,b,0,d,d,0,0,b,b,0,0
b,0,0,b,b,b,b,b,0,d,d,b,b,0,0,b
b,b,c,0,0,b,b,b,b,b,b,b,b,b,b,0
b,b,b,b,b,b,b,b,b,b,b,b,b,b,b,b
NAME ecit2
EXT 0,3 a 14,4
EXT 0,4 a 14,5
EXT 0,5 a 14,6
EXT 0,6 a 14,7
EXT 15,6 6 1,6
EXT 15,4 6 1,4
EXT 15,3 6 1,5
EXT 15,5 6 1,6
PAL 0

ROOM c
b,d,0,b,b,0,0,0,0,0,b,b,b,b,b,b
b,c,b,b,0,0,0,0,0,0,d,0,b,b,b,b
b,b,b,b,0,0,0,c,0,0,0,b,c,b,b,c
b,b,b,0,0,0,0,0,0,0,b,0,b,0,b,b
0,b,0,b,0,0,0,d,0,0,0,0,c,0,b,0
b,b,0,0,0,0,0,d,d,0,0,0,0,c,0,b
b,b,b,0,0,0,0,d,d,0,0,0,0,0,0,0
b,0,0,d,0,0,0,0,d,d,d,0,0,0,0,0
b,b,0,0,0,0,0,0,d,0,d,d,d,0,0,0
b,b,b,0,c,c,0,d,d,0,d,0,0,0,0,0
b,b,b,0,0,c,0,d,d,d,0,0,0,0,0,b
0,c,b,b,0,0,0,d,d,0,0,0,0,0,b,0
b,0,b,b,b,0,0,0,0,0,0,c,c,c,0,b
b,b,0,b,b,0,0,0,0,0,0,0,b,0,b,c
b,b,b,b,b,c,c,0,0,0,0,0,c,b,b,0
b,b,b,b,0,0,0,0,0,0,b,b,b,b,b,b
EXT 9,0 6 8,14
EXT 8,0 6 7,14
EXT 7,0 6 7,14
EXT 6,0 6 6,14
EXT 5,0 6 5,14
EXT 9,15 d 9,1
EXT 8,15 d 8,1
EXT 7,15 d 7,1
EXT 6,15 d 6,1
EXT 5,15 d 5,1
EXT 15,6 e 1,6
EXT 15,7 e 1,7
EXT 15,8 e 1,8
EXT 15,9 e 1,9
PAL 0

ROOM d
b,b,b,b,0,0,0,0,0,0,b,b,b,b,b,b
b,b,c,b,0,0,c,0,0,0,0,0,0,b,0,b
b,0,b,b,0,0,0,0,0,d,0,0,0,b,b,b
0,b,b,0,0,0,0,0,0,d,0,0,c,0,b,b
0,0,0,0,d,0,0,0,0,0,0,0,0,0,b,c
0,0,c,0,0,0,c,0,0,0,0,0,0,b,b,b
0,0,0,c,0,0,0,0,d,0,0,c,0,b,b,b
0,d,0,0,0,0,0,d,d,0,0,0,0,b,b,b
0,0,0,c,0,0,d,d,c,0,0,d,0,0,b,b
0,d,d,0,0,d,d,0,0,0,d,d,0,0,b,b
0,0,0,0,0,d,0,0,0,0,0,0,0,d,0,b
0,0,0,0,b,0,0,0,c,c,b,0,c,0,b,b
0,c,c,0,0,b,b,0,0,0,b,c,0,0,b,b
b,0,0,b,b,b,b,b,b,b,b,b,b,b,b,0
b,b,b,b,b,b,b,b,b,0,b,b,b,b,0,0
b,b,0,b,b,0,0,b,b,b,0,b,b,b,0,0
EXT 9,0 c 9,14
EXT 8,0 c 8,14
EXT 7,0 c 7,14
EXT 6,0 c 6,14
EXT 5,0 c 5,14
EXT 4,0 c 5,14
EXT 0,4 5 14,4
EXT 0,5 5 14,5
EXT 0,6 5 14,6
EXT 0,7 5 14,7
EXT 0,8 5 14,8
EXT 0,9 5 14,9
EXT 0,10 5 14,10
EXT 0,11 5 14,11
EXT 0,12 5 14,12
PAL 0

ROOM e
b,0,b,0,b,b,0,0,0,0,b,b,0,b,0,c
b,c,b,b,0,0,0,0,0,0,c,0,b,b,0,0
b,b,b,0,c,0,0,0,d,0,0,0,0,b,b,0
0,b,b,0,0,0,0,0,d,0,0,0,0,b,c,b
b,b,0,b,0,0,0,d,d,d,0,0,b,b,b,b
b,0,c,0,0,0,0,0,d,d,d,0,0,0,b,b
0,0,0,0,b,0,0,0,0,d,c,c,0,0,0,0
0,0,c,0,0,0,0,c,0,c,0,d,d,d,0,0
0,0,d,d,0,0,0,0,0,0,0,0,0,d,d,d
0,0,0,0,d,d,d,0,0,0,b,0,0,0,0,d
b,0,b,0,0,0,d,0,0,0,b,0,b,b,0,b
b,b,c,0,0,0,0,0,0,0,0,b,b,b,b,b
b,b,0,b,b,0,c,0,0,0,0,b,b,c,0,b
b,0,b,c,c,0,0,0,0,0,c,c,c,0,0,b
b,b,b,b,c,b,0,0,0,c,0,0,0,0,b,0
b,b,b,b,b,b,b,b,0,0,0,0,0,b,b,b
EXT 8,15 f 8,1
EXT 9,15 f 9,1
EXT 10,15 f 10,1
EXT 11,15 f 11,1
EXT 12,15 f 12,1
EXT 0,9 c 14,9
EXT 0,8 c 14,8
EXT 0,7 c 14,7
EXT 0,6 c 14,6
EXT 9,0 g 8,14
EXT 8,0 g 7,14
EXT 7,0 g 6,14
EXT 6,0 g 5,14
EXT 15,6 h 1,6
EXT 15,7 h 1,7
EXT 15,8 h 1,8
EXT 15,9 h 1,9
PAL 0

ROOM f
0,c,0,b,b,b,b,b,0,d,0,0,c,b,b,0
0,d,b,c,b,b,b,0,0,d,0,0,0,0,b,0
0,b,0,b,b,b,b,c,0,d,0,0,b,0,b,b
b,b,b,b,0,b,0,c,0,0,0,0,0,b,b,b
0,b,b,b,b,b,b,0,c,0,0,c,0,b,0,c
b,b,b,b,b,b,b,0,0,d,0,c,c,b,b,0
b,b,b,b,b,0,0,b,0,d,0,0,0,b,b,b
b,0,b,b,b,0,0,0,d,0,0,0,b,0,b,0
b,b,b,b,b,b,b,0,0,d,0,0,b,b,0,c
0,b,b,b,0,b,b,0,0,0,0,c,0,b,c,c
c,0,b,c,0,b,b,0,d,d,d,0,0,b,b,0
0,b,b,c,c,b,b,b,0,d,d,d,0,b,b,b
b,0,b,c,b,0,b,b,0,0,d,d,0,b,b,0
b,b,b,c,c,c,b,b,0,0,0,0,0,0,b,b
b,0,b,b,0,b,b,b,0,0,c,c,c,0,b,0
b,b,b,b,b,b,b,b,0,c,c,0,0,0,b,b
EXT 12,0 e 12,14
EXT 11,0 e 11,14
EXT 10,0 e 10,14
EXT 9,0 e 9,14
EXT 8,0 e 8,14
EXT 13,15 4 12,1
EXT 12,15 4 11,1
EXT 11,15 4 10,1
EXT 10,15 4 9,1
EXT 9,15 4 8,1
EXT 8,15 4 8,1
PAL 0

ROOM g
0,0,0,b,b,b,0,b,b,b,0,0,b,b,0,b
0,0,b,b,b,b,b,b,b,0,b,b,b,0,b,b
b,b,b,0,b,0,b,b,b,b,b,b,b,b,0,0
b,b,b,b,b,b,b,b,b,b,b,0,b,b,b,b
b,b,b,b,b,0,b,b,0,b,b,b,b,b,c,c
b,0,b,b,0,0,b,b,b,0,b,b,b,b,c,c
b,b,b,b,b,b,b,b,b,b,0,b,b,b,b,0
0,b,b,b,b,b,b,b,b,b,c,b,b,b,b,b
b,b,b,b,b,b,b,b,0,b,b,c,0,b,b,b
b,b,0,c,c,b,b,b,b,b,0,b,b,b,b,b
0,0,0,0,b,c,c,0,b,b,b,b,b,b,b,b
0,d,d,0,0,d,0,c,c,c,0,b,b,b,0,b
0,0,0,0,0,d,d,0,0,c,c,b,b,b,b,b
b,b,b,0,0,0,0,0,0,0,0,0,b,b,b,b
b,0,b,b,b,0,0,0,d,b,d,b,b,b,0,0
b,b,0,b,b,b,d,0,0,0,b,b,b,0,0,0
EXT 0,10 6 14,10
EXT 0,11 6 14,11
EXT 0,12 6 14,12
EXT 8,15 e 9,1
EXT 7,15 e 8,1
EXT 6,15 e 7,1
PAL 0

ROOM h
0,b,b,0,0,b,b,c,c,0,0,0,0,b,b,b
b,b,b,0,0,b,b,0,0,0,0,0,0,c,b,b
b,b,b,b,b,b,0,0,0,0,0,0,d,0,b,0
b,b,b,b,b,0,b,0,0,0,0,d,d,0,b,b
b,b,0,b,0,0,0,0,0,0,0,d,0,0,b,b
b,b,0,b,b,0,0,c,0,0,0,d,0,0,c,b
0,c,0,0,0,0,c,c,0,0,0,0,0,0,c,b
0,0,0,0,c,c,c,0,0,d,d,b,0,c,b,b
0,0,0,0,c,0,0,0,d,d,0,0,b,b,b,b
0,0,0,0,0,0,0,d,d,0,d,0,b,b,b,b
b,0,0,0,0,0,0,d,d,d,0,c,b,b,b,b
b,0,c,0,d,d,d,0,0,0,0,0,b,0,b,b
b,b,0,0,c,c,0,0,0,0,0,b,b,b,b,0
b,b,b,b,0,c,0,b,b,c,c,b,b,b,b,0
b,0,b,b,b,b,c,c,b,b,b,b,b,b,0,b
b,b,0,b,b,b,b,b,b,b,b,b,b,b,b,b
EXT 0,6 e 14,6
EXT 0,7 e 14,7
EXT 0,8 e 14,8
EXT 0,9 e 14,9
EXT 12,0 i 12,14
EXT 11,0 i 11,14
EXT 10,0 i 10,14
EXT 9,0 i 9,14
EXT 8,0 i 8,14
EXT 7,0 i 7,14
PAL 0

ROOM i
b,b,c,c,b,0,0,d,0,0,0,0,b,b,b,0
b,0,0,b,b,0,d,d,c,0,0,b,0,b,0,b
b,b,b,b,0,b,d,0,0,0,b,b,b,0,b,b
b,b,b,b,c,c,d,0,0,0,b,b,b,b,0,b
0,0,b,0,0,c,0,0,b,0,b,b,0,b,0,b
b,b,c,0,d,0,0,c,0,b,0,b,b,0,b,b
b,0,0,d,d,d,0,c,0,b,0,b,0,b,b,b
b,b,0,0,d,d,0,c,0,b,b,b,b,b,b,b
b,0,b,0,0,0,0,0,c,b,b,b,b,0,b,b
b,b,b,b,0,0,0,0,c,c,0,b,b,b,b,b
b,c,b,0,0,0,0,0,0,c,0,0,b,b,0,0
0,b,b,b,0,0,d,d,0,0,0,b,b,b,c,c
b,b,b,0,c,0,d,d,d,0,b,b,b,0,c,0
b,b,0,b,0,0,0,d,d,0,0,b,b,b,b,b
b,b,c,0,b,b,0,d,d,d,0,0,0,b,b,0
b,0,b,b,b,b,b,0,0,0,0,d,0,b,b,b
EXT 12,15 h 12,1
EXT 11,15 h 11,1
EXT 10,15 h 10,1
EXT 9,15 h 9,1
EXT 8,15 h 8,1
EXT 7,15 h 7,1
EXT 5,0 j 5,14
EXT 6,0 j 6,14
EXT 7,0 j 7,14
EXT 8,0 j 8,14
EXT 9,0 j 9,14
EXT 10,0 j 10,14
PAL 0

ROOM j
b,b,b,0,b,0,0,0,0,0,0,b,b,b,b,b
0,b,b,b,b,0,0,d,0,0,0,b,b,b,0,b
c,c,b,b,b,0,0,0,d,c,0,b,b,0,b,b
0,c,0,b,b,c,0,d,d,0,b,0,b,b,b,b
b,0,b,b,c,0,0,d,d,d,0,0,0,0,c,c
b,0,b,b,c,b,0,0,d,0,d,c,0,0,0,0
b,b,b,b,b,0,0,0,d,c,d,d,d,0,0,0
b,b,b,b,0,0,0,0,0,d,d,d,d,d,c,0
b,b,b,0,c,0,0,0,0,0,0,0,0,0,0,0
c,b,b,0,0,0,0,0,0,0,0,c,c,0,0,0
0,b,b,b,0,0,0,0,0,0,b,c,c,0,b,b
b,b,b,b,0,d,0,d,0,0,0,b,b,b,0,0
b,b,c,0,0,0,d,d,d,0,d,b,b,b,0,0
b,b,b,0,0,c,d,0,d,d,d,b,b,0,b,b
b,0,b,b,0,0,d,0,0,0,0,0,b,b,b,0
b,b,b,b,b,0,0,0,0,0,0,c,b,0,0,b
EXT 5,15 i 5,1
EXT 6,15 i 6,1
EXT 7,15 i 7,1
EXT 8,15 i 8,1
EXT 9,15 i 9,1
EXT 10,15 i 10,1
EXT 11,15 i 10,1
EXT 5,0 9 4,14
EXT 6,0 9 5,14
EXT 7,0 9 6,14
EXT 8,0 9 7,14
EXT 9,0 9 8,14
EXT 10,0 9 9,14
EXT 15,4 k 1,4
EXT 15,5 k 1,5
EXT 15,6 k 1,6
EXT 15,7 k 1,7
EXT 15,8 k 1,8
EXT 15,9 k 1,9
PAL 0

ROOM k
0,0,0,b,b,0,0,0,b,b,b,b,b,b,b,b
0,b,b,b,b,b,b,b,b,b,0,b,b,b,b,b
b,b,b,0,0,0,0,0,0,b,b,b,0,0,b,b
b,0,0,b,0,0,0,d,0,0,b,b,b,d,d,0
0,0,c,c,c,c,0,0,0,d,0,b,b,0,d,b
0,c,c,c,c,0,0,0,0,0,0,b,b,b,0,0
d,0,0,0,0,0,0,0,d,0,0,b,b,b,b,b
d,0,d,0,0,0,d,d,0,0,b,0,b,b,b,b
d,0,0,0,d,d,d,0,0,0,0,0,b,b,d,0
0,0,b,0,0,0,0,0,c,0,c,c,0,b,0,0
b,b,b,b,0,0,0,c,c,c,c,c,b,b,b,b
b,b,b,b,b,0,b,0,0,0,0,0,b,b,b,b
b,b,0,b,b,b,0,0,0,d,0,b,b,b,b,b
b,b,0,0,b,b,b,b,0,0,0,b,b,b,b,b
0,0,b,b,0,b,b,b,0,b,b,b,b,0,b,b
0,0,b,b,b,b,0,b,b,b,0,b,b,b,b,b
ITM 2 7,5
EXT 0,4 j 14,4
EXT 0,5 j 14,5
EXT 0,6 j 14,6
EXT 0,7 j 14,7
EXT 0,8 j 14,8
EXT 0,9 j 14,9
PAL 0

ROOM l
0,0,0,0,h,h,0,0,0,1i,b,b,b,b,b,b
h,h,0,0,0,h,0,0,0,1i,b,b,b,b,b,b
h,h,h,0,0,0,0,1d,1c,1i,b,0,d,0,b,b
h,h,h,0,h,h,0,1a,1b,1i,0,0,0,0,0,0
0,h,h,0,h,h,0,0,0,1i,0,c,c,d,0,0
0,0,0,0,0,0,0,0,0,1i,0,0,0,c,c,0
0,0,1d,1c,0,0,d,d,d,1i,0,0,0,0,c,0
0,0,1a,1b,0,0,d,d,d,0,0,0,0,0,0,0
0,0,0,0,d,d,d,d,d,0,d,0,0,0,0,0
h,h,0,0,d,d,d,d,d,1i,0,0,c,d,c,0
d,d,h,d,d,d,d,d,d,1i,0,0,0,0,0,0
d,d,d,d,d,d,0,0,0,1i,0,0,0,0,0,d
d,d,d,d,0,h,h,h,0,1i,b,0,0,0,0,0
d,d,0,0,h,h,h,0,0,1i,b,b,b,0,0,b
h,d,0,0,h,h,0,0,0,1i,b,b,b,b,b,b
0,0,0,0,0,0,0,0,0,1i,b,b,b,b,b,b
EXT 15,3 d 1,4
EXT 15,4 d 1,4
EXT 15,5 d 1,5
EXT 15,6 d 1,6
EXT 15,7 d 1,7
EXT 15,8 d 1,8
EXT 15,9 d 1,9
EXT 15,10 d 1,10
EXT 15,11 d 1,11
EXT 15,12 d 1,12
END 0 8,7
END 0 8,8
PAL 0

ROOM m
0,0,0,0,0,0,0,0,0,0,0,0,0,0,0,0
0,e,f,0,0,0,0,0,0,0,0,0,0,0,0,0
0,0,0,0,0,0,0,17,17,17,0,0,0,0,0,0
0,0,0,0,0,0,18,a,a,a,11,0,0,0,o,0
0,0,0,0,0,16,0,i,i,i,0,k,l,m,n,0
0,0,0,0,0,15,0,i,12,i,13,0,0,0,0,0
0,0,0,0,0,0,14,14,0,14,0,0,0,0,0,0
0,b,0,0,0,0,u,t,0,0,0,0,u,t,0,0
0,u,t,0,0,b,v,10,s,e,f,w,v,10,s,0
w,v,z,q,0,x,0,0,r,q,0,x,0,0,r,q
x,b,0,p,y,0,0,0,0,p,y,0,b,0,0,p
0,0,0,0,0,0,0,b,0,0,0,0,0,0,0,0
j,j,j,j,j,j,j,j,j,j,j,j,j,j,j,j
19,19,19,19,19,19,19,19,19,19,19,19,19,19,19,19
19,19,19,19,19,19,19,19,19,19,19,19,19,19,19,19
19,19,19,19,19,19,19,19,19,19,19,19,19,19,19,19
NAME heli2
EXT 7,4 n 7,4
PAL 0

ROOM n
0,0,0,0,0,0,0,0,0,0,0,0,0,0,0,0
0,e,f,0,0,0,0,0,0,0,0,0,0,0,0,0
0,0,0,0,0,0,0,17,17,17,0,0,0,0,0,0
0,0,0,0,0,0,18,a,a,a,11,0,0,0,o,0
0,0,0,0,0,16,0,i,i,i,0,k,l,m,n,0
0,0,0,0,0,15,0,i,12,i,13,0,0,0,0,0
0,0,0,0,0,0,14,14,0,14,0,0,0,0,0,0
0,b,0,0,0,0,u,t,0,0,0,0,u,t,0,0
0,u,t,0,0,b,v,10,s,e,f,w,v,10,s,0
w,v,z,q,0,x,0,0,r,q,0,x,0,0,r,q
x,b,0,p,y,0,0,0,0,p,y,0,b,0,0,p
0,0,0,0,0,0,0,b,0,0,0,0,0,0,0,0
j,j,j,j,j,j,j,j,j,j,j,j,j,j,j,j
19,19,19,19,19,19,19,19,19,19,19,19,19,19,19,19
19,19,19,19,19,19,19,19,19,19,19,19,19,19,19,19
19,19,19,19,19,19,19,19,19,19,19,19,19,19,19,19
NAME heli3
EXT 8,4 o 8,4
PAL 0

ROOM o
0,0,0,0,0,0,0,0,0,0,0,0,0,0,0,0
0,e,f,0,0,0,0,0,0,0,0,0,0,0,0,0
0,0,0,0,0,0,0,17,17,17,0,0,0,0,0,0
0,0,0,0,0,0,18,a,a,a,11,0,0,0,o,0
0,0,0,0,0,16,0,i,i,i,0,k,l,m,n,0
0,0,0,0,0,15,0,i,12,i,13,0,0,0,0,0
0,0,0,0,0,0,0,14,0,14,0,0,0,0,0,0
0,b,0,0,0,0,u,t,0,0,0,0,u,t,0,0
0,u,t,0,0,b,v,10,s,e,f,w,v,10,s,0
w,v,z,q,0,x,0,0,r,q,0,x,0,0,r,q
x,b,0,p,y,0,0,0,0,p,y,0,b,0,0,p
0,0,0,0,0,0,0,b,0,0,0,0,0,0,0,0
j,j,j,j,j,j,j,j,j,j,j,j,j,j,j,j
19,19,19,19,19,19,19,19,19,19,19,19,19,19,19,19
19,19,19,19,19,19,19,19,19,19,19,19,19,19,19,19
19,19,19,19,19,19,19,19,19,19,19,19,19,19,19,19
NAME heli4
EXT 9,4 p 8,5
PAL 0

ROOM p
0,0,0,0,0,0,0,0,0,0,0,0,0,0,0,0
0,e,f,0,0,0,0,0,0,0,0,0,0,0,0,0
0,0,0,0,0,0,0,0,0,0,0,0,0,0,0,0
0,0,0,0,0,0,0,0,17,0,0,0,0,0,0,0
0,0,0,0,0,18,a,a,a,11,0,0,0,o,0,0
0,0,0,0,16,0,0,i,0,i,k,l,m,n,0,0
0,0,0,0,15,17,17,12,i,13,0,0,0,0,0,0
0,b,0,0,0,0,u,t,14,0,0,0,u,t,0,0
0,u,t,0,0,b,v,10,s,e,f,w,v,10,s,0
w,v,z,q,0,x,0,0,r,q,0,x,0,0,r,q
x,b,0,p,y,0,0,0,0,p,y,0,b,0,0,p
0,0,0,0,0,0,0,b,0,0,0,0,0,0,0,0
j,j,j,j,j,j,j,j,j,j,j,j,j,j,j,j
19,19,19,19,19,19,19,19,19,19,19,19,19,19,19,19
19,19,19,19,19,19,19,19,19,19,19,19,19,19,19,19
19,19,19,19,19,19,19,19,19,19,19,19,19,19,19,19
NAME heli5
EXT 7,5 q 6,7
PAL 1

ROOM q
0,0,0,0,0,0,0,0,0,0,0,0,0,0,0,0
0,e,f,0,0,0,0,0,0,0,0,0,0,0,0,0
0,0,0,0,0,0,0,0,0,0,0,0,0,0,0,0
0,0,0,0,0,0,0,0,0,0,0,0,0,0,0,0
0,0,0,0,0,0,0,0,0,0,0,0,0,0,0,0
0,0,0,0,0,17,0,0,0,0,0,0,0,0,0,0
0,0,0,0,18,a,a,a,11,0,0,0,o,0,0,0
0,b,0,16,0,i,i,i,i,k,l,m,n,t,0,0
0,u,t,15,0,i,12,i,13,e,f,w,v,10,s,0
w,v,z,q,14,14,0,14,r,q,0,x,0,0,r,q
x,b,0,p,y,0,0,0,0,p,y,0,b,0,0,p
0,0,0,0,0,0,0,b,0,0,0,0,0,0,0,0
j,j,j,j,j,j,j,j,j,j,j,j,j,j,j,j
19,19,19,19,19,19,19,19,19,19,19,19,19,19,19,19
19,19,19,19,19,19,19,19,19,19,19,19,19,19,19,19
19,19,19,19,19,19,19,19,19,19,19,19,19,19,19,19
NAME heli6
EXT 7,7 r 6,9
PAL 2

ROOM r
0,0,0,0,0,0,0,0,0,0,0,0,0,0,0,0
0,e,f,0,0,0,0,0,0,0,0,0,0,0,0,0
0,0,0,0,0,0,0,0,0,0,0,0,0,0,0,0
0,0,0,0,0,0,0,0,0,0,0,0,0,0,0,0
0,0,0,0,0,0,0,0,0,0,0,0,0,0,0,0
0,0,0,0,0,0,0,0,0,0,0,0,0,0,0,0
0,0,0,0,0,0,0,0,0,0,0,0,0,0,0,0
0,b,0,0,0,0,0,0,0,0,0,0,u,t,0,0
0,u,t,18,a,a,a,11,0,0,0,o,v,10,s,0
w,v,16,0,i,i,i,i,k,l,m,n,0,0,r,q
x,b,15,0,i,12,i,13,0,p,y,0,b,0,0,p
0,0,0,14,14,0,14,b,0,0,0,0,0,0,0,0
j,j,j,j,j,j,j,j,j,j,j,j,j,j,j,j
19,19,19,19,19,19,19,19,19,19,19,19,19,19,19,19
19,19,19,19,19,19,19,19,19,19,19,19,19,19,19,19
19,19,19,19,19,19,19,19,19,19,19,19,19,19,19,19
NAME heli7
EXT 6,10 s 5,12
PAL 3

ROOM s
0,0,0,0,0,0,0,0,0,0,0,0,0,0,0,0
0,e,f,0,0,0,0,0,0,0,0,0,0,0,0,0
0,0,0,0,0,0,0,0,0,0,0,0,0,0,0,0
0,0,0,0,0,0,0,0,0,0,0,0,0,0,0,0
0,0,0,0,0,0,0,0,0,0,0,0,0,0,0,0
0,0,0,0,0,0,0,0,0,0,0,0,0,0,0,0
0,0,0,0,0,0,0,0,0,0,0,0,0,0,0,0
0,b,0,0,0,0,0,0,0,0,0,0,0,0,0,0
0,u,t,0,0,0,0,0,0,0,0,0,v,10,s,0
w,v,0,0,0,0,0,0,0,0,0,0,0,0,r,q
x,b,18,a,a,a,11,0,0,p,0,0,b,0,0,p
0,16,0,i,i,r,i,k,l,m,0,0,0,0,0,0
j,15,0,i,12,i,13,j,j,j,j,j,j,j,j,j
19,19,19,19,19,19,19,19,19,19,19,19,19,19,19,19
19,19,19,19,19,19,19,19,19,19,19,19,19,19,19,19
19,19,19,19,19,19,19,19,19,19,19,19,19,19,19,19
NAME heli8
EXT 5,11 0 4,5
EXT 5,13 t 0,15
PAL 4

ROOM t
0,0,0,0,0,0,0,0,0,0,0,0,0,0,0,0
0,0,0,0,0,0,0,0,0,0,0,0,0,0,0,0
0,0,0,0,0,0,0,0,0,0,0,0,0,0,0,0
0,0,0,0,0,0,0,0,0,0,0,0,0,0,0,0
0,0,0,0,0,0,0,0,0,0,0,0,0,0,0,0
0,0,0,0,0,0,0,0,0,0,0,0,0,0,0,0
0,0,0,0,0,0,0,0,0,0,0,0,0,0,0,0
0,0,0,0,0,0,0,0,0,0,0,0,0,0,0,0
0,0,0,0,0,0,0,0,0,0,0,0,0,0,0,0
0,0,0,0,0,0,0,0,0,0,0,0,0,0,0,0
0,0,0,0,0,0,0,0,0,0,0,0,0,0,0,0
0,0,0,0,0,0,0,0,0,0,0,0,0,0,0,0
0,0,0,0,0,0,0,0,0,0,0,0,0,0,0,0
0,0,0,0,0,0,0,0,0,0,0,0,0,0,0,0
0,0,0,0,0,0,0,0,0,0,0,0,0,0,0,0
0,0,0,0,0,0,0,0,0,0,0,0,0,0,0,0
EXT 1,15 0 4,5
EXT 0,14 0 4,5
PAL 5

ROOM u
0,0,0,0,0,0,0,0,0,0,0,0,0,0,0,0
0,0,0,0,0,0,0,0,0,0,0,0,0,0,0,0
0,0,0,0,0,0,0,0,0,0,0,0,0,0,0,0
0,0,0,0,0,0,0,0,0,0,0,0,0,0,0,0
0,0,0,0,0,0,0,0,0,0,0,0,0,0,0,0
0,0,0,0,0,0,0,0,0,0,0,0,0,0,0,0
0,0,0,0,0,0,0,0,0,0,0,0,0,0,0,0
0,0,0,0,0,0,0,0,0,0,0,0,0,0,0,0
0,0,0,0,0,0,0,0,0,0,0,0,0,0,0,0
0,0,0,0,0,0,0,0,0,0,0,0,0,0,0,0
0,0,0,0,0,0,0,0,0,0,0,0,0,0,0,0
0,0,0,0,0,1q,1q,1q,1q,1q,0,0,0,0,0,0
0,0,0,0,1q,18,0,a,a,11,1q,1q,0,0,0,0
0,0,0,0,1q,0,i,i,i,i,k,1q,1q,1q,0,0
0,0,0,1q,15,0,i,12,i,13,0,l,m,1q,0,0
0,0,0,1q,1q,1q,1q,1q,0,1q,1q,1q,1q,1q,0,0
ITM 3 5,13
EXT 8,15 v 4,5
PAL 0

ROOM v
0,b,b,b,b,b,b,b,b,b,0,0,0,0,b,b
b,b,b,b,b,b,b,b,b,b,b,b,0,0,b,b
b,b,b,b,c,0,0,d,0,d,b,b,b,b,b,b
0,b,0,d,0,0,0,0,b,b,b,b,b,b,b,0
b,b,0,1o,1p,0,c,b,b,b,b,b,b,b,0,0
b,b,0,0,0,0,0,0,b,b,b,0,0,b,0,d
b,b,0,c,0,0,0,d,0,0,0,0,0,0,d,0
b,b,0,0,0,c,0,0,0,d,d,d,d,0,0,b
b,b,b,b,0,0,0,0,0,c,0,b,0,0,0,b
0,b,b,b,b,0,0,0,0,0,c,0,0,0,b,b
0,0,b,b,b,b,0,0,0,0,d,0,0,d,b,b
b,b,b,b,b,0,0,0,0,d,0,0,c,0,b,b
b,b,b,0,0,b,b,0,d,b,0,0,0,0,b,b
b,b,b,0,0,b,b,b,b,0,0,0,0,b,b,b
b,b,b,b,0,0,b,0,b,b,b,b,b,b,b,b
b,b,0,b,b,b,b,b,b,b,b,b,b,b,b,b
NAME crash3
EXT 6,15 1 6,1
EXT 5,15 1 5,1
EXT 4,15 1 5,1
EXT 3,15 1 4,1
EXT 2,15 1 4,1
EXT 15,6 w 1,6
EXT 15,5 w 1,5
EXT 15,4 w 1,4
EXT 15,3 w 1,3
EXT 4,4 u 8,14
EXT 3,4 u 8,14
PAL 0

ROOM w
b,b,0,b,d,b,b,b,d,b,b,c,b,b,b,b
b,b,d,c,0,0,b,b,b,b,b,b,b,b,b,b
b,b,b,b,b,0,b,b,d,d,d,d,0,0,0,b
0,0,0,0,b,b,b,b,d,d,0,0,0,0,0,d
d,d,0,0,0,b,b,b,b,0,c,0,h,h,h,0
d,d,d,c,c,0,b,b,b,0,0,0,d,h,h,0
0,0,0,d,c,0,b,b,0,0,0,0,h,h,h,0
b,0,0,0,0,d,0,0,0,0,0,0,0,0,0,b
b,0,0,0,b,0,d,d,d,d,0,0,0,b,b,b
b,b,0,0,0,b,0,0,0,0,0,0,0,b,d,b
b,b,b,0,0,b,0,0,0,c,0,0,b,b,b,b
b,0,b,b,b,0,b,0,0,0,c,0,b,b,b,b
b,0,0,0,c,0,b,0,d,d,0,0,b,b,0,0
b,0,0,b,b,b,b,b,0,d,d,b,b,0,0,b
b,b,c,0,0,b,b,b,b,b,b,b,b,b,b,0
b,b,b,b,b,b,b,b,b,b,b,b,b,b,b,b
NAME az2
EXT 0,3 v 14,4
EXT 0,4 v 14,5
EXT 0,5 v 14,6
EXT 0,6 v 14,7
EXT 15,6 x 1,6
EXT 15,4 x 1,5
EXT 15,3 x 1,4
EXT 15,5 x 1,6
PAL 0

ROOM x
b,b,b,b,b,b,b,b,b,b,b,b,b,b,b,b
b,c,b,b,b,b,0,0,c,b,b,b,b,0,b,0
b,b,b,b,0,0,c,c,0,0,b,c,b,b,b,c
0,b,b,b,0,0,c,0,0,0,b,b,b,0,b,b
0,0,0,0,0,0,0,d,d,0,b,0,c,b,b,b
d,d,d,d,0,d,d,0,0,b,b,b,0,b,b,b
0,0,0,d,d,0,0,0,b,b,0,b,b,b,b,b
b,0,0,0,0,d,d,0,b,b,c,c,b,b,0,b
b,b,0,0,0,0,d,d,d,b,b,b,b,b,b,b
b,b,b,b,c,b,0,0,d,d,0,0,0,0,b,b
b,0,b,b,b,0,d,0,0,0,0,0,0,0,b,b
b,b,0,b,b,d,d,c,c,0,0,0,0,0,0,b
b,b,b,b,b,d,0,0,c,0,0,b,b,0,b,b
b,b,b,0,b,d,d,0,0,0,b,b,b,b,b,b
b,b,b,b,0,0,0,0,0,0,b,0,c,b,b,b
b,0,b,b,b,0,0,0,0,b,b,b,b,b,b,b
NAME az3
EXT 0,4 w 14,4
EXT 0,5 w 14,5
EXT 0,6 w 14,6
EXT 5,0 7 5,14
EXT 6,0 7 6,14
EXT 7,0 7 7,14
EXT 8,0 7 8,14
EXT 9,0 7 9,14
EXT 10,0 7 10,14
EXT 5,15 y 5,1
EXT 6,15 y 6,1
EXT 8,15 y 8,1
EXT 7,15 y 7,1
EXT 15,10 g 1,10
EXT 15,11 g 1,11
EXT 15,12 g 1,12
PAL 0

ROOM y
b,d,0,b,b,0,0,0,0,0,b,b,b,b,b,b
b,c,b,b,0,0,0,0,0,0,d,0,b,b,b,b
b,b,b,b,0,0,0,c,0,0,0,b,c,b,b,c
b,b,b,0,0,0,0,0,0,0,b,0,b,0,b,b
0,b,0,b,0,0,0,d,0,0,0,0,c,0,b,0
b,b,0,0,0,0,0,d,d,0,0,0,0,c,0,b
b,b,b,0,0,0,0,d,d,0,0,0,0,0,0,0
b,0,0,d,0,0,0,0,d,d,d,0,0,0,0,0
b,b,0,0,0,0,0,0,d,0,d,d,d,0,0,0
b,b,b,0,c,c,0,d,d,0,d,0,0,0,0,0
b,b,b,0,0,c,0,d,d,d,0,0,0,0,0,b
0,c,b,b,0,0,0,d,d,0,0,0,0,0,b,0
b,0,b,b,b,0,b,0,0,0,0,c,c,c,0,b
b,b,0,b,b,b,0,0,0,0,0,0,b,0,b,c
b,b,b,b,b,b,c,0,0,0,0,b,c,b,b,0
b,b,b,b,b,b,b,b,b,b,b,b,b,b,b,b
NAME az4
EXT 9,0 x 7,14
EXT 8,0 x 7,14
EXT 7,0 x 7,14
EXT 6,0 x 6,14
EXT 5,0 x 5,14
EXT 9,15 d 9,1
EXT 8,15 d 8,1
EXT 7,15 d 7,1
EXT 6,15 d 6,1
EXT 5,15 d 5,1
EXT 15,6 z 1,6
EXT 15,7 z 1,7
EXT 15,8 z 1,8
EXT 15,9 z 1,9
PAL 0

ROOM z
b,0,b,0,b,b,b,b,b,b,b,b,0,b,0,c
b,c,b,b,0,0,0,0,0,0,c,0,b,b,0,0
b,b,b,0,c,0,0,0,d,0,0,0,0,0,b,0
0,b,b,0,0,0,0,0,d,0,0,0,0,b,b,b
b,b,0,b,0,0,0,d,d,d,0,0,b,b,b,b
b,0,c,0,0,0,0,0,d,d,d,0,0,0,b,b
0,0,0,0,b,0,0,0,0,d,c,c,0,0,b,b
0,0,c,0,0,0,0,c,0,c,0,d,d,d,0,b
0,0,d,d,0,0,0,0,0,0,0,0,0,d,d,b
0,0,0,0,d,d,d,0,0,0,b,0,0,0,0,b
b,0,b,0,0,0,d,0,0,0,b,0,b,b,0,b
b,b,c,0,0,0,0,0,0,0,0,b,b,b,b,b
b,b,0,b,b,0,c,0,0,0,0,b,b,c,0,b
b,0,b,c,c,0,0,0,0,0,c,c,c,0,0,b
b,b,b,b,c,b,0,0,0,c,0,0,0,0,b,0
b,b,b,b,b,b,b,b,0,0,0,0,0,b,b,b
NAME az5
EXT 8,15 10 8,1
EXT 9,15 10 9,1
EXT 10,15 10 10,1
EXT 11,15 10 11,1
EXT 12,15 10 12,1
EXT 0,9 c 14,9
EXT 0,8 c 14,8
EXT 0,7 c 14,7
EXT 0,6 c 14,6
EXT 9,0 g 8,14
EXT 8,0 g 7,14
EXT 7,0 g 6,14
EXT 6,0 g 5,14
EXT 15,6 h 1,6
EXT 15,7 h 1,7
EXT 15,8 h 1,8
EXT 15,9 h 1,9
PAL 0

TIL 10
00010110
00001111
00000101
00000010
00000101
00000011
00000001
00000000
NAME mount12

TIL 11
10000000
10000000
10000000
10000000
10000000
10000000
10000000
01111111
NAME heliwall1
WAL true

TIL 12
11111111
11111110
11111110
11111110
11111110
11111110
11111110
11111100
NAME heliwallfront1
WAL true

TIL 13
11111111
01111111
01111111
01111111
01111111
01111110
01111110
00111100
NAME heliwallfront2
WAL true

TIL 14
11111111
00000000
00000000
00000000
00000000
00000000
00000000
00000000
NAME heliwall2
WAL true

TIL 15
01000000
01000000
01000000
01000000
01000000
00100000
00011000
00000111
NAME helifront
WAL true

TIL 16
00000111
00011000
00100000
01000000
01000000
01000000
01000000
01000000
WAL true

TIL 17
00000000
00000000
00000000
00000000
00000000
00000000
00000000
11111111
NAME heliwall3
WAL true

TIL 18
00000001
00000001
00000001
00000001
00000001
00000001
00000001
11111110
WAL true

TIL 19
00000000
00000000
01000110
10111101
00011000
01111100
01010010
00010000
>
00000000
00000000
01100100
11011011
10000001
11000111
00100101
00000001
NAME trees2
WAL false

TIL a
00000000
00011000
00110100
00101100
00111100
00011000
00000000
00000000
NAME heliwindow
WAL true

TIL b
01100110
10111101
00110100
01010010
01010010
00001000
00001000
00000100
WAL true

TIL c
00000000
00000000
00000000
00000000
01001001
00101010
00000000
00000000

TIL d
00000000
00000000
00100000
00000000
00000100
00000000
00100000
00000000

TIL e
00000000
01111111
00000100
00111111
01011111
01111110
00010100
00000000
WAL true

TIL f
00000000
11000000
00000100
11111100
10000000
00000000
00000000
00000000
WAL true

TIL g
00000000
00000000
01010101
10101010
10101010
01010101
10101010
10101010
NAME fence
WAL true

TIL h
00100000
00100000
00100100
00000100
00100100
00100000
00100000
00000000
>
00010000
00100000
00100010
00000100
00010100
00100000
00100000
00000000
WAL false

TIL i
00000000
00000000
00100000
00000100
00001000
00000000
00100000
00000000
NAME helifloor
WAL false

TIL j
00000000
01000000
10001010
10101100
00010101
00000001
00010000
01000000
>
00000000
00000100
10101000
11001010
01010001
00010000
00000010
00001000
WAL true

TIL k
10000000
10000000
11111111
11111111
11111111
11111111
11111110
10000000
NAME helitail
WAL true

TIL l
00000000
00000000
11111111
11111111
11111111
11110000
00000000
00000000
NAME helitail2
WAL true

TIL m
00000000
00000000
11111111
11111111
11100000
00000000
00000000
00000000
NAME helitail3
WAL true

TIL n
00001000
10001000
01111000
00011110
00010001
00010000
00100000
00000000
>
01000011
00100100
00011000
00011000
00100100
11000010
00000010
00000000
NAME helitailend
WAL true

TIL o
00000000
00000000
00000000
00000000
00000000
00000000
00000000
00000100
>
00000000
00000000
00000000
00000000
00000000
00000000
00000000
01000000
NAME helitailendup
WAL true

TIL p
01001100
00010100
00101100
00001100
00010010
00001101
00001010
00000000
NAME mount1
WAL true

TIL q
00000000
00000000
00000000
11100000
01010000
10101000
01111000
10101000
NAME mount2

TIL r
01100000
10100000
01010000
00110001
01101010
00010110
00100100
00001000
NAME mount 3

TIL s
10000000
01000000
11000000
01000000
10100000
01100000
10100000
00100000
NAME mount4

TIL t
11110000
01011000
00101000
11010100
01101100
10011010
00101010
00010101
NAME mount5

TIL u
00000001
00000010
00000010
00011100
00100000
00100000
00100000
01000000
NAME mount6

TIL v
01000000
01000000
01000000
10000000
10000000
10000000
00000000
00000000
NAME mount7

TIL w
00000000
00000000
00000000
00000000
00000000
00000000
00000001
00000010
NAME mount8

TIL x
00000010
00000010
00000010
00001100
00010000
00010000
01100000
10000000
NAME mount9

TIL y
00000001
00000001
00000001
00001110
00010000
00100000
11100000
00000000
NAME mount10

TIL z
00010101
00000011
00000101
00001010
00000001
00000000
00000000
00000000
NAME mount11

TIL 1a
01111111
00011111
00010111
00010110
00010100
00010100
00010100
00000000
NAME shack1
WAL true

TIL 1b
11111110
11111100
11111100
01101000
00101000
00101000
00101100
00000100
NAME shack2
WAL true

TIL 1c
11000000
00101000
10110100
01000010
00010001
11000010
11100101
11111001
NAME shack3
WAL true

TIL 1d
00000101
00010010
00101001
00000000
00100100
11000001
10000011
01011111
NAME shack4
WAL true

TIL 1e
00001111
00000000
11101000
00000000
00001110
00000000
01110100
00000000
>
10000111
00000000
01110100
00000000
00000111
00000000
00111010
00000000
NAME water
WAL true

TIL 1f
00000001
00000000
00000001
00000000
00000001
00000000
01010101
10101010
NAME shore1

TIL 1g
10000000
00000000
10000000
00000000
10000000
00000000
01010101
10101010
NAME shore2

TIL 1h
00000000
00000000
00000000
00000000
00000000
00000000
01010101
10101010
NAME shore3

TIL 1i
00001000
00010000
00001000
00010000
00001000
00010000
00001000
00010000
NAME fence2
WAL true

TIL 1j
00001000
00010000
00010000
00010000
00010000
00010000
00010000
00010000
NAME fence3
WAL true

TIL 1k
00010000
00010000
00010000
00010000
00010000
00010000
00010000
00001000
NAME fence4
WAL true

TIL 1l
00100100
10010000
01000110
10111101
00011000
01111100
01010010
10111011
>
00100100
10010000
01000110
10111101
00011000
01111100
01010010
10111011
NAME trees3
WAL true

TIL 1m
00000000
10010100
00100010
01010111
10001000
11010101
01101010
10110101
WAL true

TIL 1n
00000000
01000000
00000000
00000100
00100000
00001000
01010101
00000000
WAL true

TIL 1o
00000000
01111111
00000100
00111111
01011111
01111110
00010100
00000000
WAL false

TIL 1p
00000000
11000000
00000100
11111100
10000000
00000000
00000000
00000000
WAL false

TIL 1q
00000000
00000000
00000000
00000000
00000000
00000000
00000000
00000000
WAL true

SPR 10
00000000
00110000
00111000
01111000
00011000
01110000
01000000
00000000
NAME patheli3
DLG SPR_m
POS n 6,4

SPR 11
00000100
00011100
01011000
11101000
11000101
01000111
01001110
00111100
>
00110000
00011000
10111000
11011100
10001110
01010100
01001110
00111100
POS o 5,5

SPR 12
00000100
00011100
01011000
11101000
11000101
01000111
01001110
00111100
>
00110000
00011000
10111000
11011100
10001110
01010100
01001110
00111100
POS o 6,5

SPR 13
00000100
00011100
01011000
11101000
11000101
01000111
01001110
00111100
>
00110000
00011000
10111000
11011100
10001110
01010100
01001110
00111100
POS o 7,3

SPR 14
00000000
00000000
00011000
00111100
11101110
10000110
00000000
00000000
POS o 7,5

SPR 15
00000000
00110000
00111000
01111000
00011000
01110000
01000000
00000000
DLG SPR_f
POS o 6,4

SPR 16
00000000
00011000
00011000
00111100
01111110
10111101
10100101
00100100
>
00000000
00111100
01011010
01111110
00111100
00111100
00100100
00100100
POS o 10,4

SPR 17
00000100
00011100
01011000
11101000
11000101
01000111
01001110
00111100
>
00110000
00011000
10111000
11011100
10001110
01010100
01001110
00111100
POS p 4,6

SPR 18
00000100
00011100
01011000
11101000
11000101
01000111
01001110
00111100
>
00110000
00011000
10111000
11011100
10001110
01010100
01001110
00111100
POS p 5,6

SPR 19
00000100
00011100
01011000
11101000
11000101
01000111
01001110
00111100
>
00110000
00011000
10111000
11011100
10001110
01010100
01001110
00111100
POS p 6,4

SPR 20
00000000
00000000
00000000
00000010
00000110
10100100
00010010
00000000
>
00000000
00000000
00000000
00000000
00000001
00000011
10000110
01100100
POS q 8,2

SPR 21
00000100
00100000
00000000
00000000
00000000
00000000
00000000
00000000
>
00011000
00000000
00000000
00000000
00000000
00000000
00000000
00000000
POS q 8,3

SPR 22
00001000
01001100
00001000
00110100
10100000
00000000
00000000
00000000
>
00001100
00010000
00010000
11100000
10000000
00000000
00000000
00000000
POS q 9,2

SPR 23
00000000
00000000
00000010
00000000
00000000
00000100
00100001
00000100
>
00000000
00000000
00000000
00000000
00000000
00000011
00000100
00001100
POS q 9,1

SPR 24
00010000
00000100
01010000
00000000
10010000
00000000
00000000
00000000
>
00010000
00010000
00110000
01100000
10000000
00000000
00000000
00000000
POS q 10,1

SPR 25
00000000
00001000
00000001
00100010
00000011
00000010
00010100
01000000
>
00000000
00000000
00000001
00000110
00001000
00011000
00010000
00010000
POS q 10,0

SPR 26
10000000
00100000
00100000
00000000
00000000
00000000
00000000
00000000
>
00100000
01100000
11000000
00000000
00000000
00000000
00000000
00000000
POS q 11,0

SPR 27
00001000
00000010
00000000
00011100
00100010
01001000
00100000
01100000
>
00000001
00000010
00000001
00000001
00000110
00001100
00111000
11000000
POS q 10,6

SPR 28
00000000
00001000
01010110
00000101
00000101
01001000
01100000
01000000
>
00000000
00001000
00010110
00010001
00011000
00110000
01100000
10000000
POS q 11,5

SPR 29
00000000
00000001
00011010
01001100
01100000
00110100
00000000
00000000
>
00000000
00000011
00001110
11111000
00000000
00000000
00000000
00000000
POS q 12,5

SPR 30
00000001
00000100
01010000
00010000
00100100
01001000
00010000
10000000
>
00001111
00001000
00010000
00110000
00100000
01000000
01000000
01000000
POS r 8,2

SPR 31
00000001
00010110
00100000
00000100
01100000
00000000
10000000
00000000
>
00000001
00011011
00110000
00100000
01100000
00000000
10000000
10000000
POS r 9,1

SPR 32
00000000
00000000
11001100
00100100
00000010
00100000
00000110
00001000
>
00000000
00000000
11100000
00111000
00011100
00000100
00000110
00000000
POS r 10,1

SPR 33
00000000
00000010
00000110
01000110
00001100
01011000
11000000
00000000
>
00000011
00000010
00011110
00110000
00100000
01000000
11000000
00000000
POS r 11,1

SPR 34
00010000
00000000
00111000
00011000
01000000
01100000
10000000
00000000
>
00010000
00010000
00100000
00100000
01100000
01000000
10000000
10000000
POS r 12,0

SPR 35
00000000
00011100
00101110
00000001
00010000
01010000
01100000
01110000
>
00000000
00000000
00001110
00011001
00100000
01100000
01100000
11000000
POS r 10,8

SPR 36
00000010
00001001
00000010
00000110
01010110
01000000
00010000
00000000
>
00000010
00001110
00001000
00011000
11100000
00000000
00000000
00000000
POS r 11,8

SPR 37
00000001
00000011
00011010
00111000
00100010
10000100
01100000
00000000
>
00000001
00000011
00000010
00000110
00001100
00011000
11110000
00000000
POS r 12,7

SPR 38
00000000
00100000
00100000
01110000
00011101
00011010
00000000
00000000
>
00000000
00000000
10000000
01100011
00011110
00000000
00000000
00000000
POS r 13,7

SPR 39
00001000
00001100
01011000
11100000
01000000
00000000
00000000
00000000
>
00001000
01000100
01101100
10001000
01000000
00000000
00000000
00000000
POS r 14,7

SPR 40
01000000
11000000
00000000
00000000
00000000
00000000
00000000
00000000
>
00000000
00100000
01000000
00000000
00000000
00000000
00000000
00000000
POS s 5,7

SPR 41
00000000
00000110
00000000
00110100
01010100
00001100
10110000
00000000
>
00000100
00000100
00000010
00000010
00000100
00001000
00110000
01100000
POS s 5,6

SPR 42
00000000
00000000
00000000
00000011
00000110
00000010
00000100
00000000
>
00000000
00000000
00000000
00000000
00000000
00000011
00000100
00001000
POS s 5,5

SPR 43
00001000
00000010
00111100
00110100
01011100
00101000
00000000
00000000
>
00001000
00001000
00001000
00110000
11000000
00000000
00000000
00000000
POS s 6,5

SPR 44
00100000
01100000
00110000
01111010
00101000
00000100
00001000
00001001
>
00100000
00111000
00001000
00000110
00000100
00001100
00001000
00011000
POS s 6,4

SPR 45
01000000
00000000
00100000
00110000
10110000
01001000
00101000
00100000
>
01000000
10000000
10000000
10000000
11000000
01100000
00100000
00100000
POS s 6,3

SPR 46
00000000
00000000
00000000
00000010
00000011
00000000
00110111
01001110
>
00000000
00000000
00000000
00000000
00000011
00011100
00110000
00100000
POS s 6,2

SPR 47
00001000
00011000
01110000
11000000
01000000
00000000
00000000
00000000
>
00100000
00001000
01001000
10110000
01110000
00000000
00000000
00000000
POS s 7,2

SPR 48
01000000
10010000
00011000
10001110
00001110
00011000
00000100
00010000
>
01000000
10000000
10000000
11000000
01100000
00010000
00010000
00010000
POS s 7,1

SPR 49
00000000
00000010
00011010
00010110
00011100
01011000
00101000
00010000
>
00000001
00000110
00011000
00110000
00100000
01100000
01000000
01000000
POS s 7,0

SPR 50
00000100
00011100
01011000
11101000
11000101
01000111
01001110
00111100
>
00110000
00011000
10111000
11011100
10001110
01010100
01001110
00111100
POS 12 5,6

SPR 51
00000100
00011100
01011000
11101000
11000101
01000111
01001110
00111100
>
00110000
00011000
10111000
11011100
10001110
01010100
01001110
00111100
POS 12 5,10

SPR 52
00000100
00011100
01011000
11101000
11000101
01000111
01001110
00111100
>
00110000
00011000
10111000
11011100
10001110
01010100
01001110
00111100
POS 12 4,6

SPR 53
00000100
00011100
01011000
11101000
11000101
01000111
01001110
00111100
>
00110000
00011000
10111000
11011100
10001110
01010100
01001110
00111100
POS 12 4,7

SPR 54
00000100
00011100
01011000
11101000
11000101
01000111
01001110
00111100
>
00110000
00011000
10111000
11011100
10001110
01010100
01001110
00111100
POS 12 2,4

SPR 55
00000100
00011100
01011000
11101000
11000101
01000111
01001110
00111100
>
00110000
00011000
10111000
11011100
10001110
01010100
01001110
00111100
POS 12 6,5

SPR 56
00000100
00011100
01011000
11101000
11000101
01000111
01001110
00111100
>
00110000
00011000
10111000
11011100
10001110
01010100
01001110
00111100

SPR 57
00000100
00011100
01011000
11101000
11000101
01000111
01001110
00111100
>
00110000
00011000
10111000
11011100
10001110
01010100
01001110
00111100
POS 12 13,5

SPR 58
00000100
00011100
01011000
11101000
11000101
01000111
01001110
00111100
>
00110000
00011000
10111000
11011100
10001110
01010100
01001110
00111100
POS 12 1,1

SPR 59
00000100
00011100
01011000
11101000
11000101
01000111
01001110
00111100
>
00110000
00011000
10111000
11011100
10001110
01010100
01001110
00111100
POS 12 2,6

SPR 60
00000100
00011100
01011000
11101000
11000101
01000111
01001110
00111100
>
00110000
00011000
10111000
11011100
10001110
01010100
01001110
00111100
POS 13 10,2

SPR 61
00000100
00011100
01011000
11101000
11000101
01000111
01001110
00111100
>
00110000
00011000
10111000
11011100
10001110
01010100
01001110
00111100
POS 13 11,2

SPR 62
00000100
00011100
01011000
11101000
11000101
01000111
01001110
00111100
>
00110000
00011000
10111000
11011100
10001110
01010100
01001110
00111100
POS 13 8,3

SPR 63
00000100
00011100
01011000
11101000
11000101
01000111
01001110
00111100
>
00110000
00011000
10111000
11011100
10001110
01010100
01001110
00111100
POS 13 9,6

SPR 64
00000100
00011100
01011000
11101000
11000101
01000111
01001110
00111100
>
00110000
00011000
10111000
11011100
10001110
01010100
01001110
00111100
POS 13 7,6

SPR 65
00000100
00011100
01011000
11101000
11000101
01000111
01001110
00111100
>
00110000
00011000
10111000
11011100
10001110
01010100
01001110
00111100
POS 13 8,7

SPR 66
00000100
00011100
01011000
11101000
11000101
01000111
01001110
00111100
>
00110000
00011000
10111000
11011100
10001110
01010100
01001110
00111100
POS 13 5,6

SPR 67
00000100
00011100
01011000
11101000
11000101
01000111
01001110
00111100
>
00110000
00011000
10111000
11011100
10001110
01010100
01001110
00111100
POS 13 4,6

SPR 68
00000100
00011100
01011000
11101000
11000101
01000111
01001110
00111100
>
00110000
00011000
10111000
11011100
10001110
01010100
01001110
00111100
POS 13 5,7

SPR 69
00000100
00011100
01011000
11101000
11000101
01000111
01001110
00111100
>
00110000
00011000
10111000
11011100
10001110
01010100
01001110
00111100
POS 13 4,7

SPR 70
00000100
00011100
01011000
11101000
11000101
01000111
01001110
00111100
>
00110000
00011000
10111000
11011100
10001110
01010100
01001110
00111100
POS 13 11,9

SPR 71
00000100
00011100
01011000
11101000
11000101
01000111
01001110
00111100
>
00110000
00011000
10111000
11011100
10001110
01010100
01001110
00111100
POS 13 10,9

SPR 72
00000100
00011100
01011000
11101000
11000101
01000111
01001110
00111100
>
00110000
00011000
10111000
11011100
10001110
01010100
01001110
00111100
POS 13 10,10

SPR 73
00000100
00011100
01011000
11101000
11000101
01000111
01001110
00111100
>
00110000
00011000
10111000
11011100
10001110
01010100
01001110
00111100
POS 13 12,5

SPR 74
00000100
00011100
01011000
11101000
11000101
01000111
01001110
00111100
>
00110000
00011000
10111000
11011100
10001110
01010100
01001110
00111100
POS 13 10,4

SPR 75
00000100
00011100
01011000
11101000
11000101
01000111
01001110
00111100
>
00110000
00011000
10111000
11011100
10001110
01010100
01001110
00111100
POS 13 11,4

SPR 76
00000100
00011100
01011000
11101000
11000101
01000111
01001110
00111100
>
00110000
00011000
10111000
11011100
10001110
01010100
01001110
00111100
POS 13 11,5

SPR 77
00000100
00011100
01011000
11101000
11000101
01000111
01001110
00111100
>
00110000
00011000
10111000
11011100
10001110
01010100
01001110
00111100
POS 13 10,5

SPR 78
00000100
00011100
01011000
11101000
11000101
01000111
01001110
00111100
>
00110000
00011000
10111000
11011100
10001110
01010100
01001110
00111100
POS 13 7,9

SPR 79
00000100
00011100
01011000
11101000
11000101
01000111
01001110
00111100
>
00110000
00011000
10111000
11011100
10001110
01010100
01001110
00111100
POS 13 6,9

SPR 80
00000100
00011100
01011000
11101000
11000101
01000111
01001110
00111100
>
00110000
00011000
10111000
11011100
10001110
01010100
01001110
00111100
POS 13 9,0

SPR 81
00000100
00011100
01011000
11101000
11000101
01000111
01001110
00111100
>
00110000
00011000
10111000
11011100
10001110
01010100
01001110
00111100
POS 13 7,2

SPR 82
00000100
00011100
01011000
11101000
11000101
01000111
01001110
00111100
>
00110000
00011000
10111000
11011100
10001110
01010100
01001110
00111100
POS 13 5,0

SPR 83
00000100
00011100
01011000
11101000
11000101
01000111
01001110
00111100
>
00110000
00011000
10111000
11011100
10001110
01010100
01001110
00111100
POS 13 1,0

SPR 84
00000100
00011100
01011000
11101000
11000101
01000111
01001110
00111100
>
00110000
00011000
10111000
11011100
10001110
01010100
01001110
00111100
POS 13 1,1

SPR 85
00000100
00011100
01011000
11101000
11000101
01000111
01001110
00111100
>
00110000
00011000
10111000
11011100
10001110
01010100
01001110
00111100
POS 13 0,1

SPR 86
00000100
00011100
01011000
11101000
11000101
01000111
01001110
00111100
>
00110000
00011000
10111000
11011100
10001110
01010100
01001110
00111100
POS 13 0,8

SPR 87
00000100
00011100
01011000
11101000
11000101
01000111
01001110
00111100
>
00110000
00011000
10111000
11011100
10001110
01010100
01001110
00111100
POS 13 0,6

SPR 88
00000100
00011100
01011000
11101000
11000101
01000111
01001110
00111100
>
00110000
00011000
10111000
11011100
10001110
01010100
01001110
00111100
POS 13 0,3

SPR 89
00000100
00011100
01011000
11101000
11000101
01000111
01001110
00111100
>
00110000
00011000
10111000
11011100
10001110
01010100
01001110
00111100
POS 13 12,3

SPR A
00000000
00011000
00011000
10111100
01110110
00111101
00100100
00100000
>
00000000
00011000
00011000
00111101
01101110
10111100
00100100
00000100
POS 3 9,4
COL 3

SPR a
00000000
00011000
00011000
00111100
01111110
10111101
10100101
00100100
>
00000000
10011001
10011001
01111110
00111100
00111100
00100100
00100100
NAME welcome
DLG SPR_9
POS 0 9,7

SPR b
00000000
00000000
00000000
01100000
01001000
01111110
10100101
01000010
NAME bike
POS 7 4,5

SPR c
00000100
00011100
01011000
11101000
11000101
01000111
01001110
00111100
>
00110000
00011000
10111000
11011100
10001110
01010100
01001110
00111100
NAME fire
POS n 5,5

SPR d
00000000
00011000
00011000
00111100
01111110
10111101
10100101
00100100
>
00000000
10011001
10011001
01111110
00111100
00111100
00100100
00100100
NAME how2
DLG SPR_1
POS 0 5,4

SPR e
00000000
00011000
00011000
00111100
01111110
10111101
10100101
00100100
>
00000000
10011001
10011001
01111110
00111100
00111100
00100100
00100100
NAME patrickalrit
DLG SPR_2
POS 0 2,5

SPR f
00000000
00011001
00011010
00111100
01111110
01111110
00100100
00100100
NAME patrickmission
DLG SPR_0
POS 2 8,7

SPR g
00000000
00011000
00011000
00111100
01111110
10111101
10100101
00100100
>
00000000
00011000
00111000
01111110
01111101
00111110
00100100
00100100
NAME fence
DLG SPR_3
POS 1 10,12

SPR h
00000000
00110000
00111000
01111000
00011000
01110000
01000000
00000000
NAME pilot1
DLG SPR_4
POS 3 6,4

SPR i
00000000
00110000
00111000
01111000
00011000
01110000
01000000
00000000
NAME how1
DLG SPR_5
POS 3 6,5

SPR j
00000000
00011000
00011000
00111100
01111110
10111101
10100101
00100100
>
00000000
10011001
10011001
01111110
00111100
00111100
00100100
00100100
NAME helisoldier
DLG SPR_6
POS 3 10,4

SPR k
00011000
00111100
00011000
00111100
01111110
10111101
00100100
00100100
POS 4 6,7

SPR l
00011000
00111100
00011000
00111100
01111110
11111111
01111110
00100100
NAME villager1
DLG SPR_7
POS 4 12,5

SPR m
00000000
00011000
01011000
01111100
10111100
10111110
01111100
00100000
NAME villager2
DLG SPR_8
POS 4 8,13

SPR n
10100000
00010000
00001000
00001000
00100010
00011100
00000000
00000000
>
00100001
00010000
00001000
00001000
00100010
00011100
00000000
00000000
POS 4 8,14

SPR o
00000000
00011001
00011010
00111100
01111110
01111110
00100100
00100100
NAME how3
DLG SPR_a
POS 2 13,3

SPR p
00011000
00111101
00011010
00111100
01111110
10111101
00100100
00100100
NAME vietsold
DLG SPR_d
POS 5 10,6

SPR q
00011000
00111101
00011010
00111100
01111110
01111110
00100100
00100100
NAME vietsold2
DLG SPR_e
POS 5 10,9

SPR r
00000000
00000000
00000000
10011000
01011000
00111100
01111110
01111110
NAME seansublime
DLG SPR_b
POS 9 9,11

SPR s
00000000
00011001
00011010
00111100
01111110
01111110
00100100
00100100
NAME patrickmain
DLG SPR_c
POS a 6,6

SPR t
00000110
00001111
00010110
11111111
00011101
00101111
00001001
00001001
POS l 11,7

SPR u
00000110
00001111
00010110
11111111
00011101
00101111
00001001
00001001
POS l 11,8

SPR v
00000000
00110000
00111000
01111000
00011000
01110000
01000000
00000000
POS m 6,5

SPR w
00000000
00110000
00111000
01111000
00011000
01110000
01000000
00000000
DLG SPR_l
POS m 6,4

SPR x
00000000
00011000
00011000
00111100
01111110
10111101
10100101
00100100
>
00000000
10011001
10011001
01111110
00111100
00111100
00100100
00100100
POS m 10,4

SPR y
00000000
00011000
00011000
00111100
01111110
10111101
10100101
00100100
>
00000000
00111100
01011010
01111110
00111100
00111100
00100100
00100100
NAME helisoldier3
POS n 10,4

SPR z
00000000
00000000
00011000
00111100
11101110
10000110
00000000
00000000
NAME howheli3
POS n 6,5

SPR 1a
00000100
00011100
01011000
11101000
11000101
01000111
01001110
00111100
>
00110000
00011000
10111000
11011100
10001110
01010100
01001110
00111100
POS p 7,4

SPR 1b
00000100
00011100
01011000
11101000
11000101
01000111
01001110
00111100
>
00110000
00011000
10111000
11011100
10001110
01010100
01001110
00111100
POS p 11,5

SPR 1c
00000011
00010111
00000100
00100100
01110000
01000000
01000000
11000000
>
00000011
00011111
00110100
00100000
00110000
00000000
01000000
10000000
POS p 7,3

SPR 1d
00011111
00100000
01000000
11000000
10000000
10000000
10000000
11000000
>
00001110
00011100
00110000
11100000
01000000
10000000
00000000
00000000
POS p 8,2

SPR 1e
00000011
00000010
00001100
00011000
01111000
11000000
11000000
10000000
>
00000011
00000010
00000100
00011000
00110000
10000000
01000000
10000000
POS p 9,1

SPR 1f
00000000
00000000
00011000
00100100
01000110
10000011
00000000
00000000
>
00000000
00000000
00011000
00111100
01100100
11000011
10000000
10000000
POS p 10,0

SPR 1g
00000000
00000000
00000000
00000000
01100000
11000000
10000000
00000000
>
00000000
00101000
01101000
01001000
01100000
11000000
10000000
00000000
POS p 11,0

SPR 1h
00000001
01100110
01111110
00111000
00000001
00100001
00001110
00010000
>
00000001
01000100
00111110
00100000
00000001
00100011
00011100
00100000
POS p 10,4

SPR 1i
11000000
00100000
00010001
00001110
00000000
00000000
00000000
00000000
>
11000001
01100011
00111111
00001110
00000000
00000000
00000000
00000000
POS p 12,3

SPR 1j
00000001
11000001
00100011
00011110
01001000
00001000
01110000
11000000
>
00000011
11000011
00111111
00011110
00111000
01101000
01110000
11000000
POS p 11,3

SPR 1k
00000001
00000100
00100100
00111110
10100100
10011000
11000000
10000000
>
00000001
00000101
00100011
00110010
11101100
00011000
11000000
10000000
POS p 13,2

SPR 1l
00000000
01000100
00010100
10100001
00000110
00011000
00000000
10000000
>
01000000
00000101
00011101
10111001
00000110
00111000
01000000
10000000
POS p 14,1

SPR 1m
00000110
01001000
00001100
00000010
00000010
00000100
00001000
00010000
>
00000110
00001100
00001100
00000010
00000010
00100110
00001110
00011110
POS p 14,0

SPR 1n
00000100
00011100
01011000
11101000
11000101
01000111
01001110
00111100
>
00110000
00011000
10111000
11011100
10001110
01010100
01001110
00111100
POS q 3,8

SPR 1o
00000100
00011100
01011000
11101000
11000101
01000111
01001110
00111100
>
00110000
00011000
10111000
11011100
10001110
01010100
01001110
00111100
POS q 4,8

SPR 1p
00000100
00011100
01011000
11101000
11000101
01000111
01001110
00111100
>
00110000
00011000
10111000
11011100
10001110
01010100
01001110
00111100
POS q 5,6

SPR 1q
00000100
00011100
01011000
11101000
11000101
01000111
01001110
00111100
>
00110000
00011000
10111000
11011100
10001110
01010100
01001110
00111100
POS q 6,6

SPR 1r
00000100
00011100
01011000
11101000
11000101
01000111
01001110
00111100
>
00110000
00011000
10111000
11011100
10001110
01010100
01001110
00111100
POS q 7,6

SPR 1s
00000100
00011100
01011000
11101000
11000101
01000111
01001110
00111100
>
00110000
00011000
10111000
11011100
10001110
01010100
01001110
00111100
POS q 8,7

SPR 1t
00000100
00011100
01011000
11101000
11000101
01000111
01001110
00111100
>
00110000
00011000
10111000
11011100
10001110
01010100
01001110
00111100
POS q 10,7

SPR 1u
00000100
00011100
01011000
11101000
11000101
01000111
01001110
00111100
>
00110000
00011000
10111000
11011100
10001110
01010100
01001110
00111100
POS q 11,7

SPR 1v
00000100
00011100
01011000
11101000
11000101
01000111
01001110
00111100
>
00110000
00011000
10111000
11011100
10001110
01010100
01001110
00111100
POS q 5,7

SPR 1w
00000001
00011101
00110000
00100100
00000010
11000110
00010100
10000000
>
00000011
00000111
00000100
00011100
01100000
11000000
01000000
10000000
POS q 5,5

SPR 1x
00000001
00100000
00010110
00001100
00000000
00100000
10100000
00000000
>
00000011
00000100
00011100
00001000
00001000
00011000
11100000
00000000
POS q 6,4

SPR 1y
01000000
00100000
10010000
00010000
00000000
01101000
00000000
01000000
>
00100000
01000000
10000000
10000000
01000000
10000000
00000000
10000000
POS q 7,3

SPR 1z
00000000
00000000
00000000
00000100
00000000
00010010
01000000
00010000
>
00000000
00000000
00000000
00000000
00000000
00000000
00001011
00110000
POS q 7,2

SPR 2a
00000000
00000000
10000000
00011000
01101100
00001000
00001010
00000000
>
00000000
00000000
11000000
01000000
01100000
00011001
00001110
00000000
POS q 13,5

SPR 2b
00000010
00111101
00011000
00100100
00011000
10100000
00000000
00000000
>
00000010
00000100
00000100
00001000
00110000
11000000
00000000
00000000
POS q 14,5

SPR 2c
00000000
00000000
00000000
00000000
00000000
00000000
00000000
00000000
>
00000000
00000000
00000000
00000000
00000000
00000000
00000001
00000010
POS q 14,4

SPR 2d
00000000
00000100
00010110
00000010
00000000
00100100
00000000
00100000
>
00000000
00000001
00000010
00000110
00001000
00110000
11000000
00000000
POS q 15,4

SPR 2e
00000000
00000100
00000001
00000000
00001110
01010000
00000000
01100000
>
00000000
00000001
00000001
00000000
00000010
00000110
00001100
01111000
POS q 13,3

SPR 2f
01000000
00000000
00000100
00011000
00110010
01000100
00100000
00000000
>
00000000
00000000
00000000
00000010
00000010
01000100
00111000
00000000
POS q 9,5

SPR 2g
00000100
00011100
01011000
11101000
11000101
01000111
01001110
00111100
>
00110000
00011000
10111000
11011100
10001110
01010100
01001110
00111100
POS r 2,10

SPR 2h
00000100
00011100
01011000
11101000
11000101
01000111
01001110
00111100
>
00110000
00011000
10111000
11011100
10001110
01010100
01001110
00111100
POS r 3,10

SPR 2i
00000100
00011100
01011000
11101000
11000101
01000111
01001110
00111100
>
00110000
00011000
10111000
11011100
10001110
01010100
01001110
00111100
POS r 4,9

SPR 2j
00000100
00011100
01011000
11101000
11000101
01000111
01001110
00111100
>
00110000
00011000
10111000
11011100
10001110
01010100
01001110
00111100
POS r 4,8

SPR 2k
00000100
00011100
01011000
11101000
11000101
01000111
01001110
00111100
>
00110000
00011000
10111000
11011100
10001110
01010100
01001110
00111100
POS r 5,8

SPR 2l
00000100
00011100
01011000
11101000
11000101
01000111
01001110
00111100
>
00110000
00011000
10111000
11011100
10001110
01010100
01001110
00111100
POS r 6,8

SPR 2m
00000100
00011100
01011000
11101000
11000101
01000111
01001110
00111100
>
00110000
00011000
10111000
11011100
10001110
01010100
01001110
00111100
POS r 10,9

SPR 2n
00000100
00011100
01011000
11101000
11000101
01000111
01001110
00111100
>
00110000
00011000
10111000
11011100
10001110
01010100
01001110
00111100
POS r 9,9

SPR 2o
00000100
00011100
01011000
11101000
11000101
01000111
01001110
00111100
>
00110000
00011000
10111000
11011100
10001110
01010100
01001110
00111100
POS r 7,9

SPR 2p
00000100
00011100
01011000
11101000
11000101
01000111
01001110
00111100
>
00110000
00011000
10111000
11011100
10001110
01010100
01001110
00111100
POS r 3,9

SPR 2q
00000100
00011100
01011000
11101000
11000101
01000111
01001110
00111100
>
00110000
00011000
10111000
11011100
10001110
01010100
01001110
00111100
POS r 8,9

SPR 2r
00000100
00011100
01011000
11101000
11000101
01000111
01001110
00111100
>
00110000
00011000
10111000
11011100
10001110
01010100
01001110
00111100
POS r 7,10

SPR 2s
00000000
00011101
00100010
00101000
01000000
11000010
00000000
10010010
>
00000001
00000001
00000011
00000010
00000110
00000100
00001100
11110000
POS r 5,7

SPR 2t
00001100
00000000
00000100
00010000
00000100
00000000
00101001
10000000
>
00000010
00000010
00000100
00000000
00000110
00000100
00111000
01000000
POS r 6,6

SPR 2u
10000000
00000000
00000000
00000000
00000000
00000000
00000000
00000000
>
00000000
00000000
00000000
00000000
00000000
00000000
00000000
00000000
POS r 6,7

SPR 2v
00000101
00001000
00000011
00000000
00000000
00000010
00010010
00000100
>
00000100
00000100
00000011
00000000
00000000
00000001
00000010
00000110
POS r 6,5

SPR 2w
00000000
00000000
10000000
00100000
10000000
10100000
00000000
00000000
>
00000000
00000000
10000000
01000000
11000000
10000000
00000000
00000000
POS r 7,5

SPR 2x
00001000
00001010
00011000
00001100
00000100
01001010
00000010
00000100
>
00001000
00001000
00010000
00010000
00010000
00001000
00001000
00000100
POS r 6,4

SPR 2y
00000000
00000000
00000000
00000111
00000000
00001100
00100000
00001000
>
00000000
00000000
00000000
00000001
00000110
00000100
00001000
00001000
POS r 6,3

SPR 2z
00000010
00011000
00110000
01100001
01000000
00000000
00000000
00000000
>
00000110
00001000
00011000
11110000
00000000
00000000
00000000
00000000
POS r 7,3

SPR 3a
00000000
00000000
00000000
00000000
00000000
00000010
00010001
00100000
>
00000000
00000000
00000000
00000000
00000000
00000000
00000011
00010100
POS r 14,6

SPR 3b
00000000
00000000
00000000
11001000
11001100
10011010
00000111
00000000
>
00000000
00000000
00000000
00000000
00000000
11010000
00001100
00000011
POS r 15,6

SPR 3c
00000000
00000000
00000011
00000110
10000000
01100100
00010000
00000000
>
00000000
00000000
00000000
00000110
00001000
01100100
00010000
00000000

SPR 3d
00000000
01000000
00111011
00010110
00000000
00000000
00000000
00000000
>
00000000
00000000
01000001
00100111
00011100
00000000
00000000
00000000
POS r 8,7

SPR 3e
00000000
01010010
00110110
00000100
00011000
00000000
00000000
00000000
>
00000001
01110001
10011110
00000000
00000000
00000000
00000000
00000000
POS r 9,7

SPR 3f
00000000
00000000
00000000
00000000
00000000
00000010
00000100
00000000
>
00000000
00000000
00000010
00000000
00000000
00010010
00000001
00000001
POS r 9,6

SPR 3g
00000000
00000001
00000101
01000110
00011000
01111000
00010000
00000000
>
00000000
00000001
00000001
00000010
00000110
01111000
00000000
00000000
POS r 14,2

SPR 3h
00000100
00011100
01011000
11101000
11000101
01000111
01001110
00111100
>
00110000
00011000
10111000
11011100
10001110
01010100
01001110
00111100
POS s 1,12

SPR 3i
00000100
00011100
01011000
11101000
11000101
01000111
01001110
00111100
>
00110000
00011000
10111000
11011100
10001110
01010100
01001110
00111100
POS s 2,12

SPR 3j
00000100
00011100
01011000
11101000
11000101
01000111
01001110
00111100
>
00110000
00011000
10111000
11011100
10001110
01010100
01001110
00111100
POS s 2,11

SPR 3k
00000100
00011100
01011000
11101000
11000101
01000111
01001110
00111100
>
00110000
00011000
10111000
11011100
10001110
01010100
01001110
00111100
POS s 3,11

SPR 3l
00000100
00011100
01011000
11101000
11000101
01000111
01001110
00111100
>
00110000
00011000
10111000
11011100
10001110
01010100
01001110
00111100
POS s 3,10

SPR 3m
00000100
00011100
01011000
11101000
11000101
01000111
01001110
00111100
>
00110000
00011000
10111000
11011100
10001110
01010100
01001110
00111100
POS s 4,10

SPR 3n
00000100
00011100
01011000
11101000
11000101
01000111
01001110
00111100
>
00110000
00011000
10111000
11011100
10001110
01010100
01001110
00111100
POS s 5,10

SPR 3o
00000100
00011100
01011000
11101000
11000101
01000111
01001110
00111100
>
00110000
00011000
10111000
11011100
10001110
01010100
01001110
00111100
POS s 6,12

SPR 3p
00000100
00011100
01011000
11101000
11000101
01000111
01001110
00111100
>
00110000
00011000
10111000
11011100
10001110
01010100
01001110
00111100
POS s 6,11

SPR 3q
00000100
00011100
01011000
11101000
11000101
01000111
01001110
00111100
>
00110000
00011000
10111000
11011100
10001110
01010100
01001110
00111100
POS s 7,11

SPR 3r
00000100
00011100
01011000
11101000
11000101
01000111
01001110
00111100
>
00110000
00011000
10111000
11011100
10001110
01010100
01001110
00111100
POS s 8,11

SPR 3s
00000100
00011100
01011000
11101000
11000101
01000111
01001110
00111100
>
00110000
00011000
10111000
11011100
10001110
01010100
01001110
00111100
POS s 9,11

SPR 3t
00000100
00011100
01011000
11101000
11000101
01000111
01001110
00111100
>
00110000
00011000
10111000
11011100
10001110
01010100
01001110
00111100

SPR 3u
00000100
00011100
01011000
11101000
11000101
01000111
01001110
00111100
>
00110000
00011000
10111000
11011100
10001110
01010100
01001110
00111100
POS s 3,12

SPR 3v
00000100
00011100
01011000
11101000
11000101
01000111
01001110
00111100
>
00110000
00011000
10111000
11011100
10001110
01010100
01001110
00111100
POS s 4,11

SPR 3w
00000100
00011100
01011000
11101000
11000101
01000111
01001110
00111100
>
00110000
00011000
10111000
11011100
10001110
01010100
01001110
00111100
POS s 5,11

SPR 3x
00000000
10000001
00000110
01011000
00111010
01110000
01000000
00100000
>
00000000
00000001
00011110
01100000
01000000
01000000
01000000
00100000
POS s 3,9

SPR 3y
00000100
00000000
00101100
00001000
00011100
01101000
00110000
00000000
>
00011000
00001000
00001000
00000100
00001100
00011000
00110000
01000000
POS s 4,8

SPR 3z
00000010
00000000
00001100
00001100
00111010
00010000
01100000
00100000
>
00000000
00000011
00001110
00001000
00010000
00010000
00010000
00010000
POS s 4,7

SPR 4a
00000000
00000000
00000000
00000011
00000110
00010100
00101000
00011000
>
00000000
00000000
00000000
00000001
00000110
00011000
00100000
00100000
POS s 9,10

SPR 4b
00000100
00001110
01110100
00010000
01000000
00000000
00000000
00000000
>
00000010
00000010
00001100
11110000
00000000
00000000
00000000
00000000
POS s 10,10

SPR 4c
00000000
00000000
00000000
00000000
00000000
00000000
00000000
00000000
>
00000000
00000000
00000000
00000000
00000000
00000000
00000001
00000010
POS s 10,9

SPR 4d
00000011
00000010
00001100
00001000
00111000
11001000
11000000
00000000
>
00000011
00000011
00001111
00010000
01000100
11111000
11000000
00000000
POS s 11,9

SPR 4e
00000000
00000000
00100100
00001110
00000111
00011100
00111000
00000000
>
00000000
00000000
00000000
00000000
00000001
00001111
01111000
10000000
POS s 12,8

SPR 4f
00000000
00000000
00100000
11000000
01101110
00000001
00000111
00000000
>
00000000
00000000
00111100
11000010
00000011
00000001
00000000
00000000
POS s 13,8

SPR 4g
00000100
00000011
00001010
00001100
00010100
11000000
00110000
00000000
>
00000001
00000001
00000010
00000110
00001100
10011000
01110000
00000000
POS s 14,8

SPR 4h
00000000
00000000
00000001
00001101
00001010
00101100
10100000
11000000
>
00000000
00000000
00000001
00000011
00000010
00111100
01100000
11000000
POS s 15,7

SPR 4i
00000000
00011001
00011010
00111100
01111110
01111110
00100100
00100100
DLG SPR_g
POS v 7,7

SPR 4j
00000000
00011001
00011010
00111100
01111110
01111110
00100100
00100100
DLG SPR_h
POS w 14,3

SPR 4k
00000000
00011001
00011010
00111100
01111110
01111110
00100100
00100100
DLG SPR_i
POS x 8,14

SPR 4l
00000000
00011001
00011010
00111100
01111110
01111110
00100100
00100100
DLG SPR_j
POS y 14,6

SPR 4m
00000000
00011001
00011010
00111100
01111110
01111110
00100100
00100100
DLG SPR_k
POS 11 10,2

SPR 4n
00000100
00011100
01011000
11101000
11000101
01000111
01001110
00111100
>
00110000
00011000
10111000
11011100
10001110
01010100
01001110
00111100
POS 11 4,7

SPR 4o
00000100
00011100
01011000
11101000
11000101
01000111
01001110
00111100
>
00110000
00011000
10111000
11011100
10001110
01010100
01001110
00111100
POS 11 9,7

SPR 4p
00000100
00011100
01011000
11101000
11000101
01000111
01001110
00111100
>
00110000
00011000
10111000
11011100
10001110
01010100
01001110
00111100
POS 11 4,11

SPR 4q
00000100
00011100
01011000
11101000
11000101
01000111
01001110
00111100
>
00110000
00011000
10111000
11011100
10001110
01010100
01001110
00111100
POS 11 12,7

SPR 4r
00000100
00011100
01011000
11101000
11000101
01000111
01001110
00111100
>
00110000
00011000
10111000
11011100
10001110
01010100
01001110
00111100
POS 11 5,3

SPR 4s
00000100
00011100
01011000
11101000
11000101
01000111
01001110
00111100
>
00110000
00011000
10111000
11011100
10001110
01010100
01001110
00111100
POS 11 1,5

SPR 4t
00000100
00011100
01011000
11101000
11000101
01000111
01001110
00111100
>
00110000
00011000
10111000
11011100
10001110
01010100
01001110
00111100
POS 11 1,9

SPR 4u
00000100
00011100
01011000
11101000
11000101
01000111
01001110
00111100
>
00110000
00011000
10111000
11011100
10001110
01010100
01001110
00111100
POS 11 8,10

SPR 4v
00000100
00011100
01011000
11101000
11000101
01000111
01001110
00111100
>
00110000
00011000
10111000
11011100
10001110
01010100
01001110
00111100
POS 12 3,11

SPR 4w
00000100
00011100
01011000
11101000
11000101
01000111
01001110
00111100
>
00110000
00011000
10111000
11011100
10001110
01010100
01001110
00111100
POS 12 4,11

SPR 4x
00000100
00011100
01011000
11101000
11000101
01000111
01001110
00111100
>
00110000
00011000
10111000
11011100
10001110
01010100
01001110
00111100
POS 12 4,10

SPR 4y
00000100
00011100
01011000
11101000
11000101
01000111
01001110
00111100
>
00110000
00011000
10111000
11011100
10001110
01010100
01001110
00111100
POS 12 3,10

SPR 4z
00000100
00011100
01011000
11101000
11000101
01000111
01001110
00111100
>
00110000
00011000
10111000
11011100
10001110
01010100
01001110
00111100
POS 12 5,7

SPR 5a
00000100
00011100
01011000
11101000
11000101
01000111
01001110
00111100
>
00110000
00011000
10111000
11011100
10001110
01010100
01001110
00111100

SPR 5b
00000100
00011100
01011000
11101000
11000101
01000111
01001110
00111100
>
00110000
00011000
10111000
11011100
10001110
01010100
01001110
00111100
POS 12 1,8

SPR 5c
00000100
00011100
01011000
11101000
11000101
01000111
01001110
00111100
>
00110000
00011000
10111000
11011100
10001110
01010100
01001110
00111100
POS 12 14,9

SPR 5d
00000100
00011100
01011000
11101000
11000101
01000111
01001110
00111100
>
00110000
00011000
10111000
11011100
10001110
01010100
01001110
00111100
POS 12 13,7

SPR 5e
00000100
00011100
01011000
11101000
11000101
01000111
01001110
00111100
>
00110000
00011000
10111000
11011100
10001110
01010100
01001110
00111100
POS 12 14,5

SPR 5f
00000100
00011100
01011000
11101000
11000101
01000111
01001110
00111100
>
00110000
00011000
10111000
11011100
10001110
01010100
01001110
00111100
POS 12 8,8

SPR 5g
00000100
00011100
01011000
11101000
11000101
01000111
01001110
00111100
>
00110000
00011000
10111000
11011100
10001110
01010100
01001110
00111100
POS 12 11,5

SPR 5h
00000100
00011100
01011000
11101000
11000101
01000111
01001110
00111100
>
00110000
00011000
10111000
11011100
10001110
01010100
01001110
00111100
POS 12 11,4

SPR 5i
00000100
00011100
01011000
11101000
11000101
01000111
01001110
00111100
>
00110000
00011000
10111000
11011100
10001110
01010100
01001110
00111100
POS 12 10,4

SPR 5j
00000100
00011100
01011000
11101000
11000101
01000111
01001110
00111100
>
00110000
00011000
10111000
11011100
10001110
01010100
01001110
00111100
POS 12 10,5

SPR 5k
00000100
00011100
01011000
11101000
11000101
01000111
01001110
00111100
>
00110000
00011000
10111000
11011100
10001110
01010100
01001110
00111100
POS 12 11,9

SPR 5l
00000100
00011100
01011000
11101000
11000101
01000111
01001110
00111100
>
00110000
00011000
10111000
11011100
10001110
01010100
01001110
00111100
POS 12 10,9

SPR 5m
00000100
00011100
01011000
11101000
11000101
01000111
01001110
00111100
>
00110000
00011000
10111000
11011100
10001110
01010100
01001110
00111100
POS 12 11,10

SPR 5n
00000100
00011100
01011000
11101000
11000101
01000111
01001110
00111100
>
00110000
00011000
10111000
11011100
10001110
01010100
01001110
00111100
POS 12 10,10

SPR 5o
00000100
00011100
01011000
11101000
11000101
01000111
01001110
00111100
>
00110000
00011000
10111000
11011100
10001110
01010100
01001110
00111100
POS 12 15,8

SPR 5p
00000100
00011100
01011000
11101000
11000101
01000111
01001110
00111100
>
00110000
00011000
10111000
11011100
10001110
01010100
01001110
00111100
POS 12 1,7

SPR 5q
00000100
00011100
01011000
11101000
11000101
01000111
01001110
00111100
>
00110000
00011000
10111000
11011100
10001110
01010100
01001110
00111100
POS 12 2,3

SPR 5r
00000100
00011100
01011000
11101000
11000101
01000111
01001110
00111100
>
00110000
00011000
10111000
11011100
10001110
01010100
01001110
00111100
POS 12 0,2

SPR 5s
00000100
00011100
01011000
11101000
11000101
01000111
01001110
00111100
>
00110000
00011000
10111000
11011100
10001110
01010100
01001110
00111100
POS 12 3,8

SPR 5t
00000100
00011100
01011000
11101000
11000101
01000111
01001110
00111100
>
00110000
00011000
10111000
11011100
10001110
01010100
01001110
00111100
POS 12 8,10

SPR 5u
00000100
00011100
01011000
11101000
11000101
01000111
01001110
00111100
>
00110000
00011000
10111000
11011100
10001110
01010100
01001110
00111100
POS 12 6,7

SPR 5v
00000100
00011100
01011000
11101000
11000101
01000111
01001110
00111100
>
00110000
00011000
10111000
11011100
10001110
01010100
01001110
00111100
POS 12 10,6

SPR 5w
00000100
00011100
01011000
11101000
11000101
01000111
01001110
00111100
>
00110000
00011000
10111000
11011100
10001110
01010100
01001110
00111100
POS 12 3,5

SPR 5x
00000100
00011100
01011000
11101000
11000101
01000111
01001110
00111100
>
00110000
00011000
10111000
11011100
10001110
01010100
01001110
00111100
POS 13 9,5

SPR 5y
00000100
00011100
01011000
11101000
11000101
01000111
01001110
00111100
>
00110000
00011000
10111000
11011100
10001110
01010100
01001110
00111100
POS 13 7,5

SPR 5z
00000100
00011100
01011000
11101000
11000101
01000111
01001110
00111100
>
00110000
00011000
10111000
11011100
10001110
01010100
01001110
00111100
POS 13 8,4

SPR 6a
00000100
00011100
01011000
11101000
11000101
01000111
01001110
00111100
>
00110000
00011000
10111000
11011100
10001110
01010100
01001110
00111100
POS 13 3,10

SPR 6b
00000100
00011100
01011000
11101000
11000101
01000111
01001110
00111100
>
00110000
00011000
10111000
11011100
10001110
01010100
01001110
00111100
POS 13 4,10

SPR 6c
00000100
00011100
01011000
11101000
11000101
01000111
01001110
00111100
>
00110000
00011000
10111000
11011100
10001110
01010100
01001110
00111100
POS 13 4,11

SPR 6d
00000100
00011100
01011000
11101000
11000101
01000111
01001110
00111100
>
00110000
00011000
10111000
11011100
10001110
01010100
01001110
00111100
POS 13 3,11

SPR 6e
00000100
00011100
01011000
11101000
11000101
01000111
01001110
00111100
>
00110000
00011000
10111000
11011100
10001110
01010100
01001110
00111100
POS 13 2,11

SPR 6f
00000100
00011100
01011000
11101000
11000101
01000111
01001110
00111100
>
00110000
00011000
10111000
11011100
10001110
01010100
01001110
00111100
POS 13 1,7

SPR 6g
00000100
00011100
01011000
11101000
11000101
01000111
01001110
00111100
>
00110000
00011000
10111000
11011100
10001110
01010100
01001110
00111100
POS 13 1,4

SPR 6h
00000100
00011100
01011000
11101000
11000101
01000111
01001110
00111100
>
00110000
00011000
10111000
11011100
10001110
01010100
01001110
00111100
POS 13 3,4

SPR 6i
00000100
00011100
01011000
11101000
11000101
01000111
01001110
00111100
>
00110000
00011000
10111000
11011100
10001110
01010100
01001110
00111100
POS 13 1,2

SPR 6j
00000100
00011100
01011000
11101000
11000101
01000111
01001110
00111100
>
00110000
00011000
10111000
11011100
10001110
01010100
01001110
00111100

SPR 6k
00000100
00011100
01011000
11101000
11000101
01000111
01001110
00111100
>
00110000
00011000
10111000
11011100
10001110
01010100
01001110
00111100
POS 13 6,11

SPR 6l
00000100
00011100
01011000
11101000
11000101
01000111
01001110
00111100
>
00110000
00011000
10111000
11011100
10001110
01010100
01001110
00111100
POS 13 7,7

SPR 6m
00000100
00011100
01011000
11101000
11000101
01000111
01001110
00111100
>
00110000
00011000
10111000
11011100
10001110
01010100
01001110
00111100
POS 13 6,7

SPR 6n
00000100
00011100
01011000
11101000
11000101
01000111
01001110
00111100
>
00110000
00011000
10111000
11011100
10001110
01010100
01001110
00111100
POS 13 6,5

SPR 6o
00000100
00011100
01011000
11101000
11000101
01000111
01001110
00111100
>
00110000
00011000
10111000
11011100
10001110
01010100
01001110
00111100
POS 13 6,6

SPR 6p
00000100
00011100
01011000
11101000
11000101
01000111
01001110
00111100
>
00110000
00011000
10111000
11011100
10001110
01010100
01001110
00111100

SPR 6q
00000100
00011100
01011000
11101000
11000101
01000111
01001110
00111100
>
00110000
00011000
10111000
11011100
10001110
01010100
01001110
00111100
POS 13 5,5

SPR 6r
00000100
00011100
01011000
11101000
11000101
01000111
01001110
00111100
>
00110000
00011000
10111000
11011100
10001110
01010100
01001110
00111100
POS 13 5,3

SPR 6s
00000100
00011100
01011000
11101000
11000101
01000111
01001110
00111100
>
00110000
00011000
10111000
11011100
10001110
01010100
01001110
00111100
POS 13 5,4

SPR 6t
00000100
00011100
01011000
11101000
11000101
01000111
01001110
00111100
>
00110000
00011000
10111000
11011100
10001110
01010100
01001110
00111100
POS 13 4,5

SPR 6u
00000100
00011100
01011000
11101000
11000101
01000111
01001110
00111100
>
00110000
00011000
10111000
11011100
10001110
01010100
01001110
00111100
POS 13 3,5

SPR 6v
00000100
00011100
01011000
11101000
11000101
01000111
01001110
00111100
>
00110000
00011000
10111000
11011100
10001110
01010100
01001110
00111100
POS 13 3,6

SPR 6w
00000100
00011100
01011000
11101000
11000101
01000111
01001110
00111100
>
00110000
00011000
10111000
11011100
10001110
01010100
01001110
00111100
POS 13 8,8

SPR 6x
00000100
00011100
01011000
11101000
11000101
01000111
01001110
00111100
>
00110000
00011000
10111000
11011100
10001110
01010100
01001110
00111100
POS 13 10,7

SPR 6y
00000100
00011100
01011000
11101000
11000101
01000111
01001110
00111100
>
00110000
00011000
10111000
11011100
10001110
01010100
01001110
00111100
POS 13 11,10

SPR 6z
00000100
00011100
01011000
11101000
11000101
01000111
01001110
00111100
>
00110000
00011000
10111000
11011100
10001110
01010100
01001110
00111100
POS 13 10,8

SPR 7a
00000100
00011100
01011000
11101000
11000101
01000111
01001110
00111100
>
00110000
00011000
10111000
11011100
10001110
01010100
01001110
00111100
POS 13 6,8

SPR 7b
00000100
00011100
01011000
11101000
11000101
01000111
01001110
00111100
>
00110000
00011000
10111000
11011100
10001110
01010100
01001110
00111100
POS 13 5,8

SPR 7c
00000100
00011100
01011000
11101000
11000101
01000111
01001110
00111100
>
00110000
00011000
10111000
11011100
10001110
01010100
01001110
00111100
POS 13 3,7

SPR 7d
00000100
00011100
01011000
11101000
11000101
01000111
01001110
00111100
>
00110000
00011000
10111000
11011100
10001110
01010100
01001110
00111100
POS 13 4,8

SPR 7e
00000100
00011100
01011000
11101000
11000101
01000111
01001110
00111100
>
00110000
00011000
10111000
11011100
10001110
01010100
01001110
00111100
POS 13 3,9

SPR 7f
00000100
00011100
01011000
11101000
11000101
01000111
01001110
00111100
>
00110000
00011000
10111000
11011100
10001110
01010100
01001110
00111100
POS 13 2,10

SPR 7g
00000100
00011100
01011000
11101000
11000101
01000111
01001110
00111100
>
00110000
00011000
10111000
11011100
10001110
01010100
01001110
00111100
POS 13 5,10

SPR 7h
00000100
00011100
01011000
11101000
11000101
01000111
01001110
00111100
>
00110000
00011000
10111000
11011100
10001110
01010100
01001110
00111100
POS 13 9,11

SPR 7i
00000100
00011100
01011000
11101000
11000101
01000111
01001110
00111100
>
00110000
00011000
10111000
11011100
10001110
01010100
01001110
00111100
POS 13 8,9

SPR 7j
00000100
00011100
01011000
11101000
11000101
01000111
01001110
00111100
>
00110000
00011000
10111000
11011100
10001110
01010100
01001110
00111100
POS 13 9,10

SPR 7k
00000100
00011100
01011000
11101000
11000101
01000111
01001110
00111100
>
00110000
00011000
10111000
11011100
10001110
01010100
01001110
00111100
POS 13 9,8

SPR 7l
00000100
00011100
01011000
11101000
11000101
01000111
01001110
00111100
>
00110000
00011000
10111000
11011100
10001110
01010100
01001110
00111100
POS 13 7,10

SPR 7m
00000100
00011100
01011000
11101000
11000101
01000111
01001110
00111100
>
00110000
00011000
10111000
11011100
10001110
01010100
01001110
00111100
POS 13 11,8

SPR 7n
00000100
00011100
01011000
11101000
11000101
01000111
01001110
00111100
>
00110000
00011000
10111000
11011100
10001110
01010100
01001110
00111100
POS 13 12,6

SPR 7o
00000100
00011100
01011000
11101000
11000101
01000111
01001110
00111100
>
00110000
00011000
10111000
11011100
10001110
01010100
01001110
00111100
POS 13 11,7

SPR 7p
00000100
00011100
01011000
11101000
11000101
01000111
01001110
00111100
>
00110000
00011000
10111000
11011100
10001110
01010100
01001110
00111100
POS 13 14,8

SPR 7q
00000100
00011100
01011000
11101000
11000101
01000111
01001110
00111100
>
00110000
00011000
10111000
11011100
10001110
01010100
01001110
00111100
POS 13 14,4

SPR 7r
00000100
00011100
01011000
11101000
11000101
01000111
01001110
00111100
>
00110000
00011000
10111000
11011100
10001110
01010100
01001110
00111100

SPR 7s
00000100
00011100
01011000
11101000
11000101
01000111
01001110
00111100
>
00110000
00011000
10111000
11011100
10001110
01010100
01001110
00111100
POS 13 15,6

SPR 7t
00000100
00011100
01011000
11101000
11000101
01000111
01001110
00111100
>
00110000
00011000
10111000
11011100
10001110
01010100
01001110
00111100
POS 13 13,7

SPR 7u
00000100
00011100
01011000
11101000
11000101
01000111
01001110
00111100
>
00110000
00011000
10111000
11011100
10001110
01010100
01001110
00111100
POS 13 15,9

SPR 7v
00000100
00011100
01011000
11101000
11000101
01000111
01001110
00111100
>
00110000
00011000
10111000
11011100
10001110
01010100
01001110
00111100
POS 13 13,9

SPR 7w
00000100
00011100
01011000
11101000
11000101
01000111
01001110
00111100
>
00110000
00011000
10111000
11011100
10001110
01010100
01001110
00111100
POS 13 14,10

SPR 7x
00000100
00011100
01011000
11101000
11000101
01000111
01001110
00111100
>
00110000
00011000
10111000
11011100
10001110
01010100
01001110
00111100
POS 13 0,5

SPR 7y
00000100
00011100
01011000
11101000
11000101
01000111
01001110
00111100
>
00110000
00011000
10111000
11011100
10001110
01010100
01001110
00111100
POS 13 13,11

SPR 7z
00000100
00011100
01011000
11101000
11000101
01000111
01001110
00111100
>
00110000
00011000
10111000
11011100
10001110
01010100
01001110
00111100
POS 13 14,2

SPR 8a
00000100
00011100
01011000
11101000
11000101
01000111
01001110
00111100
>
00110000
00011000
10111000
11011100
10001110
01010100
01001110
00111100
POS 13 15,0

SPR 8b
00000100
00011100
01011000
11101000
11000101
01000111
01001110
00111100
>
00110000
00011000
10111000
11011100
10001110
01010100
01001110
00111100
POS 13 2,1

SPR 8c
00000100
00011100
01011000
11101000
11000101
01000111
01001110
00111100
>
00110000
00011000
10111000
11011100
10001110
01010100
01001110
00111100
POS 13 9,12

SPR 8d
00000100
00011100
01011000
11101000
11000101
01000111
01001110
00111100
>
00110000
00011000
10111000
11011100
10001110
01010100
01001110
00111100
POS 13 11,12

SPR 8e
00000100
00011100
01011000
11101000
11000101
01000111
01001110
00111100
>
00110000
00011000
10111000
11011100
10001110
01010100
01001110
00111100
POS 13 0,10

SPR 8f
00000100
00011100
01011000
11101000
11000101
01000111
01001110
00111100
>
00110000
00011000
10111000
11011100
10001110
01010100
01001110
00111100
POS 13 15,11

SPR 8h
00000000
00011000
00011000
00111100
01111110
10111101
10100101
00100100
>
00000000
00111100
01011010
01111110
00111100
00111100
00100100
00100100
DLG SPR_n
POS p 9,5

SPR 8i
00000000
00000000
00011000
00111100
11101110
10000110
00000000
00000000
POS p 6,6

SPR 8j
00000000
00110000
00111000
01111000
00011000
01110000
01000000
00000000
POS p 5,5

SPR 8k
00000000
00110000
00111000
01111000
00011000
01110000
01000000
00000000
POS q 4,7

SPR 8l
00000000
00000000
00011000
00111100
11101110
10000110
00000000
00000000
POS q 5,8

SPR 8m
00000000
00000000
00011000
00111100
11101110
10000110
00000000
00000000
POS r 4,10

SPR 8n
00000000
00110000
00111000
01111000
00011000
01110000
01000000
00000000
POS m 6,5

ITM 1
00111100
11000011
10000001
11000011
10111101
10000011
10000101
01111110
NAME barrel
DLG ITM_1

ITM 2
00000000
00000010
00000010
00111110
00100100
00111100
00111100
00000000
NAME radio
DLG ITM_2

ITM 3
00000000
00000000
00000000
00111000
00111100
00000000
00000000
00000000
DLG ITM_0

DLG SPR_1
Howard: Looks like you had a rough landing!

DLG SPR_2
Patrick: Everything alright!?

DLG SPR_3
Sean: There must be a way to get over this fence...

DLG SPR_0
Patrick: I think that we can still carry out our mission from this position. After all, we are a mile from where we should have landed. I need you to retrieve two items: a BARREL and a RADIO. You will find me near the heli if you need me again.

DLG SPR_4
Patrick: we are currently flying over a dangerous zone.

DLG SPR_6
"""
{sequence
  - Sean: I wish I was at home, eating one of those delicious breakfasts my wife makes.
  - Instead, I'm stuck on this shithole...
  - I just want to go back home...
}
"""

DLG SPR_5
"""
{sequence
  - Howard: Do not worry. Our flight is well armoured man...
  - Regardless, what are they gonna do? Throw sum rocks at us?
}
"""

DLG SPR_7
We were not expecting visitors.

DLG SPR_8
I am fishing. Do you want some fish? You can come by later.

DLG SPR_9
Sean: Welcome to 'Nam, I guess...

DLG SPR_a
Howard: Beware of those damn booby traps man! We need young men like you to carry out these missions, ha hah!

DLG SPR_b
Sean: This view makes it all worth it. It's truly... sublime.

DLG ITM_1
"""
You found the barrel.
{gotitems = gotitems + 1}
"""

DLG ITM_2
"""
You found the radio.
{gotitems = gotitems + 1}
"""

DLG SPR_c
"""
{
  - gotitems == 0 ?
    Patrick: Have you found those two things?
    Remember: a BARREL and a RADIO.
  - gotitems == 1 ?
    Patrick: Good job. Keep going man.
  - gotitems == 2 ?
    Patrick: Good job. Can you hand me my cap? It's in the chopper. Don't worry, the fire's gone now.
}
"""

DLG SPR_d
Don't go any further.

DLG SPR_e
We will shoot you if you go any further!

DLG SPR_f
"""
Howard: The damage is too great!
We have to do an emergency landing!
"""

DLG ITM_0
"""
You found Patrick's cap.

"""

DLG SPR_g
"""
Thank you.
The village we are looking for is located at the South. Let's get going.
"""

DLG SPR_h
Patrick: this way.

DLG SPR_i
Patrick: 'round here...

DLG SPR_j
Here, quick!

DLG SPR_k
"""
Good job.
Good job...
"""

DLG SPR_l
Well armored...

DLG SPR_m
"""
Fuck, we've been hit!

"""

DLG SPR_n
No, this can't be happening!

DLG SPR_o
"""
{sequence
  - Howard: Do not worry. Our flight is well armoured man...
  - Regardless, what are they gonna do? Throw sum rocks at us?
}
"""

END 0
You died.

END 1
That sublime moment...

VAR gotitems
0

