Modern Living

PAL 0
0,0,0
0,0,255
255,255,0

SET 0
mmltqqqucccccccc
mnk00000c000000c
nl000000cs00000c
mk000000c00p0r0c
l0000o00c000000c
k0000000c000000c
j00bbb00cccciccc
a0000bb00000i00v
a00b0000fggghb0q
aa0dddddeb000b0q
aa00b0000000000q
aa00bb000000000q
aa000000000b000q
aaa000wxx000b00q
aaaaa00000bbb00q
aaaaaaajjjjjjjjy
WAL a,c,j,o,p,u,t,q,n,m,l,k,v,w,x,y

TIL a
00000000
00011000
00111100
01111110
11111111
01101010
01010010
01101010

TIL b
00000000
00000000
00001000
00010001
10010101
01000100
01000000
00000000

TIL c
11111000
11011000
10101000
11011110
10101110
10011010
10001110
10011010

TIL d
00000000
00000000
11111111
00000000
01100110
00000000
11111111
00000000

TIL e
00100010
00101010
11101010
00000010
01100010
00000010
11111110
00000000

TIL f
00000000
00111111
00100000
00100110
00100000
00101011
00101010
00100010

TIL g
00000000
11111111
00000000
01100110
00000000
11111111
00000000
00000000

TIL h
00100010
11101010
00001010
01100010
00000010
11111110
00000000
00000000

TIL i
00100010
00101010
00101010
00100010
00100010
00101010
00101010
00100010

TIL j
00000000
00000000
00000000
10001000
11111111
10001000
11111111
10001000

TIL k
11110000
11110000
11100000
11100000
11000000
11000000
10000000
10000000

TIL l
11111111
11111111
11111110
11111110
11111100
11111100
11111000
11111000

TIL m
11111111
11111111
11111111
11111111
11111111
11111111
11111111
11111111

TIL n
11111111
11110111
11001001
11111111
11101111
10010011
11111111
11111111

TIL o
00000000
00000000
01111000
10010100
11111111
11111111
01100110
00000000

TIL p
00100100
01011010
00011000
00011000
01111110
10011001
11111111
01111110

TIL q
10001000
11111111
00100010
11111111
10001000
11111111
00100010
11111111

TIL r
00000000
00000000
00000000
11111111
11111111
01000010
11111111
01000010

TIL s
00011100
01010101
00011100
00101010
00001000
00001000
00001000
00011100

TIL t
01001000
01111111
01100010
01111111
01001000
01111111
01100010
01111111

TIL u
10001010
11111110
00100010
11111110
10001010
11111110
00100010
11111110

TIL v
00000000
11111111
00100010
11111111
10001000
11111111
00100010
11111111

TIL w
00000000
00000000
10000000
11100000
11110000
10111000
10011111
10001111

TIL x
00000000
01000001
01111111
01010101
01010101
01010101
01011101
01000001

TIL y
00000000
11100000
10000110
11101000
10001000
11101000
00000110
00000000

SPR A
00111100
00100100
00111100
00011000
00111100
00111100
00100100
01100110
POS 0 14,11

SPR a
00111100
00111100
00111100
00011000
00111100
00111100
00100100
01100110
POS 0 2,3

SPR b
00101100
00010100
00101100
00011000
00111100
00111100
00100100
01100110
POS 0 3,12

SPR c
00111100
01111110
00100100
00011000
00111100
00111100
00100100
01100110
POS 0 12,2

SPR d
00000000
00000000
00000000
00111100
00100100
01111110
01111110
01111110
POS 0 13,2

SPR e
00111100
00111100
00111100
00011000
01111110
00111100
00100100
01100110
POS 0 11,10

SPR f
00111100
00100100
00111100
00011000
01111110
00111100
00100100
01100110
POS 0 9,13

SPR g
00111100
00111100
00111100
10011001
01111110
00111100
00100100
01100110
POS 0 4,1

SPR h
00000000
00000000
00000000
00000000
00000000
00000000
00000000
00000000

DLG a
The water is always nice... Even when people aren't

DLG b
I like to hang around the suburbs, it makes me feel like I could own property someday.

DLG c
I'm a business man with a business plan!

DLG d
I'm a briefcase, I have lots of graphs and things inside me.

DLG e
They say as you get older you loose your arms.

DLG f
Adults are always scared that someone's going to tear down the park. When I get older I think I'll be the one to finally do it.

DLG g
You can see over the fences and across the water, but you can't see over the walls. I wonder what's out there...

