
i feel compelled to move forward

# BITSY VERSION 4.6

! ROOM_FORMAT 1

PAL 0
NAME 1
153,192,206
210,229,235
255,255,255

ROOM 0
0,0,0,0,0,0,0,0,0,0,0,0,0,0,0,0
0,0,0,0,0,0,0,0,0,0,0,0,0,0,0,0
0,0,0,0,0,0,0,0,0,0,0,0,0,0,0,0
0,0,0,0,0,0,0,0,0,0,0,0,0,0,0,0
0,0,0,0,0,0,0,0,0,0,0,0,0,0,0,0
0,0,0,0,0,0,0,0,0,0,0,0,0,0,0,0
0,g,e,e,e,e,e,e,e,e,e,e,e,e,f,0
0,h,11,0,0,0,0,0,0,0,0,0,0,0,i,0
0,h,10,0,0,0,0,0,0,0,0,0,0,13,i,0
0,h,z,0,0,0,0,0,0,0,0,0,0,1d,i,0
0,h,y,k,m,16,18,0,0,0,0,0,0,12,i,0
0,h,x,14,15,1b,19,0,1g,1h,1i,0,0,1e,i,0
0,h,1c,l,n,17,1a,0,1f,0,1j,0,0,r,i,0
0,h,s,t,u,s,q,v,t,s,u,s,t,v,i,0
0,c,b,b,b,b,b,b,b,b,b,b,b,b,d,0
0,0,0,0,0,0,0,0,0,0,0,0,0,0,0,0
NAME bedroom
ITM 0 5,9
ITM 0 4,8
ITM 0 3,9
ITM 0 9,2
ITM 0 8,4
EXT 13,12 1 2,12
EXT 13,11 1 2,11
EXT 13,10 1 2,10
EXT 13,9 1 2,9
EXT 13,8 1 2,8
PAL 0

ROOM 1
0,0,0,0,0,0,0,0,0,0,0,0,0,0,0,0
0,0,0,0,0,0,0,0,0,0,0,0,0,0,0,0
0,0,0,0,0,0,0,0,0,0,0,0,0,0,0,0
0,0,0,0,0,0,0,0,0,0,0,0,0,0,0,0
0,0,0,0,0,0,0,0,0,0,0,0,0,0,0,0
0,0,0,0,0,0,0,0,0,0,0,0,0,0,0,0
0,g,e,e,e,e,e,e,e,e,e,e,e,e,f,0
0,h,0,0,0,0,0,0,0,0,0,0,0,0,i,0
0,h,0,0,0,0,0,0,0,0,0,0,0,13,i,0
0,h,0,0,0,0,0,0,0,0,0,0,0,1d,i,0
0,h,0,0,0,1y,1z,28,28,20,0,0,0,12,i,0
0,h,0,0,0,1w,24,25,27,21,0,0,0,1e,i,0
0,h,0,0,29,1x,23,26,23,22,29,0,0,r,i,0
0,h,1k,1l,1m,1n,1o,1p,1q,1r,1s,1t,1u,1v,i,0
0,c,b,b,b,b,b,b,b,b,b,b,b,b,d,0
0,0,0,0,0,0,0,0,0,0,0,0,0,0,0,0
NAME living room
EXT 13,12 2 2,12
EXT 13,11 2 2,11
EXT 13,10 2 2,10
EXT 13,9 2 2,9
EXT 13,8 2 2,8
PAL 0

ROOM 2
0,0,0,0,0,0,0,0,0,0,0,0,0,0,0,0
0,0,0,0,0,0,0,0,0,0,0,0,0,0,0,0
0,0,0,0,0,0,0,0,0,0,0,0,0,0,0,0
0,0,0,0,0,0,0,0,0,0,0,0,0,0,0,0
0,0,0,0,0,0,0,0,0,0,0,0,0,0,0,0
0,0,0,0,0,0,0,0,0,0,0,0,0,0,0,0
0,g,e,e,e,e,e,e,e,e,e,e,e,e,f,0
0,h,0,0,0,0,0,0,0,0,0,0,0,0,i,0
0,h,0,0,0,0,0,0,0,0,0,0,0,13,i,0
0,h,0,0,2k,2j,0,0,0,0,0,0,0,1d,i,0
0,h,0,0,2l,2i,2t,2s,0,0,0,0,0,12,i,0
0,h,0,0,2m,2h,2d,2e,2o,2q,0,0,0,1e,i,0
0,h,0,0,2g,2f,2b,2c,2p,2r,2n,2n,0,r,i,0
0,h,2a,2a,2a,2a,2a,2a,2a,2a,2a,2a,2a,2a,i,0
0,c,b,b,b,b,b,b,b,b,b,b,b,b,d,0
0,0,0,0,0,0,0,0,0,0,0,0,0,0,0,0
NAME kitchen
EXT 13,12 3 2,12
EXT 13,11 3 2,11
EXT 13,10 3 2,10
EXT 13,9 3 2,9
EXT 13,8 3 2,8
PAL 0

ROOM 3
0,0,0,0,0,0,0,0,0,0,0,0,0,0,0,0
0,0,0,0,0,0,0,0,0,0,0,0,0,0,0,0
0,0,0,0,0,0,0,0,0,0,0,0,0,0,0,0
0,0,0,0,0,0,0,0,0,0,0,0,0,0,0,0
0,0,0,0,0,0,0,0,0,0,0,0,0,0,0,0
0,0,0,0,0,0,0,0,0,0,0,0,0,0,0,0
0,g,e,e,e,e,e,e,e,e,e,e,e,e,f,0
0,h,0,0,0,0,0,0,0,0,0,0,0,0,i,0
0,h,0,0,0,0,0,0,0,0,0,0,0,13,i,0
0,h,0,0,0,0,0,0,0,0,0,2v,0,1d,i,0
0,h,0,0,0,0,0,0,0,0,0,2w,0,12,i,0
0,h,0,0,0,0,0,0,0,0,0,0,0,1e,i,0
0,h,0,0,0,0,0,0,0,0,0,2u,0,r,i,0
0,h,s,t,u,s,q,v,t,s,u,s,t,v,i,0
0,c,b,b,b,b,b,b,b,b,b,b,b,b,d,0
0,0,0,0,0,0,0,0,0,0,0,0,0,0,0,0
NAME hallway
EXT 13,12 4 2,12
EXT 13,11 4 2,11
EXT 13,10 4 2,10
EXT 13,9 4 2,9
EXT 13,8 4 2,8
PAL 0

ROOM 4
0,0,0,0,0,0,0,0,0,0,0,0,0,0,0,0
0,0,0,0,0,0,0,0,0,0,0,0,0,0,0,0
0,0,0,0,0,0,0,0,0,0,0,0,0,0,0,0
0,0,0,0,0,0,0,0,0,0,0,0,0,0,0,0
0,0,0,0,0,0,0,0,0,0,0,0,0,0,0,0
0,0,0,0,0,0,0,0,0,0,0,0,0,0,0,0
0,g,e,e,e,e,e,e,e,e,e,e,e,e,f,0
0,h,30,31,32,32,32,33,36,0,37,0,3p,3m,i,0
0,h,34,0,35,0,37,3u,0,3r,0,3q,3n,3i,i,0
0,h,0,3t,34,3r,36,0,0,0,3q,35,3j,3l,i,0
0,h,0,3u,0,0,0,0,34,0,0,3k,3o,2z,i,0
0,h,0,0,0,0,0,0,0,0,0,0,0,2y,i,0
0,h,0,0,38,0,39,0,3a,0,3b,0,0,2x,i,0
0,h,s,t,u,s,q,v,t,s,u,s,t,v,i,0
0,c,b,b,b,b,b,b,b,b,b,b,b,b,d,0
0,0,0,0,0,0,0,0,0,0,0,0,0,0,0,0
NAME garden
ITM 1 12,11
ITM 1 12,12
EXT 13,12 5 2,10
EXT 13,11 5 2,10
PAL 0

ROOM 5
0,0,0,0,0,0,0,0,0,0,0,0,0,0,0,0
0,0,0,0,0,0,0,0,0,0,0,0,0,0,0,0
0,0,0,0,0,0,0,0,0,0,0,0,0,0,0,0
0,0,0,0,0,0,0,0,0,0,0,0,0,0,0,0
0,0,0,0,0,0,0,0,0,0,0,0,0,0,0,0
0,0,0,0,0,0,0,0,0,0,0,0,0,0,0,0
0,g,e,e,e,e,e,e,e,e,e,e,e,e,f,0
0,h,0,0,0,0,0,0,0,0,0,0,0,0,i,0
0,h,0,0,0,0,0,0,0,0,0,0,0,0,i,0
0,h,0,0,0,0,0,0,0,0,0,0,0,0,i,0
0,h,0,0,0,0,0,0,0,0,0,0,0,0,i,0
0,h,0,0,0,0,0,0,0,0,0,0,0,0,i,0
0,h,0,0,0,0,0,0,0,0,0,0,0,0,i,0
0,h,0,0,0,0,0,0,0,0,0,0,0,0,i,0
0,c,b,b,b,b,b,b,b,b,b,b,b,b,d,0
0,0,0,0,0,0,0,0,0,0,0,0,0,0,0,0
NAME passage
ITM 2 4,10
ITM 2 4,8
ITM 2 4,12
ITM 2 2,12
ITM 2 2,8
ITM 2 6,8
ITM 2 3,13
ITM 2 5,11
ITM 2 3,7
ITM 2 5,9
ITM 2 6,10
ITM 2 7,9
ITM 2 5,7
ITM 2 7,7
ITM 2 8,8
ITM 2 7,11
ITM 2 6,12
ITM 2 5,13
ITM 2 7,13
ITM 2 8,10
ITM 2 8,12
ITM 2 9,13
ITM 2 9,11
ITM 2 10,10
ITM 2 9,9
ITM 2 9,7
ITM 2 10,8
ITM 2 11,7
ITM 2 11,9
ITM 2 11,11
ITM 2 10,12
ITM 2 11,13
ITM 2 12,12
ITM 2 12,10
ITM 2 12,8
ITM 2 3,9
ITM 2 3,11
EXT 13,10 6 2,10
EXT 13,9 6 2,10
EXT 13,8 6 2,10
EXT 13,7 6 2,10
EXT 13,11 6 2,10
EXT 13,12 6 2,10
EXT 13,13 6 2,10
PAL 0

ROOM 6
0,0,0,0,0,0,0,0,0,0,0,0,0,0,0,0
0,0,0,0,0,0,0,0,0,0,0,0,0,0,0,0
0,0,0,0,0,0,0,0,0,0,0,0,0,0,0,0
0,0,0,0,0,0,0,0,0,0,0,0,0,0,0,0
0,0,0,0,0,0,0,0,0,0,0,0,0,0,0,0
0,0,0,0,0,0,0,0,0,0,0,0,0,0,0,0
0,g,e,e,e,e,e,e,e,e,e,e,e,e,f,0
0,h,0,0,0,0,0,0,42,49,48,44,4n,44,i,0
0,h,0,0,0,0,0,0,42,43,45,44,44,44,i,0
0,h,0,0,0,0,0,0,42,0,3x,46,44,44,i,0
0,h,0,0,0,0,0,0,41,3w,3y,47,4p,44,i,0
0,h,4k,4j,0,0,0,0,40,3z,3z,4a,44,44,i,0
0,h,44,4i,4h,4m,4f,4e,4d,4c,4b,4o,44,44,i,0
0,h,4q,44,44,4g,4l,4r,44,44,44,44,44,44,i,0
0,c,b,b,b,b,b,b,b,b,b,b,b,b,d,0
0,0,0,0,0,0,0,0,0,0,0,0,0,0,0,0
NAME street view
ITM 3 3,10
ITM 3 2,9
EXT 8,9 7 3,9
EXT 9,10 7 3,9
PAL 0

ROOM 7
0,0,0,0,0,0,0,0,0,0,0,0,0,0,0,0
0,0,0,0,0,0,0,0,0,0,0,0,0,0,0,0
0,0,0,0,0,0,0,0,0,0,0,0,0,0,0,0
0,0,0,0,0,0,0,0,0,0,0,0,0,0,0,0
0,0,0,0,0,0,0,0,0,0,0,0,0,0,0,0
0,0,0,0,0,0,0,0,0,0,0,0,0,0,0,0
0,g,e,e,e,e,e,e,e,e,e,e,e,e,f,0
0,h,11,0,0,0,0,0,0,0,0,0,0,0,i,0
0,h,10,0,0,0,0,0,0,0,0,0,0,13,i,0
0,h,z,0,0,0,0,0,0,0,0,0,0,1d,i,0
0,h,y,k,m,16,18,0,0,0,0,0,0,12,i,0
0,h,x,14,15,1b,19,0,1g,1h,1i,0,0,1e,i,0
0,h,1c,l,n,17,1a,0,1f,0,1j,0,0,r,i,0
0,h,s,t,u,s,q,v,t,s,u,s,t,v,i,0
0,c,b,b,b,b,b,b,b,b,b,b,b,b,d,0
0,0,0,0,0,0,0,0,0,0,0,0,0,0,0,0
NAME bedroom2
ITM 4 4,9
ITM 4 3,8
EXT 13,12 1 2,12
EXT 13,11 8 2,11
EXT 13,10 8 2,10
EXT 13,9 8 2,9
EXT 13,8 8 2,8
PAL 0

ROOM 8
0,0,0,0,0,0,0,0,0,0,0,0,0,0,0,0
0,0,0,0,0,0,0,0,0,0,0,0,0,0,0,0
0,0,0,0,0,0,0,0,0,0,0,0,0,0,0,0
0,0,0,0,0,0,0,0,0,0,0,0,0,0,0,0
0,0,0,0,0,0,0,0,0,0,0,0,0,0,0,0
0,0,0,0,0,0,0,0,0,0,0,0,0,0,0,0
0,g,e,e,e,e,e,e,e,e,e,e,e,e,f,0
0,h,0,0,0,0,0,0,0,0,0,0,0,0,i,0
0,h,0,0,0,0,0,0,0,0,0,0,0,13,i,0
0,h,0,0,0,0,0,0,0,0,0,0,0,1d,i,0
0,h,0,0,0,1y,1z,28,28,20,0,0,0,12,i,0
0,h,0,0,0,1w,24,25,27,21,0,0,0,1e,i,0
0,h,0,0,29,1x,23,26,23,22,29,0,0,r,i,0
0,h,1k,1l,1m,1n,1o,1p,1q,1r,1s,1t,1u,1v,i,0
0,c,b,b,b,b,b,b,b,b,b,b,b,b,d,0
0,0,0,0,0,0,0,0,0,0,0,0,0,0,0,0
NAME living room2
EXT 13,12 9 2,12
EXT 13,11 9 2,11
EXT 13,10 9 2,10
EXT 13,9 9 2,9
EXT 13,8 9 2,8
PAL 0

ROOM 9
0,0,0,0,0,0,0,0,0,0,0,0,0,0,0,0
0,0,0,0,0,0,0,0,0,0,0,0,0,0,0,0
0,0,0,0,0,0,0,0,0,0,0,0,0,0,0,0
0,0,0,0,0,0,0,0,0,0,0,0,0,0,0,0
0,0,0,0,0,0,0,0,0,0,0,0,0,0,0,0
0,0,0,0,0,0,0,0,0,0,0,0,0,0,0,0
0,g,e,e,e,e,e,e,e,e,e,e,e,e,f,0
0,h,0,0,0,0,0,0,0,0,0,0,0,0,i,0
0,h,0,0,0,0,0,0,0,0,0,0,0,13,i,0
0,h,0,0,2k,2j,0,0,0,0,0,0,0,1d,i,0
0,h,0,0,2l,2i,2t,2s,0,0,0,0,0,12,i,0
0,h,0,0,2m,2h,2d,2e,2o,2q,0,0,0,1e,i,0
0,h,0,0,2g,2f,2b,2c,2p,2r,2n,2n,0,r,i,0
0,h,2a,2a,2a,2a,2a,2a,2a,2a,2a,2a,2a,2a,i,0
0,c,b,b,b,b,b,b,b,b,b,b,b,b,d,0
0,0,0,0,0,0,0,0,0,0,0,0,0,0,0,0
NAME kitchen2
EXT 13,12 a 2,12
EXT 13,11 a 2,11
EXT 13,10 a 2,10
EXT 13,9 a 2,9
EXT 13,8 a 2,8
PAL 0

ROOM a
0,0,0,0,0,0,0,0,0,0,0,0,0,0,0,0
0,0,0,0,0,0,0,0,0,0,0,0,0,0,0,0
0,0,0,0,0,0,0,0,0,0,0,0,0,0,0,0
0,0,0,0,0,0,0,0,0,0,0,0,0,0,0,0
0,0,0,0,0,0,0,0,0,0,0,0,0,0,0,0
0,0,0,0,0,0,0,0,0,0,0,0,0,0,0,0
0,g,e,e,e,e,e,e,e,e,e,e,e,e,f,0
0,h,0,0,0,0,0,0,0,0,0,0,0,0,i,0
0,h,0,0,0,0,0,0,0,0,0,0,0,13,i,0
0,h,0,0,0,0,0,0,0,0,0,2v,0,1d,i,0
0,h,0,0,0,0,0,0,0,0,0,2w,0,12,i,0
0,h,0,0,0,0,0,0,0,0,0,0,0,1e,i,0
0,h,0,0,0,0,0,0,0,0,0,2u,0,r,i,0
0,h,s,t,u,s,q,v,t,s,u,s,t,v,i,0
0,c,b,b,b,b,b,b,b,b,b,b,b,b,d,0
0,0,0,0,0,0,0,0,0,0,0,0,0,0,0,0
NAME hallway2
END 0 5,11
END 0 6,12
END 0 4,12
PAL 0

TIL 10
11111110
11111110
11111110
11111110
11111000
11111000
11111000
11110000
NAME Curt:2
WAL true

TIL 11
00000000
11111100
11111110
11111110
11111110
11111110
11111110
11111110
NAME Curt:1
WAL true

TIL 12
01000000
01000000
01000000
01001000
01011100
01001000
01000000
01000000
NAME Door:3

TIL 13
00000000
01111111
01000000
01001111
01010000
01010000
01010000
01010000
NAME Door:1

TIL 14
01011100
01001111
01010000
01011111
01011111
01011111
01011111
01011111
NAME bed
WAL true

TIL 15
00001111
11101011
00001111
11101011
11101111
11101010
11101111
11101011
NAME bed
WAL true

TIL 16
00000000
00000000
01111111
11111011
11111111
10101010
11111111
11111011
NAME bed
WAL true

TIL 17
11111111
10111011
11111111
11111011
11111111
10101010
00000000
00000000
NAME bed
WAL true

TIL 18
00000000
00000001
11000000
11111001
11111101
10101001
11111101
11111001
NAME bed
WAL true

TIL 19
11111101
10111001
11111101
11111001
11111101
10101001
11111101
11111001
NAME bed
WAL true

TIL 20
11000000
11100000
11110000
11110000
11110000
11110000
11110000
11110000
NAME couch
WAL true

TIL 21
11110000
11011100
10111110
10110111
10100011
10110111
00111110
10111110
NAME couch
WAL true

TIL 22
10111110
01111110
11111110
11111110
11111100
00110000
00110000
00110000
NAME couch
WAL true

TIL 23
11111111
00000000
11111111
11111111
11111111
00000000
00000000
00000000
NAME couch
WAL true

TIL 24
00000000
00000000
00000000
00000000
00000000
00000000
00000000
11111111
NAME couch
WAL true

TIL 25
11111111
01111111
01111111
01111111
01111111
01111111
00011000
11100111
NAME couch
WAL true

TIL 26
11100111
00000000
11111111
11111111
11111111
00000000
00000000
00000000
NAME couch
WAL true

TIL 27
11111111
11111111
11111111
11111111
11111111
11111111
00000000
11111111
NAME couch
WAL true

TIL 28
11111111
11111111
11111111
11111111
11111111
11111111
11111111
11111111
NAME couch
WAL true

TIL 29
01111110
01111110
00100100
00100100
00100100
01000010
01000010
01000010
NAME side table
WAL true

TIL 30
00000000
11100000
00010000
00001000
00100100
00010100
00110011
00000000
NAME tree

TIL 31
00000000
00000000
00000000
00000000
00110001
01001101
10000010
00000000
NAME tree

TIL 32
00000000
00000000
00000000
11100010
00011000
00000000
00000000
00000000
NAME tree

TIL 33
00001110
00010000
00100010
11000010
00001001
00010100
00011000
00000000
NAME tree

TIL 34
00000000
00000100
00010100
00001001
00000010
00100000
01010010
01100000
NAME tree

TIL 35
00000000
00000000
00110100
01010000
01100100
00001010
00000110
00000000
NAME tree

TIL 36
00000000
00000000
10000001
10100000
10101010
01000110
00000000
00000000
NAME tree

TIL 37
00000000
10000000
00000100
00010100
01011000
00110000
00001010
00000100
NAME tree

TIL 38
00000000
01110000
10001000
10001001
11111010
11111100
11111000
11111000
NAME watercan
WAL true

TIL 39
00000000
01101100
00010000
00110000
00011000
00010000
00010000
00010000
NAME plant
WAL true

TIL 40
00000111
00000000
00000000
00000000
00000011
00000000
00000000
00000000
NAME SV:Street

TIL 41
00000110
00000110
01000110
01000110
00000110
00000110
01000110
01000111
NAME SV:street

TIL 42
00000110
00000110
01000110
01000110
00000110
00000110
01000110
01000110
NAME SV:street

TIL 43
00000000
00000000
00000000
00000000
10101010
11111111
10101010
00000000
NAME SV:house
WAL true

TIL 44
11111111
11111111
11111111
11111111
11111111
11111111
11111111
11111111
NAME cloud

TIL 45
00001111
00111111
01111111
01111111
01111111
00111111
00001111
00001111
>
00000111
00011111
00111111
00111111
00111111
00011111
00000111
00000111
NAME cloud
WAL true

TIL 46
11001111
00111111
00111111
10111111
00011111
00000111
11001111
11000011
>
11100111
00011111
00011111
01011111
00001111
01100011
01100111
00000001
NAME cloud
WAL true

TIL 47
00000111
00000011
00001111
00011111
00011111
00001111
00011111
11111111
>
00000011
00000001
00000111
00001111
00001111
00000111
00001111
11111111
NAME cloud
WAL true

TIL 48
11111111
11111111
11111111
00111111
01111111
00001111
00110001
00110011
>
11111111
11111111
11111111
00011111
00111111
00000111
01100000
01100001
NAME cloud
WAL true

TIL 49
00111111
01111111
00111110
00011100
00000000
00011000
00000000
00000000
>
00011111
00111111
00011111
00001110
00000000
00110000
00000000
00000000
NAME cloud
WAL true

TIL b
11111111
00000000
00000000
00000000
00000000
00000000
00000000
00000000
NAME UI:PS:b
WAL true

TIL c
00000111
00000101
00000111
00000000
00000000
00000000
00000000
00000000
NAME UI:PS:bl
WAL true

TIL d
11100000
10100000
11100000
00000000
00000000
00000000
00000000
00000000
NAME UI:PS:br
WAL true

TIL e
00000000
00000000
00000000
00000000
00000000
00000000
00000000
11111111
NAME UI:PS:t
WAL true

TIL f
00000000
00000000
00000000
00000000
00000000
11100000
10100000
11100000
NAME UI:PS:tr
WAL true

TIL g
00000000
00000000
00000000
00000000
00000000
00000111
00000101
00000111
NAME UI:PS:tl
WAL true

TIL h
00000001
00000001
00000001
00000001
00000001
00000001
00000001
00000001
NAME UI:PS:l
WAL true

TIL i
10000000
10000000
10000000
10000000
10000000
10000000
10000000
10000000
NAME UI:PS:r
WAL true

TIL k
01000000
00000000
01000011
01000111
01000111
01000111
01000111
01001011
NAME bed
WAL true

TIL l
01011111
01000000
01111111
01111111
01000000
01000000
01000000
01000000
NAME bed
WAL true

TIL m
00000000
00000000
11100000
10110011
10110111
11110010
11110111
11101011
NAME bed
WAL true

TIL n
11101111
00001011
11101111
11101011
00001111
00001010
00000000
00000000
NAME bed
WAL true

TIL q
11111111
00000000
11111111
01000000
11110101
00000000
11111111
01000000
NAME Wood:1A
WAL true

TIL r
01010000
01010000
01010000
01010000
01001111
01000000
01111111
00000000
NAME Door:5
WAL false

TIL s
11111111
01000000
11111011
00000000
11111111
01000000
11111110
00000000
NAME Wood:2A
WAL true

TIL t
11111111
00000000
11111111
01000000
11110111
00000000
11111111
01000000
NAME Wood:1B
WAL true

TIL u
11111111
00000000
11110101
01000000
11111111
00000000
11111111
01000000
NAME Wood:1C
WAL true

TIL v
11111111
01000000
11111011
00000000
11111111
01000000
11111110
00010100
NAME Wood:2B
WAL true

TIL w
11111111
01000000
11111011
00000000
11111111
01000000
11111110
00000000
NAME Wood:2C
WAL true

TIL x
11110000
11110000
11110000
11110000
11110000
11110000
11110000
11110000
NAME Curt:5
WAL true

TIL y
11100000
11100000
11100000
11100000
11100000
11110000
11110000
11110000
NAME Curt:4
WAL true

TIL z
11110000
11110000
11100000
11100000
11100000
11000000
01000000
11000000
NAME Curt:3
WAL true

TIL 1a
11111101
10111001
11111101
11111001
11111101
10101001
00000001
00000001
NAME bed
WAL true

TIL 1b
11111111
10111011
11111111
11111011
11111111
10101010
11111111
11111011
NAME bed
WAL true

TIL 1c
11110000
11110000
11110000
11110000
11110000
11110000
10110000
00000000
NAME Curt:6
WAL true

TIL 1d
01010000
01010000
01000000
01010000
01010000
01010000
01000000
01000011
NAME Door:2

TIL 1e
01000011
01000000
01010000
01010000
01010000
01000000
01010000
01010000
NAME Door:4

TIL 1f
00100000
00100000
00100000
00100000
00100000
00100000
00100000
00100000
NAME desk
WAL true

TIL 1g
00111111
00100000
00100000
00100000
00111111
00100000
00100000
00100000
NAME desk
WAL true

TIL 1h
11111111
00000000
00011000
00000000
00000000
11111111
00000000
00000000
NAME desk
WAL true

TIL 1i
11111100
00000100
00000100
00000100
11111100
00000100
00000100
00000100
NAME desk
WAL true

TIL 1j
00000100
00000100
00000100
00000100
00000100
00000100
00000100
00000100
NAME desk
WAL true

TIL 1k
11111111
00000000
00000100
00000000
01000000
01000000
00010000
00000000
NAME carpet
WAL true

TIL 1l
11011111
00000001
00000000
00000000
00000000
00000000
00001000
00001000
NAME carpet
WAL true

TIL 1m
11111111
00000000
00010100
00010100
00000000
00000000
00000000
00000000
NAME carpet
WAL true

TIL 1n
11111011
00000000
00000000
00000000
00000000
00000000
00000000
00000000
NAME carpet
WAL true

TIL 1o
10101111
00000000
00000000
00000000
10000000
00000000
00000000
00000000
NAME carpet
WAL true

TIL 1p
11101111
00000000
00000000
00000000
00000000
00000000
00000000
00000000
NAME carpet
WAL true

TIL 1q
11110101
00000000
01000000
00000000
00000000
00000010
00000010
00000000
NAME carpet
WAL true

TIL 1r
11111101
00000000
00000000
00010000
00000000
00000000
00000000
00000000
NAME carpet
WAL true

TIL 1s
11111111
00000000
00000000
00000100
00000100
00000000
00000000
00000000
NAME carpet
WAL true

TIL 1t
11111010
00000000
00000000
00000000
00000000
00000000
00000000
00000000
NAME carpet
WAL true

TIL 1u
11111111
00000000
00001000
00000000
01000000
01000000
00000000
00000000
NAME carpet
WAL true

TIL 1v
11111111
00100000
00000000
00000000
00000000
00000000
00000010
00000000
NAME carpet
WAL true

TIL 1w
00001000
00111000
01111100
11101100
11000100
11101100
01111100
01111101
NAME couch
WAL true

TIL 1x
01111101
01111110
01111111
01111111
00111111
00001100
00001100
00001100
NAME couch
WAL true

TIL 1y
00000011
00000111
00001111
00001111
00001111
00001000
00001000
00001000
NAME couch
WAL true

TIL 1z
11111111
11111111
11111111
11111111
11111111
00000000
00000000
00000000
NAME couch
WAL true

TIL 2a
11111111
00100010
11011101
00100010
11011101
00100010
00100010
11011101
NAME tile
WAL true

TIL 2b
10100000
10100000
10100000
10111111
10000000
11111111
10000000
10000000
NAME counter
WAL true

TIL 2c
00000101
00000101
00000101
11111001
00000001
11111111
00000000
00000000
NAME counter
WAL true

TIL 2d
11111111
11111111
10000000
10011111
10100000
10100000
10100000
10100000
NAME counter
WAL true

TIL 2e
11111111
11111111
00000001
11111001
00000101
00000101
00000101
00010101
NAME counter
WAL true

TIL 2f
00000010
00000010
11111110
00000010
11111110
01010110
10101010
11111110
NAME fridge
WAL true

TIL 2g
01000000
01000000
01111111
01000000
01111111
01010101
01101010
01111111
NAME fridge
WAL true

TIL 2h
00001010
11001010
01000010
01000010
01000010
11000010
00000010
00000010
NAME fridge
WAL true

TIL 2i
11111110
00000010
00000010
00000010
00000010
00000010
00001010
00001010
NAME fridge
WAL true

TIL 2j
11111100
00000010
00000010
00001010
00001010
00001010
00001010
00000010
NAME fridge
WAL true

TIL 2k
00111111
01000000
01000000
01000000
01000000
01000000
01000000
01000000
NAME fridge
WAL true

TIL 2l
01111111
01000000
01000000
01000000
01001100
01001100
01000000
01000000
NAME fridge
WAL true

TIL 2m
01000111
01000111
01000110
01000010
01000010
01000011
01000000
01000000
NAME fridge
WAL true

TIL 2n
00000000
00000000
00000000
00000000
00000000
00000000
00111100
01111110
NAME food bowl
WAL true

TIL 2o
11111111
11111111
00000000
00111111
01000000
01000000
01000000
01010000
NAME counter
WAL true

TIL 2p
01000000
01000000
01000000
00111111
00000000
11111111
00000000
00000000
NAME counter
WAL true

TIL 2q
11111100
11111100
00000100
11100100
00010100
00010100
00010100
00010100
NAME counter
WAL true

TIL 2r
00010100
00010100
00010100
11110100
00000100
11111100
00000100
00000100
NAME counter
WAL true

TIL 2s
00000000
00000000
00000000
01000000
10100000
10000000
10000000
10100000
NAME counter
WAL true

TIL 2t
00000000
00000000
00000000
00000000
00000000
00000000
00000000
00000010
NAME counter
WAL true

TIL 2u
00000000
00000000
00111111
00101101
00101101
00101101
01101101
10010001
NAME boots
WAL true

TIL 2v
00010000
00111000
01010100
01000100
01000100
01101100
01010100
01000100
NAME leash
WAL true

TIL 2w
00000100
01000100
01000100
00000100
00001010
00001010
00001010
00000100
NAME leash
WAL true

TIL 2x
01010100
01110101
01010111
01010101
01011100
01010101
01111111
00000000
NAME gate

TIL 2y
01010111
01010101
01110100
01010101
01010101
01000101
01010101
01011101
NAME gate

TIL 2z
00000000
10001111
00010101
00110101
00110101
01010100
01011101
01010101
>
01000000
10001111
00010101
00110101
00110101
01010100
01011101
01010101
NAME gate

TIL 3a
00000000
01101100
00010000
00010000
00011000
00010000
00110000
00010000
NAME plant
WAL true

TIL 3b
00000000
01101100
00010000
00010000
00010000
00110000
00010000
00010000
NAME plant
WAL true

TIL 3i
01000101
10001011
00010101
00101010
01010101
10101010
01000101
10001010
>
01010101
10001010
00010101
00101010
01010101
10101011
01010101
10001010
NAME shine
WAL true

TIL 3j
01000001
00000010
00000100
00001000
00010000
00100000
00000000
10000000
>
00000001
00000010
00000100
00001000
00010000
00000000
01000000
00000000
NAME shine
WAL true

TIL 3k
00000000
00000010
00000100
00000000
00000000
00000000
00000000
00000000
>
00000001
00000010
00000000
00000000
00000000
00000000
00000000
00000000
NAME shine
WAL true

TIL 3l
00010101
00101011
00010101
00100010
01000101
10001010
00010101
00100010
>
00010101
00101010
01010101
00101010
01000101
10001011
00010101
00001010
NAME shine
WAL true

TIL 3m
00101001
01010011
00100101
01001010
10010101
00001010
00010101
00101010
>
00101001
01010010
10100101
01001010
00010101
00101011
00010101
00101010
NAME shine
WAL true

TIL 3n
00000000
00000000
00000001
00000010
00000100
00001000
00000000
00100000
>
00000000
00000000
00000001
00000010
00000100
00000000
00010000
00000000
NAME shine
WAL true

TIL 3o
00000000
00000000
00000001
00000000
00000000
00000000
00000000
00000000
>
00000000
00000000
00000000
00000000
00000000
00000000
00000000
00000000
NAME shine
WAL true

TIL 3p
00000000
00000000
00000000
00000000
00000000
00000000
00000010
00000100
>
00000000
00000000
00000000
00000000
00000000
00000001
00000010
00000000
NAME shine
WAL true

TIL 3q
00000000
00000000
00000000
00101000
00011010
10100100
01000000
00000000
NAME tree

TIL 3r
00000000
00000000
00000100
00010100
00001100
00000000
01010100
01100000
NAME tree

TIL 3s
00000101
00000010
00000000
00000000
00010100
00001000
00000000
00000000
NAME tree

TIL 3t
00000000
00000000
00000000
10100000
01001000
00010000
00000000
00000000
NAME tree

TIL 3u
00000000
00000000
00000000
00010000
00100000
00000010
00000001
00001000
NAME tree

TIL 3v
00000000
00000000
00000000
00000000
00010100
00001000
00000000
00000000
NAME tree

TIL 3w
00001000
00001010
00001000
00000101
00000100
00000101
00001000
11111111
NAME SV:path

TIL 3x
00000011
00000000
01000000
11000000
00100000
01100000
11010000
10110000
>
00000001
00000000
01000000
11000000
00100000
01100000
11010000
10110000
NAME SV:hedge

TIL 3y
10010000
10100000
01010000
00110000
01010000
01010000
00100000
11111111
NAME SV:hedge

TIL 3z
11111111
00000000
00000000
00000000
00110011
00000000
00000000
00000000
NAME SV:street

TIL 4a
11111111
00011111
00111111
00111111
01111111
01111111
01111111
01111111
>
11111111
00001111
00011111
00011111
00111111
00111111
00111111
00111111
NAME cloud
WAL true

TIL 4b
11111001
11111111
11111111
11111111
11111111
11111111
11111111
11111111
>
11111100
11111111
11111111
11111111
11111111
11111111
11111111
11111111
NAME cloud
WAL true

TIL 4c
00000001
00000111
01001111
00001111
00011111
11011111
11111111
11111111
>
00000000
00000011
00000111
00100111
00001111
11101111
11111111
11111111
NAME cloud
WAL true

TIL 4d
00000000
00000000
00000000
11100000
11111100
11111110
11111111
11111111
>
00000000
00000000
00000000
11110000
11111110
11111111
11111111
11111111
NAME cloud
WAL true

TIL 4e
00000000
00000000
00001000
00000011
00001111
00011111
10111111
10111111
>
00000000
00001000
00000000
00000001
00000111
00001111
11011111
11011111
NAME cloud
WAL true

TIL 4f
00000000
00000000
00000000
00011000
00011000
01000000
00001101
00011111
>
00000000
00000000
00011000
00011000
00000000
00000000
01000110
00001111
NAME cloud
WAL true

TIL 4g
00111010
01111111
11111111
11111111
11111111
11111111
11111111
11111111
>
10011101
10111111
11111111
11111111
11111111
11111111
11111111
11111111
NAME cloud
WAL true

TIL 4h
00000000
00000000
00001100
00000000
10000000
10111100
11111110
11111111
>
00000000
00000000
00000000
00001100
00000000
00111110
11111111
11111111
NAME cloud
WAL true

TIL 4i
11111110
11111110
11110000
11101110
11111111
11111111
11111111
11111111
>
11111111
11111111
11111000
11110111
11111111
11111111
11111111
11111111
NAME cloud
WAL true

TIL 4j
00000000
01100000
01100000
00000000
11000010
11100000
11111000
11111100
>
00000000
00110000
00110000
00000000
11100100
11110000
11111100
11111110
NAME cloud
WAL true

TIL 4k
11100000
11111100
11111110
11111110
11111111
11111111
11111111
11111111
>
11110000
11111110
11111111
11111111
11111111
11111111
11111111
11111111
NAME cloud
WAL true

TIL 4l
01111111
11111111
11111111
11111111
11111111
11111111
11111111
11111111
>
11111111
11111111
11111111
11111111
11111111
11111111
11111111
11111111
NAME cloud
WAL true

TIL 4m
00000000
00000000
00000000
00000000
00000000
00000000
00000000
10000000
>
00000000
00000000
00000000
00000000
00000000
00000000
00000000
00000000
NAME cloud
WAL true

TIL 4n
11111111
11111111
11111111
11111111
11011111
11001111
10111111
11111111
>
11111111
11111111
11111111
11111111
11111111
10111111
00011111
11111111
NAME cloud
WAL true

TIL 4o
11111111
11110011
11001111
11101111
11111111
11111111
11111111
11111111
>
11100011
10011111
11011111
11111111
11111111
11111111
11111111
11111111
NAME cloud
WAL true

TIL 4p
11111111
11100111
11011111
11101111
11111111
11111111
11111111
11111111
>
11111111
11110011
11101111
11110111
11111111
11111111
11111111
11111111
NAME cloud
WAL true

TIL 4q
11111111
10001111
11101111
11011111
11111111
11111111
11111111
11111111
>
11100111
11110111
11111111
11111111
11111111
11111111
11111111
11111111
NAME cloud
WAL true

TIL 4r
11111111
11111111
11011111
10001111
01111111
11111111
11111111
11111111
>
11111111
11111111
11111111
11011111
11001111
10111111
11111111
11111111
NAME cloud
WAL true

SPR A
00000000
01111100
11011010
11100110
11111110
01111100
11111000
01110000
>
01111100
11011010
11100110
11111110
01111100
11111000
01110000
00000000
POS 0 4,9

SPR a
01111000
11011001
11110001
00001110
01011110
01111110
00101010
00101010
>
00000000
01111000
11011010
11110010
00001110
01011110
01111110
00101010
NAME dog4
DLG SPR_0
POS 9 3,12

SPR b
00011100
00010111
00011101
00000111
00000010
00001111
00000110
00000110
NAME flowers
DLG SPR_1
POS 0 8,10

SPR c
11111000
11111000
00000000
01111110
00000000
11111000
10010000
11111000
NAME books
DLG SPR_3
POS 1 4,11

SPR d
11111111
10000001
10111101
10101001
10110101
10000001
11111111
00000000
NAME photo
DLG SPR_2
POS 0 9,9

SPR e
11111111
11111111
11111111
10000001
10110101
10101101
10000001
11111111
NAME calender
DLG SPR_6
POS 2 10,10

SPR f
00000000
01111000
11011000
11110000
00001110
01011111
01111011
11110111
NAME pup1
DLG SPR_4
POS 3 7,12

SPR g
00000000
00000000
00000000
11011111
11111001
11111001
01110010
01110010
NAME bread
DLG SPR_5
POS 2 8,10

SPR j
00011000
00100100
01000010
11111111
10011001
10000101
10101001
11111111
NAME picture
DLG SPR_7
POS 1 7,8

SPR k
00011000
00101100
01001010
10011001
10100101
11000011
01001010
01111110
NAME house
POS 6 9,9

SPR l
01111000
11011001
11110001
00001110
01011110
01111110
00101010
00101010
>
01111000
11011010
11110010
00001110
01011110
01111110
00101010
00101010
NAME pup2
DLG SPR_8
POS 7 12,12

SPR m
00011100
00010111
00011101
00000111
00000010
00001111
00000110
00000110
NAME flowers2
DLG SPR_9
POS 7 8,10

SPR n
11111111
10000001
10111101
10101001
10110101
10000001
11111111
00000000
NAME photo2
DLG SPR_a
POS 7 9,9

SPR o
11111000
11111000
00000000
01111110
00000000
11111000
10010000
11111000
NAME books2
DLG SPR_b
POS 8 4,11

SPR p
00011000
00100100
01000010
11111111
10011001
10000101
10101001
11111111
NAME picture2
DLG SPR_c
POS 8 7,8

SPR q
00011110
10011011
10001111
01110000
01111010
01111110
01010100
01010100
>
00011110
01011011
01001111
01110000
01111010
01111110
01010100
01010100
NAME pup3
DLG SPR_d
POS 8 2,12

SPR r
01111000
11011001
11110001
00001110
01011110
01111110
00101010
00000000
>
00000000
11111000
01011010
11110010
00001110
01011110
01111110
00101010
NAME dog5
POS a 5,12

SPR s
00000000
00000000
00000000
11011111
11111001
11111001
01110010
01110010
NAME bread2
DLG SPR_e
POS 9 8,10

SPR t
11111111
11111111
11111111
10000001
10110101
10101101
10000001
11111111
NAME calender2
DLG SPR_f
POS 9 10,10

ITM 0
00000000
00000000
00000000
00000000
00000000
00000000
00000000
00000000
NAME thought1
DLG ITM_0

ITM 1
00000000
00000000
00000000
00000000
00000000
00000000
00000000
00000000
NAME thought2
DLG ITM_1

ITM 2
00000000
00000000
00000000
00000000
00000000
00000000
00000000
00000000
NAME thought3
DLG ITM_2

ITM 3
00000000
00000000
00000000
00000000
00000000
00000000
00000000
00000000
NAME thought4
DLG ITM_3

ITM 4
00000000
00000000
00000000
00000000
00000000
00000000
00000000
00000000
NAME thought5
DLG ITM_4

DLG SPR_1
i wilted before you did

DLG SPR_2
it feels like this was taken a lifetime ago

DLG SPR_3
time enough at last... but i can't move the pages

DLG SPR_4
"""
{sequence
  - {wvy}...{wvy}
  - i'll miss you the most
  - do you know i'm gone?
  - i can't say good-bye
  - i don't want to leave you
  - i have to move on somehow...
    a force is pushing me
}
"""

DLG SPR_5
looks like i went stale first

DLG SPR_6
too bad this happened before my next birthday

DLG SPR_7
i've only been to the place painted here in spirit

DLG ITM_2
"""
{sequence
  - where am i
  - this seems lonely
  - {wvy}why was i compelled to leave{wvy}
  - {shk}i've made a mistake{shk}
  - {shk}i want to go back{shk}
  - 
}
"""

DLG SPR_9
i'm back, flowers!

DLG SPR_a
i'm back, photo!

DLG ITM_4
"""
{sequence
  - i'm {wvy}baaaaaaaack{wvy}
  - 
}
"""

DLG SPR_b
i'm back, books!

DLG SPR_c
i'm back, painting!

DLG SPR_d
"""
{sequence
  - it almost feels like you followed me out of the room
  - this will be tough to get used to
  - 
}
"""

DLG SPR_8
"""
{sequence
  - oh pup, you were bound to find out eventually
    i'll be with you {wvy}always{wvy} even if you don't know it
  - 
}
"""

DLG SPR_0
"""
{sequence
  - {wvy}wait a second{wvy}
    
    no it can't be.
  - it's foolish to think you can sense me
  - i must be content with being near you
}
"""

DLG SPR_e
i'm back, bread!

DLG SPR_f
i'm back, calendar!

DLG ITM_0
"""
{sequence
  - i guess i didn't make it through the night
  - 
}
"""

DLG ITM_1
"""
{sequence
  - what happens now?
  - 
}
"""

DLG ITM_3
"""
{sequence
  - my house!
  - 
}
"""

END 0
pup, everything's gonna be ok.

VAR a
0


