TK Goes for a Walk               A Game by Jerry V.       

# BITSY VERSION 3.2

! ROOM_FORMAT 1

PAL 0
255,153,0
204,102,0
255,255,255

PAL 1
0,204,255
102,0,255
255,255,255

PAL 2
0,77,153
179,218,255
255,255,255

PAL 3
64,64,64
179,179,179
255,204,0

PAL 4
255,255,255
255,204,255
102,255,255

ROOM 0
a,o,a,0,a,0,a,a,l,0,a,b,b,b,b,b
a,m,n,0,0,a,0,0,l,0,1d,b,b,u,b,b
o,0,m,0,n,0,g,k,i,0,0,b,b,b,b,b
m,a,0,a,m,0,l,0,0,0,1b,b,b,b,b,u
p,p,p,1a,a,1d,l,0,a,0,0,1d,b,b,b,b
0,0,0,0,0,g,i,0,0,0,0,0,a,b,b,b
0,g,k,k,k,i,0,0,0,a,a,0,0,0,b,b
1d,l,0,0,0,0,0,0,a,0,a,0,0,0,1b,0
0,l,0,a,0,a,0,1d,a,a,0,0,a,0,0,0
0,l,0,a,a,0,0,0,0,0,0,1d,0,0,0,0
0,l,0,a,0,0,0,1b,0,0,0,0,0,1b,0,0
a,j,h,0,a,b,b,b,b,b,b,b,b,b,b,b
0,0,l,0,0,b,f,f,f,f,f,f,f,f,f,f
a,0,l,0,1b,b,f,f,f,f,f,f,f,f,f,f
0,a,l,0,0,a,f,f,f,f,f,f,f,f,f,f
0,0,l,0,1b,b,f,f,f,f,f,f,f,f,f,f
WAL b,c,f,n,o,m,e,u
EXT 0,15 1 0,0
EXT 1,15 1 1,0
EXT 2,15 1 2,0
EXT 3,15 1 3,0
EXT 4,14 2 2,6
EXT 3,0 3 3,15
EXT 4,0 3 4,15
EXT 5,0 3 5,15
EXT 6,0 3 6,15
EXT 7,0 3 7,15
EXT 8,0 3 8,15
EXT 9,0 3 9,15
EXT 10,0 3 10,15
EXT 2,0 3 2,15
EXT 0,0 3 0,15
END 0 15,10
END 0 15,9
END 0 15,8
END undefined 0,1
END 0 15,7
PAL 0

ROOM 1
0,a,l,0,0,b,b,b,b,b,b,b,b,b,b,b
0,1d,l,0,a,b,b,b,b,b,b,b,b,b,b,b
a,0,l,0,0,b,u,b,b,u,b,b,u,b,b,u
a,0,l,a,0,b,b,b,b,b,b,b,b,b,b,b
0,a,q,0,0,b,b,b,b,b,b,b,b,b,b,b
1d,0,0,0,1b,0,p,p,p,0,1b,0,p,p,p,0
0,a,0,0,0,0,a,0,0,0,0,0,0,0,0,0
s,s,s,s,s,s,s,s,s,s,s,s,s,s,s,s
0,0,0,0,0,0,0,0,0,0,0,0,0,0,0,0
0,0,0,0,0,0,0,0,0,0,0,0,0,0,0,0
0,r,0,r,0,r,0,r,0,r,0,r,0,r,0,r
0,0,0,0,0,0,0,0,0,0,0,0,0,0,0,0
0,0,0,0,0,0,0,0,0,0,0,0,0,0,0,0
t,t,t,t,t,t,t,t,t,t,t,t,t,t,t,t
0,1b,0,0,0,0,0,1b,0,0,0,0,0,1b,0,0
b,b,b,b,b,b,b,b,b,b,b,b,b,b,b,b
WAL b,c,e,m,n,o,f
EXT 0,0 0 0,15
EXT 1,0 0 1,15
EXT 2,0 0 2,15
EXT 3,0 0 3,15
PAL 0

ROOM 2
0,b,b,b,b,b,b,b,b,b,b,b,b,b,b,b
0,b,x,y,z,19,19,19,10,19,19,13,b,b,b,b
0,b,19,19,19,19,19,x,10,19,19,16,b,b,b,b
0,b,19,19,19,19,19,19,10,19,19,13,b,b,b,b
0,b,19,x,w,z,19,x,0,19,19,13,b,b,u,b
0,b,19,19,19,19,19,19,10,19,19,16,b,b,b,b
0,v,19,19,19,19,19,19,12,19,19,16,b,b,b,b
0,b,19,19,19,19,19,19,10,19,19,13,b,b,b,b
0,b,19,x,y,z,19,x,10,19,19,16,b,b,b,b
0,b,19,19,19,19,19,19,10,19,14,0,b,b,u,17
0,b,x,w,z,19,19,19,19,19,15,0,b,17,17,17
0,b,b,b,b,b,b,b,b,b,17,17,b,17,b,b
0,b,b,b,b,b,b,b,b,b,b,17,17,17,b,b
0,b,b,b,b,b,b,b,b,b,b,b,b,b,b,b
0,b,u,b,b,u,b,b,u,b,b,u,b,b,u,b
0,b,b,b,b,b,b,b,b,b,b,b,b,b,b,b
WAL b,c,e,m,n,o,f,w,10,y,16,13,12,u
EXT 1,6 5 4,14
EXT 15,9 4 0,9
PAL 1

ROOM 3
b,b,b,b,b,b,b,b,b,b,b,b,b,b,b,b
0,1b,0,a,0,0,p,1a,p,0,0,0,p,1a,p,0
b,0,1d,0,0,0,a,0,a,0,0,0,a,0,0,0
b,a,0,a,0,a,0,0,0,0,0,0,0,a,1d,0
b,0,0,a,a,0,0,a,0,0,0,1d,0,a,0,0
b,0,0,0,1d,0,0,0,0,a,0,0,0,0,0,0
b,0,a,0,0,0,0,18,0,0,1d,0,0,a,0,a
b,1d,0,0,a,0,0,0,0,a,0,0,0,0,0,a
b,0,0,0,0,a,0,l,0,0,0,0,0,a,1b,0
b,0,0,a,0,a,0,j,h,0,0,a,0,0,b,b
b,0,0,0,1d,0,0,0,l,0,a,0,0,b,b,b
b,a,0,a,0,0,a,0,l,a,0,1d,b,b,b,b
b,0,0,0,0,0,0,a,l,0,1b,b,b,b,b,b
b,a,0,0,a,a,0,0,l,a,0,b,b,u,b,u
a,1d,0,0,0,a,0,a,l,0,0,b,b,b,b,b
0,a,0,a,0,a,0,0,l,0,a,b,b,b,b,b
WAL b,e
EXT 3,15 0 3,0
EXT 4,15 0 4,0
EXT 5,15 0 5,0
EXT 6,15 0 6,0
EXT 7,15 0 7,0
EXT 8,15 0 8,0
EXT 9,15 0 9,0
EXT 10,15 0 10,0
EXT 2,15 0 2,0
EXT 0,15 0 0,0
PAL 0

ROOM 4
b,b,b,b,b,b,b,b,b,b,b,b,b,b,b,b
b,b,b,b,b,b,b,b,b,b,b,b,b,b,b,b
b,b,b,b,b,b,b,b,b,b,b,b,b,b,b,b
b,b,b,b,b,b,b,b,b,b,b,b,b,b,b,b
b,u,b,b,u,b,b,u,b,b,u,b,b,u,b,b
b,b,b,b,b,b,b,b,b,b,b,b,b,b,b,b
b,0,0,0,b,b,b,b,b,b,b,b,b,b,b,b
b,0,0,0,b,b,b,b,b,b,b,b,b,b,b,b
b,0,0,b,b,b,b,b,b,b,b,b,b,b,b,b
0,0,b,b,u,b,b,u,b,b,u,b,b,u,b,b
b,b,b,b,b,b,b,b,b,b,b,b,b,b,b,b
b,b,b,b,b,b,b,b,b,b,b,b,b,b,b,b
b,b,b,b,b,b,b,b,b,b,b,b,b,b,b,b
b,b,b,b,b,b,b,b,b,b,b,b,b,b,b,b
b,u,b,b,u,b,b,u,b,b,u,b,b,u,b,b
b,b,b,b,b,b,b,b,b,b,b,b,b,b,b,b
WAL b,u
EXT 0,9 2 15,9
PAL 3

ROOM 5
a,o,a,0,a,0,a,a,l,0,a,b,b,b,b,b
a,m,n,0,0,a,0,0,l,0,1d,b,b,u,b,b
o,0,m,0,n,0,g,k,i,0,0,e,b,b,b,b
m,a,0,a,m,0,l,0,0,0,c,e,e,b,b,u
p,p,p,1a,a,1d,l,0,a,0,0,1d,b,b,u,b
0,0,0,0,0,g,i,0,0,0,0,0,a,b,e,b
0,g,k,k,k,i,0,0,0,a,a,0,0,0,e,e
1d,l,0,0,0,0,0,0,a,0,a,0,0,0,c,0
0,l,0,a,0,a,0,1d,a,a,0,0,a,0,0,0
0,l,0,a,a,0,0,0,0,0,0,1d,0,0,0,0
0,l,0,a,0,0,0,c,0,0,0,0,0,c,0,0
a,j,h,0,a,b,e,e,e,b,b,b,e,e,e,b
0,0,l,0,0,e,f,f,f,f,f,f,f,f,f,f
a,0,l,0,c,e,f,f,f,f,f,f,f,1e,f,f
0,a,l,0,0,a,f,f,f,f,f,f,f,f,f,f
0,0,l,0,c,e,f,f,f,f,f,f,f,f,f,f
WAL b,c,f,n,o,m,e,u
EXT 0,15 6 0,0
EXT 1,15 6 1,0
EXT 2,15 6 2,0
EXT 3,15 6 3,0
EXT 4,14 2 2,6
EXT 3,0 7 3,15
EXT 4,0 7 4,15
EXT 5,0 7 5,15
EXT 6,0 7 6,15
EXT 7,0 7 7,15
EXT 8,0 7 8,15
EXT 9,0 7 9,15
EXT 10,0 7 10,15
EXT 2,0 7 2,15
EXT 0,0 7 0,15
EXT 13,13 8 7,8
END undefined 0,1
END undefinee 15,7
END undefinee 15,8
END undefinee 15,9
END undefinee 15,10
PAL 2

ROOM 6
0,a,l,0,0,e,b,b,b,b,b,b,b,b,b,b
0,1d,l,0,a,b,b,b,b,b,b,b,b,b,b,b
a,0,l,0,0,b,u,b,b,u,b,b,u,b,b,u
a,0,l,a,0,e,b,b,b,b,e,b,b,b,b,b
0,a,q,0,0,e,e,b,b,e,e,e,b,b,b,e
1d,0,0,0,c,0,p,p,p,0,c,0,p,p,p,0
0,a,0,0,0,0,a,0,0,0,0,0,0,0,0,0
s,s,s,s,s,s,s,s,s,s,s,s,s,s,s,s
0,0,0,0,0,0,0,0,0,0,0,0,0,0,0,0
0,0,0,0,0,0,0,0,0,0,0,0,0,0,0,0
0,r,0,r,0,r,0,r,0,r,0,r,0,r,0,r
0,0,0,0,0,0,0,0,0,0,0,0,0,0,0,0
0,0,0,0,0,0,0,0,0,0,0,0,0,0,0,0
t,t,t,t,t,t,t,t,t,t,t,t,t,t,t,t
0,c,0,0,0,0,0,c,0,0,0,0,0,c,0,0
e,e,e,b,b,b,e,e,e,b,b,b,e,e,e,b
WAL b,c,e,m,n,o,f
EXT 0,0 5 0,15
EXT 1,0 5 1,15
EXT 2,0 5 2,15
EXT 3,0 5 3,15
PAL 2

ROOM 7
e,e,b,b,b,b,b,b,b,b,b,b,b,b,b,b
0,0,0,a,0,0,p,1a,p,0,0,0,p,1a,p,0
e,0,1d,0,0,0,a,0,a,0,0,0,a,0,0,0
b,a,0,a,0,a,0,0,0,0,0,0,0,a,1d,0
b,0,0,a,a,0,0,a,0,0,0,1d,0,a,0,0
b,0,0,0,1d,0,0,0,0,a,0,0,0,0,0,0
b,0,a,0,0,0,0,1c,0,0,1d,0,0,a,0,a
b,1d,0,0,a,0,0,0,0,a,0,0,0,0,0,a
b,0,0,0,0,a,0,l,0,0,0,0,0,a,c,0
b,0,0,a,0,a,0,j,h,0,0,a,0,0,e,e
b,0,0,0,1d,0,0,0,l,0,a,0,0,b,b,b
b,a,0,a,0,0,a,0,l,a,0,1d,b,b,b,b
b,0,0,0,0,0,0,a,l,0,c,e,b,b,b,b
b,a,0,0,a,a,0,0,l,a,0,e,b,11,b,u
a,1d,0,0,0,a,0,a,l,0,0,b,b,b,b,b
0,a,0,a,0,a,0,0,l,0,a,b,b,b,b,b
WAL b,e,u
EXT 3,15 5 3,0
EXT 4,15 5 4,0
EXT 5,15 5 5,0
EXT 6,15 5 6,0
EXT 7,15 5 7,0
EXT 8,15 5 8,0
EXT 9,15 5 9,0
EXT 10,15 5 10,0
EXT 2,15 5 2,0
EXT 0,15 5 0,0
END undefinef 0,1
PAL 2

ROOM 8
1i,1g,1h,1f,1i,1i,1h,1i,1h,1i,1f,1f,1i,1f,1g,1g
1g,1i,1f,1h,1i,1f,1i,1h,1f,1g,1i,1h,1f,1g,1f,1i
1g,1f,1a,0,0,0,0,0,13,0,0,1a,0,0,1h,1g
1h,1h,0,0,1a,0,0,0,o,0,s,0,q,0,1h,1h
1f,1f,o,0,0,0,0,0,0,s,0,0,0,1a,1f,1g
1f,1g,s,s,s,s,s,0,s,0,0,n,0,0,1f,1f
1f,1i,0,0,0,1a,0,0,0,0,0,0,0,0,1h,1g
1g,1g,0,1a,n,0,0,0,0,0,s,0,0,14,1f,1i
1i,1f,0,0,0,0,0,1e,0,s,0,0,14,0,1f,1h
1g,1i,0,x,0,0,0,0,s,0,1a,0,14,0,1g,1g
1h,1f,s,s,s,s,s,0,0,n,14,14,14,14,1i,1f
1h,1g,0,1a,0,o,0,0,1a,0,s,14,14,10,1g,1i
1f,1g,16,16,1j,1j,1j,1j,0,s,14,14,14,14,1f,1g
1g,1g,16,16,s,s,s,0,s,14,0,1a,14,14,1f,1g
1i,1f,1g,1i,1g,1f,1g,1i,1h,1h,1f,1i,1h,1h,1h,1f
1h,1h,1i,1h,1f,1h,1g,1f,1i,1f,1g,1h,1f,1i,1h,1f
END undefineg 2,1
END undefineg 3,1
END undefineg 4,1
END undefineg 5,1
END undefineg 6,1
END undefineg 7,1
END undefineg 1,2
END undefineg 1,3
END undefineg 1,4
END undefineg 1,5
END undefineg 1,6
END undefineg 1,7
END undefineg 1,8
END undefineg 1,9
END undefineg 1,10
END undefineg 1,11
END undefineg 1,12
END undefineg 1,13
END undefineg 2,14
END undefineg 3,14
END undefineg 4,14
END undefineg 5,14
END undefineg 6,14
END undefineg 8,14
END undefineg 7,14
END undefineg 9,14
END undefineg 10,14
END undefineg 11,14
END undefineg 12,14
END undefineg 13,14
END undefineg 14,13
END undefineg 14,12
END undefineg 14,11
END undefineg 14,10
END undefineg 14,9
END undefineg 14,8
END undefineg 14,7
END undefineg 14,6
END undefineg 14,5
END undefineg 14,4
END undefineg 14,3
END undefineg 14,2
END undefineg 8,1
END undefineg 9,1
END undefineg 10,1
END undefineg 12,1
END undefineg 11,1
END undefineg 13,1
PAL 4

TIL 10
01000010
01000010
01000110
01001010
01000010
01000010
01000110
01001010

TIL 11
00111100
01000011
01000010
11011011
01011010
11010010
01111110
11111111
>
00111100
01000011
01000010
11000011
01011010
11011010
01111110
11111111

TIL 12
01100010
01000010
01100110
01001010
01100010
01110010
01000110
01001010

TIL 13
01010000
01010000
01110001
01110011
01001011
01011011
01011000
01011000

TIL 14
11111111
10000000
10000000
10000000
10000000
10000000
10000000
10000000

TIL 15
10000000
00000000
00100000
01000000
01000000
01000000
10000000
10000000

TIL 16
01001111
01000000
01001111
01000000
01010100
01010101
01001000
01011101

TIL 17
00100000
10101111
00100000
11111111
00000010
11111010
00000010
11111111

TIL 18
01111110
11111010
01010010
01010010
01010010
01010010
01111110
11000011
>
01111110
11111010
01011010
01010010
01010010
01010010
01111110
11010011

TIL 19
00000001
00000011
10000100
01001000
00110000
00100000
01000000
10000000

TIL a
00100000
01000010
00000010
00000100
00100000
01000000
01000001
00000010
>
00100000
01000010
00000100
00100100
01000000
01000000
01000010
00000010

TIL b
00100000
10101111
00100000
11111111
00000010
11111010
00000010
11111111

TIL c
01000100
00010000
10101010
00010000
01010100
00010000
00011000
00111100
>
10000010
01010100
00101000
01010100
10010010
00010000
00011000
00111100

TIL e
00101001
10100100
00100000
11111111
10010010
01001010
00000010
11111111
>
00100000
00101001
10100100
11111111
00000010
10010010
01001010
11111111

TIL f
11011101
10111011
01110111
11101110
11011101
10111011
01110111
11101110

TIL g
00000000
00000111
00011000
00100000
01000000
01000000
01000001
01000010

TIL h
00000000
11100000
00011100
00000100
00000010
00000010
10000010
11000010

TIL i
01000010
10000010
00000010
00000010
00000010
00000010
11000100
00111000

TIL j
01000010
01000001
00100000
01000000
01000000
01100010
00111101
00000000

TIL k
00000000
11101111
00110010
00000000
00000000
00000000
11011111
00100000

TIL l
01000010
01000010
11000010
01000100
01000100
00100010
01000010
01000010

TIL m
00011100
00010110
00010010
00010010
00110010
00100011
00100001
01001011

TIL n
01001110
10010010
01000001
10100000
10000101
11010001
01000001
00110010
>
01101100
00001010
10100001
10000010
10100001
11000001
00101001
00010010

TIL o
01111100
01000010
01010001
10000001
10000001
10100011
01000001
00110110
>
01100110
01011001
01000010
10100001
10000101
10000001
11010010
00100100

TIL p
00000000
00000000
00000000
11111111
01011010
11111111
10000001
10000001

TIL q
01000001
01000001
01000001
10000001
10000001
10000010
01000110
00111100

TIL r
00000000
00000000
00000000
01111110
01111110
00000000
00000000
00000000

TIL s
00000000
00000000
00000000
11111111
01010101
00000000
00000000
00000000

TIL t
00000000
00000000
00000000
11111111
00000000
00000000
00000000
00000000

TIL u
00111100
01001011
01010010
11100111
01001010
11010010
01000010
11111111

TIL v
11111111
01000000
00100000
00000000
00000000
00100000
01000000
11111111

TIL w
00000000
00111100
01000010
10000001
01000010
00111100
00011000
00111100

TIL x
00100000
00100000
00100000
00100000
00111000
00111100
00100100
00000000

TIL y
00000000
00111100
01000110
10110101
01000010
00111100
00011000
00111100

TIL z
00000100
00000100
00000100
00000100
00011100
00111100
00100100
00000000

TIL 1a
00000000
00000000
00000000
00000000
00100100
00111100
00111100
00011000

TIL 1b
00000000
00010000
00010000
00010000
00010000
00010000
00011000
00111100

TIL 1c
01111110
11111010
01010010
01010010
01010010
01010010
01111110
11000011

TIL 1d
00000000
00000000
00010000
00000000
00000000
01000100
00001110
00000000

TIL 1e
00000000
00000010
00101100
01111110
01010110
01101010
01111110
00000000
>
00000000
00000010
00001100
01111110
01010110
01101010
01111110
00000000

TIL 1f
10010010
00000110
01100000
11001010
10111101
01000100
00101101
10000100
>
01000101
01011010
00111010
11001010
00111100
11010111
01100100
00111011

TIL 1g
01100001
10010000
11001010
00100100
01001100
01101001
10110100
00010010
>
01000010
01001010
00110110
11010100
00101010
01011001
10001010
00110010

TIL 1h
01000000
01111010
10101011
01001111
11010100
10001110
01011101
00110110
>
00100000
11101011
01101100
10101100
11110011
00010111
01010000
11011100

TIL 1i
10101010
10001001
11100100
01010110
00101000
11001001
01101110
10010010
>
11001101
10101110
01010110
00101001
10011110
00110100
01011010
01101011

TIL 1j
00000000
00010000
00010000
00010000
01010100
01111100
00111000
00010000
>
00010000
00010000
00010000
01010100
01111100
00111000
00010000
00000000

SPR 10
00011000
00011000
00110010
01011010
01011100
00011100
00010100
00010100
>
00011000
00011000
00110001
01011010
01011100
00011100
00010100
00010100
POS 2 2,1

SPR 11
11000011
01111110
10000001
10000001
10000001
00000000
11111111
00000000
POS 3 7,7

SPR 12
00000100
00000101
00000100
00000100
00000010
00000001
00000000
00000000
POS 3 6,7

SPR 13
00100000
10100000
00100000
00100000
01000000
10000000
00000000
00000000
POS 3 8,7

SPR 14
01111110
11111010
01010010
01010010
01010010
01010010
01111110
11000011
>
01111110
11111010
01011010
01010010
01010010
01010010
01111110
11010011
POS 8 4,5

SPR 15
00100011
01111111
00100010
00100010
01100010
00000010
00000010
00000010
>
00100011
01111111
00100010
01100010
00000010
00000010
00000010
00000010
POS 3 6,6

SPR 16
11000000
01000000
01000000
01000000
01000000
01000000
01000000
01000000
POS 3 8,6

SPR 17
00000000
00000000
00011000
00111100
01011010
10100101
00100100
01000010
POS 3 7,5

SPR 18
00000000
00000000
00000000
00000000
00000000
00000000
00000001
00000010
POS 3 6,5

SPR 19
00000000
00000000
00000000
00000000
00000000
00000000
10000000
01000000
POS 3 8,5

SPR 20
00001100
00011110
00001000
00010100
00111110
00011100
00010100
00010100
>
00000000
00001100
00011110
00001000
00010100
00111110
00011100
00010100
POS 3 3,8

SPR 21
00000000
00111000
01010100
01111100
00111000
01111100
00100110
00000000
>
00000000
00000000
00111000
01010100
01111100
00111000
01100110
00000000
POS 7 5,8

SPR 22
00000000
00100100
00100100
00111100
00100100
01111110
01111110
11000011
>
00000000
00000000
00100100
00100100
00111100
00100100
01111110
11111111
POS 8 10,3

SPR 23
01011110
00011000
00100100
00100100
00000000
00011000
00011000
00110000
>
00111100
01011110
00011000
00100100
00000000
00000000
00011000
00111000
POS 8 9,6

SPR 24
11111111
10011001
10100101
10000101
10011001
10000001
10010001
11111111
POS 8 6,3

SPR 25
00000000
00000000
00100000
00000000
00000000
00000000
00000000
00000000
>
00000000
00000000
00000000
00000100
00000000
00000000
00000000
00000000

SPR 26
00001100
00010100
00010100
00101000
01001001
01000110
01000100
00111011
POS 8 13,9

SPR 27
00011000
00011000
00101000
00111000
00111100
00011010
00100100
00100100
>
01011000
10011000
00001000
01011000
00111100
00011010
00100100
00100100
POS 6 12,14

SPR 28
00000000
01000000
01100000
01001011
01111100
01110010
10100101
01000010
POS 6 11,14

SPR 29
00000000
00000000
00000000
00000000
00000000
00000000
00000000
01110000
POS 5 5,3

SPR A
00000000
00100100
00011000
00001000
01111110
00011000
00100100
01000010
>
00100100
00011000
00001000
00111100
01011010
00011000
00100100
00100100
POS 0 13,8

SPR a
00001100
00001100
00011000
00111111
01011000
01011100
00011110
00001010
POS 0 1,4

SPR b
00110000
00110000
00011001
01111110
10011000
00111000
01001100
01000100
>
00011000
00011000
01001000
00111110
00011010
00011000
00100110
01000010
POS 2 5,2

SPR c
00000000
00000101
00010111
01100111
10000111
10111110
01111110
01111111
>
00000000
01000000
00100101
00100111
01000111
10111111
01111110
01111111
POS 0 1,2

SPR d
00011000
00011010
00010100
00111110
01011000
01011000
00010100
00100100
>
00011010
00011001
00010100
00111110
01011000
01011000
00010100
00100100
POS 0 9,10

SPR e
00000000
01100000
01100000
10000000
11100000
11000000
10110000
11111000
POS 0 5,3

SPR f
10011010
00011000
01001010
01011010
00111100
00011000
00100100
00100100
>
00000000
00011000
00011000
01001010
01011010
00111100
00011000
00100100
POS 1 7,9

SPR g
11111111
01000000
00100000
00000000
00000000
00100000
01000000
11111111
POS 0 5,14

SPR h
00000000
00011000
00011000
01001010
01011010
00111100
00011000
00100100
>
10011010
00011000
01001010
01011010
00111100
00011000
00100100
00100100
POS 1 9,8

SPR i
11000011
10111101
01000010
00100100
00100100
00100100
01000010
11011011
>
11011011
10111101
01000010
00100100
00100100
00100100
01000010
11011011
POS 0 9,7

SPR j
00001000
01000000
00010100
00000000
00101000
00010000
01000010
10011001
>
00000000
00010100
01000000
00101000
00000010
00100100
01010010
10000001
POS 0 9,6

SPR k
00000000
00000000
11111111
00101101
00100001
00011110
00000000
00000000
>
00000000
00000000
00000000
11111111
00100001
00011110
00000000
00000000
POS 1 1,9

SPR l
00110101
00110000
11000100
00000001
00000000
00000000
00000000
00000000
>
00110000
00110101
00110000
11000100
00000001
00000000
00000000
00000000
POS 1 2,9

SPR m
00000000
00000000
00000000
00000000
00000000
11000001
00100100
00110000
>
00000000
00000000
00000000
00000000
00000000
00000000
11000001
00100100
POS 1 2,8

SPR n
11110000
00001000
11101000
01010100
10010100
00010011
11110000
00000000
>
00000000
11110000
00001000
11101000
10010100
00010100
00010011
11110000
POS 1 1,8

SPR o
01111111
10000000
00110001
01011010
01101010
01001011
01111011
00000000
>
00000000
01111111
10000000
00110001
01101010
01001011
01001010
01111011
POS 1 0,8

SPR p
00000000
00000000
11111111
10100000
00100000
11000000
00000000
00000000
>
00000000
00000000
00000000
11111111
00100000
11000000
00000000
00000000
POS 1 0,9

SPR q
01011010
01011010
01001100
01111000
01011000
11011000
10100100
10100100
>
01011000
01011000
11001010
10111100
10011000
10011000
10100100
10100100
POS 1 5,8

SPR r
10011000
11011010
01001010
00111100
00011000
00011000
00100100
00100100
>
01011000
01011000
01001001
00111101
00011010
00011000
00100100
00100100
POS 1 5,11

SPR s
01000000
01000000
01000000
01000000
01000000
11000000
10000000
10000000
>
10000000
10000000
10000000
10000000
10000000
11000000
01000000
01000000
POS 1 5,10

SPR t
10000000
10000000
10000000
10000000
10000000
01000000
01000000
01000000
>
10000000
01000000
01000000
01000000
10000000
10000000
10000000
10000000
POS 1 5,9

SPR u
01000010
01000010
01000110
01001010
01000010
01000010
01000110
01001010
POS 2 8,4

SPR v
00011000
00111100
00001000
01111000
00111000
00011000
00010100
00010100
>
00000000
00011000
00111100
00001000
00111000
01111000
00011000
00010100
POS 2 9,4

SPR w
00001100
00001100
00001000
00111110
01011000
01011110
00000101
00000100
>
00001100
00001100
00001000
00111110
01011000
01011110
00000110
00000100
POS 2 2,10

SPR x
00000000
01100000
01110000
00011000
01111110
10011010
00101000
00101000
>
00110000
00110000
00010000
11011000
00111100
00011010
00101010
00101000
POS 2 5,8

SPR y
00000000
00001100
00011100
00110000
01111010
01111100
01001110
00001010
>
00000000
00001100
00011100
00110010
01111010
01111100
01001110
00001010
POS 2 3,8

SPR z
00011000
00011000
00100000
00110110
00111000
00011110
00000101
00000101
>
00011000
00011100
00100010
00110100
00111000
00011110
00000101
00000101
POS 2 7,6

SPR 1a
00000000
00000110
00000110
00000110
01111110
01111100
00111100
00011100
POS 2 11,10

SPR 1b
11111111
00000000
00000110
00000010
00111111
00011110
00001100
00001100
>
11111111
00000000
00000110
00001010
00111111
00011110
00001100
00001100
POS 2 11,9

SPR 1c
00000000
00001000
00010100
01001000
00101010
01001100
00111000
11111111
>
00000000
00000000
00001000
00010100
01001000
01001100
00111000
11111111
POS 4 1,7

SPR 1d
00000100
00001010
00100100
01010100
00100100
10110110
01101101
11111111
>
00000000
00000100
00001010
00100100
01010100
00101101
11100110
11111111
POS 4 1,6

SPR 1e
00000000
01000000
10100010
00010010
00010101
01011000
00111110
11111111
POS 4 3,6

SPR 1f
10111101
01010110
01101010
01010110
01000010
01101110
01010010
11111111
>
10111101
01010110
01101010
01010110
01000010
01101010
01010010
11111111
POS 3 10,1

SPR 1g
00100100
00011100
01010000
00111110
00011000
00111100
00100100
00100100
>
00000000
00100100
00011100
00010000
01111110
00011000
00100100
00100100
POS 3 1,1

SPR 1h
00001111
00010110
00000010
00011110
00101110
00011101
00010101
00010100
POS 3 8,1

SPR 1i
00000000
00000000
00000000
00010000
00001001
11101011
00111101
11000100
>
00000000
00000000
00000000
00000100
00001000
01101011
00111110
11000100
POS 2 7,1

SPR 1j
11000011
10111101
01000010
00100100
00100100
00100100
01000010
11011011
POS 5 9,7

SPR 1k
11111111
01000000
00100000
00000000
00000000
00100000
01000000
11111111
POS 5 5,14

SPR 1l
11000011
01111110
10000001
10000001
10000001
00000000
11111111
00000000
POS 7 7,7

SPR 1m
00000100
00000101
00000100
00000100
00000010
00000001
00000000
00000000
POS 7 6,7

SPR 1n
00100000
10100000
00100000
00100000
01000000
10000000
00000000
00000000
POS 7 8,7

SPR 1o
00100011
01111111
00100010
00100010
01100010
00000010
00000010
00000010
POS 7 6,6

SPR 1p
11000110
01000110
01000010
01000111
01001011
01000111
01000101
01000101
POS 7 8,6

SPR 1q
00000000
00000000
00011000
00111100
01011010
10100101
00100100
01000010
POS 7 7,5

SPR 1r
00000000
00000000
00000000
00000000
00000000
00000000
00000001
00000010
POS 7 6,5

SPR 1s
00000000
00000000
00000000
00000000
00000000
00000000
10000000
01000000
POS 7 8,5

SPR 1t
10111101
01010110
01101010
01010110
01000010
01101110
01010010
11111111
>
10111101
01010110
01101010
01010110
01000010
01101010
01010010
11111111
POS 7 10,1

SPR 1u
00100100
00011100
01010000
00111110
00011000
00111100
00100100
00100100
>
00000000
00100100
00011100
00010000
01111110
00011000
00100100
00100100
POS 7 1,2

SPR 1v
00011000
00011000
00001000
00111100
01111010
00011010
00101000
00101000
>
00011000
00011000
00001000
00111100
01111010
00011010
00101000
00101000
POS 7 12,1

SPR 1w
00001100
00001100
00000100
00011110
00101110
00011100
00101000
00101000
POS 6 12,5

SPR 1x
00011000
00011000
01001000
00111100
00011010
00011100
00010100
00000100
>
00011000
00011000
00001000
01111100
00011010
00011100
00010100
00000100
POS 6 7,5

SPR 1y
01000000
00011000
01011000
01001000
00111000
00011100
00011000
00100100
>
00011000
00011000
00001000
01011000
01111100
00011000
00100100
00100100
POS 6 5,7

SPR 1z
00000000
00011000
00011100
00011000
00001000
00111100
00011000
00100100
>
00000000
00011000
00011100
00011000
00101100
00011000
00011000
00100100
POS 3 4,9

SPR 2a
00110000
00110000
00100000
00111100
01110000
01111100
01011010
00001000
>
00110000
00110000
00100000
00111100
01110000
01111100
01011100
00001000
POS 5 2,4

SPR 2b
00001100
01001100
01011000
00111000
00011100
00011000
00011100
00010100
>
00000110
01001000
01010010
00011000
10100100
00001100
10101010
00001000
POS 8 4,9

DLG 10
You know? I caught a secret message on the Station one day. Not one of those dull ones with backwards playback, no.       But I'm not gonna tell ya, sister.

DLG 11
It seems unwell.

DLG 12
It seems unwell.

DLG 13
It seems unwell.

DLG 14
I am a garbage sprite.

DLG 15
The crank is screeching.

DLG 16
It seems unwell.

DLG 17
It seems unwell.

DLG 18
It seems unwell.

DLG 19
It seems unwell.

DLG 20
I don't know what's going on.                                  I'm sure they're gonna figure it out though!

DLG 21
*CROAK*

DLG 22
I used to be a frog, but I was removed because ALIENS

DLG 23
Welcome to                      The Cutting Room Floor.         I'm Bob.

DLG 24
It's the purple rain            washing over my pale bones      as we know nothing.

DLG 25
*BZZT*

DLG 26
&quot; &amp; &amp; &amp;        &quot;

DLG 27
...what is a life...            ...with no music...             ...what is a game...            ...with no sound...

DLG 28
What a bike.

DLG 29
Somebody left a book on the ground.                         The cover says:                 "Ham Radio: Beginner's Guide"

DLG a
I'm too old for all the riots.                                    I just want to sit here,        with my dog, Spiffy.

DLG c
    ^_       \\] *WOOF* \\]

DLG b
I'm the Dancing Man.            That's what they call me.

DLG d
This evening is as red as I ever remember. Did something change?

DLG e
I don't go out to the park very often... but the Station's gone!

DLG f
BRING BACK THE STATION!!!

DLG h
VALTO LETS ME BE                JZ SETS ME FREE                 

DLG i
Sadly, TK doesn't have a coin.  The water is stinky anyway.

DLG j
The droplets leave a weird sensation on TK's arm.

DLG m
*HONK* *HONK*

DLG n
Just what's wrong with this town?! I need to get through!!  *HONK*

DLG o
Please excuse my husbands' manners. We don't travel much.

DLG l
*HONK*

DLG q
BRING BACK THE STATION!

DLG r
JZ                              BEST DJ

DLG s
The banner is swaying      wildly in the wind.

DLG t
The banner says:                "SAVE THE FREQUENCY"

DLG u
Water? Sure. Gimme your glass.                                                        Here you go.

DLG v
They're concerned about water... this and the radio thing.       One of those days, I guess.

DLG w
Oh, hey, a TK-40? Your model is rare to witness in our parts.

DLG x
Yuu, have ya seen my lizard?..            My LIZARD!!                        *blep*             *blep*

DLG y
What's with the water!..        My cocktail tastes like MUD!!!

DLG z
The bar is so silent today...   C'mon, where's my JZ fix?

DLG 1a
The toilet doesn't seem to be working.                      The wood on the floor has started to rot.

DLG 1b
It smells of dandelions.

DLG 1c
It's dandelions.

DLG 1d
There is a lot of dandelions.

DLG 1e
This one is close to dying.

DLG 1f
The vending machine is full of snacks.

DLG 1g
Oh, look who it is! Teiko, amirite? I'm Toby, remember me? What brought you here on this strange evening?

DLG 1h
This water makes no sense.

DLG 1i
{{{{{{{{{{{{{{{{{{{{{{{{{{{{{{{{{{{{{{{{{{{{{{{{{{{{{{{{{{{{{{{{{{{{{{{{{{{{{{{{{{{{{{{{{{{{{{{{{{{{{{{{{{{{{{{{{{{{{{{{{{{{{{{{{{{{{{{{{{{{{{{{{{{{{{{{{{ [[[[[[[[[[[[[[[[[[[[[[[[[[[[[[[[[[[[[[[[[[[[[[[[[[[[[[[[[[[[[[[[[[[[[[[[[[[[[[[[[[[[[[[[[[[[[[[[[[[[[[[[[[[[[[[[[[[[[[[[[[[[[[[[[[[[[[[[[[[[[[[[[[[[[[[[[[[[[[[[[[[[[[[[[[[[[[[[[[[[[[[       [[[      He's totally           [[[[[     glitching out.

DLG 1j
They turn it off for the night.

DLG 1t
The vending machine makes a ravenous howl.

DLG 1u
Yo, Teiko! Wanna spend this night on the streets?            Let's fool around, just like old times.

DLG k
It's a fairly vintage Landale   in surprisingly good condition.

DLG p
The back seat is full of plush toys.

DLG 1l
The chain inside got rusty.

DLG 1m
The chain inside got rusty.

DLG 1n
The chain inside got rusty.

DLG 1o
TK tries to spin the handle.                                    It's stuck.

DLG 1v
I wonder if JZ & Valto are alright.                        They gotta keep the Station alive.

DLG 1w
There's all that chatter around, but...                         The world feels so voiceless today. Even Valto was louder.

DLG 1x
Dude! Calm down... They're gonna broadcast again!..              Just you wait...

DLG 1y
No Station!...                 No Life!..

DLG 1z
Papa says the Radio is gonna be okay!

DLG 1p
This well reminds me of my sister. She's far away.

DLG 1q
The chain inside got rusty.

DLG 1r
The chain inside got rusty.

DLG 1s
The chain inside got rusty.

DLG 2a
Nice antennas.                  Got them at the Workshop, huh?

DLG 2b
Thank you for playing!          ¡¢£¤¥¦§¨©ª«¬®¯

END 0
TK was tired.                 She moved back to her place.

END undefined
TK went into the park.                                           She caught herself walking around past midnight,            which is when she called it a day.

END undefinee
It's really late. TK has a morning shift tomorrow.         Home, sweet home.

END undefinef
Teiko & Toby went chilling out, catching vibes of the static.   It was a wonderful night.

END undefineg
TK got lost in the static.

END undefineh


