   ~   L a    K a t u l o   ~

# BITSY VERSION 4.2

! ROOM_FORMAT 1

PAL 0
111,21,95
130,163,197
187,255,226

ROOM 0
0,0,0,0,0,0,0,0,0,0,0,0,0,0,0,0
0,0,0,r,l,l,l,l,l,l,l,l,q,0,0,0
0,0,0,p,h,y,y,h,h,y,y,h,k,0,0,0
0,r,l,o,u,u,u,u,u,u,u,u,j,l,q,0
0,p,h,n,0,0,0,0,0,0,d,b,m,h,k,0
0,p,u,v,x,0,0,0,c,0,0,0,w,u,j,l
0,p,g,d,0,0,0,0,0,0,0,0,0,0,m,h
0,p,0,g,b,0,0,x,d,0,0,0,0,0,w,u
0,p,g,0,0,0,0,0,0,0,b,0,0,0,0,c
0,p,0,0,d,0,0,b,0,0,0,0,0,0,s,e
0,p,0,c,0,0,0,0,0,0,c,0,0,g,k,0
0,p,0,0,c,0,0,0,0,0,0,0,b,0,k,0
0,a,e,t,0,0,0,g,0,0,0,x,s,e,f,0
0,0,0,p,g,0,0,0,0,0,d,0,k,0,0,0
0,0,0,a,e,e,e,e,e,e,e,e,f,0,0,0
0,0,0,0,0,0,0,0,0,0,0,0,0,0,0,0
NAME komencejo
WAL e,f,i,j,k,t,p,l,o,q,s,r,m,n,h,y,v,u,w,a
EXT 15,8 1 0,8
PAL 0

ROOM 1
0,0,0,0,0,0,0,0,0,0,0,0,0,0,0,0
0,0,0,r,l,l,l,l,l,l,l,l,q,0,0,0
0,0,0,p,h,y,y,h,h,y,y,h,k,0,0,0
0,r,l,o,u,u,u,z,10,u,u,u,j,l,q,0
0,p,h,n,g,0,0,c,0,c,0,0,m,h,k,0
l,o,u,v,0,0,b,0,c,0,d,0,w,u,k,0
h,n,x,x,0,x,0,0,0,0,0,0,0,0,k,0
u,v,0,d,0,0,0,d,0,0,0,g,0,b,k,0
x,0,0,0,0,0,0,0,0,0,0,0,0,0,k,0
e,t,d,0,0,0,b,0,0,0,0,c,0,0,k,0
0,p,0,0,c,0,0,0,0,0,0,0,0,d,k,0
0,p,0,b,0,0,g,0,0,0,d,0,0,0,k,0
0,a,e,t,0,0,0,0,0,d,x,0,s,e,f,0
0,0,0,p,c,0,0,b,0,0,0,0,k,0,0,0
0,0,0,a,e,e,e,e,e,e,e,e,f,0,0,0
0,0,0,0,0,0,0,0,0,0,0,0,0,0,0,0
NAME kirstalejo
WAL a,e,f,i,j,k,t,p,l,o,q,s,r,m,n,h,y,w,u,v
ITM 0 9,8
EXT 0,8 0 15,8
END 0 7,3
END 0 8,3
PAL 0

TIL 10
10000001
00111100
01111110
01111110
01011110
01011110
01111110
01111110

TIL a
00010101
01001010
00010101
01001010
00010101
00100000
00001010
00000000

TIL b
00000000
00000010
01000000
00000000
00000000
00000000
00000100
00000000

TIL c
00000000
10001000
00000000
00000010
00000000
00000000
01000000
00000000

TIL d
00000000
01000000
00000000
00000000
00001000
00000000
00000000
00000000

TIL e
11111111
00000000
11111111
10101010
01010101
00000000
10101010
00000000

TIL f
10110010
01101000
11010010
10101000
01010010
00000100
10101000
00000000

TIL g
00000000
00000000
00001001
10001010
01010010
01010100
01010100
00010000
>
00000000
00000000
00100010
00010010
10010100
01010100
01010100
00010000

TIL h
00010001
10111011
01000100
11101110
00010001
10111011
01000100
11101110

TIL j
10110010
10101001
10110000
10101010
10110101
10011111
11000000
11111111

TIL k
10110010
10101000
10110010
10101000
10110010
10101000
10110010
10101000

TIL l
00000000
01010101
00000000
10101010
01010101
11111111
00000000
11111111

TIL m
11010001
11111011
10100100
11101110
11010001
11111011
10100100
11101110

TIL n
00010001
10111001
01000001
11101101
00010001
10111001
01000001
11101101

TIL o
00010101
01001101
00010101
10101101
01010101
11111001
00000011
11111111

TIL p
00010101
01001101
00010101
01001101
00010101
01001101
00010101
01001101

TIL q
00000000
01010000
00000100
10101000
01010010
10101000
01010010
10101000

TIL r
00000000
00010101
00100000
01001010
00010101
01001011
00010110
01001101

TIL s
00111111
01000000
10011111
10101010
10110101
10101000
10110010
10101000

TIL t
11111110
00000011
11111001
10101101
01010101
00001101
10010101
01001101

TIL u
00010001
10111011
01000100
11101110
00010001
10111011
01000100
11111111

TIL v
00010001
10111001
01000101
11101101
00010001
10111011
01000101
11111110

TIL w
11010001
11111011
10100100
11101110
11010001
11111011
11100100
01111111

TIL x
00000100
00001000
00000000
00010000
10000010
00000000
00000000
00001000

TIL y
00010001
10111011
01101100
11000110
01000101
11000111
01000100
11111110

TIL z
01000000
10011110
00111111
10111111
00111101
10111101
00111111
10111111

SPR A
00011000
00111000
00010000
01111100
10111010
00111000
01111100
00101000
POS 0 9,6

SPR a
00000000
00000000
01010100
01110010
01110010
01111100
00111100
00100100
>
00000000
00000000
01010001
01110001
01110010
01111100
00111100
00100100
DLG SPR_0
POS 0 6,9

ITM 0
00111100
01010110
10111111
01010110
00101100
00011000
00000000
00000000
>
00000000
00111100
01010110
10111111
01010110
00101100
00011000
00000000
NAME magia_kristalo
DLG ITM_0

DLG ITM_0
Trovis {wvy}Magian kristalon{wvy}!

DLG SPR_0
"""
{
  - kato == 1 ?
    Mi dankas vin!
  - {item "magia_kristalo"} == 1 ?
    Magia kristalo!
    Mi dankas vin!{kato = 1}
  - else ?
    Mi estas kato, sed...
    
    Mi ne sxatas esti kato,
    mi volas farigxi homo...
    Donu al mi {wvy}magia kristalo{wvy},
    mi farigxos homon!
}
"""

END 0
~ La Fino ~

VAR kato
0

