
One minute it was Ohio winter,

# BITSY VERSION 4.8

! ROOM_FORMAT 1

PAL 0
NAME room2
219,124,65
252,159,91
196,72,66

PAL 1
NAME room1
255,255,255
195,216,255
250,209,210

ROOM 0
0,0,0,0,0,0,t,s,u,0,0,0,0,0,0,0
0,b,d,0,0,0,t,r,u,0,18,17,17,17,16,0
0,0,0,0,0,0,t,q,u,0,19,0,0,14,15,0
0,0,0,0,1a,0,v,p,w,0,0,0,0,0,b,0
0,0,0,0,b,0,0,0,0,0,0,0,e,0,0,0
0,0,0,0,h,i,0,0,0,0,0,0,0,0,0,0
0,0,0,c,d,e,f,g,0,0,0,0,0,b,0,0
0,0,0,0,0,0,0,0,0,0,0,0,0,0,0,0
0,0,0,0,0,0,0,0,0,0,0,0,0,0,0,0
0,0,0,0,0,0,0,0,0,0,0,0,0,0,0,0
e,0,0,0,0,0,0,0,0,0,0,0,0,0,0,0
0,0,b,0,0,0,0,0,0,0,0,0,0,0,b,0
0,0,0,0,0,0,0,0,0,0,0,0,0,0,0,0
0,11,10,0,0,0,0,0,0,0,0,0,0,d,0,0
0,x,y,z,0,13,12,0,0,0,0,0,b,0,0,0
0,0,0,0,0,0,0,0,0,0,0,0,0,0,0,0
EXT 6,0 1 6,15
EXT 7,0 1 7,15
EXT 8,0 1 8,15
PAL 1

ROOM 1
0,0,0,0,0,0,t,0,u,0,0,0,1m,0,0,0
0,0,1m,0,0,1v,t,s,u,0,0,e,0,0,0,0
0,0,0,0,0,0,t,0,u,0,27,28,28,28,29,0
0,25,26,0,0,24,t,s,u,24,1y,22,21,20,1z,0
0,0,0,23,0,0,t,0,u,0,1s,0,0,1m,1t,e
0,0,d,0,0,0,t,s,u,0,1n,1q,1o,1r,1p,e
0,1m,0,0,0,0,t,0,u,0,0,0,1m,0,e,e
0,0,0,1v,0,24,t,s,u,24,0,0,0,1x,1w,0
0,1j,1k,1l,0,0,t,0,u,0,0,0,1u,0,1u,0
0,1h,0,1i,0,0,t,s,u,0,0,0,0,0,0,0
2a,0,0,0,0,0,t,0,u,0,1g,0,0,0,0,0
0,0,0,0,1m,24,t,s,u,24,0,0,0,0,1v,0
0,0,0,e,0,0,t,0,u,0,0,0,0,0,0,0
0,0,1b,0,1c,0,t,s,u,1v,0,0,0,1m,0,0
0,2b,1e,0,1f,0,t,0,u,0,0,0,0,d,0,0
1m,0,0,0,0,24,t,s,u,24,0,0,0,0,0,0
EXT 6,0 2 6,15
EXT 7,0 2 7,15
EXT 8,0 2 8,15
PAL 0

ROOM 2
0,0,0,0,0,0,t,s,u,0,0,0,0,0,0,0
0,1m,0,d,0,0,t,0,u,0,0,0,0,2w,1m,0
0,0,0,0,0,0,t,s,u,0,1m,0,0,0,0,0
0,2t,2s,2r,2q,24,t,0,u,24,0,2j,2k,0,0,0
0,2u,0,0,2p,0,t,s,u,0,0,0,0,0,0,0
0,2m,2n,2n,2o,0,t,0,u,0,0,0,0,0,0,0
2w,0,0,0,0,0,t,s,u,0,27,28,28,28,29,0
0,0,0,0,1m,24,t,0,u,24,2c,21,2l,0,2d,0
27,28,28,28,29,0,t,s,u,0,0,2h,0,0,0,0
2c,2e,21,2e,2d,2i,t,0,u,0,0,0,0,0,1m,0
0,0,2g,0,0,0,t,s,u,0,0,0,d,0,0,2w
0,0,0,0,0,24,t,0,u,24,0,0,0,0,0,0
0,1m,0,0,0,0,t,s,u,0,2h,27,28,28,29,0
0,0,0,e,0,0,t,0,u,0,0,2c,21,2e,2d,0
0,0,0,0,0,0,t,s,u,0,1m,0,0,2f,0,0
0,0,0,0,1m,24,t,0,u,24,0,0,0,0,0,0
EXT 6,0 3 6,15
EXT 7,0 3 7,15
EXT 8,0 3 8,15
PAL 0

ROOM 3
32,32,32,32,32,33,35,0,36,34,32,32,32,32,32,32
2w,0,0,1m,0,0,0,0,0,0,0,0,1m,0,0,0
0,0,0,0,0,0,0,0,b,0,0,0,0,0,0,0
0,0,0,d,0,0,0,0,0,0,0,0,0,0,0,0
0,0,0,0,0,0,0,0,0,0,0,2w,0,0,0,0
0,0,30,0,0,0,0,0,0,0,0,0,0,b,0,0
0,0,31,0,0,0,1m,0,0,0,0,0,0,0,0,0
b,0,0,0,0,0,0,0,0,0,0,0,0,0,0,0
0,0,0,0,0,0,0,0,0,0,0,0,e,0,0,0
0,27,28,28,29,0,v,2y,0,0,0,0,0,0,0,0
0,2c,22,21,2d,0,t,0,w,0,0,1m,0,0,0,0
0,0,0,0,0,0,t,2x,u,0,0,0,27,28,29,0
0,0,0,0,0,0,t,0,u,0,0,2z,2c,21,2d,0
0,1m,0,0,0,0,t,s,u,24,0,0,0,0,0,0
0,0,0,0,0,0,t,0,u,0,0,0,0,0,d,0
0,0,0,0,0,24,t,s,u,0,0,0,0,2w,0,0
EXT 6,0 4 6,15
EXT 7,0 4 7,15
EXT 8,0 4 8,15
PAL 0

ROOM 4
0,0,0,0,0,0,2w,0,0,0,0,0,0,0,d,0
0,0,b,0,0,0,0,0,0,0,0,0,0,0,0,0
0,0,0,0,0,0,0,0,0,0,e,0,0,b,3v,3w
0,d,0,0,0,1m,0,3s,3t,0,0,0,0,0,0,0
0,0,0,0,3l,3k,3c,3q,3r,3d,3i,3j,0,0,0,0
0,0,e,0,0,0,3a,3u,3p,3b,0,0,0,0,2w,0
0,0,0,0,3l,3k,37,3o,38,39,3i,3j,1m,0,0,0
0,2w,0,0,0,0,3f,3n,3g,3h,0,0,0,0,0,0
0,0,0,0,0,0,3m,0,0,0,2w,0,0,0,0,0
3y,3x,0,0,0,0,3m,0,0,0,0,0,0,0,b,0
b,0,0,0,0,0,3m,0,0,0,0,0,0,d,0,0
0,0,0,e,0,0,3m,0,1m,0,0,0,0,0,0,0
0,0,0,0,0,0,0,0,0,0,0,0,0,0,0,0
0,0,d,0,0,0,0,0,0,0,0,0,0,2w,0,0
0,1m,0,0,0,0,0,0,0,0,0,b,0,0,0,0
0,0,0,0,0,0,0,0,0,0,0,0,0,0,e,0
END undefined 7,6
PAL 0

TIL 10
00000000
00000000
00000000
10000000
00000000
01000000
00100000
11000000
>
00000000
10000000
00000000
00000000
00000000
01000000
00100000
11000000
WAL true

TIL 11
00000010
00001010
00000111
00000010
00000010
00000101
00100101
00011111
>
00000010
00000010
00000111
00001010
00000010
00000101
00100101
00011111
WAL true

TIL 12
00000000
00000000
00000000
00000000
00000000
00000100
00000010
01111100
WAL true

TIL 13
00000000
00010000
00010000
00111000
01010100
00010000
00101000
00101000
>
00010000
01010000
00111000
00010100
00010000
01101100
00000000
00000000
WAL true

TIL 14
00111100
01010110
01101010
01010010
01100010
00111100
00000000
11111111
WAL true

TIL 15
00000010
00000010
00000010
00000010
00000010
00000010
00000010
11111100
WAL true

TIL 16
11111100
00000010
00000010
11111110
00000010
00000010
00000010
00000010
WAL true

TIL 17
11111111
00000000
00000000
11111111
00100100
00100000
00100000
00000000
WAL true

TIL 18
01111111
10000000
10000000
11111111
10100100
10000100
10000000
10000000
WAL true

TIL 19
10000000
10000000
10000000
10000000
10000000
10000000
10000000
01111111
WAL true

TIL 20
00000000
00000000
00000000
00000000
00000000
00000000
11111111
00000000
WAL true

TIL 21
00000000
00011000
00100100
00100100
00101100
00100100
11111111
00000000
>
00000000
00011000
00101100
00101100
00111100
00101100
11111111
00000000
WAL true

TIL 22
00000000
01111110
01000010
01111110
01111110
00000000
11111111
00000000
>
00000000
01111110
01000010
01000010
01111110
00000000
11111111
00000000
WAL true

TIL 23
00011000
00011000
00111100
01000010
01000010
01000010
01111110
00100100

TIL 24
00111000
00101000
00010000
00010000
00010000
00010000
00010000
00111000
WAL true

TIL 25
11111111
10100000
10111111
10110110
10111111
10000000
01111111
00110000
>
11111111
10100000
10100000
10100000
10111111
10000000
01111111
00110000
WAL true

TIL 26
11111000
00101100
11101010
01101010
11100110
00000010
11111100
00110000
>
11111000
00101100
00101010
00101010
11100110
00000010
11111100
00110000
WAL true

TIL 27
00111111
01000000
01000000
01111111
01000000
01000000
01000000
01000000
WAL true

TIL 28
11111111
00000000
00000000
11111111
00000000
00000000
00000000
00000000
WAL true

TIL 29
11111100
00000010
00000010
11111110
00000010
00000010
00000010
00000010
WAL true

TIL 30
00000000
00000000
00000010
00000101
00000101
10010111
01100000
00000000
WAL true

TIL 31
00001000
00010100
00011100
00000000
00100000
01010000
00101000
00010000
WAL true

TIL 32
00000000
10101010
01010101
00000000
01010101
00000000
01010101
11111111
WAL true

TIL 33
00000000
10101010
01010101
00000001
01010101
00000001
01010101
11111111
WAL true

TIL 34
00000000
10101010
11010101
10000000
11010101
10000000
11010101
11111111
WAL true

TIL 35
00000000
00000000
00000000
10000000
00000000
00000000
10000000
00000000

TIL 36
00000000
00000000
00000000
00000001
00000000
00000000
00000001
00000000

TIL 37
10000000
10000000
11000000
10100000
10100000
11000000
10100000
10011111
WAL true

TIL 38
00000000
00000000
00000000
00000000
00000000
00000000
00000000
11111111
WAL true

TIL 39
00000001
00000001
00000011
00000101
00000101
00000011
00000101
11111001
WAL true

TIL a
11111111
10000001
10000001
10011001
10011001
10000001
10000001
11111111

TIL b
00000000
00000000
00000000
00000000
00000000
00111000
01000100
00000000

TIL c
00000000
00000000
00100000
11100010
11100101
01111000
01000111
00100000
>
00000010
00000000
00001000
11010010
11100101
01111000
01000111
00100000
WAL true

TIL d
00000000
00000000
00000000
00000000
00010000
00000000
00000000
00000000
>
00000000
00000000
00000000
00000000
00000000
00000000
00000000
00000000

TIL e
00000000
00000000
00000000
00000000
00000000
00000000
00000000
00000000
>
00000000
00000000
00000000
00000100
00000000
00000000
00000000
00000000

TIL f
00000000
00100000
00000000
00011000
00100100
00100100
01000010
00000000
>
00000000
00000000
00000000
00011000
00100100
00100100
01000010
00000000
WAL true

TIL g
00000000
00000000
01100000
01100000
00111000
01001100
01010010
00001001
>
00000000
00110100
00110100
00011000
00101000
01001100
00001010
00001010
WAL true

TIL h
00000000
00000000
00000000
00000000
00000000
00000000
00000100
00000000
>
00000000
00000000
00000000
00000000
00000000
00000000
00000000
00000000

TIL i
00000000
00000000
00000000
00000000
00000000
00000000
00000000
00000001
>
00000000
00000000
00000000
00000000
00000000
00000000
00000000
00000000

TIL j
00011111
00100000
01000000
10000000
11111111
10000000
10000000
10000000

TIL k
11111000
00000100
00000010
00000001
11111111
00000001
00000001
00000001

TIL l
10000000
10000000
10000000
10000000
10000000
10000000
10000000
11111111

TIL m
11111111
00000000
00000000
00000000
11111111
00000000
00000000
00000000

TIL n
00000001
00000001
00000001
00000001
00000001
00000001
00000001
11111111

TIL o
00000000
00000000
00111100
00100100
00100100
00100100
00100100
11111111

TIL p
00011000
00001000
00000000
00010000
10000010
00010000
10000010
00000000

TIL q
00011000
00000000
00000000
00000000
00000000
00011000
00011000
00011000

TIL r
00000000
00000000
00000000
00011000
00011000
00011000
00011000
00011000

TIL s
00000000
00011000
00011000
00011000
00011000
00011000
00011000
00000000
WAL false

TIL t
01000000
01000000
01000000
01000000
01000000
01000000
01000000
01000000

TIL u
00000010
00000010
00000010
00000010
00000010
00000010
00000010
00000010

TIL v
01000000
01000000
00000000
01000000
00001000
01000000
00001000
00000000

TIL w
00000010
00000010
00000010
00000010
00010000
00000010
00010000
00000010

TIL x
00001111
00010000
00100000
00100000
01000000
01000000
10000000
10000000
WAL true

TIL y
11000000
00100000
00010000
00001000
00000100
00000010
00000001
00000000
WAL true

TIL z
00000000
00000000
00000000
00000000
00000000
00011000
11100100
00000010
WAL true

TIL 1a
11111110
00000010
01011010
01010010
01011010
00000010
11111110
00000100
WAL true

TIL 1b
00000000
01111111
01001100
01001100
01011110
01000000
01000000
01000000
>
00000000
01111111
01001100
01011000
01111100
01000000
01000000
01000000
WAL true

TIL 1c
00000000
11111110
00111010
00101010
00101010
00000010
00000010
00000010
>
00000000
11111110
00111010
00101010
01010010
00000010
00000010
00000010
WAL true

TIL 1d
00000000
11111111
00000000
00000000
00000000
00000000
00000000
00000000
WAL true

TIL 1e
01000000
01000000
01000000
11100000
00000000
00000000
00000000
00000000
WAL true

TIL 1f
00000010
00000010
00000010
00000111
00000000
00000000
00000000
00000000
WAL true

TIL 1g
00011111
00010100
00010100
00011110
00010010
00011111
00010000
00010000
WAL true

TIL 1h
10000000
10000000
10000000
10000000
10000000
10000000
10000000
11111111
WAL true

TIL 1i
00000001
00000001
00000001
00000001
00000001
00000001
00000001
11111111
WAL true

TIL 1j
00001111
00010000
00111111
01000000
11111111
10000000
10000000
10000000
WAL true

TIL 1k
11111111
00000000
11111111
00000000
11111111
00000000
00000000
00000000
WAL true

TIL 1l
11110000
00001000
11111100
00000010
11111111
00000001
00000001
00000001
WAL true

TIL 1m
00000000
00000000
00000000
00000000
00010000
01000010
00000000
00000000

TIL 1n
01000000
01000000
01000000
01000000
01000000
01111111
01010101
01111111
WAL true

TIL 1o
00000000
00000000
00000000
00000000
00000000
10000001
00000000
10000001

TIL 1p
00000010
00000010
00000010
00000010
00000010
11111110
10101010
11111110
WAL true

TIL 1q
00000000
00000000
00000000
00000000
00000000
11111111
01010101
11111111
WAL true

TIL 1r
00000000
00000000
00000000
00000000
00000000
11111111
10101010
11111111
WAL true

TIL 1s
01000000
01000000
01000000
01000000
01000000
01000000
01000000
01000000
WAL true

TIL 1t
00000010
00000010
00000010
00000010
00000010
00000010
00000010
00000010
WAL true

TIL 1u
00000000
01000000
01000100
01010100
11011101
11111111
11111111
00000000
>
00000000
10000000
10001000
01100100
11011101
11111111
11111111
00000000
WAL true

TIL 1v
00101000
00010000
00010000
00010000
00010101
00010010
00010010
00000000
>
00000000
00101000
00010000
00010101
00010010
00010010
00010010
00000000
WAL true

TIL 1w
00010000
01010100
00111000
00010000
00010000
01101000
00001000
00001000
>
00010000
00010000
01111100
00010000
00010000
00101100
00100000
00100000
WAL true

TIL 1x
00010100
00010100
00111000
01010000
01010000
00101000
00100100
00100000
>
01010000
01010000
00111000
00010100
00010100
00101000
01001000
00001000
WAL true

TIL 1y
01000000
01000000
01000000
01000000
01000000
01000000
01111111
01000000
WAL true

TIL 1z
00000010
00000010
00000010
00000010
00000010
00000010
11111110
00000010
WAL true

TIL 2a
00000000
00000000
00000000
00000000
00000000
00000000
00000000
00000000
>
00000000
00000000
00111000
01101000
11011100
10111100
11000110
11111111
WAL true

TIL 2b
00110000
01010000
00111000
00010100
00010100
00010000
00101000
00101000
>
01010000
01010000
00111000
00010100
00010100
00010000
00101000
00101000
WAL true

TIL 2c
01000000
01000000
01000000
01000000
01000000
01000000
01111111
00000000
WAL true

TIL 2d
00000010
00000010
00000010
00000010
00000010
00000010
11111110
00000000

TIL 2e
00011000
00100100
00111100
00011000
00000000
00000000
11111111
00000000
>
00011000
00100100
00100100
00011000
00000000
00000000
11111111
00000000
WAL true

TIL 2f
00001000
00001000
00011100
00101010
00101010
00010100
00010100
00010100
>
00010000
00001000
00011100
00101010
00101010
00010100
00010100
00010100
WAL true

TIL 2g
00001000
00001000
00011100
00101010
00011100
00001000
00010100
00010100
>
00001000
00001000
00011100
00101010
00101010
00001000
00010100
00010100
WAL true

TIL 2h
01010000
01010000
00111000
00010100
00010100
00101000
00101000
00101000
>
10010000
01010000
00111000
00010100
00010100
00101000
00101000
00101000
WAL true

TIL 2i
00010010
00010100
00111000
01010000
01010000
00101000
00101000
00101000
>
00010100
00010100
00111000
01010000
01010000
00101000
00101000
00101000
WAL true

TIL 2j
00000000
00000000
00000000
00000000
00000100
00111010
01000001
10000000
WAL true

TIL 2k
00000000
00000000
00000000
00000000
00000000
00000000
10001100
01010010
WAL true

TIL 2l
00011111
00100001
00110010
00100000
00011111
00000000
11111111
00000000
>
00011111
00101001
00110010
00100100
00011111
00000000
11111111
00000000
WAL true

TIL 2m
01000000
01000000
01000000
01000000
01000000
01000000
00100000
00011111
WAL true

TIL 2n
00000000
00000000
00000000
00000000
00000000
00000000
00011100
11100011
WAL true

TIL 2o
00000010
00000010
00000010
00000010
00000010
00000100
00001000
11110000
WAL true

TIL 2p
00000010
00000010
00000001
00000001
00000010
00000010
00000010
00000010
WAL true

TIL 2q
11100000
00010000
01010000
00001000
00100100
10011010
01100110
00000010
>
11100000
00010000
01010000
00001000
00100100
11001110
00110010
00000010
WAL true

TIL 2r
11000111
00111000
10000010
00000000
00100000
10011001
01100110
00000000
>
11000111
00111000
10000010
00000000
00100000
11001100
00110011
00000000
WAL true

TIL 2s
11110011
00001101
01000000
00001000
00000000
10011001
01100110
00000000
>
11110011
00001101
01000000
00001000
00000000
11001100
00110011
00000000
WAL true

TIL 2t
00000011
00000101
00001000
00010100
00100000
01011001
01100110
01000000
>
00000011
00000101
00001000
00010100
00100000
01001100
01110011
01000000
WAL true

TIL 2u
01000000
10000000
10000000
10000000
10000000
10000000
01000000
01000000
WAL true

TIL 2v
00000000
01100110
10011001
00000000
00000000
00000000
00000000
00000000
>
00000000
00110011
11001100
00000000
00000000
00000000
00000000
00000000
WAL true

TIL 2w
00000010
00000010
00000010
00000000
00000000
01010000
00100000
00000000
>
00000000
00000000
00100000
00100000
00000000
00000000
00000101
00000010

TIL 2x
00000000
00010000
00001000
00011000
00011000
00011000
00011000
00000000

TIL 2y
00000000
00000000
00000000
00000000
00001000
00000000
00010000
00000000

TIL 2z
00000000
00001000
00001000
00011100
00101010
00001000
00010100
00010100
>
00000000
00000100
00001000
00011100
00101010
00001000
00010100
00010100
WAL true

TIL 3a
10000000
10000000
10000000
10000000
10000000
10000000
10000000
10000000
WAL true

TIL 3b
00000001
00000001
00000001
00000001
00000001
00000001
00000001
00000001
WAL true

TIL 3c
00011111
00100000
01000000
11000000
10100000
10100000
11000000
10000000
WAL true

TIL 3d
11111000
00000100
00000010
00000011
00000101
00000101
00000011
00000001
WAL true

TIL 3e
11111111
00000000
00000000
00000000
00000000
00000000
00000000
00000000
WAL true

TIL 3f
10000000
01000000
00111111
00100010
00011100
00001000
00001000
00001000
WAL true

TIL 3g
00000000
00000000
11111111
00000000
00000000
00000000
00000000
00000000
WAL true

TIL 3h
00000001
00000010
11111100
00000000
00000000
00000000
00000000
00000000
WAL true

TIL 3i
00000111
00001000
01010000
10100000
00000000
00001000
10010100
01100011
>
00110000
01001001
10000110
00000000
00000000
00111000
11000111
00000000

TIL 3j
11000000
00100000
00000000
00010100
00000000
00000000
01010100
10000000
>
00100000
11000000
00010100
00000000
00000000
00010100
10000000
01000000

TIL 3k
00111100
01000010
10000001
00000000
00000000
10011100
01100011
00000000
>
00000000
00011110
00100001
11000000
00000000
10000000
01000011
00111100

TIL 3l
00001100
00000010
01010001
00000000
00000000
10100011
00000100
00011000
>
00010000
00001000
10100100
00000011
00000000
01010000
00000011
00001100

TIL 3m
00001000
00001000
00001000
00001000
00001000
00001000
00001000
00001000

TIL 3n
11111111
00000000
11111111
00000000
00000000
00000000
00000000
00000000

TIL 3o
00000000
00000000
00000000
00000000
11111111
00000000
11111111
00000000
WAL false

TIL 3p
00011001
00010101
00010010
11010000
00101000
11000100
00100010
01000111
>
00011001
00010101
00010010
11010000
00101000
11000100
01000010
00100111
WAL true

TIL 3q
11111001
00001010
00001001
00011000
00111000
01011111
10011010
10011111
WAL true

TIL 3r
10011111
01010000
10010000
00011000
00011100
11111010
01011001
11111001
WAL true

TIL 3s
00000000
00000001
00000010
00000100
00001100
00001011
00001000
00001000
WAL true

TIL 3t
00000000
10000000
01000000
00100000
00110000
11010000
00010000
00010000
WAL true

TIL 3u
10011000
10101000
01001000
00001011
00010100
00100011
01000010
11100100
>
10011000
10101000
01001000
00001011
00010100
00100011
01000100
11100010
WAL true

TIL 3v
00000000
00000000
00000011
00000100
00111000
01000000
10000000
00000000

TIL 3w
00001111
01110000
10000000
00000000
00000000
00000000
00000000
00000000

TIL 3x
00000000
00000000
00000000
00000000
10000000
01110000
00001000
00000100

TIL 3y
11110000
00001000
00000100
00000010
00000001
00000000
00000000
00000000

SPR 10
01111110
01000010
01111110
01000010
01110010
01010010
01010010
01111110
>
01111110
01001010
01111110
01000010
01110010
01010010
01010010
01111110
DLG SPR_p
POS 4 6,12

SPR 11
00000000
01111110
11100101
01111110
01000000
01000000
01000000
01000000
>
00001110
01110101
11101110
01110000
01000000
01000000
01000000
01000000
DLG SPR_q
POS 4 9,8

SPR A
00011000
00011000
00011000
00111100
01111110
10111101
00100100
00100100
POS 0 8,12

SPR a
00000000
00000000
01010001
01110001
01110010
01111100
00111100
00100100
DLG SPR_0

SPR b
00000000
00000000
00011000
00100100
00100100
00100100
00100100
11111111
DLG SPR_1
POS 0 12,2

SPR c
00011000
00111100
00111111
01000010
01000010
01000010
01111110
00100100
>
00011000
00111101
00111110
01000010
01000010
01000010
01111110
00100100
DLG SPR_2
POS 0 9,4

SPR d
00000000
00000000
00000000
00000000
00000000
00000100
00000010
01111100
DLG SPR_3
POS 0 6,14

SPR e
00111100
01001010
01010010
01100110
01001010
00111100
00000000
11111111
DLG SPR_4
POS 0 11,2

SPR f
11111111
10000000
10110101
10100111
10110101
10000000
11111111
01000000
DLG SPR_5
POS 0 3,3

SPR g
11111110
00000010
10110010
10100010
10110010
00000010
11111110
00000100

SPR h
11111100
00000010
00000010
11111110
01001010
01001010
00001010
00000010
DLG SPR_6
POS 0 14,1

SPR i
00000000
11111111
00111100
00100100
01001000
01001000
00000000
00000000
>
00000000
11111111
00111100
00100100
00100100
00100100
00000000
00000000
DLG SPR_7
POS 1 3,13

SPR j
11111000
00001000
01101000
01101000
01101000
11111000
00001000
00001000
>
11111000
00001000
01101000
01101000
11001000
11111000
00001000
00001000
DLG SPR_8
POS 1 11,10

SPR k
00010100
00001000
00001000
00001000
10100000
01000101
01000010
00000000
>
00000000
00010100
00001000
10101000
01000101
01000010
01000010
00000000
DLG SPR_a
POS 1 11,4

SPR l
00000000
00111100
00100100
00100100
00101100
00100100
00100100
11111111
>
00000000
00111100
00101100
00101100
00111100
00101100
00101100
11111111
DLG SPR_9
POS 1 2,9

SPR m
00000000
00010000
01010000
01001100
00111101
11111111
11111111
00000000
>
00000000
00001000
00101000
00101010
00111011
11111111
11111111
00000000
DLG SPR_b
POS 1 13,8

SPR n
00000000
01111110
01000010
01111110
01111110
00000000
11111111
00000000
>
00000000
01111110
01000010
01000010
01111110
00000000
11111111
00000000
DLG SPR_c
POS 1 13,3

SPR o
00000000
00000000
00000000
00000000
00000000
00000000
00111000
01111110
DLG SPR_d
POS 1 4,4

SPR p
00111000
00101000
00110000
00010000
00010000
00010000
00010000
11111000
>
00111000
00101000
00010000
00010000
00010000
00110000
01010000
11111000
DLG SPR_e
POS 1 9,7

SPR q
00111000
00010000
11111110
11111110
00111000
01111100
01101100
01101100
>
00010000
00010000
01111100
00010000
00010000
00101000
00101000
00101000
DLG SPR_f
POS 1 1,10

SPR r
00000000
00100000
01010000
00010000
00100000
00000000
00100000
00000000
>
00000000
00010000
00101000
00001000
00010000
00000000
00010000
00000000
DLG SPR_g
POS 1 1,13

SPR s
00001000
00010000
00111000
01010100
01010100
00101000
00101000
00101000
>
00010000
00010000
00111000
01010100
01010100
00101000
00101000
00101000
DLG SPR_h
POS 2 12,14

SPR t
00000000
00000000
00000000
00000000
00010000
00111000
00010000
00101000
>
00000000
00000000
00000000
00010000
00111000
00010000
00111000
00000000
DLG SPR_i
POS 2 1,10

SPR u
00101000
00101000
00011100
00001010
00001010
00010100
00010100
00010100
>
01001000
00101000
00011100
00001010
00001010
00010100
00010100
00010100
DLG SPR_j
POS 2 10,12

SPR v
00000000
00000000
00000000
00000000
00000000
00000100
00000010
01111100
DLG SPR_k
POS 2 14,4

SPR w
11111100
00100110
01001010
10010010
11111100
00000000
11111111
00000000
>
11111100
00000110
01000010
00010010
11111100
00000000
11111111
00000000
DLG SPR_l
POS 2 13,7

SPR x
00000000
00100000
00100000
00001010
00000100
00000000
00000000
00000000
>
00000000
00000100
00000100
00000000
00000000
00000000
01010000
00100000
DLG SPR_m
POS 2 12,2

SPR y
00000000
00001000
00001000
00110000
01010000
01010100
00001010
00000000
>
00000000
00010000
00010100
00111000
01010000
01010100
00001010
00000000
DLG SPR_n
POS 3 3,5

SPR z
00010000
00101000
01000100
00111000
00010000
00010000
00010000
00010000
DLG SPR_o
POS 3 5,1

ITM 0
00000000
00000000
00000000
00111100
01100100
00100100
00011000
00000000
NAME tea
DLG ITM_0

DLG SPR_0
I'm a cat

DLG ITM_0
You found a nice warm cup of tea

DLG SPR_1
with doors closed

DLG SPR_2
housewives lumbering like great black bears in their furs along the icy streets

DLG SPR_3
children skiing on slopes

DLG SPR_4
windows locked

DLG SPR_5
the panes blind with frost

DLG SPR_6
icicles fringing every roof

DLG SPR_7
a flooding sea of hot air

DLG SPR_8
and then a long wave of warmth crossed the small town

DLG SPR_9
the doors flew open

DLG SPR_a
the snow dissolved and showed last summer's ancient green lawns

DLG SPR_b
the heat pulsed among the cottages and bushes and children

DLG SPR_c
the windows flew up

DLG SPR_d
the housewives shed their bear disguises

DLG SPR_e
the icicles dropped shattering to melt

DLG SPR_f
the children worked off their wool clothes

DLG SPR_g
it seemed as if someone had left a bakery door open

DLG SPR_h
{wvy}Rocket summer{wvy}

DLG SPR_i
{wvy}Rocket summer{wvy}

DLG SPR_j
the words passed among the people in the open airing houses

DLG SPR_k
the skis and sleds suddenly useless

DLG SPR_l
the warm desert air changing the frost patterns on the windows erasing the art work

DLG SPR_m
the snow falling from the cold sky upon the town turned to a hot rain before it touched the ground

DLG SPR_n
people leaned from their dripping porches and watched the reddening sky

DLG SPR_o
{wvy}rocket summer{wvy}

DLG SPR_p
the rocket stood in the cold winter morning making summer with every breath of its mighty exhausts

DLG SPR_q
the rocket lay on the launching field blowing out pink clouds of fire and oven heat

END 0


END undefined
The rocket made climates, and summer lay for a brief moment upon the land...

VAR a
42


