
I went to the gates of the city, to try one last time to leave.

# BITSY VERSION 4.8

! ROOM_FORMAT 1

PAL 0
102,49,62
87,27,45
253,227,207

PAL 1
102,49,62
87,27,45
253,227,207

ROOM 0
12,17,1i,1i,16,12,12,12,12,12,19,17,1i,1i,16,12
12,12,1k,1k,12,12,12,19,12,12,12,12,1k,1k,12,12
t,t,t,t,t,t,t,t,t,t,t,t,t,t,t,t
14,14,14,14,14,14,14,k,j,14,14,14,14,18,14,14
12,12,1a,12,12,15,m,h,g,l,12,12,12,18,12,12
19,12,12,12,15,10,e,0,0,f,12,12,1a,18,12,15
1f,1b,1b,0,0,0,0,0,0,0,0,0,0,0,0,0
1h,0,0,0,0,0,0,0,x,0,0,0,0,a,0,0
1e,1g,1f,0,a,0,0,w,u,0,0,0,0,0,0,0
0,0,0,0,0,t,t,t,t,x,0,0,0,0,0,0
0,0,0,w,t,t,v,t,t,t,t,0,0,0,0,0
0,0,0,0,t,x,w,t,t,v,u,0,0,0,0,0
10,0,0,0,v,t,t,t,t,u,0,0,a,0,0,0
y,0,0,0,0,0,0,0,v,x,x,0,0,0,10,0
t,y,0,0,0,0,0,0,0,0,0,0,0,w,t,10
t,t,t,t,y,0,0,0,0,0,0,w,t,t,t,w
PAL 0

TIL 10
00000000
00000000
00000000
00000001
00000010
00001000
01010010
10100100
WAL true

TIL 11
00000000
00000000
00000000
00000000
00000000
00000000
00000000
00000000

TIL 12
10101010
00010101
10101000
01010101
10001010
01010001
10101010
01010101
WAL true

TIL 14
11111111
00000000
11111111
01000000
10100010
01010100
10101010
01000101
WAL true

TIL 15
10101010
00010100
10101000
01010100
10001000
01010000
10000000
00000000
WAL true

TIL 16
00001010
00010001
00101010
00110101
00101000
00110101
00100010
01010101
WAL true

TIL 17
10110000
01011000
10101000
01010100
10101100
01010100
10101100
01010010
WAL true

TIL 18
01000010
01000010
01101110
01000010
01000010
01110110
01000010
01000010

TIL 19
10101010
00010101
10000000
00100001
10000010
01000001
00101010
00010101
WAL true

TIL a
00000000
00100000
00100010
00000100
00000100
00100100
01000000
01000000
>
00000000
00010000
00100001
00000010
00000100
00000100
00100000
01000000
NAME n

TIL b
10000000
10000000
10000000
01000000
00100000
00110000
00001000
00000111
NAME tower1

TIL c
00000000
00000000
00000000
00000000
00000000
00000000
00000000
01111110
NAME tower2

TIL d
00000001
00000001
00000001
00000010
00000100
00001100
00010000
11100000
NAME tower3

TIL e
00000101
01010010
00000101
11000011
00000101
00000010
00000101
01101011
NAME door1
WAL true

TIL f
10100000
11000000
10100100
01001000
10100000
11000001
10100000
11010110
NAME door2
WAL true

TIL g
11100100
00011010
00000101
00000010
00000010
00000001
00000001
00000001
NAME door4
WAL true

TIL h
00100111
01011000
10100000
01000000
01000000
10000000
10000000
10000000
NAME door3
WAL true

TIL i
00000000
00000000
00000000
00000000
00000010
00000100
00000000
11000000
NAME door5

TIL j
00000111
11111000
00000111
11111000
00010000
11100000
00100000
11011000
NAME door6
WAL true

TIL k
11100000
00011111
11100000
00011111
00001000
00000111
00000100
00011011
NAME door7
WAL true

TIL l
10101010
00010100
00100000
10000001
10000010
01000000
01001000
01010001
NAME door8
WAL true

TIL m
00000000
10100010
00010000
00101001
00010001
00000010
01000010
10000010
NAME door9
WAL true

TIL n
10000000
10000000
00000000
00000000
00000000
10000000
10001000
00000111
NAME tower3

TIL o
00000001
00000000
00000001
00000001
00000000
00000000
00010000
11100001
NAME tower4

TIL p
00000000
00000000
00000000
00000000
00000100
00001010
00000100
00000000
NAME door10

TIL q
00000000
00000001
00000110
00001101
00001011
00010000
00000110
00000010
NAME boards

TIL r
01001110
11101011
10000100
00000110
01011100
00011111
11001101
01111010

TIL s
10100100
10011100
11000100
01101000
10110000
11100000
00000000
00000000

TIL t
10111101
00000000
11011101
00100010
11011101
00000000
10101011
01000000

TIL u
10111100
00000000
11011010
00100000
11011000
00000000
10100010
00000000

TIL v
10100101
00000000
01011101
00100010
00000101
00000000
00000011
00000000

TIL w
00000001
00000010
00000101
00100010
01011101
00000000
10101011
01000000

TIL x
10100000
00000000
11000000
00100000
11011100
00000000
10101010
01000000

TIL y
00111000
00000000
01011000
00100010
11011101
00000000
10101010
01000000

TIL z
00000000
00100110
00011100
00011000
01100100
01000011
00000001
00000000

TIL 1a
10100000
01001001
10010100
01001001
10000000
01000000
10101000
01010101
WAL true

TIL 1b
00000000
01111110
10111101
10000001
10000001
10110101
10000001
01111110
WAL true

TIL 1c
00000000
00011111
00110000
00001000
00010111
00010000
00010000
00011000

TIL 1d
00000000
11110000
00011000
00110000
11000000
00010000
00010000
00110000

TIL 1e
10000001
10011101
10000001
01111110
00000000
00000000
00000000
00000000
WAL true

TIL 1f
00000000
00111110
01111111
11100001
11010001
00011111
10010001
11101110
WAL true

TIL 1g
11111111
11111111
10000001
10000111
11001011
10101000
10001011
01110111
WAL true

TIL 1h
00000000
00111100
01111110
10000001
10000001
10110101
10000001
10111101
WAL true

TIL 1i
00000000
00000000
00000000
00000000
00000000
00000000
00000000
00000000
NAME blank wall
WAL true

TIL 1j
00000000
00000000
00000000
00000000
00000000
00000000
00000000
00000000

TIL 1k
11111111
00000000
11111111
01000000
10100010
01010100
10101010
01000101
WAL false

SPR A
00011000
00011000
00111100
00111100
01011110
01010100
00010100
00100100
>
00011000
00011000
00111100
00111100
01011110
01010100
00010100
00011000
POS 0 11,12

SPR b
00000000
00000000
00000000
00000000
00000100
01001000
00101000
00100000
>
00000000
00000000
00000000
00000000
00001000
01001000
01001000
01000000

SPR c
00000000
00000000
00001100
00010110
00101010
01100101
11011010
10110001
DLG SPR_c
POS 0 8,5

SPR d
00000000
00000000
00001100
00010110
00101010
01100101
11011010
10110001
DLG SPR_d
POS 0 7,5

SPR e
00000001
00110011
00110001
00011001
01111101
10011100
10010101
01101110
>
00000001
00000011
00110001
00111001
01111101
10011100
10010101
01101110
NAME soldier1
DLG SPR_1
POS 0 14,6

SPR f
00000000
00110000
00110000
00100000
01110110
01011000
10110100
11101110
>
00000000
00110000
00110000
00100000
01110000
01011110
10110100
11101110
DLG SPR_f
POS 0 1,11

SPR g
00111001
01110101
01110101
01101110
01101101
01011101
00100101
00100101
DLG SPR_b
POS 0 12,1

SPR h
00110010
00110011
01110010
01101010
11011100
10111010
01001010
01001010
>
00110010
00110011
01110010
01101010
11011100
10111010
01001010
01001010
DLG SPR_5
POS 0 6,6

SPR i
01001100
11001100
01001110
01010111
00111011
01011101
01010010
01010010
>
01001101
11001100
01001110
01010111
00111011
01011101
01010010
01010010
DLG SPR_4
POS 0 10,7

SPR j
00000000
00000000
00000000
00000111
00011111
00111100
00101010
11010001
>
00000000
00000000
00000000
00000111
00011111
00111100
00101010
11010010
DLG SPR_3
POS 0 13,11

SPR k
00000000
00000000
00001100
00001100
00111001
00111110
01110100
10101000
>
00000000
00000000
00001100
00001100
00111010
00111110
01110100
10101000
DLG SPR_2
POS 0 3,13

SPR l
00000000
00000000
00000000
00011000
00011000
00011000
00110000
01111101
>
00000000
00000000
00000000
00011000
00011000
00011000
00110000
01111110
DLG SPR_0
POS 0 1,7

SPR m
00000000
00000000
01110000
11111000
10001000
10001000
10001000
01110000

SPR n
00000000
00111110
01111111
11110001
00010011
01010101
10010001
11101110

SPR o
00000000
00000000
00000000
00000000
00000000
00000000
00000000
00000000
>
00000000
00000000
00000000
00000000
00000000
00000000
00100000
00000000
NAME sky1
DLG SPR_7
POS 0 2,0

SPR p
00000000
00000000
00000000
00000000
00000000
00000000
00000000
00000000
>
00000000
00000000
00010000
00000000
00000000
00000000
00000000
00000000
NAME sky2
DLG SPR_8
POS 0 3,0

SPR q
00000000
00000000
00000000
00000000
00000000
00000001
00011001
00011011
>
00000000
00000000
00000000
00000000
01000000
00000001
00011001
00011011
NAME sky3
POS 0 12,0

SPR r
00000000
00000000
00000000
00000000
00000000
00000000
00000000
00000000
>
00000000
00000000
00000000
00000001
00000010
00000000
00000000
00000000
NAME sky4
DLG SPR_6
POS 0 13,0

SPR s
00000000
00000000
01100000
11100000
11000000
11100000
11111000
01110110
>
00000000
00000000
01100000
11100000
11000000
11100000
11111000
01110110

ITM 0
00000000
00000000
00000000
00000000
00000000
00010000
00000010
00000100
NAME coins

DLG SPR_1
"""
{sequence
  - Badwla's men will climb the walls while we sleep.
  - They will slaughter us and make of our city a pasture for grazing sheep.
  - We will not be saved by Belisarius.
    Nor the Emperor.
    Nor God.
}
"""

DLG SPR_2
"""
{sequence
  - Take this pebble. Suck on it to keep your hunger at bay.
  - Join me in prayer: that we may be delivered from this wretched city.
  - We barricaded ourselves into our own churches.
  - What has become of Rome?
}
"""

DLG SPR_3
"""
{cycle
  - Our numbers dwindle...
  - The grasses dry up...
  - Is there anything left in the dust?
}
"""

DLG SPR_4
"""
{sequence
  - When I try to speak with this soldier, he turns away.
}
"""

DLG SPR_5
"""
{sequence
  - Don't take another step--Badwla's army will eat you alive out there.
  - Orders from Bessas: no one leaves.
}
"""

DLG SPR_0
"""
{sequence
  - This grain belongs to Bessas.
  - I wish I could help you, my friend.
}
"""

DLG SPR_6
"""
{cycle
  - Beyond the outer wall, Badwla's camp resembles a parallel city.
}
"""

DLG SPR_7
"""
{sequence
  - The December wind bites.
  - The air smells like copper.
  - Where is Belisarius?
  - What has become of Rome?
}
"""

DLG SPR_8
At night we can see the fires in their camp. During the day we smell the smoke.

DLG SPR_9
"""
{sequence
  - I've lost the strength to chase stray dogs...
  - If you find any food... please...
}
"""

DLG SPR_a
There is no greater glory

DLG SPR_b
There is no greater glory than to hold this city.

DLG SPR_c
These rocks are cold to the touch.

DLG SPR_d
These rocks are cold to the touch.

DLG SPR_e
"""
{sequence
  - I've lost the str
  - 
}
"""

DLG SPR_f
"""
{sequence
  - I've lost the strength to chase stray dogs.
  - If you find any food... please...
}
"""

VAR a
42


