
Hell Girl

# BITSY VERSION 4.6

! ROOM_FORMAT 1

PAL 0
NAME 01
20,8,20
71,37,92
89,26,41

PAL 1
NAME 02
0,0,0
89,26,41
71,37,92

ROOM 0
0,0,0,a,0,0,0,0,0,0,0,0,0,e,0,0
0,0,0,0,a,0,0,a,a,a,0,0,0,a,0,0
e,0,0,0,0,0,a,0,0,0,a,0,0,a,a,e
a,0,0,0,0,a,0,0,e,0,0,a,0,0,a,a
0,0,0,0,a,0,0,e,0,e,0,0,a,0,0,a
a,e,0,0,a,0,0,e,0,e,0,0,a,0,0,a
0,a,0,0,a,0,e,0,0,0,e,0,a,0,0,0
0,0,0,0,a,a,0,e,0,e,0,a,a,0,0,0
e,0,0,0,a,a,a,0,0,0,a,a,a,0,e,0
a,0,e,0,0,a,a,a,0,a,a,a,0,0,a,0
0,0,a,e,0,0,a,a,0,a,a,0,0,e,a,0
e,0,a,a,0,0,0,a,0,a,0,0,0,a,a,0
a,0,a,a,0,0,0,a,0,a,0,0,0,a,0,e
0,0,a,a,0,0,0,a,0,a,0,0,0,0,e,a
0,0,0,a,0,0,0,a,0,a,0,0,0,0,a,a
0,0,0,0,0,a,a,a,0,a,a,0,a,0,a,a
ITM 5 8,7
ITM 4 8,11
END 0 8,5
PAL 1

ROOM 1
0,a,0,0,0,0,0,0,0,0,0,0,0,0,0,0
0,a,a,0,0,a,a,0,0,a,0,0,0,0,0,a
0,0,a,a,a,a,a,a,a,a,a,a,0,0,0,a
0,0,0,a,a,a,a,b,d,0,0,a,0,a,a,0
0,0,0,a,0,a,b,0,0,0,0,a,0,0,0,0
0,0,0,0,0,a,0,0,0,0,0,a,0,0,0,0
0,0,0,0,a,a,0,0,0,0,b,a,a,a,a,a
a,0,0,0,a,a,0,0,0,0,0,a,a,0,0,a
a,0,0,0,a,a,0,0,0,0,0,a,a,0,0,0
a,0,0,0,a,a,0,b,0,0,0,a,a,a,0,0
0,a,0,0,0,a,0,0,0,0,0,a,0,a,0,0
0,a,a,0,0,a,0,0,0,0,b,a,0,0,a,0
0,0,a,0,0,a,b,0,0,0,0,a,0,0,0,0
0,0,0,a,0,a,a,a,a,a,a,a,0,0,0,0
0,0,0,0,0,0,a,0,0,0,0,a,a,0,0,0
0,0,0,0,0,0,0,0,0,0,0,0,0,0,0,a
EXT 8,3 2 3,13
PAL 0

ROOM 2
0,a,0,a,a,a,a,a,a,a,a,a,a,0,0,a
0,0,a,d,0,0,0,0,b,0,0,0,a,0,a,0
0,0,a,b,0,0,0,0,0,0,0,b,a,a,0,0
a,a,a,a,a,a,b,a,0,0,0,0,a,a,0,0
0,a,0,0,a,a,a,a,a,b,0,0,b,a,0,0
0,0,a,0,a,a,a,0,a,a,0,0,0,a,0,a
a,0,0,a,a,0,a,a,a,a,0,0,0,a,a,0
0,a,a,a,a,a,a,a,a,b,0,0,0,0,a,0
0,a,b,0,b,0,b,b,0,0,0,0,b,0,a,0
0,a,0,0,0,0,0,0,0,0,0,0,0,a,0,0
0,a,0,0,0,0,0,0,0,b,0,0,a,0,0,0
a,a,0,0,0,0,a,a,a,a,a,a,0,0,0,0
a,a,0,0,b,a,a,b,a,a,0,0,0,0,0,a
0,a,b,0,0,a,b,0,a,a,0,0,0,a,a,0
0,a,a,a,a,a,0,a,a,0,0,0,a,a,0,0
0,0,0,a,a,a,a,0,0,0,0,a,a,0,0,0
EXT 3,1 3 13,14
PAL 0

ROOM 3
a,a,0,a,0,a,0,a,a,a,a,a,0,0,0,0
0,a,a,a,a,a,a,a,a,a,a,b,a,a,a,0
0,a,a,b,0,0,0,b,b,0,0,0,0,0,a,a
0,a,a,0,0,0,0,0,0,0,0,0,b,0,b,a
0,0,a,0,0,a,a,a,0,b,a,a,b,a,b,a
0,0,a,b,0,0,0,a,a,a,a,a,0,a,a,a
0,a,a,a,a,b,0,a,a,a,a,a,b,0,0,a
a,a,a,a,a,a,0,a,a,a,a,a,b,b,0,a
a,d,b,0,0,b,b,a,a,a,a,a,a,0,b,a
a,a,a,a,a,a,0,a,a,0,a,a,b,0,0,a
0,a,a,a,a,a,a,b,a,0,a,a,b,0,0,a
0,0,0,a,a,a,a,b,a,0,a,a,0,0,b,a
a,0,a,0,a,a,a,a,a,b,a,a,0,0,b,a
0,a,a,a,a,a,a,a,a,b,a,a,0,b,b,a
a,0,0,a,0,0,0,a,0,a,a,a,b,b,0,a
0,a,a,a,a,0,a,a,a,0,a,0,a,a,a,a
EXT 1,8 4 14,9
PAL 0

ROOM 4
a,a,0,0,0,0,0,a,a,a,a,a,0,0,0,0
0,c,a,0,0,0,a,0,a,a,a,0,0,0,a,a
a,0,a,a,c,a,a,a,a,0,c,0,0,a,a,a
0,a,0,a,a,a,a,0,c,0,0,0,a,a,0,0
c,0,0,c,a,0,0,0,0,a,a,a,a,c,0,0
0,c,a,a,c,a,a,a,a,c,a,a,a,a,a,a
a,a,b,0,0,a,b,a,a,a,0,b,b,b,a,a
a,d,a,0,0,0,0,0,a,b,0,0,0,a,0,a
a,0,0,0,b,b,0,0,0,b,0,0,0,0,0,a
a,b,0,0,0,b,0,b,0,0,0,0,b,0,0,a
a,0,a,0,0,0,0,0,a,0,0,0,0,a,0,a
a,a,b,0,0,a,b,b,a,b,0,0,0,b,b,a
c,a,a,a,a,a,c,a,a,a,a,c,a,a,a,0
0,a,c,a,a,a,a,0,0,a,a,0,0,c,0,a
a,0,0,a,c,0,0,a,0,0,0,a,0,0,a,a
c,0,a,a,a,0,a,a,a,0,0,0,a,a,a,0
ITM 4 1,10
EXT 1,7 7 8,14
PAL 0

ROOM 6
0,0,a,0,0,a,0,a,0,a,e,0,0,0,a,a
e,0,a,0,0,0,0,a,0,a,a,0,0,0,a,a
a,0,a,e,0,0,e,a,0,a,0,0,0,0,a,a
a,0,a,a,0,0,a,a,0,a,e,a,0,0,a,a
0,0,a,a,0,0,0,a,0,a,a,0,0,0,a,0
0,0,0,a,0,0,e,a,0,a,0,0,0,0,0,0
0,e,0,a,0,0,a,a,0,a,e,0,0,0,0,0
0,a,0,a,0,0,0,a,0,a,a,0,e,a,0,e
0,a,0,0,0,0,e,a,0,a,0,0,a,a,0,a
a,a,0,0,a,0,a,a,0,a,0,0,a,a,0,a
a,a,0,e,a,0,a,a,0,a,e,0,a,a,0,a
a,a,0,a,a,0,0,a,0,a,a,0,a,a,0,a
a,a,0,a,a,0,e,a,0,a,0,0,a,a,0,a
a,e,0,a,a,0,a,a,0,a,0,e,a,a,e,0
a,0,0,e,a,0,0,a,0,a,0,0,a,e,0,0
a,0,0,0,a,0,0,a,0,a,0,0,0,0,0,0
ITM 1 8,12
ITM 2 8,7
ITM 3 8,2
EXT 8,0 0 8,15
PAL 0

ROOM 7
0,a,0,0,0,0,0,a,0,a,0,0,0,0,0,0
0,a,a,0,0,a,a,a,0,a,a,a,0,0,0,a
0,0,a,a,a,a,a,0,0,0,0,a,0,0,0,a
0,0,0,a,a,a,0,b,0,0,0,a,0,a,a,0
0,0,0,a,0,a,b,0,0,0,0,a,0,0,0,0
0,0,0,0,0,a,0,0,0,0,0,a,0,0,0,0
0,0,0,0,a,a,0,0,0,0,b,a,a,a,a,a
a,0,0,0,a,a,0,0,0,0,0,a,a,0,0,a
a,0,0,0,a,a,0,0,0,0,0,a,a,0,0,0
a,0,0,0,a,a,0,b,0,0,0,a,a,a,0,0
0,a,0,0,0,a,0,0,0,0,0,a,0,a,0,0
0,a,a,0,0,a,0,0,0,0,b,a,0,0,a,0
0,0,a,0,0,a,b,0,0,0,0,a,0,0,0,0
0,0,0,a,0,a,0,0,0,0,0,a,0,0,0,0
0,0,0,0,0,a,0,0,0,0,0,a,a,0,0,0
0,0,0,0,0,a,a,a,a,a,a,a,0,0,0,a
NAME room 5
ITM 0 8,2
EXT 8,0 6 8,15
PAL 0

TIL a
11010001
10000001
00010010
11100011
10101101
10110000
11010100
11111001
NAME wall
WAL true

TIL b
00000000
10000000
00000000
00000011
00100010
01000000
00001000
00000000
NAME floor
WAL false

TIL c
00000000
00111100
01000010
10010001
00011000
01000010
00111100
00000000
NAME eye
WAL true

TIL d
01000010
10011001
00000000
00110100
00000000
01011110
10000001
11111111
NAME stair

TIL e
00000000
00010000
00000010
10100100
01001000
00100100
01110100
00111000
>
00000000
01000010
00010000
01000100
00100010
00011000
01011100
00111000
NAME fire
WAL true

SPR A
00010010
00010010
01111100
11111100
11111100
01111000
00111100
00100100
POS 1 8,12

SPR a
01000000
01100000
00100110
00111100
01111010
11011000
00001100
01001110
>
01000000
01100000
00100110
00111100
01111010
11011000
01001100
00001110
NAME cross 1-1
DLG SPR_0
POS 1 8,8

SPR b
01000000
01100000
00100110
00111100
01111010
11011000
00001100
01001110
>
01000000
01100000
00100110
00111100
01111010
11011000
01001100
00001110
NAME cross 2-1
DLG SPR_3
POS 2 3,8

SPR c
01000000
01100000
00100110
00111100
01111010
11011000
00001100
01001110
>
01000000
01100000
00100110
00111100
01111010
11011000
01001100
00001110
NAME cross 2-2
DLG SPR_2
POS 2 13,8

SPR d
01000000
01100000
00100110
00111100
01111010
11011000
00001100
01001110
>
01000000
01100000
00100110
00111100
01111010
11011000
01001100
00001110
NAME cross 2-3
DLG SPR_1
POS 2 11,1

SPR e
01000000
01100000
00100110
00111100
01111010
11011000
00001100
01001110
>
01000000
01100000
00100110
00111100
01111010
11011000
01001100
00001110
NAME cross 2-4
DLG SPR_4
POS 2 4,1

SPR f
01000000
01100000
00100110
00111100
01111010
11011000
00001100
01001110
>
01000000
01100000
00100110
00111100
01111010
11011000
01001100
00001110
NAME cross 3-1
DLG SPR_5
POS 3 13,7

SPR g
01000000
01100000
00100110
00111100
01111010
11011000
00001100
01001110
>
01000000
01100000
00100110
00111100
01111010
11011000
01001100
00001110
NAME cross 3-2
DLG SPR_6
POS 3 2,3

SPR h
01000000
01100000
00100110
00111100
01111010
11011000
00001100
01001110
>
01000000
01100000
00100110
00111100
01111010
11011000
01001100
00001110
NAME cross 3-3
DLG SPR_7
POS 3 6,9

SPR i
01000000
01100000
00100110
00111100
01111010
11011000
00001100
01001110
>
01000000
01100000
00100110
00111100
01111010
11011000
01001100
00001110
NAME cross 4-1
DLG SPR_8
POS 4 12,10

SPR j
01000000
01100000
00100110
00111100
01111010
11011000
00001100
01001110
>
01000000
01100000
00100110
00111100
01111010
11011000
01001100
00001110
NAME cross 4-2
DLG SPR_9
POS 4 7,7

SPR k
01000000
01100000
00100110
00111100
01111010
11011000
00001100
01001110
>
01000000
01100000
00100110
00111100
01111010
11011000
01001100
00001110
NAME cross 4-3
DLG SPR_a
POS 4 1,10

SPR l
01000000
01100000
00100110
00111100
01111010
11011000
00001100
01001110
>
01000000
01100000
00100110
00111100
01111010
11011000
01001100
00001110
NAME cross 5-1
DLG SPR_b
POS 7 8,8

ITM 0
00000000
00000000
00000000
00000000
00000000
00000000
00000000
00000000
DLG ITM_0

ITM 1
00000000
00000000
00000000
00000000
00000000
00000000
00000000
00000000
DLG ITM_1

ITM 2
00000000
00000000
00000000
00000000
00000000
00000000
00000000
00000000
DLG ITM_2

ITM 3
00000000
00000000
00000000
00000000
00000000
00000000
00000000
00000000
DLG ITM_3

ITM 4
00000000
00000000
00000000
00000000
00000000
00000000
00000000
00000000
DLG ITM_4

ITM 5
00000000
00000000
00000000
00000000
00000000
00000000
00000000
00000000
DLG ITM_7

DLG ITM_0
can it be worse then what i am now?

DLG SPR_0
"""
i never... liked you...

looking at you... thinking about you. 
being..... you.
"""

DLG SPR_1
escape the name they called you. 

DLG SPR_2
i always wanted to escape it.

DLG SPR_3
it makes me want to cry just thinking about it

DLG SPR_4
the way they looked at you. 

DLG SPR_5
i guess i didnt know that for a long time

DLG SPR_6
an enigmatic errosion of the self

DLG SPR_7
an unconcious victim awakening to the pain

DLG SPR_8
i can feel all their eyes watching.

DLG SPR_9
i dont care and i care so so much

DLG SPR_a
theyre waiting for the horrible transformation to occur

DLG SPR_b
"""
im scared of taking the plunge.

i dont know what ill become
"""

DLG ITM_1
the black flames feel corrosive on my skin

DLG ITM_2
my heart aches with static anxiety

DLG ITM_3
sooner or later therell be no going back

DLG ITM_4
but ive felt the chest pains for so long

DLG ITM_5
i need to burn away the rot to grow

DLG ITM_6
i need toburn away the rot to grow

DLG ITM_7
i need to burn away the rot to grow

END 0
i need to kill myself to be free 

VAR a
42


