Road Trip Simulator 2018

# BITSY VERSION 5.1

! ROOM_FORMAT 1

PAL 0
112,194,204
65,84,95
181,68,217

ROOM 0
0,0,0,0,0,0,0,0,0,0,0,0,0,0,0,0
0,0,0,0,0,0,0,0,0,0,0,0,0,0,0,0
0,0,0,0,0,0,0,0,0,0,0,0,0,0,0,0
0,0,0,0,0,0,0,0,0,0,0,0,0,0,0,0
0,0,0,0,0,0,0,0,0,0,0,0,0,0,0,0
0,0,0,0,0,0,0,0,0,0,0,0,0,0,0,0
0,0,0,0,0,0,0,0,0,0,0,0,0,0,0,0
e,d,e,d,e,d,e,e,d,e,d,e,d,e,d,e
0,0,0,0,0,0,0,0,0,0,0,0,0,0,0,0
a,a,a,a,a,a,a,a,a,a,a,a,a,a,a,a
e,d,e,d,e,d,e,d,e,d,e,d,e,d,e,d
0,0,0,0,0,0,0,0,0,0,0,0,0,0,0,0
0,0,0,0,c,0,0,0,0,0,0,0,0,0,0,0
a,a,0,a,a,c,0,0,0,a,a,a,a,0,c,0
a,a,a,a,a,a,a,0,0,a,a,a,a,a,a,0
a,a,a,a,a,a,a,a,a,a,a,a,a,a,a,0
NAME Road Trip 2018
ITM 0 3,13
ITM 0 2,13
ITM 0 0,13
ITM 0 1,13
ITM 0 4,13
ITM 0 10,13
ITM 0 11,13
ITM 0 12,13
ITM 0 11,14
ITM 0 9,14
ITM 0 5,14
ITM 0 3,14
ITM 0 1,14
ITM 0 0,14
ITM 0 2,14
ITM 0 2,15
ITM 0 1,15
ITM 0 0,15
ITM 0 3,15
ITM 0 5,15
ITM 0 4,15
ITM 0 4,14
ITM 0 6,15
ITM 0 8,15
ITM 0 7,15
ITM 0 9,15
ITM 0 10,15
ITM 0 10,14
ITM 0 11,15
ITM 0 12,15
ITM 0 12,14
ITM 0 13,15
ITM 0 14,15
ITM 0 15,15
ITM 1 6,14
ITM 1 4,12
ITM 1 2,12
ITM 1 11,12
ITM 1 13,13
ITM 0 13,14
ITM 0 14,14
ITM 2 14,13
ITM 2 1,12
ITM 2 5,13
ITM 3 9,13
ITM 2 7,14
ITM 3 8,14
ITM 7 2,2
ITM 6 3,2
ITM 6 9,3
ITM 6 14,1
ITM 7 13,1
ITM 7 8,3
ITM 8 4,8
ITM a 5,8
ITM 9 7,8
ITM a 8,8
ITM 9 10,8
ITM b 11,8
ITM 9 14,8
END 0 0,8
END 1 15,8
PAL 0

ROOM 1
0,0,0,0,0,0,0,0,0,0,0,0,0,0,0,0
0,0,0,0,0,0,0,0,0,0,0,0,0,0,0,0
0,0,0,0,0,0,0,0,0,0,0,0,0,0,0,0
0,0,0,0,0,0,0,0,0,0,0,0,0,0,0,0
0,0,0,0,0,0,0,0,0,0,0,0,0,0,0,0
0,0,0,0,0,0,0,0,0,0,0,0,0,0,0,0
0,0,0,0,0,0,0,0,0,0,0,0,0,0,0,0
0,0,0,0,0,0,0,0,0,0,0,0,0,0,0,0
0,0,0,0,0,0,0,0,0,0,0,0,0,0,0,0
0,0,0,0,0,0,0,0,0,0,0,0,0,0,0,0
0,0,0,0,0,0,0,0,0,0,0,0,0,0,0,0
0,0,0,0,0,0,0,0,0,0,0,0,0,0,0,0
0,0,0,0,0,0,0,0,0,0,0,0,0,0,0,0
0,0,0,0,0,0,0,0,0,0,0,0,0,0,0,0
0,0,0,0,0,0,0,0,0,0,0,0,0,0,0,0
0,0,0,0,0,0,0,0,0,0,0,0,0,0,0,0
PAL 0

TIL a
11111111
11111111
11111111
11111111
11111111
11111111
11111111
11111111
>
11111111
11111111
11111111
11111111
11111111
11111111
11111111
11111111
WAL true

TIL b
11111111
00000010
00000100
00001000
00010000
00100000
01000000
10000000
WAL true

TIL c
10000000
01000000
00100000
00010000
00001000
00000100
00000010
00000001

TIL d
11111111
01000000
00100000
00010000
00001000
00000100
00000010
11111111
WAL true

TIL e
11111111
00000011
00000101
00001001
00010001
00100001
01000001
11111111
WAL true

TIL f
00100000
01000000
10000000
10000000
10000000
10000000
01000000
00100000

TIL g
00011100
00000010
00000011
00000001
00000001
00000001
00000000
00000000

TIL h
00011110
00000000
00000000
00000000
00000000
00000000
00000000
00000000

SPR A
00000000
00000000
00000000
00000000
01111100
11111111
11111111
01100110
>
00000000
00000000
00000000
00000000
01111100
11111111
11111111
01100110
POS 0 2,8

SPR a
10000000
11000000
11100000
11110000
11111000
11111100
11111110
11111111
DLG SPR_0
POS 0 5,13

SPR b
00000001
00000011
00000111
00001111
00011111
00111111
01111111
11111111
POS 0 9,13

SPR c
00000001
00000011
00000111
00001111
00011111
00111111
01111111
11111111

SPR d
10000000
11000000
11100000
11110000
11111000
11111100
11111110
11111111
POS 0 15,14

SPR e
00000000
10000000
11000000
11000000
11000000
11000000
11111000
11111110
POS 0 13,13

SPR f
00000000
10000000
10000000
10000000
10000000
11100000
11111000
11111100
POS 0 6,14

ITM 0
11111111
11111111
11111111
11111111
11111111
11111111
11111111
11111111
>
11111111
11111111
11111111
11111111
11111111
11111111
11111111
11111111
NAME tea
DLG ITM_0

ITM 1
00010000
00111000
00111000
01111100
01111100
00010000
00010000
00111000

ITM 2
00000000
00000000
00000000
00000000
00000000
00000000
01111000
11111111

ITM 3
00000001
00000001
00000001
00000111
00001111
00011111
01111111
11111111

ITM 4
00000000
00000001
00000011
00000111
00001111
11111111
11111111
11111111

ITM 5
00000111
00011100
11110000
10000000
10000000
11100000
00111111
00000000
>
00000000
00000000
00000000
00000000
00000000
00000000
00000000
00000000
NAME cloud

ITM 6
11000000
01111100
00000110
00000011
00000001
00001111
11111000
00000000
>
11000000
01111100
00000110
00000011
00000001
00001111
11111000
00000000

ITM 7
00000111
00011100
11110000
10000000
10000000
11100000
00111111
00000000
>
00000111
00011100
11110000
10000000
10000000
11100000
00111111
00000000

ITM 8
00000000
00000000
00000000
00000000
00000000
00000000
00000000
00000000
NAME 1
DLG ITM_1

ITM 9
00000000
00000000
00000000
00000000
00000000
00000000
00000000
00000000
NAME q1
DLG ITM_2

ITM a
00000000
00000000
00000000
00000000
00000000
00000000
00000000
00000000
DLG ITM_3

ITM b
00000000
00000000
00000000
00000000
00000000
00000000
00000000
00000000
DLG ITM_4

DLG SPR_0
I'm a cat

DLG ITM_0
this is an item

DLG ITM_1
{clr1}Are we there yet?{clr1}

DLG ITM_2
{clr1}Are we there yet?{clr1}

DLG ITM_3
{clr3}NO!{clr3}

DLG ITM_4
{clr3}I WILL TURN THIS CAR AROUND!{clr3}

END 0
{clr3}You turned the car around :'({clr3}

END 1
{clr3}YES!{clr3}

VAR a
42

