Hidden Fears

# BITSY VERSION 3.5

! ROOM_FORMAT 1

PAL 0
0,64,128
222,165,87
223,210,188

PAL 1
187,10,30
173,223,255
223,210,188

PAL 2
173,223,255
150,113,23
223,210,188

PAL 3
0,0,0
178,132,190
223,210,188

PAL 4
225,130,160
255,255,255
223,210,188

PAL 5
255,255,255
255,255,255
255,255,255

PAL 6
0,204,153
156,37,66
223,210,188

ROOM 0
j,0,0,j,0,0,j,0,0,j,0,0,j,0,0,j
k,0,0,k,0,0,k,0,0,k,0,0,k,0,0,k
k,0,0,k,0,0,k,0,0,k,0,0,k,0,0,k
k,0,0,k,0,0,k,0,0,k,0,0,k,0,0,k
k,0,0,k,0,0,k,0,0,k,0,0,k,0,0,k
k,0,0,k,0,0,k,0,0,k,0,0,k,0,0,k
k,0,0,k,0,0,k,0,0,k,0,0,k,0,0,k
k,0,0,k,0,0,k,0,0,k,0,0,k,0,0,k
k,0,0,k,0,0,k,0,0,k,0,0,k,0,0,k
k,0,0,k,0,0,k,0,0,k,0,0,k,0,0,k
k,0,0,k,0,0,k,0,0,k,0,0,k,0,0,k
k,0,0,k,0,0,k,0,0,k,0,0,k,0,0,k
b,b,b,b,b,b,b,b,b,b,b,b,b,b,b,b
c,c,c,c,c,c,c,c,c,c,c,c,c,c,c,c
c,c,c,c,c,c,c,c,c,l,l,c,c,c,c,c
l,c,c,c,c,c,l,c,c,l,c,c,c,c,c,c
WAL d,f
EXT 8,5 1 0,14
END 1 8,15
END 1 1,15
END 1 0,15
END 1 2,15
END 1 3,15
END 1 4,15
END 1 5,15
END 1 6,15
END 1 7,15
END 1 9,15
END 1 10,15
END 1 11,15
END 1 12,15
END 1 13,15
END 1 14,15
END 1 15,15
PAL 0

ROOM 1
g,g,g,g,g,g,g,g,g,g,g,g,g,g,g,g
g,g,g,g,g,g,g,g,g,g,g,g,g,g,g,g
h,0,0,h,0,0,h,0,0,h,0,0,h,0,0,h
i,0,0,i,0,0,i,0,0,i,0,0,i,0,0,i
i,0,0,i,0,0,i,0,0,i,0,0,i,0,0,i
i,0,0,i,0,0,i,0,0,i,0,0,i,0,0,i
i,0,0,i,0,0,i,0,0,i,0,0,i,0,0,i
i,0,0,i,0,0,i,0,0,i,0,0,i,0,0,i
i,0,0,i,0,0,i,0,0,i,0,0,i,0,0,i
i,0,0,i,0,0,i,0,0,i,0,0,i,0,0,i
i,0,0,i,0,0,i,0,0,i,0,0,i,0,0,i
i,0,0,i,0,0,i,0,0,i,0,0,i,0,0,i
f,f,f,f,f,f,f,f,f,f,f,f,f,f,f,f
g,g,g,g,g,g,g,g,g,g,g,g,g,g,g,g
g,g,g,g,g,g,g,g,g,g,c,g,g,g,g,g
g,g,g,g,g,g,g,g,g,g,g,g,g,g,g,g
EXT 0,14 0 0,0
EXT 5,5 2 0,2
END 0 10,15
END 0 0,15
END 0 1,15
END 0 2,15
END 0 3,15
END 0 4,15
END 0 5,15
END 0 6,15
END 0 7,15
END 0 8,15
END 0 9,15
END 0 11,15
END 0 12,15
END 0 13,15
END 0 14,15
END 0 15,15
PAL 1

ROOM 2
0,0,0,0,0,0,0,0,m,0,0,m,0,0,m,0
0,0,0,0,0,0,0,0,n,0,0,n,0,0,n,0
0,0,0,0,0,0,0,0,n,0,0,n,0,0,n,0
l,l,l,l,l,l,0,0,n,0,0,n,0,0,n,0
l,l,l,l,l,l,0,0,n,0,0,n,0,0,n,0
l,l,l,l,l,l,0,0,n,0,0,n,0,0,n,0
l,l,l,l,l,l,0,0,n,0,0,n,0,0,n,0
l,l,l,l,l,l,0,0,n,0,0,n,0,0,n,0
l,l,l,l,l,l,0,0,n,0,0,n,0,0,n,0
l,l,l,l,l,l,0,0,n,0,0,n,0,0,n,0
l,l,l,l,l,l,0,0,n,0,0,n,0,0,n,0
m,m,m,m,m,m,0,0,n,0,0,n,0,0,n,0
n,n,n,n,n,n,0,0,n,0,0,n,0,0,n,0
n,n,n,n,n,n,0,0,n,0,0,n,0,0,n,0
n,n,n,n,n,n,0,0,n,0,0,n,0,0,n,0
n,n,n,n,n,n,0,0,n,0,0,n,0,0,n,0
WAL f
EXT 1,7 3 0,12
END 2 6,2
END 2 6,3
END 2 6,4
END 2 6,5
END 2 6,6
END 2 6,7
END 2 6,8
END 2 6,9
END 2 6,10
PAL 2

ROOM 3
0,0,o,0,0,o,0,0,o,0,0,o,0,0,o,0
0,0,o,0,0,o,0,0,o,0,0,o,0,0,o,0
0,0,o,0,0,o,0,0,o,0,0,o,0,0,o,0
0,0,p,0,0,p,0,0,p,0,0,p,0,0,p,0
0,0,q,0,0,q,0,0,q,0,0,q,0,0,q,0
0,0,q,0,0,q,0,0,q,0,0,q,0,0,q,0
0,0,q,0,0,q,0,0,q,0,0,q,0,0,q,0
0,0,q,0,0,q,0,0,q,0,0,q,0,0,q,0
0,0,q,0,0,q,0,0,q,0,0,q,0,0,q,0
0,0,q,0,0,q,0,0,q,0,0,q,0,0,q,0
0,0,q,0,0,q,0,0,q,0,0,q,0,0,q,0
0,0,q,0,0,q,0,0,q,0,0,q,0,0,q,0
0,0,q,0,0,q,0,r,q,0,0,q,0,0,q,0
l,l,l,l,l,l,l,0,l,l,l,g,l,l,l,g
l,l,l,l,l,l,l,l,l,l,l,l,l,l,l,l
l,l,l,l,l,l,l,l,l,l,l,l,l,l,l,l
EXT 11,13 4 0,11
END 3 7,14
END 3 6,14
END 3 8,14
END 3 0,14
END 3 1,14
END 3 2,14
END 3 3,14
END 3 4,14
END 3 5,14
END 3 9,14
END 3 10,14
END 3 11,14
END 3 12,14
END 3 13,14
END 3 14,14
END 3 15,14
PAL 3

ROOM 4
l,l,l,l,l,l,l,l,l,l,l,l,l,l,l,l
l,l,l,l,l,l,l,l,l,l,l,l,l,l,l,l
l,l,l,l,l,l,l,l,l,l,l,l,l,l,l,l
l,l,l,l,l,l,l,l,l,l,l,l,l,l,l,l
l,l,l,l,l,l,l,l,l,l,l,l,l,l,l,l
l,l,l,l,l,l,l,l,l,l,l,l,l,l,l,l
l,l,l,l,l,l,l,l,l,l,l,l,l,l,l,l
l,l,l,l,l,l,l,l,l,l,l,l,l,l,l,l
l,l,l,l,l,l,l,l,l,l,l,l,l,l,l,l
l,l,l,l,l,l,l,l,l,l,l,l,l,l,l,l
l,l,l,l,s,0,0,s,0,0,s,l,l,l,l,l
0,0,0,0,s,0,0,s,0,0,s,0,0,0,0,0
l,l,l,l,s,0,0,s,0,0,s,l,l,l,l,l
l,l,l,l,l,l,l,l,l,l,l,l,l,l,l,l
l,l,l,l,l,l,l,l,l,l,l,l,l,l,l,l
l,l,l,l,l,l,l,l,l,l,l,l,l,l,l,l
EXT 15,11 5 0,13
END 4 4,13
END 4 5,13
END 4 6,13
END 4 7,13
END 4 8,13
END 4 9,13
END 4 10,13
PAL 4

ROOM 5
u,u,u,u,u,u,u,u,u,u,u,u,u,u,u,u
u,u,u,u,u,u,u,u,u,u,u,u,u,u,u,u
0,0,0,0,0,0,0,d,0,0,0,0,0,0,0,0
0,0,0,0,0,0,0,0,0,0,0,0,0,0,0,0
0,0,0,0,0,0,0,0,0,0,0,0,0,0,0,c
0,0,0,0,0,0,0,0,0,0,0,0,0,0,l,c
0,0,0,0,0,0,0,0,0,0,0,0,0,l,l,c
0,0,0,0,0,0,0,0,0,0,0,0,l,l,l,c
0,0,0,0,0,0,0,0,0,0,0,l,l,l,l,c
0,0,0,0,0,0,0,0,0,0,l,l,l,l,l,c
0,0,0,0,0,0,0,0,0,l,l,l,l,l,l,c
0,0,0,0,0,0,0,0,l,l,l,l,l,l,l,c
0,0,0,0,0,0,0,l,l,l,l,l,l,l,l,c
b,b,b,b,b,b,l,l,l,l,l,l,l,l,l,c
l,l,l,l,l,l,l,l,l,l,l,l,l,l,l,c
l,l,l,l,l,l,l,l,l,l,l,l,l,l,l,c
END 5 15,2
PAL 6

TIL b
00000000
00000000
00000000
01001000
01101010
11101111
11111111
11111111
>
00000000
00000000
00000000
00100010
01101011
11101111
11111111
11111111

TIL c
11111111
11111111
11111111
11111111
11111111
11111111
11111111
11111111

TIL d
00000000
00111110
00111110
00111110
00111110
00111110
00000000
00000000

TIL e
00000000
00000000
00000000
00000000
00000000
00000000
00000000
00000000

TIL f
00000000
00000000
00000000
00000000
00100001
11111111
11111111
11111111
>
00000000
00000000
00000000
00000000
00000000
11111111
11111111
11111111

TIL g
11111111
11111111
11111111
11111111
11111111
11111111
11111111
11111111

TIL h
01111110
00111100
00110100
00110100
00010100
00010100
00000000
00000000
>
01111110
00111100
00101100
00101100
00101000
00101000
00000000
00000000

TIL i
00000000
00100000
00100000
00000000
00000100
00000100
00100000
00100000
>
00000100
00000100
00000000
00100000
00100000
00000000
00000100
00000100

TIL j
01111110
01111110
01011110
01010110
01010110
01010110
01010110
01010110
>
01111110
01111110
01111010
01101010
01101010
01101010
01101010
01101010

TIL k
00101000
00101000
00101000
00101000
00101000
00101000
00001000
00001000
>
00101000
00101000
00101000
00101000
00101000
00101000
00100000
00100000

TIL l
11111111
11111111
11111111
11111111
11111111
11111111
11111111
11111111

TIL m
11111111
01111110
00111100
00011000
00000000
00000000
00000000
00000000
>
11111111
01111110
00111100
00011000
00011000
00000000
00001000
00000000

TIL n
00010000
00000000
00001000
00000000
00010000
00000000
00001000
00010000
>
00001000
00000000
00000000
00010000
00000000
00001000
00000000
00010000

TIL o
00010000
00010000
00010000
00010000
00010000
00010000
00010000
00010000

TIL p
00010000
00010000
00010000
00010000
00111000
00001000
00000000
00100000
>
00010000
00010000
00010000
00010000
00111000
00100000
00000000
00001000

TIL q
00001000
00000000
00100000
00000000
00001000
00100000
00000000
00001000
>
00100000
00000000
00001000
00000000
00100000
00001000
00000000
00100000

TIL r
00000000
00000000
00000000
00000000
00000001
11111111
11111111
10000001

TIL s
00000100
00000000
00100000
00000100
00000000
00100000
00000100
00000000
>
00100000
00000100
00000000
00100000
00000000
00000100
00100000
00000000

TIL u
00000000
00010000
01000010
00000000
00000000
10001001
00100000
00000000
>
00000000
10000000
00101001
00000000
00000000
01000010
00010000
00000000

SPR A
00011000
00011000
00011000
00111100
01111110
10111101
00100100
00100100
>
00011000
10011001
01011010
00111100
00111100
00111100
00100100
00100100
POS 0 0,12

SPR a
00000000
00000000
00011000
00011000
01111110
00111100
00111100
00100100
>
00000000
00000000
00011000
00011000
01111110
01111110
00111100
00100100
POS 0 6,14

SPR b
00000000
00000000
00011000
00011000
01111110
00111100
00111100
00100100
>
00000000
00000000
00011000
00011000
01111110
01111110
00111100
00100100
POS 1 7,14

SPR c
00000000
00000000
00011000
00011000
01111110
00111100
00111100
00100100
>
00000000
00000000
00011000
00011000
11111110
00111100
00111100
00100100

SPR e
00011000
00111110
00111000
00111000
01111110
00111100
00111100
00100100
>
00011000
00111100
00111110
00111000
01111110
00111100
00111100
00100100
POS 3 7,13

SPR f
00000000
00000000
00011000
00011000
01111110
00111100
00111100
00100100
>
00000000
00000000
00011000
00011000
01111111
00111100
00111100
00100100
POS 2 5,2

SPR g
00000000
00000000
00011000
00011000
01111110
00111100
00111100
00100100
>
00000000
00000000
00011000
00011000
11111111
00111100
00111100
00100100
POS 4 6,12

SPR h
01111110
00011000
00111100
01111110
01111110
01111110
00011000
00111100
>
01111110
00011000
00111100
01111110
01111110
01111110
00011000
01111110
POS 5 15,3

DLG a
This way is the right way!

DLG b
Go Down! That is where land is!

DLG c
Come over Here!

DLG e
I want to eat you!

DLG f
Jump Off, You won't die.....

DLG g
You can get out!

DLG h
You've won, now jump on me! It's truly your exit!

END 0
You died from your hidden fear: drowning...

END 1
You died from your hidden fear: suffocation....

END 2
You died from your hidden fear: heights

END 3
You died from your hidden fear: the monster under your bed

END 4
You died from your hidden fear: tight spaces

END 5
You've won, you finally conquered all your fears. 

