
Oh no! You have lost your pants!

# BITSY VERSION 4.6

! ROOM_FORMAT 1

PAL 0
0,0,0
255,255,255
255,255,0

ROOM 1
0,0,0,0,0,0,0,0,0,0,0,0,0,0,0,0
0,0,0,0,0,0,0,0,0,0,0,0,0,0,0,0
0,0,0,0,0,0,0,0,0,0,0,0,0,0,0,0
0,0,0,0,0,0,0,0,0,0,0,0,0,0,0,0
0,0,0,0,a,a,a,a,a,a,a,a,0,0,0,0
0,0,0,0,a,p,0,0,0,h,0,a,0,0,0,0
0,0,0,0,a,o,0,0,0,i,0,a,a,a,a,a
0,0,0,0,a,0,0,0,0,0,d,b,0,0,0,0
0,0,0,0,a,0,0,0,0,0,0,a,a,a,a,a
0,0,0,0,a,c,0,d,f,e,g,a,0,0,0,0
0,0,0,0,a,a,a,b,a,a,a,a,0,0,0,0
0,0,0,0,0,0,a,0,a,0,0,0,0,0,0,0
0,0,0,0,0,0,a,0,a,0,0,0,0,0,0,0
0,0,0,0,0,0,a,0,a,0,0,0,0,0,0,0
0,0,0,0,0,0,a,0,a,0,0,0,0,0,0,0
0,0,0,0,0,0,a,0,a,0,0,0,0,0,0,0
ITM 0 7,7
ITM 1 9,8
EXT 7,15 2 7,1
EXT 15,7 3 1,7
PAL 0

ROOM 2
0,0,0,0,0,0,a,0,a,0,0,0,0,0,0,0
0,0,0,0,0,0,a,0,a,0,0,0,0,0,0,0
0,0,0,0,0,0,a,0,a,0,0,0,0,0,0,0
0,0,0,0,0,0,a,0,a,0,0,0,0,0,0,0
0,0,0,0,a,a,a,b,a,a,a,a,0,0,0,0
0,0,0,0,a,c,0,d,f,e,g,a,0,0,0,0
a,a,a,a,a,0,0,0,0,0,0,a,a,a,a,a
0,0,0,0,b,d,0,0,0,0,d,b,0,0,0,0
a,a,a,a,a,0,0,0,0,0,0,a,a,a,a,a
0,0,0,0,a,c,0,d,0,c,c,a,0,0,0,0
0,0,0,0,a,a,a,b,a,a,a,a,0,0,0,0
0,0,0,0,0,0,a,0,a,0,0,0,0,0,0,0
0,0,0,0,0,0,a,0,a,0,0,0,0,0,0,0
0,0,0,0,0,0,a,0,a,0,0,0,0,0,0,0
0,0,0,0,0,0,a,0,a,0,0,0,0,0,0,0
0,0,0,0,0,0,a,0,a,0,0,0,0,0,0,0
ITM 2 8,7
EXT 7,0 1 7,14
EXT 15,7 2 1,7
EXT 0,7 2 14,7
EXT 7,15 4 7,1
PAL 0

ROOM 3
0,0,0,0,0,0,0,0,0,0,0,0,0,0,0,0
0,0,0,0,0,0,0,0,0,0,0,0,0,0,0,0
0,0,0,0,0,0,0,0,0,0,0,0,0,0,0,0
0,0,0,0,0,0,0,0,0,0,0,0,0,0,0,0
0,0,0,0,a,a,a,a,a,a,a,a,0,0,0,0
0,0,0,0,a,c,0,h,0,c,c,a,0,0,0,0
a,a,a,a,a,0,0,i,0,0,0,a,0,0,0,0
0,0,0,0,b,d,0,0,0,0,0,a,0,0,0,0
a,a,a,a,a,0,0,0,0,0,0,a,0,0,0,0
0,0,0,0,a,c,0,d,0,c,c,a,0,0,0,0
0,0,0,0,a,a,a,b,a,a,a,a,0,0,0,0
0,0,0,0,0,0,a,0,a,0,0,0,0,0,0,0
0,0,0,0,0,0,a,0,a,0,0,0,0,0,0,0
0,0,0,0,0,0,a,0,a,0,0,0,0,0,0,0
0,0,0,0,0,0,a,0,a,0,0,0,0,0,0,0
0,0,0,0,0,0,a,0,a,0,0,0,0,0,0,0
ITM 3 9,7
EXT 0,7 1 14,7
EXT 7,15 2 7,1
PAL 0

ROOM 4
0,0,0,0,0,0,a,0,a,0,0,0,0,0,0,0
0,0,0,0,0,0,a,0,a,0,0,0,0,0,0,0
0,0,0,0,0,0,a,0,a,0,0,0,0,0,0,0
0,0,0,0,0,0,a,0,a,0,0,0,0,0,0,0
0,0,0,0,a,a,a,b,a,a,a,a,0,0,0,0
0,0,0,0,a,c,0,d,0,c,c,a,0,0,0,0
0,0,0,0,a,0,0,0,0,0,0,a,a,a,a,a
0,0,0,0,a,0,0,0,0,0,d,b,0,0,0,0
0,0,0,0,a,0,0,0,0,0,0,a,a,a,a,a
0,0,0,0,a,c,0,d,0,c,c,a,0,0,0,0
0,0,0,0,a,a,a,b,a,a,a,a,0,0,0,0
0,0,0,0,0,0,a,0,a,0,0,0,0,0,0,0
0,0,0,0,0,0,a,0,a,0,0,0,0,0,0,0
0,0,0,0,0,0,a,0,a,0,0,0,0,0,0,0
0,0,0,0,0,0,a,0,a,0,0,0,0,0,0,0
0,0,0,0,0,0,a,0,a,0,0,0,0,0,0,0
EXT 7,0 2 7,14
EXT 15,7 5 1,7
EXT 7,15 6 7,1
PAL 0

ROOM 5
0,0,0,0,0,0,0,0,a,0,0,0,k,m,0,m
0,0,0,0,0,0,0,0,a,0,n,0,k,m,0,m
0,0,0,0,0,0,0,0,a,0,n,0,k,m,0,m
0,0,0,0,0,0,0,0,a,0,n,0,k,m,0,m
0,0,0,0,a,a,a,a,a,0,n,0,k,m,0,m
0,0,0,0,a,c,c,c,a,0,n,0,k,m,0,m
a,a,a,a,a,0,0,0,a,0,0,0,k,m,0,m
0,0,0,0,b,d,0,d,b,j,j,j,k,m,0,m
a,a,a,a,a,0,0,0,a,0,0,0,k,m,0,m
0,0,0,0,a,c,c,c,a,0,n,0,k,m,0,m
0,0,0,0,a,a,a,a,a,0,n,0,k,m,0,m
0,0,0,0,0,0,0,0,a,0,n,0,k,m,0,m
0,0,0,0,0,0,0,0,a,0,n,0,k,m,0,m
0,0,0,0,0,0,0,0,a,0,n,0,k,m,0,m
0,0,0,0,0,0,0,0,a,0,n,0,k,m,0,m
0,0,0,0,0,0,0,0,a,0,0,0,k,m,0,m
ITM 4 11,8
EXT 0,7 4 14,7
PAL 0

ROOM 6
0,0,0,0,0,0,a,0,a,0,0,0,0,0,0,0
0,0,0,0,0,0,a,0,a,0,0,0,0,0,0,0
0,0,0,0,0,0,a,0,a,0,0,0,0,0,0,0
0,0,0,0,0,0,a,0,a,0,0,0,0,0,0,0
0,0,0,0,a,a,a,b,a,a,a,a,0,0,0,0
0,0,0,0,a,c,0,d,0,0,c,a,0,0,0,0
0,0,0,0,a,0,h,0,0,0,0,a,0,0,0,0
0,0,0,0,a,0,i,0,f,e,g,a,0,0,0,0
0,0,0,0,a,0,0,0,0,0,0,a,0,0,0,0
0,0,0,0,a,c,0,0,0,0,c,a,0,0,0,0
0,0,0,0,a,a,a,a,a,a,a,a,0,0,0,0
0,0,0,0,0,0,0,0,0,0,0,0,0,0,0,0
0,0,0,0,0,0,0,0,0,0,0,0,0,0,0,0
0,0,0,0,0,0,0,0,0,0,0,0,0,0,0,0
0,0,0,0,0,0,0,0,0,0,0,0,0,0,0,0
0,0,0,0,0,0,0,0,0,0,0,0,0,0,0,0
ITM 5 7,8
ITM 6 9,9
EXT 7,0 7 7,14
PAL 0

ROOM 7
0,0,0,0,0,0,0,0,0,0,0,0,0,0,0,0
0,0,0,0,0,0,0,0,0,0,0,0,0,0,0,0
0,0,0,0,0,0,0,0,0,0,0,0,0,0,0,0
0,0,0,0,0,0,0,0,0,0,0,0,0,0,0,0
0,0,0,0,a,a,a,a,a,a,a,a,0,0,0,0
0,0,0,0,a,0,0,0,0,0,0,a,0,0,0,0
0,0,0,0,a,0,0,0,0,0,0,a,0,0,0,0
0,0,0,0,a,0,0,0,0,0,0,a,0,0,0,0
0,0,0,0,a,0,0,0,0,0,0,a,0,0,0,0
0,0,0,0,a,0,0,d,0,0,0,a,0,0,0,0
0,0,0,0,a,a,a,b,a,a,a,a,0,0,0,0
0,0,0,0,0,0,a,0,a,0,0,0,0,0,0,0
0,0,0,0,0,0,a,0,a,0,0,0,0,0,0,0
0,0,0,0,0,0,a,0,a,0,0,0,0,0,0,0
0,0,0,0,0,0,a,0,a,0,0,0,0,0,0,0
0,0,0,0,0,0,a,0,a,0,0,0,0,0,0,0
EXT 7,15 6 7,1
END 0 6,9
END 1 6,5
PAL 0

TIL a
00000100
00000100
00000100
11111111
00100000
00100000
00100000
11111111
NAME wall
WAL true

TIL b
01111110
10000001
10000001
10110001
10100001
10000001
10000001
11111111
NAME door

TIL c
01111110
01000010
01000010
01011010
01000010
01011010
01000010
01111110
NAME closet
WAL true

TIL d
00000000
01111110
01000010
01000010
01000010
01000010
01111110
00000000
NAME carpet

TIL e
00000000
11111111
10000001
10000001
10000001
11111111
01000010
00000000
NAME table
WAL true

TIL f
00000000
01000000
01000000
01111110
01111110
01111110
01111110
01000010
NAME chair l
WAL true

TIL g
00000000
00000010
00000010
01111110
01111110
01111110
01111110
01000010
NAME chair r
WAL true

TIL h
01000010
00100100
11111111
10000001
10111101
10111101
10000001
11111111
NAME tv
WAL true

TIL i
00000000
00000000
00000000
01100110
01111110
01111110
01111110
01111110
NAME sofa
WAL true

TIL j
00000000
11111111
01000000
00000100
00000000
00100010
11111111
00000000
NAME road

TIL k
10000000
10000000
10000000
10000000
10000000
10000000
10000000
10000000
NAME car road l
WAL true

TIL l
00000001
00000001
00000001
00000001
00000001
00000001
00000001
00000001
NAME car road r

TIL m
00000000
00000000
00011000
00011000
00011000
00011000
00000000
00000000
NAME car road mid

TIL n
00001000
00001000
00001000
00011000
00011000
00011000
00011000
00011000
NAME fence
WAL true

TIL o
01010110
01101010
01010110
01101010
01010110
01101010
01111110
01000010
NAME bed d

TIL p
00000000
00000000
01000010
01111110
01000010
01000010
01000010
01111110

SPR A
00111100
00101000
00111100
01111000
01111000
00111000
00101000
00001000
>
00111100
00101000
00111100
01111000
01111000
00111000
00101000
00100000
POS 1 6,6

SPR a
01010110
01101010
01010110
01101010
01010110
01101010
01111110
01000010
NAME bed d
DLG SPR_0
POS 7 5,6

SPR b
00000000
00000000
01000010
01111110
01000010
01000010
01000010
01111110
NAME bed u
DLG SPR_1
POS 7 5,5

SPR c
01000010
00100100
11111111
10000001
10111101
10111101
10000001
11111111
NAME tv
DLG SPR_2
POS 7 9,5

SPR d
00000000
00000000
01100110
01111110
01111110
01111110
01111110
01111110
NAME sofa
DLG SPR_3
POS 7 9,6

SPR e
00000000
11111111
10000001
10000001
10000001
11111111
01000010
00000000
NAME table
DLG SPR_4
POS 7 9,9

SPR f
00000000
01000000
01000000
01111110
01111110
01111110
01111110
01000010
NAME chair l
POS 7 8,9

SPR g
00000000
00000010
00000010
01111110
01111110
01111110
01111110
01000010
NAME chair r
POS 7 10,9

SPR h
01111110
01000010
01000010
01011010
01000010
01011010
01000010
01111110
NAME closet
DLG SPR_5
POS 7 5,9

ITM 0
00000000
00000000
00011000
11011011
11000011
00000000
00000000
00000000
>
00000000
00000000
11000011
11011011
00011000
00000000
00000000
00000000
NAME d pants
DLG ITM_0

ITM 1
00000000
00000000
00011000
11011011
11000011
00000000
00000000
00000000
>
00000000
00000000
11000011
11011011
00011000
00000000
00000000
00000000
NAME d find
DLG ITM_1

ITM 2
00000000
00000000
00011000
11011011
11000011
00000000
00000000
00000000
>
00000000
00000000
11000011
11011011
00011000
00000000
00000000
00000000
NAME d big
DLG ITM_2

ITM 3
00000000
00000000
00011000
11011011
11000011
00000000
00000000
00000000
>
00000000
00000000
11000011
11011011
00011000
00000000
00000000
00000000
NAME d many
DLG ITM_3

ITM 4
00000000
00000000
00011000
11011011
11000011
00000000
00000000
00000000
>
00000000
00000000
11000011
11011011
00011000
00000000
00000000
00000000
NAME d road
DLG ITM_4

ITM 5
00000000
00000000
00011000
11011011
11000011
00000000
00000000
00000000
>
00000000
00000000
11000011
11011011
00011000
00000000
00000000
00000000
NAME d finally
DLG ITM_5

ITM 6
00000000
00000000
00111100
00111100
00100100
00100100
00000000
00000000
NAME pants
DLG ITM_6

DLG ITM_0
"""
Wait, ...

...

{shk}.....................{shk}

{shk}WHERE IS MY PANTS?????{shk}
"""

DLG SPR_0
It's my bed.

DLG SPR_1
I don't want to rest now.

DLG SPR_2
It's my TV.

DLG SPR_3
It's not time to watch TV.

DLG SPR_4
There's nothing to eat.

DLG SPR_5
Just clothes.

DLG ITM_1
I need to find them!

DLG ITM_2
I haven't ever realized my home so big...

DLG ITM_3
So many closets and no any pants??!

DLG ITM_4
"""
There are no cars on the road...

I need to continue searching.
"""

DLG ITM_5
{shk}Finally!!!{shk}

DLG ITM_6
"""
{wvy}Yeah!!!{wvy} I found my {rbw}pants{rbw}!!!
Now I should put them into my closet!
"""

END 0
You put your pants in the closet and never lose it.

END 1
You forget about closet and sleep in pants.

END 2


VAR a
42


