"WELCOME HOME"

# BITSY VERSION 2.1

! ROOM_FORMAT 1

PAL 0
204,94,103
255,251,255
0,0,0

ROOM 0
0,0,a,0,0,0,b,e,a,0,0,0,0,b,0,0
0,0,a,0,i,0,b,e,a,0,0,0,h,b,n,0
n,0,a,0,h,0,b,e,a,0,0,0,i,b,0,0
0,0,a,0,0,0,b,e,a,0,i,0,0,b,0,0
n,n,a,0,0,0,l,j,k,l,0,0,h,b,n,n
0,0,a,0,0,0,0,b,e,a,0,0,0,b,0,0
0,0,a,0,0,0,0,b,e,a,0,0,0,b,0,0
0,0,a,h,0,i,0,b,e,a,0,h,0,b,0,0
0,d,0,0,0,h,0,b,e,a,i,0,i,0,c,0
0,a,0,0,i,0,0,b,e,a,0,0,0,0,b,0
0,a,0,0,0,h,l,f,g,l,0,0,0,0,b,0
0,a,0,i,0,0,b,e,a,0,0,h,0,0,b,0
0,a,0,0,i,0,b,e,a,0,0,i,0,0,b,0
0,a,0,0,h,0,b,e,a,0,0,0,0,0,b,0
0,a,0,0,0,0,b,e,a,0,0,0,h,0,b,0
0,a,0,h,0,0,b,e,a,0,i,0,0,0,b,0
WAL a,b,l,y
EXT 7,0 1 7,15
EXT 7,15 3 7,0

ROOM 1
0,0,n,0,0,l,n,0,0,0,l,0,0,0,n,0
0,0,0,0,0,l,0,0,0,0,x,0,0,0,0,0
0,0,0,0,n,l,0,0,0,0,l,0,0,0,0,0
n,n,n,n,n,x,n,n,n,n,x,n,n,n,n,n
0,0,0,0,0,l,0,0,0,0,l,0,0,0,0,0
0,0,0,0,0,l,0,0,0,0,l,0,0,0,0,0
0,0,0,l,l,l,0,0,0,0,l,l,l,l,0,0
0,0,l,s,u,u,u,u,u,u,u,u,t,l,0,0
0,l,p,0,0,0,0,0,0,0,0,0,0,m,l,0
0,l,a,0,0,0,0,0,0,0,0,0,0,b,l,0
0,l,v,0,0,0,0,0,0,0,0,0,0,w,l,0
0,l,a,j,o,o,o,0,o,o,o,o,g,b,l,0
0,l,a,l,l,l,b,e,a,l,l,l,l,b,l,0
0,l,a,0,0,0,b,e,a,0,0,0,0,b,l,0
0,l,a,0,0,0,b,e,a,0,0,0,0,b,l,0
0,l,a,0,0,0,b,e,a,0,0,0,0,b,l,0
WAL a,b,l,m,p,w,v,x
EXT 7,15 0 7,0
EXT 6,0 2 6,15
EXT 7,0 2 7,15
EXT 8,0 2 8,15
EXT 9,0 2 9,15

ROOM 2
l,l,l,l,l,l,l,l,l,l,l,l,l,l,l,l
l,n,0,0,0,0,0,0,0,0,0,0,n,0,0,l
l,0,0,0,0,0,0,0,0,0,0,0,0,0,0,l
l,0,0,0,0,0,0,0,0,0,0,0,0,0,0,l
l,0,0,0,0,0,0,0,0,0,0,0,0,0,0,l
l,0,0,n,0,0,0,0,0,0,0,0,0,0,0,l
l,0,0,0,0,0,0,0,0,0,0,0,0,0,0,l
l,0,0,0,0,0,0,0,0,0,0,0,0,0,0,l
l,0,0,0,0,0,0,0,0,0,0,0,0,0,0,l
l,0,0,0,0,0,0,0,0,0,0,0,0,0,n,l
l,n,0,0,0,0,0,0,0,0,0,0,0,0,0,l
l,0,0,0,0,0,0,0,0,0,0,0,0,0,0,l
l,0,0,0,0,0,0,0,0,0,0,0,0,0,0,l
l,0,0,n,0,0,0,0,0,0,n,0,0,n,0,l
l,0,0,0,0,0,0,0,0,0,0,0,0,0,0,l
l,l,l,l,l,l,0,0,0,0,l,l,l,l,l,l
WAL l
EXT 6,15 1 6,0
EXT 7,15 1 7,0
EXT 8,15 1 8,0
EXT 9,15 1 9,0

ROOM 3
0,a,0,0,0,0,b,e,a,0,0,0,0,0,b,0
0,a,0,0,0,0,b,e,11,10,l,l,0,0,b,0
0,a,0,0,0,0,l,j,z,z,k,l,0,0,b,0
0,a,0,0,0,0,l,l,13,b,e,a,0,0,0,c
d,0,0,0,i,0,0,0,0,b,e,a,0,0,0,b
a,0,i,0,0,0,0,0,0,b,e,a,0,i,0,b
a,0,l,l,10,l,10,11,10,b,e,a,0,0,0,b
a,0,l,f,z,z,z,z,z,z,g,l,0,0,0,b
a,0,b,e,a,13,l,13,l,14,l,l,0,0,0,b
a,0,b,e,a,0,i,0,0,0,0,0,0,0,0,b
a,l,f,g,l,0,0,0,0,i,0,0,i,0,0,b
a,12,e,a,0,0,0,0,0,h,0,0,0,0,0,b
a,12,e,a,0,0,h,0,0,0,0,0,0,0,0,b
a,12,e,a,0,0,h,0,0,0,0,h,0,0,0,b
a,12,e,a,0,0,0,0,0,0,0,0,0,0,0,b
a,12,y,a,0,0,0,0,0,0,0,0,0,0,0,b
WAL y,12,b,a,11,10,l,13,14
EXT 7,0 0 7,15

TIL 10
00000000
01010000
01010100
00010001
00010000
00000000
11100010
10010111

TIL 11
00000000
00100100
00100000
00100000
00000110
00001001
00001001
01010001

TIL 12
00000001
00000001
00000010
00000011
00000001
00000001
00010010
00000001

TIL 13
11001110
00100100
00000100
00100000
00100001
00001000
10001000
00000000

TIL 14
11110110
00110010
00010000
01010000
01000000
01000000
00000010
00000000

TIL a
10000000
10001000
01000000
11000000
10000010
10000000
01001000
10000000

TIL b
00000001
00010001
00000010
00000011
01000001
00000001
00010010
00000001

TIL c
01000000
00111000
10000100
00000100
01001111
00000001
00010001
10000001

TIL d
00000010
00011100
00100001
00100000
11110010
10000000
10001000
10000000

TIL e
11111111
10000001
11111111
10000001
11111111
10000001
11111111
10000001

TIL f
01000011
00011100
00100100
10111000
00100000
01000000
10000001
10000000

TIL g
00000001
00001001
00000001
00000001
01001001
00000010
00001100
01110000

TIL h
00000000
01000000
01001010
01001000
00001000
00001000
00101000
00000000

TIL i
00000010
00100010
00000010
01001010
00010000
00010000
00010010
00000100

TIL j
10000000
10010000
10000010
10000000
01001000
01000000
00110000
00001110

TIL k
11000000
00110000
00001000
10000110
00010101
00000011
00000001
00010001

TIL l
00000000
00000000
00000000
00000000
00000000
00000000
00000000
00000000

TIL m
11100000
00010000
00001100
00000110
00010010
00000011
00001001
00000001

TIL n
00000000
00000000
01001000
10110010
00000001
00001000
10010100
01100011

TIL o
00000000
01000000
00000001
00000000
00100000
00000000
00110011
11001111

TIL p
00000011
00001100
00110000
01100000
01000100
11000000
10001000
10000000

TIL q
01000000
01000000
01001000
01001000
10001010
10000000
10010000
10000000

TIL r
00000010
00101010
00101010
00100010
00100001
10001001
00000001
00000001

TIL s
00000000
00000000
00000011
00001100
00010000
00100000
01000000
10000000

TIL t
00000000
00000000
11000000
00110000
00001000
00000100
00000010
00000001

TIL u
00000000
11111111
00000000
00000000
00000000
00000000
00000000
00000000

TIL v
10000000
10001001
01000000
11000001
10000011
10000001
01001001
10000001

TIL w
00000001
10010001
10000010
00000011
11000001
10000001
10010010
10000001

TIL x
00000000
00000000
01001000
10110010
00000001
00001000
10010100
01100011

TIL y
11111111
10000001
11111111
10000001
11111111
10000001
11111111
10000001

TIL z
11101101
00110010
00000000
00001000
00000010
01000000
00000110
11111001

SPR 10
00000000
01010011
01110100
01110111
00001111
11101111
00011000
00000000
>
00000000
01010011
01110100
01110111
00001111
00001111
01110000
10000000
POS 1 10,5

SPR 11
00001000
11001000
00001000
11110000
10000010
11000100
00111000
00000000
>
00000000
11000000
00000010
11100100
10011000
10000100
01001000
00110000
POS 1 11,5

SPR A
00011000
00011000
00111100
01111110
10111101
10111101
00100100
00100100
POS 3 2,14

SPR a
00011101
00011101
00111100
01100100
01000100
01000100
11000100
00000110
POS 1 5,9

SPR b
00010100
00011100
00011100
10011100
10111110
10111101
01011101
00011101
>
00010100
00011100
10011100
10011100
10111110
01111101
00011101
00011101
POS 1 5,8

SPR c
00110000
11110000
00111000
00111100
00011100
00001010
00011000
00000000
POS 0 4,5

SPR d
00001100
00001111
00011100
00111100
11111000
00100000
00110000
00000000
POS 0 11,9

SPR e
01100000
10010100
10011100
01011100
00111000
00111100
00111010
00111001
>
01100000
10010100
10011100
01011100
00111001
00111101
00111010
00111000
POS 1 10,8

SPR f
00111001
00111100
01000010
01000001
00100110
00010100
00010000
00000000
>
00111000
00111100
01000010
01000001
00100110
00010100
00010000
00000000
POS 1 10,9

SPR g
00000111
00001111
00011100
00110000
01100000
01100000
00111100
00000100
POS 2 7,7

SPR h
11100000
11110000
00111000
00001100
00000110
00000110
00111100
00100000
POS 2 8,7

SPR i
10000000
11111000
11111100
11100110
00100010
11100010
11001100
11001100
>
10000000
10000000
11111100
11111110
00100010
11100010
11000110
11000110
POS 2 8,6

SPR j
11000001
11000001
10001111
01011111
00110100
00000111
00000011
00000011
>
01100001
01101111
01011111
01010111
00110100
00000111
00000011
00000011
POS 2 7,6

SPR k
00000000
00000000
00000000
00000000
10000000
11000000
01000000
11000000
POS 2 8,5

SPR l
00000000
00000000
00000000
00000000
00000001
00000011
00000010
00000011
POS 2 7,5

SPR m
00001100
00001110
01101000
11111111
00111110
00011000
00100000
00000000
POS 2 12,5

SPR n
00110000
01110000
00010111
11111110
01111100
00001110
00000000
00000000
POS 2 4,3

SPR o
00000000
00000110
00011110
00111000
00111110
11110000
10001000
00010000
>
00000000
00000110
00011110
00111000
11111100
10110010
00010000
00100000
POS 2 3,10

SPR p
00000000
00000000
00110000
00111000
00001100
00001100
00010100
00000000
>
00000000
00110000
00111000
00001100
00001100
00010100
00000000
00000000
POS 2 12,8

SPR q
00000000
01100000
11100000
00111000
00111100
00011111
00001000
00011000
POS 3 13,12

SPR r
00000000
00001100
00001111
00011000
00111000
00111000
11110000
00010000
POS 3 3,1

SPR s
01101110
00111100
00011100
00011100
00011000
11011011
00111100
01001010
POS 3 13,8

SPR t
00000001
00000011
00000110
10000100
11000111
11001100
11001100
01101111
POS 3 13,7

SPR u
00100000
01110000
00001111
00000011
00000100
00011000
00000000
00000000
POS 3 12,7

SPR v
10000000
00000000
00001100
11110000
00000000
00000000
00100000
11000000
POS 3 14,7

SPR w
00000000
00000100
01000000
00000000
00000000
00110111
00001010
00001000
POS 3 12,8

SPR x
00000000
01000100
00000000
00010000
00000000
11101110
00010100
00000100
POS 3 14,8

SPR y
00000000
00000000
00001100
00001111
00000100
00001100
00111100
11111000
POS 3 12,6

SPR z
10001100
11001111
01111100
01111111
00111100
01110000
10000000
00000000
POS 2 11,11

DLG 10
Your brother's silver crown is tarnished and dented. He won't look you in the eyes.

DLG a
"Ho, brother. Our father awaits."

DLG b
"It's been a long time, brother. I'm glad to see you yet live."

DLG f
"After everything, you dare to return home...? I'll be honest. I'm impressed."

DLG e
"Our father wishes to speak with you, brother."

DLG o
Your newest brother spins idly by. His eyes are still skinned over, but you can see the natal pupils roving beneath, like tadpoles.

DLG p
A fetal sibling coalesces in a nest of cloud.

DLG n
CAAW.

DLG m
CAW!

DLG k
"MY DUTY IS NEVERENDING," your father says. His wrinkled head inclines toward the earth, seeking eyelessly for all those mundane mortal wants and pains. This is the burden you've chosen freedom from.

DLG l
"MY SIGHT IS PURE," your father says. The eyeless, mindless husk of his head bobs in the breeze and shares consciousness with the clouds.

DLG g
"YOU'VE RETURNED... DESPITE THE CURSES OF YOUR UNCLES AND YOUR BROTHERS. WE CAN NO LONGER SAY YOU HAVE NO COURAGE."

DLG h
"WHEN I LAST LOOKED INTO YOUR HEART, I KNEW YOU COULD NOT STAY FOREVER WITH BOTH YOUR FEET ON THE HUMBLE EARTH. YOU ARE BORN FOR GREATER THINGS." The air thrums with love, or pride-- or naked smugness, perhaps.

DLG i
"WHAT LURE OR PLEASURE KEEPS YOU WALKING LEADEN ON THE EARTH? IF THERE IS SOME MORTAL FRIVOLITY YOU CANNOT LIVE WITHOUT... I CAN PROVIDE IT," your father says. Pshh. You've heard this promise before.

DLG j
You can hear his hesitation. "...WE TRAIN OUR THOUGHTS ON YOU, FROM TIME TO TIME," he says. "YOU MIGHT HAVE FELT THE PRESSURE OF OUR MINDS." As you suspected. You smile wryly.

DLG z
CAW! CAW!

