
Last Memories

# BITSY VERSION 4.6

! ROOM_FORMAT 1

PAL 0
0,82,204
128,159,255
255,255,255

PAL 1
NAME vault_palette
1,82,97
135,255,137
255,253,167

PAL 2
NAME bank_palette
180,146,102
133,59,55
255,255,255

PAL 3
NAME house_palette
212,162,111
254,204,178
255,213,214

PAL 4
NAME secret_palette
0,0,0
255,255,255
255,140,221

ROOM 0
c,a,a,a,17,a,a,a,a,a,a,a,a,a,a,d
b,0,0,0,0,15,0,0,0,0,0,0,0,0,0,b
b,0,0,0,0,15,0,0,0,0,0,0,0,0,0,b
b,0,0,0,0,15,0,0,0,14,14,14,14,14,14,b
b,0,0,0,0,15,0,0,15,0,0,0,0,0,0,b
b,0,0,0,16,16,0,0,15,0,0,0,0,0,0,b
b,0,0,0,0,0,0,0,15,0,0,0,0,0,0,b
b,0,0,0,0,0,0,0,15,0,0,10,11,0,0,b
b,0,0,0,0,0,0,0,15,0,0,13,12,0,0,b
b,0,0,0,0,0,0,0,15,0,0,0,0,0,0,b
b,0,0,0,0,0,0,0,15,0,0,0,0,0,0,b
b,0,0,0,0,0,0,0,0,0,0,0,0,0,0,b
b,0,0,0,0,0,0,0,0,0,0,0,0,0,0,b
b,0,0,0,0,0,0,0,0,0,0,0,0,0,0,b
b,0,0,0,0,0,0,0,0,0,0,0,0,0,0,b
e,a,a,a,a,a,a,g,a,a,a,a,a,a,a,f
NAME room_start
EXT 4,0 3 4,14
PAL 3

ROOM 1
c,a,a,a,a,a,a,a,a,a,n,o,q,a,a,d
b,0,0,0,0,0,0,0,0,0,0,r,p,0,0,b
b,0,0,l,0,0,0,0,0,0,0,0,0,0,0,b
b,0,0,l,0,0,0,0,0,0,0,0,0,0,0,b
b,0,0,l,0,0,0,0,0,0,0,0,0,0,0,b
b,0,0,l,0,0,0,0,0,0,0,0,0,0,0,b
b,0,0,l,0,0,0,0,0,0,j,0,0,0,0,b
b,0,0,l,0,0,0,0,0,0,0,0,0,0,0,b
m,k,k,k,0,0,j,0,j,0,j,0,j,j,0,b
b,0,0,0,0,0,0,0,0,0,0,0,0,0,0,b
b,0,0,0,0,0,j,0,j,0,j,0,j,0,0,b
b,0,0,0,0,0,0,0,0,0,0,0,0,0,0,b
b,0,0,0,0,0,0,0,0,0,0,0,0,0,0,b
b,0,0,0,0,0,0,0,0,0,0,0,0,0,0,b
b,0,0,0,0,0,o,0,0,0,0,0,0,0,0,b
e,a,a,a,h,i,a,h,i,a,h,i,a,a,a,f
NAME room_bank
EXT 11,0 2 8,14
PAL 2

ROOM 2
c,s,t,u,s,t,u,s,t,u,s,t,u,s,t,d
b,0,0,0,0,0,0,0,0,0,0,0,0,0,0,b
b,0,0,w,0,0,w,0,0,w,0,0,w,0,0,b
b,0,0,w,0,0,w,0,0,v,0,0,w,0,0,b
b,0,0,w,0,0,w,0,0,0,0,0,w,0,0,b
b,0,0,w,0,0,w,0,0,w,0,0,w,0,0,b
b,0,0,w,0,0,w,0,0,w,0,0,w,0,0,b
b,0,0,v,0,0,v,0,0,v,0,0,v,0,0,b
b,0,0,0,0,0,0,0,0,0,0,0,0,0,0,b
b,0,0,0,0,0,0,0,0,0,0,0,0,0,0,b
b,0,0,0,0,0,0,0,0,0,0,0,0,0,0,b
b,0,0,x,y,z,x,y,z,x,y,z,y,0,0,b
b,0,0,0,0,0,0,0,0,0,0,0,0,0,0,b
b,0,0,0,0,0,0,0,0,0,0,0,0,0,0,b
b,0,0,0,0,0,0,0,0,0,0,0,0,0,0,b
e,a,a,a,a,a,a,n,0,a,a,a,a,a,a,f
NAME room_vault
ITM 0 4,2
ITM 0 4,3
ITM 0 4,5
ITM 0 4,6
ITM 0 4,7
ITM 0 7,5
ITM 0 7,7
ITM 0 10,2
ITM 0 10,4
ITM 0 10,5
ITM 0 10,6
ITM 0 10,7
ITM 0 13,2
ITM 0 13,4
ITM 0 13,7
ITM 0 2,2
ITM 0 2,4
ITM 0 2,6
ITM 0 2,7
ITM 0 7,2
ITM 0 3,10
ITM 0 4,10
ITM 0 9,10
ITM 0 12,10
ITM 0 6,10
EXT 8,15 3 2,4
PAL 1

ROOM 3
c,a,a,a,a,a,d,0,0,0,0,0,0,0,0,0
b,0,0,0,0,0,b,0,0,0,0,0,0,0,0,0
b,0,0,0,0,0,b,0,0,0,0,0,0,0,0,0
b,0,0,0,0,0,b,0,0,0,0,0,0,0,0,0
b,18,0,0,0,0,b,0,0,0,0,0,0,0,0,0
b,0,0,0,0,0,b,0,0,0,0,0,0,0,0,0
b,0,0,0,0,0,b,0,0,0,0,0,0,0,0,0
b,0,0,0,0,0,b,0,0,0,0,0,0,0,0,0
b,0,0,0,0,0,b,0,0,0,0,0,0,0,0,0
b,0,0,0,0,0,b,0,0,0,0,0,0,0,0,0
b,0,0,0,0,0,b,0,0,0,0,0,0,0,0,0
b,0,0,0,0,0,b,0,0,0,0,0,0,0,0,0
b,0,0,0,0,0,b,0,0,0,0,0,0,0,0,0
b,0,0,0,0,0,b,0,0,0,0,0,0,0,0,0
b,0,0,0,0,0,b,0,0,0,0,0,0,0,0,0
e,a,a,a,17,a,f,0,0,0,0,0,0,0,0,0
NAME secret_room
EXT 4,15 0 4,1
EXT 1,4 1 9,14
PAL 4

TIL 10
01010101
11111111
01000000
11001000
01010000
11000000
01000001
11000010
NAME rugtl

TIL 11
01010101
11111110
00000011
00010010
00001011
00000010
10000011
01000010
NAME rugtr

TIL 12
01000011
10000010
00000011
00001010
00010011
00000010
11111111
10101010
NAME rugbr

TIL 13
01000010
11000001
01000000
11010000
01001000
11000000
01111111
10101010
NAME rugbl

TIL 14
00000000
00000000
00000000
00000000
00000000
00000000
00000000
11111111
NAME inner_wall
WAL true

TIL 15
00000001
00000001
00000001
00000001
00000001
00000001
00000001
00000001
NAME inner_wall_v
WAL true

TIL 16
11111111
00000000
00000000
00000000
00000000
00000000
00000000
00000000
NAME interna;_wall_2
WAL true

TIL 17
11111111
01000100
01000100
01000100
01001100
01000100
01000100
11000111
NAME hidden_door
WAL false

TIL 18
00000000
00000000
00100100
00010000
00001000
00100000
00000000
00000000
NAME teleporter

TIL a
11111111
00000000
00000000
11111111
11111111
00000000
00000000
11111111
NAME r1_outer_wall_h
WAL true

TIL b
10011010
10011010
10011010
10011010
10011010
10011010
10011010
10011010
NAME r1_outer_wall_v
WAL true

TIL c
00000000
00000000
00000000
00001111
00011111
00011000
00011000
00011000
NAME r1_outer_wall_tl
WAL true

TIL d
00000000
00000000
00000000
11110000
11111000
00011000
00011000
00011000
NAME r1_outer_wall_tr
WAL true

TIL e
00011000
00011000
00011000
00011111
00001111
00000000
00000000
00000000
NAME r1_outer_wall_bl
WAL true

TIL f
00011000
00011000
00011000
11111000
11110000
00000000
00000000
00000000
NAME r1_outer_wall_br
WAL true

TIL g
01111110
01000010
01000010
11000011
11000111
01000010
01000010
01111110
NAME door_h
WAL true

TIL h
01111111
01000001
01000001
01000011
01111111
01000001
01000001
01111111
NAME bank_door1
WAL true

TIL i
11111110
10000010
10000010
11000010
11111110
10000010
10000010
11111110
NAME bank_door2
WAL true

TIL j
00000000
00000000
00110000
00110000
11111111
11111111
11111111
10000001
NAME bank_desk
WAL true

TIL k
11111111
10000001
10000001
10001101
10001101
11111111
11111111
11111111
NAME bank_teller_wall_h
WAL true

TIL l
00000001
00000111
00000111
00000111
00000111
00000111
00000111
00000111
NAME bank_teller_wall_h
WAL true

TIL m
00011111
00011111
00011111
00011111
00011111
00011111
00011111
00011111
NAME bank_teller_wall_c
WAL true

TIL n
11111111
11000000
11000010
10000001
10000001
11000010
11000000
11111111
NAME bank_vault_door_1
WAL true

TIL o
00000000
00000000
00000000
00000000
00000001
00000001
00000001
00000001
NAME bank_vault_door_2
WAL false

TIL p
00010000
00001000
10011000
01011000
00101000
00011000
00000000
00000000
NAME bank_vault_door_2b
WAL true

TIL q
00000000
00000000
00000000
11111111
11111111
10000000
01000000
00100000
NAME bank_vault_door_1b
WAL true

TIL r
00000001
00000001
00000000
00000000
00000000
00000000
00000000
00000000
NAME bank_vault_door_2d
WAL false

TIL s
10010010
11111111
10010010
11111111
10010010
11111111
10010010
11111111
NAME vault_wall
WAL true

TIL t
01001001
11111111
01001001
11111111
01001001
11111111
01001001
11111111
NAME vault_wall2
WAL true

TIL u
00100100
11111111
00100100
11111111
00100100
11111111
00100100
11111111
NAME vault_wall3
WAL true

TIL v
00111100
00100100
00111100
00100100
00111100
00100100
00111100
00100100
NAME vault_stack
WAL true

TIL w
00111100
00111100
00111100
00111100
00111100
00111100
00111100
00111100
NAME vault_stack2
WAL true

TIL x
00000000
00000000
11111111
10010010
11111111
10010010
11111111
10010010
NAME vault_stack_h
WAL true

TIL y
00000000
00000000
11111111
01001001
11111111
01001001
11111111
01001001
NAME vault_stack_h2
WAL true

TIL z
00000000
00000000
11111111
00100100
11111111
00100100
11111111
00100100
NAME vault_stack_h3
WAL true

SPR 10
00000000
00001100
00001100
00001000
00011000
00011000
00111100
00100100
NAME urdad
DLG SPR_q
POS 0 6,13

SPR 11
00000000
00000000
00111000
00111000
00111000
00111000
00000000
00000000
DLG SPR_s
POS 3 5,9

SPR 12
00000000
00000000
00111000
00111000
00111000
00111000
00000000
00000000
DLG SPR_t
POS 3 1,9

SPR 13
00000000
00000000
00111000
00101000
00111000
00011000
00000000
00000000
DLG SPR_u
POS 3 1,11

SPR 14
00000000
00000000
00000000
00101000
00111000
00010000
00000000
00000000
DLG SPR_r
POS 3 5,11

SPR A
00000000
00011000
00111000
00010000
00111000
00010000
00111000
00100100
POS 0 7,14

SPR a
00000000
00100000
00100000
00100000
00111000
00100100
00100100
00000000
NAME Chair
DLG SPR_0
POS 0 10,8

SPR b
00001100
00001110
00000000
11001100
00101100
00001100
00001100
00010010
NAME bank_rob
DLG SPR_f
POS 1 5,1

SPR c
00001100
00001110
00000000
00001100
00111100
01101100
00001100
00010010
NAME bank_rob2
DLG SPR_g
POS 1 6,14

SPR d
00001100
00011100
00000000
00001101
00001110
00001100
00001100
00010010
NAME bank_rob3
DLG SPR_h
POS 1 9,11

SPR e
00000000
00000000
01100000
01100000
01010000
01100000
01110000
01111000
NAME bank_hos
DLG SPR_i
POS 1 1,2

SPR f
00000000
00000000
01100000
01100000
01010000
01100000
01110000
01111000
NAME bank_hos2
DLG SPR_j
POS 1 1,3

SPR g
11000000
11000000
10000000
11000000
11000000
11100000
01100000
10010000
NAME bank_hos3
DLG SPR_k
POS 1 1,4

SPR h
00000000
00100000
00100000
00100000
00111000
00100100
00100100
00000000
NAME chair 2
DLG SPR_l
POS 0 1,3

SPR i
00000000
00000000
00111111
01111111
01111111
10100000
01111111
01111111
NAME couch1
DLG SPR_1
POS 0 11,6

SPR j
00000000
00000000
11111100
11111110
11111110
00000101
11111110
11111110
NAME couch2
DLG SPR_2
POS 0 12,6

SPR k
00000000
01111111
01000000
01000000
01111111
01000000
01000000
01111111
NAME bookcase
DLG SPR_3
POS 0 13,4

SPR l
00000000
11111111
00000001
00000001
11111111
00000001
00000001
11111111
NAME bookcase2
DLG SPR_4
POS 0 14,4

SPR m
00000000
00000000
01111110
01000010
01000010
01111110
00100100
00000000
NAME tv
DLG SPR_5
POS 0 12,9

SPR n
00000001
00000001
00000001
00000111
00000111
00000111
00000111
00000111
NAME drawer
DLG SPR_a
POS 0 5,1

SPR o
00000000
00000000
00000000
00000000
00000000
01111110
00100100
00100100
NAME coffee_table
DLG SPR_m
POS 0 10,6

SPR p
00000000
00001100
00001000
00101010
11111111
10000001
10000001
11111111
NAME sink
DLG SPR_6
POS 0 11,1

SPR q
01111100
01000100
01000100
01111100
01001100
01000100
01000100
01111100
NAME fridge
DLG SPR_7
POS 0 12,1

SPR r
00100100
00000000
11111111
00000000
00000000
11111111
11111111
11111111
NAME cabinet
DLG SPR_8
POS 0 13,1

SPR s
00100100
00000000
11111111
00000000
00000000
11111111
11111111
11111111
NAME cabinet2
DLG SPR_n
POS 0 14,1

SPR t
00100100
00000000
11111111
00000000
00000000
11111111
11111111
11111111
NAME cabinet3
DLG SPR_o
POS 0 10,1

SPR u
00100100
00000000
11111111
00000000
00000000
11111111
11111111
11111111
NAME cabinet4
DLG SPR_p
POS 0 9,1

SPR v
00000000
10000000
10000000
11111110
11111110
11111110
10000010
00000000
NAME bed
DLG SPR_9
POS 0 1,1

SPR w
00000000
00011100
00010100
00010100
00011100
00000000
00000000
00000000
NAME item_newspaper
DLG SPR_b
POS 3 1,5

SPR x
00000000
00011000
00110000
00010000
00111000
00111000
00111000
00010000
NAME guitar
DLG SPR_c
POS 3 5,5

SPR y
00000000
00000000
00011000
00011000
00011000
00000000
00000000
00000000
NAME note
DLG SPR_d
POS 3 1,7

SPR z
00000000
00000000
00011000
01100100
00100100
01100100
00011000
00000000
NAME backpack
DLG SPR_e
POS 3 5,7

ITM 0
00011000
00111100
00100000
00111000
00001100
00000100
00111100
00011000
NAME money
DLG ITM_0

DLG SPR_0
A chair

DLG ITM_0
It's cash

DLG SPR_1
It's a sofa

DLG SPR_2
You can sit on it

DLG SPR_3
It's a bookcase...

DLG SPR_4
there are a bunch of old books and an encyclopedia set

DLG SPR_5
it's an HDTV connected to standard def cable

DLG SPR_6
It's an empty sink

DLG SPR_7
It's a fridge filled with leftovers

DLG SPR_8
It's a cabinet filled with plates and cups last purchased decades ago

DLG SPR_9
It's a bed that hasn't been used in awhile

DLG SPR_a
It's a drawer filled with old clothes

DLG SPR_b
It's a newspaper that says "Local Bank Robbed by {wvy}TEENS{wvy}"

DLG SPR_c
"""
{sequence
  - It's an old and busted electric guitar
  - (this scenario isn't implemented)
}
"""

DLG SPR_d
"""
{sequence
  - It's a old note with lipstick on it
  - (this scenario isn't implemented)
}
"""

DLG SPR_e
"""
{sequence
  - It's a worn out backpack filled with things
  - (this scenario isn't implemented)
}
"""

DLG SPR_f
"""
{sequence
  - Everyone {shk}STAY DOWN{shk}
  - Go to the {shk}VAULT{shk}
}
"""

DLG SPR_g
Stop wasting time, take the vault!

DLG SPR_h
"""
{sequence
  - {shk}NOBODY MOVE{shk}
  - What are you waiting for?
}
"""

DLG SPR_i
{shk}Please don't hurt me{shk}

DLG SPR_j
{shk}DON'T{shk}

DLG SPR_k
...

DLG SPR_l
A chair for sitting in

DLG SPR_m
A table for putting things on

DLG SPR_n
It's a cabinet containing various spices

DLG SPR_o
A cabinet filled with Christmas themed dinnerware except for one plate which is Halloween themed

DLG SPR_p
It's a cabinet with popcorn machine that was only used once

DLG SPR_q
"""
*long sigh*
We need to go through everything...in your grandparent's house...
We're going to have to sort through all of it... 
and clean it out

Start looking around and see what you can find

"""

DLG SPR_r
"""
{sequence
  - a mysterious object with an unknown past
  - (this scenario isn't implemented)
}
"""

DLG SPR_s
"""
{sequence
  - a mysterious object with an unknown past
  - (this scenario isn't implemented)
}
"""

DLG SPR_t
"""
{sequence
  - a mysterious object with an unknown past
  - (this scenario isn't implemented)
}
"""

DLG SPR_u
"""
{sequence
  - a mysterious object with an unknown past
  - (this scenario isn't implemented)
}
"""

VAR a
42


