
The Dracula Express

# BITSY VERSION 4.5

! ROOM_FORMAT 1

PAL 0
NAME Palette 2
97,88,204
136,169,255
255,255,255

PAL 1
254,214,198
246,132,144
102,92,92

PAL 2
NAME pal3
255,97,122
254,206,112
128,49,77

ROOM 0
l,l,l,0,0,0,0,0,0,0,0,0,0,0,0,0
l,l,0,0,0,0,0,0,0,k,0,0,0,0,0,0
l,o,d,d,d,d,d,d,d,f,g,g,g,g,g,g
l,n,b,b,b,b,b,b,b,e,h,i,h,i,h,i
l,p,c,c,c,c,c,c,c,j,c,c,c,c,c,a
l,0,0,0,0,0,0,0,0,0,0,0,0,0,0,a
l,0,0,0,0,0,0,0,0,0,0,0,0,0,0,a
l,0,0,0,0,0,0,0,0,0,0,0,0,0,0,0
0,0,0,0,0,0,0,0,r,u,0,0,0,0,0,0
l,0,0,0,0,0,0,s,q,t,10,0,0,0,0,a
l,0,0,0,0,0,0,y,0,v,z,0,0,0,0,a
d,d,d,d,d,d,d,x,d,w,z,d,d,d,l,l
b,b,b,b,b,b,b,b,b,b,b,b,b,b,l,l
c,c,c,c,c,c,c,c,c,c,c,c,c,c,l,l
l,0,0,0,0,0,0,0,0,0,0,0,0,0,l,l
l,l,l,l,l,l,l,l,l,l,l,l,l,l,l,l
NAME Room2
ITM 0 8,11
EXT 15,7 2 0,9
EXT 15,8 2 0,10
EXT 0,8 1 15,9
PAL 0

ROOM 1
l,l,l,l,l,l,l,l,l,l,l,l,l,l,l,l
l,0,0,0,0,l,l,l,l,l,l,l,l,l,l,l
l,0,0,0,0,l,l,l,l,l,l,l,l,l,l,l
l,0,0,0,0,l,l,0,0,0,0,0,0,0,l,l
l,0,0,l,l,l,0,0,0,0,0,0,0,0,0,l
l,0,0,l,l,l,0,0,0,0,0,0,0,0,0,l
l,0,0,l,l,l,0,0,0,0,0,0,0,0,0,l
l,0,0,0,0,0,0,0,0,11,11,11,0,0,0,l
l,0,0,0,0,0,0,0,13,12,12,12,14,0,0,0
l,l,l,l,l,l,0,0,0,0,0,0,0,0,15,0
l,l,l,l,l,l,0,0,0,0,0,0,0,0,0,0
l,l,0,0,l,l,l,l,0,l,l,l,l,l,l,l
l,l,0,0,l,l,0,0,0,0,0,0,0,0,l,l
l,l,0,0,0,0,0,0,0,0,0,0,0,0,l,l
l,l,0,0,l,l,0,0,0,0,0,0,0,0,l,l
l,l,l,l,l,l,l,l,l,l,l,l,l,l,l,l
NAME Room1
ITM 3 11,14
ITM 4 3,12
EXT 15,9 0 0,8
EXT 15,8 0 0,8
EXT 15,10 0 0,8
END 0 13,1
PAL 1

ROOM 2
0,0,0,0,0,0,0,0,0,0,0,0,0,0,0,0
0,0,0,0,0,0,0,0,0,0,0,0,0,0,0,0
0,0,0,0,0,0,0,0,0,0,0,0,0,0,0,0
0,0,0,0,0,0,0,0,0,0,0,0,0,0,0,0
0,0,0,0,0,k,0,0,0,0,0,k,0,0,0,0
g,g,g,g,g,g,g,g,g,g,17,g,g,g,g,g
h,h,h,i,h,h,i,h,h,h,16,h,h,h,i,h
c,c,c,c,c,c,c,c,c,c,c,c,c,c,c,c
0,0,0,0,0,0,0,0,0,0,0,0,0,0,l,l
0,0,0,0,0,0,l,l,l,l,l,l,l,0,l,l
0,0,0,0,0,l,l,l,l,l,l,l,l,0,l,l
l,l,l,0,0,l,l,l,l,0,0,l,l,0,l,l
l,l,l,0,0,0,l,l,l,0,0,0,0,0,l,l
l,l,l,0,0,0,0,l,l,0,0,0,0,0,l,l
l,l,l,0,0,0,0,l,l,l,l,l,l,l,l,l
l,l,l,l,l,l,l,l,l,l,l,l,l,l,l,l
NAME Room3
ITM 1 10,13
ITM 2 5,13
EXT 0,9 6 15,7
EXT 0,10 6 15,8
EXT 0,8 6 15,7
PAL 2

ROOM 3
1a,1a,1a,1a,1a,1a,1a,1a,1a,1a,1a,1a,1a,1a,1a,1a
0,0,0,0,0,0,0,0,0,0,0,0,0,0,0,0
1c,1c,1c,1c,1c,1c,1c,1c,1c,1c,1c,1c,1c,1c,1c,1c
1g,1f,0,0,0,1g,1f,1g,1f,1g,1f,1g,1f,1g,1f,0
1e,1d,0,0,0,1e,1d,1e,1d,1e,1d,1e,1d,1e,1d,0
0,0,0,0,0,0,0,0,0,0,0,0,0,0,0,0
0,0,0,0,0,0,0,0,0,0,0,0,0,0,0,0
0,0,0,0,0,0,0,0,0,0,0,0,0,0,0,0
0,1g,1f,0,0,0,0,1g,1f,0,1g,1f,0,1g,1f,0
0,1e,1d,0,0,0,0,1e,1d,0,1e,1d,0,1e,1d,0
1b,1b,1b,1b,1b,1b,1b,1b,1b,1b,1b,1b,1b,1b,1b,1b
0,0,0,0,0,0,0,0,0,0,0,0,0,0,0,0
1a,1a,1a,1a,1a,1a,1a,1a,1a,1a,1a,1a,1a,1a,1a,1a
1a,1a,1a,1a,1a,1a,1a,1a,1a,1a,1a,1a,1a,1a,1a,1a
1a,1a,1a,1a,1a,1a,1a,1a,1a,1a,1a,1a,1a,1a,1a,1a
0,0,0,0,0,0,0,0,0,0,0,0,0,0,0,0
NAME Carriage 1
EXT 0,6 4 15,5
EXT 0,7 4 15,5
EXT 15,6 5 0,6
EXT 15,7 5 0,7
PAL 0

ROOM 4
1a,1a,1a,1a,1a,1a,1a,1a,1a,1a,1a,1a,1a,1a,1a,1a
0,0,0,0,0,0,0,0,0,0,0,0,0,0,0,0
1c,1c,1c,1c,1c,1c,1c,1c,1c,1c,1c,1c,1c,1c,1c,1c
a,0,0,0,a,0,a,0,0,0,a,a,a,a,a,a
a,a,0,0,a,a,a,0,0,0,0,0,0,a,a,a
a,a,0,0,a,a,a,a,a,0,0,0,0,0,0,0
a,0,0,0,0,0,0,0,0,0,0,0,0,0,a,a
a,0,0,0,0,0,0,0,0,0,a,a,0,0,a,a
a,0,0,0,0,a,a,0,0,a,a,a,a,0,a,a
a,0,0,0,a,a,a,0,0,a,a,a,a,0,a,a
1b,1b,1b,1b,1b,1b,1b,1b,1b,1b,1b,1b,1b,1b,1b,1b
0,0,0,0,0,0,0,0,0,0,0,0,0,0,0,0
1a,1a,1a,1a,1a,1a,1a,1a,1a,1a,1a,1a,1a,1a,1a,1a
1a,1a,1a,1a,1a,1a,1a,1a,1a,1a,1a,1a,1a,1a,1a,1a
1a,1a,1a,1a,1a,1a,1a,1a,1a,1a,1a,1a,1a,1a,1a,1a
0,0,0,0,0,0,0,0,0,0,0,0,0,0,0,0
NAME Baggage
ITM 5 2,9
ITM 6 1,3
EXT 15,5 3 0,6
PAL 0

ROOM 5
1a,1a,1a,1a,1a,1a,1a,1a,1a,1a,1a,1a,1a,1a,1a,1a
0,0,0,0,0,0,0,0,0,0,0,0,0,0,0,0
1c,1c,1c,1c,1c,1c,1c,1c,1c,1c,1c,1c,1c,1c,1c,1c
0,0,0,0,0,0,0,0,1h,0,0,0,0,0,1l,0
0,0,0,0,0,0,0,0,1i,1j,1j,1j,1j,1j,1k,0
0,0,0,0,0,0,0,0,0,0,0,0,0,0,0,0
0,0,0,0,0,0,0,0,0,0,0,0,0,0,0,0
0,0,0,0,0,0,0,0,1o,1m,1n,1o,1m,1n,0,0
0,0,0,0,0,0,0,0,0,0,0,0,0,0,0,0
0,0,0,0,0,0,0,0,0,0,0,0,0,0,0,0
1b,1b,1b,1b,1b,1b,1b,1b,1b,1b,1b,1b,1b,1b,1b,1b
0,0,0,0,0,0,0,0,0,0,0,0,0,0,0,0
1a,1a,1a,1a,1a,1a,1a,1a,1a,1a,1a,1a,1a,1a,1a,1a
1a,1a,1a,1a,1a,1a,1a,1a,1a,1a,1a,1a,1a,1a,1a,1a
1a,1a,1a,1a,1a,1a,1a,1a,1a,1a,1a,1a,1a,1a,1a,1a
0,0,0,0,0,0,0,0,0,0,0,0,0,0,0,0
NAME dINING CAR
ITM 7 10,9
EXT 0,6 8 15,6
EXT 0,7 8 15,6
EXT 0,5 8 15,6
EXT 0,8 3 15,6
EXT 0,4 8 15,6
EXT 0,3 8 15,6
EXT 0,9 3 15,7
END undefinee 15,9
END undefinee 15,8
END undefinee 15,7
END undefinee 15,6
END undefinee 15,5
END undefinee 15,4
PAL 0

ROOM 6
l,l,l,0,0,0,0,0,0,0,0,0,0,0,0,0
l,l,0,0,0,0,0,0,0,k,0,0,0,0,0,0
l,o,d,d,d,d,d,d,d,f,g,g,g,g,g,g
l,n,b,b,b,b,b,b,b,e,h,i,h,i,h,i
l,p,c,c,c,c,c,c,c,j,c,c,c,c,c,a
l,0,0,0,0,0,0,0,0,0,0,0,0,0,0,a
l,0,0,0,0,0,0,0,0,0,0,0,0,0,0,a
l,0,0,0,0,0,0,0,0,0,0,0,0,0,0,0
0,0,0,0,0,0,0,0,r,u,0,0,0,0,0,0
l,0,0,0,0,0,0,s,q,t,10,0,0,0,0,a
l,0,0,0,0,0,0,y,0,v,z,0,0,0,0,a
d,d,d,d,d,d,d,x,d,w,z,d,d,d,l,l
b,b,b,b,b,b,b,b,b,b,b,b,b,b,l,l
c,c,c,c,c,c,c,c,c,c,c,c,c,c,l,l
l,0,0,0,0,0,0,0,0,0,0,0,0,0,l,l
l,l,l,l,l,l,l,l,l,l,l,l,l,l,l,l
NAME Skeleton again
EXT 15,7 2 0,9
EXT 15,8 2 0,10
EXT 9,4 3 5,9
PAL 0

ROOM 7
1a,1a,1a,1a,1a,1a,1a,1a,1a,1a,1a,1a,1a,1a,1a,1a
0,0,0,0,0,0,0,0,0,0,0,0,0,0,0,0
1c,1c,1c,1c,1c,1c,1c,1c,1c,1c,1c,1c,1c,1c,1c,1c
0,0,0,0,0,0,0,0,1h,0,0,0,0,0,1l,0
0,0,0,0,0,0,0,0,1i,1j,1j,1j,1j,1j,1k,0
0,0,0,0,0,0,0,0,0,0,0,0,0,0,0,0
0,0,0,0,0,0,0,0,0,0,0,0,0,0,0,0
0,0,0,0,0,0,0,0,1o,1m,1n,1o,1m,1n,0,0
0,0,0,0,0,0,0,0,0,0,0,0,0,0,0,0
0,0,0,0,0,0,0,0,0,0,0,0,0,0,0,0
1b,1b,1b,1b,1b,1b,1b,1b,1b,1b,1b,1b,1b,1b,1b,1b
0,0,0,0,0,0,0,0,0,0,0,0,0,0,0,0
1a,1a,1a,1a,1a,1a,1a,1a,1a,1a,1a,1a,1a,1a,1a,1a
1a,1a,1a,1a,1a,1a,1a,1a,1a,1a,1a,1a,1a,1a,1a,1a
1a,1a,1a,1a,1a,1a,1a,1a,1a,1a,1a,1a,1a,1a,1a,1a
0,0,0,0,0,0,0,0,0,0,0,0,0,0,0,0
PAL 0

ROOM 8
1a,1a,1a,1a,1a,1a,1a,1a,1a,1a,1a,1a,1a,1a,1a,1a
0,0,0,0,0,0,0,0,0,0,0,0,0,0,0,0
1c,1c,1c,1c,1c,1c,1c,1c,1c,1c,1c,1c,1c,1c,1c,1c
1g,1f,0,0,0,1g,1f,1g,1f,1g,1f,1g,1f,1g,1f,0
1e,1d,0,0,0,1e,1d,1e,1d,1e,1d,1e,1d,1e,1d,0
0,0,0,0,0,0,0,0,0,0,0,0,0,0,0,0
0,0,0,0,0,0,0,0,0,0,0,0,0,0,0,0
0,0,0,0,0,0,0,0,0,0,0,0,0,0,0,0
0,1g,1f,0,0,0,0,1g,1f,0,1g,1f,0,1g,1f,0
0,1e,1d,0,0,0,0,1e,1d,0,1e,1d,0,1e,1d,0
1b,1b,1b,1b,1b,1b,1b,1b,1b,1b,1b,1b,1b,1b,1b,1b
0,0,0,0,0,0,0,0,0,0,0,0,0,0,0,0
1a,1a,1a,1a,1a,1a,1a,1a,1a,1a,1a,1a,1a,1a,1a,1a
1a,1a,1a,1a,1a,1a,1a,1a,1a,1a,1a,1a,1a,1a,1a,1a
1a,1a,1a,1a,1a,1a,1a,1a,1a,1a,1a,1a,1a,1a,1a,1a
0,0,0,0,0,0,0,0,0,0,0,0,0,0,0,0
NAME Carrage 1 again
EXT 0,6 9 15,5
EXT 0,7 9 15,5
EXT 15,6 5 0,6
EXT 15,7 5 0,7
PAL 0

ROOM 9
1a,1a,1a,1a,1a,1a,1a,1a,1a,1a,1a,1a,1a,1a,1a,1a
0,0,0,0,0,0,0,0,0,0,0,0,0,0,0,0
1c,1c,1c,1c,1c,1c,1c,1c,1c,1c,1c,1c,1c,1c,1c,1c
a,0,0,0,a,0,a,0,0,0,a,a,a,a,a,a
a,a,0,0,a,a,a,0,0,0,0,0,0,a,a,a
a,a,0,0,a,a,a,a,a,0,0,0,0,0,0,0
a,0,0,0,0,0,0,0,0,0,0,0,0,0,a,a
a,0,0,0,0,0,0,0,0,0,a,a,0,0,a,a
a,0,0,0,0,a,a,0,0,a,a,a,a,0,a,a
a,0,0,0,a,a,a,0,0,a,a,a,a,0,a,a
1b,1b,1b,1b,1b,1b,1b,1b,1b,1b,1b,1b,1b,1b,1b,1b
0,0,0,0,0,0,0,0,0,0,0,0,0,0,0,0
1a,1a,1a,1a,1a,1a,1a,1a,1a,1a,1a,1a,1a,1a,1a,1a
1a,1a,1a,1a,1a,1a,1a,1a,1a,1a,1a,1a,1a,1a,1a,1a
1a,1a,1a,1a,1a,1a,1a,1a,1a,1a,1a,1a,1a,1a,1a,1a
0,0,0,0,0,0,0,0,0,0,0,0,0,0,0,0
EXT 15,5 3 0,6
PAL 0

TIL 10
00000000
00000000
10000000
11000000
11100000
11100000
11100000
11100000

TIL 11
00000000
00001000
00011000
00110100
00101110
01101110
01000110
11111110
>
00000000
00010000
00111000
00101100
01111100
01010100
11000110
11111110

TIL 12
00000000
10001000
01010101
00100010
11111111
00000000
00000000
00000000

TIL 13
00000000
00000001
00000011
00000110
00001111
00000000
00000000
00000000

TIL 14
00000000
10000000
11000000
11100000
11110000
00000000
00000000
00000000

TIL 15
00000000
00000000
00001000
00001100
11111110
00001100
00001000
00000000

TIL 16
00000000
00111110
00100010
00100010
00100010
00100010
00100010
11100011

TIL 17
11111111
11111111
00000000
00000000
00000000
00000000
00000000
00000000

TIL 18
00000000
00000000
00000000
00000000
00000000
00000000
00000000
00000000

TIL 19
01111110
01100000
01100000
01100000
01100000
01100000
01100000
01111110

TIL a
11111111
10000001
10000001
10011001
10011001
10000001
10000001
11111111
WAL true

TIL b
11111111
10011001
10011001
10011001
10011001
10011001
10011001
11111111

TIL c
00000000
11111111
00000000
01100110
00000000
00000000
00000000
00000000

TIL d
00000000
00000000
00000000
00000000
11001100
00000000
11111111
00000000

TIL e
10010010
10011110
10000000
10000000
10000000
10000000
10000000
11100011

TIL f
00001111
01111111
10000000
10000000
10000000
10011110
10010010
10010010

TIL g
11111111
11111111
00000000
00000000
00000000
00111100
00100100
00100100

TIL h
00100100
00111100
00000000
00000000
00000000
00000000
00000000
11111111

TIL i
00100100
00111100
00000000
00000000
00000000
00000000
00000000
11000111

TIL j
00111110
00100010
01111110
01000010
11111110
10000010
11111110
00000000

TIL k
00000000
00011110
11110010
01100010
00111010
00001110
00000010
00000010
>
00000000
00001110
00011010
00110010
01000110
01111110
00000010
00000010

TIL l
11011011
10000001
00111100
10100101
10100101
00111100
10000001
11011011
WAL true

TIL n
00011111
00011001
00011001
00011001
00011001
00011001
00011001
00011111

TIL o
00000000
00000000
00000000
00011100
00011000
00011000
00011000
00011000

TIL p
00011000
00011000
00011000
00011100
00011100
00000000
00000000
00000000

TIL q
10011000
00100100
01001010
10001001
10111001
01000010
00100100
10011001

TIL r
00000000
00000000
00000000
00000000
00001111
00011111
01100011
11000001

TIL s
00000011
00000110
00011100
00110000
01100000
01000000
01000000
01100001

TIL t
11111110
00111111
00011111
00001111
00000011
00000001
00000001
11000001

TIL u
00000000
00000000
00000000
00000000
11100000
11110000
11111000
11111100

TIL v
00100001
00010001
00001001
00001001
00001001
00001001
00001001
00001001

TIL w
00001001
00001001
00001001
00001001
00001001
00010001
00110001
00100001

TIL x
01001000
01001000
01001000
01001000
01001000
01001000
01001100
01000010

TIL y
01000100
01001100
01001000
01001000
01001000
01001000
01001000
01001000

TIL z
11100000
11100000
11100000
11100000
11100000
11100000
11100000
11100000

TIL m
00000000
00000000
00000000
00000000
00000000
00000000
00000000
00000000

TIL 1a
01100110
01100110
01100110
01100110
01100110
01100110
01100110
01100110
>
10011001
10011001
10011001
10011001
10011001
10011001
10011001
10011001

TIL 1b
00000000
00000000
11111111
00000000
11111111
11111111
00000000
00000000

TIL 1c
00000000
00000000
11111111
11111111
00000000
11111111
00000000
00000000

TIL 1d
01000000
01000000
01000000
01111111
00000001
00000001
11111110
11111100

TIL 1e
00000110
00000110
00000110
00000110
00000110
00000110
00000111
00000011

TIL 1f
00000000
10000000
01000000
01000000
01000000
01000000
01000000
01000000

TIL 1g
00000000
00000001
00000010
00000110
00000110
00000110
00000110
00000110

TIL 1h
00000000
00000000
01100000
01100000
01100000
01100000
01100000
01100000

TIL 1i
01100000
01100000
01100000
01111111
00111111
00000000
00000000
00000000

TIL 1j
00000000
00000000
00000000
11111111
11111111
00000000
00000000
00000000

TIL 1k
00110000
00110000
00110000
11110000
11100000
00000000
00000000
00000000

TIL 1l
00000000
00000000
00110000
00110000
00110000
00110000
00110000
00110000

TIL 1m
00000000
00111110
01111111
11000011
11000011
01111111
01111110
00111110

TIL 1n
00000000
00000100
00000100
00000100
00111100
00100100
00100100
00000000

TIL 1o
00000000
00100000
00100000
00100000
00111100
00100100
00100100
00000000

SPR 10
01100000
00010111
11111111
11111110
10001011
00001000
01000100
00000001
DLG SPR_f
POS 1 10,13

SPR 11
00000000
10000000
11000000
11000000
11000000
11000000
00000000
00000000
DLG SPR_g
POS 1 11,13

SPR 12
00000000
00000000
00011111
00010000
00000111
00000100
00000000
00000000
DLG SPR_h
POS 1 9,13

SPR 13
00000000
00000000
00000000
00010100
00011100
01011101
00111110
00000000
>
00000000
00000000
00000000
00000000
00010100
00011100
01011101
00111110

SPR 14
00000000
00111100
00100100
00100100
00111100
00100110
01100010
01100010
>
00000000
00000000
00111100
00100100
00100100
00111101
00100010
01100010
POS 3 10,3

SPR 15
01100010
01100010
01100010
00111110
00010010
00010010
00011011
00000000
>
01100010
01100010
01100010
00100010
00111110
00010010
00010010
00011011
DLG SPR_o
POS 3 10,4

SPR 16
00011110
00010010
00010010
00011110
00100010
00100011
00100011
10100111
>
00111100
00100100
00100100
00111100
00100010
01100010
01100010
01110011
DLG SPR_p
POS 3 12,8

SPR 17
01100010
00100010
00100010
00111110
00100010
00110010
00010011
00000000
>
01100010
00100010
00100010
00111110
00100010
00100110
01100100
00000000
POS 3 12,9

SPR 20
00011100
00010100
00011100
00001000
01111111
00001000
00011100
00100110
>
00011100
00010100
00011100
00101010
00111110
00001000
00011100
00110010
DLG SPR_15
POS 5 12,9

SPR 21
00011100
00010100
00011100
00111111
01100011
10100011
00100110
00100010
>
00011101
10010101
01011101
00111110
00100010
00100010
00100010
00100010
POS 9 8,3

SPR 22
00100010
00111110
00100010
01100011
00000000
00000000
00000000
00000000
DLG SPR_16
POS 9 8,4

SPR 23
00111100
00100100
00100100
00111100
00100100
00100010
01000010
01000010
POS 8 3,3

SPR 24
01000011
01000010
11000010
00100010
00111110
01000010
01100010
00100010
>
01000010
11000010
00100011
00100100
00111110
01000010
01000110
01000100
POS 8 3,4

SPR 25
00000000
00111100
00100100
00100100
00111100
00100110
01100010
01100010
>
00000000
00000000
00111100
00100100
00100100
00111101
00100010
01100010
POS 8 10,3

SPR 26
01100010
01100010
01100010
00111110
00010010
00010010
00011011
00000000
>
01100010
01100010
01100010
00100010
00111110
00010010
00010010
00011011
POS 8 10,4

SPR 27
00011110
00010010
00010010
00011110
00100010
00100011
00100011
10100111
>
00111100
00100100
00100100
00111100
00100010
01100010
01100010
01110011
POS 8 11,8

SPR 28
01100010
00100010
00100010
00111110
00100010
00110010
00010011
00000000
>
01100010
00100010
00100010
00111110
00100010
00100110
01100100
00000000
POS 8 11,9

SPR A
00011000
00011000
00010100
00111000
01010000
00010000
00101000
00100100
>
00011000
00011000
01010000
00111000
00010100
00010000
00101000
01001000
POS 1 2,2

SPR a
00111100
01111110
01010110
01111110
00111100
00000100
00111000
00000100
DLG SPR_0
POS 0 7,2

SPR b
00111110
00100011
01111110
10010100
10011100
10001000
10111110
00100010
>
00111110
11100011
00111110
00010100
00011100
00001001
00111110
00100010
POS 0 7,3

SPR c
00110110
00011100
00010100
00010100
00010100
00010100
00110110
00000000
>
00110110
00011100
00010110
00010010
00010010
00010011
00110000
00000000
DLG SPR_n
POS 0 7,4

SPR d
00000000
10000000
01000000
01000000
10000000
00000000
00000000
00000000
>
00000000
10000000
10000000
01000000
01000000
01000000
01000000
10000000
POS 0 8,3

SPR e
00000000
00000000
00000000
00000000
00000000
00000000
00000000
00000001
>
00000100
00000111
00000000
00000000
00000000
00000000
00000000
00000000
DLG SPR_l
POS 0 6,3

SPR f
00011110
00010010
00111110
00100010
11111110
10000010
11111110
00000000
DLG SPR_1
POS 0 9,4

SPR g
11111111
01111100
01101010
01111110
01111010
01111110
00111100
00110000
>
11111111
01111100
01101010
01111110
01100110
01111110
00111100
00110000
DLG SPR_2
POS 1 8,5

SPR h
00110000
01111000
11101100
11101111
01101000
01101000
01111000
01111000
DLG SPR_3
POS 1 8,6

SPR i
01000101
00101011
00011000
00000000
00000000
00000000
00000000
00000000
DLG SPR_6
POS 1 8,7

SPR j
00000000
00000010
01001111
11111000
01001111
00000000
00000000
00000000
>
00000000
00000000
01001111
11111000
01001111
00000000
00000000
00000000
POS 1 9,6

SPR k
00000000
00000000
00000000
00000000
00000000
00111100
01000010
01111110
DLG SPR_4
POS 1 8,4

SPR l
00000001
00000000
00000000
00000000
00000000
00000000
00000000
00000000
DLG SPR_8
POS 1 7,5

SPR m
10000000
00000000
00000000
00000000
00000000
00000000
00000000
00000000
POS 1 9,5

SPR n
01000000
00000000
11100100
00111110
11100110
00000100
00000100
00000100
>
00000000
00000000
11100100
00111110
11100110
00000100
00000100
00000100
POS 1 10,6

SPR o
11111111
01111110
01111110
01010110
01111110
00111110
11111100
00111100
DLG SPR_e
POS 1 12,5

SPR p
00000000
00000000
00000000
00000001
00000001
00000010
00000010
00000110
DLG SPR_5
POS 1 7,6

SPR q
00000000
10000011
11111110
00100100
00100100
00100100
00111100
00000000
DLG SPR_9

SPR r
00000000
00000000
00000000
00000000
00000000
00000000
00000000
00000000

SPR s
00000000
00000000
00000000
00000000
00111110
00111110
00111110
00100010
POS 1 12,4

SPR t
10001100
01001110
00111111
00001111
00001101
00001101
01111101
01000100
DLG SPR_d
POS 1 12,6

SPR u
00000000
00000000
00000000
00000000
00000000
00000000
00000000
00000000
POS 1 11,6

SPR v
00000000
00000000
00000000
00000000
00000000
00000000
00000000
00000000

SPR w
00000000
00000000
00000000
00000100
00001110
00001010
00001111
00000000
>
00000000
00010000
00000000
00000000
00001110
00001010
00001111
00000000
POS 1 11,5

SPR x
00000000
00000000
00000000
00000000
00000000
00000000
00000000
00000000

SPR y
11000100
00001000
01010000
01100000
00000000
00000000
00000000
00000000
DLG SPR_c
POS 1 12,7

SPR z
00000000
00000000
00000000
00000000
00000000
00000000
10000000
00000000
DLG SPR_b
POS 1 13,6

SPR 1b
00000000
11111111
10000000
11111111
00100010
00100010
00100010
00100010
DLG SPR_q
POS 0 3,5

SPR 1d
00000000
10000000
10000000
10000000
00000000
00000000
00000000
00000000
DLG SPR_s
POS 0 4,5

SPR 1e
11111111
10000000
10111011
10100010
10111010
10100011
10000000
11111111
DLG SPR_r
POS 3 11,13

SPR 1f
00000000
00000100
00000110
11111111
00000110
00000100
00000000
00000000
DLG SPR_t

SPR 1g
11111111
00000000
10111011
10101010
10101010
10111011
00000000
11111111
POS 3 12,13

SPR 1h
11110000
00010001
10010001
01011111
01011111
10010001
00010001
11110001
POS 3 13,13

SPR 1i
00000000
00000000
10000000
11000000
11100000
11000000
10000000
00000000
POS 3 14,13

SPR 1j
01111111
01000000
01011101
11010101
11011101
01010101
01011101
01111111
POS 3 1,13

SPR 1k
11111111
00000000
11101111
00101000
11101011
00101001
00101111
11111111
POS 3 2,13

SPR 1l
11111100
00000100
01110100
01000100
01110100
00010100
01110100
11111100
POS 3 3,13

SPR 1m
00000000
00000010
00000110
00001111
00011111
00001110
00000110
00000010
POS 3 0,13

SPR 1n
00111100
00100100
00100100
00111100
00100100
00100010
01000010
01000010
POS 3 3,3

SPR 1o
01000011
01000010
11000010
00100010
00111110
01000010
01100010
00100010
>
01000010
11000010
00100011
00100100
00111110
01000010
01000110
01000100
DLG SPR_u
POS 3 3,4

SPR 1q
00011100
00010100
00011100
00111111
01100011
10100011
00100110
00100010
>
00011101
10010101
01011101
00111110
00100010
00100010
00100010
00100010
DLG SPR_v
POS 4 8,3

SPR 1r
00100010
00111110
00100010
01100011
00000000
00000000
00000000
00000000
DLG SPR_w
POS 4 8,4

SPR 1s
00111100
00100100
00100100
00111100
00010100
00110110
00100011
11100010
>
00111100
00100100
00100100
00111100
00010100
00110110
11100010
01100011
DLG SPR_x
POS 5 11,3

SPR 1t
00000000
00000000
00000000
00000000
00011100
11010100
11011100
11011100
DLG SPR_y
POS 5 10,3

SPR 1u
01110000
01010000
01110110
01100110
01111000
01110000
01111100
00100100
>
01110000
01010000
01110000
01100110
01111110
01110000
01111100
00100100
DLG SPR_z
POS 5 8,7

SPR 1v
10011100
01010100
00111100
00011100
00011110
00111101
00100100
01100110
>
00011100
00010101
00011110
00111100
01011100
00011110
00010010
00110011
DLG SPR_10
POS 5 3,8

SPR 1w
00011100
00010100
00011100
01011000
00111110
00011000
00011100
00100100
>
00011100
00010100
00011100
00011010
00111100
01011000
00011110
00100000
DLG SPR_11
POS 5 5,5

SPR 1x
00011100
00010100
00011100
01001100
00111111
00001101
00011110
00000010
>
00001110
00001010
00001110
00001101
00111111
00101100
00011110
00010000
DLG SPR_12
POS 5 13,5

SPR 1y
00011100
00010100
00011101
00111110
01011000
00011000
00110100
00000000
>
00011100
00010100
01011100
00111110
00011001
00011000
00010100
00010100
DLG SPR_13
POS 5 4,3

SPR 1z
00011100
00010100
01011101
01010001
00111110
00010000
00111000
00100100
>
00011100
00010100
00011100
00010000
00111110
01010010
00111000
01101000
DLG SPR_14
POS 5 6,9

ITM 0
00000000
00010000
00111000
00010000
00010000
00010000
00000000
00000000
>
10000001
00010000
00111000
00010000
00010000
00010000
00000000
10000001
NAME Cross
DLG ITM_0

ITM 1
00000000
00111100
00011000
00111100
00100100
00100100
00111100
00000000
>
00000000
00111100
00011000
00111100
00100100
00111100
00111100
00000000
NAME Vial
DLG ITM_1

ITM 2
00000000
00000000
00111100
00100100
01111100
00000000
00000000
00000000
>
00000000
00000000
00111100
00100100
00111110
00000000
00000000
00000000
NAME Hat
DLG ITM_2

ITM 3
00000000
00000000
01111100
01000010
01000001
01111111
00000000
00000000
DLG ITM_5

ITM 4
00000000
10111010
01101100
00101000
01101100
10111010
00111000
00101000
>
00000000
10111010
01101100
00101000
01101100
10111010
00111000
01000100
NAME Beetle
DLG ITM_3

ITM 5
00000000
00111100
00100100
11111111
10000011
10000011
11111111
00000000
DLG ITM_6

ITM 6
00011100
00010100
00111110
00100110
00100110
00100110
00111110
00000000
DLG ITM_7

ITM 7
00000000
00011100
00010100
11111111
11000001
11000001
11111111
00000000
DLG ITM_8

DLG SPR_0
Skeleton: "That's my head"

DLG ITM_0
"Hurry up the train is about to depart!"

DLG ITM_1
"Alright that's enough I'm convinced! Climb on-board Mister conductor!

DLG ITM_2
"""
"{wvy}All aboard for forever!{wvy}!"{
  - {item "0"} == 1 ?

  - {item "Cross"} == 1 ?

}
"""

DLG SPR_1
"""
"Nice try buddy   
- A real conductor would have 
his CONDUCTORS HAT
his CRUCIFIX
and his HOLY WATER"
"""

DLG SPR_2
"Howdy stranger! I heard the Dracula Express is coming though town. Some poor fool agreed to be the new conductor..."

DLG SPR_3
"Some poor sucker volunteered to be the new conductor..."

DLG SPR_4
"Howdy stranger! I heard the Dracula Express is coming though town. Some poor fool volunteered to be the new conductor..."

DLG SPR_5
"Howdy stranger! I heard the Dracula Express is coming though town. Some poor fool volunteered to be the new conductor.. Poor fella..."

DLG SPR_6
"""
"Howdy stranger! I heard the {shk}Dracula Express{shk} is coming though town. Some poor fool volunteered to be the new conductor..               
  Poor fella..."
"""

DLG SPR_7
"I heard the Dracula Express is coming through town..."

DLG SPR_8
"Howdy stranger! I heard the {shk}Dracula Express{shk} is coming though town. Some poor fool volunteered to be the new conductor..."

DLG SPR_9
"""
{
  - else ?

  - else ?

}
"""

DLG SPR_a
"You know what the Dracula Express is, don't ya kid? Its a big train full of draculas that goes around the world staying out of the sunlight. It only stops once every ten years to change conductors..."

DLG SPR_b
"""
"You know what the {shk}Dracula Express {shk}is, don't ya kid?  
    

Its a big train full of draculas that goes around the world staying out of the sunlight. It only stops once every ten years to change conductors...          Most dangerous job in the world...



  Those Draculas are real bastards"
"""

DLG SPR_c
"""
"You know what the {shk}Dracula Express{shk} is, don't ya kid?  
    

Its a big train full of draculas that goes around the world staying out of the sunlight. It only stops once every ten years to change conductors...          Most dangerous job in the world...



Those Draculas are real bastards"
"""

DLG SPR_d
"You know what the Dracula Express is, don't ya kid? Its a big train full of draculas that goes around the world staying out of the sunlight. It only stops once every ten years to change conductors..."

DLG SPR_e
"""
"You know what the Dracula Express is, don't ya kid?  
    

Its a big train full of draculas that goes around the world staying out of the sunlight. It only stops once every ten years to change conductors...          Most dangerous job in the world...

 
 Those Draculas are real bastards"
"""

DLG ITM_3
"Keep away from those desert beetles... They feed on the corpses of people who make bad career choices"

DLG ITM_4
It's a torn ticket 

DLG SPR_f
"""
A dead body. Plenty of those out here in the wilderness... 



Probably.
"""

DLG SPR_g
"""
It's a dead body. Plenty of those out here in the wilderness... 



Probably.
"""

DLG SPR_h
"""
A dead body. Plenty of those out here in the wilderness... 



Probably.
"""

DLG ITM_5
"""
It's a torn nametag.


It reads: 'Hi my name is the CONDUCTOR OF THE DRACULA EXP-
' You can't make out any more...
"""

DLG SPR_i
"""
"Nice try buddy   
- A real conductor would have 
his CONDUCTORS HAT
his CRUCIFIX
and his HOLY WATER"
"""

DLG SPR_j
"""
"Nice try buddy   
- A real conductor would have 
his CONDUCTORS HAT
his CRUCIFIX
and his HOLY WATER"
"""

DLG SPR_k
"""
"Nice try buddy   
- A real conductor would have 
his CONDUCTORS HAT
his CRUCIFIX
and his HOLY WATER"
"""

DLG SPR_l
"""
"Nice try buddy   
- A real conductor would have 
his CONDUCTORS HAT
his CRUCIFIX
and his HOLY WATER"
"""

DLG SPR_m
"""
"Nice try buddy   
- A real conductor would have 
his CONDUCTORS HAT
his CRUCIFIX
and his HOLY WATER"
"""

DLG SPR_n
"""
"Nice try buddy   
- A real conductor would have 
his CONDUCTORS HAT
his CRUCIFIX
and his HOLY WATER"
"""

DLG SPR_o
DRACULA: "Don't you just love trains?"

DLG SPR_p
DRACULA: "There's something about travel... really puts it all in perspective..."

DLG SPR_q
'The Dracula Express- BEWARE OF DANGERS!'

DLG SPR_s
'Dracula Express: BEWARE OF DANGERS ON THE BAD TRAIN'

DLG SPR_r
'Dracula baggage compartment'

DLG SPR_t
'Dracula Dining Car'

DLG SPR_u
"""
"Welcome aboard the DRACULA EXPRESS..."

"Make yourself at home!"
"""

DLG SPR_v
DRACULA: "You gotta help me mister conductor, I've lost my luggage!"

DLG SPR_w
DRACULA: "You gotta help me mister conductor, I've lost my luggage!"

DLG ITM_6
DRACULA: "That's not mine, but I appreciate the effort."

DLG SPR_x
"""
DRACULA: "What can I get for you chief? 


I'm not sure if they told you but the conductor gets to drink for free!
"""

DLG SPR_y
'A variety of delectable dranks'

DLG ITM_7
"""
DRACULA: "No, mine had a label that said my name...


 'Dracula'

"Thanks anyway."
"""

DLG SPR_z
"""
DRACULA: "I know this train gets a bad rap but the drinks  are exxxxxquisite! 


Thank god im a dracula."
"""

DLG SPR_10
DRACULA: "This train just makes me wanna groove so hard!"

DLG SPR_11
"""
DRACULA: "Sometimes I feel bad for all the suckers not on the Dracula Express, 



 but then I just go right on dancing!"
"""

DLG SPR_12
"""
DRACULA: "Hey you got some nice moves yourself! 


 ...Not bad for a not a Dracula."
"""

DLG SPR_13
"""
DRACULA: "Keep this good times party train our little secret."



"Don't go blabbing now. "
"""

DLG SPR_14
DRACULA: "Man oh man I love the Drac-Ex!"

DLG SPR_15
DRACULA: "Damn, the children of the night make some sweet ass music"

DLG ITM_8
The label says 'Dracula' it must belong to that guy...

DLG SPR_16
DRACULA: "My bag! Phew that's such a load off. It has my passport in it."

END 0
You fell down a big hole

END undefined
"The conductor has arrived!"

END undefinee
Dearest Margaret, This train is not at all what I had anticipated. You and the kids must join me post haste! We can dance and drink the exquisite drinks and look for luggage for all eternity. Love, Mister Conductor

VAR a
42


