XVIII.

# BITSY VERSION 5.1

! ROOM_FORMAT 1

PAL 0
66,24,22
116,76,53
238,238,238
135,24,20
183,34,29
48,8,5
72,29,25
142,96,92
102,56,47
196,44,39
226,188,104

PAL 1
66,24,22
194,127,89
238,238,238

ROOM 0
e,i,z,d,y,z,i,10,x,d,x,d,z,d,10,c
e,d,y,f,0,1m,d,1m,1n,f,0,d,x,f,0,j
e,d,0,1n,1n,0,f,1n,1m,1n,0,f,0,1m,0,c
e,f,0,1n,1n,1n,1n,1n,1n,1n,1n,1n,1m,1n,1n,c
g,0,1n,1n,1m,0,1n,1p,1q,1n,1n,1n,1n,0,1n,c
1n,0,1n,1n,w,v,m,1q,1p,m,l,o,1n,1n,0,c
0,1n,1n,0,q,a,a,a,a,a,a,p,1n,0,1n,c
17,0,1n,1n,q,a,a,a,a,a,a,p,1n,1n,0,h
1a,0,1n,1n,q,a,a,a,a,a,a,p,1n,1n,1n,0
1d,1n,1n,0,0,1s,a,a,a,a,1r,1n,1m,1m,1n,1j
1i,0,1n,1n,1n,0,t,t,1o,t,1n,1n,1n,1n,0,1l
17,18,0,1m,1n,1m,1n,1n,1n,1n,1n,1m,0,1n,0,1j
1g,1e,0,0,1n,1n,1m,1n,0,1n,1n,1n,1n,1n,1k,1g
1f,1d,1n,1n,1n,1n,1n,1n,1n,1n,1n,0,1n,0,1l,1g
17,15,18,1n,0,0,0,0,1n,1n,1n,0,0,19,15,14
16,16,1a,13,1c,1b,13,13,1c,13,1b,13,1c,16,16,16
NAME room 2
EXT 7,4 5 7,4
EXT 8,4 5 8,4
PAL 0

ROOM 3
e,i,z,d,y,z,i,10,x,d,x,d,z,d,10,c
e,d,y,f,0,1m,d,1m,1n,f,0,d,x,f,0,j
e,d,0,1n,1n,0,f,1n,1m,1n,0,f,0,1m,0,c
e,f,0,1n,1n,1n,1n,1n,1n,1n,1n,1n,1m,1n,1n,c
g,0,1n,1n,1m,0,1n,0,0,1n,1n,1n,1n,0,1n,c
1n,0,1n,1n,w,v,m,u,n,m,l,o,1n,1n,0,c
0,1n,1n,0,q,a,a,a,a,a,a,p,1n,0,1n,c
17,0,1n,1n,q,a,a,a,a,a,a,p,1n,1n,0,h
1a,0,1n,1n,q,a,a,a,a,a,a,p,1n,1n,1n,0
1d,1n,1n,0,0,1s,a,a,a,a,1r,1n,1m,1m,1n,1j
1i,0,1n,1n,1n,0,t,t,1o,t,1n,1n,1n,1n,0,1l
17,18,0,1m,1n,1m,1n,1n,1n,1n,1n,1m,0,1n,0,1j
1g,1e,0,0,1n,1n,1m,1n,0,1n,1n,1n,1n,1n,1k,1g
1f,1d,1n,1n,1n,1n,1n,1n,1n,1n,1n,0,1n,0,1l,1g
17,15,18,1n,0,0,0,0,1n,1n,1n,0,0,19,15,14
16,16,1a,13,1c,1b,13,13,1c,13,1b,13,1c,16,16,16
NAME room 1
ITM 0 8,13
ITM 1 12,11
ITM 2 4,11
ITM 3 13,6
ITM 4 2,6
ITM 5 8,2
EXT 8,2 0 8,2
PAL 0

ROOM 5
e,i,z,d,y,z,i,10,x,d,x,d,z,d,10,c
e,d,y,f,0,1m,d,1m,1n,f,0,d,x,f,0,j
e,d,0,1n,1n,0,f,1n,1m,1n,0,f,0,1m,0,c
e,f,0,1n,1n,1n,1n,1n,1n,1n,1n,1n,1m,1n,1n,c
g,0,1n,1n,1m,0,1n,1p,1q,1n,1n,1n,1n,0,1n,c
1n,0,1n,1n,w,v,m,1q,1p,m,l,o,1n,1n,0,c
0,1n,1n,0,q,a,a,a,a,a,a,p,1n,0,1n,c
17,0,1n,1n,q,a,a,a,a,a,a,p,1n,1n,0,h
1a,0,1n,1n,q,a,a,a,a,a,a,p,1n,1n,1n,0
1d,1n,1n,0,0,1s,a,a,a,a,1r,1n,1m,1m,1n,1j
1i,0,1n,1n,1n,0,t,t,1o,t,1n,1n,1n,1n,0,1l
17,18,0,1m,1n,1m,1n,1n,1n,1n,1n,1m,0,1n,0,1j
1g,1e,0,0,1n,1n,1m,1n,0,1n,1n,1n,1n,1n,1k,1g
1f,1d,1n,1n,1n,1n,1n,1n,1n,1n,1n,0,1n,0,1l,1g
17,15,18,1n,0,0,0,0,1n,1n,1n,0,0,19,15,14
16,16,1a,13,1c,1b,13,13,1c,13,1b,13,1c,16,16,16
NAME room 3
END 0 7,5
END 1 8,5
PAL 0

TIL 10
10101101
11010010
01000010
10010101
01100110
00000001
00000000
00000000
WAL true
COL 5

TIL 11
00000110
00011111
00110101
00100011
00001101
00001001
01100100
01000000
WAL true
COL 5

TIL 12
00000000
00111011
00011100
00000010
00011100
00000000
00000101
00001100
WAL true
COL 5

TIL 13
00000000
00001101
10111111
11110001
11010011
11111111
11111111
00101110
WAL true
COL 5

TIL 14
11011100
00110001
11000111
00011011
00111010
01111111
11111011
11111111
WAL true
COL 5

TIL 15
00000000
00000000
00000000
00000000
01100000
11010011
11111111
11111111
WAL true
COL 5

TIL 16
11111111
10111111
11111111
11110101
11010011
11111111
11111111
00101110
WAL true
COL 5

TIL 17
00000000
11100000
10011000
11101100
11110010
11111001
11111111
11101010
WAL true
COL 5

TIL 18
00000000
00000000
00000000
00000000
00000000
11000000
11111000
11011000
WAL true
COL 5

TIL 19
00000000
00000000
00000000
00000000
00000000
00000011
00001110
00000101
WAL true
COL 5

TIL a
11111111
11111111
11111111
11111111
11111111
11111111
11111111
11111111
>
11111111
11111111
11111111
11111111
11111111
11111111
11111111
11111111
COL 3

TIL b
00000000
00000011
00010100
00110000
00000010
00100100
00000000
00011000
>
00000000
00000011
00010100
00110000
00000010
00100100
00000000
00011000

TIL c
00001111
00001111
00001111
00001111
00001111
00001111
00001111
00001111
WAL true

TIL d
01111110
01111110
01111110
01111110
01111110
01111110
01111110
01111110
WAL true

TIL e
11110000
11110000
11110000
11110000
11110000
11110000
11110000
11110000
WAL true

TIL f
01111110
01111110
01011011
10001001
00000000
00000000
00000000
00000000
WAL true

TIL g
11110000
11110000
11111000
11111100
10100110
00010000
00000000
00000000
WAL true

TIL h
00001111
00001111
00011111
00011111
00100110
00000010
00000000
00000000
WAL true

TIL i
00000000
00000000
00000000
00000000
00101100
01010110
01110110
01111010
WAL true

TIL j
10001111
01001111
01111111
00111111
00001111
00001111
00001111
00001111
WAL true

TIL k
00000000
00000000
00000000
00000000
00000000
00000000
10011010
00101011
WAL true

TIL l
01001111
11111110
11101100
00111010
11101100
00111110
11100000
01011010
WAL true

TIL m
11111111
01111111
11000001
00111011
00000000
11110011
00000000
00101010
WAL true

TIL n
00000101
00000001
11001010
00000001
01010111
00000000
10000110
00000111
WAL true

TIL o
00000000
10000000
11000000
00100000
10110000
10011000
00100000
00000000
WAL true

TIL p
10000000
00100000
10100000
00100000
10000000
00100000
00100000
10000000
WAL true

TIL q
00000001
00000100
00000101
00000101
00000000
00000101
00000001
00000100
WAL true

TIL r
00000000
00000000
00000000
00000000
00000000
00000000
00000000
00000000

TIL s
00000000
00000000
00000000
00000000
00000000
00000000
00000000
00000000

TIL t
10110110
01001001
00010100
00000000
00000000
00000000
00000000
00000000
WAL true

TIL u
11000000
00010010
11100000
00000100
11100000
00010010
10000010
01000000
WAL true

TIL v
00001111
01111110
11101101
00111010
01101100
10111111
01100000
01011011
WAL true

TIL w
00000000
00000000
00000000
00000011
00001100
00001011
00000000
00011011
WAL true

TIL x
10010101
01001111
10101010
00010101
00000000
00000000
00000000
00000000
WAL true
COL 5

TIL y
00011000
10100110
01001100
00010000
00000000
00000000
00000000
00000000
WAL true
COL 5

TIL z
01110010
11011100
00111010
11010111
00100000
10000110
00001000
00000000
WAL true
COL 5

TIL 1a
11111110
10111111
11111111
11110101
11010011
11111111
11111111
00101110
WAL true
COL 5

TIL 1b
01110110
10101101
10111111
11111001
11010111
11111111
11111111
00101110
WAL true
COL 5

TIL 1c
00000000
00001101
10111111
11111011
11011111
11111111
11111111
00101110
WAL true
COL 5

TIL 1d
11111000
01111000
10110000
01000000
10000000
00000000
00000000
00000000
COL 5

TIL 1e
11111100
11011110
01101111
11101111
00011110
11000000
11111000
11011000
WAL true
COL 5

TIL 1f
11111111
10111111
11110101
11111101
11110111
10110110
00010110
11111000
COL 5

TIL 1g
11110001
01110110
10011100
11111100
01111110
01111000
00001011
10111000
COL 5

TIL 1h
00000000
00000001
00000111
00000111
00001011
00001111
00011111
00111111
COL 5

TIL 1i
00000000
10000000
11000000
01000000
01100000
11100000
10100000
11100000
COL 5

TIL 1j
00000001
00000011
00011110
00010010
00111111
01111010
01011100
01101110
COL 5

TIL 1k
00000011
00001101
00001011
00010101
00011111
00011111
00010111
00111111
COL 5

TIL 1l
00101101
01010100
01010011
01110110
00101011
00111110
00010101
00000011
COL 5

TIL 1m
00000000
00010000
00000100
01000000
00011000
01000000
00001010
00000000
COL 6

TIL 1n
00000000
00100100
00100000
00001100
01000001
00010000
00101000
00000000
>
00000000
00100100
00100000
00001100
01000001
00010000
00101000
00000000
COL 6

TIL 1o
01101101
10110010
00011100
00000010
00000000
00000000
00000000
00000000

TIL 1p
00000101
00000001
11001010
00000001
01010111
00000000
10000110
00000011
>
00000101
00000001
11001010
00000001
01010111
00000000
10000110
00000011
COL 9

TIL 1q
11000000
00010010
11100000
00000100
11100000
00010010
10000010
01000000
COL 9

TIL 1r
11111111
11111110
11111100
11111000
11110000
11100000
11000000
00000000
COL 3

TIL 1s
11111111
11111111
01111111
01111111
00011111
00001111
00000011
00000000
COL 3

SPR 10
00000000
00010000
00000000
00000010
01000000
00000000
00001010
00000000
>
00000000
00000000
00100100
00000000
00000000
00100001
00000100
00000000

SPR 11
00000000
00000000
00000000
00001100
10000000
00110000
00000000
00000000
>
00000000
00000000
00000000
00011000
00000000
00001100
01000000
00000000
POS 0 8,8
COL 7

SPR 12
00000000
00000000
00000000
00000000
01000000
00100000
00011000
00000111
>
00000111
00011110
00111100
01111001
01111001
00111100
00011110
00000111
POS 5 7,7

SPR 13
00000000
00000000
00000000
00000000
00000010
00000100
00011000
11100000
>
11100000
01111000
00111100
10011110
10011110
00111100
01111000
11100000
POS 5 8,7

SPR 14
00000000
00000000
00000000
00000000
10001000
00100000
00000000
00000000
>
00000000
00000000
00000000
00000000
00000100
00010000
00100000
00000000
POS 0 8,7

SPR 15
00000000
00000000
00000000
00100000
00000000
00001000
00000010
00000000
>
00000000
00000000
01000000
00000000
00010100
00000000
00000000
00000000
POS 0 7,7

SPR 16
00000000
00000000
00010000
00101000
00010000
00000000
00000000
00000000
>
00000000
00000000
00101000
00010000
00101000
00000000
00000000
00000000
DLG SPR_5
POS 2 8,12

SPR 17
00000000
10010000
00000110
00000000
10000000
00001000
00000010
10000000
>
10000000
00000000
00101000
10000100
00100000
00000000
10001000
00000100
POS 5 6,7

SPR 18
00000010
10000001
00001000
00000110
01000001
00000000
00010000
00000100
>
10000000
00000001
00001000
01000010
00000000
00010000
00000100
00000000
POS 5 6,8

SPR 19
10010101
00000000
00000000
00000000
00000000
00000000
00000000
00000000
>
00000000
01010010
00000000
00000000
00000000
00000000
00000000
00000000
POS 5 7,9

SPR A
00011000
00011000
00000000
00111000
01011100
00011000
00001000
00010100
>
00011000
00011000
00000000
00011000
00011000
00011000
00010100
00100010
POS 3 5,14

SPR a
00000000
00000000
00010000
00101000
00010000
00000000
00000000
00000000
>
00000000
00000000
00101000
00010000
00101000
00000000
00000000
00000000
POS 2 8,13

SPR b
00000000
10010000
00000110
00000000
10000000
00001000
00000010
10000000
>
10000000
00000000
00101000
10000100
00100000
00000000
10001000
00000100
POS 0 6,7
COL 7

SPR c
00000010
10000001
00001000
00000110
01000001
00000000
00010000
00000100
>
10000000
00000001
00001000
01000010
00000000
00010000
00000100
00000000
POS 0 6,8
COL 7

SPR d
10010101
00000000
00000000
00000000
00000000
00000000
00000000
00000000
>
00000000
01001010
00000000
00000000
00000000
00000000
00000000
00000000
POS 0 7,9
COL 7

SPR e
01010101
00000000
00000000
00000000
00000000
00000000
00000000
00000000
>
00000000
10101010
00000000
00000000
00000000
00000000
00000000
00000000
POS 0 8,9
COL 7

SPR f
00000000
01000100
00000000
11001000
00000000
00010000
00000000
01000000
>
00000000
01100000
00000100
10000000
00001000
00000000
00010000
01000000
POS 0 9,8
COL 7

SPR g
00000100
00100000
00000000
00100100
01000000
10000100
00000000
00000100
>
00000010
00000000
00000000
00100010
00010000
00000000
00010010
01000000
POS 0 9,7
COL 7

SPR h
00000000
00000000
00100000
00000000
00001000
01000000
00100100
00000000
>
00000000
00000000
01000000
00010000
00000000
01000100
00000000
00010000
POS 0 9,6
COL 7

SPR i
10101000
00000001
00000000
01111000
00000000
00001110
01000000
00000000
>
00100100
00000001
00000000
00110010
00000000
00001100
00100000
00000000
POS 0 8,6
COL 7

SPR j
10010100
00000000
00001000
00110000
00000000
01000100
00000000
00000000
>
01001001
00000000
00000010
00011000
00000000
00000100
00100000
00000000
POS 0 7,6
COL 7

SPR k
00000000
00000100
00010000
00000000
01000010
00000100
10000000
00000000
>
00000000
00000100
00010000
01000000
00000000
10000010
00001000
00000000
POS 0 6,6
COL 7

SPR l
00000000
00000000
01010000
00000100
00000000
00100010
00000000
00001000
>
10010100
00000000
00000000
00001000
01000000
00000010
00010000
00000000
COL 7

SPR m
00000001
00000010
00000010
00000101
00001100
00011010
01100100
10010001
POS 0 10,9
COL 1

SPR n
10000000
00000000
10000000
10000000
01100000
00111000
10001110
01010011
POS 0 5,9
COL 1

SPR o
00000000
00000000
00000000
00111110
00111110
00001000
00001000
00001000
COL 8

SPR p
00000000
00000000
00000000
00000000
00000000
00000000
00000000
00000000

SPR q
00000000
00100100
00010000
00010010
00010010
00100100
00000000
00000000
>
00000000
00000000
00100100
00010010
00000010
00010000
00100100
00000000
POS 0 10,7
COL 4

SPR r
00000000
00001000
01010000
01010000
00010000
00010000
00010000
00001000
>
00000000
00000000
00100100
01001000
01001000
00001000
00000100
00000000
POS 0 5,7
COL 4

SPR s
00000000
00000000
00000000
00000100
00001000
00000000
00000000
00000000
>
00000000
00000100
00001000
00110000
00000000
00000000
00000000
00000000
POS 0 9,9
COL 4

SPR t
00000000
00000000
00000000
01000000
00100000
00000000
00000000
00000000
>
00000000
01000000
00100000
00011000
00000000
00000000
00000000
00000000
POS 0 6,9
COL 4

SPR u
00000000
00000000
00010000
00101000
00010000
00000000
00000000
00000000
>
00000000
00000000
00101000
00010000
00101000
00000000
00000000
00000000
DLG SPR_2
POS 2 12,10

SPR v
00000000
00000000
00010000
00101000
00010000
00000000
00000000
00000000
>
00000000
00000000
00101000
00010000
00101000
00000000
00000000
00000000
DLG SPR_3

SPR w
00000000
00000000
00010000
00101000
00010000
00000000
00000000
00000000
>
00000000
00000000
00101000
00010000
00101000
00000000
00000000
00000000
DLG SPR_4

SPR x
00000000
00000000
00010000
00101000
00010000
00000000
00000000
00000000
>
00000000
00000000
00101000
00010000
00101000
00000000
00000000
00000000
DLG SPR_1

SPR y
00000000
00000000
00010000
00101000
00010000
00000000
00000000
00000000
>
00000000
00000000
00101000
00010000
00101000
00000000
00000000
00000000
DLG SPR_0

SPR z
00000000
00000000
00000000
00000000
01000000
00001000
00000000
00000000
>
00000000
00000000
00000000
00000000
00100100
00000000
00000000
00000000
POS 0 7,8
COL 7

SPR 1a
01010101
00000000
00000000
00000000
00000000
00000000
00000000
00000000
>
00000000
10101010
00000000
00000000
00000000
00000000
00000000
00000000
POS 5 8,9

SPR 1b
00000000
01000100
00000000
11001000
00000000
00010000
00000000
01000000
>
00000000
01100000
00000100
10000000
00001000
00000000
00010000
01000000
POS 5 9,8

SPR 1c
00000100
00100000
00000000
00100100
01000000
10000100
00000000
00000100
>
00000010
00000000
00000000
00100010
00010000
00000000
00010010
01000000
POS 5 9,7

SPR 1d
00000000
00000000
00100000
00000000
00001000
01000000
00100100
00000000
>
00000000
00000000
01000000
00010000
00000000
01000100
00000000
00010000
POS 5 9,6

SPR 1e
10101000
00000001
00000000
01111000
00000000
00001110
01000000
00000000
>
00100100
00000001
00000000
00110010
00000000
00001100
00100000
00000000
POS 5 8,6

SPR 1f
10010100
00000000
00001000
00110000
00000000
01000100
00000000
00000000
>
01001001
00000000
00000010
00011000
00000000
00000100
00100000
00000000
POS 5 7,6

SPR 1g
00000000
00000100
00010000
00000000
01000010
00000100
10000000
00000000
>
00000000
00000100
00010000
01000000
00000000
10000010
00001000
00000000
POS 5 6,6

SPR 1h
00000000
00000000
00000000
00001100
10000000
00110000
00000000
00000000
>
00000000
00000000
00000000
00011000
00000000
00001100
01000000
00000000
POS 5 8,8

SPR 1i
00000000
00000000
00000000
00000000
01000000
00001000
00000000
00000000
>
00000000
00000000
00000000
00000000
00100100
00000000
00000000
00000000
POS 5 7,8

SPR 1j
00000000
00100100
00010000
00010010
00010010
00100100
00000000
00000000
>
00000000
00000000
00100100
00010010
00000010
00010000
00100100
00000000
POS 5 10,7
COL 4

SPR 1k
00000000
00001000
01010000
01010000
00010000
00010000
00010000
00001000
>
00000000
00000000
00100100
01001000
01001000
00001000
00000100
00000000
POS 5 5,7
COL 4

SPR 1l
00000000
00000000
00000000
00000100
00001000
00000000
00000000
00000000
>
00000000
00000100
00001000
00110000
00000000
00000000
00000000
00000000
POS 5 9,9
COL 4

SPR 1m
00000000
00000000
00000000
01000000
00100000
00000000
00000000
00000000
>
00000000
01000000
00100000
00011000
00000000
00000000
00000000
00000000
POS 5 6,9
COL 4

SPR 1n
00000001
00000010
00000010
00000101
00001100
00011010
01100100
10010001
POS 5 10,9
COL 1

SPR 1o
00000001
00000010
00000010
00000101
00001100
00011010
01100100
10010001
POS 3 10,9
COL 1

SPR 1p
10000000
00000000
10000000
10000000
01100000
00111000
10001110
01010011
POS 3 5,9
COL 1

SPR 1q
10000000
00000000
10000000
10000000
01100000
00111000
10001110
01010011
POS 5 5,9
COL 1

SPR 1r
00000000
00100100
00010000
00010010
00010010
00100100
00000000
00000000
>
00000000
00000000
00100100
00010010
00000010
00010000
00100100
00000000
POS 3 10,7
COL 4

SPR 1s
00000000
00001000
01010000
01010000
00010000
00010000
00010000
00001000
>
00000000
00000000
00100100
01001000
01001000
00001000
00000100
00000000
POS 3 5,7
COL 4

SPR 1t
00000000
00000000
00000000
01000000
00100000
00000000
00000000
00000000
>
00000000
01000000
00100000
00011000
00000000
00000000
00000000
00000000
POS 3 6,9
COL 4

SPR 1u
00000000
00000000
00000000
00000100
00001000
00000000
00000000
00000000
>
00000000
00000100
00001000
00110000
00000000
00000000
00000000
00000000
POS 3 9,9
COL 4

ITM 0
00000000
00000000
00010000
00101000
00010000
00000000
00000000
00000000
>
00000000
00000000
00101000
00010000
00101000
00000000
00000000
00000000
DLG ITM_1

ITM 1
00000000
00000000
00010000
00101000
00010000
00000000
00000000
00000000
>
00000000
00000000
00101000
00010000
00101000
00000000
00000000
00000000
DLG ITM_2

ITM 2
00000000
00000000
00010000
00101000
00010000
00000000
00000000
00000000
>
00000000
00000000
00101000
00010000
00101000
00000000
00000000
00000000
DLG ITM_3

ITM 3
00000000
00000000
00010000
00101000
00010000
00000000
00000000
00000000
>
00000000
00000000
00101000
00010000
00101000
00000000
00000000
00000000
DLG ITM_4

ITM 4
00000000
00000000
00010000
00101000
00010000
00000000
00000000
00000000
>
00000000
00000000
00101000
00010000
00101000
00000000
00000000
00000000
DLG ITM_5

ITM 5
00000000
00000000
00010000
00101000
00010000
00000000
00000000
00000000
>
00000000
00000000
00101000
00010000
00101000
00000000
00000000
00000000
DLG ITM_6
COL 10

DLG a
thy bitter taste hangeth on the air: radiant upon the tongue, a sullen mire, yet bright as wine

DLG SPR_0
but thou must, i know, take thine leave in thy celestial cycle; i vow my bravery, left below, thy faithful guard always

DLG SPR_1
in this thou vex'd me and ne'er relent. bound by your light, i am stricken in thine absence, so fleeting

DLG SPR_2
indolent keeper, reveal thyself; reflect thyself upon the glass of mine eyes, the quivering soul within shriven wide for thee

DLG SPR_3
glory compelled along the tides, at peace under cool springs and opiate depths: thou lureth the wanderer and devotee

DLG SPR_4
this wearying travail is no match for thine invigorating vapors, the mists rising pallid from the tides in thine image

DLG ITM_0
fuck

DLG ITM_1
thy bitter taste hangeth on the air: radiant upon the tongue, a sullen mire, yet bright as wine

DLG ITM_2
indolent keeper, reveal thyself; reflect thyself upon the glass of mine eyes, the quivering soul within shriven wide for thee

DLG ITM_3
glory compelled along the tides, at peace under cool waves and opiate depths: thou lureth wanderer and devotee

DLG ITM_4
the wearying travail is undone by thine invigorating vapors, the mists rising pallid from the surf in thine image

DLG ITM_5
in this thou vex me and ne'er relent. bound by your light, i am stricken in thine absence, so fleeting

DLG ITM_6
but thou must, i know, make thy pilgrimage; i remain thy faithful guard always

DLG SPR_5
thy bitter taste hangeth on the air: radiant upon the tongue, a sullen mire, yet bright as wine

END 0
i shall sink, then, if in so doing i shall rise with thee.

END 1
i shall sink, then, if in so doing i shall rise with thee.

