The world is here.

# BITSY VERSION 3.5

! ROOM_FORMAT 1

PAL 0
0,82,204
128,159,255
255,255,255

PAL 1
128,0,0
255,128,128
255,255,255

ROOM 0
0,0,0,0,0,0,0,0,0,0,0,0,0,0,0,0
0,a,a,a,a,a,a,a,a,a,a,a,a,a,a,0
0,a,0,0,0,0,j,j,0,0,0,0,0,0,a,0
0,a,0,0,0,0,j,j,0,0,0,0,0,0,a,0
0,a,0,0,0,0,j,j,0,0,0,0,0,0,a,0
0,a,0,0,0,0,j,j,0,0,0,0,0,0,a,0
0,a,0,0,0,0,j,j,0,0,0,0,0,0,a,0
0,a,0,0,0,0,j,j,0,0,0,0,0,0,a,0
0,a,0,0,0,g,b,b,e,0,0,0,0,0,a,0
0,a,0,0,0,h,c,c,i,0,0,0,0,0,a,0
0,a,0,0,0,0,0,0,0,0,0,0,0,0,a,0
0,a,0,0,0,0,0,0,0,0,0,0,0,0,a,0
0,a,0,0,0,0,0,0,0,0,0,0,0,0,a,0
0,a,0,0,d,0,d,0,d,0,d,0,0,0,a,0
0,a,a,a,a,a,a,a,a,a,a,a,a,k,a,0
0,0,0,0,0,0,0,0,0,0,0,0,0,0,0,0
WAL a,b,c,e,g,j,i,h
EXT 13,14 1 2,2
PAL 0

ROOM 1
0,0,0,0,0,0,0,0,0,0,0,0,0,0,0,0
0,a,a,a,a,a,a,a,a,a,a,a,a,a,a,0
0,a,0,k,0,0,0,0,0,0,0,0,0,0,a,0
0,a,0,0,0,0,0,0,0,0,0,0,0,0,a,0
0,a,0,0,0,0,0,0,0,0,0,0,0,0,a,0
0,a,0,0,0,0,0,0,0,0,0,0,0,0,a,0
0,a,a,a,a,a,a,k,k,a,a,a,a,a,a,0
0,a,0,0,0,0,0,0,0,0,0,0,0,0,a,0
0,a,0,m,0,0,0,p,p,p,p,0,0,0,a,0
0,a,0,l,0,0,0,p,p,p,p,0,0,0,a,0
0,a,0,l,0,0,0,p,p,p,p,0,0,0,o,0
0,a,0,l,0,0,0,p,p,p,p,0,0,0,a,0
0,a,0,n,0,0,0,p,p,p,p,0,0,0,a,0
0,a,0,0,0,0,0,0,0,0,0,0,0,0,a,0
0,a,a,a,a,a,a,a,a,a,a,a,a,a,a,0
0,0,0,0,0,0,0,0,0,0,0,0,0,0,0,0
WAL a,b,c,e,g,h,i,j,m,l,n
EXT 3,2 0 13,13
EXT 14,10 2 2,10
PAL 1

ROOM 2
0,0,0,0,0,0,0,0,0,0,0,0,0,0,0,0
0,a,a,a,a,a,a,a,a,a,a,a,a,a,a,0
0,a,0,0,0,0,0,0,0,0,0,0,0,0,a,0
0,a,0,0,0,0,0,0,0,0,0,0,0,0,a,0
0,a,0,0,0,0,0,0,0,0,0,0,0,0,a,0
0,a,0,0,0,0,0,0,0,0,0,0,0,0,a,0
0,a,0,0,0,0,0,0,0,0,0,0,0,0,a,0
0,a,i,h,0,0,0,0,0,0,0,0,g,e,a,0
0,a,e,g,0,0,0,0,0,0,0,0,h,i,a,0
0,a,a,a,a,a,a,k,k,a,a,a,a,a,a,0
0,o,0,0,0,0,0,0,0,0,0,0,0,0,o,0
0,a,a,a,a,a,a,k,k,a,a,a,a,a,a,0
0,a,i,h,0,0,0,0,0,0,0,0,g,e,a,0
0,a,e,g,0,0,0,0,0,0,0,0,h,i,a,0
0,a,a,a,a,a,a,a,a,a,a,a,a,a,a,0
0,0,0,0,0,0,0,0,0,0,0,0,0,0,0,0
WAL a,i,e,g,h
EXT 1,10 1 13,10
EXT 14,10 3 2,10
PAL 1

ROOM 3
0,0,0,0,0,0,0,0,0,0,0,0,0,0,0,0
0,a,a,a,a,a,a,k,a,a,a,a,a,a,a,0
0,a,0,0,0,0,0,0,0,0,0,0,0,0,a,0
0,a,0,d,0,0,0,0,0,0,0,0,d,0,a,0
0,a,0,0,0,0,0,0,0,0,0,0,0,0,a,0
0,a,0,d,0,0,0,0,0,0,0,0,d,0,a,0
0,a,0,0,0,0,0,0,0,0,0,0,0,0,a,0
0,a,a,a,a,a,k,k,k,k,a,a,a,a,a,0
0,a,0,0,0,0,0,0,0,0,0,0,0,0,a,0
0,a,0,0,0,0,0,0,0,0,0,0,0,0,a,0
0,o,0,0,0,0,0,0,0,0,0,0,0,0,a,0
0,a,b,l,b,b,l,b,b,l,b,b,l,b,a,0
0,a,j,l,j,j,l,j,j,l,j,j,l,j,a,0
0,a,j,l,j,j,l,j,j,l,j,j,l,j,a,0
0,a,a,a,a,a,a,a,a,a,a,a,a,a,a,0
0,0,0,0,0,0,0,0,0,0,0,0,0,0,0,0
WAL a,l,j,b
EXT 1,10 2 13,10
EXT 7,1 4 7,13
PAL 0

ROOM 4
0,0,0,0,0,0,0,0,0,0,0,0,0,0,0,0
0,a,a,a,a,a,a,a,a,a,a,a,a,a,a,0
0,a,0,0,0,0,0,0,0,0,0,0,0,0,a,0
0,a,0,0,0,0,0,0,0,0,0,0,0,0,a,0
0,a,0,0,0,0,0,0,0,0,0,0,0,0,a,0
0,a,0,0,0,0,0,0,0,0,0,0,0,0,a,0
0,a,0,0,0,0,a,a,a,0,0,0,0,0,a,0
0,a,0,0,0,0,a,0,a,0,0,0,0,0,a,0
0,a,0,0,0,0,d,k,d,0,0,0,0,0,a,0
0,a,0,0,0,0,0,0,0,0,0,0,0,0,a,0
0,a,0,0,0,0,0,0,0,0,0,0,0,0,a,0
0,a,0,0,0,0,0,0,0,0,0,0,0,0,a,0
0,a,0,0,0,0,0,0,0,0,0,0,0,0,a,0
0,a,0,0,0,0,0,0,0,0,0,0,0,0,a,0
0,a,a,a,a,a,a,k,a,a,a,a,a,a,a,0
0,0,0,0,0,0,0,0,0,0,0,0,0,0,0,0
WAL a
EXT 7,14 3 7,2
END undefined 7,7
END undefined 7,8
PAL 0

TIL a
11111111
11111111
11111111
11111111
11111111
11111111
11111111
11111111

TIL b
11111111
01100110
01100110
01100110
01100110
01100110
01100110
01100110

TIL c
01100110
01100110
01100110
01100110
01100110
01100110
01100110
11111111

TIL d
00000100
00100000
00001000
00010000
00000000
00111100
01111110
11111111
>
00001000
00010000
00000100
00100000
00000000
00111100
01111110
11111111

TIL e
11000000
10100000
10110000
10111000
10110100
10110110
10110101
11111111

TIL g
00000011
00000101
00001101
00011101
00101101
01101101
10101101
11111111

TIL h
11111111
10101101
01101101
00101101
00011101
00001101
00000101
00000011

TIL i
11111111
10110101
10110110
10110100
10111000
10110000
10100000
11000000

TIL j
01100110
01100110
01100110
01100110
01100110
01100110
01100110
01100110

TIL k
00000000
11111111
00000000
11111111
00000000
11111111
00000000
11111111

TIL l
01111110
01111110
01111110
01111110
01111110
01111110
01111110
01111110

TIL m
00000000
00000000
00000000
00111100
01111110
01111110
01111110
01111110

TIL n
01111110
01111110
01111110
01111110
01111110
00111100
00000000
00000000

TIL o
01111110
01111110
00011000
00000000
00000000
00011000
01111110
01111110
>
01111110
01111110
00011000
00011000
00011000
00011000
01111110
01111110

TIL p
00001111
00001111
00001111
00001111
11110000
11110000
11110000
11110000
>
11110000
11110000
11110000
11110000
00001111
00001111
00001111
00001111

SPR A
00011000
00011000
00000000
00111100
01011010
01011010
00000000
00100100
>
00000000
00011000
00011000
00111100
01011010
10011001
00000000
00011000
POS 0 3,3

SPR a
00000000
00000000
00000000
00011000
00111100
00111100
00011000
00011000
>
00000000
00000000
00011000
00000000
00111100
00111100
00011000
00011000
POS 0 9,11

SPR b
00010000
00001000
00111100
10100101
01111110
00011000
00011000
00011000
>
00001000
00010000
00111100
00111100
00111100
00011000
00011000
00011000
POS 1 2,10

SPR c
00000000
00000000
00000100
00011100
00011000
00111000
00111100
00111100
>
00000000
00000000
00100000
00011000
00011000
00111000
00111100
00111100
POS 1 8,9

SPR d
00100000
00111000
00001000
00011100
00110100
00001000
00110000
00100000
>
00000100
00001100
00001000
00111000
00101100
00010000
00001100
00000100
POS 1 10,10

SPR e
00000000
01000010
00111100
00000000
00000000
00011000
00011000
00011000
>
00000000
00000000
00111100
01011010
00000000
00011000
00011000
00011000
POS 1 8,12

SPR f
00000000
00011000
00010100
00011000
00010000
00111100
01010000
00011100
>
00000000
00011000
01010100
01011000
00110000
00011100
00010000
00011100
POS 2 4,13

SPR g
00000000
00010100
00101010
00110110
00111110
01011010
00100110
00111100
>
00000000
00000000
00111110
00110110
00111110
01011010
00100110
00111100
POS 2 11,13

SPR h
00000000
00011000
00000000
00011000
11000011
01000010
01100110
00111100
>
00000000
00000000
00011000
00000000
11011011
01000010
01100110
00111100
POS 3 7,4

SPR i
00000000
00011000
00000000
00011000
00000000
01111110
00000000
01111110
>
00000000
00000000
00011000
00000000
00011000
00111100
00011000
00111100
POS 4 7,7

DLG a
When there's no doubt, only direction is forward.

DLG b
Always be drunk, either by poetry, wine, or virtue. For you feel jolly. Like a drink?

DLG c
Drink and be merry!

DLG d
Dance and be merry!

DLG e
Don't worry, be happy.

DLG f
You've come so far, yet you've gone not where.

DLG g
I'm just a chair.

DLG h
If you wish to know what is unknown, then you must learn it.

END 0


END undefined
Secret: Knowledge that is hidden. When you find it, it becomes your secret. When shared, it becomes knowledge. Share your knowledge.

END undefinee


