
Birdsong

# BITSY VERSION 4.8

! ROOM_FORMAT 1

PAL 0
NAME grasslands
121,204,103
58,92,46
255,255,255

PAL 1
NAME cave
112,150,255
0,0,0
255,255,255

PAL 2
NAME owlPal
0,0,0
59,135,71
255,225,1

PAL 3
NAME robinPal
180,255,120
0,94,5
255,50,4

PAL 4
NAME swallowPal
255,197,94
252,255,3
53,144,255

PAL 5
NAME wrenPal
64,103,78
0,0,0
255,255,255

PAL 6
NAME crowPal
112,112,112
255,255,254
0,0,0

PAL 7
NAME overworld
127,255,135
2,74,0
255,255,255

PAL 8
NAME finale
0,0,0
255,255,255
0,0,0

PAL 9
NAME finale2
0,0,0
226,252,255
0,0,0

PAL a
NAME finale3
0,0,0
187,252,255
0,0,0

PAL b
NAME finale4
0,0,0
47,251,255
0,0,0

ROOM 0
0,0,0,0,0,0,i,0,0,0,0,0,0,0,c,0
0,0,0,t,0,0,i,0,t,0,0,b,0,0,0,0
0,t,e,0,0,0,i,0,s,0,0,0,c,b,0,0
0,0,0,0,0,0,i,0,0,0,0,0,0,0,0,0
0,0,t,0,0,m,i,n,h,h,h,0,0,0,0,0
0,0,0,0,0,l,j,k,0,0,d,0,0,t,s,0
0,0,0,0,0,0,i,0,b,c,0,0,0,e,0,0
h,h,h,h,h,h,u,0,0,c,0,0,0,c,0,0
0,0,0,0,0,0,l,m,0,0,0,0,0,0,0,0
0,0,0,0,0,b,0,i,0,p,o,o,o,o,q,0
0,0,0,c,0,0,s,b,0,0,0,0,0,0,0,0
0,b,c,0,c,0,0,t,0,0,0,0,0,0,0,0
0,0,0,b,0,0,0,0,0,0,e,r,0,c,d,0
0,0,0,0,0,d,0,0,4w,0,0,0,d,0,0,0
0,0,0,0,0,0,0,0,0,0,0,0,0,0,0,0
0,0,0,0,0,0,0,0,0,0,0,0,0,0,0,0
NAME overworld old
ITM 1 8,5
EXT 7,10 1 6,7
EXT 6,0 2 8,12
PAL 0

ROOM 1
v,v,v,v,v,v,v,v,v,v,v,v,v,v,v,v
v,v,v,v,v,v,v,v,v,v,v,v,v,v,v,v
v,v,v,v,v,v,v,v,v,v,v,v,v,v,v,v
v,v,v,v,v,v,v,v,v,v,v,v,v,v,v,v
v,v,v,v,v,v,v,v,v,v,v,v,v,v,v,v
v,v,v,v,v,v,v,v,v,v,v,v,v,v,v,v
v,v,v,v,v,x,y,z,17,16,15,14,v,v,v,v
v,v,v,v,v,10,w,0,0,19,1k,13,v,v,v,v
v,v,v,v,v,11,12,12,12,12,18,v,v,v,v,v
v,v,v,v,v,v,v,v,v,v,v,v,v,v,v,v
v,v,v,v,v,v,v,v,v,v,v,v,v,v,v,v
v,v,v,v,v,v,v,v,v,v,v,v,v,v,v,v
v,v,v,v,v,v,v,v,v,v,v,v,v,v,v,v
v,v,v,v,v,v,v,v,v,v,v,v,v,v,v,v
v,v,v,v,v,v,v,v,v,v,v,v,v,v,v,v
v,v,v,v,v,v,v,v,v,v,v,v,v,v,v,v
NAME nest
EXT 6,7 7 7,14
PAL 1

ROOM 2
0,0,0,0,0,0,0,0,0,0,0,0,0,1f,v,v
0,0,0,0,0,0,0,0,0,0,0,0,0,1f,v,v
0,0,0,0,0,0,0,0,0,0,0,0,0,0,1g,1h
0,0,0,0,0,0,0,0,0,0,0,0,0,0,0,1i
0,0,0,0,0,0,0,0,0,0,0,0,0,0,0,0
0,0,0,0,0,0,0,0,0,0,0,0,0,0,0,0
0,0,0,0,0,0,0,0,0,0,0,0,0,0,1a,1b
0,0,0,0,0,0,0,0,0,0,0,0,0,0,0,0
0,0,0,0,0,0,0,0,0,0,0,0,0,0,0,0
0,0,0,0,0,0,0,0,0,0,0,0,0,0,0,0
0,0,0,0,0,0,0,0,0,0,0,0,0,0,0,0
1d,1d,1d,1d,1e,1e,1e,1e,1e,1e,1e,1e,1e,1d,1d,1d
0,b,0,b,c,0,0,0,1l,0,0,0,b,d,s,0
0,0,d,s,0,b,0,s,0,0,c,s,0,0,0,0
0,d,0,b,0,s,c,0,0,t,0,d,0,0,s,d
0,0,0,0,0,0,0,0,0,0,0,0,0,0,0,0
NAME owlRoom
EXT 8,12 7 1,9
PAL 2

ROOM 3
0,0,0,0,0,0,0,0,29,2e,v,2d,v,v,2e,v
0,0,0,0,0,0,0,0,0,28,v,v,2c,v,v,v
0,0,0,0,0,0,0,0,0,27,2c,v,2e,v,2d,v
0,0,0,0,0,0,0,0,0,26,23,2d,v,2e,v,1z
0,0,0,0,0,0,0,0,0,0,22,21,1x,1x,1y,20
0,0,0,0,0,0,0,0,0,0,0,0,v,v,0,0
0,0,0,0,0,0,0,0,0,0,0,0,2b,v,0,0
0,2k,2l,2m,2n,0,0,2k,2l,2l,2m,2n,v,v,0,2k
2p,0,0,0,2o,0,2p,0,0,0,0,2o,v,v,2p,0
2h,0,0,0,2i,2h,2g,2h,2i,2h,2g,1q,v,v,2a,2i
v,v,2j,v,v,v,v,v,v,v,v,v,v,v,v,v
v,v,v,v,v,v,v,v,v,v,v,v,v,v,v,v
v,v,v,v,v,v,v,v,v,v,v,v,v,v,v,v
v,v,v,v,v,v,v,v,v,v,v,v,v,v,v,v
v,v,v,v,v,v,v,v,v,v,v,v,v,v,v,v
v,v,v,v,v,v,v,v,v,v,v,v,v,v,v,v
NAME robinRoom
EXT 0,0 7 4,3
EXT 1,0 7 4,3
EXT 2,0 7 4,3
EXT 3,0 7 4,3
EXT 5,0 7 4,3
EXT 4,0 7 4,3
EXT 6,0 7 4,3
EXT 7,0 7 4,3
PAL 3

ROOM 4
0,0,0,0,0,0,0,0,0,0,0,36,35,0,38,0
0,0,0,0,3a,3b,0,0,0,3a,3b,0,30,32,0,0
0,3a,3b,0,0,0,0,3a,3b,0,0,34,31,33,34,0
0,0,0,0,0,3a,3b,0,0,0,0,39,35,0,37,0
0,0,3a,3b,0,0,0,3a,3b,0,0,0,0,3a,3b,0
0,0,0,0,0,0,0,0,0,0,0,0,0,0,0,0
0,0,0,0,0,0,0,0,0,0,0,0,0,0,0,0
0,0,0,0,0,0,0,0,0,0,0,0,0,0,0,0
0,0,0,0,0,0,0,0,0,0,0,0,0,0,0,0
0,0,0,0,0,0,0,0,0,0,0,0,0,0,0,0
0,0,0,0,0,0,0,0,0,0,0,0,0,0,0,0
0,0,0,0,0,0,0,0,0,0,0,0,0,0,0,0
0,0,0,0,0,0,0,0,0,0,0,0,0,0,0,0
2r,2r,2r,2r,2r,2s,0,0,0,0,0,0,0,0,0,0
v,v,v,v,v,2t,1e,1e,2w,1e,1e,1e,1e,1e,1e,1e
v,v,v,v,v,2u,0,2x,2v,2x,2x,0,0,2z,2y,0
NAME swallowRoom
EXT 9,15 7 14,8
EXT 10,15 7 14,8
EXT 7,15 7 14,8
PAL 4

ROOM 5
v,v,v,v,v,v,v,v,v,v,v,v,v,v,v,v
v,v,v,v,v,v,v,v,v,v,v,v,v,v,v,v
v,v,v,v,v,v,v,v,v,v,v,v,v,v,v,v
v,v,v,v,v,3p,0,0,0,0,0,0,0,0,v,v
v,v,v,v,v,0,0,0,0,0,0,0,0,0,v,v
v,v,v,v,v,0,0,0,0,0,3k,3j,3h,3i,v,v
v,v,v,v,v,0,0,0,0,0,3e,3c,3d,3f,v,v
v,v,v,v,v,3m,3n,3o,0,0,0,0,3g,0,v,v
v,v,v,v,v,0,0,0,0,0,0,0,0,0,v,v
v,v,v,v,v,v,v,v,v,v,v,v,v,v,v,v
v,v,v,v,v,v,v,v,v,v,v,v,v,v,v,v
v,v,v,v,v,v,v,v,v,v,v,v,v,v,v,v
v,v,v,v,v,v,v,v,v,v,v,v,v,v,v,v
v,v,v,v,v,v,v,v,v,v,v,v,v,v,v,v
v,v,v,v,v,v,v,v,v,v,v,v,v,v,v,v
v,v,v,v,v,v,v,v,v,v,v,v,v,v,v,v
NAME wrenRoom
EXT 5,3 7 10,1
PAL 5

ROOM 6
0,0,0,0,0,0,0,0,0,0,0,0,0,0,3y,3y
0,0,0,0,0,0,0,0,0,0,0,0,0,3x,3z,3z
0,0,0,0,0,0,0,0,0,0,0,0,3x,3z,3z,3z
0,0,0,0,4e,4g,4g,4g,4f,0,0,3x,3z,3z,3z,3z
0,0,0,0,4o,4l,4m,4n,4d,0,3w,3u,3u,3u,3u,3u
0,0,0,0,4c,4i,49,4h,4b,0,3v,0,0,0,0,0
0,0,0,0,0,4k,4j,0,0,0,3v,0,0,0,0,0
4a,4a,4a,4a,4a,4a,4v,4a,4a,4a,4p,0,0,0,0,0
0,0,0,0,0,0,42,0,0,0,3v,0,0,0,43,44
0,0,0,0,0,0,42,0,0,0,3v,0,0,0,42,45
0,0,0,0,0,0,42,0,0,0,3v,0,0,0,42,0
3y,3y,3y,3y,3y,3y,41,3y,3y,3y,48,0,0,0,42,0
0,0,0,0,0,0,0,0,0,0,3v,0,0,0,42,0
0,3s,0,0,0,0,0,0,3q,3r,3t,40,40,40,41,3y
0,0,4q,0,0,0,0,4s,0,47,46,4t,4t,4t,4u,0
0,0,0,0,0,0,0,0,47,46,4t,4t,4t,4t,4u,0
NAME crowRoom
EXT 0,0 7 13,1
EXT 1,0 7 13,1
EXT 2,0 7 13,1
EXT 3,0 7 13,1
EXT 4,0 7 13,1
EXT 5,0 7 13,1
EXT 6,0 7 13,1
EXT 7,0 7 13,1
EXT 8,0 7 13,1
EXT 9,0 7 13,1
EXT 10,0 7 13,1
EXT 11,0 7 13,1
EXT 12,0 7 13,1
PAL 6

ROOM 7
5o,5s,5s,5s,5s,5s,5s,5s,5s,5s,5s,5s,5s,5s,5s,5p
5r,0,0,0,0,0,0,0,0,0,57,0,5e,4x,0,1j
5r,0,5g,5h,5g,5h,0,0,0,0,5f,0,0,4z,0,1j
5r,0,5g,5h,5j,5m,51,50,5l,50,59,51,50,53,0,1j
5r,0,5h,5h,5g,5h,0,0,4z,0,0,0,0,0,0,1j
5r,0,5g,5h,5g,5h,0,54,53,0,0,5u,5t,0,0,1j
5r,0,0,0,0,0,0,4y,0,0,5w,5x,5i,5x,0,1j
5r,0,0,0,0,0,0,4y,0,0,54,51,55,0,0,1j
5r,0,0,0,0,54,51,52,50,50,53,5h,56,5a,58,1j
5r,5c,5d,51,50,53,0,4y,0,5g,5g,5h,5g,5g,0,1j
5r,0,0,0,0,0,0,4y,0,5g,5h,5g,5g,5h,0,1j
5r,0,0,0,0,0,0,4z,0,5g,5g,5h,5h,5g,0,1j
5r,0,0,0,0,0,0,4y,0,0,5h,5g,0,0,0,1j
5r,0,5x,5w,5u,5t,0,4z,0,0,0,0,0,0,0,1j
5r,0,5u,5v,5k,5i,0,4w,0,0,0,0,0,0,0,1j
5q,3y,3y,3y,3y,3y,3y,3y,3y,3y,3y,3y,3y,3y,3y,5n
NAME overworld
EXT 7,14 1 6,7
EXT 1,9 2 8,12
EXT 4,3 3 0,1
EXT 10,1 5 5,3
EXT 13,1 6 0,1
EXT 14,8 4 9,14
PAL 7

ROOM 8
0,0,0,0,0,0,0,5y,0,0,0,0,0,0,0,0
0,0,0,0,0,0,0,0,0,0,0,0,0,0,0,0
0,0,0,0,0,0,0,0,0,0,0,0,0,0,0,0
0,0,0,0,0,0,0,0,0,0,0,0,0,0,0,0
0,0,0,0,0,0,0,0,0,0,0,0,0,0,0,0
0,0,0,0,0,0,0,0,0,0,0,0,0,0,0,0
0,0,0,0,0,0,0,0,0,0,0,0,0,0,0,0
0,0,0,0,0,0,0,0,0,0,0,0,0,0,0,0
0,0,0,0,0,0,0,0,0,0,0,0,0,0,0,0
0,0,0,0,0,0,0,0,0,0,0,0,0,0,0,0
0,0,0,0,0,0,0,0,0,0,0,0,0,0,0,0
0,0,0,0,0,0,0,0,0,0,0,0,0,0,0,0
0,0,0,0,0,0,0,0,0,0,0,0,0,0,0,0
0,0,0,0,0,0,0,0,0,0,0,0,0,0,0,0
0,0,0,0,0,0,0,0,0,0,0,0,0,0,0,0
0,0,0,0,0,0,0,0,0,0,0,0,0,0,0,0
NAME finale1
EXT 1,0 9 1,1
EXT 0,1 9 1,1
EXT 2,1 9 1,1
EXT 1,2 9 1,1
PAL 8

ROOM 9
0,0,0,0,0,0,0,5z,0,0,0,0,0,0,0,0
0,0,0,0,0,0,0,60,0,0,0,0,0,0,0,0
0,0,0,0,0,0,0,0,0,0,0,0,0,0,0,0
0,0,0,0,0,0,0,0,0,0,0,0,0,0,0,0
0,0,0,0,0,0,0,0,0,0,0,0,0,0,0,0
0,0,0,0,0,0,0,0,0,0,0,0,0,0,0,0
0,0,0,0,0,0,0,0,0,0,0,0,0,0,0,0
0,0,0,0,0,0,0,0,0,0,0,0,0,0,0,0
0,0,0,0,0,0,0,0,0,0,0,0,0,0,0,0
0,0,0,0,0,0,0,0,0,0,0,0,0,0,0,0
0,0,0,0,0,0,0,0,0,0,0,0,0,0,0,0
0,0,0,0,0,0,0,0,0,0,0,0,0,0,0,0
0,0,0,0,0,0,0,0,0,0,0,0,0,0,0,0
0,0,0,0,0,0,0,0,0,0,0,0,0,0,0,0
0,0,0,0,0,0,0,0,0,0,0,0,0,0,0,0
0,0,0,0,0,0,0,0,0,0,0,0,0,0,0,0
NAME finale2
EXT 1,0 a 1,1
EXT 0,1 a 1,1
EXT 2,1 a 1,1
EXT 1,2 a 1,1
PAL 9

ROOM a
0,0,0,0,0,0,0,61,0,0,0,0,0,0,0,0
0,0,0,0,0,0,65,62,63,0,0,0,0,0,0,0
0,0,0,0,0,0,0,0,0,0,0,0,0,0,0,0
0,0,0,0,0,0,0,0,0,0,0,0,0,0,0,0
0,0,0,0,0,0,0,0,0,0,0,0,0,0,0,0
0,0,0,0,0,0,0,0,0,0,0,0,0,0,0,0
0,0,0,0,0,0,0,0,0,0,0,0,0,0,0,0
0,0,0,0,0,0,0,0,0,0,0,0,0,0,0,0
0,0,0,0,0,0,0,0,0,0,0,0,0,0,0,0
0,0,0,0,0,0,0,0,0,0,0,0,0,0,0,0
0,0,0,0,0,0,0,0,0,0,0,0,0,0,0,0
0,0,0,0,0,0,0,0,0,0,0,0,0,0,0,0
0,0,0,0,0,0,0,0,0,0,0,0,0,0,0,0
0,0,0,0,0,0,0,0,0,0,0,0,0,0,0,0
0,0,0,0,0,0,0,0,0,0,0,0,0,0,0,0
0,0,0,0,0,0,0,0,0,0,0,0,0,0,0,0
NAME finale3
EXT 1,0 c 1,1
EXT 0,1 c 1,1
EXT 1,2 c 1,1
EXT 2,1 c 1,1
PAL a

ROOM c
0,0,0,0,0,0,0,66,64,0,0,0,0,0,0,0
0,0,0,0,0,0,67,6c,6b,0,0,0,0,0,0,0
0,0,0,0,0,6a,68,69,6d,6e,0,0,0,0,0,0
0,0,0,0,0,0,0,0,0,0,0,0,0,0,0,0
0,0,0,0,0,0,0,0,0,0,0,0,0,0,0,0
0,0,0,0,0,0,0,0,0,0,0,0,0,0,0,0
0,0,0,0,0,0,0,0,0,0,0,0,0,0,0,0
0,0,0,0,0,0,0,0,0,0,0,0,0,0,0,0
0,0,0,0,0,0,0,0,0,0,0,0,0,0,0,0
0,0,0,0,0,0,0,0,0,0,0,0,0,0,0,0
0,0,0,0,0,0,0,0,0,0,0,0,0,0,0,0
0,0,0,0,0,0,0,0,0,0,0,0,0,0,0,0
0,0,0,0,0,0,0,0,0,0,0,0,0,0,0,0
0,0,0,0,0,0,0,0,0,0,0,0,0,0,0,0
0,0,0,0,0,0,0,0,0,0,0,0,0,0,0,0
0,0,0,0,0,0,0,0,0,0,0,0,0,0,0,0
NAME finale4
END 0 1,0
END 0 0,1
END 0 2,1
END 0 1,2
PAL b

ROOM d
0,0,0,0,0,0,0,5y,0,0,0,0,0,0,0,0
0,0,0,0,0,0,0,0,0,0,0,0,0,0,0,0
0,0,0,0,0,0,0,0,0,0,0,0,0,0,0,0
0,0,0,0,0,0,0,0,0,0,0,0,0,0,0,0
0,0,0,0,0,0,0,0,0,0,0,0,0,0,0,0
0,0,0,0,0,0,0,0,0,0,0,0,0,0,0,0
0,0,0,0,0,0,0,0,0,0,0,0,0,0,0,0
0,0,0,0,0,0,0,0,0,0,0,0,0,0,0,0
0,0,0,0,0,0,0,0,0,0,0,0,0,0,0,0
0,0,0,0,0,0,0,0,0,0,0,0,0,0,0,0
0,0,0,0,0,0,0,0,0,0,0,0,0,0,0,0
0,0,0,0,0,0,0,0,0,0,0,0,0,0,0,0
0,0,0,0,0,0,0,0,0,0,0,0,0,0,0,0
0,0,0,0,0,0,0,0,0,0,0,0,0,0,0,0
0,0,0,0,0,0,0,0,0,0,0,0,0,0,0,0
0,0,0,0,0,0,0,0,0,0,0,0,0,0,0,0
NAME afinale1
EXT 1,0 e 1,1
EXT 0,1 e 1,1
EXT 2,1 e 1,1
EXT 1,2 e 1,1
PAL 8

ROOM e
0,0,0,0,0,0,0,6h,0,0,0,0,0,0,0,0
0,0,0,0,0,0,0,6g,0,0,0,0,0,0,0,0
0,0,0,0,0,0,0,0,0,0,0,0,0,0,0,0
0,0,0,0,0,0,0,0,0,0,0,0,0,0,0,0
0,0,0,0,0,0,0,0,0,0,0,0,0,0,0,0
0,0,0,0,0,0,0,0,0,0,0,0,0,0,0,0
0,0,0,0,0,0,0,0,0,0,0,0,0,0,0,0
0,0,0,0,0,0,0,0,0,0,0,0,0,0,0,0
0,0,0,0,0,0,0,0,0,0,0,0,0,0,0,0
0,0,0,0,0,0,0,0,0,0,0,0,0,0,0,0
0,0,0,0,0,0,0,0,0,0,0,0,0,0,0,0
0,0,0,0,0,0,0,0,0,0,0,0,0,0,0,0
0,0,0,0,0,0,0,0,0,0,0,0,0,0,0,0
0,0,0,0,0,0,0,0,0,0,0,0,0,0,0,0
0,0,0,0,0,0,0,0,0,0,0,0,0,0,0,0
0,0,0,0,0,0,0,0,0,0,0,0,0,0,0,0
NAME afinale2
EXT 1,0 f 1,1
EXT 0,1 f 1,1
EXT 2,1 f 1,1
EXT 1,2 f 1,1
PAL 9

ROOM f
0,0,0,0,0,0,0,6i,0,0,0,0,0,0,0,0
0,0,0,0,0,0,0,6j,0,0,0,0,0,0,0,0
0,0,0,0,0,0,0,6k,0,0,0,0,0,0,0,0
0,0,0,0,0,0,0,0,0,0,0,0,0,0,0,0
0,0,0,0,0,0,0,0,0,0,0,0,0,0,0,0
0,0,0,0,0,0,0,0,0,0,0,0,0,0,0,0
0,0,0,0,0,0,0,0,0,0,0,0,0,0,0,0
0,0,0,0,0,0,0,0,0,0,0,0,0,0,0,0
0,0,0,0,0,0,0,0,0,0,0,0,0,0,0,0
0,0,0,0,0,0,0,0,0,0,0,0,0,0,0,0
0,0,0,0,0,0,0,0,0,0,0,0,0,0,0,0
0,0,0,0,0,0,0,0,0,0,0,0,0,0,0,0
0,0,0,0,0,0,0,0,0,0,0,0,0,0,0,0
0,0,0,0,0,0,0,0,0,0,0,0,0,0,0,0
0,0,0,0,0,0,0,0,0,0,0,0,0,0,0,0
0,0,0,0,0,0,0,0,0,0,0,0,0,0,0,0
NAME afinale3
EXT 1,0 h 1,1
EXT 0,1 h 1,1
EXT 2,1 h 1,1
EXT 1,2 h 1,1
PAL a

ROOM g
0,0,0,0,0,0,6m,6l,6n,0,0,0,0,0,0,0
0,0,0,0,0,0,6p,6o,6y,0,0,0,0,0,0,0
0,0,0,0,0,0,6t,6q,6z,0,0,0,0,0,0,0
0,0,0,0,0,0,6w,6r,70,0,0,0,0,0,0,0
0,0,0,0,0,0,6x,6s,0,0,0,0,0,0,0,0
0,0,0,0,0,0,0,0,0,0,0,0,0,0,0,0
0,0,0,0,0,0,0,0,0,0,0,0,0,0,0,0
0,0,0,0,0,0,0,0,0,0,0,0,0,0,0,0
0,0,0,0,0,0,0,0,0,0,0,0,0,0,0,0
0,0,0,0,0,0,0,0,0,0,0,0,0,0,0,0
0,0,0,0,0,0,0,0,0,0,0,0,0,0,0,0
0,0,0,0,0,0,0,0,0,0,0,0,0,0,0,0
0,0,0,0,0,0,0,0,0,0,0,0,0,0,0,0
0,0,0,0,0,0,0,0,0,0,0,0,0,0,0,0
0,0,0,0,0,0,0,0,0,0,0,0,0,0,0,0
0,0,0,0,0,0,0,0,0,0,0,0,0,0,0,0
NAME afinale4
EXT 1,0 9 1,1
EXT 0,1 9 1,1
EXT 2,1 9 1,1
EXT 1,2 9 1,1
PAL b

ROOM h
0,0,0,0,0,0,6m,6l,6n,0,0,0,0,0,0,0
0,0,0,0,0,0,71,72,0,0,0,0,0,0,0,0
0,0,0,0,0,0,0,6q,0,0,0,0,0,0,0,0
0,0,0,0,0,0,0,73,0,0,0,0,0,0,0,0
0,0,0,0,0,0,0,74,0,0,0,0,0,0,0,0
0,0,0,0,0,0,0,0,0,0,0,0,0,0,0,0
0,0,0,0,0,0,0,0,0,0,0,0,0,0,0,0
0,0,0,0,0,0,0,0,0,0,0,0,0,0,0,0
0,0,0,0,0,0,0,0,0,0,0,0,0,0,0,0
0,0,0,0,0,0,0,0,0,0,0,0,0,0,0,0
0,0,0,0,0,0,0,0,0,0,0,0,0,0,0,0
0,0,0,0,0,0,0,0,0,0,0,0,0,0,0,0
0,0,0,0,0,0,0,0,0,0,0,0,0,0,0,0
0,0,0,0,0,0,0,0,0,0,0,0,0,0,0,0
0,0,0,0,0,0,0,0,0,0,0,0,0,0,0,0
0,0,0,0,0,0,0,0,0,0,0,0,0,0,0,0
NAME afinale4b
END 0 2,1
END 0 1,2
END 0 0,1
END 0 1,0
PAL b

TIL 10
11110000
11110000
11110000
11110000
11110000
11110000
11110000
11110000
WAL true

TIL 11
11111000
11111111
11111111
11111111
11111111
11111111
11111111
11111111
WAL true

TIL 12
00000000
11111111
11111111
11111111
11111111
11111111
11111111
11111111
WAL true

TIL 13
00001111
00001111
00001111
00001111
01001111
01001111
11011111
10011111
WAL true

TIL 14
11111111
11111111
11111111
11111111
01111111
00111111
00011111
00001111
WAL true

TIL 15
11111111
11111111
11111111
11000011
00000000
00000000
00000000
00000000
WAL true

TIL 16
11111111
11111111
11111111
11111111
11111111
11111110
11000000
00000000
WAL true

TIL 17
11111111
11111111
11111111
11111111
11111111
11111111
00111111
00000000
WAL true

TIL 18
01010101
11111111
11111111
11111111
11111111
11111111
11111111
11111111
WAL true

TIL 19
00000000
00000000
00000000
00000000
00000010
00000011
00000010
00000001

TIL 20
10000000
00000000
00000000
00000000
00000000
00000000
00000000
00000000

TIL 21
11111111
11111111
11111111
01111111
00111111
00011111
00000111
00000000
WAL true

TIL 22
00000001
00000000
00000000
00000000
00000000
00000000
00000000
00000000

TIL 23
11111111
11111111
11111111
11111111
11111111
01111111
00111111
00001111
WAL true

TIL 24
00111100
11100000
11010000
10100010
11111100
11111100
11111100
01111110

TIL 25
11111100
00111110
11111110
10111000
00111111
00101001
01101100
00101100

TIL 26
00001111
00001111
00000111
00000011
00000000
00000000
00000000
00000000

TIL 27
01111111
01111111
00111111
00011111
00111111
00111111
00111111
00011111
WAL true

TIL 28
11111111
11111111
01111111
11111111
11111111
11111111
11111111
01111111
WAL true

TIL 29
00000001
00000011
00000111
00000111
00000111
00000111
00000011
00000001

TIL 30
00000000
00011111
00111111
01111111
11111111
11111111
11111111
11111111

TIL 31
11111111
11111111
11111111
11111111
11111111
01111111
00111111
00011111

TIL 32
00000000
11110000
11111000
11111100
11111110
11111110
11111110
11111110

TIL 33
11111110
11111110
11111110
11111110
11111110
11111100
11111000
11110000

TIL 34
01111110
00000000
00000000
00000000
00000000
00000000
00000000
00000000

TIL 35
00000000
00000001
00000001
00000001
00000001
00000001
00000001
00000000

TIL 36
00000000
00000000
00000000
00010000
00001000
00000100
00000010
00000000

TIL 37
00000000
01000000
00100000
00010000
00001000
00000000
00000000
00000000

TIL 38
00000000
00000000
00000000
00001000
00010000
00100000
01000000
00000000

TIL 39
00000000
00000010
00000100
00001000
00010000
00000000
00000000
00000000

TIL 40
00000000
00000000
00000000
00000000
00000000
00000000
00001000
11111111


TIL 41
00101000
00101000
00101000
00101000
00101000
00101000
00101000
11111111

TIL 42
00101000
00101000
00101000
00101000
00101000
00101000
00101000
00101000

TIL 43
00111111
00101000
00101000
00101000
00101000
00101000
00101000
00101000

TIL 44
11111111
00000000
00000000
00000000
00000000
00000000
00000000
00000000

TIL 45
00000111
00000100
00000100
00000100
00000100
00000100
00000100
00000111

TIL 46
00010001
00100000
01000100
10000100
00000000
01001000
01001010
00000010

TIL 47
00000000
00000000
00000000
00000000
00000001
00000010
00000100
00001001

TIL 48
00001000
00001000
00001000
00001000
00001000
00001000
00001000
11111000

TIL 49
11111111
00000000
00000000
00000000
00000000
11111111
10101010
01010101
NAME hoop top

TIL 50
00000000
00000000
00000000
11100111
00011000
11000011
00111100
00000000
NAME ow

TIL 51
00000000
00000000
00011110
11100001
00001100
11110011
00000000
00000000
NAME ow

TIL 52
00101000
00101000
11101111
00000000
01101110
10101001
00101000
00101000
NAME ow

TIL 53
00101000
00101000
00101000
11001000
00010000
11100000
00000000
00000000
NAME ow

TIL 54
00000000
00000000
00000000
00011111
00010000
00100111
00101000
00101000
NAME ow

TIL 55
00000000
00000000
00000000
11100000
00010000
11001000
00101000
00101000
NAME ow

TIL 56
00101000
00101000
00100111
00010000
00001111
00000000
00000000
00000000
NAME ow

TIL 57
00001000
00011000
00111100
00101100
01111110
11111111
00011000
00111100
NAME ow wren tree

TIL 58
00000000
00001110
11101110
11101110
11100100
01001110
11100000
00000000
NAME ow swallow

TIL 59
00101000
00101000
00101000
11001111
00000000
11111111
00000000
00000000
NAME ow

TIL 60
00000010
00000001
00000000
00000000
00000000
00000000
00000000
00000000

TIL 61
01111110
00111100
00111100
00011110
00011011
00111000
01101100
11000110

TIL 62
00000011
00000101
00001000
00000100
00000000
00000000
00000000
00000000

TIL 63
00000000
10000000
11000000
01100000
00100000
01010000
10001000
00000000

TIL 64
00000000
00000000
00000000
00000000
00000000
10000000
01000000
00000000

TIL 65
00000001
00000010
00000100
00001010
00010001
00001000
00010000
00000000

TIL 66
11111111
01111110
00111100
00011110
00011011
00111000
01101100
11000110

TIL 67
00000001
00000010
00000100
00001010
00010001
00001000
00010100
00100010

TIL 68
01000010
00100001
01010000
10001000
00000100
10001000
00010000
00000000

TIL 69
00000000
00000000
10000000
01000000
00100000
01010000
00001000
00000000

TIL 70
00000000
00000000
00000000
00000000
10000000
11000000
01100000
10010000

TIL 71
00000001
00000000
00000000
00000000
00000000
00000000
00000000
00000000

TIL 72
11111000
11111100
01111110
00111111
01111110
11111100
01111110
00111111

TIL 73
01110000
11100000
01110000
00111000
00011100
00111000
01110000
00111000

TIL 74
00011000
00001100
00011000
00110000
00011000
00110000
00010000
00010000

TIL a
11111111
10000001
10000001
10011001
10011001
10000001
10000001
11111111

TIL b
00111100
01101110
01111010
01011110
00111100
00011000
00011000
00111100
NAME ow tree

TIL c
01111000
11101100
10111100
11101100
01111000
00110000
00110000
01111000
NAME ow tree 2

TIL d
00011110
00111101
00101111
00111011
00011110
00001100
00001100
00011110
NAME ow tree 3

TIL e
00001000
01000000
00010000
00000010
00100000
00001000
01000010
00000000
NAME ow grass

TIL f
00000000
01000100
00000000
00010010
01000000
00000100
00010000
00000000
NAME ow grass 2

TIL g
00000010
01000000
00001000
10100001
00000000
00001000
01000010
00001000
NAME ow grass 3

TIL h
00000000
00000000
00000000
11000111
00111000
00000000
00000000
00000000
NAME road -

TIL i
00010000
00010000
00010000
00001000
00001000
00001000
00010000
00010000
NAME road |

TIL j
00010000
00010000
00010000
11010011
00111100
00010000
00010000
00010000
NAME road +

TIL k
00010000
00010000
00010000
11100000
00000000
00000000
00000000
00000000
NAME road BR

TIL l
00010000
00010000
00010000
00001111
00000000
00000000
00000000
00000000
NAME road BL

TIL m
00000000
00000000
00000000
11100000
00010000
00010000
00010000
00010000
NAME road TR

TIL n
00000000
00000000
00000000
00011111
00100000
00100000
00010000
00010000
NAME road TL

TIL o
00000000
00000000
00000000
10101010
10101010
10101010
11111111
00000000
NAME fence

TIL p
00000000
00000000
00000000
00000010
00000010
00000010
00000011
00000000
NAME fence left

TIL q
00000000
00000000
00000000
01010000
01010000
01010000
11110000
00000000
NAME fence right

TIL r
00000000
00000000
00010000
01000000
00000100
00000000
00100000
00000000
NAME lgrass 1

TIL s
00000000
00000000
00000010
00000000
00000000
01000000
00000100
00000000
NAME lgrass 2

TIL t
00000000
00000000
01000000
00001000
00000000
00100000
00000010
00000000
NAME lgrass 3

TIL u
00010000
00010000
00010000
11110000
00010000
00010000
00010000
00010000
NAME road 3way

TIL v
11111111
11111111
11111111
11111111
11111111
11111111
11111111
11111111
NAME wall
WAL true

TIL w
00000000
00111000
00111100
01111110
01111110
01111110
01111110
01111110
NAME door

TIL x
11111111
11111111
11111111
11111111
11111111
11111111
11111110
11111100
WAL true

TIL y
11111111
11111111
11111111
11111111
11111111
11100000
00000000
00000000
WAL true

TIL z
11111111
11111111
11111111
11111111
11111111
00000111
00000000
00000000
WAL true

TIL 1a
00111111
00001000
00010000
00000000
00000000
00000000
00000000
00000000

TIL 1b
11111111
00000000
00000000
00000000
00000000
00000000
00000000
00000000

TIL 1c
00000000
00000000
00000000
00000000
00000000
00101000
00010000
00001000

TIL 1d
00000000
00000000
00000000
00000000
11111111
00000000
00000000
00000000

TIL 1e
00000000
00000000
00000000
11111111
00000000
00000000
00000000
00000000

TIL 1f
00000011
00000111
00001111
00001111
00001111
00001111
00000111
00000011

TIL 1g
11111111
11111111
01111111
01111111
01111111
00111111
00011110
00000000

TIL 1h
11111111
11111111
11111111
11111111
11111111
11111111
00111111
00011111

TIL 1i
00011111
00001111
00000111
00000000
00000000
00000000
00000000
00000000

TIL 1j
00000001
00000001
00000001
00000001
00000001
00000001
00000001
00000001

TIL 1k
00000000
00000000
00000000
00000000
00000000
01010101
10101010
01010101

TIL 1l
01111110
10000001
10001001
10100001
10000101
10010001
10000001
01111110

TIL 1m
00000000
00000000
00000000
00000000
00111000
01111000
00000000
00000000
NAME rock1

TIL 1n
00000000
00000000
00000000
00000000
00000000
01100000
01110000
00000000
NAME rock2

TIL 1o
00000000
00000000
00001100
00011100
00000000
00000000
00000000
00000000
NAME rock3

TIL 1p
00000001
00000011
00000111
00001111
00011101
01111011
11111011
11110111

TIL 1q
00000000
00000000
00000000
00000000
00000000
00000000
00000001
00000011

TIL 1r
10000000
11000000
11100000
11100000
10110000
11011000
11111100
11101110

TIL 1s
11111111
11111111
11111011
11111011
11101111
11101111
11011111
11111111

TIL 1t
11111111
11111111
11011111
11011111
11111111
11110111
11111111
11111111

TIL 1u
11111111
11111111
11111011
11111011
11111011
11111011
11111111
11111111

TIL 1v
11111111
11111111
11011111
11011111
11011111
11111111
11111111
11111111

TIL 1w
11111111
11111111
01111111
00111111
00111111
00111111
00011111
00001111
WAL true

TIL 1x
11111111
11111111
11111111
11111111
11111111
11111111
01110111
10001000

TIL 1y
11111111
11111111
11111111
11111110
11111100
11111000
11100000
00000000

TIL 1z
11111111
11111111
11111110
11111110
11111100
11111000
11110000
11000000

TIL 2a
00000000
00000000
00000000
00000000
00000000
00000000
10000000
11000000

TIL 2b
11111111
11111111
11111101
11111000
11111000
11111101
11111111
11111111
WAL true

TIL 2c
11111101
11111011
11111010
11111001
11011111
10111111
10101111
10011111

TIL 2d
11111111
11110111
11101111
11101011
11100111
11111111
11111111
11111111

TIL 2e
11111111
11111111
11111111
11111111
11111101
11111011
11111010
11111001
WAL true

TIL 2g
00000000
00000000
00000000
00000000
00000000
00001000
10001010
10001010

TIL 2h
00000000
00000000
00000000
00000000
00000000
00010000
01010100
01010100

TIL 2i
00000000
00000000
00000000
00000000
00000000
00010000
01010101
01010101

TIL 2j
11111101
11111111
11111111
11111111
11111111
11111111
11111111
11111111
WAL true

TIL 2k
00000000
00000011
00011100
00100000
01000000
01000000
10000000
10000000

TIL 2l
00000000
11101111
00010000
00000000
00000000
00000000
00000000
00000000

TIL 2m
00000000
10111110
01000001
00000000
00000000
00000000
00000000
00000000

TIL 2n
00000000
00000000
00000000
10000000
01000000
01000000
00100000
00100000

TIL 2o
00010000
00010000
00010000
00000000
00010000
00000000
00010000
00000000

TIL 2p
00000001
00000010
00000010
00000000
00000010
00000000
00000010
00000000

TIL 2q
00000000
01110000
10001000
00000000
00000000
00001110
00010001
00000000

TIL 2r
00000000
00000000
00000000
00000000
00000000
01110111
11111111
11111111

TIL 2s
00000000
00000000
00000000
00000000
00000000
10000000
11000000
11000000

TIL 2t
11000000
11100000
11100000
11111111
11100000
11000000
11100000
11110000

TIL 2u
11110000
11111000
11111000
11111000
11111000
11110000
11111000
11111000

TIL 2v
00001000
00001000
00010000
00110000
00110000
00111000
01100100
01100100

TIL 2w
00000000
00000000
00000000
11111111
00001000
00001000
00001000
00010000

TIL 2x
00000010
00000111
00000111
00100010
01110010
01110000
00100000
00100000

TIL 2y
00000000
00000100
00000000
00100000
00000100
01000000
00010000
00000000

TIL 2z
00000000
00000000
00000001
00000000
00000100
00000000
00000001
00000000

TIL 3a
00000000
00000000
00000000
00000000
00110110
01111111
11111111
00000000

TIL 3b
00000000
00000000
00000000
00000000
00000000
00000000
10000000
00000000

TIL 3c
10101010
01010101
10101010
01010101
10101011
01111110
11111111
11111111
WAL true

TIL 3d
11000000
01000000
11000000
10000000
00000000
00111110
11111111
11000001
WAL true

TIL 3e
00000010
00000011
00000010
00000001
01111100
11111111
00000011
00000000
WAL true

TIL 3f
00000000
00000000
00000000
00000000
00110000
00001011
11111111
11111100
WAL true

TIL 3g
00000010
00001100
00000000
00000000
00000000
00000000
00000000
00000000

TIL 3h
01111111
00111111
00000000
00000000
00000000
00000000
00000000
10000000
WAL true

TIL 3i
11111100
11111111
00010011
00100000
00000000
00000000
00000000
00000000
WAL true

TIL 3j
00000000
00000000
00000000
00000000
00000000
00000000
00000000
11111111

TIL 3k
00000000
00000000
00000000
00000000
00000000
00000000
00000000
00000001

TIL 3l
00000000
00000000
00000000
00000000
00000000
00000000
00000000
00000000

TIL 3m
00000000
00000000
00000000
00000000
00000111
11111111
11111000
00000000
WAL true

TIL 3n
00000000
00000000
00000000
00000001
11110010
11111111
10001111
01000000
WAL true

TIL 3o
00000000
00000000
00000000
00000000
00000000
11100000
11111000
00000000
WAL true

TIL 3p
10101000
01010000
10101000
01010100
10101000
00010100
00000000
00000000

TIL 3q
00011000
00011000
00111100
00100100
00110100
00100100
00100100
00111100
NAME bottleUp

TIL 3r
00000000
00000000
00000000
00000000
00111111
11100001
11101001
00111111
NAME bottleDown

TIL 3s
00000000
00000000
00000000
00000000
00001100
01111000
00000100
00000000
NAME twig

TIL 3t
00001000
00001000
00001000
00001000
00001000
00001000
00001001
00001111

TIL 3u
00011000
00100100
01000010
10000001
01000010
00100100
00011000
11111111

TIL 3v
00001000
00001000
00001000
00001000
00001000
00001000
00001000
00001000

TIL 3w
00000001
00000010
00000100
00001010
00010001
00100010
01000100
11111111

TIL 3x
00000001
00000010
00000101
00001000
00010001
00100010
01010100
10001000

TIL 3y
00000000
00000000
00000000
00000000
00000000
00000000
00000000
11111111

TIL 3z
00010000
00101000
01000100
10000010
01000001
00100010
00010100
00001000

TIL 4a
00000000
00000000
00000000
00000000
11111111
00000000
00000000
00000000

TIL 4b
00100000
00100000
00100000
00100000
11100000
00000000
00000000
00000000

TIL 4c
00010000
00010000
00010000
00010000
00011111
00000000
00000000
00000000

TIL 4d
00100000
00100000
00100000
00100000
00100000
00100000
00100000
00100000

TIL 4e
00011111
00010000
00010000
00010000
00010000
00010000
00010000
00010000

TIL 4f
11100000
00100000
00100000
00100000
00100000
00100000
00100000
00100000

TIL 4g
11111111
00000000
00000000
00000000
00000000
00000000
00000000
00000000

TIL 4h
10000000
01000000
00100000
00100000
01011111
10000000
10000000
00000000

TIL 4i
00011111
00100000
01000000
01000000
10100000
00011111
00001010
00010101

TIL 4j
10101010
01010101
10101010
01010101
10101010
01010101
10101010
01010100

TIL 4k
00001010
00000101
00000010
00000101
00000010
00000101
00000010
00000001

TIL 4l
00000000
00011111
00010000
00010000
00010000
00010000
00010000
00000000

TIL 4m
00000000
11111111
00000000
00000000
00000000
00000000
00000000
00000000

TIL 4n
00000000
10000000
10000000
10000000
10000000
10000000
10000000
00000000

TIL 4o
00010000
00010000
00010000
00010000
00010000
00010000
00010000
00010000

TIL 4p
00001000
00001000
00001000
00001000
11111000
00001000
00001000
00001000

TIL 4q
00000000
00000000
00000000
00001000
00000000
00000000
01000100
00000000

TIL 4r
00000000
00000000
00000000
00000000
00011100
00111110
01111110
00000000

TIL 4s
00000000
00000000
00000000
00000000
00001100
00011110
00001100
00000000

TIL 4t
00001000
01001000
01000001
00010001
00010100
01000100
01000001
00000001

TIL 4u
01000000
01000000
01000000
01000000
01000000
01000000
01000000
01000000

TIL 4v
00101000
00101000
00101000
00101000
10101011
00101000
00101000
00101000

TIL 4w
00111100
01111110
01101110
01111110
00111100
00011000
00011000
00111100
NAME ow tree home

TIL 4x
00011000
00111100
01111110
11111111
01111110
01000010
11010010
01010010
NAME ow house

TIL 4y
00101000
00100100
00010100
00010100
00100100
00101000
00101000
00101000
NAME ow

TIL 4z
00101000
00101000
00101000
01001000
01010000
01010000
01001000
00101000
NAME ow

TIL 5a
00000000
00000000
11100000
00011100
11000010
00111000
00000110
00000000
NAME ow

TIL 5b
01111110
11101111
11010111
11111111
11110111
11101011
01111110
00111100
>
01111110
11011111
10101111
11111111
11111011
11110101
01111110
00111100

TIL 5c
00011000
01111110
11111111
11111111
11011011
00011000
00011000
00111100
NAME owlTree

TIL 5d
00000000
00000000
00000000
00000111
00111000
01000011
00011100
11100000

TIL 5e
00000000
00000000
00000000
00000000
00000000
00000000
00000011
00000010

TIL 5f
00000000
00100100
00010100
00010100
00100100
00101000
00101000
00101000

TIL 5g
10001000
10101010
00100010
00000000
10001000
10101010
00100010
00000000

TIL 5h
10001000
10101010
00100010
00000000
00100010
10101010
10001000
00000000

TIL 5i
01110000
00100000
00000000
00001110
11101110
11100100
01000000
00000000

TIL 5j
10001110
10011111
00011111
00011111
00000100
10001110
10000000
00000000

TIL 5k
10000000
10000111
00000111
00000010
01110000
01110000
00100000
00000000

TIL 5l
00000000
00000000
00000000
11111111
00000000
11001111
00101000
00101000

TIL 5m
01001001
01001001
00000000
01011011
00000100
10110001
00001110
00000000

TIL 5n
00000001
00000001
00000001
00000001
00000001
00000001
00000001
11111111

TIL 5o
11111111
10000000
10000000
10000000
10000000
10000000
10000000
10000000

TIL 5p
11111111
00000001
00000001
00000001
00000001
00000001
00000001
00000001

TIL 5q
10000000
10000000
10000000
10000000
10000000
10000000
10000000
11111111

TIL 5r
10000000
10000000
10000000
10000000
10000000
10000000
10000000
10000000

TIL 5s
11111111
00000000
00000000
00000000
00000000
00000000
00000000
00000000

TIL 5t
00000000
00000000
00000111
11000111
11000010
10000000
00000000
01110000

TIL 5u
00000000
11100000
11100000
01000001
00000001
00011100
00011100
00001000

TIL 5v
00000011
00000011
00000001
11000000
11000000
10000000
00000000
00000000

TIL 5w
00000000
11100000
11100000
01000000
00001110
00001110
00000100
00000000

TIL 5x
00000000
00000000
00000000
00000000
00001110
00001110
00000100
00000000

TIL 5y
00010000
00010000
00001000
00010000
00101000
00000100
00000000
00000000

TIL 5z
00111100
00011000
00011000
00001100
00011010
00101000
01000100
00000010

TIL 6a
00000000
00000000
00000000
00000000
00000001
00000010
00000100
00000000

TIL 6b
00000000
10000000
11000000
01100000
00100000
01010000
10001000
00000100

TIL 6c
00000011
00000101
00001000
00010100
00100010
00000100
00000000
00000000

TIL 6d
00000010
00000001
00000010
00000100
00001010
00010000
00100000
01010000

TIL 6e
00000000
00000000
10000000
01000000
00100000
01000000
00100000
00010000

TIL 6f
00111110
00011100
00001110
00000111
00001110
00011100
00000000
00000000

TIL 6g
00110000
00011000
00001100
00011000
00110000
00010000
00101000
00000100

TIL 6h
00111110
00011100
00111000
01110000
00111000
00011100
00111000
01110000

TIL 6i
11111111
00111110
01111100
11111000
01111100
00111110
01111100
11111000

TIL 6j
01111000
00111100
00011110
00111100
01111000
01110000
00111000
00011100

TIL 6k
00111000
01110000
00110000
00011000
00010000
00000000
00000000
00000000

TIL 6l
11111111
11111111
11111111
11111111
01111111
00111111
01111110
11111100

TIL 6m
00000111
00000011
00000001
00000000
00000000
00000000
00000000
00000000

TIL 6n
11100000
11000000
10000000
00000000
10000000
00000000
00000000
00000000

TIL 6o
11111000
11111100
01111110
00111111
01111111
11111100
01111110
00111111

TIL 6p
00000001
00000000
00000000
00000000
00000000
00000000
00000001
00000010

TIL 6q
00111110
01111100
00111110
00011111
00111110
01111100
00111000
00111100

TIL 6r
01101110
11000111
10001110
00011111
00011001
00110000
00011000
00001100

TIL 6s
00011000
00110000
00011000
00100100
01000010
10100101
00000000
00000000

TIL 6t
00000001
00000010
00000100
00001010
00000000
00000000
00000000
00000000

TIL 6u
10000000
00000000
00000000
00000000
10000000
01000000
00100000
01000000

TIL 6v
00100000
00010000
00100000
01010000
00001000
00000000
00000000
00000000

TIL 6w
00000000
00000000
00000001
00000011
00000110
00000011
00000110
00001100

TIL 6x
00010000
00001000
00010000
00000000
00000000
00000000
00000000
00000000

TIL 6y
00000000
00000000
00000000
00000000
10000000
11000000
01100000
00110000

TIL 6z
01100000
00110000
00011000
00110100
01000010
00100000
01000000
00000000

SPR A
11000000
11101110
01111011
01111110
00111100
01111000
11110000
00000000
>
00000000
00001110
01111011
11111110
11111100
01111000
11110000
00000000
POS 1 8,7

SPR a
00000000
00000000
01010001
01110001
01110010
01111100
00111100
00100100
NAME cat
DLG SPR_0
POS 0 8,9

SPR b
00000000
01110000
11011100
01111111
00110011
00111110
00011100
00001000
>
00000000
00000000
01111100
11011111
01110011
00111110
00011100
00001000
NAME robin
DLG SPR_7
POS 3 3,9

SPR c
00000000
00000000
00000000
01110000
11010000
01110110
00111110
00111100
>
00000000
00000000
00000000
00000000
01110000
11010110
01111110
00111100
NAME wren
DLG SPR_8
POS 5 12,4

SPR d
00000000
01110011
11010110
01111100
00011100
00011100
00000010
00000001
NAME swallow
DLG SPR_9
POS 0 6,9

SPR e
00000000
00000000
01110000
11010000
01110111
00111110
00011100
00001000
>
00000000
00000000
01110000
01011000
01110111
00111110
00011100
00001000
NAME crow
DLG SPR_a
POS 6 5,13

SPR f
01000010
01111110
01010110
01111110
01111110
01111110
01111110
00111100
>
01000010
01111110
01101010
01111110
01111110
01111110
01111110
00111100
NAME owl
DLG SPR_2
POS 2 14,5

SPR g
00011000
00111100
01111110
01111110
01111110
01111110
01010100
00101000
NAME egg
DLG SPR_1
POS 1 10,7

SPR h
00000000
00111000
01100100
01100000
01100000
01100100
00111000
00000000
NAME moon
DLG SPR_g
POS 0 4,6

SPR i
00000000
00000000
11100000
11110000
00001000
00000100
00000000
00000000
DLG SPR_3
POS 2 2,2

SPR j
00000000
00000000
00000011
00000111
00001111
00001110
00011110
00011110
DLG SPR_4
POS 2 1,2

SPR k
00011110
00011110
00011110
00001110
00001111
00000111
00000011
00000000
DLG SPR_5
POS 2 1,3

SPR l
00000000
00000000
00000000
00000100
00001000
11110000
11100000
00000000
DLG SPR_6
POS 2 2,3

SPR m
00000000
00000000
00000000
00000000
00000000
00000000
00000000
00000000
NAME squirrelHole
DLG SPR_b
POS 3 12,6

SPR n
00000000
11001110
01101011
00111110
00111000
00111000
01000000
10000000
>
00000000
00001110
00001011
00111110
11111000
00111000
01000000
10000000
NAME wollaws
DLG SPR_d
POS 4 2,13

SPR o
00000000
00000000
11011011
00100000
00000000
00011011
00000100
00000000
DLG SPR_e
POS 4 9,4

SPR p
00000000
00000000
01100000
10000000
00000000
00000000
00000000
00000000
DLG SPR_f
POS 4 10,4

SPR q
00000000
00000000
00000000
00000100
01001110
11101010
10101110
11101110
>
00000000
00000000
00000000
01000000
11100100
10101110
11101010
11101110
DLG SPR_c
POS 5 11,5

ITM 0
00000000
00000000
00000000
00111100
01100100
00100100
00011000
00000000
NAME tea
DLG ITM_0

ITM 1
00000000
00000000
00000000
00111000
00101000
00111000
00000000
00000000
NAME virtues set
DLG ITM_1

DLG SPR_0
Hello.{br}World.{virtues = virtues + "Cat.{br}{br}"}

DLG ITM_0
You found a nice warm cup of tea

DLG SPR_1
"""
{
  - metBirds < 5 ?
    This is your egg. It's not quite ready to hatch, though. 
    For now, you should continue to look for inspiration in the outside world.
  - else ?This is your egg. 
And it is your time to sing. {
       - metOwl == 1 ?
        {owl}Wisdom{owl}.
      - metRobin == 1 ?
        {robin}Patience{robin}.
      - metWren == 1 ?
        {wren}Kindness{wren}.
      - metSwallow == 1 ?
        {swallow}Hope{swallow}.
      - metCrow == 1 ?
        {crow}Insight{crow}.
       }

      {- metOwl == 2 ?
        {owl}Wisdom{owl}.
      - metRobin == 2 ?
        {robin}Patience{robin}.
      - metWren == 2 ?
        {wren}Kindness{wren}.
      - metSwallow == 2 ?
        {swallow}Hope{swallow}.
      - metCrow == 2 ?
        {crow}Insight{crow}.}

      {- metOwl == 3 ?
        {owl}Wisdom{owl}.
      - metRobin == 3 ?
        {robin}Patience{robin}.
      - metWren == 3 ?
        {wren}Kindness{wren}.
      - metSwallow == 3 ?
        {swallow}Hope{swallow}.
      - metCrow == 3 ?
        {crow}Insight{crow}.}

      {- metOwl == 4 ?
        {owl}Wisdom{owl}.
      - metRobin == 4 ?
        {robin}Patience{robin}.
      - metWren == 4 ?
        {wren}Kindness{wren}.
      - metSwallow == 4 ?
        {swallow}Hope{swallow}.
      - metCrow == 4 ?
        {crow}Insight{crow}.}

     {- metOwl == 5 ?
        {owl}Wisdom{owl}.
      - metRobin == 5 ?
        {robin}Patience{robin}.
      - metWren == 5 ?
        {wren}Kindness{wren}.
      - metSwallow == 5 ?
        {swallow}Hope{swallow}.
      - metCrow == 5 ?
        {crow}Insight{crow}.}
{br}You have learned so many songs.{br}
And you would dearly love to sing them.
...{br}
But...{br}
But you have no song of your own.
And you realize now you cannot sing another bird's song.
For all the inspiration you found in the world...{br}without your song, your egg will never hatch.
{br}{br}However...{br}
However, after seeing so many beautiful moments...{br}Having seen others fight for what is precious...
You are ready to start making your own beauty.
And that is why you are ready to find inspiration from within.
From your {heart}heart{heart}, you have learned a song of {heart}love{heart}.
...

It's time!(exit "afinale1,1,1")

  
}
"""

DLG SPR_2
"""
{
  - metOwl == 0 ?
    {metOwl = metBirds + 1}{metBirds = metBirds + 1}This bird lives in a world of shadows and mystery.
    They will spend their life wrapped in the unknown, with only the most meager of glimpses to guide them.
    However, with keen dedication, they watch, and they consider, and they listen.
    
    And that is why they understand.

    From this {clr3}owl{clr3}, you have learned a song of {clr3}wisdom{clr3}.{
     - metBirds >= 5 ?
     ..
     ...

     You feel it is time. You are ready to return to your egg.
     - else ? 
    }
  - else ?
    You have already learned this {clr3}owl{clr3}'s song. 
    {
      - metBirds >= 5 ?
        You feel it is time. You are ready to return to your egg.
      - else ?
        You should seek inspiration elsewhere in the world.}
}
"""

DLG SPR_3
The moon shines brightly over the soft woods below, gently illuminating the edges of the foliage.

DLG SPR_4
The moon shines brightly over the soft woods below, gently illuminating the edges of the foliage.

DLG SPR_5
The moon shines brightly over the soft woods below, gently illuminating the edges of the foliage.

DLG SPR_6
The moon shines brightly over the soft woods below, gently illuminating the edges of the foliage.

DLG SPR_7
"""
{
  - metRobin == 0 ?
    {metRobin = metBirds + 1}
{metBirds = metBirds + 1}This bird is hungry, and their breakfast will not come soon.
    The night has been long, and their stomach gnaws at them. 
    However, they have learned that there are things that cannot be rushed, but must be approached with delicacy, and calm.
    And that is why they thrive.

    From this {clr3}robin{clr3}, you have learned a song of {clr3}patience{clr3}.{
     - metBirds >= 5 ?
     ..
     ...

     You feel it is time. You are ready to return to your egg.
     - else ? 
    }
  - else ?
    You have already learned this {clr3}robin{clr3}'s song. 
    {
      - metBirds >= 5 ?
        You feel it is time. You are ready to return to your egg.
      - else ?
        You should seek inspiration elsewhere in the world.}
}
"""

DLG SPR_8
"""
{
  - metWren == 0 ?
    {metWren = metBirds + 1}{metBirds = metBirds + 1}
    This bird is feeding two helpless chicks. 
    The chicks are not theirs, and they will receive nothing for their diligence and sacrifice. 
    
    However, with gentle heart, they tend to those who need help. 
    They do so without complaint; they simply know it is right.
    And that is how they learn the joy of compassion.
    From this {wren}wren{wren}, you have learned a song of {wren}kindness{wren}.{
     - metBirds >= 5 ?
     ..
     ...

     You feel it is time. You are ready to return to your egg.
     - else ? 
    }
  - else ?
    You have already learned this {wren}wren{wren}'s song. 
    {
      - metBirds >= 5 ?
        You feel it is time. You are ready to return to your egg.
      - else ?
        You should seek inspiration elsewhere in the world.}
}
"""

DLG SPR_a
"""
{
  - metCrow == 0 ?
    {metCrow = metBirds + 1}
{metBirds = metBirds + 1}For this bird, life holds many obstacles, big and small. 
    What they need never seems to come easily to them. 
    Every day, they struggle; every hour, they fight. 
However, they tackle these challenges with passion, discovering possibilities that others could never imagine. 
    And that is how they invent.

    From this {crow}crow{crow}, you have learned a song of {crow}insight{crow}.{
     - metBirds >= 5 ?
     ..
     ...

     You feel it is time. You are ready to return to your egg.
     - else ? 
    }
  - else ?
    You have already learned this {crow}crow{crow}'s song. 
    {
      - metBirds >= 5 ?
        You feel it is time. You are ready to return to your egg.
      - else ?
        You should seek inspiration elsewhere in the world.}
}
"""

DLG SPR_b
"""
{sequence
  - You take a peek inside... oh, it's a sleeping squirrel!
  - Best not to wake them. It's nice to sleep in once in a while.
}
"""

DLG SPR_c
These babies are peeping eagerly for their food. {wvy}Peep, peep!{wvy}

DLG SPR_d
"""
{
  - metSwallow == 0 ?
    {metSwallow = metBirds + 1}
{metBirds = metBirds + 1}When the weather turns cruel, this bird must abandon everything it has ever known to find a new life, far away. 
They must leave their home and every familiar comfort. 
They must trade it all for unknown shores. 
However, they believe in a good place over the horizon. 
They will travel far, working ceaselessly to reach it. 
And that is how they discover new beginnings. 
    From this {clr3}swallow{clr3}, you have learned a song of {clr3}hope{clr3}.{
     - metBirds >= 5 ?
     ..
     ...

     You feel it is time. You are ready to return to your egg.
     - else ? 
    }
  - else ?
    You have already learned this {clr3}swallow{clr3}'s song. 
    {
      - metBirds >= 5 ?
        You feel it is time. You are ready to return to your egg.
      - else ?
        You should seek inspiration elsewhere in the world.}
}
"""

DLG SPR_e
"""
These swallows have already begun their journey. 
All you can do now is wish them luck.
"""

DLG SPR_f
"""
These swallows have already begun their journey. 
All you can do now is wish them luck.
"""

DLG SPR_g
"""
I'm a moon!  {virtues = virtues + "Moon.
"}
"""

DLG SPR_9
{say virtues}

DLG ITM_1
{virtues = ""}

END 0
You hatched!

VAR metOwl
0

VAR metRobin
0

VAR metWren
0

VAR metSwallow
0

VAR metCrow
0

VAR metBirds
0

VAR virtues
None


