
You Found Top Secret Floppy

# BITSY VERSION 4.5

! ROOM_FORMAT 1

PAL 0
201,205,209
255,255,255
255,255,255

ROOM 0
b,d,d,d,d,d,a,a,a,a,a,a,a,a,a,c
i,n,q,q,q,p,p,p,p,p,p,p,p,p,o,j
i,i,0,0,0,42,0,43,44,45,0,0,0,0,j,j
i,i,0,0,0,0,0,0,0,0,0,0,0,0,j,j
i,s,y,y,y,r,r,r,r,r,r,r,r,r,t,j
i,i,u,v,u,v,u,v,u,v,u,v,u,v,j,j
i,w,p,p,p,p,p,p,p,p,p,p,p,p,x,j
i,0,0,0,1e,0,0,0,0,1e,1e,1e,1e,1e,0,j
i,1e,1e,1e,1e,1e,1e,1e,0,0,0,1e,0,1e,0,j
i,0,0,36,37,38,39,3a,1e,1e,1e,1e,0,1e,0,j
i,0,46,3b,3c,3d,3e,3f,3g,3h,3j,1e,0,0,0,j
i,0,0,3k,3m,3n,3o,3p,3q,1e,1e,1e,0,1e,1e,j
i,0,3r,3s,3t,3u,3v,3w,3x,3y,3z,40,0,0,0,j
i,1e,1e,1e,1e,1e,1e,1e,1e,1e,1e,1e,0,1e,1e,j
i,0,0,0,0,0,0,0,0,0,0,0,0,0,0,j
k,m,m,m,m,m,m,m,m,m,m,m,m,m,m,l
NAME Main
ITM 1 3,14
ITM 3 12,12
ITM 2 7,14
ITM 4 14,9
ITM 4 2,7
EXT 1,14 0 1,12
EXT 14,14 0 1,12
EXT 12,8 0 1,12
EXT 14,12 0 1,12
EXT 1,7 3 0,0
EXT 10,8 0 1,12
END undefined 2,10
PAL 0

ROOM 1
0,0,0,0,0,0,0,1o,32,33,34,35,0,0,0,0
1n,1n,22,23,20,24,1n,1p,2x,2z,30,31,0,0,0,0
0,0,0,0,0,0,0,0,0,0,0,0,0,0,0,0
0,0,0,0,0,0,0,0,1s,1q,1q,1q,1q,1r,0,0
0,0,0,1f,p,17,18,1a,16,19,p,13,0,1o,0,0
0,0,0,i,0,i,0,1b,j,j,0,11,0,1o,0,0
0,0,0,i,0,z,m,1d,1c,14,0,11,0,24,0,0
0,0,0,i,0,0,0,0,0,0,0,11,0,20,0,0
0,0,0,i,12,1g,1g,1g,1g,1g,15,11,0,21,0,0
0,0,0,i,1i,1m,1m,1m,1m,1m,1l,11,0,22,0,0
0,0,0,i,1i,1m,1m,1m,1m,1m,1l,11,0,23,0,0
0,0,0,i,1h,1k,1k,1k,1k,1k,1j,11,0,1o,0,0
0,0,25,z,m,m,m,m,m,m,m,10,0,1o,0,0
0,0,25,0,1z,1t,1u,1v,1w,1x,1y,1n,1n,1p,0,0
0,0,25,0,1z,26,27,28,29,2a,2b,1q,1q,1r,0,0
0,0,25,25,25,0,0,0,0,0,0,0,0,1o,0,0
NAME Intro
EXT 4,13 0 1,9
EXT 4,14 2 4,8
PAL 0

ROOM 2
0,0,0,0,0,0,0,0,0,0,0,0,0,1o,0,0
0,0,0,0,0,0,0,0,0,0,0,0,0,1o,0,0
0,0,0,0,0,0,0,0,0,0,0,0,0,1o,0,0
0,0,0,0,0,0,0,0,0,0,0,0,0,1o,0,0
0,0,2s,1n,23,22,20,24,21,1n,1n,1n,1n,1p,0,0
0,0,1o,0,2c,2d,2e,2f,48,49,4a,4b,4c,0,0,0
0,0,2t,1q,2m,2n,2o,2p,2q,2b,1q,1r,0,0,0,0
0,0,0,25,25,25,0,0,0,0,0,1o,0,0,0,0
0,2s,1n,1n,0,1z,2v,2w,1n,1n,1n,1p,0,0,0,0
0,1o,0,25,25,25,0,0,0,0,0,0,0,0,0,0
0,1o,0,0,0,0,0,0,0,0,0,0,0,0,0,0
0,22,0,0,0,0,0,0,0,0,0,0,0,0,0,0
0,23,0,0,0,0,0,0,0,0,0,0,0,0,0,0
0,24,0,0,0,0,0,0,0,0,0,0,0,0,0,0
0,1o,0,0,0,0,0,0,0,0,0,0,0,0,0,0
0,1o,0,0,0,0,0,0,0,0,0,0,0,0,0,0
NAME You're not
EXT 5,8 1 3,13
PAL 0

ROOM 3
0,0,0,0,0,0,0,0,0,0,0,25,25,1o,0,0
0,0,25,25,25,25,25,25,0,25,0,0,25,1o,0,0
0,25,25,0,0,0,0,0,0,25,0,25,25,24,0,0
0,25,0,0,25,25,0,25,25,25,0,0,25,22,0,0
25,25,25,0,0,0,0,0,0,25,25,0,25,20,0,0
0,0,0,0,25,0,25,25,0,25,0,0,25,23,0,0
0,25,25,25,25,0,0,25,0,25,25,25,25,1o,0,0
25,25,4l,4k,25,25,25,4d,0,1z,5e,5f,5g,1p,0,0
0,0,4m,4j,4i,4g,4f,4e,25,25,25,0,0,0,0,0
0,4p,4n,0,4r,4q,0,0,0,0,0,0,0,0,0,0
0,4v,4u,4t,4s,51,52,0,0,0,0,0,0,0,0,0
5h,4x,4w,4z,4y,50,53,0,0,0,0,0,0,0,0,0
0,5c,5d,55,56,5a,54,0,0,0,0,0,0,0,0,0
1n,22,1n,4o,0,0,0,0,0,0,0,0,0,0,0,0
0,0,0,0,0,0,0,0,0,0,0,0,0,0,0,0
0,0,0,0,0,0,0,0,0,0,0,0,0,0,0,0
ITM 5 4,0
ITM 6 9,0
ITM 7 0,3
ITM 8 2,5
ITM 9 5,4
ITM a 11,4
ITM b 8,7
EXT 0,6 3 0,0
EXT 10,5 3 0,0
EXT 6,6 3 0,0
EXT 2,3 3 0,0
EXT 11,1 3 0,0
EXT 6,3 3 0,0
END 0 9,7
PAL 0

TIL 10
00000110
00000110
00000110
00000110
00001110
00011100
11111000
00000000

TIL 11
00000110
00000110
00000110
00000110
00000110
00000110
00000110
00000110
WAL true

TIL 12
00000000
00011111
00100111
01011111
01011111
01111111
01111111
01111111

TIL 13
00000000
11000000
01100000
00110000
00011000
00001100
00000110
00000110

TIL 14
00000010
00000010
00000010
00000010
00000010
00000100
11111000
00000000

TIL 15
00000000
11111000
00000100
11110010
11111010
11111010
11111010
11111010

TIL 16
11111111
11111111
00000010
00000010
00000010
00000010
00000010
00000010
WAL true

TIL 17
00111111
11111111
01000000
01000000
01000000
01000000
01000000
01000000
WAL true

TIL 18
11111111
11111111
00000000
00000000
00000000
00000000
00000000
00000000

TIL 19
11111100
11111111
00000010
00000010
00000010
00000010
00000010
00000010

TIL 20
00000000
00011000
00000000
00111100
00011000
00000000
00011000
00000000
>
00000000
00010000
00001000
00110100
00101100
00010000
00001000
00000000

TIL 21
00000000
00000000
00111100
00100100
00100000
00101100
00001100
00000000
>
00000000
00000000
00010000
00111100
00000000
00111100
00001000
00000000

TIL 22
00000000
00000000
00100100
00011000
00011000
00100100
00000000
00000000
>
00000000
00000000
00110100
00101000
00010100
00101100
00000000
00000000

TIL 23
00000000
00000000
00100100
00111100
00000000
00111100
00000000
00000000
>
00000000
00000000
00111100
00100100
00001100
00100100
00000000
00000000

TIL 24
00000000
00000000
00001000
00111000
00000000
00011100
00010000
00000000
>
00000000
00000000
00110100
00000000
00011000
00000000
00101100
00000000

TIL 25
00000000
00000000
00000000
00000000
00000000
00000000
00000000
00000000
WAL true

TIL 26
00000000
00000000
01001100
01001001
01001101
01001001
01101101
00000000

TIL 27
00000000
00000000
10010101
01010101
11010101
01010101
01001001
00000000

TIL 28
00000000
00000000
10010111
00010010
10010010
00010010
10010010
00000000

TIL 29
00000000
00000000
00010010
00101010
00111010
00101010
00101011
00000000

TIL 30
01110001
00010001
00010001
00010001
01110101
00000000
00000000
00000000

TIL 31
11000000
00000000
00000000
00000000
00100000
00000000
00000000
00000000

TIL 32
00000000
00000000
00000000
00000000
00000000
00000000
00101001
00101001

TIL 33
00000000
00000000
00000000
00000000
00000000
00000000
11001110
00000100

TIL 34
00000000
00000000
00000000
00000000
00000000
00000000
01110001
01000001

TIL 35
00000000
00000000
00000000
00000000
00000000
00000000
11000000
00000000

TIL 36
00000000
00000000
01100110
01010100
01100110
01010100
01010110
00000000

TIL 37
00000000
00000000
01001100
10101010
11101010
10101010
10101100
00000000

TIL 38
00000000
00000000
00100001
01010001
01110001
01010011
01010011
00000000

TIL 39
00000000
00000000
00100101
01010110
01010101
01010101
00100101
00000000

TIL 40
00000000
00000000
10000000
00000000
10000000
00000000
10000000
00000000

TIL 41
00000000
00000000
00000000
00000000
00000000
00000000
00000000
00000000

TIL 42
00000000
00000000
00000000
01100010
01010101
01010010
00000000
00000000
>
00000000
00000000
00000000
00000000
00000000
00000000
00000000
00000000

TIL 43
00000000
00000000
00000000
01101001
01001010
11001001
00000000
00000000
>
00000000
00000000
00000000
00000000
00000000
00000000
00000000
00000000

TIL 44
00000000
00000000
00000000
00110001
10101010
10101011
00000000
00000000
>
00000000
00000000
00000000
00000000
00000000
00000000
00000000
00000000

TIL 45
00000000
00000000
00000000
00100000
10100000
10110000
00000000
00000000
>
00000000
00000000
00000000
00000000
00000000
00000000
00000000
00000000

TIL 46
00000000
00000000
11111100
10000110
10000010
10000010
11111110
00000000

TIL 47
00000000
00000000
10000000
01000000
01000000
01000000
10000000
00000000

TIL 48
00000000
00000000
10000101
01001001
01001001
01001001
10000101
00000000

TIL 49
00000000
00000000
01011001
01010101
01011001
01010101
11010101
00000000

TIL 50
00100000
01000000
01000000
01001000
10001000
00001000
00000100
00000100

TIL 51
00000000
00000011
00000010
00001100
00001000
00010000
00110000
00100000

TIL 52
00000000
11000000
00110000
00010000
00001000
00011000
00001000
00001000

TIL 53
00001000
00001000
00001000
00010000
00010000
00010000
00010000
00010000

TIL 54
00100000
00100000
00100000
00100000
00100000
01000000
01000000
01000000

TIL 55
11000000
01000000
01000000
01000011
00111110
00010000
00001000
00001000

TIL 56
00000100
00000000
00000100
10110000
00000001
00000000
00000000
00000000

TIL 57
00000100
00000100
00000000
00000000
00000100
00111100
00000000
00000000

TIL a
00000000
11111111
00000000
00000000
00000000
00000000
00000000
11111111
WAL true

TIL b
00000000
01111111
01000000
01000000
01000000
01000000
01000000
01111111
WAL true

TIL c
00000000
11111110
10000010
10101010
10010010
10101010
10000010
11111110
WAL true

TIL d
00000000
11111111
00000000
11011000
01010100
11001101
00000000
11111111
WAL true

TIL e
00000000
00000000
11010101
10000101
11010101
10010101
10010101
00000000

TIL f
00000000
00000000
10001100
00000100
10110100
00000100
10001110
00000000

TIL g
00000000
00000000
11111100
10000110
10000010
10000010
11111110
00000000

TIL h
10000001
01000010
00100100
00011000
00011000
00100100
01000010
10000001
WAL true

TIL i
01000000
01000000
01000000
01000000
01000000
01000000
01000000
01000000
WAL true

TIL j
00000010
00000010
00000010
00000010
00000010
00000010
00000010
00000010
WAL true

TIL k
01000000
01000000
01000000
01000000
01000000
01000000
01111111
00000000
WAL true

TIL l
00000010
00000010
00000010
00000010
00000010
00000010
11111110
00000000

TIL m
00000000
00000000
00000000
00000000
00000000
00000000
11111111
00000000
WAL true

TIL n
00000000
01111111
01000000
01000000
01000000
01000000
01000000
01000000

TIL o
00000000
11111110
00000010
00000010
00000010
00000010
00000010
00000010

TIL p
00000000
11111111
00000000
00000000
00000000
00000000
00000000
00000000

TIL q
00000000
00101110
11010101
00000000
00000000
00000000
00000000
00000000
>
00000000
11010010
00101101
00000000
00000000
00000000
00000000
00000000
WAL true

TIL r
00000000
00000000
11111111
00000000
00000000
11111111
00000000
00000000

TIL s
01000000
01000000
01111111
00000000
00000000
01111111
01000000
01000000

TIL t
00000010
00000010
11111110
00000000
00000000
11111110
00000010
00000010

TIL u
00000000
00000011
00000100
00001000
00010000
00100000
11000000
00000000
>
00000000
11000000
00100000
00010000
00001000
00000100
00000011
00000000
WAL true

TIL v
00000000
11000000
00100000
00010000
00001000
00000100
00000011
00000000
>
00000000
00000011
00000100
00001000
00010000
00100000
11000000
00000000
WAL true

TIL w
01000000
01111111
00000000
00000000
00000000
00000000
00000000
00000000

TIL x
00000010
11111110
00000000
00000000
00000000
00000000
00000000
00000000

TIL y
00000000
00000000
11111111
00000000
00000000
01011011
11000110
00000000
>
00000000
00000000
11111111
00000000
00000000
00101010
01100101
00000000

TIL z
01000000
01000000
01000000
01000000
01000000
00100000
00011111
00000000
WAL true

TIL 1a
11111111
11111111
00000100
00000100
00000100
00000100
00000100
00000100
WAL true

TIL 1b
00000100
00000100
00000100
00000100
00000100
00000100
00000100
00000100
WAL true

TIL 1c
00000010
00000010
00000010
11111110
00000000
00000000
11111111
00000000

TIL 1d
00000100
00000100
00000100
00000111
00000000
00000000
11111111
00000000

TIL 1e
00000000
00000000
00000000
00000000
00000000
00000000
00000000
00000000
WAL true

TIL 1f
00000000
00011111
00100000
01000000
01000000
01000000
01000000
01000000

TIL 1g
00000000
11111111
11111111
11111111
11111111
11111111
11111111
11111111

TIL 1h
01111111
01111111
01111111
01111111
01011111
00100000
00011111
00000000
WAL true

TIL 1i
01111111
01111111
01111111
01111111
01111111
01111111
01111111
01111111
WAL true

TIL 1j
11111010
11111010
11111010
11111010
11110010
00000100
11111000
00000000

TIL 1k
11111111
11111111
11111111
11111111
11111111
00000000
11111111
00000000
WAL true

TIL 1l
11111010
11111010
11111010
11111010
11111010
11111010
11111010
11111010
WAL true

TIL 1m
11111111
11111111
00000000
11111111
11111111
11111111
00000000
11111111

TIL 1n
00000000
00000000
00000000
00000000
11111100
00000000
00000000
00000000
WAL true

TIL 1o
00001000
00001000
00001000
00001000
00001000
00001000
00000000
00000000

TIL 1p
00001000
00001000
00001000
00001000
11111000
00000000
00000000
00000000

TIL 1q
00000000
00000000
00000000
11111100
00000000
00000000
00000000
00000000

TIL 1r
00000000
00000000
00000000
11111000
00001000
00001000
00000000
00000000

TIL 1s
00000000
00000000
00000000
00111100
00100000
00100000
00100000
00100000

TIL 1t
00000000
00000000
01100110
01010100
01100110
01010100
01010110
00000000

TIL 1u
00000000
00000000
01001100
10101010
11101010
10101010
10101100
00000000

TIL 1v
00000000
00000000
01110101
00100101
00100111
00100101
00100101
00000000

TIL 1w
00000000
00000000
01100110
01000101
01100101
01000101
01100110
00000000

TIL 1x
00000000
00000000
01011010
01010011
01011011
01001010
01011010
00000000

TIL 1y
00000000
00000000
10000000
00000000
00111100
10000000
10000000
00000000

TIL 1z
00000000
00000000
00010000
00011000
00011100
00011000
00010000
00000000
>
00000000
00000000
00000000
00000000
00000000
00000000
00000000
00000000

TIL 2a
00000000
00000000
00100110
01010101
01010101
01010101
00100101
00000000

TIL 2b
00000000
00000000
01100000
01001100
01100000
01000000
01100000
00000000

TIL 2c
00000000
00000000
01010010
01010101
01010101
00100101
00100010
00000000

TIL 2d
00000000
00000100
01010101
01010001
01010001
01010001
01110001
00000000

TIL 2e
00000000
00000000
10011001
01010000
10011000
01010000
01011000
00000000

TIL 2f
00000000
00000000
11001000
10010101
10010101
10010101
10001000
00000000

TIL 2g
00000000
00000000
10011001
10010010
10011011
10010010
11011010
00000000

TIL 2h
00000000
00000000
00101011
10101010
10101011
10101010
10010011
00000000

TIL 2l
00000000
00000000
11100100
01001010
01001010
01001010
01000100
00000000

TIL 2m
00000000
00000000
01001100
01001001
01001101
01001001
01101101
00000000

TIL 2n
00000000
00000000
10010101
01010101
11010101
01010101
01001001
00000000

TIL 2o
00000000
00000000
10010111
00010010
10010010
00010010
10010010
00000000

TIL 2p
00000000
00000000
00010010
00101010
00111010
00101010
00101011
00000000

TIL 2q
00000000
00000000
00100110
01010101
01010101
01010101
00100101
00000000

TIL 2s
00000000
00000000
00000000
00000000
00001100
00001000
00000000
00000000

TIL 2t
00001000
00001000
00001000
00001100
00000000
00000000
00000000
00000000

TIL 2u
00000000
00000000
00000000
00000000
00000000
00000000
00000000
00000000

TIL 2v
00000000
00000000
01001010
10101100
10101010
10101010
01001010
00000000

TIL 2w
00000000
00000000
01001010
10101010
11101110
10100100
10100100
00000000

TIL 2x
00101001
00010001
00010001
00010001
00010101
00000000
00000000
00000000

TIL 2y
00000000
00000000
00000000
00000000
00000000
00000000
00000000
00000000

TIL 2z
11000100
00000100
00000100
00000100
00100101
00000000
00000000
00000000

TIL 3a
00000000
00000000
01100000
01000000
01100000
01000000
01100000
00000000

TIL 3b
00000000
00000000
01100110
01010100
01010110
01010100
01100110
00000000

TIL 3c
00000000
00000000
01101110
01000100
01100100
00100100
01100100
00000000

TIL 3d
00000000
00000000
11000100
10101010
11001010
10101010
10100100
00000000

TIL 3e
00000000
00000000
10100111
10100010
11100010
01000010
01000010
00000000

TIL 3f
00000000
00000000
01010110
01010100
01110110
01010100
01010110
00000000

TIL 3g
00000000
00000000
01100100
01010100
01100100
01000100
01000110
00000000

TIL 3h
00000000
00000000
01001100
10101010
11101010
10101010
10101010
00000000

TIL 3i
00000000
00000000
00000000
00000000
00000000
00000000
00000000
00000000

TIL 3j
00000000
00000000
11011100
10001000
11001000
10001000
11001000
00000000

TIL 3k
00000000
00000000
00100000
01001010
01011000
01001010
00100100
00000000
WAL true

TIL 3l
00000000
00000000
00000000
00000000
00000000
00000000
00000000
00000000

TIL 3m
00000000
00000000
11001100
00100010
01011100
10101011
10101010
00000000
WAL true

TIL 3n
00000000
00000000
10101101
10111010
10001100
10101000
01101010
00000000
WAL true

TIL 3o
00000000
00000000
11101101
01001000
01011101
11101001
01001101
00000000
WAL true

TIL 3p
00000000
00000000
10001100
01001001
01001101
01101001
10001011
00000000
WAL true

TIL 3q
00000000
00000000
01001100
01011000
01001100
01001000
00101100
00000000
WAL true

TIL 3r
00000000
00000000
11111100
10000110
10000010
10000010
11111110
00000000

TIL 3s
00000000
00000000
01110101
00100101
00100111
00100101
00100101
00000000

TIL 3t
00000000
00000000
01101100
01001010
01101100
01001010
01101010
00000000

TIL 3u
00000000
00010000
11010110
10000100
11000110
10000010
11000110
00000000

TIL 3v
00000000
00000000
01100010
01010101
01010101
01010101
01010010
00000000

TIL 3w
00000000
00000000
01110101
00100101
00100111
00100101
00100101
00000000

TIL 3x
00000000
00000000
01011000
01010101
01010101
01010101
01010100
00000000

TIL 3y
00000000
00000000
10001010
00001010
11001110
01001010
10001010
00000000

TIL 3z
00000000
00000000
11011001
10010101
11011001
10010101
11010101
00000000

TIL 4a
00000000
00000000
00100101
01010101
01010101
01010101
00100111
00000000

TIL 4b
00000000
00000000
01100111
01000010
01100010
00100010
01100010
00000000

TIL 4c
00000000
00000000
00100000
01010000
01010000
01010000
00100000
00000000

TIL 4d
00000000
00000000
00000000
00000000
00000111
00011000
00100011
11000110
WAL true

TIL 4e
00001100
00011000
00110000
01100000
11000000
00000000
00000000
00000000
WAL true

TIL 4f
00000011
00000100
11110000
00011000
00000001
00000011
00011110
11100000

TIL 4g
00000000
00000000
00011111
00100000
11000000
10000000
00000000
00000001

TIL 4h
00000000
00000000
00000000
00000000
00000000
00000000
00000000
00000000

TIL 4i
00000000
00000000
00000000
00000110
00011001
00100000
11100001
00010000

TIL 4j
00000001
00000001
00000010
00100010
00111110
00000100
00000111
00000100

TIL 4k
00000000
00000000
11110000
11111000
11100100
10000010
00000010
00001110

TIL 4l
00000000
00000000
00000011
00000111
00011111
00011111
00111110
00111110

TIL 4m
01111000
01111000
00111000
00011000
00001100
00000100
00000100
00000100

TIL 4n
01110100
10000010
00000001
00000000
00000000
00000000
00000000
00000000

TIL 4o
00000000
00000000
00001000
00001000
11111000
00000000
00000000
00000000

TIL 4p
00000000
00000000
00000011
00000100
00001000
00001000
00001000
00001000

TIL 4q
00111111
00010000
00100000
01000000
01000000
01000000
01000000
10000000

TIL 4r
00000000
00000000
00000000
00000000
00000010
00000010
00000010
00010100

TIL 4s
00000101
11111001
00000001
00000110
00000010
00000010
00000010
00000110

TIL 4t
00000000
00000010
01001110
00111000
11100000
00000000
00000000
00000000

TIL 4u
11000000
11000000
11100000
01001000
00100011
00100000
00100000
00010000

TIL 4v
00001000
00001000
00000100
00000110
00000100
00001000
00001000
00001000

TIL 4w
00010000
00110000
00110000
01001000
01001000
10000100
01000010
01100001

TIL 4x
00001000
00001000
00001000
00000110
11001001
00110110
00010001
00001000

TIL 4y
00000110
00000000
10000010
01000010
01000011
01100110
00000100
00000100

TIL 4z
00000000
00000000
01000000
01100000
00000000
00100000
00011100
00000100

TIL 5a
00000100
00000100
00000100
00000100
10000100
01111100
00000111
00000001

TIL 5c
00000111
00000000
00000000
00000000
00000000
00000000
00000000
00000000

TIL 5d
11000000
00100000
00001010
00000001
00000000
00000000
00000000
00000000

TIL 5e
00000000
00000000
01001100
01001001
01001101
01001001
01101101
00000000

TIL 5f
00000000
00000000
10010101
01010101
11010101
01010101
01001001
00000000

TIL 5g
00000000
00000000
10000000
00000000
10111100
00000000
10000000
00000000

TIL 5h
00000000
00000000
11000000
00111100
00000011
00000000
00000000
00000000

SPR A
00000000
00000000
00000000
01111000
01111111
01111100
01111100
00000000
>
00000000
00000000
00000000
01111000
01111110
01111100
01111100
00000000
POS 1 3,13

SPR b
00000000
00000000
11111100
10000110
10000010
10000010
11111110
00000000
DLG SPR_1
POS 0 2,9

SPR c
00000000
00000000
00010000
00011000
00011100
00011000
00010000
00000000

SPR e
00000000
00000000
11111100
11010110
10101010
11010010
11111110
00000000
DLG SPR_2
POS 0 2,11

ITM 0
00000000
00000000
00000000
00111100
01100100
00100100
00011000
00000000
NAME tea
DLG ITM_0

ITM 1
00000000
00000000
00000100
00000000
00000000
00000000
00000000
00000000
>
00000000
00000000
00000000
00000000
00000000
00000000
00000000
00000000
DLG ITM_1

ITM 2
00000000
00000000
00000000
00000000
00000000
00000000
00000000
00000000
DLG ITM_2

ITM 3
00000000
00000000
00000000
00000000
00000000
00000000
00000000
00000000
DLG ITM_3

ITM 4
00000000
00000000
00000000
00000000
00000000
00000000
00000000
00000000
DLG ITM_4

ITM 5
00000000
00000000
00000000
00000000
00000000
00000000
00000000
00000000
DLG ITM_5

ITM 6
00000000
00000000
00000000
00000000
00000000
00000000
00000000
00000000
DLG ITM_6

ITM 7
00000000
00000000
00000000
00000000
00000000
00000000
00000000
00000000
DLG ITM_7

ITM 8
00000000
00000000
00000000
00000000
00000000
00000000
00000000
00000000
DLG ITM_8

ITM 9
00000000
00000000
00000000
00000000
00000000
00000000
00000000
00000000
DLG ITM_9

ITM a
00000000
00000000
00000000
00000000
00000000
00000000
00000000
00000000
DLG ITM_a

ITM b
00000000
00000000
00000000
00000000
00000000
00000000
00000000
00000000
DLG ITM_b

DLG ITM_0
You found a nice warm cup of tea

DLG SPR_1
"""
What did one snowman say to another snowman...?
...

"Can you smell carrots?" 
"""

DLG SPR_2
"""
{shuffle
  - ..organiz15tion of
  - {shk}b23ken octopus..{shk}
  - ...
  - {shk}will nev.r..{shk}
  - to av...oi16d
  - {rbw}doom42 clown{rbw}
  - {clr2}secretly poop...{clr2}
  - ..inside
  - {wvy}dancing. {wvy}
  - potato
  - {clr3}dreess..d like.{clr3}
  - garba"e. bin
  - {rbw}destruction of{rbw}
  - {shk}shiskebab!{shk}
}
"""

DLG ITM_1
You fixed a dead pixel. Well done!

DLG ITM_2
Please, stop

DLG ITM_3
Hey you! Stop right there!

DLG ITM_4
This is dead end

DLG ITM_5
Well, ok then, go whereever you want!

DLG ITM_6
You'll definitely find the way!

DLG ITM_7
This not a dead end.

DLG ITM_8
You're on the right path!

DLG ITM_9
Can you smell carrots?

DLG ITM_a
This is the wrong way

DLG ITM_b
Plese, don't leave

END 0
YOU'VE FOUND THE EXIT

END undefined
CONGRATULATIONS! YOU DESTROYED THE PLANET

END undefinee


END undefinef
REGTF

VAR a
42


