chasing sleep

# BITSY VERSION 5.1

! ROOM_FORMAT 1

PAL 0
13,13,13
255,86,88
255,255,255

ROOM 0
0,0,0,0,0,0,0,0,0,0,0,0,0,0,0,0
0,0,0,0,0,0,0,0,0,0,0,0,0,0,0,0
0,0,0,0,0,0,0,0,0,0,0,0,0,0,0,0
0,0,0,0,0,0,0,0,0,0,0,0,0,0,0,0
0,0,0,0,0,0,0,0,0,0,0,0,0,0,0,0
0,0,0,0,0,0,0,0,0,0,0,0,0,0,0,0
0,0,0,0,0,f,g,g,g,g,h,0,0,0,0,0
0,0,0,0,0,e,0,0,0,0,a,0,0,0,0,0
0,0,0,0,0,d,c,c,c,c,b,0,0,0,0,0
0,0,0,0,0,0,0,0,0,0,0,0,0,0,0,0
0,0,0,0,0,0,0,0,0,0,0,0,0,0,0,0
0,0,0,0,0,0,0,0,0,0,0,0,0,0,0,0
0,0,0,0,0,0,0,0,0,0,0,0,0,0,0,0
0,0,0,0,0,0,0,0,0,0,0,0,0,0,0,0
0,0,0,0,0,0,0,0,0,0,0,0,0,0,0,0
0,0,0,0,0,0,0,0,0,0,0,0,0,0,0,0
NAME i'm tired
EXT 8,7 1 9,7
PAL 0

ROOM 1
0,0,0,0,0,0,0,0,0,0,0,0,0,0,0,0
0,0,0,0,0,0,0,0,0,0,0,0,0,0,0,0
0,0,0,0,0,0,0,0,0,0,0,0,0,0,0,0
0,0,0,0,0,0,0,0,0,0,0,0,0,0,0,0
0,0,0,0,0,0,0,0,0,0,0,0,0,0,0,0
0,0,0,0,0,0,0,0,0,0,0,0,0,0,0,0
0,0,0,0,0,f,g,g,g,g,h,0,0,0,0,0
0,0,0,0,0,e,0,0,0,0,a,0,0,0,0,0
0,0,0,0,0,d,c,c,c,c,b,0,0,0,0,0
0,0,0,0,0,0,0,0,0,0,0,0,0,0,0,0
0,0,0,0,0,0,0,0,0,0,0,0,0,0,0,0
0,0,0,0,0,0,0,0,0,0,0,0,0,0,0,0
0,0,0,0,0,0,0,0,0,0,0,0,0,0,0,0
0,0,0,0,0,0,0,0,0,0,0,0,0,0,0,0
0,0,0,0,0,0,0,0,0,0,0,0,0,0,0,0
0,0,0,0,0,0,0,0,0,0,0,0,0,0,0,0
EXT 7,7 0 6,7
PAL 0

TIL a
10000000
10000000
10000000
10000000
10000000
10000000
10000000
10000000
WAL true

TIL b
10000000
00000000
00000000
00000000
00000000
00000000
00000000
00000000

TIL c
11111111
00000000
00000000
00000000
00000000
00000000
00000000
00000000
WAL true

TIL d
00000001
00000000
00000000
00000000
00000000
00000000
00000000
00000000

TIL e
00000001
00000001
00000001
00000001
00000001
00000001
00000001
00000001
WAL true

TIL f
00000000
00000000
00000000
00000000
00000000
00000000
00000000
00000001

TIL g
00000000
00000000
00000000
00000000
00000000
00000000
00000000
11111111
WAL true

TIL h
00000000
00000000
00000000
00000000
00000000
00000000
00000000
10000000
WAL false

SPR A
00000000
00011000
00011000
00111100
01011010
01011010
00100100
00100100
>
00000000
00000000
00011000
00011000
00111100
01011010
01011010
00100100
POS 1 8,7

SPR a
00000000
00000000
00000010
00000110
01111110
10000010
10000010
00000000
DLG SPR_0
POS 0 9,7

SPR b
00000000
00000000
01000000
01100000
01111110
01000001
01000001
00000000
POS 1 6,7

ITM 0
00000000
00000000
00000000
00111100
01100100
00100100
00011000
00000000
NAME tea
DLG ITM_0

DLG SPR_0
I'm a cat

DLG ITM_0
You found a nice warm cup of tea

VAR a
42

