


# BITSY VERSION 4.8

! ROOM_FORMAT 1

PAL 0
198,112,205
34,255,56
239,255,4

ROOM 0
0,0,0,0,0,0,0,0,0,0,0,0,0,0,0,0
0,a,a,a,a,a,a,a,a,a,a,a,a,a,a,0
0,0,0,0,0,0,0,0,0,0,0,0,0,0,a,0
0,0,0,0,0,0,0,0,0,0,0,0,0,0,a,0
0,a,a,0,0,a,a,a,0,0,a,a,a,a,a,0
0,a,0,0,0,0,0,a,0,0,0,b,b,b,a,0
0,a,0,0,0,0,0,a,0,0,0,0,0,0,a,0
0,a,0,0,0,0,0,a,0,0,0,b,b,b,a,0
0,a,0,0,0,0,0,a,0,0,0,0,0,0,a,0
0,a,0,0,0,0,0,a,0,0,0,b,b,b,a,0
0,a,0,0,0,0,0,a,0,0,0,0,0,0,a,0
0,a,0,0,b,b,b,a,0,0,0,b,b,b,a,0
0,a,0,0,0,0,0,a,0,0,0,0,0,0,a,0
0,a,0,0,b,b,b,a,0,0,0,0,0,0,a,0
0,a,a,a,a,a,a,a,a,a,a,a,a,a,a,0
0,0,0,0,0,0,0,0,0,0,0,0,0,0,0,0
ITM 0 6,6
ITM 0 6,8
ITM 0 6,10
ITM 1 2,7
ITM 1 2,9
ITM 1 2,11
ITM 1 9,13
ITM 1 11,13
ITM 1 8,11
ITM 2 13,6
ITM 2 13,8
ITM 2 13,10
ITM 2 6,12
ITM 3 4,4
ITM 4 9,4
PAL 0

TIL a
11111111
11000011
10100101
10011001
10011001
10100101
11000011
11111111

TIL b
00000000
00000000
00000000
11111111
11111111
00000000
00000000
00000000

TIL c
00000000
00000000
00000000
00000000
00000000
00000000
11111111
11111111

SPR A
00000000
00011000
00011000
00111100
01111110
10111101
00100100
00100100
>
00011000
00011000
00111100
01111110
10111101
00100100
00100100
00000000
POS 0 1,3

SPR a
00000000
00011000
00011000
00111100
01111110
10111101
00100100
00100100
DLG SPR_0
POS 0 12,10

SPR b
00011000
00011000
00111100
01111110
11111111
01111110
00100100
00100100
NAME Pissing Man
DLG SPR_1
POS 0 5,6

SPR c
00011000
00011000
00111100
01111110
11111111
00111100
00100100
00100100
DLG SPR_2
POS 0 5,10

ITM 0
00000000
00000000
00111100
00100100
00100100
00011000
00011000
00011000
NAME urinal
DLG ITM_0

ITM 1
00000000
00011111
00010000
00010000
01000010
01000010
01111110
00000000
NAME sink
DLG ITM_1

ITM 2
00000011
00000011
00000011
00000011
01111110
00111100
00011000
00011000
NAME Sit Down Toilets
DLG ITM_4

ITM 3
00011000
00011000
01111110
01011010
01011010
00011000
00011000
00011000
NAME Gents
DLG ITM_2

ITM 4
00011000
00011000
00111100
01111110
11111111
11111111
00011000
00011000
NAME Ladies
DLG ITM_3

DLG SPR_0
"""
{
  - {item "0"} == 1 ?
    You're a bloke! Why are you in the ladies?
  - {item "Gents"} == 1 ?
    Go back to the gents you perv!
  - else ?
    This one's full!
}
"""

DLG ITM_0
You found a urinal! Piss?

DLG ITM_1
Wash your hands!

DLG SPR_1
"""
Aaaaaaaaaaaaaaaaaah that's better. Oi. What are you looking at? {
  - {item "Sit Down Toilets"} == 1 ?
    You sure you're a bloke mate? 
  - {item "Ladies"} == 1 ?
    Women's are that way, love.
}
"""

DLG SPR_2
"""
What you lookin at? {
  - {item "Sit Down Toilets"} == 1 ?
    You bent? Hanging around in the cubicles? 
  - else ?

  - {item "Ladies"} == 1 ?
    Go back to the ladies!
}
"""

DLG ITM_2
Gents Toilets! Are you a man? 

DLG ITM_3
Ladies Toilets!

DLG ITM_4
Sit down

VAR a
42


