Everybody Loves Mothman          A bitsy game by Ryan Ramsey

# BITSY VERSION 3.5

! ROOM_FORMAT 1

PAL 0
138,200,171
181,252,190
151,255,180

PAL 1
112,185,138
175,255,169
175,255,169

ROOM 1
0,0,0,0,0,0,0,0,0,0,0,0,0,0,0,0
0,3r,3s,3u,3v,3w,3x,0,0,0,44,45,46,47,48,49
0,3y,3z,40,41,42,43,19,17,1r,4a,4b,4c,4d,4e,4f
0,0,0,0,0,0,1b,1a,18,1s,0,0,4g,4h,0,0
0,0,0,0,0,0,1c,1v,16,1s,0,0,0,0,0,0
0,0,0,0,0,1m,16,1v,16,1s,1x,0,0,0,0,0
0,0,0,0,0,1n,16,1v,16,1s,1y,0,0,0,0,0
0,0,0,0,0,0,1d,1f,1f,1t,0,0,0,0,0,0
0,22,20,28,20,1g,1i,1i,1k,1l,1u,20,28,20,23,2c
3i,21,2a,2e,2f,2g,2h,0,0,0,0,0,0,0,24,2b
3i,21,2i,2j,2k,2l,2m,0,0,0,0,0,0,0,24,2b
3k,21,2n,2p,2r,2t,2v,2t,2y,30,3e,34,38,3c,24,2b
0,21,2o,2w,2s,2u,2w,2u,2z,31,3d,35,37,3b,24,2b
0,26,4j,4k,4l,4m,4n,27,27,27,27,27,27,27,25,2b
0,0,0,29,0,0,0,0,0,0,0,0,29,0,0,2c
0,0,0,29,0,0,0,0,0,0,0,0,29,0,0,2c
WAL 17,16,18,19,1a,1b,1c,1d,1e,1f,1g,1h,1i,1j,1k,1l,1m,1o,1p,1q,1r,1s,1t,1u,1v,1w,1x,1y,1z,20,21,22,23,24,25,26,27,28,29,3j
EXT 15,15 2 0,6
PAL 0

ROOM 2
c,c,c,c,c,c,c,c,c,c,c,c,c,c,c,3l
c,c,c,c,c,c,c,c,c,c,c,c,c,c,c,3l
c,c,0,0,0,0,0,0,0,0,0,0,0,0,0,3l
c,c,0,0,0,0,0,0,0,0,0,0,0,0,0,3l
c,c,0,0,0,0,0,0,0,0,0,0,0,0,0,3l
0,0,0,0,0,0,0,0,0,0,0,0,0,0,0,0
0,4w,4x,4y,4z,50,51,52,y,x,z,4o,4p,4q,4r,7q
0,0,53,54,55,56,57,0,v,w,u,0,4t,4u,4v,0
3n,3n,0,0,0,0,0,0,0,x,z,0,0,0,0,3m
c,c,0,0,0,0,0,0,0,0,0,0,0,0,0,3l
c,c,0,14,15,0,0,0,0,0,0,0,0,0,0,3l
c,c,0,0,0,0,0,0,0,0,0,3q,0,0,0,3l
c,c,0,0,0,0,0,0,0,0,0,0,0,0,0,3l
c,c,0,0,0,0,0,0,0,0,0,0,0,0,0,3l
m,m,m,m,m,m,m,m,m,m,m,m,m,m,m,m
o,q,n,o,q,n,o,q,q,n,o,q,n,o,q,n
WAL m,c,d,f,g,h,i,k,r,s,t,10,11,12,13,3n,3m,3l
EXT 15,6 3 0,15
EXT 15,5 3 0,15
EXT 15,7 3 0,15
PAL 0

ROOM 3
0,0,0,0,0,0,0,0,0,0,0,0,0,0,0,0
0,0,0,0,0,0,0,0,0,0,0,0,0,0,0,0
0,0,0,0,0,0,0,0,0,0,0,0,0,0,0,0
0,0,5h,5l,5m,5o,5q,5s,5u,0,0,0,0,0,0,0
0,0,5e,5k,5n,5f,5r,5t,5v,0,0,0,0,0,0,0
0,0,0,0,0,5d,0,0,0,5z,60,61,61,61,65,67
0,0,0,0,0,5d,0,0,0,5y,68,62,62,62,63,64
6j,6k,6j,6k,6j,6h,6j,6j,6e,69,6a,6a,6a,6a,6a,6b
6n,6g,6g,6g,6g,6d,6g,6g,6f,0,0,0,0,0,0,6i
6m,59,59,59,59,59,59,59,59,59,59,59,59,59,59,59
6l,0,76,77,0,0,0,7m,7n,7o,7p,0,0,7b,7c,7d
6l,0,0,0,0,0,0,0,0,0,0,0,0,0,0,0
6l,0,70,72,72,72,75,0,0,0,0,70,72,72,72,75
6l,0,71,73,73,73,74,0,7f,7g,7i,71,73,73,73,74
6o,6r,6r,6r,6z,6r,6r,6r,6t,6u,6v,6r,0,0,0,bt
8u,6s,7e,6s,bz,6s,7e,6s,7e,6s,7e,6s,7e,6s,7e,6s
WAL 6o,6r,6t,6u,6v,bt
EXT 15,15 6 0,9
PAL 0

ROOM 6
0,89,8a,8a,8a,8g,8e,0,0,89,8a,8a,8a,8g,8e,0
87,88,0,0,0,0,8d,8c,87,88,0,0,0,0,8d,8c
8b,7z,7y,82,82,7y,7x,8f,8p,8o,7y,8n,8n,7y,8m,8f
0,7v,81,86,85,81,7w,0,0,7v,81,86,85,81,7w,0
8q,7r,7u,83,84,7u,7s,8q,8q,7r,7u,83,84,7u,7s,8q
bv,bv,8i,8h,bu,bv,8r,8s,bv,bv,8i,8h,bu,8t,bv,bv
0,0,0,0,0,0,0,0,0,0,0,0,0,0,0,0
8w,0,8w,0,8w,0,8w,0,8w,0,8w,0,8w,0,8w,0
0,0,0,0,0,0,0,0,0,0,0,0,0,0,0,0
8v,9j,9k,8v,8v,8v,8v,8v,8v,8v,8v,8v,9q,9p,8v,8v
0,9f,0,0,0,0,0,0,0,0,0,0,0,9o,0,0
0,9d,95,8x,8x,8x,8x,99,8x,8x,8x,8x,8y,9e,0,0
0,97,9l,9c,9c,9c,9c,9a,9c,9c,9c,9c,9m,90,0,0
0,98,94,94,94,94,94,9b,94,94,94,94,94,93,0,0
0,0,0,0,0,0,0,0,0,0,0,0,0,0,0,0
0,0,0,0,0,0,0,0,0,0,0,0,0,0,0,0
WAL 8t,bu,bv,8h,8i,8r
EXT 15,5 7 0,15
EXT 15,6 7 0,15
EXT 15,7 7 0,15
EXT 15,8 7 0,15
EXT 15,9 7 0,15
PAL 0

ROOM 7
0,0,0,0,0,0,0,0,0,0,0,0,0,0,0,0
0,0,0,0,0,0,0,bc,bd,bd,be,0,0,0,0,0
0,0,0,0,0,0,0,ba,bf,bg,bb,0,0,0,0,0
0,0,0,0,0,au,ao,ao,ao,ao,ao,ao,aw,0,0,0
0,0,0,0,bi,bh,bh,bh,bh,bh,bh,bh,bh,bj,0,0
0,0,0,b8,b7,b7,b7,b7,b7,b7,b7,b7,b7,b7,b9,0
0,0,0,b5,b4,b4,b4,b4,b4,b4,b4,b4,b4,b4,b6,0
0,0,0,as,ao,ao,ao,ao,ao,ao,ao,ao,ao,ao,at,0
0,0,0,0,0,0,ay,b0,b0,b0,b2,az,0,0,0,0
bx,bx,bx,bx,bx,bx,by,a8,bm,bm,ad,aa,0,0,0,0
bx,0,0,0,0,0,bx,ae,ai,ah,ag,0,bk,bk,bl,0
bx,9t,9v,9w,9w,9w,9w,9w,9w,9w,9w,9w,9w,9w,9w,9w
bx,9t,9u,0,0,9x,9y,9z,a0,a1,a2,a3,a4,0,0,0
bx,9t,9u,0,0,0,0,bn,bo,bp,bq,0,0,0,0,0
bx,9t,bs,br,br,br,br,br,br,br,br,br,br,br,br,br
0,9t,9u,0,0,0,0,0,0,0,0,0,0,0,0,0
WAL bx,9u,9v,a8,by,bs
END undefined 5,10
PAL 0

ROOM 8
0,0,0,0,0,0,0,0,0,0,0,0,0,0,0,0
0,0,0,0,0,0,0,0,0,0,0,0,0,0,0,0
0,0,0,0,0,0,0,0,0,0,0,0,0,0,0,0
0,0,0,0,0,0,0,0,0,0,0,0,0,0,0,0
0,0,0,0,0,0,0,0,0,0,0,0,0,0,0,0
0,0,0,0,0,0,0,0,0,0,0,0,0,0,0,0
0,0,0,0,0,0,0,0,0,0,0,0,0,0,0,0
0,0,0,0,0,0,0,0,0,0,0,0,0,0,0,0
0,0,0,0,0,0,0,0,0,0,0,0,0,0,0,0
0,0,0,0,0,0,0,0,0,0,0,0,0,0,0,0
0,0,0,0,0,0,0,0,0,0,0,0,0,0,0,0
0,0,0,0,0,0,0,0,0,0,0,0,0,0,0,0
0,0,0,0,0,0,0,0,0,0,0,0,0,0,0,0
0,0,0,0,0,0,0,0,0,0,0,0,0,0,0,0
0,0,0,0,0,0,0,0,0,0,0,0,0,0,0,0
0,0,0,0,0,0,0,0,0,0,0,0,0,0,0,0
PAL 0

TIL 14
00000001
00000001
01111001
01001011
01001000
11011000
00000000
00000000
>
00000000
00000001
00000001
01111001
01001011
01001000
11011000
00000000

TIL 15
10000000
00000000
00111100
00100100
00100100
01101100
00000000
00000000
>
00000000
10000000
00000000
00111100
00100100
00100100
01101100
00000000

TIL 16
11111111
11111111
11111111
11111111
11111111
11111111
11111111
11111111

TIL 17
00011111
00111111
01111111
11111111
11111111
11111111
11111111
11111111

TIL 18
11111111
11111111
11111111
11111111
11111111
11111111
11111111
11111111

TIL 19
00000000
00000000
00000000
00000000
00000001
00000011
00000111
00001111

TIL 20
00000000
00000000
00000000
00000000
00000000
11111111
11111111
00000000

TIL 21
11000000
11000000
11000000
11000000
11000000
11000000
11000000
11000000

TIL 22
00000000
00000000
00000000
00000000
00000000
11111111
11111111
11000000

TIL 23
00000000
00000000
00000000
00000000
00000000
11111111
11111111
00000011

TIL 24
00000011
00000011
00000011
00000011
00000011
00000011
00000011
00000011

TIL 25
00000011
00000011
00000011
00000011
00000011
00000011
11111111
11111111

TIL 26
11000000
11000000
11000000
11000000
11000000
11000000
11111111
11111111

TIL 27
00000000
00000000
00000000
00000000
00000000
00000000
11111111
11111111

TIL 28
10111100
10111100
10111100
10111100
10111100
11111111
11111111
00000000

TIL 29
10111000
10111000
10111000
10111000
10111000
10111000
10111000
10111000

TIL 30
00000000
00000000
01111111
01111111
00011100
00011100
00011100
00011100

TIL 31
00011100
00011100
00000000
00000000
00000000
00000000
00000000
00000000

TIL 32
00000000
00000000
00000000
00000000
00000000
00000000
00000000
00000000

TIL 33
11000000
11000000
01000000
00000000
00000000
00000000
00000000
00000000

TIL 34
00000000
00000000
00001100
00001101
00001101
00001101
00001101
00001101

TIL 35
00001101
00000111
00000000
00000000
00000000
00000000
00000000
00000000

TIL 37
01100001
11000001
00000000
00000000
00000000
00000000
00000000
00000000

TIL 38
00000000
00000000
01100110
01100110
01100110
01100110
01100010
01100010

TIL 39
00000000
00000000
00000000
00000000
00000100
00000100
00000100
00000100

TIL 40
10100010
10100010
11100010
10100010
10100011
00000000
00000000
00000000

TIL 41
00111011
00101010
00101010
00111010
10101010
00000000
00000000
00000000

TIL 42
00110011
10101010
10101011
10101010
10110011
00000000
00000000
00000000

TIL 43
10110000
00101000
10101000
00101000
10110000
00000000
00000000
00000000

TIL 44
11101100
10101010
10101010
10101010
11101010
00000000
00000000
00000000

TIL 45
00111010
00010010
00010011
00010010
00010010
00000000
00000000
00000000

TIL 46
10111000
10100000
10111000
10100000
10111000
00000000
00000000
00000000

TIL 47
11101000
10101000
10101000
11101000
10101110
00000000
00000000
00000000

TIL 48
11101110
01001000
01001110
01001000
11101110
00000000
00000000
00000000

TIL 49
11000000
10100000
10100000
10100000
10100000
00000000
00000000
00000000

TIL 50
10100010
10100010
10100010
10100011
11100001
00000000
00000000
00000000

TIL 51
00101110
00101010
10101010
11101110
01001010
00000000
00000000
00000000

TIL 52
11101110
01000100
01000100
01000100
11100100
00000000
00000000
00000000

TIL 53
11101110
10001010
11101010
10001010
10001110
00000000
00000000
00000000

TIL 54
11100011
10100010
10100010
11000011
10100010
00000000
00000000
00000000

TIL 55
10001110
10000100
10000100
10000100
10000100
00000000
00000000
00000000

TIL 56
11101000
10101000
10101010
10101111
11100101
00000000
00000000
00000000

TIL 57
10000000
10000000
10000000
10000000
00010101
00000000
00000000
00000000

TIL 58
11111111
11111111
11111111
11111111
11111111
11111111
11111111
11111111

TIL 59
11111111
11111111
11111111
00000000
00000000
00000000
00000000
00000000

TIL 60
00000000
00000000
00001111
00010001
00100010
01100100
10011000
00011000

TIL 61
00000000
00000000
11111111
10000001
01000010
00100100
00011000
00011000

TIL 62
00100100
01000010
10000001
01000010
00100100
00011000
00011000
11111111

TIL 63
00110001
01001010
10000110
10000101
01001000
00110000
00110000
11111111

TIL 64
01000000
00100000
00010000
00001000
10000100
01100010
01100001
11111111

TIL 65
00000000
00000000
11110000
00001000
10000100
01001010
00110001
00110000

TIL 66
00000000
00000000
00000000
00000000
00000000
00000000
10000000
00000000

TIL 67
00000000
00000000
00000000
00000000
00000000
00000000
00000000
10000000

TIL 68
00110000
01001000
10000111
10000100
01001000
00110000
00110000
11111111

TIL 69
11000001
10100010
10010100
10001000
11111111
00000000
00000000
00000000

TIL 70
11111111
10000000
10010001
10100010
11000100
10001000
10010001
10100010

TIL 71
10000000
10000000
10000000
10000000
11111111
00000000
00000000
00000000

TIL 72
11111111
00000000
00000000
00000000
00000000
00000000
00000000
00000000

TIL 73
00000000
00000000
00000000
00000000
11111111
00000000
00000000
00000000

TIL 74
10000001
00000001
00000001
00000001
11111111
00000000
00000000
00000000

TIL 75
11111111
00000001
00010011
00100101
01001001
10010011
00100101
01001001

TIL 76
11001110
10101000
10101110
10101000
11001110
00000000
00000000
00000000

TIL 77
10001110
10000100
10000100
10000100
11101110
00000000
00000000
00000000

TIL 78
11101110
10101010
10101010
10101010
11101010
00000000
00000000
00000000

TIL 79
11100101
10000101
11100111
10000101
11100101
00000000
00000000
00000000

TIL 80
00000000
01111100
01010100
01111100
01010100
01111100
00000000
00000000

TIL 81
10010010
10010010
11111110
00000000
00000000
00000000
00000000
00000000

TIL 82
11111111
00000000
00000000
00000000
00000000
00000000
00000000
00000000

TIL 83
00001000
00001000
00001000
00001010
00001000
00001000
00001000
11111111

TIL 84
00010000
00010000
00010000
00010000
00010000
00010000
00010000
11111111

TIL 85
00000000
00000000
00000000
00000000
00000000
00000000
11110000
00010000

TIL 86
00000000
00000000
00000000
00000000
00000000
00000000
00001111
00001000

TIL 87
00000000
00000000
00000001
00000010
00000100
00001000
00010000
00100000

TIL 88
01000000
10000000
00000000
00000000
00000000
00000000
00000000
00000000

TIL 89
00000000
00000000
00000000
00000000
00000000
00000000
00000000
00111111

TIL 90
11111000
10000000
10000000
11000000
01000000
00100000
00100000
00010000

TIL 91
00010000
00000000
00000000
00000000
00000000
00000000
00000000
00000000

TIL 92
11111111
00000000
00000000
00000000
00000000
00000000
00000000
00000000

TIL 93
00010000
11110000
00000000
00000000
00000000
00000000
00000000
00000000

TIL 94
00000000
11111111
00000000
00000000
00000000
00000000
00000000
00000000

TIL 95
00001111
00010000
00010000
00100000
00111111
01000001
01000001
10000010

TIL 96
11111111
00000000
00000000
00000000
00000000
00000000
00000000
00000000

TIL 97
00011111
00000001
00000001
00000011
00000010
00000100
00000100
00001000

TIL 98
00001000
00001111
00000000
00000000
00000000
00000000
00000000
00000000

TIL 99
11111111
00010000
00010000
00010000
00010000
00111000
01010100
10010010

TIL c
01110111
01110111
01110111
01110111
01110111
01110111
00110011
11111111

TIL d
11111111
10000000
10111011
10100001
10100001
10111011
10000000
11111111

TIL f
11111111
00000000
10111010
00010010
00010001
10010001
00000000
11111111

TIL g
11111111
00000000
10011100
10010101
00011101
00010001
00000000
11111111

TIL h
11111111
00000000
10011101
01010101
11011001
01010101
00000000
11111111

TIL i
11111000
00001000
01001000
10001000
10001000
01001000
00001000
11111000

TIL j
10000000
01000000
00100000
00010000
00001000
00000100
00000010
00000001

TIL k
01110100
01110100
01110100
01110100
01110100
11111110
00000000
00000000

TIL l
10000000
11000000
01100000
00111000
00001100
00000110
00000011
00000001

TIL m
11111111
11111111
11111111
00000000
00000000
00000000
00000000
11001111

TIL n
01101111
00111000
00111111
00111111
00011111
00001001
00000110
11111111
>
00111000
00111111
00111111
00011111
00001001
00000110
00000000
11111111

TIL o
11111100
11000100
11111110
11111111
11111111
00010010
00001100
11111111
>
11000100
11111110
11111111
11111111
00010010
00001100
00000000
11111111

TIL p
00000000
11111111
00000000
00000000
00000000
00000000
00000000
00000000
>
00000000
00000000
00000000
00000000
00000000
00000000
00000000
00000000

TIL q
00000000
00000000
00000000
00000000
00000000
00000000
00000000
11111111

TIL r
00000010
00000010
11111111
10000010
11111111
11111111
11111111
00111111

TIL s
00100100
00100100
11111111
00100100
11111111
11111111
11111111
11111111
>
00100100
00100100
11111111
00100100
11111111
11111111
11111111
11111111

TIL t
01000000
01000000
11111111
01000001
11111111
11111111
11111111
11111100

TIL u
00000000
00000000
00100000
01010000
01001000
01000000
01000100
01000000
>
00000000
00100000
01010000
01001000
01000000
01000100
01000000
01000000

TIL v
00000000
00001000
00010100
00000010
00100010
00000010
00000010
00000010
>
00001000
00010100
00000010
00100010
00000010
00000010
00000010
00000010

TIL w
00100100
00100100
00100100
00100100
00100100
00100100
00100100
00100100
>
00100100
00100100
00100100
00100100
00100100
00100100
00100100
00100100

TIL x
00000000
00000000
00000000
00000000
11000011
01100110
00100100
00100100
>
00000000
00000000
00000000
11100111
01100110
00100100
00100100
00100100

TIL y
00000000
00001010
00010000
00000010
00010000
00000010
00000100
00001000
>
00001010
00010000
00000010
00010000
00000010
00000100
00001000
00000000

TIL z
00000000
00000000
01010100
10001000
00100000
00000010
00001000
00000000
>
00000000
01010100
10001000
00100000
00000010
00001000
00000000
00000000

TIL 1a
00011111
00111111
01110111
11110111
11110111
11110111
11110111
11110111

TIL 1b
00000000
00000000
00000000
00000000
00000001
00000011
00000111
00001111

TIL 1c
00011111
00111111
01111111
11111111
11111111
11111111
11111111
11111111

TIL 1d
11111111
11011111
11111111
11111101
11011111
01010111
10111101
01010110

TIL 1e
01011010
10110111
11111111
00000000
00000000
00000000
00000000
00000000

TIL 1f
11110111
11111111
11110101
01110011
01000111
10111101
10101000
01111101
>
11110111
11110111
11110101
01110011
01000111
10111101
10101000
01111101

TIL 1g
00000010
00000101
00011111
00110101
01101001
11111111
11111111
00000000

TIL 1h
01010010
00110101
11111011
10100101
00101011
11111111
11111111
00000000

TIL 1i
01101001
01011101
00100010
10101001
00010000
11111111
11111111
00000000

TIL 1j
01110110
00101101
01000100
10101011
01000100
11111111
11111111
00000000

TIL 1k
10110000
01000100
10110101
10011000
01001011
11111111
11111111
00000000

TIL 1l
10110101
10000100
11011010
00101001
01101010
11111111
11111111
00000000

TIL 1m
01111111
11111111
11000000
11000111
11000101
11000110
11000101
11000110
>
01111111
11111111
11000000
11000111
11000110
11000101
11000110
11000101

TIL 1n
11000110
11000101
11000110
11000101
11000111
11000000
11111111
01111111
>
11000101
11000110
11000101
11000110
11000111
11000000
11111111
01111111

TIL 1o
11110000
11110000
11110000
11110000
11110000
11110000
11110000
11110000

TIL 1p
11110000
11110000
11110000
11110000
11110000
11110000
11110000
11110000

TIL 1q
11110000
11110000
11110000
11110000
11110000
11110000
01010000
00100000

TIL 1r
00000000
10000000
11000000
00100000
11110000
00111000
00111100
00111110
>
00000000
10000000
11000000
00100000
00110000
00111000
11111100
00111110

TIL 1s
00111111
00111111
00111111
11111111
00111111
00111111
00111111
00111111
>
00111111
00111111
00111111
00111111
00111111
11111111
00111111
00111111

TIL 1t
00111111
00111111
11111111
00111111
00111111
00111111
00011011
00101110
>
00111111
00111111
00111111
00111111
00111111
11111111
00011011
00101110

TIL 1u
01000000
00101000
10000000
01010100
11001010
11111111
11111111
00000000

TIL 1v
11110111
11111111
11110111
11110111
11110111
11110111
11110111
11110111
>
11110111
11110111
11110111
11110111
11110111
11110111
11110111
11110111

TIL 1w
00000000
00000000
00000001
10101111
11011101
11111110
01101011
11111111

TIL 1x
10000000
11000000
11100000
11110000
11110000
11111100
11111100
11111100

TIL 1y
11110000
11110000
11100000
11000000
10000000
00000000
00000000
00000000

TIL 1z
11111111
11111111
11111111
11111111
11111111
11111111
11111111
11111111

TIL 2a
01010101
01010101
01010101
01010101
00101001
00000000
00000000
00000000

TIL 2b
01000010
01111110
01000010
11000010
01000010
01111110
01000010
01000010

TIL 2c
01000010
01111110
01000010
01000010
01000010
01111110
01000010
01000010

TIL 2d
00000000
00000000
00000000
00000000
00000000
00000000
00000000
00000000

TIL 2e
10100110
00100100
10100100
00100100
10110110
00000000
00000000
00000000

TIL 2f
11101101
10101010
10101010
10101010
11101010
00000000
00000000
00000000

TIL 2g
10110001
10100000
10110000
10100000
10110000
00000000
00000000
00000000

TIL 2h
11011100
10010100
10010100
10010100
10011100
00000000
00000000
00000000

TIL 2i
11111100
11111110
11000110
11000110
11111110
11111100
11100000
11100000

TIL 2j
00111110
01111111
01100111
01100011
01100011
01110011
01111111
00111110

TIL 2k
01111110
00111100
00011000
00011000
00011000
00011000
00111100
01111110

TIL 2l
11110110
11110110
11010110
11010110
11010110
11010110
11011110
11011100

TIL 2m
11111100
11111100
00110000
00110000
00110000
00110000
00110000
00110000

TIL 2n
00000000
00000000
11111100
11111110
11000110
11000110
11111110
11111100

TIL 2o
11100000
11100000
00000000
00000000
00000000
00000000
00000000
00000000

TIL 2p
00000000
00000000
01110000
01110000
01110000
01110000
01110000
01110000

TIL 2q
01111110
01111110
00000000
00000000
00000000
00000000
00000000
00000000

TIL 2r
00000000
00000000
01111110
01111110
01110000
01111110
01111110
01110000

TIL 2s
01111110
01111110
00000000
00000000
00000000
00000000
00000000
00000000

TIL 2t
00000000
00000000
00111100
01111110
01100110
01100110
01111110
01100110

TIL 2u
01100110
01100110
00000000
00000000
00000000
00000000
00000000
00000000

TIL 2v
00000000
00000000
01111110
01111110
01100000
01111110
01111110
00000110

TIL 2w
01111110
01111110
00000000
00000000
00000000
00000000
00000000
00000000

TIL 2x
00000000
00000000
00000000
00000000
00000000
00000000
00000000
00000000

TIL 2y
00000000
00000000
01111011
01111011
01101011
01101011
01101011
01101011

TIL 2z
01101111
01101110
00000000
00000000
00000000
00000000
00000000
00000000

TIL 3a
00000000
00000000
00000000
00000000
00000000
00000111
00000111
00000111

TIL 3b
10000000
10000000
00000000
00000000
00000000
00000000
00000000
00000000

TIL 3c
00000000
00000000
01100000
01100000
01100000
01100000
01000000
01000000

TIL 3d
00110000
00010000
00000000
00000000
00000000
00000000
00000000
00000000

TIL 3e
00000000
00000000
00000000
00000000
00000000
00000000
00000000
00110000

TIL 3f
11100000
10100000
11100000
10000000
10000000
00000000
00000000
00000000

TIL 3g
00000000
00000000
00000000
00000000
00000000
10000000
10000000
10000000

TIL 3h
00000000
00000000
00000000
00000000
00000000
00000000
00000000
00000000

TIL 3i
01000010
01111110
01000010
01000011
01000010
01111110
01000010
01000010

TIL 3j
00000000
00000000
00000000
00000000
00000000
00000000
00000000
00000000

TIL 3k
01000010
01111110
01000010
00000000
00000000
00000000
00000000
00000000

TIL 3l
10111101
10111101
10111101
10111101
10111101
10111101
10011100
11111111

TIL 3m
11111111
10111101
10111101
10111101
10111101
10111101
10011100
11111111

TIL 3n
11111111
01110111
01110111
01110111
01110111
01110111
00110011
11111111

TIL 3o
00011000
00010100
11110010
10000001
11110010
00010100
00011000
00000000
>
00011000
00011100
11111110
11111111
11111110
00011100
00011000
00000000

TIL 3p
00000000
00000000
00000000
00001000
00000000
00000000
00000000
00000000

TIL 3q
00000001
00000000
00000000
00000000
00000000
00000000
00000000
00000000
>
00000000
00000000
00000000
00000000
00000000
00000000
00000000
10000000

TIL 3r
10101110
10101010
11101010
00101010
11101110
00000000
00000000
00000000

TIL 3s
10101110
10101010
10101010
10101100
11101010
00000000
00000000
00000000

TIL 3u
00011101
00010001
00011101
00000101
00011101
00000000
00000000
00000000

TIL 3v
01011101
01001001
11001001
01001001
01011101
00000000
00000000
00000000

TIL 3w
11000101
01000101
11000111
00000101
00000101
00000000
00000000
00000000

TIL 3x
01110111
01010100
01010111
01110001
01010111
00000000
00000000
00000000

TIL 3y
11101110
10001010
10001010
10001100
11101010
00000000
00000000
00000000

TIL 3z
11101110
10101000
10101110
11100010
10101110
00000000
00000000
00000000

TIL 4a
11101110
10000100
10000100
10000100
11101110
00000000
00000000
00000000

TIL 4b
10101110
10100100
10100100
10100100
01001110
00000000
00000000
00000000

TIL 4c
10001110
10000100
10000100
10000100
11101110
00000000
00000000
00000000

TIL 4d
11101110
00101010
01001010
10001110
11101010
00000000
00000000
00000000

TIL 4e
11101110
01000100
01000100
01000100
01001110
00000000
00000000
00000000

TIL 4f
11101100
10101010
10101010
10101010
11101010
00000000
00000000
00000000

TIL 4g
11101110
10101000
10101110
10101000
11101001
00000000
00000000
00000000

TIL 4h
00000000
00000000
00000000
00000000
01010000
00000000
00000000
00000000

TIL 4i
00000000
00000000
00100000
00110000
00011000
00000000
00000000
00000000

TIL 4j
01110111
01010101
01110101
01000111
00000000
00000000
11111111
11111111

TIL 4k
01110000
01010000
01110000
01000100
00000000
00000000
11111111
11111111

TIL 4l
10111000
10101000
10101000
10111010
00000010
00000000
11111111
11111111

TIL 4m
11101110
10101010
10101010
11101110
00000000
00000000
11111111
11111111

TIL 4n
11100000
10100000
10100000
11100000
00000000
00000000
11111111
11111111

TIL 4o
11101110
10001010
11101110
00101000
11101000
00000000
00000000
00000000

TIL 4p
11101110
10101010
10101010
10101010
11101110
00000000
00000000
00000000

TIL 4q
10100011
10100001
11000001
10100001
10100001
00000000
00000000
00000000

TIL 4r
10101011
00101010
00111011
00101010
00101011
00000000
00000000
00000000

TIL 4s
10000000
00000000
10000000
00000000
10000000
00000000
00000000
00000000

TIL 4t
10001110
10001010
10001010
10001010
11101110
00000000
00000000
00000000

TIL 4u
11101110
10001010
10001010
10001110
11101010
00000000
00000000
00000000

TIL 4v
10001110
10001000
10001110
10000010
11101110
00000000
00000000
00000000

TIL 4w
10001010
10001010
10101011
01110010
01010010
00000000
00000000
00000000

TIL 4x
10111010
10010010
10010010
10010010
10111011
00000000
00000000
00000000

TIL 4y
00111000
00100000
00111000
00100000
10111000
00000000
00000000
00000000

TIL 4z
10101110
10101010
11101010
00101010
11101110
00000000
00000000
00000000

TIL 5a
00001111
00001111
00001111
00001110
00001110
00001110
00001110
00001110

TIL 5b
00001110
00001110
00001110
00001110
00001110
00001110
00001110
00001110

TIL 5c
00111100
00111100
00111100
00111100
11111111
00111100
00111100
00111100

TIL 5d
00011000
00011000
00011000
00011000
00011000
00011000
00011000
00011000

TIL 5e
10000000
10000000
10000000
10000000
10000000
10000000
10000000
11111111
>
10111010
10001010
10111011
10000000
10000000
10000000
10000000
11111111

TIL 5f
10101010
10101011
10101010
00000000
00000000
00000000
00000000
11111111
>
00000000
00000000
00000000
00000000
00000000
00000000
00000000
11111111

TIL 5g
00000001
00000001
00000001
00000001
00000001
00000001
00000001
11111111

TIL 5h
00000000
00000000
00000000
00000000
11111111
10000000
10000000
10000000
>
00000000
00000000
00000000
00000000
11111111
10000000
10111010
10100010

TIL 5i
00000000
00000000
00000000
00000000
11111111
00000000
00000000
00000000

TIL 5j
00000000
00000000
00000000
00000000
11111111
00000001
00000001
00000001

TIL 5k
00000000
00000000
00000000
00000000
00000000
00000000
00000000
11111111
>
10111011
10100010
10100011
00000000
00000000
00000000
00000000
11111111

TIL 5l
00000000
00000000
00000000
00000000
11111111
00000000
00000000
00000000
>
00000000
00000000
00000000
00000000
11111111
00000000
10111011
10101010

TIL 5m
00000000
00000000
00000000
00000000
11111111
00000000
00000000
00000000
>
00000000
00000000
00000000
00000000
11111111
00000000
10111000
00101000

TIL 5n
00000000
00000000
00000000
00000000
00000000
00000000
00000000
11111111
>
10101000
00110000
10101000
00000000
00000000
00000000
00000000
11111111

TIL 5o
00000000
00000000
00000000
00000000
11111111
00000000
11011011
10101010
>
00000000
00000000
00000000
00000000
11111111
00000000
00000000
00000000

TIL 5p
10000000
10000000
10000000
00000000
00000000
00000000
00000000
11111111
>
00000000
00000000
00000000
00000000
00000000
00000000
00000000
11111111

TIL 5q
00000000
00000000
00000000
00000000
11111111
00000000
10111010
10101010
>
00000000
00000000
00000000
00000000
11111111
00000000
00000000
00000000

TIL 5r
10101011
10110011
10101010
00000000
00000000
00000000
00000000
11111111
>
00000000
00000000
00000000
00000000
00000000
00000000
00000000
11111111

TIL 5s
00000000
00000000
00000000
00000000
11111111
00000000
10111011
10100001
>
00000000
00000000
00000000
00000000
11111111
00000000
00000000
00000000

TIL 5t
00111001
00100001
10111001
00000000
00000000
00000000
00000000
11111111
>
00000000
00000000
00000000
00000000
00000000
00000000
00000000
11111111

TIL 5u
00000000
00000000
00000000
00000000
11100000
00100000
10100000
00100000
>
00000000
00000000
00000000
00000000
11100000
00100000
00100000
00100000

TIL 5v
00100000
00100000
00100000
00100000
00100000
00100000
00100000
11100000

TIL 5w
00000000
00000000
00000000
00000000
00000000
00000000
00000000
11111111

TIL 5x
00000000
00000000
00000000
00000000
00000000
00000000
00000000
00000000

TIL 5y
00000010
00000110
00001001
00010000
00100001
01000110
10000110
11111111

TIL 5z
00000000
00000000
00000000
00000000
00000000
00000000
00000000
00000001

TIL 6a
00010001
10010010
01010100
00111000
11111111
00000000
00000000
00000000

TIL 6b
10000011
01000101
00101001
00010001
11111111
00000000
00000011
00000111

TIL 6c
00000000
00000000
00000000
00000000
11111111
11111111
11111111
11111111

TIL 6d
10111101
10111101
10111101
10111101
10111101
10111101
10111101
00111100

TIL 6e
00000010
00000100
00001000
00010000
11111111
11000000
11110000
11111000

TIL 6f
11111000
11111000
11111100
11111110
11111110
11111111
11111111
00000000

TIL 6g
11111111
11111111
11111111
11111111
11111111
11111111
11111111
00000000

TIL 6h
00111100
00111100
00111100
00111100
10111101
10111101
10111101
10111101

TIL 6i
00000111
00000111
00001111
00011111
00011111
00111111
01111111
00000000

TIL 6j
00111000
01111110
01111110
00100100
11111111
11111111
11111111
11111111
>
00011100
00111111
00111111
00010010
11111111
11111111
11111111
11111111

TIL 6k
00000000
00000000
00000000
00000000
11111111
11111111
11111111
11111111

TIL 6l
11101110
11101110
11101110
11101110
11101110
11101110
11101110
11101110

TIL 6m
11101011
11101101
11101110
11101110
11101110
11101110
11101110
11101110

TIL 6n
11111111
11111111
11111111
11111111
11111111
11111111
11111111
11100000

TIL 6o
11101110
11101110
11101110
11101110
11101111
11101100
11101000
11100000

TIL 6q
11111111
11111111
11111111
11111111
11111111
11111111
11111111
11111111

TIL 6r
00000000
00000000
00000000
00000000
11111111
00000000
00000000
00000000

TIL 6s
11111111
11111111
00000110
00001100
00011000
00110000
01100000
11111111

TIL 6t
10000000
10000000
10000010
10000010
10000000
10000000
10000000
10000000

TIL 6u
10000000
10000000
10100000
10100000
10000000
10000000
10000000
10000000

TIL 6v
10000000
10000000
10000000
10000000
11111111
10000000
10000000
10000000

TIL 6w
00000000
00000000
00000000
00000000
00000000
11111111
10000000
10000000

TIL 6x
00000000
00000000
00000000
00000000
00000000
11111111
10000000
10000000

TIL 6y
00000000
00000000
00000000
00000000
00000000
10000000
10000000
10000000

TIL 6z
00000000
00000000
00000000
00000000
11111111
00000000
00000000
00000000

TIL 7a
01110000
01010000
01110000
01100000
01010100
00000000
00000000
00000000

TIL 7b
11101010
10101010
11101110
10001010
10001010
00000000
00000000
00000000

TIL 7c
11101110
10100100
10100100
10100100
11100100
00000000
00000000
00000000

TIL 7d
11100000
10100000
10100000
10100000
11100000
00000000
00000000
00000000

TIL 7e
11111111
11111111
00000000
00000000
00000000
00000000
00000000
11111111

TIL 7f
11111111
10000000
10000000
10000000
10000000
10000000
10000000
10000000

TIL 7g
11111111
10000000
10000000
10000000
10000000
10000000
10000000
10000000

TIL 7h
10000000
10000000
10000000
10000000
11111111
10000000
10000000
10000000

TIL 7i
10000000
10000000
10000000
10000000
10000000
10000000
10000000
10000000

TIL 7j
00000000
00000000
00000000
00000000
00000000
00000000
00000000
00000000

TIL 7k
00000000
00000000
00000000
00000000
00000000
00000000
00000000
00000000

TIL 7l
00000000
00000000
00000000
00000000
00000000
00000000
00000000
00000000

TIL 7m
11100001
10100000
11101100
10100000
11100000
00000000
00000000
00000000

TIL 7n
11011101
10010101
10011101
10011001
10010101
00000000
00000000
00000000

TIL 7o
11011010
01010011
11010011
01010011
01011010
00000000
00000000
00000000

TIL 7p
10000000
00000000
00000000
00000000
10000000
00000000
00000000
00000000

TIL 7q
10000000
00000000
10000000
00000000
10000000
00000000
00000000
00000000

TIL 7r
11000000
11000000
11000000
11000000
11000000
11000000
11000000
11111111

TIL 7s
00000011
00000011
00000011
00000011
00000011
00000011
00000011
11111111

TIL 7t
00000000
00000000
00000000
00000000
00000000
00000000
00000000
00000000

TIL 7u
00000000
00000000
00000000
00000000
00000000
00000000
00000000
11111111

TIL 7v
11000000
11000000
11000000
11000000
11000000
11000000
11000000
11000000

TIL 7w
00000011
00000011
00000011
00000011
00000011
00000011
00000011
00000011

TIL 7x
11111111
00000011
00000011
00000011
00000011
00000011
00000011
00000011

TIL 7y
11111111
00000000
00000000
00000000
11111110
10010010
10010010
11111110

TIL 7z
11111111
11000000
11000000
11000000
11000000
11000000
11000000
11000000

TIL 8a
00000000
00000000
00000000
00000000
00000000
00000000
00000000
11111111

TIL 8b
01111111
00000000
00000000
00000000
00000000
00000000
00000000
00000000

TIL 8c
00000000
00000000
00000000
10000000
01000000
00100000
00010000
00001000

TIL 8d
00000100
00000010
00000001
00000000
00000000
00000000
00000000
00000000

TIL 8e
00000000
00000000
00000000
00000000
00000000
00000000
00000000
11111000

TIL 8f
11111000
00000000
00000000
00000000
00000000
00000000
00000000
00000000

TIL 8g
00000000
00000000
00011110
00010010
00010010
00010010
00010010
11111111

TIL 8h
00011111
00100000
01111111
10000001
11111110
00000100
11111000
11111111

TIL 8i
00000000
00000000
00000000
00000000
00000001
00000010
00000111
11111111

TIL 8j
11100000
01000000
10000000
00000000
00000000
00000000
00000000
11111111

TIL 8l
00000000
00000000
00000000
00000000
00000000
00000000
00000000
11111111

TIL 8m
11111111
00000011
00000011
00000011
00000011
00000011
00000011
00000011

TIL 8n
11111111
00000000
00000000
00000000
00000000
00000000
00000000
00000000

TIL 8o
11111111
11000000
11000000
11000000
11000000
11000000
11000000
11000000

TIL 8p
00111111
00000000
00000000
00000000
00000000
00000000
00000000
00000000

TIL 8q
00000000
00011000
00101100
01110110
00101100
01110110
00101100
01011010

TIL 8r
00000000
00000000
00000000
00000000
00000100
00001110
00000000
11111111

TIL 8s
00000000
00000000
00000000
00000000
00000000
00000000
00000000
11111111

TIL 8t
00000000
01111100
01000100
01111100
00010000
00010000
00010000
11111111

TIL 8u
11111111
11111111
10000000
00000000
00000000
00000000
00000000
11111111

TIL 8v
00000000
00000000
11111111
00000001
00000010
00000100
00001000
11111111

TIL 8w
00000000
00000000
00000000
11111111
00000000
00000000
00000000
00000000

TIL 8x
11111111
00000000
00000000
00000000
00000000
00000000
00000000
00000000

TIL 8y
11110000
00001000
00001000
00000100
11111100
10000010
10000010
01000001

TIL 8z
00000000
00000000
00000000
00000000
00000000
00000000
00000000
00000000

TIL 9a
10010011
01010100
00111000
00010000
00010000
00010000
00010000
00010000

TIL 9b
00010000
11111111
00000000
00000000
00000000
00000000
00000000
00000000

TIL 9c
11111111
00000000
00000000
00000000
00000000
00000000
00000000
00000000

TIL 9d
00000100
00001110
00011111
00011111
00011111
00011111
00011111
00011111

TIL 9e
00100000
01110000
11111000
11111000
11111000
11111000
11111000
11111000

TIL 9f
00011110
00000100
00000100
00000100
00000100
00000100
00000100
00000100

TIL 9g
00000000
00000000
00000000
00000000
00000000
00000000
00000000
00000000

TIL 9h
11000000
00000000
00000000
00000000
00000000
00000000
00000000
00000000

TIL 9i
00000000
00000000
00000000
11000000
01000000
01000000
01000000
01000000

TIL 9j
00000000
00011110
11110011
00010010
00010010
00010111
00010010
11110011

TIL 9k
00000000
00000000
11111111
00000010
00000100
11001000
00010000
11111111

TIL 9l
11111111
00000100
00001000
11111000
00000000
00000000
00000000
00000000

TIL 9m
11111111
00100000
00010000
00011111
00000000
00000000
00000000
00000000

TIL 9n
00000000
00000000
00000000
00000000
00000000
00000000
00000000
00000000

TIL 9o
00100000
00100000
00100000
00100000
00100000
00100000
00100000
00100000

TIL 9p
01111000
01001000
11001111
01001001
11101010
01001100
01001000
11111111

TIL 9q
00000000
00000000
11111111
00000010
00000101
00001000
00010000
11111111

TIL 9r
00000000
00000000
00000000
00000000
00000000
00000000
00000000
00000000

TIL 9s
00000000
00000000
00000000
00000000
00000000
00000000
00000000
11111111

TIL 9t
10000010
11111110
10000010
10000010
10000010
11111110
10000011
10000010

TIL 9u
11000000
11000000
11000000
11000000
11000000
11000000
11000000
11000000

TIL 9v
11111111
11111111
11000000
11000000
11000000
11000000
11000000
11000000

TIL 9w
11111111
11111111
00000000
00000000
00000000
00000000
00000000
00000000

TIL 9x
11111101
11111101
00110001
00110001
00110001
00110001
00110001
00000000

TIL 9y
10011011
11011011
11011000
10111000
10111000
10111000
10011000
00000000

TIL 9z
11110001
11110001
11000001
11000001
11000001
11000001
11000001
00000000

TIL a0
11101111
11101111
10001101
11101101
11101111
10001101
10001101
00000000

TIL a1
10111110
10111110
10110000
10110000
10110000
10111110
10111110
00000000

TIL a2
11111101
11111101
00110001
00110001
00110001
00110001
00110001
00000000

TIL a3
11110111
11110110
10110110
10110111
10110110
11110110
11110110
00000000

TIL a4
11011011
11011011
11011011
10011111
10001110
11000100
11001110
00000000

TIL a5
10000000
01000000
00100000
00010000
00001000
00000100
00000010
00000001

TIL a6
00000001
00000010
00000100
00001000
00010000
00100000
01000000
10000000

TIL a7
00000000
00000000
00000000
00000000
00000000
00000000
00000000
11111111

TIL a8
11111111
11111111
11111111
11111111
11111111
01111111
00111111
00011111

TIL a9
00000001
00000001
00000001
00000001
00000000
00000000
00000000
00000000

TIL aa
10000000
10000000
10000000
10000000
00000000
00000000
00000000
00000000

TIL ab
00000000
00000000
00000000
00000000
01000000
00100000
00010000
00001000

TIL ac
11111111
11111111
11111111
11111111
11111111
11111111
11111111
11111111

TIL ad
11111111
11111111
11111111
11111111
11111111
11111110
11111100
11111000

TIL ae
00001111
00001111
00000011
00000000
00000000
00000000
00000000
00000000

TIL af
11111111
11111111
11111111
11111111
00000000
00000000
00000000
00000000

TIL ag
11110000
11110000
11000000
00000000
00000000
00000000
00000000
00000000

TIL ah
11111111
11111111
11111111
11111111
11111111
11111000
10000000
10000000

TIL ai
11111111
11111111
11111111
11111111
11111111
00011111
00000001
00000001

TIL aj
00000000
00000000
00000000
00000000
00000000
00000000
00000000
11111111

TIL ak
11111111
10000000
10000000
10000000
10000000
10000000
10000000
10000000

TIL al
11111111
00000001
00000001
00000001
00000001
00000001
00000001
00000001

TIL am
11111111
00000000
00000000
00000000
00000000
00000000
00000000
00000000

TIL an
11111111
00000000
00000000
00000000
00000000
00000000
00000000
00000000

TIL ao
11111111
11111111
11111111
11111111
11111111
11111111
11111111
11111111

TIL ap
11111111
00000000
00000000
00000000
00000000
00000000
00000000
11111111

TIL aq
11111111
00000001
00000001
00000001
00000001
00000001
00000001
11111111

TIL ar
11111111
10000000
10000000
10000000
10000000
10000000
10000000
11111111

TIL as
11111111
01111111
00111111
00011111
00001111
00000111
00000011
00000001

TIL at
11111111
11111110
11111100
11111000
11110000
11100000
11000000
10000000

TIL au
00000001
00000011
00000111
00001111
00011111
00111111
01111111
11111111

TIL av
00000001
00000010
00000100
00001000
00010000
00100000
01000000
11111111

TIL aw
10000000
11000000
11100000
11110000
11111000
11111100
11111110
11111111

TIL ax
10000000
01000000
00100000
00010000
00001000
00000100
00000010
11111111

TIL ay
10000000
01000000
00100011
00010011
00001100
00000100
00000010
00000001
>
10000000
01001000
00100110
00010110
00001001
00000100
00000010
00000001

TIL az
00000001
00010010
01100100
01101000
10010000
00100000
01000000
10000000
>
00000001
00000010
11000100
11001000
00110000
00100000
01000000
10000000

TIL b0
00000000
00000010
00001100
00001100
00010000
00000000
00000000
11111111
>
00000000
00100000
00011000
00011000
00000100
00000000
00000000
11111111

TIL b1
00000001
00010010
01100100
01101000
10010000
00100000
01000000
10000000
>
00000001
00000010
11000100
11001000
00110000
00100000
01000000
10000000

TIL b2
00000000
00000010
00001100
00001100
00010000
00000000
00000000
11111111
>
00000000
00100000
00011000
00011000
00000100
00000000
00000000
11111111

TIL b3
10000000
01000000
00100011
00010011
00001100
00000100
00000010
00000001
>
10000000
01001000
00100110
00010110
00001001
00000100
00000010
00000001

TIL b4
11111111
00001100
11111111
00001100
11111111
00001100
11111111
11111111

TIL b5
11111111
10000011
11111111
10000011
11111111
10000011
11111111
11111111

TIL b6
11111111
01100001
11111111
01100001
11111111
01100001
11111111
11111111

TIL b7
11111111
11111111
11111111
11111111
11111111
11111111
11111111
00000000

TIL b8
00000001
00000011
00000111
00001111
00011111
00111111
01111111
10000000

TIL b9
10000000
11000000
11100000
11110000
11111000
11111100
11111110
00000001

TIL ba
11000000
11000000
11000000
11000000
11000000
11000000
11000000
11000000

TIL bb
00000011
00000011
00000011
00000011
00000011
00000011
00000011
00000011

TIL bc
00000000
00000000
00001111
00011111
00110000
01100000
11000000
11000000

TIL bd
00000000
00000000
11111111
11111111
00000000
00000000
00000000
00000000

TIL be
00000000
00000000
11110000
11111000
00001100
00000110
00000011
00000011

TIL bf
00100100
00100100
11111111
10000000
10100001
10000100
10010001
10000100
>
00100100
00100100
11111111
10000000
10001010
10100000
10001000
10100010

TIL bg
00010100
00111110
11111111
00000001
01000101
00010001
00000101
01000001
>
00010100
00111110
11111111
00000001
00100001
00000101
10100001
00001001

TIL bh
11111111
00000000
11011101
01010101
01010101
01110111
00000000
11111111
>
11111111
00000000
01110111
01010101
01010101
11011101
00000000
11111111

TIL bi
00000001
00000010
00000101
00001001
00010001
00100001
01000000
11111111

TIL bj
10000000
01000000
00100000
00010000
00001000
00000100
00000010
11111111

TIL bk
00000000
00000000
01111111
01100011
01010101
01001001
01010101
01100011

TIL bl
00000000
00000000
00000000
11110000
11110000
00110000
00110000
00110000

TIL bm
10000001
01000010
00100100
00011000
00011000
00100100
01000010
10000001
>
01111110
10111101
11011011
11100111
11100111
11011011
10111101
01111110

TIL bn
11111111
10000000
10111011
10100010
10111010
10100011
10000000
11111111

TIL bo
11111111
00000000
10111001
10101001
10110000
10101001
00000000
11111111

TIL bp
11111111
00000000
10111010
00101010
10111010
10101011
00000000
11111111

TIL bq
11111110
00000010
01100010
01010010
01100010
01110010
00000010
11111110

TIL br
00000000
00000000
11111111
11111111
00000000
00000000
11111111
11111111

TIL bs
11000000
11000000
11111111
11111111
11000000
11000000
11111111
11111111

TIL bt
00000000
00000000
00000000
00000000
00000000
00000000
00000000
00000000

TIL bu
11000000
10000000
00000000
00000000
00000000
00000000
00000000
11111111

TIL bv
00000000
00000000
00000000
00000000
00000000
00000000
00000000
11111111

TIL bw
00000000
00000000
00000000
00000000
00000000
00000000
00000000
00000000

TIL bx
00000000
00000000
00000000
00000000
00000000
00000000
00000000
00000000

TIL by
00000001
00000001
00000001
00000001
00000000
00000000
00000000
00000000

TIL bz
11111111
11111111
00000000
00000000
00000000
00000000
00000000
11111111

TIL c0
00000000
00000000
00000000
00000000
00010000
00000000
00000000
00000000

SPR 10
00000000
00000000
00000000
00000000
00000000
00000000
01000000
00000000
>
00000000
00000010
00000000
00000000
00000000
00000000
00000000
00000000
POS 2 11,11

SPR 11
00011110
11111111
10011111
10011111
11111111
10001001
10001001
10011011
>
11111110
10011111
10011111
10011111
11111111
10001001
00001001
00011011

SPR 12
00000000
00000000
00001100
00011111
11101011
00111111
00010111
00011100
POS 3 4,13

SPR 13
00000000
00000000
00000000
00000000
11111111
00000000
00000000
00000000
POS 3 5,14

SPR 14
00000000
11111111
10001000
10111010
10111010
10111010
10001000
11111111
POS 3 12,14

SPR 15
00111100
11111111
10001000
11011011
11011000
11011011
10001000
11111111
POS 3 14,14

SPR 16
01111100
11111111
10001010
10101001
10101001
10101010
10001010
11111111
POS 3 13,14

SPR 17
00000000
11111000
10001000
10111000
10001111
11101000
10001000
11111000
POS 3 15,14

SPR 18
00111000
01010100
01101100
00111000
11111111
01111100
01111100
01111100
POS 3 13,13

SPR 19
00000000
00000000
00000000
00111100
11010111
00111100
00011000
00111100
>
00000000
00000000
00111100
00010100
11111111
00011000
00111100
00111100
POS 3 14,13

SPR A
10011001
11011011
01111110
11111111
01111110
11111111
00111100
01100110
>
01011010
01011010
01111110
01111110
01111110
01111110
00111100
01100110
POS 1 5,4

SPR a
00000000
00101000
01111000
01011000
01111000
00111101
00111111
00101100
>
00000000
00101000
01111000
01011000
01111000
00111100
00111111
00101100

SPR b
11111111
10000000
10111011
10100001
10100001
10111011
10000000
11111111
POS 2 3,3

SPR c
11111111
00000000
10111010
00010010
00010001
10010001
00000000
11111111
POS 2 4,3

SPR d
11111111
00000000
10011100
10010101
00011101
00010001
00000000
11111111
POS 2 5,3

SPR e
11111111
00000000
10011101
01010101
11011001
01010101
00000000
11111111
POS 2 6,3

SPR f
11111000
00001000
01001000
10001000
10001000
01001000
00001000
11111000
POS 2 7,3

SPR g
01101000
01101000
01101000
01101000
01101000
11111100
00000000
00000000
POS 2 4,4

SPR i
01101000
01101000
01101000
01101000
01101000
11111100
00000000
00000000
POS 2 6,4

SPR j
00011111
01111111
11111111
01010000
01000010
01101000
01111111
01111111
>
00011111
01111111
11111111
01001001
01010000
01000100
01111111
01111111
POS 2 3,11

SPR k
00000111
11000101
11100011
01000111
01000111
11111111
11000111
11000111
>
00000111
11000101
11100011
01000111
01011111
01100111
11000111
11000111
POS 2 4,11

SPR l
00110001
01101010
01011011
00110001
00000000
00000000
00000000
00000000
>
00110001
01011011
01101010
00110001
00000000
00000000
00000000
00000000
POS 2 3,12

SPR m
10000111
11000111
01000111
10001111
00000000
00000000
00000000
00000000
>
10000111
01000111
11001111
10000111
00000000
00000000
00000000
00000000
POS 2 4,12

SPR n
01000000
01000000
11111111
01000001
11111111
11111111
11111111
11111100
POS 2 10,8

SPR o
00100100
00100100
11111111
00100100
11111111
11111111
11111111
11111111
POS 2 9,8

SPR p
00000010
00000010
11111111
10000010
11111111
11111111
11111111
00111111
POS 2 8,8

SPR q
00011100
00111110
10101010
10110110
11011100
11111111
10111110
10111110
>
10011100
00111110
00101010
10110110
00011100
11111111
11111110
10111110
POS 2 12,3

SPR r
00111000
01111100
01010100
01101100
00111000
11111111
00111001
00111001
>
00111000
01010100
01010100
01101100
00111000
11111111
00111001
00111001
POS 2 13,3

SPR s
11111111
10100100
00100100
00000000
00000010
01010000
00000100
00100001
>
11111111
10100100
00100100
00000001
00101000
00000001
00000000
10001000
POS 2 12,4

SPR t
11111111
00101001
00101000
00000000
00011000
00111000
00011100
00011110
>
11111111
00101001
00101000
00000000
00000000
00000000
01111100
01111110
POS 2 13,4

SPR x
00000000
00000000
10111000
10111100
10111000
01111000
00111000
00101000
>
00000000
00000000
00111000
00111100
00111000
00111111
00111000
00101000
POS 2 10,12

SPR z
00011100
00111100
00011100
00011110
00011101
00011100
00010100
00010100
>
00011100
00111100
00011100
11011100
00111100
00011100
00010100
00010100
POS 2 12,10

SPR 1a
00000000
00000000
00000000
00000000
00000000
00000000
00000000
00000000
POS 3 6,2

SPR 1b
00000110
00000111
10000110
01111110
01111110
01000100
01100110
11111111
>
00000000
00000110
10000111
01111110
01111110
11000100
10000110
11111111
POS 6 7,5

SPR 1c
00000000
00110010
01111010
01111010
01111010
00110110
11111111
11111111
>
00000000
00110000
01111000
01111000
01111000
00110111
11111111
11111111
POS 6 6,14

SPR 1d
00000000
00110000
01111000
01111000
01111000
10110000
11111111
11111111
>
00000000
00110000
01111000
01111000
01111000
00110000
11111111
11111111
POS 6 7,14

SPR 1e
11111111
11111111
11111111
10010100
10110110
00000000
00000000
00000000
POS 6 6,15

SPR 1f
11111111
11111111
11111111
00101001
01101101
00000000
00000000
00000000
>
11111111
11111111
11111111
01101101
00000001
00000000
00000000
00000000
POS 6 7,15

SPR 1g
10000000
10000000
10000000
00000000
00000000
00000000
00000000
00000000
POS 6 8,15

SPR 1h
00111000
00111100
00111000
00010010
11111110
10111000
00111000
00101000
>
00111000
01111000
00111000
10010000
11111110
00111010
00111000
00101000
POS 6 8,10

SPR 1i
11111111
00111000
00101000
00101000
00101000
00101000
00101000
01101100
>
11111111
00101000
00101000
00101000
00101000
00101000
01101100
00000000
POS 6 4,12

SPR 1j
11111111
00000000
10111001
10111101
10111001
11111111
00111000
00111000
>
11111111
10111001
10111101
10111001
11111111
00111000
00111000
00111000
POS 6 4,11

SPR 1k
11111111
00001100
01111100
01101100
01100100
00000100
00001100
00000000
>
11111111
01111100
00001100
00001100
00000100
01100100
01101100
00000000
POS 6 6,11

SPR 1l
00000000
00000000
00000000
00000000
00000000
00011100
00111100
00011100
POS 6 6,10

SPR 1m
00000000
00000000
00000000
00001100
00010110
00011011
00001100
00000000
>
00000000
00000000
00000000
00000000
00000000
00000000
00000000
00000000
POS 6 12,14

SPR 1n
11111000
11111100
01110000
01010000
11011000
00000000
00000000
00000000
>
11111000
11111100
01110000
11010000
10111000
01100000
00000000
00000000
POS 6 13,15

SPR 1o
01110000
11111000
10101000
01010000
00100000
11110000
01110000
01110000
>
01110000
11111000
10101000
01010000
00100000
01110000
01110000
01110000
POS 6 13,14

SPR 1p
01011010
01011010
01111110
01111110
01111110
01111110
00111100
01100110
>
10011001
11011011
01111110
11111111
01111110
11111111
00111100
01100110
POS 7 6,10

SPR 1q
00000000
00000000
00000000
00000000
00000000
00000000
00000000
00000000

SPR 1r
00011110
11111111
10011111
10011111
11111111
10001001
10001001
10011011
>
11111110
10011111
10011111
10011111
11111111
10001001
00001001
00011011
POS 3 4,14

SPR 1u
00000000
00000000
00011000
00011100
00011000
01111001
11111000
00010000
>
00000000
00000000
00000000
00000000
00011111
01111111
11111010
00010000
POS 2 11,4

DLG 10
I am the lowly baseball. Watch as I am thrown, to and fro. 

DLG 11
AHHHHHHH!

DLG 14
If you're only carrying alien cash, we accept visa and mastercard.

DLG 15
SUPPORT THE TROOP, YA COMMIE PINKO!

DLG 16
There was a mistake at the factory, now we only sell Thick Mint cookies.

DLG 17
Cookies don't make you fat. That's a fact. Read some science.

DLG a
I'm a cat

DLG j
AHHHHHH!

DLG k
AHHHHHH!

DLG l
AHHHHHH!

DLG m
AHHHHHH!

DLG q
JESUS CHRIST ALMIGHTY!

DLG r
WHAT UNBRIDLED MANIFESTATION OF EVIL HAS ARRIVED ON OUR MORTAL PLANE?

DLG s
WHAT UNBRIDLED MANIFESTATION OF EVIL HAS ARRIVED ON OUR MORTAL PLANE?

DLG t
Well, consider me throughly spooked! Gold star. You're horrifying.

DLG v
SQUAWK!

DLG w
SQUAWK!

DLG z
CAN'T. STOP. SPORTS.

DLG x
I must confess Mr. Scary Mothman, I'm more of a boardgame kinda sprite. 

DLG 1b
I'm a doodle-doodle. I am pure breed and of noble lineage. Kneel before my diamond encrusted paws.

DLG 1c
AHHHHHH! DON'T OBSTRUCT MY VIEW! 

DLG 1d
I paid out the nose for these primo seats. 

DLG 1e
AHHHHHH! DON'T OBSTRUCT MY VIEW! 

DLG 1f
I paid out the nose for these primo seats. 

DLG 1h
Just doin' my thaaaang, dawg!

DLG 1i
I'm also on the math club. Imagine that: An athlete AND a mathlete!

DLG 1j
I'm also on the math club. Imagine that: An athlete AND a mathlete!

DLG 1k
They call me Dr. Dribbles.

DLG 1l
They call me Dr. Dribbles.

DLG 1m
I sure do love flailing this single pom-pom!

DLG 1n
I sure do love flailing this single pom-pom!

DLG 1o
I sure do love flailing this single pom-pom!

DLG 1p
Hey, I'm Mike...From Mike's Milkyway Roadside Service? Turns out you didn't need a tow. It was just a bad plug. Your ship is good as new. That'll be 600 space bucks. If you don't have any space cash on you, I also take visa and mastercard. 

DLG 1r
AHHHHHHH! This store has terrifyingly low prices! Stock up on bargain priced bran while you can!

DLG 1s
SQUAWK!

DLG 1t
Squawk!

DLG 1v
Dave

DLG 1u
Chirp! Translation: For now the bread crumbs are bountiful, but soon the great freeze will return, and the crumbs shall be scarce yet again. Fill your gullet with semi-stale Wonder Bread whilst ye can. 

END 0


END undefined
Hey, I'm Mike...From Mike's Milkyway Roadside Service? Turns out you didn't need a tow. It was just a bad plug. Your ship is good as new. That'll be 600 space bucks. If you don't have any space cash on you, I also take visa and mastercard. 

END undefinee


