lallalalala I'm walking

# BITSY VERSION 5.1

! ROOM_FORMAT 1

PAL 0
116,202,161
212,245,255
255,31,164

ROOM 0
0,0,0,0,0,0,0,0,0,0,0,0,0,0,0,0
0,0,r,r,r,0,c,c,c,c,c,c,c,c,c,0
0,r,r,r,r,0,0,0,0,0,0,0,0,0,d,0
0,r,0,r,r,r,r,r,r,r,r,0,0,0,d,0
0,r,r,r,r,r,r,r,a,r,r,0,0,0,d,0
0,r,r,r,0,r,r,r,e,r,r,0,a,0,d,0
0,0,0,r,r,r,r,r,r,r,r,0,e,0,d,c
0,d,0,a,0,r,r,r,r,r,r,r,r,r,0,d
0,d,0,e,0,r,r,r,0,0,r,r,r,r,r,0
0,d,0,0,0,r,r,r,0,a,r,r,r,r,0,d
0,d,0,0,a,0,r,r,r,e,r,r,0,0,d,c
0,d,0,0,e,0,r,r,0,0,r,r,0,0,d,r
0,d,0,r,r,r,r,r,r,r,r,r,0,0,d,r
0,d,0,r,r,r,r,r,r,r,r,0,0,0,d,r
0,c,c,c,c,c,c,c,c,c,c,c,c,c,c,r
r,r,r,r,r,r,r,r,r,r,r,r,r,r,r,r
EXT 15,8 1 0,8
PAL 0

ROOM 1
0,r,r,r,r,r,r,r,r,r,r,0,r,r,0,0
0,a,r,r,r,r,0,a,0,0,r,r,r,r,r,r
0,e,r,a,0,0,r,e,0,r,r,r,r,0,r,r
c,c,c,e,c,a,c,c,c,c,a,c,c,c,r,r
d,r,r,r,0,e,0,0,0,0,e,0,0,0,r,r
d,0,r,r,r,r,r,r,r,r,r,r,r,r,r,0
d,0,r,r,r,r,r,r,r,r,0,r,r,0,0,f
r,r,r,r,r,r,r,0,0,r,a,0,r,0,f,f
r,r,r,r,r,r,r,r,0,r,e,0,r,0,f,f
r,r,0,r,r,r,r,r,r,0,0,0,r,0,f,g
d,0,r,r,r,a,r,r,r,r,r,r,r,0,f,f
d,0,r,r,r,e,0,0,r,r,r,r,r,r,0,f
d,r,r,r,r,0,a,r,r,0,a,0,r,r,r,0
c,a,c,a,c,c,e,r,0,0,e,0,r,r,r,r
0,e,0,e,0,0,r,r,r,0,0,0,r,r,r,r
0,r,r,r,r,r,r,r,r,r,r,r,r,0,r,r
ITM 0 9,13
EXT 15,9 2 0,7
PAL 0

ROOM 2
0,r,r,r,0,0,0,r,r,r,r,r,r,r,r,0
r,r,r,r,r,r,r,r,r,r,r,r,r,0,r,r
r,r,r,r,r,r,i,i,i,i,i,i,0,0,0,r
0,r,r,r,0,0,i,0,0,0,0,i,i,0,0,r
f,f,g,g,g,i,0,0,g,g,0,0,i,0,r,r
f,g,g,g,g,i,0,g,0,0,g,0,i,0,r,r
f,g,g,g,g,h,0,g,0,0,g,0,i,0,r,r
g,g,g,g,g,i,0,0,g,g,0,0,i,0,r,r
f,g,g,g,g,i,0,0,0,0,0,0,i,0,r,r
f,g,g,g,g,i,0,0,0,0,0,0,i,0,0,r
g,g,g,g,g,i,0,0,0,0,0,0,i,r,0,r
f,f,f,f,g,i,i,0,0,0,0,0,i,r,r,r
r,r,r,r,r,r,i,0,0,0,0,0,i,0,r,r
r,k,k,k,r,r,i,0,0,0,0,0,i,0,r,0
r,r,0,r,r,r,i,0,0,0,0,0,i,r,r,r
r,r,r,r,r,r,i,i,i,i,i,i,i,r,r,r
NAME ROOm 2
EXT 5,6 3 0,3
PAL 0

ROOM 3
i,i,i,i,i,i,i,i,i,i,i,i,i,i,i,i
i,0,0,0,0,0,0,0,0,s,t,u,v,0,0,i
i,0,0,0,0,0,0,0,l,0,0,0,0,l,0,i
0,0,0,0,0,0,l,0,0,0,0,0,0,0,0,i
i,0,0,0,0,0,0,0,0,0,l,0,0,0,0,i
i,0,0,0,0,0,0,0,0,0,0,0,0,l,0,i
i,0,0,0,0,0,0,0,0,0,0,0,0,0,0,i
i,0,0,0,0,0,m,m,m,m,m,n,0,0,0,i
i,0,0,0,0,0,0,0,0,0,0,o,0,0,0,i
i,0,0,0,0,0,0,0,0,0,0,o,0,0,0,i
i,0,0,0,0,0,0,0,0,0,0,o,0,0,0,i
i,0,0,0,0,0,0,0,0,0,0,o,0,0,0,i
i,0,0,0,0,m,m,m,m,0,0,0,0,q,0,i
i,0,0,0,0,0,0,0,0,0,0,0,0,p,0,i
i,0,0,0,0,0,0,0,0,0,0,0,0,0,0,i
i,i,i,i,i,i,i,i,i,i,i,i,i,i,i,i
END 0 13,13
PAL 0

TIL a
00100010
00110110
11111111
01111110
01111110
11111111
01110010
01110011
NAME TREETOP
WAL false

TIL b
00011000
00011000
00111100
11111111
11111111
00111100
00011000
00011000
NAME Tile C

TIL c
00000000
10000001
11111111
10000001
10000001
11111111
10000001
11111111
NAME FENCE_HRZ
WAL true

TIL d
00011100
00001000
00001000
00001000
00001000
00001000
00011100
00011100
NAME FENCE_VRT
WAL true

TIL e
00111010
00011010
00011100
00011000
00011000
00111100
00111100
01111110
NAME TREETRUNK
WAL true

TIL f
10101010
01010101
10101010
01010101
10101010
01010101
10101010
01010101
NAME CONCGRASS

TIL g
11111111
11111111
11111111
11111111
11111111
11111111
11111111
11111111
NAME CONC

TIL h
00001111
01111001
11001001
01001001
01001001
01001111
01111001
11000001
NAME STEPS

TIL i
11111111
10000001
11111001
10000111
11100001
10011111
10000001
11111111
NAME BRICK
WAL true

TIL j
00000000
00000000
00000000
11111111
11111111
00000000
00000000
00000000
NAME LEFTLOW

TIL k
00111100
11111111
10000001
01000010
01000010
00100100
00100100
00111100
NAME TRASH

TIL l
00000000
00111100
01100110
01000010
01000010
01100110
00111100
00000000
WAL false

TIL m
00000000
11111111
00000000
00000000
00000000
11111111
00000000
11111111
NAME COUNTER
WAL true

TIL n
00000000
11111110
00000010
00000010
00000010
11100010
00100010
10100010
NAME CORNER
WAL true

TIL o
10100010
10100010
10100010
10100010
10100010
10100010
10100010
10100010
NAME COUNER VRT
WAL true

TIL p
01111110
01000010
01001010
01010010
01001010
01010010
01000010
01111110
NAME PHONE

TIL q
00000000
00000010
00000110
00000010
00000010
00000010
00000010
00000010

TIL r
00000000
00010000
00000001
01000001
01000100
00000000
00000000
00100000

TIL s
00000000
00000000
00111100
01000010
01000010
01000010
01000010
00111100
>
00000000
00000000
00000000
00000000
00000000
00000000
00000000
00000000

TIL t
00000000
00000000
00011100
00010010
00010010
00011110
00010000
00010000
>
00000000
00000000
00000000
00000000
00000000
00000000
00000000
00000000

TIL u
00000000
00000000
00111100
00100000
00100000
00111000
00100000
00111100
>
00000000
00000000
00000000
00000000
00000000
00000000
00000000
00000000

TIL v
00000000
00000000
01000010
01100010
01010010
01001010
01000110
01000010
>
00000000
00000000
00000000
00000000
00000000
00000000
00000000
00000000

SPR A
00011100
00100010
01001001
01000010
00100100
00011000
01100110
10000001
DLG SPR_1
POS 0 2,3

SPR a
10000100
01001010
00110001
00100101
00100001
00100010
01011100
10000000
NAME DEADBODY
DLG SPR_0
POS 2 2,14

SPR b
01000010
01000010
00111100
01000010
10010010
01000010
00111100
11000011
NAME CHEF
DLG SPR_3
POS 3 8,10

SPR c
00000000
00000000
00000000
00000000
00000000
00000000
00000000
00000000

SPR d
00000000
00000000
01111110
01000010
01111110
01000010
01000010
01000010
NAME CHEFHAT
DLG SPR_2
POS 3 8,9

ITM 0
00000000
00000000
00000100
00001110
00011110
00110001
01000000
10000000
NAME Gun
DLG ITM_0

DLG ITM_0
You found a gun...

DLG SPR_1
"""
{
  - {item "0"} == 1 ?

  - else ?

}
"""

DLG SPR_0
{shk}HELP I'M DEAD?{shk}

DLG SPR_3
{wvy}I sell human flavored ice cream, hello.{wvy}

DLG SPR_2
I'm a separate sprite from the chef.

END 0
Everyone is arrested, even you.

END 1


END 2


VAR a
42

