

# BITSY VERSION 5.3

! ROOM_FORMAT 1

PAL 0
17,18,48
255,45,47
187,254,184

ROOM 0
d,c,e,f,d,c,e,f,d,c,e,f,d,c,e,f
d,c,e,f,d,c,e,f,d,c,e,f,d,c,e,f
0,0,0,0,0,0,0,0,d,c,e,f,d,c,e,f
d,c,e,f,0,0,0,0,d,c,e,f,d,c,e,f
d,c,e,f,d,c,e,0,d,c,e,f,d,c,e,f
d,c,e,f,d,c,e,0,d,c,e,f,d,c,e,f
d,c,e,f,d,c,e,0,0,c,e,f,d,c,e,f
d,c,e,f,d,c,e,0,0,c,e,f,d,c,e,f
d,c,e,f,d,c,e,0,0,c,e,f,d,c,e,f
d,c,e,f,d,c,e,0,0,c,e,f,d,c,e,f
d,c,e,f,d,c,e,0,d,c,e,f,d,c,e,f
d,c,e,f,d,c,e,0,d,c,e,f,d,c,e,f
d,c,e,f,d,c,0,0,d,c,e,f,d,c,e,f
d,c,e,f,d,c,0,0,d,c,e,f,d,c,e,f
d,c,e,f,d,c,0,0,0,0,0,0,0,0,0,b
d,c,e,f,d,c,e,f,d,c,e,f,d,c,e,f
EXT 15,14 1 0,1
PAL 0

ROOM 1
6k,6l,6m,6k,6l,6m,6k,6l,6m,6k,6l,6m,6k,6l,6m,6k
0,0,6m,6k,6l,6m,6k,6l,6m,6k,6l,6m,6k,6l,6m,6k
6k,0,0,6k,6l,6m,6k,6l,6m,6k,6l,6m,6k,6l,6m,6k
6k,6l,0,0,0,0,0,6l,6m,6k,6l,6m,6k,6l,6m,6k
6k,6l,6m,6k,6l,0,0,6l,6m,6k,6l,6m,6k,6l,6m,6k
6k,6l,6m,6k,6l,6m,0,6l,6m,6k,6l,6m,6k,0,0,b
6k,6l,6m,6k,6l,6m,0,6l,6m,6k,6l,6m,6k,0,0,6k
6k,6l,6m,6k,6l,6m,0,6l,6m,6k,6l,6m,6k,0,6m,6k
6k,6l,6m,6k,6l,0,0,6l,6m,6k,6l,6m,6k,0,6m,6k
6k,6l,6m,6k,6l,0,0,6l,6m,6k,6l,0,0,0,6m,6k
6k,6l,6m,6k,6l,0,0,6l,6m,0,0,0,0,6l,6m,6k
6k,6l,6m,6k,6l,6m,0,0,0,0,6l,6m,6k,6l,6m,6k
6k,6l,6m,6k,6l,6m,0,0,0,6k,6l,6m,6k,6l,6m,6k
6k,6l,6m,6k,6l,6m,6k,6l,6m,6k,6l,6m,6k,6l,6m,6k
6k,6l,6m,6k,6l,6m,6k,6l,6m,6k,6l,6m,6k,6l,6m,6k
6k,6l,6m,6k,6l,6m,6k,6l,6m,6k,6l,6m,6k,6l,6m,6k
EXT 15,5 2 0,14
PAL 0

ROOM 2
6n,6o,6p,6q,6m,6n,6o,6p,6q,6m,6n,6o,6p,6q,6m,6n
6n,6o,6p,6q,6m,6n,6o,6p,6q,6m,6n,6o,6p,6q,6m,6n
6n,6o,6p,6q,6m,6n,6o,6p,6q,6m,6n,6o,6p,6q,6m,6n
6n,6o,6p,6q,6m,6n,6o,6p,6q,6m,0,0,0,0,0,b
6n,6o,6p,6q,6m,6n,6o,6p,6q,6m,0,0,6p,6q,6m,6n
6n,6o,6p,6q,6m,6n,6o,6p,6q,6m,0,0,6p,6q,6m,6n
6n,6o,6p,6q,6m,6n,6o,6p,6q,6m,6n,0,0,6q,6m,6n
6n,6o,6p,6q,6m,6n,6o,6p,6q,6m,6n,0,0,6q,6m,6n
6n,6o,6p,6q,6m,6n,6o,6p,6q,6m,6n,0,0,6q,6m,6n
6n,6o,6p,6q,6m,6n,6o,0,0,0,0,0,6p,6q,6m,6n
6n,6o,6p,6q,6m,0,0,0,0,6m,6n,6o,6p,6q,6m,6n
6n,6o,6p,6q,6m,0,6o,6p,6q,6m,6n,6o,6p,6q,6m,6n
6n,6o,6p,6q,6m,0,6o,6p,6q,6m,6n,6o,6p,6q,6m,6n
6n,6o,6p,6q,0,0,6o,6p,6q,6m,6n,6o,6p,6q,6m,6n
0,0,0,0,0,0,6o,6p,6q,6m,6n,6o,6p,6q,6m,6n
6n,6o,6p,6q,6m,6n,6o,6p,6q,6m,6n,6o,6p,6q,6m,6n
EXT 15,3 3 0,8
PAL 0

ROOM 3
6r,6s,6t,6u,6r,6s,6t,6u,6r,6s,6t,6u,6r,6s,6t,6u
6r,6s,6t,6u,6r,6s,6t,6u,6r,6s,6t,6u,6r,6s,6t,6u
6r,6s,6t,6u,6r,6s,6t,6u,6r,6s,6t,6u,6r,6s,6t,6u
6r,6s,6t,6u,6r,6s,6t,6u,6r,6s,6t,0,0,0,0,b
6r,6s,6t,6u,6r,6s,6t,6u,6r,6s,6t,0,6r,6s,6t,6u
6r,6s,6t,6u,6r,6s,6t,6u,6r,6s,0,0,6r,6s,6t,6u
6r,6s,6t,6u,6r,6s,6t,0,0,0,0,0,6r,6s,6t,6u
6r,6s,6t,0,0,0,0,0,6r,6s,6t,6u,6r,6s,6t,6u
0,0,0,0,0,6s,6t,6u,6r,6s,6t,6u,6r,6s,6t,6u
6r,6s,6t,6u,6r,6s,6t,6u,6r,6s,6t,6u,6r,6s,6t,6u
6r,6s,6t,6u,6r,6s,6t,6u,6r,6s,6t,6u,6r,6s,6t,6u
6r,6s,6t,6u,6r,6s,6t,6u,6r,6s,6t,6u,6r,6s,6t,6u
6r,6s,6t,6u,6r,6s,6t,6u,6r,6s,6t,6u,6r,6s,6t,6u
6r,6s,6t,6u,6r,6s,6t,6u,6r,6s,6t,6u,6r,6s,6t,6u
6r,6s,6t,6u,6r,6s,6t,6u,6r,6s,6t,6u,6r,6s,6t,6u
6r,6s,6t,6u,6r,6s,6t,6u,6r,6s,6t,6u,6r,6s,6t,6u
EXT 15,3 4 0,13
PAL 0

ROOM 4
0,0,0,0,0,0,0,0,0,0,0,0,0,0,0,0
0,0,0,0,0,0,0,0,0,0,0,0,0,0,0,0
0,0,0,0,0,0,0,0,0,0,0,0,0,0,0,0
0,0,0,0,0,0,0,0,0,0,0,0,0,0,0,0
0,0,0,0,0,0,0,0,0,0,0,0,0,0,0,0
0,0,0,0,0,0,0,0,0,0,0,0,0,0,0,0
0,0,0,0,0,0,0,0,0,0,0,0,0,0,0,0
0,0,0,0,0,0,0,0,0,0,0,0,0,0,0,0
0,0,0,0,0,0,0,0,0,0,0,0,0,0,0,0
0,0,0,0,0,0,0,0,0,0,0,0,0,0,0,0
0,0,0,0,0,0,0,0,0,0,0,0,0,0,0,0
0,0,0,0,0,0,0,0,0,0,0,0,0,0,0,0
a,a,a,a,a,a,a,a,a,a,a,a,a,a,a,a
0,0,0,0,0,0,0,6t,0,0,0,0,0,0,0,b
a,a,a,a,a,a,0,0,0,a,a,a,a,a,a,a
0,0,0,0,0,0,a,a,a,0,0,0,0,0,0,0
ITM 1 3,1
ITM 1 4,2
ITM 1 5,1
ITM 1 4,1
ITM 1 5,2
ITM 1 3,2
ITM 1 6,2
ITM 1 7,3
ITM 1 8,3
ITM 1 9,2
ITM 1 10,2
ITM 1 11,2
ITM 1 12,2
ITM 1 13,2
ITM 1 2,2
ITM 1 2,1
ITM 1 10,1
ITM 1 11,1
ITM 1 12,1
ITM 1 13,1
ITM 1 13,3
ITM 1 13,5
ITM 1 13,4
ITM 1 13,8
ITM 1 13,7
ITM 1 13,6
ITM 1 8,4
ITM 1 8,8
ITM 1 12,8
ITM 1 9,9
ITM 1 10,9
ITM 1 12,9
ITM 1 11,9
ITM 1 11,8
ITM 1 8,5
ITM 1 8,6
ITM 1 8,7
ITM 1 7,4
ITM 1 7,5
ITM 1 7,6
ITM 1 7,8
ITM 1 7,7
ITM 1 2,3
ITM 1 2,4
ITM 1 2,5
ITM 1 2,6
ITM 1 2,7
ITM 1 2,8
ITM 1 3,9
ITM 1 4,9
ITM 1 6,9
ITM 1 5,9
ITM 1 3,8
ITM 1 4,8
EXT 15,13 5 7,0
PAL 0

ROOM 5
6v,6t,6r,6v,6t,6r,6v,0,6r,6v,6t,6r,6v,6t,6v,6t
6v,6t,6r,6v,6t,6r,6v,0,6r,6v,6t,6r,6v,6t,6v,6t
6v,6t,6r,6v,6t,6r,6v,0,6r,6v,6t,6r,6v,6t,6v,6t
6v,6t,6r,6v,6t,6r,6v,0,6r,6v,6t,6r,6v,6t,6v,6t
6v,6t,6r,6v,6t,6r,6v,0,6r,6v,6t,6r,6v,6t,6v,6t
6v,6t,6r,6v,6t,6r,0,0,0,6v,6t,6r,6v,6t,6v,6t
6v,6t,6r,6v,6t,6r,0,0,0,6v,6t,6r,6v,6t,6v,6t
6v,6t,6r,6v,6t,6r,0,0,0,6v,6t,6r,6v,6t,6v,6t
6v,6t,6r,6v,6t,6r,6v,0,6r,6v,6t,6r,6v,6t,6v,6t
6v,6t,6r,6v,6t,6r,6v,0,6r,6v,6t,6r,6v,6t,6v,6t
6v,6t,6r,6v,6t,6r,6v,0,6r,6v,6t,6r,6v,6t,6v,6t
6v,6t,6r,6v,6t,6r,6v,0,6r,6v,6t,6r,6v,6t,6v,6t
6v,6t,6r,6v,6t,6r,6v,0,6r,6v,6t,6r,6v,6t,6v,6t
6v,6t,6r,6v,6t,6r,6v,0,6r,6v,6t,6r,6v,6t,6v,6t
6v,6t,6r,6v,6t,6r,6v,0,6r,6v,6t,6r,6v,6t,6v,6t
6v,6t,6r,6v,6t,6r,6v,0,6r,6v,6t,6r,6v,6t,6v,6t
EXT 7,15 8 0,15
PAL 0

ROOM 8
0,0,0,0,0,0,0,0,0,0,0,0,0,0,9,1
0,0,0,0,0,0,0,0,0,0,h,i,j,k,0,l
0,0,0,0,0,0,0,0,0,m,2,3,4,n,o,p
0,0,0,0,0,0,0,0,0,q,r,s,t,u,v,w
0,0,0,0,0,0,0,0,0,x,y,z,10,11,12,13
0,0,0,0,0,0,0,0,0,0,5,14,15,16,17,18
0,0,0,0,0,0,0,0,0,19,1a,6,1b,1c,1d,1e
0,0,0,0,0,0,0,0,0,1f,1g,1h,1i,1j,1k,1l
1m,1n,1o,0,0,0,1p,1q,7,1r,1s,1t,1u,1k,1k,1k
1v,1w,1x,1y,1z,20,21,22,1k,1k,23,24,1s,1k,1k,1k
1k,1k,25,26,27,28,29,2a,n,1k,2b,2c,1k,1k,1k,1k
1k,1k,1k,1k,1k,2d,2e,2f,4,2h,8,2i,2j,2k,2l,1k
1k,2m,1k,1k,1k,1k,2n,2o,2p,2q,1k,2r,1k,2s,2t,2u
1k,1k,1k,1k,1k,1k,1k,1k,2v,2w,2x,2y,1k,1k,1k,1k
0,0,0,0,0,0,0,0,0,2z,30,31,1k,1k,1k,32
0,0,0,0,0,0,0,0,0,0,33,34,1k,1k,1k,b
NAME room 8
ITM 0 5,15
EXT 15,15 0 0,2
PAL 0

TIL 1
11111111
01111111
11111111
01111111
11111111
00111111
00111111
00000000
NAME room 6 1

TIL 2
00001110
00111100
01111110
01110011
11101110
11010011
11010000
11011001
NAME room 6 2

TIL 3
00000011
10001111
00011111
00111111
11111111
11111100
11111000
11110000
NAME room 6 3

TIL 4
11111111
11111111
11111111
11000111
00000000
00000000
00000000
00000000
NAME room 6 4

TIL 5
00111111
01111111
11110111
00000000
00000000
00001111
01111111
01111111
NAME room 6 5

TIL 6
11111111
11111111
00001000
00001010
01111111
11111111
11111111
10111110
NAME room 6 6

TIL 7
00000001
00000001
00000001
00000011
00011111
00111111
00111111
11111111
NAME room 6 7

TIL 8
11110000
11110000
11110000
11110000
00000000
00000110
11110001
10111111
NAME room 6 8

TIL 9
00011111
00011110
00000011
00000110
00000100
00000000
00000000
00100000
NAME room 6 9

TIL 10
00000000
00000000
00000000
00000000
00000000
00000000
00000000
00001100
NAME room 6 29

TIL 11
00000001
00000001
00000001
00000011
00000011
00000001
00000000
00000000
NAME room 6 30

TIL 12
01000000
01000000
11000000
10000000
10000000
00000000
00000000
00000010
NAME room 6 31

TIL 13
00000110
00000000
00000000
00100000
00100000
00000001
00001111
00111111
NAME room 6 32

TIL 14
11110000
11110000
11111000
00000000
00000000
11111110
11111111
11111111
NAME room 6 33

TIL 15
00000000
00000000
01000000
00100000
00000000
00000000
00000000
00000000
NAME room 6 34

TIL 16
00000000
10000001
00000001
00000111
00000111
00001111
00011111
00111111
NAME room 6 35

TIL 17
00000000
00000000
00000000
00000000
10000000
11000111
11001111
11000111
NAME room 6 36

TIL 18
01111011
11111011
11110010
00110000
10110000
11011000
11101111
11111111
NAME room 6 37

TIL 19
00000000
00000000
00000000
00000000
00000000
00000000
00000001
00000001
NAME room 6 38

TIL 20
00000111
11111111
11111111
11111111
11111111
11111111
11111111
11111111
NAME room 6 65

TIL 21
10000000
11111010
11111111
11111111
11111111
11111111
11111111
11111111
NAME room 6 66

TIL 22
00000111
00111111
11111111
11111111
11111111
11111111
11111111
11111111
NAME room 6 67

TIL 23
11111110
11111100
11111100
11111000
11111000
11110000
11110000
11100000
NAME room 6 68

TIL 24
00000000
00000000
00000000
00000000
00000001
00000001
00000011
00000011
NAME room 6 69

TIL 25
11111111
11111111
11111111
11111110
11111100
11111011
11111111
11111111
NAME room 6 70

TIL 26
11111111
11111111
01111111
01111111
11111111
11111111
11111111
11111111
NAME room 6 71

TIL 27
10011111
11100111
11110001
11111100
11111111
11111111
11111111
11111111
NAME room 6 72

TIL 28
11111111
11111111
11111111
01111111
00111111
11001111
11100011
11111000
NAME room 6 73

TIL 29
11111111
11111111
11111111
11111111
11111111
11111111
11111100
10110000
NAME room 6 74

TIL 30
11110000
11111000
11111000
11111000
11111000
11111000
11111000
11111000
NAME room 6 101

TIL 31
00000011
00000011
00000011
00000111
00000111
00101111
00111111
00001111
NAME room 6 102

TIL 32
11111110
11111111
11111100
11111100
11111100
11111110
11111110
11111111
NAME room 6 103

TIL 33
11111000
11111000
11111000
11111000
11111000
11111000
11111000
11111000
NAME room 6 104

TIL 34
00001111
00000111
00000111
00000111
00000111
00000111
00000111
00000111
NAME room 6 105

TIL 35
00000000
00000000
00000000
00000000
00000001
00000000
00000000
00000000
NAME room 6 106

TIL 36
00000000
01000000
10000000
00000000
00000000
00000000
00000000
00000000
NAME room 6 107

TIL 37
00000000
00000000
00000000
00000010
00000010
00000110
00011010
00010110
NAME room 6 108

TIL 38
01000000
10000000
00000000
00000000
00000000
00000000
00000000
00000000
NAME room 6 109

TIL 39
00000000
00000000
00000000
00000000
00000000
00000010
00000000
00000000
NAME room 6 110

TIL 40
11111111
11111111
11111111
11111111
11111111
11111111
11111111
01111111
NAME room 6 137

TIL 41
10111111
11111111
11111111
11111111
11111111
11111111
11111111
11111111
NAME room 6 138

TIL 42
11111100
11111100
11111101
11111101
11111101
11111101
11111101
11111101
NAME room 6 139

TIL 43
10000000
11111001
11111111
11111111
11111111
11111111
11111111
11111111
NAME room 6 140

TIL 44
00111011
11111111
11111111
11111111
11111111
11110111
11100111
11101111
NAME room 6 141

TIL 45
11011110
11111001
11110011
11110010
11011001
11111111
10111111
01110011
NAME room 6 142

TIL 46
00011111
10111111
01111111
11111111
11111111
11111111
11111111
01111111
NAME room 6 143

TIL 47
10011111
11111111
11111111
11111111
11111111
01111111
01111111
01111111
NAME room 6 144

TIL 48
11111111
11111111
11111111
11111111
11111111
11011111
11011111
11111111
NAME room 6 145

TIL 49
11111111
11111111
11111111
11111111
11111111
11111101
10111110
10111111
NAME room 6 146

TIL 50
11111111
10101111
11001111
11000000
11110101
11111111
11111111
11111111
NAME room 6 173

TIL 51
11111111
11111011
11111111
01111010
11111000
11111111
11111111
11111111
NAME room 6 174

TIL 52
11111111
11111111
11011111
11111111
11111111
11111111
11111111
11111111
NAME room 6 175

TIL 53
11111111
11111111
11111001
11111000
11111111
11111111
11111111
11111111
NAME room 6 176

TIL 54
11111011
11111011
11111111
00010111
00000111
11111111
11111111
11111111
NAME room 6 177

TIL 55
11111111
11111111
11100111
11110111
11110010
11111011
11111111
11111111
NAME room 6 178

TIL 56
11111111
11111111
11101111
11111111
11111111
11111111
00111111
11111101
NAME room 6 179

TIL 57
11111111
11111111
11110111
11001111
00111111
11111001
11101000
11111111
NAME room 6 180

TIL 58
11111111
11111111
11111111
11111111
11111101
10010000
10010001
11111111
NAME room 6 181

TIL 59
11111111
11111111
11111111
11111111
11111111
11111111
11111111
11111110
NAME room 6 182

TIL 60
11110000
11111101
11111111
11111111
11111111
11111111
11111111
11111111
NAME room 6 209

TIL 61
00000000
11000000
11110000
11111000
11111110
11111111
11111111
11111111
NAME room 6 210

TIL 62
00000001
00000000
00000000
00000000
00000000
00000000
11000000
11100000
NAME room 6 211

TIL 63
00111111
11111111
11111111
01111111
00101111
00010111
00000101
00000000
NAME room 6 212

TIL 64
11111111
11111111
11111111
11111111
11111011
11110011
11110011
11110111
NAME room 6 213

TIL 65
11110000
11111111
11111111
11111111
11111111
11111111
11111111
11111111
NAME room 6 214

TIL 66
00000000
10000000
11000000
00000111
11111111
11111111
11111111
11111111
NAME room 6 215

TIL 67
11111111
00011111
00001111
00000001
10000000
11000000
11100000
11100000
NAME room 6 216

TIL 68
11110111
11100111
11100011
11100011
00000011
00000011
00000001
00000011
NAME room 6 217

TIL 69
11111111
00000000
00000000
00000000
00000000
00000000
00000000
00000000
NAME room 6 218

TIL a
11111111
10000001
10111101
10111101
10111101
10111101
10000001
11111111
WAL true

TIL b
00000000
00001000
00001100
00001110
11111111
00001110
00001100
00001000

TIL c
00000000
00111100
01000010
10000000
10001110
01000100
00111100
00000000
WAL true

TIL d
00000000
01000010
01000010
01000010
01000010
00100100
00011000
00000000
WAL true

TIL e
00000000
01000000
01000000
01000000
01000000
01000000
01111100
00000000
WAL true

TIL f
00000000
01000010
00100100
00100100
00011000
00011000
00011000
00000000
WAL true

TIL g
00000000
00000000
00000000
00000000
00000000
00000000
00000000
00000000

TIL h
00000000
00000000
00000000
00000000
00000000
00000000
00000111
00001111
NAME room 6 10

TIL i
00000000
00000000
00000000
00000000
00000000
01000000
10000001
00000011
NAME room 6 11

TIL j
00000000
00000000
00000000
00000000
00000100
01111111
11111111
11111111
NAME room 6 12

TIL k
00000000
00000000
00000000
00000000
00000000
11110000
11111000
11111100
NAME room 6 13

TIL l
00000000
00000000
00000000
00000001
00000001
00000001
00001111
00000111
NAME room 6 14

TIL m
00000000
00000000
00000000
00000000
00000000
00000001
00000001
00000011
NAME room 6 15

TIL n
11111110
11111111
11111111
11111111
11111111
01111111
01111111
00111111
NAME room 6 16

TIL o
00000000
00000000
10000000
10000000
10000000
11000000
11000000
11000000
NAME room 6 17

TIL p
00000011
00000001
00000001
00000000
00100001
01100001
00100011
01101111
NAME room 6 18

TIL q
00000011
00000011
00000011
00000110
00000000
00000001
00000001
00000010
NAME room 6 19

TIL r
11111011
11111111
10111111
00011111
11111111
11000000
10000000
00000000
NAME room 6 20

TIL s
11110000
11100000
11100000
11100000
11100000
01100000
00100000
00100000
NAME room 6 21

TIL t
00000000
00000000
00000000
00000000
00000000
00000000
00000000
00000001
NAME room 6 22

TIL u
00011111
00001111
00000111
00000111
00000011
00000011
00000001
11100001
NAME room 6 23

TIL v
11000000
11000000
11000000
11000000
11000000
11000000
10000000
10000000
NAME room 6 24

TIL w
00011111
00011000
01111001
01110000
00000000
00000000
00000000
00000000
NAME room 6 25

TIL x
00000000
00000011
00000011
00000011
00000001
00000001
00000001
00000000
NAME room 6 26

TIL y
10111111
11111111
11111111
11111111
11111111
11111111
11111111
01111111
NAME room 6 27

TIL z
10000111
11100001
11100000
11100000
11100000
11100000
11100000
11110000
NAME room 6 28

TIL 1a
00111111
00111001
01111000
00111010
01111010
11111111
11111111
11111111
NAME room 6 39

TIL 1b
10000000
10000001
00001111
00000011
10000000
00000000
00000000
00000000
NAME room 6 40

TIL 1c
11111101
11111101
11110011
11100011
00000111
00001111
00001111
00011111
NAME room 6 41

TIL 1d
11101111
11111111
11100100
11110000
11110000
11111111
11111111
11111111
NAME room 6 42

TIL 1e
11111011
10111101
00001111
00000000
00000001
01110011
11111111
11111111
NAME room 6 43

TIL 1f
00000000
00000000
00000100
00001000
00001111
00011111
01111111
11111111
NAME room 6 44

TIL 1g
01111111
00111111
00111111
11111110
11111111
11111111
11111111
01111111
NAME room 6 45

TIL 1h
11111110
00111110
00011100
11111100
11111000
11111000
11110000
11100000
NAME room 6 46

TIL 1i
00000000
01000000
00000000
00000000
00000000
00000000
00000001
00000001
NAME room 6 47

TIL 1j
00011111
00111111
00111111
01111111
11111111
11111111
11111111
11111111
NAME room 6 48

TIL 1k
11111111
11111111
11111111
11111111
11111111
11111111
11111111
11111111
NAME room 6 49

TIL 1l
11111111
11111111
11111110
11111110
11111111
11111111
11111111
11111111
NAME room 6 50

TIL 1m
01100000
00011000
00000110
00000011
00000000
00000000
00000000
00000000
NAME room 6 51

TIL 1n
00000000
00000000
00000000
10000000
11100000
00111000
00011100
00000111
NAME room 6 52

TIL 1o
00000000
00000000
00000000
00000000
00000000
00000000
00000000
00011110
NAME room 6 53

TIL 1p
00000000
00000000
00000000
00000000
00000000
00000000
00000000
00000010
NAME room 6 54

TIL 1q
00000000
00000000
00000000
00000000
00000000
00000000
00000000
00000111
NAME room 6 55

TIL 1r
11111111
11111111
11111110
11111111
11111111
11111111
11111111
11111111
NAME room 6 56

TIL 1s
01111111
01111111
11111111
11111111
11111111
11111111
11111111
11111111
NAME room 6 57

TIL 1t
11100000
11000000
11100000
11000000
10000000
10000000
00000000
00000000
NAME room 6 58

TIL 1u
00000011
00000111
00000111
00001111
00001111
00011111
00011111
00111111
NAME room 6 59

TIL 1v
00000000
00000001
11111001
11111111
11111111
11111111
11111111
11111111
NAME room 6 60

TIL 1w
00000111
11000011
11000001
11111111
11111111
11111111
11111111
11111111
NAME room 6 61

TIL 1x
11001110
11110001
11111100
11111111
11111111
11100111
11101100
11111111
NAME room 6 62

TIL 1y
00000000
11111000
11110000
00110000
11000000
11110000
11111000
11111110
NAME room 6 63

TIL 1z
00000011
00000111
01001111
10111111
00111111
01111111
11111111
01111111
NAME room 6 64

TIL 2a
11111111
11111111
11111111
11111111
11111111
11111111
01111111
00111111
NAME room 6 75

TIL 2b
11100000
11100000
11100000
11100000
11100000
11100000
11100000
11100000
NAME room 6 76

TIL 2c
00000011
00000111
00000111
00000111
00000111
00000111
00001111
00001111
NAME room 6 77

TIL 2d
11111100
11111100
11111110
11111111
11111111
11111111
11111111
11111111
NAME room 6 78

TIL 2e
00000000
00000000
00000000
00000000
10000000
11000000
11000000
11100000
NAME room 6 79

TIL 2f
00011111
00000111
00000000
00000000
00000000
00000000
00000000
00000000
NAME room 6 80

TIL 2g
11111111
11111111
01111111
00001111
00000011
00000001
00000000
00000000
NAME room 6 81

TIL 2h
11111111
11111111
11111111
11111111
11111110
11110000
01100000
00000111
NAME room 6 82

TIL 2i
00001111
00001111
00001100
00000000
00001111
00011111
11111111
11111111
NAME room 6 83

TIL 2j
11111111
11100000
00000011
11111111
11111111
11111111
11111111
11111111
NAME room 6 84

TIL 2k
11111111
00000011
11111100
11111111
11111111
11111111
11111111
11111111
NAME room 6 85

TIL 2l
11111111
11111111
11111111
01111111
10111111
11101111
11110111
11111111
NAME room 6 86

TIL 2m
11111111
11011111
11111111
11111111
11111111
11111111
11111111
11111111
NAME room 6 87

TIL 2n
11110000
11111100
11111111
11111111
11111111
11111111
11111111
11111111
NAME room 6 88

TIL 2o
00000000
00000000
11100000
11110000
11111100
11111110
11111111
11111111
NAME room 6 89

TIL 2p
00000000
00000000
00000000
00000000
00000000
00000000
10000000
11000000
NAME room 6 90

TIL 2q
00011111
00111111
01111111
00101111
00000111
00000011
00000000
00000000
NAME room 6 91

TIL 2r
11111111
11111111
11111111
11111111
11110011
11110011
11100011
11100011
NAME room 6 92

TIL 2s
11111111
11111111
11111111
11111111
11111111
11111010
11111111
11111111
NAME room 6 93

TIL 2t
11111110
11111111
11111111
11111111
11100011
11111111
11111111
11111110
NAME room 6 94

TIL 2u
11111111
11111111
11111111
11111111
11111111
11111111
11111111
00011111
NAME room 6 95

TIL 2v
11100000
11111000
11111100
11111110
11111111
11111111
11111111
11111111
NAME room 6 96

TIL 2w
00000000
00000000
00000000
00000010
11111111
11111111
11111111
11111111
NAME room 6 97

TIL 2x
00011111
00011111
00000111
00000000
10000000
11000000
11000000
11100000
NAME room 6 98

TIL 2y
11100011
11100011
11100011
00000011
00000011
00000001
00000001
00000001
NAME room 6 99

TIL 2z
00111111
01111111
00000001
00000001
00000000
00000000
00000000
00000000
NAME room 6 100

TIL 3a
00000000
00000000
00000000
00000000
00000000
00000000
00000000
00000011
NAME room 6 111

TIL 3b
00000111
00000111
00001111
00001111
00111111
00111111
11111111
11111111
NAME room 6 112

TIL 3c
11111111
11111111
11111111
11111111
11111111
11111111
11111111
00111111
NAME room 6 113

TIL 3d
11111111
11111111
11111111
11111111
11111111
11111111
11111111
11110100
NAME room 6 114

TIL 3e
11111111
11111111
11111111
11111111
11111111
11111111
11111111
01001111
NAME room 6 115

TIL 3f
11111111
11111111
11111111
11111111
11111111
11111111
11111110
00101100
NAME room 6 116

TIL 3g
11111111
11111111
11111111
11111111
01111111
11011111
11111111
11001011
NAME room 6 117

TIL 3h
11111111
11111111
11110111
11110111
11111111
11111111
11111111
11111111
NAME room 6 118

TIL 3i
00000000
00001000
00000011
00001111
00100001
00000000
00000000
00000000
NAME room 6 119

TIL 3j
00111111
00011111
11001111
11100111
11110111
11111011
11111011
00000111
NAME room 6 120

TIL 3k
11111111
11111111
11111101
11111111
11111111
11111111
11111111
11111111
NAME room 6 121

TIL 3l
11100101
11101110
11111111
11111111
11111111
11111111
11111111
11111111
NAME room 6 122

TIL 3m
10000101
10110100
11111111
11111111
11111111
11111111
11111111
11011011
NAME room 6 123

TIL 3n
00000111
10111111
11111111
11111111
11111111
11111111
11111111
11111111
NAME room 6 124

TIL 3o
10010111
11111111
11111111
11111111
11111111
11111101
11111111
11111111
NAME room 6 125

TIL 3p
11111000
11111011
11111111
11111111
11111111
11111111
11111111
01111111
NAME room 6 126

TIL 3q
01100000
11111000
11111111
11111111
11111111
11111111
11111111
11111111
NAME room 6 127

TIL 3r
00000000
00000000
00000000
00000000
11100000
11100000
11111100
11111100
NAME room 6 128

TIL 3s
00000000
00000000
00000000
00000000
00000000
00000000
00000000
10000010
NAME room 6 129

TIL 3t
00000000
00000100
00000100
00011100
01111000
01111000
11100000
10001000
NAME room 6 130

TIL 3u
01000000
01110000
01111100
01111000
00111000
00011000
00000001
00000100
NAME room 6 131

TIL 3v
00001111
00011111
00111111
00111111
01111111
11111111
00100010
00000000
NAME room 6 132

TIL 3w
11111111
11111111
11111111
11111111
11011111
01011111
01110111
10011001
NAME room 6 133

TIL 3x
11111111
11111111
11111111
11111111
11111111
01111111
11111111
11111111
NAME room 6 134

TIL 3y
11011111
11111111
11111111
11111111
11111111
11111111
11111100
11111000
NAME room 6 135

TIL 3z
11111111
11111111
11111111
11111111
11111111
10000111
00000001
00000000
NAME room 6 136

TIL 4a
11111000
11110000
11100000
11100000
11100000
11100000
11101111
11100000
NAME room 6 147

TIL 4b
00000000
00000000
00000000
00000000
00000000
00000110
10000000
00000011
NAME room 6 148

TIL 4c
00011111
00011111
00001111
00001111
11100111
00000111
00000011
11100011
NAME room 6 149

TIL 4d
11111111
11111111
11111111
11111011
11111011
11100100
11111011
11111111
NAME room 6 150

TIL 4e
11111111
11111111
11111111
11111111
10111111
00000011
11111111
11111111
NAME room 6 151

TIL 4f
11111101
11111111
11111111
11111111
11111111
11111011
11111011
11111111
NAME room 6 152

TIL 4g
11010001
10010001
00110000
10011111
11111111
11111111
11111111
11111111
NAME room 6 153

TIL 4h
01000000
00010100
00011100
11111010
11111111
11111001
11111111
11111111
NAME room 6 154

TIL 4i
01111111
01111110
11111110
11111110
11111100
11111111
11111111
11111111
NAME room 6 155

TIL 4j
11111111
01111011
10000001
00001101
11111111
11111111
11111111
11111111
NAME room 6 156

TIL 4k
11100111
11101111
11100000
11100000
11100000
11100000
11110000
11110000
NAME room 6 157

TIL 4l
00000011
10000000
00000000
00000000
00000000
00000000
00000000
00101100
NAME room 6 158

TIL 4m
11000011
00000111
00000111
00000111
00000111
00000111
00000011
00000011
NAME room 6 159

TIL 4n
11111111
11111111
11111111
11111111
10111111
11111111
11111111
11111111
NAME room 6 160

TIL 4o
11111111
11111111
11111111
11111111
11111111
11111111
11110111
11111111
NAME room 6 161

TIL 4p
11111111
11111110
11111010
11001001
11111100
11111111
11111111
11111111
NAME room 6 162

TIL 4q
11011111
11111111
10011111
10111111
01111111
11111111
11111111
11111111
NAME room 6 163

TIL 4r
11111111
10001111
11111111
11011001
11101001
11111111
11111111
11110111
NAME room 6 164

TIL 4s
11111111
11111111
01111111
11111111
01111101
01111110
11111111
11111111
NAME room 6 165

TIL 4t
11111111
11111111
11111111
11101111
10001101
01111000
11111111
11111111
NAME room 6 166

TIL 4u
11111111
11111111
11111111
11111101
01111100
01011111
11111011
11111111
NAME room 6 167

TIL 4v
11111111
11111111
00111111
00111111
11111110
11111111
11111111
11111111
NAME room 6 168

TIL 4w
11111111
11111111
11111111
11011001
01101111
11111111
11111111
11111111
NAME room 6 169

TIL 4x
11111000
11111000
11111000
11111100
11111110
11111111
11111111
11111111
NAME room 6 170

TIL 4y
00000000
00000011
11100001
00100011
00000000
00000000
10000000
11000000
NAME room 6 171

TIL 4z
00000011
10000011
10000111
00001111
00011111
00111111
00111111
01111111
NAME room 6 172

TIL 5a
10000000
10111111
00001111
10000011
10000000
10000000
00000000
01000000
NAME room 6 183

TIL 5b
11111111
11111101
11111011
11100111
00000111
00001111
00001111
00011111
NAME room 6 184

TIL 5c
11111111
11111111
11110111
11110100
11111001
11111111
11111111
11111111
NAME room 6 185

TIL 5d
11111111
11111111
11101111
01000001
10110011
11111111
11111111
11111111
NAME room 6 186

TIL 5e
11111111
11111110
11111111
11111101
11111111
11111111
11111111
11111111
NAME room 6 187

TIL 5f
11111110
11111110
11111100
11111100
11111100
11111000
11110000
11110000
NAME room 6 188

TIL 5g
01000000
01000000
01000000
00000000
00000000
00000000
00000001
00000011
NAME room 6 189

TIL 5h
00011111
00111111
01111111
01111111
11111111
11111111
11111111
11111111
NAME room 6 190

TIL 5i
11111111
11111111
11111111
11111110
11111111
11111111
11111111
11111111
NAME room 6 191

TIL 5j
11100000
11110000
11100000
11000000
11000000
10000000
10000000
00000000
NAME room 6 192

TIL 5k
00000011
00000111
00001111
00001111
00011111
00011111
00111111
00111111
NAME room 6 193

TIL 5l
11111110
11111110
11111100
11111100
11111000
11111000
11110000
11110000
NAME room 6 194

TIL 5m
00000000
00000000
00000000
00000001
00000001
00000001
00000011
00000011
NAME room 6 195

TIL 5n
11111111
11111111
11111111
11111111
11111111
11111111
11111111
11111101
NAME room 6 196

TIL 5o
11111111
11111111
11111111
11111111
11111111
11111111
11111111
11111000
NAME room 6 197

TIL 5p
00000011
00000111
00000111
00000111
00001111
00001111
00001111
00001111
NAME room 6 198

TIL 5q
11111110
11111110
11111110
11111111
11111111
11111111
11111111
11111111
NAME room 6 199

TIL 5r
00000000
00000000
00000000
10000000
11000000
11000000
11100000
11101100
NAME room 6 200

TIL 5s
00011111
00001111
00000000
00000000
00000000
00000000
00000000
00000000
NAME room 6 201

TIL 5t
11111111
11111111
11111111
00011111
00000111
00010001
00001000
00000010
NAME room 6 202

TIL 5u
11111111
11111111
11111111
11111111
11111111
11110000
11100001
00000111
NAME room 6 203

TIL 5v
11110000
11110000
11110000
11111000
00000000
00011111
11111111
11111111
NAME room 6 204

TIL 5w
00001111
00001111
00001110
00000001
01111111
11111111
11111111
11111111
NAME room 6 205

TIL 5x
11111111
11111000
00000111
11111111
11111111
11111111
11111111
11111111
NAME room 6 206

TIL 5y
11111111
00000111
11111101
11111111
11111111
11111111
11111111
11111111
NAME room 6 207

TIL 5z
11111111
11111111
11111111
01111111
11111111
11111111
11111111
11111111
NAME room 6 208

TIL 6a
11100100
00000000
00000000
00000000
00000000
00000000
00000000
00000000
NAME room 6 219

TIL 6b
01111111
01111111
00000000
00000000
00000000
00000000
00000000
00000000
NAME room 6 220

TIL 6c
11111111
11111111
00000000
00000000
00000000
00000000
00000000
00000000
NAME room 6 221

TIL 6d
10011111
11111111
01011111
00000000
00000000
00000000
00000000
00000000
NAME room 6 222

TIL 6e
11111111
11111111
11111111
00000001
00000001
00000001
00000001
00000000
NAME room 6 223

TIL 6f
11111000
11111100
11111110
11111100
11111100
11111100
11111100
11111000
NAME room 6 224

TIL 6g
00000011
00000011
00000111
00000111
01001111
01111111
01111111
00011111
NAME room 6 225

TIL 6h
11111111
11111111
11111111
11111100
11111110
11111110
11111111
11111111
NAME room 6 226

TIL 6i
11111100
11111100
11111100
11111100
11111100
11111100
11111100
11111100
NAME room 6 227

TIL 6j
00001111
00001111
00001111
00001111
00001111
00001111
00001111
00001111
NAME room 6 228

TIL 6k
00000000
01111000
01000100
01000010
01000010
01000100
01111000
00000000
WAL true

TIL 6l
00000000
01111110
00011000
00011000
00011000
00011000
01111110
00000000
WAL true

TIL 6m
00000000
01111110
01100000
01111100
01100000
01100000
01111110
00000000
WAL true

TIL 6n
00000000
00111100
01000010
01000000
01000000
01000010
00111100
00000000
WAL true

TIL 6o
00000000
00000000
01000010
01000010
01000010
01000010
00111100
00000000
WAL true

TIL 6p
00000000
01111000
01000100
01000100
01111000
01000100
01000010
00000000
WAL true

TIL 6q
00000000
00111100
01000010
00100000
00011100
01000010
00111110
00000000
WAL true

TIL 6r
00000000
01111100
01000010
01000010
01111100
01000000
01000000
00000000
WAL true

TIL 6s
00000000
00011000
00100100
00100100
01111110
01000010
01000010
00000000
WAL true

TIL 6t
00000000
01111110
00011000
00011000
00011000
00011000
01111110
00000000
WAL true

TIL 6u
00000000
01000010
01100010
01010010
01001010
01000110
01000010
00000000
WAL true

TIL 6v
00000000
01111000
01000100
01000100
01111000
01000100
01000010
00000000
WAL true

SPR A
00100001
01000010
00111100
01111010
00011000
01111110
01000010
00111100
>
10000100
01000010
00111100
01111110
00011000
01111110
01000010
00111100
POS 8 0,15

SPR b
00000000
00111000
01000100
01000100
00111000
00010000
01111100
00010000
>
00000000
00111000
01000100
01000100
00111000
00010000
01111100
00010000
DLG SPR_2
POS 0 7,7

SPR c
00010000
00011000
00010000
01111100
00101000
00101000
00101000
00111000
>
00010000
00110000
00010000
01111100
00101000
00101000
00101000
00111000
DLG SPR_1
POS 0 5,2

SPR d
00000000
00000000
00101110
00101100
01101000
11101000
00000000
00000000
DLG SPR_3
POS 0 7,13

SPR e
00111100
01111110
11111111
10010011
10010011
11101111
11000011
01111110
DLG SPR_0
POS 1 6,3

SPR f
00000000
00011000
00011000
01111110
01111110
00011000
00011000
00000000
DLG SPR_4
POS 1 13,5

SPR g
01001001
00101010
00011100
11111111
00011100
00101010
01001001
10001000
DLG SPR_5
POS 1 7,11

SPR h
00000000
00000000
00000000
01111110
01000010
00100100
00011000
00000000
DLG SPR_6
POS 1 12,10

SPR i
00000000
10000001
01100110
00011000
00000000
00011000
00100100
01000010
DLG SPR_7
POS 1 6,9

SPR j
10000001
01000010
00100100
00011000
00011000
00011000
00011000
00000000
DLG SPR_9
POS 2 11,7

SPR k
00000000
00000000
00000000
11100111
00000000
00000000
00111100
00000000
DLG SPR_8
POS 2 5,14

SPR l
00000100
00001010
01010001
10100001
10100001
10010001
01111110
00000000
DLG SPR_a
POS 2 8,10

SPR m
00111100
00111100
00110000
00110000
00110000
00110000
00111100
00111100
DLG SPR_b
POS 2 11,4

SPR n
00011000
00100100
01000010
10000001
10000001
01000010
00100100
00011000
DLG SPR_c
POS 3 4,8

SPR o
01000010
10100101
10010101
10001001
10000001
01000010
00100100
00011000
DLG SPR_d
POS 3 11,6

SPR p
00000000
00111100
00111100
00111100
00111100
00111100
11111111
00000000
DLG SPR_e
POS 5 7,6

SPR q
01000010
10100101
10010101
10001001
10000001
01000010
00100100
00011000
DLG SPR_f
POS 4 7,13

ITM 0
00000000
00000000
00000000
00111100
01100100
00100100
00011000
00000000
NAME tea
DLG ITM_0

ITM 1
11111111
11111111
11111111
11111111
11111111
11111111
11111111
11111111

ITM 2
00000000
00000000
11100111
10011001
10100101
11000011
00000000
00000000

ITM 3
00000000
00000000
00000000
00000000
00000000
00000000
00000000
00000000

DLG ITM_0
Hi Class. I am ask you to write a good memory between you and your grandparents for this weeks essay

DLG SPR_1
The first thing she said when I was born is "this is a ugly baby, how could this happen?'

DLG SPR_2
"""
I had an older brother who died early age, so my parent can have a second child despite one child policy{
  - {item "0"} == 1 ?

  - else ?

}
"""

DLG SPR_3
I am the curse of the family. The one came to prevent the family from continuing. 

DLG SPR_0
My grandma has never hide the fact that she wanted me to die so the family can have another chance

DLG SPR_4
I was constantly in and out of hospital due to malnutrition and injures when my mom found me dying after work.

DLG SPR_5
Under her care, she let my 30 year-old mentally disabled cousin throw me around like a doll

DLG SPR_6
she intentionally "forgot" to feed me often

DLG SPR_7
and she act upon it 

DLG SPR_8
My parents decide to turn a blank eye because they were to busy at work

DLG SPR_9
She would give me Buddhism accessories that filled with her curse, and ask my parents to make sure I wear them all the time 

DLG SPR_a
around age 9, I start to live on my own during the day . But I still can't escape the curse.

DLG SPR_b
She would call me when I am alone at home as ask me to kill myself

DLG SPR_c
I have no idea if any relative knew about it. She is a sweet lady in family gathering. 

DLG SPR_d
She cook good food during Chinese new year.

DLG SPR_e
Thankfully, it all ended when she died. That was the weirdest funeral I have ever been to.

DLG SPR_f
She cook good food during Chinese new year.

VAR a
42

