Thought of the day

# BITSY VERSION 3.4

! ROOM_FORMAT 1

PAL 0
0,0,0
198,0,5
255,255,255

ROOM 0
0,0,0,0,0,0,0,0,0,0,0,0,0,0,0,0
0,0,0,0,0,0,0,0,0,0,0,0,0,0,0,0
0,0,0,0,0,0,0,0,0,0,0,0,0,0,0,0
0,0,0,0,0,0,0,0,0,0,0,0,0,0,0,0
0,0,0,0,0,0,0,0,0,0,0,0,0,0,0,0
0,0,0,0,0,0,0,0,0,0,0,0,0,0,0,0
0,0,0,0,0,0,0,0,0,0,0,0,0,0,0,0
0,0,0,0,0,0,0,0,0,0,0,0,0,0,0,0
0,0,0,0,0,0,0,0,0,0,0,0,0,0,0,0
0,0,0,0,0,0,0,0,0,0,0,0,0,0,0,0
0,0,0,0,0,0,0,0,0,0,0,0,0,0,0,0
0,0,0,0,0,0,0,0,0,0,0,0,0,0,0,0
0,0,0,0,0,0,0,0,0,0,0,0,0,0,0,0
c,c,c,c,c,c,c,c,c,c,c,c,c,c,c,c
0,0,0,0,0,0,0,0,0,0,0,0,0,0,0,0
b,b,b,b,d,b,b,b,d,b,b,d,b,b,b,b
WAL b,d,c,e,f,j,i,l,m
EXT 15,14 1 0,14
PAL 0

ROOM 1
0,0,0,0,0,0,0,0,c,h,0,e,f,f,f,f
0,0,0,0,0,0,0,0,c,h,0,e,f,f,f,f
0,0,0,0,0,0,0,0,c,h,0,e,0,0,0,0
0,0,0,0,0,0,0,0,c,h,0,c,c,c,c,c
0,0,0,0,0,0,0,0,c,h,0,0,0,0,0,0
0,0,0,0,0,0,0,0,0,j,l,f,f,f,f,f
0,0,0,0,0,0,0,0,0,0,0,e,f,f,f,f
0,0,0,0,0,0,0,0,0,0,0,e,f,f,f,f
0,0,0,0,0,0,0,0,0,0,0,e,f,0,f,f
0,0,0,0,0,0,0,0,0,0,0,e,f,0,f,f
0,0,0,0,0,0,0,0,0,0,0,e,f,f,f,f
0,0,0,0,0,0,0,0,0,0,0,e,f,f,f,f
0,0,0,0,0,0,0,0,0,0,0,0,0,0,g,0
c,c,c,c,c,c,c,c,c,c,c,c,c,c,i,c
0,0,0,0,0,0,0,0,0,0,0,0,0,0,0,0
b,b,b,b,d,b,b,d,b,b,d,j,j,j,j,j
WAL f,e,d,b,c,i,j,l,m
EXT 15,14 2 0,14
EXT 0,14 0 15,14
EXT 9,0 4 11,15
PAL 0

ROOM 2
j,j,j,j,j,j,j,j,j,j,j,j,j,j,j,j
0,0,0,0,0,0,0,0,0,0,0,0,0,0,0,0
0,0,0,0,0,0,0,0,0,0,0,0,0,0,0,0
0,0,0,0,0,0,0,0,0,0,0,0,0,0,0,0
0,0,0,0,0,0,0,0,0,0,0,0,0,0,0,0
c,c,c,c,c,c,c,c,c,c,c,c,c,c,c,c
0,0,0,0,0,0,0,0,0,0,0,0,0,0,0,0
j,j,l,f,f,f,f,f,f,f,f,f,m,j,j,j
0,0,0,0,g,0,0,0,0,0,g,0,0,0,0,0
0,0,0,0,g,0,0,0,0,0,g,0,0,0,0,0
0,0,0,0,g,c,c,c,c,c,g,0,0,0,0,0
0,0,0,0,i,0,0,0,0,0,i,0,0,0,0,0
0,0,0,0,g,b,b,h,b,b,g,0,0,0,0,0
c,c,c,c,g,c,c,h,c,c,g,c,c,c,c,c
0,0,0,0,g,0,0,h,0,0,g,0,0,0,0,0
j,j,j,j,j,j,j,j,j,j,j,j,j,j,j,j
WAL d,e,f,b,c,j,i,l,m
EXT 15,14 3 0,9
EXT 0,14 1 15,14
EXT 15,6 3 0,3
EXT 0,6 1 15,4
PAL 0

ROOM 3
0,0,0,0,0,0,0,0,0,0,0,0,0,0,0,0
0,0,0,0,0,0,0,0,0,0,0,0,0,0,0,0
c,c,c,c,0,0,0,k,0,0,k,0,0,k,0,0
0,0,0,c,0,0,0,0,0,0,0,0,0,0,0,0
j,j,h,c,0,0,0,0,0,0,0,k,0,0,0,0
c,c,h,c,0,0,0,0,0,0,k,0,k,0,0,0
c,c,h,c,0,0,0,0,0,0,0,k,0,k,0,0
c,c,h,c,0,0,0,0,0,0,k,0,k,0,k,0
c,c,h,c,c,0,0,0,0,k,k,k,k,k,k,k
0,0,h,0,0,0,0,0,0,k,k,0,0,0,0,0
f,f,f,m,j,0,0,0,0,0,0,k,0,0,k,0
f,f,f,0,0,0,0,0,0,k,0,0,0,0,0,0
f,f,f,0,0,0,0,0,0,k,0,k,0,k,0,0
f,f,f,0,0,0,0,0,k,0,0,0,0,0,0,k
f,f,f,0,0,0,0,k,0,k,0,k,0,k,k,0
f,f,f,0,0,0,0,0,0,0,0,0,k,0,0,0
WAL i,e,f,j,b,c,d,l,m
EXT 0,9 2 15,14
EXT 0,3 2 15,6
PAL 0

ROOM 4
0,0,0,0,0,0,0,0,0,0,0,0,0,0,0,0
0,0,0,0,0,0,0,0,0,0,0,0,0,0,0,0
0,0,0,0,0,0,0,c,c,c,c,c,c,c,c,c
0,0,0,0,0,0,0,0,0,0,0,0,0,0,0,0
0,0,0,0,0,0,0,j,j,j,j,h,j,j,l,f
0,0,0,0,0,0,0,0,0,0,c,h,c,0,0,e
0,0,0,0,0,0,0,0,0,0,c,h,c,0,0,e
0,0,0,0,0,0,0,0,0,0,c,h,c,0,0,e
k,k,0,k,0,0,k,0,0,0,c,h,c,0,0,e
0,0,k,k,0,k,0,0,0,0,c,h,c,0,0,e
0,k,0,0,k,0,0,0,0,0,c,h,c,0,0,e
0,0,0,0,0,0,0,0,0,0,c,h,c,0,0,e
0,0,0,0,0,0,0,0,0,0,c,h,c,0,0,e
0,0,0,0,0,0,0,0,0,0,c,h,c,0,0,e
0,0,0,0,0,0,0,0,0,0,c,h,c,0,0,e
0,0,0,0,0,0,0,0,0,0,c,h,c,0,0,e
WAL c,j,l,f
EXT 6,3 5 7,3
PAL 0

ROOM 5
0,0,0,0,0,0,0,0,0,0,0,0,0,0,0,0
0,0,0,0,0,0,0,0,0,0,0,0,0,0,0,0
0,0,0,0,0,c,c,c,c,c,c,c,c,c,c,c
0,0,0,0,0,c,0,0,c,0,0,0,0,0,0,0
0,0,0,0,0,c,c,c,c,j,j,j,j,j,j,j
0,0,0,0,0,0,0,0,0,0,c,0,c,h,0,0
0,0,0,0,0,0,0,0,0,0,c,0,c,h,0,0
0,0,0,0,0,0,0,0,0,0,c,0,c,h,0,0
0,0,k,k,0,k,0,0,k,0,c,0,c,h,0,0
0,0,0,0,k,k,0,k,0,0,c,0,c,h,0,0
0,0,0,k,0,0,k,0,0,0,c,0,c,h,0,0
0,0,0,0,0,0,0,0,0,0,c,0,c,h,0,0
0,0,0,0,0,0,0,0,0,0,c,0,c,h,0,0
0,0,0,0,0,0,0,0,0,0,c,0,c,h,0,0
0,0,0,0,0,0,0,0,0,0,c,0,c,h,0,0
0,0,0,0,0,0,0,0,0,0,c,0,c,h,0,0
WAL c,j,l,f
EXT 6,3 6 7,3
PAL 0

ROOM 6
0,0,0,0,0,0,0,0,0,0,0,0,0,0,0,0
0,0,0,0,0,0,0,0,0,0,0,0,j,j,j,j
0,0,0,0,0,c,c,c,c,c,c,c,c,c,c,c
0,0,0,0,0,c,0,0,c,0,0,0,0,0,0,0
0,0,0,0,0,c,c,c,c,0,0,0,0,0,0,0
0,0,0,0,0,k,k,0,k,0,c,k,c,0,0,0
0,0,0,0,0,0,0,k,k,0,k,0,c,0,0,0
0,0,0,0,0,0,k,0,0,k,c,0,c,0,0,0
0,0,0,0,0,0,0,0,0,0,c,0,c,0,0,0
0,0,0,0,0,0,0,0,0,0,c,0,c,0,0,0
0,0,0,0,0,0,0,0,0,0,c,0,c,0,0,0
0,0,0,0,0,0,0,0,0,0,c,0,c,0,0,0
0,0,0,0,0,0,0,0,0,0,c,0,c,0,0,0
0,0,0,0,0,0,0,0,0,0,c,0,c,0,0,0
0,0,0,0,0,0,0,0,0,0,c,0,c,0,0,0
0,0,0,0,0,0,0,0,0,0,c,0,c,0,0,0
WAL c,j,l,f
EXT 6,3 7 7,3
PAL 0

ROOM 7
0,0,0,0,0,0,0,0,0,0,0,0,0,0,0,0
0,0,0,0,0,0,k,k,0,k,0,0,k,0,0,0
0,0,0,0,0,c,c,c,c,k,c,k,c,c,c,c
0,0,0,0,0,c,0,k,c,0,k,0,0,0,0,0
0,0,0,0,0,c,c,c,c,0,0,0,0,0,0,0
0,0,0,0,0,0,0,0,0,0,0,0,0,0,0,0
0,0,0,0,0,0,0,0,0,0,0,0,c,0,0,0
0,0,0,0,0,0,0,0,0,0,c,0,c,0,0,0
0,0,0,0,0,0,0,0,0,0,c,0,c,0,0,0
0,0,0,0,0,0,0,0,0,0,c,0,c,0,0,0
0,0,0,0,0,0,0,0,0,0,c,0,c,0,0,0
b,b,b,d,b,b,b,b,d,b,b,b,d,b,b,b
0,0,0,0,0,0,0,0,0,0,c,0,c,0,0,0
0,0,0,0,0,0,0,0,0,0,c,0,c,0,0,0
0,0,0,0,0,0,0,0,0,0,c,0,c,0,0,0
0,0,0,0,0,0,0,0,0,0,c,0,c,0,0,0
WAL c,j,l,f
END undefined 6,3
PAL 0

TIL b
11111111
01010101
11111111
00000000
00000000
00000000
00000000
00000000

TIL c
00000000
00000000
00000000
00000000
00000000
00000000
00000000
00000000

TIL d
11111111
01010101
11111111
00010100
00010100
00010000
00010000
00000000

TIL e
10111111
01011111
10111111
11011111
10111111
01011111
10111111
11011111

TIL f
11111111
11111111
11111111
11111111
11111111
11111111
11111111
11111111

TIL g
10111010
01011101
00111010
01011100
10111010
01011101
00111010
01011100

TIL h
11000011
11000011
11111111
11000011
11000011
11000011
11111111
11000011

TIL i
10111010
01011101
00111010
01011100
10111010
01011101
00111010
01011100

TIL j
11111111
11111111
11111111
10101010
01010101
10101010
00010001
00000000

TIL k
10001000
00100010
10001000
00100010
10001000
00100010
10001000
00100010

TIL l
11111111
11111111
11111111
10101111
01010111
10101011
00010101
00001010

TIL m
11111111
11111111
11111111
11111010
11110101
11101010
11010000
10000000

SPR A
00111100
01111110
01101010
01101010
01111110
00111100
00011100
00000000
>
00000000
00111100
01111110
01101010
01101010
01111110
00111100
00011100
POS 0 4,14

SPR b
00111100
01111110
11111111
11101011
11101011
11111111
11111111
01100110
POS 2 5,11

SPR c
00000000
00000000
00000000
00000000
00000000
00000000
00000000
00000000

SPR d
00000000
00000000
00000000
00000000
00000000
00000000
00000000
00000000
POS 3 5,9

SPR e
00111100
01111110
11111111
11010111
11010111
11111111
11111111
01100110
POS 2 9,11

SPR f
00000000
00000000
00000000
00000000
00000000
00000000
00000000
00000000
POS 4 13,3

DLG a
I'm a cat

DLG b
Remember that time...

DLG d
Will I die if I jump? Am I already dead?

DLG e
I regret not doing...

DLG f
I wish I... Nevermind, I can't go on like this

END 0


END undefined
Don't be this guy. Get help before its too late. Suicide.org

