
Escape

# BITSY VERSION 4.8

! ROOM_FORMAT 1

PAL 0
0,81,201
49,60,97
255,255,255

PAL 1
36,38,48
179,5,28
255,255,255

PAL 2
209,209,209
222,101,152
255,255,255

PAL 3
51,16,168
150,254,240
255,255,255

PAL 4
0,0,0
255,255,255
255,255,255

ROOM 0
19,18,18,18,18,18,18,18,18,18,18,18,18,18,18,1a
17,0,0,z,u,x,11,14,1x,1y,1z,20,21,22,23,1b
17,0,0,z,v,y,12,15,23,24,25,26,27,0,0,1b
17,0,0,z,w,10,13,16,0,0,0,0,0,0,0,1b
17,0,0,0,0,0,0,0,0,0,0,0,0,0,0,1b
17,0,0,0,0,0,0,0,0,0,0,0,a,b,c,d
17,1f,0,0,0,1f,0,0,0,1f,0,0,0,0,0,0
17,1g,0,1f,0,1g,0,1f,0,1g,0,0,0,0,0,1b
17,1f,0,1g,0,1f,0,1g,0,1f,0,0,0,0,0,1b
17,1g,0,1f,0,1g,0,1f,0,1g,0,0,0,0,0,1b
17,1f,0,1g,0,1f,0,1g,0,1f,0,0,0,0,0,1b
17,1g,0,1f,0,1g,0,1f,0,1g,0,0,0,0,0,1b
17,1f,0,1g,0,1f,0,1g,0,1f,0,0,0,0,0,1b
17,1g,0,1f,0,1g,0,1f,0,1g,0,0,0,0,0,1b
17,0,0,1g,0,0,0,1g,0,0,0,0,0,0,0,1b
1e,1d,1d,1d,1d,1d,1d,1d,1d,1d,1d,1d,1d,1d,1d,1c
NAME 1
EXT 15,6 1 0,1
PAL 0

ROOM 1
0,0,15,1m,1n,1o,1p,1q,1r,1s,1t,1u,1v,1w,1i,0
0,0,1j,1l,1l,1l,1l,1l,1l,1l,1l,1l,1l,1l,1k,0
0,0,0,0,0,0,0,0,0,0,0,0,0,0,0,0
1h,1h,1h,15,1i,1h,1h,1h,1h,1h,1h,15,1i,1h,1h,1h
1h,1h,1h,15,1i,1h,1h,1h,1h,1h,1h,15,1i,1h,1h,1h,1h
1h,1h,1h,15,1i,1h,1h,1h,1h,1h,1h,15,1i,1h,1h,1h
1h,1h,1h,15,1i,1h,1h,1h,1h,1h,1h,15,1i,1h,1h,1h
1h,1h,1h,15,1i,1h,1h,1h,1h,1h,1h,15,1i,1h,1h,1h
1h,1h,1h,15,1i,1h,1h,1h,1h,1h,1h,15,1i,1h,1h,1h,1h
1h,1h,1h,15,1i,1h,1h,1h,1h,1h,1h,15,1i,1h,1h,1h,1h0,
1h,1h,1h,15,1i,1h,1h,1h,1h,1h,1h,15,1i,1h,1h,1h
1h,1h,1h,15,1i,1h,1h,1h,1h,1h,1h,15,1i,1h,1h,1h
1h,1h,1h,15,1i,1h,1h,1h,1h,1h,1h,15,1i,1h,1h,1h
1h,1h,1h,15,1i,1h,1h,1h,1h,1h,1h,15,1i,1h,1h,1h
0,0,0,0,0,0,0,0,0,0,0,0,0,0,0,0
0,0,0,0,0,e,a,b,c,0,0,0,0,0,0,0
NAME 2
EXT 4,15 2 0,10
PAL 1

ROOM 2
0,0,2o,2p,2q,2r,2s,2t,2u,2v,2w,2x,2y,2z,0,0
0,0,0,0,0,0,0,0,0,0,0,0,0,0,0,0
0,0,0,0,0,0,0,0,0,0,0,0,0,0,0,00,
2l,2k,2k,2k,a,b,c,f,0,2k,2k,2k,2k,2k,2k,2j
2m,0,0,0,0,0,0,0,0,0,0,0,0,0,0,2i
2m,0,0,0,0,0,0,0,0,0,0,0,0,0,0,2i
2m,0,0,28,0,0,0,28,0,0,0,28,0,0,0,2i
2m,0,0,29,2a,2b,0,29,2a,2b,0,29,2a,2b,0,2i
2m,0,0,0,2c,2d,0,0,2c,2d,0,0,2c,2d,0,2i
2m,0,0,0,2e,2f,0,0,2e,2f,0,0,2e,2f,0,2i
0,0,0,0,0,0,0,0,0,0,0,0,0,0,0,2i
2m,0,0,0,0,0,0,0,0,0,0,0,0,0,0,2i
2m,0,0,0,0,0,0,0,0,0,0,0,0,0,0,2i
2m,0,0,0,0,0,0,0,0,0,0,0,0,0,0,2i
2m,0,0,0,0,0,0,0,0,0,0,0,0,0,0,2i
2n,2g,2g,2g,2g,2g,2g,2g,2g,2g,2g,2g,2g,2g,2g,2h
NAME 3
EXT 8,3 3 8,15
PAL 2

ROOM 3
0,g,a,b,c,3d,3c,3c,3c,3c,3c,3c,3c,3c,3c,3b
0,0,0,0,0,0,0,0,0,0,0,0,0,0,0,3a
36,0,0,0,0,0,0,0,0,0,0,0,0,0,0,3a
36,0,0,0,0,0,0,0,0,0,0,0,0,0,0,3a
36,0,0,0,0,0,0,0,0,0,3e,3f,0,0,0,3a
36,0,0,0,0,0,0,0,0,0,0,0,0,0,0,3a
36,30,32,34,0,0,0,0,0,0,0,0,0,0,0,3a
36,31,33,35,0,0,0,0,0,0,0,0,0,0,0,3a
36,0,0,0,0,0,0,0,0,0,0,0,0,0,0,3a,3a
36,0,0,0,0,0,0,0,0,0,0,0,0,0,0,3a
36,0,0,0,0,0,0,0,0,0,0,0,0,0,0,3a
36,0,0,0,0,0,0,0,0,0,0,0,0,0,0,3a
36,0,0,0,0,0,0,0,0,0,0,0,0,0,0,3a
36,0,0,0,0,0,0,0,0,0,0,0,0,0,0,3a
36,0,0,0,0,0,0,0,0,0,0,0,0,0,0,3a
37,38,38,38,38,38,38,38,0,38,38,38,38,38,38,39
NAME 4
EXT 0,0 4 0,15
PAL 3

ROOM 4
0,0,0,0,0,0,0,0,0,0,0,0,0,0,0,0
0,0,0,0,0,0,0,0,0,0,0,0,0,0,0,0
0,0,0,0,0,0,0,0,0,0,0,0,0,0,0,0
0,0,0,0,0,0,0,0,0,0,0,0,0,0,0,0
0,0,0,0,0,0,0,0,0,0,0,0,0,0,0,0
0,0,0,0,0,0,0,0,0,0,0,0,0,0,0,0
0,0,0,0,0,0,l,o,r,0,0,0,0,0,0,0
0,0,0,0,0,h,n,b,s,t,0,0,0,0,0,0
0,0,0,0,0,j,k,p,q,0,0,0,0,0,0,0
0,0,0,0,0,0,0,0,0,0,0,0,0,0,0,0
0,0,0,0,0,0,0,0,0,0,0,0,0,0,0,0
0,0,0,0,0,0,0,0,0,0,0,0,0,0,0,0
0,0,0,0,0,0,0,0,0,0,0,0,0,0,0,0
0,0,0,0,0,0,0,0,0,0,0,0,0,0,0,0
0,0,0,0,0,0,0,0,0,0,0,0,0,0,0,0
0,0,0,0,0,0,0,0,0,0,0,0,0,0,0,0
NAME 5
END undefined 6,7
END undefined 7,7
END undefined 8,7
PAL 4

TIL 10
00001110
00001000
00001110
00000010
00001110
00000000
11111111
11111111

TIL 11
11111111
00000000
00001010
00001010
00001110
00000010
00000010
00000000

TIL 12
00001110
01001010
11101110
01000010
00000010
00000000
01111111
00000000

TIL 13
00000000
00000000
00000000
00000000
00000000
00000000
11111111
11111111

TIL 14
11000000
01000000
01000000
01000000
01000000
01000000
01000000
01000000

TIL 15
01000000
01000000
01000000
01000000
01000000
01000000
01000000
01000000

TIL 16
01000000
01000000
01000000
01000000
01000000
01000000
11000000
11000000

TIL 17
01000000
00100000
01000000
00100000
01000000
00100000
01000000
00100000

TIL 18
00000000
01010101
10101010
00000000
00000000
00000000
00000000
00000000

TIL 19
00000000
00101010
01010101
00100000
01000000
00100000
01000000
00100000

TIL 20
00101001
00101101
00101011
00101001
11001001
00000000
00000000
11000110

TIL 21
00100010
00100010
00101010
00101010
00010100
00000000
00000000
01101110

TIL 22
10100101
01110101
10100111
10100101
10110101
00000000
00000000
00000000

TIL 23
11011010
10101011
10001010
10001010
00000000
00000000
00000000
00000000

TIL 24
10000110
00000101
10000100
10100100
00000000
00000000
00000000
00000000

TIL 25
01010010
01010010
01010010
01001100
00000000
00000000
00000000
00000000

TIL 26
10101001
11001001
10101001
10100110
00000000
00000000
00000000
00000000

TIL 27
10001000
01001100
00101000
11001110
00000000
00000000
00000000
00000000

TIL 28
11111111
10000001
10100001
10100011
11010101
10001001
10000001
11111111

TIL 29
00011000
00011000
00011000
00011000
00011000
00011000
01111110
00000000

TIL 30
11111111
10000000
10011110
10010010
10010010
10010010
10011110
10000000

TIL 31
10000000
10011110
10010010
10010010
10010010
10011110
10000000
11111111

TIL 32
11111111
10000000
10000000
10000000
10000000
10000000
10000000
10000000

TIL 33
10000000
10000000
10000000
10000000
10000000
10000000
10000000
11111111

TIL 34
11111000
00001000
00001000
00001000
00001000
00001000
00001000
00001000

TIL 35
00001000
00001000
00001000
00001000
00001000
00001000
00001000
11111000

TIL 36
11100000
01000000
11100000
01000000
11100000
01000000
11100000
01000000

TIL 37
11100000
01000000
11100000
01000000
11100000
01010101
11111111
01010101

TIL 38
00000000
00000000
00000000
00000000
00000000
01010101
11111111
01010101

TIL 39
00000111
00000010
00000111
00000010
00000111
01010110
11111110
01010101

TIL a
00000000
00000000
11101110
10001000
11000100
10000010
11101110
00000000
NAME es

TIL b
00000000
00000000
11100100
10001010
10001110
10001010
11101010
00000000
NAME ca

TIL c
00000000
00000000
11001110
10101000
11001100
10001000
10001110
00000000
NAME pe

TIL d
00000000
00000000
00100000
00010010
00001010
00000110
00011110
00000000
NAME down right

TIL e
00000000
00000000
00001000
10010000
10100000
11000000
11110000
00000000
NAME down left

TIL f
00000000
00000000
00001000
00000100
01111110
00000100
00001000
00000000
NAME right

TIL g
00000000
01111000
01100000
01010000
01001000
00000100
00000000
00000000
NAME up left

TIL h
00000011
00000010
00000010
00000010
00000010
00000010
00000010
00000010

TIL j
00000011
00000000
00000000
00000000
00000000
00000000
00000000
00000000

TIL k
11000000
00111111
00000000
00000000
00000000
00000000
00000000
00000000

TIL l
00000000
00000000
00000000
00000000
00000000
00000000
00000000
00111111

TIL m
00000000
00000000
11101110
10001000
11000100
10000010
11101110
00000000

TIL n
11000000
00000000
11101110
10001000
11000100
10000010
11101110
00000000
NAME es2

TIL o
00000000
00000000
00000000
00000000
00000000
00000001
11111110
00000000

TIL p
00000000
00000000
11111110
00000001
00000000
00000000
00000000
00000000

TIL q
00000011
00011100
11100000
10000000
00000000
00000000
00000000
00000000

TIL r
00000000
00000000
00000000
00000000
00000000
10000000
11100000
00011100

TIL s
00000011
00000000
11001110
10101000
11001100
10001000
10001110
00000000
NAME pe2

TIL t
10000000
10000000
10000000
10000000
10000000
10000000
10000000
10000000

TIL u
11111111
10000000
10001010
10001010
10001010
10001010
10001010
10000000

TIL v
10000111
10010001
10111011
10010001
10000111
10000000
10111111
10000000

TIL w
10010101
10010101
10010111
10010001
10010001
10000000
11111111
11111111

TIL x
11111111
00000000
00001110
00001000
00001110
00001010
00001110
00000000

TIL y
00000010
00000010
00111010
00000010
00000010
00000000
01111111
00000000

TIL z
00000001
00000001
00000001
00000001
00000001
00000001
00000001
00000001

TIL 1a
00000000
01010100
10101010
00000100
00000010
00000100
00000010
00000100

TIL 1b
00000010
00000100
00000010
00000100
00000010
00000100
00000010
00000100

TIL 1c
00000010
00000100
00000010
00000100
00000010
01010100
10101010
00000000

TIL 1d
00000000
00000000
00000000
00000000
00000000
01010101
10101010
00000000

TIL 1e
00100000
01000000
00100000
01000000
00100000
01010101
00101010
00000000

TIL 1f
11111111
10000001
10000001
10000001
10000001
10000001
10000001
11111111

TIL 1g
00111100
01111110
00100100
01000010
00000000
00000000
00000000
00000000

TIL 1h
00000000
00000000
00111100
00111100
00111100
00111100
01111110
00000000

TIL 1i
00000010
00000010
00000010
00000010
00000010
00000010
00000010
00000010

TIL 1j
01000000
01000000
01000000
01000000
01000000
01000000
01111111
00000000

TIL 1k
00000010
00000010
00000010
00000010
00000010
00000010
11111110
00000000

TIL 1l
00000000
00000000
00000000
00000000
00000000
00000000
11111111
00000000

TIL 1m
00000000
01110101
01010101
01010101
01110010
00000000
00000000
00000000

TIL 1n
00000000
01110111
01110101
01000110
01110101
00000000
00000000
00000000

TIL 1o
00000000
01000101
01010101
01010101
00101001
00000000
00000000
00000000

TIL 1p
00000000
01011101
11011101
01010001
01011101
00000000
00000000
00000000

TIL 1q
00000000
00011011
00010101
00010001
11010001
00000000
00000000
00000000

TIL 1r
00000000
01110110
01110101
01000101
01110110
00000000
00000000
00000000

TIL 1s
00000000
00011101
01001001
00001001
01001001
00000000
00000000
00000000

TIL 1t
00000000
01011100
11011100
01010000
01011100
00000000
00000000
00000000

TIL 1u
00000000
11011001
10101010
10001010
10001001
00000000
00000000
00000000

TIL 1v
00000000
00101011
10101001
10101001
00010011
00000000
00000000
00000000

TIL 1w
00000000
10111010
00111010
00100000
10111010
00000000
00000000
00000000

TIL 1x
10001001
11011010
10101011
10001010
10001010
00000000
00000000
10001011

TIL 1y
00010010
10111010
10010011
10010010
10011010
00000000
00000000
00000100

TIL 1z
10011101
10010001
10011001
10010001
10010000
00000000
00000000
01001100

TIL 2a
00000000
01111111
01000000
01001111
01001000
01001000
01001111
01000000

TIL 2b
00000000
11111110
00000010
11110010
00010010
00010010
111100101
00000010

TIL 2c
01111111
01000000
01000000
01000000
01000000
01000000
01000000
01000000

TIL 2d
11111110
00000010
00000010
00000010
00000010
00000010
00000010
00000010

TIL 2e
01000000
01000000
01000000
01000000
01000000
01000000
01111111
00000000

TIL 2f
00000010
00000010
00000010
00000010
00000010
00000010
11111110
00000000

TIL 2g
00000000
00000000
00000000
00000000
00000000
11111111
11111111
00000000

TIL 2h
00000110
00000110
00000110
00000110
00000110
11111110
11111110
00000000

TIL 2i
00000110
00000110
00000110
00000110
00000110
00000110
00000110
00000110

TIL 2j
00000000
11111110
11111110
00000110
00000110
00000110
00000110
00000110

TIL 2k
00000000
11111111
11111111
00000000
00000000
00000000
00000000
00000000

TIL 2l
00000000
01111111
01111111
01100000
01100000
01100000
01100000
01100000

TIL 2m
01100000
01100000
01100000
01100000
01100000
01100000
01100000
01100000

TIL 2n
01100000
01100000
01100000
01100000
01100000
01111111
01111111
00000000

TIL 2o
00000000
00001100
00010000
00001001
00000100
00011000
00000000
00000000

TIL 2p
00000000
10000110
10000101
11000101
10000101
11010110
00000000
00000000

TIL 2q
00000000
00000100
00100100
01010101
01010101
00100100
00000000
00000000

TIL 2r
00000000
00011000
10010101
01011001
01010101
10010101
00000000
00000000

TIL 2s
00000000
00001100
11010000
11001000
00000100
11011000
00000000
00000000

TIL 2t
00000000
00011000
00100011
00101011
00101010
00011011
00000000
00000000

TIL 2u
00000000
00000001
10111001
10101011
00101001
10101001
00000000
00000000

TIL 2v
00000000
00100000
00101110
10101110
00101000
10101110
00000000
00000000

TIL 2w
00000000
00101000
00101001
00111010
00101010
00101001
00000000
00000000

TIL 2x
00000000
00011000
00100011
10110010
10001011
00110010
00000010
00000000

TIL 2y
00000000
00100100
10000100
10101110
10100100
00100110
00000000
00000000

TIL 2z
00000000
11101000
10101000
11101000
10101000
10101100
00000000
00000000

TIL 3a
00000111
00000010
00000111
00000010
00000111
00000010
00000111
00000010

TIL 3b
10101010
111111111
10101010
00000010
00000111
00000010
00000111
00000010

TIL 3c
10101010
11111111
10101010
00000000
00000000
00000000
00000000
00000000

TIL 3d
00101010
00111111
00101010
00000000
00000000
00000000
00000000
00000000

TIL 3e
00011111
00100000
01100000
10100000
01100000
00111111
00100000
00111111

TIL 3f
11111000
00000100
00000110
00000101
00000110
11111100
00000100
11111100

SPR A
00000000
00011000
01011010
01111110
00011000
00111100
00100100
01100110
POS 0 1,4

SPR a
00000000
00000000
00000000
00000000
00000000
00000000
00000000
00000000
POS 0 14,1

ITM 0
00000000
00000000
00000000
00111100
01100100
00100100
00011000
00000000
NAME tea
DLG ITM_0

DLG ITM_0
You found a nice warm cup of tea

END 0
You escaped.

END undefined
You escaped.

VAR a
42


