The Green Place

# BITSY VERSION 5.1

! ROOM_FORMAT 1

PAL 0
0,0,0
111,138,85
255,255,255

PAL 1
255,255,255
112,69,36
255,224,128

ROOM 0
0,0,0,0,0,0,0,0,0,0,0,0,0,0,0,0
0,b,0,0,b,0,0,b,0,0,b,0,0,b,0,0
b,0,0,b,0,0,b,0,0,b,0,0,b,0,0,b
0,0,b,0,0,b,0,0,b,0,0,b,0,0,b,0
0,0,0,0,0,0,0,0,0,0,0,0,0,0,0,0
0,0,0,0,0,0,0,0,0,0,0,0,0,0,0,0
0,0,0,0,0,0,0,0,0,0,0,0,0,0,0,0
0,0,0,0,0,0,0,0,0,0,0,0,0,0,0,0
0,0,0,0,0,0,0,0,0,0,0,0,0,0,0,0
0,0,0,0,0,0,0,0,0,0,0,0,0,0,0,0
0,0,0,0,0,0,0,0,0,0,0,0,0,0,0,0
0,b,0,0,0,b,0,0,0,0,b,0,0,0,0,0
b,0,0,0,b,0,0,b,0,b,0,0,0,0,0,0
0,0,b,0,0,0,b,0,0,0,0,0,0,0,0,0
0,b,0,0,b,0,0,b,0,0,b,0,0,0,0,0
b,0,0,b,0,0,b,0,0,b,0,0,0,0,0,0
EXT 15,15 1 2,0
EXT 14,15 1 1,0
PAL 0

ROOM 1
b,0,0,b,0,0,b,0,0,b,0,0,b,0,0,0
0,b,0,0,b,0,0,b,0,0,b,0,0,b,0,0
0,0,b,0,0,b,0,0,b,0,0,b,0,0,b,0
0,0,0,0,0,0,0,0,0,0,0,0,0,0,0,0
0,0,0,0,0,0,0,0,0,0,0,0,0,0,0,0
0,0,0,0,0,0,0,0,0,0,0,0,0,0,0,0
0,0,0,0,0,0,0,0,0,0,0,0,0,0,0,0
0,0,0,0,0,0,0,0,0,0,0,0,0,0,0,0
0,0,0,0,0,0,0,0,0,0,0,0,0,0,0,0
0,0,0,0,0,0,0,0,0,0,0,0,0,0,0,0
0,0,0,0,0,0,0,0,0,0,0,0,0,0,0,0
0,0,0,0,0,0,0,0,0,0,0,0,0,0,0,0
0,0,0,0,0,0,0,0,0,0,0,0,0,0,0,0
b,0,b,0,b,0,b,0,b,0,b,0,b,0,b,0
0,b,0,b,0,b,0,b,0,b,0,b,0,b,0,b
b,0,b,0,b,0,b,0,b,0,b,0,b,0,b,0
EXT 15,8 2 0,7
EXT 0,8 4 15,6
EXT 1,0 0 14,15
EXT 2,0 0 15,15
PAL 0

ROOM 2
b,0,0,b,0,0,b,0,0,b,0,0,b,0,0,0
0,b,0,0,b,0,0,b,0,0,b,0,0,b,0,0
0,0,b,0,0,b,0,0,b,0,0,b,0,0,b,0
0,0,0,0,0,0,0,0,0,0,0,0,0,0,0,0
0,0,0,0,0,0,0,0,0,0,0,0,0,a,0,0
0,0,0,0,0,0,0,0,0,0,a,0,0,0,0,0
0,0,0,0,0,0,0,0,0,0,0,0,0,0,a,0
0,0,0,0,0,0,0,0,0,a,0,0,a,0,0,0
0,0,0,0,0,0,0,0,0,0,0,0,0,0,0,0
0,0,0,0,0,0,0,0,0,0,0,0,0,0,a,0
0,0,0,0,0,0,0,0,0,0,0,0,0,0,0,0
b,0,b,0,b,0,b,0,b,0,b,0,b,0,b,0
0,b,0,b,0,b,0,b,0,b,0,b,0,b,0,b
b,0,b,0,b,0,b,0,b,0,b,0,b,0,b,0
0,b,0,b,0,b,0,b,0,b,0,b,0,b,0,b
b,0,b,0,b,0,b,0,b,0,b,0,b,0,b,0
EXT 9,8 0 0,0
EXT 12,8 3 8,11
EXT 9,6 5 8,10
EXT 14,8 6 7,10
EXT 14,10 7 9,13
EXT 0,8 1 15,9
END 0 13,5
PAL 0

ROOM 3
0,0,0,0,0,0,0,0,0,0,0,0,0,0,0,0
0,0,0,0,0,0,0,0,0,0,0,0,0,0,0,0
0,0,0,0,0,0,0,0,0,0,0,0,0,0,0,0
0,0,0,0,0,0,0,0,0,0,0,0,0,0,0,0
0,0,0,0,0,0,0,0,0,0,0,0,0,0,0,0
0,0,0,c,c,c,c,c,c,c,c,c,c,0,0,0
0,0,0,c,0,0,d,0,0,0,0,0,c,0,0,0
0,0,0,c,0,0,c,0,0,0,0,0,c,0,0,0
0,0,0,c,c,c,c,0,0,c,c,c,c,0,0,0
0,0,0,c,0,0,c,0,0,c,0,0,c,0,0,0
0,0,0,c,0,0,d,0,0,d,0,0,c,0,0,0
0,0,0,c,c,c,c,0,0,c,c,c,c,0,0,0
0,0,0,0,0,0,0,d,d,0,0,0,0,0,0,0
0,0,0,0,0,0,0,0,0,0,0,0,0,0,0,0
0,0,0,0,0,0,0,0,0,0,0,0,0,0,0,0
0,0,0,0,0,0,0,0,0,0,0,0,0,0,0,0
NAME House 1
ITM 0 11,6
ITM 1 10,6
ITM 2 10,9
ITM 3 11,7
EXT 7,11 2 12,9
END 2 4,7
PAL 0

ROOM 4
b,0,0,b,0,0,b,0,0,b,0,0,b,0,0,b
0,0,b,0,0,b,0,0,b,0,0,b,0,0,b,0
0,b,0,0,b,0,0,b,0,0,b,0,0,b,0,0
0,0,0,0,0,0,0,0,0,0,0,0,0,0,0,0
0,0,0,0,0,0,0,0,0,0,0,0,0,0,0,0
0,0,0,0,0,0,0,0,0,0,0,0,0,0,0,0
0,0,0,0,0,0,0,0,0,0,0,0,0,0,0,0
0,0,0,0,0,0,0,0,0,0,0,0,0,0,0,0
0,0,0,0,0,0,0,0,0,0,0,0,0,0,0,0
0,0,0,0,0,0,0,0,0,0,0,0,0,0,0,0
0,0,0,0,0,0,0,0,0,0,0,0,0,0,0,0
b,0,b,0,b,0,b,0,b,0,b,0,b,0,b,0
0,b,0,b,0,b,0,b,0,b,0,b,0,b,0,b
b,0,b,0,b,0,b,0,b,0,b,0,b,0,b,0
0,b,0,b,0,b,0,b,0,b,0,b,0,b,0,b
b,0,b,0,b,0,b,0,b,0,b,0,b,0,b,0
NAME room 3
EXT 15,7 1 0,9
END 1 0,7
PAL 0

ROOM 5
0,0,0,0,0,0,0,0,0,0,0,0,0,0,0,0
0,0,0,0,0,0,0,0,0,0,0,0,0,0,0,0
0,0,0,0,0,0,0,0,0,0,0,0,0,0,0,0
0,0,0,0,0,0,0,0,0,0,0,0,0,0,0,0
0,0,0,c,c,c,c,c,c,c,c,c,c,0,0,0
0,0,0,c,0,0,0,0,c,0,0,0,c,0,0,0
0,0,0,c,0,0,0,0,c,0,0,0,c,0,0,0
0,0,0,c,c,c,c,d,c,d,c,c,c,0,0,0
0,0,0,c,0,0,0,0,0,0,0,0,c,0,0,0
0,0,0,c,0,0,0,0,0,0,0,0,c,0,0,0
0,0,0,c,c,c,c,0,0,c,c,c,c,0,0,0
0,0,0,0,0,0,0,d,d,0,0,0,0,0,0,0
0,0,0,0,0,0,0,0,0,0,0,0,0,0,0,0
0,0,0,0,0,0,0,0,0,0,0,0,0,0,0,0
0,0,0,0,0,0,0,0,0,0,0,0,0,0,0,0
0,0,0,0,0,0,0,0,0,0,0,0,0,0,0,0
NAME House 2
ITM 4 7,5
EXT 7,10 2 10,6
PAL 0

ROOM 6
0,0,0,0,0,0,0,0,0,0,0,0,0,0,0,0
0,0,0,0,0,0,0,0,0,0,0,0,0,0,0,0
0,0,0,0,0,0,0,0,0,0,0,0,0,0,0,0
0,0,0,0,0,0,0,0,0,0,0,0,0,0,0,0
0,0,0,c,c,c,c,c,c,c,c,c,c,0,0,0
0,0,0,c,0,0,0,0,d,0,0,0,c,0,0,0
0,0,0,c,0,0,0,0,c,0,0,0,c,0,0,0
0,0,0,c,c,c,c,d,c,c,c,c,c,0,0,0
0,0,0,c,0,0,0,0,0,0,c,0,c,0,0,0
0,0,0,c,0,0,0,e,f,0,d,0,c,0,0,0
0,0,0,c,c,c,c,d,d,c,c,c,c,0,0,0
0,0,0,0,0,0,0,0,0,0,0,0,0,0,0,0
0,0,0,0,0,0,0,0,0,0,0,0,0,0,0,0
0,0,0,0,0,0,0,0,0,0,0,0,0,0,0,0
0,0,0,0,0,0,0,0,0,0,0,0,0,0,0,0
0,0,0,0,0,0,0,0,0,0,0,0,0,0,0,0
NAME House 3
ITM 5 5,5
ITM 6 11,6
EXT 8,10 2 14,7
PAL 0

ROOM 7
0,0,0,0,0,0,0,0,0,0,0,0,0,0,0,0
0,0,0,0,0,0,0,0,0,0,0,0,0,0,0,0
0,0,0,0,0,0,0,0,0,0,0,0,0,0,0,0
0,0,0,0,0,0,0,0,0,0,0,0,0,0,0,0
0,c,c,c,c,c,c,c,c,c,c,c,c,c,c,0
0,c,0,0,0,0,0,0,h,h,h,h,h,h,c,0
0,c,h,h,h,h,h,h,h,h,h,h,h,h,c,0
0,c,0,0,0,0,0,0,0,0,0,0,0,0,c,0
0,c,0,0,h,0,0,0,0,0,0,j,0,0,c,0
0,c,0,0,0,0,0,0,0,0,0,0,0,0,c,0
0,c,0,0,h,0,0,0,0,0,0,h,0,0,c,0
0,c,0,0,0,0,0,e,g,f,0,0,0,0,c,0
0,c,c,c,c,c,c,d,c,d,c,c,c,c,c,0
0,0,0,0,0,0,0,0,0,0,0,0,0,0,0,0
0,0,0,0,0,0,0,0,0,0,0,0,0,0,0,0
0,0,0,0,0,0,0,0,0,0,0,0,0,0,0,0
NAME House 4
EXT 7,13 2 13,10
PAL 0

TIL a
00111100
01111110
11111111
01100110
01000010
01000010
00000000
00000000

TIL b
00000000
00011000
00111100
01111110
01111110
00011000
00011000
00000000
>
00000000
00011000
00111100
01111110
01111110
00011000
00011000
00000000
WAL true

TIL c
11111111
10000001
11111111
10000001
10000001
11111111
10000001
11111111

TIL d
00000000
00111100
00100100
00101100
00100100
00100100
00111100
00000000

TIL e
00000000
00000000
01111111
01000000
01000000
01000000
01111111
00000000

TIL f
00000000
00000000
11111110
00000010
00000010
00000010
11111110
00000000

TIL g
00000000
00000000
11111111
00000000
00000000
00000000
11111111
00000000

TIL h
11111111
10000001
10000001
10000001
10000001
10000001
10000001
11111111

TIL i
00000000
00000000
00111100
00100100
00100100
00100100
00100100
00100100

TIL j
11111111
10000001
10011001
10100101
10100101
10011001
10000001
11111111

SPR 10
00000000
00011000
00011000
01111110
10111101
00100100
00100100
00000000
>
00000000
00000000
00011000
00011000
01111110
10111101
00100100
00000000
NAME Person 9
DLG SPR_q
POS 7 3,10

SPR A
00000000
00011000
00011000
00111100
01111110
10111101
00100100
00100100
>
00000000
00000000
00011000
00011000
00111100
01111110
10111101
00100100
POS 0 5,4

SPR a
00011000
00011000
00011000
00111100
01111110
10111101
00100100
00100100
>
00000000
00011000
00011000
00011000
00111100
01111110
10111101
00100100
NAME Person 1
DLG SPR_0
POS 0 6,4

SPR b
00000000
00011000
00011000
01111110
10111101
00111100
00100100
00100100
>
00000000
00000000
00011000
00011000
01111110
10111101
00111100
00100100
NAME Sprite 2
DLG SPR_1
POS 0 9,4

SPR c
00000000
00000000
00000000
00111100
00100110
00100100
00011000
00000000
NAME Item Sprite 1
DLG SPR_2
POS 0 8,4

SPR d
00000000
00000000
00011000
00011000
01111110
10111101
00100100
00100100
>
00000000
00000000
00000000
00011000
00011000
01111110
10111101
00100100
NAME Person 3
DLG SPR_3
POS 2 7,7

SPR e
00000000
00111100
01011010
00011000
00111100
00011000
00011000
00011000
>
00000000
00000000
00111100
01011010
00011000
00111100
00011000
00011000
NAME Person 4
DLG SPR_4
POS 2 10,7

SPR f
00000000
00000000
01111110
01001010
01111110
00011000
00011000
00000000
NAME Item Sprite 2
DLG SPR_5
POS 1 5,3

SPR g
00111100
01000010
01011010
01000010
01111110
01111110
01111110
01111110
NAME Item Sprite 3
DLG SPR_6
POS 3 4,6

SPR h
00111100
01000010
01011010
01000010
01111110
01011010
01101110
01111110
NAME Item sprite 4
DLG SPR_7
POS 3 4,9

SPR i
00111100
01000010
01011010
01000010
01111110
01000010
01111110
01000010
NAME Item Sprite 5
DLG SPR_8
POS 3 11,9

SPR j
11111111
10011001
10011001
11111111
11111111
10011001
10011001
11111111
NAME Item Sprite 6
DLG SPR_9
POS 5 11,5

SPR k
11111111
10000001
10000101
10000001
11111111
10000001
10000001
11111111
NAME Sprite Item 7
DLG SPR_a
POS 5 9,5

SPR l
11111111
10000001
10111101
10111101
10000001
11111111
10000001
11111111
NAME Sprite Item 8
DLG SPR_b
POS 5 10,5

SPR m
00000000
01111111
10001001
10111001
10111001
10001001
01111111
00000000
NAME Sprite item 9
DLG SPR_c
POS 5 4,5

SPR n
01111110
10000001
10111101
10100101
10100101
10111101
10000001
01111110
NAME Item Sprite 10
DLG SPR_d
POS 5 4,6

SPR o
11111111
10000001
11111111
10000001
10000001
11111111
10000001
11111111
NAME Item Sprite 11
DLG SPR_e
POS 6 11,8

SPR p
00000000
00010010
00001100
10001110
01111100
00111100
00100100
00000000
>
00000000
00010010
00001100
00001110
01111100
10111100
00100100
00000000
NAME Animal 1
DLG SPR_f
POS 6 6,9

SPR q
00111100
01000010
01011010
01000010
01111110
01110110
01101110
01110110
NAME Item Sprite 12
DLG SPR_g
POS 6 4,5

SPR r
01111110
01000010
01000010
01000010
01000010
01000010
01111110
00000000
NAME Item Sprite 13
DLG SPR_h
POS 6 11,4

SPR s
00000000
00000000
00011000
00011000
01111110
00111100
00100100
00100100
>
00000000
00000000
00000000
00011000
00011000
01111110
00111100
00100100
NAME Person 5
DLG SPR_i
POS 6 4,8

SPR t
00000000
00011000
00111100
00011000
01111110
10111101
00100100
00100100
>
00000000
00000000
00011000
00111100
00011000
01111110
10111101
00100100
NAME Person 6
DLG SPR_j
POS 7 5,8

SPR u
00000000
00011000
00011000
00111100
00111100
00111100
00011000
00011000
>
00000000
00000000
00011000
00011000
00111100
00111100
00011000
00011000
NAME Waiter Person thing
DLG SPR_k
POS 7 10,11

SPR v
00000000
00111100
00100100
00100100
00100100
00100100
00111100
00000000
>
00000000
00111100
00100100
00100100
00100100
00100100
00111100
00000000
NAME Item Sprite 14
DLG SPR_l
POS 7 6,6

SPR w
00000000
00000000
00011000
00011000
01111110
10111101
00111100
00100100
>
00000000
00011000
00011000
01111110
10111101
00111100
00100100
00100100
NAME Person 7
DLG SPR_m
POS 7 4,5

SPR x
00000000
00011000
00011000
01111110
10111101
01111110
00100100
00100100
>
00000000
00000000
00011000
00011000
01111110
10111101
01111110
00100100
NAME Person 7
DLG SPR_n
POS 7 9,6

SPR y
00000000
00000000
00001000
00010000
00010000
00010000
00111000
00000000
NAME Item Sprite 15
DLG SPR_o
POS 7 11,6

SPR z
00000100
00011000
00011000
00111100
01011010
00011000
00011000
00000000
>
00000000
00000100
00011000
00011000
00111100
01011010
00011000
00000000
NAME Person 8
DLG SPR_p
POS 7 12,8

ITM 0
00000000
00000000
00000000
00111100
00100110
00100100
00011000
00000000
NAME Item 1
DLG ITM_0

ITM 1
00000000
00000000
00111100
01011010
01011010
01111110
00000000
00000000
>
00000000
00000000
00111100
01111110
00011000
01111110
00000000
00000000
NAME Item 2
DLG ITM_1

ITM 2
00000000
00000000
01111110
01000010
01000010
01111110
00000000
00000000
NAME Item 3
DLG ITM_2

ITM 3
00000000
00000000
00000000
00011000
00111100
00011000
00000000
00000000
NAME Item 4
DLG ITM_3

ITM 4
00000000
00100100
00011000
00011000
00111100
00011000
00100100
00000000
NAME Item 5
DLG ITM_4

ITM 5
00000000
00001100
00010100
00111100
00011100
00011100
00111000
00000000
>
00000000
00001100
00010100
00111100
00011100
00011100
00111000
00000000
NAME Item 6
DLG ITM_5

ITM 6
00000000
00011000
00011000
00111100
00011000
00111100
00000000
00000000
NAME Item 7
DLG ITM_6

DLG SPR_0
Hello traveler 1009. Welcome to this forest of green. A PURE GREEN FOREST!

DLG SPR_1
"""
Ah this is the most delicious tea that I ever have!
Uh.. you want some? Well too bad!
This tea is mine! 
"""

DLG SPR_2
This tea smells wondeful! Too bad that the guy next to it is greedy.

DLG SPR_3
"""
This a very green village here.
I wonder what do the have 
inside of them?
"""

DLG ITM_0
"""
You got your own tea! Nice!

"""

DLG ITM_1
You got a slime! Sticky... ew..

DLG SPR_4
"""
Well it seems I can't go to my house at the moment, because every time I tried to go to my house it always send me at the beginning!

"""

DLG SPR_5
"""
"Watch out for surprising exists"
-Clumsy Creator


  I wonder what that suppose to mean... 
"""

DLG SPR_6
"""
It's a bed that you can't sleep 
in.
That sucks.
"""

DLG ITM_2
You got a family portrait! it looks like it's a single father, a android daughter, and enhanced son! What a happy family they are!

DLG SPR_7
It's another bed that you can't sleep on! It has a nice lavender polka-dot pattern!  

DLG SPR_8
ANOTHER BED THAT YOU CAN'T SLEEP ON! It has a snowy like stripes pattern!

DLG ITM_3
"""
It's a pet rock? It's name is Trio, because it has three eyes.
. . .
Whoever named this pet rock is a stupid jokester.
"""

DLG SPR_9
It's a stove. A basic stove.

DLG SPR_a
It's a fridge. Inside of it is just a lot of meat and vegetables and expired drinks.

DLG SPR_b
It's a counter, probably for making food.

DLG SPR_c
Looks like somebody is sleeping in this bed, how nice.

DLG SPR_d
"""
It's a table, and on the table is a paper that says:"Dear Clumsy Creator, please stop using stupid jokes, there not really funny and there stupid"
They put stupid twice... the guy who wrote this is stupid (which is the guy sleeping)
"""

DLG ITM_4
You got a doll! You stole the doll... your a bad person.

DLG SPR_e
It's a large crate that looks heavy.

DLG SPR_f
"""
BARK! BARK!

"""

DLG SPR_g
It's a bed that you can't sleep on it has a shocking design to it!

DLG ITM_5
You got a dragon doll! It doesn't look like one though..

DLG SPR_h
It's a anime poster! It's a dark pink haired girl saying mechokku, meaning mega shock!

DLG SPR_i
It's a android.. it doesn't talk though that kinda sucks..

DLG ITM_6
You got a crying snowman doll! You kinda feel bad for it even though it's just a doll.

DLG SPR_j
"""
This restaurant is super good!
You should try out my favorite food called "Flambe Steak"!
"""

DLG SPR_k
Welcome to Pruple Restaurant!

DLG SPR_l
"""
It's the menu of the resteraunt!
Here are today's dishes and drinks!
Flambe Steak
Spicy Attention Meat
Basic Grilled Steak
Super Sour Lemonade
Choo-Choo Milk

"""

DLG SPR_m
I'm sorry if you want some food, we ran out because we ran out of ingredients.

DLG SPR_n
My guitar is broken so i can't play music right now.

DLG SPR_o
It's a mike but you can't sing on it.

DLG SPR_p
I'm on break so I'll sing later.

DLG SPR_q
I'm full, I ate too many foods!

END 0
I'm so so sorry for the errors and crap just hang in there ok MC?

END 1
I'm sorry... it's just that.. my hands! There out of control but sometimes they help ok!? Just screw off...

END 2
Wow i can't believe you found this ending! Naisu hagyuu~!

VAR a
42

