You found a mineshaft.

# BITSY VERSION 3.5

! ROOM_FORMAT 1

PAL 0
51,105,30
139,195,74
197,225,165

PAL 1
62,39,35
121,85,72
188,170,164

PAL 2
33,33,33
158,158,158
238,238,238

PAL 3
33,33,33
255,87,34
255,171,145

ROOM 0
0,0,0,0,0,0,0,0,0,0,0,0,0,0,0,0
0,0,c,c,c,c,c,c,c,c,c,c,c,c,c,c
0,0,0,0,0,e,0,0,0,0,e,f,0,0,0,0
b,b,b,b,b,a,b,b,b,b,a,b,b,b,b,b
0,0,d,0,c,a,c,0,0,c,a,c,0,0,0,0
0,0,0,0,c,a,c,0,0,c,a,c,0,d,0,0
0,d,0,0,c,a,c,0,0,c,a,c,0,0,0,0
0,0,0,0,c,a,c,0,0,c,a,c,0,0,0,0
0,0,0,0,c,a,c,0,0,c,a,c,0,0,d,0
0,0,0,0,c,a,c,0,0,c,a,c,0,0,0,0
0,0,0,0,c,a,c,c,c,c,a,c,c,c,c,0
0,0,0,0,c,a,c,c,0,0,a,0,0,0,c,0
0,0,0,0,c,a,c,0,b,b,b,b,b,b,0,0
0,0,0,d,c,a,c,0,0,0,0,0,0,0,0,0
0,0,0,0,c,a,c,0,0,d,0,0,0,0,0,0
0,0,0,0,c,a,c,0,0,0,0,0,0,0,0,0
WAL c,b
EXT 5,15 1 5,0
PAL 0

ROOM 1
0,0,0,d,c,a,c,0,0,0,0,0,0,0,0,0
0,0,0,c,c,a,c,c,c,c,0,0,0,0,0,0
0,0,c,0,0,a,0,0,0,k,c,0,j,0,0,0
0,0,0,b,b,b,b,b,b,g,c,0,0,0,0,0
0,0,0,0,0,0,0,0,c,h,c,0,0,0,0,0
0,d,0,0,0,0,0,c,c,i,c,c,c,l,0,0
0,0,0,d,0,0,c,e,0,h,0,0,0,0,c,0
0,0,0,0,0,0,c,a,b,b,b,b,b,b,0,0
c,c,c,c,c,c,c,a,c,0,0,0,0,0,0,0
f,0,0,0,e,0,0,a,0,c,0,0,0,0,0,0
b,b,b,b,a,b,b,b,b,0,0,0,0,d,0,0
0,0,0,c,a,c,0,0,0,0,0,0,0,0,0,0
0,0,0,d,a,c,0,0,0,0,0,d,0,0,0,0
0,0,0,c,a,c,0,0,d,0,0,0,0,0,0,0
0,0,0,c,a,c,0,0,0,0,0,0,0,0,0,0
0,0,0,c,a,c,0,0,0,0,0,0,0,0,0,0
WAL b,c,d
EXT 5,0 0 5,15
EXT 0,9 2 15,9
EXT 4,15 3 4,0
PAL 1

ROOM 2
0,0,a,0,0,0,0,0,0,0,0,0,0,0,0,0
0,0,a,s,0,f,k,0,0,0,0,0,0,0,0,0
0,b,b,b,b,b,g,0,0,0,0,d,0,0,0,0
0,0,0,0,0,0,h,0,0,0,0,0,0,0,0,0
0,0,0,0,0,0,i,0,0,0,0,c,c,c,c,0
0,0,0,0,0,0,h,0,0,0,c,0,0,0,0,c
0,0,0,0,0,0,i,0,0,0,0,b,b,a,b,0
0,0,d,0,0,0,0,0,0,0,0,0,d,a,0,0
0,0,0,0,0,0,c,c,c,c,c,c,c,a,c,c
0,0,0,k,0,0,0,0,0,0,0,0,0,a,0,0
0,0,0,m,b,b,b,b,b,b,b,b,b,b,b,b
0,0,0,i,0,0,0,0,0,0,0,0,0,0,0,0
0,0,0,h,0,0,0,0,0,0,0,0,0,0,0,0
0,0,0,i,0,0,0,0,d,0,0,0,0,0,0,0
0,0,j,0,0,0,0,0,0,0,0,0,d,0,0,0
0,0,0,0,0,0,0,0,0,0,0,0,0,0,0,0
WAL b,c
EXT 15,9 1 0,9
END 2 12,5
PAL 1

ROOM 3
0,0,0,c,a,c,0,0,0,0,0,0,0,0,0,0
c,c,c,c,a,c,c,c,c,c,c,0,0,0,0,0
0,0,0,0,a,0,0,0,e,0,0,0,0,0,0,0
b,b,b,b,b,b,b,b,a,b,b,0,0,0,0,0
0,0,0,0,0,0,0,c,a,c,0,0,0,d,0,0
0,d,0,0,0,0,0,c,r,c,0,0,0,0,0,0
0,0,0,0,d,0,0,c,e,c,0,0,0,0,0,0
0,0,0,0,0,0,0,c,a,c,0,0,0,0,0,0
0,0,0,j,0,0,0,c,r,c,0,d,0,0,0,0
0,0,0,0,0,0,0,c,e,c,0,0,0,0,0,0
0,0,d,0,0,0,0,c,a,c,0,0,0,0,0,0
0,0,0,0,0,0,0,c,a,c,0,0,0,0,0,0
0,0,0,0,0,0,0,c,r,c,0,0,0,0,0,0
0,0,0,0,c,c,c,0,0,0,c,c,c,d,0,0
0,0,0,c,k,0,0,0,0,0,0,0,k,c,0,0
0,0,0,c,m,b,b,b,b,b,b,b,g,0,0,0
WAL c,b
EXT 4,0 1 4,15
EXT 4,15 4 4,0
EXT 12,15 4 12,0
EXT 0,2 5 15,2
PAL 2

ROOM 4
0,0,0,c,h,c,0,0,d,0,0,c,h,c,0,0
0,0,0,c,i,c,0,0,0,0,0,c,i,c,0,0
0,0,0,c,h,c,0,0,0,0,0,c,h,c,d,0
0,0,0,c,i,c,0,0,0,c,c,c,i,c,0,0
0,d,0,c,0,c,0,0,0,0,0,0,h,0,c,0
0,0,0,c,0,c,0,0,b,b,b,b,b,b,0,0
0,0,0,c,0,c,0,0,0,0,0,0,0,0,0,0
0,0,0,c,0,c,0,0,d,0,0,d,0,0,0,0
0,0,0,c,0,c,0,0,0,0,0,0,0,0,0,0
0,0,0,c,0,c,0,0,0,0,0,0,0,0,0,0
0,0,0,c,0,c,0,0,0,d,0,0,0,0,0,0
0,0,0,c,0,c,0,0,0,0,0,0,0,0,0,0
0,0,0,c,0,c,0,0,0,0,0,0,0,0,d,0
0,0,0,c,0,c,0,0,0,0,0,0,0,0,0,0
o,0,o,c,0,c,o,0,t,0,o,0,o,0,o,0
n,n,n,n,n,n,n,n,n,n,n,n,n,n,n,n
WAL n,b,c
END 0 4,14
END 1 9,4
PAL 3

ROOM 5
0,0,0,0,0,0,0,0,0,0,0,0,0,0,0,0
0,0,d,0,0,0,0,0,0,0,d,0,c,c,c,c
0,0,0,0,0,d,0,0,0,0,0,c,k,0,0,0
0,d,0,0,0,0,0,0,0,0,j,c,m,b,b,b
0,0,0,0,0,0,0,0,0,c,c,c,h,c,0,0
0,0,0,0,0,0,0,0,c,a,c,c,i,c,d,0
0,0,0,0,0,0,0,0,c,a,0,0,h,c,0,0
0,0,0,0,0,0,0,0,c,a,0,0,i,c,0,0
0,0,0,0,d,0,0,0,0,b,b,b,g,c,0,0
0,0,0,0,0,0,0,0,0,0,0,c,i,c,0,0
0,0,0,0,0,0,0,0,0,0,0,c,h,c,0,0
0,0,0,0,0,0,0,0,0,0,0,c,i,c,0,0
0,0,c,c,c,c,c,c,c,c,c,c,h,c,c,0
0,0,0,0,d,0,0,0,d,0,0,0,i,0,c,0
0,0,b,b,b,b,b,b,b,b,b,b,b,b,d,0
0,0,0,0,0,0,0,0,0,0,0,0,0,0,0,0
WAL b,c
EXT 15,2 3 0,2
END 3 10,7
PAL 2

TIL a
01000010
01111110
01000010
01111110
01000010
01111110
01000010
01111110

TIL b
11111111
11110111
10100101
00000000
00000000
00000000
00000000
00000000

TIL c
00000000
00000000
00000000
00000000
00000000
00000000
00000000
00000000

TIL d
00010000
00001000
00000000
10000010
01000001
00000000
00010000
00001000

TIL e
00000000
00000000
00000000
00000000
00000000
01000010
01000010
01111110

TIL f
00000000
11111111
10000001
10110101
10000001
11111111
00010000
00010000

TIL g
11111100
11111110
10110100
00010000
00010000
00010000
00010000
00010000

TIL h
00010000
00010000
00010000
00010000
00010000
00010000
00010000
00010000
>
00010000
00010000
00001000
00001000
00001000
00001000
00010000
00010000

TIL i
00010000
00010000
00010000
00010000
00010000
00010000
00010000
00010000
>
00010000
00010000
00100000
00100000
00100000
00100000
00010000
00010000

TIL j
01000000
10000000
00011000
00111100
00111100
00011000
00000001
00000010
>
00000000
01000000
00000000
00011000
00011000
00000000
00000010
00000000

TIL k
00000000
00000000
00000000
00000000
00010000
00101000
00010000
00010000

TIL l
00000000
00000100
01000100
00100010
00100010
01000100
01000000
00100000
>
00100000
01000000
01000000
00100100
00000100
00000010
00000010
00000100

TIL m
00111111
01111111
00110100
00010000
00010000
00010000
00010000
00010000

TIL n
11111111
00000000
00010001
00100010
01000100
10001000
00010001
00100010
>
11111111
00000000
01000100
10001000
00010001
00100010
01000100
10001000

TIL o
00000100
00001010
00000100
00100000
01010000
00100000
00000000
00000000
>
00100000
01010000
00100000
00000100
00001010
00000100
00100000
01010000

TIL p
11111111
11111111
11111111
11111111
11111111
11111111
11111111
11111111

TIL q
00000000
00000000
00000000
00000000
00000000
00000000
00000000
00000000

TIL r
01000010
01111110
01000010
00000000
00000000
00000000
00000000
00000000

TIL s
00000000
00000000
11111110
01000001
11111111
10000001
10000001
11111111
>
00000000
11111110
01000001
01000001
11111111
10000001
10000001
11111111

TIL t
00000000
00000000
00011000
00100100
00100100
00111100
01111110
11111111
>
00000000
00011000
00100100
00100100
00111100
01111110
11111111
10111101

SPR A
00111100
00100100
00100100
01111110
11111111
10111101
00100100
00100100
>
00000000
00111100
00100100
01100110
11111111
10111101
00111100
00100100
POS 0 2,2

SPR a
11111111
10000001
10101101
10000001
10000001
11111111
00100100
00100100
POS 0 1,2

SPR b
00000000
00000000
11111110
01000001
11111111
10000001
10000001
11111111
>
00000000
11111110
01000001
01000001
11111111
10000001
10000001
11111111
POS 0 13,11

SPR c
11111111
11000011
10000001
11111111
11000011
10000001
10000001
11111111
POS 1 13,6

SPR d
00000000
01111111
01011101
01001001
01101011
01101011
01001001
01111111
POS 1 8,9

SPR e
00001100
00011000
11111111
10011110
10011110
11111111
00011000
00001100
POS 2 5,9

SPR f
00000000
01001000
00000000
00100010
00000000
00000000
01000100
00000000
>
00000000
00101000
00000000
00100100
00000000
00000000
00100100
00000000
POS 3 11,2

SPR g
00001100
00011000
11111111
10011110
10011110
11111111
00011000
00001100
POS 3 8,14

SPR h
00000000
00000000
00000111
01111111
11111110
01010100
10010010
10010010
POS 4 8,4

SPR i
00111100
00100100
00100100
00100100
01111110
01111110
01111110
00111100
>
00111100
00100100
00100100
01100110
01111110
01111110
00111100
00111100
POS 2 11,5

SPR j
00000100
00010000
00101000
01000100
00101000
00010010
01000101
00000010
>
00000000
00010010
00101000
01000100
00101000
10010010
00000101
00000010
POS 4 13,4

SPR k
00011000
00011000
00011000
00011000
00000000
00011000
00011000
00000000
>
00000000
00011000
00011000
00011000
00011000
00000000
00011000
00011000
POS 0 15,2

SPR l
00011000
00100100
00100100
01111110
11111111
10111101
00111100
00100100
POS 5 11,7

SPR m
00000000
00000000
00000000
00000000
00111000
01010100
01111100
01111100
>
00000000
00000000
00000000
00000000
00011100
00101010
00111110
00111110
POS 5 2,13

DLG a
("Stay Away")

DLG b
(A chest full of dirt)

DLG c
(Someone built a furnace here.)

DLG d
(A working workbench)

DLG e
Oh no... He's dead. I hope he would respawn soon.

DLG f
A redstone block? Am I playing Minecraft right now?

DLG g
...sorry

DLG j
Finally, I found DIAMOND.

DLG k
(created by Saranomy using Bitsy editor)

DLG l
(A strange man gave you a gold bar.)

DLG m
(A tiny green slime)

END 0
You tried to swim in lava.

END 1
You were slain by spider.

END 2
You were killed by magic.

END 3
You were slain by Steve.

