uh-oh, this protest looks like it might get ugly.

# BITSY VERSION 2.3

! ROOM_FORMAT 1

PAL 0
0,0,0
64,128,128
255,255,255

ROOM 0
0,0,0,0,0,0,0,0,0,0,0,0,0,0,0,0
0,0,0,0,0,0,0,0,0,0,0,0,0,0,0,0
d,b,0,0,0,0,0,0,0,0,0,0,0,0,0,0
m,c,e,0,0,0,0,0,0,0,0,0,0,0,0,0
a,c,f,0,0,0,0,0,0,0,0,0,0,0,0,0
a,c,f,0,0,0,0,0,0,0,0,0,0,0,0,0
l,c,f,0,0,0,0,0,0,0,0,0,0,0,0,0
a,c,f,0,0,0,0,0,0,0,0,0,0,0,0,0
m,c,f,0,0,0,0,0,0,0,0,0,0,0,0,0
i,g,f,0,0,0,0,0,0,0,0,0,0,0,0,0
k,j,h,0,0,0,0,0,0,0,0,0,0,0,0,0
0,0,0,0,0,0,0,0,0,0,0,0,0,0,0,0
d,d,b,0,0,0,0,0,0,0,0,0,0,0,0,0
m,a,c,e,0,0,n,d,d,d,d,d,d,d,d,d
a,l,c,f,0,0,o,a,a,a,l,a,a,m,a,a
m,a,c,f,0,0,o,a,m,a,a,a,a,a,a,a
WAL a,f,e,d,c,b,k,j,i,h,g,n,o,p,m,l
EXT 15,12 1 1,12
EXT 15,11 1 1,11
EXT 15,10 1 1,10
EXT 15,9 1 1,9
EXT 15,8 1 1,8
EXT 15,7 1 1,7
EXT 15,5 1 1,5
EXT 15,4 1 1,4
EXT 15,6 1 1,6
EXT 15,3 1 1,3

ROOM 1
0,0,0,0,0,0,0,0,0,0,o,a,m,a,a,a
0,0,0,0,0,0,0,0,0,0,o,a,a,a,p,a
0,0,0,0,0,0,0,0,0,0,q,i,i,i,i,i
0,0,0,0,0,0,0,0,0,0,r,k,k,k,k,k
0,0,0,0,0,0,0,0,0,0,0,0,0,0,0,0
0,0,0,0,0,0,0,0,0,0,0,0,0,0,0,0
0,0,0,0,0,0,0,0,0,0,0,0,0,0,0,0
0,0,0,0,0,0,0,0,0,0,0,0,0,0,0,0
0,0,0,0,0,0,0,0,0,0,0,0,0,0,0,0
0,0,0,0,0,0,0,0,0,0,0,0,0,0,0,0
0,0,0,0,0,0,0,0,0,0,0,0,0,0,0,0
0,0,0,0,0,0,0,0,0,0,0,0,0,0,0,0
0,0,0,0,0,0,0,0,0,0,0,0,0,0,0,0
d,d,d,d,d,d,d,d,d,d,d,d,d,b,0,0
a,m,a,a,a,a,a,a,a,a,p,a,a,c,e,0
a,a,a,a,a,m,a,a,a,a,a,a,a,c,f,0
WAL m,n,o,p,l,k,j,i,h,g,f,e,d,c,b,a,q,r
EXT 0,12 0 14,12
EXT 0,11 0 14,11
EXT 0,10 0 14,10
EXT 0,9 0 14,9
EXT 0,8 0 14,8
EXT 0,7 0 14,7
EXT 0,6 0 14,6
EXT 0,5 0 14,5
EXT 0,4 0 14,4
EXT 15,14 2 1,14
EXT 15,13 2 1,13
EXT 15,12 2 1,12
EXT 15,11 2 1,11
EXT 15,10 2 1,10
EXT 15,9 2 1,9
EXT 15,8 2 1,8

ROOM 2
a,a,m,a,a,a,a,a,a,c,f,0,0,0,0,0
a,a,a,a,a,l,a,a,a,c,f,0,0,0,0,0
i,i,i,i,i,i,i,i,i,g,f,0,0,n,d,d
k,k,k,k,k,k,k,k,k,j,h,0,0,o,a,a
0,0,0,0,0,0,0,0,0,0,0,0,0,o,a,l
0,0,0,0,0,0,0,0,0,0,0,0,0,o,a,a
0,0,0,0,0,0,0,0,0,0,0,0,0,o,a,a
0,0,0,0,0,0,0,0,0,0,0,0,0,o,m,a
0,0,0,0,0,0,0,0,0,0,0,0,0,o,a,a
0,0,0,0,0,0,0,0,0,0,0,0,0,o,a,p
0,0,0,0,0,0,0,0,0,0,0,0,0,o,a,a
0,0,0,0,0,0,0,0,0,0,0,0,0,q,i,i
0,0,0,0,0,0,0,0,0,0,0,0,0,r,k,k
0,0,0,0,0,0,0,0,0,0,0,0,0,0,0,0
n,d,d,d,d,d,d,d,d,b,0,0,0,n,d,d
o,p,a,a,a,a,a,p,a,c,e,0,0,o,a,a
WAL k,j,i,h,f,g,a,c,n,q,t,p,m,l,e,b,o,r,d
EXT 15,13 3 1,13

ROOM 3
0,0,0,0,0,0,0,0,0,0,0,0,0,0,0,0
0,0,0,0,0,0,0,0,0,0,0,0,0,0,0,0
d,d,d,d,d,d,d,d,d,d,d,d,d,b,0,0
a,a,a,a,a,a,a,a,a,a,a,a,a,c,e,0
a,a,a,a,a,a,a,a,a,m,a,a,a,c,f,0
a,a,a,l,a,a,a,a,a,a,a,a,a,c,f,0
a,a,a,a,a,a,a,a,a,a,a,a,a,c,f,0
a,a,a,a,a,a,a,a,p,a,a,a,a,c,f,0
a,a,a,a,a,a,a,a,a,a,a,a,a,c,f,0
p,a,a,a,a,a,a,a,a,a,a,a,a,c,f,0
a,a,a,a,a,a,a,a,a,a,a,a,a,c,f,0
i,i,i,i,i,i,i,i,i,u,a,a,a,c,f,0
k,k,k,k,k,k,k,k,k,v,a,m,a,c,f,0
0,0,0,0,0,0,0,0,w,t,a,a,a,c,f,0
d,d,d,d,d,d,d,d,d,s,a,a,a,c,f,0
a,a,a,a,a,a,a,a,a,a,a,a,a,c,f,0
WAL t,a,k,l,m,p,s,v,u,d,i,c,b,f
EXT 8,13 4 3,3
EXT 0,13 2 14,13

ROOM 4
15,15,15,16,15,15,15,15,15,15,15,15,15,15,15,15
15,15,15,16,15,15,15,15,15,15,15,15,15,15,15,15
15,15,y,z,z,z,z,z,z,z,z,z,z,10,15,15
15,15,x,0,0,0,0,0,0,0,0,0,0,17,15,15
15,15,x,0,0,0,0,0,0,0,0,0,0,18,15,15
15,15,x,1h,0,0,0,0,0,0,0,0,0,19,15,15
15,15,x,0,0,0,0,0,0,0,0,0,0,1j,15,15
15,15,x,0,0,0,0,0,0,0,0,0,0,11,15,15
15,15,x,0,0,0,0,0,0,0,0,0,0,11,15,15
15,15,x,1e,0,0,0,0,0,0,0,0,0,11,15,15
15,15,x,0,0,0,0,0,0,0,0,0,0,11,15,15
15,15,1f,0,1d,0,0,0,0,0,0,0,0,0,z,z
15,15,1g,1c,0,0,0,0,0,0,0,0,0,0,13,13
15,15,1i,1a,1b,13,13,13,13,13,13,13,13,12,15,15
15,15,15,15,15,15,15,15,15,15,15,15,15,15,15,15
15,15,15,15,15,15,15,15,15,15,15,15,15,15,15,15
WAL 15,1b,1a,1f,1g,1i,19,17,18
EXT 3,2 3 7,13
EXT 15,11 5 1,11
EXT 15,12 5 1,12

ROOM 5
15,15,15,15,15,15,15,15,15,15,15,15,x,11,15,15
15,15,15,15,15,15,15,15,15,15,15,15,x,11,15,15
15,15,y,z,z,z,z,z,z,z,1k,z,0,11,15,15
15,15,x,0,0,0,0,0,0,0,1l,0,0,11,15,15
15,15,x,0,0,0,0,0,0,0,1l,0,0,11,15,15
15,15,1o,1n,1n,1n,1n,1n,1n,1n,1m,0,0,11,15,15
15,15,x,0,0,0,0,0,0,0,0,0,0,11,15,15
15,15,x,0,0,0,0,0,0,0,0,0,0,11,15,15
15,15,x,0,0,0,0,0,0,0,0,0,0,11,15,15
15,15,x,0,0,0,0,0,0,0,0,0,0,11,15,15
15,15,x,0,0,0,0,0,0,0,0,0,0,11,15,15
z,z,0,0,0,0,0,0,0,0,0,0,0,11,15,15
13,13,0,0,0,0,0,0,0,0,0,0,0,11,15,15
15,15,14,13,13,13,13,13,13,13,13,13,13,12,15,15
15,15,15,15,15,15,15,15,15,15,15,15,15,15,15,15
15,15,15,15,15,15,15,15,15,15,15,15,15,15,15,15
WAL 15,1n,1m,1l,1k
EXT 0,11 4 14,11
EXT 0,12 4 14,12
EXT 13,0 6 13,14
EXT 12,0 6 12,14

ROOM 6
15,15,15,15,15,15,15,15,15,15,15,15,15,15,15,15
15,15,15,15,15,15,15,15,15,15,15,15,15,15,15,15
15,15,15,15,15,15,15,15,15,15,15,15,15,15,15,15
15,15,15,15,15,15,15,15,15,15,15,15,15,15,15,15
15,15,15,15,15,15,15,15,15,15,15,15,15,15,15,15
15,15,15,15,15,15,15,15,15,15,15,15,15,15,15,15
15,y,z,z,z,z,z,z,z,z,z,z,z,z,10,15
15,x,0,0,0,0,0,0,0,0,0,0,0,0,11,15
15,x,0,0,0,0,0,0,0,0,0,0,0,0,11,15
15,x,0,0,0,0,0,0,0,0,0,0,0,0,11,15
15,14,13,13,13,13,13,13,13,13,13,13,0,0,12,15
15,15,15,15,15,15,15,15,15,15,15,15,x,11,15,15
15,15,15,15,15,15,15,15,15,15,15,15,x,11,15,15
15,15,15,15,15,15,15,15,15,15,15,15,x,11,15,15
15,15,15,15,15,15,15,15,15,15,15,15,x,11,15,15
15,15,15,15,15,15,15,15,15,15,15,15,x,11,15,15
WAL 15,1n,1m,1l,1k
EXT 9,8 7 9,8
EXT 13,15 5 13,1
EXT 12,15 5 12,1

ROOM 7
0,0,0,0,0,0,0,0,0,0,0,0,0,0,0,0
0,0,0,0,0,0,0,0,0,0,0,0,0,0,0,0
0,0,0,0,0,0,0,0,0,0,0,0,0,0,0,0
0,0,0,0,0,0,0,0,0,0,0,0,0,0,0,0
0,0,0,0,0,0,0,0,0,0,0,0,0,0,0,0
0,0,0,0,0,0,0,0,0,0,0,0,0,0,0,0
0,0,0,0,0,0,0,0,0,0,0,0,0,0,0,0
0,0,0,0,0,0,0,0,1p,1p,1p,0,0,0,0,0
0,0,0,0,0,0,0,0,1p,0,1p,0,0,0,0,0
0,0,0,0,0,0,0,0,1p,1p,1p,0,0,0,0,0
0,0,0,0,0,0,0,0,0,0,0,0,0,0,0,0
0,0,0,0,0,0,0,0,0,0,0,0,0,0,0,0
0,0,0,0,0,0,0,0,0,0,0,0,0,0,0,0
0,0,0,0,0,0,0,0,0,0,0,0,0,0,0,0
0,0,0,0,0,0,0,0,0,0,0,0,0,0,0,0
0,0,0,0,0,0,0,0,0,0,0,0,0,0,0,0
WAL 15,1n,1m,1l,1k,1p

TIL 10
11111111
00000001
00000001
00000001
00000001
00000001
00000001
00000001

TIL 11
00000001
00000001
00000001
00000001
00000001
00000001
00000001
00000001

TIL 12
00000001
00000001
00000001
00000001
00000001
00000001
00000001
11111111

TIL 13
00000000
00000000
00000000
00000000
00000000
00000000
00000000
11111111

TIL 14
10000000
10000000
10000000
10000000
10000000
10000000
10000000
11111111

TIL 15
10101010
01010101
10101010
01010101
10101010
01010101
10101010
01010101

TIL 16
10100100
00111101
10100100
00111101
10100100
00111101
10100100
00111101

TIL 17
11111111
10000001
10111011
10101011
10111111
10101011
10111011
10000001

TIL 18
10000001
10000001
10000001
10000001
10000001
10000001
10000001
10000001

TIL 19
10000001
10000001
10111011
10101011
10111111
10101011
10111011
11111111

TIL a
11111111
11111111
11111111
11111111
11111111
11111111
11111111
11111111

TIL b
00000000
00000000
00000000
11111000
00001100
11101100
11101010
11101010

TIL c
11101011
11101011
11101011
11101011
11101011
11101011
11101011
11101011

TIL d
00000000
00000000
00000000
11111111
00000000
11111111
11111111
11111111

TIL e
00000000
00000000
10000000
10000000
11000000
11000000
11100000
11100000

TIL f
11100000
11100000
11100000
11100000
11100000
11100000
11100000
11100000

TIL g
11101011
11101011
00001011
11111011
00000011
11111011
11111101
11111101

TIL h
11100000
11100000
01100000
01100000
10100000
10100000
11000000
00000000

TIL i
11111111
11111111
00000000
11111111
00000000
11111111
11111111
11111111

TIL j
11111110
11111110
11111111
11111111
11111111
11111111
11111111
00000000

TIL k
11111111
11111111
11111111
11111111
11111111
11111111
11111111
00000000

TIL l
11111111
11111111
11110111
11111111
11111111
11111111
11111111
11111111

TIL m
11111111
11111111
11111111
11111111
11111111
11111111
11111011
11111111

TIL n
00000000
00000000
00000000
01111111
01000000
01011111
01011111
01011111

TIL o
01011111
01011111
01011111
01011111
01011111
01011111
01011111
01011111

TIL p
11111111
11111111
11111111
11011111
11111111
11111111
11111111
11111111

TIL q
01011111
01011111
01000000
01111111
00000000
01111111
00111111
00111111

TIL r
00011111
00011111
00001111
00001111
00000111
00000111
00000011
00000000

TIL s
00001011
00001011
00001011
11111011
00000011
11111111
11111111
11111111

TIL t
00001011
00001011
00001011
00001011
00001011
00001011
00001011
00001011

TIL u
11111111
11111111
00000011
11111011
00001011
11101011
11101011
11101011

TIL v
11101011
11101011
11101011
11101011
11101011
11101011
11101011
00001011

TIL w
00000000
00111100
01000010
10100101
10111101
01100110
00111100
00000000

TIL x
10000000
10000000
10000000
10000000
10000000
10000000
10000000
10000000

TIL y
11111111
10000000
10000000
10000000
10000000
10000000
10000000
10000000

TIL z
11111111
00000000
00000000
00000000
00000000
00000000
00000000
00000000

TIL 1a
00000000
00000000
00000000
00000000
01111111
01000000
01000000
11111111

TIL 1b
00000000
00000000
00000000
00000000
11110000
00010000
00010000
11111111

TIL 1c
00000000
00100000
01110000
11100000
01000110
00000110
00001100
00000100

TIL 1d
00000000
00010000
00111000
00011100
00001000
01100000
11000000
01000000

TIL 1e
00011000
00011110
00011110
00011110
00000110
01100000
01110000
00110000

TIL 1f
10000000
10000000
11110000
10010000
10010000
10010000
10010000
10010000

TIL 1g
10010000
10010000
10010000
10010000
11110000
10010000
10010000
10010000

TIL 1h
00000000
01111100
01001100
01010100
01111100
00010000
00101000
00000000

TIL 1i
10010000
10010000
10010000
10010000
11110000
10000000
10000000
11111111

TIL 1j
01000101
01000101
00000001
00000001
00000001
00000001
00000001
00000001

TIL 1k
11111111
00000010
00000010
00000010
00000010
00000010
00000010
00000010

TIL 1l
00000010
00000010
00000010
00000010
00000010
00000010
00000010
00000010

TIL 1m
00000010
11111110
00000010
00000010
00000010
00000010
11111110
00000000

TIL 1n
00000000
11111111
00000000
00000000
00000000
00000000
11111111
00000000

TIL 1o
10000000
11111111
10000001
11111111
10000001
11111111
10000001
11111111

TIL 1p
00000000
00000000
00000000
00000000
00000000
00000000
00000000
00000000

SPR 10
00010000
00010000
00111000
01010100
00010000
00101000
00101000
00101000
POS 1 6,3

SPR 11
00000000
00010000
10111000
01010000
00010000
00110000
00101000
00101000
>
00000000
00010000
10111000
01010000
00010000
00110000
00101000
00001000
POS 1 7,3

SPR 12
00000010
00010100
00111000
01010000
00010000
00011000
00101000
00101000
>
00000100
00010100
00111000
01010000
00010000
00011000
00101000
00101000
POS 1 8,4

SPR 13
00000000
00010000
10111000
01010000
00010000
00110000
00101000
00101000
>
00000000
00010000
10111000
01010000
00010000
00110000
00101000
00001000
POS 1 9,5

SPR 14
00010000
00010000
00111000
01010100
00010000
00101000
00101000
00101000
POS 1 10,4

SPR 15
00000000
01010000
01111000
01010000
00010000
00110000
00101000
00101000
>
00000000
00010000
10111000
01010000
00010000
00111000
00101000
00101000
POS 1 11,5

SPR 16
00000010
00010100
00111000
01010000
00010000
00011000
00101000
00101000
>
00000100
00010100
00111000
01010000
00010000
00011000
00101000
00101000
POS 1 12,6

SPR 17
00000000
00010000
10111000
01010000
00010000
00110000
00101000
00101000
>
00000000
00010000
10111000
01010000
00010000
00110000
00101000
00001000
POS 1 13,6

SPR 18
00000010
00010100
00111000
01010000
00010000
00011000
00101000
00101000
>
00000100
00010100
00111000
01010000
00010000
00011000
00101000
00101000
POS 1 14,6

SPR 19
00010000
00010000
00111000
01010100
00010000
00101000
00101000
00101000
POS 1 15,7

SPR 20
11100000
01100000
01101100
01110110
01100110
01100110
11100110
00000000
POS 4 12,5

SPR 21
00000000
00000000
00111100
01100110
01100000
01100110
00111100
00000000
POS 4 4,10

SPR 22
00011100
00110110
00110000
01111000
00110000
00110000
00110000
01111000
POS 4 2,10

SPR 23
00000000
00000000
01111100
01100110
01100110
01100110
01100110
00000000
POS 4 8,9

SPR 24
00000000
00000000
01100110
01100110
01100110
01100110
00111011
00000000
POS 5 11,13

SPR 25
00000000
00000000
01100110
01100110
01100110
00111100
00011000
01110000
POS 4 8,7

SPR 26
00010000
00010000
00111000
01010100
00010000
00101000
00101000
00101000
POS 4 12,3

SPR 27
00010000
00010000
00111000
01010100
00010000
00101000
00101000
00101000
POS 4 5,11

SPR 28
00010000
00010000
00111000
01010100
00010000
00101000
00101000
00101000
POS 4 9,8

SPR 29
00000000
00000000
01111110
01001100
00011000
00110010
01111110
00000000
POS 4 4,5

SPR A
00011000
00000000
00111000
00011000
00011000
00011000
00111100
00000000
POS 0 4,14

SPR a
00010000
00010100
00111000
01010000
00110000
00011000
00101000
00101000
POS 0 3,2

SPR b
00000000
00010000
10111000
01010100
00010000
00011000
00101000
00101000
POS 0 4,1

SPR c
00000000
00010000
10111000
01010000
00010000
00110000
00101000
00101000
>
00000000
01010000
01111000
01010000
00010000
00110000
00101000
00101000
POS 0 5,1

SPR d
00010000
00010000
00111000
01010100
00010000
00101000
00101000
00101000
>
00010000
00010000
01111100
00010000
00010000
00101000
00101000
00101000
POS 0 6,2

SPR e
00000010
00010100
00111000
01010000
00010000
00011000
00101000
00101000
>
00000100
00010100
00111000
00110000
00010000
00011000
00101000
00101000
POS 0 7,2

SPR f
00010000
00010100
00111000
01010000
00110000
00011000
00101000
00101000
POS 0 8,2

SPR g
00010000
00010000
00111000
01010100
00010000
00101000
00101000
00101000
POS 0 9,1

SPR h
00000000
01010000
01111000
01010000
00010000
00110000
00101000
00101000
>
00000000
00010000
10111000
01010000
00010000
00111000
00101000
00101000
POS 0 10,1

SPR i
00010000
00010100
00111000
01010000
00110000
00011000
00101000
00101000
POS 0 12,3

SPR j
00000000
00010000
10111000
01010000
00010000
00110000
00101000
00101000
POS 0 13,2

SPR k
00000010
00010100
00111000
01010000
00010000
00011000
00101000
00101000
>
00000000
00010111
00111000
01010000
00010000
00011000
00101000
00101000
POS 0 11,2

SPR l
00000000
00010000
10111000
01010000
00010000
00110000
00101000
00101000
POS 0 14,3

SPR m
00000000
00010000
10111000
01010000
00010000
00110000
00101000
00101000
>
00000000
00010000
10111000
01010000
00010000
00110000
00101000
00001000
POS 0 15,2

SPR n
00000000
00010000
10111000
01010000
00010000
00110000
00101000
00101000
POS 1 2,1

SPR o
00000000
00010000
10111000
01010000
00010000
00110000
00101000
00101000
POS 0 7,1

SPR p
00000000
00010000
10111000
01010000
00010000
00110000
00101000
00101000
POS 0 3,1

SPR q
00000000
00010000
10111000
01010000
00010000
00110000
00101000
00101000
>
00000000
00010000
00111000
11010000
00010000
00110000
00101000
00101000
POS 0 2,0

SPR r
00000010
00010100
00111000
01010000
00010000
00011000
00101000
00101000
POS 0 8,0

SPR s
00010000
00010000
00111000
01010100
00010000
00101000
00101000
00101000
POS 0 13,0

SPR t
00010000
00010100
00111000
01010000
00110000
00011000
00101000
00101000
POS 0 12,2

SPR u
00000000
00010000
10111000
01010000
00010000
00110000
00101000
00101000
>
00000000
00010000
00111000
11010000
00010000
00110000
00101000
00101000
POS 1 0,2

SPR v
00000010
00010100
00111000
01010000
00010000
00011000
00101000
00101000
>
00000100
00010100
00111000
01010000
00010000
00011000
00101000
00101000
POS 1 1,1

SPR w
00010000
00010000
00111000
01010100
00010000
00101000
00101000
00101000
POS 1 2,2

SPR x
00000000
01010000
01111000
01010000
00010000
00110000
00101000
00101000
>
00000000
00010000
10111000
01010000
00010000
00111000
00101000
00101000
POS 1 3,1

SPR y
00000000
00010000
10111000
01010000
00010000
00110000
00101000
00101000
>
00000000
00010000
10111000
01010000
00010000
00110000
00101000
00001000
POS 1 4,2

SPR z
00000010
00010100
00111000
01010000
00010000
00011000
00101000
00101000
>
00000100
00010100
00111000
01010000
00010000
00011000
00101000
00101000
POS 1 5,3

SPR 1a
00010000
00010000
00111000
01010100
00010000
00101000
00101000
00101000
POS 1 7,2

SPR 1b
00000000
01010000
01111000
01010000
00010000
00110000
00101000
00101000
>
00000000
00010000
10111000
01010000
00010000
00111000
00101000
00101000
POS 1 11,4

SPR 1c
00000000
00010000
10111000
01010000
00010000
00110000
00101000
00101000
>
00000000
00010000
10111000
01010000
00010000
00110000
00101000
00001000
POS 1 4,0

SPR 1d
00010000
00010000
00111000
01010100
00010000
00101000
00101000
00101000
POS 1 9,3

SPR 1e
00000000
00010000
10111000
01010100
00010000
00011000
00101000
00101000
POS 2 0,7

SPR 1f
00000000
01010000
01111000
01010000
00010000
00110000
00101000
00101000
>
00000000
00010000
10111000
01010000
00010000
00111000
00101000
00101000
POS 2 1,6

SPR 1g
00000000
01010000
01111000
01010000
00010000
00110000
00101000
00101000
>
00000000
00010000
10111000
01010000
00010000
00111000
00101000
00101000
POS 2 2,6

SPR 1h
00000010
00010100
00111000
01010000
00010000
00011000
00101000
00101000
>
00000100
00010100
00111000
01010000
00010000
00011000
00101000
00101000
POS 2 3,5

SPR 1i
00010000
00010000
00111000
01010100
00010000
00101000
00101000
00101000
POS 2 4,4

SPR 1j
00010000
00010000
00111000
01010100
00010000
00101000
00101000
00101000
POS 2 11,3

SPR 1k
00010000
00010000
00111000
01010100
00010000
00101000
00101000
00101000
POS 2 12,3

SPR 1l
00000001
00000001
00000011
00000001
00000011
00000101
00000011
00000001
POS 2 12,11

SPR 1m
00000000
00000000
00111100
00000110
00011110
01100110
00111011
00000000
POS 4 4,3

SPR 1n
11100000
01100000
01101100
01110110
01100110
01100110
00111100
00000000
>
00000000
11100000
01100000
01101100
01110110
01100110
01100110
00111100
POS 5 3,3

SPR 1o
00011100
00001100
01101100
11011100
11001100
11001100
01110110
00000000
>
00001110
00000110
00110110
01101110
01100110
01100110
00111011
00000000
POS 5 5,2

SPR 1p
00000000
00000000
00111100
01100110
01111110
01100000
00111100
00000000
POS 6 5,8

SPR 1q
00000000
00000000
01110110
00111011
00110011
00110000
01111000
00000000
POS 6 3,8

SPR 1r
00000000
00000000
00111110
01100000
00111100
00000110
01111100
00000000
POS 6 7,8

SPR 1s
00000000
00000000
00111110
01100000
00111100
00000110
01111100
00000000
POS 6 11,8

SPR 1t
00010000
00110000
01111100
00110000
00110000
00110100
00011000
00000000
POS 6 13,8

SPR 1u
00000000
00000000
11011100
01100110
01100110
01111100
01100000
11110000
>
00000000
00000000
01101110
00110011
00110011
00111110
00110000
01111000
POS 5 8,7

SPR 1v
00000000
00000000
11000110
01101100
00111000
01101100
11000110
00000000
POS 5 13,4

SPR 1w
11100000
01100000
01100110
01101100
01111000
01101100
11100110
00000000
POS 5 4,12

SPR 1x
00000000
00000000
01100110
01110111
01101011
01100011
01100011
00000000
>
00000000
00000000
11001100
11101110
11010110
11000110
11000110
00000000
POS 5 5,8

SPR 1y
00000000
00000000
01100110
01100110
01100110
00111100
00011000
00000000
>
00000000
01100110
01100110
01100110
00111100
00011000
00000000
00000000
POS 5 6,4

SPR 1z
00000000
00111011
01100110
01100110
00111100
11000110
00111100
00000000
>
00000000
00000000
00111011
01100110
01100110
00111100
11000110
01111100
POS 5 9,3

SPR 2a
00000000
00000000
01110110
00111011
00110011
00110000
01111000
00000000
POS 7 3,8

SPR 2b
00000000
00000000
00111100
01100110
01111110
01100000
00111100
00000000
POS 7 5,8

SPR 2c
00000000
00000000
00111110
01100000
00111100
00000110
01111100
00000000
POS 7 7,8

SPR 2d
00000000
00000000
00111110
01100000
00111100
00000110
01111100
00000000
POS 7 11,8

SPR 2e
00010000
00110000
01111100
00110000
00110000
00110100
00011000
00000000
POS 7 13,8

DLG 10
rar!

DLG 11
where you gonna run to?

DLG 12
we'll hunt you like dogs

DLG 13
damn letterheads

DLG 14
the purity of our nation will be restored!

DLG 15
better grow eyes in the back of your head

DLG 16
we'll getcha but good

DLG 17
run while you can!

DLG 18
this place is OURS now

DLG 19
ha!

DLG 20
i'm making a bitsy game!

DLG 21
i figured it out! the murderer is a SHAPESHIFTER.

DLG 22
we have a book club! usually it's philosophy or other non-fiction stuff but this week it's murder on the orient express.

DLG 23
i keep tellin' ya, Verhoeven is a misunderstood genius!

DLG 24
they're my favourite asciiwave band by far.

DLG 25
don't listen to nels, his views are all messed up.

DLG 26
i'm teaching people to code! let me know if want a quick lesson.

DLG 27
feel free to borrow any books you want!

DLG 28
why do i always get stuck with these two!

DLG 29
i'm bob ross! nah who am i kidding i'll never have the hair for it.

DLG a
go away

DLG b
we don't want your kind here

DLG c
no letterheads!

DLG d
make our nation great again!

DLG e
die asciiface!

DLG f
go home!

DLG i
i wanna break your face!

DLG j
better dead than letterhead

DLG k
rarrrgh!

DLG h
letters off the page!

DLG g
hey, you're pretty for a typeface

DLG l
this is our country now

DLG m
suck it up snowflake

DLG t
your time is up

DLG u
build a wall!

DLG v
we're coming for you!

DLG w
get out of our bathrooms

DLG x
you're gonna be deported

DLG y
we'll be coming for you, don't you worry

DLG z
we're taking our country back

DLG 1e
you keep walking

DLG 1f
i can't wait until you're all gone

DLG 1g
no asciis!

DLG 1h
death to the letterheads

DLG 1i
hey, this is our protest letterhead

DLG 1j
we're not letting you through! this street's for white nationals only

DLG 1k
no way

DLG 1l
psst! into the alley here!

DLG 1q
hey, excellent! you can totally help us with this.

DLG 1p
thanks for your help. we need you!

DLG 1r
this is going to be so good!

DLG 1s
what are you waiting for?

DLG 1t
let's do it!

DLG 1o
i'm bangin' the drums awoo!

DLG 1n
some people say the bass is a boring instrument, but tell that to joe dart and he'll KICK YOUR ASS!

DLG 1z
is my guitar too loud?                                                 nah.

DLG 1y
FIGHT THE FASCISTS!!

DLG 1v
oh wow I think you're just the person we need! we're about to start in the next room if you want to help.

DLG 1x
this band is GROOVY.

DLG 1u
hey ace to meet you! don't be afraid to dance!

DLG 1w
hi! welcome to our little music room. oh hey you should find xyloh and talk to them, i think they might have a job for you!

DLG 1m
hello and welcome to our little place! we're all friends here. look around and mingle!

