
Coz Ep 3

# BITSY VERSION 4.8

! ROOM_FORMAT 1

PAL 0
NAME Mars
204,167,109
0,0,0
254,243,170

PAL 1
NAME Space
155,154,156
0,0,0
254,253,163

ROOM 0
p,a,1e,0,1f,1e,0,1f,0,0,1f,0,0,1f,0,0
a,a,1f,0,1e,0,0,0,1e,0,0,0,0,0,0,0
p,a,1f,1e,1f,1e,1f,0,1e,0,0,1e,0,0,0,0
a,a,1f,0,0,1f,1e,1e,0,1e,1f,0,0,0,0,0
p,a,1f,0,1f,0,1f,0,1e,1f,1e,0,0,0,0,0
a,1h,1e,1e,1e,1e,0,0,0,1f,0,0,1f,0,1f,0
a,17,17,17,17,17,0,1f,0,0,0,1e,0,0,0,0
15,0,15,15,15,15,1g,1g,1g,1g,1g,1g,1g,1g,1g,1g
15,15,15,15,15,15,1g,1g,1g,1g,1g,1g,1g,1g,1g,1g
a,1i,1i,1i,1i,1i,0,0,0,0,1f,0,1e,1f,0,0
a,v,1e,0,1f,0,1f,0,1e,0,0,1f,0,0,0,0
p,a,0,1e,1e,1f,0,0,0,1e,0,1e,0,1e,1f,0
a,a,1e,1f,0,1e,1f,1e,0,0,0,0,0,0,0,0
p,a,0,0,1e,0,1f,0,0,1e,0,0,1e,0,1f,0
a,a,1f,0,1f,1e,0,0,1e,0,1e,0,1f,1f,0,0
p,a,1f,0,1e,0,0,1e,0,0,1f,0,0,0,0,0
EXT 15,7 1 0,12
PAL 0

ROOM 1
0,0,0,0,0,0,0,0,0,0,0,0,0,0,0,0
0,0,0,0,0,0,0,0,0,0,0,1q,0,1r,0,0
0,0,0,0,0,0,0,0,0,0,0,1p,1n,1o,0,0
0,0,0,0,0,0,0,0,0,0,0,0,1s,0,0,0
0,0,0,0,0,0,0,0,0,0,0,0,0,0,0,0
u,a,a,a,v,0,0,0,0,0,0,0,0,0,0,0
p,a,a,n,1b,0,0,0,0,0,0,0,u,0,v,0
a,a,a,a,1h,0,0,u,v,0,0,u,a,p,a,v
a,p,a,a,0,0,12,1k,a,0,u,a,a,a,a,a
a,a,p,a,0,0,1k,1k,a,1m,a,1k,1j,1k,1l,1j
p,a,a,a,0,0,1k,1k,a,0,a,1k,1l,1j,a,a
a,1c,1b,a,k,l,1k,1k,a,0,a,a,a,a,0,a
1g,1g,1g,1g,1g,1g,1g,1g,1g,1g,1g,1g,1g,1g,1g,1g
1g,1g,1g,1g,1g,1g,1g,1g,1g,1g,1g,1g,1g,1g,1g,1g
1e,1f,0,1f,0,0,1e,0,1f,0,0,1e,1f,0,0,0
0,1e,0,1e,0,0,1f,0,0,1f,0,0,1f,0,0,1e
EXT 14,11 2 7,15
PAL 0

ROOM 2
0,0,0,0,0,0,0,0,0,0,0,0,0,0,0,0
0,0,0,0,0,0,0,0,0,0,0,0,0,0,0,0
0,0,a,a,a,a,a,a,a,a,a,a,a,a,0,0
0,0,a,y,0,0,0,0,j,l,l,l,l,a,0,0
0,0,a,0,0,0,0,0,0,0,0,0,0,a,0,0
0,0,a,0,0,0,0,0,f,g,1t,f,g,a,0,0
0,0,a,0,d,1u,e,0,0,0,0,0,0,a,0,0
0,0,a,0,0,0,0,0,1x,0,1v,1y,0,a,0,0
0,0,a,0,d,f,g,e,0,23,23,23,0,a,0,0
0,0,a,0,0,0,0,0,0,23,0,23,1x,a,0,0
0,0,a,g,e,0,0,1y,0,23,23,23,0,a,0,0
0,0,a,0,0,0,0,0,1w,20,0,1y,0,a,0,0
0,0,a,k,0,0,0,0,0,1z,0,k,z,a,0,0
0,0,a,a,a,a,a,21,24,a,a,a,a,a,0,0
0,0,0,0,0,0,a,0,0,a,0,0,0,0,0,0
0,0,0,0,0,0,a,0,0,a,0,0,0,0,0,0
PAL 0

TIL 10
00000000
00000000
00000000
00000000
00000000
00000000
00000000
00000111

TIL 11
00000100
00000100
00001110
00000100
00000100
00000100
00000100
00000100

TIL 12
00001111
00001111
00001111
00011111
00111111
01111111
11111111
11111111

TIL 13
01110000
01110000
01110000
01110000
01110000
01110000
01110000
01110000
WAL true

TIL 14
00000010
00000010
00000010
00000010
00000010
00000010
00000010
00000010

TIL 15
00000000
11111111
00000000
00000000
00000000
00000000
11111111
00000000

TIL 16
00001110
00001110
00001110
00001110
00001110
00001110
00001110
00001110
WAL true

TIL 17
00000000
00011000
00011000
00111100
01111110
11111111
11111111
11111111
WAL true

TIL 18
00000000
00000000
00000000
00000000
00000000
00000000
10000000
10000000

TIL 19
00000000
00000000
00000000
00000000
00000000
00000000
00000001
00000001

TIL 20
10010010
01000100
00101100
00010100
01000110
01110100
01110000
10100000

TIL 21
00000000
00000000
00000010
11111111
00000010
00000000
00000000
00000000

TIL 22
00110000
00100000
01000000
01000000
01100000
00011100
00000100
00000001
WAL true

TIL 23
00000000
00000000
00000000
00000000
00000000
00000000
00000000
00000000
WAL true

TIL 24
00000000
00000000
01000000
11111111
01000000
00000000
00000000
00000000

TIL a
11111111
11111111
11111111
11111111
11111111
11111111
11111111
11111111
WAL true

TIL b
01100000
10011100
10000010
11000111
11111101
00000010
00111100
11000000
>
10011111
01100011
01111101
00111000
00000010
11111111
11000011
00111111

TIL c
11111111
01111111
00111111
11111111
10111111
00111111
01111111
11111111
>
11111111
01111111
10111111
00111111
01111111
10111111
01111111
11111111

TIL d
01000000
01000000
01000000
01000000
01000000
01111110
01000010
01000010

TIL e
00000010
00000010
00000010
00000010
00000010
01111110
01000010
01000010

TIL f
00000000
00000000
00000000
11111111
10000000
10000000
10000000
10000000

TIL g
00000000
00000000
00000000
11111111
00000001
00000001
00000001
00000001

TIL h
00000000
00000000
11100000
11100000
11111111
10000000
10000000
10000000

TIL i
00000000
00000000
00000000
00000000
11111111
00000001
00000001
00000001

TIL j
01111110
01000010
01101010
01001010
01100110
11111111
11100111
11100111
>
01111110
01001010
01010010
01010010
01100110
11111111
11100111
11100111
WAL true

TIL k
00000000
00010100
01010100
00111000
00010000
00111100
00111100
00111100

TIL l
00111100
00111100
00111100
00111100
01111110
01100110
01111110
01111110

TIL m
10101010
10101010
10101010
10101010
10101010
10101010
10101010
10101010

TIL n
10100000
10100000
10100000
10100000
10100000
10100000
10100000
10100000

TIL o
11111111
00111100
00111100
00111100
00111100
00111100
00111100
11111111
WAL true

TIL p
10101010
10101010
11111111
10101010
10101010
11111111
10101010
10101010

TIL q
11111000
11111000
00111000
00011000
00011100
00011110
00001111
00000011

TIL r
00001110
00000100
00000100
00001100
00001000
01111000
11000000
10000000

TIL s
00000000
00000000
00000000
00000000
00000000
00000000
00000000
00000001

TIL t
00000011
00000110
00000100
00011100
00010000
00010000
00010000
00111000

TIL u
00000011
00000111
00001111
00011111
00111111
01111111
11111111
11111111

TIL v
11000000
11100000
11110000
11111000
11111100
11111110
11111111
11111111

TIL w
00000000
11100000
11111111
11111111
11111111
11111111
11100000
00000000
>
11100000
11111111
11111111
11111111
11111111
11100000
00000000
00000000

TIL x
00000000
00000000
11111100
11111111
11111111
11111100
00000000
00000000
>
00000000
11111100
11111111
11111111
11111100
00000000
00000000
00000000

TIL y
00000111
00001100
00011000
01110000
11000000
10000000
10000000
10000000

TIL z
00000111
00000100
00001100
00001000
00011000
00010000
00110000
11100000

TIL 1a
00000000
01000010
00000000
00000000
00000000
00000000
01000010
00000000

TIL 1b
01111111
00011111
00011111
00011111
00011111
00011111
00011111
01111111
WAL true

TIL 1c
11111110
11111000
11111000
11111000
11111000
11111000
11111000
11111110
WAL true

TIL 1d
00011000
11111111
00011000
00011000
00011000
00011000
11111111
00011000

TIL 1e
00000000
01000000
01010000
11001000
10001000
01001010
11010011
10011001
>
00000000
10000000
10001000
01010000
01010000
10010001
10001001
10011001

TIL 1f
00000000
00000000
00100000
00100000
01000000
10010001
01011011
01001010
>
00000000
00000000
01000000
01000000
00100000
01010100
01011010
01001010

TIL 1g
11111111
10111101
11111111
11111111
11111111
11111111
10111101
11111111

TIL 1h
11111111
11111110
11111100
11111000
11110000
11100000
11000000
10000000

TIL 1i
00011000
00011000
00111100
01111110
11111111
11111111
11111111
11111111
WAL true

TIL 1j
11111111
00011111
00011111
00011111
00011111
00011111
00011111
11111111
WAL true

TIL 1k
11111111
11111000
11111000
11111000
11111000
11111000
11111000
11111111
WAL true

TIL 1l
11111111
00000000
00000000
00000000
00000000
00000000
00000000
11111111

TIL 1m
00000000
00000000
01111111
01000010
01000010
01000010
01111110
00000000

TIL 1n
11111111
11111111
01111111
01111111
00111111
11110110
11111100
00010000

TIL 1o
11111110
11111110
11001111
11000011
00110001
00111111
00011000
00000000

TIL 1p
11100111
11110111
01100100
11111110
11111111
10111111
11110011
11100001

TIL 1q
10000000
10000000
00000010
00000001
00000110
00011010
00001010
00111110

TIL 1r
00000000
00000010
00010010
00000100
00001100
00111100
01111110
01111110

TIL 1s
11101100
11011110
00111010
00001010
00000011
00011000
00110000
00110000

TIL 1t
00000000
00000000
00000000
11111111
00000000
00000000
00000000
00000000

TIL 1u
00000000
00000000
00000000
11111111
10000001
10000001
10000001
10000001

TIL 1v
00000000
00000000
11110000
00010000
00010000
00010000
00010000
11111111

TIL 1w
00000000
00000000
00001111
00001000
00001000
00001000
00001000
11111111

TIL 1x
11111000
00001000
00001000
00001000
00001000
00001000
00001000
11111000

TIL 1y
00000000
10000000
00010000
00000000
00000100
00100000
00000000
01000010

TIL 1z
00000000
00100001
00000000
00010000
00000000
00010000
00000000
10000000

SPR A
00011000
00111100
00011000
00111100
01011010
00011000
00100100
01100110
POS 0 1,7

SPR a
00100100
00111100
01111110
10111101
00111100
01111110
01000010
01000010
DLG SPR_0

SPR b
00011000
11111111
10011001
10011001
10111101
10100101
00100100
00100100
DLG SPR_1

SPR c
00000000
00011000
00011000
01111110
01111110
01011010
01011010
01011010

SPR d
00010000
00111000
00111000
01111100
01111100
00111000
01111100
01000100

SPR e
00011100
00011100
00011100
00001000
00111110
00101010
00101010
00100010

SPR f
00000000
00010000
00111000
01010100
00010000
00111000
00101000
01101100

SPR g
00000000
00000000
00011000
00011000
00011000
11111111
10000001
10000001

SPR h
00000000
00010000
00111000
01010100
00010000
00111000
00101000
01101100

SPR i
00111100
00111000
11010000
01111000
00010100
00010000
00101000
01101100
NAME Falcon
POS 2 10,9

SPR j
00000000
00010000
00111000
01010100
00010000
00111000
00101000
01101100

SPR k
00000000
00010000
00111000
01010100
00010000
00111000
00101000
01101100

SPR l
00011100
00011100
00011100
00001000
00111110
00101010
00101010
00100010

SPR m
00000000
00011000
00011000
01111110
01111110
01011010
01011010
01011010

SPR n
11111111
10110101
11010011
10110101
11111111
00011000
00011000
00011000
DLG SPR_2
POS 0 6,6

SPR o
11111111
10010111
10111010
10111100
11111111
11010111
01010011
11101110
DLG SPR_3
POS 1 12,11

SPR p
10000000
00000000
00000010
00011000
01111110
01111110
11111111
11111111
>
00000001
00000000
01000000
00011000
01111110
01111110
11111111
11111111
POS 1 12,1

SPR q
00110000
00110000
01100110
01111100
01100000
00100000
01010000
01010000
>
00110000
00110110
01101100
01110000
01100000
00100000
01010000
01010000
NAME Shooter
DLG SPR_5
POS 2 7,9

SPR r
00000000
00000100
00100000
01010100
00011100
00010000
01000100
01010000
DLG SPR_4
POS 2 8,15

ITM 0
00000000
01000000
00110100
00110110
00111000
00001010
01000100
00000000
NAME Blood
DLG ITM_0

DLG ITM_0
"""
{sequence
  - *Touches Liquid* {wvy}Coz: What is blood doing here...{wvy}
  - INN keeper: {shk}STEP BACK I AM WARNING YOU I WILL SHOOT!{shk}
  - Mystery Person: All i am asking for is just a little information that i think you might have...
  - Coz: Oh no... {shk}*coz busts through the door*{shk}
}
"""

DLG SPR_0
"""
{sequence
  - Mite: {clr3}Hello And welcome to mars! Thank you for choosing Garbo's Docking! My name is Mite I am a robot assistant my job is aid you in anything you like! {clr3}
  - Coz: Hello mite my name is coz. *hands mite ID*
  - Mite: Hello Coz. Might i ask why you are visiting mars on this fine day?
  - Coz: I am a bounty hunter and i have reason to believe a target of mine maybe on this planet.
  - Mite: Ah i see So you must be after Falcon Heavy! Many bounty hunters have landed here in the past few days.
  - Coz: Have they had any luck?
  - Mite: *Scanning reports* From what i can tell not yet.
  - Coz: Well I should be gone for about 3 days at the max, i think i can trust you to take care of my ship for a few days.
  - Mite: leave it to me coz your in good hands!
}
"""

DLG SPR_1
"""
{sequence
  - Salesmen: {wvy}Hey Hey Kid looking for some Cheap electronics... I am trying to get rid of my stock so if you buy qui-{wvy}
  - Coz: Sorry Not interested {clr3}*starts to walk away* *Turns back*{clr3} Actually have you seen anyone who looks like this? {wvy}*holds up flyer of falcon heavy* {wvy} (falcon heavy has only been seen in a skin tight jumpsuit and a motorcycle helmet that serves as an oxygen converter)
  - Salesmen: {wvy}Oh you are a hunter... Yeah i have seen Falcon around these parts but really kid do you think i will just give you this information? alright look i am trying to make a living so i will strike a deal with you... 500 IC and i will give you the info you need and i will sell you this.{wvy} *He holds out something that looks like a glove* {wvy}I am never going to sell this thing but if your going to be going after falcon it wouldn't be a bad idea to take this with ya.{wvy}
  - Coz: *grabs the glove and holds it up* What exactly is this thing?
  - Salesmen: {wvy}Its a Tetra infuser 1st generation too. *He takes it back from coz and holds it up and smiles*{wvy} 
  - Coz: OK Yeah but what does it do?
  - Salesmen: {wvy}Wow you must be young... A tetra Infuser sucks out a bit of your blood and processes it into tetra. Tetra is a type of protein that is found in the blood stream and it is what is responsible for the creation of adrenaline, so the tetra infuser takes your blood and converts it into adrenaline and re-injects it into your blood stream... Effectively giving you super human ability's for a short period of time... well they were discontinued a while back because if you don't know what your doing with it... it could kill ya. {wvy}
  - Coz: {wvy}*Thinks to him self*{wvy} {clr3}Well I did need a gun..{clr3}

  - Coz: I will take it But only if you tell me what you know about falcon!
  - Salesmen: {wvy}I knew we could come to an agreement! Well the last time falcon was spotted was in the northern district of Carbic its a small town about a 30 minute train ride from here. {wvy} {clr1}*Coz Hands him 500 IC and grabs the glove*{clr1} {wvy}Good luck kid{wvy}
}
"""

DLG SPR_2
*reads sign* {clr3}WELCOME TO CARBIC{clr3} Coz: Ok I guess mars isn't just one big wasteland desert... This place is quite nice...

DLG SPR_3
*Reads Sign* Coz: An inn well the sun is going down might as well have a place to stay...

DLG SPR_4
"""
{sequence
  - *Touches Liquid* {wvy}Coz: What is blood doing here...{wvy}
  - INN keeper: {shk}STEP BACK I AM WARNING YOU I WILL SHOOT!{shk}
  - Mystery Person: All i am asking for is just a little information that i think you might have...
  - Coz: Oh no... {shk}*coz busts through the door*{shk}
}
"""

DLG SPR_5
"""
{sequence
  - Inn Keeper:{shk} WHO THE HELL ARE YOU?!{shk}
  - Coz: {shk}*Freezes* Ar- Are you...{shk} 
  - Mystery person: Were you about to say falcon heavy cause if so you would be right... {wvy}*Right after Falcon says that the inn keeper is shot and falls dead...*{wvy}
  - {wvy}TO BE CONTINUED...{wvy}
}
"""

END 0


END undefined
Coz: *Looks at the glove* What the hell. *puts it on and clenches his fist* alright lets go get that 50,000 IC! *Steps on the train...

VAR a
42


