
139TH ANNUAL CITIZENS' EXAMS

# BITSY VERSION 4.5

! ROOM_FORMAT 1

PAL 0
NAME default
74,74,74
66,224,148
253,254,239

PAL 1
NAME fire
255,10,2
255,240,77
255,147,49

PAL 2
NAME laborer
87,59,12
199,199,199
216,212,76

PAL 3
NAME citizen
34,151,207
207,81,201
253,254,239

PAL 4
NAME council
16,70,96
127,255,117
253,254,239

ROOM 0
0,0,0,13,14,0,13,z,z,14,0,13,14,0,0,0
0,0,0,12,15,0,15,x,x,15,0,15,12,0,0,0
0,0,0,12,x,0,x,0,0,x,0,x,12,0,0,0
0,0,0,12,0,0,0,0,0,0,0,0,12,0,0,0
0,0,0,12,0,0,0,0,0,0,0,0,12,0,0,0
0,0,0,12,0,13,w,0,0,11,14,0,12,0,0,0
0,0,0,12,0,12,w,0,0,11,12,0,12,0,0,0
0,0,0,12,0,18,w,0,0,11,19,0,12,0,0,0
0,0,0,12,0,12,w,0,0,11,12,0,12,0,0,0
0,0,0,12,0,18,w,0,0,11,19,0,12,0,0,0
0,0,0,12,0,12,w,0,0,11,12,0,12,0,0,0
0,0,0,12,0,y,w,0,0,11,10,0,12,0,0,0
0,0,0,12,0,x,x,0,0,x,x,0,12,0,0,0
0,0,0,12,0,0,0,0,0,0,0,0,12,0,0,0
0,0,0,y,z,z,z,w,0,11,z,z,10,0,0,0
0,0,0,x,x,x,x,x,0,x,x,x,x,0,0,0
NAME logic room
ITM 3 8,14
EXT 5,0 4 8,15
EXT 10,0 5 8,15
PAL 0

ROOM 1
0,0,0,0,0,0,0,0,0,0,0,0,0,0,0,0
0,0,0,0,0,0,0,0,0,0,0,0,0,0,0,0
0,k,k,k,k,k,k,k,k,k,k,k,k,k,0,0
0,k,k,k,k,k,k,k,k,k,k,k,k,k,0,0
0,k,k,k,k,k,k,k,k,k,k,k,k,k,0,0
0,k,k,k,k,k,k,k,k,k,k,k,k,k,0,0
0,k,k,k,k,k,k,k,k,k,k,k,k,k,0,0
0,k,k,k,k,k,k,k,k,k,k,k,k,k,0,0
0,k,k,k,k,k,k,k,k,k,k,k,k,k,0,0
0,k,k,k,k,13,z,z,z,z,z,14,k,k,k,0
0,k,k,k,k,12,x,x,x,x,x,12,k,k,k,0
0,k,k,k,k,12,k,k,k,k,k,12,k,k,k,0
0,k,k,k,k,12,k,k,k,k,k,12,k,k,k,0
0,k,k,k,k,y,z,14,k,13,z,10,k,k,k,0
0,0,0,0,0,x,x,15,k,15,x,x,0,0,0,0
0,0,0,0,0,0,0,x,k,x,0,0,0,0,0,0
NAME incinerator
ITM 4 6,11
ITM 4 7,11
ITM 4 8,11
ITM 4 9,11
ITM 4 10,11
ITM 4 10,12
ITM 4 9,12
ITM 4 6,12
ITM 4 7,12
END 0 8,12
END 0 2,4
PAL 1

ROOM 3
0,0,0,13,14,k,13,z,z,14,k,13,14,0,0,0
0,0,0,12,15,k,15,x,x,15,k,15,12,0,0,0
0,0,0,12,x,k,x,k,k,x,k,x,12,0,0,0
0,0,0,12,k,k,k,k,k,0,k,k,12,0,0,0
0,0,0,12,k,k,k,k,k,k,k,k,12,0,0,0
0,0,0,12,k,13,w,k,k,11,14,k,12,0,0,0
0,0,0,12,k,12,k,k,k,0,12,k,12,0,0,0
0,0,0,12,k,y,w,k,k,11,10,k,12,0,0,0
0,0,0,12,k,x,x,k,k,x,x,k,12,0,0,0
0,0,0,12,k,13,w,k,k,11,14,k,12,0,0,0
0,0,0,12,k,12,0,k,k,0,12,k,12,0,0,0
0,0,0,12,k,y,w,k,k,11,10,k,12,0,0,0
0,0,0,12,k,x,x,k,k,x,x,k,12,0,0,0
0,0,0,12,k,k,k,k,k,k,k,k,12,0,0,0
0,0,0,y,z,z,z,w,k,11,z,z,10,0,0,0
0,0,0,x,x,x,x,x,k,x,x,x,x,0,0,0
NAME decision room
ITM 2 8,14
EXT 5,0 1 8,15
EXT 10,0 0 8,15
PAL 0

ROOM 4
0,0,0,13,14,k,13,z,z,14,k,13,14,0,0,0
0,0,0,12,15,k,15,x,x,15,k,15,12,0,0,0
0,0,0,12,x,k,x,k,k,x,k,x,12,0,0,0
0,0,0,12,k,k,k,k,k,0,k,k,12,0,0,0
0,0,0,12,k,k,k,k,k,k,k,k,12,0,0,0
0,0,0,12,k,0,13,z,14,0,0,k,12,0,0,0
0,0,0,12,k,0,15,x,15,0,0,k,12,0,0,0
0,0,0,12,k,0,x,k,x,0,0,k,12,0,0,0
0,0,0,12,0,0,0,0,0,0,0,k,12,0,0,0
0,0,0,12,k,13,w,k,k,11,14,k,12,0,0,0
0,0,0,12,k,12,0,k,k,0,12,k,12,0,0,0
0,0,0,12,k,y,w,k,k,11,10,k,12,0,0,0
0,0,0,12,k,x,x,k,k,x,x,k,12,0,0,0
0,0,0,12,k,k,k,k,k,k,k,k,12,0,0,0
0,0,0,y,z,z,z,w,k,11,z,z,10,0,0,0
0,0,0,x,x,x,x,x,k,x,x,x,x,0,0,0
NAME ethics room
ITM a 8,14
EXT 5,0 6 8,15
EXT 10,0 7 8,15
PAL 0

ROOM 5
0,0,0,0,0,0,0,0,0,0,0,0,0,0,0,0
0,0,0,0,0,0,0,0,0,0,0,0,0,0,0,0
0,k,k,k,k,k,k,k,k,k,0,k,k,k,k,0
0,k,k,k,k,k,k,k,k,k,k,k,k,k,k,0
0,k,k,k,k,k,k,k,k,k,k,0,k,k,k,0
0,k,k,k,k,k,k,k,k,k,k,k,k,k,k,0
0,k,k,k,k,k,k,k,k,k,k,0,k,k,k,0
0,k,k,k,k,k,k,k,k,k,k,k,k,k,k,0
0,k,k,k,k,k,k,k,k,k,k,k,k,k,k,0
0,k,k,k,k,13,z,z,z,z,z,14,k,0,k,0
0,k,k,k,k,12,x,x,x,x,x,12,k,k,k,0
0,k,k,k,k,12,k,k,k,k,k,12,k,0,k,0
0,k,k,k,k,12,k,k,k,k,k,12,k,k,0,0
0,k,k,k,k,y,z,14,0,13,z,10,k,k,0,0
0,0,0,0,0,x,x,15,k,15,x,x,0,0,0,0
0,0,0,0,0,0,0,x,0,x,0,0,0,0,0,0
NAME labor room
ITM 5 8,11
END undefined 8,12
PAL 2

ROOM 6
0,0,0,0,0,0,0,0,0,0,0,0,0,0,0,0
0,0,0,0,0,0,0,0,0,0,0,0,0,0,0,0
0,k,k,k,k,k,k,k,k,k,k,k,k,k,k,0
0,k,k,k,k,k,k,k,k,k,k,k,k,k,k,0
0,k,k,k,k,k,k,k,k,k,k,k,k,k,k,0
0,k,k,k,k,k,k,k,k,k,k,k,k,k,k,0
0,k,k,k,k,k,k,k,k,k,k,k,k,k,k,0
0,k,k,k,k,k,k,k,k,k,k,k,k,k,k,0
0,k,k,k,k,k,k,k,k,k,k,k,k,k,k,0
0,k,k,k,0,13,z,z,z,z,z,14,0,k,k,0
0,k,k,k,0,12,x,x,x,x,x,12,0,k,k,0
0,k,k,k,0,12,k,k,k,k,k,12,0,k,k,0
0,k,k,k,0,12,k,k,k,k,k,12,0,k,k,0
0,0,k,k,0,y,z,14,0,13,z,10,0,k,k,0
0,0,0,0,0,x,x,15,k,15,x,x,0,0,0,0
0,0,0,0,0,0,0,x,k,x,0,0,0,0,0,0
NAME council room
ITM 9 8,11
END undefineh 8,12
PAL 4

ROOM 7
0,0,0,0,0,0,0,0,0,0,0,0,0,0,0,0
0,0,0,0,0,0,0,0,0,0,0,0,0,0,0,0
0,k,k,k,k,0,0,0,0,k,k,k,k,k,k,0
0,k,k,k,k,k,k,k,k,k,k,k,k,k,k,0
0,k,k,k,k,k,k,k,k,k,k,k,k,k,k,0
0,k,k,k,k,k,k,k,k,k,k,k,k,k,k,0
0,k,k,k,k,k,k,k,k,k,k,k,k,k,k,0
0,k,k,k,k,k,k,k,k,k,k,k,k,k,k,0
0,k,k,k,k,k,k,k,k,k,k,k,k,k,k,0
0,k,k,k,k,13,z,z,z,z,z,14,k,k,k,0
0,k,k,k,k,12,x,x,x,x,x,12,k,k,k,0
0,k,k,k,k,12,0,0,0,0,k,12,k,k,k,0
0,k,k,k,k,12,k,k,k,k,k,12,k,k,k,0
0,k,k,k,k,y,z,14,k,13,z,10,k,k,k,0
0,0,0,0,0,x,x,15,k,15,x,x,0,0,0,0
0,0,0,0,0,0,0,x,k,x,0,0,0,0,0,0
NAME citizen room
ITM 8 8,11
END undefinei 8,12
PAL 4

ROOM 8
0,0,1e,1g,1g,1g,1g,1g,1g,1g,1g,1g,1g,1d,0,0
0,0,1e,1g,1g,1g,1g,1g,1g,1g,1g,1g,1g,1d,0,0
0,0,1f,1a,1a,1a,1b,1a,1a,1b,1a,1a,1a,1c,0,0
0,0,x,x,x,x,1h,1m,1n,1h,x,x,x,x,0,0
0,0,x,x,x,x,1i,1l,1o,1i,x,x,x,x,0,0
0,0,0,0,0,0,x,1k,1p,x,0,0,0,0,0,0
0,0,0,0,0,0,0,1j,1j,0,0,0,0,0,0,0
0,0,0,0,0,0,0,1j,1j,0,0,0,0,0,0,0
0,0,0,0,0,0,0,1j,1j,0,0,0,0,0,0,0
0,0,0,0,0,0,0,1j,1j,0,0,0,0,0,0,0
0,0,0,0,0,0,0,1j,1j,0,0,0,0,0,0,0
0,0,0,0,0,0,0,1j,1j,0,0,0,0,0,0,0
0,0,0,0,0,0,0,1j,1j,0,0,0,0,0,0,0
0,0,0,0,0,0,0,1j,1j,0,0,0,0,0,0,0
0,0,0,0,0,0,0,1j,1j,0,0,0,0,0,0,0
0,0,0,0,0,0,0,1j,1j,0,0,0,0,0,0,0
NAME entrance
EXT 7,5 3 8,15
EXT 8,5 3 8,15
PAL 0

TIL 10
11000011
11000011
00000011
00000011
00000011
00000011
11111111
11111111
WAL true

TIL 11
11111111
11111111
11000000
11000000
11000000
11000000
11111111
11111111
WAL true

TIL 12
11000011
11000011
11000011
11000011
11000011
11000011
11000011
11000011
WAL true

TIL 13
11111111
11111111
11000000
11000000
11000000
11000000
11000011
11000011
WAL true

TIL 14
11111111
11111111
00000011
00000011
00000011
00000011
11000011
11000011
WAL true

TIL 15
11000011
11000011
11000011
11000011
11000011
11000011
11111111
11111111
WAL true

TIL 16
11111111
11111111
11000011
11000011
11000011
11000011
11000011
11000011

TIL 17
01111110
00100100
00011000
00011000
00011000
00011000
00100100
01111110
WAL true

TIL 18
11000011
11000011
11000000
11000000
11000000
11000000
11000011
11000011

TIL 19
11000011
11000011
00000011
00000011
00000011
00000011
11000011
11000011

TIL g
00000000
01111111
01000000
01000000
01001000
01000000
01000000
01000000

TIL h
00000000
11111111
00000000
00000000
00100100
00000000
00000000
00000000

TIL i
00000000
11111110
00000010
00000010
00010010
00000010
00000010
00000010

TIL j
01000000
01000000
01001000
01000000
01000000
01001000
01000000
01000000

TIL k
00000000
00000000
00000000
00000000
00000000
00000000
00000000
00000000

TIL l
00000010
00000010
00010010
00000010
00000010
00010010
00000010
00000010

TIL m
01000000
01000000
01000000
01001000
01000000
01000000
01111111
00000000

TIL n
00000000
00000000
00000000
00100100
00000000
00000000
11111111
00000000

TIL o
00000010
00000010
00000010
00010010
00000010
00000010
11111110
00000000

TIL a
00100111
00001011
00100111
00001011
00100111
00001011
00100111
00001011
WAL true

TIL b
11000011
11010011
11001011
11000011
10100101
11011011
10100101
11111111
WAL true

TIL c
00000000
00000000
01010101
00000000
10101010
01010101
11111111
11111111
WAL true

TIL d
00000000
00000000
00000010
00000000
00001001
00000010
00100111
00001011
WAL true

TIL e
00100111
00001011
01010111
00000011
10101011
01010111
11111111
11111111
WAL true

TIL f
11111111
10000001
10100101
10000001
10000001
10100101
10000001
11111111

TIL p
11011011
00100100
00100100
00100100
00100100
00100100
00100100
11011011

TIL q
10000001
01100110
01011010
00100100
00100100
01011010
01100110
10000001

TIL r
00000000
00000000
00000000
00000000
00000000
00000000
00000000
11111111

TIL s
00000000
00000000
00000000
00000000
00000000
10000000
10000000
11111111

TIL t
00000000
00000000
00000000
00000000
00000000
00000001
00000001
11111111

TIL u
11111111
00000000
00000000
00000000
00000000
00000000
00000000
00000000

TIL v
00000000
00000000
00000000
00000000
00000000
00000000
00000000
00000000
WAL true

TIL w
11111111
11111111
00000011
00000011
00000011
00000011
11111111
11111111
WAL true

TIL x
11111111
11010101
10100011
11010001
10001011
11000101
10101011
11111111
WAL true

TIL y
11000011
11000011
11000000
11000000
11000000
11000000
11111111
11111111
WAL true

TIL z
11111111
11111111
00000000
00000000
00000000
00000000
11111111
11111111
WAL true

TIL 1a
01010101
10101010
01010101
10101010
01010101
10101010
11111111
11111111
WAL true

TIL 1b
01010101
10101010
01010101
10101010
01010101
10101010
11010111
11101011
WAL true

TIL 1c
01010111
10101011
01010111
10101011
01010111
10101011
11111111
11111111
WAL true

TIL 1d
01010111
10101011
01010111
10101011
01010111
10101011
01010111
10101011
WAL true

TIL 1e
11010101
11101010
11010101
11101010
11010101
11101010
11010101
11101010
WAL true

TIL 1f
11010101
11101010
11010101
11101010
11010101
11101010
11111111
11111111
WAL true

TIL 1g
01010101
10101010
01010101
10101010
01010101
10101010
01010101
10101010
WAL true

TIL 1h
11010111
11101011
11010111
11101011
11010111
11101011
11010111
11101011
WAL true

TIL 1i
11010111
11101011
11010111
11101011
11010111
11101011
11111111
11111111
WAL true

TIL 1j
10011001
10000001
10000001
10011001
10000001
10000001
10011001
10000001

TIL 1k
11001001
11001111
11000111
11000101
11001101
11000001
11000001
11111111

TIL 1l
11000011
11000011
11000101
11000101
11000011
11001001
11000111
11000001
WAL true

TIL 1m
11111111
11111111
11000001
11000001
11000011
11000101
11000101
11000011
WAL true

TIL 1n
11111111
11111111
10000011
10000011
11000011
10100011
10100011
11000011
WAL true

TIL 1o
11000011
11000011
10100011
10100011
11000011
10010011
11100011
10000011
WAL true

TIL 1p
10010011
11110011
11100011
10100011
10110011
10000011
10000011
11111111
WAL false

SPR A
00011000
00011000
00111100
01111110
01111110
00111100
00100100
00100100
>
00000000
00011000
00011000
00111100
01111110
01111110
00111100
00100100
POS 8 8,15

SPR a
01111110
01000010
01000010
01000010
01111110
00111100
01111110
11111111
>
01111110
01000010
01011010
01000010
01111110
00111100
01111110
11111111
DLG SPR_0
POS 0 6,3

SPR b
01111110
01000010
01000010
01000010
01111110
00111100
01111110
11111111
>
01111110
01000010
01011010
01000010
01111110
00111100
01111110
11111111
DLG SPR_1
POS 0 9,3

SPR c
01111110
01000010
01000010
01000010
01111110
00111100
01111110
11111111
>
01111110
01000010
01011010
01000010
01111110
00111100
01111110
11111111
DLG SPR_2
POS 0 6,6

SPR d
01111110
01000010
01000010
01000010
01111110
00111100
01111110
11111111
>
01111110
01000010
01011010
01000010
01111110
00111100
01111110
11111111
DLG SPR_3
POS 0 9,6

SPR e
01111110
01000010
01000010
01000010
01111110
00111100
01111110
11111111
>
01111110
01000010
01011010
01000010
01111110
00111100
01111110
11111111
DLG SPR_4
POS 0 6,8

SPR f
01111110
01000010
01000010
01000010
01111110
00111100
01111110
11111111
>
01111110
01000010
01011010
01000010
01111110
00111100
01111110
11111111
DLG SPR_5
POS 0 9,8

SPR g
01111110
01000010
01000010
01000010
01111110
00111100
01111110
11111111
>
01111110
01000010
01011010
01000010
01111110
00111100
01111110
11111111
DLG SPR_6
POS 0 6,10

SPR h
01111110
01000010
01000010
01000010
01111110
00111100
01111110
11111111
>
01111110
01000010
01011010
01000010
01111110
00111100
01111110
11111111
DLG SPR_7
POS 0 9,10

SPR i
00011000
00011000
00111100
11101110
00111110
00101100
00111100
00100100
>
00011000
00011000
00111100
01101111
01111100
00101100
00111100
00100100
DLG SPR_8
POS 7 9,11

SPR j
01111110
01000010
01000010
01000010
01111110
00111100
01111110
11111111
>
01111110
01000010
01011010
01000010
01111110
00111100
01111110
11111111
DLG SPR_f
POS 3 6,3

SPR k
00000111
00000101
00001111
00010000
00001000
11110000
10100000
11100000
DLG SPR_9
POS 3 6,10

SPR l
00000000
00000000
00111100
01101110
01111110
00101100
00111100
00100100
DLG SPR_a
POS 3 6,6

SPR m
00000000
00000000
00000000
00000000
00001000
00011100
00111110
01111111
DLG SPR_b
POS 3 9,10

SPR n
00000000
00000000
01011110
01010010
01011110
01011110
01011110
01011110
DLG SPR_c
POS 3 9,6

SPR o
01111110
01000010
01000010
01000010
01111110
00111100
01111110
11111111
>
01111110
01000010
01011010
01000010
01111110
00111100
01111110
11111111
DLG SPR_e
POS 3 9,3

SPR p
01111110
01000010
01000010
01000010
01111110
00111100
01111110
11111111
>
01111110
01000010
01011010
01000010
01111110
00111100
01111110
11111111
DLG SPR_g
POS 0 7,12

SPR q
00000000
00000000
00000000
00000000
00001000
00011100
00111110
01111111
DLG SPR_h
POS 4 6,10

SPR r
00000000
00000000
00000000
00000000
00001000
00011100
00111110
01111111
DLG SPR_i
POS 4 9,10

SPR s
00000000
00000000
00000000
00000000
00001000
00011100
00111110
01111111
DLG SPR_j
POS 4 7,7

SPR t
01111110
01000010
01000010
01000010
01111110
00111100
01111110
11111111
>
01111110
01000010
01011010
01000010
01111110
00111100
01111110
11111111
DLG SPR_k
POS 4 9,3

SPR u
01111110
01000010
01000010
01000010
01111110
00111100
01111110
11111111
>
01111110
01000010
01011010
01000010
01111110
00111100
01111110
11111111
DLG SPR_l
POS 4 6,3

SPR v
00011000
00011000
00111100
11101110
00111110
00101100
00111100
00100100
>
00011000
00011000
00111100
01101111
01111100
00101100
00111100
00100100
POS 6 9,11

ITM 2
00000000
00000000
00000000
00000000
00000000
00000000
00000000
00000000
DLG ITM_0

ITM 3
00000000
00000000
00000000
00000000
00000000
00000000
00000000
00000000
DLG ITM_1

ITM 4
00000010
00100010
00011100
00101100
00011100
10111010
11111111
11111111
>
00100000
00110010
00001110
00101010
00011100
01110101
11111111
11111111

ITM 5
00000111
00000101
00001111
00010000
00001000
11110000
10100000
11100000

ITM 8
00000000
00000000
00111100
01101110
01111110
00101100
00111100
00100100

ITM 9
00000000
00000000
01011110
01010010
01011110
01011110
01011110
01011110

ITM a
00000000
00000000
00000000
00000000
00000000
00000000
00000000
00000000
DLG ITM_2

DLG SPR_0
Over one hundred and fifty years ago, there was a great flood which covered the world and drowned nearly all life. We are the few who rose from the depths to reclaim the destiny of mankind.

DLG SPR_1
Over one hundred and fifty years ago, there was a great fire which consumed the world and burned nearly all life. We are the few who rose from the ashes to reclaim the destiny of mankind.

DLG SPR_2
{rbw}I AM ALPHA. YOU CAN TRUST RAINBOW TEXT.{rbw}

DLG SPR_3
I AM BETA. ALPHA LIES.

DLG SPR_4
{rbw}I AM GAMMA. BOTH DELTA and EPSILON ARE LIARS.{rbw}

DLG SPR_5
I AM DELTA. BETA IS A LIAR.

DLG SPR_6
I AM EPSILON. DON'T TRUST ZETA.

DLG SPR_7
I AM ZETA. TRUST THE CORRECT TERMINAL.

DLG SPR_8
You're gonna die!

DLG SPR_9
SHACKLES: Tool for maximizing the output of laborers

DLG SPR_a
UNIFORM: Garment worn by all citizens

DLG SPR_b
ASH: Unusable byproduct of the incineration process

DLG SPR_c
NOTES ON THE ADVANCEMENT AND PRESERVATION OF MANKIND: Record of the philosophy of the State, upheld by the Council

DLG ITM_0
"""
{shk}BZZT{shk}
WELCOME, FUTURE CITIZEN.
REGARD THE ARTIFACTS.
MAKE YOUR DECISION.
{shk}~END TRANSMISSION~{shk}
"""

DLG SPR_d
The hope of man is choose his own destiny.

DLG SPR_e
I trust the Council to determine my place.

DLG SPR_f
The right of man is to choose his own destiny.

DLG ITM_1
"""
{shk}BZZT{shk}
WELCOME, FUTURE CITIZEN.
REGARD THE TERMINALS.
MAKE YOUR DECISION.
{shk}~END TRANSMISSION~{shk}
"""

DLG SPR_g
YOU CAN TRUST ME. YOU CAN TRUST BETA.

DLG SPR_h
ASH: From the 6th Laborer's Rebellion

DLG SPR_i
ASH: From the 4th Great Famine

DLG SPR_j
ASH: From the 138th Annual Citizen's Exams

DLG SPR_k
I choose to forget.

DLG SPR_l
I choose to remember.

DLG ITM_2
"""
{shk}BZZT{shk}
WELCOME, FUTURE CITIZEN.
REGARD THE ASHES.
MAKE YOUR DECISION.
{shk}~END TRANSMISSION~{shk}
"""

END 0
{shk}BZZT{shk} YOU HAVE BEEN DEEMED DETRIMENTAL TO THE PRESERVATION OF MANKIND. YOU WILL BE INCINERATED. {shk}~END TRANSMISSION~{shk}

END undefined
{shk}BZZT{shk} YOU HAVE BEEN DEEMED VITAL TO THE ADVANCEMENT OF MANKIND. YOU WILL SERVE AS A LABORER. {shk}~END TRANSMISSION~{shk}

END undefinee


END undefinef


END undefineg


END undefineh
Your pragmatism and courage are foundational to the advancement of the State. You have earned a place on the Council!

END undefinei
You have been deemed worthy of full integration into society. Welcome, Citizen!

END undefinej


END undefinek


VAR a
42


