beat the game

# BITSY VERSION 3.5

! ROOM_FORMAT 1

PAL 0
0,7,25
203,170,33
32,218,32

ROOM 0
0,0,0,0,0,0,0,0,0,0,0,0,0,0,0,0
0,a,a,a,a,a,a,a,a,a,a,a,a,a,a,0
0,a,0,0,0,0,0,0,0,0,0,0,0,0,a,0
0,a,0,0,0,0,0,0,0,0,0,0,0,0,a,0
0,0,0,0,0,0,0,0,0,0,0,0,0,0,a,0
0,a,0,0,0,0,0,0,0,0,0,0,0,0,a,0
0,a,0,0,0,0,0,0,0,0,0,0,0,0,a,0
0,a,0,0,0,0,0,0,0,0,0,0,0,0,a,0
0,a,0,0,0,0,0,0,0,0,0,0,0,0,a,0
0,a,0,0,0,0,0,0,0,0,0,0,0,0,a,0
0,a,0,0,0,0,0,0,0,0,0,0,0,0,a,0
0,a,0,0,0,0,0,0,0,0,0,0,0,0,a,0
0,a,0,0,0,0,0,0,0,0,0,0,0,0,a,0
0,a,0,0,0,0,0,0,0,0,0,0,0,0,a,0
0,a,a,a,a,a,a,a,0,a,a,a,a,a,a,0
0,0,0,0,0,0,0,0,0,0,0,0,0,0,0,0
WAL a
EXT 8,14 1 5,3
PAL 0

ROOM 1
b,b,b,b,b,b,b,b,b,b,b,b,b,b,b,b
b,0,0,b,b,b,0,0,0,0,0,0,0,b,0,b
b,0,0,b,0,0,0,0,0,0,b,b,0,b,0,b
b,0,0,b,0,0,0,0,0,0,b,b,0,b,0,b
b,0,0,b,0,0,0,0,0,0,0,0,0,b,0,b
b,0,0,b,0,0,0,0,0,0,0,0,0,b,0,b
b,0,0,b,0,0,0,b,b,0,0,0,0,b,0,b
b,0,0,b,0,0,0,b,b,0,0,0,0,b,0,b
b,0,0,0,0,0,0,0,0,0,0,0,0,b,0,b
0,0,0,0,0,0,0,0,0,b,b,0,0,b,0,b
0,0,0,0,0,b,b,0,0,b,b,0,0,0,0,b
0,0,0,0,0,b,b,0,0,0,0,0,0,0,0,b
b,b,b,b,b,b,b,b,b,b,b,b,0,0,0,b
b,b,b,b,b,b,b,b,b,b,b,b,b,b,b,b
b,b,b,b,b,b,b,b,b,b,b,b,b,b,b,b
b,b,b,b,b,b,b,b,b,b,b,b,b,b,b,b
EXT 14,1 2 1,1
PAL 0

ROOM 2
b,0,b,b,b,b,b,b,b,b,b,b,b,b,b,b
b,0,b,0,0,0,0,0,0,0,0,0,0,0,0,b
b,0,b,0,b,0,0,0,0,0,0,0,0,0,0,b
b,0,0,0,b,0,0,0,0,0,0,0,0,0,0,b
b,b,b,b,b,0,0,0,b,b,b,b,b,b,b,b
0,0,0,0,b,0,0,0,b,0,0,0,0,0,0,0
b,b,b,0,b,0,0,0,b,0,0,0,0,0,0,0
0,0,0,0,0,0,0,0,b,b,b,b,b,b,b,b
b,b,b,b,b,b,b,0,0,0,0,b,b,0,b,b
b,0,0,0,b,0,b,0,b,0,0,b,b,0,b,b
b,0,0,0,b,0,b,0,b,0,0,b,0,b,0,b
b,0,0,0,b,0,b,b,b,b,0,0,b,0,0,b
b,0,0,0,0,0,0,0,0,0,0,b,0,0,0,b
b,0,b,0,0,0,0,0,b,0,0,0,0,0,0,b
b,0,b,0,b,0,0,0,0,0,0,0,0,0,0,0
b,0,b,0,b,b,b,b,b,b,b,b,b,b,b,0
END 0 15,15
PAL 0

TIL a
11111111
10000001
10000001
10011001
10011001
10000001
10000001
11111111
>
00000000
00000000
00000000
00000000
00000000
00000000
00000000
00000000

TIL b
01010101
10101010
01010101
10101010
01010101
10101010
01010101
10101010
>
00111100
00100100
11100111
10100101
10000001
11000011
01100110
11111111

SPR A
11100111
10111101
11100111
01011010
01011010
11100111
10111101
11100111
POS 0 8,5

SPR a
01000010
10100101
10100101
10100101
11100111
00011000
00100100
01011010
POS 0 7,6

DLG a
I'm a cat

END 0
you win


