
You are not alone

# BITSY VERSION 4.5

! ROOM_FORMAT 1

PAL 0
253,182,255
184,25,171
11,255,231

ROOM 0
i,l,i,i,j,i,j,i,i,i,l,k,i,l,l,k
k,g,c,c,c,c,c,c,c,c,c,c,c,c,b,i
i,f,y,m,0,0,0,r,w,x,0,s,0,0,a,j
i,f,r,0,0,0,0,0,u,v,0,0,p,y,a,i
k,f,0,0,0,0,0,s,0,0,0,n,0,0,a,j
i,f,0,t,0,0,0,0,0,0,o,0,m,0,a,i
l,f,0,0,0,0,0,0,0,0,0,0,0,q,a,j
l,f,0,r,0,0,0,0,t,0,0,0,0,0,d,g
i,f,0,0,0,0,0,0,0,0,r,0,0,0,0,0
l,f,0,y,0,0,0,r,0,0,0,0,0,t,b,h
k,f,q,0,r,0,0,0,0,0,r,0,0,0,a,j
i,f,0,p,0,0,0,0,0,0,s,0,p,0,a,i
i,f,y,0,q,0,0,0,0,0,0,0,0,0,a,k
j,f,n,0,0,0,0,0,0,0,0,y,r,0,a,l
i,h,e,e,e,e,e,e,e,e,e,e,e,e,d,i
j,i,l,l,l,i,i,l,l,k,k,l,l,i,i,i
NAME debut
EXT 15,8 1 0,8
PAL 0

ROOM 1
i,l,i,i,j,i,j,i,i,i,l,k,i,l,l,k
k,g,c,c,c,b,10,10,10,g,c,c,c,c,b,i
i,f,y,0,y,a,0,0,0,f,y,s,q,p,a,j
i,f,r,y,0,a,0,0,0,f,q,0,q,p,a,i
k,f,0,0,0,a,z,z,z,f,0,p,0,q,a,j
i,f,y,t,0,b,z,z,z,g,0,q,0,p,a,i
l,f,0,0,0,0,0,0,0,0,0,0,q,t,a,j
b,h,0,r,0,0,0,0,t,0,0,p,0,0,a,i
0,0,0,0,0,0,0,0,0,0,r,0,0,0,a,i
d,g,0,0,0,0,0,r,0,0,0,0,0,t,a,i
k,f,0,0,r,0,0,0,0,0,r,0,0,0,a,j
i,f,0,0,0,0,0,0,0,0,s,0,0,0,a,i
i,f,0,0,0,0,0,0,0,0,0,0,0,0,a,k
j,f,0,0,0,0,0,0,0,0,0,0,r,0,a,l
i,h,e,e,e,e,e,e,d,0,h,e,e,e,d,i
j,i,l,l,l,i,i,l,g,0,b,l,l,i,i,i
NAME 222
EXT 0,8 0 15,8
EXT 9,15 2 9,0
END undefined 7,2
PAL 0

ROOM 2
i,l,i,i,j,i,j,i,h,0,d,k,i,l,l,k
k,g,c,c,c,g,c,c,b,0,g,c,c,c,b,i
i,f,11,11,11,18,0,0,0,0,0,s,19,1a,a,j
i,f,11,11,11,18,0,0,0,19,1a,0,0,1b,a,i
k,g,16,16,15,17,0,0,0,0,1b,19,1a,0,a,j
i,f,y,t,0,0,0,0,0,0,0,0,1b,0,a,i
l,f,0,0,0,0,0,0,0,0,1c,1d,0,t,a,j
j,f,0,r,0,0,0,0,t,0,1e,0,0,0,a,i
j,f,0,1c,1d,0,0,0,0,0,r,0,0,0,a,i
i,f,0,1e,0,0,0,14,11,11,11,11,0,t,a,i
k,f,q,0,0,0,0,14,11,11,12,11,0,0,a,j
i,f,0,p,19,1a,0,14,11,11,11,11,0,0,d,g
i,f,m,0,0,1b,0,14,11,11,11,11,0,0,0,0
j,f,0,0,0,0,p,13,0,0,0,0,r,0,b,h
i,h,e,e,e,e,e,e,e,e,e,e,e,e,d,i
j,i,l,l,l,i,i,l,j,j,j,l,l,i,i,i
NAME 333
EXT 9,0 1 9,15
EXT 15,12 3 0,12
PAL 0

ROOM 3
i,l,i,i,j,i,j,i,k,j,l,k,i,l,l,k
k,g,c,c,c,c,c,c,c,c,c,c,c,c,b,i
i,f,0,0,0,0,0,0,0,0,d,27,h,0,a,j
i,f,0,0,0,0,0,0,0,0,28,0,29,0,a,i
k,f,24,25,0,0,0,1p,1s,0,b,z,g,0,a,j
i,f,22,0,0,0,1o,1n,1q,1r,0,0,0,0,a,i
l,23,21,0,0,0,0,1j,1k,0,0,0,0,t,a,j
j,f,0,r,0,0,0,1l,1m,0,0,1y,20,0,a,i
j,f,0,0,0,0,0,0,0,0,1x,1w,1z,0,a,i
i,f,0,0,0,0,0,0,0,0,0,1v,0,t,a,i
k,f,0,0,0,0,0,0,0,0,1t,1u,0,0,a,j
b,h,0,0,0,0,0,0,0,0,0,0,0,0,a,l
0,0,0,0,0,0,p,0,0,0,0,0,0,0,a,l
d,g,0,0,0,0,0,0,q,0,0,0,r,0,a,l
i,h,e,e,e,e,e,e,e,e,e,e,e,e,d,i
j,i,l,l,l,i,i,l,j,j,j,l,l,i,i,i
NAME 444
EXT 0,12 2 15,12
END undefined 11,3
PAL 0

TIL 10
11111111
11111111
11111111
11111111
01111110
10100101
11011011
00000000
WAL true

TIL 11
00000000
11110111
00000000
11111001
00000000
10101111
00000000
11110110

TIL 12
00111100
01111110
11111111
11111111
11111111
11111111
01111110
00111101
WAL true

TIL 13
00000000
00001000
00000100
00000000
01000000
00000000
00000000
00000000

TIL 14
00011111
00010101
00010101
00011111
00011111
00010101
00010101
00011111
WAL true

TIL 15
11111111
10100101
10111101
11100111
00111100
00100100
00111100
00100100

TIL 16
11111111
10100101
10100101
11111111
00000000
00000000
00000000
00000000
WAL true

TIL 17
11100000
10100000
10100000
11100000
00000000
00000000
00000000
00000000
WAL true

TIL 18
11100000
10100000
11100000
10100000
11100000
10100000
11100000
10100000
WAL true

TIL 19
00011100
01111111
10001111
10011111
11111110
01111100
01111000
00000000
WAL true

TIL 20
00000000
00010000
00010000
00011001
00011001
10010110
10111000
01000000

TIL 21
11100000
11100000
11000000
11000000
11000000
11100000
01111000
00000010
WAL true

TIL 22
11011100
11110100
01111100
11111000
11110000
01100000
11000000
11100000
WAL true

TIL 23
11111001
10101011
10010011
10011111
11111111
11011111
10111111
11111010
WAL true

TIL 24
00000110
00101100
00101000
11110111
10110100
11101100
11110001
11100111
WAL true

TIL 25
00000000
00000000
00000110
00001100
00111000
11000000
00000000
00000000

TIL 26
00000000
00000000
00000000
00000000
00000000
00000000
00000000
00000000

TIL 27
11111111
00000000
11111111
00000000
11111111
00000000
11111111
00000000

TIL 28
10101010
10101010
10101010
10101010
10101010
10101010
10101010
10101010

TIL 29
01010101
01010101
01010101
01010101
01010101
01010101
01010101
01010101

TIL a
00011111
00010101
00001001
00011001
00011001
00001001
00010101
00011111
WAL true

TIL b
11111111
10000001
11100001
10011001
11001001
00100101
00010101
00011111
WAL true

TIL c
11111111
10000001
11000011
10111101
11011011
00000000
00000000
00000000
WAL true

TIL d
00011111
00010101
00100101
11001001
10011001
11100001
10000001
11111111
WAL true

TIL e
00000000
00000000
00000000
11011011
10111101
11000011
10000001
11111111
WAL true

TIL f
11111000
10101000
10010000
10011000
10011000
10010000
10101000
11111000
WAL true

TIL g
11111111
10000001
10000111
10011001
10010011
10100100
10101000
11111000
WAL true

TIL h
11111000
10101000
10100100
10010011
10011001
10000111
10000001
11111111
WAL true

TIL i
11111111
11111111
11011111
11111111
11111111
11111111
01111101
11111111
WAL true

TIL j
11011111
11111111
11111111
11111111
11111111
11111111
11111111
11110111
WAL true

TIL k
11111111
01111111
11111111
11111111
11111111
11111111
11111111
11111111
WAL true

TIL l
11111111
11111101
11111111
11111111
11011111
11111111
11111111
11111111
WAL true

TIL m
00010010
00001011
00000100
10100100
01001000
00111000
00010000
00010000

TIL n
00000100
00001010
01000100
10100100
01001000
00110000
00010000
00010000

TIL o
00010010
00010110
00011000
01001000
10000100
01101000
01001000
01001000

TIL p
00000000
01100010
11110101
11101000
00001000
00001000
00011000
00010000

TIL q
00000000
11001100
00111110
00100110
00110000
00011000
00001100
00000100

TIL r
00000000
00000000
00100001
00000000
00000000
01000000
00000000
00000000

TIL s
00001000
00000000
00000000
00000000
00000000
00100000
00000000
00000000

TIL t
00000000
00000000
10000000
00000000
00000000
00000001
00000000
01000000

TIL u
00111111
00111111
01110111
01110110
01111100
01111000
00011000
00000000
WAL true

TIL v
11100000
11000000
00000000
00000000
00000000
00000000
00000000
00000000
WAL false

TIL w
00000000
00000000
00100001
00000111
00000101
00001111
00011111
00111111

TIL x
00000000
00000000
10000000
11100000
11100000
01100000
11000000
11100000

TIL y
00000000
00110000
00111100
01111110
11111110
11111111
11111111
00000000
WAL true

TIL z
00000000
11111111
00000000
11111111
00000000
11111111
00000000
11111111

TIL 1a
00000000
10000000
11111110
01111001
01011101
01101110
00100000
00100000
WAL true

TIL 1b
00100000
00100000
00110000
00010000
11010000
00110010
10101000
00000000

TIL 1c
00000000
01110000
11011000
10001110
11111010
01100001
00000001
00000001
WAL true

TIL 1d
00000000
00000110
00011111
00100011
11101111
10111111
00011110
00000000
WAL true

TIL 1e
00000001
00000011
00000110
00011100
10010000
00011001
01011100
00000010

TIL 1f
00000000
00000000
11010000
11001000
11111000
11111000
00000111
00000000
WAL true

TIL 1g
00000000
00001000
00001111
00000111
00001111
00110000
11100000
00000000

TIL 1j
00000111
00000011
00000011
00000011
00000111
00000111
00000111
00001111
WAL true

TIL 1k
11100000
10100000
11100000
01100000
11100000
11000000
10000000
10000000
WAL true

TIL 1l
00001111
00011111
00111111
10111111
00111111
01001111
00001000
00000001
WAL true

TIL 1m
10000000
11000000
11000000
11000000
11000000
00000100
00100000
00000000
WAL true

TIL 1n
00010000
00011100
11011000
01101110
00011110
00001110
00001111
00001111
WAL true

TIL 1o
01100000
00010001
00001110
00010000
00000000
00000000
00000000
00000000

TIL 1p
00000100
00110100
00011000
00001000
01011000
01100000
00110000
00010000

TIL 1q
00000100
01001100
01011010
11001000
10001000
11011111
11010000
11110000

TIL 1r
00000000
00000000
00000000
00000000
01000000
11000000
00000000
00000000

TIL 1s
00000000
00000000
00000000
00000110
00101100
00111010
00001000
00001000

TIL 1t
00000001
00000011
00000111
00001101
00111111
01100111
00000011
00000010
WAL true

TIL 1u
11110000
11110000
11100000
11100000
11000000
11100001
11111100
00000110
WAL true

TIL 1v
00001110
00011110
00110110
10111110
01111100
01111000
11110000
11100000
WAL true

TIL 1w
01100000
00101101
00110110
00001111
10011110
11011110
01111111
00001110
WAL true

TIL 1x
00000000
00111000
00001000
00001100
00011110
01100011
00000000
00000000

TIL 1y
10000000
01000000
01100000
00100000
00011010
01010001
01100001
00100000

TIL 1z
11000000
10000000
00000000
00000000
00000000
10000000
11000000
10000000

SPR A
00000000
01111110
01011010
11100111
01111110
00111100
01111110
00100100
>
01111110
01011010
11100111
01111110
00111100
00111100
00100100
00100100
POS 0 4,4

SPR a
00110000
01111000
10110100
11111100
01001010
00000110
01111110
01111100
>
00000000
00110000
01111000
11111100
10110110
01111110
01111110
01111100
DLG SPR_0
POS 0 8,12

SPR b
00000000
00000000
00000000
00000000
00000000
00000000
00000000
00000000

SPR c
00101010
00101010
10111110
10101010
10011100
11011100
01111110
01010100
>
00000000
00101010
10101010
10111110
10101010
10011100
11111100
10010100
DLG SPR_1
POS 1 7,2

SPR d
00000000
00000000
00101100
01111110
11011111
01111111
00111110
00100010
>
00000000
00101100
01111110
11011111
01111111
00111110
00010100
00010100
DLG SPR_2
POS 1 11,10

SPR e
00000000
00000000
00000000
00000000
00000000
00000000
00000000
00000000

SPR f
00111100
00100100
11111111
10111101
10111101
00100100
00100100
01100110
>
00111100
00100100
00111100
11111111
10111101
10100100
00100100
00100100
DLG SPR_3
POS 2 3,2

SPR g
11110000
10111100
11111110
10011110
00011110
00111110
00011110
00011110
>
00000000
11111100
10111110
11111110
10011110
00011110
00011110
00011110
DLG SPR_4
POS 2 11,10

SPR h
00000000
01111100
01010100
00111010
00111110
00001110
00001110
00001010
>
01111100
01010100
00111000
00000010
00111110
00001110
00001110
00001010
DLG SPR_5
POS 3 6,8

ITM 0
00000000
00000000
00000000
00111100
01100100
00100100
00011000
00000000
NAME tea
DLG ITM_0

DLG SPR_0
"""
I know, life is tough and sometimes you have to endure.
Life can bring you so much, but sometimes it brings you weariness. It's a profound kind of tired, one that sleep and caffeine can't touch. It brings you sadness, and anger. It makes you angry at yourself for being like this, angry at others for not caring enough to notice. It makes you isolate yourself from those you care about.But they are there. Your loved ones are all around you, even if you can't reach them at times. You are not alone.
"""

DLG ITM_0
You found a nice warm cup of tea

DLG SPR_2
d

DLG SPR_3
Take your time. Build yourself a comfort zone. A place where you can rest, relax, and find the courage to go outside and face everything.Love, care and patience are your main tools to make it through the moments of sadness.

DLG SPR_4
"""
Don't let this feeling of emptiness become normal to you.
 You are an awesome human being.
"""

DLG SPR_1
"""
Always remember that we are all in the same boat.We all have moments where we feel trapped in our own skin, filled with anxiety and doubt.But you don't have to face it alone.
You can take a deep breath and make peace with yourself.And if you don't know how to do it, remember that you are not alone.
"""

DLG SPR_5
It's all right. Go hug someone you love.

END 0


END undefined
In the end, you are not alone.

END undefinee


END undefinef


VAR a
42


