The Something of Quiboloy

# BITSY VERSION 3.7

! ROOM_FORMAT 1

PAL 0
255,255,255
0,0,0
0,0,0

PAL 1
0,0,0
255,255,255
255,255,255

PAL 2
128,128,128
0,0,0
255,0,0

PAL 3
0,0,0
0,255,0
0,255,0

PAL 4
128,128,128
0,0,0
0,0,255

PAL 5
0,0,0
255,255,255
255,255,255

ROOM 0
b,0,0,0,0,0,0,0,a,0,0,0,0,0,i,0
0,0,a,0,0,0,0,0,0,0,0,0,0,0,0,c
0,0,0,0,0,a,0,0,0,0,0,a,0,0,0,0
0,0,b,0,0,0,0,0,0,0,0,0,0,0,0,0
0,0,0,0,0,0,0,0,0,a,0,0,0,0,0,0
0,0,0,0,0,0,i,0,0,0,0,0,0,b,0,0
0,0,i,0,0,0,0,0,0,0,0,0,0,0,0,c
0,a,0,0,0,0,0,0,0,i,c,0,0,0,0,0
0,0,0,0,b,0,0,0,0,0,0,0,0,0,a,0
0,0,0,0,0,0,0,0,i,0,0,0,0,i,0,0
b,0,0,0,b,b,0,0,0,i,0,0,0,0,0,0
0,0,0,0,0,b,0,0,0,0,0,0,0,a,0,0
0,0,0,57,59,0,0,0,0,0,0,0,0,0,0,0
0,0,0,5a,5b,0,0,0,0,0,0,0,0,0,0,0
0,a,0,0,i,0,0,0,0,0,0,0,a,a,0,0
0,0,0,0,0,0,0,0,0,b,0,0,0,0,0,a
EXT 3,12 1 10,12
EXT 4,12 1 10,12
PAL 0

ROOM 1
f,f,f,f,f,f,f,f,f,f,f,f,f,f,f,f
f,f,f,f,f,f,f,f,f,f,f,f,f,f,f,f
f,f,b,i,b,i,b,i,b,i,b,i,b,i,f,f
f,b,i,0,i,b,i,0,i,b,i,0,i,b,i,f
f,i,b,i,0,i,0,i,0,i,0,i,0,i,b,f
f,b,i,0,i,0,i,0,i,0,i,0,i,0,i,f
f,i,0,i,0,i,0,i,0,i,b,i,0,i,b,f
f,b,i,0,i,b,i,b,i,0,i,0,i,b,i,f
f,i,b,i,0,i,0,i,0,i,b,i,0,b,b,f
f,b,i,0,i,0,i,0,i,0,i,0,i,0,i,f
f,i,0,i,b,i,0,i,0,i,0,i,0,i,b,f
f,b,i,0,i,0,i,0,i,b,i,0,i,b,i,f
f,i,b,i,0,i,b,i,0,i,b,i,0,i,b,f
f,f,i,b,i,b,i,b,i,b,i,b,i,b,f,f
f,f,f,f,f,f,f,5c,5c,f,f,f,f,f,f,f
f,f,f,f,f,f,m,k,k,l,f,f,f,f,f,f
WAL f
EXT 7,15 2 0,0
EXT 8,15 2 0,0
PAL 0

ROOM 2
c,b,a,c,c,b,a,c,a,b,c,c,c,a,b,a
1d,1d,1d,1d,1d,1d,1d,1d,1d,1d,1d,1d,1d,1d,1d,1d
0,0,1a,0,0,0,0,0,0,0,0,0,0,1a,0,0
0,0,19,0,0,r,s,s,s,1b,0,0,0,19,0,0
0,0,19,0,0,p,t,t,t,1c,0,0,0,1i,0,0
0,0,19,0,0,0,0,0,0,0,0,0,0,1j,0,0
0,0,19,0,15,14,1h,0,0,0,r,s,u,v,0,0
0,0,18,0,0,13,0,0,0,0,q,w,0,0,q,0
0,0,0,17,16,12,0,0,0,0,p,t,x,y,q,0
0,0,0,0,0,t,n,t,t,t,t,0,10,z,q,0
0,0,0,0,0,11,4y,11,11,11,11,0,0,0,0,0
0,0,0,0,0,0,0,0,0,0,0,1g,0,0,0,0
0,0,0,0,0,0,0,0,0,1e,1f,0,0,0,0,0
0,0,0,0,0,0,0,0,0,0,0,0,0,0,0,0
0,0,0,0,0,0,0,0,0,0,0,0,0,0,0,0
0,0,0,0,0,0,0,0,0,0,0,0,0,0,0,0
WAL 1a,t,1d,4y
EXT 15,0 3 1,1
PAL 0

ROOM 3
0,0,0,0,0,0,0,0,0,0,0,0,0,0,0,0
0,0,0,0,0,0,0,0,0,0,0,0,0,0,0,0
0,0,0,0,0,0,0,0,0,0,0,0,0,0,0,0
0,0,0,0,0,0,0,0,0,0,0,0,0,0,0,0
0,0,0,0,0,0,0,0,0,0,0,0,0,0,0,0
0,0,0,0,0,0,0,0,0,0,0,0,0,0,0,0
0,0,0,0,0,0,0,0,0,0,0,0,0,0,0,0
0,0,0,0,0,0,0,0,0,0,0,0,0,0,0,0
0,0,0,0,0,0,0,0,0,0,0,0,0,0,0,0
0,0,0,0,0,0,0,0,0,0,0,0,0,0,0,0
0,0,0,0,0,0,0,0,0,0,0,0,0,0,0,0
0,0,0,0,0,0,0,0,0,0,0,0,0,0,0,0
0,0,0,0,0,0,0,0,1k,0,0,0,0,0,0,0
0,0,0,0,0,0,0,0,0,0,0,0,0,0,0,0
0,0,0,0,0,0,0,0,0,0,0,0,0,0,0,0
0,0,0,0,0,0,0,0,0,0,0,0,0,0,0,0
EXT 8,12 4 7,12
PAL 1

ROOM 4
0,0,0,1y,1s,1s,1s,1s,1s,1s,1s,1x,0,0,0,0
0,0,1w,0,0,0,0,0,0,0,0,0,1r,0,0,0
0,1u,0,0,f,0,0,0,0,1t,0,0,0,1s,1p,0
0,1u,0,0,0,1p,0,0,0,1v,0,0,0,0,1u,0
0,1u,0,0,1u,1r,0,0,0,1v,0,0,f,0,1u,0
0,1u,0,0,0,0,1r,1t,1q,0,0,1o,0,1p,1u,0
0,1n,1t,0,0,0,0,0,0,0,0,0,1s,0,1q,0
0,0,0,1r,0,0,0,0,0,0,0,0,1t,1q,0,0
0,0,0,0,1s,1z,1s,1s,1s,1s,1w,1s,0,0,0,0
g,g,g,g,g,1u,g,g,g,g,1v,g,g,g,g,g
0,0,0,1t,1t,1y,0,0,0,0,1v,0,0,0,0,0
0,0,0,0,0,0,0,0,0,0,1x,1t,1t,1t,0,0
0,0,0,0,0,0,0,0,1l,0,0,0,0,0,0,0
0,0,0,0,0,0,0,0,0,0,0,0,0,0,0,0
0,0,0,0,0,0,0,0,0,0,0,0,0,0,0,0
0,0,0,0,0,0,0,0,0,0,0,0,0,0,0,0
WAL g,1u,1v,1x,1y,1t
EXT 8,12 5 7,12
PAL 0

ROOM 5
0,0,0,0,0,0,0,0,0,0,0,0,2i,0,0,0
0,0,0,0,0,0,0,0,0,0,0,0,2i,0,0,0
0,0,0,0,0,0,0,0,0,0,0,0,2j,2l,0,0
0,0,0,0,0,0,0,0,0,0,0,0,2k,0,0,0
0,0,0,0,0,26,2a,f,2b,29,25,0,0,0,0,0
0,0,0,0,26,2b,2a,f,f,29,f,25,0,0,0,0
0,0,0,0,f,f,2a,2c,2e,29,f,2b,0,0,0,0
0,0,0,0,f,28,0,2f,2g,0,27,f,0,0,0,0
0,0,0,0,28,0,0,2i,2h,0,0,27,0,0,0,0
0,0,0,0,0,0,0,2i,2h,0,0,0,0,0,0,0
0,0,0,0,0,0,0,2i,2h,0,0,0,0,0,0,0
0,0,0,0,0,0,0,0,0,0,0,0,0,0,0,0
0,0,0,0,0,0,0,0,1k,0,0,0,0,0,0,0
0,0,0,0,0,0,0,0,0,0,0,0,0,0,0,0
0,0,0,0,0,0,0,0,0,0,0,0,0,0,0,0
0,0,0,0,0,0,0,0,0,0,0,0,0,0,0,0
WAL 25,26,27,28,29,2a,f,2c
EXT 8,6 6 11,14
EXT 7,6 6 11,14
PAL 1

ROOM 6
2n,0,0,0,0,0,0,0,0,0,0,0,0,0,0,2o
0,2n,0,0,0,0,0,0,2q,0,0,36,0,0,2o,0
0,0,2n,0,0,0,0,0,19,0,0,0,0,2o,0,0
0,0,0,r,s,s,s,s,2r,s,s,s,1b,0,0,0
0,0,0,q,0,0,0,i,19,a,b,0,2p,0,0,0
0,0,0,q,0,a,0,f,f,0,0,0,2p,0,0,0
0,0,0,q,b,0,b,f,f,0,i,0,2p,0,0,0
0,0,0,q,0,0,c,f,f,b,0,0,2p,0,0,0
0,0,0,q,0,f,f,f,f,f,f,a,2p,0,0,0
0,0,0,q,f,f,f,f,f,f,f,f,2p,0,0,0
0,2u,0,q,f,f,f,f,f,f,f,f,2p,0,0,0
0,2t,15,14,l,f,f,f,f,f,f,f,2p,0,0,0
0,2t,0,13,f,f,f,f,f,f,f,f,1c,0,35,0
0,2s,16,12,0,0,2x,2w,32,2y,0,0,0,2n,34,0
0,2o,0,0,0,0,2z,2v,2v,30,0,0,0,0,33,0
2o,0,0,0,0,0,0,0,0,0,0,0,0,0,0,2n
WAL f,p,r,1c,2o,2n,2v,2w,2x,2y,2z,30,31,32,12,13,14,16
EXT 14,14 7 2,13
PAL 2

ROOM 7
0,0,0,0,0,0,0,3q,0,0,0,0,0,0,0,0
t,t,t,t,t,t,t,t,t,t,t,t,t,t,t,0
0,0,0,0,0,0,0,0,0,0,0,0,3w,3x,3w,0
0,0,0,0,0,0,0,0,0,0,0,0,3w,3s,3w,0
0,0,0,0,0,0,0,0,0,0,0,0,3w,3s,3w,0
0,0,0,w,0,3a,3d,3g,3i,3f,0,w,3w,3s,3w,0
0,0,0,0,0,3b,3h,3c,3j,3e,0,0,3w,3s,3w,0
0,0,0,0,0,0,0,0,0,0,0,0,3w,3s,3w,0
0,0,0,0,0,0,0,0,0,0,0,0,3w,3s,3w,0
0,0,0,0,0,0,0,0,0,0,0,0,3w,3s,3w,0
0,0,3v,0,0,3m,3n,0,0,0,0,0,3w,3s,3w,0
0,0,3u,0,0,3l,3o,0,0,0,0,0,3w,3s,3w,0
37,37,3t,37,37,3k,3p,37,37,38,t,39,37,3r,37,37
0,0,0,0,0,0,0,0,0,0,0,0,0,0,0,0
0,0,0,0,0,0,0,0,0,0,0,0,0,0,0,0
0,0,0,0,0,0,0,0,0,0,0,0,0,0,0,0
WAL 38,39,3w,37,t,3t,3k,3p
EXT 13,2 8 0,2
PAL 0

ROOM 8
0,0,i,c,0,0,b,0,0,0,0,0,0,0,0,b
1t,1t,1t,1t,1t,1t,1t,1t,1t,0,c,0,0,0,0,0
0,0,0,0,0,0,0,0,0,1r,0,b,0,0,0,0
1s,1s,1s,1s,1s,1s,1s,1r,0,0,1r,1t,1t,1t,i,0
0,4g,i,0,0,0,0,i,1r,0,0,0,0,0,1v,c
i,4f,0,0,a,0,48,47,0,1s,1s,1s,1z,0,1v,0
a,4f,0,0,i,4h,3y,3z,40,4n,0,c,1u,0,1v,0
0,4f,c,0,4a,49,45,46,41,4o,4r,4s,1u,0,1v,0
0,4f,0,0,4b,4i,44,43,42,4p,4q,i,1u,0,1v,0
0,4f,0,b,4b,4j,4k,4l,4m,1t,1t,1t,1q,0,1v,c
i,4e,49,49,4c,i,c,0,1q,0,0,0,0,0,1v,b
0,0,a,0,1t,1t,1t,1q,0,0,1q,1s,1s,1s,0,0
0,0,0,1u,0,0,0,0,0,1q,i,0,c,0,0,0
i,0,0,1u,0,1w,1s,1s,1s,0,4v,4w,0,5f,i,0
0,0,i,1u,0,1v,b,0,0,0,4u,4t,0,5e,0,0
0,a,0,1u,0,1v,0,0,i,0,c,0,0,0,0,a
WAL 1m,1n,1o,1p,1q,1r,1s,1t,1u,1v,1w,1x,1y,1z
EXT 4,15 a 14,13
PAL 3

ROOM 9
0,0,0,0,0,0,0,0,0,0,0,0,0,0,0,0
0,0,0,0,0,0,0,0,0,0,0,0,0,0,0,0
0,0,0,0,0,0,0,0,0,0,0,0,0,0,0,0
0,0,0,0,0,0,0,0,0,0,0,0,0,0,0,0
0,0,0,0,0,0,0,0,0,0,0,0,0,0,0,0
0,0,0,0,0,0,0,0,0,0,0,0,0,0,0,0
0,0,0,0,0,0,0,0,0,0,0,0,0,0,0,0
0,0,0,0,0,0,0,0,0,0,0,0,0,0,0,0
0,0,0,0,0,0,0,0,0,0,0,0,0,0,0,0
0,0,0,0,0,0,0,0,0,0,0,0,0,0,0,0
0,0,0,0,0,0,0,0,0,0,0,0,0,0,0,0
0,0,0,0,0,0,0,0,0,0,0,0,0,0,0,0
0,0,0,0,0,0,0,0,0,0,0,0,0,0,0,0
0,0,0,0,0,0,0,0,0,0,0,0,0,0,0,0
0,0,0,0,0,0,0,0,0,0,0,0,0,0,0,0
0,0,0,0,0,0,0,0,0,0,0,0,0,0,0,0
PAL 0

ROOM a
c,b,a,c,c,b,a,c,a,b,c,c,c,a,b,a
52,52,52,52,52,52,52,52,52,52,52,52,52,52,52,52
0,0,0,0,0,0,0,0,0,0,0,0,0,1a,0,0
0,0,0,0,0,r,s,3d,3g,1b,0,0,0,19,0,0
0,0,0,0,0,p,3h,3j,t,3e,0,0,0,1i,0,0
0,0,0,0,0,0,0,0,0,0,0,0,0,1j,0,0
0,0,0,0,15,14,0,0,0,0,r,s,u,v,0,0
0,0,0,0,0,13,0,0,0,0,q,w,0,0,q,0
0,0,50,51,4z,12,0,0,0,0,p,t,x,y,q,0
4x,4x,4x,4x,4x,t,n,t,t,t,t,4x,10,z,q,4x
0,0,0,0,0,11,4y,11,11,11,11,0,0,0,0,0
0,0,0,0,0,0,0,0,0,0,0,1g,0,0,0,0
0,0,0,0,0,0,0,0,0,1e,1f,0,0,0,0,0
0,0,0,0,0,0,0,0,0,0,0,0,0,0,0,0
0,0,0,0,0,0,0,0,0,0,0,0,0,0,0,0
0,0,0,0,0,0,0,0,0,0,0,0,0,0,0,0
WAL 1a,t,1d,q,z,10,4x,11,4y
EXT 10,12 d 9,13
EXT 9,12 d 9,13
PAL 4

ROOM b
0,0,0,0,0,0,0,0,0,0,0,0,0,0,0,0
0,0,0,0,0,0,0,0,0,0,0,0,0,0,0,0
0,0,0,0,0,0,0,0,0,0,0,0,0,0,0,0
0,0,0,0,0,0,0,0,0,0,0,0,0,0,0,0
0,0,0,0,0,0,0,0,0,0,0,0,0,0,0,0
0,0,0,0,0,0,0,0,0,0,0,0,0,0,0,0
0,0,0,0,0,0,0,0,0,0,0,0,0,0,0,0
0,0,0,0,0,0,0,0,0,0,0,0,0,0,0,0
0,0,0,0,0,0,0,0,0,0,0,0,0,0,0,0
0,0,0,0,0,0,0,0,0,0,0,0,0,0,0,0
0,0,0,0,0,0,0,0,0,0,0,0,0,0,0,0
0,0,0,0,0,0,0,0,0,0,0,0,0,0,0,0
0,0,0,0,0,0,0,0,0,0,0,0,0,0,0,0
0,0,0,0,0,0,0,0,0,0,0,0,0,0,0,0
0,0,0,0,0,0,0,0,0,0,0,0,0,0,0,0
0,0,0,0,0,0,0,0,0,0,0,0,0,0,0,0
PAL 0

ROOM c
0,0,0,0,0,0,0,0,0,0,0,0,0,0,0,0
0,0,0,0,0,0,0,0,0,0,0,0,0,0,0,0
0,0,0,0,0,0,0,0,0,0,0,0,0,0,0,0
0,0,0,0,0,0,0,0,0,0,0,0,0,0,0,0
0,0,0,0,0,0,0,0,0,0,0,0,0,0,0,0
0,0,0,0,0,0,0,0,0,0,0,0,0,0,0,0
0,0,0,0,0,0,0,0,0,0,0,0,0,0,0,0
0,0,0,0,0,0,0,0,0,0,0,0,0,0,0,0
0,0,0,0,0,0,0,0,0,0,0,0,0,0,0,0
0,0,0,0,0,0,0,0,0,0,0,0,0,0,0,0
0,0,0,0,0,0,0,0,0,0,0,0,0,0,0,0
0,0,0,0,0,0,0,0,0,0,0,0,0,0,0,0
0,0,0,0,0,0,0,0,0,0,0,0,0,0,0,0
0,0,0,0,0,0,0,0,0,0,0,0,0,0,0,0
0,0,0,0,0,0,0,0,0,0,0,0,0,0,0,0
0,0,0,0,0,0,0,0,0,0,0,0,0,0,0,0
PAL 0

ROOM d
b,0,0,0,0,0,0,0,a,0,0,0,0,0,i,0
0,0,a,0,0,0,0,0,0,b,0,0,0,0,0,0
0,0,0,0,0,0,0,0,0,0,0,0,0,c,0,0
0,0,b,0,0,0,0,0,0,0,0,57,59,0,0,0
0,0,0,0,0,0,0,0,0,a,0,5a,5b,0,0,0
0,0,i,0,0,0,i,0,0,0,0,0,0,b,0,0
0,a,0,0,0,0,0,0,0,0,0,0,0,0,0,c
0,0,0,c,0,0,0,0,0,b,0,0,0,0,0,0
0,0,b,0,0,0,0,0,0,0,0,0,0,0,0,0
0,0,0,0,0,0,0,0,i,0,0,0,0,0,0,0
b,0,0,0,0,b,0,0,0,i,0,0,0,0,0,0
0,0,0,0,0,b,0,0,0,0,0,0,0,a,0,0
0,0,0,0,0,0,0,0,0,0,0,0,0,0,0,0
0,0,0,0,0,0,0,0,0,i,0,0,0,0,0,0
0,a,0,0,i,0,0,0,0,0,0,0,a,a,0,0
0,0,0,0,0,a,0,0,0,b,0,0,0,0,0,a
EXT 11,3 e 8,7
EXT 12,3 e 8,7
PAL 1

ROOM e
54,54,54,54,54,54,54,54,54,54,54,54,54,54,54,54
54,54,54,54,54,54,54,54,54,54,54,54,54,54,54,54
54,54,b,i,b,i,b,i,b,i,b,i,b,i,54,54
54,b,i,0,i,b,i,0,i,b,i,0,i,b,i,54
54,i,b,i,0,i,0,i,0,i,0,i,0,i,b,54
54,b,i,0,i,0,i,0,i,0,i,0,i,0,i,54
54,i,0,i,0,i,0,i,0,i,b,i,0,i,b,54
54,b,i,0,i,b,i,b,i,0,i,0,i,b,i,54
54,i,b,i,0,i,0,i,0,i,b,i,0,b,b,54
54,b,i,0,i,0,i,0,i,0,i,0,i,0,i,54
54,i,0,i,b,i,0,i,0,i,0,i,0,i,b,54
54,b,i,0,i,0,i,0,i,b,i,0,i,b,i,54
54,i,b,i,0,i,b,i,0,i,b,i,0,i,b,54
54,54,i,b,i,b,i,b,i,b,i,b,i,b,54,54
54,54,54,54,54,54,54,0,0,54,54,54,54,54,54,54
54,54,54,54,54,54,54,53,53,54,54,54,54,54,54,54
WAL f,54
END undefined 7,15
END undefined 8,15
PAL 5

TIL 10
10110000
10001100
11000010
00110000
00001100
00000011
00000000
00000000

TIL 11
00001000
11111111
00000000
00000000
00000000
00000000
00000000
00000000

TIL 12
00101000
00101000
00110000
01100000
10100000
10100000
01010000
10001000

TIL 13
11100000
00110000
00101000
00101000
01110000
10100000
10100000
01110000

TIL 14
00000000
01111000
11111110
11110001
11110001
01111001
00111110
00100000

TIL 15
00000000
00000000
00000000
00000011
00000100
00001000
00001000
00000111

TIL 16
00000000
00000000
00000000
00000000
00000000
00000000
10000011
01111100

TIL 17
10000100
01001010
01001010
01001010
00100100
00011011
00000000
00000000

TIL 18
00001000
00001000
00001000
00001000
00000100
00000100
00000100
00000011

TIL 19
00010000
00010000
00010000
00010000
00010000
00010000
00010000
00010000

TIL 20
11111011
11111111
01111111
11111111
11111111
11111110
11111111
11011111
>
11011111
11111111
11111110
11111111
11111111
01111111
11111111
11111011

TIL 21
11011111
11111111
11111110
11111111
11111111
01111111
11111111
11111011
>
11111011
11111111
01111111
11111111
11111111
11111110
11111111
11011111

TIL 22
11011111
11111111
11111111
11111111
11111111
11111111
11111111
11111011
>
11111111
11111111
11111110
11111111
11111111
01111111
11111111
11111111

TIL 23
11111111
11111111
11111110
11111111
11111111
01111111
11111111
11111111
>
11011111
11111111
11111111
11111111
11111111
11111111
11111111
11111011

TIL 24
11111111
11111111
11111111
11111111
11111111
11101110
01010101
10001000

TIL 25
10000000
11000000
11100000
11110000
11111000
11111100
11111110
11111111

TIL 26
00000001
00000011
00000111
00001111
00011111
00111111
01111111
11111111

TIL 27
11111111
01111111
00111111
00011111
00001111
00000111
00000011
00000001

TIL 28
11111111
11111110
11111100
11111000
11110000
11100000
11000000
10000000

TIL 29
11111110
11111110
11111110
11111110
11111110
11111110
11111110
11111110

TIL 30
00010000
11111000
00010000
00010000
00010000
00010000
11110000
00010000

TIL 31
00000000
00000000
00000000
00000000
00000000
00000000
11111111
00000000

TIL 32
00000000
11100000
11110000
11110000
11111111
00000000
11100000
00110000

TIL 33
10101111
01101111
00111111
00011111
00001111
00000111
00000011
00000001

TIL 34
00101111
00101111
00101111
00101111
00101111
00101111
00101111
00101111

TIL 35
00000000
00000000
00011110
00101111
00101111
00101111
00101111
00101111

TIL 36
00000000
00000000
00011111
00000000
00000000
00000000
10010000
01100000
>
00000000
00000000
00010001
00001110
00000000
00000000
11110000
00000000

TIL 37
00000000
00000000
00000000
11111111
00000000
00000000
00000000
00000000

TIL 38
00000000
00000000
00000000
11111111
00000000
00000010
00000010
00000011
>
00000000
00000000
00000000
11111111
00000000
00000100
00000100
00000011

TIL 39
00000000
00000000
00000000
11111111
00000000
10000000
10000000
10000000
>
00000000
00000000
00000000
11111111
00000000
00100000
01000000
10000000

TIL 40
11111111
00000001
11110001
00010101
10110101
01010101
11110001
00000001
>
11111111
00000001
11110001
01010101
10110101
00010101
11110001
00000001

TIL 41
00000001
11110001
00010101
10100001
00100101
10010001
00010001
10100001
>
00000101
11110001
10100001
00100001
10010001
00010001
10100101
00100001

TIL 42
00100001
00100101
00010101
00010101
11110101
00000101
00000001
11111111
>
00100001
00100101
00100101
00010001
00010001
11110001
00000001
11111111

TIL 43
10000000
10000000
10011111
01000000
01000000
01111111
00000000
11111111
>
10000000
10011111
01000000
01000000
01111111
00000000
00000000
11111111

TIL 44
10000000
10011100
10100110
10101010
10100010
10011100
10000000
11111111
>
10000000
10011100
10100010
10101010
10110010
10011100
10000000
11111111

TIL 45
10111000
10101010
10101010
10101000
10111010
10111010
10111000
10111000
>
10111000
10101010
10101010
10101000
10101010
10101010
10101000
10111000

TIL 46
00000000
01111111
10011111
10000000
01001111
01000000
10011000
10000000
>
00000000
01111111
01000000
10011111
10000000
01001111
01000000
10011000

TIL 47
00000000
00000001
00010001
00000010
01000010
10100100
00100100
00011000
>
00000000
00010001
00101001
00010010
01000010
10100100
00100100
00011000

TIL 48
00000000
00000000
00000000
00000010
00000101
00000010
00000000
00000000
>
00000000
00000000
00000000
00000000
00000010
00000000
00000000
00000000

TIL 49
11111111
00100010
01000100
10001000
00010001
00100010
11111111
00000000

TIL 50
00000000
00000000
00000000
00000000
00000000
11100000
01110000
11101111

TIL 51
00000000
00000000
00000000
00000000
00000000
00000000
00000000
11111111

TIL 52
00000000
01000100
10101010
10111011
10101010
10101010
10101010
11111111

TIL 53
00100000
00000001
00001000
01000000
00000010
00010000
10000000
00000100

TIL 54
00000000
00000000
00000000
00000000
00000000
00000000
00000000
00000000

TIL 55
11111110
10010010
11111110
10101010
11111110
10101010
11111110
10101010

TIL 56
11101110
11111110
11101110
11111110
10101010
11111110
11101110
11111110

TIL 57
00111111
00100000
01000000
01000100
11110000
10001000
10001111
01110000

TIL 58
11111111
00000000
00000000
00000000
00000000
00000000
00000000
00000000

TIL 59
11111100
00000100
00000010
00100010
00001111
00010001
11110001
00001110
>
11111100
00000100
00000010
00100010
00001111
00010001
11110001
00001110

TIL a
00000100
00000000
10000000
00000000
00000000
00000001
00000000
00100000
>
00100000
00000000
00000001
00000000
00000000
10000000
00000000
00000100

TIL b
00100000
00000000
00000000
00000000
00000000
00000000
00000000
00000100
>
00000000
00000000
00000001
00000000
00000000
10000000
00000000
00000000

TIL c
00100000
00000000
00000001
00000000
00000000
10000000
00000000
00000100
>
00000100
00000000
10000000
00000000
00000000
00000001
00000000
00100000

TIL f
11111111
11111111
11111111
11111111
11111111
11111111
11111111
11111111

TIL g
00000000
00000000
00000000
00000000
00000000
00000000
00000000
00000000
>
00000000
00000000
00000000
00000000
00000000
00000000
00000000
00000000

TIL i
00000100
00000000
00000000
00000000
00000000
00000000
00000000
00100000
>
00000000
00000000
10000000
00000000
00000000
00000001
00000000
00000000

TIL j
00000000
01100000
00000000
00000000
00000110
00000000
00000000
01100000
>
00000000
00001110
00000000
00000000
00000001
00000000
00000000
00001110

TIL k
10101010
01010101
10101010
01010101
10101010
01010101
10101010
01010101
>
01010101
10101010
01010101
10101010
01010101
10101010
01010101
10101010

TIL l
11111011
11010111
10101111
11111111
11101111
11010110
10110101
11111011
>
11110101
11101010
10101111
11011011
11110101
11110110
10101111
11011111

TIL m
11011111
10101111
01110011
11111101
11101111
11010101
11011011
10111111
>
01111111
10101111
11010111
11111001
01111111
10110101
10101011
11011111

TIL n
11001100
11001101
01111011
11111111
01111011
00110001
11001100
11001100

TIL o
00000100
00111000
01001000
10010000
10010000
01001100
00100011
00011100

TIL p
10000000
10000000
10000000
10000000
10000000
10000000
10000000
11111111

TIL q
10000000
10000000
10000000
10000000
10000000
10000000
10000000
10000000

TIL r
11111111
10000000
10000000
10000000
10000000
10000000
10000000
10000000

TIL s
11111111
00000000
00000000
00000000
00000000
00000000
00000000
00000000

TIL t
00000000
00000000
00000000
00000000
00000000
00000000
00000000
11111111

TIL u
11000000
00110000
00001100
00000011
00000000
00000000
00000000
00000000

TIL v
00000000
00000000
00000000
00000000
11000000
00110000
00001100
00000011

TIL w
00010000
00101000
01111110
10000010
10010010
10111010
10111010
11111110

TIL x
00000000
00001100
00001011
00001000
00011010
11110000
10001100
10000011

TIL y
00000000
00000000
00000000
11000000
00110000
00001100
00000011
00010001

TIL z
11000011
00110101
11111001
10000001
10000001
10000001
10011001
01100111

TIL 1a
00101000
00111000
00111000
00010000
00010000
00010000
00010000
00010000

TIL 1b
11111111
00000001
00000001
00000001
00000001
00000001
00000001
00000001

TIL 1c
00000001
00000001
00000001
00000001
00000001
00000001
00000001
11111111

TIL 1d
00000000
01000100
10101010
10111011
10101010
10101010
10101010
11111111
>
00000000
00010001
10101010
11101110
10101010
10101010
10101010
11111111

TIL 1e
00011111
00110000
11001111
10111111
11111111
11111111
01111111
00011111

TIL 1f
11111000
00001100
11110011
11111101
11111111
11111111
11111110
11111000

TIL 1g
00000000
00011000
00011000
00100100
00111100
01000010
01000010
11111111

TIL 1h
00000000
00000000
00000011
00011100
01100000
00000110
01110000
00001111
>
00000000
00000000
00000000
00001111
01110000
00000000
01111100
00000011

TIL 1i
00110000
00011000
00101000
01001100
01110100
01000100
00111000
00000000

TIL 1j
00000000
00000000
00000000
00000000
00000000
00000000
00000000
00000000

TIL 1k
00000000
00000000
00000000
00000110
00000110
00001000
00010000
11111110

TIL 1l
00000000
00000000
00000000
11000000
11000000
00100000
00010000
11111110

TIL 1m
11110000
11110000
11110000
11110000
00000000
00000000
00000000
00000000

TIL 1n
00001111
00001111
00001111
00001111
00000000
00000000
00000000
00000000

TIL 1o
00000000
00000000
00000000
00000000
00001111
00001111
00001111
00001111

TIL 1p
00000000
00000000
00000000
00000000
11110000
11110000
11110000
11110000

TIL 1q
00001111
00001111
00001111
00001111
11110000
11110000
11110000
11110000

TIL 1r
11110000
11110000
11110000
11110000
00001111
00001111
00001111
00001111

TIL 1s
11111111
11111111
11111111
11111111
00000000
00000000
00000000
00000000

TIL 1t
00000000
00000000
00000000
00000000
11111111
11111111
11111111
11111111

TIL 1u
00001111
00001111
00001111
00001111
00001111
00001111
00001111
00001111

TIL 1v
11110000
11110000
11110000
11110000
11110000
11110000
11110000
11110000

TIL 1w
11111111
11111111
11111111
11111111
11110000
11110000
11110000
11110000

TIL 1x
11110000
11110000
11110000
11110000
11111111
11111111
11111111
11111111

TIL 1y
00001111
00001111
00001111
00001111
11111111
11111111
11111111
11111111

TIL 1z
11111111
11111111
11111111
11111111
00001111
00001111
00001111
00001111

TIL 2a
01111111
01111111
01111111
01111111
01111111
01111111
01111111
01111111

TIL 2b
11101111
11010111
10000001
01111101
01101101
01000101
01000101
00000001

TIL 2c
11000000
11011111
10111111
10111011
00001111
01110111
01110000
10001111

TIL 2d
00000000
11111111
11111111
11111111
11111111
11111111
11111111
11111111

TIL 2e
00000011
11111011
11111101
11011101
11110000
11101110
00001110
11110001

TIL 2f
00111111
00000000
00000000
00000000
00000000
00000000
00000000
00000000

TIL 2g
11111100
00000000
00000000
00000000
00000000
00000000
00000000
00000000

TIL 2h
00100000
00100000
00100000
00100000
00100000
00100000
00100000
00100000

TIL 2i
00000100
00000100
00000100
00000100
00000100
00000100
00000100
00000100

TIL 2j
10100100
00000100
10100100
00001110
00001110
00001010
00000000
00000010
>
00000100
01000100
00000100
00001110
00001110
00001010
00000000
00000000

TIL 2k
00000000
00001000
00001000
00000000
00000000
00000000
00000000
00000000
>
00000000
00000000
00000010
00000000
00000000
00001000
00001000
00000000

TIL 2l
00000000
00000000
00000000
00000000
01000000
10100000
01000000
00000000
>
00000000
00000000
00000000
00000000
00000000
01000000
00000000
00000000

TIL 2m
00000000
00000000
00000000
00000000
00000000
00000010
00000101
00000010
>
00000000
00000000
00000000
00000000
00000000
00000000
00000010
00000000

TIL 2n
10000000
01000000
00100000
00010000
00001000
00000100
00000010
00000001

TIL 2o
00000001
00000010
00000100
00001000
00010000
00100000
01000000
10000000

TIL 2p
00000001
00000001
00000001
00000001
00000001
00000001
00000001
00000001

TIL 2q
01111100
10000010
10111010
01111100
00111000
00010000
00010000
00010000

TIL 2r
11111111
00010000
00010000
00010000
00010000
00010000
00010000
00010000

TIL 2s
00000010
00000010
00000010
00000010
00000001
00000001
00000000
00000000

TIL 2t
00000010
00000010
00000010
00000010
00000010
00000010
00000010
00000010

TIL 2u
00000000
01100000
10010000
10111000
10111100
10111010
10010010
01100010

TIL 2v
00010000
11111111
00000000
00000000
11111111
00000000
11111111
00000000

TIL 2w
00000000
00000111
00001111
00001111
11111111
00000000
00001111
00011000

TIL 2x
00000000
00000000
00000000
00000000
00000000
00000001
00000010
00000100

TIL 2y
00000000
00000000
00000000
00000000
00000000
10000000
01000000
00100000

TIL 2z
00001000
00011111
00001000
00001000
00001000
00001000
00001111
00001000

TIL 3a
11111111
10000000
10000000
10000000
10000000
10000000
10000000
10000000

TIL 3b
10000000
10000000
10000000
10000000
10000000
10000000
10000000
11111111

TIL 3c
00000000
00000000
00000000
00000000
00000000
00000000
00000000
11111111

TIL 3d
11111111
10000000
01001011
01000100
00111101
00001110
10001100
01010010

TIL 3e
00000001
00000001
00000001
00000001
00000001
00000001
00000001
11111111

TIL 3f
11111111
00000001
00000001
00000001
00000001
00000001
00000001
00000001

TIL 3g
11111111
00000000
01000000
10000000
01000000
00100000
00100000
00010000

TIL 3h
10001000
10010011
01001010
00011100
00101010
00010000
00010000
11111111

TIL 3i
11111111
00000000
00000000
00000000
00000000
00000000
00000000
00000000

TIL 3j
00000100
00001100
10010001
01110010
00111010
00000100
00011000
11111111

TIL 3k
00111111
00100000
00100111
11111111
00101011
00111111
00100000
00000000

TIL 3l
00100001
00100101
00100111
00111111
00100000
00110111
00101101
00100100

TIL 3m
00100011
00111111
00100000
00100100
00101010
00101010
00111111
00100000

TIL 3n
10000101
11111111
00000001
00001111
11101011
10011011
11111111
00000001

TIL 3o
10111101
01001011
01010011
11111111
00001001
00010101
01010101
11010101

TIL 3p
11111111
01000001
01101001
11111111
01001001
11111111
00000001
00000000

TIL 3q
00000000
00000000
00000000
01111110
10100101
10100101
10000001
01111110

TIL 3r
10000001
11111111
10000001
11111111
10000001
11111111
10000001
10000001

TIL 3s
10000001
11111111
10000001
10000001
10000001
11111111
10000001
10000001

TIL 3t
11111101
11111101
11111101
11111111
00000000
00000000
00000000
00000000

TIL 3u
11111101
11111101
11111101
11111101
11111101
11111101
11111101
11111101

TIL 3v
00000000
00000000
00111100
01111110
11111101
11111101
11111101
11111101

TIL 3w
00000000
00000000
00000000
00000000
00000000
00000000
00000000
00000000

TIL 3x
00000000
11111110
10101011
10101010
10101011
10101010
11111111
00000000

TIL 3y
11111111
10000000
10101111
10000000
10101110
10000000
10000100
10000000
>
11111111
10000000
10001111
10000000
10001111
10000000
10010000
10000000

TIL 3z
11111111
00000000
01111111
01010001
01101010
01000100
01111111
00000000
>
11111111
00000000
01111111
01000100
01101010
01010001
01111111
00000000

TIL 4a
00001111
00110010
01010000
10001000
10000101
11100010
10011001
10000110

TIL 4b
11000110
10100010
10010010
10001010
11000110
10100010
10010010
10001010

TIL 4c
11000110
00100010
00010010
10001010
01000100
00111000
11100000
00000000

TIL 4d
00000000
00000000
00000000
00000000
00000000
00000000
00000000
00000000

TIL 4e
01010001
01100010
01001100
01010000
00100001
00011010
00000111
00000000

TIL 4f
01010001
01100011
01000101
01001001
01010001
01100011
01000101
01001001

TIL 4g
00010000
00010100
00000001
00010010
01010001
01101011
01000101
01001001
>
00000100
10001010
01000100
00010000
01010101
01101011
01000101
01001001

TIL 4h
00001000
00010100
00010100
00001100
00010011
00100000
00100000
00010000

TIL 4i
00000000
00001111
00010000
00010000
00001100
00000010
00000100
00111000

TIL 4j
01000000
01000000
00100000
00100000
00100000
00100000
01110000
01110000

TIL 4k
10101000
01010100
01110010
00100010
00100010
00010000
00001111
00000000

TIL 4l
00000101
00011001
00100001
00010000
00001000
00001000
00110000
11000000

TIL 4m
01001000
01000100
00100100
10100100
10101000
00101000
01001000
10000000

TIL 4n
00000000
10000000
01000000
01000000
00100000
10100000
10100000
10100000

TIL 4o
10100100
01100110
00111000
00100000
00010010
01001100
10000010
01100000

TIL 4p
00000000
00000000
00111100
11000010
00000010
00000001
00000000
00000000

TIL 4q
00100000
00100000
01000000
01000000
10000000
00000000
00000000
00000000

TIL 4r
10000000
00000000
01000000
10100000
01000000
00000000
00000011
00011100
>
00000000
00000010
00000000
01000000
00000000
00000000
00000011
00011100

TIL 4s
00000000
00000000
00000000
00000000
00110000
01001000
11101000
00110000

TIL 4t
00011100
00111110
00111110
01001001
00111110
00001000
00011100
00100010

TIL 4u
00101000
00010010
00111000
01000100
00111000
00111111
00010010
00010010
>
00101000
00010000
00111000
01000101
00111000
00111111
00010010
00010010

TIL 4v
00000000
01000111
01000010
01000010
01000010
01000010
01110111
00000000
>
00000000
00000000
00000000
00000000
00000000
00000000
00000000
00000000

TIL 4w
00000000
01010111
01010100
01010110
01010100
01010100
00100111
00000000
>
00000000
00000000
00000000
00000000
00000000
00000000
00000000
00000000

TIL 4x
00000000
00000000
00000000
00000000
00000000
00000000
00000000
00000000

TIL 4y
00001000
11111111
00000000
00000000
00000000
00000000
00000000
00000000

TIL 4z
00000000
00000000
00000000
00000000
00000000
00000000
00000111
11111000

TIL 5a
00111111
00000000
00000000
00000000
00000000
00000000
00000000
00000000

TIL 5b
11111100
00000000
00000000
00000000
00000000
00000000
00000000
00000000

TIL 5c
11111111
11111111
11111111
11111111
11111111
11111111
11111111
11111111

TIL 5d
00000000
00000000
00000000
00000000
00000000
00000000
00000000
00000000

TIL 5e
00101111
00101111
00101111
00101111
00101111
00101111
00101111
00111111

TIL 5f
00000000
00000000
00011110
00101111
00101111
00101111
00101111
00101111

SPR A
00011100
00001000
00111100
01011110
01111010
00111100
00010100
01110110
>
00000000
00011100
00001000
00111100
01011110
01111010
00111100
01110110
POS 0 5,2

SPR a
00010100
00001000
00111110
01000001
01000001
01000001
01000001
00111110
DLG SPR_0
POS 0 11,11

SPR b
00111000
00010000
00111100
01111010
01011110
01111100
00100101
01100110
>
00111000
00010000
00111100
01111010
01011110
01111100
00100100
01100111
DLG SPR_1
POS 1 5,4

SPR c
01110000
01111111
11110100
11111100
01011100
00111000
00101000
01101110
>
00000000
01110000
01111111
11110100
11111100
01011100
00111000
01101110
POS 2 1,9

SPR d
00010100
00001000
00011100
00101110
01111010
00111110
00011100
01110111
>
00010100
00001000
00011100
00111110
01111110
00101010
00011100
01110111
POS 2 4,13

SPR e
01111100
00010000
00111100
01111110
01111110
00111100
00010100
01110111
>
01111100
00010000
00111100
01111010
01011110
00111100
00010100
01110111
POS 2 11,9

SPR f
00000000
00000000
00000000
00000110
00000110
00001000
00010000
11111110

SPR g
00110000
01100000
00100000
00111100
01111010
01111110
01011100
11111111
DLG SPR_2
POS 7 10,12

SPR h
00010100
00001000
00111110
01000001
01000001
01000001
01000001
00111110
DLG SPR_3
POS d 4,4

ITM 0
00000000
00000000
00000000
00111100
01100100
00100100
00011000
00000000
DLG ITM_0

DLG SPR_0
Eye... balls?

DLG ITM_0
You got a cup of tea! Nice.

DLG SPR_1
Hmmmmm... You're late. I never thought my brain could do that.

DLG SPR_2
I'm having a lot of fun being real! Tweehee!

DLG SPR_3
EYEBALLS!!!!

END 0


END undefined
BYE!

