
ivy day

# BITSY VERSION 4.6

! ROOM_FORMAT 1

PAL 0
0,82,204
128,159,255
255,255,255

ROOM 0
a,a,a,a,a,a,a,a,a,a,a,a,a,a,a,a
a,0,0,0,0,0,0,0,0,0,0,0,0,0,0,0
a,0,72,70,75,0,74,76,0,77,76,76,79,72,0,0
a,0,0,0,0,0,0,0,0,0,0,0,0,0,0,0
a,0,0,0,0,0,0,0,0,0,0,0,0,0,0,0
a,0,0,0,0,0,0,0,0,0,0,0,0,0,0,0
a,0,0,0,0,0,0,0,0,0,0,0,0,0,0,0
a,0,0,0,0,0,0,0,0,0,0,0,0,0,0,7e
a,0,0,0,0,0,0,0,0,0,0,0,0,0,0,0
a,0,0,0,0,0,0,0,0,0,0,0,0,0,0,0
a,0,0,0,0,0,0,0,0,0,0,0,0,0,0,0
a,0,0,0,0,0,0,0,0,0,0,0,0,0,0,0
a,0,71,7b,7c,0,7d,70,7c,0,0,0,0,0,0,0
a,0,0,0,0,0,0,0,0,0,0,0,0,0,0,0
a,0,0,0,0,0,0,0,0,0,0,0,0,0,0,0
a,a,a,a,a,a,a,a,a,a,a,a,a,a,a,a
NAME room 1
EXT 15,1 1 0,1
EXT 15,2 1 0,2
EXT 15,3 1 0,3
EXT 15,4 1 0,4
EXT 15,5 1 0,5
EXT 15,6 1 0,6
EXT 15,7 1 0,7
EXT 15,8 1 0,8
EXT 15,9 1 0,9
EXT 15,10 1 0,10
EXT 15,11 1 0,11
EXT 15,12 1 0,12
EXT 15,13 1 0,13
EXT 15,14 1 0,14
PAL 0

ROOM 1
a,a,a,a,a,a,a,a,a,a,a,a,a,a,a,a
0,0,0,0,0,0,0,0,0,0,0,0,0,0,0,0
0,7f,7g,7h,75,7h,0,71,7i,0,70,7a,0,0,0,0
0,0,0,0,0,0,0,0,0,0,0,0,0,0,0,0
0,7j,79,7d,70,7f,7h,0,71,7a,0,7c,73,7b,75,0
0,0,0,0,0,0,0,0,0,0,0,0,0,0,0,0
0,70,79,79,7k,71,7l,70,7a,7f,0,0,0,0,0,0
0,0,0,0,0,0,0,0,0,0,0,0,0,0,0,0
0,7i,7f,70,7f,7j,7i,0,0,0,0,0,0,0,0,0
0,0,0,0,0,0,0,0,0,0,0,0,0,0,0,0
0,79,73,75,7f,70,7k,0,0,0,0,0,0,0,0,0
0,0,0,0,0,0,0,0,0,0,0,0,0,0,0,0
0,0,0,0,0,0,0,0,0,0,0,0,0,0,0,0
0,0,0,0,7k,73,7m,0,71,7a,0,7e,0,0,0,0
0,0,0,0,0,0,0,0,0,0,0,0,0,0,0,0
a,a,a,a,a,a,a,a,a,a,a,a,a,a,a,a
NAME an update
EXT 15,1 2 0,1
EXT 15,2 2 0,2
EXT 15,3 2 0,3
EXT 15,4 2 0,4
EXT 15,5 2 0,5
EXT 15,6 2 0,6
EXT 15,7 2 0,7
EXT 15,8 2 0,8
EXT 15,9 2 0,9
EXT 15,10 2 0,10
EXT 15,11 2 0,11
EXT 15,12 2 0,12
EXT 15,13 2 0,13
EXT 15,14 2 0,14
PAL 0

ROOM 2
a,a,a,a,a,a,a,a,a,a,a,a,a,a,a,a
0,0,0,0,0,0,0,0,0,0,0,0,0,0,0,0
0,0,0,0,0,0,7n,0,0,0,0,0,0,0,0,0
0,0,0,0,0,0,0,0,0,0,0,0,0,0,0,0
0,0,0,0,0,0,0,0,0,0,0,0,0,0,0,0
0,7n,0,0,0,0,0,0,0,0,7n,0,0,0,0,0
0,0,0,0,7n,0,0,0,0,0,0,0,0,0,0,0
0,0,0,0,0,0,0,0,0,0,0,0,0,0,0,0
0,0,0,0,0,0,0,0,0,0,0,0,0,0,0,0
0,0,0,0,0,0,0,0,0,0,0,0,0,0,0,0
0,0,0,0,7n,0,0,0,0,0,0,0,0,0,0,0
0,0,0,0,0,0,0,0,0,0,0,0,0,0,0,0
0,0,0,0,0,0,0,0,7n,0,0,0,0,0,7n,0
0,7n,0,0,0,0,0,0,0,0,0,0,0,0,0,0
0,0,0,0,0,0,0,0,0,0,0,0,0,0,0,0
a,a,a,a,a,a,a,a,a,a,a,a,a,a,a,a
NAME bccd
EXT 15,1 3 0,1
EXT 15,2 3 0,2
EXT 15,3 3 0,3
EXT 15,4 3 0,4
EXT 15,5 3 0,5
EXT 15,6 3 0,6
EXT 15,7 3 0,7
EXT 15,8 3 0,8
EXT 15,9 3 0,9
EXT 15,10 3 0,10
EXT 15,11 3 0,11
EXT 15,12 3 0,12
EXT 15,13 3 0,13
EXT 15,14 3 0,14
PAL 0

ROOM 3
a,a,a,a,a,a,a,a,a,a,a,a,a,a,a,a
0,0,0,0,0,0,0,0,0,0,0,0,0,0,0,0
0,0,0,0,0,0,0,0,0,0,0,0,0,0,0,0
0,7n,0,0,0,0,0,0,0,0,7n,0,0,0,0,0
0,0,0,7n,0,0,0,0,0,0,0,0,0,7n,0,0
0,0,0,0,0,7n,0,0,0,0,0,0,0,0,0,0
0,0,0,0,0,0,0,0,0,0,0,0,0,0,0,0
0,0,0,0,0,0,0,0,0,0,0,0,0,0,0,0
0,0,0,0,0,0,0,0,0,0,0,0,0,0,0,0
0,0,0,0,0,0,0,0,0,0,0,7n,0,0,0,0
0,0,0,0,0,0,0,0,0,0,0,0,0,0,0,0
0,0,7n,0,0,0,7n,0,0,0,0,0,0,0,0,0
0,0,0,0,0,0,0,0,0,0,0,0,0,7n,0,0
0,0,0,0,0,0,0,0,0,7n,0,0,0,0,0,0
0,0,0,0,0,0,0,0,0,0,0,0,0,0,0,0
a,a,a,a,a,a,a,a,a,a,a,a,a,a,a,a
NAME hpuy
EXT 15,4 5 0,4
EXT 15,6 5 0,6
EXT 15,8 5 0,8
EXT 15,10 5 0,10
EXT 15,12 5 0,12
EXT 15,14 5 0,14
EXT 15,1 5 0,1
EXT 15,2 5 0,2
EXT 15,3 5 0,3
EXT 15,5 5 0,5
EXT 15,7 5 0,7
EXT 15,9 5 0,9
EXT 15,11 5 0,11
EXT 15,13 5 0,13
PAL 0

ROOM 5
a,a,a,a,a,a,a,a,a,a,a,a,a,a,a,a
0,0,0,0,0,0,0,0,0,0,0,0,0,0,0,0
0,7r,7s,0,7r,7s,0,7r,7s,0,7r,7s,0,7r,7s,0
0,0,0,0,0,0,0,0,0,0,0,0,0,0,0,0
7o,7o,7o,7o,0,7o,7o,7o,7o,7o,7o,0,7o,7o,7o,7o
0,0,0,0,0,0,0,0,0,0,0,0,0,0,0,0
0,0,0,0,0,0,0,0,0,0,0,0,0,0,0,0
0,0,0,0,0,0,0,0,0,0,0,0,0,0,0,0
0,0,0,0,0,0,0,0,0,0,0,0,0,0,0,0
0,0,0,0,0,0,0,0,0,0,0,0,0,0,0,0
0,0,0,0,0,0,0,0,0,0,0,0,0,0,0,0
7o,7o,7o,7o,0,7o,7o,7o,7o,7o,7o,0,7o,7o,7o,7o
0,0,0,0,0,0,0,0,0,0,0,0,0,0,0,0
0,7r,7s,0,7r,7s,0,7r,7s,0,7r,7s,0,7r,7s,0
0,0,0,0,0,0,0,0,0,0,0,0,0,0,0,0
a,a,a,a,a,a,a,a,a,a,a,a,a,a,a,a
NAME maybe
EXT 15,1 6 0,1
EXT 15,2 6 0,2
EXT 15,3 6 0,3
EXT 15,4 6 0,4
EXT 15,5 6 0,5
EXT 15,6 6 0,6
EXT 15,7 6 0,7
EXT 15,8 6 0,8
EXT 15,9 6 0,9
EXT 15,10 6 0,10
EXT 15,11 6 0,11
EXT 15,12 6 0,12
EXT 15,13 6 0,13
EXT 15,14 6 0,14
PAL 0

ROOM 6
a,a,a,a,a,a,a,a,a,a,a,a,a,a,a,a
0,0,0,0,0,0,0,0,0,0,0,0,0,0,0,0
0,7p,0,0,7q,0,0,0,0,7p,0,0,0,0,0,0
0,0,0,0,0,0,7q,0,0,0,0,0,0,7q,0,0
0,0,0,0,7p,0,0,0,0,0,0,0,0,0,0,0
0,0,0,0,0,0,0,0,0,0,0,0,0,0,0,0
0,0,0,0,0,0,0,0,0,0,0,0,7q,0,0,0
0,0,0,0,0,0,0,0,0,0,0,0,0,0,0,0
0,0,0,0,0,0,0,0,0,0,0,0,0,0,0,0
0,7q,0,0,0,0,0,0,0,0,0,0,0,0,0,0
0,0,0,0,0,0,7p,0,0,7q,0,0,0,7p,0,0
0,0,0,0,7q,0,0,0,0,0,0,0,0,0,0,0
0,0,0,0,0,0,0,0,0,0,0,0,0,0,0,0
0,0,7p,0,0,0,0,0,0,7q,0,0,0,7q,0,0
0,0,0,0,0,0,0,0,0,0,0,0,0,0,0,0
a,a,a,a,a,a,a,a,a,a,a,a,a,a,a,a
NAME celebrating
EXT 15,1 7 0,1
EXT 15,2 7 0,2
EXT 15,3 7 0,3
EXT 15,4 7 0,4
EXT 15,5 7 0,5
EXT 15,6 7 0,6
EXT 15,7 7 0,7
EXT 15,8 7 0,8
EXT 15,9 7 0,9
EXT 15,10 7 0,10
EXT 15,11 7 0,11
EXT 15,12 7 0,12
EXT 15,13 7 0,13
EXT 15,14 7 0,14
PAL 0

ROOM 7
a,a,a,a,a,a,a,a,a,a,a,a,a,a,a,a
0,0,0,0,0,0,0,0,0,0,0,0,0,0,0,a
0,0,0,0,0,0,0,0,0,0,0,0,0,0,0,a
0,0,0,0,0,0,0,0,0,0,0,0,0,0,0,a
0,0,0,0,0,0,0,0,0,0,0,0,0,0,0,a
0,0,0,0,0,0,0,0,0,0,0,0,0,0,0,a
0,0,0,0,0,0,0,0,0,0,0,0,0,0,0,a
0,0,0,0,0,0,0,0,0,0,0,0,0,0,0,a
0,0,0,0,0,0,0,0,0,0,0,0,0,0,0,a
0,0,0,0,0,0,0,0,0,0,0,0,0,0,0,a
0,0,0,0,0,0,0,0,0,0,0,0,0,0,0,a
0,0,0,0,0,0,0,0,0,0,0,0,0,0,0,a
0,0,0,0,0,0,0,0,0,0,0,0,0,0,0,a
0,0,0,0,0,0,0,0,0,0,0,0,0,0,0,a
0,0,0,0,0,0,0,0,0,0,0,0,0,0,0,a
a,a,a,a,a,a,a,a,a,a,a,a,a,a,a,a
NAME u THOUGHT
END 0 6,7
END 0 6,8
END 0 7,9
END 0 8,9
END 0 7,6
END 0 8,6
END 0 9,7
END 0 9,8
PAL 0

TIL 70
00000000
00011000
00100100
00100100
00111100
00100100
00100100
00000000
NAME a

TIL 71
00000000
00111100
00010000
00010000
00010000
00010000
00111100
00000000
NAME i

TIL 72
00000000
00111000
00111100
00101100
00100100
00100100
00100100
00000000
NAME m

TIL 73
00000000
00011000
00100100
00100100
00100100
00100100
00011000
00000000
NAME o

TIL 74
00000000
00111100
00001100
00001100
00110000
00110000
00111100
00000000
NAME 2

TIL 75
00000000
00111000
00100100
00100100
00111100
00101000
00100100
00000000
NAME r

TIL 76
00000000
00111100
00100100
00110100
00101100
00100100
00111100
00000000
NAME 0

TIL 77
00000000
00111101
00000100
00001000
00010000
00010000
00010001
00000000
NAME 7

TIL 78
00000000
00011000
00011000
00000000
00000000
00011000
00011000
00000000
NAME :

TIL 79
00000000
00111000
00100100
00100100
00111000
00100000
00100000
00000000
NAME p

TIL a
11111111
10000001
10000001
10011001
10011001
10000001
10000001
11111111

TIL 7a
00000000
00110100
00110100
00110100
00101100
00101100
00101100
00000000
NAME n

TIL 7b
00000000
00100100
00100100
00100100
00100100
00110100
00011000
00000000
NAME v

TIL 7c
00000000
00100100
00100100
00100100
00011000
00011000
00011000
00000000
NAME y

TIL 7d
00000000
00111000
00100100
00100100
00100100
00100100
00111000
00000000
NAME d

TIL 7e
00000000
00010000
00011000
11111100
11111100
00011000
00010000
00000000
>
00000000
00001000
00001100
01111110
01111110
00001100
00001000
00000000
NAME arrow

TIL 7f
00000000
00111100
00011000
00011000
00011000
00011000
00011000
00000000
NAME t

TIL 7g
00000000
00100100
00100100
00111100
00111100
00100100
00100100
00000000
NAME h

TIL 7h
00000000
00111100
00100000
00100000
00111100
00100000
00111100
00000000

TIL 7i
00000000
00111100
00100000
00110000
00001100
00000100
00111100
00000000

TIL 7j
00000000
00100100
00100100
00100100
00100100
00100100
00011000
00000000

TIL 7k
00000000
00100000
00100000
00100000
00100000
00100000
00111100
00000000

TIL 7l
00000000
00011100
00100000
00100000
00100000
00100000
00011100
00000000

TIL 7m
00000000
00011100
00100000
00100000
00101100
00100100
00011000
00000000

TIL 7n
00011000
00011000
00011000
00111100
01111110
10111101
00100100
00100100
NAME people

TIL 7o
00000000
00001100
00001100
00000110
00111111
00010011
00101111
01000110
WAL true

TIL 7p
00000100
00001110
00011111
00001110
01000100
11100000
01000000
00000100
NAME balloon

TIL 7q
00001000
00000010
00100000
00000000
00000100
00000000
01000000
00000000

TIL 7r
00000111
00011001
01100010
10000100
10000100
01100010
00011001
00000111

TIL 7s
11100000
10011000
01000110
00100001
00100001
01000110
10011000
11100000

SPR 10
01001110
10001000
10000101
01100111
10000001
11110000
01111111
00001111
NAME princeton
DLG SPR_1d
POS 3 11,3

SPR 11
01110010
00010001
10100001
11100110
10000001
00001111
11111110
11110000
NAME princeton 2
DLG SPR_1c
POS 3 12,3

SPR 12
00000001
00010010
00101100
00100000
00100001
00100001
00010000
00011111
NAME princeton 3
DLG SPR_1a
POS 3 11,2

SPR 13
10000000
01001000
00110100
00000100
10000100
10000100
00001000
11111000
NAME princeton 4
DLG SPR_1b
POS 3 12,2

SPR 14
00110100
00010001
10011011
11001111
01000011
11110000
11111111
00011111
NAME upenn
DLG SPR_d
POS 3 3,13

SPR 15
00101100
10001000
11011001
11110011
11000010
00001111
11111111
11111000
NAME upenn 2
DLG SPR_e
POS 3 4,13

SPR 16
00011111
00100000
00101101
00100000
00111111
00111110
00111100
00111001
NAME upenn 3
DLG SPR_f
POS 3 3,12

SPR 17
11111000
00000100
10110100
00000100
11111100
01111100
00111100
10011100
NAME upenn 4
DLG SPR_g
POS 3 4,12

SPR 18
01100110
00100011
00110000
00001100
10000011
01100000
01111111
10011111
NAME yale
DLG SPR_q
POS 3 11,13

SPR 19
01100110
11000100
00001100
00110000
11000001
00000110
11111110
11111001
NAME yale 2
DLG SPR_r
POS 3 12,13

SPR A
00011000
00011000
00011000
00111100
01111110
10111101
00100100
00100100
>
00000000
00011000
00011000
00011000
00111100
01111110
10111101
00100100
POS 0 5,7

SPR b
00110001
00010001
00011001
10001101
01100011
01110000
10111111
00001111
NAME brown 1
DLG SPR_1
POS 2 3,4

SPR c
10001100
10001000
10011000
10110001
11000110
00001110
11111101
11110000
NAME brown 2
DLG SPR_2
POS 2 4,4

SPR d
00000000
00011111
00100001
00100001
00100001
00100001
00111111
00111111
NAME brown 3
DLG SPR_3
POS 2 3,3

SPR e
00000000
11111000
10000100
10000100
10000100
10000100
11111100
11111100
NAME brown 4
DLG SPR_4
POS 2 4,3

SPR f
00001111
11111111
01110010
01111011
11000110
00111100
00001000
01101101
NAME brown 5
DLG SPR_5
POS 2 3,2

SPR g
11110000
11111111
01001110
11011110
01100011
00111100
00010000
10110110
NAME brown 6
DLG SPR_6
POS 2 4,2

SPR h
00000000
00000000
00000000
00000000
00000000
00000000
00000000
00010010
NAME brown 7
DLG SPR_7
POS 2 3,1

SPR i
00000000
00000000
00000000
00000000
00000000
00000000
00000000
01001000
NAME brown 8
DLG SPR_8
POS 2 4,1

SPR j
00011001
00001001
01100100
00011010
00110001
00111100
00001111
00000011
NAME columbia
DLG SPR_y
POS 2 11,4

SPR k
00011000
10010000
00100110
01011000
10001100
00111100
11110000
11000000
NAME columbia 2
DLG SPR_z
POS 2 12,4

SPR l
00111111
01000000
01010000
01011000
01000001
01000011
01000110
00101100
NAME columbia 3
DLG SPR_10
POS 2 11,3

SPR m
11111100
00000010
00001010
00011010
10000010
11000010
01100010
00110100
NAME columbia 4
DLG SPR_11
POS 2 12,3

SPR n
01001000
01001001
00100100
00100010
00010001
00001100
00000011
00000000
NAME cornell
DLG SPR_12
POS 2 3,13

SPR o
00010010
10010010
00100100
01000100
10001000
00110000
11000000
00000000
NAME cornell 2
DLG SPR_13
POS 2 4,13

SPR p
00000000
00000011
00001100
00010000
00100111
00101010
01001010
01001111
NAME cornell 3
DLG SPR_14
POS 2 3,12

SPR q
00000000
11000000
00110000
00001000
11100100
01010100
01010010
11110010
NAME cornell 4
DLG SPR_15
POS 2 4,12

SPR r
10101010
10110101
10010001
11011010
01001100
01100011
00011000
00000111
NAME dartmouth
DLG SPR_16
POS 2 11,13

SPR t
01010101
10101101
01101001
10011011
00110010
11000110
00011000
11110000
NAME dartmouth 2
DLG SPR_17
POS 2 12,13

SPR u
00111111
00000000
00011111
00100001
00101100
10101100
10100000
10110001
NAME dartmouth 3
DLG SPR_18
POS 2 11,12

SPR v
11111100
00000000
11111000
00000100
10000100
01010101
10110101
00010101
NAME dartmouth 4
DLG SPR_19
POS 2 12,12

SPR w
01010001
11011001
00101100
11100110
00110011
00111100
11011111
00000111
NAME harvard 1
DLG SPR_9
POS 3 3,3

SPR x
10001010
10011011
00110100
01100111
11001100
00111100
11110011
11100000
NAME harvard 2
DLG SPR_a
POS 3 4,3

SPR y
00000100
00010011
00101100
01011111
00110000
10110110
01010110
11010000
NAME harvard 3
DLG SPR_b
POS 3 3,2

SPR z
00100000
11001000
00110100
11111010
00001100
01101101
01101010
00001011
NAME harvard 4
DLG SPR_c
POS 3 4,2

SPR 1a
00111111
01000000
01001110
01001111
01001010
01001110
01001010
01001110
NAME yale 3
DLG SPR_s
POS 3 11,12

SPR 1b
11111100
00000010
01110010
11110010
01010010
01110010
01010010
01110010
NAME yale 4
DLG SPR_t
POS 3 12,12

SPR 1c
00011000
00011000
00111100
01011010
00011000
00011000
00100100
00100100
>
00011000
01011010
00111100
00011000
00011000
00011000
00100100
00100100
NAME accepted person 1
DLG SPR_i
POS 3 2,6

SPR 1d
00000000
00011100
00101100
00111100
00011100
00111110
00011100
00010100
>
00011100
00101100
00111100
00011100
00111110
00011100
00010100
00000000
NAME ap2
DLG SPR_h
POS 2 12,8

SPR 1e
00110000
00110010
00100100
00111000
01111000
10111000
00101000
00101000
>
00011000
10011000
01001000
00111000
00111100
00111010
00101000
00101000
NAME ap3
DLG SPR_j
POS 3 12,8

SPR 1j
00011000
00011000
01111000
00011000
01111000
00011000
00011000
00100100
>
00011000
00011000
00011110
00011000
00011110
00011000
00011000
00100100
NAME c1
DLG SPR_0
POS 6 11,4

SPR 1k
00111100
00010100
00111100
00011000
01111110
00011000
00100100
00000100
>
00111100
00101000
00111100
00011000
01111110
00011000
00100100
00100000
NAME c2
DLG SPR_p
POS 6 11,12

SPR 1l
00111100
00100100
00100100
10111101
01111110
00111100
00100100
00100100
>
00000000
00111100
00100100
00100100
00111100
01111110
10111101
00100100
NAME c3
DLG SPR_o
POS 6 3,7

SPR 1m
00000000
00001100
00001110
00000111
00111111
00011011
00101111
01000110
>
00000000
00001100
00011110
00010111
00001111
00011011
00101111
01000110
DLG SPR_k
POS 5 4,4

SPR 1n
00000000
00001100
00001110
00000111
00111111
00011011
00101111
01000110
>
00000000
00001100
00011110
00010111
00001111
00011011
00101111
01000110
DLG SPR_l
POS 5 4,11

SPR 1o
00000000
00001100
00001110
00000111
00111111
00011011
00101111
01000110
>
00000000
00001100
00011110
00010111
00001111
00011011
00101111
01000110
DLG SPR_m
POS 5 11,11

SPR 1p
00000000
00001100
00001110
00000111
00111111
00011011
00101111
01000110
>
00000000
00001100
00011110
00010111
00001111
00011011
00101111
01000110
DLG SPR_n
POS 5 11,4

SPR 1q
10000011
10101111
10000011
01010001
01000101
00100000
00011000
00000111
NAME stanford
DLG SPR_u
POS 7 7,8

SPR 1r
11000001
11110101
11000001
10001001
10100010
00000100
00011000
11100000
NAME stanford 2
DLG SPR_v
POS 7 8,8

SPR 1s
00000111
00011000
00100000
01000001
01000001
10000011
10000001
10000111
NAME stanford 3
DLG SPR_w
POS 7 7,7

SPR 1t
11100000
00011000
00000100
10000010
10000010
11000001
10000001
11100001
NAME stanford 4
DLG SPR_x
POS 7 8,7

ITM 0
00000000
00000000
00000000
00111100
01100100
00100100
00011000
00000000
NAME tea
DLG ITM_0

DLG ITM_0
You found a nice warm cup of tea

DLG SPR_2
"""
{
  - a >= 3 ?
    It's not going to change no matter how many times you read it.
  - else ?
    Dear Applicant,
    
    The Brown Board of Admission has completed its evaluation of more than 35,000 applications to the Class of 2022, and it is with great regret that we must inform you that your application could not be included among our acceptances. We understand how disappointing this news must be, but we are deeply humbled that you chose to apply and grateful to have had the opportunity to learn more about you.
    
    The great majority of applicants to Brown this year are clearly capable of performing well academically and of making significant contributions to the college community in other ways. With more than 20 candidates for every available space, the Board's task in selecting the members of the Class of 2022 has been extremely difficult.
    
    We want to acknowledge your accomplishments and to reiterate how much care we have taken in the admission process to get to know all of our applicants, and how difficult it is to deny so many.
    
    We know that you will have a successful college career and we wish you the best as you pursue your college plans. On behalf of the Board of Admission, I want to thank you for taking the time to prepare your application and for your interest in Brown.
    
    Yours sincerely,
    Logan Powell
    Dean of Admission
    {a = 1}
{a =  + 1}
}
"""

DLG SPR_3
"""
{
  - a >= 3 ?
    It's not going to change no matter how many times you read it.
  - else ?
    Dear Applicant,
    
    The Brown Board of Admission has completed its evaluation of more than 35,000 applications to the Class of 2022, and it is with great regret that we must inform you that your application could not be included among our acceptances. We understand how disappointing this news must be, but we are deeply humbled that you chose to apply and grateful to have had the opportunity to learn more about you.
    
    The great majority of applicants to Brown this year are clearly capable of performing well academically and of making significant contributions to the college community in other ways. With more than 20 candidates for every available space, the Board's task in selecting the members of the Class of 2022 has been extremely difficult.
    
    We want to acknowledge your accomplishments and to reiterate how much care we have taken in the admission process to get to know all of our applicants, and how difficult it is to deny so many.
    
    We know that you will have a successful college career and we wish you the best as you pursue your college plans. On behalf of the Board of Admission, I want to thank you for taking the time to prepare your application and for your interest in Brown.
    
    Yours sincerely,
    Logan Powell
    Dean of Admission
    {a = 1}
{a =  + 1}
}
"""

DLG SPR_4
"""
{
  - a >= 3 ?
    It's not going to change no matter how many times you read it.
  - else ?
    Dear Applicant,
    
    The Brown Board of Admission has completed its evaluation of more than 35,000 applications to the Class of 2022, and it is with great regret that we must inform you that your application could not be included among our acceptances. We understand how disappointing this news must be, but we are deeply humbled that you chose to apply and grateful to have had the opportunity to learn more about you.
    
    The great majority of applicants to Brown this year are clearly capable of performing well academically and of making significant contributions to the college community in other ways. With more than 20 candidates for every available space, the Board's task in selecting the members of the Class of 2022 has been extremely difficult.
    
    We want to acknowledge your accomplishments and to reiterate how much care we have taken in the admission process to get to know all of our applicants, and how difficult it is to deny so many.
    
    We know that you will have a successful college career and we wish you the best as you pursue your college plans. On behalf of the Board of Admission, I want to thank you for taking the time to prepare your application and for your interest in Brown.
    
    Yours sincerely,
    Logan Powell
    Dean of Admission
    {a = 1}
{a =  + 1}
}
"""

DLG SPR_5
"""
{
  - a >= 3 ?
    It's not going to change no matter how many times you read it.
  - else ?
    Dear Applicant,
    
    The Brown Board of Admission has completed its evaluation of more than 35,000 applications to the Class of 2022, and it is with great regret that we must inform you that your application could not be included among our acceptances. We understand how disappointing this news must be, but we are deeply humbled that you chose to apply and grateful to have had the opportunity to learn more about you.
    
    The great majority of applicants to Brown this year are clearly capable of performing well academically and of making significant contributions to the college community in other ways. With more than 20 candidates for every available space, the Board's task in selecting the members of the Class of 2022 has been extremely difficult.
    
    We want to acknowledge your accomplishments and to reiterate how much care we have taken in the admission process to get to know all of our applicants, and how difficult it is to deny so many.
    
    We know that you will have a successful college career and we wish you the best as you pursue your college plans. On behalf of the Board of Admission, I want to thank you for taking the time to prepare your application and for your interest in Brown.
    
    Yours sincerely,
    Logan Powell
    Dean of Admission
    {a = 1}
{a =  + 1}
}
"""

DLG SPR_6
"""
{
  - a >= 3 ?
    It's not going to change no matter how many times you read it.
  - else ?
    Dear Applicant,
    
    The Brown Board of Admission has completed its evaluation of more than 35,000 applications to the Class of 2022, and it is with great regret that we must inform you that your application could not be included among our acceptances. We understand how disappointing this news must be, but we are deeply humbled that you chose to apply and grateful to have had the opportunity to learn more about you.
    
    The great majority of applicants to Brown this year are clearly capable of performing well academically and of making significant contributions to the college community in other ways. With more than 20 candidates for every available space, the Board's task in selecting the members of the Class of 2022 has been extremely difficult.
    
    We want to acknowledge your accomplishments and to reiterate how much care we have taken in the admission process to get to know all of our applicants, and how difficult it is to deny so many.
    
    We know that you will have a successful college career and we wish you the best as you pursue your college plans. On behalf of the Board of Admission, I want to thank you for taking the time to prepare your application and for your interest in Brown.
    
    Yours sincerely,
    Logan Powell
    Dean of Admission
    {a = 1}
{a =  + 1}
}
"""

DLG SPR_7
"""
{
  - a >= 3 ?
    It's not going to change no matter how many times you read it.
  - else ?
    Dear Applicant,
    
    The Brown Board of Admission has completed its evaluation of more than 35,000 applications to the Class of 2022, and it is with great regret that we must inform you that your application could not be included among our acceptances. We understand how disappointing this news must be, but we are deeply humbled that you chose to apply and grateful to have had the opportunity to learn more about you.
    
    The great majority of applicants to Brown this year are clearly capable of performing well academically and of making significant contributions to the college community in other ways. With more than 20 candidates for every available space, the Board's task in selecting the members of the Class of 2022 has been extremely difficult.
    
    We want to acknowledge your accomplishments and to reiterate how much care we have taken in the admission process to get to know all of our applicants, and how difficult it is to deny so many.
    
    We know that you will have a successful college career and we wish you the best as you pursue your college plans. On behalf of the Board of Admission, I want to thank you for taking the time to prepare your application and for your interest in Brown.
    
    Yours sincerely,
    Logan Powell
    Dean of Admission
    {a = 1}
{a =  + 1}
}
"""

DLG SPR_8
"""
{
  - a >= 2 ?
    It's not going to change no matter how many times you read it.
  - else ?
    Dear Applicant,
    
    The Brown Board of Admission has completed its evaluation of more than 35,000 applications to the Class of 2022, and it is with great regret that we must inform you that your application could not be included among our acceptances. We understand how disappointing this news must be, but we are deeply humbled that you chose to apply and grateful to have had the opportunity to learn more about you.
    
    The great majority of applicants to Brown this year are clearly capable of performing well academically and of making significant contributions to the college community in other ways. With more than 20 candidates for every available space, the Board's task in selecting the members of the Class of 2022 has been extremely difficult.
    
    We want to acknowledge your accomplishments and to reiterate how much care we have taken in the admission process to get to know all of our applicants, and how difficult it is to deny so many.
    
    We know that you will have a successful college career and we wish you the best as you pursue your college plans. On behalf of the Board of Admission, I want to thank you for taking the time to prepare your application and for your interest in Brown.
    
    Yours sincerely,
    Logan Powell
    Dean of Admission
    {a = 1}
{a =  + 1}
}
"""

DLG SPR_9
"""
{
  - b >= 3 ?
    A rejection is a rejection.
  - else ?
    Dear Applicant,
    
    The Committee on Admissions has completed its Regular Decision meetings, and I am very sorry to inform you that we cannot offer you admission to the Class of 2022. I wish that a different decision had been possible, but I hope that receiving our final decision now will be helpful to you as you make your college plans.
    
    In recent years, the Committee has been faced with increasingly difficult decisions; more than thirty-nine thousand students now apply for the sixteen hundred and sixty places in the freshman class, and the great majority of our applicants could certainly be successful here academically. In addition, most candidates present strong personal and extracurricular credentials. The Committee has, therefore, been faced with the necessity of choosing a freshman class from a great many more talented and highly qualified students than it has room to admit.
    
    We wish it were possible for us to admit more of our fine applicants, and we understand how difficult the college application process can be for students and their families. While the Committee conducted its deliberations with the utmost care, we know that no one can predict with certainty what an individual will accomplish during college or beyond. Past experience suggests that what students do over the next four years to develop their personal strengths and talents is far more important than the particular colleges they attend.
    
    We very much appreciate the interest you have shown in Harvard, and we hope you will accept the best wishes of the Committee for success in all your future endeavors.
    
    Sincerely,
    William R. Fitzsimmons
    Dean of Admissions and Financial Aid
    {b =  + 1}
}
"""

DLG SPR_a
"""
{
  - b >= 3 ?
    A rejection is a rejection.
  - else ?
    Dear Applicant,
    
    The Committee on Admissions has completed its Regular Decision meetings, and I am very sorry to inform you that we cannot offer you admission to the Class of 2022. I wish that a different decision had been possible, but I hope that receiving our final decision now will be helpful to you as you make your college plans.
    
    In recent years, the Committee has been faced with increasingly difficult decisions; more than thirty-nine thousand students now apply for the sixteen hundred and sixty places in the freshman class, and the great majority of our applicants could certainly be successful here academically. In addition, most candidates present strong personal and extracurricular credentials. The Committee has, therefore, been faced with the necessity of choosing a freshman class from a great many more talented and highly qualified students than it has room to admit.
    
    We wish it were possible for us to admit more of our fine applicants, and we understand how difficult the college application process can be for students and their families. While the Committee conducted its deliberations with the utmost care, we know that no one can predict with certainty what an individual will accomplish during college or beyond. Past experience suggests that what students do over the next four years to develop their personal strengths and talents is far more important than the particular colleges they attend.
    
    We very much appreciate the interest you have shown in Harvard, and we hope you will accept the best wishes of the Committee for success in all your future endeavors.
    
    Sincerely,
    William R. Fitzsimmons
    Dean of Admissions and Financial Aid
    {b =  + 1}
}
"""

DLG SPR_b
"""
{
  - b >= 3 ?
    A rejection is a rejection.
  - else ?
    Dear Applicant,
    
    The Committee on Admissions has completed its Regular Decision meetings, and I am very sorry to inform you that we cannot offer you admission to the Class of 2022. I wish that a different decision had been possible, but I hope that receiving our final decision now will be helpful to you as you make your college plans.
    
    In recent years, the Committee has been faced with increasingly difficult decisions; more than thirty-nine thousand students now apply for the sixteen hundred and sixty places in the freshman class, and the great majority of our applicants could certainly be successful here academically. In addition, most candidates present strong personal and extracurricular credentials. The Committee has, therefore, been faced with the necessity of choosing a freshman class from a great many more talented and highly qualified students than it has room to admit.
    
    We wish it were possible for us to admit more of our fine applicants, and we understand how difficult the college application process can be for students and their families. While the Committee conducted its deliberations with the utmost care, we know that no one can predict with certainty what an individual will accomplish during college or beyond. Past experience suggests that what students do over the next four years to develop their personal strengths and talents is far more important than the particular colleges they attend.
    
    We very much appreciate the interest you have shown in Harvard, and we hope you will accept the best wishes of the Committee for success in all your future endeavors.
    
    Sincerely,
    William R. Fitzsimmons
    Dean of Admissions and Financial Aid
    {b =  + 1}
}
"""

DLG SPR_c
"""
{
  - b >= 3 ?
    A rejection is a rejection.
  - else ?
    Dear Applicant,
    
    The Committee on Admissions has completed its Regular Decision meetings, and I am very sorry to inform you that we cannot offer you admission to the Class of 2022. I wish that a different decision had been possible, but I hope that receiving our final decision now will be helpful to you as you make your college plans.
    
    In recent years, the Committee has been faced with increasingly difficult decisions; more than thirty-nine thousand students now apply for the sixteen hundred and sixty places in the freshman class, and the great majority of our applicants could certainly be successful here academically. In addition, most candidates present strong personal and extracurricular credentials. The Committee has, therefore, been faced with the necessity of choosing a freshman class from a great many more talented and highly qualified students than it has room to admit.
    
    We wish it were possible for us to admit more of our fine applicants, and we understand how difficult the college application process can be for students and their families. While the Committee conducted its deliberations with the utmost care, we know that no one can predict with certainty what an individual will accomplish during college or beyond. Past experience suggests that what students do over the next four years to develop their personal strengths and talents is far more important than the particular colleges they attend.
    
    We very much appreciate the interest you have shown in Harvard, and we hope you will accept the best wishes of the Committee for success in all your future endeavors.
    
    Sincerely,
    William R. Fitzsimmons
    Dean of Admissions and Financial Aid
    {b =  + 1}
}
"""

DLG SPR_d
"""
{
  - c >= 3 ?
    Were you hoping for a different result?
  - else ?
    Dear Applicant,
    
    The selection committee has completed its deliberations, and it is with genuine regret that I inform you that we are not offering you admission to the University of Pennsylvania. 
    
    My colleagues and I are humbled by your interest in Penn, and we acknowledge the time and effort you have put into the college search and application process. As you move forward with the other opportunities that await you, take your next steps with confidence. The accomplishments you shared with us through your application paint a clear picture of the great things ahead for you. You have our best wishes for your bright future.
    
    Very truly yours,
    Erica J. Furda C'87
    Dean of Admissions
    {c =  + 1}
}
"""

DLG SPR_e
"""
{
  - c >= 3 ?
    Were you hoping for a different result?
  - else ?
    Dear Applicant,
    
    The selection committee has completed its deliberations, and it is with genuine regret that I inform you that we are not offering you admission to the University of Pennsylvania. 
    
    My colleagues and I are humbled by your interest in Penn, and we acknowledge the time and effort you have put into the college search and application process. As you move forward with the other opportunities that await you, take your next steps with confidence. The accomplishments you shared with us through your application paint a clear picture of the great things ahead for you. You have our best wishes for your bright future.
    
    Very truly yours,
    Erica J. Furda C'87
    Dean of Admissions
    {c =  + 1}
}
"""

DLG SPR_f
"""
{
  - c >= 3 ?
    Were you hoping for a different result?
  - else ?
    Dear Applicant,
    
    The selection committee has completed its deliberations, and it is with genuine regret that I inform you that we are not offering you admission to the University of Pennsylvania. 
    
    My colleagues and I are humbled by your interest in Penn, and we acknowledge the time and effort you have put into the college search and application process. As you move forward with the other opportunities that await you, take your next steps with confidence. The accomplishments you shared with us through your application paint a clear picture of the great things ahead for you. You have our best wishes for your bright future.
    
    Very truly yours,
    Erica J. Furda C'87
    Dean of Admissions
    {c =  + 1}
}
"""

DLG SPR_g
"""
{
  - c >= 3 ?
    Were you hoping for a different result?
  - else ?
    Dear Applicant,
    
    The selection committee has completed its deliberations, and it is with genuine regret that I inform you that we are not offering you admission to the University of Pennsylvania. 
    
    My colleagues and I are humbled by your interest in Penn, and we acknowledge the time and effort you have put into the college search and application process. As you move forward with the other opportunities that await you, take your next steps with confidence. The accomplishments you shared with us through your application paint a clear picture of the great things ahead for you. You have our best wishes for your bright future.
    
    Very truly yours,
    Erica J. Furda C'87
    Dean of Admissions
    {c =  + 1}
}
"""

DLG SPR_h
"""
i got in!! i got in!!!

all i had to do was get a 4.0 gpa, take 16 aps, get an 800 in the math 2, physics, and chemistry subject sats, be concertmaster, and do science research in the cure for cancer!!!
"""

DLG SPR_i
"""
i can't believe i got in!!!

the 1600 sat, being a national honors scholar, doing 600 hours of volunteering, becoming key club president, and publishing my writing twice really helped!!!
"""

DLG SPR_j
"""
oh my god oh my god oh my god im IN!!!

i can't believe that i, with a 36 act, captain of the volleyball team, founder of a robotics team that made it to nationals, and with 10 gold national medals for art and writing with a touring exhibition made it!!!
"""

DLG SPR_k
shouldve looked harder for internships...

DLG SPR_l
haha you need wayyy more national medals than that

DLG SPR_m
"""
maybe if i worked a little harder

but i didn't do anything except study and work 

i didn't spend any time with friends or for myself

what could i have even done
"""

DLG SPR_n
oh god im a failure

DLG SPR_0
"""
i didn't get into my dream school

i'm still working through it

give it a week or so and i'll be fine
"""

DLG SPR_o
"""
i got in to somewhere i like!!!

it's not an ivy but fuck them anyway!!! rankings are dumb and if i work hard enough i'll succeed in life without them!!!
"""

DLG SPR_p
"""
i'm just glad this is all over and i know now where i'm not going

i like some of the other schools i got into so now i can just see which one of those works best for me
"""

DLG SPR_q
"""
{
  - d >= 3 ?
    Stop rereading this. Stop doing this to yourself.
  - else ?
    Dear Applicant:
    
    The Yale Admissions Committee has completed its evaluation of this year's candidates, and I am genuinely sorry that we are not able to offer you a place in the Class of 2022.
    
    I realize this decision may come as a real disappointment. I hope you will understand that the decision reflects the extraordinary range of talents represented in our applicant pool and not a judgement about your own abilities or potential. Of the more than thirty-five thousand individuals who applied to Yale this year, most are fully capable of doing outstanding work and making a unique contribution to a campus community. It is painful to us that we must turn away so many superbly talented students.
    
    You may be tempted to ask what was lacking in your application. In truth, it is usually difficult for us to point to obvious weaknesses when so many applicants have demonstrated real achievement and potential for the future. Our decisions say far more about the small number of spaces available and the difficult choices we make than they do about a candidate's personal and academic promise. 
    
    I hope that the replies you receive from other colleges this spring will soon erase any disappointment regarding Yale's decision, and that you will go on to great success in your educational pursuits.
    
    Sincerely,
    
    Jeremiah Quinian
    Dean of Undergraduate Admissions
    {d =  + 1}
}
"""

DLG SPR_r
"""
{
  - d >= 3 ?
    Stop rereading this. Stop doing this to yourself.
  - else ?
    Dear Applicant:
    
    The Yale Admissions Committee has completed its evaluation of this year's candidates, and I am genuinely sorry that we are not able to offer you a place in the Class of 2022.
    
    I realize this decision may come as a real disappointment. I hope you will understand that the decision reflects the extraordinary range of talents represented in our applicant pool and not a judgement about your own abilities or potential. Of the more than thirty-five thousand individuals who applied to Yale this year, most are fully capable of doing outstanding work and making a unique contribution to a campus community. It is painful to us that we must turn away so many superbly talented students.
    
    You may be tempted to ask what was lacking in your application. In truth, it is usually difficult for us to point to obvious weaknesses when so many applicants have demonstrated real achievement and potential for the future. Our decisions say far more about the small number of spaces available and the difficult choices we make than they do about a candidate's personal and academic promise. 
    
    I hope that the replies you receive from other colleges this spring will soon erase any disappointment regarding Yale's decision, and that you will go on to great success in your educational pursuits.
    
    Sincerely,
    
    Jeremiah Quinian
    Dean of Undergraduate Admissions
    {d =  + 1}
}
"""

DLG SPR_s
"""
{
  - d >= 3 ?
    Stop rereading this. Stop doing this to yourself.
  - else ?
    Dear Applicant:
    
    The Yale Admissions Committee has completed its evaluation of this year's candidates, and I am genuinely sorry that we are not able to offer you a place in the Class of 2022.
    
    I realize this decision may come as a real disappointment. I hope you will understand that the decision reflects the extraordinary range of talents represented in our applicant pool and not a judgement about your own abilities or potential. Of the more than thirty-five thousand individuals who applied to Yale this year, most are fully capable of doing outstanding work and making a unique contribution to a campus community. It is painful to us that we must turn away so many superbly talented students.
    
    You may be tempted to ask what was lacking in your application. In truth, it is usually difficult for us to point to obvious weaknesses when so many applicants have demonstrated real achievement and potential for the future. Our decisions say far more about the small number of spaces available and the difficult choices we make than they do about a candidate's personal and academic promise. 
    
    I hope that the replies you receive from other colleges this spring will soon erase any disappointment regarding Yale's decision, and that you will go on to great success in your educational pursuits.
    
    Sincerely,
    
    Jeremiah Quinian
    Dean of Undergraduate Admissions
    {d =  + 1}
}
"""

DLG SPR_t
"""
{
  - d >= 3 ?
    Stop rereading this. Stop doing this to yourself.
  - else ?
    Dear Applicant:
    
    The Yale Admissions Committee has completed its evaluation of this year's candidates, and I am genuinely sorry that we are not able to offer you a place in the Class of 2022.
    
    I realize this decision may come as a real disappointment. I hope you will understand that the decision reflects the extraordinary range of talents represented in our applicant pool and not a judgement about your own abilities or potential. Of the more than thirty-five thousand individuals who applied to Yale this year, most are fully capable of doing outstanding work and making a unique contribution to a campus community. It is painful to us that we must turn away so many superbly talented students.
    
    You may be tempted to ask what was lacking in your application. In truth, it is usually difficult for us to point to obvious weaknesses when so many applicants have demonstrated real achievement and potential for the future. Our decisions say far more about the small number of spaces available and the difficult choices we make than they do about a candidate's personal and academic promise. 
    
    I hope that the replies you receive from other colleges this spring will soon erase any disappointment regarding Yale's decision, and that you will go on to great success in your educational pursuits.
    
    Sincerely,
    
    Jeremiah Quinian
    Dean of Undergraduate Admissions
    {d =  + 1}
}
"""

DLG SPR_u
bitch u THOUGHT

DLG SPR_v
bitch you THOUGHT

DLG SPR_w
bitch you THOUGHT

DLG SPR_x
bitch you THOUGHT

DLG SPR_y
"""
{
  - e >= 3 ?
    Don't bother rereading it.
  - else ?
    Dear Applicant,
    
    The Committee on Admissions has carefully reviewed your application to Columbia University, and we are sorry to inform you we cannot offer you a place in Columbiaâ€™s Class of 2022. This year, over 33,000 candidates applied for places in the first-year class, making this the most difficult selection process in our history. The many strengths of the entire applicant pool â€“ as demonstrated by scholastic successes achieved, by community service performed, by activities pursued, by essays written and by books read â€“ made the selection process more competitive than simple numbers could possibly indicate. Indeed, while we are gratified by the number of candidates seeking the excitement and challenge of the Columbia experience, the size of the pool sadly compels us to disappoint a great many talented and appealing young people.
    
    We want you to know that our decision in no way reflects a lack of confidence in your ability to achieve success in your college plans and on through life. Our experience is that the vast majority of students who do not gain admission here go on to distinguish themselves at fine colleges and universities throughout the world, and we are confident that you will do so as well. We must make clear, however, that since our decisions are made after many hours of intense deliberation, the Office of Undergraduate Admissions cannot consider any review of your decision.
    
    We appreciate your interest in Columbia and wish you the best in your pursuit of higher education.
    
    
    Sincerely,
    
    Signature
    Jessica Marinaccio
    Dean of Undergraduate Admissions
    {e =  + 1}
}
"""

DLG SPR_z
"""
{
  - e >= 3 ?
    Don't bother rereading it.
  - else ?
    Dear Applicant,
    
    The Committee on Admissions has carefully reviewed your application to Columbia University, and we are sorry to inform you we cannot offer you a place in Columbiaâ€™s Class of 2022. This year, over 33,000 candidates applied for places in the first-year class, making this the most difficult selection process in our history. The many strengths of the entire applicant pool â€“ as demonstrated by scholastic successes achieved, by community service performed, by activities pursued, by essays written and by books read â€“ made the selection process more competitive than simple numbers could possibly indicate. Indeed, while we are gratified by the number of candidates seeking the excitement and challenge of the Columbia experience, the size of the pool sadly compels us to disappoint a great many talented and appealing young people.
    
    We want you to know that our decision in no way reflects a lack of confidence in your ability to achieve success in your college plans and on through life. Our experience is that the vast majority of students who do not gain admission here go on to distinguish themselves at fine colleges and universities throughout the world, and we are confident that you will do so as well. We must make clear, however, that since our decisions are made after many hours of intense deliberation, the Office of Undergraduate Admissions cannot consider any review of your decision.
    
    We appreciate your interest in Columbia and wish you the best in your pursuit of higher education.
    
    
    Sincerely,
    
    Signature
    Jessica Marinaccio
    Dean of Undergraduate Admissions
    {e =  + 1}
}
"""

DLG SPR_10
"""
{
  - e >= 3 ?
    Don't bother rereading it.
  - else ?
    Dear Applicant,
    
    The Committee on Admissions has carefully reviewed your application to Columbia University, and we are sorry to inform you we cannot offer you a place in Columbiaâ€™s Class of 2022. This year, over 33,000 candidates applied for places in the first-year class, making this the most difficult selection process in our history. The many strengths of the entire applicant pool â€“ as demonstrated by scholastic successes achieved, by community service performed, by activities pursued, by essays written and by books read â€“ made the selection process more competitive than simple numbers could possibly indicate. Indeed, while we are gratified by the number of candidates seeking the excitement and challenge of the Columbia experience, the size of the pool sadly compels us to disappoint a great many talented and appealing young people.
    
    We want you to know that our decision in no way reflects a lack of confidence in your ability to achieve success in your college plans and on through life. Our experience is that the vast majority of students who do not gain admission here go on to distinguish themselves at fine colleges and universities throughout the world, and we are confident that you will do so as well. We must make clear, however, that since our decisions are made after many hours of intense deliberation, the Office of Undergraduate Admissions cannot consider any review of your decision.
    
    We appreciate your interest in Columbia and wish you the best in your pursuit of higher education.
    
    
    Sincerely,
    
    Signature
    Jessica Marinaccio
    Dean of Undergraduate Admissions
    {e =  + 1}
}
"""

DLG SPR_11
"""
{
  - e >= 3 ?
    Don't bother rereading it.
  - else ?
    Dear Applicant,
    
    The Committee on Admissions has carefully reviewed your application to Columbia University, and we are sorry to inform you we cannot offer you a place in Columbiaâ€™s Class of 2022. This year, over 33,000 candidates applied for places in the first-year class, making this the most difficult selection process in our history. The many strengths of the entire applicant pool â€“ as demonstrated by scholastic successes achieved, by community service performed, by activities pursued, by essays written and by books read â€“ made the selection process more competitive than simple numbers could possibly indicate. Indeed, while we are gratified by the number of candidates seeking the excitement and challenge of the Columbia experience, the size of the pool sadly compels us to disappoint a great many talented and appealing young people.
    
    We want you to know that our decision in no way reflects a lack of confidence in your ability to achieve success in your college plans and on through life. Our experience is that the vast majority of students who do not gain admission here go on to distinguish themselves at fine colleges and universities throughout the world, and we are confident that you will do so as well. We must make clear, however, that since our decisions are made after many hours of intense deliberation, the Office of Undergraduate Admissions cannot consider any review of your decision.
    
    We appreciate your interest in Columbia and wish you the best in your pursuit of higher education.
    
    
    Sincerely,
    
    Signature
    Jessica Marinaccio
    Dean of Undergraduate Admissions
    {e =  + 1}
}
"""

DLG SPR_12
"""
{
  - f >= 1 ?
    No matter how much you pray, the results aren't going to change.
  - else ?
    Dear Applicant,
    
    We are providing you with our decision on your application for admission to Cornell University. We regret to have to tell you that we are unable to offer you admission to Cornell.
    
    This electronic message is not your official notification. You should be receiving an official letter from us in the mail shortly.
    
    We understand that this is not the news you were hoping to hear from Cornell. Given our very large and competitive applicant pool, it is not possible to offer admission to all candidates who would benefit from a Cornell education. If you would like information about transferring to the university after freshman year, please visit: http://admissions.cornell.edu/apply/transfer/.
    
    We wish you the best.
    
    Sincerely,
    
    Jason Locke
    Director
    Undergraduate Admissions Office
    Cornell University
    {f =  + 1}
}
"""

DLG SPR_13
"""
{
  - f >= 1 ?
    No matter how much you pray, the results aren't going to change.
  - else ?
    Dear Applicant,
    
    We are providing you with our decision on your application for admission to Cornell University. We regret to have to tell you that we are unable to offer you admission to Cornell.
    
    This electronic message is not your official notification. You should be receiving an official letter from us in the mail shortly.
    
    We understand that this is not the news you were hoping to hear from Cornell. Given our very large and competitive applicant pool, it is not possible to offer admission to all candidates who would benefit from a Cornell education. If you would like information about transferring to the university after freshman year, please visit: http://admissions.cornell.edu/apply/transfer/.
    
    We wish you the best.
    
    Sincerely,
    
    Jason Locke
    Director
    Undergraduate Admissions Office
    Cornell University
    {f =  + 1}
}
"""

DLG SPR_14
"""
{
  - f >= 1 ?
    No matter how much you pray, the results aren't going to change.
  - else ?
    Dear Applicant,
    
    We are providing you with our decision on your application for admission to Cornell University. We regret to have to tell you that we are unable to offer you admission to Cornell.
    
    This electronic message is not your official notification. You should be receiving an official letter from us in the mail shortly.
    
    We understand that this is not the news you were hoping to hear from Cornell. Given our very large and competitive applicant pool, it is not possible to offer admission to all candidates who would benefit from a Cornell education. If you would like information about transferring to the university after freshman year, please visit: http://admissions.cornell.edu/apply/transfer/.
    
    We wish you the best.
    
    Sincerely,
    
    Jason Locke
    Director
    Undergraduate Admissions Office
    Cornell University
    {f =  + 1}
}
"""

DLG SPR_15
"""
{
  - f >= 1 ?
    No matter how much you pray, the results aren't going to change.
  - else ?
    Dear Applicant,
    
    We are providing you with our decision on your application for admission to Cornell University. We regret to have to tell you that we are unable to offer you admission to Cornell.
    
    This electronic message is not your official notification. You should be receiving an official letter from us in the mail shortly.
    
    We understand that this is not the news you were hoping to hear from Cornell. Given our very large and competitive applicant pool, it is not possible to offer admission to all candidates who would benefit from a Cornell education. If you would like information about transferring to the university after freshman year, please visit: http://admissions.cornell.edu/apply/transfer/.
    
    We wish you the best.
    
    Sincerely,
    
    Jason Locke
    Director
    Undergraduate Admissions Office
    Cornell University
    {f =  + 1}
}
"""

DLG SPR_16
"""
{
  - g >= 3 ?
    Why are you torturing yourself like this?
  - else ?
    I regret to inform you that we cannot offer you admission to the Class of 2022 at Dartmouth. During the past few months as we evaluated more than 10,000 applicants, we have tried to bring to our deliberations the care and intensity that you brought to your application. Our selection process did give us the opportunity to fully evaluate your candidacy.
    
    The selection process does not separate the qualified from the unqualified applicants. We are convinced that most candidates for admission to Dartmouth would thrive academically and personally at the College. Of the many strong students in our applicant pool, an overwhelming majority is destined to perform extremely well in their college years. It is only the highly selective nature of the competition for admission that prevents us from offering more of our applicants a place at Dartmouth. This is one of the few times we wish we had a larger student body so that we could enroll more students.
    
    The disappointment we feel in sending you this news is tempered by our knowledge that you will be successful at the institution you choose to attend. Best wishes for the next four years.
    {g =  + 1}
}
"""

DLG SPR_17
"""
{
  - g >= 3 ?
    Why are you torturing yourself like this?
  - else ?
    I regret to inform you that we cannot offer you admission to the Class of 2022 at Dartmouth. During the past few months as we evaluated more than 10,000 applicants, we have tried to bring to our deliberations the care and intensity that you brought to your application. Our selection process did give us the opportunity to fully evaluate your candidacy.
    
    The selection process does not separate the qualified from the unqualified applicants. We are convinced that most candidates for admission to Dartmouth would thrive academically and personally at the College. Of the many strong students in our applicant pool, an overwhelming majority is destined to perform extremely well in their college years. It is only the highly selective nature of the competition for admission that prevents us from offering more of our applicants a place at Dartmouth. This is one of the few times we wish we had a larger student body so that we could enroll more students.
    
    The disappointment we feel in sending you this news is tempered by our knowledge that you will be successful at the institution you choose to attend. Best wishes for the next four years.
    {g =  + 1}
}
"""

DLG SPR_18
"""
{
  - g >= 3 ?
    Why are you torturing yourself like this?
  - else ?
    I regret to inform you that we cannot offer you admission to the Class of 2022 at Dartmouth. During the past few months as we evaluated more than 10,000 applicants, we have tried to bring to our deliberations the care and intensity that you brought to your application. Our selection process did give us the opportunity to fully evaluate your candidacy.
    
    The selection process does not separate the qualified from the unqualified applicants. We are convinced that most candidates for admission to Dartmouth would thrive academically and personally at the College. Of the many strong students in our applicant pool, an overwhelming majority is destined to perform extremely well in their college years. It is only the highly selective nature of the competition for admission that prevents us from offering more of our applicants a place at Dartmouth. This is one of the few times we wish we had a larger student body so that we could enroll more students.
    
    The disappointment we feel in sending you this news is tempered by our knowledge that you will be successful at the institution you choose to attend. Best wishes for the next four years.
    {g =  + 1}
}
"""

DLG SPR_19
"""
{
  - g >= 3 ?
    Why are you torturing yourself like this?
  - else ?
    I regret to inform you that we cannot offer you admission to the Class of 2022 at Dartmouth. During the past few months as we evaluated more than 10,000 applicants, we have tried to bring to our deliberations the care and intensity that you brought to your application. Our selection process did give us the opportunity to fully evaluate your candidacy.
    
    The selection process does not separate the qualified from the unqualified applicants. We are convinced that most candidates for admission to Dartmouth would thrive academically and personally at the College. Of the many strong students in our applicant pool, an overwhelming majority is destined to perform extremely well in their college years. It is only the highly selective nature of the competition for admission that prevents us from offering more of our applicants a place at Dartmouth. This is one of the few times we wish we had a larger student body so that we could enroll more students.
    
    The disappointment we feel in sending you this news is tempered by our knowledge that you will be successful at the institution you choose to attend. Best wishes for the next four years.
    {g =  + 1}
}
"""

DLG SPR_1a
"""
{
  - h >= 3 ?
    You really thought you would make it. Ha.
  - else ?
    Dear Applicant,
    
    I am sorry to inform you that we were not able to admit you to Princeton University this year. The admissions process is difficult for students and families, and we realize that you are likely to be disappointed with our decision. We received applications from more than 31,000 candidates, most of whom were in the admissible range. In fact, we could have filled five or six Princeton classes with the thousands of accomplished students who applied.
    
    I appreciate how challenging it may be to understand why you were not admitted. Over the past three months, the admissions staff reviewed files diligently, thoughtfully and carefully. As we do each year, we made every effort to weigh each student's achievements, talents and skills in the context of her or his secondary school setting. We took into consideration the vast differences among the 10,274 high schools from 151 countries represented in the pool. Ultimately the strength and size of this year's pool dictated our choices. Given how many superb applicants we had, even candidates with the best credentials were not guaranteed a spot.
    
    Unfortunately, all of our decisions are final; we do not have an appeals process. The committee's conclusion is not a judgement about your worth, and it does not reflect your ability to succeed in a rigorous college environment. Reading your application made it clear to us that you will be successful wherever you go. I imagine you are hearing from other colleges and universities, and I am confident that you have many fine choices.
    
    Please note that this message will serve as our formal correspondence. If you would like a hard copy of this letter, please email notify@princeton.edu, and be sure to include your full name and your high school with your request. Thank you for your interest in Princeton and for giving us the opportunity to consider your application.
    
    Sincerely,
    Janet Lavin Rapelye
    Dean of Admission
    {h =  + 1}
}
"""

DLG SPR_1b
"""
{
  - h >= 3 ?
    You really thought you would make it. Ha.
  - else ?
    Dear Applicant,
    
    I am sorry to inform you that we were not able to admit you to Princeton University this year. The admissions process is difficult for students and families, and we realize that you are likely to be disappointed with our decision. We received applications from more than 31,000 candidates, most of whom were in the admissible range. In fact, we could have filled five or six Princeton classes with the thousands of accomplished students who applied.
    
    I appreciate how challenging it may be to understand why you were not admitted. Over the past three months, the admissions staff reviewed files diligently, thoughtfully and carefully. As we do each year, we made every effort to weigh each student's achievements, talents and skills in the context of her or his secondary school setting. We took into consideration the vast differences among the 10,274 high schools from 151 countries represented in the pool. Ultimately the strength and size of this year's pool dictated our choices. Given how many superb applicants we had, even candidates with the best credentials were not guaranteed a spot.
    
    Unfortunately, all of our decisions are final; we do not have an appeals process. The committee's conclusion is not a judgement about your worth, and it does not reflect your ability to succeed in a rigorous college environment. Reading your application made it clear to us that you will be successful wherever you go. I imagine you are hearing from other colleges and universities, and I am confident that you have many fine choices.
    
    Please note that this message will serve as our formal correspondence. If you would like a hard copy of this letter, please email notify@princeton.edu, and be sure to include your full name and your high school with your request. Thank you for your interest in Princeton and for giving us the opportunity to consider your application.
    
    Sincerely,
    Janet Lavin Rapelye
    Dean of Admission
    {h =  + 1}
}
"""

DLG SPR_1c
"""
{
  - h >= 3 ?
    You really thought you would make it. Ha.
  - else ?
    Dear Applicant,
    
    I am sorry to inform you that we were not able to admit you to Princeton University this year. The admissions process is difficult for students and families, and we realize that you are likely to be disappointed with our decision. We received applications from more than 31,000 candidates, most of whom were in the admissible range. In fact, we could have filled five or six Princeton classes with the thousands of accomplished students who applied.
    
    I appreciate how challenging it may be to understand why you were not admitted. Over the past three months, the admissions staff reviewed files diligently, thoughtfully and carefully. As we do each year, we made every effort to weigh each student's achievements, talents and skills in the context of her or his secondary school setting. We took into consideration the vast differences among the 10,274 high schools from 151 countries represented in the pool. Ultimately the strength and size of this year's pool dictated our choices. Given how many superb applicants we had, even candidates with the best credentials were not guaranteed a spot.
    
    Unfortunately, all of our decisions are final; we do not have an appeals process. The committee's conclusion is not a judgement about your worth, and it does not reflect your ability to succeed in a rigorous college environment. Reading your application made it clear to us that you will be successful wherever you go. I imagine you are hearing from other colleges and universities, and I am confident that you have many fine choices.
    
    Please note that this message will serve as our formal correspondence. If you would like a hard copy of this letter, please email notify@princeton.edu, and be sure to include your full name and your high school with your request. Thank you for your interest in Princeton and for giving us the opportunity to consider your application.
    
    Sincerely,
    Janet Lavin Rapelye
    Dean of Admission
    {h =  + 1}
}
"""

DLG SPR_1d
"""
{
  - h >= 3 ?
    You really thought you would make it. Ha.
  - else ?
    Dear Applicant,
    
    I am sorry to inform you that we were not able to admit you to Princeton University this year. The admissions process is difficult for students and families, and we realize that you are likely to be disappointed with our decision. We received applications from more than 31,000 candidates, most of whom were in the admissible range. In fact, we could have filled five or six Princeton classes with the thousands of accomplished students who applied.
    
    I appreciate how challenging it may be to understand why you were not admitted. Over the past three months, the admissions staff reviewed files diligently, thoughtfully and carefully. As we do each year, we made every effort to weigh each student's achievements, talents and skills in the context of her or his secondary school setting. We took into consideration the vast differences among the 10,274 high schools from 151 countries represented in the pool. Ultimately the strength and size of this year's pool dictated our choices. Given how many superb applicants we had, even candidates with the best credentials were not guaranteed a spot.
    
    Unfortunately, all of our decisions are final; we do not have an appeals process. The committee's conclusion is not a judgement about your worth, and it does not reflect your ability to succeed in a rigorous college environment. Reading your application made it clear to us that you will be successful wherever you go. I imagine you are hearing from other colleges and universities, and I am confident that you have many fine choices.
    
    Please note that this message will serve as our formal correspondence. If you would like a hard copy of this letter, please email notify@princeton.edu, and be sure to include your full name and your high school with your request. Thank you for your interest in Princeton and for giving us the opportunity to consider your application.
    
    Sincerely,
    Janet Lavin Rapelye
    Dean of Admission
    {h =  + 1}
}
"""

DLG SPR_1
"""
 Dear Applicant,
    
    The Brown Board of Admission has completed its evaluation of more than 35,000 applications to the Class of 2022, and it is with great regret that we must inform you that your application could not be included among our acceptances. We understand how disappointing this news must be, but we are deeply humbled that you chose to apply and grateful to have had the opportunity to learn more about you.
    
    The great majority of applicants to Brown this year are clearly capable of performing well academically and of making significant contributions to the college community in other ways. With more than 20 candidates for every available space, the Board's task in selecting the members of the Class of 2022 has been extremely difficult.
    
    We want to acknowledge your accomplishments and to reiterate how much care we have taken in the admission process to get to know all of our applicants, and how difficult it is to deny so many.
    
    We know that you will have a successful college career and we wish you the best as you pursue your college plans. On behalf of the Board of Admission, I want to thank you for taking the time to prepare your application and for your interest in Brown.
    
    Yours sincerely,
    Logan Powell
    Dean of Admission
"""

END 0
jk

END undefined
jk

VAR a
42


