
{shk}{wvy}I am so ugly!{wvy}{shk}

# BITSY VERSION 4.4

! ROOM_FORMAT 1

PAL 0
58,58,58
52,190,176
216,235,219

PAL 1
58,58,58
82,143,205
214,233,248

PAL 2
58,58,58
141,138,5
255,255,140

PAL 3
58,58,58
193,40,40
241,198,158

PAL 4
58,58,58
187,75,203
255,213,254

PAL 5
58,58,58
124,191,34
222,251,215

PAL 6
58,58,58
186,112,164
242,217,237

PAL 7
58,58,58
204,107,0
252,225,199

PAL 8
58,58,58
22,176,209
204,232,247

PAL 9
58,58,58
108,24,158
233,191,251

ROOM 0
16,1d,1d,1d,1d,1d,1d,1d,1d,1d,1d,1d,1d,1d,1d,1c
17,b,c,c,c,c,c,c,c,c,c,c,c,c,d,1b
17,a,m,k,k,k,k,k,k,k,k,k,k,n,e,1b
17,a,i,q,r,r,r,r,r,r,r,r,s,j,e,1b
17,a,i,x,y,15,15,15,15,15,15,14,t,j,e,1b
17,a,i,x,z,1e,1f,1f,1f,1f,1g,13,t,j,e,1b
17,a,i,x,z,1l,1m,1n,1n,1o,1h,13,t,j,e,1b
17,a,i,x,z,1l,1t,1u,1v,1p,1h,13,t,j,e,1b
17,a,i,x,z,1l,1t,1x,1w,1p,1h,13,t,j,e,1b
17,a,i,x,z,1l,1s,1r,1r,1q,1h,13,t,j,e,1b
17,a,i,x,z,1k,1j,1j,1j,1j,1i,13,t,j,e,1b
17,a,i,x,10,11,11,11,11,11,11,12,t,j,e,1b
17,a,i,w,v,v,v,v,v,v,v,v,u,j,e,1b
17,a,p,l,l,l,l,l,l,l,l,l,l,o,e,1b
17,h,g,g,g,g,g,g,g,g,g,g,g,g,f,1b
18,19,19,19,19,19,19,19,19,19,19,19,19,19,19,1a
ITM 4 6,14
ITM e 7,14
ITM e 8,14
ITM 5 9,14
ITM 7 9,13
ITM a 6,7
ITM 7 9,12
ITM 7 9,11
ITM 7 9,10
ITM 7 9,9
ITM 7 9,8
ITM 6 9,7
ITM b 6,8
ITM b 6,9
ITM b 6,10
ITM b 6,11
ITM b 6,12
ITM b 6,13
ITM g 6,6
ITM h 9,6
ITM e 5,6
ITM e 10,6
ITM 5 11,6
ITM 4 4,6
ITM 4 3,5
ITM 4 2,4
ITM 5 12,5
ITM 5 13,4
ITM d 2,3
ITM c 13,3
ITM 0 2,2
ITM 3 13,2
ITM 3 5,2
ITM 0 10,2
ITM 1 3,2
ITM 1 11,2
ITM 2 4,2
ITM 2 12,2
ITM 3 6,3
ITM 3 7,4
ITM 0 9,3
ITM 0 8,4
ITM i 8,5
ITM j 7,5
ITM j 6,4
ITM j 5,3
ITM i 9,4
ITM i 10,3
ITM g 3,4
ITM g 4,5
ITM h 11,5
ITM h 12,4
ITM k 3,3
ITM k 4,3
ITM k 4,4
ITM k 5,4
ITM k 5,5
ITM k 6,5
ITM k 7,6
ITM k 8,6
ITM k 9,5
ITM k 10,5
ITM k 10,4
ITM k 11,4
ITM k 11,3
ITM k 12,3
ITM k 7,7
ITM k 8,7
ITM k 8,8
ITM k 7,8
ITM k 7,9
ITM k 8,9
ITM k 8,10
ITM k 7,10
ITM k 7,11
ITM k 8,11
ITM k 8,12
ITM k 7,12
ITM k 8,13
EXT 8,13 1 5,3
EXT 6,13 0 7,13
EXT 7,12 1 5,3
EXT 7,14 0 7,13
PAL 0

ROOM 1
16,1d,1d,1d,1d,1d,1d,1d,1d,1d,1d,1d,1d,1d,1d,1c
17,b,c,c,c,c,c,c,c,c,c,c,c,c,d,1b
17,a,m,k,k,k,k,k,k,k,k,k,k,n,e,1b
17,a,i,q,r,r,r,r,r,r,r,r,s,j,e,1b
17,a,i,x,y,15,15,15,15,15,15,14,t,j,e,1b
17,a,i,x,z,1e,1f,1f,1f,1f,1g,13,t,j,e,1b
17,a,i,x,z,1l,1m,1n,1n,1o,1h,13,t,j,e,1b
17,a,i,x,z,1l,1t,1u,1v,1p,1h,13,t,j,e,1b
17,a,i,x,z,1l,1t,1x,1w,1p,1h,13,t,j,e,1b
17,a,i,x,z,1l,1s,1r,1r,1q,1h,13,t,j,e,1b
17,a,i,x,z,1k,1j,1j,1j,1j,1i,13,t,j,e,1b
17,a,i,x,10,11,11,11,11,11,11,12,t,j,e,1b
17,a,i,w,v,v,v,v,v,v,v,v,u,j,e,1b
17,a,p,l,l,l,l,l,l,l,l,l,l,o,e,1b
17,h,g,g,g,g,g,g,g,g,g,g,g,g,f,1b
18,19,19,19,19,19,19,19,19,19,19,19,19,19,19,1a
ITM 0 4,2
ITM 3 11,2
ITM 2 10,2
ITM 1 5,2
ITM 6 11,3
ITM 7 11,12
ITM 7 11,11
ITM 7 11,10
ITM 7 11,9
ITM 6 11,4
ITM 6 11,5
ITM 6 11,6
ITM 6 11,7
ITM 7 11,8
ITM 1 6,2
ITM 1 7,2
ITM 2 9,2
ITM 2 8,2
ITM a 4,3
ITM a 4,4
ITM a 4,5
ITM a 4,6
ITM a 4,7
ITM b 4,8
ITM b 4,9
ITM b 4,10
ITM b 4,11
ITM b 4,12
ITM b 9,11
ITM b 9,10
ITM b 9,9
ITM b 9,8
ITM a 9,7
ITM a 9,6
ITM a 9,5
ITM 7 6,11
ITM 7 6,10
ITM 7 6,9
ITM 7 6,8
ITM 6 6,7
ITM 6 6,6
ITM 6 6,5
ITM 1 7,12
ITM 2 8,12
ITM 8 8,4
ITM 9 7,4
ITM h 6,4
ITM g 9,4
ITM j 6,12
ITM i 9,12
ITM 9 5,14
ITM 9 6,14
ITM 9 7,14
ITM 8 8,14
ITM 8 9,14
ITM 8 10,14
ITM 4 4,14
ITM 7 11,13
ITM 5 11,14
ITM b 4,13
ITM k 6,3
ITM k 7,3
ITM k 8,3
ITM k 9,3
ITM k 10,4
ITM k 10,5
ITM k 10,6
ITM k 10,7
ITM k 10,9
ITM k 10,8
ITM k 10,10
ITM k 10,11
ITM k 10,12
ITM k 10,13
ITM k 9,13
ITM k 8,13
ITM k 7,13
ITM k 6,13
ITM k 5,13
ITM k 5,12
ITM k 5,11
ITM k 5,10
ITM k 5,9
ITM k 5,8
ITM k 5,7
ITM k 5,6
ITM k 5,5
ITM k 5,4
ITM k 5,3
ITM k 10,3
EXT 5,2 2 7,13
EXT 5,4 0 7,13
EXT 4,3 0 7,13
EXT 6,3 2 7,13
PAL 1

ROOM 2
16,1d,1d,1d,1d,1d,1d,1d,1d,1d,1d,1d,1d,1d,1d,1c
17,b,c,c,c,c,c,c,c,c,c,c,c,c,d,1b
17,a,m,k,k,k,k,k,k,k,k,k,k,n,e,1b
17,a,i,q,r,r,r,r,r,r,r,r,s,j,e,1b
17,a,i,x,y,15,15,15,15,15,15,14,t,j,e,1b
17,a,i,x,z,1e,1f,1f,1f,1f,1g,13,t,j,e,1b
17,a,i,x,z,1l,1m,1n,1n,1o,1h,13,t,j,e,1b
17,a,i,x,z,1l,1t,1u,1v,1p,1h,13,t,j,e,1b
17,a,i,x,z,1l,1t,1x,1w,1p,1h,13,t,j,e,1b
17,a,i,x,z,1l,1s,1r,1r,1q,1h,13,t,j,e,1b
17,a,i,x,z,1k,1j,1j,1j,1j,1i,13,t,j,e,1b
17,a,i,x,10,11,11,11,11,11,11,12,t,j,e,1b
17,a,i,w,v,v,v,v,v,v,v,v,u,j,e,1b
17,a,p,l,l,l,l,l,l,l,l,l,l,o,e,1b
17,h,g,g,g,g,g,g,g,g,g,g,g,g,f,1b
18,19,19,19,19,19,19,19,19,19,19,19,19,19,19,1a
ITM 0 3,2
ITM 3 6,2
ITM 0 9,2
ITM 3 12,2
ITM 1 4,2
ITM 1 10,2
ITM 2 5,2
ITM 2 11,2
ITM 6 12,3
ITM 6 12,4
ITM 6 12,5
ITM 6 12,6
ITM 6 12,7
ITM 6 12,8
ITM 6 6,3
ITM 6 6,4
ITM 6 6,5
ITM 6 6,6
ITM 6 6,7
ITM 6 6,8
ITM 7 6,9
ITM 7 6,10
ITM 7 12,9
ITM 7 12,10
ITM 7 12,11
ITM 7 12,12
ITM 7 12,13
ITM 7 6,11
ITM 5 12,14
ITM 4 3,14
ITM 2 8,12
ITM 1 7,12
ITM a 3,3
ITM a 9,3
ITM a 9,4
ITM a 9,5
ITM a 9,6
ITM a 9,7
ITM a 3,4
ITM a 3,5
ITM a 3,6
ITM a 3,7
ITM a 3,8
ITM b 3,9
ITM b 3,10
ITM b 3,11
ITM b 3,12
ITM b 3,13
ITM b 9,8
ITM b 9,9
ITM b 9,10
ITM b 9,11
ITM j 6,12
ITM i 9,12
ITM 9 4,14
ITM 9 5,14
ITM 9 7,14
ITM 9 6,14
ITM 8 8,14
ITM 8 9,14
ITM 8 10,14
ITM 8 11,14
ITM k 5,3
ITM k 5,4
ITM k 4,4
ITM k 4,5
ITM k 5,5
ITM k 5,6
ITM k 4,6
ITM k 4,7
ITM k 5,7
ITM k 5,8
ITM k 4,8
ITM k 4,9
ITM k 5,9
ITM k 5,10
ITM k 4,10
ITM k 4,11
ITM k 5,11
ITM k 5,12
ITM k 4,12
ITM k 4,13
ITM k 5,13
ITM k 6,13
ITM k 8,13
ITM k 9,13
ITM k 10,13
ITM k 11,13
ITM k 11,12
ITM k 10,12
ITM k 10,11
ITM k 11,11
ITM k 11,10
ITM k 10,10
ITM k 10,9
ITM k 11,9
ITM k 11,8
ITM k 10,8
ITM k 10,7
ITM k 11,7
ITM k 11,6
ITM k 10,6
ITM k 10,5
ITM k 11,5
ITM k 11,4
ITM k 10,4
ITM k 10,3
ITM k 11,3
ITM k 4,3
EXT 7,12 3 5,12
EXT 7,14 1 5,3
EXT 8,13 3 5,12
EXT 6,13 1 5,3
PAL 2

ROOM 3
16,1d,1d,1d,1d,1d,1d,1d,1d,1d,1d,1d,1d,1d,1d,1c
17,b,c,c,c,c,c,c,c,c,c,c,c,c,d,1b
17,a,m,k,k,k,k,k,k,k,k,k,k,n,e,1b
17,a,i,q,r,r,r,r,r,r,r,r,s,j,e,1b
17,a,i,x,y,15,15,15,15,15,15,14,t,j,e,1b
17,a,i,x,z,1e,1f,1f,1f,1f,1g,13,t,j,e,1b
17,a,i,x,z,1l,1m,1n,1n,1o,1h,13,t,j,e,1b
17,a,i,x,z,1l,1t,1u,1v,1p,1h,13,t,j,e,1b
17,a,i,x,z,1l,1t,1x,1w,1p,1h,13,t,j,e,1b
17,a,i,x,z,1l,1s,1r,1r,1q,1h,13,t,j,e,1b
17,a,i,x,z,1k,1j,1j,1j,1j,1i,13,t,j,e,1b
17,a,i,x,10,11,11,11,11,11,11,12,t,j,e,1b
17,a,i,w,v,v,v,v,v,v,v,v,u,j,e,1b
17,a,p,l,l,l,l,l,l,l,l,l,l,o,e,1b
17,h,g,g,g,g,g,g,g,g,g,g,g,g,f,1b
18,19,19,19,19,19,19,19,19,19,19,19,19,19,19,1a
ITM 0 7,2
ITM 3 8,2
ITM 3 9,3
ITM 3 10,4
ITM 0 6,3
ITM 0 5,4
ITM 0 4,5
ITM 3 11,5
ITM 6 6,7
ITM 6 6,10
ITM 7 6,11
ITM 7 6,12
ITM a 9,10
ITM a 9,11
ITM a 9,12
ITM a 9,7
ITM 8 8,9
ITM 9 7,9
ITM 1 7,8
ITM 2 8,8
ITM j 6,8
ITM i 9,8
ITM 4 8,6
ITM 5 7,6
ITM h 7,5
ITM h 6,6
ITM g 8,5
ITM g 9,6
ITM g 9,9
ITM h 6,9
ITM k 5,10
ITM k 5,9
ITM k 5,8
ITM k 5,7
ITM k 5,6
ITM k 6,5
ITM k 7,4
ITM k 8,4
ITM k 9,5
ITM k 10,6
ITM k 10,7
ITM k 10,8
ITM k 10,9
ITM k 10,10
ITM k 10,11
ITM k 5,11
ITM 7 12,13
ITM 7 12,11
ITM 7 12,10
ITM 7 12,12
ITM 7 6,13
ITM 6 12,8
ITM 6 12,7
ITM 6 12,9
ITM 4 3,14
ITM 4 9,14
ITM 5 12,14
ITM 5 6,14
ITM 3 12,6
ITM 0 3,6
ITM a 3,7
ITM a 3,8
ITM a 3,9
ITM a 3,10
ITM b 3,11
ITM b 3,12
ITM b 3,13
ITM b 9,13
ITM 8 5,14
ITM 8 11,14
ITM 9 4,14
ITM 9 10,14
ITM k 4,13
ITM k 5,13
ITM k 10,13
ITM k 11,13
ITM k 11,12
ITM k 11,11
ITM k 11,10
ITM k 11,9
ITM k 11,8
ITM k 11,7
ITM k 4,7
ITM k 4,8
ITM k 4,9
ITM k 4,10
ITM k 4,11
ITM k 4,12
ITM j 11,6
ITM i 4,6
ITM i 5,5
ITM i 6,4
ITM i 7,3
ITM j 8,3
ITM j 9,4
ITM j 10,5
ITM k 10,12
EXT 5,13 2 7,13
EXT 6,12 4 5,13
EXT 4,12 2 7,13
EXT 5,11 4 5,13
PAL 3

ROOM 4
16,1d,1d,1d,1d,1d,1d,1d,1d,1d,1d,1d,1d,1d,1d,1c
17,b,c,c,c,c,c,c,c,c,c,c,c,c,d,1b
17,a,m,k,k,k,k,k,k,k,k,k,k,n,e,1b
17,a,i,q,r,r,r,r,r,r,r,r,s,j,e,1b
17,a,i,x,y,15,15,15,15,15,15,14,t,j,e,1b
17,a,i,x,z,1e,1f,1f,1f,1f,1g,13,t,j,e,1b
17,a,i,x,z,1l,1m,1n,1n,1o,1h,13,t,j,e,1b
17,a,i,x,z,1l,1t,1u,1v,1p,1h,13,t,j,e,1b
17,a,i,x,z,1l,1t,1x,1w,1p,1h,13,t,j,e,1b
17,a,i,x,z,1l,1s,1r,1r,1q,1h,13,t,j,e,1b
17,a,i,x,z,1k,1j,1j,1j,1j,1i,13,t,j,e,1b
17,a,i,x,10,11,11,11,11,11,11,12,t,j,e,1b
17,a,i,w,v,v,v,v,v,v,v,v,u,j,e,1b
17,a,p,l,l,l,l,l,l,l,l,l,l,o,e,1b
17,h,g,g,g,g,g,g,g,g,g,g,g,g,f,1b
18,19,19,19,19,19,19,19,19,19,19,19,19,19,19,1a
ITM 0 4,2
ITM 4 4,14
ITM 3 10,2
ITM 5 10,7
ITM 6 11,12
ITM 6 11,13
ITM 5 11,14
ITM 7 10,6
ITM 7 10,5
ITM 6 10,3
ITM 6 10,4
ITM 1 5,2
ITM 1 6,2
ITM 1 7,2
ITM 2 8,2
ITM 2 9,2
ITM 4 7,10
ITM b 8,5
ITM a 8,4
ITM 7 6,5
ITM 6 6,4
ITM e 7,3
ITM f 7,6
ITM e 9,7
ITM e 8,7
ITM a 4,3
ITM a 4,4
ITM a 4,5
ITM a 4,6
ITM a 4,7
ITM a 4,8
ITM b 4,10
ITM b 4,9
ITM b 4,11
ITM b 4,12
ITM b 4,13
ITM 7 6,13
ITM 7 6,12
ITM 6 6,11
ITM 4 9,14
ITM 5 6,14
ITM 4 8,11
ITM e 10,14
ITM e 5,14
ITM 6 6,10
ITM b 9,13
ITM a 9,12
ITM g 9,11
ITM g 8,10
ITM g 8,3
ITM h 6,3
ITM h 7,7
ITM h 6,9
ITM i 8,6
ITM j 7,8
ITM j 8,9
ITM j 9,10
ITM j 10,11
ITM j 6,6
ITM g 7,9
ITM k 5,12
ITM k 5,11
ITM k 5,10
ITM k 5,9
ITM k 5,8
ITM k 5,7
ITM k 6,8
ITM k 6,7
ITM k 5,6
ITM k 5,5
ITM k 5,4
ITM k 5,3
ITM k 9,3
ITM k 9,4
ITM k 9,5
ITM k 9,6
ITM k 10,12
ITM 3 11,10
ITM 3 10,9
ITM j 9,9
ITM j 10,10
ITM 3 9,8
ITM f 8,8
ITM 6 11,11
EXT 6,13 5 5,13
EXT 5,14 3 5,12
EXT 5,12 5 5,13
EXT 4,13 3 5,12
PAL 4

ROOM 5
16,1d,1d,1d,1d,1d,1d,1d,1d,1d,1d,1d,1d,1d,1d,1c
17,b,c,c,c,c,c,c,c,c,c,c,c,c,d,1b
17,a,m,k,k,k,k,k,k,k,k,k,k,n,e,1b
17,a,i,q,r,r,r,r,r,r,r,r,s,j,e,1b
17,a,i,x,y,15,15,15,15,15,15,14,t,j,e,1b
17,a,i,x,z,1e,1f,1f,1f,1f,1g,13,t,j,e,1b
17,a,i,x,z,1l,1m,1n,1n,1o,1h,13,t,j,e,1b
17,a,i,x,z,1l,1t,1u,1v,1p,1h,13,t,j,e,1b
17,a,i,x,z,1l,1t,1x,1w,1p,1h,13,t,j,e,1b
17,a,i,x,z,1l,1s,1r,1r,1q,1h,13,t,j,e,1b
17,a,i,x,z,1k,1j,1j,1j,1j,1i,13,t,j,e,1b
17,a,i,x,10,11,11,11,11,11,11,12,t,j,e,1b
17,a,i,w,v,v,v,v,v,v,v,v,u,j,e,1b
17,a,p,l,l,l,l,l,l,l,l,l,l,o,e,1b
17,h,g,g,g,g,g,g,g,g,g,g,g,g,f,1b
18,19,19,19,19,19,19,19,19,19,19,19,19,19,19,1a
ITM 0 4,2
ITM 3 11,2
ITM 4 4,14
ITM 5 11,14
ITM 5 10,8
ITM 3 10,6
ITM 5 11,4
ITM 3 11,11
ITM 1 5,2
ITM 1 6,2
ITM 1 7,2
ITM 2 8,2
ITM 2 9,2
ITM 2 10,2
ITM 2 10,11
ITM 2 9,11
ITM 2 8,11
ITM a 4,3
ITM a 4,4
ITM a 4,5
ITM a 4,6
ITM a 4,7
ITM b 4,8
ITM b 4,9
ITM b 4,10
ITM b 4,11
ITM b 4,12
ITM b 4,13
ITM c 11,12
ITM c 11,13
ITM c 10,7
ITM c 11,3
ITM c 6,5
ITM h 6,8
ITM h 6,4
ITM j 6,11
ITM j 6,6
ITM 6 6,9
ITM 7 6,10
ITM 8 9,8
ITM 8 8,8
ITM 9 7,8
ITM 9 7,4
ITM 9 8,4
ITM 8 10,4
ITM 8 9,4
ITM 8 10,14
ITM 8 9,14
ITM 8 8,14
ITM 8 7,14
ITM 9 5,14
ITM 9 6,14
ITM 2 9,6
ITM 1 7,6
ITM 1 8,6
ITM 1 7,11
ITM k 10,3
ITM k 9,3
ITM k 8,3
ITM k 6,3
ITM k 7,3
ITM k 5,3
ITM k 5,4
ITM k 5,5
ITM k 5,6
ITM k 5,7
ITM k 6,7
ITM k 7,7
ITM k 8,7
ITM k 9,7
ITM k 5,8
ITM k 5,9
ITM k 5,10
ITM k 5,11
ITM k 5,12
ITM k 6,12
ITM k 7,12
ITM k 9,12
ITM k 10,12
ITM k 8,12
ITM k 9,13
ITM k 8,13
ITM k 7,13
ITM k 6,13
ITM k 10,13
EXT 4,13 4 5,13
EXT 6,13 6 5,13
EXT 5,14 4 5,13
EXT 5,12 6 5,13
PAL 5

ROOM 6
16,1d,1d,1d,1d,1d,1d,1d,1d,1d,1d,1d,1d,1d,1d,1c
17,b,c,c,c,c,c,c,c,c,c,c,c,c,d,1b
17,a,m,k,k,k,k,k,k,k,k,k,k,n,e,1b
17,a,i,q,r,r,r,r,r,r,r,r,s,j,e,1b
17,a,i,x,y,15,15,15,15,15,15,14,t,j,e,1b
17,a,i,x,z,1e,1f,1f,1f,1f,1g,13,t,j,e,1b
17,a,i,x,z,1l,1m,1n,1n,1o,1h,13,t,j,e,1b
17,a,i,x,z,1l,1t,1u,1v,1p,1h,13,t,j,e,1b
17,a,i,x,z,1l,1t,1x,1w,1p,1h,13,t,j,e,1b
17,a,i,x,z,1l,1s,1r,1r,1q,1h,13,t,j,e,1b
17,a,i,x,z,1k,1j,1j,1j,1j,1i,13,t,j,e,1b
17,a,i,x,10,11,11,11,11,11,11,12,t,j,e,1b
17,a,i,w,v,v,v,v,v,v,v,v,u,j,e,1b
17,a,p,l,l,l,l,l,l,l,l,l,l,o,e,1b
17,h,g,g,g,g,g,g,g,g,g,g,g,g,f,1b
18,19,19,19,19,19,19,19,19,19,19,19,19,19,19,1a
ITM 0 4,2
ITM 3 11,2
ITM 4 4,14
ITM 1 5,2
ITM 1 6,2
ITM 1 7,2
ITM 2 8,2
ITM 2 9,2
ITM 2 10,2
ITM 2 9,11
ITM 2 8,11
ITM a 4,3
ITM a 4,4
ITM a 4,5
ITM a 4,6
ITM a 4,7
ITM b 4,8
ITM b 4,9
ITM b 4,10
ITM b 4,11
ITM b 4,12
ITM b 4,13
ITM c 11,3
ITM c 6,5
ITM h 6,8
ITM h 6,4
ITM j 6,11
ITM j 6,6
ITM 6 6,9
ITM 7 6,10
ITM 8 9,8
ITM 8 8,8
ITM 9 7,8
ITM 9 7,4
ITM 9 8,4
ITM 8 10,14
ITM 8 9,14
ITM 8 8,14
ITM 8 7,14
ITM 9 5,14
ITM 9 6,14
ITM 1 7,6
ITM 1 8,6
ITM 1 7,11
ITM k 10,3
ITM k 9,3
ITM k 8,3
ITM k 6,3
ITM k 7,3
ITM k 5,3
ITM k 5,4
ITM k 5,5
ITM k 5,6
ITM k 5,7
ITM k 6,7
ITM k 7,7
ITM k 8,7
ITM k 9,7
ITM k 5,8
ITM k 5,9
ITM k 5,10
ITM k 5,11
ITM k 5,12
ITM k 6,12
ITM k 7,12
ITM k 9,12
ITM k 10,12
ITM k 8,12
ITM k 9,13
ITM k 8,13
ITM k 7,13
ITM k 6,13
ITM 6 11,4
ITM 6 11,5
ITM d 9,5
ITM d 10,9
ITM d 10,10
ITM i 10,11
ITM g 10,8
ITM g 9,4
ITM i 9,6
ITM j 11,6
ITM 3 12,6
ITM 5 12,14
ITM 7 12,13
ITM 7 12,12
ITM 7 12,11
ITM 7 12,10
ITM 6 12,7
ITM 6 12,8
ITM 6 12,9
ITM 8 11,14
ITM k 11,11
ITM k 11,12
ITM k 11,13
ITM k 11,10
ITM k 11,9
ITM k 11,8
ITM k 11,7
ITM k 10,7
ITM k 10,6
ITM k 10,5
ITM k 10,4
EXT 4,13 5 5,13
EXT 6,13 7 5,13
EXT 5,14 5 5,13
EXT 5,12 7 5,13
PAL 6

ROOM 7
16,1d,1d,1d,1d,1d,1d,1d,1d,1d,1d,1d,1d,1d,1d,1c
17,b,c,c,c,c,c,c,c,c,c,c,c,c,d,1b
17,a,m,k,k,k,k,k,k,k,k,k,k,n,e,1b
17,a,i,q,r,r,r,r,r,r,r,r,s,j,e,1b
17,a,i,x,y,15,15,15,15,15,15,14,t,j,e,1b
17,a,i,x,z,1e,1f,1f,1f,1f,1g,13,t,j,e,1b
17,a,i,x,z,1l,1m,1n,1n,1o,1h,13,t,j,e,1b
17,a,i,x,z,1l,1t,1u,1v,1p,1h,13,t,j,e,1b
17,a,i,x,z,1l,1t,1x,1w,1p,1h,13,t,j,e,1b
17,a,i,x,z,1l,1s,1r,1r,1q,1h,13,t,j,e,1b
17,a,i,x,z,1k,1j,1j,1j,1j,1i,13,t,j,e,1b
17,a,i,x,10,11,11,11,11,11,11,12,t,j,e,1b
17,a,i,w,v,v,v,v,v,v,v,v,u,j,e,1b
17,a,p,l,l,l,l,l,l,l,l,l,l,o,e,1b
17,h,g,g,g,g,g,g,g,g,g,g,g,g,f,1b
18,19,19,19,19,19,19,19,19,19,19,19,19,19,19,1a
ITM 0 4,2
ITM 3 11,2
ITM 4 4,14
ITM 5 11,14
ITM 5 10,8
ITM 3 10,6
ITM 5 11,4
ITM 3 11,11
ITM 1 5,2
ITM 1 6,2
ITM 1 7,2
ITM 2 8,2
ITM 2 9,2
ITM 2 10,2
ITM 2 10,11
ITM 2 9,11
ITM 2 8,11
ITM a 4,3
ITM a 4,4
ITM a 4,5
ITM a 4,6
ITM a 4,7
ITM b 4,8
ITM b 4,9
ITM b 4,10
ITM b 4,11
ITM b 4,12
ITM b 4,13
ITM c 11,12
ITM c 11,13
ITM c 10,7
ITM c 11,3
ITM c 6,5
ITM h 6,8
ITM h 6,4
ITM j 6,11
ITM j 6,6
ITM 6 6,9
ITM 7 6,10
ITM 8 9,8
ITM 8 8,8
ITM 9 7,8
ITM 9 7,4
ITM 9 8,4
ITM 8 10,4
ITM 8 9,4
ITM 8 10,14
ITM 8 9,14
ITM 8 8,14
ITM 8 7,14
ITM 9 5,14
ITM 9 6,14
ITM 2 9,6
ITM 1 7,6
ITM 1 8,6
ITM 1 7,11
ITM k 10,3
ITM k 9,3
ITM k 8,3
ITM k 6,3
ITM k 7,3
ITM k 5,3
ITM k 5,4
ITM k 5,5
ITM k 5,6
ITM k 5,7
ITM k 6,7
ITM k 7,7
ITM k 8,7
ITM k 9,7
ITM k 5,8
ITM k 5,9
ITM k 5,10
ITM k 5,11
ITM k 5,12
ITM k 6,12
ITM k 7,12
ITM k 9,12
ITM k 10,12
ITM k 8,12
ITM k 9,13
ITM k 8,13
ITM k 7,13
ITM k 6,13
ITM k 10,13
EXT 4,13 6 5,13
EXT 6,13 8 5,12
EXT 5,14 6 5,13
EXT 5,12 8 5,12
PAL 7

ROOM 8
16,1d,1d,1d,1d,1d,1d,1d,1d,1d,1d,1d,1d,1d,1d,1c
17,b,c,c,c,c,c,c,c,c,c,c,c,c,d,1b
17,a,m,k,k,k,k,k,k,k,k,k,k,n,e,1b
17,a,i,q,r,r,r,r,r,r,r,r,s,j,e,1b
17,a,i,x,y,15,15,15,15,15,15,14,t,j,e,1b
17,a,i,x,z,1e,1f,1f,1f,1f,1g,13,t,j,e,1b
17,a,i,x,z,1l,1m,1n,1n,1o,1h,13,t,j,e,1b
17,a,i,x,z,1l,1t,1u,1v,1p,1h,13,t,j,e,1b
17,a,i,x,z,1l,1t,1x,1w,1p,1h,13,t,j,e,1b
17,a,i,x,z,1l,1s,1r,1r,1q,1h,13,t,j,e,1b
17,a,i,x,z,1k,1j,1j,1j,1j,1i,13,t,j,e,1b
17,a,i,x,10,11,11,11,11,11,11,12,t,j,e,1b
17,a,i,w,v,v,v,v,v,v,v,v,u,j,e,1b
17,a,p,l,l,l,l,l,l,l,l,l,l,o,e,1b
17,h,g,g,g,g,g,g,g,g,g,g,g,g,f,1b
18,19,19,19,19,19,19,19,19,19,19,19,19,19,19,1a
ITM 0 7,2
ITM 3 8,2
ITM 3 9,3
ITM 3 10,4
ITM 0 6,3
ITM 0 5,4
ITM 0 4,5
ITM 3 11,5
ITM 6 6,7
ITM 6 6,10
ITM 7 6,11
ITM 7 6,12
ITM a 9,10
ITM a 9,11
ITM a 9,12
ITM a 9,7
ITM 8 8,9
ITM 9 7,9
ITM 1 7,8
ITM 2 8,8
ITM j 6,8
ITM i 9,8
ITM 4 8,6
ITM 5 7,6
ITM h 7,5
ITM h 6,6
ITM g 8,5
ITM g 9,6
ITM g 9,9
ITM h 6,9
ITM k 5,10
ITM k 5,9
ITM k 5,8
ITM k 5,7
ITM k 5,6
ITM k 6,5
ITM k 7,4
ITM k 8,4
ITM k 9,5
ITM k 10,6
ITM k 10,7
ITM k 10,8
ITM k 10,9
ITM k 10,10
ITM k 10,11
ITM k 5,11
ITM 7 12,13
ITM 7 12,11
ITM 7 12,10
ITM 7 12,12
ITM 7 6,13
ITM 6 12,8
ITM 6 12,7
ITM 6 12,9
ITM 4 3,14
ITM 4 9,14
ITM 5 12,14
ITM 5 6,14
ITM 3 12,6
ITM 0 3,6
ITM a 3,7
ITM a 3,8
ITM a 3,9
ITM a 3,10
ITM b 3,11
ITM b 3,12
ITM b 3,13
ITM b 9,13
ITM 8 5,14
ITM 8 11,14
ITM 9 4,14
ITM 9 10,14
ITM k 4,13
ITM k 5,13
ITM k 10,13
ITM k 11,13
ITM k 11,12
ITM k 11,11
ITM k 11,10
ITM k 11,9
ITM k 11,8
ITM k 11,7
ITM k 4,7
ITM k 4,8
ITM k 4,9
ITM k 4,10
ITM k 4,11
ITM k 4,12
ITM j 11,6
ITM i 4,6
ITM i 5,5
ITM i 6,4
ITM i 7,3
ITM j 8,3
ITM j 9,4
ITM j 10,5
ITM k 10,12
EXT 5,13 7 5,13
EXT 6,12 9 7,13
EXT 4,12 7 5,13
EXT 5,11 9 7,13
PAL 8

ROOM 9
16,1d,1d,1d,1d,1d,1d,1d,1d,1d,1d,1d,1d,1d,1d,1c
17,b,c,c,c,c,c,c,c,c,c,c,c,c,d,1b
17,a,m,k,k,k,k,k,k,k,k,k,k,n,e,1b
17,a,i,q,r,r,r,r,r,r,r,r,s,j,e,1b
17,a,i,x,y,15,15,15,15,15,15,14,t,j,e,1b
17,a,i,x,z,1e,1f,1f,1f,1f,1g,13,t,j,e,1b
17,a,i,x,z,1l,1m,1n,1n,1o,1h,13,t,j,e,1b
17,a,i,x,z,1l,1t,1u,1v,1p,1h,13,t,j,e,1b
17,a,i,x,z,1l,1t,1x,1w,1p,1h,13,t,j,e,1b
17,a,i,x,z,1l,1s,1r,1r,1q,1h,13,t,j,e,1b
17,a,i,x,z,1k,1j,1j,1j,1j,1i,13,t,j,e,1b
17,a,i,x,10,11,11,11,11,11,11,12,t,j,e,1b
17,a,i,w,v,v,v,v,v,v,v,v,u,j,e,1b
17,a,p,l,l,l,l,l,l,l,l,l,l,o,e,1b
17,h,g,g,g,g,g,g,g,g,g,g,g,g,f,1b
18,19,19,19,19,19,19,19,19,19,19,19,19,19,19,1a
ITM 0 3,2
ITM 3 6,2
ITM 0 9,2
ITM 3 12,2
ITM 1 4,2
ITM 1 10,2
ITM 2 5,2
ITM 2 11,2
ITM 6 12,3
ITM 6 12,4
ITM 6 12,5
ITM 6 12,6
ITM 6 12,7
ITM 6 12,8
ITM 6 6,3
ITM 6 6,4
ITM 6 6,5
ITM 6 6,6
ITM 6 6,7
ITM 6 6,8
ITM 7 6,9
ITM 7 6,10
ITM 7 12,9
ITM 7 12,10
ITM 7 12,11
ITM 7 12,12
ITM 7 12,13
ITM 7 6,11
ITM 5 12,14
ITM 4 3,14
ITM 2 8,12
ITM 1 7,12
ITM a 3,3
ITM a 9,3
ITM a 9,4
ITM a 9,5
ITM a 9,6
ITM a 9,7
ITM a 3,4
ITM a 3,5
ITM a 3,6
ITM a 3,7
ITM a 3,8
ITM b 3,9
ITM b 3,10
ITM b 3,11
ITM b 3,12
ITM b 3,13
ITM b 9,8
ITM b 9,9
ITM b 9,10
ITM b 9,11
ITM j 6,12
ITM i 9,12
ITM 9 4,14
ITM 9 5,14
ITM 9 7,14
ITM 9 6,14
ITM 8 8,14
ITM 8 9,14
ITM 8 10,14
ITM 8 11,14
ITM k 5,3
ITM k 5,4
ITM k 4,4
ITM k 4,5
ITM k 5,5
ITM k 5,6
ITM k 4,6
ITM k 4,7
ITM k 5,7
ITM k 5,8
ITM k 4,8
ITM k 4,9
ITM k 5,9
ITM k 5,10
ITM k 4,10
ITM k 4,11
ITM k 5,11
ITM k 5,12
ITM k 4,12
ITM k 4,13
ITM k 5,13
ITM k 6,13
ITM k 8,13
ITM k 9,13
ITM k 10,13
ITM k 11,13
ITM k 11,12
ITM k 10,12
ITM k 10,11
ITM k 11,11
ITM k 11,10
ITM k 10,10
ITM k 10,9
ITM k 11,9
ITM k 11,8
ITM k 10,8
ITM k 10,7
ITM k 11,7
ITM k 11,6
ITM k 10,6
ITM k 10,5
ITM k 11,5
ITM k 11,4
ITM k 10,4
ITM k 10,3
ITM k 11,3
ITM k 4,3
EXT 7,12 a 7,12
EXT 7,14 8 5,12
EXT 8,13 a 7,12
EXT 6,13 8 5,12
EXT 11,3 d 6,13
EXT 10,4 c 5,13
EXT 9,3 c 5,13
EXT 10,2 d 6,13
PAL 9

ROOM a
16,1d,1d,1d,1d,1d,1d,1d,1d,1d,1d,1d,1d,1d,1d,1c
17,b,c,c,c,c,c,c,c,c,c,c,c,c,d,1b
17,a,m,k,k,k,k,k,k,k,k,k,k,n,e,1b
17,a,i,q,r,r,r,r,r,r,r,r,s,j,e,1b
17,a,i,x,y,15,15,15,15,15,15,14,t,j,e,1b
17,a,i,x,z,1e,1f,1f,1f,1f,1g,13,t,j,e,1b
17,a,i,x,z,1l,1m,1n,1n,1o,1h,13,t,j,e,1b
17,a,i,x,z,1l,1t,1u,1v,1p,1h,13,t,j,e,1b
17,a,i,x,z,1l,1t,1x,1w,1p,1h,13,t,j,e,1b
17,a,i,x,z,1l,1s,1r,1r,1q,1h,13,t,j,e,1b
17,a,i,x,z,1k,1j,1j,1j,1j,1i,13,t,j,e,1b
17,a,i,x,10,11,11,11,11,11,11,12,t,j,e,1b
17,a,i,w,v,v,v,v,v,v,v,v,u,j,e,1b
17,a,p,l,l,l,l,l,l,l,l,l,l,o,e,1b
17,h,g,g,g,g,g,g,g,g,g,g,g,g,f,1b
18,19,19,19,19,19,19,19,19,19,19,19,19,19,19,1a
ITM 5 11,6
ITM 4 4,6
ITM 6 11,4
ITM 7 11,5
ITM 6 9,7
ITM 6 9,8
ITM 6 9,9
ITM 7 9,10
ITM 7 9,11
ITM 7 9,12
ITM a 6,7
ITM a 6,8
ITM a 6,9
ITM b 6,10
ITM b 6,11
ITM b 6,12
ITM b 4,5
ITM a 4,4
ITM g 6,6
ITM h 9,6
ITM e 10,6
ITM e 5,6
ITM k 5,4
ITM k 5,5
ITM k 6,5
ITM k 6,4
ITM k 7,4
ITM k 7,5
ITM k 8,5
ITM k 8,4
ITM k 9,4
ITM k 9,5
ITM k 10,5
ITM k 10,4
ITM k 8,6
ITM k 7,6
ITM k 7,7
ITM k 8,7
ITM k 8,8
ITM k 7,8
ITM k 7,9
ITM k 8,9
ITM k 8,10
ITM k 7,10
ITM k 7,11
ITM k 8,11
ITM k 8,12
ITM b 6,13
ITM 8 8,14
ITM 9 7,14
ITM 7 9,13
ITM 4 6,14
ITM 5 9,14
ITM k 8,13
ITM k 7,13
ITM k 6,3
ITM k 5,3
ITM k 7,3
ITM k 8,3
ITM k 9,3
ITM k 10,3
ITM 0 4,2
ITM 3 11,2
ITM 1 5,2
ITM 1 6,2
ITM 1 7,2
ITM 2 10,2
ITM 2 9,2
ITM 2 8,2
ITM 6 11,3
ITM a 4,3
EXT 7,13 9 7,13
EXT 6,12 9 7,13
EXT 7,11 b 7,12
EXT 8,12 b 7,12
PAL 5

ROOM b
16,1d,1d,1d,1d,1d,1d,1d,1d,1d,1d,1d,1d,1d,1d,1c
17,b,c,c,c,c,c,c,c,c,c,c,c,c,d,1b
17,a,m,k,k,k,k,k,k,k,k,k,k,n,e,1b
17,a,i,q,r,r,r,r,r,r,r,r,s,j,e,1b
17,a,i,x,y,15,15,15,15,15,15,14,t,j,e,1b
17,a,i,x,z,1e,1f,1f,1f,1f,1g,13,t,j,e,1b
17,a,i,x,z,1l,1m,1n,1n,1o,1h,13,t,j,e,1b
17,a,i,x,z,1l,1t,1u,1v,1p,1h,13,t,j,e,1b
17,a,i,x,z,1l,1t,1x,1w,1p,1h,13,t,j,e,1b
17,a,i,x,z,1l,1s,1r,1r,1q,1h,13,t,j,e,1b
17,a,i,x,z,1k,1j,1j,1j,1j,1i,13,t,j,e,1b
17,a,i,x,10,11,11,11,11,11,11,12,t,j,e,1b
17,a,i,w,v,v,v,v,v,v,v,v,u,j,e,1b
17,a,p,l,l,l,l,l,l,l,l,l,l,o,e,1b
17,h,g,g,g,g,g,g,g,g,g,g,g,g,f,1b
18,19,19,19,19,19,19,19,19,19,19,19,19,19,19,1a
ITM 6 9,7
ITM 6 9,8
ITM 6 9,9
ITM 7 9,10
ITM 7 9,11
ITM 7 9,12
ITM a 6,7
ITM a 6,8
ITM a 6,9
ITM b 6,10
ITM b 6,11
ITM b 6,12
ITM k 7,4
ITM k 7,5
ITM k 8,5
ITM k 8,4
ITM k 8,6
ITM k 7,6
ITM k 7,7
ITM k 8,7
ITM k 8,8
ITM k 7,8
ITM k 7,9
ITM k 8,9
ITM k 8,10
ITM k 7,10
ITM k 7,11
ITM k 8,11
ITM k 8,12
ITM 8 8,14
ITM 9 7,14
ITM k 8,13
ITM k 7,13
ITM 4 5,4
ITM 5 10,4
ITM 6 9,5
ITM 6 9,6
ITM a 6,5
ITM a 6,6
ITM 3 10,13
ITM 5 10,14
ITM 4 5,14
ITM 0 5,13
ITM 8 9,14
ITM 9 6,14
ITM h 9,4
ITM g 6,4
ITM i 6,13
ITM j 9,13
ITM 3 10,2
ITM 7 10,3
ITM a 5,3
ITM 0 5,2
ITM 2 9,2
ITM 2 8,2
ITM 1 6,2
ITM 1 7,2
ITM k 7,3
ITM k 6,3
ITM k 8,3
ITM k 9,3
EXT 7,13 a 7,12
EXT 6,12 a 7,12
EXT 7,11 c 5,13
EXT 8,12 c 5,13
PAL 8

ROOM c
16,1d,1d,1d,1d,1d,1d,1d,1d,1d,1d,1d,1d,1d,1d,1c
17,b,c,c,c,c,c,c,c,c,c,c,c,c,d,1b
17,a,m,k,k,k,k,k,k,k,k,k,k,n,e,1b
17,a,i,q,r,r,r,r,r,r,r,r,s,j,e,1b
17,a,i,x,y,15,15,15,15,15,15,14,t,j,e,1b
17,a,i,x,z,1e,1f,1f,1f,1f,1g,13,t,j,e,1b
17,a,i,x,z,1l,1m,1n,1n,1o,1h,13,t,j,e,1b
17,a,i,x,z,1l,1t,1u,1v,1p,1h,13,t,j,e,1b
17,a,i,x,z,1l,1t,1x,1w,1p,1h,13,t,j,e,1b
17,a,i,x,z,1l,1s,1r,1r,1q,1h,13,t,j,e,1b
17,a,i,x,z,1k,1j,1j,1j,1j,1i,13,t,j,e,1b
17,a,i,x,10,11,11,11,11,11,11,12,t,j,e,1b
17,a,i,w,v,v,v,v,v,v,v,v,u,j,e,1b
17,a,p,l,l,l,l,l,l,l,l,l,l,o,e,1b
17,h,g,g,g,g,g,g,g,g,g,g,g,g,f,1b
18,19,19,19,19,19,19,19,19,19,19,19,19,19,19,1a
ITM a 4,4
ITM a 4,5
ITM a 4,6
ITM a 4,7
ITM b 4,8
ITM b 4,9
ITM b 4,10
ITM b 4,11
ITM b 4,12
ITM b 4,13
ITM 9 5,14
ITM 9 6,14
ITM 8 7,14
ITM 7 8,12
ITM 7 8,13
ITM 6 8,11
ITM 6 8,10
ITM 6 8,9
ITM 8 10,8
ITM 9 9,8
ITM 8 11,5
ITM 8 10,5
ITM 9 9,5
ITM 6 8,6
ITM 4 4,14
ITM 5 8,14
ITM 5 11,8
ITM 5 12,5
ITM 3 11,7
ITM 1 9,7
ITM 2 10,7
ITM c 12,4
ITM j 8,7
ITM h 8,5
ITM h 8,8
ITM k 7,13
ITM k 6,13
ITM k 6,12
ITM k 7,12
ITM k 7,11
ITM k 7,10
ITM k 7,9
ITM k 6,11
ITM k 6,9
ITM k 5,10
ITM k 5,11
ITM k 5,12
ITM k 6,10
ITM k 7,8
ITM k 6,8
ITM k 5,8
ITM k 5,9
ITM k 5,7
ITM k 6,7
ITM k 7,7
ITM k 7,6
ITM k 6,6
ITM k 5,6
ITM k 5,5
ITM k 6,5
ITM k 7,5
ITM k 5,4
ITM k 6,4
ITM k 7,4
ITM k 8,4
ITM k 9,4
ITM k 10,4
ITM k 11,4
ITM a 4,3
ITM 3 12,2
ITM 2 11,2
ITM 2 10,2
ITM 2 9,2
ITM 2 8,2
ITM 6 12,3
ITM 0 4,2
ITM 1 5,2
ITM 1 6,2
ITM 1 7,2
ITM k 5,3
ITM k 6,3
ITM k 7,3
ITM k 8,3
ITM k 9,3
ITM k 10,3
ITM k 11,3
EXT 6,13 9 10,3
EXT 5,14 b 7,12
EXT 4,13 b 7,12
EXT 5,12 9 10,3
PAL 0

ROOM d
16,1d,1d,1d,1d,1d,1d,1d,1d,1d,1d,1d,1d,1d,1d,1c
17,b,c,c,c,c,c,c,c,c,c,c,c,c,d,1b
17,a,m,k,k,k,k,k,k,k,k,k,k,n,e,1b
17,a,i,q,r,r,r,r,r,r,r,r,s,j,e,1b
17,a,i,x,y,15,15,15,15,15,15,14,t,j,e,1b
17,a,i,x,z,1e,1f,1f,1f,1f,1g,13,t,j,e,1b
17,a,i,x,z,1l,1m,1n,1n,1o,1h,13,t,j,e,1b
17,a,i,x,z,1l,1t,1u,1v,1p,1h,13,t,j,e,1b
17,a,i,x,z,1l,1t,1x,1w,1p,1h,13,t,j,e,1b
17,a,i,x,z,1l,1s,1r,1r,1q,1h,13,t,j,e,1b
17,a,i,x,z,1k,1j,1j,1j,1j,1i,13,t,j,e,1b
17,a,i,x,10,11,11,11,11,11,11,12,t,j,e,1b
17,a,i,w,v,v,v,v,v,v,v,v,u,j,e,1b
17,a,p,l,l,l,l,l,l,l,l,l,l,o,e,1b
17,h,g,g,g,g,g,g,g,g,g,g,g,g,f,1b
18,19,19,19,19,19,19,19,19,19,19,19,19,19,19,1a
ITM a 5,5
ITM a 5,6
ITM a 5,7
ITM a 5,8
ITM i 5,13
ITM 4 4,14
ITM 5 13,14
ITM 7 13,13
ITM b 5,12
ITM b 5,11
ITM b 5,10
ITM b 5,9
ITM 8 12,14
ITM 8 11,14
ITM 8 10,14
ITM 8 9,14
ITM 8 8,14
ITM 9 5,14
ITM 9 6,14
ITM 9 7,14
ITM 6 13,12
ITM 3 13,11
ITM 0 12,11
ITM 2 11,12
ITM 2 10,12
ITM 2 9,12
ITM 6 8,5
ITM 6 8,6
ITM 6 8,7
ITM 6 8,8
ITM 6 8,9
ITM 4 4,4
ITM 5 9,4
ITM 7 8,10
ITM 7 8,11
ITM j 8,12
ITM h 8,4
ITM g 5,4
ITM i 12,12
ITM k 12,13
ITM k 11,13
ITM k 9,13
ITM k 10,13
ITM k 8,13
ITM k 7,13
ITM k 7,12
ITM k 7,11
ITM k 7,10
ITM k 7,9
ITM k 7,8
ITM k 7,7
ITM k 7,6
ITM k 7,5
ITM k 7,4
ITM k 6,4
ITM k 6,5
ITM k 6,6
ITM k 6,7
ITM k 6,8
ITM k 6,9
ITM k 6,10
ITM k 6,11
ITM k 6,12
ITM 0 4,13
ITM 0 4,2
ITM 3 9,2
ITM 2 8,2
ITM 2 7,2
ITM 1 5,2
ITM 1 6,2
ITM c 9,3
ITM d 4,3
ITM k 5,3
ITM k 6,3
ITM k 7,3
ITM k 8,3
EXT 7,13 0 7,13
EXT 6,14 9 10,3
EXT 5,13 9 10,3
EXT 6,12 0 7,13
PAL 6

TIL 10
00010101
00001000
00000101
00100010
00000001
00001000
01000000
00000000
>
00100111
10001011
00000101
00000010
01010000
10000001
01010000
00100001

TIL 11
10100101
00000000
01001001
00000000
11111111
00000000
00101001
00000000
>
11010011
10100101
00000000
00010010
00001000
00000000
01000100
00010001

TIL 12
10101000
00010000
10100000
01000100
10000000
00010000
00000010
00000000
>
11100100
11010000
10100001
01000000
00001010
10000001
00001010
00100100

TIL 13
10101000
00001000
10001010
00101000
00001010
10001000
00101000
10001010
>
11000001
10010000
01000010
10001000
00010001
01000000
10000010
11000000

TIL 14
00000000
00000010
00010000
10000000
01000100
10100000
00010000
10101000
>
00100100
00001010
10000001
00001010
01000000
10100001
11010000
11100100

TIL 15
00000000
00101001
00000000
11111111
00000000
10010010
00000000
10100101
>
10001000
00100010
00000000
00010000
01001000
00000000
10100101
11010011

TIL 16
10000111
01000001
00100000
00010100
00001010
10010001
10001000
11000101
>
00001000
01000001
00000101
00010010
10000100
00101001
00010000
01100101

TIL 17
00100001
00100000
00001111
10101000
01011000
00001111
00100000
00100001
>
00000100
00010000
10100000
00000100
00000100
10100000
00010000
00000100

TIL 18
11000101
10001000
10010001
00001010
00010100
00100000
01000001
10000111
>
01100101
00010000
00101001
10000100
00010010
00000101
01000001
00001000

TIL 19
10100101
00100100
00100100
00111100
00001000
11010011
00001000
00010000
>
00000000
00000000
10011001
00000000
01000010
00100100
00000000
00100100

TIL a
01000010
00110100
01000010
00101100
01000010
00110100
01000010
00101100
>
10100101
01000010
10100101
01000010
10100101
01000010
10100101
01000010

TIL b
00000000
00101010
01010101
00010001
01000100
00110101
01000010
00101100
>
10101010
01010101
10101010
01000000
10100000
01000010
10100101
01000010

TIL c
00000000
10101010
01010101
00010001
01000100
01010101
10101010
00000000
>
10101010
01010101
10101010
00000000
00000000
10101010
01010101
10101010

TIL d
00000000
10101000
01010100
00010010
01001100
01000010
10110100
01000010
>
10101010
01010101
10101010
00000101
00000010
10100101
01000010
10100101

TIL e
01000010
00110100
01000010
00101100
01000010
00110100
01000010
00101100
>
01000010
10100101
01000010
10100101
01000010
10100101
01000010
10100101

TIL f
01000010
10110100
01000010
01001100
00010010
01010100
10101000
00000000
>
01000010
10100101
01000010
00000101
00000010
01010101
10101010
01010101

TIL g
00000000
01010101
10101010
10001000
00100010
10101010
01010101
00000000
>
01010101
10101010
01010101
00000000
00000000
01010101
10101010
01010101

TIL h
01000010
00110101
01000010
00100000
01011010
00100010
00010101
00000000
>
10100101
01000010
10100101
01000000
10100000
01010101
10101010
01010101

TIL i
01010101
01011000
01010101
01011000
01010101
01011000
01010101
01011000
>
01111111
00000000
01111111
00000000
01111111
00000000
01111111
00000000

TIL j
00011010
10101010
00011010
10101010
00011010
10101010
00011010
10101010
>
00000000
11111110
00000000
11111110
00000000
11111110
00000000
11111110

TIL k
00000000
11111111
00000000
11111111
01010101
10101010
00000000
10101010
>
00000000
10101010
10101010
10101010
10101010
10101010
10101010
10101010

TIL l
01010101
00000000
01010101
10101010
11111111
00000000
11111111
00000000
>
01010101
01010101
01010101
01010101
01010101
01010101
01010101
00000000

TIL m
00000000
01111111
01000000
01011111
01010101
01011010
01010100
01011000
>
00000000
00101010
01111111
00101010
01111111
00101010
01111111
00101010

TIL n
00000000
11111110
00000010
11111010
01011010
10101010
00011010
10101010
>
00000000
11111110
10101010
11111110
10101010
11111110
10101010
11111110

TIL o
00011010
00101010
01011010
10101010
11111010
00000010
11111110
00000000
>
01010100
11111110
01010100
11111110
01010100
11111110
01010100
00000000

TIL p
01010101
01011000
01010101
01011010
01011111
01000000
01111111
00000000
>
01111111
01010101
01111111
01010101
01111111
01010101
01111111
00000000

TIL q
10001111
01000000
00100000
00011100
10011001
10010100
10000010
10001001
>
00000000
01111111
01000000
01011111
01010000
01010111
01010100
01010100

TIL r
01111110
00000000
10100101
10001000
10010100
00100010
01000001
10001000
>
00000000
11111111
00000000
11111111
00000000
11111111
00000000
00000000

TIL s
11110001
00000010
00000100
00111000
10011001
00101001
01000001
10010001
>
00000000
11111110
00000010
11111010
00001010
11101010
00101010
00101010

TIL t
10011100
01000001
00100101
00010001
10001001
00010101
00100001
01000100
>
00101010
00101010
00101010
00101010
00101010
00101010
00101010
00101010

TIL u
10010001
01000001
00101001
10011001
00111000
00000100
00000010
11110001
>
00101010
00101010
11101010
00001010
11111010
00000010
11111110
00000000

TIL v
00010001
10000010
01000100
00101001
00010001
10100101
00000000
01111110
>
00000000
00000000
11111111
00000000
11111111
00000000
11111111
00000000

TIL w
10001001
10000010
10010100
10011001
00011100
00100000
01000000
10001111
>
01010100
01010100
01010111
01010000
01011111
01000000
01111111
00000000

TIL x
00100010
10000100
10101000
10010001
10001000
10100100
10000010
00111001
>
01010100
01010100
01010100
01010100
01010100
01010100
01010100
01010100

TIL y
00000000
01000000
00001000
00000001
00100010
00000101
00001000
00010101
>
00100001
01010100
10000001
01010000
00000010
01000101
00001011
10100111

TIL z
01010001
00010100
00010001
01010000
00010100
01010001
00010000
00010101
>
00010011
01000001
00000010
10001001
00010000
01000010
00001001
10000011

TIL 1a
10100011
00010001
10001001
01010000
00101000
00000100
10000010
11100001
>
10100110
00001000
10010100
00100001
01001000
10100000
10000010
00010000

TIL 1b
10000100
00000100
11110000
00011010
00010101
11110000
00000100
10000100
>
00100000
00001000
00000101
00100000
00100000
00000101
00001000
00100000

TIL 1c
11100001
10000010
00000100
00101000
01010000
10001001
00010001
10100011
>
00000000
10000010
10100000
01001000
00100000
10010100
00001000
10100110

TIL 1d
00001000
00010000
11001011
00010000
00111100
00100100
00100100
10100101
>
00100100
00000000
00100100
01000010
00000000
10011001
00000000
00000000

TIL 1e
10001000
00000000
00100010
00000000
10001001
00000001
00100000
00001100
>
00100000
01000000
10001111
00000000
00101111
00101111
00101111
00101111

TIL 1f
01000010
00001000
00000000
01010010
00000000
00010000
00000000
00100100
>
00000000
00000000
10101010
00000000
01111010
01111010
01111010
01111010

TIL 1g
00010001
00000000
01000100
00000000
10010001
10000000
00000100
00110000
>
00000100
00000010
11110001
00000000
11110100
11110100
11110100
11110100

TIL 1h
00000000
00001001
10000000
00101000
00000010
10000000
00001001
00000000
>
00000100
11110000
11110100
11110000
11110100
00000000
11110100
00000000

TIL 1i
00110000
00000100
10000000
10010001
00000000
01000100
00000000
00010001
>
11110100
11110100
11110100
11110100
00000000
11110001
00000010
00000100

TIL 1j
00100100
00000000
00001000
00000000
01001010
00000000
00010000
01000010
>
01011110
01011110
01011110
01011110
00000000
01010101
00000000
00000000

TIL 1k
00001100
00100000
00000001
10001001
00000000
00100010
00000000
10001000
>
00101111
00101111
00101111
00101111
00000000
10001111
01000000
00100000

TIL 1l
00000000
10010000
00000001
01000000
00010100
00000001
10010000
00000000
>
00000000
00101111
00000000
00101111
00001111
00101111
00001111
00100000

TIL 1m
00000000
00010000
00000000
01000000
00001000
00000000
00000010
00000000
>
00000000
01101110
01101110
01100000
00000000
01100001
01100000
01100100

TIL 1n
00000000
00000000
01000010
00000000
00010000
00000000
00000000
00000000
>
00000000
11101110
11101110
00000000
00000000
00000100
00100000
00000000

TIL 1o
00000000
00001000
00000000
00000010
00010000
00000000
01000000
00000000
>
00000000
11101110
11101110
00000000
00000110
10000110
00000110
00100000

TIL 1p
00000000
00000100
00000000
00010000
00000000
00000000
00000100
00000000
>
00000110
00000110
01000110
00000000
00000110
00100110
00000110
00000000

TIL 1q
00000000
01000000
00000000
00010000
00000010
00000000
00001000
00000000
>
00100110
00000110
10000110
00000000
00000110
01110110
01110110
00000000

TIL 1r
00000000
00000000
00000000
00001000
00000000
01000010
00000000
00000000
>
00000000
00000100
00100000
00000000
00000000
01110111
01110111
00000000

TIL 1s
00000000
00000010
00000000
00001000
01000000
00000000
00010000
00000000
>
00000100
01100000
01100001
01100000
00000000
01110111
01110111
00000000

TIL 1t
00000000
00100000
00000000
00000000
00001000
00000000
00100000
00000000
>
00000000
01100000
01100100
01100000
00000000
01100010
01100000
01100000

TIL 1u
00000000
00000000
00000000
00010000
00000000
00000000
00000000
00000000
>
00000000
00000000
01000000
00000000
00000100
00000000
00100000
00000000

TIL 1v
00000000
00000000
00000000
00001000
00000000
00000000
00000000
00000000
>
00000000
00000100
01000000
00000000
00000000
00010000
00000000
00000000

TIL 1w
00000000
00000000
00000000
00000000
00001000
00000000
00000000
00000000
>
00000000
00000100
00000000
00000000
00100000
00000010
00000000
00000000

TIL 1x
00000000
00000000
00000000
00000000
00010000
00000000
00000000
00000000
>
00000000
00000000
00010000
00000000
00000000
00000010
00100000
00000000

SPR A
00000000
01000000
00000100
00010000
00000000
00010100
01000000
00000000
>
00000000
00010010
00000000
00000000
01000010
00000000
00010000
00000000
POS 0 7,13

SPR a
00000000
01000000
00000100
00010000
00000000
00010100
01000000
00000000
>
00000000
00010010
00000000
00000000
01000010
00000000
00010000
00000000
POS 6 10,13

ITM 0
00000000
01001011
00100010
00010010
01001010
00000110
01111110
01000000
>
00000000
00111110
01100001
01001000
01010010
01000001
01001010
00100101
NAME 1

ITM 1
00000000
11111000
00000111
00000000
10110110
00000000
00000000
00000000
>
00000000
01111111
10000000
00100100
00000000
00010001
01001010
10010100

ITM 2
00000000
00011111
11100000
00000000
01101101
00000000
00000000
00000000
>
00000000
11111110
00000001
00100100
00000000
10001000
01010010
00101001

ITM 3
00000000
11010010
01000100
01001000
01010010
01100000
01111110
00000010
>
00000000
01111100
10000110
00010010
01001010
10000010
01010010
10100100

ITM 4
01000000
01111110
00000110
01001010
00010010
00100010
01001011
00000000
>
00100101
01001010
01000001
01010010
01001000
01100001
00111110
00000000

ITM 5
00000010
01111110
01100000
01010010
01001000
01000100
11010010
00000000
>
10100100
01010010
10000010
01001010
00010010
10000110
01111100
00000000

ITM 6
00010010
00000010
00010010
00010010
00000010
00010100
00010100
00000100
>
10000100
01000010
00001010
10100010
01000010
10001010
01000010
10100010

ITM 7
00000100
00010100
00010100
00000010
00010010
00010010
00000010
00010010
>
00100010
01000010
10001010
01000010
10100010
00001010
01000010
10000100

ITM 8
00000000
00000000
00000000
01101101
00000000
11100000
00011111
00000000
>
00101001
01010010
10001000
00000000
00100100
00000001
11111110
00000000

ITM 9
00000000
00000000
00000000
10110110
00000000
00000111
11111000
00000000
>
10010100
01001010
00010001
00000000
00100100
10000000
01111111
00000000

ITM a
01001000
01000000
01001000
01001000
01000000
00101000
00101000
00100000
>
00100001
01000010
01010000
01000101
01000010
01010001
01000010
01000100

ITM b
00100000
00101000
00101000
01000000
01001000
01001000
01000000
01001000
>
01000100
01000010
01010001
01000010
01000101
01010000
01000010
00100001

ITM c
00010010
00000010
00010010
00010010
00010010
00010010
00000010
00010010
>
10100010
01000010
10001010
01000010
01000010
10001010
01000010
10100010

ITM d
01001000
01000000
01001000
01001000
01001000
01001000
01000000
01001000
>
01000101
01000010
01010001
01000010
01000010
01010001
01000010
01000101

ITM e
00000000
00000000
00000000
10111101
00000000
00000000
11111111
00000000
>
10100101
01011010
10000001
00000000
00100100
00000000
11111111
00000000

ITM f
00000000
11111111
00000000
00000000
10111101
00000000
00000000
00000000
>
00000000
11111111
00000000
00100100
00000000
10000001
01011010
10100101

ITM g
00000000
00000000
00000000
11001000
00000000
00000000
11001000
01001000
>
00000000
00000000
10000000
00100000
00000000
10001000
01000000
00100100

ITM h
00000000
00000000
00000000
00010011
00000000
00000000
00010011
00010010
>
00000000
00000000
00000001
00000100
00000000
00010001
00000010
00100100

ITM i
01001000
11001000
00000000
00000000
11001000
00000000
00000000
00000000
>
00100100
01000000
10001000
00000000
00100000
10000000
00000000
00000000

ITM j
00010010
00010011
00000000
00000000
00010011
00000000
00000000
00000000
>
00100100
00000010
00010001
00000000
00000100
00000001
00000000
00000000

ITM k
00000000
01000000
00000100
00010000
00000000
00010100
01000000
00000000
>
00000000
00010010
00000000
00000000
01000010
00000000
00010000
00000000

VAR a
42


