X imagines a lot of things during the bus trips from home to the office to escape his...

# BITSY VERSION 3.4

! ROOM_FORMAT 1

PAL 0
172,50,50
231,231,226
231,231,226

ROOM 0
0,2c,2c,2c,2c,2c,2c,2c,2c,2c,2c,2c,2c,2c,2c,0
2d,a,0,0,0,0,0,0,0,0,0,0,0,0,0,2f
2d,a,0,0,0,0,0,0,0,0,0,0,0,0,0,2f
2d,a,0,0,0,0,0,0,0,0,0,0,0,0,0,2f
2d,a,0,0,0,0,0,0,0,0,0,0,0,0,0,2f
2d,a,0,0,0,0,0,0,0,0,0,0,0,0,0,2f
2d,a,d,2g,d,2i,0,2l,2m,d,2l,2q,2t,2l,2v,2f
2d,a,d,2h,b,2j,b,2k,2n,2o,2p,2r,2s,2u,2w,2f
2d,3g,3h,3d,3f,3d,3e,3f,3g,3h,52,51,0,53,2x,2f
2d,4v,38,38,39,38,39,3a,3b,3c,51,53,52,51,2x,2f
2d,4u,33,4t,34,33,34,35,36,37,4x,4y,4z,50,57,2f
2d,4w,2y,2z,0,2y,2z,30,31,32,54,55,56,56,58,2f
2d,e,e,e,e,e,e,e,e,e,e,e,e,e,e,2f
2d,e,e,e,e,e,e,e,e,e,e,e,e,e,e,2f
2d,e,e,e,e,e,e,e,e,e,e,e,e,e,e,2f
0,2e,2e,2e,2e,2e,2e,2e,2e,2e,2e,2e,2e,2e,2e,0
EXT 6,3 1 1,1
EXT 7,2 1 1,1
EXT 8,3 1 1,1
EXT 7,4 1 1,1
PAL 0

ROOM 1
0,0,0,0,0,0,0,0,0,0,0,0,0,0,0,0
0,0,b,b,b,b,b,0,0,b,b,b,b,b,0,0
0,a,0,14,13,12,0,c,a,0,0,1h,1i,1j,c,0
0,a,0,y,z,10,11,c,a,1k,1l,1m,1n,1o,c,0
0,a,0,x,w,v,u,c,a,1p,1q,1r,1s,1t,c,0
0,a,0,q,r,s,t,c,a,0,1u,1v,1v,1w,c,0
0,a,e,e,m,e,e,c,a,e,e,p,e,e,c,0
0,0,d,d,d,d,d,0,0,d,d,d,d,d,0,0
0,0,b,b,b,b,b,0,0,b,b,b,b,b,0,0
0,a,0,15,16,17,0,c,a,0,0,0,0,0,c,0
0,a,0,18,19,1a,0,c,a,1x,1y,1z,20,21,c,0
0,a,0,1b,1c,1d,0,c,a,22,23,24,25,26,c,0
0,a,0,1e,1f,1g,0,c,a,27,28,29,2a,2b,c,0
0,a,e,e,n,e,e,c,a,e,e,o,e,e,c,0
0,0,d,d,d,d,d,0,0,d,d,d,d,d,0,0
0,0,0,0,0,0,0,0,0,0,0,0,0,0,0,0
EXT 2,1 2 1,1
EXT 1,0 4 1,1
EXT 0,1 6 1,1
EXT 1,2 8 1,1
PAL 0

ROOM 2
0,0,0,0,0,0,0,0,0,0,0,0,0,0,0,0
0,0,0,b,b,b,b,0,0,b,b,b,b,b,0,0
0,a,3d,3e,3f,3g,3h,c,a,0,0,0,0,0,c,0
0,a,38,39,3a,3b,3c,c,a,0,j,k,l,0,c,0
0,a,33,34,35,36,37,c,a,0,g,h,i,0,c,0
0,a,2y,2z,30,31,32,c,a,0,f,0,0,0,c,0
0,a,e,e,m,e,e,c,a,e,e,p,e,e,c,0
0,0,d,d,d,d,d,0,0,d,d,d,d,d,0,0
0,0,b,b,b,b,b,0,0,b,b,b,b,b,0,0
0,a,3w,3x,3y,3z,40,c,a,0,0,0,0,0,c,0
0,a,3p,0,0,3u,3v,c,a,0,0,3j,0,0,c,0
0,a,3p,3q,3r,3s,3t,c,a,0,0,3i,0,0,c,0
0,a,3k,3l,3m,3n,3o,c,a,0,0,0,0,0,c,0
0,a,e,e,n,e,e,c,a,e,e,o,e,e,c,0
0,0,d,d,d,d,d,0,0,d,d,d,d,d,0,0
0,0,0,0,0,0,0,0,0,0,0,0,0,0,0,0
EXT 0,1 1 1,1
EXT 1,2 3 1,1
PAL 0

ROOM 3
0,0,0,0,0,0,0,0,0,0,0,0,0,0,0,0
0,0,b,b,b,b,b,0,0,b,b,b,b,b,0,0
0,a,0,0,0,0,0,c,a,0,44,45,46,0,c,0
0,a,0,0,3j,0,0,c,a,0,1p,43,u,0,c,0
0,a,0,0,3i,0,0,c,a,0,1p,47,u,0,c,0
0,a,0,0,0,0,0,c,a,0,41,d,42,0,c,0
0,a,e,e,m,e,e,c,a,e,e,p,e,e,c,0
0,0,d,d,d,d,d,0,0,d,d,d,d,d,0,0
0,0,b,b,b,b,b,0,0,b,b,b,b,b,0,0
0,a,0,0,0,0,0,c,a,0,0,1h,1i,1j,c,0
0,a,0,j,k,l,0,c,a,1k,1l,1m,1n,1o,c,0
0,a,0,g,h,i,0,c,a,1p,1q,1r,1s,1t,c,0
0,a,0,f,0,0,0,c,a,0,1u,1v,1v,1w,c,0
0,a,e,e,n,e,e,c,a,e,e,o,e,e,c,0
0,0,d,d,d,d,d,0,0,d,d,d,d,d,0,0
0,0,0,0,0,0,0,0,0,0,0,0,0,0,0,0
EXT 1,0 2 1,1
END undefined 2,1
PAL 0

ROOM 4
0,0,0,0,0,0,0,0,0,0,0,0,0,0,0,0
0,0,b,b,b,b,b,0,0,b,b,b,b,b,0,0
0,a,0,0,0,0,0,c,a,0,0,4l,0,0,c,0
0,a,0,0,3j,0,0,c,a,0,0,4k,0,0,c,0
0,a,0,0,3i,0,0,c,a,0,4i,4j,4i,0,c,0
0,a,0,0,0,0,0,c,a,0,0,0,0,0,c,0
0,a,e,e,m,e,e,c,a,e,e,p,e,e,c,0
0,0,d,d,d,d,d,0,0,d,d,d,d,d,0,0
0,0,b,b,b,b,b,0,0,b,b,b,b,b,0,0
0,a,3d,3e,3f,3g,3h,c,a,0,0,0,0,0,c,0
0,a,38,39,3a,3b,3c,c,a,0,j,k,l,0,c,0
0,a,33,34,35,36,37,c,a,0,g,h,i,0,c,0
0,a,2y,2z,30,31,32,c,a,0,f,0,0,0,c,0
0,a,e,e,n,e,e,c,a,e,e,o,e,e,c,0
0,0,d,d,d,d,d,0,0,d,d,d,d,d,0,0
0,0,0,0,0,0,0,0,0,0,0,0,0,0,0,0
EXT 1,2 1 1,1
EXT 2,1 5 1,1
PAL 0

ROOM 5
0,0,0,0,0,0,0,0,0,0,0,0,0,0,0,0
0,0,b,b,b,b,b,0,0,b,b,b,b,b,0,0
0,a,0,0,0,0,0,c,a,0,0,0,0,0,c,0
0,a,1x,1y,1z,20,21,c,a,0,j,k,l,0,c,0
0,a,22,23,24,25,26,c,a,0,g,h,i,0,c,0
0,a,27,28,29,2a,2b,c,a,0,f,0,0,0,c,0
0,a,e,e,m,e,e,c,a,e,e,p,e,e,c,0
0,0,d,d,d,d,d,0,0,d,d,d,d,d,0,0
0,0,b,b,b,b,b,0,0,b,b,b,b,b,0,0
0,a,0,0,0,0,0,c,a,0,44,45,46,0,c,0
0,a,0,0,3j,0,0,c,a,0,1p,43,u,0,c,0
0,a,0,0,3i,0,0,c,a,0,1p,47,u,0,c,0
0,a,0,0,0,0,0,c,a,0,41,d,42,0,c,0
0,a,e,e,n,e,e,c,a,e,e,o,e,e,c,0
0,0,d,d,d,d,d,0,0,d,d,d,d,d,0,0
0,0,0,0,0,0,0,0,0,0,0,0,0,0,0,0
EXT 0,1 4 1,1
END undefinee 1,0
PAL 0

ROOM 6
0,0,0,0,0,0,0,0,0,0,0,0,0,0,0,0
0,0,b,b,b,b,b,0,0,b,b,b,b,b,0,0
0,a,0,0,0,0,0,c,a,3d,3e,3f,3g,3h,c,0
0,a,0,j,k,l,0,c,a,38,39,3a,3b,3c,c,0
0,a,0,g,h,i,0,c,a,33,34,35,36,37,c,0
0,a,0,f,0,0,0,c,a,2y,2z,30,31,32,c,0
0,a,e,e,m,e,e,c,a,e,e,p,e,e,c,0
0,0,d,d,d,d,d,0,0,d,d,d,d,d,0,0
0,0,b,b,b,b,b,0,0,b,b,b,b,b,0,0
0,a,0,0,0,0,0,c,a,0,0,4h,0,0,c,0
0,a,0,0,3j,0,0,c,a,0,4e,4f,4g,0,c,0
0,a,0,0,3i,0,0,c,a,0,4b,4c,4d,0,c,0
0,a,0,0,0,0,0,c,a,0,48,49,4a,0,c,0
0,a,e,e,n,e,e,c,a,e,e,o,e,e,c,0
0,0,d,d,d,d,d,0,0,d,d,d,d,d,0,0
0,0,0,0,0,0,0,0,0,0,0,0,0,0,0,0
EXT 2,1 1 1,1
EXT 1,0 7 1,1
PAL 0

ROOM 7
0,0,0,0,0,0,0,0,0,0,0,0,0,0,0,0
0,0,b,b,b,b,b,0,0,b,b,b,b,b,0,0
0,a,0,44,45,46,0,c,a,0,0,0,0,0,c,0
0,a,0,1p,43,u,0,c,a,0,0,3j,0,0,c,0
0,a,0,1p,47,u,0,c,a,0,0,3i,0,0,c,0
0,a,0,41,d,42,0,c,a,0,0,0,0,0,c,0
0,a,e,e,m,e,e,c,a,e,e,p,e,e,c,0
0,0,d,d,d,d,d,0,0,d,d,d,d,d,0,0
0,0,b,b,b,b,b,0,0,b,b,b,b,b,0,0
0,a,0,14,13,12,0,c,a,0,0,0,0,0,c,0
0,a,0,y,z,10,11,c,a,0,j,k,l,0,c,0
0,a,0,x,w,v,u,c,a,0,g,h,i,0,c,0
0,a,0,q,r,s,t,c,a,0,f,0,0,0,c,0
0,a,e,e,n,e,e,c,a,e,e,o,e,e,c,0
0,0,d,d,d,d,d,0,0,d,d,d,d,d,0,0
0,0,0,0,0,0,0,0,0,0,0,0,0,0,0,0
EXT 1,2 6 1,1
END 0 0,1
PAL 0

ROOM 8
0,0,0,0,0,0,0,0,0,0,0,0,0,0,0,0
0,0,b,b,b,b,b,0,0,b,b,b,b,b,0,0
0,a,0,0,4s,0,0,c,a,0,0,0,0,0,c,0
0,a,0,4p,4q,4r,0,c,a,0,0,3j,0,0,c,0
0,a,0,0,4o,0,0,c,a,0,0,3i,0,0,c,0
0,a,0,4m,4n,0,0,c,a,0,0,0,0,0,c,0
0,a,e,e,m,e,e,c,a,e,e,p,e,e,c,0
0,0,d,d,d,d,d,0,0,d,d,d,d,d,0,0
0,0,b,b,b,b,b,0,0,b,b,b,b,b,0,0
0,a,0,0,0,0,0,c,a,3d,3e,3f,3g,3h,c,0
0,a,0,j,k,l,0,c,a,38,39,3a,3b,3c,c,0
0,a,0,g,h,i,0,c,a,33,34,35,36,37,c,0
0,a,0,f,0,0,0,c,a,2y,2z,30,31,32,c,0
0,a,e,e,n,e,e,c,a,e,e,o,e,e,c,0
0,0,d,d,d,d,d,0,0,d,d,d,d,d,0,0
0,0,0,0,0,0,0,0,0,0,0,0,0,0,0,0
EXT 1,0 1 1,1
EXT 0,1 9 1,1
END undefinef 1,2
PAL 0

ROOM 9
0,0,0,0,0,0,0,0,0,0,0,0,0,0,0,0
0,0,b,b,b,b,b,0,0,b,b,b,b,b,0,0
0,a,0,0,0,0,0,c,a,0,15,16,17,0,c,0
0,a,0,j,k,l,0,c,a,0,18,19,1a,0,c,0
0,a,0,g,h,i,0,c,a,0,1b,1c,1d,0,c,0
0,a,0,f,0,0,0,c,a,0,1e,1f,1g,0,c,0
0,a,e,e,m,e,e,c,a,e,e,p,e,e,c,0
0,0,d,d,d,d,d,0,0,d,d,d,d,d,0,0
0,0,b,b,b,b,b,0,0,b,b,b,b,b,0,0
0,a,0,44,45,46,0,c,a,0,0,0,0,0,c,0
0,a,0,1p,43,u,0,c,a,0,0,3j,0,0,c,0
0,a,0,1p,47,u,0,c,a,0,0,3i,0,0,c,0
0,a,0,41,d,42,0,c,a,0,0,0,0,0,c,0
0,a,e,e,n,e,e,c,a,e,e,o,e,e,c,0
0,0,d,d,d,d,d,0,0,d,d,d,d,d,0,0
0,0,0,0,0,0,0,0,0,0,0,0,0,0,0,0
EXT 2,1 8 1,1
END undefineg 1,2
PAL 0

TIL 10
10000000
10000000
10000000
10000000
10000000
01111111
00000000
11000000

TIL 11
00000000
00000000
00000000
00000000
00000000
00000000
10000000
10000000

TIL 12
00000000
00000000
00000000
00000000
00000000
10000000
10000000
10000000

TIL 13
00000000
00000000
00000000
00000000
11111111
00000000
11110000
11110000

TIL 14
00000000
00000000
00000000
00000000
01111111
10000000
10000000
11100000

TIL 15
00000000
00000000
00000000
00000000
00000000
00000000
00000000
00000011

TIL 16
00000000
00000000
00000000
00000000
00000000
00000000
00000000
11111111

TIL 17
00000000
00000000
00000000
00000000
00000000
00000000
00000000
11000000

TIL 18
00001111
00111111
01111111
01111111
11111111
11111110
11111100
11111100

TIL 19
11111111
11111111
11111111
11111111
11111111
01111110
00111100
00111100

TIL 20
00000000
00000000
00000000
00000000
00000000
00000000
11110000
11111100

TIL 21
00000000
00000000
00000000
00000000
00000000
00111000
01000100
10100100

TIL 22
00000001
00000001
00000000
00000000
00000000
00000000
00000000
00000000

TIL 23
11111111
11111111
11111111
01111111
00011111
00000011
00000000
00000000

TIL 24
11111111
11111111
11111111
11111111
11111111
11111111
01111110
00011000

TIL 25
11111111
11111111
11111111
11111110
11111000
11000000
00000000
00000000

TIL 26
10011000
00000000
00000000
00000000
00000000
00000000
00000000
00000000

TIL 27
00000000
00000000
00000000
00111110
00000000
00000000
00000000
00000000

TIL 28
00000000
00000000
00000111
11111011
00000000
00000000
00000000
00000000

TIL 29
00011000
11111111
11111111
11101111
00000000
00000000
00000000
00000000

TIL 30
00000110
00001100
00000000
00000000
00000000
00000000
00000000
00000000

TIL 31
00000010
00001100
00000000
00000000
11000000
00000000
00000000
00000000

TIL 32
00000000
00000000
00000000
00000000
00001100
00000000
00000000
00000000

TIL 33
00101110
00111110
00100110
00011100
00000000
00000000
00000110
11111011

TIL 34
01011100
01111100
01000100
00111000
00000000
00000000
00000000
11111111

TIL 35
10111000
11111000
10011000
01110000
00000000
00000000
00001101
11110111

TIL 36
11110001
11111111
10000000
10000000
10000000
10110001
10000000
11111001

TIL 37
10000000
10000000
11000100
10000000
11111111
10000000
10000000
10000000

TIL 38
11111111
10001000
00010000
00111100
00111010
00111110
00111110
00101110

TIL 39
11111111
00010000
00100000
01111000
01110100
01111100
01111100
01011100

TIL 40
00000000
00000000
00000000
11111000
00000100
11110100
10110100
11110100

TIL 41
11111111
00111111
00000000
00000000
00000000
00000000
00000000
00000000

TIL 42
11111111
11111100
00000000
00000000
00000000
00000000
00000000
00000000

TIL 43
10000001
00000000
00000000
00000000
00000000
00000000
00000000
00000000

TIL 44
00000000
00000000
00000000
00000011
00000010
00000011
00000000
00000001

TIL 45
00000000
00000000
00000000
01010101
00100100
01010100
00000000
11111111

TIL 46
00000000
00000000
00000000
11000000
10000000
10000000
00000000
10000000

TIL 47
00000010
00000000
00000000
00000000
00000000
00000000
00000000
00000000

TIL 48
00010000
00001100
00000011
00000000
00000000
00000000
00000000
00000000

TIL 49
00100100
11000011
00000000
00000000
00000000
00000000
00000000
00000000

TIL 50
00000000
00000000
01001001
01001001
11111111
00000000
00000000
00000000

TIL 51
00000000
00000000
01000000
00000000
00000000
00000100
00000000
00000000

TIL 52
00000100
00000000
00000000
00000000
01000100
00000000
00000000
00000000

TIL 53
00000000
01000100
00000000
00000000
00000000
00000100
00000000
00000000

TIL 54
00000000
00000000
00000000
00000000
00000011
00000000
00000000
00000000

TIL 55
00000000
00000000
00000000
00000000
00000001
00000000
00000000
00000000

TIL 56
00000000
00000000
00000000
00000000
10000001
00000000
00000000
00000000

TIL 57
00110000
00110000
00110000
00110000
11110000
00110000
00110000
00110000

TIL 58
00110000
00110000
00110000
00110000
10110000
00110000
00110000
00110000

TIL a
00000011
00000011
00000011
00000011
00000011
00000011
00000011
00000011

TIL b
00000000
00000000
00000000
00000000
00000000
00000000
11111111
11111111

TIL c
11000000
11000000
11000000
11000000
11000000
11000000
11000000
11000000

TIL d
11111111
11111111
00000000
00000000
00000000
00000000
00000000
00000000

TIL e
11111111
11111111
11111111
11111111
11111111
11111111
11111111
11111111

TIL f
00000000
00000011
00000011
00000000
00011000
00011000
00000000
00000000

TIL g
10000000
10011111
10000000
10000000
10011110
10000000
01000000
00111111

TIL h
00000000
01111110
00000000
00000000
11001001
00000000
00000000
01111111

TIL i
00000001
11111001
00000001
00000001
11101001
00000001
00000010
11111100

TIL j
00111111
01000000
10000000
10001111
10000000
10000000
10001100
10000000

TIL k
11111101
00000000
00000000
10011101
00000000
00000000
11100111
00000000

TIL l
11111100
00000010
00000001
11011001
00000001
00000001
10011001
00000000

TIL m
11111111
11111111
10000010
11110010
11110010
11110010
11111111
11111111
>
11111111
11111111
00000100
11100100
11100100
11100100
11111111
11111111

TIL n
11000011
11111111
11000011
11000011
11011111
11011111
11011111
11111111
>
11000011
11000011
11111111
11000011
11000011
11011111
11011111
11011111

TIL o
11111111
11011111
11011111
11011111
11000011
11000011
11111111
11000011
>
11011111
11011111
11011111
11000011
11000011
11111111
11000011
11000011

TIL p
11111111
11111111
01000001
01001111
01001111
01001111
11111111
11111111
>
11111111
11111111
00100000
00100111
00100111
00100111
11111111
11111111

TIL q
11100000
11111111
11111111
01111111
00000000
00000000
00000000
00000000

TIL r
00000000
00110000
00110000
11111111
00000000
00000000
00000000
00000000

TIL s
00000000
10001110
00000000
11111111
00000000
00000000
00000000
00000000

TIL t
10000000
10000000
10000000
00000000
00000000
00000000
00000000
00000000

TIL u
10000000
10000000
10000000
10000000
10000000
10000000
10000000
10000000

TIL v
00000000
10000000
00000000
10000000
00001110
10001110
00001110
10001110

TIL w
01100000
00000000
11101000
11101000
00000000
01100000
00000000
00000000

TIL x
11000011
10000000
10001011
10001011
10000000
10000011
10000000
11100000

TIL y
11100000
11100000
11000000
10000000
10000000
11101010
11000000
11000000

TIL z
00000000
00000000
11110000
00000000
00000000
10101010
00000000
00000000

TIL 1a
11110000
11111100
11111110
11111110
11111111
01111111
00111111
00111111

TIL 1b
11111100
01111110
01111111
00111111
00001111
00000111
00000111
00000011

TIL 1c
00111100
01111110
11111111
11111111
11011011
11111111
11111111
11111111

TIL 1d
00111111
01111110
11111110
11111100
11110000
11100000
11100000
11000000

TIL 1e
00000011
00000001
00000001
00000000
00000000
00000000
00000000
00000000

TIL 1f
11111111
01011010
01011010
00000000
00000000
00000000
00000000
00000000

TIL 1g
11000000
10000000
10000000
00000000
00000000
00000000
00000000
00000000

TIL 1h
00000000
00000000
00000000
00000000
00000011
00000100
00001000
00011100

TIL 1i
00000000
00000000
00000000
00000001
10001110
01110000
00000000
00000000

TIL 1j
01000000
01000000
01000000
10000000
00000000
00000000
00000000
00000000

TIL 1k
00000000
00000001
00000001
00000001
00000001
00000001
00000001
00000001

TIL 1l
11111111
00000000
00000000
00000000
00000000
00001100
00001100
00111111

TIL 1m
11111111
00000000
00000000
00000011
00000011
00000000
00000000
00000011

TIL 1n
11111111
00000000
00000000
01100100
01001000
00000000
00000000
11111100

TIL 1o
00000000
11000000
10100000
10100000
10100000
10100000
10100000
10100000

TIL 1p
00000001
00000001
00000001
00000001
00000001
00000001
00000001
00000001

TIL 1q
00111111
00001100
00001100
00000000
00000000
00000000
00000000
11111111

TIL 1r
00000010
00000010
11011011
00000000
00000000
00000000
00000000
11111111

TIL 1s
01100100
01100100
11111100
00000000
00000000
00000000
00000000
11111111

TIL 1t
10100000
10100000
10100000
10100000
10100000
10100000
10100000
10100000

TIL 1u
10000000
11111111
00000000
00000000
00000000
00000000
00000000
00000000

TIL 1v
00000000
11111111
00000000
00000000
00000000
00000000
00000000
00000000

TIL 1w
01000000
10000000
00000000
00000000
00000000
00000000
00000000
00000000

TIL 1x
00000000
00000000
00000000
00000000
00001110
00000011
00000011
00000001

TIL 1y
00000000
00000000
00000000
00000000
00000000
00000000
10000111
10011111

TIL 1z
00000000
00001000
00001000
00011000
00111100
11111111
11111111
11111111

TIL 2a
00000000
00000000
11100000
01111111
00000000
00000000
00000000
00000000

TIL 2b
00000000
00000000
00000000
01111100
00000000
00000000
00000000
00000000

TIL 2c
00000000
00000000
00000000
00000000
11111111
11111111
11111111
11111111

TIL 2d
00001111
00001111
00001111
00001111
00001111
00001111
00001111
00001111

TIL 2e
11111111
11111111
11111111
11111111
00000000
00000000
00000000
00000000

TIL 2f
11110000
11110000
11110000
11110000
11110000
11110000
11110000
11110000

TIL 2g
00000000
11000011
11000011
11000011
11000011
11000011
11000011
11000011

TIL 2h
00000011
00000011
11000011
11000011
11000011
11000011
11111111
11111111

TIL 2i
11111111
11111111
11000011
11000011
11000011
11000011
11000011
11000011

TIL 2j
11000011
11000011
11000011
11000011
11000011
11000011
00000000
00000000

TIL 2k
11000000
11000000
11000000
11000000
11000000
11000000
00000000
00000000

TIL 2l
11111111
11111111
11000000
11000000
11000000
11000000
11000000
11000000

TIL 2m
11111111
11111111
00011000
00011000
00011000
00011000
00011000
00011000

TIL 2n
00011000
00011000
00011000
00011000
00011000
00011000
00011000
00011000

TIL 2o
00000000
00000000
00000000
00000000
00000000
00000000
00000111
00000111

TIL 2p
11000000
11000000
11000000
11000000
11000000
11000000
11111000
11111000

TIL 2q
11110000
11110000
11001100
11001100
11001100
11001100
11000011
11000011

TIL 2r
11000011
11000011
11000000
11000000
11000000
11000000
11000000
11000000

TIL 2s
00001100
00001100
11001100
11001100
11001100
11001100
00111100
00111100

TIL 2t
00001111
00001111
00001100
00001100
00001100
00001100
00001100
00001100

TIL 2u
11111111
11111111
11000000
11000000
11000000
11000000
11111111
11111111

TIL 2v
11000000
11000000
00000000
00000000
00000000
00000000
00000000
00000000

TIL 2w
00000000
00000000
00000000
00000000
00000000
00000000
11110000
11110000

TIL 2x
00110000
00110000
00110000
00110000
00110000
00110000
00110000
00110000

TIL 2y
00000011
00000110
00000000
00000000
11000000
00000000
00000000
00000000

TIL 2z
00000010
00001100
00000000
00000000
00001100
00000000
00000000
00000000

TIL 3a
11111111
00100000
01000000
11110000
11011010
11111011
11111010
10111000

TIL 3b
11111110
01111111
11111111
11111111
11111011
11111011
11111111
11110011

TIL 3c
00000000
01000100
10000000
10000000
10100100
11100000
10100000
10000100

TIL 3d
00000000
10001000
00000000
00000000
00000000
00000000
10001000
00000000

TIL 3e
00000001
10000001
00000000
00000000
00000000
00000000
00010000
00000000

TIL 3f
00000100
00000100
00000000
00000000
00000000
00100100
00100100
00000000

TIL 3g
00010000
00010000
00000000
00000000
00000000
00010000
00010000
00000000

TIL 3h
00000100
00000000
00000000
01000100
00000000
00000000
01000100
00000000

TIL 3i
11100111
11111111
11111111
11100111
11100111
11111111
11111111
01111110

TIL 3j
01111110
11111111
11111111
11100111
11100111
11100111
11100111
11100111

TIL 3k
00101111
00100000
00011111
00000000
00000000
00000000
00000000
00000000

TIL 3l
11111111
00000000
11111111
00000000
00000000
00000111
00000000
00000000

TIL 3m
11111111
00000000
11111111
01111110
01111110
11111111
00000000
00000000

TIL 3n
11111111
00000000
11111101
00000000
00000000
11100000
00000000
00000000

TIL 3o
11110100
00000100
01011000
00000000
00000000
00000000
00000000
00000000

TIL 3p
00101000
00101000
00101000
00101000
00101000
00101000
00101000
00101000

TIL 3q
00000000
00011110
00000000
01000000
11111111
00000000
00000000
00000000

TIL 3r
00000110
00000110
01100110
01100110
11111111
00000000
00000000
00000000

TIL 3s
01000010
01011010
01000010
01010010
01000010
01011010
01000010
01000010

TIL 3t
00010100
11010100
00010100
10010100
00010100
11010100
10010100
00010100

TIL 3u
01000010
01010010
01000010
01011010
01000010
01010010
01000010
01011010

TIL 3v
00010100
11010100
00010100
10010100
00010100
10010100
00010100
11010100

TIL 3w
00000000
00000000
00000000
00011111
00100000
00101111
00101100
00101111

TIL 3x
00000000
00000000
00000000
11111111
00000000
11111111
10010010
11111111

TIL 3y
00000000
00000000
00000000
11111111
00000000
11111111
01001111
11111111

TIL 3z
00000000
00000000
00000000
11111111
00000000
11111111
11111010
11111111

TIL 4a
00001000
00110000
11000000
00000000
00000000
00000000
00000000
00000000

TIL 4b
00000000
00000000
00000000
00000000
00000011
00001100
00010000
00010000

TIL 4c
10100101
01111110
00100100
00100100
00000000
11000011
00100100
00011000

TIL 4d
00000000
00000000
00000000
00000000
11000000
00110000
00001000
00001000

TIL 4e
00000000
00000001
00000001
00000000
00000000
00000000
00000000
00000000

TIL 4f
10100101
00100101
00100100
10000000
01111110
00000001
00100100
10100100

TIL 4g
00000000
00000000
00000000
00000000
00000000
00000000
10000000
10000000

TIL 4h
00000000
00000000
00000000
00000000
00000000
00100100
00100100
01111110

TIL 4i
00000000
00000000
00000000
00000000
00000000
00000000
11111111
00000000

TIL 4j
00000001
00000010
00000010
00000010
00000000
00000010
11111111
00000000

TIL 4k
00000010
00000100
00000010
00000001
00000001
00000001
00000001
00000000

TIL 4l
00000000
00000000
00000000
00000000
00000000
00000100
00000010
00000010

TIL 4m
00000011
00000011
00000000
00000000
00000000
00000000
00000000
00000000

TIL 4n
00000110
00000110
00000000
00000000
00000000
00000000
00000000
00000000

TIL 4o
00000000
00000000
11111111
11111111
10000001
10000001
10000001
10000001

TIL 4p
00000001
00000011
00000011
00000011
00000001
00000000
00000000
00000000

TIL 4q
11111111
11111111
10111101
11111111
11111111
11111111
01011010
01011010

TIL 4r
10000000
11000000
11000000
11000000
10000000
00000000
00000000
00000000

TIL 4s
00000000
00000000
00000000
00000000
00000000
00000000
00000000
01111110

TIL 4t
00101110
00111110
00100110
00011100
00000000
00000000
00000000
11111111

TIL 4u
00000010
00111010
00111010
00111010
11111110
00000010
00000001
00000000

TIL 4v
00000000
00000001
00000010
00000010
00010010
00010010
00000010
00000010

TIL 4w
00000000
00000000
00000000
00000000
11000000
00000000
00000000
00000000

TIL 4x
01000000
00000000
00011000
00011000
11111111
00000000
00000000
00000000

TIL 4y
01000000
00000111
00001111
00001111
11111111
00000000
00000000
00000000

TIL 4z
00000000
11000000
11100000
11100000
11111111
00000000
00000000
00000000

SPR A
00000000
00000000
00000000
00000000
00000000
00000000
00000000
00000000
POS 0 7,3

SPR a
00000011
00000011
00000011
00000011
00000011
00000011
00000011
00000011
POS 6 1,2

SPR b
00000000
00000000
00000000
00000000
00000000
00000000
11111111
11111111
POS 2 2,1

SPR c
00000000
00000000
00000000
00000000
00000000
00000000
00000000
00000000
POS 2 1,0

SPR d
00000011
00000011
00000011
00000011
00000011
00000011
00000011
00000011
POS 3 1,2

SPR e
00000000
00000000
00000000
00000000
00000000
00000000
00000000
00000000
POS 4 1,0

SPR f
00000000
00000000
00000000
00000000
00000000
00000000
11111111
11111111
POS 5 2,1

SPR g
00000000
00000000
00000000
00000000
00000000
00000000
00000000
00000000
POS 6 0,1

SPR h
00000000
00000000
00000000
00000000
00000000
00000000
00000000
00000000
POS 7 1,0

SPR i
00000011
00000011
00000011
00000011
00000011
00000011
00000011
00000011
POS 8 1,2

SPR j
00000000
00000000
00000000
00000000
00000000
00000000
00000000
00000000
POS 9 0,1

SPR k
00000000
00000000
00000000
00000000
00000000
00000000
00000000
00000000
POS 3 0,1

SPR l
00000000
00000000
00000000
00000000
00000000
00000000
00000000
00000000
POS 4 0,1

SPR m
00000011
00000011
00000011
00000011
00000011
00000011
00000011
00000011
POS 5 1,2

SPR n
00000000
00000000
00000000
00000000
00000000
00000000
11111111
11111111
POS 7 2,1

SPR o
00000000
00000000
00000000
00000000
00000000
00000000
11111111
11111111
POS 8 2,1

SPR p
00000000
00000000
00000000
00000000
00000000
00000000
00000000
00000000
POS 9 1,0

DLG a
[ locked daydream ]

DLG b
X daydreams about his life as a game developer...

DLG c
[ locked daydream ]

DLG d
...he imagines a studio with a lot of video games and board games to play on fridays...

DLG e
X daydreams about finding an object which gives him 3 wishes...

DLG f
...invisibility is the most common of his wishes because he imagines using such power to spy and murder others...

DLG g
X daydreams about an apartment in a high floor, looking through the window during the sunset...

DLG h
...he imagines himself having infinite-money so he can stop worrying about finding a job...

DLG i
X frequently daydream about his death...

DLG j
...he imagines himself jumping from a high place after listening his favorite song...and listening to it again as he falls...

DLG k
[ locked daydream ]

DLG l
[ locked daydream ]

DLG m
[ locked daydream ]

DLG n
[ locked daydream ]

DLG o
[ locked daydream ]

DLG p
[ locked daydream ]

END 0
X has reached his destination. The last image in this daydream is of him listening to Jazz in a cafe, without worries.

END undefined
X has reached his destination. The last image in this daydream is of him teaching game design to others after years of making this art.

END undefinee
X has reached his destination. The last image in this daydream is of him killing powerful people considered harmful for humanity.

END undefinef
X has reached his destination. The last image in this daydream is of him dying in a car accident during the night of a normal day.

END undefineg
X has reached his destination. The last image in this daydream is of him falling in slow motion during the sunset...and then...nothing.

