The Dream You Kept Having After Jerry Left

# BITSY VERSION 3.5

! ROOM_FORMAT 1

PAL 0
151,204,166
193,255,220
190,255,223

PAL 1
255,121,159
255,229,203
206,212,255

PAL 2
78,71,137
255,249,195
238,246,255

ROOM 0
0,0,0,0,0,0,0,0,0,0,0,0,0,0,0,0
0,0,b,b,0,0,0,b,0,0,g,0,g,0,0,0
f,0,0,b,0,g,0,0,g,0,0,0,0,0,0,0
f,0,0,0,0,0,0,0,g,g,0,g,0,0,g,0
0,0,0,0,0,0,0,0,0,g,0,0,g,0,0,g
0,0,g,0,0,0,g,g,0,0,0,g,0,0,0,0
0,g,0,0,b,0,g,0,0,0,g,0,b,g,0,0
0,0,0,i,h,h,0,h,h,j,0,0,0,0,0,0
0,0,0,l,g,0,p,g,0,k,0,0,0,0,0,0
b,0,0,0,p,0,0,0,g,k,0,0,0,g,0,0
0,0,0,l,0,0,0,0,0,k,0,0,0,0,s,0
0,0,0,0,0,g,g,0,0,k,0,0,0,g,0,0
0,0,0,m,g,o,0,p,o,n,0,0,g,0,0,0
0,g,0,g,0,0,g,0,0,0,0,0,g,0,g,0
0,0,g,0,g,0,0,g,b,g,0,0,0,g,g,0
0,0,0,0,0,0,0,0,0,0,0,0,0,0,0,0
EXT 14,10 2 7,0
END undefinee 0,0
END undefinee 0,5
END undefinee 0,6
END undefinee 0,7
END undefinee 0,8
END undefinee 0,9
END undefinee 0,10
END undefinee 0,11
END undefinee 0,12
END undefinee 0,13
END undefinee 0,14
END undefinee 0,15
PAL 1

ROOM 1
0,a,0,0,0,0,0,0,0,0,0,0,0,0,0,a
0,0,0,0,0,0,0,0,b,0,0,0,0,0,0,a
0,0,0,0,0,0,0,0,0,0,0,0,b,0,0,0
0,0,a,b,0,0,0,a,b,0,0,0,0,0,0,0
0,0,a,a,0,0,0,b,a,0,a,0,0,0,d,0
0,0,0,0,0,0,0,0,0,0,0,0,0,0,c,0
0,0,0,0,0,0,0,0,0,0,0,0,0,0,0,0
0,a,a,a,0,0,0,0,b,a,0,0,0,0,0,e
0,0,0,a,0,0,0,0,0,0,b,0,a,0,0,e
0,0,0,0,0,a,0,0,0,b,b,0,0,0,0,0
a,0,0,0,0,a,a,0,0,0,0,0,0,0,0,0
0,0,0,0,b,0,0,0,0,0,0,0,0,0,b,0
0,b,b,0,0,0,0,0,0,0,a,0,d,0,0,0
0,b,b,b,b,0,0,0,0,a,a,0,c,0,0,0
0,0,b,b,0,0,0,0,0,0,0,0,0,a,0,0
0,0,0,0,0,0,0,a,0,0,0,0,0,0,0,0
EXT 15,7 0 0,2
EXT 15,8 0 0,3
END undefined 0,0
END undefined 0,1
END undefined 0,2
END undefined 0,3
END undefined 0,4
END undefined 0,5
END undefined 0,6
END undefined 0,7
END undefined 0,8
END undefined 0,9
END undefined 0,10
END undefined 0,11
END undefined 0,12
END undefined 0,13
END undefined 0,14
END undefined 0,15
PAL 0

ROOM 2
0,r,0,0,0,0,r,0,0,0,0,0,0,0,0,0
0,0,0,0,r,r,r,r,r,0,0,0,r,r,0,0
r,r,0,0,r,r,r,r,r,r,0,r,r,r,r,0
0,r,r,r,r,0,r,r,r,r,0,0,r,r,r,0
0,0,0,0,0,0,0,0,0,r,r,0,r,0,r,r
0,0,0,r,0,r,0,0,0,0,r,r,r,0,0,0
0,0,r,r,0,0,0,0,0,0,0,0,0,0,r,0
0,0,0,0,0,0,0,0,0,0,0,0,0,0,0,0
0,0,0,0,0,0,0,0,0,0,0,0,0,0,0,0
0,0,0,0,0,0,0,0,0,0,0,0,0,0,0,0
0,0,0,0,0,0,0,0,0,0,0,0,0,0,0,0
0,0,0,0,0,0,0,0,0,0,0,0,0,0,0,0
0,0,0,0,0,0,0,0,0,0,0,0,0,0,0,0
0,0,0,0,0,0,0,0,0,0,0,0,0,0,0,0
0,0,0,0,0,0,0,0,0,0,0,0,0,0,0,0
0,0,0,0,0,0,0,0,0,0,0,0,0,0,0,0
END 0 8,8
END 0 8,7
END 0 7,7
END 0 7,8
END 0 9,7
END 0 9,8
END 0 7,11
END 0 7,12
END 0 6,13
END 0 7,14
END 0 8,13
END 0 9,12
END 0 9,11
END 0 8,10
PAL 2

TIL a
00010000
01000010
00000000
00010100
01000001
00000000
00000100
10000000

TIL b
00000000
00000000
00000010
01000010
01010010
00010000
00010010
00000010
>
00000000
00000000
00000001
00100010
01001010
00001000
00010001
00000010

TIL c
00011001
00011110
00011000
00111000
00011000
00011000
00011000
00000000

TIL d
00111000
00111111
11111111
11111111
01111110
11111111
01111100
00011000
>
00001111
00111111
01111110
00111111
01111111
01111111
00111110
00011000

TIL e
00000000
01111111
01111111
01100000
01100000
01111111
01111111
00000000

TIL f
00000000
11111110
11111110
00000110
00000010
11110010
11111010
00000000

TIL g
00000100
00001010
01000100
10100000
01001000
00010100
00001000
00000000

TIL h
00000000
00000000
11111111
11111111
00000000
00000000
00000000
00000000

TIL i
00000000
00000000
01111111
01111111
01100000
01100000
01100000
01100000

TIL j
00000000
00000000
11111110
11111110
00000110
00000110
00000110
00000110

TIL k
00000110
00000110
00000110
00000110
00000110
00000110
00000110
00000110

TIL l
01100000
01100000
01100000
01100000
01100000
01100000
01100000
01100000

TIL m
01100000
01100000
01100000
01100000
01100000
01111111
01111111
00000000

TIL n
00000110
00000110
00000110
00000110
00000110
01110110
11110110
00000000

TIL o
00000000
00000000
00000000
00000000
00000000
00011100
00111110
00000000

TIL p
00000000
00000000
00000010
01000010
01010010
00010000
00010010
00000010

TIL r
00000000
00100100
00000000
00010000
00000010
01000000
00001000
00000000
>
00100001
00000000
10001000
00000010
00100000
00000000
00010010
10000000

TIL s
00111000
00010100
00111100
00011000
00111100
00111100
00011000
00011000

SPR A
01111000
01010000
01111000
00110000
01111000
01111000
01111000
00110000
POS 1 5,2

SPR a
00000000
11011110
01111111
11010110
11111111
01111111
00110100
00000000
>
00010000
11011100
11111111
11010110
01111111
11111110
01011010
00000000
POS 1 10,2

SPR b
00000000
00000000
00000000
00001100
00011111
00111111
00001110
00000000
POS 1 7,12

SPR c
00011111
00110001
00100001
11111111
11111111
11101111
00111000
00000000
POS 1 4,1

SPR d
11000000
10000000
10000000
11011000
11111100
10111000
11100000
00000000
POS 1 5,1

SPR e
00000000
00000000
00111110
00111110
00111110
00001000
00001000
00000000
POS 1 14,7

SPR f
00101000
00111000
01111000
01111000
00111000
00111110
01111100
00000000
>
00101000
00111000
01111000
01111000
00111010
00111100
01111100
00000000
POS 0 12,2

SPR g
00011100
00100010
00011100
00001000
00001000
00011000
00110000
00100000
POS 0 2,4

SPR h
00000000
00000000
00000000
00000000
00000000
00000000
00000000
00000000
POS 1 5,3

SPR i
00000000
00111111
01100111
11001101
11111001
10001000
10001000
10001000
POS 0 5,9

SPR j
00000000
00000000
00000000
00000000
00001110
01111100
01111110
01111110
POS 0 7,10

SPR k
00000000
00110010
01001010
00001010
00010010
00100010
00000000
00100010
POS 0 13,9

SPR l
00010000
00010000
00010000
00010000
00010000
00010000
00010000
00010000
POS 2 8,11

SPR m
00010000
00010000
00111000
00111000
01000100
01000100
01000100
00111000
POS 2 8,12

SPR n
00000000
00000000
00000100
00000000
00000000
00000000
00000000
00000000
>
00000000
00000000
00000000
00000000
00000000
00000000
00000000
00000000
POS 2 10,1

SPR p
00000000
00000000
00000000
00000000
00001110
01111100
01111110
01111110
POS 2 7,13

SPR q
00000000
00111111
01100111
11001101
11111001
10001000
10001000
10001000
POS 2 8,8

DLG a
"I'm a flying piece of imagination. Pleased to meet you, Jerry." ... Your name isn't Jerry.

DLG b
A terribly smelling slop of a mysterious liquid. Smells like your father's breath, like whiskey, like vomit.

DLG c
It's your car, but a big chunk of it is missing.

DLG d
What remains of the front seat is covered by a fluffy blanket, and a little mouse squeaks on top of it.

DLG e
"Wellcome to your head, despicable monster who killed Jerry"

DLG f
Jerry's dog barks at you and you bark back before saying "Good boy."

DLG g
Jerry's favourite tie forces you to remember his mother's moaning and sobbing through the phone.

DLG h
Pretty windy here, huh? 

DLG i
On this desk there is Jerry's note, and fuck, now you remember it's all your fault. 

DLG j
This knocked down chair has muddy footprints on it's seat.

DLG k
Jerry?!

DLG n
Jerry always loved fireflies.

END 0
Stop looking back, it wasn't your fault. Everything is okay.

END undefined
Stop looking back, you won't get to save him.

END undefinee
YOU WON'T GET TO SAVE HIM, STOP LOOKING BACK!

