
Don't have time for a big adventure?

# BITSY VERSION 4.6

! ROOM_FORMAT 1

PAL 0
133,73,83
233,99,125
255,255,255

ROOM 0
e,f,e,f,e,f,e,f,e,f,e,f,e,f,e,f
0,0,0,0,0,0,0,0,0,0,0,0,0,0,0,0
0,0,0,0,0,0,0,0,0,0,0,0,0,0,0,0
0,c,d,0,d,0,c,0,c,d,0,d,0,d,0,0
0,g,0,0,g,g,g,0,g,g,0,g,0,g,0,0
0,f,d,0,g,0,g,0,g,g,0,g,0,g,0,0
0,0,g,0,g,0,g,0,g,g,0,g,0,g,0,0
0,f,e,0,g,0,g,0,g,g,0,g,d,g,d,0
0,0,0,0,0,0,0,0,0,0,0,0,0,0,0,0
0,0,0,0,0,0,0,0,0,0,0,0,0,0,0,0
0,0,0,b,0,h,i,j,k,l,m,n,o,k,0,0
0,0,0,0,0,0,0,0,0,0,0,0,0,0,0,0
0,0,0,0,0,0,0,0,0,0,0,0,0,0,0,0
0,0,0,0,0,0,0,0,0,0,0,0,0,0,0,0
0,0,0,0,0,0,0,0,0,0,0,0,0,0,0,0
d,c,d,c,d,c,d,c,d,c,d,c,d,c,d,c
EXT 3,10 1 12,15
PAL 0

ROOM 1
a,a,a,b,a,a,a,a,a,a,a,a,a,a,a,a
a,0,0,0,0,0,0,0,0,0,0,0,0,0,0,a
a,0,0,0,0,0,0,0,0,0,0,0,0,0,0,a
a,0,0,0,0,0,0,0,0,0,0,0,0,0,0,a
a,0,0,0,0,0,0,p,q,r,0,0,0,0,0,a
a,0,0,0,0,0,0,0,0,0,0,0,0,0,0,a
a,0,0,0,0,0,0,0,0,0,0,0,0,0,0,a
a,0,0,0,0,0,0,0,0,0,0,0,0,0,0,a
a,0,0,0,0,0,0,0,0,0,0,0,0,0,0,a
a,0,0,0,0,0,0,0,0,0,0,0,0,0,0,a
a,0,0,0,0,0,0,0,0,0,0,0,0,0,0,a
a,0,0,0,0,0,0,0,0,0,0,0,0,0,0,a
a,0,0,0,0,0,0,0,0,0,0,0,0,0,0,a
a,0,0,0,0,0,0,0,0,0,0,0,0,0,0,a
a,0,0,0,0,0,0,0,0,0,0,0,0,0,0,a
a,a,a,a,a,a,a,a,a,a,a,a,b,a,a,a
ITM 1 2,13
ITM 1 4,13
ITM 1 6,13
ITM 1 8,13
ITM 1 10,13
ITM 1 12,13
ITM 1 13,11
ITM 1 11,11
ITM 1 9,11
ITM 1 7,11
ITM 1 5,11
ITM 1 3,11
ITM 1 2,9
ITM 1 4,9
ITM 1 6,9
ITM 1 8,9
ITM 1 10,9
ITM 1 12,9
ITM 1 3,7
ITM 1 5,7
ITM 1 7,7
ITM 1 9,7
ITM 1 11,7
ITM 1 13,7
EXT 3,0 2 3,15
PAL 0

ROOM 2
a,a,a,a,a,a,a,a,b,a,a,a,a,a,a,a
a,0,0,0,0,0,0,0,0,0,0,0,0,0,0,a
a,0,0,0,0,0,0,0,0,0,0,0,0,0,0,a
a,0,0,0,0,0,0,0,v,0,0,0,0,0,0,a
a,0,0,0,0,0,p,q,q,r,0,0,0,0,0,a
a,0,0,0,0,0,0,0,0,0,0,0,0,0,0,a
a,0,0,0,0,0,0,0,0,0,0,0,0,0,0,a
a,0,0,0,a,a,a,a,a,a,a,a,a,a,a,a
a,0,0,0,0,0,0,0,0,0,0,0,0,0,0,a
a,0,0,0,0,0,0,0,0,0,0,0,0,0,0,a
a,0,0,0,0,0,0,0,0,0,0,0,0,0,0,a
a,a,a,a,a,a,a,a,a,a,a,a,0,0,0,a
a,0,0,0,0,0,0,0,0,0,0,0,0,0,0,a
a,0,0,0,0,0,0,0,0,0,0,0,0,0,0,a
a,0,0,0,0,0,0,0,0,0,0,0,0,0,0,a
a,a,a,b,a,a,a,a,a,a,a,a,a,a,a,a
ITM 3 3,13
ITM 3 5,13
ITM 3 7,13
ITM 3 9,13
ITM 3 11,13
ITM 3 13,13
ITM 3 13,9
ITM 3 11,9
ITM 3 9,9
ITM 3 7,9
ITM 3 5,9
ITM 3 3,9
ITM 2 2,7
ITM 3 13,11
EXT 8,0 3 7,15
PAL 0

ROOM 3
0,0,0,0,0,0,a,b,a,0,0,0,0,0,0,0
0,0,0,0,0,0,a,0,a,0,0,0,0,0,0,0
0,0,0,0,0,0,a,0,a,0,0,0,0,0,0,0
0,0,0,0,0,0,a,0,a,0,0,0,0,0,0,0
0,0,0,0,a,a,a,0,a,a,a,0,0,0,0,0
0,0,0,0,a,0,0,0,0,0,a,0,0,0,0,0
0,0,0,0,a,0,t,s,0,0,a,0,0,0,0,0
0,0,0,0,a,0,0,u,t,0,a,0,0,0,0,0
0,0,0,0,a,0,0,0,0,0,a,0,0,0,0,0
0,0,0,0,a,0,0,0,0,0,a,0,0,0,0,0
0,0,0,0,a,0,0,0,0,0,a,0,0,0,0,0
0,0,0,0,a,a,a,0,a,a,a,0,0,0,0,0
0,0,0,0,0,0,a,0,a,0,0,0,0,0,0,0
0,0,0,0,0,0,a,0,a,0,0,0,0,0,0,0
0,0,0,0,0,0,a,0,a,0,0,0,0,0,0,0
0,0,0,0,0,0,a,b,a,0,0,0,0,0,0,0
END 0 7,0
PAL 0

TIL a
00000100
11111111
10001000
11111111
00100010
11111111
10001000
11111111
NAME wall
WAL true

TIL b
00000000
00111100
01000010
01000010
01001010
01000010
01000010
11111111
>
00000000
00111100
01000110
01000110
01010110
01000110
01000110
11111111
NAME door
WAL false

TIL c
00000001
00000111
00011111
00111111
00111111
01111111
01111111
11111111
>
00000001
00000011
00000111
00001111
00011111
00111111
01111111
11111111
NAME top_left
WAL true

TIL d
10000000
11100000
11111000
11111100
11111100
11111110
11111110
11111111
>
10000000
11000000
11100000
11110000
11111000
11111100
11111110
11111111
NAME top-right
WAL true

TIL e
11111111
11111110
11111110
11111100
11111100
11111000
11100000
10000000
>
11111111
11111110
11111100
11111000
11110000
11100000
11000000
10000000
NAME bottom-right
WAL true

TIL f
11111111
01111111
01111111
00111111
00111111
00011111
00000111
00000001
>
11111111
01111111
00111111
00011111
00001111
00000111
00000011
00000001
NAME bottom-left
WAL true

TIL g
11111111
11111111
11111111
11111111
11111111
11111111
11111111
11111111
NAME full
WAL true

TIL h
00011000
00100100
01000010
01000010
01111110
01000010
01000010
01000010
NAME a
WAL true

TIL i
01111000
01000100
01000010
01000010
01000010
01000010
01000100
01111000
NAME d
WAL true

TIL j
01000010
01000010
01000010
01000010
01000010
01000010
00100100
00011000
NAME v
WAL true

TIL k
01111110
01000000
01000000
01000000
01111100
01000000
01000000
01111110
NAME e
WAL true

TIL l
01000010
01100010
01010010
01001010
01000110
01000010
01000010
01000010
NAME n
WAL true

TIL m
11111110
00010000
00010000
00010000
00010000
00010000
00010000
00010000
NAME t
WAL true

TIL n
01000010
01000010
01000010
01000010
01000010
01000010
01000010
00111100
NAME u
WAL true

TIL o
01111100
01000010
01000010
01000010
01111100
01000010
01000010
01000010
NAME r

TIL p
11111111
10000000
10000000
10000000
10000000
11111111
00110000
00110000
NAME table_01

TIL q
11111111
00000000
00000000
00000000
00000000
11111111
00000000
00000000
NAME table_2

TIL r
11111111
00000001
00000001
00000001
00000001
11111111
00001100
00001100
NAME table_3

TIL s
00000000
00111100
01111110
01010110
01111110
00111100
00110000
00000000
NAME death

TIL t
00000000
00101000
00010000
00010000
00010000
00010000
00010000
00101000
NAME bone

TIL u
00000000
01100110
10000001
01111110
10000001
01100110
10000001
01000010
NAME chest

TIL v
11111110
10000010
10101011
10010011
10000011
11111110
00000000
11111110
>
11111110
10000010
10010011
10101011
10000011
11111110
00000000
11111110
NAME computer

SPR A
11100000
10111111
11111111
11100000
11100000
11100000
11100000
00100000
>
11100000
10111111
11100000
11111111
11100000
11100000
11100000
10000000
POS 0 3,13
ITM 0 5

SPR a
01111110
11111111
11011011
11111111
11000011
01111110
00111100
00100100
>
01111110
11011011
11011011
11111111
11100111
01111110
00111100
00100100
DLG SPR_0
POS 1 8,3

SPR b
00000011
00000111
11111101
00001111
11111111
00000111
00000101
00000001
>
00000011
00000111
11111101
11111111
00001111
00000111
00000101
00000100
DLG SPR_1

SPR c
11100000
10111111
11111111
11100000
11100000
11100000
11100000
10100000
>
11100000
10111111
11100000
11111111
11100000
11100000
11100000
10100000
NAME clone
DLG SPR_3
POS 2 7,3

SPR d
11100000
10111111
11100000
01100000
01100000
11110000
01100000
00100000
>
11100000
10111100
11100000
01100000
11110000
01100000
01100000
01000000
DLG SPR_2

SPR e
00111100
01111110
11011011
11111111
11100111
11111111
11111111
10101010
>
00111100
01111110
11011011
11111111
11100111
11100111
11111111
01010101
DLG SPR_4
POS 3 7,9

ITM 1
00111000
01000100
10010010
10101010
10101010
10010010
01000100
00111000
>
00010000
00010000
00010000
00010000
00010000
00010000
00010000
00010000
NAME coin
DLG ITM_1

ITM 2
00011000
00100100
01000010
01000010
01000010
00100100
00011000
00011000
>
10011001
00100100
01000010
01011010
01000010
00100100
10011001
00011000
NAME idea
DLG ITM_0

ITM 3
01111100
10000010
10111010
10000010
10111010
10000010
10000010
01111100
>
00010000
00010000
00010000
00010000
00010000
00010000
00010000
00010000
NAME doc
DLG ITM_2

DLG SPR_1
Don't listen to the other guy everything in life makes perfect sense. People like to add confusion to their life.

DLG SPR_2
I am trying to be good. It is really hard.

DLG SPR_3
Hey you are me? But who am I? I am still trying to figure it out.

DLG ITM_1
"""
{
  - {item "coin"} <= 1 ?
    You found a coin! +1 Coin
  - else ?
    Another coin! Nice! +1 Coin
}
"""

DLG SPR_0
Did you just steal my coins? It's OK. Money isn't real.

DLG SPR_4
Do you ever think of what your last thought will be before death? I can't seem to remember.

DLG ITM_0
You just had a great idea. +1 Brilliance

DLG ITM_2
"""
{
  - {item "doc"} <= 2 ?
    You read an interesting document. +1 Knowledge
  - {item "doc"} <= 5 ?
    Reading is fun. I love to learn. +1 Knowledge
  - {item "doc"} <= 15 ?
    The more I read the less I know -1 Knowledge
}
"""

END 0
In the end it doesn't even matter how big your adventure was. Be happy that you get to have one.

END undefined
This is the end my friend!


