&amp;

# BITSY VERSION 3.5

! ROOM_FORMAT 1

PAL 0
0,0,0
255,10,255
0,255,0

ROOM 0
0,0,0,c,0,0,0,v,0,0,0,0,x,0,0,0
0,0,h,g,i,0,0,k,b,b,b,w,0,0,0,0
0,0,t,t,t,0,0,0,0,0,0,0,y,0,0,0
0,0,k,g,j,0,0,0,0,0,0,0,z,b,p,b
0,0,0,m,b,b,b,b,e,b,b,b,b,l,b,b
0,0,0,c,0,0,0,0,0,0,0,0,0,c,0,0
b,l,b,o,0,0,0,0,0,0,0,0,0,m,b,b
0,k,d,o,0,0,0,0,0,0,0,0,0,c,0,0
0,0,0,c,0,0,0,0,0,0,0,0,0,u,0,0
0,0,0,q,0,0,0,0,0,0,0,0,0,c,0,0
0,0,0,c,0,0,0,0,0,0,0,0,0,q,0,0
0,0,0,c,0,0,0,0,0,h,b,i,0,c,0,0
b,b,b,g,l,e,b,d,p,n,f,g,d,n,l,b
i,h,i,c,q,0,0,0,0,0,0,s,0,0,r,0
k,j,k,g,o,0,0,0,0,0,0,c,0,0,0,0
0,0,0,c,r,0,0,0,0,0,0,c,0,0,0,0
WAL h,i,j,k,l,m,n,o,p,q,r,s,t,u,g,f,e,d,c,b,v,w,x,y,z
PAL 0

TIL b
00000000
00000000
00000000
00000000
11111111
00000000
00000000
00000000

TIL c
00010000
00010000
00010000
00010000
00010000
00010000
00010000
00010000

TIL d
00000000
00000000
00000000
01111110
11000011
01111110
00000000
00000000

TIL e
00000000
10001000
10011000
10111000
11111111
10111000
10011000
10001000

TIL f
00000000
00000000
00000000
01111110
11111111
01111110
00000000
00000000

TIL g
00010000
00010000
00010000
00010000
11111111
00010000
00010000
00010000

TIL h
00000000
00000000
00000000
00000000
00011111
00010000
00010000
00010000

TIL i
00000000
00000000
00000000
00000000
11110000
00010000
00010000
00010000

TIL j
00010000
00010000
00010000
00010000
11110000
00000000
00000000
00000000

TIL k
00010000
00010000
00010000
00010000
00011111
00000000
00000000
00000000

TIL l
00000000
00000000
00000000
00000000
11111111
00010000
00010000
00010000

TIL m
00010000
00010000
00010000
00010000
00011111
00010000
00010000
00010000

TIL n
00010000
00010000
00010000
00010000
11111111
00000000
00000000
00000000

TIL o
00010000
00010000
00010000
00010000
11110000
00010000
00010000
00010000

TIL p
00000000
00010100
00010100
00010100
11110111
00010100
00010100
00010100

TIL q
00010000
00010000
00010000
11111110
00000000
11111110
00010000
00010000

TIL r
00010000
11111110
00000000
01111100
00000000
00111000
00000000
00000000

TIL s
00010000
00111000
00101000
00101000
00101000
00101000
00111000
00010000

TIL t
00010000
00111000
00111000
00111000
00111000
00111000
00111000
00010000

TIL u
11111110
00010000
00111000
01111100
11111110
00010000
00010000
00010000

TIL v
00010000
00010000
00010000
11111110
01111100
00111000
00010000
11111110

TIL w
10000011
10001100
11110000
10000000
10000000
11110000
10001100
10000011

TIL x
01000000
01000000
01000000
01000000
01000000
01000000
01000000
11000000

TIL y
11000000
01000000
01000000
01000000
01000000
01000000
01000000
01000000

TIL z
01000000
01000000
01000000
01000000
01111111
00000000
00000000
00000000

SPR A
10010000
11110000
11110011
11110001
11100001
11111111
11111111
10100101
POS 0 7,7

SPR a
00000000
00000000
01010000
01110001
01110010
00111100
00111100
00100100
POS 0 10,7

DLG a
-., - .,-.,-.,- .,- .,- .,-.,-., -.,-,-,-. ,-.,  ,-.,-. ,-. ,-., -.,-., .-.,  , .-, -. . ,-.,- ., -., .,-., .-. , - , .,-.,- . .      ...

