Growing Old

# BITSY VERSION 5.1

! ROOM_FORMAT 1

PAL 0
239,255,252
196,197,243
255,105,114

PAL 1
203,217,214
196,197,243
255,105,114

PAL 2
167,179,176
196,197,243
255,105,114

PAL 3
119,128,125
196,197,243
255,105,114

PAL 4
NAME palette 4
77,77,77
196,197,243
255,105,114

PAL 5
31,31,31
196,197,243
255,105,114

PAL 6
0,0,0
254,247,255
255,247,241

ROOM 0
a,a,a,a,a,a,a,b,a,a,a,a,a,a,a,a
a,0,0,0,0,0,0,0,0,0,0,0,j,0,0,a
a,0,0,0,0,0,0,0,0,0,0,h,0,i,0,a
a,0,0,k,0,0,0,0,0,0,0,g,e,f,0,a
a,0,0,0,0,0,0,0,0,0,0,0,0,0,0,a
a,0,0,0,0,0,0,0,0,0,0,0,0,0,0,a
a,0,0,0,0,0,0,0,0,0,0,0,0,0,0,a
a,0,0,0,0,0,0,0,0,0,0,0,0,0,0,a
a,0,0,0,0,0,0,0,0,0,0,0,0,0,0,a
a,0,0,0,0,0,0,0,0,0,0,0,0,0,0,a
a,0,0,0,0,0,0,0,0,d,c,d,0,0,0,a
a,0,0,0,0,0,0,0,0,0,0,0,0,0,0,a
a,0,0,0,0,0,0,0,0,0,0,0,0,0,0,a
a,0,0,0,0,0,0,0,0,0,0,0,0,0,0,a
a,0,0,0,0,0,0,0,0,0,0,0,0,0,0,a
a,a,a,a,a,a,a,a,a,a,a,a,a,a,a,a
ITM 0 10,9
ITM 1 12,2
EXT 7,0 1 5,14
PAL 0

ROOM 1
a,a,a,a,a,a,a,b,a,a,a,a,a,a,a,a
a,0,0,0,0,0,0,0,0,0,0,0,j,0,0,a
a,0,0,0,0,0,0,0,0,0,0,h,0,i,0,a
a,0,0,k,0,0,0,0,0,0,0,g,e,f,0,a
a,0,0,0,0,0,0,0,0,0,0,0,0,0,0,a
a,0,0,0,0,0,0,0,0,0,0,0,0,0,0,a
a,0,0,0,0,0,0,0,0,0,0,0,0,0,0,a
a,0,0,0,0,0,0,0,0,0,0,0,0,0,0,a
a,0,0,0,0,0,0,0,0,0,0,0,0,0,0,a
a,0,0,0,0,0,0,0,0,0,0,0,0,0,0,a
a,0,0,0,0,0,0,0,0,d,c,d,0,0,0,a
a,0,0,0,0,0,0,0,0,0,0,0,0,0,0,a
a,0,0,0,0,0,0,0,0,0,0,0,0,0,0,a
a,0,0,0,0,0,0,0,0,0,0,0,0,0,0,a
a,0,0,0,0,0,0,0,0,0,0,0,0,0,0,a
a,a,a,a,a,a,a,a,a,a,a,a,a,a,a,a
ITM 2 12,2
ITM 3 9,9
EXT 7,0 2 5,14
PAL 1

ROOM 2
a,a,a,a,a,a,a,b,a,a,a,a,a,a,a,a
a,0,0,0,0,0,0,0,0,0,0,0,j,0,0,a
a,0,0,0,0,0,0,0,0,0,0,h,0,i,0,a
a,0,0,k,0,0,0,0,0,0,0,g,e,f,0,a
a,0,0,0,0,0,0,0,0,0,0,0,0,0,0,a
a,0,0,0,0,0,0,0,0,0,0,0,0,0,0,a
a,0,0,0,0,0,0,0,0,0,0,0,0,0,0,a
a,0,0,0,0,0,0,0,0,0,0,0,0,0,0,a
a,0,0,0,0,0,0,0,0,0,0,0,0,0,0,a
a,0,0,0,0,0,0,0,0,0,0,0,0,0,0,a
a,0,0,0,0,0,0,0,0,d,c,d,0,0,0,a
a,0,0,0,0,0,0,0,0,0,0,0,0,0,0,a
a,0,0,0,0,0,0,0,0,0,0,0,0,0,0,a
a,0,0,0,0,0,0,0,0,0,0,0,0,0,0,a
a,0,0,0,0,0,0,0,0,0,0,0,0,0,0,a
a,a,a,a,a,a,a,a,a,a,a,a,a,a,a,a
ITM 4 10,9
ITM 7 12,2
EXT 7,0 3 5,14
PAL 2

ROOM 3
a,a,a,a,a,a,a,b,a,a,a,a,a,a,a,a
a,0,0,0,0,0,0,0,0,0,0,0,j,0,0,a
a,0,0,0,0,0,0,0,0,0,0,h,0,i,0,a
a,0,0,k,0,0,0,0,0,0,0,g,e,f,0,a
a,0,0,0,0,0,0,0,0,0,0,0,0,0,0,a
a,0,0,0,0,0,0,0,0,0,0,0,0,0,0,a
a,0,0,0,0,0,0,0,0,0,0,0,0,0,0,a
a,0,0,0,0,0,0,0,0,0,0,0,0,0,0,a
a,0,0,0,0,0,0,0,0,0,0,0,0,0,0,a
a,0,0,0,0,0,0,0,0,0,0,0,0,0,0,a
a,0,0,0,0,0,0,0,0,d,c,d,0,0,0,a
a,0,0,0,0,0,0,0,0,0,0,0,0,0,0,a
a,0,0,0,0,0,0,0,0,0,0,0,0,0,0,a
a,0,0,0,0,0,0,0,0,0,0,0,0,0,0,a
a,0,0,0,0,0,0,0,0,0,0,0,0,0,0,a
a,a,a,a,a,a,a,a,a,a,a,a,a,a,a,a
ITM 8 12,2
ITM 5 11,9
EXT 7,0 4 5,14
PAL 3

ROOM 4
a,a,a,a,a,a,a,b,a,a,a,a,a,a,a,a
a,0,0,0,0,0,0,0,0,0,0,0,j,0,0,a
a,0,0,0,0,0,0,0,0,0,0,h,0,i,0,a
a,0,0,k,0,0,0,0,0,0,0,g,e,f,0,a
a,0,0,0,0,0,0,0,0,0,0,0,0,0,0,a
a,0,0,0,0,0,0,0,0,0,0,0,0,0,0,a
a,0,0,0,0,0,0,0,0,0,0,0,0,0,0,a
a,0,0,0,0,0,0,0,0,0,0,0,0,0,0,a
a,0,0,0,0,0,0,0,0,0,0,0,0,0,0,a
a,0,0,0,0,0,0,0,0,0,0,0,0,0,0,a
a,0,0,0,0,0,0,0,0,d,c,d,0,0,0,a
a,0,0,0,0,0,0,0,0,0,0,0,0,0,0,a
a,0,0,0,0,0,0,0,0,0,0,0,0,0,0,a
a,0,0,0,0,0,0,0,0,0,0,0,0,0,0,a
a,0,0,0,0,0,0,0,0,0,0,0,0,0,0,a
a,a,a,a,a,a,a,a,a,a,a,a,a,a,a,a
ITM 6 10,9
ITM 9 12,2
EXT 7,0 5 5,14
PAL 4

ROOM 5
a,a,a,a,a,a,a,b,a,a,a,a,a,a,a,a
a,0,0,0,0,0,0,0,0,0,0,0,j,0,0,a
a,0,0,0,0,0,0,0,0,0,0,h,0,i,0,a
a,0,0,k,0,0,0,0,0,0,0,g,e,f,0,a
a,0,0,0,0,0,0,0,0,0,0,0,0,0,0,a
a,0,0,0,0,0,0,0,0,0,0,0,0,0,0,a
a,0,0,0,0,0,0,0,0,0,0,0,0,0,0,a
a,0,0,0,0,0,0,0,0,0,0,0,0,0,0,a
a,0,0,0,0,0,0,0,0,0,0,0,0,0,0,a
a,0,0,0,0,0,0,0,0,0,0,0,0,0,0,a
a,0,0,0,0,0,0,0,0,d,c,d,0,0,0,a
a,0,0,0,0,0,0,0,0,0,0,0,0,0,0,a
a,0,0,0,0,0,0,0,0,0,0,0,0,0,0,a
a,0,0,0,0,0,0,0,0,0,0,0,0,0,0,a
a,0,0,0,0,0,0,0,0,0,0,0,0,0,0,a
a,a,a,a,a,a,a,a,a,a,a,a,a,a,a,a
ITM a 12,2
ITM b 9,9
EXT 7,0 6 7,15
PAL 5

ROOM 6
0,0,0,0,0,0,a,a,a,0,0,0,0,0,0,0
0,0,0,0,0,0,a,0,a,0,0,0,0,0,0,0
0,0,0,0,0,0,0,0,0,0,0,0,0,0,0,0
0,0,0,0,0,0,0,0,0,0,0,0,0,0,0,0
0,0,0,0,0,0,0,0,0,0,0,0,0,0,0,0
0,0,0,0,0,0,0,0,0,0,0,0,0,0,0,0
0,0,0,0,0,0,0,0,0,0,0,0,0,0,0,0
0,0,0,0,0,0,0,0,0,0,0,0,0,0,0,0
0,0,0,0,0,0,0,0,0,0,0,0,0,0,0,0
0,0,0,0,0,0,0,0,0,0,0,0,0,0,0,0
0,0,0,0,0,0,0,0,0,0,0,0,0,0,0,0
0,0,0,0,0,0,0,0,0,0,0,0,0,0,0,0
0,0,0,0,0,0,0,0,0,0,0,0,0,0,0,0
0,0,0,0,0,0,0,0,0,0,0,0,0,0,0,0
0,0,0,0,0,0,0,0,0,0,0,0,0,0,0,0
0,0,0,0,0,0,0,0,0,0,0,0,0,0,0,0
END 0 7,2
PAL 6

TIL a
11111111
10000001
10111101
10100101
10100101
10111101
10000001
11111111
NAME Wall
WAL true

TIL b
11111111
11000011
10000001
10000001
10000001
10000001
10000001
10000001
NAME Door

TIL c
11111111
11111111
11111111
00000000
00000000
00000000
00000000
00000000
NAME Table1
WAL true

TIL d
11111111
11111111
11111111
00011000
00011000
00011000
00011000
00011000
NAME Table2
WAL true

TIL e
11111111
11111111
11111111
00011000
00111100
01100110
11000011
10000001
NAME Painting 1
WAL true

TIL f
10000000
10000000
10000000
00000000
00000000
00000000
00000000
00000000
NAME Painting 2
WAL true

TIL g
00000001
00000001
00000001
00000000
00000000
00000000
00000000
00000000
NAME Painting 3
WAL true

TIL h
00000001
00000001
00000001
00000011
00000001
00000001
00000001
00000001
NAME Painting 4
WAL true

TIL i
10000000
10000000
10000000
11000000
10000000
10000000
10000000
10000000
NAME Painting 5
WAL true

TIL j
00000000
00000000
00000000
00000000
00011000
00100100
01000010
11111111
NAME Painting 6
WAL true

TIL k
00000000
10000000
10000000
10000000
10000001
11111111
11111111
10000001
NAME Bed
WAL true

TIL l
11111111
11111111
11111111
11111111
00000000
00000000
00000000
00000000
NAME Wall 2

SPR A
00000000
00011000
00011000
00111101
01111111
01111101
00100101
00100101
POS 0 4,4

SPR a
00000000
00000000
01010001
01110001
01110010
01111100
00111100
00100100
NAME Charlie
DLG SPR_0
POS 0 4,12

SPR b
00000000
00000000
00000000
00000000
00000000
11000001
11111111
11111111
NAME Cat Bed 5
DLG SPR_7
POS 4 2,13

SPR c
00000000
00000000
00000000
00000000
00000000
11000001
11111111
11111111
NAME Cat Bed
DLG SPR_1
POS 0 2,13

SPR d
00000000
00000000
00000000
00000000
00000000
11000001
11111111
11111111
NAME Cat Bed 2
DLG SPR_2
POS 1 2,13

SPR e
00000000
00000000
01010000
01110000
01110001
01111010
00111100
00101100
NAME Charlie 2
DLG SPR_3
POS 1 4,5

SPR f
00000000
00000000
00000000
00000000
00000000
11000001
11111111
11111111
NAME Cat Bed 3
DLG SPR_4
POS 2 2,13

SPR g
00000000
00000000
00000000
10100000
11100001
11100010
11111100
01111110
NAME Charlie 3
DLG SPR_5
POS 2 13,8

SPR h
00000000
00000000
00000000
00000000
00000000
11000001
11111111
11111111
NAME Cat Bed 4
DLG SPR_6
POS 3 2,13

SPR i
00000000
00000000
00000000
00000000
00000000
11000001
11111111
11111111
NAME Cat Bed 6
DLG SPR_8
POS 5 2,13

SPR j
00000000
00000000
01010001
01110001
01110010
01111100
00111100
00100100
NAME Final
POS 6 7,1

ITM 0
00000000
00000000
00000000
00000000
00111100
01100100
00100100
00011000
>
00000000
00000000
00000000
00000000
00111100
01100100
00100100
00011000
NAME Tea
DLG ITM_0

ITM 1
00000000
00100100
00100100
00100100
01000010
01000010
00111100
00000000
NAME Face 1

ITM 2
00000000
00100100
00100100
00100100
00000000
01000010
00111100
00000000
NAME Face 2

ITM 3
00000000
00000000
00000000
00000000
00111100
01100100
00100100
00011000
NAME Tea 2
DLG ITM_1

ITM 4
00000000
00000000
00000000
00000000
00111100
01100100
00100100
00011000
NAME Tea 3
DLG ITM_2

ITM 5
00000000
00000000
00000000
00000000
00111100
01100100
00100100
00011000
NAME Tea 4
DLG ITM_3

ITM 6
00000000
00000000
00000000
00000000
00111100
01100100
00100100
00011000
NAME Tea 5
DLG ITM_4

ITM 7
00000000
00100100
00100100
00100100
00000000
00000000
00111100
00000000
NAME Face 3

ITM 8
00000000
00000000
00100100
00100100
00000000
00000000
00111100
01000000
NAME Face 4

ITM 9
00000000
00000000
00000000
00100100
00000000
00000000
00111100
01000010
NAME Face 5

ITM a
00000000
00000000
00000000
00100100
01000010
00000000
00111100
01000010
NAME Face 6

ITM b
00000000
00000000
00000000
00000000
00111100
01100100
00100100
00011000
NAME Tea 6
DLG ITM_5

ITM c
00000000
00100100
00100100
00100100
00000000
01000010
00111100
00000000
NAME Final Face

DLG ITM_0
You found a nice warm cup of tea, life is good.

DLG ITM_1
You drink another cup of tea,  its lukewarm.

DLG SPR_0
Your cat Charlie, he keeps you company.

DLG SPR_1
Charlie's bed

DLG SPR_2
Cat hair covers Charlie's bed

DLG SPR_3
Charlie sits cleaning himself

DLG ITM_2
Another cup of tea, another day goes by.

DLG ITM_3
The tea is cool, not very pleasing.

DLG ITM_4
Cold tea.

DLG SPR_4
Charlie rarely uses his bed anymore

DLG SPR_5
Charlie has been resting a lot recently.

DLG SPR_6
Charlie must have gone for a walk.

DLG SPR_7
You miss Charlie

DLG ITM_5
The cup is empty

DLG SPR_8
Who was this bed for again?

END 0
You're with Charlie now.

VAR a
42

