
The Labyrinths Of Trust

# BITSY VERSION 4.5

! ROOM_FORMAT 1

PAL 0
5,8,48
99,47,2
255,255,255

PAL 1
5,8,48
255,255,255
255,255,255

PAL 2
5,8,48
40,173,30
255,255,255

ROOM 0
b,b,b,b,b,b,b,b,b,b,b,l,b,b,b,b
b,h,i,0,0,0,i,d,c,e,f,f,f,f,f,b
b,h,0,0,0,0,0,d,c,e,f,f,f,f,f,b
b,h,0,0,0,0,0,d,c,e,f,f,f,f,f,b
b,h,0,0,0,0,0,d,c,e,f,f,f,f,f,l
b,h,0,0,0,0,0,d,c,e,f,f,f,f,f,b
b,h,0,0,0,0,0,d,c,e,f,f,f,f,f,b
b,h,0,n,q,o,0,d,c,e,f,f,f,f,f,b
b,p,p,n,j,o,p,p,p,p,p,p,p,p,p,b
b,m,m,m,j,m,m,m,m,m,m,m,m,m,m,b
b,m,m,m,j,m,m,m,m,m,m,m,m,m,m,n
b,m,m,m,j,j,j,j,j,j,j,j,j,j,r,0
b,m,m,m,m,m,m,m,m,m,m,m,m,m,m,n
b,m,m,m,m,m,m,m,m,m,m,m,m,m,m,b
b,m,m,m,m,m,m,m,m,m,m,m,m,m,m,b
b,b,b,b,b,b,b,b,b,b,b,b,b,b,b,b
NAME Begining
EXT 15,11 1 0,10
END 2 11,0
PAL 0

ROOM 1
b,b,b,b,b,b,b,b,b,b,b,b,b,b,b,b
b,a,a,a,a,a,a,a,a,a,a,a,a,a,a,b
b,a,a,a,a,a,a,a,a,a,a,a,a,a,a,b
b,a,a,a,a,a,a,a,a,a,a,a,a,a,a,b
l,a,a,a,a,a,a,a,a,a,a,a,a,a,a,n
b,a,a,a,a,a,a,a,a,a,a,a,a,a,s,s
b,a,a,a,a,a,a,a,a,a,a,a,a,a,a,n
b,a,a,a,a,a,a,a,a,a,a,a,a,a,a,b
b,a,a,a,a,a,a,a,a,a,a,a,a,a,a,b
o,a,a,a,a,a,a,a,a,a,a,a,a,a,a,n
s,s,a,a,a,a,a,a,a,a,a,a,a,a,s,s
o,a,a,a,a,a,a,a,a,a,a,a,a,a,a,n
b,a,u,a,a,a,a,a,a,a,a,a,a,a,a,b
b,v,x,w,a,a,a,a,a,a,a,a,a,a,a,b
b,a,t,a,a,a,a,a,a,a,a,a,a,a,a,b
b,b,b,b,b,b,b,b,b,b,b,b,b,b,b,b
ITM 4 1,10
ITM 6 5,10
ITM 7 5,6
ITM 8 3,6
ITM 9 3,9
ITM a 8,9
ITM b 8,5
ITM c 8,4
ITM d 9,4
ITM e 9,14
ITM f 10,14
ITM g 10,11
ITM h 7,11
ITM i 7,1
ITM j 5,1
ITM k 5,4
ITM l 12,4
ITM m 12,5
EXT 0,4 0 15,4
EXT 0,10 0 15,11
END 0 15,5
END 1 15,10
PAL 1

ROOM 2
3g,3j,3i,3l,3f,3g,3j,3f,0,3j,3i,3n,3f,3g,3j,3i
3j,3e,3k,3g,3l,3f,0,0,0,0,3j,3e,3e,3h,3i,3j
3n,3e,3h,3f,3p,0,y,z,10,11,0,3l,3i,3n,3k,3n
3m,3q,3l,3e,3f,0,15,14,13,12,0,0,3h,0,3j,3i
3k,0,0,0,0,0,16,17,18,19,0,0,0,0,0,3j
3r,0,1a,1b,1c,1d,1e,1f,1g,1h,1i,1j,1k,1l,0,0
3q,0,1m,1n,1o,1p,1q,1r,1s,1t,1u,1v,1w,1x,0,0
3q,0,1y,1z,20,21,22,23,24,25,26,27,28,29,0,3o
0,0,0,2a,2b,2c,2d,2e,2f,2g,2h,2i,2j,0,0,3j
3i,0,0,2k,2l,2m,2n,2o,2p,2q,2r,2s,2t,0,0,3n
3f,0,0,33,32,31,30,2z,2y,2x,2w,2v,2u,0,0,0
0,0,0,34,35,36,37,38,39,3a,3b,3c,3d,0,0,0
0,0,0,0,3l,3e,3e,3e,3e,3e,3e,3i,0,0,0,0
0,0,0,0,3g,k,0,3t,0,0,0,3g,0,0,0,0
0,0,0,0,3j,3i,3l,3e,3e,3i,3l,3f,0,0,0,0
0,0,0,0,0,3g,3g,0,0,3g,3g,0,0,0,0,0
EXT 7,13 0 4,8
PAL 2

TIL 10
00111011
00111011
00111011
00111011
00111011
00111011
00111011
11111011

TIL 11
11111100
11111100
10000000
10000000
10000000
10000000
10000000
11111100

TIL 12
11111100
10000000
10000000
10000000
10000000
10000000
10000000
10000000

TIL 13
11111011
00111011
00111011
00111011
00111011
00111011
00111011
00111011

TIL 14
00001111
00001110
00001110
00001110
00001110
00001110
00001110
00001110

TIL 15
00000111
00000111
00000111
00000111
00000111
00000111
00000111
00000111

TIL 16
00000111
00000111
00000000
00000000
00000000
00000000
00000000
00000000

TIL 17
00001110
00001110
00000000
00000000
00000000
00000000
00000000
00000000

TIL 18
00111011
00111011
00000000
00000000
00000000
00000000
00000000
00000000

TIL 19
11111100
11111100
00000000
00000000
00000000
00000000
00000000
00000000

TIL 20
10011100
10011100
11011100
11011111
11011111
00000000
00000000
00000000

TIL 21
01110000
01110000
01110000
11110000
11100000
00000000
00000000
00000000

TIL 22
01111000
01111000
01111000
01111000
01111000
00000000
00000000
00000000

TIL 23
01110011
01110011
01110011
01110011
01110011
00000000
00000000
00000000

TIL 24
11001110
11001110
11001110
11001110
11101110
00000000
00000000
00000000

TIL 25
01110001
01110001
01110000
01110000
01110000
00000000
00000000
00000000

TIL 26
11100011
11100011
11100011
11100011
11100011
00000000
00000000
00000000

TIL 27
11000111
11000111
11000111
11000111
11000111
00000000
00000000
00000000

TIL 28
00111100
00111100
00111100
00111100
00111100
00000000
00000000
00000000

TIL 29
11100111
11100111
11100111
11111111
01111110
00000000
00000000
00000000

TIL 30
00000011
00000011
00000011
00000011
00000011
00000011
00000011
00000011

TIL 31
11111100
11000000
11000000
11000000
11000000
11000000
11000000
11000000

TIL 32
00111011
00111011
00111011
00111011
00111011
00111011
00111011
11111011

TIL 33
00000111
00000111
00000111
00000111
00000111
00000111
00000111
00000111

TIL 34
00000011
00000011
00000000
00000000
00000000
00000000
00000000
00000000

TIL 35
11110011
11110011
00000000
00000000
00000000
00000000
00000000
00000000

TIL 36
11000000
11000000
00000000
00000000
00000000
00000000
00000000
00000000

TIL 37
00000011
00000011
00000000
00000000
00000000
00000000
00000000
00000000

TIL 38
10001110
10001110
00000000
00000000
00000000
00000000
00000000
00000000

TIL 39
00111100
00111100
00000000
00000000
00000000
00000000
00000000
00000000

TIL a
01111000
00101110
01110100
00001111
10110100
00011011
01101100
00011010
>
01011000
00101110
11010100
00011011
01110110
00011010
10101100
00101010

TIL b
11010101
10111111
11010111
11101101
11101011
10110101
11101111
11010101
WAL true

TIL c
10101111
01010101
10101110
01010101
10101110
01010101
10101110
01010101

TIL d
10011010
00000001
00110010
00000001
10011010
00000001
00110010
00000100

TIL e
01111111
11011111
11111111
01111111
11011111
11111111
01111111
11011111

TIL f
11111111
11111111
11111111
11111111
11111111
11111111
11111111
11111111

TIL h
10011000
01000010
00110000
00000000
11011000
00000010
00110000
11000100

TIL i
00000000
01000001
00000000
00000000
00001000
00000000
00000000
01000001

TIL j
10111101
10100101
10111101
00000000
11011011
01011010
11011011
00000000

TIL k
00000000
00000000
00000000
00000000
00000000
00000000
00000000
00000000
WAL true

TIL l
11010101
10111011
11010111
11100101
11111011
10110101
11101111
11010101
WAL false

TIL m
00000000
00000000
11010000
00000011
00000000
00001110
00000000
11000000
WAL true

TIL n
01111100
00101000
00111000
01101100
01101100
00111000
00101000
01111100
WAL true

TIL o
00111110
00010100
00011100
00110110
00110110
00011100
00010100
00111110
WAL true

TIL p
11101110
01000100
01000100
11101110
11101110
01000100
01000100
11101110
WAL true

TIL q
10000001
10000001
11111111
00000000
11011011
01011010
11011011
00000000

TIL r
01010111
01110100
00000100
01110100
01110100
00000100
01110100
01010111

TIL s
11000011
10000001
00000000
00000000
00000000
00000000
10000001
11000011

TIL t
11000011
10000001
00111100
00100000
00111100
00000100
10111101
11000011
WAL true

TIL u
11000011
10000001
00100100
00110100
00101100
00100100
10000001
11000011
WAL true

TIL v
11000011
10000001
00100010
00100010
00101010
00110110
10000001
11000011
WAL true

TIL w
11000011
10000001
00111100
00100000
00111000
00100000
10111101
11000011
WAL true

TIL x
11000011
10000001
00100100
00011000
00011000
00100100
10000001
11000011
WAL true

TIL y
00111111
00111111
00000111
00000111
00000111
00000111
00000111
00000111

TIL z
11001110
11001110
00001110
00001110
00001110
00001110
00001110
00001111

TIL 1a
00000000
00000000
00000000
11100000
11100000
11100000
11100000
11100000

TIL 1b
00000000
00000000
00000000
00011110
00011110
00111111
00111111
00111111

TIL 1c
00000000
00000000
00000000
00011111
00011111
00011100
00011100
00011100

TIL 1d
00000000
00000000
00000000
11100011
11110011
01110001
01110001
01110001

TIL 1e
00000000
00000000
00000000
10000111
10000111
11011110
11011110
11011110

TIL 1f
00000000
00000000
00000000
01111111
01111111
01110011
01110011
01110011

TIL 1g
00000000
00000000
00000000
10001110
11001110
11001110
11001110
11001110

TIL 1h
00000000
00000000
00000000
01110000
01110000
01111100
01111100
01111100

TIL 1i
00000000
00000000
00000000
11101111
11101111
11100011
11100011
11100011

TIL 1j
00000000
00000000
00000000
11110111
11110111
11000111
11000111
11000111

TIL 1k
00000000
00000000
00000000
00111100
00111100
00111100
00111100
00111100

TIL 1l
00000000
00000000
00000000
01111110
11111111
11100111
11100111
11100111

TIL 1m
11100000
11100000
11100000
11100000
11100000
11100000
11100000
11100000

TIL 1n
00111011
00111011
00111011
01111011
01111011
01111011
01111111
01111111

TIL 1o
00011100
00011100
00011111
10011111
10011111
10011100
10011100
10011100

TIL 1p
01110000
01110000
11100000
11100000
11100000
01110000
01110000
01110000

TIL 1q
11111100
11111100
11111100
01111100
01111100
01111000
01111000
01111000

TIL 1r
01110011
01110011
01111111
01111111
01111111
01110011
01110011
01110011

TIL 1s
11001110
11001110
10001110
10001110
10001110
11001110
11001110
11001110

TIL 1t
01111110
01111110
01111110
01110011
01110011
01110011
01110011
01110001

TIL 1u
11100011
11100011
11100011
11100011
11100011
11100011
11100011
11100011

TIL 1v
11000111
11000111
11000111
11000111
11000111
11000111
11000111
11000111

TIL 1w
00111100
00111100
11111100
11111100
11111100
00111100
00111100
00111100

TIL 1x
11100000
11110000
01111000
00111100
00111100
00011110
11101111
11100111

TIL 1y
11100000
11100000
11100000
11111110
11111110
00000000
00000000
00000000

TIL 1z
01111011
01111011
11100001
11100001
11100001
00000000
00000000
00000000

TIL 2a
00000000
00000000
00000000
00000000
00000000
00000000
00000000
00000011

TIL 2b
00000000
00000000
00000000
00000000
00000000
00000000
00000000
11110011

TIL 2c
00000000
00000000
00000000
00000000
00000000
00000000
00000000
11111100

TIL 2d
00000000
00000000
00000000
00000000
00000000
00000000
00000000
00011111

TIL 2e
00000000
00000000
00000000
00000000
00000000
00000000
00000000
11101111

TIL 2f
00000000
00000000
00000000
00000000
00000000
00000000
00000000
11110001

TIL 2g
00000000
00000000
00000000
00000000
00000000
00000000
00000000
11001111

TIL 2h
00000000
00000000
00000000
00000000
00000000
00000000
00000000
00011111

TIL 2i
00000000
00000000
00000000
00000000
00000000
00000000
00000000
11001111

TIL 2j
00000000
00000000
00000000
00000000
00000000
00000000
00000000
11100000

TIL 2k
00000111
00000111
00000111
00000111
00000111
00000111
00000111
00000111

TIL 2l
11111011
00111011
00111011
00111011
00111011
00111011
00111011
00111011

TIL 2m
11111100
11000000
11000000
11000000
11000000
11000000
11000000
11111100

TIL 2n
00011111
00000011
00000011
00000011
00000011
00000011
00000011
00000011

TIL 2o
11101111
10001110
10001110
10001110
10001110
10001110
10001110
10001111

TIL 2p
11111001
00111001
00111001
00111001
00111001
00111001
00111001
11111001

TIL 2q
11001111
11001111
11001111
11001111
11001111
11001111
11001111
11001111

TIL 2r
00111111
00111001
00111001
00111001
00111001
00111001
00111100
00011110

TIL 2s
11101111
11100011
11100011
11100011
11100011
11100011
00000011
00000011

TIL 2t
11100000
10000000
10000000
10000000
10000000
10000000
10000000
10000000

TIL 2u
10000000
10000000
10000000
10000000
10000000
10000000
10000000
10000000

TIL 2v
00000011
11000011
11100011
11100011
11100011
11100011
11100011
11100011

TIL 2w
00001111
00000111
00111011
00111001
00111001
00111001
00111001
00111111

TIL 2x
11001111
11001111
11001111
11001111
11001111
11001111
11001111
11111111

TIL 2y
11110001
00111001
00111001
00111001
00111001
00111001
00111001
00111001

TIL 2z
10001111
10001110
10001110
10001110
10001110
10001110
10001110
10001110

TIL 3a
11111110
11111110
00000000
00000000
00000000
00000000
00000000
00000000

TIL 3b
00011111
00011111
00000000
00000000
00000000
00000000
00000000
00000000

TIL 3c
11000011
11000011
00000000
00000000
00000000
00000000
00000000
00000000

TIL 3d
10000000
10000000
00000000
00000000
00000000
00000000
00000000
00000000

TIL 3e
00000000
00000000
00000000
11111111
11111111
00000000
00000000
00000000
WAL true

TIL 3f
00011000
00011000
00111000
11111000
11110000
00000000
00000000
00000000

TIL 3g
00011000
00011000
00011000
00011000
00011000
00011000
00011000
00011000
WAL true

TIL 3h
00011000
00011000
00111100
11111111
11100111
00000000
00000000
00000000

TIL 3i
00000000
00000000
00000000
11110000
11111000
00111000
00011000
00011000

TIL 3j
00011000
00011000
00011100
00011111
00001111
00000000
00000000
00000000

TIL 3k
00011000
00011000
00111000
11110000
11110000
00111000
00011000
00011000

TIL 3l
00000000
00000000
00000000
00001111
00011111
00011100
00011000
00011000
WAL true

TIL 3m
00000000
00000000
00000000
11100111
11111111
00111100
00011000
00011000

TIL 3n
00000000
00000000
00000000
00001111
00001111
00000000
00000000
00000000

TIL 3o
00000000
00000000
00000000
00000000
00011000
00011000
00011000
00011000

TIL 3p
00011000
00011000
00011100
00001111
00001111
00011100
00011000
00011000

TIL 3q
00000000
00000000
00000000
11110000
11110000
00000000
00000000
00000000

TIL 3r
00011000
00011000
00011000
00011000
00000000
00000000
00000000
00000000

TIL 3s
00000000
00000000
00000000
00000000
00000000
00000000
00000000
00000000

TIL 3t
00000000
00000000
00001000
01111100
00111110
01111100
00001000
00000000
>
00000000
00000000
00010000
00111000
00011100
00111000
00010000
00000000

SPR 10
00101000
00010000
00111000
00111000
00111000
00010000
00010000
00010000
POS 2 13,9

SPR 11
00000000
00000000
00000000
00100000
01100000
01110000
00110000
00100000
>
00000000
00000000
00000000
00010000
00011000
00111000
00110000
00010000
POS 2 2,8

SPR 12
00000000
00000000
00000000
00100000
01100000
01110000
00110000
00100000
>
00000000
00000000
00000000
00010000
00011000
00111000
00110000
00010000
POS 2 13,8

SPR 13
11111100
10000011
10100001
10011101
11000001
00111111
00011000
00011000
DLG SPR_7
POS 0 14,10

SPR 14
00000000
11011001
10010100
11010100
10010100
10010100
11010100
00000000
POS 2 8,13

SPR 15
00000000
11011011
10010010
10011011
10010010
10010010
10011010
00000000
POS 2 9,13

SPR 16
00000000
00000000
10000000
00000000
10000000
10000000
10000000
00000000
POS 2 10,13

SPR A
01111000
00101110
01110100
00001111
10110100
00011011
01101100
00011010
>
01011000
00101110
11010100
00011011
01110110
00011010
10101100
00101010
POS 2 6,13

SPR b
00111100
10011001
11011011
11111111
01011010
01111110
10101101
00011000
>
00111100
10011001
11011011
11111111
01111110
01111110
10110101
00011000
DLG SPR_2
POS 0 4,4

SPR c
11111111
10111011
11111111
00100100
11100111
00100100
11111111
00111100
>
11111111
11011101
11111111
00100100
11100111
00100100
11100111
00111100
DLG SPR_3
POS 0 4,5

SPR d
00111100
01111110
11111111
00011000
01111110
01111110
00111100
00011000
>
00111100
11111111
01111110
00111100
01111110
01100110
00111100
00011000
DLG SPR_1
POS 0 4,2

SPR e
01111110
01011010
11101111
11110111
00101100
01110110
00101100
01110110
>
01111110
01011010
11110111
11101111
00110100
01101110
00110100
01101110
DLG SPR_5
POS 0 4,3

SPR f
00000100
00001100
00011000
00110100
11111111
01111110
00111100
00011000
>
00100000
00111000
00011000
00101100
11111111
01111110
00111100
00011000
DLG SPR_4
POS 0 4,1

SPR g
00011000
00011000
00011000
00011000
00111100
01111110
11111111
11111111
DLG SPR_6
POS 0 4,6

SPR h
00101000
00010000
00111000
00111000
00111000
00010000
00010000
00010000
POS 0 6,6

SPR j
00010000
00010000
00010000
00010000
00010000
00111000
00000000
00000000
POS 0 6,7

SPR k
00000000
00000000
00000000
00100000
01100000
01110000
00110000
00100000
>
00000000
00000000
00000000
00010000
00011000
00111000
00110000
00010000
POS 0 6,5

SPR l
00000000
00000000
00000000
00100000
01100000
01110000
00110000
00100000
>
00000000
00000000
00000000
00010000
00011000
00111000
00110000
00010000
POS 0 2,5

SPR m
00010000
00010000
00010000
00010000
00010000
00111000
00000000
00000000
POS 0 2,7

SPR n
00101000
00010000
00111000
00111000
00111000
00010000
00010000
00010000
POS 0 2,6

SPR o
00110000
00011000
00110000
00011000
00110000
00011000
00110000
00011000
DLG SPR_0

SPR p
00011000
00011000
00011000
00011000
00111100
01111110
11111111
11111111

SPR q
11111111
10111011
11111111
00100100
11100111
00100100
11111111
00111100
>
11111111
11011101
11111111
00100100
11100111
00100100
11100111
00111100

SPR r
00111100
10011001
11011011
11111111
01011010
01111110
10101101
00011000
>
00111100
10011001
11011011
11111111
01111110
01111110
10110101
00011000

SPR t
01111110
01011010
11101111
11110111
00101100
01110110
00101100
01110110
>
01111110
01011010
11110111
11101111
00110100
01101110
00110100
01101110

SPR u
00111100
01111110
11111111
00011000
01111110
01111110
00111100
00011000
>
00111100
11111111
01111110
00111100
01111110
01100110
00111100
00011000

SPR w
00000100
00001100
00011000
00110100
11111111
01111110
00111100
00011000
>
00100000
00111000
00011000
00101100
11111111
01111110
00111100
00011000

SPR x
00010000
00010000
00010000
00010000
00010000
00111000
00000000
00000000
POS 2 13,10

SPR y
00010000
00010000
00010000
00010000
00010000
00111000
00000000
00000000
POS 2 2,10

SPR z
00101000
00010000
00111000
00111000
00111000
00010000
00010000
00010000
POS 2 2,9

ITM 0
00010000
00001000
00000000
00111100
01100100
00100100
00011000
00000000
>
00001000
00010000
00000000
00111100
01100100
00100100
00011000
00000000
NAME tea
DLG ITM_0

ITM 1
00111100
01100110
01000010
01100110
00111100
11000000
11000000
00000000
>
00000000
00011000
00100100
00011000
00000000
01000000
00000000
00000000

ITM 4
01111001
00101110
11110100
00001111
10110100
00011011
01101100
00011010
>
01011001
00101110
11010100
00011011
01110110
00011010
10101100
00101010
>
00000000
00000000
00000000
00000000
00000000
00000000
00000000
00000000
DLG ITM_2

ITM 5
00000000
00000000
00000000
00000000
00000000
00000000
00000000
00000000
DLG ITM_1

ITM 6
01111001
00101110
11110100
00001111
10110100
00011011
01101100
00011010
>
01011001
00101110
11010100
00011011
01110110
00011010
10101100
00101010
>
00000000
00000000
00000000
00000000
00000000
00000000
00000000
00000000
DLG ITM_3

ITM 7
01111001
00101110
11110100
00001111
10110100
00011011
01101100
00011010
>
01011001
00101110
11010100
00011011
01110110
00011010
10101100
00101010
>
00000000
00000000
00000000
00000000
00000000
00000000
00000000
00000000
>
00000000
00000000
00000000
00000000
00000000
00000000
00000000
00000000
DLG ITM_4

ITM 8
01111001
00101110
11110100
00001111
10110100
00011011
01101100
00011010
>
01011001
00101110
11010100
00011011
01110110
00011010
10101100
00101010
>
00000000
00000000
00000000
00000000
00000000
00000000
00000000
00000000
>
00000000
00000000
00000000
00000000
00000000
00000000
00000000
00000000
DLG ITM_5

ITM 9
01111001
00101110
11110100
00001111
10110100
00011011
01101100
00011010
>
01011001
00101110
11010100
00011011
01110110
00011010
10101100
00101010
>
00000000
00000000
00000000
00000000
00000000
00000000
00000000
00000000
>
00000000
00000000
00000000
00000000
00000000
00000000
00000000
00000000
DLG ITM_6

ITM a
01111001
00101110
11110100
00001111
10110100
00011011
01101100
00011010
>
01011001
00101110
11010100
00011011
01110110
00011010
10101100
00101010
>
00000000
00000000
00000000
00000000
00000000
00000000
00000000
00000000
>
00000000
00000000
00000000
00000000
00000000
00000000
00000000
00000000
DLG ITM_7

ITM b
01111001
00101110
11110100
00001111
10110100
00011011
01101100
00011010
>
01011001
00101110
11010100
00011011
01110110
00011010
10101100
00101010
>
00000000
00000000
00000000
00000000
00000000
00000000
00000000
00000000
>
00000000
00000000
00000000
00000000
00000000
00000000
00000000
00000000
DLG ITM_8

ITM c
01111001
00101110
11110100
00001111
10110100
00011011
01101100
00011010
>
01011001
00101110
11010100
00011011
01110110
00011010
10101100
00101010
>
00000000
00000000
00000000
00000000
00000000
00000000
00000000
00000000
>
00000000
00000000
00000000
00000000
00000000
00000000
00000000
00000000
DLG ITM_9

ITM d
01111001
00101110
11110100
00001111
10110100
00011011
01101100
00011010
>
01011001
00101110
11010100
00011011
01110110
00011010
10101100
00101010
>
00000000
00000000
00000000
00000000
00000000
00000000
00000000
00000000
>
00000000
00000000
00000000
00000000
00000000
00000000
00000000
00000000
DLG ITM_a

ITM e
01111001
00101110
11110100
00001111
10110100
00011011
01101100
00011010
>
01011001
00101110
11010100
00011011
01110110
00011010
10101100
00101010
>
00000000
00000000
00000000
00000000
00000000
00000000
00000000
00000000
>
00000000
00000000
00000000
00000000
00000000
00000000
00000000
00000000
DLG ITM_b

ITM f
01111001
00101110
11110100
00001111
10110100
00011011
01101100
00011010
>
01011001
00101110
11010100
00011011
01110110
00011010
10101100
00101010
>
00000000
00000000
00000000
00000000
00000000
00000000
00000000
00000000
>
00000000
00000000
00000000
00000000
00000000
00000000
00000000
00000000
DLG ITM_c

ITM g
01111001
00101110
11110100
00001111
10110100
00011011
01101100
00011010
>
01011001
00101110
11010100
00011011
01110110
00011010
10101100
00101010
>
00000000
00000000
00000000
00000000
00000000
00000000
00000000
00000000
>
00000000
00000000
00000000
00000000
00000000
00000000
00000000
00000000
DLG ITM_d

ITM h
01111001
00101110
11110100
00001111
10110100
00011011
01101100
00011010
>
01011001
00101110
11010100
00011011
01110110
00011010
10101100
00101010
>
00000000
00000000
00000000
00000000
00000000
00000000
00000000
00000000
>
00000000
00000000
00000000
00000000
00000000
00000000
00000000
00000000
DLG ITM_e

ITM i
01111001
00101110
11110100
00001111
10110100
00011011
01101100
00011010
>
01011001
00101110
11010100
00011011
01110110
00011010
10101100
00101010
>
00000000
00000000
00000000
00000000
00000000
00000000
00000000
00000000
>
00000000
00000000
00000000
00000000
00000000
00000000
00000000
00000000
DLG ITM_f

ITM j
01111001
00101110
11110100
00001111
10110100
00011011
01101100
00011010
>
01011001
00101110
11010100
00011011
01110110
00011010
10101100
00101010
>
00000000
00000000
00000000
00000000
00000000
00000000
00000000
00000000
>
00000000
00000000
00000000
00000000
00000000
00000000
00000000
00000000
DLG ITM_g

ITM k
01111001
00101110
11110100
00001111
10110100
00011011
01101100
00011010
>
01011001
00101110
11010100
00011011
01110110
00011010
10101100
00101010
>
00000000
00000000
00000000
00000000
00000000
00000000
00000000
00000000
>
00000000
00000000
00000000
00000000
00000000
00000000
00000000
00000000
DLG ITM_h

ITM l
01111001
00101110
11110100
00001111
10110100
00011011
01101100
00011010
>
01011001
00101110
11010100
00011011
01110110
00011010
10101100
00101010
>
00000000
00000000
00000000
00000000
00000000
00000000
00000000
00000000
>
00000000
00000000
00000000
00000000
00000000
00000000
00000000
00000000
DLG ITM_i

ITM m
01111001
00101110
11110100
00001111
10110100
00011011
01101100
00011010
>
01011001
00101110
11010100
00011011
01110110
00011010
10101100
00101010
>
00000000
00000000
00000000
00000000
00000000
00000000
00000000
00000000
>
00000000
00000000
00000000
00000000
00000000
00000000
00000000
00000000
DLG ITM_j

DLG ITM_0
You found a nice warm cup of tea

DLG SPR_1
"""
ALIEN HEAD
{shk}I CAN'T BREATH!{shk}
"""

DLG SPR_2
"""
CHIHUAHUA HEAD:
Oh! Hi there! How your'e doing? BTW, do you know that The Labirinth is fake? It all was Bob's idea. He's really smart.
"""

DLG SPR_3
"""
BOB'S HEAD:
That Chihuahua Head drools all over my face! It's disgusting! Thank god I can now sell this stuff to tourists, like it's a sort of sacred drug.
Anyway, if you're looking for exit, it's somewhere in the North wall. 
"""

DLG SPR_4
{wvy}{clr2}This is the BOWL OF FIRE HEAD. He desn't talk much.{clr2}{wvy}

DLG SPR_5
"""
CROCODILE HEAD:
{shk}HA! HEY YOU! YOU SUPOSED TO BE IN THE MAZE!{shk}
You see a corner of a paper bill sticking out from Crocodile's teeth.
"""

DLG SPR_0
"""
The gate to The labyrinth.
It's locked.
"""

DLG SPR_7
"The Labyrinth is ahead. Consult the totem before entering"

DLG SPR_6
"""
{sequence
  - You see multiheaded totem. All five heads are alive and arguing about something, but when you approach, they stop interrupting each other and speak in one voice:
    TOTEM: Have you already forget?
    YOU: I'm a cloud of smoke. What happend to me?
    TOTEM: Oh... as always. They drink the potion, forget everything, and I have to explain all over again. You came here to have a spiritual journey... You wanted to become a professional pony rider...
    YOU: No, I wantet to learn to trust people...
    TOTEM: Exactly. So you're remembering. Good. You drank the sacred potion...
    YOU: Yeah, I remember that. It came out from the mouth of the bottom head... like from wending machine... and I had to put money into Crocodile's head mouth...
    TOTEM: There wasn't any money! It all is for free.
    YOU: But I definitelly rem...
    TOTEM: It's irrelevant! Now you're in the spiritual world and have to go through the trial of The labyrinth to become professional pony rider...
    YOU: Learn to trust people.
    TOTEM: Exactly. Now go to the labyrinth and seak your faith.
    YOU: But what about my body? Will I return back to my body?
    TOTEM: Yes, in two hours you will safely return into your body. Unless, uhm... eh...
    YOU: "Uhm" what? What is it.
    TOTEM: Oh, nothing, only... if you'll find yourself naked, covered in honey and tied to big wooden post... just tell the tribesmen that you're from Bob.
    YOU: Uhm, okay... I guess, I'd better be going then.
    TOTEM: Bye.
  - CHIHUAHUA HEAD: Bob, you should stop advice people that thing with the tribesmen. It only worked once, and even then they just replaced honey with maple syrup.
    BOB'S HEAD: Shut up. He's still here.
  - Still here, uh? Why do you want to become a professional pony rider anyway?
}
"""

DLG ITM_1
"""
You've entered The Labyrinth. Everything here is covered in spiritual fog and you can't see a thing... a spiritual thing... But you can hear a voice of the spirit talking to you:

SPIRIT: Ok, let's make it quick. Local shaman contacted me half an hour ago, said they found a nice body for me to possess... another totem licker, y'know those... Just hope it won't be the maple syrup again. Hate that thing! Anyway, there's deadly traps all over the place, and bottomless holes... y'know, all that stuff. And you can't see a damn thing, y'know. So, I'll be guiding you, olright.
Ok, now make 3 steps to the South.
"""

DLG ITM_2
"""
You've entered The Labyrinth. Everything here is covered with spiritual fog and you can't see a thing... a spiritual thing... But you can hear a voice of the spirit talking to you:

SPIRIT: Ok, let's make it quick. Local shaman contacted me half an hour ago, said they found a nice body for me to possess... another totem licker, y'know those... Just hope it won't be the maple syrup again. Hate that thing!
Anyway, there's deadly traps all over the place, and bottomless holes... y'know, all that stuff. And you can't see a damn thing, y'know. So, I'll be guiding you, olright.
Ok, now make 4 steps to the East.
"""

DLG ITM_3
Well done. Now make four steps to the North.

DLG ITM_4
Good! Now, two steps to the West.

DLG ITM_5
Now, 3 steps to the South.

DLG ITM_6
5 steps to the East

DLG ITM_7
4 to North.

DLG ITM_8
One more to North.

DLG ITM_9
One East.

DLG ITM_a
10 South.

DLG ITM_b
1 East.

DLG ITM_c
3 North. We're almost there.

DLG ITM_d
3 West.

DLG ITM_e
10 North.

DLG ITM_f
2 West. Just a bit more has left.

DLG ITM_g
3 South. 

DLG ITM_h
7 East.

DLG ITM_i
One South...

DLG ITM_j
... and after two more steps to the East you'll get to the exit, alright! And I really have to go now. Y'know, those tribesmen... last time I got late to the ritual, they tattooed that guys whole body with penises, y'know,  like it makes me happyer or something, y'know. Anyway, I'm leavig now, good luck with your llama clothing designer career!

END 0
You found your way through the Labyrinth. The very next week you've become the best professional pony rider in your country. Now you're making enough money to finaly remove those penis tattoos.

END 1
You decided to trust in your self and discovered that the whole labyrinth vas a fake. Maybe this is what the whole trial really was about... Anyway, you awoke in the middle of the ceremony and asked the shaman to tattoo word "TRUST" on your chest.

END 2
Well... it was a journey. You decided that you can trust noone. Especially multiheaded totems. You woke up in the cosy hut, while three beautiful tribe women were covering you with honey. After the ceremony they've  become your wives. At the age of 94 you've become the chief of the tribe. Sometimes you have a dream of you riding a unicorn pony.

VAR a
42


