

# BITSY VERSION 5.1

! ROOM_FORMAT 1

PAL 0
NAME castle
255,4,10
125,2,5
0,0,0

PAL 1
NAME outside
46,46,35
0,0,0
0,0,0

PAL 2
NAME cover?
255,255,255
255,255,255
255,255,255

ROOM 0
0,3v,0,0,0,0,0,3v,0,0,0,3u,3w,11,11,11
0,3u,3w,10,0,3v,0,3u,3w,0,3v,0,0,11,11,11
0,0,0,0,0,3u,3w,0,0,0,3u,3w,0,11,11,11
0,0,3v,0,0,0,0,0,0,0,0,0,0,11,11,11
0,0,3u,3w,0,10,0,0,3v,0,10,0,0,11,11,11
0,10,0,0,0,0,0,0,3u,3w,0,0,0,11,11,11
0,0,0,0,0,0,0,0,0,0,0,0,0,11,11,b
0,0,0,0,0,0,0,0,0,0,0,0,13,15,18,d
0,0,0,0,0,0,0,0,0,0,0,0,14,16,17,c
0,0,0,0,0,0,0,0,0,0,0,3v,0,11,11,b
10,0,0,10,0,0,3v,0,10,0,0,3u,3w,11,11,11
0,0,3v,0,0,0,3u,3w,0,0,0,0,0,11,11,11
0,0,3u,3w,10,0,0,0,0,3v,0,10,0,11,11,11
0,0,0,0,0,3v,0,10,0,3u,3w,0,0,11,11,11
3v,0,10,0,0,3u,3w,0,0,0,0,3v,0,11,11,11
3u,3w,0,3v,0,0,0,10,0,0,0,3u,3w,11,11,11
NAME Outside
ITM 2 7,3
EXT 15,7 1 0,7
EXT 15,8 1 0,8
PAL 1

ROOM 1
g,u,l,l,l,l,l,l,l,l,l,l,l,l,v,h
g,0,0,0,0,0,0,0,0,0,0,0,0,0,0,h
g,0,0,0,0,0,0,0,0,0,0,0,0,0,0,h
g,0,0,0,0,0,0,0,0,0,0,0,0,0,0,h
g,0,0,0,0,0,0,0,0,0,0,0,0,0,0,h
q,0,0,0,0,0,0,0,0,0,0,0,0,0,0,s
b,0,0,0,0,0,0,0,0,0,0,0,0,0,0,0
e,0,0,0,0,0,0,0,0,0,0,0,0,0,0,0
f,0,0,0,0,0,0,0,0,0,0,0,0,0,0,t
b,0,0,0,0,y,y,y,y,y,y,0,0,0,0,h
r,0,0,0,o,n,n,n,n,n,n,p,0,0,0,h
g,0,0,0,o,n,n,n,n,n,n,p,0,0,0,h
g,0,0,0,o,n,n,n,n,n,n,p,0,0,0,h
g,0,0,0,o,n,n,n,n,n,n,p,0,0,0,h
g,0,0,0,o,n,n,n,n,n,n,p,0,0,0,h
g,w,x,b,o,n,n,n,n,n,n,p,b,w,x,h
NAME Main room
EXT 0,7 0 15,7
EXT 0,8 0 15,8
EXT 4,15 2 4,0
EXT 5,15 2 5,0
EXT 6,15 2 6,0
EXT 7,15 2 7,0
EXT 8,15 2 8,0
EXT 9,15 2 9,0
EXT 10,15 2 10,0
EXT 11,15 2 11,0
EXT 15,6 7 0,6
EXT 15,7 7 0,7
PAL 0

ROOM 2
g,w,x,b,o,n,n,n,n,n,n,p,b,w,x,h
g,0,0,0,o,n,n,n,n,n,n,p,0,0,0,h
g,0,0,0,o,n,n,n,n,n,n,p,0,0,0,h
g,0,0,0,o,n,n,n,n,n,n,p,0,0,0,h
g,0,0,0,o,n,n,n,n,n,n,p,0,0,0,h
g,0,0,0,o,n,n,n,n,n,n,p,0,0,0,h
g,0,0,0,o,n,n,n,n,n,n,p,0,0,0,h
g,0,0,0,o,n,n,0,0,n,n,p,0,0,0,h
g,0,0,0,o,n,n,0,0,n,n,p,0,0,0,h
g,0,0,0,o,n,n,n,n,n,n,p,0,0,0,h
g,0,0,0,o,n,n,n,n,n,n,p,0,0,0,h
g,0,0,0,o,n,n,n,n,n,n,p,0,0,0,h
g,0,0,0,o,n,n,n,n,n,n,p,0,0,0,h
g,0,0,0,o,n,n,n,n,n,n,p,0,0,0,h
g,0,0,0,o,n,n,n,n,n,n,p,0,0,0,h
g,w,x,b,o,n,n,n,n,n,n,p,b,w,x,h
NAME Item Room
EXT 4,0 1 4,15
EXT 5,0 1 5,15
EXT 6,0 1 6,15
EXT 7,0 1 7,15
EXT 8,0 1 8,15
EXT 9,0 1 9,15
EXT 10,0 1 10,15
EXT 11,0 1 11,15
EXT 5,15 3 5,0
EXT 4,15 3 4,0
EXT 6,15 3 6,0
EXT 7,15 3 7,0
EXT 8,15 3 8,0
EXT 9,15 3 9,0
EXT 10,15 3 10,0
EXT 11,15 3 11,0
PAL 0

ROOM 3
t,u,l,v,o,n,n,n,n,n,n,p,u,l,v,t
h,b,0,0,o,n,n,n,n,n,n,p,0,0,b,h
h,0,0,0,o,n,n,n,n,n,n,p,0,0,0,h
s,0,0,0,o,n,n,n,n,n,n,p,0,0,0,s
y,y,y,y,o,n,n,n,n,n,n,p,y,y,y,y
n,n,n,n,n,n,n,n,n,n,n,n,n,n,n,n
n,n,n,n,n,n,n,n,n,n,n,n,n,n,n,n
n,n,n,n,n,n,n,n,n,n,n,n,n,n,n,n
n,n,n,n,n,n,n,n,n,n,n,n,n,n,n,n
n,n,n,n,n,n,n,n,n,n,n,n,n,n,n,n
n,n,n,n,n,n,n,n,n,n,n,n,n,n,n,n
z,z,z,z,o,n,n,n,n,n,n,p,z,z,z,z
t,0,0,0,o,n,n,n,n,n,n,p,0,0,0,t
h,0,0,0,o,n,n,n,n,n,n,p,0,0,0,h
h,b,0,0,o,n,n,n,n,n,n,p,0,0,b,h
s,w,m,x,o,n,n,n,n,n,n,p,w,m,x,s
NAME 4way stop
ITM 1 3,3
EXT 4,0 2 4,15
EXT 5,0 2 5,15
EXT 6,0 2 6,15
EXT 7,0 2 7,15
EXT 8,0 2 8,15
EXT 9,0 2 9,15
EXT 10,0 2 10,15
EXT 11,0 2 11,15
EXT 0,5 4 15,5
EXT 0,4 4 15,4
EXT 0,6 4 15,6
EXT 0,7 4 15,7
EXT 0,8 4 15,8
EXT 0,9 4 15,9
EXT 0,10 4 15,10
EXT 0,11 4 15,11
EXT 4,15 5 4,0
EXT 5,15 5 5,0
EXT 6,15 5 6,0
EXT 7,15 5 7,0
EXT 8,15 5 8,0
EXT 9,15 5 9,0
EXT 10,15 5 10,0
EXT 11,15 5 11,0
EXT 15,4 6 0,4
EXT 15,5 6 0,5
EXT 15,6 6 0,6
EXT 15,7 6 0,7
EXT 15,8 6 0,8
EXT 15,9 6 0,9
EXT 15,10 6 0,10
EXT 15,11 6 0,11
PAL 0

ROOM 4
r,u,l,l,l,l,l,l,l,l,l,l,l,l,v,t
g,b,0,0,0,0,0,0,0,0,0,0,0,0,b,h
g,0,0,0,0,0,0,0,0,0,0,0,0,0,0,h
g,0,0,0,0,0,0,0,0,0,0,0,0,0,0,s
g,0,0,0,0,0,0,0,0,0,0,0,0,y,y,y
g,0,0,0,0,d,47,47,47,e,0,0,o,n,n,n
g,0,0,0,0,49,n,n,n,48,0,0,o,n,n,n
g,0,0,0,0,49,n,n,n,48,0,0,o,n,n,n
g,0,0,0,0,49,n,n,n,48,0,0,o,n,n,n
g,0,0,0,0,49,n,n,n,48,0,0,o,n,n,n
g,0,0,0,0,c,4a,4a,4a,f,0,0,o,n,n,n
g,0,0,0,0,0,0,0,0,0,0,0,0,z,z,z
g,0,0,0,0,0,0,0,0,0,0,0,0,0,0,t
g,0,0,0,0,0,0,0,0,0,0,0,0,0,0,h
g,b,0,0,0,0,0,0,0,0,0,0,0,0,b,h
q,w,m,m,m,m,m,m,m,m,m,m,m,m,x,s
NAME Left
EXT 15,4 3 0,4
EXT 15,5 3 0,5
EXT 15,6 3 0,6
EXT 15,7 3 0,7
EXT 15,8 3 0,8
EXT 15,9 3 0,9
EXT 15,10 3 0,10
EXT 15,11 3 0,11
PAL 0

ROOM 5
r,u,l,v,o,n,n,n,n,n,n,p,u,l,v,t
g,43,44,46,o,n,n,n,n,n,n,p,46,44,43,h
g,3y,43,44,o,n,n,n,n,n,n,p,44,43,3y,h
g,45,3y,43,44,z,z,z,z,z,z,44,43,3y,45,h
g,40,0,3y,43,44,46,0,0,46,44,43,3y,0,41,h
g,44,0,42,3y,43,44,0,0,44,43,3y,42,0,44,h
g,46,0,44,42,3y,43,0,0,43,3y,42,44,0,46,h
g,42,0,43,44,42,3y,0,0,3y,42,44,43,0,42,h
g,40,0,3y,43,44,42,0,0,42,44,43,3y,0,41,h
g,3y,0,0,0,0,0,0,0,0,0,0,0,0,3y,h
g,42,3y,40,3y,0,43,3y,3y,43,0,3y,41,3y,42,h
g,43,44,3y,42,0,42,0,45,42,0,42,3y,44,43,h
g,42,3y,0,40,0,40,0,0,41,0,41,46,3y,42,h
g,44,43,0,0,0,0,0,0,0,0,0,0,43,44,h
g,41,45,42,40,3y,44,41,40,44,3y,41,42,45,40,h
q,w,m,m,m,m,m,m,m,m,m,m,m,m,x,s
NAME Down
EXT 4,0 3 4,15
EXT 5,0 3 5,15
EXT 6,0 3 6,15
EXT 7,0 3 7,15
EXT 8,0 3 8,15
EXT 9,0 3 9,15
EXT 10,0 3 10,15
EXT 11,0 3 11,15
PAL 0

ROOM 6
r,u,l,l,l,l,l,l,l,l,l,l,l,l,v,t
g,b,0,0,0,0,0,0,0,0,0,0,0,0,b,h
g,0,0,0,0,0,0,0,0,0,0,0,0,0,0,h
q,0,0,0,0,0,0,0,0,0,0,0,0,0,0,h
y,y,y,0,0,0,0,0,0,0,0,0,0,0,0,h
n,n,n,p,0,0,d,47,47,47,e,0,0,0,0,h
n,n,n,p,0,0,49,n,n,n,48,0,0,0,0,h
n,n,n,p,0,0,49,n,n,n,48,0,0,0,0,h
n,n,n,p,0,0,49,n,n,n,48,0,0,0,0,h
n,n,n,p,0,0,49,n,n,n,48,0,0,0,0,h
n,n,n,p,0,0,c,4a,4a,4a,f,0,0,0,0,h
z,z,z,0,0,0,0,0,0,0,0,0,0,0,0,h
r,0,0,0,0,0,0,0,0,0,0,0,0,0,0,h
g,0,0,0,0,0,0,0,0,0,0,0,0,0,0,h
g,b,0,0,0,0,0,0,0,0,0,0,0,0,b,h
q,w,m,m,m,m,m,m,m,m,m,m,m,m,x,s
NAME Right
ITM 3 13,4
EXT 0,4 3 15,4
EXT 0,5 3 15,5
EXT 0,6 3 15,6
EXT 0,7 3 15,7
EXT 0,8 3 15,8
EXT 0,9 3 15,9
EXT 0,10 3 15,10
EXT 0,11 3 15,11
PAL 0

ROOM 7
r,u,l,l,l,l,l,l,l,l,l,l,l,l,v,t
g,b,0,0,0,0,0,0,0,0,0,0,0,0,b,h
g,0,0,0,0,0,0,0,0,0,0,0,0,0,0,h
g,0,0,0,0,y,y,y,y,y,y,0,0,0,0,h
g,0,0,0,o,n,n,n,n,n,n,p,0,0,0,h
q,0,0,0,o,n,n,n,n,n,n,p,0,0,0,h
0,0,0,0,o,n,n,0,0,n,n,p,0,0,0,h
0,0,0,0,o,n,n,0,0,n,n,p,0,0,0,h
r,0,0,0,o,n,n,0,0,n,n,p,0,0,0,h
g,0,0,0,o,n,n,n,n,n,n,p,0,0,0,h
g,0,0,0,o,n,n,n,n,n,n,p,0,0,0,h
g,0,0,0,0,z,z,z,z,z,z,0,0,0,0,h
g,0,0,0,0,0,0,0,0,0,0,0,0,0,0,h
g,0,0,0,0,0,0,0,0,0,0,0,0,0,0,h
g,b,0,0,0,0,0,0,0,0,0,0,0,0,b,h
q,w,m,m,m,m,m,m,m,m,m,m,m,m,x,s
NAME Fam room
EXT 0,6 1 15,6
EXT 0,7 1 15,7
PAL 0

ROOM 8
0,0,4u,4t,4v,0,0,0,0,0,0,4x,4w,4y,4z,0
4b,4d,4f,4h,0,5c,4m,4n,4o,4q,4r,4s,0,57,0,0
4c,4e,4g,4i,4j,4k,4l,5e,4p,5f,5g,5h,50,53,55,59
0,0,0,0,0,0,0,1i,1q,1x,20,52,51,54,56,5a
0,0,0,0,0,0,1a,1h,1p,1w,1z,0,0,0,0,0
0,0,0,0,0,0,1b,1g,1o,1v,1y,0,0,0,0,0
0,0,0,0,0,0,0,1f,1n,1u,0,0,0,0,0,0
0,0,0,0,0,0,0,1e,1m,1t,0,0,0,0,0,0
3x,3x,3x,3x,3x,3x,3x,1d,1l,1s,3x,3x,3x,3x,3x,3x
21,21,21,21,21,21,21,1c,1j,1r,21,21,21,21,21,21
19,19,19,19,19,19,19,19,19,19,19,19,19,19,19,19
19,19,19,19,19,19,19,19,19,19,19,19,19,19,19,19
19,19,19,19,19,19,19,19,19,19,19,19,19,19,19,19
19,19,19,19,19,19,19,19,19,19,19,19,19,19,19,19
19,19,19,19,19,19,19,19,19,19,19,19,19,19,19,19
19,19,19,19,19,19,19,19,19,19,19,19,19,19,19,19
NAME title 1
EXT 15,9 9 0,9
PAL 1

ROOM 9
4j,4k,4l,0,0,2k,2p,2u,0,33,0,0,0,4m,5i,5j
22,26,2a,2c,2g,2l,2q,2v,2z,34,38,3c,3g,3k,3o,3s
23,27,0,2d,2h,2m,2r,2w,30,35,39,3d,3h,3l,3p,3t
24,28,0,2e,2i,2n,2s,2x,31,36,3a,3e,3i,3m,3q,0
25,29,2b,2f,2j,2o,2t,2y,32,37,3b,3f,3j,3n,3r,0
0,0,0,0,0,0,0,0,0,0,0,0,0,0,0,0
0,0,0,0,0,0,0,0,0,0,0,0,0,0,0,0
0,0,0,0,0,0,0,0,0,0,0,0,0,0,0,0
3x,3x,3x,3x,3x,3x,3x,3x,3x,3x,3x,3x,3x,3x,3x,3x
21,21,21,21,21,21,21,21,21,21,21,21,21,21,21,21
19,19,19,19,19,19,19,19,19,19,19,19,19,19,19,19
19,19,19,19,19,19,19,19,19,19,19,19,19,19,19,19
19,19,19,19,19,19,19,19,19,19,19,19,19,19,19,19
19,19,19,19,19,19,19,19,19,19,19,19,19,19,19,19
19,19,19,19,19,19,19,19,19,19,19,19,19,19,19,19
19,19,19,19,19,19,19,19,19,19,19,19,19,19,19,19
NAME title 2
EXT 15,9 0 0,7
EXT 0,9 8 15,9
PAL 1

TIL 10
00000000
00000000
01000100
00101000
10010010
01010100
00111000
00010000
NAME bush
WAL true

TIL 11
01111011
10111101
01111011
10101111
01110111
11101111
11110111
11101111
>
10111101
01111011
10111101
01110111
10101111
11110111
11101111
11110111
NAME water
WAL true

TIL 13
00000000
00001111
00010001
00111111
01000001
11111111
10000001
11111111

TIL 14
10000001
11111111
10000001
01111111
00100001
00011111
00001001
00000111

TIL 15
11110111
11111111
00000001
11111111
00000001
11111111
00000001
11111111

TIL 16
00000001
11111111
00000001
11111111
00000001
11111111
00000001
11111111

TIL 17
00000000
11111111
00000000
11111111
00000000
11111111
00000000
11111111

TIL 18
11110111
11111111
00000000
11111111
00000000
11111111
00000000
11111111

TIL 19
11111111
11111111
11111111
11111111
11111111
11111111
11111111
11111111
NAME ground
WAL true

TIL 20
00000000
00000000
00000000
00000000
00000000
11100000
00000000
00000000
NAME tree 1

TIL 21
10001010
01010010
01010010
01001010
01001010
01001010
01101010
00101010
NAME tall grass

TIL 22
00000000
00000000
00111111
01111111
01100001
01100001
01100000
01100000
>
00000000
00000000
00000000
00111111
01111111
01100001
01100001
01100000
NAME title

TIL 23
01100001
01100001
01100001
01100011
01100111
01111111
01111111
01100011
>
01100000
01100001
01100001
01100001
01100011
01100111
01111111
01111111
NAME title

TIL 24
01100001
01100000
01100000
01100000
01100000
01100000
01100000
01100000
>
01100011
01100001
01100000
01100000
01100000
01100000
01100000
01100000
NAME title

TIL 25
01100000
01100000
01100001
01100011
01111111
01111111
00111111
00000000
>
01100000
01100000
01100000
01100001
01100011
01111111
01111111
00111111
NAME title

TIL 26
00000000
00000001
10000011
11100011
11100011
11100011
11100011
11100011
>
00000000
00000000
00000001
10000011
11100011
11100011
11100011
11100011
NAME title

TIL 27
11100011
11100011
11100011
11100011
11000011
10000011
10000011
11100011
>
11100011
11100011
11100011
11100011
11100011
11000011
10000011
10000011
NAME title

TIL 28
11110011
11110011
01110011
01111011
00111011
00111011
01111011
01111011
>
11100011
11110011
11110011
01110011
01111011
00111011
00111011
01111011
NAME title

TIL 29
01111011
01110011
11110011
11110011
11100011
11000000
00000000
00000000
>
01111011
01111011
01110011
11110011
11110011
11100011
11000000
00000000
NAME title

TIL 30
00111001
00011001
00011001
00011001
00011001
00111001
00111001
00111001
>
00111001
00111001
00011001
00011001
00011001
00011001
00111001
00111001
NAME title

TIL 31
00111001
00111001
01111001
01110001
11110001
11100001
11100001
11100001
>
00111001
00111001
00111001
01111001
01110001
11110001
11100001
11100001
NAME title

TIL 32
11000001
10000001
00000001
00000000
00000000
00000000
00000000
00000000
>
11100001
11000001
10000001
00000001
00000000
00000000
00000000
00000000
NAME title

TIL 33
00000000
00000000
00000000
00000000
00000000
00000000
00000000
11100000
>
00000000
00000000
00000000
00000000
00000000
00000000
00000000
00000000
NAME title

TIL 34
11110000
10010000
10000000
10000000
10000000
10000000
10000000
10000000
>
11100000
11110000
10010000
10000000
10000000
10000000
10000000
10000000
NAME title

TIL 35
10000000
10000111
10111111
10011111
10000000
10000000
10000000
10000000
>
10000111
10111111
10011111
10000000
10000000
10000000
10000000
10000000
NAME title

TIL 36
10000000
10000000
10000000
10000000
10000000
10000000
10000000
10000000
>
10000000
10000000
10000000
10000000
10000000
10000000
10000000
10000000
NAME title

TIL 37
11111111
11111111
11000000
00000000
00000000
00000000
00000000
00000000
>
10000000
11111111
11111111
11000000
00000000
00000000
00000000
00000000
NAME title

TIL 38
00001100
00011100
00111000
00111000
00110000
00110000
00110000
00110000
>
00000000
00001100
00011100
00111000
00111000
00110000
00110000
00110000
NAME title

TIL 39
00110000
11111110
11111111
11111111
11111111
00110011
00110000
00110000
>
11111110
11111111
11111111
11111111
00110011
00110000
00110000
00110000
NAME title

TIL 40
00000000
00001000
00001000
00111100
00001100
00000010
00000100
00001000
>
00000000
00010000
00111000
00011100
00001100
00000010
00000100
00001000
NAME plant 2
WAL true

TIL 41
00000000
00010000
00010000
00111100
00110000
01000000
00100000
00010000
>
00000000
00001000
00010100
00111000
00110000
01000000
00100000
00010000
NAME plant 3
WAL true

TIL 42
00000000
01010100
01111100
00111000
00010000
00111000
00010000
00010000
>
00000000
00000000
01010100
01111100
00111000
00010000
00111000
00010000
NAME plant 4
WAL true

TIL 43
00000000
00000100
00001010
00100100
01010100
00100100
00100100
00100100
>
00000000
00000000
00000100
00001010
00100100
01010100
00100100
00100100
NAME plant 5
WAL true

TIL 44
00000000
00000000
00000000
01000010
00100100
01011010
10111101
00011000
>
00000000
00000000
00000000
00000000
01100110
00011000
01111110
10011001
NAME plant 6
WAL true

TIL 45
00000000
00000000
00000000
00000100
00000110
00001000
00001000
00001000
>
00000000
00000000
00000000
00010000
00110000
00001000
00001000
00001000
NAME plant 7
WAL true

TIL 46
00000000
00011000
00011010
01011110
01111000
00011000
00011000
00011000
>
00000000
00000000
00011000
00011010
01011110
01111000
00011000
00011000
NAME plant 8
WAL true

TIL 47
11111111
00000000
11111111
00000000
11111111
00000000
11111111
00000000
NAME rug 1: 5

TIL 48
01010101
01010101
01010101
01010101
01010101
01010101
01010101
01010101
NAME rug 1:6

TIL 49
10101010
10101010
10101010
10101010
10101010
10101010
10101010
10101010
NAME rug 1:7

TIL 50
00000000
00000000
00000000
00000000
00000000
00000000
00011111
11111111
>
00000000
00000000
00000000
00000000
00000000
00011111
11111111
11111111
NAME clouds

TIL 51
11111111
11111111
00011111
00000000
00000000
00000000
00000000
00000000
>
11111111
00011111
00000000
00000000
00000000
00000000
00000000
00000000
NAME clouds

TIL 52
00000001
00000000
00000000
00000000
00000000
00000000
00000000
00000000
>
00000000
00000000
00000000
00000000
00000000
00000000
00000000
00000000
NAME clouds

TIL 53
00000000
00000000
00000000
00000000
00000000
11111111
11111111
11111111
>
00000000
00000000
00000000
00000000
11111111
11111111
11111111
11111111
NAME clouds

TIL 54
11111111
11111111
11111111
00000011
00000000
00000000
00000000
00000000
>
11111111
11111111
00000011
00000000
00000000
00000000
00000000
00000000
NAME clouds

TIL 55
00000000
00000000
00000000
00000000
01111111
11111111
11111111
11111111
>
00000000
00000000
00000000
01111111
11111111
11111111
11111111
11111111
NAME clouds

TIL 56
11111111
11111111
11111111
11111111
00000011
00000000
00000000
00000000
>
11111111
11111111
11111111
00000011
00000000
00000000
00000000
00000000
NAME clouds

TIL 57
00111100
01111110
11111111
11111111
11111111
11111111
01111110
00111100
NAME moon

TIL 59
00000000
00000000
11111111
11111111
11111111
11111111
11111111
11111111
>
00000000
11111111
11111111
11111111
11111111
11111111
11111111
11111111
NAME clouds

TIL b
00010000
00001000
01111110
00111100
00011000
00011000
00011000
00011000
>
00001000
00010000
01111110
00111100
00011000
00011000
00011000
00011000
NAME lamp
WAL true

TIL c
10101010
10101011
10101000
10101111
10100000
10111111
10000000
11111111
NAME rug 1:1

TIL d
11111111
10000000
10111111
10100000
10101111
10101000
10101011
10101010
NAME rug 1:2

TIL e
11111111
00000001
11111101
00000101
11110101
00010101
11010101
01010101
NAME rug 1:3

TIL f
01010101
11010101
00010101
11110101
00000101
11111101
00000001
11111111
NAME rug 1:4

TIL g
10010010
11110010
10010010
10011110
10010010
11110010
10010010
10011110
NAME left wall
WAL true

TIL h
01001111
01111001
01001001
01001001
01001111
01111001
01001001
01001001
NAME right wall
WAL true

TIL l
11111111
00100010
00100010
11111111
10001000
10001000
11111111
00000000
NAME top wall
WAL true

TIL m
00000000
11111111
10001000
10001000
11111111
00100010
00100010
11111111
NAME bottom wall
WAL true

TIL n
11111111
11111111
11111111
11111111
11111111
11111111
11111111
11111111
NAME rug

TIL o
00001010
00010101
00000000
00010101
00001010
00000000
00001010
00010101
NAME tassels

TIL p
10101000
01010000
00000000
01010000
10101000
00000000
10101000
01010000
NAME tassles

TIL q
10010010
11110010
10010010
10011110
10010010
11110010
10010010
11111110
NAME left cap
WAL true

TIL r
11111110
10010010
10010010
10011110
10010010
11110010
10010010
10011110
NAME left cap
WAL true

TIL s
01001111
01111001
01001001
01001001
01001111
01111001
01001001
01111111
NAME right cap
WAL true

TIL t
01111111
01001001
01001001
01001001
01001111
01111001
01001001
01001001
NAME right cap
WAL true

TIL u
11111111
10100010
10100010
11111111
10001000
10001000
11111111
00000000
NAME top cap
WAL true

TIL v
11111111
00100001
00100001
11111111
10001001
10001001
11111111
00000000
NAME top cap
WAL true

TIL w
00000000
11111111
10001000
10001000
11111111
10100010
10100010
11111111
NAME bottom cap
WAL true

TIL x
00000000
11111111
10001001
10001001
11111111
00100001
00100001
11111111
NAME bottom cap
WAL true

TIL y
00000000
00000000
00000000
10001010
01010001
10001010
01010001
10001010
NAME tassels

TIL z
10001010
01010001
10001010
01010001
10001010
00000000
00000000
00000000
NAME tassels

TIL 1a
00000000
00000000
11000001
11000001
11000001
01100001
01100001
00110011
NAME tree 1

TIL 1b
00110011
00111011
00011111
00000111
00000011
00000001
00000000
00000000
NAME tree 1

TIL 1c
00000000
00000000
00000000
00000001
00000001
00000011
00001111
00001111
NAME tree 1

TIL 1d
00000100
00000110
00000110
00000011
00000001
00000000
00000000
00000000
NAME tree 1
WAL true

TIL 1e
00100000
00000000
00000000
00010000
00011000
00001000
00001100
00000100
NAME tree 1

TIL 1f
00111100
00000110
00000111
00000111
00001111
00011001
00110000
00100000
NAME tree 1

TIL 1g
00001001
00001010
00001100
00001000
00001000
11001000
11111000
01111100
NAME tree 1

TIL 1h
00001110
00000110
00000011
00000011
00000001
00000000
00000000
00000000
NAME tree 1

TIL 1i
00000000
00000000
00000000
00000000
01100000
00110000
00011000
00001100
NAME tree 1

TIL 1j
11111110
11111110
11111110
11111110
11111111
11111111
11111111
11111111

TIL 1l
11111110
11111110
11111110
11111111
11111111
11111110
11111110
11111110
NAME tree 1
WAL true

TIL 1m
11111111
11111111
11111111
11111111
11111110
11111110
11111110
11111110
NAME tree 1

TIL 1n
11111000
11111000
11111000
11111000
11111000
11111000
11111000
11111100
NAME tree 1

TIL 1o
01110000
01110000
01110000
01110000
01111001
01111111
11111110
11111100
NAME tree 1

TIL 1p
00000110
00001100
00011000
10111000
11111111
11110000
01110000
01110000
NAME tree 1

TIL 1q
00000000
00000000
00000000
00000000
00000000
00000000
00000000
00000001
NAME tree 1

TIL 1r
00000000
00000000
00000000
00000000
10000000
11000000
11110000
11110000
NAME tree 1

TIL 1s
00000000
00000000
10000000
10000000
00000000
00000000
00000000
00000000
NAME tree 1
WAL true

TIL 1t
11110000
11000000
10000000
00000000
00000000
00000000
00000000
00000000
NAME tree 1

TIL 1u
00000000
00100000
01100000
01000000
01100000
00100111
01101100
11111000
NAME tree 1

TIL 1v
00011111
00111000
01110000
11000000
10000000
10000000
11111110
00000001
NAME tree 1

TIL 1w
00000000
00000000
00000000
00000000
11110000
00000000
00000000
00000000
NAME tree 1

TIL 1x
00000000
00000000
00000000
00000000
00000000
00000001
00011110
11100000
NAME tree 1

TIL 1y
00000000
00000000
00000000
00000000
00000000
00000000
00000000
11000000
NAME tree 1

TIL 1z
00000000
00000000
00000000
00000000
00000000
00000000
00000000
11100000
NAME tree 1

TIL 2a
00000000
11000000
11100000
00100000
00000000
00000000
00000000
00000000
>
00000000
00000000
11000000
11100000
00100000
00000000
00000000
00000000
NAME title

TIL 2b
00000000
00000000
11111110
11111111
10000001
00000000
00000000
00000000
>
00000000
00000000
00000000
11111110
11111111
10000001
00000000
00000000
NAME title

TIL 2c
00000011
00000111
00001100
00011000
00011000
00011000
00111000
00111000
>
00000000
00000011
00000111
00001100
00011000
00011000
00011000
00111000
NAME title

TIL 2d
00111000
01111000
01110000
01110000
01110000
01110011
01110011
01110000
>
00111000
00111000
01111000
01110000
01110011
01110011
01110000
01110000
NAME title

TIL 2e
01110000
01110000
01110000
01111000
00111000
00111000
00111000
00011000
>
01110000
01110000
01110000
01110000
01111000
00111000
00111000
00111000
NAME title

TIL 2f
00011000
00011000
00001100
10000111
10000011
00000000
00000000
00000000
>
00011000
00011000
00011000
00001100
10000111
10000011
00000000
00000000
NAME title

TIL 2g
11000000
11100000
01110000
00111000
00011000
00011000
00011100
00011100
>
00000000
11000000
11100000
01110000
00111000
00011000
00011000
00011100
NAME title

TIL 2h
00011100
00011110
00001110
00001110
01111111
11111111
11111111
01111111
>
00011100
00011100
00011110
01111111
11111111
11111111
01111111
00001110
NAME title

TIL 2i
00001110
00001110
00001110
00011110
00011100
00011100
00011100
00011000
>
00001110
00001110
00001110
00001110
00011110
00011100
00011100
00011100
NAME title

TIL 2j
00011000
00011000
00110000
11100000
11000000
00000000
00000000
00000000
>
00011000
00011000
00011000
00110000
11100000
11000000
00000000
00000000
NAME title

TIL 2k
00000000
00000000
00000000
00000000
00000000
00000000
00000000
00000011
>
00000000
00000000
00000000
00000000
00000000
00000000
00000000
00000000
NAME title

TIL 2l
00000111
00001100
00011000
00011000
00011000
00111000
00111000
00111000
>
00000011
00000111
00001100
00011000
00011000
00011000
00111000
00111000
NAME title

TIL 2m
01111000
01110000
01110000
01110000
11111100
11111111
11111111
11111111
>
00111000
01111000
01110000
11111100
11111111
11111111
11111111
01110000
NAME title

TIL 2n
01110000
01110000
01111000
00111000
00111000
00111000
00011000
00011000
>
01110000
01110000
01110000
01111000
00111000
00111000
00111000
00011000
NAME title

TIL 2o
00011000
00001100
00000111
00000011
00000000
00000000
00000000
00000000
>
00011000
00011000
00001100
00000111
00000011
00000000
00000000
00000000
NAME title

TIL 2p
00000000
00000000
00000000
00000000
00000000
00000000
00000000
11000000
>
00000000
00000000
00000000
00000000
00000000
00000000
00000000
00000000
NAME title

TIL 2q
11100000
00110000
00011000
00011000
00011000
00011100
00011100
00011100
>
11000000
11100000
00110000
00011000
00011000
00011000
00011100
00011100
NAME title

TIL 2r
00011110
00001110
00001110
00001110
00001110
11001110
11101110
11001110
>
00011100
00011110
00001110
00001110
11001110
11101110
11001110
00001110
NAME title

TIL 2s
00001110
00001110
00001110
00011100
00011100
00011100
00011000
00011000
>
00001110
00001110
00001110
00001110
00011100
00011100
00011100
00011000
NAME title

TIL 2t
00011000
00110000
11100000
11000000
00000000
00000000
00000000
00000000
>
00011000
00011000
00110000
11100000
11000000
00000000
00000000
00000000
NAME title

TIL 2u
00000000
00000000
00000000
00000000
00000000
00000000
00111110
01111111
>
00000000
00000000
00000000
00000000
00000000
00000000
00000000
00111110
NAME title

TIL 2v
01100111
01100011
01100001
01100000
01100000
01100000
01100000
01100000
>
01111111
01100111
01100011
01100001
01100000
01100000
01100000
01100000
NAME title

TIL 2w
01100000
01100000
01100000
01100000
01100000
01100000
01100000
01100000
>
01100000
01100000
01100000
01100000
01100000
01100000
01100000
01100000
NAME title

TIL 2x
01100000
01100000
01100000
01100000
01100000
01100000
01100001
01100011
>
01100000
01100000
01100000
01100000
01100000
01100000
01100000
01100001
NAME title

TIL 2y
01101111
01111111
00111111
00000000
00000000
00000000
00000000
00000000
>
01100011
01101111
01111111
00111111
00000000
00000000
00000000
00000000
NAME title

TIL 2z
10000001
11000001
11100001
11110001
01111001
00111001
00111001
00111001
>
00000000
10000001
11000001
11100001
11110001
01111001
00111001
00111001
NAME title

TIL 3a
00110000
00110000
00110000
00110000
00110000
00111000
00111100
00011100
>
00110000
00110000
00110000
00110000
00110000
00110000
00111000
00111100
NAME title

TIL 3b
00011100
11011110
11001111
00000111
00000011
00000000
00000000
00000000
>
00011100
00011100
11011110
11001111
00000111
00000011
00000000
00000000
NAME title

TIL 3c
00001100
00001110
00000111
00000111
00000011
00000011
00000011
00000011
>
00000000
00001100
00001110
00000111
00000111
00000011
00000011
00000011
NAME title

TIL 3d
00000011
00000011
11111011
11111111
11111111
11110011
00000011
00000011
>
00000011
11111011
11111111
11111111
11110011
00000011
00000011
00000011
NAME title

TIL 3e
00000011
00000011
00000011
00000011
00000011
00000111
00001111
00001110
>
00000011
00000011
00000011
00000011
00000011
00000011
00000111
00001111
NAME title

TIL 3f
00001110
00011110
11111100
11111000
11100000
00000000
00000000
00000000
>
00001110
00001110
00011110
11111100
11111000
11100000
00000000
00000000
NAME title

TIL 3g
00000000
00000111
00011111
00111111
00111000
00110000
00110000
00110000
>
00000000
00000000
00000111
00011111
00111111
00111000
00110000
00110000
NAME title

TIL 3h
00110000
00110000
00111000
00111100
00011111
00000111
00000011
00000000
>
00110000
00110000
00110000
00111000
00111100
00011111
00000111
00000011
NAME title

TIL 3i
00000000
00000000
00000000
00000000
00000000
00000111
00001111
00001110
>
00000000
00000000
00000000
00000000
00000000
00000000
00000111
00001111
NAME title

TIL 3j
00001100
00001100
00001110
00001111
00001111
00000111
00000011
00000000
>
00001110
00001100
00001100
00001110
00001111
00001111
00000111
00000011
NAME title

TIL 3k
00000000
11110000
11111000
11111100
01111100
00111101
00111101
00111101
>
00000000
00000000
11110000
11111000
11111100
01111100
00111101
00111101
NAME title

TIL 3l
00111001
01110000
00000000
00000000
00000000
11000000
11100000
11110000
>
00111101
00111001
01110000
00000000
00000000
00000000
11000000
11100000
NAME title

TIL 3m
00111000
00111100
00011110
00001110
00000111
00000111
00000111
00000111
>
11110000
00111000
00111100
00011110
00001110
00000111
00000111
00000111
NAME title

TIL 3n
00001111
00001111
00011110
00111110
11111100
11111000
11100000
00000000
>
00000111
00001111
00001111
00011110
00111110
11111100
11111000
11100000
NAME title

TIL 3o
00000000
00000000
00011111
01111111
11111011
11000011
10000011
00000011
>
11111111
00000000
00000000
00011111
01111111
11111011
11000011
10000011
NAME title

TIL 3p
00000011
00000011
00000011
00000011
00000011
00000011
00000011
00000011
>
00000011
00000011
00000011
00000011
00000011
00000011
00000011
00000011
NAME title

TIL 3q
00000011
00000011
00000011
00000011
00000011
00000011
00000011
00000011
>
00000011
00000011
00000011
00000011
00000011
00000011
00000011
00000011
NAME title

TIL 3r
00000011
00000011
00000011
00000011
00000011
00000011
00000011
00000000
>
00000011
00000011
00000011
00000011
00000011
00000011
00000011
00000011
NAME title

TIL 3s
00000000
00000000
11100000
11111000
01111100
00001110
00000110
00000010
>
11111111
00000000
00000000
11100000
11111000
01111100
00001110
00000110
NAME title

TIL 3t
00000010
00000000
00000000
00000000
00000000
00000000
00000000
00000000
>
00000010
00000010
00000000
00000000
00000000
00000000
00000000
00000000
NAME title

TIL 3u
01010101
10101010
01011101
00001000
00001000
00001000
00001000
00001000
NAME tree
WAL true

TIL 3v
00000000
00000000
00000000
00000000
00000000
00001000
00010100
00101010
NAME treetop
WAL true

TIL 3w
00000000
10000000
00000000
00000000
00000000
00000000
00000000
00000000
NAME tree side

TIL 3x
00000000
00000000
00000000
00000000
00000000
00000000
00000000
00000000
NAME sky
WAL true

TIL 3y
01100000
10010000
10010000
01101100
01010010
01010010
01001100
01000100
>
00000000
01100000
10010000
10010000
01101100
01010010
01010010
01001100
NAME plant 1
WAL true

TIL 4a
00000000
11111111
00000000
11111111
00000000
11111111
00000000
11111111
NAME rug 1:8

TIL 4b
00000000
00000000
11111000
11111111
11111111
11111111
11111111
11111111
>
00000000
00000000
00000000
11111000
11111111
11111111
11111111
11111111
NAME clouds

TIL 4c
11111111
11111111
11111111
11111111
11111111
11100000
00000000
00000000
>
11111111
11111111
11111111
11111111
11111111
11111111
11100000
00000000
NAME clouds

TIL 4d
00000000
00000000
00000000
11111000
11111111
11111111
11111111
11111111
>
00000000
00000000
00000000
00000000
11111000
11111111
11111111
11111111
NAME clouds

TIL 4e
11111111
11111111
11111111
11111111
11111000
00000000
00000000
00000000
>
11111111
11111111
11111111
11111111
11111111
11111000
00000000
00000000
NAME clouds

TIL 4f
00000000
00000000
00000000
00000000
00000000
11100000
11111111
11111111
>
00000000
00000000
00000000
00000000
00000000
00000000
11100000
11111111
NAME clouds

TIL 4g
11111111
11111111
11110000
00000000
00000000
00000000
00000000
00000000
>
11111111
11111111
11111111
11110000
00000000
00000000
00000000
00000000
NAME clouds

TIL 4h
00000000
00000000
00000000
00000000
00000000
00000000
00000000
11000000
>
00000000
00000000
00000000
00000000
00000000
00000000
00000000
00000000
NAME clouds

TIL 4i
10000000
00000000
00000001
00000000
00000000
00000000
00000000
00000000
>
11000000
10000001
00000000
00000000
00000000
00000000
00000000
00000000
NAME clouds

TIL 4j
00000000
00011111
11111111
11111111
00111111
00000000
00000000
00000000
>
00011111
11111111
11111111
00111111
00000000
00000000
00000000
00000000
NAME clouds

TIL 4k
11111110
11111111
11111111
11111111
11111111
01111100
00000000
00000000
>
11111111
11111111
11111111
11111111
01111100
00000000
00000000
00000000
NAME clouds

TIL 4l
00000000
00000000
11000000
11100000
11000000
00000000
00000000
00000000
>
00000000
11000000
11100000
11000000
00000000
00000000
00000000
00000000
NAME clouds

TIL 4m
00000000
00000000
00001111
01111111
11111111
01111111
00000111
00000000
>
00000000
00000000
00000000
00001111
01111111
11111111
01111111
00000111
NAME clouds

TIL 4n
00000000
11111111
11111111
11111111
11111111
11111111
11111111
00011111
>
00000000
00000000
11111111
11111111
11111111
11111111
11111111
11111111
NAME clouds

TIL 4o
00111111
11111111
11111111
11111111
11111111
11111111
11111111
11111111
>
00000000
00111111
11111111
11111111
11111111
11111111
11111111
11111111
NAME clouds

TIL 4p
11111111
00000000
00000000
00000000
00000000
00000000
00000000
00000000
>
11111111
11111111
00000000
00000000
00000000
00000000
00000000
00000000
NAME cloud

TIL 4q
00000000
11111111
11111111
11111111
11111111
11111111
11111111
11111111
>
00000000
00000000
11111111
11111111
11111111
11111111
11111111
11111111
NAME clouds

TIL 4r
00000000
00000000
11111100
11111111
11111111
11111111
11111111
11100000
>
00000000
00000000
00000000
11111100
11111111
11111111
11111111
11111111
NAME clouds

TIL 4s
00000000
00000000
00000000
10000000
11110000
11110000
11100000
00000000
>
00000000
00000000
00000000
00000000
10000000
11110000
11110000
11100000
NAME clouds

TIL 4t
00000000
01111111
11111111
11111111
11111111
11111111
01111111
00000000
>
01111111
11111111
11111111
11111111
11111111
01111111
00000000
00000000
NAME clouds

TIL 4u
00000000
00000000
00000111
00111111
00011111
00000111
00000000
00000000
>
00000000
00000111
00111111
00011111
00000111
00000000
00000000
00000000
NAME clouds

TIL 4v
00000000
11000000
11111000
11111110
11111111
11111100
11110000
00000000
>
11000000
11111000
11111110
11111111
11111100
11110000
00000000
00000000
NAME clouds

TIL 4w
00000000
00001111
11111111
11111111
11111111
00001111
00000000
00000000
>
00000000
00000000
00001111
11111111
11111111
11111111
00001111
00000000
NAME clouds

TIL 4x
00000000
00000000
00000000
00000001
00000000
00000000
00000000
00000000
>
00000000
00000000
00000000
00000000
00000001
00000000
00000000
00000000
NAME clouds

TIL 4y
00000000
11111111
11111111
11111111
11111111
11111111
00000000
00000000
>
00000000
00000000
11111111
11111111
11111111
11111111
11111111
00000000
NAME clouds

TIL 4z
00000000
11000000
11111100
11111111
11111110
11110000
00000000
00000000
>
00000000
00000000
11000000
11111100
11111111
11111110
11110000
00000000
NAME clouds

TIL 5a
11111111
11111111
11111111
11111111
11111111
11111111
00000000
00000000
>
11111111
11111111
11111111
11111111
11111111
00000000
00000000
00000000
NAME clouds

TIL 5b
11111111
11111111
11111111
11111111
11111111
11111111
11111111
11111000
>
11111111
11111111
11111111
11111111
11111111
11111111
11111000
00000000
NAME clouds

TIL 5c
00000000
00000000
00000000
00000000
00000000
00000000
00000000
00000000
>
00000000
00000000
00000000
00000000
00000000
00000000
00000000
11111110
NAME clouds

TIL 5e
00000000
00000000
00000000
00000000
00000000
00000000
00000000
00000000
>
00011111
00000000
00000000
00000000
00000000
00000000
00000000
00000000

TIL 5f
00000000
00000000
00000000
00000000
00000000
00000000
00000000
00000000
>
11111111
00000000
00000000
00000000
00000000
00000000
00000000
00000000
NAME clouds

TIL 5g
00000000
00000000
00000000
00000000
00000000
00000000
00000000
00000000
>
11100000
00000000
00000000
00000000
00000000
00000000
00000000
00000000
NAME clouds

TIL 5h
00000000
00000000
00000000
00000000
00000000
00000000
00000000
00000000
>
00000000
00000000
00000000
00000000
00000000
00000000
00000000
00000001
NAME clouds

TIL 5i
00000000
00000000
00011111
11111111
11111111
11111111
11111111
11111111
>
00000000
00000000
00000000
00011111
11111111
11111111
11111111
11111111
NAME clouds

TIL 5j
00000000
11111111
11111111
11111111
11111111
11111111
11111111
11111111
>
00000000
00000000
11111111
11111111
11111111
11111111
11111111
11111111
NAME clouds

SPR 10
00000000
00011000
00011010
01011110
01111000
00011000
00011000
00011000
>
00000000
00000000
00011000
00011010
01011110
01111000
00011000
00011000
NAME cactus
DLG SPR_b
POS 5 3,12

SPR 11
00000000
00000000
00000000
11111000
00000110
00000001
01100001
11111001
NAME coffin 2
POS 6 12,3

SPR 12
00000000
00000000
00000000
00000000
00011111
11100000
10000000
10001111
NAME coffin 2
POS 6 11,3

SPR 13
11111001
01100001
00000001
00000111
11111111
11111111
11111000
00000000
NAME coffin 2
POS 6 12,4

SPR 14
10001111
10000000
11110000
11111111
11111111
00001111
00000000
00000000
NAME coffin 2
POS 6 11,4

SPR 15
00000000
00000000
00000000
11111000
00000110
00000001
01100001
11111001
NAME coffin 3
POS 7 13,5

SPR 16
00000000
00000000
00000000
00000000
00011111
11100000
10000000
10001111
NAME coffin 3
POS 7 12,5

SPR 17
11111001
01100001
00000001
00000111
11111111
11111111
11111000
00000000
NAME coffin 3
POS 7 13,6

SPR 18
10001111
10000000
11110000
11111111
11111111
00001111
00000000
00000000
NAME coffin 3
POS 7 12,6

SPR 19
00000000
00000000
00000000
11111000
00000110
00000001
01100001
11111001
NAME coffin 4
POS 7 13,7

SPR A
00000000
00000000
00000000
00011000
00111100
00011000
00011000
00011000
>
00000000
00000000
00000000
00000000
00011000
00111100
00011000
00011000
POS 8 1,9

SPR a
00100100
00111100
01011010
00100100
00011000
00111100
01111110
11111111
>
00000000
00100100
00111100
01011010
00100100
00011000
00111100
01111110
NAME Drac 1
DLG SPR_0
POS 1 7,6

SPR b
11111111
10000001
10101001
10010001
10101001
10000101
10000001
11111111
NAME scase
DLG SPR_3
POS 2 7,7

SPR c
11111111
10000001
10000001
10000001
10000001
10000001
10000001
11111111
NAME acase
DLG SPR_2
POS 2 7,8

SPR d
11111111
10000001
10000001
10000001
10000001
10000001
10000001
11111111
NAME bcase
DLG SPR_4
POS 2 8,7

SPR e
11111111
10000001
10000001
10000001
10000001
10000001
10000001
11111111
NAME vcase
DLG SPR_1
POS 2 8,8

SPR f
11111111
10000001
10001101
10110101
10101001
10111001
10000001
11111111
NAME A2

SPR g
11111111
10000001
10110101
10000101
10100101
10110101
10000001
11111111
NAME B2

SPR h
11111111
10000001
10100001
10010001
10001001
10000101
10000001
11111111
NAME V2

SPR i
11111111
10000001
10000001
10000001
10000001
10000001
10000001
11111111
NAME S2

SPR k
00100100
00111100
01011010
00111100
00011000
00111100
01111110
11111111
>
00000000
00100100
00111100
01111110
00111100
00011000
00111100
01111110
NAME T1
DLG SPR_5
POS 4 2,7

SPR l
00100100
00111100
01011010
00111100
00011000
00111100
01111110
11111111
>
00000000
00100100
00111100
01111110
00111100
00011000
00111100
01111110
NAME T2
DLG SPR_7
POS 5 7,11

SPR m
00100100
00111100
01011010
00111100
00011000
00111100
01111110
11111111
>
00000000
00100100
00111100
01111110
00111100
00011000
00111100
01111110
NAME T3
DLG SPR_6
POS 6 12,8

SPR n
00000000
00000101
00001011
00001101
00000111
00111100
01111110
11111111
NAME T12

SPR o
00000000
00000000
00000000
01110000
11010000
10111100
11111111
11111111
NAME T22

SPR p
00000000
00000010
00000110
00001011
00001101
00110110
01110010
11111111
NAME T32

SPR q
01000010
00111100
01011010
00100100
00011000
00111100
01111110
11111111
>
00000000
01000010
00111100
01011010
00100100
00011000
00111100
01111110
NAME Mom
DLG SPR_8
POS 7 7,7

SPR r
00000000
00000000
01000010
00111100
00100100
00011000
00111100
01111110
>
00000000
00000000
00000000
01000010
00111100
00100100
00011000
00111100
NAME sis
DLG SPR_9
POS 7 8,8

SPR s
00000000
00000000
00100100
00111100
00100100
00011000
00111100
01111110
>
00000000
00000000
00000000
00100100
00111100
00100100
00011000
00111100
NAME bro
DLG SPR_a
POS 7 8,6

SPR t
00000000
00000000
00000000
00001010
00001110
00111111
01111110
11111111
NAME mom2

SPR u
00000000
00000000
00000000
00000000
00000001
00000110
01111010
11111110
NAME sis2

SPR v
00000000
00000000
00000000
00000000
00000000
00000111
01111010
11111111
NAME bro2

SPR w
00000000
00000000
00000000
00011111
01100000
10000000
10000110
10011111
NAME coffin
POS 4 3,3

SPR x
00000000
00000000
00000000
00000000
11111000
00000111
00000001
11110001
NAME coffin
POS 4 4,3

SPR y
10011111
10000110
10000000
11100000
11111111
11111111
00011111
00000000
NAME coffin
POS 4 3,4

SPR z
11110001
00000001
00001111
11111111
11111111
11110000
00000000
00000000
NAME coffin
POS 4 4,4

SPR 1a
00000000
00000000
00000000
00000000
00011111
11100000
10000000
10001111
NAME coffin 4
POS 7 12,7

SPR 1b
11111001
01100001
00000001
00000111
11111111
11111111
11111000
00000000
NAME coffin 4
POS 7 13,8

SPR 1c
10001111
10000000
11110000
11111111
11111111
00001111
00000000
00000000
NAME coffin 4
POS 7 12,8

SPR 1d
00000000
00000000
00111000
01111110
01111110
00100100
00000000
00000000
NAME toy 1
DLG SPR_c
POS 4 5,12

SPR 1f
00000000
00011000
00110100
00111100
00011101
00111101
00011110
00010100
NAME toy 2
DLG SPR_e
POS 4 7,13

SPR 1g
00000000
00000000
00011000
00111100
01101110
01111110
00111100
00011000
NAME toy 3
DLG SPR_d
POS 4 9,12

SPR 1h
10000001
00010000
01000010
00001000
01101010
00000000
01001000
00011100
NAME toy 4
DLG SPR_f
POS 6 8,12

SPR 1i
10001011
00000000
00100010
10001000
00100000
00100010
00000110
10010000
NAME toy 5
DLG SPR_g
POS 6 9,12

ITM 1
00000000
00001000
00011100
00001110
00010100
00100000
00000000
00000000
NAME hammer
DLG ITM_0

ITM 2
00000000
00000110
00000110
00001000
00010000
00100000
00000000
00000000
NAME hairpin
DLG ITM_1

ITM 3
00000000
00000000
00100100
00011000
00100100
00011000
00111100
00011000
NAME doll
DLG ITM_2

DLG SPR_1
"""
{
  - vial == 2 ?
    The glass may be broken, but the vial looks like it's back in the right place.
  - vial == 1 ?
    You place the vial in its case. {vial = 2}(image "SPR, vcase, V2")
  - else ?
    The glass of the case is broken, and the vial is missing.
}
"""

DLG SPR_2
"""
{
  - amulet == 2 ?
    The glass may be broken, but the amulet looks like it's back in the right place.
  - amulet == 1 ?
    You place the amulet in its case. {amulet = 2}(image "SPR, acase, A2")
  - else ?
    The glass of the case is broken, and the amulet is missing.
}
"""

DLG ITM_0
"""
Looks like the thieves left their hammer here. 
It was probably what they used to {clr2}break the glass.{clr2} {hammer = 1}
"""

DLG SPR_3
"""
{
  - Fam == 1 ?
    {shk}{clr2}The only monster present is the one holding the sword.{clr2}{shk}
  - k1 == 1 ?
    {shk}{clr2}You've gone too far to put the sword back now.{clr2}{shk}
  - k2 == 1 ?
    {shk}{clr2}How many more will you mercilessly slaughter?{clr2}{shk}
  - k3 == 1 ?
    {shk}{clr2}Are you satisfied yet?{clr2}{shk}
  - sword == 1 ?
    {clr2}The shards of glass are scattered across the red silk pillow, where there is a slight imprint of where the sword once was.{clr2}
  - hammer == 1 ?
    You smash open the glass and pick up the {clr2}jet black sword{clr2}. (imageNow "SPR, scase, S2")
    The sword feels attached to your hand...
    but you wouldn't want to put it down anyway. {sword = 1}
  - else ?
    The case contains a {clr2}jet black sword{clr2}.
    The glass looks like it could be broken with a {clr2}hammer{clr2}, possibly.
}
"""

DLG SPR_4
"""
{
  - bones == 2 ?
    The glass may be broken, but the bones look like they're back in the right place.
  - bones == 1 ?
    You place the bones in their case. {bones = 2}(image "SPR, bcase, B2")
  - else ?
    The glass of the case is broken, and the bones are missing.
}
"""

DLG SPR_5
"""
{
  - k1 == 1 ?
    {clr2}You rip the amulet from around the vampire's mangled neck.{clr2}{amulet = 1}
  - sword == 1 ?
    Hey!
    
    What do you think you're doing with that-
    {shk}AHHG!{shk}
    
    {clr2}You swing the sword and it slices halfway through the vampire's neck. He collapses into a heap.(image "SPR, T1, T12"){clr2} {k1 = 1}
  - amulet >= 1 ?
    OooOOooOh...
    
    Shiny stick...
  - {item "hairpin"} == 1 ?
    {rbw}WOAH WHAT'S THAT??!!{rbw}
    
    ...
    
    I'll trade you the amulet for that {rbw}{wvy}shiny stick.{wvy}{rbw}
    Here, take it. {amulet = 1}
    
    Now GIMMIE!!
  - else ?
    What?
    
    You're here to get the amulet that I stole?
    I...
    
    I don't wanna give it back.
    
    Maybe if you gave me something cool, I'd give it back.
}
"""

DLG SPR_6
"""
{
  - k3 == 1 ?
    {clr2}You pry the vial of blood from the vampire's cold, dead hands.{clr2}{vial = 1}
  - sword == 1 ?
    What's that you're-
    
    {shk}Oh no!
    
    Please! Spare me! Hel-{shk}
    
    {clr2}With a bloodcurdling cry, you stab the vampire in the heart and watch him fall to the ground.{clr2}(image "SPR, T3, T32"){k3 = 1}
  - vial >= 1 ?
    Scram!
    
    I'll leave when I get around to it.
  - else ?
    Oh!
    
    You want this vial of blood back?
    Sure, I can't get it open anyway. {vial = 1}
}
"""

DLG SPR_7
"""
{
  - k2 == 1 ?
    {clr2}You grab the small bat bones that fell out of the vampire's pocket.
    
    They are soaked with his blood.{clr2} {bones = 1}
  - sword == 1 ?
    Huh?
    
    {shk}What are you-
    
    Uhg-{shk}
    
    {clr2}You grip the vampire by the neck and slam the hammer on his head.(image "SPR, T2, T22")
    He falls to the ground and blood begins to pool around him.{clr2} {k2 = 1}
  - bones >= 1 ?
    Thanks for finding my hammer!
    
    Don't worry, I'll leave soon.
  - hammer == 2 ?
    Oh right, you want these bones back.
    Here you go. {bones = 1}
  - hammer == 1 ?
    Oh! You found my hammer! Thanks!
    {hammer = 2}
  - else ?
    Hm?
    
    You want these bones back?
    
    I lost my hammer somewhere...
    
    If you can get it back for me I'll give you these bat bones.
}
"""

DLG ITM_1
"""
It's...

a hairpin?

Whatever it is, it's sharp and shiny.
"""

DLG SPR_9
"""
{
  - sword == 1 ?
    {clr2}...{clr2}
  - else ?
    {clr1}If they steal my toys I'm gonna be mad!{clr1}
}
"""

DLG SPR_a
"""
{
  - sword == 1 ?
    {clr2}...{clr2}
  - doll == 1 ?
    You give the boy his doll back.
    
    He smiles a toothy smile, and wraps you in a big hug.
  - else ?
    {clr1}Oh!
    
    I left my doll...{clr1}
}
"""

DLG SPR_8
"""
{
- Fam == 1 ?
   {
     - else ?
       {clr2}{shk}These vampires had done nothing wrong.
But you killed them anyway.{shk}{clr2}
     - else ?}
- sword == 1 ?
   {
     - bones >= 1 ?
        {
           - amulet >= 1 ?
            {
               - vial >= 1 ?
                {  - else ?
 {clr1}W-what's that you have?{shk}

Wait!

You can kill me, but please leave my children alone!{shk}
AHH!{clr1}

{clr2}You use the sword to quickly cut down the three vampires.(image "SPR, Mom, mom2")(image "SPR, sis, sis2")(image "SPR, bro, bro2")
They all collapse, presumably dead.{clr2}{Fam = 1}
         - else ?}
                  }
            }
         }     
 - bones >= 1 ?
    {
   - amulet >= 1 ?
        {
          - vial >= 1 ?
             {
                - else ?
    {clr1}Thank you so much for helping get our stuff back!
If you haven't already, could you put them back in their cases in the main hallway?{clr1}
         - else ?}
     }
   }
    - else ?
       {clr1}Oh!
    
    Hello! I'm Drac's wife.
    
    Are you here to kick out the three vampires who wandered in?
    I gathered my children in this room so we would be safe.
    The thieves ran off down the hall on the left from here, into the children's rooms and the garden, I think.{clr1}}
"""

DLG SPR_0
"""
{
- Fam == 1 ?
   {
     - else ?
       {clr1}{shk}What have you done?

You...

YOU KILLED MY FAMILY!

How could anyone do such a thing..
YOU MONSTER!{shk}

...

Leave this place and never come back, before I kill you myself.{clr1}(end "{clr2}You leave the castle, reflecting on the monster you have become...{br}{br}The monster you have let yourself become.{br}ENDING 2/4: Monster Within{clr2})
                  - else ?}
- sword == 1 ?
   {
     - bones >= 1 ?
        {
           - amulet >= 1 ?
            {
               - vial >= 1 ?
                {  
                    - else ?
 {clr1}Ah! Thank you for getting our stuff back!
What happened to those ruffians?

...Dead?

Oh... I see.

I guess it had to be done...(end "You depart from the castle, carrying the reward that was given to you for your deed.{br}{br}However, you can't help but wonder if perhaps there was a different way to achieve the goal...{br}ENDING 3/4: Business As Usual")
                      - else ?}
             }
         }
     }   
 - bones >= 1 ?
    {
   - amulet >= 1 ?
        {
          - vial >= 1 ?
             {
                - else ?
    {clr1}So I see you've returned our things,I can't thank you enough for what you've done.

The thieves?

They'll get bored and leave eventually anyways.
If you ever come by here again, just know you are always welcome in our home!{clr1}(end "As you walk out of the castle, a swell of pride surges through your veins.{br}{br}The world seems a little less hopeless knowing that such friendly faces as Drac and his family live in the world.{br}ENDING 4/4: New Friends and New Hope") 
                 }
          }
     }
- bum == 3 ?
{clr1}You're not here to get rid of the vampires, are you?
Then get outta here you lazy bum!{clr1} (end "You walk out of the castle and return to your normal life, never knowing why you ever came to such a place.{br}The mystery surrounding the castle still confounds you to this day.{br}{br}Who were those people?{br}{br}Were they really vampires?{br}{br}Perhaps you'll never know...{br}{br}ENDING 1/4: Lazy Bum")
- bum == 2 ?
  {clr1}Wait a second...{clr1}{bum = 3}
- bum == 1 ?
   {clr1}Get to it!{clr1}{bum = 2}                 
-else ?
{clr1}Oh hello! I'm Drac.
    
    You're here to get rid of all these thief vampires in my house, right?
    
    They just walked right in!
    
    ...What?
    
    Of course {shk}I'm{shk} a vampire!
    
    I {shk}live{shk} here! The other guys just strolled in and stole my stuff!
    There's three of them hiding around the place.
    One stole my vial of blood, One stole my amulet, and One stole my bat bones.{clr1}{bum = 1}
}
"""

DLG SPR_b
"""
{
  - sword == 1 ?
    The cactus looks at you disapprovingly.
    If that's possible.
  - else ?
    The cactus seems...
    
    happy?
}
"""

DLG SPR_c
A toy car.

DLG SPR_e
Looks to be some kind of reptilian figurine standing on two legs.

DLG ITM_2
"""
You pick up the doll.

It has tiny fangs protruding from the mouth.{doll = 1}
"""

DLG SPR_d
A large rubber ball.

DLG SPR_f
"""
A bunch of small plastic blocks are spread across the floor.
It looks like they could fit on top of one another.
"""

DLG SPR_g
"""
A bunch of small plastic blocks are spread across the floor.
It looks like they could fit on top of one another.
"""

VAR sword
0

VAR bones
0

VAR amulet
0

VAR Fam
0

VAR hammer
0

VAR vial
0

VAR k1
0

VAR k2
0

VAR k3
0

VAR pin
0

VAR doll
0

VAR bum
0

