


# BITSY VERSION 4.8

! ROOM_FORMAT 1

PAL 0
NAME palette 0
73,140,255
31,33,61
125,255,105

PAL 1
0,0,0
255,147,134
255,228,84

PAL 2
253,175,242
255,28,55
0,0,0

ROOM 0
1u,1u,1u,1u,1u,1u,i,1u,i,1u,1u,1u,1u,i,1u,j
a,a,0,a,a,a,a,a,a,a,a,a,a,a,a,a
0,0,0,0,0,0,0,0,0,0,0,0,0,0,0,12
0,0,0,0,0,0,0,0,0,0,0,0,0,0,0,12
0,0,0,0,0,0,0,0,0,0,0,0,0,0,0,12
0,0,0,0,0,0,0,0,0,0,0,0,0,0,0,0
0,0,0,0,0,0,0,0,0,0,0,0,0,0,0,12
0,0,0,0,0,0,0,0,0,0,0,0,0,0,0,12
c,c,c,c,0,0,0,0,0,0,0,0,c,12,12,12
b,b,b,b,b,b,0,b,b,b,b,0,b,b,b,b
0,0,0,0,0,0,0,e,e,e,e,0,0,0,0,c
0,0,0,0,0,0,0,e,e,e,e,0,0,0,0,c
0,0,0,0,0,0,0,e,e,e,e,0,0,0,0,c
0,0,0,0,0,0,0,0,0,0,0,0,0,0,0,0
0,0,0,0,0,0,0,f,f,f,f,f,c,c,c,c
a,a,a,a,a,0,0,b,c,c,c,c,e,e,e,e
NAME level 0
ITM 0 2,1
EXT 14,15 1 14,0
EXT 13,15 1 13,0
EXT 12,15 1 13,0
EXT 11,15 1 14,0
EXT 10,15 1 10,0
EXT 0,15 1 0,0
EXT 1,15 1 1,0
EXT 2,15 1 2,0
EXT 3,15 1 3,0
EXT 4,15 1 4,0
EXT 5,15 1 5,0
EXT 6,15 1 6,0
EXT 7,15 1 7,0
EXT 8,15 1 8,0
EXT 9,15 1 9,0
PAL 0

ROOM 1
f,f,f,f,f,0,f,f,f,f,f,f,f,f,f,c
f,f,f,f,f,0,f,f,n,o,o,o,p,f,f,c
f,f,f,f,f,0,f,f,m,0,r,0,q,13,13,c
0,0,0,0,0,0,f,f,m,0,r,0,q,13,13,c
c,c,c,c,0,0,f,f,m,0,r,0,q,13,13,c
e,e,e,e,0,0,f,f,s,u,w,u,t,13,13,c
e,e,e,e,0,0,0,0,0,0,0,0,0,0,0,c
e,e,e,e,0,0,0,0,0,0,0,0,0,0,0,c
e,e,e,e,0,0,0,0,0,0,0,0,0,0,0,c
e,e,e,e,0,0,0,0,0,0,0,0,0,0,0,c
e,e,e,e,0,0,0,0,0,0,0,0,0,0,0,c
e,e,e,e,0,0,0,0,0,0,0,0,0,0,0,c
e,e,e,e,0,0,0,0,0,0,0,0,0,0,0,0
0,0,0,0,0,0,0,0,0,0,0,0,0,0,0,c
e,e,e,e,0,0,0,0,0,0,0,0,0,0,0,c
b,b,b,b,b,b,b,b,b,b,b,b,b,b,b,c
NAME level 1
EXT 11,0 0 11,15
EXT 12,0 0 12,15
EXT 0,0 0 0,15
EXT 1,0 0 1,15
EXT 2,0 0 2,15
EXT 3,0 0 3,15
EXT 4,0 0 4,15
EXT 5,0 0 5,15
EXT 6,0 0 6,15
EXT 7,0 0 7,15
EXT 8,0 0 8,15
EXT 9,0 0 9,15
EXT 10,0 0 10,15
EXT 14,0 0 14,15
EXT 13,0 0 13,15
EXT 15,12 2 0,12
EXT 10,5 4 7,15
PAL 0

ROOM 2
e,e,e,e,e,e,e,e,e,15,16,16,16,16,16,17
12,0,0,0,0,0,0,0,0,14,0,0,0,0,0,18
12,0,e,e,e,e,e,e,0,14,0,0,0,0,0,18
12,0,c,0,0,0,0,c,0,14,0,0,0,0,0,18
12,0,c,0,0,c,0,c,0,1a,1b,1d,1f,1e,1b,1c
12,0,c,0,c,c,0,c,0,0,0,0,0,0,0,b
12,0,c,0,c,0,0,c,0,0,0,0,0,0,0,b
f,0,0,0,c,0,0,c,0,0,0,0,0,0,0,b
f,c,c,0,c,0,e,e,e,e,0,0,12,0,0,b
f,c,c,0,c,0,c,0,c,c,0,0,12,0,0,b
f,c,c,0,c,0,c,0,c,c,12,12,12,0,0,b
f,c,c,0,c,0,0,0,d,d,0,0,12,0,0,b
0,0,0,0,e,e,e,e,e,0,0,0,0,0,0,b
f,e,e,e,e,0,0,0,0,0,0,0,0,0,0,b
f,0,0,0,e,0,0,0,0,0,0,0,0,0,0,0
f,e,e,e,e,e,e,e,e,e,e,e,e,e,e,e
NAME level 2
EXT 0,12 1 15,12
EXT 15,14 3 0,14
EXT 11,4 5 7,15
EXT 12,4 5 8,15
EXT 13,4 5 9,15
PAL 0

ROOM 3
e,e,e,e,e,e,e,e,e,e,e,e,e,e,e,e
e,0,0,0,0,0,0,0,0,0,0,0,0,0,0,d
e,0,13,13,13,13,13,13,13,13,13,13,0,d,0,d
e,0,e,e,e,e,e,e,e,e,e,e,0,d,0,d
e,0,f,f,f,f,f,f,f,f,f,f,0,d,0,d
e,0,d,d,d,d,d,d,d,d,d,d,0,d,c,d
e,0,0,0,0,0,0,d,d,d,d,d,d,d,0,d
e,0,h,h,h,h,0,d,d,d,d,0,0,0,0,d
e,0,h,0,0,h,0,e,0,e,e,0,h,h,0,d
e,0,h,0,0,h,0,e,0,e,0,0,h,h,0,d
e,0,h,0,h,h,0,e,0,e,0,0,h,h,0,d
e,0,h,0,h,h,0,e,0,e,0,h,h,h,0,d
e,0,h,0,h,h,0,e,0,e,0,h,0,0,0,d
e,0,h,0,0,0,0,e,0,e,0,h,0,0,0,d
0,0,h,h,h,h,0,0,0,0,0,h,0,0,0,d
e,c,c,c,c,c,c,c,c,c,c,c,c,c,c,c
NAME level 3
ITM 0 14,14
ITM 1 14,4
EXT 0,14 2 15,14
EXT 14,4 a 14,4
PAL 0

ROOM 4
z,z,z,z,z,z,z,z,z,z,z,z,z,0,z,z
z,0,0,z,z,0,z,0,z,z,z,0,0,0,z,0
0,0,0,0,0,0,0,0,0,0,0,0,0,0,0,0
y,y,y,y,y,y,0,0,0,y,y,y,y,y,y,y
x,x,x,x,x,x,0,0,0,x,x,x,x,x,x,x
y,y,y,y,y,y,0,0,0,y,y,y,y,y,y,y
x,x,x,x,x,x,0,0,0,x,x,x,x,x,x,x
0,0,0,y,y,y,0,0,0,y,y,y,y,y,y,y
0,0,0,0,0,0,0,0,0,x,x,x,x,x,x,x
0,0,0,y,y,y,0,0,0,y,y,y,y,y,y,y
0,0,0,x,x,x,0,0,0,x,x,x,x,x,x,x
y,y,y,y,y,y,0,0,0,y,y,y,y,y,y,y
x,x,x,x,x,x,0,0,0,x,x,x,x,x,x,x
y,y,y,y,y,y,0,0,0,y,y,y,y,y,y,y
x,x,x,x,x,x,0,0,0,x,x,x,x,x,x,x
y,y,y,y,y,y,y,0,y,y,y,y,y,y,y,y
NAME harveys
EXT 7,15 1 10,5
PAL 1

ROOM 5
0,0,0,0,0,0,0,0,0,0,0,0,0,0,0,y
0,0,0,y,y,f,f,f,f,f,f,f,f,y,0,y
0,0,0,y,y,c,c,c,c,c,c,c,c,y,y,y
0,y,y,y,0,0,0,0,0,0,0,0,0,0,0,y
0,y,y,y,0,y,1l,1m,1m,1m,1m,1m,1m,1n,0,y
0,y,y,y,0,y,1i,0,0,0,0,0,0,1k,0,y
0,y,y,y,0,y,1i,0,0,0,0,0,0,1k,0,y
0,y,y,y,0,y,1i,0,0,0,1k,y,0,1k,0,y
0,y,y,y,0,y,1i,0,0,0,1k,y,0,1k,0,y
0,0,0,0,0,y,1i,0,0,0,1k,y,0,1k,0,y
0,0,0,0,0,y,1i,0,0,0,1k,y,0,1k,0,y
0,0,0,0,0,y,1i,0,0,0,1k,y,0,1k,0,y
0,0,0,0,0,y,1i,0,0,0,1k,y,0,1k,0,y
0,0,0,0,0,y,1i,0,0,0,1k,y,0,0,0,y
0,0,0,0,0,y,1i,0,0,0,1k,y,0,0,0,y
0,0,0,0,0,y,1i,1g,1g,1g,1k,y,y,y,y,y
NAME hardfin cave
ITM 2 14,0
EXT 7,15 b 11,4
EXT 8,15 b 12,4
EXT 9,15 b 13,4
EXT 14,0 9 14,0
PAL 1

ROOM 6
e,e,e,e,e,e,e,e,e,15,16,16,16,16,16,17
12,0,0,0,0,0,0,0,0,14,0,0,0,0,0,18
12,0,e,e,e,e,e,e,0,14,0,0,0,0,0,18
12,0,c,0,0,0,0,c,0,14,0,0,0,0,0,18
12,0,c,0,0,c,0,c,0,1a,1b,1d,1f,1e,1b,1c
12,0,c,0,c,c,0,c,0,0,0,0,0,0,0,0
12,0,c,0,c,0,0,c,0,0,0,0,0,0,0,0
f,0,0,0,c,0,0,c,0,0,0,0,0,0,0,b
f,c,c,0,c,0,e,e,e,e,0,0,12,0,0,b
f,c,c,0,c,0,c,0,c,c,0,0,12,0,0,b
f,c,c,0,c,0,c,0,c,c,12,12,12,0,0,b
f,c,c,0,c,0,0,0,d,d,0,0,12,0,0,b
0,0,0,0,e,e,e,e,e,0,0,0,0,0,0,b
f,e,e,e,e,0,0,0,0,0,0,0,0,0,0,b
f,0,0,0,e,0,0,0,0,0,0,0,0,0,0,0
f,e,e,e,e,e,e,e,e,e,e,e,e,e,e,e
NAME level 2 (duplicate)
EXT 0,12 1 15,12
EXT 11,4 9 7,15
EXT 12,4 9 8,15
EXT 13,4 6 13,4
EXT 15,14 8 0,14
PAL 0

ROOM 8
e,e,e,e,e,e,e,e,e,e,e,e,e,e,e,e
e,0,0,0,0,0,0,0,0,0,0,0,0,0,0,d
e,0,13,13,13,13,13,13,13,13,13,13,0,d,0,d
e,0,e,e,e,e,e,e,e,e,e,e,0,d,0,d
e,0,f,f,f,f,f,f,f,f,f,f,0,d,0,d
e,0,d,d,d,d,d,d,d,d,d,d,0,d,c,d
e,0,0,0,0,0,0,d,d,d,d,d,d,d,0,d
e,0,h,h,h,h,0,d,d,d,d,0,0,0,0,d
e,0,h,0,0,h,0,e,0,e,e,0,h,h,0,d
e,0,h,0,0,h,0,e,0,e,0,0,h,h,0,d
e,0,h,0,h,h,0,e,0,e,0,0,h,h,0,d
e,0,h,0,h,h,0,e,0,e,0,h,h,h,0,d
e,0,h,0,h,h,0,e,0,e,0,h,0,0,0,d
e,0,h,0,0,0,0,e,0,e,0,h,0,0,0,d
0,0,h,h,h,h,0,0,0,1v,0,h,0,0,0,d
e,c,c,c,c,c,c,c,c,c,c,c,c,c,c,c
NAME level 3 duplicate
ITM 0 14,14
EXT 0,14 b 15,14
PAL 0

ROOM 9
0,0,0,y,y,y,y,y,y,y,y,y,y,y,0,y
0,0,0,y,y,f,f,f,f,f,f,f,f,y,0,y
0,0,0,y,y,c,c,c,c,c,c,c,c,y,0,y
0,y,y,y,0,0,0,0,0,0,0,0,0,0,0,y
0,y,y,y,0,y,1l,1m,1m,1m,1m,1m,1m,1n,0,y
0,y,y,y,0,y,1i,0,0,0,0,0,0,1k,0,y
0,y,y,y,0,y,1i,0,0,0,0,0,0,1k,0,y
0,y,y,y,0,y,1i,0,0,0,1k,y,0,1k,0,y
0,y,y,y,0,y,1i,0,0,0,1k,y,0,1k,0,y
0,0,0,0,0,y,1i,0,0,0,1k,y,0,1k,0,y
0,0,0,0,0,y,1i,0,0,0,1k,y,0,1k,0,y
0,0,0,0,0,y,1i,0,0,0,1k,y,0,1k,0,y
0,0,0,0,0,y,1i,0,0,0,1k,y,0,1k,0,y
0,0,0,0,0,y,1i,0,0,0,1k,y,0,0,0,y
0,0,0,0,0,y,1i,0,0,0,1k,y,0,0,0,y
0,0,0,0,0,y,1i,1g,1g,1g,1k,y,y,y,y,y
NAME hardin cave (duplicate)
EXT 7,15 d 11,4
EXT 8,15 d 12,4
EXT 9,15 d 13,4
PAL 1

ROOM a
e,e,e,e,e,e,e,e,e,e,e,e,e,e,e,e
e,0,0,0,0,0,0,0,0,0,0,0,0,0,0,d
e,0,13,13,13,13,13,13,13,13,13,13,0,d,0,d
e,0,e,e,e,e,e,e,e,e,e,e,0,d,0,d
e,0,f,f,f,f,f,f,f,f,f,f,0,d,0,d
e,0,d,d,d,d,d,d,d,d,d,d,0,d,c,d
e,0,0,0,0,0,0,d,d,d,d,d,d,d,0,d
e,0,h,h,h,h,0,d,d,d,d,0,0,0,0,d
e,0,h,0,0,h,0,e,0,e,e,0,h,h,0,d
e,0,h,0,0,h,0,e,0,e,0,0,h,h,0,d
e,0,h,0,h,h,0,e,0,e,0,0,h,h,0,d
e,0,h,0,h,h,0,e,0,e,0,h,h,h,0,d
e,0,h,0,h,h,0,e,0,e,0,h,0,0,0,d
e,0,h,0,0,0,0,e,0,e,0,h,0,0,0,d
0,0,h,h,h,h,0,0,0,0,0,h,0,0,0,d
e,c,c,c,c,c,c,c,c,c,c,c,c,c,c,c
NAME level 3 (post bell)
ITM 0 14,14
EXT 0,14 b 15,14
PAL 0

ROOM b
e,e,e,e,e,e,e,e,e,15,16,16,16,16,16,17
12,0,0,0,0,0,0,0,0,14,0,0,0,0,0,18
12,0,e,e,e,e,e,e,0,14,0,0,0,0,0,18
12,0,c,0,0,0,0,c,0,14,0,0,0,0,0,18
12,0,c,0,0,c,0,c,0,1a,1b,1d,1f,1e,1b,1c
12,0,c,0,c,c,0,c,0,0,0,0,0,0,0,0
12,0,c,0,c,0,0,c,0,0,0,0,0,0,0,0
f,0,0,0,c,0,0,c,0,0,0,0,0,0,0,b
f,c,c,0,c,0,e,e,e,e,0,0,12,0,0,b
f,c,c,0,c,0,c,0,c,c,0,0,12,0,0,b
f,c,c,0,c,0,c,0,c,c,12,12,12,0,0,b
f,c,c,0,c,0,0,0,d,d,0,0,12,0,0,b
0,0,0,0,e,e,e,e,e,0,0,0,0,0,0,b
f,e,e,e,e,0,0,0,0,0,0,0,0,0,0,b
f,0,0,0,e,0,0,0,0,0,0,0,0,0,0,0
f,e,e,e,e,e,e,e,e,e,e,e,e,e,e,e
NAME level 2 post bell
EXT 0,12 1 15,12
EXT 15,14 a 0,14
EXT 11,4 5 7,15
EXT 5,13 6 5,13
EXT 12,4 5 8,15
EXT 13,4 5 9,15
PAL 0

ROOM c
e,e,e,e,e,e,e,e,e,e,e,e,e,e,e,e
e,0,0,0,0,0,0,0,0,0,0,0,0,0,0,d
e,0,13,13,13,13,13,13,13,13,13,13,0,d,0,d
e,0,e,e,e,e,e,e,e,e,e,e,0,d,0,d
e,0,f,f,f,f,f,f,f,f,f,f,0,d,0,d
e,0,d,d,d,d,d,d,d,d,d,d,0,d,c,d
e,0,0,0,0,0,0,d,d,d,d,d,d,d,0,d
e,0,h,h,h,h,0,d,d,d,d,0,0,0,0,d
e,0,h,0,0,h,0,e,0,e,e,0,h,h,0,d
e,0,h,0,0,h,0,e,0,e,0,0,h,h,0,d
e,0,h,0,h,h,0,e,0,e,0,0,h,h,0,d
e,0,h,0,h,h,0,e,0,e,0,h,h,h,0,d
e,0,h,0,h,h,0,e,0,e,0,h,0,0,0,d
e,0,h,0,0,0,0,e,0,e,0,h,0,0,0,d
0,0,h,h,h,h,0,0,0,0,0,h,0,0,0,d
e,c,c,c,c,c,c,c,c,c,c,c,c,c,c,c
NAME level 3 found key
ITM 0 14,14
EXT 0,14 d 15,14
EXT 8,14 g 8,14
PAL 0

ROOM d
e,e,e,e,e,e,e,e,e,15,16,16,16,16,16,17
12,0,0,0,0,0,0,0,0,14,0,0,0,0,0,18
12,0,e,e,e,e,e,e,0,14,0,0,0,0,0,18
12,0,c,0,0,0,0,c,0,14,0,0,0,0,0,18
12,0,c,0,0,c,0,c,0,1a,1b,1d,1f,1e,1b,1c
12,0,c,0,c,c,0,c,0,0,0,0,0,0,0,0
12,0,c,0,c,0,0,c,0,0,0,0,0,0,0,0
f,0,0,0,c,0,0,c,0,0,0,0,0,0,0,b
f,c,c,0,c,0,e,e,e,e,0,0,12,0,0,b
f,c,c,0,c,0,c,0,c,c,0,0,12,0,0,b
f,c,c,0,c,0,c,0,c,c,12,12,12,0,0,b
f,c,c,0,c,0,0,0,d,d,0,0,12,0,0,b
0,0,0,0,e,e,e,e,e,0,0,0,0,0,0,b
f,e,e,e,e,0,0,0,0,0,0,0,0,0,0,b
f,0,0,0,e,0,0,0,0,0,0,0,0,0,0,0
f,e,e,e,e,e,e,e,e,e,e,e,e,e,e,e
NAME level 2 found key
EXT 15,14 c 0,14
EXT 11,4 9 7,15
EXT 12,4 9 8,15
EXT 13,4 9 9,15
PAL 0

ROOM e
f,f,f,f,f,0,f,f,f,f,f,f,f,f,f,c
f,f,f,f,f,0,f,f,n,o,o,o,p,f,f,c
f,f,f,f,f,0,f,f,m,0,r,0,q,13,13,c
0,0,0,0,0,0,f,f,m,0,r,0,q,13,13,c
c,c,c,c,0,0,f,f,m,0,r,0,q,13,13,c
e,e,e,e,0,0,f,f,s,u,w,u,t,13,13,c
e,e,e,e,0,0,0,0,0,0,0,0,0,0,0,c
e,e,e,e,0,0,0,0,0,0,0,0,0,0,0,c
e,e,e,e,0,0,0,0,0,0,0,0,0,0,0,c
e,e,e,e,0,0,0,0,0,0,0,0,0,0,0,c
e,e,e,e,0,0,0,0,0,0,0,0,0,0,0,c
e,e,e,e,0,0,0,0,0,0,0,0,0,0,0,c
e,e,e,e,0,0,0,0,0,0,0,0,0,0,0,0
0,0,0,0,0,0,0,0,0,0,0,0,0,0,0,c
e,e,e,e,0,0,0,0,0,0,0,0,0,0,0,c
b,b,b,b,b,b,b,b,b,b,b,b,b,b,b,c
NAME level 1 unlock
EXT 11,0 0 11,15
EXT 12,0 0 12,15
EXT 0,0 0 0,15
EXT 1,0 0 1,15
EXT 2,0 0 2,15
EXT 3,0 0 3,15
EXT 4,0 0 4,15
EXT 5,0 0 5,15
EXT 6,0 0 6,15
EXT 7,0 0 7,15
EXT 8,0 0 8,15
EXT 9,0 0 9,15
EXT 10,0 0 10,15
EXT 14,0 0 14,15
EXT 13,0 0 13,15
EXT 15,12 d 0,12
PAL 0

ROOM g
1w,1w,1w,1w,1w,1w,1w,1w,1w,1w,1w,1w,1w,1w,1w,1w
1w,1w,1w,1w,1w,1w,1w,1w,1w,1w,1w,1w,1w,1w,1w,1w
1w,1w,1w,1w,1w,1w,1w,1w,1w,1w,1w,1w,1w,1w,1w,1w
1w,1w,1w,1w,1w,1w,1w,1w,1w,1w,1w,1w,1w,1w,1w,1w
1w,1w,1w,1w,1w,1w,1w,1w,1w,1w,1w,1w,1w,1w,1w,1w
1w,1w,1w,1w,1w,1w,1w,1w,1w,1w,1w,1w,1w,1w,1w,1w
1w,1w,1w,1w,1w,1w,1w,1w,1w,1w,1w,1w,1w,1w,1w,1w
1w,1w,1w,1w,1w,1w,1w,1w,1w,1w,1w,1w,1w,1w,1w,1w
1w,1w,1w,1w,1w,1w,1w,1w,1w,1w,1w,1w,1w,1w,1w,1w
1w,1w,1w,1w,1w,1w,1w,1w,1w,1w,1w,1w,1w,1w,1w,1w
1w,1w,1w,1w,1w,1w,1w,1w,1w,1w,1w,1w,1w,1w,1w,1w
1w,1w,1w,1w,1w,1w,1w,1w,1w,1w,1w,1w,1w,1w,1w,1w
1w,1w,1w,1w,1w,1w,1w,1w,1w,1w,1w,1w,1w,1w,1w,1w
0,0,0,0,0,0,0,0,0,0,0,0,0,0,0,0
0,0,0,0,0,0,0,0,0,0,0,0,0,0,0,0
0,0,0,0,0,0,0,0,0,0,0,0,0,0,0,0
NAME final room
ITM 0 14,14
EXT 0,13 j 6,15
EXT 0,14 j 6,15
EXT 0,15 j 6,15
PAL 0

ROOM h
e,e,e,e,e,e,e,e,e,15,16,16,16,16,16,17
12,0,0,0,0,0,0,0,0,14,0,0,0,0,0,18
12,0,e,e,e,e,e,e,0,14,0,0,0,0,0,18
12,0,c,0,0,0,0,c,0,14,0,0,0,0,0,18
12,0,c,0,0,c,0,c,0,1a,1b,1d,1f,1e,1b,1c
12,0,c,0,c,c,0,c,0,0,0,0,0,0,0,0
12,0,c,0,c,0,0,c,0,0,0,0,0,0,0,0
f,0,0,0,c,0,0,c,0,0,0,0,0,0,0,b
f,c,c,0,c,0,e,e,e,e,0,0,12,0,0,b
f,c,c,0,c,0,c,0,c,c,0,0,12,0,0,b
f,c,c,0,c,0,c,0,c,c,12,12,12,0,0,b
f,c,c,0,c,0,0,0,d,d,0,0,12,0,0,b
0,0,0,0,e,e,e,e,e,0,0,0,0,0,0,b
f,e,e,e,e,0,0,0,0,0,0,0,0,0,0,b
f,0,0,0,e,0,0,0,0,0,0,0,0,0,0,0
f,e,e,e,e,e,e,e,e,e,e,e,e,e,e,e
NAME level 2 FINAL
EXT 0,12 1 15,12
EXT 15,14 3 0,14
EXT 11,4 5 7,15
EXT 12,4 5 8,15
EXT 13,4 5 9,15
PAL 0

ROOM i
f,f,f,f,f,0,f,f,f,f,f,f,f,f,f,c
f,f,f,f,f,0,f,f,n,o,o,o,p,f,f,c
f,f,f,f,f,0,f,f,m,0,r,0,q,13,13,c
0,0,0,0,0,0,f,f,m,0,r,0,q,13,13,c
c,c,c,c,0,0,f,f,m,0,r,0,q,13,13,c
e,e,e,e,0,0,f,f,s,u,w,u,t,13,13,c
e,e,e,e,0,0,0,0,0,0,0,0,0,0,0,c
e,e,e,e,0,0,0,0,0,0,0,0,0,0,0,c
e,e,e,e,0,0,0,0,0,0,0,0,0,0,0,c
e,e,e,e,0,0,0,0,0,0,0,0,0,0,0,c
e,e,e,e,0,0,0,0,0,0,0,0,0,0,0,c
e,e,e,e,0,0,0,0,0,0,0,0,0,0,0,c
e,e,e,e,0,0,0,0,0,0,0,0,0,0,0,0
0,0,0,0,0,0,0,0,0,0,0,0,0,0,0,c
e,e,e,e,0,0,0,0,0,0,0,0,0,0,0,c
b,b,b,b,b,b,b,b,b,b,b,b,b,b,b,c
NAME LEVEL 1 FINAL
EXT 11,0 0 11,15
EXT 12,0 0 12,15
EXT 0,0 0 0,15
EXT 1,0 0 1,15
EXT 2,0 0 2,15
EXT 3,0 0 3,15
EXT 4,0 0 4,15
EXT 5,0 0 5,15
EXT 6,0 0 6,15
EXT 7,0 0 7,15
EXT 8,0 0 8,15
EXT 9,0 0 9,15
EXT 10,0 0 10,15
EXT 14,0 0 14,15
EXT 13,0 0 13,15
EXT 15,12 2 0,12
EXT 10,5 4 7,15
PAL 0

ROOM j
1u,1u,1u,1u,1u,1u,i,1u,i,1u,1u,1u,1u,i,1u,j
a,a,0,a,a,a,a,a,a,a,a,a,a,a,a,a
0,0,0,0,0,0,0,0,0,0,0,0,0,0,0,12
0,0,0,0,0,0,0,0,0,0,0,0,0,0,0,12
0,0,0,0,0,0,0,0,0,0,0,0,0,0,0,12
0,0,0,0,0,0,0,0,0,0,0,0,0,0,0,0
0,0,0,0,0,0,0,0,0,0,0,0,0,0,0,12
0,0,0,0,0,0,0,0,0,0,0,0,0,0,0,12
c,c,c,c,0,0,0,0,0,0,0,0,c,12,12,12
b,b,b,b,b,b,0,b,b,b,b,0,b,b,b,b
0,0,0,0,0,0,0,e,e,e,e,0,0,0,0,c
0,0,0,0,0,0,0,e,e,e,e,0,0,0,0,c
0,0,0,0,0,0,0,e,e,e,e,0,0,0,0,c
0,0,0,0,0,0,0,0,0,0,0,0,0,0,0,0
0,0,0,0,0,0,0,f,f,f,f,f,c,c,c,c
a,a,a,a,a,0,0,b,c,c,c,c,e,e,e,e
NAME LEVEL 0, FINAL!
END undefined 2,2
PAL 2

ROOM k
1w,1w,1w,1w,1w,1w,1w,1w,1w,1w,1w,1w,1w,1w,1w,1w
1w,1w,1w,1w,1w,1w,1w,1w,1w,1w,1w,1w,1w,1w,1w,1w
1w,1w,1w,1w,1w,1w,1w,1w,1w,1w,1w,1w,1w,1w,1w,1w
1w,1w,1w,1w,1w,1w,1w,1w,1w,1w,1w,1w,1w,1w,1w,1w
1w,1w,1w,1w,1w,1w,1w,1w,1w,1w,1w,1w,1w,1w,1w,1w
1w,1w,1w,1w,1w,1w,1w,1w,1w,1w,1w,1w,1w,1w,1w,1w
1w,1w,1w,1w,1w,1w,1w,1w,1w,1w,1w,1w,1w,1w,1w,1w
1w,1w,1w,1w,1w,1w,1w,1w,1w,1w,1w,1w,1w,1w,1w,1w
1w,1w,1w,1w,1w,1w,1w,1w,1w,1w,1w,1w,1w,1w,1w,1w
1w,1w,1w,1w,1w,1w,1w,1w,1w,1w,1w,1w,1w,1w,1w,1w
1w,1w,1w,1w,1w,1w,1w,1w,1w,1w,1w,1w,1w,1w,1w,1w
1w,1w,1w,1w,1w,1w,1w,1w,1w,1w,1w,1w,1w,1w,1w,1w
1w,1w,1w,1w,1w,1w,1w,1w,1w,1w,1w,1w,1w,1w,1w,1w
0,0,0,0,0,0,0,0,0,0,0,0,0,0,1w,0
0,0,0,0,0,0,0,0,0,0,0,0,0,0,0,0
0,0,0,0,0,0,0,0,0,0,0,0,0,0,0,0
NAME FINAL FINAL ROOM
EXT 0,14 h 15,14
PAL 0

TIL 12
00000000
00000000
00000000
00000000
00000000
01010101
10101010
00000000
>
00000000
00000000
00000000
00000000
00000000
10101010
01010101
00000000
NAME ocean greenery 3
WAL true

TIL 13
00110000
00001000
00110100
00001010
01110100
00001010
00000100
00000010
>
00000000
00111000
00000100
00111010
00000100
01111010
00000100
00000010
NAME ocean greenery 2

TIL 14
10000000
10000000
10000000
10000000
10000000
10000000
10000000
10000000
NAME cave left
WAL true

TIL 15
00000000
00000000
00000000
00000111
00011000
01100000
10000000
10000000
NAME cave left top
WAL true

TIL 16
00000000
00000000
00000000
11111111
00000000
00000000
00000000
00000000
NAME cave top
WAL true

TIL 17
00000000
00000000
00000000
11100000
00011000
00000111
00000001
00000001
NAME cave top right
WAL true

TIL 18
00000001
00000001
00000001
00000001
00000001
00000001
00000001
00000001
NAME cave right
WAL true

TIL a
00000000
00000000
00000000
00100100
01001001
10010010
00000000
00000000
>
00000000
00000000
00000000
00010010
10100100
01001001
00000000
00000000
NAME wave
WAL true

TIL b
00000000
00000000
10101010
01010101
01010101
01010101
00000000
00000000
>
00000000
00000000
01010101
01010101
01010101
01010101
00000000
00000000
NAME seaweed
WAL true

TIL c
00000000
00000000
01111110
11101101
11011111
10111101
11111111
00000000
NAME rock
WAL true

TIL d
00000000
01010101
10101010
10101010
10101010
10101010
00000000
00000000
>
00000000
10101010
10101010
10101010
10101010
10101010
00000000
00000000
NAME seaweed2
WAL true

TIL e
10010010
10110110
11011011
10010010
10110110
11001011
10010010
10010010
>
10010010
10010010
10110110
11011011
10010010
10110110
11011011
10010010
NAME seaweed 3
WAL true

TIL f
00000000
00000000
00000000
10010000
01001000
00100100
01001000
10010000
>
00000000
00000000
00000000
00001001
00010010
00100100
01001000
10010000
NAME seaweed4

TIL h
00000000
00000000
00010000
00101000
01000100
10000010
00000001
00000000
>
00000000
00000000
00001000
00010100
00100010
01000001
10000000
00000000
NAME ocean greenery 1
WAL true

TIL i
00000000
00000000
00000000
00000000
11100111
00011000
00000000
00000000
>
00000000
00000000
10000001
01000010
00100100
00011000
00000000
00000000
NAME birds
WAL true

TIL j
01011010
00111100
00111100
11111111
00111100
00111100
01011010
00011000
>
01011010
00111100
00111100
11111111
00111100
00111100
01011010
00011000
NAME sun
WAL true

TIL m
01000000
01011111
01010101
01011111
01010101
01011111
01000000
01000000
NAME HOUSEside
WAL true

TIL n
00000111
00001100
00011111
00110000
01111111
01000000
01111111
01000000
NAME HOUSEroof
WAL true

TIL o
11111111
00000000
11111111
00000000
11111111
00000000
11111111
00000000
NAME HOUSEroof
WAL true

TIL p
11100000
00110000
11111000
00001100
11111110
00000010
11111110
00000010
NAME HOUSEroof
WAL true

TIL q
00000010
11111010
10101010
11111010
10101010
11111010
00000010
00000010
NAME HOUSEroof
WAL true

TIL r
00000000
01111100
01010100
01111100
01010100
01111100
00000000
00000000
NAME HOUSEmid
WAL true

TIL s
01000000
01000000
01000000
01000000
01000000
01000000
01000000
01111111
NAME HOUSEbotleft
WAL true

TIL t
00000010
00000010
00000010
00000010
00000010
00000010
00000010
11111110
NAME HOUSEright
WAL true

TIL u
00000000
00000000
00000000
00000000
00000000
00000000
00000000
11111111
NAME HOUSEbot
WAL true

TIL w
00000000
00011000
00100100
01000010
01011010
01011010
01000010
01000010
NAME HOUSEdoor

TIL x
11001100
11001100
00110011
00110011
11001100
11001100
00110011
00110011
NAME tile floor 1
WAL true

TIL y
01010101
10101010
01010101
10101010
01010101
10101010
01010101
10101010
NAME tile floor 2
WAL true

TIL z
10010100
01010010
10010001
01010100
10010010
01010001
10010100
01010010
NAME wallpaper
WAL true

TIL 1a
10000000
10000000
10000000
10000000
10000000
10000000
11010101
11111111
NAME cave bottom left
WAL true

TIL 1b
00000000
00000000
00000000
00000000
00000100
01000100
01010101
11111111
NAME cave bottom
WAL true

TIL 1c
00000001
00000001
00000001
00000001
00000101
01000101
01010101
11111111
NAME cave bottom right
WAL true

TIL 1d
00011111
00111011
01111111
11011111
11111111
11111111
11111111
11111111
>
00011111
00111111
01111111
11111111
11111111
11111011
11011111
11111111
NAME cave entrance left
WAL false

TIL 1e
11111000
11111100
11101110
11111111
11111111
11111111
11111111
11111111
>
11111000
11111100
11111110
11111111
11111111
11111111
11101111
11111111
NAME cave entrance right
WAL false

TIL 1f
11011101
11011101
11011111
11011111
11111111
11111111
11111111
11111111
NAME cave entrance

TIL 1g
00000000
00000000
00000000
00000000
00000000
00000000
11111111
11111111
NAME cave DOORMAT

TIL 1h
10000000
10000000
10000000
10000000
10000000
10000000
11111111
11111111
NAME cave
WAL true

TIL 1i
11000000
10000000
11000000
10000000
11000000
10000000
11000000
10000000
NAME cave
WAL true

TIL 1j
00000001
00000001
00000001
00000001
00000001
00000001
11111111
11111111
NAME cave

TIL 1k
00000011
00000001
00000011
00000001
00000011
00000001
00000011
00000001
NAME cave
WAL true

TIL 1l
11111111
10101010
11000000
10000000
11000000
10000000
11000000
10000000
NAME cave
WAL true

TIL 1m
11111111
01010101
00000000
00000000
00000000
00000000
00000000
00000000
NAME cave
WAL true

TIL 1n
11111111
01010101
00000011
00000001
00000011
00000001
00000011
00000001
NAME cave
WAL true

TIL 1o
00000000
00000000
00000000
00000000
00000000
00000000
01010101
11111111
NAME cave

TIL 1p
00000001
00000011
00000001
00000011
00000001
00000011
01010101
11111111
NAME cave

TIL 1q
10000001
11000011
10000001
11000011
10000001
11000011
10000001
11000011
>
10000001
11000011
10000001
11000011
10000001
11000011
10000001
11000011
NAME cave

TIL 1r
11111111
01010101
00000000
00001000
01010010
10100101
00000000
00000000
>
11111111
01010101
00000000
00100000
10100100
10100100
00000000
00000000
NAME cave crawlers

TIL 1s
00000000
00000000
00000000
00000000
00100000
01000100
10000100
00000000
>
00000000
00000000
00000000
00000000
00100000
00100000
11000100
00000000
NAME cave crawlers 2

TIL 1t
00000000
00000000
00000000
00000000
00000000
00000000
00000000
00000000

TIL 1u
00000000
00000000
00000000
00000000
00000000
00000000
00000000
00000000
WAL true

TIL 1v
11111111
10000001
10000001
10011001
10011001
10000001
10000001
10000001

TIL 1w
11111111
11111111
11111111
11111111
11111111
11111111
10111111
11111111
>
11111111
11111111
11111111
11111011
11111111
11111111
11111111
11111111
WAL true

SPR 10
00111000
00111100
00111000
00110010
00111110
00110000
00110000
00111000
>
00111000
00111100
00111000
00110100
00111100
00110000
00110000
00111000
NAME trainer MEAN
DLG SPR_q
POS 4 5,1

SPR 11
00000000
00111001
01100111
11010000
11000000
01100111
00111001
00000000
>
11111111
11000110
10011000
00101111
00111111
10011000
11000110
11111111
NAME fishMEAN
DLG SPR_r
POS 0 15,13

SPR 13
00000000
11000111
01011101
01010001
01110001
00000000
00000000
00000000
NAME eelFRIEND
DLG SPR_s
POS 6 7,13

SPR 14
11111111
10000001
10101001
10000001
11111111
00011000
00011000
00011000
NAME cave sign
DLG SPR_t
POS 2 10,5

SPR 15
00000000
01111111
01000001
01000001
01000001
01000001
01111111
00000000
>
00000000
01111111
01000001
01010001
01000001
01000001
01111111
00000000
NAME PONGleft
POS 5 2,13

SPR 16
00000000
11111110
10000010
10000010
10000010
10001010
11111110
00000000
>
00000000
11111110
10000010
10000010
10000010
10000010
11111110
00000000
NAME PONGright
POS 5 3,13

SPR 17
11000000
11011100
00111100
00011000
00001111
00001000
00010100
00100010
>
00000000
00011100
00011100
11111000
11001111
00001000
00010100
00100010
NAME pongplyrMEAN
DLG SPR_u
POS 5 4,13

SPR 18
01110000
01110000
00100000
11111000
00100110
01110110
01010000
11011000
>
01110000
01110110
00100110
11111000
00100000
01110000
01010000
11011000
NAME pongPLYRMEAN
DLG SPR_v
POS 5 1,13

SPR 20
00000000
00000000
00100000
01010001
10001110
00000000
00000000
00000000
>
00000000
11111111
11011111
10101110
01110001
11111111
00000000
00000000
POS b 8,13

SPR 21
10000001
10000001
10100101
10111101
10100101
11000011
01111110
00100100
>
00000000
11000011
10100101
10111101
10100101
11000011
01111110
00100100
DLG SPR_1e
POS d 3,3

SPR 22
10000001
10000001
10100101
10111101
10100101
11000011
01111110
00100100
>
00000000
11000011
10100101
10111101
10100101
11000011
01111110
00100100
DLG SPR_1f
POS d 5,6

SPR 24
11111111
10000001
10000001
10011001
10011001
10000001
10000001
10000001
POS 8 9,14

SPR 25
00000000
00110010
01001110
10100010
10000010
01001110
00110010
00000000
>
11111111
11001101
10110001
01011101
01111101
10110001
11001101
11111111
DLG SPR_1d

SPR 26
00000000
00110010
01001110
10100010
10000010
01001110
00110010
00000000
>
11111111
11001101
10110001
01011101
01111101
10110001
11001101
11111111
DLG SPR_1g
POS f 14,13

SPR 27
11111111
10000001
10000001
10000001
10011001
10011001
10000001
10000001
DLG SPR_1h
POS e 10,5

SPR 28
00011000
00100100
01011010
10000001
00100100
01011010
10000001
10111101
NAME weird blocker
DLG SPR_1i
POS e 5,0

SPR 29
01111110
11111111
11111111
00011000
00011000
00011000
00011000
00011000
DLG SPR_1j
POS d 0,12

SPR A
00111100
00111100
00111100
00011000
11111111
10111101
00100100
00100100
>
00111100
00111100
00111100
10011001
01111110
00111100
00100100
01000010
POS 0 0,1

SPR a
00000000
00000000
00000001
01111011
11011111
11111111
01111001
00000000
NAME fishFRIEND
DLG SPR_0
POS 0 15,5

SPR b
01111110
01011010
01011010
01111110
01100110
11111111
10101010
01010101
>
01111110
01011010
01011010
01111110
01100110
11111111
01010101
10101010
NAME octopusFRIEND
DLG SPR_3
POS 0 0,14

SPR c
00111100
01011010
11111111
11111111
01010101
10101010
00000000
00000000
>
00000000
00111100
01011010
11111111
11111111
10101010
01010101
00000000
NAME jellyfishFRIEND
DLG SPR_5
POS 1 0,3

SPR d
00111100
00111100
01111110
10011001
01111110
00011000
00011000
00100100
>
00111100
00111100
01111110
00011000
01111110
10011001
00011000
00011000
NAME girlfriendMAIN
DLG SPR_1
POS 0 2,1

SPR e
00000000
10000000
11111010
11101100
11111100
11111000
10000000
00000000
>
00000100
10000001
11111000
11101100
11111100
11111000
10000000
00000000
NAME bubblefishFRIEND
DLG SPR_4
POS 1 0,13

SPR f
00000000
00110010
01001110
10100010
10000010
01001110
00110010
00000000
>
11111111
11001101
10110001
01011101
01111101
10110001
11001101
11111111
NAME LightfishHERO
DLG SPR_6
POS 8 14,13

SPR g
00000011
11000110
11111100
11011000
00110000
01100000
00000000
00000000
>
00000101
11000110
11111100
11010100
00101000
01010000
00000000
00000000
NAME scubaFRIEND
DLG SPR_7
POS 1 13,8

SPR h
10000001
10000001
10100101
10111101
10100101
11000011
01111110
00100100
>
00000000
11000011
10100101
10111101
10100101
11000011
01111110
00100100
NAME crabFRIEND
DLG SPR_8
POS 2 3,3

SPR i
10000001
10000001
10100101
10111101
10100101
11000011
01111110
00100100
>
00000000
11000011
10100101
10111101
10100101
11000011
01111110
00100100
NAME CRAB2FRIEND
DLG SPR_9
POS 2 5,6

SPR j
00000000
00000000
00100000
01010001
10001110
00000000
00000000
00000000
>
00000000
11111111
11011111
10101110
01110001
11111111
00000000
00000000
NAME electricEElFRIEND
DLG SPR_a
POS 6 8,13

SPR k
00000000
00011000
00100100
01000010
01011010
01011010
01000010
01000010
NAME door

SPR l
00000000
00011000
00011000
11111111
00111100
00111100
00111101
00111111
>
01011010
10011001
01111110
00111100
00111100
00111100
10111100
11111100
NAME HARVEYmean
DLG SPR_b
POS 4 7,1

SPR m
00101000
00000000
10011111
10010101
11111111
11110101
11110001
11111111
>
00000000
00100000
10001111
10001101
11111111
11111011
11111000
11111111
NAME whaleFRIEND
DLG SPR_c
POS 0 0,6

SPR n
00001111
00011111
00111111
01111111
11111111
11111111
11111111
11111111
NAME COUCHleft
DLG SPR_f
POS 4 0,10

SPR o
11111111
11111111
11111111
11111111
11111111
11111111
11111111
11111111
NAME COUCHright
DLG SPR_g
POS 4 1,10

SPR p
11110000
11111000
11111100
11111110
11111111
11111111
11111111
11111111
NAME couch right
DLG SPR_h
POS 4 2,10

SPR q
00100100
00011000
00111100
00100100
00111100
01111110
01000010
01000010
NAME TV
DLG SPR_e
POS 4 1,7

SPR r
00000000
00101001
01000110
10000110
11111110
01111100
01101100
10110100
>
00000000
11001001
01000110
10000110
11111110
01111100
01101100
01011100
NAME catMAGIC
DLG SPR_d
POS 4 0,7

SPR s
11111111
10000001
10100001
10001001
10100001
10000001
11111111
00000000
NAME art
DLG SPR_i
POS 4 0,0

SPR t
00000000
00000000
00000000
00000000
11111111
10010000
10010000
11111111
>
00000000
00000000
00000000
00000000
11111111
10000010
10000010
11111111
NAME TMILLleft
DLG SPR_m
POS 4 11,1

SPR u
00000000
00000000
00000000
00000000
11111111
00010010
00010010
11111111
>
00000000
00000000
00000000
00000000
11111111
01001000
01001000
11111111
NAME TMILLmid
DLG SPR_l
POS 4 12,1

SPR v
00001110
00001110
00001110
00001110
11111110
00101010
00101010
11111110
>
00001110
00001110
00001110
00001110
11111110
01010010
01010010
11111110
NAME TMILLright
DLG SPR_k
POS 4 13,1

SPR w
00000000
00000000
01111111
01000001
01111111
00001110
00001110
00001110
NAME TMILLtop
DLG SPR_j
POS 4 13,0

SPR x
00000000
00000000
11111111
10000001
10011001
10011001
10000001
11111111
NAME safe
DLG SPR_n
POS 4 15,1

SPR y
00000000
11111111
11111111
01001001
11111111
11111111
01000010
01000010
NAME weights left
DLG SPR_o
POS 4 1,1

SPR z
00000000
11111111
11111110
00100100
11111110
11111111
00100010
00100010
NAME weights right
DLG SPR_p
POS 4 2,1

SPR 1a
00000000
00111001
01000101
10100011
10000011
01000111
00111001
00000000
NAME fishMEAN
DLG SPR_w
POS 5 4,10

SPR 1b
00000000
10000000
11000110
11111101
11111111
11001110
10001111
00000000
NAME hammerfishMEAN
DLG SPR_x
POS 5 2,10

SPR 1c
00000000
00000000
10111101
11100111
11111111
10111101
00011000
00000000
>
00000000
10000001
10111101
11100111
11111111
10111101
10011001
00000000
NAME HERMANmean
DLG SPR_y
POS 5 0,0

SPR 1d
00000000
11000111
01011101
01010001
01110001
00000000
00000000
00000000
NAME eelFRIENDdup
DLG SPR_z
POS 2 7,13

SPR 1e
00000000
00000000
00100000
01010001
10001110
00000000
00000000
00000000
>
00000000
11111111
11011111
10101110
01110001
11111111
00000000
00000000
NAME ELECTRICeelDUPE
DLG SPR_10
POS 2 8,13

SPR 1f
10000001
10000001
10100101
10111101
10100101
11000011
01111110
00100100
>
00000000
11000011
10100101
10111101
10100101
11000011
01111110
00100100
NAME crabFRIENDdupe
DLG SPR_11
POS b 3,3

SPR 1g
10000001
10000001
10100101
10111101
10100101
11000011
01111110
00100100
>
00000000
11000011
10100101
10111101
10100101
11000011
01111110
00100100
NAME crabFRIEND2dupe
DLG SPR_12
POS b 5,6

SPR 1h
11111111
10000001
10000001
10000001
10011001
10011001
10000001
10000001
DLG SPR_13
POS a 9,14

SPR 1i
00000000
01111111
01000001
01000001
01000001
01000001
01111111
00000000
>
00000000
01111111
01000001
01010001
01000001
01000001
01111111
00000000
POS 9 2,15

SPR 1j
00000000
11111110
10000010
10000010
10000010
10001010
11111110
00000000
>
00000000
11111110
10000010
10000010
10000010
10000010
11111110
00000000
POS 9 3,15

SPR 1k
11000000
11011100
00111100
00011000
00001111
00001000
00010100
00100010
>
00000000
00011100
00011100
11111000
11001111
00001000
00010100
00100010
DLG SPR_14
POS 9 4,15

SPR 1l
01110000
01110000
00100000
11111000
00100110
01110110
01010000
11011000
>
01110000
01110110
00100110
11111000
00100000
01110000
01010000
11011000
DLG SPR_15
POS 9 1,15

SPR 1m
00000000
00111001
01000101
10100011
10000011
01000111
00111001
00000000
DLG SPR_18
POS 9 4,12

SPR 1n
00000000
10000000
11000110
11111101
11111111
11001110
10001111
00000000
DLG SPR_17
POS 9 2,12

SPR 1o
00000000
00000000
10111101
11100111
11111111
10111101
00011000
00000000
>
00000000
10000001
10111101
11100111
11111111
10111101
10011001
00000000
DLG SPR_16
POS 9 0,0

SPR 1p
00010000
00111000
00010000
11111110
00111000
00111000
00111000
01101100
NAME guard 2
DLG SPR_1a
POS 2 12,5

SPR 1q
00000000
00000000
00000000
00010000
00111000
00010000
00010000
00101000
NAME guard 1
DLG SPR_19
POS 2 11,5

SPR 1r
00111100
00111100
10011001
11111111
00011000
00111100
00100100
00100100
NAME guard 3
DLG SPR_1b
POS 2 13,5

SPR 1s
00000000
00000000
00000000
00000000
00000000
00000000
00000000
00000000

SPR 1t
00000000
00110010
01001110
10100010
10000010
01001110
00110010
00000000
>
11111111
11001101
10110001
01011101
01111101
10110001
11001101
11111111

SPR 1u
00000000
00110010
01001110
10100010
10000010
01001110
00110010
00000000
>
11111111
11001101
10110001
01011101
01111101
10110001
11001101
11111111
POS a 14,13

SPR 1v
00000000
00110010
01001110
10100010
10000010
01001110
00110010
00000000
>
11111111
11001101
10110001
01011101
01111101
10110001
11001101
11111111
POS 3 14,13

SPR 1w
11111111
10000001
10000001
10000001
10011001
10011001
10000001
10000001
DLG SPR_1c
POS 3 9,14

SPR 1x
10000001
10000001
10100101
10111101
10100101
11000011
01111110
00100100
>
00000000
11000011
10100101
10111101
10100101
11000011
01111110
00100100

SPR 1y
00000000
00000000
00000000
00000000
00000000
00000000
00000000
00000000

SPR 1z
00000000
11000111
01011101
01010001
01110001
00000000
00000000
00000000
POS b 7,13

SPR 2a
11111111
10000001
10000001
10000001
10011001
10011001
10000001
10000001
POS c 9,14

SPR 2b
00000000
00000000
00000000
00000000
00000000
00000000
00000000
00000000

SPR 2c
00000000
00110010
01001110
10100010
10000010
01001110
00110010
00000000
>
11111111
11001101
10110001
01011101
01111101
10110001
11001101
11111111
POS g 14,13

SPR 2d
00000000
00110010
01001110
10100010
10000010
01001110
00110010
00000000
>
11111111
11001101
10110001
01011101
01111101
10110001
11001101
11111111
DLG SPR_1v
POS j 7,7

SPR 2e
00111100
00111100
01111110
10011001
01111110
00011000
00011000
00100100
>
00111100
00111100
01111110
00011000
01111110
10011001
00011000
00011000
DLG SPR_1k
POS j 2,1

SPR 2f
10000001
10000001
10100101
10111101
10100101
11000011
01111110
00100100
>
00000000
11000011
10100101
10111101
10100101
11000011
01111110
00100100
DLG SPR_1l
POS j 5,6

SPR 2g
00000000
00000000
00100000
01010001
10001110
00000000
00000000
00000000
>
00000000
11111111
11011111
10101110
01110001
11111111
00000000
00000000
DLG SPR_1m
POS j 5,5

SPR 2h
11000000
11011100
00111100
00011000
00001111
00001000
00010100
00100010
>
00000000
00011100
00011100
11111000
11001111
00001000
00010100
00100010
DLG SPR_1n
POS j 5,7

SPR 2i
00000000
00000000
00000000
00000000
00000000
00000000
00000000
00000000

SPR 2j
00000000
10000000
11000110
11111101
11111111
11001110
10001111
00000000
DLG SPR_1o
POS j 5,8

SPR 2k
00111000
00111100
00111000
00110010
00111110
00110000
00110000
00111000
>
00111000
00111100
00111000
00110100
00111100
00110000
00110000
00111000
DLG SPR_1p
POS j 5,4

SPR 2l
00000000
00011000
00011000
11111111
00111100
00111100
00111101
00111111
>
01011010
10011001
01111110
00111100
00111100
00111100
10111100
11111100
DLG SPR_1q
POS j 7,4

SPR 2m
00111100
01011010
11111111
11111111
01010101
10101010
00000000
00000000
>
00000000
00111100
01011010
11111111
11111111
10101010
01010101
00000000
DLG SPR_1r
POS j 7,5

SPR 2n
01111110
01011010
01011010
01111110
01100110
11111111
10101010
01010101
>
01111110
01011010
01011010
01111110
01100110
11111111
01010101
10101010
DLG SPR_1s
POS j 7,6

SPR 2o
00000000
00000000
10111101
11100111
11111111
10111101
00011000
00000000
>
00000000
10000001
10111101
11100111
11111111
10111101
10011001
00000000
DLG SPR_1t
POS j 7,8

SPR 2p
00000000
00110010
01001110
10100010
10000010
01001110
00110010
00000000
>
11111111
11001101
10110001
01011101
01111101
10110001
11001101
11111111
DLG SPR_1w
POS g 14,13

SPR 2q
00101000
00000000
10011111
10010101
11111111
11110101
11110001
11111111
>
00000000
00100000
10001111
10001101
11111111
11111011
11111000
11111111
DLG SPR_1x
POS j 0,3

SPR 2r
00000000
00110010
01001110
10100010
10000010
01001110
00110010
00000000
>
11111111
11001101
10110001
01011101
01111101
10110001
11001101
11111111
DLG SPR_1y
POS g 14,13

ITM 0
01111110
00111100
00011000
01111110
01000010
01000010
01111110
00000000
>
01111110
00111100
00011000
01111110
01000010
01000010
01111110
00000000
NAME ring
DLG ITM_0

ITM 1
00011000
00011000
00011000
00111100
01111110
01111110
01111110
01111110
NAME wine
DLG ITM_1

ITM 2
00000000
00000000
11111111
10100101
10100101
10000111
00000000
00000000
DLG ITM_2

DLG ITM_0
{wvy}You found it! Well, what are you waiting for, go propose!{wvy}

DLG SPR_2
I think I saw a piece of

DLG SPR_4
"""
{
  - {item "0"} == 1 ?
    Get air.
  - else ?
    Make sure you're going the "right" direction, bud.

    {wvy}After all, there is a current. {wvy}
}
"""

DLG SPR_5
"""
How 'ya gunna get down on one knee in the ocean, mate?

{wvy}*tsk *tsk{wvy}
"""

DLG SPR_1
"""
{
  - {item "0"} == 1 ?
    {sequence
      - {shk}(You propose){shk}
        Of course! Yes!
        (end)
        (end " But first, let's call the Guinness Book of World Records for the "Longest Held Breath"")


    }


  - else ?
    {sequence
      - A hold your breath contest? Um...okay, you first!
      - Hey, you're cheating!
    }
}
"""

DLG SPR_a
"""
{
  - {item "0"} == 1 ?
    You look like you're gunna pass out!
  - else ?
    Dah dah dah dah dah dah dah dah dah dah dah dah dah dah!

    It's electric!
}
"""

DLG SPR_b
"""
{sequence
  - Excuse me, you're interrupting my work out. Don't talk to me. Get out.
  - 45, 46, 47...

    48...wait. GAH!
  - You are on my property. I don't need to call the police. I run this town.
  - I don't know anything about any ring.
  - You imbecile! I DON'T HAVE YOUR RING!
}
"""

DLG SPR_c
"""
{
  - {item "0"} == 1 ?
    {sequence
      - I am gunna tape the proposal! I hope I go viral! I hope my video camera is waterproof! I hope a lot of things!
    }

  - else ?
    {sequence
      - Color, cut, clarity and CARAT!
    }

}
"""

DLG SPR_d
"""
{sequence
  - Meow.
  - Meoooow.
  - {wvy}Purrrrrr{wvy}
  - {shk}I can speak English.{shk}
  - Meow.
}
"""

DLG SPR_e
"""
{sequence
  - The Bachelor is on...turn it off?
  - It's so bad...
  - Must look away.
  - Can't look away?
  - You know he had Sarah in the suite right?!
}
"""

DLG SPR_f
A couch. Looks comfy.

DLG SPR_g
A couch. Looks comfy.

DLG SPR_h
A couch. Looks comfy.

DLG SPR_i
"""
{sequence
  - Modern art...what does it mean?
  - Seriously, it's three dots.
  - Is it symbolism? Or is it lazy?
  - Both?
}
"""

DLG SPR_j
"""
It's a dusty treadmill.
It's unplugged.
"""

DLG SPR_k
"""
It's a dusty treadmill.
It's unplugged.
"""

DLG SPR_l
"""
It's a dusty treadmill.
It's unplugged.
"""

DLG SPR_m
"""
It's a dusty treadmill.
It's unplugged.
"""

DLG SPR_n
"""
{sequence
  - It's a safe. It's locked.
  - You start to enter a combination...
  - That guy looks like he's gunna beat the crap out of you. Better not touch his safe...
  - Stop touching the safe.
  - {shk}Stop. Touching. This. Stranger's. Safe. {shk}
  - Cops are coming.
  - You're underwater. Cops may be a while.
  - Just stop.
}
"""

DLG SPR_o
"""
{sequence
  - Free weights. 10, 15, and 20 pounds.
  - Going for tone, not bulk.
}
"""

DLG SPR_p
"""
{sequence
  - Free weights. 10, 15, and 20 pounds.
  - Going for tone, not bulk.
}
"""

DLG SPR_q
"""
{sequence
  - Harvey is in training for the merman Olympics!
  - Go, go, go!
}
"""

DLG SPR_r
Back away.

DLG SPR_s
"""
{
  - {item "0"} == 1 ?
    This is my favorite part of the rom-com!
  - else ?
    I wish I was electric...
}
"""

DLG SPR_t
Hardfin Cave -- home of the Hardfin Society.

DLG SPR_u
"""
{sequence
  - Hardfin said the table was ours for the day.
  - Dude, you're not getting the table. We've got a tournament going on.
  - Why are you bugging us?

  - {shk}This is a 1 v. 1 game, bro!{shk}
  - {wvy}BACK AWAY!{wvy} Harvey said we can have the table.
  - DUDE!
}
"""

DLG SPR_v
"""
{sequence
  - Trying to concentrate.
  - Can't concentrate.
  - Stop bothering me.
  - Leave me alone.
  - {shk}Leave me alone.{shk}
  - Go.
  - Dude, you don't look so good. You might need to go up for some air.
}
"""

DLG SPR_w
"""
{sequence
  - So, I says to him, one at a time, I'm up to my gills with st---what?
  - Get out of here.
  - We're having a personal conversation.
}
"""

DLG SPR_x
"""
{sequence
  -Harvey told me he's got a bit of an operation going on, well, I guess more of a scam. What happens is other citi--back away little man! ...looks like you need some air.
  - You don't look so good. You lookin' all Smurfy.
}
"""

DLG SPR_y
"""
{sequence
  - This is Harvey's cave. He'll be back soon. He does not like visitors showing up unanounced.
  - I strongly suggest you leave, now.

  - {shk}I have not seen a ring.{shk}
}
"""

DLG SPR_0
"""
{
  - {item "0"} == 1 ?
    {sequence
      - You found it! Hope she says yes!

    }

  - else ?
    {sequence
      - What's that? {shk}You dropped something?!{shk} I'll keep an eye out!
    }

}
"""

DLG SPR_3
"""
{
  - {item "0"} == 1 ?
    {sequence
      - I told you I saw it go thattaway!
        {clr3}(He points in 8 directions...){clr3}
    }
  - else ?
    {sequence
      - I think I saw a big ol' ring go thattaway!

        {wvy}He points in 8 directions...{wvy}
    }
}
"""

DLG SPR_6
"""
{
  - {item "ring"} == 1 ?
    Go get em!
  - else ?
    {rbw}I found your ring!{rbw}
}
"""

DLG SPR_9
"""
{
  - {item "0"} == 1 ?
    Get out of the ocean! Dude! You look like you're gunna pass out!
  - else ?
    I'm a crab, like her!
}
"""

DLG SPR_8
"""
{
  - {item "0"} == 1 ?
    {shk}EGFHBUIWQFHGEBUINCWQFU! You found it!{shk}
  - else ?
    Of course! On the day I decide to shut down the {shk}Lost and Found{shk}...aw fish sticks...
}
"""

DLG SPR_7
"""
{
  - {item "0"} == 1 ?
    {shk}I found the ring!{shk} I mean...
    {shk}YOU FOUND THE RING!{shk}
  - else ?
    Have you seen a ring?

    Wait, that's what you're supposed to say.

    I meant to say...Hi. I'm Liam. I like scuba. :)
}
"""

DLG ITM_1
It's a bell! You ring it and call out, "SUPPERTIME!"

DLG SPR_z
(Hiccup)

DLG SPR_10
"""
{shk}I stop on red but I leave on amber
Danger paves my way{shk}
"""

DLG SPR_11
Crabs are friends, not food.

DLG SPR_12
You don't look so good...maybe you should get some air.

DLG SPR_13
It's locked!

DLG ITM_2
"""
You found a KEY! It made a platform move! Better leave, people look suspicious!

"""

DLG SPR_14
"""
{sequence
  - Hardfin's said the table was ours for the day.
  - Dude, you're not getting the table. We've got a tournament going on.
  - Why are you bugging us?

  - {shk}This is a 1 v. 1 game, bro!{shk}
  - {wvy}BACK AWAY!{wvy} Harvey said we can have the table.
  - DUDE!
}
"""

DLG SPR_15
"""
{sequence
  - Trying to concentrate.
  - Can't concentrate.
  - Stop bothering me.
  - Leave me alone.
  - {shk}Leave me alone.{shk}
  - Go.
  - Dude, you don't look so good. You might need to go up for some air.
}
"""

DLG SPR_16
"""
{sequence
  - This is Harvey's cave. He'll be back soon. He does not like visitors showing up unanounced.
  - I strongly suggest you leave, now.

  - {shk}I have not seen a ring.{shk}
}
"""

DLG SPR_17
"""
{sequence
  -Harvey told me he's got a bit of an operation going on, well, I guess more of a scam. What happens is other citi--back away little man! ...looks like you need some air.
  - You don't look so good. You lookin' all Smurfy.
}
"""

DLG SPR_18
"""
{sequence
  - So, I says to him, one at a time, I'm up to my gills with st---what?
  - Get out of here.
  - We're having a personal conversation.
}
"""

DLG SPR_19
We're here on guard until dinner time!

DLG SPR_1a
We're here until Mommmy says it's time for dinner!

DLG SPR_1b
MOM says spaghetti for dinner. I wanted Mac and Cheese...

DLG SPR_1c
{shk}It's locked!{shk}

DLG SPR_1d
I found your ring! Hooray!

DLG SPR_1e
Crabs are friends, not food.

DLG SPR_1f
You don't look so good...maybe you should get some air.

DLG SPR_1g
{shk}I found your ring!{shk}

DLG SPR_1h
It's locked now!

DLG SPR_1i
Go get your ring!

DLG SPR_1j
This tree says: get back out there and find your ring!

DLG SPR_1k
"""
{sequence
  - {shk}(You propose){shk}
    Of course! Yes!
    (end)
    (end " But first, let's call the Guinness Book of World Records for the "Longest Held Breath"")


}


"""

DLG SPR_1l
Go get her!

DLG SPR_1m
You got this!

DLG SPR_1n
Don't be nervous!

DLG SPR_1o
Good luck!

DLG SPR_1p
Go, go, go!

DLG SPR_1q
I'm mad that you touched my safe and took my key, bro...

DLG SPR_1r
YOU GOT THIS!

DLG SPR_1s
Shes over there! (Points in 8 directions)

DLG SPR_1t
Harvey's mad you touched his stuff...

DLG SPR_1u
She's gunna say yes!

DLG SPR_1v
"""
She's gunna say yes!

"""

DLG SPR_1w
Here's your ring!

DLG SPR_1x
I'm gunna tape the proposal! I hope I go viral! I hope my camera is waterproof! {shk}I hope a lot of things!{shk}

DLG SPR_1y
Here's your ring!

END 0


END undefined
Congratulations! She said yes! AND you received the record for longest held breath!

END undefinee



