adventures of a God

# BITSY VERSION 3.5

! ROOM_FORMAT 1

PAL 0
147,177,51
128,159,255
255,255,255

ROOM 0
0,0,0,0,0,0,0,0,0,0,0,0,0,0,0,0
0,a,a,a,a,a,a,a,a,a,a,a,a,a,a,0
0,a,0,0,0,0,0,0,0,0,0,0,0,0,a,0
0,a,0,a,0,0,a,0,a,0,a,0,0,0,a,0
0,a,0,a,0,0,a,0,a,0,a,0,0,0,a,0
0,a,0,0,a,0,0,a,0,a,0,0,0,0,a,0
0,a,0,0,a,a,0,0,0,0,0,0,0,0,a,0
0,a,0,0,0,a,0,0,0,0,0,0,0,0,0,0
0,a,0,0,a,0,0,0,a,a,a,0,0,0,a,0
0,a,0,0,a,a,a,0,0,0,a,0,0,0,a,0
0,a,0,0,a,0,0,0,0,0,a,0,0,0,a,0
0,a,0,0,a,0,0,0,0,0,a,0,0,0,a,0
0,a,0,0,a,a,a,a,a,a,a,0,0,0,a,0
0,a,0,0,0,0,0,0,0,0,0,0,0,0,a,0
0,a,a,a,a,a,a,a,a,a,a,a,a,a,a,0
0,0,0,0,0,0,0,0,0,0,0,0,0,0,0,0
WAL b,c
EXT 14,7 1 0,5
PAL 0

ROOM 1
0,0,0,0,0,0,0,0,0,0,0,0,0,0,0,0
0,0,0,0,a,a,0,0,0,0,0,0,0,0,0,0
0,0,0,0,a,0,a,0,0,0,0,0,0,0,0,0
0,0,0,0,a,0,0,a,0,0,0,0,0,0,0,0
0,0,0,0,a,0,0,0,a,0,0,0,0,0,0,0
0,0,0,0,a,0,0,0,0,a,0,0,0,0,0,0
0,0,0,0,a,0,0,0,0,0,a,0,0,0,0,0
0,0,0,0,a,0,0,0,0,0,0,a,0,0,0,0
0,0,0,0,a,0,0,0,0,0,0,0,a,0,0,0
0,0,0,0,a,0,0,0,0,0,0,0,0,a,0,0
0,0,0,0,a,0,0,0,0,0,0,0,0,0,a,0
0,0,0,0,a,0,0,0,0,0,0,0,0,0,0,a
0,0,0,0,a,0,0,0,0,0,0,0,0,0,0,0
0,0,0,0,a,0,0,0,0,0,0,0,0,0,0,0
0,0,0,0,a,a,a,a,a,a,a,a,a,a,a,0
0,0,0,0,0,0,0,0,0,0,0,0,0,0,0,0
EXT 15,13 2 0,7
PAL 0

ROOM 2
0,0,0,0,0,0,0,0,0,0,0,0,0,0,0,0
0,0,0,0,0,0,0,0,0,0,0,0,0,0,0,0
0,0,0,0,0,0,0,0,0,0,0,0,0,0,0,0
0,0,0,0,0,0,0,0,0,0,0,0,0,a,0,0
0,0,0,0,0,0,0,0,0,a,0,0,a,a,0,0
a,a,0,0,0,0,0,0,a,a,0,a,0,a,0,0
a,0,a,0,0,0,0,a,0,a,a,0,0,a,0,0
0,0,0,a,0,0,a,0,0,0,0,0,0,a,0,0
0,0,0,0,a,a,0,0,0,0,0,0,0,a,a,a
0,0,0,0,0,0,0,0,0,0,0,0,0,0,0,0
0,0,0,0,0,0,0,0,0,0,0,0,0,0,0,0
0,0,0,0,0,0,0,0,0,0,0,0,0,0,0,0
0,0,0,0,0,0,0,0,0,0,0,0,0,0,0,0
0,0,0,0,0,0,0,0,0,0,0,0,0,0,0,0
0,0,0,0,0,0,0,0,0,0,0,0,0,0,0,0
0,0,0,0,0,0,0,0,0,0,0,0,0,0,0,0
END undefined 8,13
PAL 0

TIL a
11111111
10000001
11111101
10011101
10011101
10000001
10000001
11111111

TIL c
11111111
00000001
11111101
11111101
11111101
11111101
00000001
11111111

SPR A
11011110
11011110
00011000
00111100
01111110
10111101
00111100
00111100
POS 0 8,9

SPR a
00000000
01100000
01110001
01110001
01110010
01111100
00111100
00111100

SPR b
00000000
00000000
00000000
00000000
00000000
00000000
00000000
00000000

SPR c
00000000
00000000
00000000
00000000
00000000
00000000
00000000
00000000

DLG a
I'm a cat

END 0


END undefined
this is the beginning of the end

