Milk

# BITSY VERSION 3.5

! ROOM_FORMAT 1

PAL 0
0,0,0
128,159,255
255,255,255

PAL 1
102,136,255
0,0,0
255,255,255

PAL 2
255,255,255
255,255,255
255,255,255

PAL 3
255,255,255
255,255,255
255,255,255

PAL 4
255,255,255
255,255,255
255,255,255

ROOM 0
22,0,d,0,0,0,0,0,0,0,0,0,0,0,0,0
22,0,b,d,c,0,0,0,0,0,0,0,0,0,0,0
22,0,d,d,0,0,0,0,0,0,0,0,0,0,0,0
22,0,0,0,0,0,0,0,0,0,0,0,0,0,0,0
5k,0,0,0,0,0,0,0,0,0,0,0,c,0,0,0
5j,0,0,0,0,0,0,0,0,0,d,b,d,0,0,0
22,0,c,d,0,0,0,0,0,d,c,0,0,0,0,0
22,d,d,0,0,0,0,0,0,0,0,0,0,0,0,d
n,n,n,n,m,n,n,n,n,n,n,n,n,n,n,n
f,f,f,f,f,f,f,f,f,f,f,f,f,f,f,f
i,i,i,i,h,i,i,i,i,i,i,i,i,i,i,i
j,j,j,j,j,j,j,j,j,j,j,j,j,j,j,j
k,k,k,k,k,k,k,k,k,k,k,k,k,k,k,k
0,0,0,0,0,0,0,0,0,0,0,0,0,0,0,0
0,0,0,0,0,0,0,0,0,0,0,0,0,0,0,0
l,0,l,0,l,0,l,0,l,0,l,0,l,0,l,0
WAL i,n,p,q,r,2p,22
EXT 0,5 1 15,5
PAL 0

ROOM 1
v,w,0,0,c,u,u,0,0,0,0,0,0,0,0,u
v,x,0,t,d,c,d,u,0,0,0,u,u,u,d,u
v,v,y,0,c,d,u,0,0,0,0,0,u,c,d,d
v,v,z,10,t,s,0,0,0,0,0,0,0,d,s,0
v,v,v,11,0,0,0,0,0,0,0,0,0,0,0,u
v,v,v,12,0,u,0,0,0,0,0,d,c,s,0,0
v,v,v,11,s,c,d,t,0,0,0,s,d,t,0,0
v,v,15,0,c,d,t,0,0,0,t,c,u,0,0,0
n,n,n,n,n,n,n,n,n,n,n,n,n,n,n,n
f,f,f,f,f,f,f,f,f,f,f,f,f,f,f,f
i,i,i,i,h,i,i,i,i,i,e,i,i,i,i,i
j,j,j,j,j,j,j,j,j,j,j,j,j,j,j,j
k,k,k,k,k,k,k,k,k,k,k,k,k,k,k,k
0,0,0,0,0,0,0,0,0,0,0,0,0,0,0,0
0,0,0,0,0,0,0,0,0,0,0,0,0,0,0,0
l,0,l,0,l,0,l,0,l,0,l,0,l,0,l,0
WAL i,n,p,q,r,2p
EXT 2,0 2 15,15
PAL 0

ROOM 2
1m,v,1u,0,s,t,d,t,0,t,0,1h,0,u,c,0
1l,1m,j,1t,0,0,0,u,c,0,1g,1e,1j,0,t,0
1m,1l,1m,v,1t,0,d,d,0,0,1k,1d,1i,0,0,0
v,1m,v,1l,j,1u,0,0,0,u,u,1c,c,t,0,s
v,v,1m,1m,v,v,1t,0,0,d,d,1c,s,d,0,0
v,v,v,1l,1m,v,v,1n,0,t,d,d,0,1h,u,0
v,v,v,v,v,1l,1m,1x,0,0,0,c,t,1e,0,0
v,v,v,v,v,20,1l,1x,0,0,d,s,1g,1d,1i,1e
v,v,v,v,v,21,v,1v,0,0,0,0,0,1c,1f,1d
v,v,v,v,v,v,v,1u,0,1y,0,0,0,1c,1g,1d
v,v,v,v,v,v,v,v,1u,0,0,0,d,0,0,1c
v,v,v,v,v,v,v,1m,1l,1u,0,0,d,c,t,0
v,v,v,v,v,v,v,v,v,1m,d,0,d,0,0,d
v,v,v,v,v,v,v,v,v,j,c,0,0,d,s,0
v,v,v,v,v,v,v,v,1l,j,j,1q,1n,0,0,c
v,v,v,v,v,v,v,1m,1m,j,j,v,1r,0,0,0
WAL 2p
EXT 3,0 4 5,15
PAL 0

ROOM 4
j,j,j,j,j,j,j,j,j,6f,6g,0,0,0,0,0
j,j,j,j,j,j,j,j,6f,6g,0,0,0,0,0,0
j,j,j,j,j,j,j,j,6f,6h,0,0,0,0,0,0
j,j,j,j,j,j,j,6f,6g,0,0,0,0,0,0,0
j,j,j,j,j,j,j,6f,6h,0,0,0,0,0,0,0
j,j,j,j,j,j,6f,6g,0,0,0,0,0,0,0,0
j,j,j,j,j,j,6f,6i,6e,6d,6d,6d,6d,6d,6d,6d
j,j,j,j,j,6f,2l,2k,2g,2j,2j,2j,2j,2j,2j,2j
j,j,j,j,j,j,6f,0,2i,0,0,0,0,0,0,0
j,j,j,j,j,6f,6f,6h,0,0,0,0,0,0,0,0
j,j,j,j,6f,6f,6g,0,0,0,0,0,0,0,0,0
j,j,j,j,6f,6g,0,0,0,0,0,0,0,0,0,0
j,j,j,j,6f,6i,0,0,0,0,0,0,0,0,0,0
j,j,j,6f,6f,6h,0,0,0,0,0,0,0,0,0,0
j,j,j,6f,6g,0,0,0,0,0,0,0,0,0,0,0
j,j,j,6f,6i,0,0,0,0,0,0,0,0,0,0,0
WAL 2p,6d,6e,6f
EXT 8,7 5 6,15
PAL 0

ROOM 5
0,0,0,0,0,2o,2r,2p,0,0,0,0,0,0,0,0
0,0,0,0,0,2o,2q,2p,0,0,0,0,0,0,0,0
0,0,0,0,0,2o,2r,2p,0,0,0,0,0,0,0,0
0,0,0,0,0,2o,2q,2p,0,0,0,0,0,0,0,0
0,0,0,0,0,2o,2r,2p,0,0,0,0,0,0,0,0
0,0,0,0,0,2o,2q,2p,0,0,0,0,0,0,0,0
0,0,0,0,0,2o,2q,2p,0,0,0,0,0,0,0,0
0,0,0,0,0,2o,2q,2p,0,0,0,0,0,0,0,0
0,0,0,0,0,2o,2r,2p,0,0,0,0,0,0,0,0
0,0,0,0,0,2o,2q,2p,0,0,0,0,0,0,0,0
0,0,0,0,0,2o,2r,2p,0,0,0,0,0,0,0,0
0,0,0,0,0,2o,2q,2p,0,0,0,0,0,0,0,0
0,0,0,0,0,2o,2r,2p,0,0,0,0,0,0,0,0
0,0,0,0,0,2o,2q,2p,0,0,0,0,0,0,0,0
0,0,0,0,0,2o,2r,2p,0,0,0,0,0,0,0,0
0,0,0,0,0,2o,2q,2p,0,0,0,0,0,0,0,0
WAL 2o,2p
EXT 6,0 6 6,15
PAL 0

ROOM 6
0,0,0,0,0,2o,2r,2p,0,0,0,0,0,0,0,0
0,0,0,0,0,2o,2q,2p,0,0,0,0,0,0,0,0
0,0,0,0,0,2o,2r,2p,0,0,0,0,0,0,0,0
0,0,0,0,0,2o,2q,2p,0,0,0,0,0,0,0,0
0,0,0,0,0,2o,2r,2p,0,0,0,0,0,0,0,0
0,0,0,0,0,2o,2q,2p,0,0,0,0,0,0,0,0
0,0,0,0,0,2o,2r,2p,0,0,0,0,0,0,0,0
0,0,0,0,0,2o,2q,2p,0,0,0,0,0,0,0,0
2t,2t,2t,2t,2t,2o,2r,2p,0,0,0,0,0,0,0,0
0,0,0,0,0,0,2q,2p,0,0,0,0,0,0,0,0
0,0,0,0,0,0,2r,2p,0,0,0,0,0,0,0,0
2s,2s,2s,2s,2s,2o,2q,2p,0,0,0,0,0,0,0,0
0,0,0,0,0,2o,2r,2p,0,0,0,0,0,0,0,0
0,0,0,0,0,2o,2q,2p,0,0,0,0,0,0,0,0
0,0,0,0,0,2o,2q,2p,0,0,0,0,0,0,0,0
0,0,0,0,0,2o,2r,2p,0,0,0,0,0,0,0,0
WAL 2o,2p,2s,2t
EXT 0,10 9 8,7
PAL 0

ROOM 7
34,0,0,32,0,0,0,35,j,6j,0,c,d,2x,2y,0
34,0,0,32,0,0,0,35,33,33,c,d,c,2y,2x,0
34,0,0,32,0,0,0,35,33,33,0,d,d,2x,2y,0
34,0,0,32,0,0,0,35,33,33,0,d,d,2y,2x,0
34,0,0,32,0,0,0,35,33,33,0,d,d,2x,2y,0
34,0,0,32,0,0,0,35,33,33,0,d,c,2y,2x,0
34,0,0,32,0,0,0,35,33,33,0,c,d,2x,2y,0
34,0,0,32,0,0,0,35,33,33,d,c,d,2y,2x,0
34,0,0,32,0,0,0,35,33,33,0,c,d,2x,2z,2t
34,0,0,32,0,0,0,35,33,33,c,0,0,2x,2y,0
34,0,0,32,39,3b,3a,35,33,33,0,d,d,2y,2y,0
34,0,0,32,3c,3d,3e,35,33,33,0,c,0,2x,31,2s
34,0,0,32,3f,3g,3h,35,33,33,0,0,c,2y,2x,0
34,0,0,32,3i,3j,3k,35,33,33,0,c,d,2x,2y,0
34,0,0,32,3l,3m,3n,35,33,33,0,d,c,2y,2x,0
34,0,0,32,0,0,0,35,33,33,0,d,0,2x,2y,0
EXT 8,0 8 15,13
PAL 0

ROOM 8
0,0,0,0,0,0,0,44,0,0,0,0,0,0,0,44
0,0,42,0,0,0,0,0,0,0,0,0,42,0,0,0
44,0,0,0,0,5f,0,0,0,0,0,0,0,0,0,0
0,0,0,0,0,0,0,0,0,44,0,0,0,0,0,0
0,0,0,43,0,0,0,0,0,0,0,0,0,0,43,0
0,42,0,0,58,59,5c,0,0,0,0,0,42,0,0,0
0,0,0,58,53,55,5a,5e,0,0,0,0,0,0,0,0
0,51,0,57,56,54,5b,5d,0,0,0,0,0,0,0,44
0,50,4x,4x,4y,52,0,0,0,0,0,0,0,0,0,0
0,4t,0,0,4s,52,0,0,0,0,46,45,45,45,45,47
0,4t,4w,4u,4s,52,0,0,0,0,4a,4h,4i,4j,49,4b
0,4q,4r,4o,4p,0,0,0,0,0,4c,4f,4g,4e,4e,4d
0,0,4l,0,0,0,0,0,0,0,0,4l,4m,0,0,0
41,41,41,41,41,41,41,41,41,41,41,41,41,41,41,41
0,0,0,0,0,0,0,0,0,0,0,0,0,0,0,0
0,0,0,0,0,0,0,0,0,0,0,0,0,0,0,0
EXT 0,13 d 7,15
PAL 0

ROOM 9
0,0,0,0,0,0,0,0,0,0,0,0,0,0,0,0
0,0,0,0,0,0,0,0,0,0,0,0,0,0,0,0
0,0,0,0,0,3q,3p,3p,3p,3p,3r,0,0,0,0,0
0,0,0,0,0,3s,0,0,0,0,3t,0,0,0,0,0
0,0,0,0,0,3s,0,0,0,0,3t,0,0,0,0,0
0,0,0,0,0,3s,0,0,0,0,3t,0,0,0,0,0
d,0,c,d,0,3s,0,0,0,0,3t,d,0,0,0,d
c,0,0,d,c,3v,3w,3y,3w,3y,3u,d,d,c,c,c
0,d,c,c,d,0,0,3z,0,3z,d,c,d,0,d,0
0,c,d,d,0,d,0,3z,0,3z,0,c,c,0,0,3z
c,0,0,d,c,0,0,3z,0,3z,d,d,c,0,0,0
d,c,c,0,0,0,0,3z,0,3z,0,0,0,d,c,d
0,0,d,0,c,0,0,3z,0,3z,0,0,d,0,0,0
c,d,0,0,0,0,0,3z,0,3z,0,c,0,c,3z,c
c,0,0,d,0,0,0,3z,0,3z,0,0,d,c,0,0
0,d,0,c,0,0,0,3z,0,3z,3z,3z,3z,0,c,c
WAL 3y,3z
EXT 8,8 7 14,10
PAL 0

ROOM b
64,65,5y,63,63,0,66,63,65,65,63,63,65,0,64,63
64,0,5w,63,63,5f,0,63,68,69,65,63,69,65,64,63
64,5y,5w,5y,63,0,67,63,0,65,63,5y,60,0,64,63
64,0,5w,63,63,66,0,63,5y,5w,63,60,60,5y,64,63
64,5y,5w,5y,63,0,0,63,0,5w,5y,60,5w,60,64,63
64,0,5v,63,63,0,60,63,5y,5w,63,5y,5v,5y,64,63
64,5y,5v,63,63,5y,5w,60,0,5v,63,63,5v,5y,64,63
64,0,5v,63,63,0,5w,63,0,5v,5y,63,5v,5w,64,63
64,66,5v,63,5q,5m,5n,5o,0,5v,63,0,5v,5w,64,0
64,0,62,5q,5l,0,0,5t,5p,5u,0,5y,5v,5v,64,0
64,0,5v,0,0,66,0,66,0,5v,0,5w,0,5v,64,0
64,0,5v,0,0,0,0,0,0,0,5y,5w,5y,5v,64,0
64,0,5v,0,0,0,66,0,0,0,0,5v,0,5v,64,0
64,0,0,66,0,0,0,0,0,0,0,5v,0,5v,64,0
64,0,0,0,0,0,0,0,0,0,0,0,0,0,64,0
64,0,0,0,0,0,0,0,0,0,0,0,66,0,64,0
EXT 6,9 c 7,15
PAL 0

ROOM c
0,0,0,0,0,0,0,0,0,0,0,0,0,0,0,0
0,0,0,0,0,0,0,0,0,0,0,0,0,0,0,0
0,0,0,0,0,0,0,0,0,0,0,0,6a,0,0,0
0,0,0,0,0,0,0,0,0,0,0,0,0,0,0,0
0,0,0,0,0,0,0,0,0,0,0,0,0,0,0,0
0,0,0,0,0,0,0,0,0,0,0,0,0,0,0,0
0,0,0,0,0,0,0,0,0,0,0,0,0,0,0,0
0,0,0,0,0,0,0,0,0,0,0,0,0,0,0,0
0,0,0,0,0,0,0,0,0,0,0,0,0,0,0,0
0,0,0,0,0,0,0,0,0,0,0,0,0,0,0,0
0,0,0,0,0,0,0,0,0,0,0,0,0,0,0,0
0,0,0,0,0,0,0,0,0,0,0,0,0,0,0,0
0,0,0,0,0,0,0,0,0,0,0,0,0,0,0,0
0,0,0,0,0,0,0,0,0,0,0,0,0,0,0,0
0,0,0,0,0,0,0,66,67,0,0,0,0,0,0,0
0,0,0,0,0,66,67,68,67,0,0,0,0,0,0,0
END undefinee 5,5
PAL 0

ROOM d
66,0,0,0,0,0,0,0,0,0,0,0,0,0,0,0
0,0,0,0,0,0,66,0,0,0,0,67,0,0,66,0
0,66,0,0,0,0,0,0,0,0,0,0,0,0,0,0
0,0,0,0,0,0,0,0,0,0,0,0,0,0,0,0
0,0,0,0,0,67,0,0,0,0,0,0,0,0,0,0
0,0,0,0,0,0,0,0,0,0,0,66,0,0,0,67
0,0,0,0,0,60,0,0,0,0,0,0,5y,0,0,0
0,0,0,60,60,5w,0,0,0,0,60,60,5w,60,0,0
0,0,60,5w,5y,5w,60,0,0,60,60,5y,5w,60,0,0
0,60,5y,5w,60,5w,60,0,0,5y,5w,60,5w,5y,0,0
0,0,60,69,60,5v,0,0,0,60,5v,60,5w,0,0,0
0,0,0,69,0,5v,0,0,0,0,5v,0,5v,0,0,0
0,0,0,69,0,5v,0,0,0,0,5v,0,5v,0,0,0
0,0,0,69,0,0,0,0,0,0,0,0,0,0,0,0
0,0,0,0,0,0,0,j,j,0,0,0,0,0,0,0
0,0,0,0,0,0,0,j,j,0,0,0,0,0,0,0
EXT 15,14 b 6,15
PAL 0

TIL 10
00000000
00000000
00000000
00000000
00000000
10000000
11000000
11100000

TIL 11
11100000
11100000
11100000
11100000
11100000
11100000
11000000
10000000

TIL 12
10000000
10000000
10000000
10000000
10000000
11000000
11100000
11100000

TIL 13
11100000
11100000
11100000
11000000
11000000
10000000
10000000
10000000

TIL 14
10000000
00000000
00000000
00000000
00000000
00000000
00000000
00000000

TIL 15
11111111
11111110
11111100
11111000
11110000
11100000
10000000
10000000

TIL 16
00000000
00000000
00000000
00000000
00000000
00000000
00000000
00000000

TIL 17
11100000
11100000
11100000
11100000
11100000
11100000
11000000
10000000

TIL 18
00000000
00000000
00000000
00000000
00000000
00000000
00000000
00000000

TIL 19
11111000
11110000
11100000
11000000
10000000
00000000
00000000
00000000

TIL 20
11100111
11000111
11110111
11110111
11100111
11000111
11000111
11100111
>
11100111
11100011
11110111
11110111
11100111
11000111
11000111
11100111

TIL 21
11110111
11110111
11110111
11111111
11111111
11111111
11111111
11111111

TIL 22
00010000
00010000
00010000
00010000
00010000
00010000
00010000
00010000

TIL 23
00010000
00010000
00010000
00010000
00000000
00000000
00000000
00010000

TIL 24
00000000
00000000
00000000
00000000
00000000
00000000
00000000
00000000

TIL 25
11111000
11110000
11110000
11100000
11000000
11000000
11000000
10000000

TIL 26
00000000
00000000
10000000
10000000
11100000
11110000
11111100
11111110

TIL 27
10000000
11000000
11100000
11100000
11110000
11111000
11111100
11111100

TIL 28
11111100
11111000
11111000
11111000
11111000
11111000
11111000
11111100

TIL 29
11111100
11111100
11111000
11111000
11111000
11111000
11110000
11110000

TIL 30
00000000
00000000
00000000
00000000
00000000
00000001
00000001
00000001

TIL 31
10000101
00000001
00100001
00000000
01000000
00000010
00100000
00000101

TIL 32
00000001
00000001
00000001
00000000
00000000
00000000
00000000
00000000

TIL 33
11111111
11111111
11111111
11111111
11111111
11111111
11111111
11111111

TIL 34
11010000
11010000
11010000
11010000
11010000
11010000
11010000
11010000

TIL 35
00000010
00000010
00000010
00000010
00000010
00000010
00000010
00000010

TIL 36
00000000
00000000
00000000
00000000
00000000
00000000
00000000
00000000

TIL 37
01000000
01000000
01000000
01000000
01000000
01000000
01000000
01000000

TIL 38
00010000
00010000
00010000
00010000
00010000
00010000
00010000
00010000

TIL 39
00111111
01111111
01111111
01111111
01111111
01111111
01111111
01111111

TIL 40
00011111
00011111
00011111
00011111
00011111
00011111
00011111
00011111

TIL 41
11111111
11111111
11111111
11111111
11111111
11111111
11111111
11111111

TIL 42
00000000
00000000
10000000
00000000
00000000
00000000
00000010
00000000

TIL 43
00000000
00000000
00010000
00000000
00000000
00000000
00100000
00000000

TIL 44
00000000
00000000
00000000
00000010
00000000
00000000
00000000
00000000

TIL 45
00000000
00000000
11111111
00000000
00000000
00000000
00000000
00000000

TIL 46
00000000
00000000
00000001
00000010
00000100
00001000
00010000
00100000

TIL 47
00000000
00000000
10000000
01000000
00100000
00010000
00001000
00000100

TIL 48
01111110
00000000
00000000
00000000
00000000
00000000
00000000
00000000

TIL 49
11111111
00000000
00000000
00000000
00000000
00000000
00000000
00000000

TIL 50
00000110
00000111
00001000
00010000
00100000
01000000
01111111
01111111

TIL 51
00000000
00000000
00000000
00000000
00000000
00000110
00000110
00000110

TIL 52
00011100
00011100
00011100
00011100
00011100
00011100
00011100
00011100

TIL 53
10000000
11001000
01101000
00110001
00111010
01001101
00010110
00000011

TIL 54
10000100
11000100
01100100
00110101
00011110
00011110
00011100
00011100

TIL 55
10001010
01010000
10100001
00010011
11001110
00100110
00011100
00000100

TIL 56
10010000
01011010
10010111
10111100
01001010
00010001
10100100
01101000

TIL 57
00000000
00010000
00000010
00001001
00100000
00001010
00000100
00100000

TIL 58
00000000
00100100
00000010
00010000
00101011
00010001
00000000
00000100

TIL 59
00000000
00000010
00010000
00101001
00000110
00100010
10010110
00000101

TIL 60
00001000
00101000
00010010
11001010
00010001
01100110
00100000
00001010

TIL 61
00000000
00000000
00000000
00000000
00000000
00000000
00000000
00000000

TIL 62
00110000
00110000
00110000
00110000
00110000
00110000
00110000
00110000

TIL 63
00010000
00010000
00010000
00010000
00010000
00010000
00010000
00010000

TIL 64
00011110
00011110
00011110
00011110
00011110
00011110
00011110
00011110

TIL 65
00100000
01101001
00110000
00111100
01100010
01011100
10100000
00000010

TIL 66
00000000
01000000
00000000
00000000
00000000
00000000
00000100
00000000

TIL 67
00000000
00000000
00000100
00000000
00000000
00000000
01000000
00000000

TIL 68
00000000
00000000
00000100
00000000
00000000
00000000
00000000
00000000

TIL 69
00110000
00110000
00110000
00110000
00110000
00110000
00110000
00110000

TIL a
11111111
10000001
10000001
10011001
10011001
10000001
10000001
11111111

TIL b
00000000
00111100
01111110
11000011
11000011
11000011
01111110
00111100

TIL c
00000000
00101001
00101001
01001001
01011010
01010010
10010100
00000000

TIL d
00000000
00000100
00010100
00110100
00101000
00101000
01001000
00000000

TIL e
10010010
01001001
00100100
10010010
01001001
00100100
10010010
11111111

TIL f
01001001
00100100
10010010
01001001
00100100
10010010
01001001
00100100

TIL g
10010010
01001001
00100100
10010010
01001001
00100100
10010010
11111111

TIL h
10010010
01001001
00100100
10010010
01001001
00100100
10010010
11111111

TIL i
10010010
01001001
00100100
10010010
01001001
00100100
10010010
11111111

TIL j
11111111
11111111
11111111
11111111
11111111
11111111
11111111
11111111

TIL k
11111111
11111111
11111111
11111111
11111111
11111111
00000000
00000000

TIL l
00000000
00000000
00000000
00000000
11110000
00000000
00000000
00000000

TIL m
00000000
00000000
11111111
10010010
01001001
00100100
10010010
01001001

TIL n
00000000
00000000
11111111
10010010
01001001
00100100
10010010
01001001

TIL o
00000000
00000000
00000000
00000000
00000000
00000000
00000000
00000000

TIL p
01111111
00111111
00011111
00001111
00000111
00000011
00000001
00000000

TIL q
00111111
00011111
00011111
00111111
00111111
00111111
00111111
00000011

TIL r
11111111
01111111
01111111
00011111
00000111
00000001
00000000
00000000

TIL s
00010000
00000000
01000100
00000000
00000001
00100000
00000000
00001000

TIL t
00000000
00000010
00100000
00000000
00000000
00000000
01000010
00000000

TIL u
00000010
01000000
00000000
00000000
00000010
00100000
00000000
00001000

TIL v
11111111
11111111
11111111
11111111
11111111
11111111
11111111
11111111

TIL w
10000000
10000000
10000000
11000000
11000000
11100000
11100000
11110000

TIL x
11110000
11110000
11111000
11111000
11111100
11111100
11111110
11111111

TIL y
00000000
00000000
10000000
10000000
11000000
11100000
11110000
11111000

TIL z
11111000
11111100
11111110
11111111
11111111
11111111
11111111
11111111

TIL 1a
11111100
11111000
11111000
11110000
11100000
11000000
11000000
10000000

TIL 1b
11111111
11111111
11111100
11111100
11111000
10000000
00000000
00000000

TIL 1c
00011000
00011000
00011000
00011000
00011000
00011000
00011000
00011000

TIL 1d
00011100
01011010
01111011
11011010
01111110
11011011
00011000
00011000

TIL 1e
00010000
00101000
00111100
01011100
01111010
10011111
11111001
01011000

TIL 1f
00000000
00000000
00000000
00100000
00000000
00000100
00000001
00000010

TIL 1g
00000010
00000011
00000100
10000000
00000001
00000010
00100101
00000000

TIL 1h
00000000
00001000
00000000
00000010
01000000
00000000
00001010
00011000

TIL 1i
00000000
00000000
10000000
00000010
10000000
01000000
01100100
10000000

TIL 1j
00000000
00000000
00000000
00000000
10000000
00000000
01000000
00000000

TIL 1k
00000000
00000100
00000001
01000001
00000011
01000011
00000110
00000000

TIL 1l
11111111
11010111
11010101
10101101
10101011
10101011
01001011
01011011

TIL 1m
11111111
11101101
11101101
11101011
11011011
10110111
10110111
11111111

TIL 1n
00000000
00000000
00000000
10000000
11000000
11000000
11100000
11110000

TIL 1o
11111000
11111100
11111110
11111110
11111111
11111111
11111111
11111111

TIL 1p
00000000
00000000
00000000
00000000
10000000
10000000
11000000
11100000

TIL 1q
11110000
11111100
11111110
11111111
11111111
11111111
11111111
11111111

TIL 1r
11111000
11111000
11111000
11111000
11111000
11111100
11111100
11111100

TIL 1s
11111100
11111100
11111100
11111110
11111111
11111111
11111111
11111111

TIL 1t
10000000
11000000
11100000
11110000
11111000
11111100
11111110
11111111

TIL 1u
11000000
11000000
11100000
11110000
11110000
11110000
11111000
11111100

TIL 1v
11111000
11111000
11111000
11111000
11110000
11100000
11000000
11000000

TIL 1w
11111000
11111000
11111000
11111000
11111000
11111000
11111000
11111000

TIL 1x
11111000
11111000
11111000
11111000
11111000
11111000
11111000
11111000

TIL 1y
00000000
00000000
00000000
00000000
00000000
00000000
00000000
00000000

TIL 1z
00000000
00000000
00000000
00000000
00000000
10000000
11000000
11100000

TIL 2a
11110000
11110000
11110000
11111000
11111000
11111100
11111100
11111100

TIL 2b
11111100
11111100
11111100
11111100
11111100
11111100
11111100
11111110

TIL 2c
11111110
11111100
11111100
11110000
11110000
11100000
11110000
11111110

TIL 2d
10000000
10000000
11000000
11000000
11100000
11100000
11110000
11111110

TIL 2e
00000000
00000000
10000000
11000000
11000000
11100000
11110000
11111000

TIL 2f
00000000
00000000
00000000
00000000
11000000
11100000
11111000
11111100

TIL 2g
00111111
00100000
11111111
00111111
01111111
11111111
11100000
00111111

TIL 2h
00000000
00000000
00000000
00000000
00000000
00000000
00110000
00110000

TIL 2i
00110000
00110000
00000000
00000000
00000000
00000000
00000000
00000000

TIL 2j
11111111
00000000
11111111
11111111
11111111
11111111
00000000
11111111

TIL 2k
00000000
00000000
00000011
00001110
11110010
10111111
00010001
00000000

TIL 2l
11111111
11111111
11111111
11111011
10101010
10010100
11001001
11111111

TIL 2m
00000000
00000000
00000000
00000000
00000000
00000000
00000000
00000000

TIL 2n
00000000
00000000
00000000
00000000
00000000
00000000
00000000
00000000

TIL 2o
10000000
10000000
10000000
10000000
10000000
10000000
10000000
10000000

TIL 2p
00000001
00000001
00000001
00000001
00000001
00000001
00000001
00000001

TIL 2q
00100000
00001000
00100000
00000100
00010000
00000000
00100000
00001000

TIL 2r
00001000
00100000
00001000
00000000
00000000
00001000
00100000
00000100

TIL 2s
11111111
00000000
00000000
00000000
00000000
00000000
00000000
00000000

TIL 2t
00000000
00000000
00000000
00000000
00000000
00000000
00000000
11111111

TIL 2u
00000000
00000000
00000000
00000000
00000000
00000001
00000001
00000001

TIL 2v
00000001
00000001
00000001
00000000
00000000
00000000
00000000
00000000

TIL 2w
10010001
01001010
10000000
00010101
01000000
00000100
01010001
10000100

TIL 2x
10000000
00100001
00000000
00010000
00000000
01000000
00001000
00000001

TIL 2y
01010001
00000100
01000101
00010000
00000010
01000100
00000001
01001000

TIL 2z
01000000
10000001
00001000
01000001
00000000
01001001
00000001
10010001

TIL 3a
11111100
11111110
11111110
11111110
11111110
11111110
11111110
11111110

TIL 3b
11111111
11000111
11111111
11111111
11111111
11111111
11111111
11111111

TIL 3c
01000100
01000100
01011111
01000000
01001110
01001110
01111111
01111111

TIL 3d
00000000
00000000
00000000
00000000
00000000
00000000
11111111
11111111

TIL 3e
00000010
00000010
00000010
00000010
01110010
01110010
11111110
11111110

TIL 3f
01111111
01111111
01111111
01111111
01111111
01111111
01111111
01111111

TIL 3g
11111111
11111111
11111111
11111111
11111111
11111111
11111111
11111111

TIL 3h
11111110
11111110
11111110
11111110
11111110
11111110
11111110
11111110

TIL 3i
01111111
01111111
01000000
01000000
01000000
01000000
01111111
01111111

TIL 3j
11111111
11111111
00000000
00000000
00000000
00000000
11111111
11111111

TIL 3k
11111110
11111110
00000010
00000010
00000010
00000010
11111110
11111110

TIL 3l
01000111
01111111
00110000
00000000
00000000
00000000
00000000
00000000

TIL 3m
11111111
11111111
00000000
00000000
00000000
00000000
00000000
00000000

TIL 3n
11100010
11111110
00000000
00000000
00000000
00000000
00000000
00000000

TIL 3o
10101010
01010101
10101010
01010101
10101010
01010101
10101010
01010101

TIL 3p
00000000
00000000
11111111
00000000
00000000
00000000
00000000
00000000

TIL 3q
00000000
00000000
00000001
00000010
00000100
00001000
00010000
00100000

TIL 3r
00000000
00000000
10000000
01000000
00100000
00010000
00001000
00000100

TIL 3s
00100000
00100000
00100000
00100000
00100000
00100000
00100000
00100000

TIL 3t
00000100
00000100
00000100
00000100
00000100
00000100
00000100
00000100

TIL 3u
00000100
00001000
00010000
00100000
01000000
10000000
00000000
00000000

TIL 3v
00100000
00010000
00001000
00000100
00000010
00000001
00000000
00000000

TIL 3w
00000000
00000000
00000000
00000000
00000000
11111111
00000000
00000000

TIL 3x
00000000
00000000
00000000
00000000
00000000
00000000
00000000
00000000

TIL 3y
00000000
00000000
00000000
00000000
00000000
11111111
00000000
00000000

TIL 3z
00000000
00000000
00000000
00000000
00000000
00000000
00000000
00000000

TIL 4a
01111111
01000000
01000000
01000000
01000000
01000000
01000000
01000000

TIL 4b
11111110
00000010
00000010
00000010
00000010
00000010
00000010
00000010

TIL 4c
01000000
01000000
01000000
01000000
01000000
01111111
01110000
01110000

TIL 4d
00000010
00000010
00000010
00000010
00000010
11111110
00001110
00001110

TIL 4e
00000000
00000000
00000000
00000000
00000000
11111111
00000000
00000000

TIL 4f
00001111
00001111
00001111
00001111
00001111
11111111
00100010
01001001

TIL 4g
11100000
11100000
11100000
11100000
11100000
11111111
10001000
01010000

TIL 4h
11111111
00000000
00001111
00001111
00001111
00001111
00001111
00001011

TIL 4i
11111111
00000000
11100000
11100000
11100000
11100000
11100000
11100000

TIL 4j
11111111
00000000
00000000
00011111
00010001
00010001
00010001
00011111

TIL 4k
00000000
00000000
00000000
00000000
00000000
00000000
00000000
00000000

TIL 4l
00000001
01000110
10010000
00001000
01000000
00010010
01000000
00010000

TIL 4m
00000001
01010000
00000100
00100000
00000000
10001001
01000100
00010000

TIL 4n
00000000
00000000
00000000
00000000
00000000
00000000
00000000
00000000

TIL 4o
10000000
10000000
10000000
10000000
10000000
11111111
00000001
00000001

TIL 4p
01000000
01000000
01000000
01000000
01000000
11000000
11000000
11000000

TIL 4q
00100000
00100000
00100000
00100000
00100000
00111111
00111000
00111000

TIL 4r
01000000
01000000
01000000
01000000
01000000
11111111
00000000
00000000

TIL 4s
01000000
01000000
01000000
01000000
01000000
01000000
01000000
01000000

TIL 4t
00100000
00100000
00100000
00100000
00100000
00100000
00100000
00100000

TIL 4u
10000000
10011111
10011111
10011111
10011111
10011111
10011111
10011111

TIL 4v
00000000
00000000
00000000
00000000
00000000
00000000
00000000
00000000

TIL 4w
01111111
01000000
01000000
01000000
01000000
01000000
01010000
01000000

TIL 4x
00000000
11111111
00000000
00000000
00000000
00000000
11111111
11111111

TIL 4y
00000000
00000000
10000000
01000000
00100000
00010000
11110000
11110000

TIL 4z
00000000
00000000
00000000
00000000
00000000
00000000
00000000
00000000

TIL 5a
10000000
00010000
01101000
01100010
10001000
00100000
01110100
10011000

TIL 5b
00001001
00000100
10010001
00001111
00011000
01110011
01001100
00000101

TIL 5c
00000000
00100000
01011000
00000000
11100000
00101010
01101000
11010010

TIL 5d
00000000
10000000
00000000
10100000
10000000
01010000
11000000
10101000

TIL 5e
00000000
00000000
01000000
00100000
10010000
01100000
10001000
01001001

TIL 5f
00000000
00011100
00110000
01100000
01100000
01100000
00110000
00011100

TIL 5g
00110000
01001000
10000100
01000010
00100001
00010001
00001010
00000100

TIL 5h
00000000
00000000
00000000
00000000
00000000
00000000
00000000
00000000

TIL 5i
00000000
00010000
00101000
01010000
00101000
00001100
00001110
00000000

TIL 5j
10000001
10000001
10000001
10000001
10000001
10000001
10000001
11111111

TIL 5k
11111111
10000001
10000001
10000001
10000001
10000001
10000001
10000001

TIL 5l
11111111
11111110
11111100
11111000
11110000
11100000
11000000
10000000

TIL 5m
00001111
01111111
11111111
11111111
11111000
11111000
11110000
10000000

TIL 5n
11100000
11111000
11111111
11111111
11111111
00111111
00000000
00000000

TIL 5o
00000000
00000000
11000000
11110000
11111000
11111100
01111110
00111111

TIL 5p
10000000
11000000
11000000
11000000
11100000
11110000
11111100
11111110

TIL 5q
00000000
00000000
00000011
00000111
00011111
00111111
01111111
11111111

TIL 5r
00000000
00000000
00000000
00000000
00000000
00000000
00000000
00000000

TIL 5s
00000000
00000000
00000000
00000000
00000000
00000000
00000000
00000000

TIL 5t
00011111
00001111
00000111
00000011
00000011
00000001
00000001
00000001

TIL 5u
00110000
00110000
00110000
00110000
00110000
00110000
00110000
00110000

TIL 5v
00110000
00110000
00110000
00110000
00110000
00110000
00110000
00110000

TIL 5w
10110100
01111000
10111100
00110000
01110110
10110101
00110000
00110000

TIL 5x
00000000
00000000
00000000
00000000
00000000
00000000
00000000
00000000

TIL 5y
00000011
00001010
00001010
00110100
00000010
00110100
11000001
00010100

TIL 5z
00000000
00000000
00000000
00000000
00000000
00000000
00000000
00000000

TIL 6a
00000000
00000000
00000000
00000000
00000000
00000000
00000000
00000000

TIL 6b
00011110
11011110
11111110
10111110
11011110
00111110
10011110
10011110

TIL 6c
00000001
00000011
00000111
00001111
00011111
00111111
01111111
11111111

TIL 6d
00000000
00000000
00000000
00000000
00000000
00000000
00000000
00000000

TIL 6e
00000000
00000000
00000000
00000000
00000000
00000000
00110000
00110000

TIL 6f
11111111
11111111
11111111
11111111
11111111
11111111
11111111
11111111

TIL 6g
11100000
11000000
11000000
10000000
00000000
00000000
00000000
00000000

TIL 6h
00000000
10000000
10000000
11000000
11000000
10000000
10000000
10000000

TIL 6i
10000000
10000000
10000000
11000000
10000000
10000000
11000000
10000000

TIL 6j
11111111
11111111
11111111
11111111
11111111
11111111
11111111
11111111

SPR 10
00000000
00000000
00100000
00000000
00000000
00000000
00000000
00000000
>
00000000
00000000
00000000
00010000
00000000
00000000
00000000
00000000
POS b 12,14

SPR 11
00000000
00000000
00000000
00000000
00000000
00100000
00000000
00000000
>
00000000
00000000
00000000
00000000
00010000
00000000
00000000
00000000
POS b 2,13

SPR 12
00000000
00101000
00111001
00111001
00011110
00011100
00011100
00000000
>
00000000
00101010
00111010
00111010
00011110
00011100
00011100
00000000
POS c 7,4

SPR A
00000000
00000000
01010001
01110010
01110010
00111100
00111100
00100100
>
00000000
00000000
01010001
01110001
01110011
00111100
00111100
00100100
POS 0 12,11

SPR a
00000000
00000000
01010001
01110001
01110010
01111100
00111100
00100100
POS 0 10,11

SPR b
00000000
10100000
11100011
11100010
01111010
01111010
01111010
01111100
>
00000000
10100000
11100110
11100010
01111010
01111010
01111010
01111100
POS 0 8,2

SPR c
00000000
01010000
01110000
01010011
00111101
00110101
00110110
00111110
>
00000000
01010000
01110001
01010001
00111101
00110101
00110110
00111110
POS 1 9,2

SPR d
00000000
01010000
01110000
00111001
00111010
00111100
00000000
00000000
>
00000000
01010000
01110000
00111010
00111010
00111100
00000000
00000000
POS c 6,6

SPR e
00000000
00000000
00000000
01010000
01110001
00111010
00111010
00111100
>
00000000
00000000
00000000
01010000
01110010
00111010
00111010
00111100
POS 1 8,1

SPR f
00000010
01010010
01110010
01111110
00111110
01010010
01010010
00010010
>
00000000
01010011
01110010
01111110
00111110
01010010
01010010
00010010
POS 2 12,8

SPR g
00000000
01010000
01110000
00100010
01110010
01110100
01110100
01111000
POS 7 12,8

SPR i
00000000
00000000
00000000
00000000
00000000
00000000
00000000
00111100
POS 7 6,9

SPR j
00000000
00000000
00000000
00000000
00000000
00000000
00000000
00111100
POS 7 4,9

SPR k
00000000
00000000
00111110
00111110
00111110
00111110
00111110
00000000
POS 8 13,10

SPR l
00001110
00000000
00000000
00000000
00000000
00000000
00000000
00000000
POS 8 1,12

SPR m
00000000
00111100
01111110
01111110
01111110
01111110
00111100
00000000
POS a 5,2

SPR n
10100001
11100001
11111110
01111100
01111100
01000100
01000100
00000000
POS 6 6,3

SPR o
00000000
01010000
01110000
00111001
00111010
00111100
00000000
00000000
>
00000000
01010000
01110000
00111010
00111010
00111100
00000000
00000000

SPR p
00000000
01010000
01110000
00111001
00111010
00111100
00000000
00000000
>
00000000
01010000
01110000
00111010
00111010
00111100
00000000
00000000

SPR q
00000000
01010000
01110000
00111001
00111010
00111100
00000000
00000000
>
00000000
01010000
01110000
00111010
00111010
00111100
00000000
00000000

SPR r
00000000
00000000
00000000
00000000
00000000
00000000
00000000
00000000

SPR s
11111111
10000001
10000001
10000001
11111111
00011000
00011000
00000000
POS d 11,13

SPR t
00000000
00000000
00000000
00111100
00111100
00000000
00000000
00000000
POS 0 1,4

SPR u
00000000
00000000
00000000
00000000
00000000
00000000
00000000
00000000

SPR v
00000000
01010000
01110000
00111001
00111010
00111100
00000000
00000000
>
00000000
01010000
01110000
00111010
00111010
00111100
00000000
00000000
POS c 5,4

SPR w
00000000
01010000
01110000
00111001
00111010
00111100
00000000
00000000
>
00000000
01010000
01110000
00111010
00111010
00111100
00000000
00000000
POS c 8,5

SPR x
00000000
01010000
01110000
00111001
00111010
00111100
00000000
00000000
>
00000000
01010000
01110000
00111010
00111010
00111100
00000000
00000000
POS c 4,5

SPR y
00000000
00000000
01010001
01110010
01110100
00111100
00111100
00111100
>
00000000
00000010
01010010
01110010
01110100
00111100
00111100
00111100
POS 1 10,1

SPR z
00000000
00000000
00100000
00000000
00000000
00000000
00000000
00000000
>
00000000
00000000
00000000
00010000
00000000
00000000
00000000
00000000
POS b 10,10

DLG 10
bzzzz

DLG 11
Bzzz

DLG 12
Milk! Mom! Mew!

DLG a
Looking for some grub? There's a hole in the fence around here somewhere.

DLG b
There's some good stuff in the dumpster tonight. Saw a rat over there earlier too. He ran underneath the dumpster.

DLG c
Good dumpstering tonight? Gotta get back to those little ones, huh? I know what that's like!

DLG d
Mew!

DLG e
Mew!

DLG f
There's some good frog hunting around here. Wanna join me? Oh, I see. Mine are all grown up now.

DLG g
There's some food at the second house up ahead.

DLG h
Eee! A cat! There's a way out up ahead on the left! Don't eat me!

DLG j
HONK!

DLG i
HONK!

DLG k
BARK! BARK! BARK! BARK!

DLG l
Food and water!

DLG n
HISSSSS!

DLG o
Mew!

DLG p
Mew!

DLG q
Mew!

DLG s
State Park - Caves >

DLG t
Food! Yum!

DLG v
Mew! Mom! Milk time!

DLG w
Mom! Mew! Milk!

DLG x
Mom! Mew! Milk!

DLG y
Mew!

DLG z
bzzzz

END 0


END undefined


END undefinee
Your babies are safe, fed, and happy! Good work, mom!

