
Palm Tree Blues

# BITSY VERSION 4.6

! ROOM_FORMAT 1

PAL 0
NAME Dark
171,43,204
5,251,255
66,255,20

PAL 1
NAME Light
199,98,255
254,255,10
3,255,241

PAL 2
22,150,255
21,255,238
255,234,49

PAL 3
255,93,102
255,236,2
3,255,234

PAL 4
NAME empty
255,255,255
0,0,0
0,0,0

PAL 5
0,0,0
227,255,4
4,253,255

PAL 6
255,255,255
255,255,255
255,255,255

ROOM 1
0,0,0,0,0,0,0,0,0,0,0,q,0,0,0,0
0,q,0,q,0,0,0,0,0,0,0,q,0,0,q,0
0,q,0,q,0,0,0,0,0,0,0,0,0,0,q,0
0,0,0,u,u,u,u,u,u,u,u,u,u,u,q,q
0,0,c,a,a,a,a,a,a,a,a,a,a,i,0,0
q,0,d,0,0,0,0,0,0,0,0,0,0,h,q,q
q,0,d,0,p,o,0,0,0,0,0,0,0,h,0,q
0,q,d,0,m,l,n,0,0,0,0,0,0,h,q,q
0,q,d,0,0,k,0,0,0,0,0,0,0,h,q,q
0,q,d,0,0,k,0,0,0,0,0,0,0,h,q,q
0,0,d,0,0,k,0,0,0,0,0,0,0,h,0,q
0,0,d,0,0,k,0,0,0,0,0,0,0,h,0,0
0,0,e,f,f,f,f,f,f,f,f,f,f,g,0,0
0,0,0,0,0,0,0,0,0,0,0,0,0,0,0,0
0,0,0,0,0,0,0,0,0,0,0,0,0,0,0,0
0,0,0,0,0,0,0,0,0,0,0,0,0,0,0,0
NAME Title Screen
PAL 0

ROOM 2
q,q,q,q,q,q,q,q,q,q,q,q,q,q,q,q
q,q,q,q,q,q,q,q,q,q,q,q,q,q,q,q
q,q,q,q,q,u,q,0,0,0,0,q,q,q,q,q
q,q,q,q,q,u,u,u,u,u,u,0,q,q,q,q
q,q,q,q,q,13,18,18,18,18,17,0,q,q,q,q
q,u,u,q,q,1b,1c,1d,1e,1f,1a,0,q,q,q,q
q,p,o,u,q,14,15,15,15,15,16,0,q,q,q,q
q,m,l,n,q,w,w,12,w,0,4c,0,q,q,q,q
q,w,k,w,q,0,0,12,0,0,4c,0,q,q,q,q
q,0,k,0,q,0,0,12,0,0,4c,0,q,q,q,q
0,0,k,0,0,0,0,12,0,0,4c,0,q,q,q,q
u,0,j,0,0,0,0,12,0,0,4c,0,u,u,u,0
v,v,v,v,v,v,v,v,v,v,v,v,v,v,v,v
0,0,0,0,0,0,0,0,0,0,0,0,0,0,0,0
0,0,0,0,0,0,0,0,0,0,0,0,0,0,0,0
0,0,0,0,0,0,0,0,0,0,0,0,0,0,0,0
ITM 1 4,11
EXT 7,3 a 7,3
PAL 0

ROOM 3
0,0,0,0,0,0,0,0,0,0,0,0,0,0,0,0
0,0,0,0,0,0,0,0,0,0,0,0,0,0,0,0
0,0,0,0,0,0,0,0,0,0,0,0,0,0,0,0
0,0,0,0,0,0,0,0,0,0,0,p,o,0,0,0
0,0,p,o,0,0,0,0,0,0,0,m,l,n,0,0
0,0,0,l,n,0,0,0,0,0,0,0,k,0,0,0
0,0,0,0,0,0,p,o,0,0,0,0,k,0,0,0
0,0,0,k,0,0,m,l,n,0,0,0,k,0,0,0
0,0,0,k,0,0,0,k,0,0,0,0,k,0,0,0
0,0,0,k,0,0,0,k,0,0,0,0,k,0,0,0
0,0,0,j,0,0,0,j,0,0,0,0,j,0,0,0
v,v,v,v,v,v,v,v,v,v,v,v,v,v,v,v
0,0,0,0,0,0,0,0,0,0,0,0,0,0,0,0
0,0,0,0,0,0,0,0,0,0,0,0,0,0,0,0
0,0,0,0,0,0,0,0,0,0,0,0,0,0,0,0
0,0,0,0,0,0,0,0,0,0,0,0,0,0,0,0
NAME empty
EXT 3,10 f 3,10
PAL 4

ROOM 4
q,q,q,q,q,q,q,q,q,q,q,q,q,q,q,q
q,q,q,q,q,1u,1v,1v,1v,1v,1v,1v,q,q,q,q
q,q,q,q,q,1t,0,0,0,0,0,1w,q,q,q,0
q,q,q,q,q,1t,0,20,21,22,23,1w,q,q,q,q
q,q,q,q,q,1s,1q,0,24,27,28,1w,0,p,o,0
q,q,q,q,q,q,1r,1p,25,26,24,1w,0,m,l,n
0,0,0,1n,1l,1i,1i,1y,1z,1i,1i,1x,1m,1o,k,0
0,0,0,0,1k,0,0,0,0,0,0,0,1g,0,k,0
0,0,0,0,1k,0,29,0,29,0,29,0,1g,0,k,0
0,0,0,0,1k,0,0,0,0,0,0,0,1g,0,k,0
0,0,0,0,1k,0,0,0,0,0,0,0,1g,0,j,0
v,v,v,v,v,v,v,v,v,v,v,v,v,v,v,v
0,0,0,0,0,0,0,0,0,0,0,0,0,0,0,0
0,0,0,0,0,0,0,0,0,0,0,0,0,0,0,0
0,0,0,0,0,0,0,0,0,0,0,0,0,0,0,0
0,0,0,0,0,0,0,0,0,0,0,0,0,0,0,0
NAME cafe
PAL 1

ROOM 5
0,0,0,0,0,0,0,0,0,0,0,0,0,0,0,0
0,0,0,0,0,0,0,0,0,0,0,0,0,0,0,0
a,a,a,a,a,a,a,a,a,a,a,a,a,a,a,a
0,0,0,15,15,15,15,15,0,0,0,15,2d,2d,2d,0
0,0,2e,q,q,q,q,q,2f,0,2e,q,q,q,q,2f
0,0,2e,q,q,q,q,q,2f,0,2e,q,q,q,q,2f
0,0,2e,q,q,q,q,q,2f,0,2e,q,q,q,q,2f
4n,0,2e,q,q,q,q,q,2f,0,2e,q,q,q,q,2f
3x,4n,4o,q,q,q,q,q,2f,0,2e,q,q,q,q,2f
3y,0,0,2b,2b,2b,2b,2b,0,0,0,2b,2b,2b,2b,0
2g,2g,2g,2g,2g,2g,2g,2g,2g,2g,2g,2g,2g,2g,2g,2g
a,a,a,a,a,a,a,a,a,a,a,a,a,a,a,a
0,0,0,0,0,0,0,0,0,0,0,0,0,0,0,0
0,0,0,0,0,0,0,0,0,0,0,0,0,0,0,0
0,0,0,0,0,0,0,0,0,0,0,0,0,0,0,0
0,0,0,0,0,0,0,0,0,0,0,0,0,0,0,0
NAME Hallway
ITM 2 2,9
EXT 15,9 6 3,9
EXT 0,9 9 12,6
PAL 2

ROOM 6
0,0,0,0,0,0,0,0,0,0,0,0,0,0,0,0
0,0,0,0,0,0,0,0,0,0,0,0,0,0,0,0
0,0,0,0,0,0,0,0,0,0,0,0,0,0,0,0
0,0,0,0,0,0,0,0,0,0,0,0,0,0,0,0
0,0,c,a,a,a,a,a,a,a,a,a,a,i,0,0
0,0,d,0,2d,2d,0,0,0,0,0,0,0,h,0,0
0,0,d,2e,q,q,2f,0,0,2j,2k,2l,0,h,0,0
0,0,d,2e,q,q,2f,0,0,2i,2m,2n,0,h,0,0
0,0,d,2e,q,q,2f,0,2o,2i,2m,2n,0,h,0,0
0,0,d,0,2b,2b,0,0,0,2i,2m,2n,0,h,0,0
0,0,d,2g,2g,2g,2g,2g,2g,2g,2g,2g,2g,h,0,0
0,0,e,f,f,f,f,f,f,f,f,f,f,g,0,0
0,0,0,0,0,0,0,0,0,0,0,0,0,0,0,0
0,0,0,0,0,0,0,0,0,0,0,0,0,0,0,0
0,0,0,0,0,0,0,0,0,0,0,0,0,0,0,0
0,0,0,0,0,0,0,0,0,0,0,0,0,0,0,0
EXT 3,9 5 15,9
EXT 10,9 7 2,9
PAL 2

ROOM 7
0,0,0,0,0,0,0,0,0,2s,2w,2w,2w,2w,2w,2v
0,0,0,0,0,0,0,0,0,2s,2w,2w,2w,2w,2w,2w
0,0,0,0,0,0,0,0,0,2s,2w,2w,2w,2w,2w,2w
0,0,0,0,0,0,0,0,0,2s,2w,2v,2w,2w,2w,2w
0,0,0,0,0,0,0,0,0,2s,2w,2w,2w,2w,2w,2w
0,0,0,0,0,0,0,0,0,2s,2w,2w,2w,2w,2w,2w
0,2j,2k,2l,0,0,0,0,0,2s,2w,2w,2w,2w,2w,2w
0,2i,2m,2n,0,0,0,0,0,2s,2w,2w,2w,2v,2w,2w
0,2i,2m,2n,0,0,0,0,0,2s,2w,2w,2w,2w,2w,2w
0,2i,2m,2n,0,0,0,0,2p,2q,2q,2q,2q,2q,2q,2q
2g,2g,2g,2g,2g,2g,2g,2g,2g,2g,2g,2g,2g,2g,2g,2g
0,0,0,0,0,0,0,0,0,0,0,0,0,0,0,0
0,0,0,0,0,0,0,0,0,0,0,0,0,0,0,0
0,0,0,0,0,0,0,0,0,0,0,0,0,0,0,0
0,0,0,0,0,0,0,0,0,0,0,0,0,0,0,0
0,0,0,0,0,0,0,0,0,0,0,0,0,0,0,0
NAME hotel desk
EXT 15,9 8 7,9
PAL 2

ROOM 8
q,q,q,3c,0,3d,2y,3d,2y,3d,0,2x,q,q,q,q
q,q,q,3c,0,3d,0,3d,0,3d,0,2x,q,q,q,q
q,q,q,3c,0,3d,2y,3d,2y,3d,0,2x,q,q,q,q
q,q,q,3c,0,3d,0,3d,0,3d,0,2x,q,q,q,q
q,q,q,3c,0,3d,2y,3d,2y,3d,0,2x,q,q,q,q
q,q,q,3c,0,0,0,0,0,0,0,2x,q,q,q,q
q,q,u,3c,0,0,3h,3g,3f,3e,0,2x,u,q,q,q
q,q,37,3a,36,36,36,36,36,36,36,3a,38,q,q,q
q,q,w,3b,0,0,3j,3m,3k,0,0,3b,w,q,q,q
u,u,0,3b,0,0,3i,3n,3l,0,0,3b,0,u,u,u
v,v,v,v,v,v,v,v,v,v,v,v,v,v,v,v
0,0,0,0,0,0,0,0,0,0,0,0,0,0,0,0
0,0,0,0,0,0,0,0,0,0,0,0,0,0,0,0
0,0,0,0,0,0,0,0,0,0,0,0,0,0,0,0
0,0,0,0,0,0,0,0,0,0,0,0,0,0,0,0
0,0,0,0,0,0,0,0,0,0,0,0,0,0,0,0
EXT 15,9 2 0,11
PAL 1

ROOM 9
0,0,0,0,0,0,0,0,0,0,0,0,0,0,0,0
0,0,0,0,0,0,0,0,0,0,0,0,0,0,0,0
0,0,0,0,0,0,0,0,0,0,0,0,0,0,0,0
0,0,c,a,a,a,a,a,a,a,a,a,a,i,0,0
0,0,d,0,3v,3u,3u,3u,3u,3u,3u,3t,0,h,0,0
0,0,d,0,3o,0,0,0,0,0,0,3n,49,h,0,0
0,0,d,0,3o,0,0,0,0,0,0,46,3w,h,0,0
0,0,d,0,3o,0,0,0,0,0,0,47,48,h,0,0
0,0,d,0,41,3z,3z,40,0,0,0,3s,0,h,0,0
0,0,d,0,3o,0,0,0,0,0,0,3s,0,h,0,0
0,0,d,0,3o,44,45,42,0,0,0,3s,0,h,0,0
0,0,d,0,3p,3q,3q,43,3q,3q,3q,3r,0,h,0,0
0,0,e,f,f,f,f,f,f,f,f,f,f,g,0,0
0,0,0,0,0,0,0,0,0,0,0,0,0,0,0,0
0,0,0,0,0,0,0,0,0,0,0,0,0,0,0,0
0,0,0,0,0,0,0,0,0,0,0,0,0,0,0,0
ITM 3 8,9
EXT 12,6 5 0,9
PAL 3

ROOM a
0,0,0,0,0,0,0,0,0,0,0,0,0,0,0,0
0,0,0,0,0,0,0,0,0,0,0,0,0,0,0,0
0,0,0,0,0,0,0,0,0,0,0,0,0,0,0,0
0,0,0,0,0,0,0,0,0,0,0,0,0,0,0,0
0,0,0,0,0,13,18,18,18,18,17,0,0,0,0,0
0,0,0,0,0,1b,1c,1d,1e,1f,1a,0,0,0,0,0
0,0,0,0,0,14,15,15,15,15,16,0,0,0,0,0
0,0,0,0,0,0,0,12,0,0,4c,0,0,0,0,0
0,0,0,0,0,0,0,12,0,0,4c,0,0,0,0,0
0,0,0,0,0,0,0,12,0,0,4c,0,0,0,0,0
0,0,0,0,0,0,0,12,0,0,4c,0,0,0,0,0
0,0,0,0,0,0,0,12,0,0,4c,0,0,0,0,0
4d,4e,4e,4e,v,v,v,v,v,v,v,v,v,v,v,v
0,0,0,0,0,0,0,0,0,0,0,0,0,0,0,0
0,0,0,0,0,0,0,0,0,0,0,0,0,0,0,0
0,0,0,0,0,0,0,0,0,0,0,0,0,0,0,0
NAME copy room
ITM 0 7,3
ITM 4 9,3
EXT 15,11 3 0,10
PAL 4

ROOM b
0,0,0,0,0,0,0,0,0,0,0,0,0,0,0,0
0,0,0,0,0,0,0,0,0,0,0,0,0,0,0,0
0,0,0,0,0,0,0,0,0,0,0,0,0,0,0,0
0,0,0,0,0,4g,4h,4h,4h,4i,0,0,0,0,0,0
0,0,0,0,0,4f,0,0,0,4j,0,0,0,0,0,0
0,0,0,0,0,4f,0,0,0,4j,0,0,0,0,0,0
0,0,0,0,0,4m,4l,4l,4l,4k,0,0,0,0,0,0
0,0,0,0,0,0,0,0,0,0,0,0,0,0,0,0
0,0,0,0,0,0,0,0,0,0,0,0,0,0,0,0
0,0,0,0,0,0,0,0,0,0,0,0,0,0,0,0
v,v,v,v,v,v,v,v,v,v,v,v,v,v,v,v
0,0,0,0,0,0,0,0,0,0,0,0,0,0,0,0
0,0,0,0,0,0,0,0,0,0,0,0,0,0,0,0
0,0,0,0,0,0,0,0,0,0,0,0,0,0,0,0
0,0,0,0,0,0,0,0,0,0,0,0,0,0,0,0
0,0,0,0,0,0,0,0,0,0,0,0,0,0,0,0
NAME test room
EXT 2,9 c 2,9
PAL 5

ROOM c
0,0,0,0,0,0,0,0,0,0,0,0,0,0,0,0
0,0,0,0,0,0,0,0,0,0,0,0,0,0,0,0
0,0,0,0,0,0,0,0,0,0,0,0,0,0,0,0
0,0,0,0,0,4g,0,4h,4h,4i,0,0,0,0,0,0
0,0,0,0,0,4f,0,0,0,0,0,0,0,0,0,0
0,0,0,0,0,0,0,0,0,4j,0,0,0,0,0,0
0,0,0,0,0,4m,4l,4l,4l,4k,0,0,0,0,0,0
0,0,0,0,0,0,0,0,0,0,0,0,0,0,0,0
0,0,0,0,0,0,0,0,0,0,0,0,0,0,0,0
0,0,0,0,0,0,0,0,0,0,0,0,0,0,0,0
v,v,v,v,v,v,v,v,v,v,v,v,v,v,v,v
0,0,0,0,0,0,0,0,0,0,0,0,0,0,0,0
0,0,0,0,0,0,0,0,0,0,0,0,0,0,0,0
0,0,0,0,0,0,0,0,0,0,0,0,0,0,0,0
0,0,0,0,0,0,0,0,0,0,0,0,0,0,0,0
0,0,0,0,0,0,0,0,0,0,0,0,0,0,0,0
NAME dupe room 1
EXT 5,9 d 5,9
PAL 5

ROOM d
0,0,0,0,0,0,0,0,0,0,0,0,0,0,0,0
0,0,0,0,0,0,0,0,0,0,0,0,0,0,0,0
0,0,0,0,0,0,0,0,0,0,0,0,0,0,0,0
0,0,0,0,0,4g,0,4h,0,4i,0,0,0,0,0,0
0,0,0,0,0,4f,0,0,0,0,0,0,0,0,0,0
0,0,0,0,0,0,0,0,0,4j,0,0,0,0,0,0
0,0,0,0,0,4m,4l,0,4l,0,0,0,0,0,0,0
0,0,0,0,0,0,0,0,0,0,0,0,0,0,0,0
0,0,0,0,0,0,0,0,0,0,0,0,0,0,0,0
0,0,0,0,0,0,0,0,0,0,0,0,0,0,0,0
v,v,v,v,v,v,v,v,v,v,v,v,v,v,v,v
0,0,0,0,0,0,0,0,0,0,0,0,0,0,0,0
0,0,0,0,0,0,0,0,0,0,0,0,0,0,0,0
0,0,0,0,0,0,0,0,0,0,0,0,0,0,0,0
0,0,0,0,0,0,0,0,0,0,0,0,0,0,0,0
0,0,0,0,0,0,0,0,0,0,0,0,0,0,0,0
NAME dupe room 2
EXT 8,9 e 8,9
PAL 5

ROOM e
0,0,0,0,0,0,0,0,0,0,0,0,0,0,0,0
0,0,0,0,0,0,0,0,0,0,0,0,0,0,0,0
0,0,0,0,0,0,0,0,0,0,0,0,0,0,0,0
0,0,0,0,0,0,0,4h,0,0,0,0,0,0,0,0
0,0,0,0,0,4f,0,0,0,0,0,0,0,0,0,0
0,0,0,0,0,0,0,0,0,4j,0,0,0,0,0,0
0,0,0,0,0,0,0,0,4l,0,0,0,0,0,0,0
0,0,0,0,0,0,0,0,0,0,0,0,0,0,0,0
0,0,0,0,0,0,0,0,0,0,0,0,0,0,0,0
0,0,0,0,0,0,0,0,0,0,0,0,0,0,0,0
v,v,v,v,v,v,v,v,v,v,v,v,v,v,v,v
0,0,0,0,0,0,0,0,0,0,0,0,0,0,0,0
0,0,0,0,0,0,0,0,0,0,0,0,0,0,0,0
0,0,0,0,0,0,0,0,0,0,0,0,0,0,0,0
0,0,0,0,0,0,0,0,0,0,0,0,0,0,0,0
0,0,0,0,0,0,0,0,0,0,0,0,0,0,0,0
NAME dupe room 3
PAL 5

ROOM f
0,0,0,0,0,0,0,0,0,0,0,0,0,0,0,0
0,0,0,0,0,0,0,0,0,0,0,0,0,0,0,0
0,0,0,0,0,0,0,0,0,0,0,0,0,0,0,0
0,0,0,0,0,0,0,0,0,0,0,p,o,0,0,0
0,0,p,o,0,0,0,0,0,0,0,m,l,n,0,0
0,0,0,0,n,0,0,0,0,0,0,0,0,0,0,0
0,0,0,0,0,0,0,o,0,0,0,0,k,0,0,0
0,0,0,0,0,0,0,0,n,0,0,0,0,0,0,0
0,0,0,k,0,0,0,k,0,0,0,0,k,0,0,0
0,0,0,k,0,0,0,k,0,0,0,0,k,0,0,0
0,0,0,j,0,0,0,j,0,0,0,0,j,0,0,0
v,v,v,v,v,v,v,v,v,v,v,v,v,v,v,v
0,0,0,0,0,0,0,0,0,0,0,0,0,0,0,0
0,0,0,0,0,0,0,0,0,0,0,0,0,0,0,0
0,0,0,0,0,0,0,0,0,0,0,0,0,0,0,0
0,0,0,0,0,0,0,0,0,0,0,0,0,0,0,0
NAME empty 2
ITM 5 5,10
EXT 7,10 g 7,10
PAL 4

ROOM g
0,0,0,0,0,0,0,0,0,0,0,0,0,0,0,0
0,0,0,0,0,0,0,0,0,0,0,0,0,0,0,0
0,0,0,0,0,0,0,0,0,0,0,0,0,0,0,0
0,0,0,0,0,0,0,0,0,0,0,p,o,0,0,0
0,0,0,o,0,0,0,0,0,0,0,m,0,0,0,0
0,0,0,0,n,0,0,0,0,0,0,0,0,0,0,0
0,0,0,0,0,0,0,0,0,0,0,0,k,0,0,0
0,0,0,0,0,0,0,0,0,0,0,0,0,0,0,0
0,0,0,0,0,0,0,k,0,0,0,0,k,0,0,0
0,0,0,0,0,0,0,k,0,0,0,0,k,0,0,0
0,0,0,j,0,0,0,j,0,0,0,0,j,0,0,0
4e,4e,4d,v,v,v,v,v,v,v,v,v,v,v,v,v
0,0,0,0,0,0,0,0,0,0,0,0,0,0,0,0
0,0,0,0,0,0,0,0,0,0,0,0,0,0,0,0
0,0,0,0,0,0,0,0,0,0,0,0,0,0,0,0
0,0,0,0,0,0,0,0,0,0,0,0,0,0,0,0
NAME empty 3
ITM 6 9,10
ITM 0 4,5
ITM 0 3,4
EXT 7,10 0 0,0
EXT 12,10 h 12,10
PAL 4

ROOM h
0,0,0,0,0,0,0,0,0,0,0,0,0,0,0,0
0,0,0,0,0,0,0,0,0,0,0,0,0,0,0,0
0,0,0,0,0,0,0,0,0,0,0,0,0,0,0,0
0,0,0,0,0,0,0,0,0,0,0,0,0,0,0,0
0,0,0,0,0,0,0,0,0,0,0,0,0,0,0,0
0,0,0,0,0,0,0,0,0,0,0,0,0,0,0,0
0,0,0,0,0,0,0,0,0,0,0,0,0,0,0,0
0,0,0,0,0,0,0,0,0,0,0,0,0,0,0,0
0,0,0,0,0,0,0,0,0,0,0,0,k,0,0,0
0,0,0,0,0,0,0,k,0,0,0,0,k,0,0,0
0,0,0,j,0,0,0,j,0,0,0,0,j,0,0,0
4e,4e,4d,v,v,v,v,v,v,v,v,v,v,v,v,v
0,0,0,0,0,0,0,0,0,0,0,0,0,0,0,0
0,0,0,0,0,0,0,0,0,0,0,0,0,0,0,0
0,0,0,0,0,0,0,0,0,0,0,0,0,0,0,0
0,0,0,0,0,0,0,0,0,0,0,0,0,0,0,0
NAME room 4
ITM 7 14,10
EXT 7,10 0 0,0
EXT 12,10 0 0,0
EXT 15,10 i 0,10
PAL 4

ROOM i
0,0,0,0,0,0,0,0,0,0,0,0,0,0,0,0
0,0,0,0,0,0,0,0,0,0,0,0,0,0,0,0
0,0,0,0,0,0,0,0,0,0,0,0,0,0,0,0
0,0,0,0,0,0,0,0,0,0,0,0,0,0,0,0
0,0,0,0,0,0,0,0,0,0,0,0,0,0,0,0
0,0,0,0,0,0,0,0,0,0,0,0,0,0,0,0
0,0,0,0,0,0,0,0,0,0,0,0,0,0,0,0
0,0,0,0,0,0,0,0,0,0,0,0,0,0,0,0
0,0,0,0,0,0,0,0,0,0,0,0,k,0,0,0
0,0,0,0,0,0,0,k,0,0,0,0,k,0,0,0
0,0,0,j,0,0,0,j,0,0,0,0,j,0,0,0
4e,4e,4d,v,v,v,v,v,v,v,v,v,v,v,v,v
0,0,0,0,0,0,0,0,0,0,0,0,0,0,0,0
0,0,0,0,0,0,0,0,0,0,0,0,0,0,0,0
0,0,0,0,0,0,0,0,0,0,0,0,0,0,0,0
0,0,0,0,0,0,0,0,0,0,0,0,0,0,0,0
NAME Empty 5
EXT 7,10 0 0,0
EXT 12,10 0 0,0
EXT 3,10 j 3,10
PAL 4

ROOM j
0,0,0,0,0,0,0,0,0,0,0,0,0,0,0,0
0,0,0,0,0,0,0,0,0,0,0,0,0,0,0,0
0,0,0,0,0,0,0,0,0,0,0,0,0,0,0,0
0,0,0,0,0,0,0,0,0,0,0,0,0,0,0,0
0,0,0,0,0,0,0,0,0,0,0,0,0,0,0,0
0,0,0,0,0,0,0,0,0,0,0,0,0,0,0,0
0,0,0,0,0,0,0,0,0,0,0,0,0,0,0,0
0,0,0,0,0,0,0,0,0,0,0,0,0,0,0,0
0,0,0,0,0,0,0,0,0,0,0,0,0,0,0,0
0,0,0,0,0,0,0,0,0,0,0,0,k,0,0,0
0,0,0,j,0,0,0,j,0,0,0,0,j,0,0,0
4e,4e,4d,v,v,v,v,v,v,v,v,v,v,v,v,v
0,0,0,0,0,0,0,0,0,0,0,0,0,0,0,0
0,0,0,0,0,0,0,0,0,0,0,0,0,0,0,0
0,0,0,0,0,0,0,0,0,0,0,0,0,0,0,0
0,0,0,0,0,0,0,0,0,0,0,0,0,0,0,0
NAME EEmpty 6
ITM 8 4,10
EXT 7,10 0 0,0
EXT 5,10 k 5,10
PAL 4

ROOM k
0,0,0,0,0,0,0,0,0,0,0,0,0,0,0,0
0,0,0,0,0,0,0,0,0,0,0,0,0,0,0,0
0,0,0,0,0,0,0,0,0,0,0,0,0,0,0,0
0,0,0,0,0,0,0,0,0,0,0,0,0,0,0,0
0,0,0,0,0,0,0,0,0,0,0,0,0,0,0,0
0,0,0,0,0,0,0,0,0,0,0,0,0,0,0,0
0,0,0,0,0,0,0,0,0,0,0,0,0,0,0,0
0,0,0,0,0,0,0,0,0,0,0,0,0,0,0,0
0,0,0,0,0,0,0,0,0,0,0,0,0,0,0,0
4e,4e,4e,4e,4e,4e,4e,4e,4e,4e,4e,4e,4e,4e,4e,4e
0,0,0,0,0,0,0,0,0,0,0,0,0,0,0,0
4d,4d,4d,4d,4d,4d,4d,4d,4d,4d,4d,4d,4d,4d,4d,4d
0,0,0,0,0,0,0,0,0,0,0,0,0,0,0,0
0,0,0,0,0,0,0,0,0,0,0,0,0,0,0,0
0,0,0,0,0,0,0,0,0,0,0,0,0,0,0,0
0,0,0,0,0,0,0,0,0,0,0,0,0,0,0,0
NAME Last one okay?
ITM 9 7,10
ITM a 10,10
ITM b 13,10
EXT 15,10 l 0,10
PAL 4

ROOM l
0,0,0,0,0,0,0,0,0,0,0,0,0,0,0,0
0,0,0,0,0,0,0,0,0,0,0,0,0,0,0,0
0,0,0,0,0,0,0,0,0,0,0,0,0,0,0,0
0,0,0,0,0,0,0,0,0,0,0,0,0,0,0,0
0,0,0,0,0,0,4p,3g,4q,4r,4s,3e,4t,0,0,0
0,0,0,0,0,0,0,0,0,0,0,0,0,0,0,0
0,0,0,0,0,0,0,0,0,0,0,0,0,0,0,0
0,0,0,0,0,0,0,0,0,0,0,0,0,0,0,0
0,0,0,0,0,0,0,0,0,0,0,0,0,0,0,0
4n,4n,4n,4n,4n,4n,4n,4n,4n,4n,4n,4n,4n,4n,4n,4n
0,0,0,0,0,0,0,0,0,0,0,0,0,0,0,0
4d,4d,4d,4e,4e,v,v,v,v,v,v,v,v,v,v,v
0,0,0,0,0,0,0,0,0,0,0,0,0,0,0,0
0,0,0,0,0,0,0,0,0,0,0,0,0,0,0,0
0,0,0,0,0,0,0,0,0,0,0,0,0,0,0,0
0,0,0,0,0,0,0,0,0,0,0,0,0,0,0,0
NAME End.
ITM c 3,10
END 0 8,10
PAL 0

TIL 10
00000000
00000000
11111111
00100100
11111111
00000000
00000000
00000000

TIL 11
00000000
00000000
00000000
11111111
01100000
00010000
00000111
00000000

TIL 12
00100100
00100100
00100100
00100100
00100100
00100100
00100100
00100100

TIL 13
00111111
01000000
10000000
10000000
10000000
10000000
10000000
10000000

TIL 14
10000000
10000000
10000000
10000000
10000000
10000000
01000000
00111111

TIL 15
00000000
00000000
00000000
00000000
00000000
00000000
00000000
11111111
NAME sign top

TIL 16
00000001
00000001
00000001
00000001
00000001
00000001
00000010
11111100
NAME sign corner

TIL 17
11111100
00000010
00000001
00000001
00000001
00000001
00000001
00000001
NAME sign corner

TIL 18
11111111
00000000
00000000
00000000
00000000
00000000
00000000
00000000

TIL 19
10000000
10000000
10000000
10000000
10000000
10000000
10000000
10000000

TIL 20
00110000
01011110
10100110
00100000
00100000
00100000
00100001
00011110

TIL 21
00000000
00000000
00001000
00011110
00110101
00100100
11111100
01100110

TIL 22
00000000
00001111
00001001
00011100
10001000
01001000
01101000
00111000
>
00000000
00000000
00000000
00000000
00000000
00000000
00000000
00000000

TIL 23
00000000
11111000
01001100
01000000
11110000
01000000
00100000
00011000

TIL 24
00000000
00000000
00111000
01000100
01000100
01000100
00111000
00000000

TIL 25
00000000
00000000
00001111
00001000
00001000
01111000
00000000
00000000

TIL 26
00000100
00000100
11111100
00000000
00000000
00000000
00000000
00000000
>
00000100
00000100
10110000
00000000
00000000
00000000
00000000
00000000

TIL 27
00000000
00000000
00000000
00000111
00000100
00000100
00000100
00000100

TIL 28
00000000
00000011
00000010
11111110
00000000
00000000
00000000
00000000

TIL 29
01111110
01000010
01111110
01000010
01000010
01000010
01000010
01111110

TIL 30
00001000
00001000
00001000
00001000
11111111
00000000
00000000
00000000

TIL 31
00000000
00000000
00000000
00000000
11111111
00000000
00000000
00000000

TIL 32
10000000
10000000
10000000
10000000
10000000
10000000
11111000
00001000

TIL 33
00000000
00000000
00000000
00000000
00000000
00000000
11111111
00000000

TIL 34
01000000
01000000
01000000
01000000
01000000
01000000
01000000
01000000

TIL 35
00000000
00000000
00000000
00000000
00011111
00010000
00010000
00010000

TIL 36
11111111
00000000
11111111
00000000
00000000
00000000
00000000
00000000

TIL 37
00000111
00001000
00001111
00001110
00000010
00000000
00000000
00000000
>
00000111
00001000
00001111
00001110
00000010
00000000
00000010
00000000

TIL 38
11100000
00010000
11110000
11110000
00010000
00000000
00000000
00000000
>
11100000
00010000
11110000
11110000
00010000
00000000
00010000
00000000

TIL 39
01000000
01000000
01000000
01000000
01000000
01000000
01000000
01000000

TIL 40
11111111
00000001
11111101
00000101
00000101
00000101
00000101
00000101
WAL true

TIL 41
11111111
10000000
11111111
10000000
10000000
10000000
10000000
10000000

TIL 42
00000101
00000101
00000101
00000101
00000101
00000101
00000101
00000101
WAL true

TIL 43
00000101
00000101
00000101
00000101
00000101
00000101
00000101
11111111

TIL 44
11111111
10000001
10111010
10101010
10101010
10111001
10000001
11111111
NAME bed

TIL 45
11111111
00000001
01000001
00100001
00000001
00000001
00000001
11111111
NAME bed

TIL 46
00000001
00000001
00000001
00000000
00000000
00000000
00000000
00000000

TIL 47
00000000
00000000
00000001
00000001
00000001
00000001
00000001
00000001
WAL true

TIL 48
00000000
00000000
00000000
00000000
00001000
00000000
00000000
00000000
WAL true

TIL 49
00000000
00000000
00000000
00000000
00000000
00000000
00000000
00000000
WAL true

TIL a
00000000
00000000
11111111
00000000
11111111
00000000
00000000
00000000
NAME frame
WAL true

TIL c
00000000
00000000
00001111
00010000
00100111
00101000
00101000
00101000
NAME frame corner
WAL true

TIL d
00101000
00101000
00101000
00101000
00101000
00101000
00101000
00101000
NAME left frame
WAL true

TIL e
00101000
00101000
00101000
00101000
00100111
00010000
00001111
00000000
NAME frame corn

TIL f
00000000
00000000
00000000
00000000
11111111
00000000
11111111
00000000
NAME frame bottom
WAL true

TIL g
00001010
00001010
00001010
00001010
11110010
00000100
11111000
00000000
NAME frame corn

TIL h
00001010
00001010
00001010
00001010
00001010
00001010
00001010
00001010
NAME frame right
WAL true

TIL i
00000000
00000000
11111000
00000100
11110010
00001010
00001010
00001010
NAME frame top
WAL true

TIL j
00111100
00111100
00111100
00111100
01111100
01111100
01111110
11111111

TIL k
00111100
00111100
00000000
00111100
00111100
00111100
00111100
00111100

TIL l
11000111
00101001
11010010
00110111
00100100
11000011
00111001
01011011

TIL m
00000000
00011111
00100000
01000000
10011111
10100000
01000000
00000000

TIL n
00000000
11111000
00000100
00000010
11111001
00000101
00000010
00000000

TIL o
00000000
00000000
00000000
11110000
00001000
00000100
11100010
00010010

TIL p
00000000
00000000
00000000
00000111
00001000
00010000
00001111
00000000

TIL q
00000000
00010000
00010000
00010000
00010010
00000010
00000000
00000000
>
00000000
00000000
00000000
00000000
00000000
00010000
00010010
00010010

TIL r
00000000
00000000
00110000
00110000
00000000
00000000
00000000
00000000

TIL s
00000000
00000000
00000000
00000000
11111111
11111111
00000000
00000000

TIL u
00000000
00000000
00000000
00010000
00010000
00010000
00010000
00000000
>
00000000
00000000
00000000
00000000
00000001
00010000
01010100
00010000

TIL v
11111111
00001000
11111111
00000000
00100010
00000000
00001000
00000000
NAME path
WAL false

TIL w
00000000
00010000
00010000
00000000
00000000
00000000
00000000
00000000
>
00000000
00000000
00000000
00000000
00000000
00010000
00000000
00000000

TIL x
00000000
00000000
00000000
00000011
00000010
00011110
00010000
11110000

TIL y
00101000
00101000
00111000
00101000
00101000
00111000
00101000
00101000

TIL z
00000000
00000000
00001111
00010010
00101111
00101000
00111000
00101000

TIL 1a
00000001
00000001
00000001
00000001
00000001
00000001
00000001
00000001
NAME sign

TIL 1b
00000000
01111000
01000100
01000100
01000100
01000100
01111000
00000000

TIL 1c
00000000
01111100
00010000
00010000
00010000
00010000
01111100
00000000

TIL 1d
00000000
01100100
01010100
01010100
01010100
01010100
01011000
00000000

TIL 1e
00000000
00111100
01000000
01000000
01111100
01000000
01000000
00111100

TIL 1f
00011000
00100100
00100100
00101000
00110000
00101000
00100100
00100010

TIL 1g
00000010
00000010
00000010
00000010
00000010
00000010
00000010
00000010

TIL 1h
00000000
00000000
00000000
00000000
00000000
00000000
11111110
00000010

TIL 1i
00000000
00000000
00000000
00000000
00000000
11111111
00000000
11111111

TIL 1j
00000000
00000000
00000000
00000000
00000000
00000000
01111111
01000000

TIL 1k
01000000
01000000
01000000
01000000
01000000
01000000
01000000
01000000

TIL 1l
00000000
00000000
00000000
00000000
00000000
11111111
00000000
11111111

TIL 1m
00000000
00000000
00000000
00000000
00000000
11111111
00000000
11111111

TIL 1n
00000000
00000000
00000000
00000000
00000000
00000111
00000100
00000111

TIL 1o
00000000
00000000
00000000
00000000
00000000
11100000
00100000
11100000

TIL 1p
00000000
00000000
00000000
00000000
10000000
01000000
00100000
00010000

TIL 1q
00000000
00000000
00000000
00000000
10000000
01000000
00100000
00010000

TIL 1r
00001000
00000100
00000010
00000001
00000000
00000000
00000000
00000000

TIL 1s
00000001
00000001
00000001
00000001
00000000
00000000
00000000
00000000

TIL 1t
00000001
00000001
00000001
00000001
00000001
00000001
00000001
00000001

TIL 1u
00000000
00000000
00000000
00000000
00000000
00000000
00000000
00000001

TIL 1v
00000000
01000000
01000000
01001000
01001000
00001000
00000000
11111111
>
00000000
00000000
00000000
00000100
01000000
01000010
00101000
11111111

TIL 1w
00000001
00000001
00000001
00000001
00000001
00000001
00000001
00000001

TIL 1x
00000001
00000001
00000001
00000001
00000001
11111111
00000000
11111111

TIL 1y
00001000
00000100
00000010
00000001
00000000
11111111
00000000
11111111

TIL 1z
00000000
00000000
00000000
00000000
10000000
11111111
00000000
11111111

TIL 2a
01000000
01000000
01000000
01000000
01000000
01000000
01000000
01000000

TIL 2b
11111111
00000000
00000000
00000000
00000000
00000000
00000000
00000000

TIL 2d
00000000
00000000
00000000
00000000
00000000
00000000
00000000
11111111
NAME window

TIL 2e
00000001
00000001
00000001
00000001
00000001
00000001
00000001
00000001

TIL 2f
10000000
10000000
10000000
10000000
10000000
10000000
10000000
10000000

TIL 2g
11111111
00000000
00000100
00001000
00010000
00000010
00000100
00001000

TIL 2h
00000100
00000100
00000100
00000100
00000100
00000100
00000100
00000100

TIL 2i
01000000
01000000
01000000
01000000
01000000
01000000
01000000
01000000

TIL 2j
00000000
00000111
00001000
00010000
00010000
11100000
00000000
11111111

TIL 2k
00000000
11111111
00000000
00000000
01000000
00100000
00010000
11111111

TIL 2l
00000000
11100000
00010000
00001000
00001000
00000111
00000000
11111111

TIL 2m
00010000
00010000
00010000
00010000
00010000
00010000
00010000
00010000
>
01000010
01000010
01000010
01000010
01000010
01000010
01000010
01000010

TIL 2n
00000010
00000010
00000010
00000010
00000010
00000010
00000010
00000010
NAME elevator door right

TIL 2o
01111110
01000010
01011010
01000010
01000010
01011010
01000010
01111110

TIL 2p
11111111
10000000
10000000
10000000
10000000
10000000
10000000
10000000

TIL 2q
11111111
00000000
00000000
00000000
00000000
00000000
00000000
00000000

TIL 2r
10000000
10000000
10000000
10000000
10000000
10000000
10000000
10000000
NAME glass window

TIL 2s
00000101
00000101
00000101
00000101
00000101
00000101
00000101
00000101

TIL 2v
00000100
00001000
00010000
00100000
01000000
10000000
00000000
00000000
NAME glass glare

TIL 2w
00000000
00100001
00000000
00000000
01000100
00000000
00010000
00000000
>
00000000
00000000
00100001
00000000
00000000
01000100
00000000
00010000

TIL 2x
00000010
00000010
01111110
01000010
01000010
01111110
00000010
00000010

TIL 2y
00111100
01000010
10000001
10000001
10000001
10000001
01000010
00111100

TIL 2z
00000000
00000000
00000000
00000000
11111000
00001000
00001000
00001000

TIL 3a
11111111
00000000
11111111
01000001
01000001
01000001
01000001
01000001

TIL 3b
01000001
01000001
01000001
01000001
01000001
01000001
01000001
01000001

TIL 3c
01000000
01000000
01111110
01000010
01000010
01111110
01000000
01000000

TIL 3d
00111100
00111100
00111100
00111100
00111100
00111100
00111100
00111100

TIL 3e
00111000
01000100
01000100
01000100
01000100
01000100
01000100
00111000

TIL 3f
00010000
00010000
00010000
00010000
00010000
00010000
00010000
00011100

TIL 3g
00011000
00100100
00100100
00111100
00100100
00100100
00100100
00100100

TIL 3h
00100100
00100100
00100100
00100100
00111100
00100100
00100100
00100100

TIL 3i
01010000
01010000
01010000
11010000
01010000
11010000
01010000
01010000

TIL 3j
00000000
01111111
01010000
01010000
01010000
01010000
01010000
01010000

TIL 3k
00000000
11111111
00000001
00000001
00010001
00100001
01000001
00000001

TIL 3l
00000001
00000001
11111111
00000001
00000001
11111111
00000001
00000001

TIL 3m
00000000
11111111
00000001
00000001
00000001
00000001
00000001
00000001

TIL 3n
00000001
00000001
00000001
00000001
00000001
00000001
00000001
00000001
WAL false

TIL 3o
10000000
10000000
10000000
10000000
10000000
10000000
10000000
10000000
WAL true

TIL 3p
10000000
10000000
10000000
10000000
10000000
10000000
10000000
11111111
WAL true

TIL 3q
00000000
00000000
00000000
00000000
00000000
00000000
00000000
11111111
WAL true

TIL 3r
00000001
00000001
00000001
00000001
00000001
00000001
00000001
11111111
WAL true

TIL 3s
00000001
00000001
00000001
00000001
00000001
00000001
00000001
00000001
WAL true

TIL 3t
11111111
00000001
00000001
00000001
00000001
00000001
00000001
00000001

TIL 3u
11111111
00000000
00000000
00000000
00000000
00000000
00000000
00000000
WAL true

TIL 3v
11111111
10000000
10000000
10000000
10000000
10000000
10000000
10000000

TIL 3w
11111111
00000001
11111111
00010000
00000000
00000000
00000000
00000000
WAL false

TIL 3x
11111111
00000001
00000001
00000001
00000001
00000001
00000001
00011001
WAL false

TIL 3y
00011001
00000001
00000001
00000001
00000001
00000001
00000001
11111111

TIL 3z
11111111
00000000
11111111
00000000
00000000
00000000
00000000
00000000
WAL true

TIL 4a
00010000
00010000
00010000
00010000
00010000
00010000
00010000
00010000
NAME rope

TIL 4b
00010000
00110000
01000000
01000000
00100000
00010000
00010000
11111111
NAME rope curl

TIL 4c
01000100
01000100
01111100
01000100
01111100
01000100
01111100
01000100

TIL 4d
10000011
00001000
01000111
00000000
00000000
01000000
00000000
00000000
WAL true

TIL 4e
00001111
01100000
00000000
00000000
00000000
00011000
00000000
00000000
WAL true

TIL 4f
10000000
10000000
10000000
10000000
10000000
10000000
10000000
10000000

TIL 4g
01111111
10000000
10000000
10000000
10000000
10000000
10000000
10000000

TIL 4h
11111111
00000000
00000000
00000000
00000000
00000000
00000000
00000000

TIL 4i
11111110
00000001
00000001
00000001
00000001
00000001
00000001
00000001

TIL 4j
00000001
00000001
00000001
00000001
00000001
00000001
00000001
00000001

TIL 4k
00000001
00000001
00000001
00000001
00000001
00000001
00000001
11111110

TIL 4l
00000000
00000000
00000000
00000000
00000000
00000000
00000000
11111111

TIL 4m
10000000
10000000
10000000
10000000
10000000
10000000
10000000
01111111

TIL 4n
00000000
00000000
00000000
00100000
00000000
00000000
00000000
00000000
WAL true

TIL 4o
00000001
00000001
00000001
00000001
00000001
00000001
00000001
00000001
WAL true

TIL 4p
00000000
00011000
00100000
00100000
00100000
00100000
00100000
00011000

TIL 4q
00000000
00011100
00100000
00100000
00011000
00000100
00000100
00111000

TIL 4r
00000000
00111000
00010000
00010000
00010000
00010000
00010000
00111000

TIL 4s
00000000
00100100
00110100
00101100
00100100
00100100
00100100
00100100

TIL 4t
00000000
00000000
00000000
00000000
00000000
00000000
00000000
10000000

SPR A
00000000
01111000
10101000
10111000
11010100
00111000
00101000
00101000
>
00000000
00111100
00101010
00111010
01010101
00111000
00101000
00101000
POS 9 5,9

SPR a
00000000
00000000
00000000
00011000
00001000
00000000
00000000
00000000
DLG SPR_0

SPR b
00000000
00101100
10110010
01100101
01000010
10010100
01001000
00110000
>
00000010
00010010
00101100
01010111
00100010
00010101
00001010
00000100
DLG SPR_1

SPR c
00111100
00101010
00111010
01010011
10010000
01101000
00101000
00101000
DLG SPR_2

SPR d
00000000
01010000
01110000
01110001
00011001
00011101
00011101
00011110
DLG SPR_3
POS 2 5,3

SPR e
00111000
00111000
00011000
00111000
01010110
00011000
00010100
00010100
>
00111001
00111110
00011000
00111100
01010100
00011000
00010100
00010100
DLG SPR_4
POS 6 7,9

SPR f
00000000
00000000
00000000
00000000
00000100
00000010
00000100
00000000
>
00000000
00000000
00000000
00000010
00001000
00000100
00000000
00000000
POS 6 7,8

SPR g
00000000
00011000
00011000
00011000
00111100
00111100
00111100
00111100
DLG SPR_5
POS 7 8,8

SPR h
00000000
00000000
00000000
00000000
11111111
10000001
01000010
00111100

SPR i
00000000
00000000
00000000
00000000
01111110
10000001
10000001
11111111
DLG SPR_6
POS 9 6,5

SPR j
00000000
00000000
11111111
10000001
10111001
10000101
11111111
00000000
>
00000000
00000000
00000000
11111111
10000001
10111001
10000101
11111111
DLG SPR_7
POS 9 9,5

SPR k
00000000
01010000
01110000
01110001
00011001
00011101
00011101
00011110
NAME copy cat

SPR l
00000000
01010000
01110000
01110001
00011001
00011101
00011101
00011110
NAME cppy 2
POS l 9,10

ITM 0
00000000
00000000
00000000
00000000
00000000
00000000
00000000
00000000
NAME tea
DLG ITM_0

ITM 1
00000000
00000000
00000000
00010000
00000000
00000000
00000000
00000000
DLG ITM_1

ITM 2
00000000
00000000
00000000
00001000
00000000
00000000
00000000
00000000
DLG ITM_2

ITM 3
00000000
00000000
00000000
00010000
00010000
00000000
00000000
00000000
DLG ITM_3

ITM 4
00000000
00000000
00000000
00010000
00000000
00000000
00000000
00000000
DLG ITM_4

ITM 5
00000000
00000000
00000000
00000000
00010000
00000000
00000000
00000000
DLG ITM_5

ITM 6
00000000
00000000
00000000
00000000
00010000
00000000
00000000
00000000
DLG ITM_6

ITM 7
00000000
00000000
00000000
00010000
00000000
00000000
00000000
00000000
DLG ITM_7

ITM 8
00000000
00000000
00000000
00000100
00000000
00000000
00000000
00000000
DLG ITM_8

ITM 9
00000000
00000000
00000000
00000000
00001000
00000000
00000000
00000000
DLG ITM_9

ITM a
00000000
00000000
00000000
00000000
00010000
00000000
00000000
00000000
DLG ITM_a

ITM b
00000000
00000000
00000000
00000000
00001000
00000000
00000000
00000000
DLG ITM_b

ITM c
00000000
00000000
00000000
00000000
00001000
00000000
00000000
00000000
DLG ITM_c

DLG SPR_0
I'm a cat

DLG SPR_1
"""
{sequence
  - Radio: Its a rainy day in Miami today, which is perfect for Rick Astley's new song, "Never Gonna Give You Up."
    
    Here on Neon '86

  - {clr3} Ugh, they play this song {clr2}{wvy}W A Y{wvy}{clr2} too much.
}
"""

DLG SPR_2
"""
{sequence
  - Hello. Have you seen a cat anywhere?
  - A cat? Hmmmm.... NOPE!
  - ok
}
"""

DLG SPR_3
Meow.

DLG ITM_1
"""
{sequence
  - {clr2}{shk}Jet!{shk} 
    
    There you are! How in the world did you get up there?{clr2}
    
    {clr3}mmmmmmmrreeeow?{clr3}
    
    {clr2}(I've got to find something that will get me up there...){clr2}
}
"""

DLG ITM_2
"""
Oh No! its raining...

wait... I like rain!
"""

DLG SPR_4
"""
{sequence
  - {clr2} Have you seen a cat anywhere?{clr2}
  - {clr3}... Uh yeah I think I saw one go down that elevator...
    
    How a cat can operate an elevator beats me.{clr3}
  - {clr2}Great thanks.{clr2}
  - {clr2} So its raining...{clr2}
  - {clr3}Yep.{clr3}
  - {clr2} Do you like the rain? {clr2}
  - {clr3} Nope! That's why I'm high {wvy}and{wvy} dry right now.{clr3} 
  - {clr2} Yeah I like being in it for a bit, but once I start getting cold I hate it.{clr2}
  - {clr3} For sure. {clr3}
}
"""

DLG SPR_5
"""
{sequence
  - {clr2}You didn't see a cat come through here did you?{clr2}
  - {clr3}I don't know about a cat, but I saw this blur just rush past out the hotel doors!{clr3}
  - {clr2} Yep that was Jet alright...{clr2}
  - {clr3}That your cat?{clr3}
  - {clr2}Yes that was my cat. Thank you!{clr2}
  - {clr3} Mmmm Hmmm.{clr3}
  - {clr2} How do you feel about the rain?{clr2}
  - {clr3} I enjoy it once in a while. I like the ambiance it creates. 
    Been watching it out this window while I'm nice and warm in here.
}
"""

DLG SPR_6
"""
{clr3}Jet's food bowl.{clr3}

{clr3}(Where did he run off to?){clr3}
"""

DLG ITM_3
"""
{clr3} NO! The door is open! Jet must have gotten out.{clr3}

{shk}{clr3}That darn cat!{clr3}{shk}
"""

DLG SPR_7
"""
{sequence
  - {clr3}A poem I wrote for Jet.
    
    "I have a pet,"
    
    "His name is Jet."
    
     By Sasha{clr3}
  - {clr3} Maybe it's too short to be a poem, but whatever. {clr3}
}
"""

DLG ITM_0
But the cat didn't matter. There was no point.

DLG ITM_4
The rain didn't matter either. In the end, there was nowhere left to go.

DLG ITM_5
Palm Tree Blues, the game you are playing right now, just wasn't interesting.

DLG ITM_6
As I created, the more just disappeared as to where this game would go.

DLG ITM_7
And I felt empty inside. I sat staring at a room I created, and my mind was blank.

DLG ITM_8
My game crumbled around me, and time started slipping away.

DLG ITM_9
"""
The only way to fix this game, was to move forward through failure.

Which is where you are now, the path through failure.
"""

DLG ITM_a
It took me on a journey, and I hope it took you on one as well.

DLG ITM_b
"""
But this isn't the end, as one journey leads to many more.

It is however the end of this one.
"""

DLG ITM_c
But don't worry, Sasha still found her cat.

END 0
This one was rough. I'm sorry

VAR a
42


