Cold Neon Dreams

# BITSY VERSION 4.2

! ROOM_FORMAT 1

PAL 0
NAME tile
0,0,0
174,56,127
137,93,174

PAL 1
0,0,0
0,144,81
255,255,255

PAL 2
NAME background
255,255,255
212,212,212
255,255,255

PAL 3
NAME tile 2
255,255,255
255,255,255
255,255,255

ROOM 0
c,b,b,b,b,b,b,b,b,b,b,b,b,b,b,e
g,l,l,l,l,l,l,l,l,l,l,l,l,l,l,g
g,j,j,j,j,j,j,j,j,j,j,j,j,j,j,g
g,k,k,k,k,k,k,k,k,k,k,k,k,k,k,g
g,j,j,j,j,j,j,j,j,j,j,j,j,j,j,g
d,b,b,b,b,b,b,b,b,b,b,b,b,b,h,g
c,b,b,b,b,b,b,b,b,b,b,b,b,b,h,g
g,l,l,l,l,l,l,l,l,l,l,l,l,l,h,g
g,j,j,j,j,j,j,j,j,j,j,j,j,k,h,g
g,k,k,k,k,k,k,k,k,k,k,k,k,k,h,g
g,j,j,j,j,j,j,j,j,j,j,j,j,j,h,g
d,h,b,b,b,b,b,b,b,b,b,b,b,b,b,f
c,h,b,b,b,b,b,b,b,b,b,b,b,b,b,e
g,h,l,l,l,l,l,l,l,l,l,l,l,l,l,g
g,h,j,j,j,j,j,j,j,j,j,j,j,j,j,g
d,b,b,b,b,b,b,b,b,b,b,b,b,b,b,f
NAME Introduction
WAL a,b,g,i,k,l,d,c
ITM 0 7,4
ITM 1 10,10
ITM 2 6,14
EXT 6,14 2 2,4
PAL 0

ROOM 2
c,b,b,b,b,b,b,b,b,b,b,b,b,b,b,e
g,l,l,l,l,l,l,l,l,l,l,l,l,l,l,g
g,j,j,j,j,j,j,j,j,j,j,j,j,j,j,g
g,k,k,k,k,k,k,k,k,k,k,k,k,k,k,g
g,j,j,j,j,j,j,j,j,j,j,j,j,j,j,g
d,b,b,b,b,b,b,b,b,b,b,b,b,b,h,g
c,b,b,b,b,b,b,b,b,b,b,b,b,b,h,g
g,l,l,l,l,l,l,l,l,l,l,l,l,l,h,g
g,j,j,j,j,j,j,j,j,j,j,j,j,k,h,g
g,k,k,k,k,k,k,k,k,k,k,k,k,k,h,g
g,j,j,j,j,j,j,j,j,j,j,j,j,j,h,g
d,h,b,b,b,b,b,b,b,b,b,b,b,b,b,f
c,h,b,b,b,b,b,b,b,b,b,b,b,b,b,e
g,h,l,l,l,l,l,l,l,l,l,l,l,l,l,g
g,h,j,j,j,j,j,j,j,j,j,j,j,j,j,g
d,b,b,b,b,b,b,b,b,b,b,b,b,b,b,f
WAL a,d,b,g,i,k,l,c
ITM 3 5,2
ITM 3 13,2
ITM 3 2,8
ITM 4 10,4
ITM 5 8,10
ITM 6 13,14
EXT 13,14 3 2,4
PAL 0

ROOM 3
c,b,b,b,b,b,b,b,b,b,b,b,b,b,b,e
g,l,l,l,l,l,l,l,l,l,l,l,l,l,l,g
g,j,j,j,j,j,j,j,j,j,j,j,j,j,j,g
g,k,k,k,k,k,k,k,k,k,k,k,k,k,k,g
g,j,j,j,j,j,j,j,j,j,j,j,j,j,j,g
d,b,b,b,b,b,b,b,b,b,b,b,b,b,h,g
c,b,b,b,b,b,b,b,b,b,b,b,b,b,h,g
g,l,l,l,l,l,l,l,l,l,l,l,l,l,h,g
g,j,j,j,j,j,j,j,j,j,j,j,j,k,h,g
g,k,k,k,k,k,k,k,k,k,k,k,k,k,h,g
g,j,j,j,j,j,j,j,j,j,j,j,j,j,h,g
d,h,b,b,b,b,b,b,b,b,b,b,b,b,b,f
c,h,b,b,b,b,b,b,b,b,b,b,b,b,b,e
g,h,l,l,l,l,l,l,l,l,l,l,l,l,l,g
g,h,j,j,j,j,j,j,j,j,j,j,j,j,j,g
d,b,b,b,b,b,b,b,b,b,b,b,b,b,b,f
WAL a,d,b,g,i,k,l,c
ITM 3 6,2
ITM 3 5,2
ITM 3 13,2
ITM 3 12,3
ITM 3 2,8
ITM 3 3,8
ITM 3 12,8
ITM 3 11,9
ITM 3 13,12
ITM 3 6,6
ITM 7 9,4
ITM 8 3,10
ITM 9 8,10
EXT 3,10 4 2,4
PAL 0

ROOM 4
c,b,b,b,b,b,b,b,b,b,b,b,b,b,b,e
g,l,l,l,l,l,l,l,l,l,l,l,l,l,l,g
g,j,j,j,j,j,j,j,j,j,j,j,j,j,j,g
g,k,k,k,k,k,k,k,k,k,k,k,k,k,k,g
g,j,j,j,j,j,j,j,j,j,j,j,j,j,j,g
d,b,b,b,b,b,b,b,b,b,b,b,b,b,h,g
c,b,b,b,b,b,b,b,b,b,b,b,b,b,h,g
g,l,l,l,l,l,l,l,l,l,l,l,l,l,h,g
g,j,j,j,j,j,j,j,j,j,j,j,j,k,h,g
g,k,k,k,k,k,k,k,k,k,k,k,k,k,h,g
g,j,j,j,j,j,j,j,j,j,j,j,j,j,h,g
d,h,b,b,b,b,b,b,b,b,b,b,b,b,b,f
c,h,b,b,b,b,b,b,b,b,b,b,b,b,b,e
g,h,l,l,l,l,l,l,l,l,l,l,l,l,l,g
g,h,j,j,j,j,j,j,j,j,j,j,j,j,j,g
d,b,b,b,b,b,b,b,b,b,b,b,b,b,b,f
WAL a,d,b,g,i,k,l,c
ITM 3 5,2
ITM 3 6,2
ITM 3 7,2
ITM 3 13,2
ITM 3 12,3
ITM 3 11,3
ITM 3 14,1
ITM 3 15,0
ITM 3 6,6
ITM 3 12,8
ITM 3 11,9
ITM 3 12,7
ITM 3 11,6
ITM 3 2,8
ITM 3 3,8
ITM 3 4,7
ITM 3 5,6
ITM 3 0,8
ITM 3 1,8
ITM 3 0,6
ITM 3 1,7
ITM 3 13,12
ITM 3 13,13
ITM 3 13,14
ITM 3 13,15
ITM 3 14,15
ITM 3 15,15
ITM 3 1,11
ITM 3 1,12
ITM 3 2,12
ITM 3 3,13
ITM 3 3,14
ITM 3 4,15
ITM 3 3,15
ITM a 13,4
ITM b 5,10
ITM c 2,10
EXT 2,10 5 2,4
PAL 0

ROOM 5
c,b,b,b,b,b,b,b,b,b,b,b,b,b,b,e
g,l,l,l,l,l,l,l,l,l,l,l,l,l,l,g
g,j,j,j,j,j,j,j,j,j,j,j,j,j,j,g
g,k,k,k,k,k,k,k,k,k,k,k,k,k,k,g
g,j,j,j,j,j,j,j,j,j,j,j,j,j,j,g
d,b,b,b,b,b,b,b,b,b,b,b,b,b,h,g
c,b,b,b,b,b,b,b,b,b,b,b,b,b,h,g
g,l,l,l,l,l,l,l,l,l,l,l,l,l,h,g
g,j,j,j,j,j,j,j,j,j,j,j,j,k,h,g
g,k,k,k,k,k,k,k,k,k,k,k,k,k,h,g
g,j,j,j,j,j,j,j,j,j,j,j,j,j,h,g
g,h,b,b,b,b,b,b,b,b,b,b,b,b,b,g
d,h,b,b,b,b,b,b,b,b,b,b,b,b,b,f
0,0,0,l,0,0,0,0,0,0,0,0,0,l,0,0
0,0,0,j,0,0,0,0,0,0,0,0,0,j,0,0
0,0,0,b,b,0,0,0,0,0,0,0,0,b,b,0
WAL a,d,b,g,i,k,l,e,f,c
ITM 3 5,2
ITM 3 6,2
ITM 3 7,2
ITM 3 11,3
ITM 3 12,3
ITM 3 13,2
ITM 3 14,1
ITM 3 15,0
ITM 3 5,6
ITM 3 6,6
ITM 3 4,7
ITM 3 3,8
ITM 3 2,8
ITM 3 1,8
ITM 3 1,7
ITM 3 0,6
ITM 3 0,8
ITM 3 1,11
ITM 3 1,12
ITM 3 2,12
ITM 3 3,13
ITM 3 3,14
ITM 3 3,15
ITM 3 4,15
ITM 3 13,12
ITM 3 13,13
ITM 3 13,14
ITM 3 13,15
ITM 3 14,15
ITM 3 15,15
ITM 3 0,15
ITM 3 1,15
ITM 3 2,15
ITM 3 5,15
ITM 3 6,15
ITM 3 7,15
ITM 3 8,15
ITM 3 9,15
ITM 3 11,15
ITM 3 12,15
ITM 3 10,15
ITM 3 15,14
ITM 3 14,14
ITM 3 12,14
ITM 3 11,14
ITM 3 7,14
ITM 3 8,14
ITM 3 9,14
ITM 3 10,14
ITM 3 5,14
ITM 3 4,14
ITM 3 6,14
ITM 3 2,14
ITM 3 1,14
ITM 3 0,14
ITM 3 0,13
ITM 3 1,13
ITM 3 2,13
ITM 3 4,13
ITM 3 5,13
ITM 3 6,13
ITM 3 7,13
ITM 3 8,13
ITM 3 9,13
ITM 3 10,13
ITM 3 11,13
ITM 3 12,13
ITM 3 14,13
ITM 3 15,13
ITM 3 15,11
ITM d 10,10
ITM c 4,10
EXT 4,10 6 2,4
PAL 0

ROOM 6
c,b,b,b,b,b,b,b,b,b,b,b,b,b,b,e
g,l,l,l,l,l,l,l,l,l,l,l,l,l,l,g
g,j,j,j,j,j,j,j,j,j,j,j,j,j,j,g
g,k,k,k,k,k,k,k,k,k,k,k,k,k,k,g
g,j,j,j,j,j,j,j,j,j,j,j,j,j,j,g
d,b,b,b,b,b,b,b,b,b,b,b,b,b,b,f
0,0,0,0,0,0,0,0,0,0,0,0,0,0,0,0
0,0,0,0,0,0,0,0,0,0,0,0,0,0,0,0
0,0,0,0,0,0,0,0,0,0,0,0,0,0,0,0
0,0,0,0,0,0,0,0,0,0,0,0,0,0,0,0
0,0,0,0,0,0,0,0,0,0,0,0,0,0,0,0
0,0,0,0,0,0,0,0,0,0,0,0,0,0,0,0
0,0,0,0,0,0,0,0,0,0,0,0,0,0,0,0
0,0,0,0,0,0,0,0,0,0,0,0,0,0,0,0
0,0,0,0,0,0,0,0,0,0,0,0,0,0,0,0
0,0,0,0,0,0,0,0,0,0,0,0,0,0,0,0
WAL a,d,b,g,i,k,l,e,f,c
ITM 3 0,6
ITM 3 0,7
ITM 3 0,8
ITM 3 0,9
ITM 3 0,10
ITM 3 0,11
ITM 3 0,12
ITM 3 0,13
ITM 3 0,14
ITM 3 0,15
ITM 3 1,15
ITM 3 2,15
ITM 3 3,15
ITM 3 4,15
ITM 3 5,15
ITM 3 6,15
ITM 3 7,15
ITM 3 8,15
ITM 3 9,15
ITM 3 10,15
ITM 3 11,15
ITM 3 12,15
ITM 3 13,15
ITM 3 14,15
ITM 3 15,15
ITM 3 15,14
ITM 3 15,13
ITM 3 15,12
ITM 3 15,11
ITM 3 15,10
ITM 3 15,9
ITM 3 15,8
ITM 3 15,7
ITM 3 15,6
ITM 3 14,6
ITM 3 14,7
ITM 3 14,8
ITM 3 14,9
ITM 3 14,10
ITM 3 14,11
ITM 3 14,12
ITM 3 14,13
ITM 3 14,14
ITM 3 1,6
ITM 3 2,6
ITM 3 3,6
ITM 3 4,6
ITM 3 5,6
ITM 3 6,6
ITM 3 7,6
ITM 3 8,6
ITM 3 9,6
ITM 3 10,6
ITM 3 11,6
ITM 3 12,6
ITM 3 13,6
ITM 3 13,7
ITM 3 13,8
ITM 3 13,9
ITM 3 13,10
ITM 3 13,11
ITM 3 13,12
ITM 3 13,13
ITM 3 13,14
ITM 3 12,14
ITM 3 11,14
ITM 3 10,14
ITM 3 9,14
ITM 3 8,14
ITM 3 7,14
ITM 3 6,14
ITM 3 5,14
ITM 3 4,14
ITM 3 3,14
ITM 3 2,14
ITM 3 1,14
ITM 3 1,13
ITM 3 1,12
ITM 3 1,11
ITM 3 1,10
ITM 3 1,9
ITM 3 1,8
ITM 3 1,7
ITM 3 2,7
ITM 3 2,8
ITM 3 2,9
ITM 3 2,10
ITM 3 2,11
ITM 3 2,12
ITM 3 2,13
ITM 3 3,13
ITM 3 4,13
ITM 3 5,13
ITM 3 6,13
ITM 3 7,13
ITM 3 8,13
ITM 3 9,13
ITM 3 10,13
ITM 3 11,13
ITM 3 12,13
ITM 3 12,12
ITM 3 11,12
ITM 3 10,12
ITM 3 9,12
ITM 3 8,12
ITM 3 7,12
ITM 3 6,12
ITM 3 5,12
ITM 3 4,12
ITM 3 3,12
ITM 3 3,11
ITM 3 3,10
ITM 3 3,9
ITM 3 3,8
ITM 3 3,7
ITM 3 4,7
ITM 3 4,8
ITM 3 4,9
ITM 3 4,10
ITM 3 4,11
ITM 3 5,11
ITM 3 6,11
ITM 3 7,11
ITM 3 8,11
ITM 3 9,11
ITM 3 10,11
ITM 3 11,11
ITM 3 12,11
ITM 3 12,10
ITM 3 11,10
ITM 3 10,10
ITM 3 9,10
ITM 3 8,10
ITM 3 7,10
ITM 3 6,10
ITM 3 5,10
ITM 3 5,9
ITM 3 5,8
ITM 3 5,7
ITM 3 6,7
ITM 3 6,8
ITM 3 6,9
ITM 3 7,9
ITM 3 7,8
ITM 3 7,7
ITM 3 8,7
ITM 3 8,8
ITM 3 8,9
ITM 3 9,9
ITM 3 9,8
ITM 3 9,7
ITM 3 10,7
ITM 3 10,8
ITM 3 10,9
ITM 3 11,9
ITM 3 11,8
ITM 3 11,7
ITM 3 12,7
ITM 3 12,8
ITM 3 12,9
ITM e 4,4
ITM f 7,4
ITM g 11,4
ITM c 14,4
EXT 14,4 7 2,4
PAL 0

ROOM 7
c,b,b,b,b,b,b,b,b,b,e,0,0,0,0,0
g,l,l,l,l,l,l,l,l,l,g,0,0,0,0,0
g,j,j,j,j,j,j,j,j,j,g,0,0,0,0,0
g,k,k,k,k,k,k,k,k,k,g,0,0,0,0,0
g,j,j,j,j,j,j,j,j,j,g,0,0,0,0,0
d,b,b,b,b,b,b,b,b,b,f,0,0,0,0,0
0,0,0,0,0,0,0,0,0,0,0,0,0,0,0,0
0,0,0,0,0,0,0,0,0,0,0,0,0,0,0,0
0,0,0,0,0,0,0,0,0,0,0,0,0,0,0,0
0,0,0,0,0,0,0,0,0,0,0,0,0,0,0,0
0,0,0,0,0,0,0,0,0,0,0,0,0,0,0,0
0,0,0,0,0,0,0,0,0,0,0,0,0,0,0,0
0,0,0,0,0,0,0,0,0,0,0,0,0,0,0,0
0,0,0,0,0,0,0,0,0,0,0,0,0,0,0,0
0,0,0,0,0,0,0,0,0,0,0,0,0,0,0,0
0,0,0,0,0,0,0,0,0,0,0,0,0,0,0,0
WAL a,d,b,g,i,k,l,e,f,c
ITM 3 11,0
ITM 3 11,1
ITM 3 11,2
ITM 3 11,3
ITM 3 11,4
ITM 3 11,5
ITM 3 12,5
ITM 3 12,4
ITM 3 12,3
ITM 3 12,2
ITM 3 12,1
ITM 3 12,0
ITM 3 13,0
ITM 3 13,1
ITM 3 13,2
ITM 3 13,3
ITM 3 13,4
ITM 3 13,5
ITM 3 14,5
ITM 3 14,4
ITM 3 14,3
ITM 3 14,2
ITM 3 14,1
ITM 3 14,0
ITM 3 15,0
ITM 3 15,1
ITM 3 15,2
ITM 3 15,3
ITM 3 15,4
ITM 3 15,5
ITM 3 15,6
ITM 3 14,6
ITM 3 13,6
ITM 3 12,6
ITM 3 11,6
ITM 3 10,6
ITM 3 9,6
ITM 3 0,6
ITM 3 1,6
ITM 3 2,6
ITM 3 3,6
ITM 3 4,6
ITM 3 5,6
ITM 3 6,6
ITM 3 7,6
ITM 3 8,6
ITM 3 8,7
ITM 3 7,7
ITM 3 6,7
ITM 3 5,7
ITM 3 4,7
ITM 3 3,7
ITM 3 1,7
ITM 3 2,7
ITM 3 0,7
ITM 3 0,8
ITM 3 0,9
ITM 3 0,10
ITM 3 0,11
ITM 3 0,12
ITM 3 0,13
ITM 3 0,14
ITM 3 0,15
ITM 3 1,15
ITM 3 2,15
ITM 3 3,15
ITM 3 4,15
ITM 3 5,15
ITM 3 6,15
ITM 3 7,15
ITM 3 9,15
ITM 3 8,15
ITM 3 10,15
ITM 3 11,15
ITM 3 12,15
ITM 3 13,15
ITM 3 14,15
ITM 3 15,15
ITM 3 15,14
ITM 3 15,13
ITM 3 15,12
ITM 3 15,11
ITM 3 15,10
ITM 3 15,9
ITM 3 15,8
ITM 3 15,7
ITM 3 14,7
ITM 3 13,7
ITM 3 12,7
ITM 3 11,7
ITM 3 10,7
ITM 3 9,7
ITM 3 9,8
ITM 3 9,9
ITM 3 9,10
ITM 3 9,11
ITM 3 9,12
ITM 3 9,13
ITM 3 9,14
ITM 3 10,14
ITM 3 11,14
ITM 3 12,14
ITM 3 13,14
ITM 3 14,14
ITM 3 14,13
ITM 3 13,13
ITM 3 12,13
ITM 3 11,13
ITM 3 10,13
ITM 3 10,12
ITM 3 11,12
ITM 3 12,12
ITM 3 13,12
ITM 3 14,12
ITM 3 14,11
ITM 3 13,11
ITM 3 12,11
ITM 3 11,11
ITM 3 10,11
ITM 3 10,10
ITM 3 11,10
ITM 3 12,10
ITM 3 13,10
ITM 3 14,10
ITM 3 14,9
ITM 3 13,9
ITM 3 12,9
ITM 3 11,9
ITM 3 10,9
ITM 3 10,8
ITM 3 11,8
ITM 3 12,8
ITM 3 13,8
ITM 3 14,8
ITM 3 8,8
ITM 3 8,9
ITM 3 8,10
ITM 3 8,11
ITM 3 8,12
ITM 3 8,13
ITM 3 8,14
ITM 3 7,14
ITM 3 6,14
ITM 3 5,14
ITM 3 4,14
ITM 3 3,14
ITM 3 2,14
ITM 3 1,14
ITM 3 1,13
ITM 3 2,13
ITM 3 3,13
ITM 3 4,13
ITM 3 5,13
ITM 3 6,13
ITM 3 7,13
ITM 3 7,12
ITM 3 6,12
ITM 3 5,12
ITM 3 4,12
ITM 3 3,12
ITM 3 2,12
ITM 3 1,12
ITM 3 1,11
ITM 3 2,11
ITM 3 3,11
ITM 3 4,11
ITM 3 5,11
ITM 3 6,11
ITM 3 7,11
ITM 3 7,10
ITM 3 6,10
ITM 3 5,10
ITM 3 4,10
ITM 3 3,10
ITM 3 2,10
ITM 3 1,10
ITM 3 1,9
ITM 3 1,8
ITM 3 2,8
ITM 3 2,9
ITM 3 3,9
ITM 3 3,8
ITM 3 4,8
ITM 3 4,9
ITM 3 5,9
ITM 3 5,8
ITM 3 6,8
ITM 3 6,9
ITM 3 7,9
ITM 3 7,8
ITM h 4,4
ITM h 5,4
ITM h 6,4
ITM c 9,4
END undefined 9,4
PAL 0

TIL a
11111111
10000001
10000001
10011001
10011001
10000001
10000001
11111111

TIL b
11111111
11111111
11111111
00000000
00000000
11111111
11111111
11111111

TIL c
11111111
10011111
10111111
11100000
11100000
11100111
11100111
11100111

TIL d
11100111
11100111
11100111
11100000
11100000
10111111
10011111
11111111

TIL e
11111111
11111001
11111101
00000111
00000111
11100111
11100111
11100111

TIL f
11100111
11100111
11100111
00000111
00000111
11111101
11111001
11111111

TIL g
11100111
11100111
11100111
11100111
11100111
11100111
11100111
11100111

TIL h
00111100
00100100
00111100
00100100
00111100
00100100
00111100
00100100

TIL j
00000000
01100110
01000010
00000000
00000000
01000010
01100110
00000000

TIL k
00000000
01100110
01000010
00000000
00000000
01000010
01100110
00000000

TIL i
00000000
00000000
00000000
00000000
00000000
00000000
00000000
00000000

TIL l
11111111
11111111
00000000
11111111
00000000
01000010
01100110
00000000

TIL m
00000000
00000000
00000000
00000000
00000000
00000000
00000000
00000000

SPR A
00011000
00011000
00011000
00110100
01111110
10111101
00100100
00100100
>
00011000
00011000
00011000
00110100
01111110
10111101
00100100
00100100
POS 0 1,4

SPR a
00000000
00000000
01010001
01110001
01110010
01111100
00111100
00100100
DLG SPR_0

SPR b
00011000
00011000
00111100
00111100
01111110
10111101
00100100
00100100

ITM 0
00000000
00000000
00000000
00011000
00101100
00101100
00011000
00000000
>
00000000
00000000
00000000
00011000
00110100
00110100
00011000
00000000
NAME tea
DLG ITM_0

ITM 1
00000000
00000000
00000000
00011000
00101100
00101100
00011000
00000000
>
00000000
00000000
00000000
00011000
00110100
00110100
00011000
00000000
DLG ITM_1

ITM 2
00000000
00000000
00000000
00011000
00101100
00101100
00011000
00000000
>
00000000
00000000
00000000
00011000
00110100
00110100
00011000
00000000
DLG ITM_2

ITM 3
11100000
00010011
00001001
10010000
00101000
10110000
10000010
01000101

ITM 4
00000000
00000000
00000000
00011000
00101100
00101100
00011000
00000000
>
00000000
00000000
00000000
00011000
00110100
00110100
00011000
00000000
DLG ITM_3

ITM 5
00000000
00000000
00000000
00011000
00101100
00101100
00011000
00000000
>
00000000
00000000
00000000
00011000
00110100
00110100
00011000
00000000
DLG ITM_4

ITM 6
00000000
00000000
00000000
00011000
00101100
00101100
00011000
00000000
>
00000000
00000000
00000000
00011000
00110100
00110100
00011000
00000000

ITM 7
00000000
00000000
00000000
00011000
00101100
00101100
00011000
00000000
>
00000000
00000000
00000000
00011000
00110100
00110100
00011000
00000000
DLG ITM_5

ITM 8
00000000
00000000
00000000
00011000
00101100
00101100
00011000
00000000
>
00000000
00000000
00000000
00011000
00110100
00110100
00011000
00000000

ITM 9
00000000
00000000
00000000
00011000
00101100
00101100
00011000
00000000
>
00000000
00000000
00000000
00011000
00110100
00110100
00011000
00000000
DLG ITM_6

ITM a
00000000
00000000
00000000
00011000
00101100
00101100
00011000
00000000
>
00000000
00000000
00000000
00011000
00110100
00110100
00011000
00000000
DLG ITM_7

ITM b
00000000
00000000
00000000
00011000
00101100
00101100
00011000
00000000
>
00000000
00000000
00000000
00011000
00110100
00110100
00011000
00000000
DLG ITM_8

ITM c
00000000
00000000
00000000
00011000
00101100
00101100
00011000
00000000
>
00000000
00000000
00000000
00011000
00110100
00110100
00011000
00000000

ITM d
00000000
00000000
00000000
00011000
00101100
00101100
00011000
00000000
>
00000000
00000000
00000000
00011000
00110100
00110100
00011000
00000000
DLG ITM_9

ITM e
00000000
00000000
00000000
00011000
00101100
00101100
00011000
00000000
>
00000000
00000000
00000000
00011000
00110100
00110100
00011000
00000000
DLG ITM_a

ITM f
00000000
00000000
00000000
00011000
00101100
00101100
00011000
00000000
>
00000000
00000000
00000000
00011000
00110100
00110100
00011000
00000000
DLG ITM_b

ITM g
00000000
00000000
00000000
00011000
00101100
00101100
00011000
00000000
>
00000000
00000000
00000000
00011000
00110100
00110100
00011000
00000000
DLG ITM_c

ITM h
00000000
00000000
00000000
00011000
00101100
00101100
00011000
00000000
>
00000000
00000000
00000000
00011000
00110100
00110100
00011000
00000000
DLG ITM_d

DLG SPR_0
I'm a cat

DLG ITM_0
"""
Your eyes twitch as you adjust to the Nu Mem.

The brush of lips.

A rush of heat.

Longing.

And then it fades.
"""

DLG ITM_1
"""
Your eyes twitch as you adjust to the Nu Mem.

A crowded bar.

A good drink.

An unexpected smile.

They wave you over.

And then it fades.
"""

DLG ITM_2
"""
Your eyes twitch as you adjust to the Nu Mem.

Hard ground.

Sore hands and knees.

A fall? A fight?

And then it fades.
"""

DLG ITM_3
"""
Your eyes twitch as you adjust to the Nu Mem.

Some pain.

Then... pleasure.

Pleasure.

Pleasure.

And then it fades.
"""

DLG ITM_4
"""
Your eyes twitch as you adjust to the Nu Mem.

Calm water.

A gentle breeze.

Open grasslands.

And then it fades.
"""

DLG ITM_5
"""
Your eyes twitch as you adjust to the Nu Mem.

A door opens.

Cold wind.

Tears freezing on the skin.

A door closes.

Darkness.

Darkness and pain.

And then it fades.
"""

DLG ITM_6
"""
Your eyes twitch as you adjust to the Nu Mem.

Sore fingers in a tight fist.

Regret.

Blood drips to the floor.

The fingers slowly release.

Shame.

And then it fades.
"""

DLG ITM_7
"""
Your eyes twitch as you adjust to the Nu Mem.

Endless sand.

A quiet sunset.

Silent dunes.

And then it fades.
"""

DLG ITM_8
"""
Your eyes twitch as you adjust to the Nu Mem.

...

...

...

And then it fades.
"""

DLG ITM_9
"""
Your eyes twitch as you adjust to the Nu Mem.

And then it fades.
"""

DLG ITM_a
And then it fades.

DLG ITM_b
And then it fades.

DLG ITM_c
And then it fades.

DLG ITM_d
And then it fades.

END 0


END undefined
It fades away until all the dreams are used up.

VAR a
42

