I wonder what's inside me

# BITSY VERSION 3.5

! ROOM_FORMAT 1

PAL 0
124,124,124
89,89,89
120,106,56

PAL 1
78,78,78
65,65,65
79,66,32

ROOM 0
l,l,l,l,l,l,l,l,l,s,j,14,o,0,0,0
l,l,l,l,l,l,l,l,l,s,w,16,19,1a,0,i
l,l,l,l,l,l,l,l,l,s,j,13,18,1b,0,0
l,l,l,l,l,l,l,l,l,s,u,13,17,1c,0,i
l,l,l,l,l,l,l,l,l,s,y,16,o,0,0,0
l,l,q,p,l,l,q,p,l,r,x,15,f,f,f,f
l,l,n,m,l,l,n,m,l,1m,j,14,f,f,f,f
j,v,u,j,j,y,j,j,v,j,j,13,f,f,f,f
0,j,j,j,w,x,j,x,j,j,j,t,o,0,0,0
12,10,c,12,11,c,12,11,c,c,10,d,o,0,0,i
o,o,o,o,o,o,o,a,a,a,o,o,o,0,0,0
0,0,0,0,0,0,o,a,a,a,o,0,0,0,0,i
0,0,0,0,0,0,o,a,a,a,o,0,0,0,0,0
0,g,0,g,0,g,o,a,a,a,o,g,0,g,0,0
0,0,0,0,0,0,o,a,a,a,o,0,0,0,0,0
0,0,z,0,0,0,o,a,a,a,o,0,0,0,0,0
WAL o,l,n,m,k,r,q,p,s,d,t,1l,1m
EXT 0,7 1 15,7
EXT 0,8 1 15,8
EXT 0,9 1 15,9
EXT 7,14 k 7,14
EXT 8,14 k 8,14
EXT 9,14 k 9,14
PAL 0

ROOM 1
s,u,u,1n,l,l,1i,l,l,l,l,l,l,l,l,l
s,1x,1w,1n,l,l,1i,l,l,l,l,l,l,l,l,l
s,1u,1v,1n,l,l,1i,l,l,l,l,l,l,l,l,l
s,1t,u,1n,l,l,1i,l,l,l,l,l,l,l,l,l
s,u,u,1n,l,l,1i,1j,1k,l,l,l,l,l,l,l
s,1s,1r,1o,l,l,1i,1e,1g,l,l,l,q,p,l,l
r,1p,1q,1l,l,l,1h,1d,1f,l,l,l,n,m,l,l
1m,y,0,j,u,y,j,j,j,0,x,u,u,v,u,u
u,u,j,w,v,x,j,x,x,j,j,u,u,u,x,0
12,10,c,12,11,c,12,11,c,c,10,c,c,c,c,c
o,o,o,o,o,o,o,a,a,a,o,o,o,o,o,o
0,0,0,0,0,0,o,a,a,a,o,0,0,0,0,0
0,0,0,0,0,0,o,a,a,a,o,0,0,0,0,0
0,g,0,g,0,g,o,a,a,a,o,g,0,g,0,g
0,0,0,0,0,0,o,a,a,a,o,0,0,0,0,0
0,0,0,0,0,0,o,a,a,a,o,0,0,0,0,0
WAL o,l,n,m,k,r,q,p,s,d,t,1d,1f,1s,1q,1p,1r,1h,1m,1n,1o,1l
EXT 8,8 2 8,8
EXT 8,7 2 8,7
PAL 0

ROOM 2
s,u,u,1n,l,l,1i,l,l,l,l,l,l,l,l,l
s,1x,1w,1n,l,l,1i,l,l,l,l,l,l,l,l,l
s,1u,1v,1n,l,l,1i,l,l,l,l,l,l,l,l,l
s,1t,u,1n,l,l,1i,l,l,l,l,l,l,l,l,l
s,u,u,1n,l,l,1i,1j,1k,l,l,l,l,l,l,l
s,1s,1r,1o,l,l,1i,1e,1g,l,l,l,q,p,l,l
r,1p,1q,1l,l,l,1h,1d,1f,l,l,l,n,m,l,l
1m,y,0,j,u,y,j,j,j,0,x,u,u,v,u,u
u,u,j,w,v,x,j,x,x,j,j,u,u,u,x,0
12,10,c,12,11,c,12,11,c,c,10,c,c,c,c,c
o,o,o,o,o,o,o,a,a,a,o,o,o,o,o,o
0,0,0,0,0,0,o,a,a,a,o,0,0,0,0,0
0,0,0,0,0,0,o,a,a,a,o,0,0,0,0,0
0,g,0,g,0,g,o,a,a,a,o,g,0,g,0,g
0,0,0,0,0,0,o,a,a,a,o,0,0,0,0,0
0,0,0,0,0,0,o,a,a,a,o,0,0,0,0,0
WAL o,l,n,m,k,r,q,p,s,d,t,1d,1f,1s,1q,1p,1r,1h,1m,1n,1o,1l
EXT 9,8 1 9,8
EXT 9,7 1 9,7
EXT 7,8 3 7,8
EXT 7,7 3 7,7
PAL 0

ROOM 3
s,u,u,1n,l,l,1i,l,l,l,l,l,l,l,l,l
s,1x,1w,1n,l,l,1i,l,l,l,l,l,l,l,l,l
s,1u,1v,1n,l,l,1i,l,l,l,l,l,l,l,l,l
s,1t,u,1n,l,l,1i,l,l,l,l,l,l,l,l,l
s,u,u,1n,l,l,1i,1j,1k,l,l,l,l,l,l,l
s,1s,1r,1o,l,l,1i,1e,1g,l,l,l,q,p,l,l
r,1p,1q,1l,l,l,1h,1d,1f,l,l,l,n,m,l,l
1m,y,0,j,u,y,j,j,j,0,x,u,u,v,u,u
u,u,j,w,v,x,j,x,x,j,j,u,u,u,x,0
12,10,c,12,11,c,12,11,c,c,10,c,c,c,c,c
o,o,o,o,o,o,o,a,a,a,o,o,o,o,o,o
0,0,0,0,0,0,o,a,a,a,o,0,0,0,0,0
0,0,0,0,0,0,o,a,a,a,o,0,0,0,0,0
0,g,0,g,0,g,o,a,a,a,o,g,0,g,0,g
0,0,0,0,0,0,o,a,a,a,o,0,0,0,0,0
0,0,0,0,0,0,o,a,a,a,o,0,0,0,0,0
WAL o,l,n,m,k,r,q,p,s,d,t,1d,1f,1s,1q,1p,1r,1h,1m,1n,1o,1l
EXT 8,8 2 8,8
EXT 8,7 2 8,7
EXT 0,8 4 15,8
EXT 0,9 4 15,9
PAL 0

ROOM 4
2g,v,2h,1i,2g,2i,2h,l,2g,j,2h,l,2g,x,2h,l
2g,w,2h,1i,2g,y,2h,l,2g,y,2h,l,2g,u,2h,l
n,2f,m,1i,n,2f,m,l,n,2f,m,l,n,2f,m,l
l,l,l,1i,l,l,l,l,l,l,l,l,l,l,l,l
l,l,l,1i,l,l,l,l,l,l,l,l,l,l,l,l
l,l,l,1i,l,l,l,2e,2d,2c,l,l,l,l,l,l
l,l,l,1i,l,l,l,l,2a,29,28,l,l,l,l,l
l,l,l,1h,l,l,l,l,2b,l,l,l,l,l,l,l
u,y,j,j,u,j,j,u,x,j,v,u,u,u,x,w
12,10,c,12,10,12,11,c,10,12,12,c,c,12,c,11
o,o,o,o,o,o,o,o,o,o,o,o,o,o,o,o
0,0,0,0,0,0,0,0,21,22,0,0,0,0,0,0
0,0,0,0,0,0,0,0,20,1z,1y,23,0,0,0,0
0,g,0,g,0,g,0,g,0,g,0,g,0,g,0,g
0,0,0,0,0,0,0,0,0,0,0,0,0,0,0,0
0,0,0,0,0,0,0,0,0,0,0,0,0,0,0,0
WAL o,l,n,m,k,r,q,p,s,d,t,1d,1f,1s,1q,1p,1r,1h,1m,1n,1o,1l,2b
EXT 14,9 5 14,9
PAL 0

ROOM 5
2g,v,2h,1i,2g,2i,2h,l,2g,j,2h,l,2g,x,2h,l
2g,w,2h,1i,2g,y,2h,l,2g,y,2h,l,2g,u,2h,l
n,2f,m,1i,n,2f,m,l,n,2f,m,l,n,2f,m,l
l,l,l,1i,l,l,l,l,l,l,l,l,l,l,l,l
l,l,l,1i,l,l,l,l,l,l,l,l,l,l,l,l
l,l,l,1i,l,l,l,2e,2d,2c,l,l,l,l,l,l
l,l,l,1i,l,l,l,l,2a,29,28,l,l,l,l,l
l,l,l,1h,l,l,l,l,2b,l,l,l,l,l,l,l
u,y,j,j,u,j,j,u,x,j,v,u,u,u,x,w
12,10,c,12,10,12,11,c,10,12,12,c,c,12,c,2l
o,o,o,o,o,o,o,o,o,o,o,o,o,o,o,o
0,0,0,0,0,0,0,21,22,0,0,0,0,0,0,0
0,0,0,0,0,0,0,20,1z,1y,27,0,0,0,0,0
0,g,0,g,0,g,0,g,0,g,0,g,0,g,0,g
0,0,0,0,0,0,0,0,0,0,0,0,0,0,0,0
0,0,0,0,0,0,0,0,0,0,0,0,0,0,0,0
WAL o,l,n,m,k,r,q,p,s,d,t,1d,1f,1s,1q,1p,1r,1h,1m,1n,1o,1l,2b,2l
EXT 14,9 5 14,9
EXT 13,9 6 13,9
PAL 0

ROOM 6
2g,v,2h,1i,2g,2i,2h,l,2g,j,2h,l,2g,x,2h,l
2g,w,2h,1i,2g,y,2h,l,2g,y,2h,l,2g,u,2h,l
n,2f,m,1i,n,2f,m,l,n,2f,m,l,n,2f,m,l
l,l,l,1i,l,l,l,l,l,l,l,l,l,l,l,l
l,l,l,1i,l,l,l,l,l,l,l,l,l,l,l,l
l,l,l,1i,l,l,l,2e,2d,2c,l,l,l,l,l,l
l,l,l,1i,l,l,l,l,2a,29,28,l,l,l,l,l
l,l,l,1h,l,l,l,l,2b,l,l,l,l,l,l,l
u,y,j,j,u,j,j,u,x,j,v,u,u,u,x,w
12,10,c,12,10,12,11,c,10,12,12,c,c,12,c,2l
o,o,o,o,o,o,o,o,o,o,o,o,o,o,o,o
0,0,0,0,0,0,21,22,0,0,0,0,0,0,0,0
0,0,0,0,0,0,20,1z,1y,23,0,0,0,0,0,0
0,g,0,g,0,g,0,g,0,g,0,g,0,g,0,g
24,0,0,0,0,0,0,0,0,0,0,0,0,0,0,0
0,0,0,0,0,0,0,0,0,0,0,0,0,0,0,0
WAL o,l,n,m,k,r,q,p,s,d,t,1d,1f,1s,1q,1p,1r,1h,1m,1n,1o,1l,2b,2l
EXT 12,9 7 12,9
EXT 12,8 7 12,8
PAL 0

ROOM 7
2g,v,2h,1i,2g,2i,2h,l,2g,j,2h,l,2g,x,2h,l
2g,w,2h,1i,2g,y,2h,l,2g,y,2h,l,2g,u,2h,l
n,2f,m,1i,n,2f,m,l,n,2f,m,l,n,2f,m,l
l,l,l,1i,l,l,l,l,l,l,l,l,l,l,l,l
l,l,l,1i,l,l,l,l,l,l,l,l,l,l,l,l
l,l,l,1i,l,l,l,2e,2d,2c,l,l,l,l,l,l
l,l,l,1i,l,l,l,l,2a,29,28,l,l,l,l,l
l,l,l,1h,l,l,l,l,2b,l,l,l,l,l,l,l
u,y,j,j,u,j,j,u,x,j,v,u,u,u,x,w
12,10,c,12,10,12,11,c,10,12,12,c,c,12,c,2l
o,o,o,o,o,o,o,o,o,o,o,o,o,o,o,o
0,0,0,0,0,21,22,0,0,0,0,0,0,0,0,0
0,0,0,0,0,20,1z,1y,27,0,0,0,0,0,0,0
26,g,0,g,0,g,0,g,0,g,0,g,0,g,0,g
25,24,0,0,0,0,0,0,0,0,0,0,0,0,0,0
0,0,0,0,0,0,0,0,0,0,0,0,0,0,0,0
WAL o,l,n,m,k,r,q,p,s,d,t,1d,1f,1s,1q,1p,1r,1h,1m,1n,1o,1l,2b,2l
EXT 11,9 8 11,9
EXT 11,8 8 11,8
PAL 0

ROOM 8
2g,v,2h,1i,2g,2i,2h,l,2g,j,2h,l,2g,x,2h,l
2g,w,2h,1i,2g,y,2h,l,2g,y,2h,l,2g,u,2h,l
n,2f,m,1i,n,2f,m,l,n,2f,m,l,n,2f,m,l
l,l,l,1i,l,l,l,l,l,l,l,l,l,l,l,l
l,l,l,1i,l,l,l,l,l,l,l,l,l,l,l,l
l,l,l,1i,l,l,l,2e,2d,2c,l,l,l,l,l,l
l,l,l,1i,l,l,l,l,2a,29,28,l,l,l,l,l
l,l,l,1h,l,l,l,l,2b,l,l,l,l,l,l,l
u,y,j,j,u,j,j,u,x,j,v,u,u,u,x,w
12,10,c,12,10,12,11,c,10,12,12,c,c,12,c,2l
o,o,o,o,o,o,o,o,o,o,o,o,o,o,o,o
0,0,0,0,21,22,0,0,0,0,0,0,0,0,0,0
0,0,0,0,20,1z,1y,23,0,0,0,0,0,0,0,0
2n,26,0,g,0,g,0,g,0,g,0,g,0,g,0,g
2m,25,24,0,0,0,0,0,0,0,0,0,0,0,0,0
0,0,0,0,0,0,0,0,0,0,0,0,0,0,0,0
WAL o,l,n,m,k,r,q,p,s,d,t,1d,1f,1s,1q,1p,1r,1h,1m,1n,1o,1l,2b,2l
EXT 10,9 9 10,9
EXT 10,8 9 10,8
PAL 0

ROOM 9
2g,v,2h,1i,2g,2i,2h,l,2g,j,2h,l,2g,x,2h,l
2g,w,2h,1i,2g,y,2h,l,2g,y,2h,l,2g,u,2h,l
n,2f,m,1i,n,2f,m,l,n,2f,m,l,n,2f,m,l
l,l,l,1i,l,l,l,l,l,l,l,l,l,l,l,l
l,l,l,1i,l,l,l,l,l,l,l,l,l,l,l,l
l,l,l,1i,l,l,l,2e,2d,2c,l,l,l,l,l,l
l,l,l,1i,l,l,l,l,2a,29,28,l,l,l,l,l
l,l,l,1h,l,l,l,l,2b,l,l,l,l,l,l,l
u,y,j,j,u,j,j,u,x,j,v,u,u,u,x,w
12,10,c,12,10,12,11,c,10,12,12,c,c,12,c,2l
o,o,o,o,o,o,o,o,o,o,o,o,o,o,o,o
0,0,0,21,22,0,0,0,0,0,0,0,0,0,0,0
0,0,0,20,1z,1y,27,0,0,0,0,0,0,0,0,0
0,2n,26,g,0,g,0,g,0,g,0,g,0,g,0,g
2o,2m,25,24,0,0,0,0,0,0,0,0,0,0,0,0
0,0,0,0,0,0,0,0,0,0,0,0,0,0,0,0
WAL o,l,n,m,k,r,q,p,s,d,t,1d,1f,1s,1q,1p,1r,1h,1m,1n,1o,1l,2b,2l
EXT 9,9 a 9,9
EXT 9,8 a 9,8
PAL 0

ROOM a
2g,v,2h,1i,2g,2i,2h,l,2g,j,2h,l,2g,x,2h,l
2g,w,2h,1i,2g,y,2h,l,2g,y,2h,l,2g,u,2h,l
n,2f,m,1i,n,2f,m,l,n,2f,m,l,n,2f,m,l
l,l,l,1i,l,l,l,l,l,l,l,l,l,l,l,l
l,l,l,1i,l,l,l,l,l,l,l,l,l,l,l,l
l,l,l,1i,l,l,l,2e,2d,2c,l,l,l,l,l,l
l,l,l,1i,l,l,l,l,2a,29,28,l,l,l,l,l
l,l,l,1h,l,l,l,l,2b,l,l,l,l,l,l,l
u,y,j,j,u,j,j,u,x,j,v,u,u,u,x,w
12,10,c,12,10,12,11,c,10,12,12,c,c,12,c,2l
o,o,o,o,o,o,o,o,o,o,o,o,o,o,o,o
0,0,21,22,0,0,0,0,0,0,0,0,0,0,0,0
0,0,20,1z,1y,23,0,0,0,0,0,0,0,0,0,0
0,g,2n,26,0,g,0,g,0,g,0,g,0,g,0,g
0,2o,2m,25,24,0,0,0,0,0,0,0,0,0,0,0
0,0,0,0,0,0,0,0,0,0,0,0,0,0,0,0
WAL o,l,n,m,k,r,q,p,s,d,t,1d,1f,1s,1q,1p,1r,1h,1m,1n,1o,1l,2b,2l
EXT 8,9 b 8,9
EXT 8,8 b 8,8
PAL 0

ROOM b
2g,v,2h,1i,2g,2i,2h,l,2g,j,2h,l,2g,x,2h,l
2g,w,2h,1i,2g,y,2h,l,2g,y,2h,l,2g,u,2h,l
n,2f,m,1i,n,2f,m,l,n,2f,m,l,n,2f,m,l
l,l,l,1i,l,l,l,l,l,l,l,l,l,l,l,l
l,l,l,1i,l,l,l,l,l,l,l,l,l,l,l,l
l,l,l,1i,l,l,l,2e,2d,2c,l,l,l,l,l,l
l,l,l,1i,l,l,l,l,2a,29,28,l,l,l,l,l
l,l,l,1h,l,l,l,l,2b,l,l,l,l,l,l,l
u,y,j,j,u,j,j,u,x,j,v,u,u,u,x,w
12,10,c,12,10,12,11,c,10,12,12,c,c,12,c,2l
o,o,o,o,o,o,o,o,o,o,o,o,o,o,o,o
0,21,22,0,0,0,0,0,0,0,0,0,0,0,0,0
0,20,1z,1y,27,0,0,0,0,0,0,0,0,0,0,0
0,g,0,2n,26,g,0,g,0,g,0,g,0,g,0,g
0,0,2o,2m,25,24,0,0,0,0,0,0,0,0,0,0
0,0,0,0,0,0,0,0,0,0,0,0,0,0,0,0
WAL o,l,n,m,k,r,q,p,s,d,t,1d,1f,1s,1q,1p,1r,1h,1m,1n,1o,1l,2b,2l
EXT 7,9 c 7,9
EXT 7,8 c 7,8
PAL 0

ROOM c
2g,v,2h,1i,2g,2i,2h,l,2g,j,2h,l,2g,x,2h,l
2g,w,2h,1i,2g,y,2h,l,2g,y,2h,l,2g,u,2h,l
n,2f,m,1i,n,2f,m,l,n,2f,m,l,n,2f,m,l
l,l,l,1i,l,l,l,l,l,l,l,l,l,l,l,l
l,l,l,1i,l,l,l,l,l,l,l,l,l,l,l,l
l,l,l,1i,l,l,l,2e,2d,2c,l,l,l,l,l,l
l,l,l,1i,l,l,l,l,2a,29,28,l,l,l,l,l
l,l,l,1h,l,l,l,l,2b,l,l,l,l,l,l,l
u,y,j,j,u,j,j,u,x,j,v,u,u,u,x,w
12,10,c,12,10,12,11,c,10,12,12,c,c,12,c,2l
o,o,o,o,o,o,o,o,o,o,o,o,o,o,o,o
21,22,0,0,0,0,0,0,0,0,0,0,0,0,0,0
20,1z,1y,23,0,0,0,0,0,0,0,0,0,0,0,0
0,g,0,g,2n,26,0,g,0,g,0,g,0,g,0,g
0,0,0,2o,2m,25,24,0,0,0,0,0,0,0,0,0
0,0,0,0,0,0,0,0,0,0,0,0,0,0,0,0
WAL o,l,n,m,k,r,q,p,s,d,t,1d,1f,1s,1q,1p,1r,1h,1m,1n,1o,1l,2b,2l
EXT 6,9 d 6,9
EXT 6,8 d 6,8
PAL 0

ROOM d
2g,v,2h,1i,2g,2i,2h,l,2g,j,2h,l,2g,x,2h,l
2g,w,2h,1i,2g,y,2h,l,2g,y,2h,l,2g,u,2h,l
n,2f,m,1i,n,2f,m,l,n,2f,m,l,n,2f,m,l
l,l,l,1i,l,l,l,l,l,l,l,l,l,l,l,l
l,l,l,1i,l,l,l,l,l,l,l,l,l,l,l,l
l,l,l,1i,l,l,l,2e,2d,2c,l,l,l,l,l,l
l,l,l,1i,l,l,l,l,2a,29,28,l,l,l,l,l
l,l,l,1h,l,l,l,l,2b,l,l,l,l,l,l,l
u,y,j,j,u,j,j,u,x,j,v,u,u,u,x,w
12,10,c,12,10,12,11,c,10,12,12,c,c,12,c,2l
o,o,o,o,o,o,o,o,o,o,o,o,o,o,o,o
22,0,0,0,0,0,0,0,0,0,0,0,0,0,0,0
1z,1y,27,0,0,0,0,0,0,0,0,0,0,0,0,0
0,g,0,g,0,2n,26,g,0,g,0,g,0,g,0,g
0,0,0,0,2o,2m,25,24,0,0,0,0,0,0,0,0
0,0,0,0,0,0,0,0,0,0,0,0,0,0,0,0
WAL o,l,n,m,k,r,q,p,s,d,t,1d,1f,1s,1q,1p,1r,1h,1m,1n,1o,1l,2b,2l
EXT 5,9 e 5,9
EXT 5,8 e 5,8
PAL 0

ROOM e
2g,v,2h,1i,2g,2i,2h,l,2g,j,2h,l,2g,x,2h,l
2g,w,2h,1i,2g,y,2h,l,2g,y,2h,l,2g,u,2h,l
n,2f,m,1i,n,2f,m,l,n,2f,m,l,n,2f,m,l
l,l,l,1i,l,l,l,l,l,l,l,l,l,l,l,l
l,l,l,1i,l,l,l,l,l,l,l,l,l,l,l,l
l,l,l,1i,l,l,l,2e,2d,2c,l,l,l,l,l,l
l,l,l,1i,l,l,l,l,2a,29,28,l,l,l,l,l
l,l,l,1h,l,l,l,l,2b,l,l,l,l,l,l,l
u,y,j,j,u,j,j,u,x,j,v,u,u,u,x,w
12,10,c,12,10,12,11,c,10,12,12,c,c,12,c,2l
o,o,o,o,o,o,o,o,o,o,o,o,o,o,o,o
0,0,0,0,0,0,0,0,0,0,0,0,0,0,0,0
1y,23,0,0,0,0,0,0,0,0,0,0,0,0,0,0
0,g,0,g,0,g,2n,26,0,g,0,g,0,g,0,g
0,0,0,0,0,2o,2m,25,24,0,0,0,0,0,0,0
0,0,0,0,0,0,0,0,0,0,0,0,0,0,0,0
WAL o,l,n,m,k,r,q,p,s,d,t,1d,1f,1s,1q,1p,1r,1h,1m,1n,1o,1l,2b,2l
EXT 4,9 f 4,9
EXT 4,8 f 4,8
PAL 0

ROOM f
2g,v,2h,1i,2g,2i,2h,l,2g,j,2h,l,2g,x,2h,l
2g,w,2h,1i,2g,y,2h,l,2g,y,2h,l,2g,u,2h,l
n,2f,m,1i,n,2f,m,l,n,2f,m,l,n,2f,m,l
l,l,l,1i,l,l,l,l,l,l,l,l,l,l,l,l
l,l,l,1i,l,l,l,l,l,l,l,l,l,l,l,l
l,l,l,1i,l,l,l,2e,2d,2c,l,l,l,l,l,l
l,l,l,1i,l,l,l,l,2a,29,28,l,l,l,l,l
l,l,l,1h,l,l,l,l,2b,l,l,l,l,l,l,l
u,y,j,j,u,j,j,u,x,j,v,u,u,u,x,w
12,10,c,12,10,12,11,c,10,12,12,c,c,12,c,2l
o,o,o,o,o,o,o,o,o,o,o,o,o,o,o,o
0,0,0,0,0,0,0,0,0,0,0,0,0,0,0,0
0,0,0,0,0,0,0,0,0,0,0,0,0,0,0,0
0,g,0,g,0,g,0,2n,26,g,0,g,0,g,0,g
0,0,0,0,0,0,2o,2m,25,24,0,0,0,0,0,0
0,0,0,0,0,0,0,0,0,0,0,0,0,0,0,0
WAL o,l,n,m,k,r,q,p,s,d,t,1d,1f,1s,1q,1p,1r,1h,1m,1n,1o,1l,2b,2l
EXT 3,9 n 3,9
EXT 3,8 n 3,8
PAL 0

ROOM g
2g,2j,2h,l,2g,x,2h,l,2g,v,2h,l,2g,j,2h,l
2g,j,2h,l,2g,v,2h,l,2g,u,2h,l,2g,x,2h,l
n,2f,m,l,n,2f,m,l,n,2f,m,l,n,2f,m,l
l,l,l,l,l,l,l,l,l,l,l,l,l,l,l,l
l,l,l,l,l,l,l,l,l,l,l,l,l,l,l,l
l,l,l,l,l,l,2z,30,31,l,l,l,l,l,l,l
l,l,l,l,l,l,36,0,39,l,l,l,l,l,l,l
l,l,34,35,l,l,37,2k,38,l,l,l,l,l,l,l
u,y,33,32,u,j,j,u,x,j,v,u,u,u,x,u
12,10,c,12,10,12,11,c,10,12,12,c,c,12,10,c
o,o,o,2v,o,o,o,o,o,o,o,o,o,o,o,o
0,0,2w,0,2x,2n,2s,0,0,0,0,0,0,0,0,0
0,0,2y,0,0,2u,2t,0,0,0,0,0,0,0,0,0
0,g,0,g,0,g,0,g,0,g,0,g,0,g,0,g
0,0,0,0,0,0,0,0,0,0,0,0,0,0,0,0
0,0,0,0,0,0,0,0,0,0,0,0,0,0,0,0
WAL l,n,m,k,r,q,p,s,d,t,1d,1f,1s,1q,1p,1r,1h,1m,1n,1o,1l,2b,2l,o,2v,2p,2q,32,33,34,35,39,38,37,36,2z,30,31
EXT 7,6 i 7,12
PAL 0

ROOM i
k,k,k,k,k,k,k,k,k,k,k,k,k,k,k,k
k,k,k,k,k,k,k,k,k,k,k,k,k,k,k,k
k,k,k,k,k,k,k,k,k,k,k,k,k,k,k,k
k,k,k,k,k,k,k,k,k,k,k,k,k,k,k,k
k,k,k,y,y,y,3o,3p,3q,y,y,y,k,k,k,k
k,k,k,3f,y,3k,3i,3l,3d,x,y,3f,k,k,k,k
k,k,k,y,y,3g,3u,3l,3v,3n,y,3r,k,k,k,k
k,k,k,y,y,3k,3d,3l,3h,3m,3g,3s,k,k,k,k
k,k,k,3f,3i,3k,3i,3l,3j,y,y,3f,k,k,k,k
k,k,k,3r,3g,v,3t,3l,3t,3g,3g,3i,k,k,k,k
k,k,k,3f,3f,y,3j,3l,3t,y,y,3h,k,k,k,k
k,k,k,3g,y,3h,3k,3l,3i,x,u,2j,k,k,k,k
k,k,k,k,k,k,k,0,k,k,k,k,k,k,k,k
k,k,k,k,k,k,k,k,k,k,k,k,k,k,k,k
k,k,k,k,k,k,k,k,k,k,k,k,k,k,k,k
k,k,k,k,k,k,k,k,k,k,k,k,k,k,k,k
WAL l,n,m,k,r,q,p,s,d,t,1d,1f,1s,1q,1p,1r,1h,1m,1n,1o,1l,2b,2l,o,2v,2p,2q,3h,3i,3k,3j,3g,3d,3b,3t
EXT 7,6 j 7,6
PAL 1

ROOM j
k,k,k,k,k,k,k,k,k,k,k,k,k,k,k,k
k,k,k,k,k,k,k,k,k,k,k,k,k,k,k,k
k,k,k,k,k,k,k,k,k,k,k,k,k,k,k,k
k,k,k,k,k,k,k,k,k,k,k,k,k,k,k,k
k,k,k,y,y,y,3o,3p,3q,y,y,y,k,k,k,k
k,k,k,3f,y,3k,3i,3l,3d,x,y,3f,k,k,k,k
k,k,k,y,y,3g,3u,3l,3v,3n,y,3r,k,k,k,k
k,k,k,y,y,3k,3d,3l,3h,3m,3g,3s,k,k,k,k
k,k,k,3f,3i,3k,3i,3l,3j,y,y,3f,k,k,k,k
k,k,k,3r,3g,v,3t,3l,3t,3g,3g,3i,k,k,k,k
k,k,k,3f,3f,y,3j,3l,3t,y,y,3h,k,k,k,k
k,k,k,3g,y,3h,3k,3l,3i,x,u,2j,k,k,k,k
k,k,k,k,k,k,k,0,k,k,k,k,k,k,k,k
k,k,k,k,k,k,k,k,k,k,k,k,k,k,k,k
k,k,k,k,k,k,k,k,k,k,k,k,k,k,k,k
k,k,k,k,k,k,k,k,k,k,k,k,k,k,k,k
WAL l,n,m,k,r,q,p,s,d,t,1d,1f,1s,1q,1p,1r,1h,1m,1n,1o,1l,2b,2l,o,2v,2p,2q,3h,3i,3k,3j,3g,3d,3b,3t
END undefined 6,6
END undefined 8,6
END undefined 7,7
PAL 1

ROOM k
l,l,l,l,l,l,l,l,l,s,j,14,o,0,0,0
l,l,l,l,l,l,l,l,l,s,w,16,19,1a,0,i
l,l,l,l,l,l,l,l,l,s,j,13,18,1b,0,0
l,l,l,l,l,l,l,l,l,s,u,13,17,1c,0,i
l,l,l,l,l,l,l,l,l,s,y,16,o,0,0,0
l,l,q,p,l,l,q,p,l,r,x,15,f,f,f,f
l,l,n,m,l,l,n,m,l,1m,j,14,f,f,f,f
j,v,u,j,j,y,j,j,v,j,j,13,f,f,f,f
0,j,j,j,w,x,j,x,j,j,j,t,o,0,0,0
12,10,c,12,11,c,12,11,c,c,10,d,o,0,0,i
o,o,o,o,o,o,o,a,a,a,o,o,o,0,0,0
0,0,0,0,0,0,o,a,a,a,o,0,0,0,0,i
0,0,0,0,0,0,o,a,a,a,o,0,0,0,0,0
0,g,0,g,0,g,o,a,a,a,o,g,0,g,0,0
0,0,0,0,0,0,o,a,a,a,o,0,0,0,0,0
0,0,z,0,0,0,o,a,a,a,o,0,0,0,0,0
WAL o,l,n,m,k,r,q,p,s,d,t,1l,1m
EXT 0,7 1 15,7
EXT 0,8 1 15,8
EXT 0,9 1 15,9
EXT 7,13 l 7,13
EXT 8,13 l 8,13
PAL 0

ROOM l
l,l,l,l,l,l,l,l,l,s,j,14,o,0,0,0
l,l,l,l,l,l,l,l,l,s,w,16,19,1a,0,i
l,l,l,l,l,l,l,l,l,s,j,13,18,1b,0,0
l,l,l,l,l,l,l,l,l,s,u,13,17,1c,0,i
l,l,l,l,l,l,l,l,l,s,y,16,o,0,0,0
l,l,q,p,l,l,q,p,l,r,x,15,f,f,f,f
l,l,n,m,l,l,n,m,l,1m,j,14,f,f,f,f
j,v,u,j,j,y,j,j,v,j,j,13,f,f,f,f
0,j,j,j,w,x,j,x,j,j,j,t,o,0,0,0
12,10,c,12,11,c,12,11,c,c,10,d,o,0,0,i
o,o,o,o,o,o,o,a,a,a,o,o,o,0,0,0
0,0,0,0,0,0,o,a,a,a,o,0,0,0,0,i
0,0,0,0,0,0,o,a,a,a,o,0,0,0,0,0
0,g,0,g,0,g,o,a,a,a,o,g,0,g,0,0
0,0,0,0,0,0,o,a,a,a,o,0,0,0,0,0
0,0,z,0,0,0,o,a,a,a,o,0,0,0,0,0
WAL o,l,n,m,k,r,q,p,s,d,t,1m,1l
EXT 0,7 1 15,7
EXT 0,8 1 15,8
EXT 0,9 1 15,9
EXT 7,12 m 7,12
EXT 8,12 m 8,12
PAL 0

ROOM m
l,l,l,l,l,l,l,l,l,s,j,14,o,0,0,0
l,l,l,l,l,l,l,l,l,s,w,16,19,1a,0,i
l,l,l,l,l,l,l,l,l,s,j,13,18,1b,0,0
l,l,l,l,l,l,l,l,l,s,u,13,17,1c,0,i
l,l,l,l,l,l,l,l,l,s,y,16,o,0,0,0
l,l,q,p,l,l,q,p,l,r,x,15,f,f,f,f
l,l,n,m,l,l,n,m,l,1m,j,14,f,f,f,f
j,v,u,j,j,y,j,j,v,j,j,13,f,f,f,f
0,j,j,j,w,x,j,x,j,j,j,t,o,0,0,0
12,10,c,12,11,c,12,11,c,c,10,d,o,0,0,i
o,o,o,o,o,o,o,a,a,a,o,o,o,0,0,0
0,0,0,0,0,0,o,a,a,a,o,0,0,0,0,i
0,0,0,0,0,0,o,a,a,a,o,0,0,0,0,0
0,g,0,g,0,g,o,a,a,a,o,g,0,g,0,0
0,0,0,0,0,0,o,a,a,a,o,0,0,0,0,0
0,0,z,0,0,0,o,a,a,a,o,0,0,0,0,0
WAL o,l,n,m,k,r,q,p,s,d,t,1l,1m
EXT 0,7 1 15,7
EXT 0,8 1 15,8
EXT 0,9 1 15,9
PAL 0

ROOM n
2g,v,2h,1i,2g,2i,2h,l,2g,j,2h,l,2g,x,2h,l
2g,w,2h,1i,2g,y,2h,l,2g,y,2h,l,2g,u,2h,l
n,2f,m,1i,n,2f,m,l,n,2f,m,l,n,2f,m,l
l,l,l,1i,l,l,l,l,l,l,l,l,l,l,l,l
l,l,l,1i,l,l,l,l,l,l,l,l,l,l,l,l
l,l,l,1i,l,l,l,2e,2d,2c,l,l,l,l,l,l
l,l,l,1i,l,l,l,l,2a,29,28,l,l,l,l,l
l,l,l,1h,l,l,l,l,2b,l,l,l,l,l,l,l
u,y,j,j,u,j,j,u,x,j,v,u,u,u,x,w
12,10,c,12,10,12,11,c,10,12,12,c,c,12,c,2l
o,o,o,o,o,o,o,o,o,o,o,o,o,o,o,o
0,0,0,0,0,0,0,0,0,0,0,0,0,0,0,0
0,0,0,0,0,0,0,0,0,0,0,0,0,0,0,0
0,g,0,g,0,g,0,g,2n,26,0,g,0,g,0,g
0,0,0,0,0,0,0,2o,2m,25,24,0,0,0,0,0
0,0,0,0,0,0,0,0,0,0,0,0,0,0,0,0
WAL o,l,n,m,k,r,q,p,s,d,t,1d,1f,1s,1q,1p,1r,1h,1m,1n,1o,1l,2b,2l
EXT 2,8 p 2,8
EXT 2,9 p 2,9
PAL 0

ROOM p
2g,v,2h,1i,2g,2i,2h,l,2g,j,2h,l,2g,x,2h,l
2g,w,2h,1i,2g,y,2h,l,2g,y,2h,l,2g,u,2h,l
n,2f,m,1i,n,2f,m,l,n,2f,m,l,n,2f,m,l
l,l,l,1i,l,l,l,l,l,l,l,l,l,l,l,l
l,l,l,1i,l,l,l,l,l,l,l,l,l,l,l,l
l,l,l,1i,l,l,l,2e,2d,2c,l,l,l,l,l,l
l,l,l,1i,l,l,l,l,2a,29,28,l,l,l,l,l
l,l,l,1h,l,l,l,l,2b,l,l,l,l,l,l,l
u,y,j,j,u,j,j,u,x,j,v,u,u,u,x,w
12,10,c,12,10,12,11,c,10,12,12,c,c,12,c,2l
o,o,o,o,o,o,o,o,o,o,o,o,o,o,o,o
0,0,0,0,0,0,0,0,0,0,0,0,0,0,0,0
0,0,0,0,0,0,0,0,0,0,0,0,0,0,0,0
0,g,0,g,0,g,0,g,0,2n,26,g,0,g,0,g
0,0,0,0,0,0,0,0,2o,2m,25,24,0,0,0,0
0,0,0,0,0,0,0,0,0,0,0,0,0,0,0,0
WAL o,l,n,m,k,r,q,p,s,d,t,1d,1f,1s,1q,1p,1r,1h,1m,1n,1o,1l,2b,2l
EXT 1,8 q 1,8
EXT 1,9 q 1,9
PAL 0

ROOM q
2g,v,2h,1i,2g,2i,2h,l,2g,j,2h,l,2g,x,2h,l
2g,w,2h,1i,2g,y,2h,l,2g,y,2h,l,2g,u,2h,l
n,2f,m,1i,n,2f,m,l,n,2f,m,l,n,2f,m,l
l,l,l,1i,l,l,l,l,l,l,l,l,l,l,l,l
l,l,l,1i,l,l,l,l,l,l,l,l,l,l,l,l
l,l,l,1i,l,l,l,2e,2d,2c,l,l,l,l,l,l
l,l,l,1i,l,l,l,l,2a,29,28,l,l,l,l,l
l,l,l,1h,l,l,l,l,2b,l,l,l,l,l,l,l
u,y,j,j,u,j,j,u,x,j,v,u,u,u,x,w
12,10,c,12,10,12,11,c,10,12,12,c,c,12,c,2l
o,o,o,o,o,o,o,o,o,o,o,o,o,o,o,o
0,0,0,0,0,0,0,0,0,0,0,0,0,0,0,0
0,0,0,0,0,0,0,0,0,0,0,0,0,0,0,0
0,g,0,g,0,g,0,g,0,g,2n,26,0,g,0,g
0,0,0,0,0,0,0,0,0,2o,2m,25,24,0,0,0
0,0,0,0,0,0,0,0,0,0,0,0,0,0,0,0
WAL o,l,n,m,k,r,q,p,s,d,t,1d,1f,1s,1q,1p,1r,1h,1m,1n,1o,1l,2b,2l
EXT 0,8 g 15,8
EXT 0,9 g 15,9
PAL 0

TIL 10
00000000
00000010
00000000
00000000
00000000
00000000
11111111
11111111

TIL 11
00000000
01000000
00000000
00000000
00000010
00000000
11111111
11111111

TIL 12
00000000
01000000
00000000
00000000
00000000
00000000
11111111
11111111

TIL 13
00000001
00000001
00000001
00100001
00000001
00000001
00000001
00000001

TIL 14
00000001
00000001
00000101
00000101
00000001
00010001
00000001
00000001

TIL 15
00000001
00000001
00000001
00000001
00000001
01000001
01000001
00000001

TIL 16
01000001
00000001
00000001
00000001
00000001
00000001
00010001
00000001

TIL 17
00110000
00110000
00111000
00111111
00111111
00011111
00011011
00000000

TIL 18
00111111
00111111
00111111
00111111
00111111
00111111
00111111
00111111

TIL 19
00000000
00010111
00111111
00111000
00110000
00111111
00111111
00111111

TIL 20
00000110
00111111
01111111
11111111
01111111
11110100
00111001
00001111

TIL 21
00000000
00000000
00000000
00000000
00000000
00000000
00000001
00000010

TIL 22
00000000
00000000
00010000
00100000
00100000
11111111
00001111
00000111

TIL 23
00010000
00000000
00000010
00010000
01000000
10100010
01001000
00000000
>
00001000
00000000
00000101
00100000
00010000
00000001
00000000
00100010

TIL 24
10000000
01111000
11111111
11111111
11111110
11111111
01111110
11000000

TIL 25
10000100
10000010
11000111
11111111
11111111
11111110
11111110
00000011

TIL 26
00000000
00000000
00000000
00000000
00000000
00000000
11111110
11111101

TIL 27
00000000
00000000
00000010
00000100
00000000
00100011
01001000
00000000
>
00000001
00000000
00000000
00000000
00010000
10000000
00000001
00100010

TIL 28
00110111
10101111
10001111
10100111
10110111
11111011
00001100
11111011

TIL 29
10111001
11010110
11010111
11010011
00111000
11111011
00001010
11111011

TIL 30
11111111
11111111
11101111
01010101
00101000
10000100
00100010
00010000

TIL 31
11111111
11111111
11101111
01011111
10100111
00001111
01010000
00001111

TIL 32
00110000
11110000
11110000
11100000
00000000
00000000
00010000
00000001

TIL 33
00001100
00001111
10001111
00000111
00000000
00000000
00000000
01000001

TIL 34
11111111
11110000
11100111
11101000
11101111
11101100
00001100
11101101

TIL 35
11111111
00001111
11100111
00010111
11110111
00110111
10110000
10110111

TIL 36
11100000
11101000
11100000
11100000
11100010
11100000
00000000
11101000

TIL 37
11100000
11100000
11100000
11100000
11100000
11100000
00000001
11100000

TIL 38
00000111
00000111
01000111
00000111
00000111
00000111
00000000
00000111

TIL 39
01000111
00010111
00000111
00000111
00000111
00000111
10000000
00000111

TIL 40
00000000
00000000
10000000
00000000
00000000
00000000
00000000
00000000

TIL 41
00000000
00000000
01000000
00000000
00000000
00000000
00000000
00000000

TIL 42
00000000
00000000
00000000
00000000
00000000
00000000
00000000
00000000

TIL a
11111111
11111111
00000000
00000000
00000000
00000000
11111111
11111111

TIL b
11111111
11111111
11111111
00000000
00000000
00000000
00000000
00000000

TIL c
00000000
00000100
00000000
00000000
10000001
00000000
11111111
11111111

TIL d
01111101
00111101
00111001
00111001
00111001
01111101
11111111
11111111

TIL e
00000001
00000001
00000001
00000001
00000001
00000001
00000001
00000001

TIL f
11000011
11000011
11000011
11000011
11000011
11000011
11000011
11000011

TIL g
00000000
00000000
00000000
01111110
01111110
00000000
00000000
00000000

TIL h
00000000
00011000
00011000
01111110
01111110
00011000
00011000
00000000

TIL i
00000000
00011000
00011000
00011000
00011000
00011000
00011000
00000000

TIL j
00000000
00000001
00100000
00000000
00000000
00000000
00000010
00000000

TIL k
11111111
11111111
11111111
11111111
11111111
11111111
11111111
11111111

TIL l
11111111
11111111
11111111
11111111
11111111
11111111
00000000
11111111

TIL m
00000111
00000111
00000111
00000111
00000111
11111111
00000000
11111111

TIL n
11100000
11100000
11100000
11100000
11100000
11111111
00000000
11111111

TIL o
00000000
00000000
00000000
00000000
00000000
00000000
00000000
00000000

TIL p
11111111
11111111
11111111
00000111
00000111
00000111
00000111
00000111

TIL q
11111111
11111111
11111111
11100000
11100000
11100000
11100000
11100000

TIL r
11111010
11111010
11111010
11111010
11111010
11111010
00000010
11111110

TIL s
11111010
11111010
11111010
11111010
11111010
11111010
00000010
11111010

TIL t
00000001
10000001
00000001
00000001
00000001
00000101
00010001
00111001

TIL u
00000000
00000000
00000000
00100000
00000000
00000000
00000000
00000010

TIL v
00000000
00000000
00000000
00000000
00000100
00000100
00000000
00000000

TIL w
00000000
00000000
00000100
00000000
01000000
00000100
00000000
00000000

TIL x
00000000
00000000
00000000
00010000
00100000
00000000
00000000
00000000

TIL y
00000000
00000000
10000000
00000000
00000010
00000000
00000000
00100000

TIL z
00000000
00000000
00000000
00000000
00000000
00000000
00111100
01111110

TIL 1a
00000000
11101000
11111100
00011100
00001100
11111100
11111100
11111100

TIL 1b
11111100
11111100
11111100
11111100
11111100
11111100
11111100
11111100

TIL 1c
00001100
00001100
00011100
11111100
11111100
11111000
11011000
00000000

TIL 1d
11000001
11000001
11000001
11000001
11000001
11000001
00000000
11111111

TIL 1e
11111111
11000001
11000001
11000001
11000001
11000001
11000001
11000001

TIL 1f
11000011
10000011
10000011
10000011
10000011
10000011
00000000
11111111

TIL 1g
11111111
10000011
10000011
10000011
10000011
10000011
10000011
10000011

TIL 1h
11110111
11110111
11110111
11110111
11110111
11100111
00000000
11111111

TIL 1i
11110111
11110111
11110111
11110111
11110111
11110111
01100011
11110111

TIL 1j
11111111
11111111
11111111
10000000
10100010
10110100
10110110
10000000

TIL 1k
11111111
11111111
11111111
00000001
10010101
11011001
10011101
00000001

TIL 1l
01111111
01111111
01111111
01111111
01111111
01111111
01000000
01111111

TIL 1m
11111110
11111110
11111110
11111110
11111110
11111110
00000010
11111110

TIL 1n
01011111
01011111
01011111
01011111
01011111
01011111
01000000
01011111

TIL 1o
01011111
01011111
01011111
01011111
01011111
01011111
01000000
01111111

TIL 1p
11100110
10101010
11011001
10100110
11001001
11111111
00000000
00000000

TIL 1q
10100101
01011011
00101101
01011011
10000101
11111111
00000000
00000000

TIL 1r
10110111
01011001
11100111
10001001
01010011
10100101
01001111
11010101

TIL 1s
10111011
10100101
11010110
10001010
11010001
10101101
11000010
11010101

TIL 1t
11110000
11010000
11111100
11111110
11110100
10101000
11100000
00000000

TIL 1u
00000110
01000011
10100001
11100000
00000000
00000000
00000000
11110000

TIL 1v
10000000
10000000
00000000
00010000
00000000
00000001
00000000
00000011

TIL 1w
10000000
00000001
00000010
00000111
00001011
00000111
00000111
00100000

TIL 1x
10000000
00000000
00001000
01000000
00000000
00001000
00000010
00000111

TIL 1y
10000000
11111111
11111111
11111111
11111110
00101111
10011110
11110000

TIL 1z
00001111
11111111
11111111
11111111
11111111
11111111
11111111
00000000

TIL 2a
10110010
11101110
11110010
11011100
11100010
11110111
00011100
11110111

TIL 2b
11110111
11110111
11111111
11110111
11111111
11111111
00000000
11111111

TIL 2c
11100111
01110111
01110011
01111011
00111011
10000011
11011110
11111111

TIL 2d
11111111
01111111
01100001
01011101
11011110
11101110
01100100
00111001

TIL 2e
11111111
11001111
11101110
11101110
11110010
11111000
00001110
11111110

TIL 2f
00000000
00000000
00000000
00000000
00000000
11111111
00000000
11111111

TIL 2g
11100000
11100000
11100000
11100000
11100000
11100000
01100000
11100000

TIL 2h
00000111
00000111
00000111
00000111
00000111
00000111
00000110
00000111

TIL 2i
00100000
00010000
00100000
00000000
00000000
00000000
00000010
00000000

TIL 2j
00000000
00000100
00000000
00001000
00000000
00000000
00000000
01000000

TIL 2k
00000000
00000000
00000000
00000000
00000000
00000000
00000000
00000000

TIL 2l
00000000
01000000
00000000
00000000
00000010
00000000
11111111
11111111

TIL 2m
00111000
11110000
11110001
11111111
11111111
11011111
10011111
01110000

TIL 2n
00000000
00000000
00000000
00000000
00000000
00000000
00000111
00011111

TIL 2o
00000000
00000000
00000011
01000111
00001111
01010111
10000011
00000000
>
00000000
00000000
10000011
00010111
00000111
00101111
01010011
00000000

TIL 2p
00000111
00000111
00000111
00000111
00000111
00000111
00000000
00000111

TIL 2q
11100000
11100000
11100000
11100000
11100000
11100000
00000000
11100000

TIL 2s
00000000
00000000
00000000
00000000
00000000
00000000
11100000
11111000

TIL 2t
11100000
00000000
00000000
00000000
00000000
00000000
00000000
00000000

TIL 2u
00000111
00000000
00000000
00000000
00000000
00000000
00000000
00000000

TIL 2v
11111110
01101100
00111000
00101000
00001000
00100000
00000000
01000001
>
11111110
01101100
00111000
00011000
00011000
00101000
00000000
01000011

TIL 2w
00000001
00000101
00000000
00000000
00000000
00000000
10000000
00000001
>
00000001
00000111
00000010
00001000
00000000
01000000
10000001
00000001

TIL 2x
00000000
00000000
01000000
00000000
00000000
10000000
00000000
00000000
>
00000000
10000000
01000000
00000000
00000000
10000000
10000000
01000000

TIL 2y
00000001
00000000
00000100
00000000
00000000
00000000
00000000
00000000
>
00000000
00000000
00000000
00000000
00000000
00000000
00000000
00000000

TIL 2z
11111111
11111111
11111011
11110110
11110010
11101001
00010100
11100010

TIL 3a
00000000
00000000
00000000
10000000
00000000
00000000
00000010
00000000

TIL 3b
00000000
00000000
00000000
00000000
00000000
00000000
00000001
00000000

TIL 3c
10000000
00000000
00000000
00000000
00000000
00000000
00000000
00000000

TIL 3d
00000000
00000000
00000000
00000000
10000000
00000000
00000000
00000000

TIL 3e
00000000
00000000
00000010
00000000
00000000
00000000
00000000
00000000

TIL 3f
10000001
11111111
10100101
10100101
10100101
10100101
11111111
10000001

TIL 3g
00000000
01000000
00000000
00000000
00100000
00000000
00000010
00000000

TIL 3h
00000000
00000010
00000000
00000000
00000000
00000000
01000000
00000000

TIL 3i
00000000
00000000
00000000
01000000
00000000
00000000
00000000
00000000

TIL 3j
00000000
00000000
00000000
00000000
00000000
00000000
00000000
00000100

TIL 3k
00000000
10000000
00000000
00000000
00000000
00000100
00000000
00000000

TIL 3l
00000000
00000000
00000000
00000000
00000000
00000000
00000000
00000000

TIL 3m
00100001
01111111
11100101
10100101
10010101
10001101
10111111
10000001

TIL 3n
00000000
00000000
00000000
00000011
00010101
00010101
00111111
00100001

TIL 3o
00000000
11111111
01000010
01100010
01010100
01000100
01011000
11111111

TIL 3p
00000000
11111111
01000010
01000010
01000110
00001010
01000010
11111111

TIL 3q
00000000
11111111
01000010
01000010
00000010
01000010
01100010
11111111

TIL 3r
10000001
11111111
10100101
00100101
10000101
10101101
11111111
10000001

TIL 3s
10000001
11110111
10100101
10100101
11011001
01001001
11111111
10000001

TIL 3t
00000000
00000000
00000000
00000000
00000000
00010000
00000000
00000000

TIL 3u
00000000
00000000
00000000
00000000
00000000
00000000
00000000
00000100

TIL 3v
00000000
00000000
00000000
00000000
00000000
00000000
00000001
00000000

TIL 3w
00000000
00000000
00100000
00000000
00000000
00000000
00000000
00000000

TIL 3x
00000000
00000000
00000000
00000000
10000000
00000000
00000000
00000010

TIL 3y
00000000
10000000
00000000
00001000
00000000
00000000
00000000
00000000

TIL 3z
00000000
00000000
00000000
00001000
00000000
00000000
00000000
00000000

SPR 10
00110000
01011100
01111010
01111110
00111100
00111100
00011000
00111100
>
00000000
00110000
01011100
01111010
01111110
00111100
00111100
00011000
POS 6 5,6

SPR 11
01110110
01111110
01111110
01101110
00111100
00110100
00100100
01100110
>
00111100
01110110
01111110
01111110
01101110
00111100
00100100
01100110
POS 7 5,7

SPR 12
00110000
01011100
01111010
01111110
00111100
00111100
00011000
00111100
>
00000000
00110000
01011100
01111010
01111110
00111100
00111100
00011000
POS 7 5,6

SPR 13
01111111
00111111
00111110
00100110
01000010
11000010
00000010
00000110
>
01111111
01111111
00111111
00111110
00110110
00010010
00110010
00000110
POS 7 13,9

SPR 14
00001110
00111110
00011110
00011110
00001100
00111110
01111111
01111111
>
00000000
00001110
00111110
00011110
00011110
00001100
00111110
01111111
POS 7 13,8

SPR 15
01110110
01111110
01111110
01101110
00111100
00110100
00100100
01100110
>
00111100
01110110
01111110
01111110
01101110
00111100
00100100
01100110
POS 8 5,7

SPR 16
00110000
01011100
01111010
01111110
00111100
00111100
00011000
00111100
>
00000000
00110000
01011100
01111010
01111110
00111100
00111100
00011000
POS 8 5,6

SPR 17
01111111
00111111
00111110
00100110
01000010
11000010
00000010
00000110
>
01111111
01111111
00111111
00111110
00110110
00010010
00110010
00000110
POS 8 12,9

SPR 18
00001110
00111110
00011110
00011110
00001100
00111110
01111111
01111111
>
00000000
00001110
00111110
00011110
00011110
00001100
00111110
01111111
POS 8 12,8

SPR 19
01110110
01111110
01111110
01101110
00111100
00110100
00100100
01100110
>
00111100
01110110
01111110
01111110
01101110
00111100
00100100
01100110
POS 9 5,7

SPR 20
00000000
00001110
00111110
00011110
00011110
00001100
00111110
01111111
>
00001110
00111110
00011110
00011110
00001100
00111110
01111111
01111111
POS f 5,8

SPR 21
01110110
01111110
01111110
01101110
00111100
00110100
00100100
01100110
>
00111100
01110110
01111110
01111110
01101110
00111100
00100100
01100110
POS f 5,7

SPR 22
00110000
01011100
01111010
01111110
00111100
00111100
00011000
00111100
>
00000000
00110000
01011100
01111010
01111110
00111100
00111100
00011000
POS f 5,6

SPR 23
11111111
11001011
11001111
11001011
11001011
11111111
00000000
11111111
POS g 9,7

SPR 24
11111111
11010011
11111111
11010011
11010011
11111111
00011000
11111111
POS g 9,6

SPR 25
11111111
11111111
10100001
10000001
10000001
11111111
00011000
11111111
POS g 9,5

SPR 26
11111111
11111111
11111111
10000101
10000101
11111111
00000000
11111111
POS g 5,7

SPR 27
11111111
10000101
10000101
11111111
10000101
11111111
00011000
11111111
POS g 5,6

SPR 28
11111111
10000001
11010101
10101011
10000001
11111111
00011000
11111111
POS g 5,5

SPR 29
11111111
00000000
01111111
01001101
00000000
11111111
00000000
11111111
POS g 7,4

SPR 30
00000000
11100000
10010000
01110000
10110000
00010111
11101000
00001111
POS j 5,7

SPR 31
00000000
00000000
00000000
00000000
00000000
11100000
00010000
11110000
POS j 6,7

SPR 32
11110000
10010000
10010000
10010000
11100000
00000000
00000000
00000000
POS j 6,8

SPR 33
00001000
00001000
00001111
00001000
00000111
00000000
00000000
00000000
POS j 5,8

SPR 34
01111110
01111110
00111100
00100100
00100100
00100100
00100100
01100110
>
01111110
01111110
01111110
00111100
00100100
00100100
00100100
01100110
POS k 9,13

SPR 35
00011000
00111100
00111100
00111100
00011000
00111100
01111110
01111110
>
00000000
00011000
00111100
00111100
00111100
00011000
00111100
01111110
POS k 9,12

SPR 36
00111100
01111110
01111110
01111110
01111110
00111100
00100100
01100110
>
01111110
01111110
01111110
01111110
00111100
00100100
00100100
01100110
POS k 10,8

SPR 37
00000000
00000000
00000000
00111000
11111100
00111100
00111100
00011000
>
00000000
00000000
00111000
11111100
00111100
00111100
00011000
00111100
POS k 10,7

SPR 38
01111110
00111100
00100100
00100100
00110100
00100100
00000100
00000100
>
01111110
01111110
00111100
00100100
00110100
00100100
00000100
00000100
POS k 4,6

SPR 39
00000000
00111100
00111100
00111100
00011000
00111100
01111110
01111110
>
00000000
00000000
00111100
00111100
00111100
00011000
00111100
01111110
POS k 4,5

SPR 40
00110000
01011100
01111010
01111110
00111100
00111100
00011000
00111100
>
00000000
00110000
01011100
01111010
01111110
00111100
00111100
00011000
POS o 4,6

SPR 42
00111100
00110110
01111110
01111110
01101110
01111100
01100100
01110110
>
01110110
01111110
01111110
01101110
00111100
00110100
00100100
01100110
POS p 5,7

SPR 44
00000000
00110000
01011100
01111010
01111110
00111100
00111100
00011000
>
00110000
01011100
01111010
01111110
00111100
00111100
00011000
00111100
POS p 5,6

SPR 45
00111111
00111110
00111110
00100110
00100010
00100010
01100010
00000110
>
01111111
00111111
00111110
00111110
00100110
00100010
01100010
00000110
POS p 5,9

SPR 46
00001110
01111110
01011110
01011110
01001100
00111110
00111111
00111111
>
00000000
00001110
00111110
00011110
00011110
00001100
00111110
01111111
POS p 5,8

SPR 48
00111111
00111110
00111110
00100110
00100010
00100010
01100010
00000110
>
01111111
00111111
00111110
00111110
00100110
00100010
01100010
00000110
POS q 5,9

SPR 49
00111100
00110110
01111110
01111110
01101110
01111100
01100100
01110110
>
01110110
01111110
01111110
01101110
00111100
00110100
00100100
01100110
POS q 5,7

SPR A
00000000
01111110
01111110
01010010
01010010
01010010
01111110
00000000
POS 0 8,15

SPR a
01111110
01111110
00111100
00100100
00100100
00100100
00100100
01100110
>
01111110
01111110
01111110
00111100
00100100
00100100
00100100
01100110
POS 0 9,13

SPR b
00011000
00111100
00111100
00111100
00011000
00111100
01111110
01111110
>
00000000
00011000
00111100
00111100
00111100
00011000
00111100
01111110
POS 0 9,12

SPR c
01111110
01111110
01111110
01111110
00111100
00100100
00100100
01100110
>
00111100
01111110
01111110
01111110
01111110
00111100
00100100
01100110
POS 0 10,8

SPR d
00000000
00000000
00111000
11111100
00111100
00111100
00011000
00111100
>
00000000
00000000
00000000
00111000
11111100
00111100
00111100
00011000
POS 0 10,7

SPR e
01111110
00111100
00100100
00100100
00110100
00100100
00000100
00000100
>
01111110
01111110
00111100
00100100
00110100
00100100
00000100
00000100
POS 0 4,6

SPR f
00000000
00111100
00111100
00111100
00011000
00111100
01111110
01111110
>
00000000
00000000
00111100
00111100
00111100
00011000
00111100
01111110
POS 0 4,5

SPR g
00011010
00011110
00011100
00111110
11111110
01111110
01111110
01100110
>
00000000
00011010
00011110
00011100
00111110
11111110
01111110
01100110
POS 1 9,9

SPR h
00111010
00011100
00011100
00001100
00011110
00011110
00111110
01001010
>
00000000
00111010
00011100
00011100
00001100
00011110
00111110
01001010
POS 1 3,6

SPR i
00011010
00011110
00011100
00111110
11111110
01111110
01111110
01100110
>
00000000
00011010
00011110
00011100
00111110
11111110
01111110
01100110
POS 2 8,9

SPR j
00011010
00011110
00011100
00111110
11111110
01111110
01111110
01100110
>
00000000
00011010
00011110
00011100
00111110
11111110
01111110
01100110
POS 3 7,9

SPR l
00111010
00011100
00011100
00001100
00011110
00011110
00111110
01001010
>
00000000
00111010
00011100
00011100
00001100
00011110
00111110
01001010
POS 2 3,6

SPR m
00111010
00011100
00011100
00001100
00011110
00011110
00111110
01001010
>
00000000
00111010
00011100
00011100
00001100
00011110
00111110
01001010
POS 3 3,6

SPR n
01111111
01111111
00111111
00111110
00100110
00100010
01100010
00000110
>
01111111
00111111
00111110
00100110
00100010
00100010
01100010
00000110
POS 4 14,8

SPR o
00000000
00001110
00111110
00011110
00011110
00001100
00111110
01111111
>
00001110
00111110
00011110
00011110
00001100
00111110
01111111
01111111
POS 4 14,7

SPR r
00111100
01110110
01111110
01111110
01101110
00111100
00100100
01100110
>
01110110
01111110
01111110
01101110
00111100
00110100
00100100
01100110
POS 4 5,7

SPR s
00000000
00110000
01011100
01111010
01111110
00111100
00111100
00011000
>
00110000
01011100
01111010
01111110
00111100
00111100
00011000
00111100
POS 4 5,6

SPR t
01111111
00111111
00111110
00100110
00100010
00100010
01100010
00000110
>
01111111
01111111
00111111
00111110
00100110
00100010
01100010
00000110
POS 5 14,8

SPR u
00001110
00111110
00011110
00011110
00001100
00111110
01111111
01111111
>
00000000
00001110
00111110
00011110
00011110
00001100
00111110
01111111
POS 5 14,7

SPR v
01110110
01111110
01111110
01101110
00111100
00110100
00100100
01100110
>
00111100
01110110
01111110
01111110
01101110
00111100
00100100
01100110
POS 5 5,7

SPR w
00110000
01011100
01111010
01111110
00111100
00111100
00011000
00111100
>
00000000
00110000
01011100
01111010
01111110
00111100
00111100
00011000
POS 5 5,6

SPR x
01111111
00111111
00111110
00100110
01000010
11000010
00000010
00000110
>
01111111
01111111
00111111
00111110
00110110
00010010
00110010
00000110
POS 6 14,9

SPR y
00001110
00111110
00011110
00011110
00001100
00111110
01111111
01111111
>
00000000
00001110
00111110
00011110
00011110
00001100
00111110
01111111
POS 6 14,8

SPR z
01110110
01111110
01111110
01101110
00111100
00110100
00100100
01100110
>
00111100
01110110
01111110
01111110
01101110
00111100
00100100
01100110
POS 6 5,7

SPR 1a
00110000
01011100
01111010
01111110
00111100
00111100
00011000
00111100
>
00000000
00110000
01011100
01111010
01111110
00111100
00111100
00011000

SPR 1b
01111111
00111111
00111110
00100110
01000010
11000010
00000010
00000110
>
01111111
01111111
00111111
00111110
00110110
00010010
00110010
00000110
POS 9 11,9

SPR 1c
00001110
00111110
00011110
00011110
00001100
00111110
01111111
01111111
>
00000000
00001110
00111110
00011110
00011110
00001100
00111110
01111111
POS 9 11,8

SPR 1d
01110110
01111110
01111110
01101110
00111100
00110100
00100100
01100110
>
00111100
01110110
01111110
01111110
01101110
00111100
00100100
01100110

SPR 1e
00110000
01011100
01111010
01111110
00111100
00111100
00011000
00111100
>
00000000
00110000
01011100
01111010
01111110
00111100
00111100
00011000
POS 9 5,6

SPR 1f
01111111
00111111
00111110
00100110
01000010
11000010
00000010
00000110
>
01111111
01111111
00111111
00111110
00110110
00010010
00110010
00000110
POS a 10,9

SPR 1g
00001110
00111110
00011110
00011110
00001100
00111110
01111111
01111111
>
00000000
00001110
00111110
00011110
00011110
00001100
00111110
01111111
POS a 10,8

SPR 1h
01110110
01111110
01111110
01101110
00111100
00110100
00100100
01100110
>
00111100
01110110
01111110
01111110
01101110
00111100
00100100
01100110
POS a 5,7

SPR 1i
00110000
01011100
01111010
01111110
00111100
00111100
00011000
00111100
>
00000000
00110000
01011100
01111010
01111110
00111100
00111100
00011000
POS a 5,6

SPR 1j
01111111
00111111
00111110
00100110
01000010
11000010
00000010
00000110
>
01111111
01111111
00111111
00111110
00110110
00010010
00110010
00000110
POS b 9,9

SPR 1k
00001110
00111110
00011110
00011110
00001100
00111110
01111111
01111111
>
00000000
00001110
00111110
00011110
00011110
00001100
00111110
01111111
POS b 9,8

SPR 1l
01110110
01111110
01111110
01101110
00111100
00110100
00100100
01100110
>
00111100
01110110
01111110
01111110
01101110
00111100
00100100
01100110
POS b 5,7

SPR 1m
00110000
01011100
01111010
01111110
00111100
00111100
00011000
00111100
>
00000000
00110000
01011100
01111010
01111110
00111100
00111100
00011000
POS b 5,6

SPR 1n
01111111
00111111
00111110
00100110
01000010
11000010
00000010
00000110
>
01111111
01111111
00111111
00111110
00110110
00010010
00110010
00000110
POS c 8,9

SPR 1o
00001110
00111110
00011110
00011110
00001100
00111110
01111111
01111111
>
00000000
00001110
00111110
00011110
00011110
00001100
00111110
01111111
POS c 8,8

SPR 1p
01110110
01111110
01111110
01101110
00111100
00110100
00100100
01100110
>
00111100
01110110
01111110
01111110
01101110
00111100
00100100
01100110
POS c 5,7

SPR 1q
00110000
01011100
01111010
01111110
00111100
00111100
00011000
00111100
>
00000000
00110000
01011100
01111010
01111110
00111100
00111100
00011000
POS c 5,6

SPR 1r
01111111
00111111
00111110
00100110
01000010
11000010
00000010
00000110
>
01111111
01111111
00111111
00111110
00110110
00010010
00110010
00000110
POS d 7,9

SPR 1s
00001110
00111110
00011110
00011110
00001100
00111110
01111111
01111111
>
00000000
00001110
00111110
00011110
00011110
00001100
00111110
01111111
POS d 7,8

SPR 1t
01110110
01111110
01111110
01101110
00111100
00110100
00100100
01100110
>
00111100
01110110
01111110
01111110
01101110
00111100
00100100
01100110
POS d 5,7

SPR 1u
00110000
01011100
01111010
01111110
00111100
00111100
00011000
00111100
>
00000000
00110000
01011100
01111010
01111110
00111100
00111100
00011000
POS d 5,6

SPR 1v
01111111
00111111
00111110
00100110
01000010
11000010
00000010
00000110
>
01111111
01111111
00111111
00111110
00110110
00010010
00110010
00000110
POS e 6,9

SPR 1w
00001110
00111110
00011110
00011110
00001100
00111110
01111111
01111111
>
00000000
00001110
00111110
00011110
00011110
00001100
00111110
01111111
POS e 6,8

SPR 1x
01110110
01111110
01111110
01101110
00111100
00110100
00100100
01100110
>
00111100
01110110
01111110
01111110
01101110
00111100
00100100
01100110
POS e 5,7

SPR 1y
00110000
01011100
01111010
01111110
00111100
00111100
00011000
00111100
>
00000000
00110000
01011100
01111010
01111110
00111100
00111100
00011000
POS e 5,6

SPR 1z
01111111
00111111
00111110
00111110
00100110
00100010
01100010
00000110
>
00111111
00111110
00111110
00100110
00100010
00100010
01100010
00000110
POS f 5,9

SPR 2a
11111111
00000001
11111001
01101101
00000001
11111111
00000000
11111111
POS g 8,4

SPR 2b
11111111
10000000
10101110
10111101
10000000
11111111
00000000
11111111
POS g 6,4

SPR 2c
01111110
01000010
01111111
01001011
01111010
01000010
00111111
00000000
POS i 3,11

SPR 2d
00011000
01100100
10011010
01101010
10001010
10001100
10110000
11000000
POS i 4,11

SPR 2e
11111110
00011010
11111010
11111010
00011010
00011010
11111110
00000000
POS i 11,10

SPR 2f
00000000
00000000
00011000
00100110
11000001
11111010
00000110
11111110
POS i 11,9

SPR 2g
00000000
01110000
10001100
10000011
11001111
01110000
01000000
01111000
POS i 10,9

SPR 2h
01111111
01000000
01111111
01111111
01000000
01000000
00111111
00000000
POS i 10,10

SPR 2i
00000000
00110000
01001111
01110000
01011111
01000000
00111111
00000000
POS i 4,7

SPR 2j
00000000
11100000
10010000
01110000
10110000
00010111
11101000
00001111
POS i 5,7

SPR 2k
00000000
00000000
00000000
00000000
00000000
11100000
00010000
11110000
POS i 6,7

SPR 2l
11110000
10010000
10010000
10010000
11100000
00000000
00000000
00000000
POS i 6,8

SPR 2m
00001000
00001000
00001111
00001000
00000111
00000000
00000000
00000000
POS i 5,8

SPR 2n
00011000
01110110
11000011
10011101
10000101
10000101
01100110
00011000
POS i 11,4

SPR 2o
01111110
01111110
01111110
11111111
01111110
00100100
00100100
01100110
>
01111110
01111110
01111110
01111110
11111111
01111110
00100100
01100110
POS i 7,5

SPR 2p
00000000
01000000
00111100
00111100
00111100
01011010
00111100
01111110
>
00000000
00000000
01100000
00111100
00111100
00111100
01011010
00111100
POS i 7,4

SPR 2q
01111110
01111110
01111110
11111111
01111110
00100100
00100100
01100110
>
01111110
01111110
01111110
01111110
11111111
01111110
00100100
01100110
POS j 7,5

SPR 2r
00000000
01000000
00111100
00111100
00111100
01011010
00111100
01111110
>
00000000
00000000
01100000
00111100
00111100
00111100
01011010
00111100
POS j 7,4

SPR 2s
00011000
01110110
11000011
10011101
10000101
10000101
01100110
00011000
POS j 11,4

SPR 2t
11111110
00011010
11111010
11111010
00011010
00011010
11111110
00000000
POS j 11,10

SPR 2u
00000000
00000000
00011000
00100110
11000001
11111010
00000110
11111110
POS j 11,9

SPR 2v
00000000
01110000
10001100
10000011
11001111
01110000
01000000
01111000
POS j 10,9

SPR 2w
01111111
01000000
01111111
01111111
01000000
01000000
00111111
00000000
POS j 10,10

SPR 2x
01111110
01000010
01111111
01001011
01111010
01000010
00111111
00000000
POS j 3,11

SPR 2y
00011000
01100100
10011010
01101010
10001010
10001100
10110000
11000000
POS j 4,11

SPR 2z
00000000
00110000
01001111
01110000
01011111
01000000
00111111
00000000
POS j 4,7

SPR 3a
10111101
10111100
00111100
00100100
00100010
01000010
01100011
00000000
>
01111100
00111100
01111110
00111100
00010100
00011000
00101100
00000000
POS 0 13,6

SPR 3b
00000000
00000000
00011100
00111100
00111100
00011000
00111110
01111110
>
00000000
00011100
00111100
00111100
00011000
00111100
01111110
01111110
POS 0 13,5

SPR 3c
10111101
10111100
00111100
00100100
00100010
01000010
01100011
00000000
>
01111100
00111100
01111110
00111100
00010100
00011000
00101100
00000000
POS k 14,6

SPR 3d
00000000
00000000
00011100
00111100
00111100
00011000
00111110
01111110
>
00000000
00011100
00111100
00111100
00011000
00111100
01111110
01111110
POS k 14,5

SPR 3e
01111110
01111110
00111100
00100100
00100100
00100100
00100100
01100110
>
01111110
01111110
01111110
00111100
00100100
00100100
00100100
01100110
POS l 9,13

SPR 3f
00011000
00111100
00111100
00111100
00011000
00111100
01111110
01111110
>
00000000
00011000
00111100
00111100
00111100
00011000
00111100
01111110
POS l 9,12

SPR 3g
00111100
01111110
01111110
01111110
01111110
00111100
00100100
01100110
>
01111110
01111110
01111110
01111110
00111100
00100100
00100100
01100110
POS l 10,8

SPR 3h
00000000
00000000
00000000
00111000
11111100
00111100
00111100
00011000
>
00000000
00000000
00111000
11111100
00111100
00111100
00011000
00111100
POS l 10,7

SPR 3i
01111110
00111100
00100100
00100100
00110100
00100100
00000100
00000100
>
01111110
01111110
00111100
00100100
00110100
00100100
00000100
00000100
POS l 4,6

SPR 3j
00000000
00111100
00111100
00111100
00011000
00111100
01111110
01111110
>
00000000
00000000
00111100
00111100
00111100
00011000
00111100
01111110
POS l 4,5

SPR 3k
10111101
10111100
00111100
00100100
00100010
01000010
01100011
00000000
>
01111100
00111100
01111110
00111100
00010100
00011000
00101100
00000000
POS l 15,6

SPR 3l
00000000
00000000
00011100
00111100
00111100
00011000
00111110
01111110
>
00000000
00011100
00111100
00111100
00011000
00111100
01111110
01111110
POS l 15,5

SPR 3m
01111110
01111110
00111100
00100100
00100100
00100100
00100100
01100110
>
01111110
01111110
01111110
00111100
00100100
00100100
00100100
01100110
POS m 9,13

SPR 3n
00011000
00111100
00111100
00111100
00011000
00111100
01111110
01111110
>
00000000
00011000
00111100
00111100
00111100
00011000
00111100
01111110
POS m 9,12

SPR 3o
00111100
01111110
01111110
01111110
01111110
00111100
00100100
01100110
>
01111110
01111110
01111110
01111110
00111100
00100100
00100100
01100110
POS m 10,8

SPR 3p
00000000
00000000
00000000
00111000
11111100
00111100
00111100
00011000
>
00000000
00000000
00111000
11111100
00111100
00111100
00011000
00111100
POS m 10,7

SPR 3q
01111110
00111100
00100100
00100100
00110100
00100100
00000100
00000100
>
01111110
01111110
00111100
00100100
00110100
00100100
00000100
00000100
POS m 4,6

SPR 3r
00000000
00111100
00111100
00111100
00011000
00111100
01111110
01111110
>
00000000
00000000
00111100
00111100
00111100
00011000
00111100
01111110
POS m 4,5

SPR 3u
00111100
00110110
01111110
01111110
01101110
01111100
01100100
01110110
>
01110110
01111110
01111110
01101110
00111100
00110100
00100100
01100110

SPR 3v
00000000
00110000
01011100
01111010
01111110
00111100
00111100
00011000
>
00110000
01011100
01111010
01111110
00111100
00111100
00011000
00111100
POS n 5,6

SPR 3w
00111111
00111110
00111110
00100110
00100010
00100010
01100010
00000110
>
01111111
00111111
00111110
00111110
00100110
00100010
01100010
00000110
POS n 5,9

SPR 3x
00001110
01111110
01011110
01011110
01001100
00111110
00111111
00111111
>
00000000
00001110
00111110
00011110
00011110
00001100
00111110
01111111
POS n 5,8

SPR 3y
00111100
00110110
01111110
01111110
01101110
01111100
01100100
01110110
>
01110110
01111110
01111110
01101110
00111100
00110100
00100100
01100110
POS n 5,7

SPR 4c
00001110
01111110
01011110
01011110
01001100
00111110
00111111
00111111
>
00000000
00001110
00111110
00011110
00011110
00001100
00111110
01111111
POS q 5,8

SPR 4d
00110000
01011100
01111010
01111110
00111100
00111100
00011000
00111100
>
00000000
00110000
01011100
01111010
01111110
00111100
00111100
00011000
POS q 5,6

DLG 10
Hahahaha, LOSER!

DLG 11
Hahahaha, LOSER!

DLG 12
Hahahaha, LOSER!

DLG 13
What do you think you are? *kicks*

DLG 14
What do you think you are? *kicks*

DLG 15
Hahahaha, LOSER!

DLG 16
Hahahaha, LOSER!

DLG 17
You think you will ever find out what is inside you? Hah, foolish. *kicks*

DLG 18
You think you will ever find out what is inside you? Hah, foolish. *kicks*

DLG 19
Hahahaha, LOSER!

DLG 20
Haha, you're so idiotic.

DLG 23
BOX STORAGE

DLG 24
BOX STORAGE

DLG 25
BOX STORAGE

DLG 26
BOX STORAGE

DLG 27
BOX STORAGE

DLG 28
BOX STORAGE

DLG 29
BOX STORAGE

DLG 34
Get out of my way!

DLG 35
Get out of my way!

DLG 45
Suck on that, trash box! AHAHA

DLG 46
Suck on that, trash box! AHAHA

DLG 47
Suck on that, trash box! AHAHA

DLG 48
Suck on that, trash box! AHAHA

DLG a
Get out of my way!

DLG d
Go away, you useless box!

DLG c
Go away, you useless box!

DLG b
Get out of my way!

DLG e
Why are you so annoying?

DLG g
Grrrrrr

DLG h
I'm more usefull than you, you piece of box!

DLG i
Woof!

DLG j
Woof woof! Grrrrrrr

DLG k


DLG l
I'm more usefull than you, you piece of box!

DLG m
I'm more usefull than you, you piece of box!

DLG n
Get moving! 

DLG o
Get moving! 

DLG p
Get moving! 

DLG q
Get moving! 

DLG r
Hahahaha, LOSER!

DLG s
Hahahaha, LOSER!

DLG u
Get moving! 

DLG t
Get moving! 

DLG v
Hahahaha, LOSER!

DLG w


DLG y
Move, stupid box! *kicks*

DLG x
Move, stupid box! *kicks*

DLG z
Hahahaha, LOSER!

DLG 1a
Hahahaha, LOSER!

DLG 1b
No one is ever gonna help you. *kicks*

DLG 1c
No one is ever gonna help you. *kicks*

DLG 1d
Hahahaha, LOSER!

DLG 1e
Hahahaha, LOSER!

DLG 1f
No one likes you. *kicks*

DLG 1g
No one likes you. *kicks*

DLG 1h
Hahahaha, LOSER!

DLG 1i
Hahahaha, LOSER!

DLG 1j
You are such and inconvenience. *kicks*

DLG 1k
You are such and inconvenience. *kicks*

DLG 1n
Why don't you disappear? *kicks*

DLG 1l
Hahahaha, LOSER!

DLG 1m
Hahahaha, LOSER!

DLG 1o
Why don't you disappear? *kicks*

DLG 1p
Hahahaha, LOSER!

DLG 1q
Hahahaha, LOSER!

DLG 1r
You'll end up being ate by rats, anyway... *kicks*

DLG 1s
You'll end up being ate by rats, anyway... *kicks*

DLG 1t
Hahahaha, LOSER!

DLG 1u
Hahahaha, LOSER!

DLG 1x
Hahahaha, LOSER!

DLG 1y
Hahahaha, LOSER!

DLG 1z
Haha, you're so idiotic.

DLG 2a
BOX STORAGE

DLG 2b
BOX STORAGE

DLG 1v
You are a mistake. *kicks*

DLG 1w
You are a mistake. *kicks*

DLG 2l
An empty box.

DLG 2k
An empty box.

DLG 2o
... You want to know what is inside you, don't you? Oh well, that's really what all of you want. Why are you all the same?! Well... Go ahead.

DLG 2q
... You want to know what is inside you, don't you? Oh well, that's really what all of you want. Why are you all the same?! Can't you just follow on your lives as it is? Isn't it good enough? Well... There you go... I hope this clears your mind. *opens*

DLG 3m
Get out of my way!

DLG 3n
Get out of my way!

DLG 3g


DLG 3f
Get out of my way!

DLG 3e
Get out of my way!

DLG 3p
Go away, you useless box!

DLG 3o
Go away, you useless box!

DLG 3q
Why are you so annoying?

DLG 3r
Why are you so annoying?

DLG 3s
Suck on that, trash box! AHAHA

DLG 3t
Suck on that, trash box! AHAHA

DLG 3w
Suck on that, trash box! AHAHA

DLG 3x
Suck on that, trash box! AHAHA

DLG 4c
Suck on that, trash box! AHAHA

END 0


END undefined
there's nothing inside you

END undefinee


END undefinef


