
scrapperbot... initializing...

# BITSY VERSION 4.8

! ROOM_FORMAT 1

PAL 0
NAME Palette M
128,128,128
255,255,255
0,0,0

PAL 1
NAME Palette N
53,94,48
196,196,196
255,255,255

PAL 2
NAME Palette W
58,70,97
199,199,199
255,255,255

PAL 3
NAME Palette S
102,52,42
196,196,196
255,255,255

ROOM 0
6y,6u,6j,6l,6j,6l,3f,31,0,0,6j,64,64,6l,6h,6h
6y,6z,0,6j,6l,0,0,38,0,0,0,6o,6n,0,6h,6h
6x,6z,0,0,0,0,0,37,0,0,6a,6b,69,6l,6h,6i
6q,6q,0,0,0,0,0,3j,36,7p,0,0,0,0,5w,6g
6q,6q,0,0,0,0,0,0,0,34,0,0,0,0,0,6g
6q,6p,0,0,0,0,0,32,33,0,0,0,0,0,0,6f
6p,0,0,0,0,0,2v,0,0,0,0,0,0,0,0,69
74,0,7q,0,0,7r,0,0,0,0,0,0,0,0,0,69
0,7p,0,2p,0,4a,3a,0,0,0,0,7f,7e,0,0,0
0,0,0,0,0,2z,0,0,0,7e,0,0,7e,0,7e,0
70,6l,0,0,0,2k,0,0,7e,0,6a,6b,5z,60,61,61
6m,71,0,0,0,2i,0,0,0,0,0,0,5w,5w,5w,5w
72,0,0,0,0,2h,0,0,0,0,0,0,0,0,0,3f
73,0,0,0,0,0,2h,0,0,0,0,0,0,0,0,83
0,0,0,0,0,0,0,2g,0,5z,60,61,62,0,0,67
0,0,0,0,0,0,0,30,0,5w,5w,8o,63,64,65,66
NAME Main
ITM 1 2,1
EXT 7,0 1 7,15
EXT 0,7 2 15,7
EXT 7,15 3 8,0
END undefineg 15,12
END 0 1,12
END 0 2,13
PAL 0

ROOM 1
0,0,0,0,0,0,7e,0,0,0,0,6o,6n,0,76,77
0,0,0,0,0,7f,7e,0,0,0,0,0,6o,6n,6s,78
0,0,0,0,0,7e,0,0,0,0,0,0,0,0,6s,78
0,0,0,0,4h,0,0,0,0,0,0,6a,6b,0,6s,79
0,0,0,0,4k,49,0,0,0,0,6a,6b,0,0,6s,7a
0,75,6b,4i,0,0,0,0,0,0,0,0,0,0,0,0
0,0,7e,4c,0,0,0,0,0,0,0,0,0,0,0,7b
0,0,0,i,0,0,44,0,0,0,0,7f,7e,0,0,7c
0,0,0,j,46,47,4b,0,0,0,0,7e,0,0,0,0
0,0,0,0,0,0,42,3c,0,0,0,4h,0,0,0,6m
6u,0,0,0,0,0,41,0,0,0,4g,0,0,0,0,0
6y,0,0,0,0,0,p,0,0,0,0,4f,0,0,0,67
6y,6u,0,0,0,0,41,0,0,0,4h,0,0,0,0,6a
6y,6z,6o,6n,0,0,0,40,0,38,0,0,0,0,70,6n
6y,6z,0,0,0,0,0,3w,39,0,0,0,0,0,6a,6b
6y,6z,0,6o,6n,0,0,3x,0,0,0,6j,6l,6a,6b,69
NAME North
ITM 0 1,0
ITM 1 14,10
EXT 7,15 0 7,0
END 0 2,2
END 0 3,1
END 0 4,0
END 0 3,11
END 0 2,10
END 0 1,9
END 0 0,8
END 0 9,9
END 0 10,10
END 0 11,11
END 0 12,12
END 0 13,13
END 0 15,15
END 0 8,1
END 0 7,2
END 0 6,3
PAL 0

ROOM 2
0,0,0,0,0,0,7v,6q,7s,7t,0,0,0,0,0,0
0,0,0,7f,0,7e,7w,6p,7c,7u,6n,6a,6b,0,0,0
0,0,0,7e,7e,0,0,0,0,0,0,0,6a,6b,0,0
0,0,7e,0,0,0,0,0,0,0,0,0,0,6j,64,6l
0,0,0,0,0,p,0,3c,0,0,0,0,0,0,6o,6n
0,0,0,0,0,0,43,0,0,0,0,0,0,0,0,0
0,0,0,0,0,0,0,45,7y,7z,g,44,44,i,j,0
0,0,0,0,0,0,0,80,7x,7j,0,0,0,0,0,j
0,0,0,0,0,0,82,0,81,42,0,0,0,0,0,0
0,0,0,0,7e,0,0,0,0,h,46,0,0,0,0,0
0,0,7f,0,0,7e,0,0,4a,0,r,46,0,0,0,0
0,0,0,0,7e,0,0,4a,0,0,0,0,g,0,0,0
0,7e,0,0,0,0,i,0,0,0,0,0,0,3j,0,5z
0,0,0,0,0,47,0,0,0,0,0,0,0,0,0,5w
0,0,0,0,0,0,0,0,0,0,0,6j,64,64,6l,5z
0,0,0,0,0,0,0,0,0,0,0,6a,6b,6a,6b,5w
NAME West
ITM 0 1,14
ITM 2 1,1
ITM 1 9,15
EXT 15,7 0 0,7
END 0 11,4
END 0 10,3
END 0 9,2
END 0 5,4
END 0 6,3
END 0 7,2
END 0 9,11
END 0 8,12
END 0 7,13
END 0 6,14
END 0 4,5
END 0 3,6
END 0 5,15
END 0 11,9
END 0 10,10
PAL 0

ROOM 3
8l,8j,8h,8f,0,0,0,3v,r,0,0,0,0,0,0,0
8l,8j,8h,8f,7b,8n,0,0,3w,0,0,0,0,0,0,0
8m,8k,8i,86,64,65,6l,0,0,41,0,0,5z,60,62,0
6a,6b,0,0,0,0,0,0,0,0,0,0,5w,8o,63,64
0,0,0,6a,6b,6a,6b,0,0,0,0,41,0,6a,6b,6a
0,0,84,0,6a,6b,6a,6b,0,0,0,3z,0,6a,6b,0
0,0,0,85,0,0,0,0,0,0,8p,0,0,0,0,0
72,0,0,0,0,3x,0,4h,4h,8q,3c,0,0,0,0,0
8s,0,0,0,0,0,3v,0,0,0,0,0,0,0,0,0
8r,7e,0,0,0,0,0,4f,0,0,0,0,0,6a,6b,6a
0,7e,0,0,0,0,0,8q,7n,0,0,0,6a,6b,0,0
0,0,7e,0,0,0,0,0,0,r,0,0,0,7e,0,0
0,7e,0,7f,0,0,0,0,0,0,j,0,0,0,0,0
0,0,0,0,0,0,0,0,0,0,7e,0,7e,0,7f,0
0,0,0,0,0,0,0,0,6a,6b,0,7e,0,0,7e,0
0,0,0,0,0,6a,6b,6a,6b,0,0,0,0,0,0,0
NAME South
ITM 2 8,9
ITM 1 3,14
EXT 7,0 0 7,15
END 0 8,5
END 0 9,4
END 0 10,3
END 0 11,2
END 0 12,1
END 0 13,0
END 0 10,11
END 0 9,12
END 0 8,13
END 0 7,14
END 0 11,10
END 0 12,9
END 0 13,8
END 0 3,9
END 0 2,8
END 0 1,7
END 0 0,6
PAL 0

TIL 10
00000001
00000001
00000101
00001111
00000101
00011111
00000101
00111111
WAL true

TIL 11
11110000
10100000
11111000
10100000
10100100
11111110
10100101
11111111
WAL true

TIL 12
00000000
00100000
01111000
00100000
00100100
01111111
00100101
11111111
WAL true

TIL 13
00000000
00000000
00000000
00000000
00100100
01111110
10100101
11111111
WAL true

TIL 14
00000000
00000000
00000000
00000000
00000100
00001110
10000101
11111111
WAL true

TIL 15
11111111
10100101
11111101
10100100
00000100
00000100
00000000
00000000
WAL true

TIL 16
11111111
00100101
01111001
00100000
00000000
00000000
00000000
00000000
WAL true

TIL 17
11111111
11111111
11111111
11111111
10101001
10001111
10001000
10000000
WAL true

TIL 18
00000000
00100101
01111111
00100101
00100101
11111111
10100101
11111111
WAL true

TIL 19
00000000
00000101
00011111
00000101
00000101
01111111
00100101
11111111
WAL true

TIL 20
00000000
00000010
00001111
00000010
00011111
00000010
00111111
00000010
WAL true

TIL 21
00000000
00000000
00000000
00000000
00000010
00001010
00111111
00010010
WAL true

TIL 22
10100000
11111100
10100000
11111000
10100000
11111100
10100000
11110000
WAL true

TIL 23
10101010
11111111
10101000
11111100
10101000
10000000
00000000
00000000
WAL true

TIL 24
00111111
00010010
00111111
00010011
01111111
00011111
11111111
00011111
WAL true

TIL 25
11111111
11111111
11111111
11111111
01010111
00000010
00111111
00000010
WAL true

TIL 26
00000000
00000010
00001111
00000010
00011111
00000010
00111111
00000010
WAL true

TIL 27
00111111
00010111
01111111
00001111
00111111
00011111
11111111
01010011
WAL true

TIL 28
00111111
00001010
01111111
00001010
00111111
00001010
11111111
00001010
WAL true

TIL 29
00111111
00001010
01111111
00001111
00111111
00001011
00000001
00000001
WAL true

TIL 30
00001111
00000000
01001110
00011100
00000000
11110000
00000010
00010000

TIL 31
10001111
00000000
00011110
01111100
00000001
11110100
00000000
00110011

TIL 32
00000010
10000000
00000010
00001000
00000010
00010100
00000001
10001000

TIL 33
00000010
00100000
00001000
00100000
00000000
00000000
00000000
00000000

TIL 34
00000010
00100000
00001000
00100000
00000000
00000000
00000000
00000000

TIL 35
00000000
00000000
00100010
00001000
01000000
00000100
00010000
00000000

TIL 36
00000000
00000000
00100000
00000000
01000000
00000100
00010000
00000000

TIL 37
10000000
00000000
00100000
00000000
01000000
00000000
00010000
00000000

TIL 38
00000000
00000100
00100000
00000000
01000010
00000000
00010000
00000000

TIL 39
00000000
00000110
00100000
00001100
01000000
00000000
00010000
00000000

TIL 40
00000000
01000010
00000000
00001000
00000010
00000000
00100100
00000000

TIL 41
00000000
01000000
00000000
01000000
00000000
00000000
00100100
00000000

TIL 42
00000000
00010000
00000000
00001000
00000000
00000000
00100100
00000000

TIL 43
00000000
00010000
00000000
00001000
01000000
00000000
00100100
00000000

TIL 44
00000000
00000000
00000000
00010000
01000000
00000000
00100100
10000000

TIL 45
01000000
00001010
00000000
00000000
01000000
00000000
00100100
10000000

TIL 46
00000000
00000000
00000000
00000010
01000000
00000000
00100100
00000000

TIL 47
00000000
00000000
00000000
00000000
00000000
00000000
00000000
00000010

TIL 48
00000000
00000000
10011100
00000000
01110000
00000010
00111000
00011100

TIL 49
11111111
10101010
11111111
11111111
11111111
01100110
00000000
00000000
WAL true

TIL 50
01010101
11111111
01010101
11111111
01010101
11111111
01010101
11111111
WAL true

TIL 51
01010101
11111111
11010111
11111111
11111111
11111111
11111111
11111111
WAL true

TIL 52
00000000
11111111
00000001
11111111
00000001
11111111
00000001
11111111
WAL true

TIL 53
10101010
11111111
10101010
11111111
00101000
11111111
00001000
11111111
WAL true

TIL 54
00000010
00001111
00000010
00011111
00001000
11111111
00001000
11111111
WAL true

TIL 55
00000000
00000000
00100000
01111110
00100000
11110000
00100000
00000000
WAL true

TIL 56
00010100
11111111
00010100
11111111
00010100
00010100
00010100
00010100
WAL true

TIL 57
00010100
11111111
00010100
11111111
00010100
11111111
00010100
11111111
WAL true

TIL 58
00000000
00000000
00010100
11111111
00010100
11111111
00010100
11111111
WAL true

TIL 59
00010001
00010001
00010101
01111111
00010101
11111111
00010101
00011111
WAL true

TIL 60
00000000
00000000
00000000
00000000
11111111
00100000
01000000
11111111
WAL true

TIL 61
00000000
00000000
00000000
00000000
11111111
00100000
01000000
11111111
WAL true

TIL 62
00000000
00000000
00000000
00000000
11100000
01100000
10100000
00100000
WAL true

TIL 63
00100000
00100011
00100100
00101111
00001000
00001001
00001000
00001010
WAL true

TIL 64
00000000
11110011
00110100
11010111
01010100
01010100
01010100
01100101
WAL true

TIL 65
00000000
11110011
00110100
11010111
01010100
01010101
01010100
01100101
WAL true

TIL 66
00000000
11110011
00110100
11010111
01010100
01010100
01010100
01100101
WAL true

TIL 67
00000111
00001000
00011111
00010000
00010000
00010100
00000000
00000000
WAL true

TIL 68
10000001
10101001
10101001
10000001
10101001
10101001
10000001
10001001
WAL true

TIL 69
00000000
00000011
00000100
00001111
00001000
00001001
00001000
00001010
WAL true

TIL 70
00000000
00000011
00000100
00001111
00001000
00001001
00001000
00001010
WAL true

TIL 71
00000000
00000000
11100000
01100000
10100000
10100000
10000000
10000000
WAL true

TIL 72
00000000
00000000
11111110
00000110
00001010
11110010
00010010
11010010
WAL true

TIL 73
00010010
11010010
00010010
11010010
00010010
11010000
00010000
01010000
WAL true

TIL 74
00000000
00000000
10000000
00000001
01110000
00000010
00111000
00011100

TIL 75
00000111
00001000
00011111
00010000
00010000
00010000
00010000
00010100
WAL true

TIL 76
00000000
00000000
00000000
00011111
00100000
01000000
11111111
10000001
WAL true

TIL 77
00000000
00000000
00000000
11100000
01100000
10100000
00100000
00100000
WAL true

TIL 78
00100000
00100000
00100000
00100000
00100000
00100000
00100000
00100000
WAL true

TIL 79
00100000
00101111
00110000
00100000
01111111
01000000
01010010
01000000
WAL true

TIL 80
00000000
00000000
00000010
00000000
00000000
00001000
00000000
00000000

TIL 81
00000000
00000000
00000010
01000000
00000000
00001000
00000000
00000000

TIL 82
00000000
00100000
00000010
00000000
00000000
00000000
00000000
00000000

TIL 83
10000000
00001000
00000000
00000000
00000000
00000000
00000000
00000000

TIL 84
00000000
00000000
00000000
00000000
00000000
00000100
00000000
00000000

TIL 85
00000000
00000000
00000000
00010100
00000000
00000100
00000000
00000000

TIL 86
00000000
00000011
00000100
00001111
00001000
00001001
00001000
00001010
WAL true

TIL 87
11011011
00000000
11011011
00000000
11011011
00000000
11011011
00000000
WAL true

TIL 88
10011011
00000000
10011011
00000000
10011011
00000000
00000001
00000000
WAL true

TIL 89
11011011
00000000
11011011
00000000
11011011
00000000
01000001
00000000
WAL true

TIL a
00000000
10101010
01010101
10101010
01010101
10101010
01010101
10101010
NAME Fence T
WAL true

TIL b
00001000
00000000
00010001
00000010
00000101
00001010
00010101
00101010
NAME Fence LC
WAL true

TIL d
01010101
00101010
01010101
00101010
01010101
00101010
01010101
00101010
NAME Fence L
WAL true

TIL e
01010101
00101010
00010101
00001010
00000101
00000010
00000001
00000000
NAME Fence LB
WAL true

TIL f
01010101
10101010
01010101
10101010
01010101
10101010
01010101
00000000
NAME Fence B
WAL true

TIL g
00100000
00000000
00000000
00101000
00000000
00001000
00000000
00000000
NAME Train N 1

TIL h
00000000
00000000
00001000
00100000
00000000
00001000
00000000
00000010
NAME Trail N 2

TIL i
00000000
00000010
00000000
00100100
00000000
01000000
00000000
00001000
NAME Trail E 1

TIL j
00000000
00010000
00000101
00000000
00000000
00000001
00000000
00000000
NAME Trail E 2

TIL p
00000000
00100000
00000000
00000000
00000000
00001001
00000000
00000000
NAME Trail E 3

TIL r
00000000
00000000
00000100
00000000
00000000
00000000
00000000
00000000
NAME Trail E 4

TIL s
11111000
10010000
10010000
11110100
10010100
11110101
10010101
11111111
WAL true

TIL u
11111111
11111111
11111111
11111111
11111111
11111111
11111111
11111111
WAL true

TIL z
00000001
00000111
00000001
00001111
00000001
00011111
00000001
00111111
WAL true

TIL 1a
00000000
00000001
00000001
00000001
00000001
01100111
00100101
11111111
WAL true

TIL 1b
00000001
00001111
00000101
00100101
00100101
00101111
00100101
11111111
WAL true

TIL 1c
00000001
00001111
00000101
00000101
00000101
00001111
00000101
00000000
WAL true

TIL 1d
00000000
00000000
00000000
00100000
00101000
10101000
11111010
10101010
WAL true

TIL 1e
00001001
00001001
00001111
00001001
00111111
00001001
01111111
11111111
WAL true

TIL 1f
11111111
11111110
11111111
11111110
10101000
10001110
10001000
10000000
WAL true

TIL 1g
11111111
11111110
11110000
11111100
11000000
11111000
00000000
00000000
WAL true

TIL 1h
11111110
11010000
11111100
11010100
11010000
11111000
10000000
11100000
WAL true

TIL 1i
11100000
00100000
01000000
00000000
00000000
00000000
00000000
00000000
WAL true

TIL 1j
11111110
11010000
11111100
11010100
11010000
11111000
10000000
11100000
WAL true

TIL 1k
11111110
11010000
11111100
11010100
11010000
11111000
10000000
11100000
WAL true

TIL 1l
11111111
11111110
11110000
11111100
11000000
11111000
00000000
00000000
WAL true

TIL 1m
11111111
00101111
00101111
00001100
00001000
00000000
00000000
00000000
WAL true

TIL 1n
11111111
11110000
11100000
11111100
11000000
11111000
10000000
10000000
WAL true

TIL 1o
11111111
11101110
11101111
01001010
01001010
01000011
00000010
00000000
WAL true

TIL 1p
10000000
11000000
11110000
00100000
11110000
00100000
11110000
00100000
WAL true

TIL 1q
11100000
00000000
11110000
00100000
11110000
00100000
11110000
00100000
WAL true

TIL 1r
10101010
11111111
10101010
11111111
00101010
00101000
00100000
00000000
WAL true

TIL 1s
11111111
11111111
11111111
00101011
11111111
00101011
00111111
11111111
WAL true

TIL 1t
00000111
00011111
00000111
01111111
00010101
00000100
00000000
00000000
WAL true

TIL 1u
11111111
11111111
11111111
11111111
11111111
11111111
11111111
11111111
WAL true

TIL 1v
11111111
11111111
11111111
00101011
11111111
00101010
00001010
00000010
WAL true

TIL 1w
00010101
11111111
00010101
11111111
00010101
01111111
00010100
00000100
WAL true

TIL 1x
00010101
11111111
00010101
11111111
00010101
00000000
00000000
00000000
WAL true

TIL 1y
01111111
11111111
01111111
11111111
01010101
01010100
00010000
00010000
WAL true

TIL 1z
00101000
00101000
11111111
00101000
11111111
00101000
00101000
00101000
WAL true

TIL 2a
00111111
00001111
00011111
01011111
01111111
11111111
11111111
11111111
WAL true

TIL 2b
11111111
11111111
11111111
11111101
11110101
11111111
11110101
11110101
WAL true

TIL 2c
11111111
11010101
11111111
01010101
11111111
01010101
01010101
01010101
WAL true

TIL 2d
11111111
11010101
11111111
01010101
11111111
01010101
01010101
01010101
WAL true

TIL 2e
11111111
11111111
11111111
11111101
11111111
11111101
11110101
11010101
WAL true

TIL 2f
11111111
11111111
11111111
11111101
11111111
11111101
11110101
11010101
WAL true

TIL 2g
00000000
01001000
00100000
00000000
00000000
00000100
00000000
00001000

TIL 2h
00000000
01001000
00100000
00001000
00000000
00000100
00000000
00001001

TIL 2i
00100101
00001000
00100000
00001010
00000000
00010000
00000000
00001001

TIL 2j
00100101
00001000
00000000
00001010
00100000
00010000
00000000
00001001

TIL 2k
01000100
00001000
00000000
00001010
00100000
00010100
00000000
00001001

TIL 2l
01000000
00000000
00100000
00000010
00100000
00010100
00000000
00001001

TIL 2m
10000000
00000000
00100000
10000000
00100000
00010100
00000000
01001001

TIL 2n
01000100
00010001
00100100
10001000
00100010
00010100
10000000
00101001

TIL 2o
00000100
00000000
00000100
00001000
00000010
00010100
00000000
00101001

TIL 2p
10000010
01001000
00000001
00101000
00000010
00010100
00000000
00000001

TIL 2q
10000000
01000000
00000000
00100000
00000010
00010100
00000000
00000001

TIL 2r
00000000
00000000
00000000
00000000
00000010
00010100
01000000
10001001

TIL 2s
00000010
00000000
10000010
00101000
10000010
00010100
01000000
10000000

TIL 2t
00000010
00000000
10000010
00101000
10000010
00010100
01000000
10000000

TIL 2u
00000010
10000000
00000010
00001000
00000010
00010100
01000001
10001000

TIL 2v
00100100
00000000
01110001
00111000
00000000
00110000
01011110
10000000

TIL 2w
11111000
00000000
01111000
00111110
11110000
00110000
11111110
01000000

TIL 2x
00100001
00000000
00001110
00011100
01110000
00000111
00011100
00000000

TIL 2y
00011100
00000000
00001110
00011100
01110000
00001111
00011100
00110000

TIL 2z
00001111
00000000
01001110
00011100
00000000
11110000
00000010
00010000

TIL 3a
00000000
00111100
01100100
11111111
11111101
11111111
01100110
00000000
WAL true

TIL 3b
00000000
00000000
11111111
01010101
11111111
11111111
11111111
01100110
WAL true

TIL 3c
00000000
00011100
00011010
00011010
11111111
11011111
11111111
01100110
WAL true

TIL 3d
00000000
10000000
00000000
11100000
01000000
11111100
01010100
11111111
WAL true

TIL 3e
00000000
00011110
11111110
00011110
11111111
11111111
11111111
01111110

TIL 3f
00000000
00000000
00000000
00000000
00000010
00000100
00000001
00000000

TIL 3g
00000000
00000001
01000000
00010000
10000000
00000000
00000000
00000000

TIL 3h
00000000
00000000
00000110
00011100
00000000
11110000
00000100
00000000

TIL 3i
00001111
00000000
01001110
00011100
00000000
11110000
00000010
00010000

TIL 3j
00000000
00000000
00011100
00100110
11111111
11111011
11111111
01100110
WAL true

TIL 3k
11111111
01010101
11111111
01010101
11111111
01010101
01010101
01010101
WAL true

TIL 3l
11111111
01010101
11111111
01010101
11111111
01010101
11111111
01010101
WAL true

TIL 3m
01010100
11111111
11000000
11111111
11110000
11111111
11111100
11111100
WAL true

TIL 3n
11110000
01000000
11111110
01000000
11110000
00000000
11000000
00000000
WAL true

TIL 3o
11111111
01010101
11111111
01010101
11111111
01010101
01010101
11111111
WAL true

TIL 3p
11111111
01010101
11111111
01010101
11111111
01010101
01010101
01010101
WAL true

TIL 3q
11111111
01010101
11111111
01010101
11111111
01010101
01010101
01010101
WAL true

TIL 3r
11111111
01010101
01010101
11111100
01000000
11111000
01010000
01000000
WAL true

TIL 3s
11111111
01010101
01010101
11111111
01010101
11111111
01010101
01010101
WAL true

TIL 3t
11111111
01010101
11111111
11111100
11111111
11111000
11111111
11110000
WAL true

TIL 3u
11111111
11111111
11111111
11111110
11111111
11111100
11111111
11111110
WAL true

TIL 3v
00001110
00000000
01001110
00011100
00000000
01110000
00000010
00010000

TIL 3w
00000000
11000000
00010000
00000000
01011000
00000000
00010000
00000000

TIL 3x
00000000
00000110
11000000
00011100
01000000
00000110
01110000
00000001

TIL 3y
00000001
00000100
00000000
00001000
00100010
00000000
00100100
00000000

TIL 3z
00000000
01000010
00000000
00001000
00000010
00000000
00100100
00000000

TIL 4a
00000000
00000100
00100000
00000000
01000000
00000000
00010000
01000000

TIL 4b
00000000
01111000
00001110
00011100
00000000
00110000
00000010
11100000

TIL 4c
00000000
00001000
00100010
00001000
00000000
00000100
00010000
00000100

TIL 4d
00000000
00000000
00100000
00000000
00000000
00000000
00010000
00000000

TIL 4e
00000000
00100000
00000000
00000000
00000000
00000000
00000000
00000000

TIL 4f
00000000
00000000
00100000
00000000
00010100
00000000
00000000
00000000

TIL 4g
00000000
00000000
00010000
00000000
00000000
00000010
00000000
00000000

TIL 4h
00000000
00000000
00000000
00000000
00000000
00000010
00100000
00000000

TIL 4i
00000000
00000100
00100000
00000000
01000000
00000000
00010000
01000000

TIL 4j
00000000
00000000
00100000
00000000
01000000
00000000
00000000
01000000

TIL 4k
00000000
00000000
00100000
00000000
00001000
00000000
00000000
00100000

TIL 4l
00000000
00000000
00100000
00000000
00000000
00000000
00000000
00000000

TIL 4m
11111111
11111111
11111111
11111111
11111111
11111111
11111111
11111111
WAL true

TIL 4n
11111111
11111110
11110000
11111100
11000000
11111000
00000000
00000000
WAL true

TIL 4o
11111110
11010000
11111100
11010100
11010000
11111000
10000000
10000000
WAL true

TIL 4p
11010000
11010000
11111000
11010000
11111110
11010000
11111111
11000000
WAL true

TIL 4q
11110000
11010000
11111000
11010000
11111110
11010000
11110000
11010000
WAL true

TIL 4r
11000000
11010000
11111000
11010000
11111110
11010000
11111110
11010000
WAL true

TIL 4s
10000000
11100000
10000000
10000000
10000000
10010000
11111000
11010000
WAL true

TIL 4t
11110000
11010000
11111000
11010000
11111110
11010000
11110000
11010000
WAL true

TIL 4u
01000000
11111111
01010101
11111111
01010101
11111111
01010101
11111111
WAL true

TIL 4v
00000000
00000000
01010000
11010000
01010000
11111000
01010000
11111110
WAL true

TIL 4w
00000000
00000000
01010000
01010000
01010000
11111000
01010000
01010000
WAL true

TIL 4x
00000000
00000100
00001110
00000100
01000000
01000000
01010000
01010000
WAL true

TIL 4y
00000000
00000100
00001110
00000100
01000000
11100000
01000000
00000000
WAL true

TIL 4z
01010101
11111111
01010101
11111111
01010101
11111111
01010101
11111111
WAL true

TIL 5a
10101010
10101010
11111111
10101010
11111111
10101010
00001010
00000010
WAL true

TIL 5b
00000000
00101010
01111111
00101010
11111111
10101010
00001000
00000000
WAL true

TIL 5c
01000000
11100000
01000000
00001010
11111111
01001010
01001010
00000010
WAL true

TIL 5d
01001010
11101010
01001011
01001010
11111111
01001000
01001000
00000000
WAL true

TIL 5e
01001010
01001010
11111111
01001010
11111111
01001010
01001010
01001010
WAL true

TIL 5f
01001010
01001010
11111111
01001010
11111111
00001010
00000010
00000000
WAL true

TIL 5g
01001010
11111111
01001010
11111111
01001010
11111111
01001010
11111111
WAL true

TIL 5h
01000000
11100000
01001000
00011100
00001000
00011100
00001000
11111100
WAL true

TIL 5i
01000000
11100000
01001000
00011100
00001000
00011100
00001000
00000000
WAL true

TIL 5j
00000010
00000111
00100010
01110111
00100010
01110000
00100000
00000000
WAL true

TIL 5k
00000010
00001111
00100010
11111111
00100010
01110000
00100000
00000000
WAL true

TIL 5l
00000010
00001111
00000010
11111111
00000010
00001111
00000010
00000010
WAL true

TIL 5m
00010010
00011111
00010010
11111111
00010010
00011111
00010010
00010010
WAL true

TIL 5n
10011111
11111111
10010010
11111111
10010010
11111111
10011111
10011100
WAL true

TIL 5o
10011111
10011111
11111111
11111111
10000000
11111111
11111111
11111111
WAL true

TIL 5p
10011111
10011111
11111111
11111111
10000000
11111111
11111111
11111111
WAL true

TIL 5q
11111111
11111111
11111111
11111111
11111111
11111111
11111111
11111111
WAL true

TIL 5r
00011111
01111111
00010001
01111111
00010011
11111111
00010001
01111111
WAL true

TIL 5s
00000010
01111010
00010010
01111111
00010010
11111111
00010000
01111110
WAL true

TIL 5t
00010010
00010010
00010010
01111111
00010010
11111111
00010010
00010010
WAL true

TIL 5u
00010010
00010010
00010010
01111111
00010010
00000000
00000000
00000000
WAL true

TIL 5v
11111100
11111100
00011111
11111111
00011111
00010010
00010010
00000000
WAL true

TIL 5w
10000000
10101010
10101010
10000000
10101010
10101010
10000000
10001000
WAL true

TIL 5x
00000000
00000011
00000100
00001000
00010000
00100000
01000000
11111111
WAL true

TIL 5y
00000000
00000000
00000000
00000000
11111111
10000001
10000001
11111111
WAL true

TIL 5z
00000000
00000000
00000000
00000000
00011111
00100000
01000000
11111111
WAL true

TIL 6a
00000111
00001000
00011111
00010000
00010100
00010000
00010100
00010000
WAL true

TIL 6b
11111000
00011000
11101000
00101000
10101000
00101000
00100000
00100000
WAL true

TIL 6c
00000000
00000000
00000000
00000000
00011111
00100000
01000000
11111111
WAL true

TIL 6d
00000000
00000000
00000000
00000000
11100000
00100000
01100000
10100000
WAL true

TIL 6e
00100000
00100000
00100000
00100000
00100000
00000000
00000000
00000000
WAL true

TIL 6f
10000000
10000000
10110110
10000000
10110110
10000000
10000110
10100000
WAL true

TIL 6g
10000000
10000000
10110110
10000000
10110110
10000000
10110110
10000000
WAL true

TIL 6h
10000000
10101010
10101010
10000000
10101010
10101010
10000000
10000000
WAL true

TIL 6i
10000000
10100011
10100100
10001000
10010000
10100000
11000000
11111111
WAL true

TIL 6j
00000000
00000011
00000100
00001111
00001000
00001001
00001000
00001010
WAL true

TIL 6k
00100000
00100011
00100100
00101111
00101000
01001001
10001000
00001010
WAL true

TIL 6l
00000000
11110000
00110000
11010000
01010000
01010000
01010000
01100000
WAL true

TIL 6m
00000000
00000000
00001111
00010000
00111111
00100000
00101010
00100000
WAL true

TIL 6n
00000000
11100000
00100000
01100000
10100000
10100000
10000000
10000000
WAL true

TIL 6o
00000000
00001111
00010000
00100000
01111111
01000000
01001010
01000000
WAL true

TIL 6p
01101101
00000001
01101101
00000001
01101101
00000001
00000101
00000000
WAL true

TIL 6q
01101101
00000001
01101101
00000001
01101101
00000001
01101101
00000001
WAL true

TIL 6r
00010110
00010000
00010110
00010000
00010110
00010000
00010000
00010000
WAL true

TIL 6s
11101101
10000001
11101101
10000001
11101101
10000001
11101101
10000001
WAL true

TIL 6t
00000000
00000000
00000000
11111000
00000100
00000010
00000001
11111111
WAL true

TIL 6u
00000000
00000000
11110000
00001000
00000100
00000010
11111111
00000001
WAL true

TIL 6v
00000000
00000000
11110000
00001000
00000100
00000010
11111111
00000001
WAL true

TIL 6w
00000000
01010100
01010100
00000000
01010100
01010100
00000000
00000000
WAL true

TIL 6x
01010101
01010101
00000001
11111001
00000101
00000011
11111111
00000001
WAL true

TIL 6y
00000001
01010101
01010101
00000001
01010101
01010101
00000001
00000001
WAL true

TIL 6z
01101101
00000001
01101101
00000001
01101101
00000001
01101101
00000001
WAL true

TIL 7a
01010010
01000000
01010010
01000000
01010010
01000000
01000000
01000010
WAL true

TIL 7b
00000000
00001111
00010000
00100000
01111111
01000000
01010010
01000000
WAL true

TIL 7c
01010010
01000000
01010010
01000000
01010010
01000000
01000000
01000010
WAL true

TIL 7d
00000000
00001111
00010000
00100000
01111111
01000000
01010010
01000000
WAL true

TIL 7e
00000000
00000000
00000000
00000100
00001010
00010001
00101010
01000100
WAL true

TIL 7f
01000010
01100110
01011010
01000010
01100110
01011010
01000010
01000010
WAL true

TIL 7g
00000000
00000000
00000000
00000000
00000010
00000000
00100000
00000000

TIL 7h
00000000
00000000
00000000
00000000
00000000
00000000
00100000
00000000

TIL 7i
00000000
00000000
00000000
00000000
00000100
00000000
00000000
00000000

TIL 7j
00000000
00000000
00000000
00000000
00000000
00000000
00100000
00000000

TIL 7k
00100000
00000000
00000000
00100000
00000000
00001000
00000000
00000000

TIL 7l
00000000
00000000
00000000
01000000
00010000
00000110
01001100
00000000

TIL 7m
00000000
10000000
00000111
00000000
00001000
00000000
00000000
00000000

TIL 7n
00000000
00000000
00000000
00000000
00000000
00000010
00100000
00000100

TIL 7o
00000000
00000000
00000000
00000000
00000001
00000000
00100000
00000100

TIL 7p
00000000
00000000
00000000
00000000
01000000
00000000
00010000
00000000

TIL 7q
00000000
00000000
00000000
00001000
01000000
00000000
10010000
00000000

TIL 7r
00000000
00000000
00000000
00001000
00000000
00000000
10000000
00000000

TIL 7s
01010010
01000000
01010010
01000000
01010010
01000000
01010010
01000000
WAL true

TIL 7t
00101000
00101000
00101000
00101000
00101000
00101000
00101000
00101000
WAL true

TIL 7u
00101000
00101111
00110000
00100000
00111111
00100000
00101010
00100000
WAL true

TIL 7v
00001011
00001000
00001011
00001000
00001011
00001000
00001011
00001000
WAL true

TIL 7w
00001011
00001000
00001011
00001000
00001011
00001000
00001010
00000000
WAL true

TIL 7x
00100100
00100100
01111110
01111110
01111110
01111110
01111110
01111110
WAL true

TIL 7y
00011000
00011000
01111110
01011010
00011000
00011000
00111100
00100100
WAL true

TIL 7z
00000000
00000000
00000010
00010000
00000000
00000100
00100000
00000000

TIL 8a
11011011
00000000
11011011
00000000
11011011
00000000
11011011
00000000
WAL true

TIL 8b
10011011
00000000
10011011
00000000
10011011
00000000
10011011
00000000
WAL true

TIL 8c
11011011
00000000
11011011
00000000
11011011
00000000
01000001
00000000
WAL true

TIL 8d
11011001
00000000
11011001
00000000
11011001
00000000
01000001
00000000
WAL true

TIL 8e
11011001
00000000
11011001
00000000
11011001
00000000
11011001
00000000
WAL true

TIL 8f
00000100
00000100
00000100
00000100
00000100
00000100
00000100
00000100
WAL true

TIL 8g
11011001
00000001
11011001
00000001
11011001
00000001
01000001
00000001
WAL true

TIL 8h
11011010
00000010
11011010
00000010
11011010
00000010
11011010
00000010
WAL true

TIL 8i
11011010
00000010
11011010
00000010
11011010
00000010
00000010
00001010
WAL true

TIL 8j
10110110
00000000
10110110
00000000
10110110
00000000
10110110
00000000
WAL true

TIL 8k
10110110
00000000
10110110
00000000
10110110
00000000
00000000
00000000
WAL true

TIL 8l
01101101
00000000
01101101
00000000
01101101
00000000
01101101
00000000
WAL true

TIL 8m
01101101
00000000
01101101
00000000
01101101
00000000
00000000
00000000
WAL true

TIL 8n
00000000
11100000
01100000
10100000
10100000
10100000
10000000
10000000
WAL true

TIL 8o
10000001
10100101
10100101
10000001
10100101
10100101
10000001
10000101
WAL true

TIL 8p
00000000
00000010
00100000
00000000
00000000
01000000
00000000
00000000

TIL 8q
00000000
00000010
00000000
00000010
00000000
00000000
00000000
00000000

TIL 8r
00010010
11010010
00010010
11010010
00010010
11010000
00010000
01010000
WAL true

TIL 8s
00010010
11010010
00010010
11010010
00010010
11010010
00010010
11010010
WAL true

TIL 8t
00000000
11110000
00110000
01010000
10010000
10000000
10000000
10000000
WAL true

SPR 10
00000000
00000000
00000000
00000000
01010000
01110010
00111100
00100100
>
00000000
00000000
00000000
00000000
01010000
01110100
00111100
00100100
NAME Cat 2
DLG SPR_q
POS 2 4,3

SPR 11
10100000
11100000
11100001
01000010
01111100
01111100
01000100
01000100
>
10100000
11100000
11100000
01000000
01111110
01111101
01000100
01000100
NAME Dog 1
DLG SPR_r
POS 1 5,6

SPR 13
00000000
11110000
11110000
11110000
11111111
11111111
11111111
11111110
NAME Tank 2
POS 0 14,14

SPR 14
00000000
00000011
00111111
00000011
00111111
00111111
00111111
00011111
NAME Tank 2.5
POS 0 13,14

SPR 15
00000000
00000000
00100000
00100100
00011000
01001000
00010100
00111000
>
00000000
00000000
00000100
00100100
00011000
00010010
00101000
00011100
NAME Fire 1
POS 0 1,12

SPR 16
00000000
00000000
00100000
00100100
00011000
01001000
00010100
00111000
>
00000000
00000000
00000100
00100100
00011000
00010010
00101000
00011100
NAME Fire 2
POS 1 6,3

SPR 17
00000000
00000000
00100000
00100100
00011000
01001000
00010100
00111000
>
00000000
00000000
00000100
00100100
00011000
00010010
00101000
00011100
NAME Fire 3
POS 1 13,13

SPR 18
00000000
00000000
00100000
00100100
00011000
01001000
00010100
00111000
>
00000000
00000000
00000100
00100100
00011000
00010010
00101000
00011100
POS 2 9,2

SPR 19
00000000
00000000
00100000
00100100
00011000
01001000
00010100
00111000
>
00000000
00000000
00000100
00100100
00011000
00010010
00101000
00011100
POS 2 7,2

SPR A
00111000
00111000
00111000
00111010
00001100
00000010
00000000
00000000
>
00000000
00000000
00011100
00011100
00011100
01011100
00110000
01000000
POS 0 13,6

SPR a
00000000
00000000
00000000
00000000
01010000
01110010
00111100
00100100
>
00000000
00000000
00000000
00000000
01010000
01110100
00111100
00100100
NAME Cat 1
DLG SPR_0
POS 3 12,6

SPR b
00011000
01011000
01111110
00011010
00011000
00111100
00100100
00100100
>
00011000
00011000
01111110
01011010
00011000
00111100
00100100
00100100
NAME Handler 1
DLG SPR_2
POS 0 14,7

SPR d
10011000
10011000
10111100
11111111
10111101
10111100
00100100
01100110
>
00000000
10011000
10011000
10111100
11111111
10111101
10111100
01100110
NAME Handler 3
DLG SPR_7
POS 0 11,13

SPR e
00000000
00000000
00111000
10101100
01101100
00111100
00110100
00111100
>
00000000
00000000
10111000
01101100
00101100
00111100
00110100
00111100
NAME Kill Bot 1 M
DLG SPR_3
POS 0 3,14

SPR f
00000000
00000000
00001101
00111110
00101100
00111100
00111100
00111000
>
00000000
00000000
00001100
00111101
00101110
00111100
00111100
00111000
NAME Kill Bot 2 M
DLG SPR_4

SPR g
00000000
00000000
00011100
00110100
00101100
00111110
00101101
00111100
>
00000000
00000000
00011100
00110100
00101100
00111100
00101110
00111101
NAME Kill Bot 3 M
DLG SPR_5

SPR h
00000000
00000000
00110000
00110000
00111100
01110100
10101100
00111100
>
00000000
00000000
00110000
00110000
00111100
00110100
01101100
10111100
NAME Kill Bot 4 M
DLG SPR_6

SPR j
11111111
10000001
10111001
10110001
10101001
10000101
11111111
00011000
NAME Sign N
DLG SPR_9

SPR k
11111111
10000001
10111001
10110001
10101001
10000101
11111111
00011000
NAME Sign W
DLG SPR_a

SPR l
11111111
10000101
10101001
10110001
10111001
10000001
11111111
00011000
NAME Sign S
DLG SPR_b

SPR m
00000000
00000000
00111000
10101100
01101100
00111100
00110100
00111100
>
00000000
00000000
10111000
01101100
00101100
00111100
00110100
00111100
NAME Killbot 1 N
DLG SPR_c
POS 1 4,12

SPR n
00000000
00000000
00111000
10101100
01101100
00111100
00110100
00111100
>
00000000
00000000
10111000
01101100
00101100
00111100
00110100
00111100
NAME Killbot 1 W
DLG SPR_d
POS 2 12,5

SPR o
00000000
00000000
00111000
10101100
01101100
00111100
00110100
00111100
>
00000000
00000000
10111000
01101100
00101100
00111100
00110100
00111100
NAME Killbot 1 S
DLG SPR_e
POS 3 4,10

SPR p
00000000
00000000
00001101
00111110
00101100
00111100
00111100
00111000
>
00000000
00000000
00001100
00111101
00101110
00111100
00111100
00111000
NAME Killbot 2 N
DLG SPR_f
POS 1 1,3

SPR q
00000000
00000000
00001101
00111110
00101100
00111100
00111100
00111000
>
00000000
00000000
00001100
00111101
00101110
00111100
00111100
00111000
NAME Killbot 2 W
DLG SPR_g
POS 2 2,7

SPR r
00000000
00000000
00001101
00111110
00101100
00111100
00111100
00111000
>
00000000
00000000
00001100
00111101
00101110
00111100
00111100
00111000
NAME Killbot 2 S
DLG SPR_h
POS 3 7,6

SPR s
00000000
00000000
00011100
00110100
00101100
00111110
00101101
00111100
>
00000000
00000000
00011100
00110100
00101100
00111100
00101110
00111101
NAME Killbot 3 N
DLG SPR_i
POS 1 8,8

SPR t
00000000
00000000
00011100
00110100
00101100
00111110
00101101
00111100
>
00000000
00000000
00011100
00110100
00101100
00111100
00101110
00111101
NAME Killbot 3 W
DLG SPR_j

SPR u
00000000
00000000
00011100
00110100
00101100
00111110
00101101
00111100
>
00000000
00000000
00011100
00110100
00101100
00111100
00101110
00111101
NAME Killbot 3 S
DLG SPR_k

SPR v
00000000
00000000
00110000
00110000
00111100
01110100
10101100
00111100
>
00000000
00000000
00110000
00110000
00111100
00110100
01101100
10111100
NAME Killbot 4 N
DLG SPR_l
POS 1 9,0

SPR w
00000000
00000000
00110000
00110000
00111100
01110100
10101100
00111100
>
00000000
00000000
00110000
00110000
00111100
00110100
01101100
10111100
NAME Killbot 4 W
DLG SPR_m
POS 2 12,8

SPR x
00000000
00000000
00110000
00110000
00111100
01110100
10101100
00111100
>
00000000
00000000
00110000
00110000
00111100
00110100
01101100
10111100
NAME Killbot 4 S
DLG SPR_n
POS 3 14,7

SPR y
00011000
00011000
01111110
01011010
00011000
00111100
00100100
00100100
>
00011000
00011010
01111110
01011000
00011000
00111100
00100100
00100100
NAME Handler 4
DLG SPR_o
POS 0 4,14

SPR z
00011000
00011000
01111110
01011010
00011000
00111100
00100100
00100100
>
00011000
00011010
01111110
01011000
00011000
00111100
00100100
00100100
NAME Handler 5
DLG SPR_p
POS 0 3,3

SPR 1a
00000000
00000000
00100000
00100100
00011000
01001000
00010100
00111000
>
00000000
00000000
00000100
00100100
00011000
00010010
00101000
00011100
POS 3 7,14

ITM 0
00000000
00110000
00111000
10111100
01110101
10111110
00101101
00111100
NAME Robot 1
DLG ITM_1

ITM 1
00000000
00110000
00111100
10111100
01111101
10111110
00101101
00111000
NAME Robot 2
DLG ITM_0

ITM 2
00000000
00111000
00111100
10101100
01111101
10111110
00110101
00101100
NAME Robot 3
DLG ITM_2

DLG SPR_0
{wvy}meoooooooooooooooooooooooooooow!{wvy}

DLG SPR_2
"""
{
  - {item "Robot 1"} > 0 ?
    Take that stuff to the warehouse. Over by the tank!
  - {item "Robot 2"} > 0 ?
    Take that stuff to the warehouse. Over by the tank!
  - {item "Robot 3"} > 0 ?
    Take that stuff to the warehouse. Over by the tank!
  - {item "Robot 1"} < 1 ?
    Salvage the broken bots! Return when you've got something!
  - {item "Robot 2"} < 1 ?
    Salvage the broken bots! Return when you've got something!
  - {item "Robot 3"} < 1 ?
    Salvage the broken bots! Return when you've got something!
}
"""

DLG SPR_3
{shk}beep... beep... beep... beep...{shk}

DLG SPR_4
{shk}beep... beep... beep... beep...{shk}

DLG SPR_5
{shk}beep... beep... beep... beep...{shk}

DLG SPR_6
{shk}beep... beep... beep... beep...{shk}

DLG SPR_7
"""
{
  - {item "Robot 1"} > 0 ?
    Got something? The warehouse is right behind me...
  - {item "Robot 2"} > 0 ?
    Got something? The warehouse is right behind me...
  - {item "Robot 3"} > 0 ?
    Got something? The warehouse is right behind me...
  - {item "Robot 1"} < 1 ?
    What?! You can't go back to the warehouse without any scrap!
  - {item "Robot 2"} < 1 ?
    What?! You can't go back to the warehouse without any scrap!
  - {item "Robot 3"} < 1 ?
    What?! You can't go back to the warehouse without any scrap!
}
"""

DLG SPR_9
Northern Wasteland

DLG SPR_a
Western Wasteland

DLG SPR_b
Southern Wasteland

DLG SPR_c
{shk}beep... beep... beep... beep...{shk}

DLG SPR_d
{shk}beep... beep... beep... beep...{shk}

DLG SPR_e
{shk}beep... beep... beep... beep...{shk}

DLG SPR_f
{shk}beep... beep... beep... beep...{shk}

DLG SPR_g
{shk}beep... beep... beep... beep...{shk}

DLG SPR_h
{shk}beep... beep... beep... beep...{shk}

DLG SPR_i
{shk}beep... beep... beep... beep...{shk}

DLG SPR_j
{shk}beep... beep... beep... beep...{shk}

DLG SPR_k
{shk}beep... beep... beep... beep...{shk}

DLG SPR_l
{shk}beep... beep... beep... beep...{shk}

DLG SPR_m
{shk}beep... beep... beep... beep...{shk}

DLG SPR_n
{shk}beep... beep... beep... beep...{shk}

DLG SPR_o
"""
{
  - {item "Robot 1"} > 0 ?
    Get that scrap to the warehouse!
  - {item "Robot 2"} > 0 ?
    Get that scrap to the warehouse!
  - {item "Robot 3"} > 0 ?
    Get that scrap to the warehouse!
  - {item "Robot 1"} < 1 ?
    This bot has active defenses. Stay out of its line of fire!
  - {item "Robot 2"} < 1 ?
    This bot has active defenses. Stay out of its line of fire!
  - {item "Robot 3"} < 1 ?
    This bot has active defenses. Stay out of its line of fire!
}
"""

DLG SPR_p
"""
{
  - {item "Robot 1"} > 0 ?
    Bring your scrap to the warehouse! Near the tank!
  - {item "Robot 2"} > 0 ?
    Bring your scrap to the warehouse! Near the tank!
  - {item "Robot 3"} > 0 ?
    Bring your scrap to the warehouse! Near the tank!
  - {item "Robot 1"} < 1 ?
    Dead bots can be salvaged. The others are too dangerous!
  - {item "Robot 2"} < 1 ?
    Dead bots can be salvaged. The others are too dangerous!
  - {item "Robot 3"} < 1 ?
    Dead bots can be salvaged. The others are too dangerous!
}
"""

DLG ITM_0
scrapperbot... salvaging...

DLG ITM_1
scrapperbot... salvaging...

DLG ITM_2
scrapperbot... salvaging...

DLG SPR_q
{wvy}meoooooooooooooooooooooooooooow!{wvy}

DLG SPR_r
{shk}woof! woof! woof! woof! woof!{shk}

END 0
{shk}ZAP!{shk}

END undefined


END undefinee


END undefinef


END undefineg
scrapperbot... shutting down...

END undefineh


VAR a
42


