
The Killer Tire (Kill Them All)

# BITSY VERSION 4.6

! ROOM_FORMAT 1

PAL 0
92,91,87
252,132,34
0,0,0

ROOM 0
a,a,0,a,a,0,0,0,0,0,0,a,0,0,a,a
a,0,a,a,a,0,0,0,0,0,0,0,0,a,0,a
0,0,a,0,0,0,0,0,0,0,0,0,0,a,0,0
0,a,0,0,0,0,0,0,0,0,a,0,0,0,0,0
0,0,0,0,0,0,0,0,0,0,0,0,0,0,0,0
0,0,0,0,a,0,0,0,a,0,0,0,0,0,0,0
0,0,0,0,0,0,0,0,0,0,0,0,0,0,0,0
0,0,0,0,0,0,0,0,0,0,0,0,a,0,0,0
0,0,0,a,0,0,0,0,0,0,0,0,0,0,0,0
0,0,0,0,0,0,0,0,0,0,0,0,0,0,0,0
0,0,0,0,0,0,0,0,0,0,0,0,0,0,a,0
a,0,0,0,a,0,0,0,0,0,0,0,0,0,0,0
a,0,a,a,0,0,0,0,0,0,0,0,a,0,0,a
a,a,a,a,0,0,0,0,0,0,0,0,0,a,a,a
a,0,a,0,0,0,0,0,0,0,0,0,a,a,0,0
a,a,a,a,0,0,0,0,0,0,a,a,a,0,a,a
ITM 0 10,7
ITM 1 15,11
ITM 2 14,6
END undefined 0,0
END 0 15,0
PAL 0

TIL a
00000000
00000110
01001100
00101100
00011100
00110111
01101110
00111100
>
10000000
01011000
00001100
01001100
00111100
10010110
01111110
00111100

SPR A
00111100
01111110
11111111
11100111
11100111
11111111
01111110
00111100
POS 0 11,12

SPR a
00011000
00111100
01111110
11111111
00001000
00001000
00011000
01111110
DLG SPR_0
POS 0 10,6

SPR b
00111100
00100100
00100100
00111100
00100100
00100100
00111100
00111100
POS 0 8,4

SPR c
00111100
00100100
00100100
00111100
00100100
00100100
00111100
00111100
POS 0 4,7

SPR d
00111100
00100100
00100100
00111100
00100100
00100100
00111100
00111100
POS 0 12,10

SPR e
00111100
00100100
00100100
00111100
00100100
00100100
00111100
00111100
POS 0 4,3

SPR f
00111100
00100100
00100100
00111100
00100100
00100100
00111100
00111100
POS 0 5,3

SPR g
00111100
00100100
00100100
00111100
00100100
00100100
00111100
00111100
POS 0 3,3

SPR h
00111100
00100100
00100100
00111100
00100100
00100100
00111100
00111100
POS 0 6,7

SPR i
00111100
00100100
00100100
00111100
00100100
00100100
00111100
00111100
POS 0 5,7

SPR j
00111100
00100100
00100100
00111100
00100100
00100100
00111100
00111100
POS 0 10,4

SPR k
00111100
00100100
00100100
00111100
00100100
00100100
00111100
00111100
POS 0 9,4

SPR l
00111100
00100100
00100100
00111100
00100100
00100100
00111100
00111100
POS 0 11,6

SPR m
00111100
00100100
00100100
00111100
00100100
00100100
00111100
00111100
POS 0 12,6

SPR n
00111100
00100100
00100100
00111100
00100100
00100100
00111100
00111100
POS 0 13,10

SPR o
00000000
00100100
00111100
00011000
00111100
00111100
00111100
00111100
POS 0 0,4

SPR p
00000000
00011000
00111100
01111110
01111110
01111110
01111110
01111110
POS 0 8,9

SPR q
00000000
00011000
00111100
01111110
01111110
01111110
01111110
01111110
POS 0 14,4

SPR r
00000000
00011000
00111100
01111110
01111110
01111110
01111110
01111110
POS 0 6,13

SPR s
00011000
00111100
01111110
11111111
00001000
00001000
00011000
01111110
POS 0 13,0

SPR t
00011000
00111100
01111110
11111111
00001000
00001000
00011000
01111110
POS 0 2,0

SPR u
00011000
00111100
01111110
11111111
00001000
00001000
00011000
01111110
POS 0 1,14

SPR v
00011000
00111100
01111110
11111111
00001000
00001000
00011000
01111110
POS 0 14,14

SPR w
00011000
00111100
01111110
11111111
00001000
00001000
00011000
01111110
POS 0 15,14

SPR x
00011000
00111100
01111110
11111111
00001000
00001000
00011000
01111110
POS 0 13,15

SPR y
00011000
00111100
01111110
11111111
00001000
00001000
00011000
01111110
POS 0 5,15

SPR z
00011000
00111100
01111110
11111111
00001000
00001000
00011000
01111110
POS 0 9,15

ITM 0
00000000
00011000
00011000
01001000
00111110
00001001
00110100
00010010
NAME VIC1
DLG ITM_0

ITM 1
00000000
00011000
00011000
01001000
00111110
00001001
00110100
00010010
NAME Kurt
DLG ITM_1

ITM 2
00000000
00011000
00011000
01001000
00111110
00001001
00110100
00010010
NAME Yourself
DLG ITM_2

ITM 3
00000000
00011000
00011000
01001000
00111110
00001001
00110100
00010010

DLG ITM_0
Noooooooo!!!!

DLG ITM_1
*Cannot Be Killed* (is the Creator) *teleport*

DLG SPR_0
Imma tree bruh

DLG ITM_2
Dont! I'm You!

END 0
Nice!You're Nice

END undefined
Congrats! you killed them all... psycho

VAR a
42


