Tooth Fairy's Deed

# BITSY VERSION 5.3

! ROOM_FORMAT 1

PAL 0
NAME 1
0,0,0
255,123,155
255,254,255

PAL 1
255,255,255
255,247,122
255,234,115

ROOM 0
a,a,a,a,a,a,a,a,a,a,a,a,a,a,a,a
a,a,a,a,0,0,0,0,0,0,0,0,0,a,a,a
a,a,0,0,0,0,0,0,0,0,0,0,0,0,a,a
a,0,0,0,0,0,0,0,0,0,0,0,0,0,0,a
a,0,0,0,a,0,0,0,0,0,0,0,0,0,0,a
0,0,0,0,0,0,0,0,0,0,0,0,0,0,0,0
0,0,0,0,0,0,0,0,0,0,0,0,0,0,0,0
0,0,0,0,0,0,0,0,0,0,0,0,0,0,0,0
0,0,0,0,0,0,0,0,0,0,0,0,0,0,0,0
a,0,0,0,0,0,0,0,0,0,0,0,0,0,0,a
a,0,0,0,0,0,0,0,0,0,0,0,0,0,0,a
a,0,0,0,0,0,0,0,0,0,0,0,0,0,0,a
a,0,0,0,0,0,0,0,0,0,0,0,0,0,0,a
a,a,0,0,0,0,0,0,0,0,0,0,0,0,a,a
a,a,a,a,0,0,0,0,0,0,0,0,0,a,a,a
a,a,a,a,a,a,a,a,a,a,a,a,a,a,a,a
NAME 1
ITM 0 1,3
ITM 0 1,4
ITM 0 2,4
ITM 0 2,3
ITM 0 3,3
ITM 0 3,2
ITM 0 5,1
ITM 0 5,2
ITM 0 5,3
ITM 0 6,4
ITM 0 7,4
ITM 0 6,3
ITM 0 7,3
ITM 0 6,2
ITM 0 7,2
ITM 0 6,1
ITM 0 7,1
ITM 0 9,1
ITM 0 9,2
ITM 0 9,3
ITM 0 9,4
ITM 0 10,4
ITM 0 11,4
ITM 0 11,3
ITM 0 10,3
ITM 0 10,2
ITM 0 11,2
ITM 0 11,1
ITM 0 10,1
ITM 0 13,3
ITM 0 13,4
ITM 0 14,4
ITM 0 14,3
ITM 0 1,11
ITM 0 2,11
ITM 0 3,11
ITM 0 1,12
ITM 0 2,12
ITM 0 3,12
ITM 0 2,13
ITM 0 3,13
ITM 0 5,14
ITM 0 5,13
ITM 0 5,12
ITM 0 5,11
ITM 0 6,11
ITM 0 7,11
ITM 0 6,12
ITM 0 7,12
ITM 0 6,13
ITM 0 7,13
ITM 0 6,14
ITM 0 7,14
ITM 0 11,12
ITM 0 10,12
ITM 0 10,13
ITM 0 11,13
ITM 0 10,14
ITM 0 11,14
ITM 0 14,11
ITM 0 14,12
ITM 0 13,2
ITM 0 2,2
ITM 1 4,1
ITM 1 4,2
ITM 1 4,3
ITM 1 8,1
ITM 1 8,2
ITM 1 8,3
ITM 1 8,4
ITM 0 5,4
ITM 0 3,4
ITM 1 12,1
ITM 1 12,2
ITM 1 12,3
ITM 1 12,4
ITM 1 4,14
ITM 1 4,13
ITM 1 4,12
ITM 1 4,11
ITM 1 8,11
ITM 1 8,13
ITM 1 8,14
ITM 1 4,4
ITM 1 8,12
ITM 2 6,6
ITM 2 6,8
ITM 2 8,8
ITM 2 8,7
ITM 2 8,6
ITM 2 7,6
ITM 3 9,12
ITM 3 9,13
ITM 3 9,14
ITM 4 11,11
ITM 3 9,11
ITM 5 12,11
ITM 5 12,12
ITM 5 12,13
ITM 5 12,14
ITM 4 10,11
ITM 6 13,11
ITM 6 13,12
ITM 6 13,13
ITM 2 7,8
EXT 11,14 1 4,7
PAL 0

ROOM 1
a,a,a,a,a,a,a,a,a,a,a,a,a,a,a,a
a,a,a,0,0,0,0,0,0,0,0,0,0,a,a,a
a,a,0,0,0,0,0,0,0,0,0,0,0,0,a,a
a,0,0,0,0,0,0,0,0,0,0,0,0,0,a,a
a,0,0,0,0,0,0,0,0,0,0,0,0,0,0,a
a,0,0,0,0,0,0,0,0,0,0,0,0,0,0,a
0,0,0,0,0,0,0,0,0,0,0,0,0,0,0,a
0,0,0,0,0,0,0,0,0,0,0,0,0,0,0,0
0,0,0,0,0,0,0,0,0,0,0,0,0,0,0,0
a,0,0,0,0,0,0,0,0,0,0,0,0,0,0,a
a,0,0,0,0,0,0,0,0,0,0,0,0,0,0,a
a,a,0,0,0,0,0,0,0,0,0,0,0,0,0,a
a,a,0,0,0,0,0,0,0,0,0,0,0,0,a,a
a,a,a,0,0,0,0,0,0,0,0,0,0,0,a,a
a,a,a,a,0,0,0,0,0,0,0,0,0,a,a,a
a,a,a,a,a,a,a,a,a,a,a,a,a,a,a,a
NAME 2
ITM 0 2,11
ITM 0 3,11
ITM 0 2,12
ITM 0 3,12
ITM 0 3,13
ITM 0 5,14
ITM 0 5,11
ITM 0 5,12
ITM 0 5,13
ITM 0 7,11
ITM 0 6,11
ITM 0 6,12
ITM 0 7,12
ITM 0 7,13
ITM 0 6,13
ITM 0 6,14
ITM 0 7,14
ITM 0 13,13
ITM 0 13,12
ITM 0 13,11
ITM 0 14,11
ITM 1 4,11
ITM 1 4,12
ITM 1 4,13
ITM 1 4,14
ITM 1 8,11
ITM 1 8,12
ITM 1 8,13
ITM 1 8,14
ITM 0 1,3
ITM 0 1,4
ITM 0 2,4
ITM 0 2,3
ITM 0 2,2
ITM 0 3,2
ITM 0 3,3
ITM 0 3,4
ITM 0 3,1
ITM 0 5,1
ITM 0 5,2
ITM 0 5,3
ITM 0 5,4
ITM 0 6,4
ITM 0 6,3
ITM 0 6,2
ITM 0 6,1
ITM 0 7,1
ITM 0 7,2
ITM 0 7,3
ITM 0 7,4
ITM 0 9,1
ITM 0 9,2
ITM 0 9,3
ITM 0 9,4
ITM 0 10,1
ITM 0 11,1
ITM 0 13,2
ITM 0 13,3
ITM 0 13,4
ITM 0 14,4
ITM 1 4,1
ITM 1 4,2
ITM 1 4,3
ITM 1 4,4
ITM 1 8,1
ITM 1 8,2
ITM 1 8,3
ITM 1 8,4
ITM 1 12,1
ITM 1 12,2
ITM 1 12,3
ITM 1 12,4
ITM 0 11,4
ITM 0 11,2
ITM 8 10,4
ITM 8 10,2
ITM 8 11,3
ITM 0 10,3
ITM 2 12,11
ITM 2 12,13
ITM 2 12,14
EXT 10,3 2 9,7
PAL 0

ROOM 2
a,a,a,a,a,a,a,a,a,a,a,a,a,a,a,0
a,a,a,0,0,0,0,0,0,0,0,0,0,a,a,a
a,a,0,0,0,0,0,0,0,0,0,0,0,0,a,a
a,a,0,0,0,0,0,0,0,0,0,0,0,0,a,a
a,a,0,0,0,0,0,0,0,0,0,0,0,0,0,a
a,0,0,0,0,0,0,0,0,0,0,0,0,0,0,0
0,0,0,0,0,0,0,0,0,0,0,0,0,0,0,0
0,0,0,0,0,0,0,0,0,0,0,0,0,0,0,0
0,0,0,0,0,0,0,0,0,0,0,0,0,0,0,0
0,0,0,0,0,0,0,0,0,0,0,0,0,0,0,0
a,0,0,0,0,0,0,0,0,0,0,0,0,0,0,a
a,0,0,0,0,0,0,0,0,0,0,0,0,0,0,a
a,a,0,0,0,0,0,0,0,0,0,0,0,0,a,a
a,a,0,0,0,0,0,0,0,0,0,0,0,0,a,a
a,a,a,0,0,0,0,0,0,0,0,0,0,a,a,a
a,a,a,a,a,a,a,a,a,a,a,a,a,a,a,a
NAME 3
ITM 0 1,11
ITM 0 2,11
ITM 0 3,11
ITM 0 3,12
ITM 0 2,12
ITM 0 2,13
ITM 0 3,13
ITM 0 3,14
ITM 0 5,14
ITM 0 5,11
ITM 0 5,12
ITM 0 5,13
ITM 0 6,11
ITM 0 7,11
ITM 0 6,12
ITM 0 7,12
ITM 0 6,13
ITM 0 7,14
ITM 0 6,14
ITM 0 7,13
ITM 0 13,13
ITM 0 13,12
ITM 0 13,11
ITM 0 14,11
ITM 1 8,14
ITM 1 8,13
ITM 1 8,12
ITM 1 8,11
ITM 1 4,14
ITM 1 4,13
ITM 1 4,12
ITM 1 4,11
ITM 6 12,14
ITM 6 12,13
ITM 6 12,12
ITM 6 12,11
ITM 0 2,2
ITM 0 2,3
ITM 0 2,4
ITM 0 5,1
ITM 0 5,2
ITM 0 5,3
ITM 0 5,4
ITM 0 5,5
ITM 0 6,5
ITM 0 6,4
ITM 0 6,3
ITM 0 6,2
ITM 0 6,1
ITM 0 7,1
ITM 0 7,2
ITM 0 7,3
ITM 0 7,4
ITM 0 7,5
ITM 0 13,2
ITM 0 13,3
ITM 0 13,4
ITM 0 13,5
ITM 0 14,5
ITM 0 14,4
ITM 1 8,1
ITM 1 8,2
ITM 1 8,3
ITM 1 8,4
ITM 1 8,5
ITM 6 12,1
ITM 6 12,2
ITM 6 12,3
ITM 6 12,4
ITM 6 12,5
ITM 1 15,5
ITM 5 4,1
ITM 5 4,2
ITM 5 4,4
ITM 0 3,1
ITM 0 3,2
ITM 0 3,3
ITM 0 3,4
ITM 5 4,3
ITM 9 2,5
ITM 9 3,5
ITM 9 1,5
ITM 5 4,5
EXT 2,2 3 7,8
PAL 0

ROOM 3
a,a,a,a,a,a,a,a,a,a,a,a,a,a,a,a
a,a,a,0,0,0,0,0,0,0,0,0,a,a,a,a
a,a,0,0,0,0,0,0,0,0,0,0,0,0,a,a
a,a,0,0,0,0,0,0,0,0,0,0,0,0,0,a
a,0,0,0,0,0,0,0,0,0,0,0,0,0,0,a
a,0,0,0,0,0,0,0,0,0,0,0,0,0,0,a
a,0,0,0,0,0,0,0,0,0,0,0,0,0,0,a
0,0,0,0,0,0,0,0,0,0,0,0,0,0,0,0
0,0,0,0,0,0,0,0,0,0,0,0,0,0,0,0
0,0,0,0,0,0,0,0,0,0,0,0,0,0,0,0
a,0,0,0,0,0,0,0,0,0,0,0,0,0,0,a
a,0,0,0,0,0,0,0,0,0,0,0,0,0,0,a
a,a,0,0,0,0,0,0,0,0,0,0,0,0,a,a
a,a,0,0,0,0,0,0,0,0,0,0,0,0,a,a
a,a,a,0,0,0,0,0,0,0,0,0,0,a,a,a
a,a,a,a,a,a,a,a,a,a,a,a,a,a,a,a
NAME 4
ITM 0 4,1
ITM 0 4,2
ITM 0 4,3
ITM 0 4,4
ITM 0 5,4
ITM 0 5,3
ITM 0 5,2
ITM 0 5,1
ITM 0 6,1
ITM 0 6,2
ITM 0 6,3
ITM 0 6,4
ITM 0 4,5
ITM 0 5,5
ITM 0 6,5
ITM 0 7,1
ITM 0 7,2
ITM 0 7,3
ITM 0 7,4
ITM 0 7,5
ITM 0 13,2
ITM 0 13,3
ITM 0 13,4
ITM 0 13,5
ITM 0 14,5
ITM 0 14,4
ITM 0 14,3
ITM 0 12,2
ITM 0 12,3
ITM 0 12,4
ITM 0 12,5
ITM 0 1,11
ITM 0 2,11
ITM 0 2,12
ITM 0 3,12
ITM 0 3,13
ITM 0 3,14
ITM 0 5,14
ITM 0 5,13
ITM 0 5,12
ITM 0 5,11
ITM 0 6,11
ITM 0 7,11
ITM 0 6,12
ITM 0 7,12
ITM 0 6,13
ITM 0 7,13
ITM 0 6,14
ITM 0 7,14
ITM 0 12,14
ITM 0 12,13
ITM 0 12,12
ITM 0 12,11
ITM 0 13,11
ITM 0 13,12
ITM 0 13,13
ITM 0 14,11
ITM 1 8,14
ITM 1 8,13
ITM 1 8,12
ITM 1 8,11
ITM 1 4,14
ITM 1 4,13
ITM 1 4,12
ITM 1 4,11
ITM b 3,11
ITM 0 2,13
ITM a 6,8
ITM a 6,9
ITM a 8,9
ITM a 8,7
ITM a 7,7
ITM a 6,7
ITM a 7,9
ITM a 8,8
EXT 3,12 4 3,12
PAL 0

ROOM 4
a,a,a,a,a,a,a,a,a,a,a,a,a,a,a,a
a,a,a,a,0,0,0,0,0,0,0,a,a,a,a,a
a,a,0,0,0,0,0,0,0,0,0,0,0,0,a,a
a,0,0,0,0,0,0,0,0,0,0,0,0,0,0,a
a,0,0,0,0,0,0,0,0,0,0,0,0,0,0,a
a,0,0,0,0,0,0,0,0,0,0,0,0,0,0,a
0,0,0,0,0,0,0,0,0,0,0,0,0,0,0,0
0,0,0,0,0,0,0,0,0,0,0,0,0,0,0,0
0,0,0,0,0,0,0,0,0,0,0,0,0,0,0,0
0,0,0,0,0,0,0,0,0,0,0,0,0,0,0,0
a,0,0,0,0,0,0,0,0,0,0,0,0,0,0,a
a,0,0,0,0,0,0,0,0,0,0,0,0,0,0,a
a,0,0,0,0,0,0,0,0,0,0,0,0,0,0,a
a,a,0,0,0,0,0,0,0,0,0,0,0,0,a,a
a,a,a,0,0,0,0,0,0,0,0,0,a,a,a,a
a,a,a,a,a,a,a,a,a,a,a,a,a,a,a,a
NAME 5
ITM 0 1,12
ITM 0 1,11
ITM 0 2,11
ITM 0 2,12
ITM 0 2,13
ITM 0 3,14
ITM 0 3,13
ITM 0 5,14
ITM 0 5,12
ITM 0 5,13
ITM 0 5,11
ITM 0 7,11
ITM 0 6,11
ITM 0 6,12
ITM 0 7,12
ITM 0 7,13
ITM 0 6,13
ITM 0 6,14
ITM 0 7,14
ITM 0 13,13
ITM 0 13,12
ITM 0 13,11
ITM 0 14,11
ITM 0 14,12
ITM 0 5,1
ITM 0 5,2
ITM 0 5,3
ITM 0 5,4
ITM 0 5,5
ITM 0 6,5
ITM 0 6,4
ITM 0 6,2
ITM 0 6,3
ITM 0 6,1
ITM 0 7,1
ITM 0 7,2
ITM 0 7,3
ITM 0 7,4
ITM 0 7,5
ITM 0 13,2
ITM 0 13,3
ITM 0 13,4
ITM 0 13,5
ITM 0 14,5
ITM 0 14,4
ITM 0 14,3
ITM 6 12,2
ITM 6 12,3
ITM 6 12,4
ITM 6 12,5
ITM 6 4,1
ITM 6 4,2
ITM 6 4,3
ITM 6 4,4
ITM 6 4,5
ITM 6 12,11
ITM 6 12,12
ITM 6 12,13
ITM 1 8,11
ITM 1 8,12
ITM 1 8,13
ITM 1 8,14
ITM 1 4,14
ITM 1 4,13
ITM 1 4,12
ITM 1 4,11
EXT 5,9 6 7,8
PAL 0

ROOM 6
0,0,0,0,0,0,0,0,0,0,0,0,0,0,0,0
0,0,0,0,0,a,0,0,0,0,0,0,0,0,0,0
0,0,0,0,0,a,0,0,0,0,0,0,0,0,0,0
0,0,0,0,0,a,0,0,0,0,0,0,0,0,0,0
0,0,0,0,0,a,0,0,0,0,0,0,0,0,0,0
0,0,0,0,0,a,a,0,0,0,0,0,a,0,0,0
0,0,0,0,0,0,0,0,0,0,0,0,0,0,0,0
0,0,0,0,0,0,0,0,0,0,0,0,0,0,0,0
0,0,0,0,0,0,0,0,0,0,0,0,0,0,0,0
0,0,0,0,0,0,0,0,0,0,0,0,0,0,0,0
0,0,0,0,0,0,0,0,0,0,0,0,0,0,0,0
a,a,0,0,0,0,0,0,0,0,0,0,0,0,0,0
0,0,0,0,a,0,0,0,0,0,0,0,0,0,0,0
0,0,0,0,a,0,0,a,0,0,0,0,0,a,0,0
0,0,0,0,0,a,0,0,0,0,0,0,a,0,0,0
0,0,0,0,0,0,0,0,0,0,0,0,0,0,0,0
NAME 6
ITM 0 0,1
ITM 0 0,2
ITM 0 0,3
ITM 0 0,4
ITM 0 0,5
ITM 0 0,6
ITM 0 0,7
ITM 0 0,8
ITM 0 0,10
ITM 0 0,9
ITM 0 0,11
ITM 0 0,12
ITM 0 0,14
ITM 0 0,15
ITM 0 0,13
ITM 0 1,15
ITM 0 2,15
ITM 0 4,15
ITM 0 11,15
ITM 0 14,15
ITM 0 15,15
ITM 0 12,15
ITM 0 13,15
ITM 0 9,15
ITM 0 6,15
ITM 0 5,15
ITM 0 7,15
ITM 0 8,15
ITM 0 10,15
ITM 0 3,15
ITM 0 15,14
ITM 0 15,13
ITM 0 15,12
ITM 0 15,11
ITM 0 15,10
ITM 0 15,9
ITM 0 15,8
ITM 0 15,7
ITM 0 15,6
ITM 0 15,5
ITM 0 15,4
ITM 0 15,3
ITM 0 15,2
ITM 0 15,1
ITM 0 15,0
ITM 0 1,7
ITM 0 1,9
ITM 0 1,8
ITM 0 1,10
ITM 0 1,11
ITM 0 1,12
ITM 0 1,13
ITM 0 1,14
ITM 0 2,14
ITM 0 3,14
ITM 0 4,14
ITM 0 5,14
ITM 0 7,14
ITM 0 6,14
ITM 0 8,14
ITM 0 9,14
ITM 0 10,14
ITM 0 11,14
ITM 0 12,14
ITM 0 13,14
ITM 0 14,14
ITM 0 14,13
ITM 0 14,12
ITM 0 14,9
ITM 0 10,1
ITM 0 9,1
ITM 0 8,1
ITM 0 7,1
ITM 0 6,1
ITM 0 5,1
ITM 0 4,1
ITM 0 3,1
ITM 0 2,1
ITM 0 2,2
ITM 0 3,2
ITM 0 4,2
ITM 0 5,2
ITM 0 6,2
ITM 0 7,2
ITM 0 8,2
ITM 0 9,2
ITM 0 10,2
ITM 0 13,7
ITM 0 13,11
ITM 0 13,10
ITM 0 13,12
ITM 0 13,13
ITM 0 12,13
ITM 0 11,13
ITM 0 10,13
ITM 0 8,13
ITM 0 9,13
ITM 0 7,13
ITM 0 6,13
ITM 0 5,13
ITM 0 3,13
ITM 0 2,13
ITM 0 2,12
ITM 0 2,11
ITM 0 2,10
ITM 0 2,9
ITM 0 2,8
ITM 0 2,7
ITM 0 2,6
ITM 0 2,5
ITM 0 2,3
ITM 0 5,3
ITM 0 6,3
ITM 0 7,3
ITM 0 8,3
ITM 0 9,3
ITM 0 10,3
ITM 0 12,6
ITM 0 12,5
ITM 0 12,7
ITM 0 12,8
ITM 0 12,9
ITM 0 12,10
ITM 0 12,11
ITM 0 12,12
ITM 0 11,12
ITM 0 10,12
ITM 0 9,12
ITM 0 6,12
ITM 0 4,12
ITM 0 3,12
ITM 0 3,11
ITM 0 3,10
ITM 0 3,9
ITM 0 3,8
ITM 0 3,7
ITM 0 3,6
ITM 0 3,5
ITM 0 3,4
ITM 0 4,4
ITM 0 5,4
ITM 0 10,4
ITM 0 4,5
ITM 0 11,6
ITM 0 11,7
ITM 0 11,8
ITM 0 11,9
ITM 0 11,10
ITM 0 11,11
ITM 0 4,6
ITM 0 4,7
ITM 0 4,8
ITM 0 4,10
ITM 0 4,9
ITM 0 4,11
ITM 0 5,5
ITM 0 5,6
ITM c 4,13
ITM c 2,4
ITM c 3,3
ITM c 4,3
ITM 0 0,0
ITM 0 1,6
ITM 0 1,5
ITM 0 1,4
ITM 0 1,3
ITM 0 1,2
ITM 0 1,1
ITM 0 1,0
ITM 0 2,0
ITM 0 3,0
ITM 0 5,0
ITM 0 4,0
ITM 0 6,0
ITM 0 7,0
ITM 0 8,0
ITM 0 9,0
ITM 0 10,0
ITM 0 11,0
ITM 0 12,0
ITM 0 11,1
ITM 0 12,1
ITM 0 13,1
ITM 0 14,1
ITM 0 13,0
ITM 0 14,0
ITM 0 11,2
ITM 0 12,2
ITM 0 13,2
ITM 0 14,2
ITM 0 11,3
ITM 0 12,3
ITM 0 13,3
ITM 0 14,3
ITM 0 11,4
ITM 0 12,4
ITM 0 13,4
ITM 0 14,4
ITM 0 13,5
ITM 0 14,5
ITM 0 13,6
ITM 0 14,6
ITM 0 14,7
ITM 0 14,8
ITM 0 13,8
ITM 0 13,9
ITM 0 14,10
ITM 0 14,11
ITM 0 10,8
ITM 0 7,12
ITM 0 5,12
ITM c 5,7
ITM c 5,8
ITM c 5,9
ITM c 5,10
ITM c 5,11
ITM c 6,11
ITM c 6,10
ITM c 6,9
ITM c 6,8
ITM c 6,7
ITM c 6,6
ITM c 6,5
ITM c 6,4
ITM c 7,4
ITM c 7,5
ITM c 7,6
ITM c 7,7
ITM c 8,6
ITM c 8,7
ITM c 8,5
ITM c 8,4
ITM c 9,4
ITM c 9,5
ITM c 9,6
ITM c 9,7
ITM c 10,5
ITM c 11,5
ITM c 10,6
ITM c 10,7
ITM c 7,8
ITM c 8,8
ITM c 9,8
ITM c 7,9
ITM c 8,9
ITM c 9,9
ITM c 10,9
ITM c 10,10
ITM c 10,11
ITM c 9,11
ITM c 8,11
ITM c 8,12
ITM c 7,11
ITM c 7,10
ITM c 8,10
ITM c 9,10
EXT 10,5 7 11,12
PAL 0

ROOM 7
a,a,a,0,0,0,0,0,0,0,0,0,0,a,a,a
a,a,0,0,0,0,0,0,0,0,0,0,0,0,0,a
a,0,0,0,0,0,0,0,0,0,0,0,0,0,0,a
a,0,0,0,0,0,0,0,0,0,0,0,0,0,0,0
0,0,0,0,0,0,0,0,0,0,0,0,0,0,0,0
0,0,0,0,0,0,0,0,0,0,0,0,0,0,0,0
0,0,0,0,0,0,0,0,0,0,0,0,0,0,0,0
0,0,0,0,0,0,0,0,0,0,0,0,0,0,0,0
0,0,0,0,0,0,0,0,0,0,0,0,0,0,0,0
0,0,0,0,0,0,0,0,0,0,0,0,0,0,0,0
0,0,0,0,0,0,0,0,0,0,0,0,0,0,0,0
0,0,0,0,0,0,0,0,0,0,0,0,0,0,0,a
a,0,0,0,0,0,0,0,0,0,0,0,0,0,0,a
a,0,0,0,0,0,0,0,0,0,0,0,0,0,0,a
a,a,0,0,0,0,0,0,0,0,0,0,0,0,a,a
a,a,a,a,0,0,0,0,0,0,0,0,0,a,a,a
NAME 7
ITM 0 5,0
ITM 0 6,0
ITM 0 4,1
ITM 0 6,1
ITM 0 12,0
ITM 0 12,1
ITM 0 12,2
ITM 0 13,2
ITM 0 13,3
ITM 0 14,2
ITM 0 14,1
ITM 0 6,15
ITM 0 6,14
ITM 0 7,14
ITM 0 6,13
ITM 0 5,15
ITM 0 5,14
ITM 0 7,13
ITM 0 7,15
ITM 0 12,13
ITM 0 12,15
ITM 0 13,14
ITM 0 14,13
ITM d 5,1
ITM d 12,3
ITM d 14,3
ITM d 5,13
ITM d 13,13
ITM d 4,0
ITM d 13,1
ITM d 8,9
ITM e 0,2
ITM e 1,3
ITM e 2,4
ITM e 3,5
ITM e 4,6
ITM d 12,14
END 0 5,13
END 0 12,14
END 0 13,13
END 0 12,3
END 0 14,3
END 0 5,1
END 0 4,0
END 1 4,6
END 1 3,5
END 1 2,4
END 1 1,3
END 1 0,2
PAL 0

TIL a
11111111
11111111
11111111
11111111
11111111
11111111
11111111
11111111
NAME lips

TIL b
00000000
00000000
00000000
00000000
00000000
00000000
00000000
00000000
WAL false

SPR A
00000000
00011000
10111101
01111110
00111100
00011000
00100100
01000010
>
00000000
00011000
00111100
00111100
01111110
10011001
00100100
00100100
POS 0 6,7
ITM 2 1

SPR a
00000000
00001000
00110000
01110111
00001010
00010100
00110110
00000000
>
00000000
00001010
00110011
01110110
00001000
00010100
00110110
00000000
NAME real
DLG SPR_0
POS 4 4,9

SPR b
00000000
00001000
00110000
01110111
00001010
00010100
00110110
00000000
>
00000000
00001010
00110011
01110110
00001000
00010100
00110110
00000000
NAME 2
DLG SPR_1
POS 7 8,9

ITM 0
11111111
11111111
11111111
11111111
11111111
11111111
11111111
11111111
NAME tooth

ITM 1
11111000
11111000
11111000
11111000
11111000
11111000
11111000
11111000
NAME tooth1

ITM 2
00000000
00000000
00000000
00000000
00000000
00000000
00000000
00000000
NAME tooth2
DLG ITM_0

ITM 3
01111111
01111111
00111111
00011111
00011111
00011111
00111111
01111111
>
01111111
01111111
01111111
01111111
01111111
01111111
01111111
01111111
NAME wiggly
DLG ITM_1

ITM 4
00000000
10000001
11100011
11111111
11111111
11111111
11111111
11111111
>
11111111
11111111
11111111
11111111
11111111
11111111
11111111
11111111
NAME wiggly
DLG ITM_2

ITM 5
11111110
11111100
11111000
11111000
11111000
11111000
11111100
11111110
>
11111110
11111110
11111110
11111110
11111110
11111110
11111110
11111110
NAME wigglyside
DLG ITM_3

ITM 6
01111111
01111111
01111111
01111111
01111111
01111111
01111111
01111111
NAME tooth4

ITM 8
11111111
11111111
11111111
11011111
10000111
10001111
11000111
11000011
NAME rotten
DLG ITM_4

ITM 9
11111111
11111111
11111111
11111111
11111111
11000011
10000001
00000000
>
11111111
11111111
11111111
11111111
11111111
11111111
11111111
11111111
NAME wiggly4
DLG ITM_5

ITM a
00000000
00000000
00000000
00000000
00000000
00000000
00000000
00000000
NAME w
DLG ITM_6

ITM b
00000001
10000011
11000111
11000111
11110111
11111111
11111111
11111111
NAME rotten2
DLG ITM_7

ITM c
11111111
11111111
11111111
11111111
11111111
11111111
11111111
11111111
NAME so
DLG ITM_8

ITM d
11000011
10000011
11000011
10000001
11100111
11010001
11110011
11100001
NAME rot4

ITM e
10000000
11000000
01100000
00111000
00001110
00000011
00000001
00000000
NAME stick

DLG ITM_0
I'm a {rbw}tooth fairy{rbw}! I collect {shk}shaky{shk} {wvy}wiggly{wvy} teeth!

DLG ITM_1
A wiggly tooth! It's gonna fall off soon. I should probably take this

DLG ITM_2
A wiggly tooth! It's gonna fall off soon. I should probably take this

DLG ITM_3
A wiggly tooth! It's gonna fall off soon. I should probably take this

DLG ITM_4
Geez, this tooth is rotten! It's gonna be a pain if this kid keeps this tooth. I should take this one too.

DLG ITM_5
Another wiggly tooth! collect it.

DLG ITM_6
This....teeth...is starting to look weird... but I guess it's fine...? I'm just doing my job.

DLG ITM_7
Another rotten tooth! I should collect..

DLG SPR_0
"""
{shk}Stop!!!!!{shk} What are you doing?
 I mean, {shk}WHO ARE YOU?? {shk} This teeth is becoming weird because of you! I'm a tooth fairy here. 
"""

DLG ITM_8
"""
{shk}NO!!!!!!!{shk} What are you doing??{
  - {item "so"} <= 8 ?
    I said {shk}STOP{shk}
  - {item "so"} <= 5 ?
    You're ruining the teeth. You are not a tooth fairy.
}
"""

DLG SPR_1
FAKE TOOTH FAIRY you ruined all the teeth. 

END 0
I ruined all the teeth. That weird fairy said I'm a fake tooth fairy, but who cares. I'm doing my job. Tooth fairy shouldn't leave wiggly shaky rotten tooth.

END 1
Something's coming to me. A pointy sharp needle-like object is poking me. I might die. Did you hear what that weird fairy said? ....Am I really not a real tooth fairy..? I don't know.

VAR a
42

