Dr. Monty's Traveling Caravan of Moth-Based Oddities!

# BITSY VERSION 3.5

! ROOM_FORMAT 1

PAL 0
0,128,64
0,236,0
255,255,255

PAL 1
0,0,160
83,83,255
255,255,255

ROOM 0
0,0,0,0,0,0,0,0,0,0,0,0,0,0,0,0
0,l,l,l,l,l,l,l,l,l,l,l,l,l,l,0
0,l,0,0,0,0,0,0,0,0,0,0,0,0,l,0
0,0,h,0,0,0,0,0,0,0,0,0,i,0,l,0
0,l,0,0,0,0,0,0,0,0,0,0,0,0,l,0
0,l,0,0,0,0,0,0,0,0,0,g,g,0,l,0
0,l,0,0,0,0,0,0,0,0,0,b,c,0,l,0
0,l,0,0,0,0,i,0,0,0,f,d,e,0,l,0
0,l,0,i,i,0,0,0,0,0,0,0,0,0,l,0
0,l,0,i,0,0,0,0,0,0,0,0,0,0,l,0
0,l,0,0,0,0,0,0,0,0,0,0,0,0,l,0
0,l,0,0,0,0,0,i,0,0,0,0,i,0,l,0
0,l,0,0,0,0,0,i,i,0,0,0,i,0,l,0
0,l,0,0,0,0,0,0,0,0,0,0,0,0,l,0
0,l,l,l,l,l,l,l,l,l,l,l,l,l,l,0
0,0,0,0,0,0,0,0,0,0,0,0,0,0,0,0
WAL a,c,l
EXT 11,6 1 3,3
END 0 1,3
PAL 0

ROOM 1
0,0,0,0,0,0,0,0,0,0,0,0,0,0,0,0
0,a,a,a,a,a,a,a,a,a,a,a,a,a,a,0
0,a,0,0,0,0,0,0,0,0,0,0,0,0,a,0
0,0,0,0,0,0,0,0,0,0,0,0,0,0,0,0
0,a,0,0,0,0,0,0,0,0,0,0,0,0,a,0
0,a,a,a,a,a,a,a,a,a,a,a,a,a,a,0
0,0,0,0,0,0,0,0,0,0,0,0,0,0,0,0
0,0,0,0,0,0,0,0,0,0,0,0,0,0,0,0
0,0,0,0,0,0,0,0,0,0,0,0,0,0,0,0
0,0,0,0,0,0,0,0,0,0,0,0,0,0,0,0
0,0,0,0,0,0,0,0,0,0,0,0,0,0,0,0
0,0,0,0,0,0,0,0,0,0,0,0,0,0,0,0
0,0,0,0,0,0,0,0,0,0,0,0,0,0,0,0
0,0,0,0,0,0,0,0,0,0,0,0,0,0,0,0
0,0,0,0,0,0,0,0,0,0,0,0,0,0,0,0
0,0,0,0,0,0,0,0,0,0,0,0,0,0,0,0
WAL a,l,c
EXT 14,3 2 2,3
PAL 1

ROOM 2
0,0,0,0,0,0,0,0,0,0,0,0,0,0,0,0
0,a,a,a,a,a,a,a,a,a,a,a,a,a,a,0
0,a,0,0,0,0,0,0,0,0,0,0,0,0,a,0
0,0,0,0,0,0,0,0,0,0,0,0,0,0,0,0
0,a,0,0,0,0,0,0,0,0,0,0,0,0,a,0
0,a,0,0,0,0,0,0,0,0,0,0,0,0,a,0
0,a,0,j,0,0,0,o,0,0,0,p,0,0,a,0
0,a,0,k,0,0,0,k,0,0,0,k,0,0,a,0
0,a,0,0,0,0,0,0,0,0,0,0,0,0,a,0
0,a,0,0,0,0,0,0,0,0,0,0,0,0,a,0
0,a,0,0,0,0,0,0,0,0,0,0,0,0,a,0
0,a,0,o,0,0,0,r,0,0,0,0,0,0,a,0
0,a,0,k,0,0,0,k,0,0,0,k,0,0,a,0
0,a,0,0,0,0,0,0,0,0,0,0,0,0,a,0
0,a,a,a,a,a,a,a,a,a,a,a,a,a,a,0
0,0,0,0,0,0,0,0,0,0,0,0,0,0,0,0
WAL a,l,c,j,k,p,o,q,r,s
EXT 1,3 1 14,3
EXT 14,3 3 2,3
PAL 1

ROOM 3
0,0,0,0,0,0,0,0,0,0,0,0,0,0,0,0
0,a,a,a,a,a,a,a,a,a,a,a,a,a,a,0
0,a,0,0,0,0,0,0,0,0,0,0,0,0,a,0
0,0,0,0,0,0,0,0,0,0,0,0,0,0,0,0
0,a,0,0,0,0,0,0,0,0,0,0,0,0,a,0
0,a,0,0,0,0,0,0,0,0,0,0,0,0,a,0
0,a,0,0,0,0,0,0,0,0,0,0,0,0,a,0
0,a,0,k,0,0,0,k,0,0,0,k,0,0,a,0
0,a,0,0,0,0,0,0,0,0,0,0,0,0,a,0
0,a,0,0,0,0,0,0,0,0,0,0,0,0,a,0
0,a,0,0,0,0,0,0,0,0,0,0,0,0,a,0
0,a,0,0,0,0,0,0,0,0,0,0,0,0,a,0
0,a,0,k,0,0,0,k,0,0,0,k,0,0,a,0
0,a,0,0,0,0,0,0,0,0,0,0,0,0,a,0
0,a,a,a,a,a,a,a,a,a,a,a,a,a,a,0
0,0,0,0,0,0,0,0,0,0,0,0,0,0,0,0
WAL a,k,r
EXT 1,3 2 14,3
EXT 14,3 4 2,3
PAL 1

ROOM 4
0,0,0,0,0,0,0,0,0,0,0,0,0,0,0,0
0,a,a,a,a,a,a,a,a,a,a,a,a,a,a,0
0,a,0,0,0,0,0,0,0,0,0,0,0,0,a,0
0,0,0,0,0,0,0,0,0,0,0,0,0,0,0,0
0,a,0,0,0,0,0,0,0,0,0,0,0,0,a,0
0,a,0,0,0,0,0,0,0,0,0,0,0,0,a,0
0,a,0,0,0,0,0,0,0,0,0,0,0,0,a,0
0,a,0,0,0,0,0,0,0,0,0,0,0,0,a,0
0,a,0,0,0,0,0,0,0,0,0,0,0,0,a,0
0,a,0,0,0,0,0,0,0,0,0,0,0,0,a,0
0,a,0,0,0,0,0,0,0,0,0,0,0,0,a,0
0,a,0,0,0,0,0,0,0,0,0,0,0,0,a,0
0,a,0,0,0,0,0,0,0,0,0,0,0,0,a,0
0,a,0,0,0,0,0,0,0,0,0,0,0,0,a,0
0,a,a,a,a,a,a,a,a,a,a,a,t,a,a,0
0,0,0,0,0,0,0,0,0,0,0,0,0,0,0,0
WAL a,k,r
EXT 1,3 3 13,3
EXT 14,3 5 2,3
EXT 12,14 6 12,2
PAL 1

ROOM 5
0,0,0,0,0,0,0,0,0,0,0,0,0,0,0,0
0,a,a,a,a,a,a,a,a,a,a,a,a,a,a,0
0,a,0,0,0,0,0,0,0,0,0,0,0,0,a,0
0,0,0,0,0,0,0,0,0,0,0,0,0,0,t,0
0,a,0,0,0,0,0,0,0,0,0,0,0,0,a,0
0,a,0,0,0,0,0,0,0,0,0,0,0,0,a,0
0,a,0,q,0,0,0,s,0,0,0,r,0,0,a,0
0,a,0,k,0,0,0,k,0,0,0,k,0,0,a,0
0,a,0,0,0,0,0,0,0,0,0,0,0,0,a,0
0,a,a,a,a,a,a,a,a,a,a,a,a,a,a,0
0,0,0,0,0,0,0,0,0,0,0,0,0,0,0,0
0,0,0,0,0,0,0,0,0,0,0,0,0,0,0,0
0,0,0,0,0,0,0,0,0,0,0,0,0,0,0,0
0,0,0,0,0,0,0,0,0,0,0,0,0,0,0,0
0,0,0,0,0,0,0,0,0,0,0,0,0,0,0,0
0,0,0,0,0,0,0,0,0,0,0,0,0,0,0,0
WAL a,k,r,q,s
EXT 1,3 4 13,3
PAL 1

ROOM 6
0,0,0,0,0,0,0,0,0,0,0,0,0,0,0,0
0,0,0,0,0,0,a,a,a,a,a,a,t,a,a,0
0,0,0,0,0,0,a,0,0,0,0,0,0,0,a,0
0,0,0,0,0,0,a,0,0,0,0,0,0,0,a,0
0,0,0,0,0,0,a,0,0,0,0,0,0,0,a,0
0,0,0,0,0,0,a,0,0,0,0,0,0,0,a,0
0,0,0,0,0,0,a,0,0,0,0,0,0,0,a,0
0,0,0,0,0,0,a,0,0,0,0,g,g,0,a,0
0,0,0,0,0,0,a,a,a,a,a,u,v,a,a,0
0,0,0,0,0,0,0,0,0,0,0,0,0,0,0,0
0,0,0,0,0,0,0,0,0,0,0,0,0,0,0,0
0,0,0,0,0,0,0,0,0,0,0,0,0,0,0,0
0,0,0,0,0,0,0,0,0,0,0,0,0,0,0,0
0,0,0,0,0,0,0,0,0,0,0,0,0,0,0,0
0,0,0,0,0,0,0,0,0,0,0,0,0,0,0,0
0,0,0,0,0,0,0,0,0,0,0,0,0,0,0,0
WAL a
EXT 12,1 4 12,13
EXT 11,8 7 13,7
EXT 12,8 7 13,7
PAL 1

ROOM 7
0,0,0,0,0,0,0,0,0,0,0,0,0,0,0,0
0,l,l,l,l,l,l,l,l,l,l,l,l,l,l,0
0,l,0,0,0,0,0,0,0,0,0,0,0,0,l,0
0,0,h,0,0,0,0,0,0,0,0,0,i,0,l,0
0,l,0,0,0,0,0,0,0,0,0,0,0,0,l,0
0,l,0,0,0,0,0,0,0,0,0,0,0,0,l,0
0,l,0,0,0,0,0,0,0,0,0,b,c,0,l,0
0,l,0,0,0,0,i,0,0,0,f,d,e,0,l,0
0,l,0,i,i,0,0,0,0,0,0,0,0,0,l,0
0,l,0,i,0,0,0,0,0,0,0,0,0,0,l,0
0,l,0,0,0,0,0,0,0,0,0,0,0,0,l,0
0,l,0,0,0,0,0,i,0,0,0,0,i,0,l,0
0,l,0,0,0,0,0,i,i,0,0,0,i,0,l,0
0,l,0,0,0,0,0,0,0,0,0,0,0,0,l,0
0,l,l,l,l,l,l,l,l,l,l,l,l,l,l,0
0,0,0,0,0,0,0,0,0,0,0,0,0,0,0,0
WAL a,c,l,b,d,e,f
END 1 1,3
PAL 0

TIL a
11111111
11111111
11111111
11111111
11111111
11111111
11111111
11111111

TIL b
01111111
11111111
11111111
11111111
11111111
01111111
01111111
01111111

TIL c
11111111
11111111
11111111
11111111
11111111
11111111
11111111
11111111

TIL d
01111111
11111111
00111000
00101000
00111000
00000000
00000000
00000000

TIL e
11111111
11111111
00001110
00001010
00001110
00000000
00000000
00000000

TIL f
00000000
00000000
00000001
00000110
00011000
00000000
00000000
00000000

TIL g
00111100
00111100
00111100
00111100
01111110
00111100
00011000
00000000
>
00000000
00111100
00111100
00111100
00111100
01111110
00111100
00011000

TIL h
00000000
00010000
00111111
01111111
01111111
00111111
00010000
00000000
>
00000000
00100000
01111110
11111110
11111110
01111110
00100000
00000000

TIL i
00000000
00100010
00100010
00100010
01000100
01000100
01000100
01000100
>
00000000
01000100
01000100
01000100
01000100
01000100
01000100
01000100

TIL j
11111111
10000001
10000001
10000001
10001001
10000001
10000001
11111111
>
11111111
10000001
10000001
10001001
10000001
10000001
10000001
11111111

TIL k
11111111
01111110
01111110
01111110
01111110
01111110
01111110
01111110

TIL l
11111111
11111111
11111111
11111111
11111111
11111111
11111111
11111111

TIL m
00000000
00011000
00111100
01111110
00111100
00111100
00111100
00111100
>
00011000
00111100
01111110
00111100
00111100
00111100
00111100
00000000

TIL n
00000000
00001000
11111100
11111110
11111110
11111100
00001000
00000000
>
00000000
00000100
01111110
01111111
01111111
01111110
00000100
00000000

TIL o
11111111
10000001
10000001
10000001
10000001
10000001
10000001
11111111
>
11111111
10000001
10000001
10000001
10000001
10000001
10000001
11111111

TIL p
11111111
10000001
10000001
10000001
10000001
10001101
10111101
11111111

TIL q
11111111
10000001
10100101
10011001
10111101
10011001
10000001
11111111

TIL r
11111111
10000001
10011001
10111101
10111101
10111101
10000001
11111111

TIL s
11111111
10000001
10000001
10011001
10011001
10111101
10000001
11111111

TIL t
01111110
01111110
01111110
01111110
01110010
01110010
01111110
01111110

TIL u
11111111
10000000
10000000
10000000
10000000
10000000
10000000
11111111

TIL v
11111111
00000001
00000001
00000001
00000001
00000001
00000001
11111111

SPR 10
11111111
10000001
10101011
10101111
10101111
10011101
10010101
11111111
>
11111111
10000001
11001011
11001111
10101111
10011101
10010101
11111111
POS 3 3,11

SPR 11
00000000
01111110
01111110
01111110
01111110
00011000
00011000
00011000
POS 3 12,12

SPR 12
11111111
10011001
10011001
10111101
11011011
10111101
10000001
11111111
>
11111111
10000001
10011001
10011001
10111101
11011011
10111101
11111111
POS 3 11,11

SPR 13
00000000
01111110
01111110
01111110
01111110
00011000
00011000
00011000
POS 4 7,8

SPR 14
00000000
00011000
00011000
00111100
01011010
10011001
01111110
00011000
>
00011000
00011000
00111100
01011010
10011001
01111110
00011000
00000000
POS 4 5,2

SPR 15
00000000
01111110
01111110
01111110
01111110
00011000
00011000
00011000
POS 5 4,7

SPR 16
00000000
01111110
01111110
01111110
01111110
00011000
00011000
00011000
POS 5 8,7

SPR 17
00000000
01111110
01111110
01111110
01111110
00011000
00011000
00011000
POS 5 12,7

SPR 18
00000000
00011000
00011000
00111100
01011010
10011001
01111110
00011000
>
00011000
00011000
00111100
01011010
10011001
01111110
00011000
00000000
POS 5 5,2

SPR 19
11111111
11111111
11111111
11111111
11111001
11111001
11111111
11111111
POS 5 14,3

SPR A
00011000
00011000
00011000
00111100
01111110
10111101
00100100
00100100
POS 0 5,4

SPR a
00000000
00000000
01010001
01110001
01110010
01111100
00111100
00100100
>
00000000
00000000
01010010
01110010
01110010
01111100
00111100
00100100

SPR b
00000000
00011000
00011000
00111100
01011010
10011001
01111110
00011000
>
00011000
00011000
00111100
01011010
10011001
01111110
00011000
00000000
POS 1 6,3

SPR c
00000000
01111110
01111110
01111110
01111110
00011000
00011000
00011000
POS 0 12,8

SPR d
00011000
00111100
00011000
00111100
01111110
10111101
00100100
00100100
>
00000000
00011000
00111100
00011000
00111100
01111110
10111101
00100100
POS 0 9,5

SPR e
00000000
10010000
11110010
11110010
11110010
00111100
00111100
00100100
>
00000000
10010000
11110001
11110001
11110010
00111100
00111100
00100100
POS 0 13,9

SPR f
11111111
11111111
11111111
11111111
11111001
11111001
11111111
11111111
POS 1 1,3

SPR g
00000000
01111110
01111110
01111110
01111110
00011000
00011000
00011000
POS 2 4,7

SPR h
00000000
00011000
00011000
00111100
01011010
10011001
01111110
00011000
>
00011000
00011000
00111100
01011010
10011001
01111110
00011000
00000000
POS 2 5,2

SPR i
00000000
01111110
01111110
01111110
01111110
00011000
00011000
00011000
POS 2 4,12

SPR j
00000000
01111110
01111110
01111110
01111110
00011000
00011000
00011000
POS 2 12,7

SPR k
11111111
10000001
10101011
10101111
10101111
10011101
10010101
11111111
>
11111111
10000001
11001011
11001111
10101111
10011101
10010101
11111111
POS 2 7,6

SPR l
00000000
01111110
01111110
01111110
01111110
00011000
00011000
00011000
POS 2 8,7

SPR m
11111111
10100101
11011011
10111101
10011001
10011001
10000001
11111111
>
11111111
10000001
10100101
11011011
10111101
10011001
10011001
11111111
POS 2 7,11

SPR n
00000000
01111110
01111110
01111110
01111110
00011000
00011000
00011000
POS 2 8,12

SPR o
11111111
10011001
10011001
10111101
10111101
10111101
10100101
11111111
>
11111111
10011001
10011001
10111101
10111101
10111101
10100101
11111111
POS 2 11,11

SPR p
00000000
01111110
01111110
01111110
01111110
00011000
00011000
00011000
POS 2 12,12

SPR q
00000000
00011000
00011000
00111100
01011010
10011001
01111110
00011000
>
00011000
00011000
00111100
01011010
10011001
01111110
00011000
00000000
POS 3 5,2

SPR r
00000000
01111110
01111110
01111110
01111110
00011000
00011000
00011000
POS 3 4,7

SPR s
11111111
10000001
10000001
10000001
10000001
10011001
10100101
11111111
>
11111111
10000001
10000001
10000001
10000001
10000001
10111111
11111111
POS 3 3,6

SPR t
00000000
01111110
01111110
01111110
01111110
00011000
00011000
00011000
POS 3 8,7

SPR u
11111111
10011001
10011001
10111101
11011011
10111101
10000001
11111111
>
11111111
10000001
10011001
10011001
10111101
11011011
10111101
11111111
POS 3 7,6

SPR v
00000000
01111110
01111110
01111110
01111110
00011000
00011000
00011000
POS 3 8,12

SPR w
11111111
10011001
10011001
10111101
11011011
10111101
10000001
11111111
>
11111111
10000001
10011001
10011001
10111101
11011011
10111101
11111111
POS 3 7,11

SPR x
00000000
01111110
01111110
01111110
01111110
00011000
00011000
00011000
POS 3 12,7

SPR y
11111111
10011001
10011001
10111101
11011011
10111101
10000001
11111111
>
11111111
10000001
10011001
10011001
10111101
11011011
10111101
11111111
POS 3 11,6

SPR z
00000000
01111110
01111110
01111110
01111110
00011000
00011000
00011000
POS 3 4,12

SPR 1a
00000000
01111110
01111110
01111110
01111110
00011000
00011000
00011000
POS 6 10,2

SPR 1b
00000000
10010000
11110010
11110010
11110010
00111100
00111100
00100100
>
00000000
10010000
11110001
11110001
11110010
00111100
00111100
00100100
POS 6 13,4

SPR 1c
00011000
00111100
00011000
00111100
01111110
10111101
00100100
00100100
>
00000000
00011000
00111100
00011000
00111100
01111110
10111101
00100100
POS 7 9,8

SPR 1d
00000000
00001001
01001111
01001111
01001111
00111100
00111100
00100100
>
00000000
00001001
10001111
10001111
01001111
00111100
00111100
00100100
POS 7 3,4

DLG 10
Meow. ("Have you figured out that this is a scam yet? Also, kittens are much cuter than moths.")

DLG 11
Moth Fact #?: Blah Blah Blah, moths are cool. Can you just go on to the next room already?

DLG 12
Squeak. ("I agree with the sign.")

DLG 13
Coming Soon: Stuff!

DLG 14
Squeak. ("I'm afraid this room is under construction. Please move along.")

DLG 15
Plush Moth: Like a normal moth, but cuddlier! 

DLG 16
I <3 Moths Hat: Show off your love of moths with this dope hat! (Kids still say "dope" right?)

DLG 17
Bottle of Moth Oil: Even better than snake oil!

DLG 18
Squeak. ("Finally, this is our gift shop, where you can buy some high-quality, non-stolen moth-based merchandise!")

DLG 19
This door is also locked. That's probably not good.

DLG a
I'm a cat

DLG c
Dr. Monty's Traveling Caravan of Moth-Based Oddities! (Technically FDA approved!)

DLG d
"Step right up, step right up! Explore the wonderful world of Moths and Moth Accessories!"

DLG e
Woof. ("Dude, you know this is a scam right?")

DLG f
The door has slammed shut behind you. Great.

DLG g
World's Tiniest Moth! (Warning: Frightened by small objects.)

DLG b
Squeak. (Hello! My name is Jessica and I'll be your tour guide for today. BTW, I'm also a moth.)

DLG h
Squeak! ("This room showcases some of our more unique moths. They're special... in a good way!")

DLG i
The Ghost Moth: Now, we know that this looks like an empty glass case. However, it's actually full of oxygen!  ...Oh and moths. It also has moths.

DLG j
The Sleeping Moth: Despite what medical professionals say, the truth is that the Argentinian Sleeping Moth is not actually dead. It is only half dead. (Also known as sleeping.)

DLG l
The Cat Moth: This rare moth from the jungles of Brazil uses a unique form of camouflage, disguising itself as a common house cat.

DLG k
Meow. (I can't believe people are still falling for this.)

DLG m
Squeak! ("Why am I upside down? I'm a nice guy. I just want to go home!)

DLG n
The Australian Death Moth: Known as the world's most dangerous moth, the ADM is responsible for 99.9% of moth related casualties each year.

DLG o
"I'm pretty sure this isn't legal."

DLG p
Gwen: This is Gwen, one of our employees. She decided to show up late for work one day so, these are the consequences.

DLG q
Squeak. ("This exhibit is all about moth facts (That are all 100% true.) that you may not know about.")

DLG r
Moth Fact #1: Did you know that moth larvae provides at least 250 calories per 100 grams?

DLG s
squeak. ("Don't even THINK about eating me.")

DLG t
Moth Fact #2: Did you know that Moths aren't just man's best friend, but woman's best friend too!

DLG u
Squeak! ("Wanna be best friends?")

DLG v
Moth Fact #7: Did you know that a moth's favorite number is 7?

DLG w
squeak. ("seven.")

DLG x
Moth Fact #2+1: Did you know that [insert fact here]? I know, crazy right?

DLG y
Squeak. ([Insert relevant dialogue here].)

DLG z
Moth Fact #4: Did you know that Moth larvae are cuter than puppies, kittens, and bunnies combined?

DLG 1a
Restroom (Under construction!... seriously don't pee here.)

DLG 1b
Woof. ("I'd go through the window if I were you.")

DLG 1d
Woof. ("Told you it was a scam.")

DLG 1c
"Make sure you tell all your moth loving friends about us! (Unless they're in law enforcement.)" 

END 0
You get creeped out and decide to go home.

END 1
You sulk home, regretting that you paid $20 for this.

