the_right_song_now.mp3

# BITSY VERSION 5.2

! ROOM_FORMAT 1

PAL 0
239,212,246
202,137,171
255,255,255

PAL 1
NAME cavern
75,109,133
150,207,133
255,255,255

PAL 2
255,255,255
255,255,255
255,255,255

ROOM 0
0,0,0,0,0,0,0,0,0,0,0,0,0,0,0,0
0,0,0,0,0,0,0,0,0,0,0,0,0,0,0,0
0,0,0,0,0,0,0,0,0,0,0,0,0,0,0,0
0,0,0,0,0,0,0,0,0,0,0,0,0,0,0,0
0,0,0,0,0,0,0,0,0,0,0,0,1v,0,0,0
0,0,0,0,0,0,0,0,0,0,0,0,1u,0,0,0
0,0,0,0,0,0,0,0,0,0,0,0,0,0,0,0
0,0,0,0,0,1t,0,0,0,0,0,0,0,0,0,0
0,0,0,0,0,1u,0,0,0,0,0,0,0,0,0,0
0,0,0,0,0,0,0,0,0,0,0,0,0,0,0,0
0,0,0,0,0,0,0,0,0,0,0,0,0,0,0,0
0,0,0,0,0,0,0,0,0,0,0,0,0,0,0,0
0,0,0,0,0,0,0,0,0,0,0,0,0,0,0,0
0,0,0,0,0,0,0,0,0,0,0,0,0,0,0,0
0,0,0,0,0,0,0,0,0,0,0,0,0,0,0,0
m,1o,1o,n,n,n,n,n,n,n,n,n,n,n,p,o
NAME Desktop2
ITM 1j 12,4
ITM 1i 5,7
EXT 5,7 2 5,6
EXT 12,4 c 12,4
PAL 0

ROOM 2
e,c,c,c,c,c,c,c,c,c,c,c,c,c,c,f
1n,l,q,r,s,t,u,v,w,n,n,n,n,n,n,1p
1g,0,3g,3g,3g,3g,3g,3g,3g,3g,3g,3g,3g,3i,11,b
1g,0,x,10,3m,3g,3n,3h,n,n,n,n,n,1a,14,b
1g,0,y,z,3m,3g,3n,0,0,0,0,0,0,1a,12,b
1g,0,0,0,0,0,1l,0,0,0,0,0,0,1a,12,b
1g,1l,3o,n,n,n,3p,0,0,0,0,0,0,1a,12,b
1g,1l,0,0,0,0,3q,0,0,0,0,0,0,1a,12,b
1g,1l,3s,3t,3u,3v,3k,3w,3w,3w,3w,3w,3w,3x,12,b
1g,45,3w,3w,3w,3w,44,3z,n,n,n,n,n,1a,12,b
1g,1l,46,n,n,n,3q,0,27,28,40,41,42,1a,12,b
1g,1l,0,0,0,0,3q,0,42,41,28,28,0,1a,12,b
1g,1l,0,0,0,0,3q,0,43,40,41,42,41,1a,12,b
1g,1l,0,0,0,0,3q,0,27,27,42,28,0,1a,13,b
g,d,d,d,d,d,d,d,d,d,d,d,d,d,d,h
m,1o,1o,n,n,n,n,n,n,n,n,n,n,n,p,o
NAME Myspace Page1
ITM 1m 3,5
ITM 1l 2,5
ITM 16 12,5
ITM 15 11,5
ITM 14 12,4
ITM 13 11,4
ITM 12 10,5
ITM 11 9,5
ITM 6 10,4
ITM 5 9,4
ITM 4 8,5
ITM 3 7,5
ITM 2 8,4
ITM 1 7,4
ITM 1q 8,7
ITM 1p 7,7
ITM 1n 7,6
ITM 1o 8,6
ITM 1s 10,6
ITM 1t 9,7
ITM 1u 10,7
ITM 1v 11,6
ITM 1w 12,6
ITM 1y 12,7
ITM 1x 11,7
ITM 1z 3,7
ITM 20 4,7
ITM 17 7,10
ITM 18 7,12
ITM 22 3,11
ITM 22 4,11
ITM 23 2,11
ITM 24 5,11
ITM 25 2,12
ITM 26 3,12
ITM 26 4,12
ITM 27 5,12
ITM 28 5,13
ITM 29 4,13
ITM 29 3,13
ITM 2a 2,13
ITM 1g 14,13
ITM 1f 14,2
ITM 1h 1,1
ITM 1r 9,6
EXT 1,1 0 1,1
EXT 14,13 g 14,13
EXT 3,7 p 3,7
EXT 4,7 p 4,7
PAL 0

ROOM b
0,0,0,0,0,0,0,0,0,0,0,0,0,0,0,0
0,0,0,0,0,0,0,0,0,0,0,0,0,0,0,0
0,0,0,0,0,0,0,0,0,0,0,0,0,0,0,0
0,0,0,0,0,0,0,0,0,0,0,0,0,0,0,0
0,0,0,0,0,0,0,0,0,0,0,0,0,0,0,0
0,0,0,0,0,0,0,0,0,0,0,0,1u,0,0,0
0,0,0,0,0,0,0,0,0,0,0,0,1u,0,0,0
0,0,0,0,0,1t,0,0,0,0,0,0,0,0,0,0
0,0,0,0,0,1u,0,0,0,0,0,0,0,0,0,0
0,0,0,0,0,0,0,0,0,0,0,0,0,0,0,0
0,0,0,0,0,0,0,0,0,0,0,0,0,0,0,0
0,0,0,0,0,0,0,0,0,0,0,0,0,0,0,0
0,0,0,0,0,0,0,0,0,0,0,0,0,0,0,0
0,0,0,0,0,0,0,0,0,0,0,0,0,0,0,0
0,0,0,0,0,0,0,0,0,0,0,0,0,0,0,0
m,n,n,n,n,n,n,n,n,n,n,n,n,n,p,o
NAME Desktop1
ITM 1i 5,7
ITM 1j 12,5
EXT 5,7 2 5,6
EXT 12,5 c 12,4
PAL 0

ROOM c
0,0,0,0,0,0,0,0,0,0,0,0,0,0,0,0
0,e,c,c,c,c,c,c,c,c,c,c,c,c,f,0
0,1n,l,n,n,n,n,n,n,n,n,n,n,n,1p,0
0,1g,0,0,0,0,0,0,0,0,0,0,0,0,b,0
0,1g,1u,0,0,0,1u,0,1u,0,0,0,0,0,b,0
0,1g,0,0,0,0,0,0,0,1u,1u,1u,1u,0,b,0
0,1g,1u,0,1u,1u,1u,0,0,0,0,0,0,0,b,0
0,1g,0,0,0,0,0,1u,0,0,0,0,0,0,b,0
0,1g,0,0,0,0,0,0,0,0,0,0,1u,0,b,0
0,1g,0,1u,0,0,0,0,1u,1u,0,0,0,0,b,0
0,1g,1u,0,0,0,0,1u,0,0,0,0,0,1u,b,0
0,1g,0,0,1u,0,0,0,0,0,0,0,0,0,b,0
0,1g,0,1u,0,0,1u,1u,0,0,0,0,0,0,b,0
0,g,d,d,d,d,d,d,d,d,d,d,d,d,h,0
0,0,0,0,0,0,0,0,0,0,0,0,0,0,0,0
m,1o,1o,n,n,n,n,n,n,n,n,n,n,n,p,o
NAME MusicFolder1
ITM 1h 2,2
ITM c 2,3
ITM d 6,3
ITM e 8,3
ITM f 9,4
ITM g 10,4
ITM h 11,4
ITM i 12,4
ITM j 2,5
ITM k 4,5
ITM l 5,5
ITM m 6,5
ITM n 7,6
ITM o 12,7
ITM p 3,8
ITM q 8,8
ITM r 9,8
ITM s 2,9
ITM t 7,9
ITM u 13,9
ITM v 4,10
ITM w 3,11
ITM x 6,11
ITM y 7,11
EXT 2,2 0 2,2
PAL 0

ROOM f
n,n,n,n,n,n,n,n,n,n,n,n,n,n,n,n
n,n,n,n,n,n,n,n,n,n,n,n,n,n,n,n
n,n,n,n,n,n,n,n,n,n,n,n,n,n,n,n
n,n,38,39,39,39,39,39,39,39,39,39,39,3a,n,n
n,n,3b,35,36,37,n,n,n,n,n,n,n,3e,n,n
n,n,3b,0,2x,2y,2z,0,0,2x,2y,2z,0,3e,n,n
n,n,3b,0,31,0,30,0,0,31,0,30,0,3e,n,n
n,n,3b,0,32,33,34,0,0,32,33,34,0,3e,n,1o
n,n,3c,3f,3f,3f,3f,3f,3f,3f,3f,3f,3f,3d,n,n
n,n,n,n,n,n,n,n,n,n,n,n,n,n,n,n
n,n,n,n,n,n,n,n,n,n,n,n,n,n,n,n
n,n,n,n,n,n,n,n,n,n,n,n,n,n,n,n
n,n,n,n,n,n,n,n,n,n,n,n,n,n,n,n
n,n,n,n,n,n,n,n,n,n,n,n,n,n,n,n
n,n,n,n,n,n,n,n,n,n,n,n,n,n,n,n
n,n,n,n,n,n,n,n,n,n,n,n,n,n,n,n
NAME Login
ITM 1d 5,6
ITM 1k 10,6
EXT 5,6 0 5,6
PAL 0

ROOM g
e,c,c,c,c,c,c,c,c,c,c,c,c,c,c,f
1n,l,q,r,s,t,u,v,w,n,n,n,n,n,n,1p
1g,0,x,10,3m,3g,3n,3h,n,n,n,n,n,1a,11,b
1g,0,y,z,3m,3g,3n,0,0,0,0,0,0,1a,12,b
1g,0,0,0,0,0,1l,0,0,0,0,0,0,1a,14,b
1g,1l,3o,n,n,n,3p,0,0,0,0,0,0,1a,12,b
1g,1l,0,0,0,0,3q,0,0,0,0,0,0,1a,12,b
1g,1l,3s,3t,3u,3v,3k,3w,3w,3w,3w,3w,3w,3x,12,b
1g,45,3w,3w,3w,3w,44,3z,n,n,n,n,n,1a,12,b
1g,1l,46,n,n,n,3q,0,27,28,40,41,42,1a,12,b
1g,1l,0,0,0,0,3q,0,42,41,28,28,0,1a,12,b
1g,1l,0,0,0,0,3q,0,43,40,41,42,41,1a,12,b
1g,1l,0,0,0,0,3q,0,27,27,42,28,0,1a,12,b
1g,3r,1d,1d,1d,1d,3y,0,40,43,40,28,27,1a,13,b
g,d,d,d,d,d,d,d,d,d,d,d,d,d,d,h
m,1o,1o,n,n,n,n,n,n,n,n,n,n,n,p,o
NAME Myspace Page2
ITM 1l 2,4
ITM 1m 3,4
ITM 1h 1,1
ITM 1g 14,13
ITM 1f 14,2
ITM 1z 3,6
ITM 20 4,6
ITM 23 2,10
ITM 24 5,10
ITM 22 3,10
ITM 22 4,10
ITM 25 2,11
ITM 26 3,11
ITM 26 4,11
ITM 27 5,11
ITM 28 5,12
ITM 2a 2,12
ITM 29 3,12
ITM 29 4,12
ITM 17 7,9
ITM 18 7,11
ITM 19 7,13
ITM 1 7,3
ITM 2 8,3
ITM 3 7,4
ITM 4 8,4
ITM 5 9,3
ITM 6 10,3
ITM 11 9,4
ITM 12 10,4
ITM 13 11,3
ITM 14 12,3
ITM 16 12,4
ITM 15 11,4
ITM 1n 7,5
ITM 1o 8,5
ITM 1p 7,6
ITM 1q 8,6
ITM 1r 9,5
ITM 1s 10,5
ITM 1t 9,6
ITM 1u 10,6
ITM 1v 11,5
ITM 1w 12,5
ITM 1x 11,6
ITM 1y 12,6
EXT 1,1 0 1,1
EXT 14,13 h 14,13
EXT 14,2 2 14,2
EXT 3,6 p 3,6
EXT 4,6 p 4,6
PAL 0

ROOM h
e,c,c,c,c,c,c,c,c,c,c,c,c,c,c,f
1n,l,q,r,s,t,u,v,w,n,n,n,n,n,n,1p
1g,0,y,z,3m,3g,3n,0,0,0,0,0,0,1a,11,b
1g,0,0,0,0,0,1l,0,0,0,0,0,0,1a,12,b
1g,1l,3o,n,n,n,3p,0,0,0,0,0,0,1a,12,b
1g,1l,0,0,0,0,3q,0,0,0,0,0,0,1a,14,b
1g,1l,3s,3t,3u,3v,3k,3w,3w,3w,3w,3w,3w,3x,12,b
1g,45,3w,3w,3w,3w,44,3z,n,n,n,n,n,1a,12,b
1g,1l,46,n,n,n,3q,0,27,28,40,41,42,1a,12,b
1g,1l,0,0,0,0,3q,0,42,41,28,28,0,1a,12,b
1g,1l,0,0,0,0,3q,0,43,40,41,42,41,1a,12,b
1g,1l,0,0,0,0,3q,0,27,27,42,28,0,1a,12,b
1g,45,3w,3w,3w,3w,44,0,40,43,40,28,27,1a,12,b
1g,1l,47,n,n,n,3q,0,43,41,42,41,27,1a,13,b
g,d,d,d,d,d,d,d,d,d,d,d,d,d,d,h
m,1o,1o,n,n,n,n,n,n,n,n,n,n,n,p,o
NAME Myspace Page3
ITM 1l 2,3
ITM 1m 3,3
ITM 1h 1,1
ITM 1g 14,13
ITM 1f 14,2
ITM 20 4,5
ITM 1z 3,5
ITM 29 3,11
ITM 29 4,11
ITM 2a 2,11
ITM 28 5,11
ITM 27 5,10
ITM 26 4,10
ITM 26 3,10
ITM 25 2,10
ITM 24 5,9
ITM 23 2,9
ITM 22 3,9
ITM 22 4,9
ITM 19 7,12
ITM 18 7,10
ITM 17 7,8
ITM 1y 12,5
ITM 1x 11,5
ITM 1w 12,4
ITM 1v 11,4
ITM 1u 10,5
ITM 1t 9,5
ITM 1s 10,4
ITM 1r 9,4
ITM 1q 8,5
ITM 1p 7,5
ITM 1o 8,4
ITM 1n 7,4
ITM 16 12,3
ITM 15 11,3
ITM 14 12,2
ITM 13 11,2
ITM 12 10,3
ITM 11 9,3
ITM 6 10,2
ITM 5 9,2
ITM 4 8,3
ITM 3 7,3
ITM 1 7,2
ITM 2 8,2
EXT 1,1 0 1,1
EXT 14,13 i 14,13
EXT 14,2 g 14,2
EXT 3,5 p 3,5
EXT 4,5 p 4,5
PAL 0

ROOM i
e,c,c,c,c,c,c,c,c,c,c,c,c,c,c,f
1n,l,q,r,s,t,u,v,w,n,n,n,n,n,n,1p
1g,0,0,0,0,0,1l,0,0,0,0,0,0,1a,11,b
1g,1l,3o,n,n,n,3p,0,0,0,0,0,0,1a,12,b
1g,1l,0,0,0,0,3q,0,0,0,0,0,0,1a,12,b
1g,1l,3s,3t,3u,3v,3k,3w,3w,3w,3w,3w,3w,3x,12,b
1g,45,3w,3w,3w,3w,44,3z,n,n,n,n,n,1a,14,b
1g,1l,46,n,n,n,3q,0,27,28,40,41,42,1a,12,b
1g,1l,0,0,0,0,3q,0,42,41,28,28,0,1a,12,b
1g,1l,0,0,0,0,3q,0,43,40,41,42,41,1a,12,b
1g,1l,0,0,0,0,3q,0,27,27,42,28,0,1a,12,b
1g,45,3w,3w,3w,3w,44,0,40,43,40,28,27,1a,12,b
1g,1l,47,n,n,n,3q,0,43,41,42,41,27,1a,12,b
1g,1l,0,0,0,0,3q,0,27,43,40,43,41,1a,13,b
g,d,d,d,d,d,d,d,d,d,d,d,d,d,d,h
m,1o,1o,n,n,n,n,n,n,n,n,n,n,n,p,o
NAME Myspace Page4
ITM 1m 3,2
ITM 1l 2,2
ITM 1h 1,1
ITM 1g 14,13
ITM 1f 14,2
ITM 1z 3,4
ITM 20 4,4
ITM 22 4,8
ITM 22 3,8
ITM 23 2,8
ITM 24 5,8
ITM 25 2,9
ITM 26 3,9
ITM 26 4,9
ITM 27 5,9
ITM 28 5,10
ITM 29 4,10
ITM 29 3,10
ITM 2a 2,10
ITM 17 7,7
ITM 18 7,9
ITM 19 7,11
ITM 1a 7,13
ITM 3 7,2
ITM 4 8,2
ITM 12 10,2
ITM 11 9,2
ITM 15 11,2
ITM 16 12,2
ITM 1n 7,3
ITM 1o 8,3
ITM 1p 7,4
ITM 1q 8,4
ITM 1r 9,3
ITM 1s 10,3
ITM 1t 9,4
ITM 1u 10,4
ITM 1v 11,3
ITM 1w 12,3
ITM 1x 11,4
ITM 1y 12,4
ITM 2k 2,13
ITM 2h 3,13
ITM 2i 4,13
ITM 2j 5,13
EXT 1,1 0 1,1
EXT 14,13 j 14,13
EXT 14,2 h 14,2
EXT 3,4 p 3,4
EXT 4,4 p 4,4
PAL 0

ROOM j
e,c,c,c,c,c,c,c,c,c,c,c,c,c,c,f
1n,l,q,r,s,t,u,v,w,n,n,n,n,n,n,1p
1g,1l,3o,n,n,n,3p,0,0,0,0,0,0,1a,11,b
1g,1l,0,0,0,0,3q,0,0,0,0,0,0,1a,12,b
1g,1l,3s,3t,3u,3v,3k,3w,3w,3w,3w,3w,3w,3x,12,b
1g,45,3w,3w,3w,3w,44,3z,n,n,n,n,n,1a,12,b
1g,1l,46,n,n,n,3q,0,27,28,40,41,42,1a,12,b
1g,1l,0,0,0,0,3q,0,42,41,28,28,0,1a,14,b
1g,1l,0,0,0,0,3q,0,43,40,41,42,41,1a,12,b
1g,1l,0,0,0,0,3q,0,27,27,42,28,0,1a,12,b
1g,45,3w,3w,3w,3w,44,0,40,43,40,28,27,1a,12,b
1g,1l,47,n,n,n,3q,0,43,41,42,41,27,1a,12,b
1g,1l,0,0,0,0,3q,0,27,43,40,43,41,1a,12,b
1g,1l,0,0,0,0,3q,0,42,41,40,43,0,1a,13,b
g,d,d,d,d,d,d,d,d,d,d,d,d,d,d,h
m,1o,1o,n,n,n,n,n,n,n,n,n,n,n,p,o
NAME Myspace Page5
ITM 1h 1,1
ITM 1g 14,13
ITM 1f 14,2
ITM 20 4,3
ITM 1z 3,3
ITM 2a 2,9
ITM 29 3,9
ITM 29 4,9
ITM 28 5,9
ITM 27 5,8
ITM 26 4,8
ITM 26 3,8
ITM 25 2,8
ITM 24 5,7
ITM 23 2,7
ITM 22 3,7
ITM 22 4,7
ITM 1a 7,12
ITM 19 7,10
ITM 18 7,8
ITM 17 7,6
ITM 1y 12,3
ITM 1x 11,3
ITM 1w 12,2
ITM 1v 11,2
ITM 1u 10,3
ITM 1t 9,3
ITM 1s 10,2
ITM 1r 9,2
ITM 1q 8,3
ITM 1p 7,3
ITM 1o 8,2
ITM 1n 7,2
ITM 2d 5,12
ITM 2c 4,12
ITM 2b 3,12
ITM 2k 2,12
EXT 1,1 0 1,1
EXT 14,2 i 14,2
EXT 14,13 k 14,13
EXT 3,3 p 3,3
EXT 4,3 p 4,3
PAL 0

ROOM k
e,c,c,c,c,c,c,c,c,c,c,c,c,c,c,f
1n,l,q,r,s,t,u,v,w,n,n,n,n,n,n,1p
1g,1l,0,0,0,0,3q,0,0,0,0,0,0,1a,11,b
1g,1l,3s,3t,3u,3v,3k,3w,3w,3w,3w,3w,3w,3x,12,b
1g,45,3w,3w,3w,3w,44,3z,n,n,n,n,n,1a,12,b
1g,1l,46,n,n,n,3q,0,27,28,40,41,42,1a,12,b
1g,1l,0,0,0,0,3q,0,42,41,28,28,0,1a,12,b
1g,1l,0,0,0,0,3q,0,43,40,41,42,41,1a,12,b
1g,1l,0,0,0,0,3q,0,27,27,42,28,0,1a,14,b
1g,45,3w,3w,3w,3w,44,0,40,43,40,28,27,1a,12,b
1g,1l,47,n,n,n,3q,0,43,41,42,41,27,1a,12,b
1g,1l,0,0,0,0,3q,0,27,43,40,43,41,1a,12,b
1g,1l,0,0,0,0,3q,0,42,41,40,43,0,1a,12,b
1g,1l,0,0,0,0,3k,3w,3w,3w,3w,3w,3w,3x,13,b
g,d,d,d,d,d,d,d,d,d,d,d,d,d,d,h
m,1o,1o,n,n,n,n,n,n,n,n,n,n,n,p,o
NAME Myspace Page6
ITM 1h 1,1
ITM 1g 14,13
ITM 1f 14,2
ITM 1z 3,2
ITM 20 4,2
ITM 22 3,6
ITM 22 4,6
ITM 23 2,6
ITM 24 5,6
ITM 25 2,7
ITM 26 3,7
ITM 26 4,7
ITM 27 5,7
ITM 28 5,8
ITM 29 3,8
ITM 29 4,8
ITM 2a 2,8
ITM 17 7,5
ITM 18 7,7
ITM 19 7,9
ITM 1a 7,11
ITM 1y 12,2
ITM 1x 11,2
ITM 1u 10,2
ITM 1t 9,2
ITM 1q 8,2
ITM 1p 7,2
ITM 2l 2,13
ITM 2e 3,13
ITM 2f 4,13
ITM 2g 5,13
ITM 2k 2,11
ITM 2b 3,11
ITM 2c 4,11
ITM 2d 5,11
EXT 1,1 0 1,1
EXT 14,13 l 14,13
EXT 14,2 j 14,2
EXT 3,2 p 3,2
EXT 4,2 p 4,2
PAL 0

ROOM l
e,c,c,c,c,c,c,c,c,c,c,c,c,c,c,f
1n,l,q,r,s,t,u,v,w,n,n,n,n,n,n,1p
1g,1l,3s,3t,3u,3v,3k,3w,3w,3w,3w,3w,3w,3x,11,b
1g,45,3w,3w,3w,3w,44,3z,n,n,n,n,n,1a,12,b
1g,1l,46,n,n,n,3q,0,27,28,40,41,42,1a,12,b
1g,1l,0,0,0,0,3q,0,42,41,28,28,0,1a,12,b
1g,1l,0,0,0,0,3q,0,43,40,41,42,41,1a,12,b
1g,1l,0,0,0,0,3q,0,27,27,42,28,0,1a,12,b
1g,45,3w,3w,3w,3w,44,0,40,43,40,28,27,1a,12,b
1g,1l,47,n,n,n,3q,0,43,41,42,41,27,1a,14,b
1g,1l,0,0,0,0,3q,0,27,43,40,43,41,1a,12,b
1g,1l,0,0,0,0,3q,0,42,41,40,43,0,1a,12,b
1g,1l,0,0,0,0,3k,3w,3w,3w,3w,3w,3w,3x,12,b
1g,1l,0,0,0,0,3q,48,n,n,n,n,n,1a,13,b
g,d,d,d,d,d,d,d,d,d,d,d,d,d,d,h
m,1o,1o,n,n,n,n,n,n,n,n,n,n,n,p,o
NAME Myspace Page7
ITM 1h 1,1
ITM 1g 14,13
ITM 1f 14,2
ITM 2a 2,7
ITM 29 3,7
ITM 29 4,7
ITM 28 5,7
ITM 27 5,6
ITM 26 4,6
ITM 26 3,6
ITM 25 2,6
ITM 24 5,5
ITM 23 2,5
ITM 22 3,5
ITM 22 4,5
ITM 1a 7,10
ITM 19 7,8
ITM 18 7,6
ITM 17 7,4
ITM 2b 3,10
ITM 2c 4,10
ITM 2d 5,10
ITM 2k 2,10
ITM 2e 3,12
ITM 2g 5,12
ITM 2l 2,12
ITM 2f 4,12
EXT 1,1 0 1,1
EXT 14,13 m 14,13
EXT 14,2 k 14,2
PAL 0

ROOM m
e,c,c,c,c,c,c,c,c,c,c,c,c,c,c,f
1n,l,q,r,s,t,u,v,w,n,n,n,n,n,n,1p
1g,45,3w,3w,3w,3w,44,3z,n,n,n,n,n,1a,11,b
1g,1l,46,n,n,n,3q,0,27,28,40,41,42,1a,12,b
1g,1l,0,0,0,0,3q,0,42,41,28,28,0,1a,12,b
1g,1l,0,0,0,0,3q,0,43,40,41,42,41,1a,12,b
1g,1l,0,0,0,0,3q,0,27,27,42,28,0,1a,12,b
1g,45,3w,3w,3w,3w,44,0,40,43,40,28,27,1a,12,b
1g,1l,47,n,n,n,3q,0,43,41,42,41,27,1a,12,b
1g,1l,0,0,0,0,3q,0,27,43,40,43,41,1a,12,b
1g,1l,0,0,0,0,3q,0,42,41,40,43,0,1a,14,b
1g,1l,0,0,0,0,3k,3w,3w,3w,3w,3w,3w,3x,12,b
1g,1l,0,0,0,0,3q,48,n,n,n,n,n,1a,12,b
1g,1l,0,0,0,0,3q,n,n,n,n,n,n,1a,13,b
g,d,d,d,d,d,d,d,d,d,d,d,d,d,d,h
m,1o,1o,n,n,n,n,n,n,n,n,n,n,n,p,o
NAME Myspace Page8
ITM 1h 1,1
ITM 1g 14,13
ITM 1f 14,2
ITM 22 3,4
ITM 22 4,4
ITM 23 2,4
ITM 24 5,4
ITM 25 2,5
ITM 26 3,5
ITM 26 4,5
ITM 27 5,5
ITM 28 5,6
ITM 29 4,6
ITM 29 3,6
ITM 2a 2,6
ITM 17 7,3
ITM 18 7,5
ITM 19 7,7
ITM 1a 7,9
ITM 2m 2,13
ITM 2j 5,13
ITM 2i 4,13
ITM 2h 3,13
ITM 2f 4,11
ITM 2g 5,11
ITM 2e 3,11
ITM 2l 2,11
ITM 2k 2,9
ITM 2d 5,9
ITM 2c 4,9
ITM 2b 3,9
ITM 2n 8,13
ITM 2o 9,13
ITM 2p 10,13
ITM 2q 11,13
EXT 1,1 0 1,1
EXT 14,13 n 14,13
EXT 14,2 l 14,2
PAL 0

ROOM n
e,c,c,c,c,c,c,c,c,c,c,c,c,c,c,f
1n,l,q,r,s,t,u,v,w,n,n,n,n,n,n,1p
1g,1l,46,n,n,n,3q,0,27,28,40,41,42,1a,11,b
1g,1l,0,0,0,0,3q,0,42,41,28,28,0,1a,12,b
1g,1l,0,0,0,0,3q,0,43,40,41,42,41,1a,12,b
1g,1l,0,0,0,0,3q,0,27,27,42,28,0,1a,12,b
1g,45,3w,3w,3w,3w,44,0,40,43,40,28,27,1a,12,b
1g,1l,47,n,n,n,3q,0,43,41,42,41,27,1a,12,b
1g,1l,0,0,0,0,3q,0,27,43,40,43,41,1a,12,b
1g,1l,0,0,0,0,3q,0,42,41,40,43,0,1a,12,b
1g,1l,0,0,0,0,3k,3w,3w,3w,3w,3w,3w,3x,12,b
1g,1l,0,0,0,0,3q,48,n,n,n,n,n,1a,14,b
1g,1l,0,0,0,0,3q,n,n,n,n,n,n,1a,12,b
1g,1l,0,0,0,0,3q,n,n,n,n,n,n,1a,13,b
g,d,d,d,d,d,d,d,d,d,d,d,d,d,d,h
m,1o,1o,n,n,n,n,n,n,n,n,n,n,n,p,o
NAME Myspace Page9
ITM 1h 1,1
ITM 1g 14,13
ITM 1f 14,2
ITM 2a 2,5
ITM 29 3,5
ITM 29 4,5
ITM 28 5,5
ITM 27 5,4
ITM 26 4,4
ITM 26 3,4
ITM 25 2,4
ITM 23 2,3
ITM 22 3,3
ITM 22 4,3
ITM 24 5,3
ITM 1a 7,8
ITM 19 7,6
ITM 18 7,4
ITM 17 7,2
ITM 2m 2,12
ITM 2l 2,10
ITM 2k 2,8
ITM 2b 3,8
ITM 2c 4,8
ITM 2d 5,8
ITM 2e 3,10
ITM 2f 4,10
ITM 2g 5,10
ITM 2h 3,12
ITM 2i 4,12
ITM 2j 5,12
ITM 2q 11,12
ITM 2p 10,12
ITM 2o 9,12
ITM 2n 8,12
EXT 1,1 0 1,1
EXT 14,13 o 14,13
EXT 14,2 m 14,2
PAL 0

ROOM o
e,c,c,c,c,c,c,c,c,c,c,c,c,c,c,f
1n,l,q,r,s,t,u,v,w,n,n,n,n,n,n,1p
1g,1l,0,0,0,0,3q,0,42,41,28,28,0,1a,11,b
1g,1l,0,0,0,0,3q,0,43,40,41,42,41,1a,12,b
1g,1l,0,0,0,0,3q,0,27,27,42,28,0,1a,12,b
1g,45,3w,3w,3w,3w,44,0,40,43,40,28,27,1a,12,b
1g,1l,47,n,n,n,3q,0,43,41,42,41,27,1a,12,b
1g,1l,0,0,0,0,3q,0,27,43,40,43,41,1a,12,b
1g,1l,0,0,0,0,3q,0,42,41,40,43,0,1a,12,b
1g,1l,0,0,0,0,3k,3w,3w,3w,3w,3w,3w,3x,12,b
1g,1l,0,0,0,0,3q,48,n,n,n,n,n,1a,12,b
1g,1l,0,0,0,0,3q,n,n,n,n,n,n,1a,12,b
1g,1l,0,0,0,0,3q,n,n,n,n,n,n,1a,14,b
1g,3r,1d,1d,1d,1d,4a,1d,1d,1d,1d,1d,1d,49,13,b
g,d,d,d,d,d,d,d,d,d,d,d,d,d,d,h
m,1o,1o,n,n,n,n,n,n,n,n,n,n,n,p,o
NAME Myspace Page10
ITM 1h 1,1
ITM 1g 14,13
ITM 1f 14,2
ITM 24 5,2
ITM 22 3,2
ITM 22 4,2
ITM 23 2,2
ITM 25 2,3
ITM 26 3,3
ITM 26 4,3
ITM 27 5,3
ITM 28 5,4
ITM 29 3,4
ITM 29 4,4
ITM 2a 2,4
ITM 18 7,3
ITM 19 7,5
ITM 1a 7,7
ITM 2b 3,7
ITM 2c 4,7
ITM 2d 5,7
ITM 2g 5,9
ITM 2f 4,9
ITM 2e 3,9
ITM 2h 3,11
ITM 2i 4,11
ITM 2j 5,11
ITM 2k 2,7
ITM 2l 2,9
ITM 2m 2,11
ITM 2n 8,11
ITM 2q 11,11
ITM 2p 10,11
ITM 2o 9,11
EXT 1,1 0 1,1
EXT 14,2 n 14,2
PAL 0

ROOM p
e,c,c,c,c,c,c,c,c,c,c,c,c,c,c,f
1n,l,q,r,s,t,u,v,w,n,n,n,n,n,n,1p
1n,n,n,n,n,n,n,n,n,n,n,n,n,n,11,b
1n,1o,38,39,39,39,39,39,39,39,39,39,39,3a,14,b
1n,1o,3b,l,4e,4f,4g,4h,4i,4j,n,n,n,3e,12,b
1n,1o,3b,0,0,0,0,0,0,0,0,0,0,3e,12,b
1n,1o,3b,0,0,0,0,0,0,0,0,0,0,3e,12,b
1n,1o,3b,0,0,0,0,0,0,0,0,0,0,3e,12,b
1n,1o,3b,0,0,0,0,0,0,0,0,0,0,3e,12,b
1n,1o,3b,0,0,0,0,0,0,0,0,0,0,3e,12,b
1n,1o,3b,n,n,n,n,n,n,n,n,n,n,3e,12,b
1n,n,3b,n,n,n,n,n,n,n,4b,4c,4d,3e,12,b
1n,n,3c,3f,3f,3f,3f,3f,3f,3f,3f,3f,3f,3d,12,b
1n,n,n,n,n,n,n,n,n,n,n,n,n,n,13,b
g,d,d,d,d,d,d,d,d,d,d,d,d,d,d,h
m,1o,1o,n,n,n,n,n,n,n,n,n,n,n,p,o
NAME UploadPage
ITM 2s 3,4
ITM 1h 1,1
ITM 2v 11,11
ITM 32 6,5
ITM 33 8,5
ITM 34 10,5
ITM 35 12,5
ITM 36 3,6
ITM 37 5,6
ITM 38 7,6
ITM 39 9,6
ITM 3a 11,6
ITM 3b 4,7
ITM 3c 6,7
ITM 3d 8,7
ITM 3e 10,7
ITM 3f 12,7
ITM 3g 3,8
ITM 3h 5,8
ITM 3j 9,8
ITM 3i 7,8
ITM 3k 11,8
ITM 3l 4,9
ITM 3m 6,9
ITM 3n 8,9
ITM 31 4,5
EXT 1,1 0 1,1
EXT 3,4 2 3,4
EXT 4,5 q 4,5
EXT 6,5 q 6,5
EXT 8,5 q 8,5
EXT 10,5 q 10,5
EXT 12,5 q 12,5
EXT 3,6 q 3,6
EXT 5,6 q 5,6
EXT 7,6 q 7,6
EXT 9,6 q 9,6
EXT 11,6 q 11,6
EXT 4,7 q 4,7
EXT 6,7 q 6,7
EXT 8,7 q 8,7
EXT 10,7 q 10,7
EXT 12,7 q 12,7
EXT 3,8 q 3,8
EXT 5,8 q 5,8
EXT 7,8 q 7,8
EXT 9,8 q 9,8
EXT 11,8 q 11,8
EXT 4,9 q 4,9
EXT 6,9 q 6,9
EXT 8,9 q 8,9
EXT 10,9 q 10,9
PAL 0

ROOM q
e,c,c,c,c,c,c,c,c,c,c,c,c,c,c,f
1n,l,q,r,s,t,u,v,w,n,n,n,n,n,n,1p
1n,n,n,n,n,n,n,n,n,n,n,n,n,n,11,b
1n,1o,38,39,39,39,39,39,39,39,39,39,39,3a,14,b
1n,1o,3b,l,4e,4f,4g,4h,4i,4j,n,n,n,3e,12,b
1n,1o,3b,0,0,0,0,0,0,0,0,0,0,3e,12,b
1n,1o,3b,0,0,0,0,0,0,0,0,0,0,3e,12,b
1n,1o,3b,0,0,0,0,0,0,0,0,0,0,3e,12,b
1n,1o,3b,0,0,0,0,0,0,0,0,0,0,3e,12,b
1n,1o,3b,0,0,0,0,0,0,0,0,0,0,3e,12,b
1n,1o,3b,n,n,n,n,n,n,n,n,n,n,3e,12,b
1n,n,3b,n,n,n,n,n,n,n,4b,4c,4d,3e,12,b
1n,n,3c,3f,3f,3f,3f,3f,3f,3f,3f,3f,3f,3d,12,b
1n,n,n,n,n,n,n,n,n,n,n,n,n,n,13,b
g,d,d,d,d,d,d,d,d,d,d,d,d,d,d,h
m,1o,1o,n,n,n,n,n,n,n,n,n,n,n,p,o
NAME Uploadpage2
ITM 2s 3,4
ITM 1h 1,1
ITM 2u 4,11
ITM 2v 11,11
ITM 31 4,5
ITM 32 6,5
ITM 33 8,5
ITM 34 10,5
ITM 35 12,5
ITM 36 3,6
ITM 37 5,6
ITM 38 7,6
ITM 39 9,6
ITM 3a 11,6
ITM 3b 4,7
ITM 3c 6,7
ITM 3d 8,7
ITM 3e 10,7
ITM 3f 12,7
ITM 3g 3,8
ITM 3h 5,8
ITM 3i 7,8
ITM 3j 9,8
ITM 3k 11,8
ITM 3l 4,9
ITM 3m 6,9
ITM 3n 8,9
EXT 1,1 0 1,1
EXT 3,4 2 3,4
EXT 4,5 r 4,5
EXT 6,5 r 6,5
EXT 8,5 r 8,5
EXT 10,5 r 10,5
EXT 12,5 r 12,5
EXT 3,6 r 3,6
EXT 5,6 r 5,6
EXT 7,6 r 7,6
EXT 9,6 r 9,6
EXT 11,6 r 11,6
EXT 4,7 r 4,7
EXT 6,7 r 6,7
EXT 8,7 r 8,7
EXT 10,7 r 10,7
EXT 12,7 r 12,7
EXT 3,8 r 3,8
EXT 5,8 r 5,8
EXT 7,8 r 7,8
EXT 9,8 r 9,8
EXT 11,8 r 11,8
EXT 4,9 r 4,9
EXT 6,9 r 6,9
EXT 8,9 r 8,9
EXT 10,9 r 10,9
PAL 0

ROOM r
e,c,c,c,c,c,c,c,c,c,c,c,c,c,c,f
1n,l,q,r,s,t,u,v,w,n,n,n,n,n,n,1p
1n,n,n,n,n,n,n,n,n,n,n,n,n,n,11,b
1n,1o,38,39,39,39,39,39,39,39,39,39,39,3a,14,b
1n,1o,3b,l,4e,4f,4g,4h,4i,4j,n,n,n,3e,12,b
1n,1o,3b,0,0,0,0,0,0,0,0,0,0,3e,12,b
1n,1o,3b,0,0,0,0,0,0,0,0,0,0,3e,12,b
1n,1o,3b,0,0,0,0,0,0,0,0,0,0,3e,12,b
1n,1o,3b,0,0,0,0,0,0,0,0,0,0,3e,12,b
1n,1o,3b,0,0,0,0,0,0,0,0,0,0,3e,12,b
1n,1o,3b,n,n,n,n,n,n,n,n,n,n,3e,12,b
1n,n,3b,n,n,n,n,n,n,n,4b,4c,4d,3e,12,b
1n,n,3c,3f,3f,3f,3f,3f,3f,3f,3f,3f,3f,3d,12,b
1n,n,n,n,n,n,n,n,n,n,n,n,n,n,13,b
g,d,d,d,d,d,d,d,d,d,d,d,d,d,d,h
m,1o,1o,n,n,n,n,n,n,n,n,n,n,n,p,o
NAME Uploadpage3
ITM 2s 3,4
ITM 1h 1,1
ITM 2u 4,11
ITM 2u 6,11
ITM 2v 11,11
ITM 31 4,5
ITM 32 6,5
ITM 33 8,5
ITM 34 10,5
ITM 35 12,5
ITM 36 3,6
ITM 37 5,6
ITM 38 7,6
ITM 39 9,6
ITM 3a 11,6
ITM 3b 4,7
ITM 3c 6,7
ITM 3d 8,7
ITM 3e 10,7
ITM 3f 12,7
ITM 3g 3,8
ITM 3h 5,8
ITM 3i 7,8
ITM 3j 9,8
ITM 3k 11,8
ITM 3l 4,9
ITM 3m 6,9
ITM 3n 8,9
EXT 1,1 0 1,1
EXT 3,4 2 3,4
EXT 4,5 s 4,5
EXT 6,5 s 6,5
EXT 8,5 s 8,5
EXT 10,5 s 10,5
EXT 12,5 s 12,5
EXT 3,6 s 3,6
EXT 5,6 s 5,6
EXT 7,6 s 7,6
EXT 9,6 s 9,6
EXT 11,6 s 11,6
EXT 4,7 s 4,7
EXT 6,7 s 6,7
EXT 8,7 s 8,7
EXT 10,7 s 10,7
EXT 12,7 s 12,7
EXT 3,8 s 3,8
EXT 5,8 s 5,8
EXT 7,8 s 7,8
EXT 9,8 s 9,8
EXT 11,8 s 11,8
EXT 4,9 s 4,9
EXT 6,9 s 6,9
EXT 8,9 s 8,9
EXT 10,9 s 10,9
PAL 0

ROOM s
e,c,c,c,c,c,c,c,c,c,c,c,c,c,c,f
1n,l,q,r,s,t,u,v,w,n,n,n,n,n,n,1p
1n,n,n,n,n,n,n,n,n,n,n,n,n,n,11,b
1n,1o,38,39,39,39,39,39,39,39,39,39,39,3a,14,b
1n,1o,3b,l,4e,4f,4g,4h,4i,4j,n,n,n,3e,12,b
1n,1o,3b,0,4k,0,4k,0,4k,0,4k,0,4k,3e,12,b
1n,1o,3b,4k,0,4k,0,4k,0,4k,0,4k,0,3e,12,b
1n,1o,3b,0,4k,0,4k,0,4k,0,4k,0,4k,3e,12,b
1n,1o,3b,4k,0,4k,0,4k,0,4k,0,4k,0,3e,12,b
1n,1o,3b,0,4k,0,4k,0,4k,0,0,0,0,3e,12,b
1n,1o,3b,n,n,n,n,n,n,n,n,n,n,3e,12,b
1n,n,3b,n,n,n,n,n,n,n,4b,4c,4d,3e,12,b
1n,n,3c,3f,3f,3f,3f,3f,3f,3f,3f,3f,3f,3d,12,b
1n,n,n,n,n,n,n,n,n,n,n,n,n,n,13,b
g,d,d,d,d,d,d,d,d,d,d,d,d,d,d,h
m,1o,1o,n,n,n,n,n,n,n,n,n,n,n,p,o
NAME Uploadpage4
ITM 2s 3,4
ITM 1h 1,1
ITM 2u 4,11
ITM 2u 6,11
ITM 2u 8,11
ITM 2t 11,11
EXT 1,1 0 1,1
EXT 3,4 2 3,4
EXT 11,11 t 11,11
PAL 0

ROOM t
e,c,c,c,c,c,c,c,c,c,c,c,c,c,c,f
1n,l,q,r,s,t,u,v,w,n,n,n,n,n,n,1p
1g,0,3g,3g,3g,3g,3g,3g,3g,3g,3g,3g,3g,3i,11,b
1g,0,x,10,3m,3g,3n,3h,n,n,n,n,n,1a,14,b
1g,0,y,z,3m,3g,3n,0,0,0,0,0,0,1a,12,b
1g,0,0,0,0,0,1l,0,0,0,0,0,0,1a,12,b
1g,1l,3o,n,n,n,3p,0,0,0,0,0,0,1a,12,b
1g,1l,4l,4n,4p,4r,3q,0,0,0,0,0,0,1a,12,b
1g,1l,4m,4o,4q,4s,3k,3w,3w,3w,3w,3w,3w,3x,12,b
1g,45,3w,3w,3w,3w,44,3z,n,n,n,n,n,1a,12,b
1g,1l,46,n,n,n,3q,0,27,28,40,41,42,1a,12,b
1g,1l,0,0,0,0,3q,0,42,41,28,28,0,1a,12,b
1g,1l,0,0,0,0,3q,0,43,40,41,42,41,1a,12,b
1g,1l,0,0,0,0,3q,0,27,27,42,28,0,1a,13,b
g,d,d,d,d,d,d,d,d,d,d,d,d,d,d,h
m,1o,1o,n,n,n,n,n,n,n,n,n,n,n,p,o
NAME FinalPage1
ITM 16 12,5
ITM 15 11,5
ITM 14 12,4
ITM 13 11,4
ITM 12 10,5
ITM 11 9,5
ITM 1g 14,13
ITM 1f 14,2
ITM 1h 1,1
ITM 3v 7,4
ITM 3w 8,4
ITM 3x 7,5
ITM 3y 8,5
ITM 3z 9,4
ITM 40 10,4
ITM 41 7,10
ITM 42 7,12
ITM 43 7,6
ITM 44 8,6
ITM 45 7,7
ITM 46 8,7
ITM 47 9,6
ITM 48 10,6
ITM 49 9,7
ITM 4a 10,7
ITM 4b 11,6
ITM 4c 12,6
ITM 4d 11,7
ITM 4f 12,7
ITM 4g 3,11
ITM 4g 3,12
ITM 4g 3,13
ITM 4g 4,13
ITM 4g 4,12
ITM 4g 4,11
ITM 4h 2,11
ITM 4h 2,12
ITM 4h 2,13
ITM 4i 5,11
ITM 4i 5,12
ITM 4i 5,13
ITM 4j 2,5
ITM 4k 3,5
EXT 12,7 u 12,7
EXT 12,6 u 12,6
EXT 12,5 u 12,5
EXT 12,4 u 12,4
EXT 11,4 u 11,4
EXT 11,5 u 11,5
EXT 11,6 u 11,6
EXT 11,7 u 11,7
EXT 10,4 u 10,4
EXT 10,5 u 10,5
EXT 10,6 u 10,6
EXT 10,7 u 10,7
EXT 9,4 u 9,4
EXT 9,5 u 9,5
EXT 9,6 u 9,6
EXT 9,7 u 9,7
EXT 8,4 u 8,4
EXT 8,5 u 8,5
EXT 8,6 u 8,6
EXT 8,7 u 8,7
EXT 7,4 u 7,4
EXT 7,5 u 7,5
EXT 7,6 u 7,7
EXT 7,7 u 7,7
EXT 3,5 u 3,5
EXT 2,5 u 2,5
EXT 2,11 u 2,11
EXT 3,11 u 3,11
EXT 4,11 u 4,11
EXT 5,11 u 5,11
EXT 2,12 u 2,12
EXT 3,12 u 3,12
EXT 4,12 u 4,12
EXT 5,12 u 5,12
EXT 2,13 u 2,13
EXT 3,13 u 3,13
EXT 4,13 u 4,13
EXT 5,13 u 5,13
EXT 7,10 u 7,10
EXT 7,12 u 7,12
EXT 1,1 u 1,1
EXT 14,2 0 0,0
EXT 14,13 0 0,0
PAL 0

ROOM u
e,c,c,c,c,c,c,c,c,c,c,c,c,c,c,f
1n,l,q,r,s,t,u,v,w,n,n,n,n,n,n,1p
1g,0,3g,3g,3g,3g,3g,3g,3g,3g,3g,3g,3g,3i,11,b
1g,0,x,10,e,c,c,c,c,c,c,f,n,1a,14,b
1g,0,y,z,1n,4t,4u,4v,4w,1o,1o,1p,0,1a,12,b
1g,0,0,0,1g,0,2x,2y,2y,2z,0,b,0,1a,12,b
1g,1l,3o,n,1g,0,30,0,0,31,0,b,0,1a,12,b
1g,1l,4l,4n,1g,0,32,33,33,34,0,b,0,1a,12,b
1g,1l,4m,4o,1g,0,0,0,0,0,0,b,3w,3x,12,b
1g,45,3w,3w,g,d,d,d,d,d,d,h,n,1a,12,b
1g,1l,46,n,n,n,3q,0,27,28,40,41,42,1a,12,b
1g,1l,0,0,0,0,3q,0,42,41,28,28,0,1a,12,b
1g,1l,0,0,0,0,3q,0,43,40,41,42,41,1a,12,b
1g,1l,0,0,0,0,3q,0,27,27,42,28,0,1a,13,b
g,d,d,d,d,d,d,d,d,d,d,d,d,d,d,h
m,1o,1o,n,n,n,n,n,n,n,n,n,n,n,p,o
NAME FinalPage2
ITM 1m 3,5
ITM 1l 2,5
ITM 16 12,5
ITM 14 12,4
ITM 1w 12,6
ITM 1y 12,7
ITM 17 7,10
ITM 18 7,12
ITM 22 3,11
ITM 22 4,11
ITM 23 2,11
ITM 24 5,11
ITM 25 2,12
ITM 26 3,12
ITM 26 4,12
ITM 27 5,12
ITM 28 5,13
ITM 29 4,13
ITM 29 3,13
ITM 2a 2,13
ITM 1g 14,13
ITM 1f 14,2
ITM 1h 1,1
ITM 2w 7,6
ITM 2x 8,6
EXT 7,6 v 7,6
EXT 8,6 v 8,6
PAL 0

ROOM v
e,c,c,c,c,c,c,c,c,c,c,c,c,c,c,f
1n,l,q,r,s,t,u,v,w,n,n,n,n,n,n,1p
1g,0,0,0,0,0,0,0,0,0,0,0,0,0,11,b
1g,0,0,2x,2y,2y,2y,2y,2y,2y,2z,52,51,0,12,b
1g,0,0,30,0,41,40,42,40,42,4y,4z,50,0,12,b
1g,0,0,30,40,42,43,28,28,40,31,0,0,0,12,b
1g,0,0,30,41,28,42,43,28,28,31,0,0,0,12,b
1g,0,0,32,33,33,33,33,33,33,34,0,0,0,12,b
1g,0,0,0,0,0,0,0,0,0,0,0,0,0,12,b
1g,0,0,0,0,0,0,0,0,0,0,0,0,0,12,b
1g,0,0,0,0,0,0,0,0,0,0,0,0,0,12,b
1g,0,0,0,0,0,0,0,0,0,0,0,0,0,12,b
1g,0,x,10,2x,2y,2y,2y,2y,2y,2z,0,0,0,12,b
1g,0,y,z,4x,33,33,33,33,33,34,0,0,0,13,b
g,d,d,d,d,d,d,d,d,d,d,d,d,d,d,h
m,1o,1o,n,n,n,n,n,n,n,n,n,n,n,p,o
NAME FinalPage3
ITM 2y 11,12
ITM 2z 11,13
ITM 3q 4,4
ITM 3r 4,5
ITM 3s 4,6
EXT 11,12 w 11,12
EXT 11,13 w 11,13
PAL 0

ROOM w
e,c,c,c,c,c,c,c,c,c,c,c,c,c,c,f
1n,l,q,r,s,t,u,v,w,n,n,n,n,n,n,1p
1g,0,0,0,0,0,0,0,0,0,0,0,0,0,11,b
1g,0,0,2x,2y,2y,2y,2y,2y,2y,2z,52,51,0,12,b
1g,0,0,30,0,41,40,42,40,42,4y,4z,50,0,12,b
1g,0,0,30,40,42,43,28,28,40,31,0,0,0,12,b
1g,0,0,30,41,28,42,43,28,28,31,0,0,0,12,b
1g,0,0,32,2x,2y,2y,2y,2y,2y,2y,2z,0,0,12,b
1g,0,x,10,31,43,40,42,43,28,41,31,0,0,12,b
1g,0,y,z,4x,33,33,33,33,33,33,34,0,0,12,b
1g,0,0,0,0,0,0,0,0,0,0,0,0,0,12,b
1g,0,0,0,0,0,0,0,0,0,0,0,0,0,12,b
1g,0,x,10,2x,2y,2y,2y,2y,2y,2z,0,0,0,12,b
1g,0,y,z,4x,33,33,33,33,33,34,0,0,0,13,b
g,d,d,d,d,d,d,d,d,d,d,d,d,d,d,h
m,1o,1o,n,n,n,n,n,n,n,n,n,n,n,p,o
NAME FinalPage4
ITM 2z 11,13
ITM 2y 11,12
ITM 3q 4,4
ITM 3s 4,6
ITM 3r 4,5
ITM 3t 5,8
EXT 11,12 x 11,12
EXT 11,13 x 11,13
PAL 0

ROOM x
e,c,c,c,c,c,c,c,c,c,c,c,c,c,c,f
1n,l,q,r,s,t,u,v,w,n,n,n,n,n,n,1p
1g,0,0,0,0,0,0,0,0,0,0,0,0,0,11,b
1g,0,0,2x,2y,2y,2y,2y,2y,2y,2z,52,51,0,12,b
1g,0,0,30,43,41,40,42,40,42,4y,4z,50,0,12,b
1g,0,0,30,40,42,43,28,28,40,31,0,0,0,12,b
1g,0,0,30,41,28,42,43,28,28,31,0,0,0,12,b
1g,0,0,32,2x,2y,2y,2y,2y,2y,2y,2z,0,0,12,b
1g,0,x,10,31,43,40,42,43,28,41,31,0,0,12,b
1g,0,y,z,4x,33,33,33,33,33,33,34,0,0,12,b
1g,0,0,2x,2y,2y,2y,2y,2y,2y,2z,52,51,0,12,b
1g,0,0,54,1c,1c,1c,1c,1c,1c,53,4z,50,0,12,b
1g,0,x,10,2x,2y,2y,2y,2y,2y,2z,0,0,0,12,b
1g,0,y,z,4x,33,33,33,33,33,34,0,0,0,13,b
g,d,d,d,d,d,d,d,d,d,d,d,d,d,d,h
m,1o,1o,n,n,n,n,n,n,n,n,n,n,n,p,o
NAME FinalPage5
ITM 3u 4,11
END 0 4,11
PAL 0

TIL 10
00000000
11111111
00000001
10000001
11000001
11000001
11100001
11110101
NAME Profile Pic 4

TIL 11
00000000
01111111
01000001
01000001
01001001
01011101
01000001
01111111
NAME Scrollbar Top

TIL 12
01000001
01000001
01000001
01000001
01000001
01000001
01000001
01000001
NAME Scrollbar middle

TIL 13
01111111
01000001
01000001
01011101
01001001
01000001
01111111
00000000
NAME Scrollbar bottom

TIL 14
01011101
01011101
01011101
01011101
01011101
01011101
01011101
01011101
NAME Scrollbar Point

TIL 15
00000000
11111111
10000000
10000000
10000000
10000000
10000000
10000000
NAME Lar Div Top Left

TIL 16
10000000
10000000
10000000
10000000
10000000
10000000
10000000
11111111
NAME Lar Div Bottom Left

TIL 17
00000000
11111111
00000000
00000000
00000000
00000000
00000000
00000000
NAME Lar Div Top

TIL 18
00000000
11111110
00000010
00000010
00000010
00000010
00000010
00000010
NAME Lar Div Top RIght

TIL 19
00000010
00000010
00000010
00000010
00000010
00000010
00000010
00000010
NAME Lar Div Right

TIL 20
00000000
00111110
01100010
01000010
01000010
01000010
01000010
01111110
NAME Song5

TIL 21
00000000
00111110
01100010
01000010
01000010
01000010
01000010
01111110
NAME Song6

TIL 22
00000000
00111110
01100010
01000010
01000010
01000010
01000010
01111110
NAME Song7

TIL 23
00000000
00111110
01100010
01000010
01000010
01000010
01000010
01111110
NAME Song8

TIL 24
00000000
00111110
01100010
01000010
01000010
01000010
01000010
01111110
NAME Song9

TIL 25
00000000
00000000
00000000
00000000
00000000
00000000
00000000
00000000

TIL 26
01000000
01100000
01111000
01111110
01111110
01111000
01100000
01000000
NAME PlayButton

TIL 27
00000000
00000000
00000000
01111110
01111110
00000000
00000000
00000000
NAME Word1

TIL 28
00000000
00000000
00000000
11111111
11111111
00000000
00000000
00000000
NAME Word2

TIL 29
00000001
00000001
00000001
11011101
11011101
00000001
00000001
00000001
NAME Word3

TIL 30
00001000
00001000
00001000
00001000
00001000
00001000
00001000
00001000
NAME ButtonSideL

TIL 31
00010000
00010000
00010000
00010000
00010000
00010000
00010000
00010000
NAME ButtonSideR

TIL 32
00001000
00001000
00000100
00000011
00000000
00000000
00000000
00000000
NAME ButtonLCorner

TIL 33
00000000
00000000
00000000
11111111
00000000
00000000
00000000
00000000
NAME ButtonBottom

TIL 34
00010000
00010000
00100000
11000000
00000000
00000000
00000000
00000000
NAME ButtonRCornerBottom

TIL 35
11111111
11111111
11111111
10111000
10111010
10111010
10001000
11111111
NAME LO

TIL 36
11111111
11111111
11111111
10001110
10111110
10101110
10001110
11111111
NAME GI

TIL 37
11111111
11111111
11111111
10110111
10010111
10100111
10110111
11111111
NAME N

TIL 38
11111111
11111111
11111111
11111111
11110000
11110111
11110111
11110111

TIL 39
11111111
11111111
11111111
11111111
00000000
11111111
11111111
11111111

TIL 40
00000000
00000000
00000000
11010110
11010110
00000000
00000000
00000000

TIL 41
00000000
00000000
00000000
11111100
11111100
00000000
00000000
00000000

TIL 42
00000000
00000000
00000000
01100100
01100100
00000000
00000000
00000000

TIL 43
00000000
00000000
00000000
01111111
01111111
00000000
00000000
00000000

TIL 44
10000001
00000001
00000001
00000001
00000001
00000001
00000001
10000001

TIL 45
00000001
00000000
00000000
00000000
00000000
00000000
00000000
00000001

TIL 46
11111111
11001001
10000000
10000000
11000001
11100011
11110111
11111111

TIL 47
11111111
11000011
10000001
10000001
11000011
11111011
11110111
11111111

TIL 48
11111001
10011001
10011111
11110001
10001001
10011001
10011111
11111111

TIL 49
10000000
00000000
00000000
00000000
00000000
00000000
00000000
00000000

TIL 50
00011111
01011111
10001111
00111111
11000111
00000011
00000011
11111111

TIL 51
11111111
11110001
11011001
01101101
00110111
10111111
00111011
10011111

TIL 52
11111111
10001111
10011111
10111000
10110000
10101000
10010001
10011001

TIL 53
00010000
00010000
00001000
00000100
00001000
00010000
00010000
11100000

TIL 54
00001000
00001000
00001000
00001000
00001000
00000100
00000011
00000000

TIL b
01110000
01101000
01110000
01101000
01110000
01101000
01110000
01101000
NAME Right Window Side

TIL c
00000000
00000000
00000000
00000000
00000000
11111111
11111111
11111111
NAME Top Window Side

TIL d
11111111
11111111
11111111
01010101
10101010
00000000
00000000
00000000
NAME Bottom Window Side

TIL e
00000000
00000000
00000000
00000000
00000000
00000111
00000111
00000111
NAME Top Left Window Corner

TIL f
00000000
00000000
00000000
00000000
00000000
11100000
11100000
11100000
NAME Top Right Window Corner

TIL g
00001111
00010111
00001111
00010101
00001010
00000000
00000000
00000000
NAME Bottom Left Window Corner

TIL h
11110000
11101000
11110000
10101000
01010000
00000000
00000000
00000000
NAME Bottom Right Window Corner

TIL l
11111111
10000011
10101011
10010011
10101011
10000011
11111111
11111111
NAME Ex
WAL false

TIL m
11111111
11111111
11000011
11011011
11011011
11000011
11111111
11111111
NAME Taskbar Button

TIL n
11111111
11111111
11111111
11111111
11111111
11111111
11111111
11111111
NAME Taskbar

TIL o
11111111
11111111
00000001
01011101
10010101
01011101
00000001
11111111
NAME Taskbar Right 2

TIL p
11111111
11111111
10000000
10000101
10101000
10010001
10000000
11111111
NAME Taskbar Right 1

TIL q
11111111
11000000
11010001
11011101
11010101
11011101
11000000
11111111
NAME URL Bar 1

TIL r
11111111
00000000
11011101
00010001
10011000
00010001
00000000
11111111
NAME URL Bar 2

TIL s
11111111
00000000
11011000
10010101
01011001
11010001
00000000
11111111
NAME URL bar 3

TIL t
11111111
00000000
10001101
01010001
11010001
01001101
00000000
11111111
NAME URL bar 4

TIL u
11111111
00000000
11000011
00000100
10000100
11010011
00000000
11111111
NAME URL bar 5

TIL v
11111111
00000000
01110100
01010110
01010101
01110100
00000000
11111111
NAME URL bar 6

TIL w
11111111
00000001
01000001
11000001
01000001
01000001
00000001
11111111
NAME URL bar 7

TIL x
00000000
11111111
10000000
10000111
10001111
10011111
10011001
10010000
NAME ProfilePic 1

TIL y
10100100
11000001
10100000
10010011
11111000
11111111
11111111
11111111
NAME Profile Pic 2

TIL z
11111001
01110001
00100001
00100001
01000001
11110001
11111001
11111111
NAME Profile Pic 3

TIL 1a
10000000
10000000
10000000
10000000
10000000
10000000
10000000
10000000
NAME Lar Div Left

TIL 1b
00000010
00000010
00000010
00000010
00000010
00000010
00000010
11111110
NAME Lar Div bottom RIght

TIL 1c
00000000
00000000
00000000
00000000
00000000
00000000
00000000
11111111
NAME Lar Div Bottom

TIL 1d
11111111
00000000
00000000
00000000
00000000
00000000
00000000
00000000
NAME Mid div Bottm

TIL 1e
11111110
00000000
00000000
00000000
00000000
00000000
00000000
00000000
NAME Mid Div Bottom Right

TIL 1f
01111111
00000000
00000000
00000000
00000000
00000000
00000000
00000000
NAME Mid div bottom left

TIL 1g
00001110
00010110
00001110
00010110
00001110
00010110
00001110
00010110
NAME Left Window Side

TIL 1h
01000000
01000000
01000000
01000000
01000000
01000000
01000000
01111111
NAME LarDivBotLeft2

TIL 1i
00000000
01111111
01000000
01000000
01000000
01000000
01000000
01000000
NAME LarDivTopLeft2

TIL 1j
00000000
11111111
00000000
00000000
00000000
00000000
00000000
00000000
NAME LarDivTop2

TIL 1k
00000000
11111111
00000001
00000001
00000001
00000001
00000001
00000001
NAME LarDivTopRight2

TIL 1l
00000001
00000001
00000001
00000001
00000001
00000001
00000001
00000001
NAME LarDivRight2

TIL 1m
00000001
00000001
00000001
00000001
00000001
00000001
00000001
11111111
NAME LarDivBttomRight2

TIL 1n
00001111
00010111
00001111
00010111
00001111
00010111
00001111
00010111
NAME Top Left Window Blocked

TIL 1o
11111111
11111111
11111111
11111111
11111111
11111111
11111111
11111111
NAME FullBlock

TIL 1p
11110000
11101000
11110000
11101000
11110000
11101000
11110000
11101000
NAME TopRightWindowBlocked

TIL 1q
00000000
00000000
00000000
01111110
00000000
00000000
00000000
00000000
NAME Dash

TIL 1r
11111111
10000000
10100011
10111010
10101011
10111010
10000000
11111111
NAME TaskbarMyspace

TIL 1s
11111111
00000011
10111011
00100011
00110011
00100011
00000011
11111111
NAME Taskbarmysapce3

TIL 1t
00111100
01111110
10011101
10110111
11110001
10011001
01011110
00111100
NAME InternetButton

TIL 1u
00000000
01111110
00000000
00000000
00000000
00000000
00000000
00000000
NAME UnderInternet

TIL 1v
00000000
01110000
10001111
10000001
10000001
10000001
10000001
11111111
NAME MusicFolder

TIL 2a
00000001
00000001
00000001
11111101
11111101
00000001
00000001
00000001
NAME Word4

TIL 2b
11111111
10000000
10000000
10000011
10000100
10001000
10010101
10010101
NAME Friend10

TIL 2c
11111111
00000001
00000001
11000001
00100001
00010001
01001001
01001001
NAME Friend11

TIL 2d
10010000
10010110
10000000
10001000
10000111
10000001
10000001
11111111
NAME Friend13

TIL 2e
00001001
01100001
00001001
00010001
11100001
01000001
01000001
11111111
NAME Friend14

TIL 2f
11111111
11110000
11100000
11001000
11010100
11000001
11000000
10001000
NAME Friend20

TIL 2g
11111111
11111011
01111001
00111101
10011101
01011101
00011101
00011001
NAME Friend21

TIL 2h
11001100
11001011
11100100
11110000
11101111
10100111
10100100
11111111
NAME Friend23

TIL 2i
00110001
01111001
01011101
11111101
11110001
00000001
00000001
11111111
NAME Friend24

TIL 2j
00000010
00000010
00000010
11101010
11101010
00000010
00000010
00000010
NAME Word21

TIL 2k
00000010
00000010
00000010
11111010
11111010
00000010
00000010
00000010
NAME Word22

TIL 2l
00000010
00000010
00000010
01011010
01011010
00000010
00000010
00000010
NAME Word23

TIL 2m
00111110
01000000
01000000
00110000
00001100
00000010
00000010
01111100
NAME S

TIL 2n
00111100
01000010
01000010
01000010
01111110
01000010
01000010
01000010
NAME A

TIL 2o
01000010
01000010
01000010
01000010
01000010
00100100
00100100
00011000
NAME V

TIL 2p
01111110
01000000
01000000
01111000
01000000
01000000
01000000
01111110
NAME E

TIL 2q
00111110
01000000
01000000
01000000
01000000
01000000
01000000
00111110
NAME C

TIL 2r
01000010
01000010
01000010
01000010
01111110
01000010
01000010
01000010
NAME H

TIL 2s
01000010
01100010
01010010
01010010
01001010
01001010
01000110
01000010
NAME N

TIL 2t
00111100
01000010
01000010
01000000
01000000
01001110
01000010
00111100
NAME G

TIL 2u
00111100
01000010
00000010
00000010
00011100
00010000
00000000
00010000

TIL 2v
01111100
01000010
01000010
01000010
01111100
01000100
01000010
01000010

TIL 2w
00111100
01000010
01000010
01000010
01000010
01000010
01000010
00111100

TIL 2x
00000000
00000000
00000000
00000000
00000011
00000100
00001000
00001000
NAME ButtonTopLCorner

TIL 2y
00000000
00000000
00000000
00000000
11111111
00000000
00000000
00000000
NAME button top

TIL 2z
00000000
00000000
00000000
00000000
11000000
00100000
00010000
00010000
NAME ButtonTopR

TIL 3a
11111111
11111111
11111111
11111111
00001111
11101111
11101111
11101111

TIL 3b
11010111
11100111
11010111
11100111
11010111
11100111
11010111
11100111

TIL 3c
11010111
11100111
11010111
11100000
11010101
11101010
11111111
11111111

TIL 3d
11100111
11101011
11100111
00001011
01010111
10101111
11111111
11111111

TIL 3e
11100111
11101011
11100111
11101011
11100111
11101011
11100111
11101011

TIL 3f
11111111
11111111
11111111
00000000
01010101
10101010
11111111
11111111

TIL 3g
00000000
00000000
11111111
11111111
11111111
11111111
00000000
00000000

TIL 3h
11111111
11111111
11001111
10000001
10110001
10110001
10000001
11111111

TIL 3i
00000000
00000000
10000000
10000000
10000000
10000000
00000000
00000000

TIL 3j
00000000
00000000
00000001
00000001
00000001
00000001
00000000
00000000

TIL 3k
10000001
10000000
10000000
10000000
10000000
10000000
10000000
10000001

TIL 3l
10000000
00000000
00000000
00000000
00000000
00000000
00000000
00000000

TIL 3m
00000000
00000000
00001111
00001111
00001111
00001111
00000000
00000000

TIL 3n
00000001
00000001
11110001
11110001
11110001
11110001
00000001
00000001

TIL 3o
11111111
11110111
11110011
11110101
11110111
11000111
11000111
11111111

TIL 3p
10000001
10000001
10000001
10000001
10000001
10000001
10000001
10000001

TIL 3q
10000001
10000001
10000001
10000001
10000001
10000001
10000001
10000001

TIL 3r
00000001
00000000
00000000
00000000
00000000
00000000
00000000
00000000

TIL 3s
00000000
00000000
00000101
00000101
00000101
00000111
00000000
00000000

TIL 3t
00000000
00000000
01100100
01010100
01100100
01000110
00000000
00000000

TIL 3u
00000000
00000000
11101110
10101010
10101110
11101010
00000000
00000000

TIL 3v
00000000
00000000
11000000
10100000
10100000
11000000
00000000
00000000

TIL 3w
11111111
00000000
00000000
00000000
00000000
00000000
00000000
11111111

TIL 3x
10000000
00000000
00000000
00000000
00000000
00000000
00000000
10000000

TIL 3y
10000001
00000001
00000001
00000001
00000001
00000001
00000001
00000001

TIL 3z
10000001
10111101
10100101
10111101
10100101
10111101
10000001
11111111

TIL 4a
10000001
00000000
00000000
00000000
00000000
00000000
00000000
00000000

TIL 4b
11111111
11110000
11100000
11000000
11000000
11100000
11110000
11111111

TIL 4c
11111111
00000000
00000000
00000000
00000000
00000000
00000000
11111111

TIL 4d
11111111
00001111
00000111
00000011
00000011
00000111
00001111
11111111

TIL 4e
11111111
10101001
10101010
10101001
10101011
10001011
11111111
11111111

TIL 4f
11111111
10110001
10110101
10110101
10110101
10010001
11111111
11111111

TIL 4g
11111111
00010011
01010101
01010101
00010101
01010011
11111111
11111111

TIL 4h
11111111
11000101
11101101
11101101
11101101
11101100
11111111
11111111

TIL 4i
11111111
01011010
01001010
01010010
01011010
01011010
11111111
11111111

TIL 4j
11111111
00100011
11101111
01100011
11111011
00100011
11111111
11111111

TIL 4k
00000000
00111110
01100010
01000010
01000010
01000010
01000010
01111110

TIL 4l
00000000
00000000
00000000
00000000
00000000
00010000
00011000
00011100

TIL 4m
00011110
00011100
00011000
00010000
00000000
00000000
00000000
00000000

TIL 4n
00000000
00000000
00000000
00001111
00010000
00100000
00100010
01001101
>
00000000
00000000
00000000
00001111
00010000
00100000
00100000
01001111

TIL 4o
01000000
00100000
00100000
00010000
00001111
00000000
00000000
00000000

TIL 4p
00000000
00000000
00000000
11111111
00000000
00000000
00100000
11011101
>
00000000
00000000
00000000
11111111
00000000
00000000
00000110
11011001

TIL 4q
00000000
00000000
00000000
00000000
11111111
00000000
00000000
00000000
>
00100000
00000000
00000000
00000000
11111111
00000000
00000000
00000000

TIL 4r
00000000
00000000
00000000
11100000
00010000
00001000
00001000
10100100
>
00000000
00000000
00000000
11100000
00010000
00001000
00001000
11100100

TIL 4s
00000100
00001000
00001000
00010000
11100000
00000000
00000000
00000000
>
01000100
00001000
00001000
00010000
11100000
00000000
00000000
00000000

TIL 4t
11111111
11111111
10110100
10010101
10100100
10110101
10110100
11111111

TIL 4u
11111111
11111111
01011101
11011101
11011101
11010101
01001001
11111111

TIL 4v
11111111
11111111
11101001
11101010
11101011
11101011
11101011
11111111

TIL 4w
11111111
11111111
00101111
10101111
10101111
10111111
10101111
11111111
>
11111111
11101111
00101111
10101111
10111111
10101111
10111111
11111111

TIL 4x
00001000
00001000
00000100
00000101
00001000
00000000
00000000
00000000

TIL 4y
00010000
00010000
00000010
00001100
00010000
00010000
00010000
00010000

TIL 4z
10100100
10100000
10010001
10001000
10001111
10010000
10100000
11111111

SPR A
00000000
00000000
00111000
00110000
00101000
00000100
00000000
00000000
POS f 12,11
ITM 1 2

SPR a
00000000
00000000
01010001
01110001
01110010
01111100
00111100
00100100
DLG SPR_0

SPR b
01100000
01111000
01111110
01111111
01111111
01111110
01111000
01100000

ITM 1
00000000
01111111
01100000
01000111
01001000
01010100
01010001
01010100
NAME Pic11
DLG ITM_1

ITM 2
00000000
11111110
00000010
10001110
01010010
01100010
01001010
01000010
NAME Pic12
DLG ITM_2

ITM 3
01010011
01001000
01110111
01000010
01111111
01111111
01111111
00000000
NAME Pic13
DLG ITM_3

ITM 4
01011010
10100010
00011110
00000110
11111110
11111110
11111110
00000000
NAME Pic14
DLG ITM_4

ITM 5
00000000
01111111
01000100
01001000
01010010
01100101
01010000
01010000
NAME Pic21
DLG ITM_5

ITM 6
00000000
11111110
10000010
01000010
00010010
00101010
00000010
11000010
NAME Pic22
DLG ITM_6

ITM 7
00000000
01100000
01111000
01111110
01111110
01111000
01100000
00000000
NAME AddSong1
DLG ITM_0

ITM 8
00000000
01100000
01111000
01111110
01111110
01111000
01100000
00000000
NAME AddSong2
DLG ITM_7

ITM 9
00000000
01100000
01111000
01111110
01111110
01111000
01100000
00000000
NAME AddSong3
DLG ITM_8

ITM 10
00000000
00111110
01100010
01000010
01000010
01000010
01000010
01111110
NAME Song25
DLG ITM_z

ITM 11
01001000
01001001
01000100
01000010
01111111
01111111
01111111
00000000
NAME Pic23
DLG ITM_10

ITM 12
00000010
00100010
11001010
00010010
11111110
11111110
11111110
00000000
NAME Pic24
DLG ITM_11

ITM 13
00000000
01111111
01000000
01000001
01000010
01000010
01000010
01000100
NAME Pic31
DLG ITM_1k

ITM 14
00000000
11111110
11111110
01111110
01111110
10111110
10001110
00000010
NAME Pic32
DLG ITM_13

ITM 15
01001000
01000100
01000010
01000001
01111111
01111111
01111111
00000000
NAME Pic33
DLG ITM_14

ITM 16
00000010
00100010
11000010
00000010
11111110
11111110
11111110
00000000
NAME Pic33
DLG ITM_15

ITM 17
00000000
00000000
01111110
01111110
00000000
01111110
00000000
00000000
NAME Blog1
DLG ITM_16

ITM 18
00000000
00000000
01111110
01111110
00000000
01111110
00000000
00000000
NAME Blog2
DLG ITM_17

ITM 19
00000000
00000000
01111110
01111110
00000000
01111110
00000000
00000000
NAME Blog3
DLG ITM_18

ITM 20
00000000
00000000
00000000
10000000
11000000
11100000
00000000
11100000
>
00000000
00000000
10000000
11000000
11100000
00000000
00000000
11100000

ITM 22
00000000
00000000
00000000
11111111
11111111
00000000
00000000
00000000
DLG ITM_1s

ITM 23
00000000
00000000
00000000
01111111
01111111
00000000
00000000
00000000
DLG ITM_1r

ITM 24
00000000
00000000
00000000
11111110
11111110
00000000
00000000
00000000
DLG ITM_1t

ITM 25
00000000
00000000
00000000
01111111
01111111
00000000
00000000
00000000
DLG ITM_1u

ITM 26
00000000
00000000
00000000
11111111
11111111
00000000
00000000
00000000
DLG ITM_1v

ITM 27
00000000
00000000
00000000
11111110
11111110
00000000
00000000
00000000
DLG ITM_1w

ITM 28
00000000
00000000
00000000
11111110
11111110
00000000
00000000
00000000
DLG ITM_1x

ITM 29
00000000
00000000
00000000
11111111
11111111
00000000
00000000
00000000
DLG ITM_1y

ITM 31
00000000
00111110
01100010
01000010
01000010
01000010
01000010
01111110
NAME Song101
DLG ITM_2h

ITM 32
00000000
00111110
01100010
01000010
01000010
01000010
01000010
01111110
NAME Song202
DLG ITM_2i

ITM 33
00000000
00111110
01100010
01000010
01000010
01000010
01000010
01111110
NAME Song303
DLG ITM_2j

ITM 34
00000000
00111110
01100010
01000010
01000010
01000010
01000010
01111110
NAME Song404
DLG ITM_2k

ITM 35
00000000
00111110
01100010
01000010
01000010
01000010
01000010
01111110
NAME Song505
DLG ITM_2l

ITM 36
00000000
00111110
01100010
01000010
01000010
01000010
01000010
01111110
NAME Song606
DLG ITM_2m

ITM 37
00000000
00111110
01100010
01000010
01000010
01000010
01000010
01111110
NAME Song707
DLG ITM_2n

ITM 38
00000000
00111110
01100010
01000010
01000010
01000010
01000010
01111110
NAME Song808
DLG ITM_2o

ITM 39
00000000
00111110
01100010
01000010
01000010
01000010
01000010
01111110
NAME Song909
DLG ITM_2p

ITM 40
00000000
11111110
10000010
01000010
00010010
00101010
00000010
11000010

ITM 41
00000000
00000000
01111110
01111110
00000000
01111110
00000000
00000000

ITM 42
00000000
00000000
01111110
01111110
00000000
01111110
00000000
00000000

ITM 43
00000000
01111111
01000000
01000100
01001011
01001000
01001010
01001010

ITM 44
00000000
11111110
00000010
00100010
11010010
00010010
01010010
01010010

ITM 45
01010000
01010001
01010000
01010000
01111111
01111111
01111111
00000000

ITM 46
00001010
10001010
00001010
00001010
11111110
11111110
11111110
00000000

ITM 47
00000000
01111111
01000000
01000000
01000000
01001100
01011110
01010010

ITM 48
00000000
11111110
00000010
00000010
00000010
00110010
01111010
01001010

ITM 49
01101101
01100001
01101101
01100001
01111111
01111111
01111111
00000000

ITM a
00000000
01100000
01111000
01111110
01111110
01111000
01100000
00000000
NAME AddSong4
DLG ITM_9

ITM b
00000000
01100000
01111000
01111110
01111110
01111000
01100000
00000000
NAME AddSong5
DLG ITM_a

ITM c
00000000
00111110
01100010
01000010
01000010
01000010
01000010
01111110
NAME Song1
DLG ITM_b

ITM d
00000000
00111110
01100010
01000010
01000010
01000010
01000010
01111110
NAME Song2
DLG ITM_c

ITM e
00000000
00111110
01100010
01000010
01000010
01000010
01000010
01111110
NAME Song3
DLG ITM_d

ITM f
00000000
00111110
01100010
01000010
01000010
01000010
01000010
01111110
NAME Song4
DLG ITM_e

ITM g
00000000
00111110
01100010
01000010
01000010
01000010
01000010
01111110
NAME Song5
DLG ITM_f

ITM h
00000000
00111110
01100010
01000010
01000010
01000010
01000010
01111110
NAME Song6
DLG ITM_g

ITM i
00000000
00111110
01100010
01000010
01000010
01000010
01000010
01111110
NAME Song7
DLG ITM_h

ITM j
00000000
00111110
01100010
01000010
01000010
01000010
01000010
01111110
NAME Song8
DLG ITM_i

ITM k
00000000
00111110
01100010
01000010
01000010
01000010
01000010
01111110
NAME Song9
DLG ITM_j

ITM l
00000000
00111110
01100010
01000010
01000010
01000010
01000010
01111110
NAME Song10
DLG ITM_k

ITM m
00000000
00111110
01100010
01000010
01000010
01000010
01000010
01111110
NAME Song11
DLG ITM_l

ITM n
00000000
00111110
01100010
01000010
01000010
01000010
01000010
01111110
NAME Song12
DLG ITM_m

ITM o
00000000
00111110
01100010
01000010
01000010
01000010
01000010
01111110
NAME Song13
DLG ITM_n

ITM p
00000000
00111110
01100010
01000010
01000010
01000010
01000010
01111110
NAME Song14
DLG ITM_o

ITM q
00000000
00111110
01100010
01000010
01000010
01000010
01000010
01111110
NAME Song15
DLG ITM_p

ITM r
00000000
00111110
01100010
01000010
01000010
01000010
01000010
01111110
NAME Song16
DLG ITM_q

ITM s
00000000
00111110
01100010
01000010
01000010
01000010
01000010
01111110
NAME Song17
DLG ITM_r

ITM t
00000000
00111110
01100010
01000010
01000010
01000010
01000010
01111110
NAME Song18
DLG ITM_s

ITM u
00000000
00111110
01100010
01000010
01000010
01000010
01000010
01111110
NAME Song19
DLG ITM_t

ITM v
00000000
00111110
01100010
01000010
01000010
01000010
01000010
01111110
NAME Song20
DLG ITM_u

ITM w
00000000
00111110
01100010
01000010
01000010
01000010
01000010
01111110
NAME Song21
DLG ITM_v

ITM x
00000000
00111110
01100010
01000010
01000010
01000010
01000010
01111110
NAME Song22
DLG ITM_w

ITM y
00000000
00111110
01100010
01000010
01000010
01000010
01000010
01111110
NAME Song23
DLG ITM_x

ITM z
00000000
00111110
01100010
01000010
01000010
01000010
01000010
01111110
NAME Song24
DLG ITM_y

ITM 1a
00000000
00000000
01111110
01111110
00000000
01111110
00000000
00000000
NAME Blog4
DLG ITM_19

ITM 1b
00000000
00111100
01111110
01111110
01111110
00111100
00000100
00001000
NAME Comment1

ITM 1c
00000000
00111100
01111110
01111110
01111110
00111100
00000100
00001000
NAME Comment2
DLG ITM_1b

ITM 1d
00000000
00000000
00000010
00000100
10001000
01010000
00100000
00000000
NAME Save

ITM 1e
00000000
01000010
00100100
00011000
00011000
00100100
01000010
00000000
NAME Reset

ITM 1f
00000000
01111111
01000001
01000001
01001001
01011101
01000001
01111111
NAME Uparrow

ITM 1g
01111111
01000001
01000001
01011101
01001001
01000001
01111111
00000000
NAME Downarrow

ITM 1h
00000000
00000000
00101000
00010000
00101000
00000000
00000000
00000000
NAME Ex

ITM 1i
00111100
01111110
10011101
10110111
11110001
10011001
01011110
00111100
NAME Internet

ITM 1j
00000000
01100000
10011111
10000001
10000001
10000001
10000001
11111111
NAME Folder

ITM 1k
00000000
01000010
00100100
00011000
00011000
00100100
01000010
00000000
NAME Donotlogin
DLG ITM_1c

ITM 1l
00000000
00000000
01111111
01111111
00000000
00000000
00000000
00000000
DLG ITM_1p

ITM 1m
00000000
00000000
11111110
11111110
00000000
00000000
00000000
00000000
DLG ITM_1q

ITM 1n
00000000
01111111
01000000
01000100
01001011
01001000
01001010
01001010
NAME Pic41
DLG ITM_1l

ITM 1o
00000000
11111110
00000010
00100010
11010010
00010010
01010010
01010010
NAME Pic42
DLG ITM_1m

ITM 1p
01010000
01010001
01010000
01010000
01111111
01111111
01111111
00000000
NAME Pic43
DLG ITM_1n

ITM 1q
00001010
10001010
00001010
00001010
11111110
11111110
11111110
00000000
NAME Pic44
DLG ITM_1o

ITM 1r
00000000
01111111
01000000
01000000
01000000
01001100
01011110
01010010
NAME Pic51
DLG ITM_1j

ITM 1s
00000000
11111110
00000010
00000010
00000010
00110010
01111010
01001010
NAME Pic52
DLG ITM_1i

ITM 1t
01101101
01100001
01101101
01100001
01111111
01111111
01111111
00000000
NAME Pic53
DLG ITM_1h

ITM 1u
10110110
10000110
10110110
10000110
11111110
11111110
11111110
00000000
NAME Pic54
DLG ITM_1g

ITM 1v
00000000
01111111
01000000
01000000
01000001
01000101
01001011
01001001
NAME Pic61
DLG ITM_1f

ITM 1w
00000000
11111110
00000010
10000010
01000010
01000010
01000010
10100010
NAME Pic62
DLG ITM_1e

ITM 1x
01000111
01000100
01001001
01000110
01111111
01111111
01111111
00000000
NAME Pic63
DLG ITM_1d

ITM 1y
10010010
11010010
10100010
00000010
11111110
11111110
11111110
00000000
NAME Pic64
DLG ITM_12

ITM 1z
00000000
00000000
00000000
00000001
00000011
00000111
00000000
00000111
>
00000000
00000000
00000001
00000011
00000111
00000000
00000000
00000111

ITM 2a
00000000
00000000
00000000
01111111
01111111
00000000
00000000
00000000
DLG ITM_1z

ITM 2b
00000000
00000011
00000111
00011111
00101111
00000111
00000011
00000000
DLG ITM_1a

ITM 2c
00000000
11111111
11111111
11111111
11111111
11111111
11111111
00000000
DLG ITM_20

ITM 2d
00000000
11100000
11110000
11111000
11111000
11110000
11100000
00000000
DLG ITM_21

ITM 2e
00000000
00000011
00000111
00011111
00101111
00000111
00000011
00000000
DLG ITM_22

ITM 2f
00000000
11111111
11111111
11111111
11111111
11111111
11111111
00000000
DLG ITM_23

ITM 2g
00000000
11100000
11110000
11111000
11111000
11110000
11100000
00000000
DLG ITM_24

ITM 2h
00000000
00000011
00000111
00011111
00101111
00000111
00000011
00000000
DLG ITM_25

ITM 2i
00000000
11111111
11111111
11111111
11111111
11111111
11111111
00000000
DLG ITM_26

ITM 2j
00000000
11100000
11110000
11111000
11111000
11110000
11100000
00000000
DLG ITM_27

ITM 2k
00000000
01111110
01000010
01000010
01000010
01000010
01111110
00000000
DLG ITM_28

ITM 2l
00000000
01111110
01000010
01000010
01000010
01000010
01111110
00000000
DLG ITM_29

ITM 2m
00000000
01111110
01000010
01000010
01000010
01000010
01111110
00000000
DLG ITM_2a

ITM 2n
00000000
01111110
01111110
00000000
01100010
00000000
01111110
00000000
DLG ITM_2b

ITM 2o
00000000
01001100
01101110
00000000
01111110
00000000
01111110
00000000
DLG ITM_2c

ITM 2p
00000000
01111100
00111010
00000000
00011110
01100000
00111110
00000000
DLG ITM_2d

ITM 2q
00000000
01101110
01110110
00000000
01111110
00000000
01111110
00000000
DLG ITM_2e

ITM 2r
00000000
00000000
00011000
00111100
01111110
00000000
01111110
00000000

ITM 2s
00000000
00000000
00101000
00010000
00101000
00000000
00000000
00000000

ITM 2t
00000000
00000000
00000010
00000100
00101000
00010000
00000000
00000000

ITM 2u
00000000
00111110
01100010
01000010
01000010
01000010
01000010
01111110

ITM 2v
00000000
00000000
00000000
01111110
01111110
00000000
00000000
00000000
DLG ITM_2f

ITM 2w
00000000
00001100
00010010
00010000
00010100
00010010
00001100
00000000

ITM 2x
00000000
00110000
01001000
01001000
01001000
01001000
00110000
00000000

ITM 2y
00000000
00000000
00000000
00000000
00000000
00001000
01111100
01111110
>
00000000
00000000
00000000
00000000
00001000
01111100
01111110
01111100

ITM 2z
01111100
00001000
00000000
00000000
00000000
00000000
00000000
00000000
>
00001000
00000000
00000000
00000000
00000000
00000000
00000000
00000000

ITM 3a
00000000
00111110
01100010
01000010
01000010
01000010
01000010
01111110
NAME Song1010
DLG ITM_2q

ITM 3b
00000000
00111110
01100010
01000010
01000010
01000010
01000010
01111110
NAME Song1101
DLG ITM_2r

ITM 3c
00000000
00111110
01100010
01000010
01000010
01000010
01000010
01111110
NAME Song1202
DLG ITM_2s

ITM 3d
00000000
00111110
01100010
01000010
01000010
01000010
01000010
01111110
NAME Song1303
DLG ITM_2t

ITM 3e
00000000
00111110
01100010
01000010
01000010
01000010
01000010
01111110
NAME Song1404
DLG ITM_2u

ITM 3f
00000000
00111110
01100010
01000010
01000010
01000010
01000010
01111110
NAME Song1505
DLG ITM_2v

ITM 3g
00000000
00111110
01100010
01000010
01000010
01000010
01000010
01111110
NAME Song1606
DLG ITM_2w

ITM 3h
00000000
00111110
01100010
01000010
01000010
01000010
01000010
01111110
NAME Song1707
DLG ITM_2x

ITM 3i
00000000
00111110
01100010
01000010
01000010
01000010
01000010
01111110
NAME Song1808
DLG ITM_2y

ITM 3j
00000000
00111110
01100010
01000010
01000010
01000010
01000010
01111110
NAME Song1909
DLG ITM_2z

ITM 3k
00000000
00111110
01100010
01000010
01000010
01000010
01000010
01111110
NAME SOng2020
DLG ITM_30

ITM 3l
00000000
00111110
01100010
01000010
01000010
01000010
01000010
01111110
NAME Song2102
DLG ITM_31

ITM 3m
00000000
00111110
01100010
01000010
01000010
01000010
01000010
01111110
NAME Song2202
DLG ITM_32

ITM 3n
00000000
00111110
01100010
01000010
01000010
01000010
01000010
01111110
NAME Song2303
DLG ITM_33

ITM 3o
00000000
00111110
01100010
01000010
01000010
01000010
01000010
01111110
NAME Song2404
DLG ITM_34

ITM 3p
00000000
00111110
01100010
01000010
01000010
01000010
01000010
01111110
NAME Song2505
DLG ITM_35

ITM 3q
00000000
00000000
00000000
01111111
01111111
00000000
00000000
00000000
NAME End1
DLG ITM_2g

ITM 3r
00000000
00000000
00000000
11010110
11010110
00000000
00000000
00000000
DLG ITM_36

ITM 3s
00000000
00000000
00000000
11111100
11111100
00000000
00000000
00000000
DLG ITM_37

ITM 3t
00000000
00000000
00000000
01111111
01111111
00000000
00000000
00000000
DLG ITM_38

ITM 3u
00000000
00110110
01011111
01111111
00111110
00011100
00001000
00000000
>
00110110
01011111
01111111
00111110
00011100
00001000
00000000
00000000

ITM 3v
00000000
01111111
01100000
01000111
01001000
01010100
01010001
01010100

ITM 3w
00000000
11111110
00000010
10001110
01010010
01100010
01001010
01000010

ITM 3x
01010011
01001000
01110111
01000010
01111111
01111111
01111111
00000000

ITM 3y
01011010
10100010
00011110
00000110
11111110
11111110
11111110
00000000

ITM 3z
00000000
01111111
01000100
01001000
01010010
01100101
01010000
01010000

ITM 4a
10110110
10000110
10110110
10000110
11111110
11111110
11111110
00000000

ITM 4b
00000000
01111111
01000000
01000000
01000001
01000101
01001011
01001001

ITM 4c
00000000
11111110
00000010
10000010
01000010
01000010
01000010
10100010

ITM 4d
01000111
01000100
01001001
01000110
01111111
01111111
01111111
00000000

ITM 4e
01000111
01000100
01001001
01000110
01111111
01111111
01111111
00000000

ITM 4f
10010010
11010010
10100010
00000010
11111110
11111110
11111110
00000000

ITM 4g
00000000
00000000
00000000
11111111
11111111
00000000
00000000
00000000

ITM 4h
00000000
00000000
00000000
01111111
01111111
00000000
00000000
00000000

ITM 4i
00000000
00000000
00000000
11111110
11111110
00000000
00000000
00000000

ITM 4j
00000000
00000000
01111111
01111111
00000000
00000000
00000000
00000000

ITM 4k
00000000
00000000
11111110
11111110
00000000
00000000
00000000
00000000

DLG SPR_0
I'm a cat

DLG ITM_1
me n jo at field day last year

DLG ITM_2
me n jo at field day last year

DLG ITM_3
me n jo at field day last year

DLG ITM_4
me n jo at field day last year

DLG ITM_5
drew this pic of L today, you can also see it on my da (Xmiss_hatakeX)

DLG ITM_6
drew this pic of L today, you can also see it on my da (Xmiss_hatakeX)

DLG ITM_0
"""
{
  - {item "Song1"} == 1 ?
    Added Song One to the playlist.
    {SongOne = 1}
  - {item "Song2"} == 1 ?
    Added Song Two to the playlist.
    {SongOne = 2}
  - {item "Song3"} == 1 ?
    Added Song Three to the playlist.{SongOne = 3}
  - {item "Song4"} == 1 ?
    Added Song Four to the playlist.
    {SongOne = 4}
  - {item "Song5"} == 1 ?
    Added Song Five to the playlist.
    {SongOne = 5}
  - {item "Song6"} == 1 ?
    Added Song Six to the playlist.
    {SongOne = 6}
  - {item "Song7"} == 1 ?
    Added Song Seven to the playlist.
    {SongOne = 7}
  - {item "Song8"} == 1 ?
    Added Song Eight to the playlist.
    {SongOne = 8}
  - {item "Song9"} == 1 ?
    Added Song Nine to the playlist.
    {SongOne = 9}
  - {item "Song10"} == 1 ?
    Added Song Ten to the playlist.
    {SongOne = 10}
  - {item "Song11"} == 1 ?
    Added Song 11 to the playlist.
    {SongOne = 11}
  - {item "Song12"} == 1 ?
    Added Song 12 to the playlist.
    {SongOne = 12}
  - {item "Song13"} == 1 ?
    Added Song 13 to the playlist.
    {SongOne = 13}
  - {item "Song14"} == 1 ?
    Added Song 14 to the playlist.
    {SongOne = 14}
  - {item "Song15"} == 1 ?
    Added Song 15 to the playlist.
    {SongOne = 15}
  - {item "Song16"} == 1 ?
    Added Song 16 to the playlist.
    {SongOne = 16}
  - {item "Song17"} == 1 ?
    Added Song 17 to the playlist.
    {SongOne = 17}
  - {item "Song18"} == 1 ?
    Added Song 18 to the playlist.
    {SongOne = 18}
  - {item "Song1909"} == 1 ?
    Added Song 19 to the playlist.
    {SongOne = 19}
  - {item "Song20"} == 1 ?
    Added Song 20 to the playlist.
    {SongOne = 20}
  - {item "Song21"} == 1 ?
    Added Song 21 to the playlist.
    {SongOne = 21}
  - {item "Song22"} == 1 ?
    Added Song 22 to the playlist.
    {SongOne = 22}
  - {item "Song23"} == 1 ?
    Added Song 23 to the playlist.
    {SongOne = 23}
  - {item "Song24"} == 1 ?
    Added Song 24 to the playlist.
    {SongOne = 24}
  - {item "Song25"} == 1 ?
    Added Song 25 to the playlist.
    {SongOne = 25}
}
"""

DLG ITM_a
"""
{
  - {item "Song1"} == 1 ?
    Added Song One to the playlist.
    {SongFive = 1}
  - {item "Song2"} == 1 ?
    Added Song Two to the playlist.
    {SongFive = 2}
  - {item "Song3"} == 1 ?
    Added Song Three to the playlist.{SongFive = 3}
  - {item "Song4"} == 1 ?
    Added Song Four to the playlist.
    {SongFive = 4}
  - {item "Song5"} == 1 ?
    Added Song Five to the playlist.
    {SongFive = 5}
  - {item "Song6"} == 1 ?
    Added Song Six to the playlist.
    {SongFive = 6}
  - {item "Song7"} == 1 ?
    Added Song Seven to the playlist.
    {SongFive = 7}
  - {item "Song8"} == 1 ?
    Added Song Eight to the playlist.
    {SongFive = 8}
  - {item "Song9"} == 1 ?
    Added Song Nine to the playlist.
    {SongFive = 9}
  - {item "Song10"} == 1 ?
    Added Song Ten to the playlist.
    {SongFive = 10}
  - {item "Song11"} == 1 ?
    Added Song 11 to the playlist.
    {SongFive = 11}
  - {item "Song12"} == 1 ?
    Added Song 12 to the playlist.
    {SongFive = 12}
  - {item "Song13"} == 1 ?
    Added Song 13 to the playlist.
    {SongFive = 13}
  - {item "Song14"} == 1 ?
    Added Song 14 to the playlist.
    {SongFive = 14}
  - {item "Song15"} == 1 ?
    Added Song 15 to the playlist.
    {SongFive = 15}
  - {item "Song16"} == 1 ?
    Added Song 16 to the playlist.
    {SongFive = 16}
  - {item "Song17"} == 1 ?
    Added Song 17 to the playlist.
    {SongFive = 17}
  - {item "Song18"} == 1 ?
    Added Song 18 to the playlist.
    {SongFive = 18}
  - {item "Song1909"} == 1 ?
    Added Song 19 to the playlist.
    {SongFive = 19}
  - {item "Song20"} == 1 ?
    Added Song 20 to the playlist.
    {SongFive = 20}
  - {item "Song21"} == 1 ?
    Added Song 21 to the playlist.
    {SongFive = 21}
  - {item "Song22"} == 1 ?
    Added Song 22 to the playlist.
    {SongFive = 22}
  - {item "Song23"} == 1 ?
    Added Song 23 to the playlist.
    {SongFive = 23}
  - {item "Song24"} == 1 ?
    Added Song 24 to the playlist.
    {SongFive = 24}
  - {item "Song25"} == 1 ?
    Added Song 25 to the playlist.
    {SongFive = 25}
}
"""

DLG ITM_7
"""
{
  - {item "Song1"} == 1 ?
    Added Song One to the playlist.
    {SongTwo = 1}
  - {item "Song2"} == 1 ?
    Added Song Two to the playlist.
    {SongTwo = 2}
  - {item "Song3"} == 1 ?
    Added Song Three to the playlist.{SongTwo = 3}
  - {item "Song4"} == 1 ?
    Added Song Four to the playlist.
    {SongTwo = 4}
  - {item "Song5"} == 1 ?
    Added Song Five to the playlist.
    {SongTwo = 5}
  - {item "Song6"} == 1 ?
    Added Song Six to the playlist.
    {SongTwo = 6}
  - {item "Song7"} == 1 ?
    Added Song Seven to the playlist.
    {SongTwo = 7}
  - {item "Song8"} == 1 ?
    Added Song Eight to the playlist.
    {SongTwo = 8}
  - {item "Song9"} == 1 ?
    Added Song Nine to the playlist.
    {SongTwo = 9}
  - {item "Song10"} == 1 ?
    Added Song Ten to the playlist.
    {SongTwo = 10}
  - {item "Song11"} == 1 ?
    Added Song 11 to the playlist.
    {SongTwo = 11}
  - {item "Song12"} == 1 ?
    Added Song 12 to the playlist.
    {SongTwo = 12}
  - {item "Song13"} == 1 ?
    Added Song 13 to the playlist.
    {SongTwo = 13}
  - {item "Song14"} == 1 ?
    Added Song 14 to the playlist.
    {SongTwo = 14}
  - {item "Song15"} == 1 ?
    Added Song 15 to the playlist.
    {SongTwo = 15}
  - {item "Song16"} == 1 ?
    Added Song 16 to the playlist.
    {SongTwo = 16}
  - {item "Song17"} == 1 ?
    Added Song 17 to the playlist.
    {SongTwo = 17}
  - {item "Song18"} == 1 ?
    Added Song 18 to the playlist.
    {SongTwo = 18}
  - {item "Song1909"} == 1 ?
    Added Song 19 to the playlist.
    {SongTwo = 19}
  - {item "Song20"} == 1 ?
    Added Song 20 to the playlist.
    {SongTwo = 20}
  - {item "Song21"} == 1 ?
    Added Song 21 to the playlist.
    {SongTwo = 21}
  - {item "Song22"} == 1 ?
    Added Song 22 to the playlist.
    {SongTwo = 22}
  - {item "Song23"} == 1 ?
    Added Song 23 to the playlist.
    {SongTwo = 23}
  - {item "Song24"} == 1 ?
    Added Song 24 to the playlist.
    {SongTwo = 24}
  - {item "Song25"} == 1 ?
    Added Song 25 to the playlist.
    {SongTwo = 25}
}
"""

DLG ITM_8
"""
{
  - {item "Song1"} == 1 ?
    Added Song One to the playlist.
    {SongThree = 1}
  - {item "Song2"} == 1 ?
    Added Song Two to the playlist.
    {SongThree = 2}
  - {item "Song3"} == 1 ?
    Added Song Three to the playlist.{SongThree = 3}
  - {item "Song4"} == 1 ?
    Added Song Four to the playlist.
    {SongThree = 4}
  - {item "Song5"} == 1 ?
    Added Song Five to the playlist.
    {SongThree = 5}
  - {item "Song6"} == 1 ?
    Added Song Six to the playlist.
    {SongThree = 6}
  - {item "Song7"} == 1 ?
    Added Song Seven to the playlist.
    {SongThree = 7}
  - {item "Song8"} == 1 ?
    Added Song Eight to the playlist.
    {SongThree = 8}
  - {item "Song9"} == 1 ?
    Added Song Nine to the playlist.
    {SongThree = 9}
  - {item "Song10"} == 1 ?
    Added Song Ten to the playlist.
    {SongThree = 10}
  - {item "Song11"} == 1 ?
    Added Song 11 to the playlist.
    {SongThree = 11}
  - {item "Song12"} == 1 ?
    Added Song 12 to the playlist.
    {SongThree = 12}
  - {item "Song13"} == 1 ?
    Added Song 13 to the playlist.
    {SongThree = 13}
  - {item "Song14"} == 1 ?
    Added Song 14 to the playlist.
    {SongThree = 14}
  - {item "Song15"} == 1 ?
    Added Song 15 to the playlist.
    {SongThree = 15}
  - {item "Song16"} == 1 ?
    Added Song 16 to the playlist.
    {SongThree = 16}
  - {item "Song17"} == 1 ?
    Added Song 17 to the playlist.
    {SongThree = 17}
  - {item "Song18"} == 1 ?
    Added Song 18 to the playlist.
    {SongThree = 18}
  - {item "Song1909"} == 1 ?
    Added Song 19 to the playlist.
    {SongThree = 19}
  - {item "Song20"} == 1 ?
    Added Song 20 to the playlist.
    {SongThree = 20}
  - {item "Song21"} == 1 ?
    Added Song 21 to the playlist.
    {SongThree = 21}
  - {item "Song22"} == 1 ?
    Added Song 22 to the playlist.
    {SongThree = 22}
  - {item "Song23"} == 1 ?
    Added Song 23 to the playlist.
    {SongThree = 23}
  - {item "Song24"} == 1 ?
    Added Song 24 to the playlist.
    {SongThree = 24}
  - {item "Song25"} == 1 ?
    Added Song 25 to the playlist.
    {SongThree = 25}
}
"""

DLG ITM_9
"""
{
  - {item "Song1"} == 1 ?
    Added Song One to the playlist.
    {SongFour = 1}
  - {item "Song2"} == 1 ?
    Added Song Two to the playlist.
    {SongFour = 2}
  - {item "Song3"} == 1 ?
    Added Song Three to the playlist.{SongFour = 3}
  - {item "Song4"} == 1 ?
    Added Song Four to the playlist.
    {SongFour = 4}
  - {item "Song5"} == 1 ?
    Added Song Five to the playlist.
    {SongFour = 5}
  - {item "Song6"} == 1 ?
    Added Song Six to the playlist.
    {SongFour = 6}
  - {item "Song7"} == 1 ?
    Added Song Seven to the playlist.
    {SongFour = 7}
  - {item "Song8"} == 1 ?
    Added Song Eight to the playlist.
    {SongFour = 8}
  - {item "Song9"} == 1 ?
    Added Song Nine to the playlist.
    {SongFour = 9}
  - {item "Song10"} == 1 ?
    Added Song Ten to the playlist.
    {SongFour = 10}
  - {item "Song11"} == 1 ?
    Added Song 11 to the playlist.
    {SongFour = 11}
  - {item "Song12"} == 1 ?
    Added Song 12 to the playlist.
    {SongFour = 12}
  - {item "Song13"} == 1 ?
    Added Song 13 to the playlist.
    {SongFour = 13}
  - {item "Song14"} == 1 ?
    Added Song 14 to the playlist.
    {SongFour = 14}
  - {item "Song15"} == 1 ?
    Added Song 15 to the playlist.
    {SongFour = 15}
  - {item "Song16"} == 1 ?
    Added Song 16 to the playlist.
    {SongFour = 16}
  - {item "Song17"} == 1 ?
    Added Song 17 to the playlist.
    {SongFour = 17}
  - {item "Song18"} == 1 ?
    Added Song 18 to the playlist.
    {SongFour = 18}
  - {item "Song1909"} == 1 ?
    Added Song 19 to the playlist.
    {SongFour = 19}
  - {item "Song20"} == 1 ?
    Added Song 20 to the playlist.
    {SongFour = 20}
  - {item "Song21"} == 1 ?
    Added Song 21 to the playlist.
    {SongFour = 21}
  - {item "Song22"} == 1 ?
    Added Song 22 to the playlist.
    {SongFour = 22}
  - {item "Song23"} == 1 ?
    Added Song 23 to the playlist.
    {SongFour = 23}
  - {item "Song24"} == 1 ?
    Added Song 24 to the playlist.
    {SongFour = 24}
  - {item "Song25"} == 1 ?
    Added Song 25 to the playlist.
    {SongFour = 25}
}
"""

DLG ITM_c
(music "angel")I wish I knew Japanese so I could sing along...

DLG ITM_d
(music "bad")When I was little, my mom would sing this while doing laundry.

DLG ITM_e
(music "teen")I think I was like really little when this came out? This song used to scare me, but I like it a lot now.

DLG ITM_f
(music "grandtheft")Jo thinks Fall Out Boy is so cheesy.

DLG ITM_g
(music "stupid")Who doesn't love Weird Al? 

DLG ITM_h
(music "emergency")Sometimes I feel really invisible and no one is listening. That's what this song makes me think of.

DLG ITM_i
(music "delilah")More than anything I want to leave this town and live in New York City.

DLG ITM_j
(music "slang")Jo LOVES The Shins. I think they're ok, but maybe a little pretentious?

DLG ITM_k
(music "hateeverything")My mom gets mad when I play this song. She thinks I'm thinking about her when I listen to it. She takes things too seriously sometimes.

DLG ITM_l
(music "killing")I think it's important to make the personal political, you know?

DLG ITM_m
(music "starwars")Cliche, but it's my favorite movie.

DLG ITM_n
(music "scartissue")I think I accidentally downloaded this song on Limewire.

DLG ITM_o
(music "foxtrot")I think this song is soooo funny!

DLG ITM_p
(music "stacy")I'm going to name my first child Stacy so that this song can be about me.

DLG ITM_q
(music "whereismymind")Maybe Jo's taste in music isn't so bad. I first heard this song in Fight Club, though.

DLG ITM_r
(music "bitesthedust")Sam just plays this song on repeat at the bowling alley.

DLG ITM_s
(music "mamamia")They did Mama Mia for the school musical last year and it was so cool. I want to try out next time, but I'm so scared.

DLG ITM_t
(music "potter")Dun dun dundundun dun duuuuuun DUUUUN.

DLG ITM_u
(music "secret")They played this at the school field day last summer and we all danced in a circle to it.

DLG ITM_v
(music "alright")Motion City Soundtrack is my favorite band. This song is about anxiety. I feel like it was written for me.

DLG ITM_w
(music "sins")I'm not allowed to play this song out loud because of the word "whore." Also, I'm not sure what a groom's bride is?

DLG ITM_x
(music "girlrockshow")I want someone to feel this way about me.

DLG ITM_y
I have this band's t-shirt, but I've never seen them live.

DLG ITM_z
A real comedy classic. 

DLG ITM_10
drew this pic of L today, you can also see it on my da (Xmiss_hatakeX)

DLG ITM_11
drew this pic of L today, you can also see it on my da (Xmiss_hatakeX)

DLG ITM_13
"""
"But I'm getting better at fighting the future,
'Someday you'll be fine..'
Yes, I'll be just fine."
"""

DLG ITM_14
"""
"But I'm getting better at fighting the future,
'Someday you'll be fine..'
Yes, I'll be just fine."
"""

DLG ITM_15
"""
"But I'm getting better at fighting the future,
'Someday you'll be fine..'
Yes, I'll be just fine."
"""

DLG ITM_16
"""
"New Profile Template"
Posted: Saturday 10:20PM
hi everyone i made a new template for my profile
tell me what you think <3
"""

DLG ITM_17
"""
"Announcement"
Posted: April 3rd 6:13PM
Me and Sam and Jo's band is officially called "The Backwater Rejects"
That is all.
"""

DLG ITM_18
"""
"trying to learn the guitar"
Posted: March 18th 8:49PM
... and my fingers are all scabby TT_TT
"""

DLG ITM_19
"""
"IAM AWAKE"
Posted: March 9th 6:04AM
Proving to Jo that I DO get up at 6:00 int he morning!!!!
"""

DLG ITM_1b
woooah, i'm gonna look so cool with my custom lil sirius black avie to show off! thank you <3 <3 <3

DLG ITM_1c
Press Enter or Space on the check mark to log in.

DLG ITM_12
torrented photoshop to make a avie for Sam. i think its good!

DLG ITM_1d
torrented photoshop to make a avie for Sam. i think its good!

DLG ITM_1e
torrented photoshop to make a avie for Sam. i think its good!

DLG ITM_1f
torrented photoshop to make a avie for Sam. i think its good!

DLG ITM_1k
"""
"But I'm getting better at fighting the future,
'Someday you'll be fine..'
Yes, I'll be just fine."
"""

DLG ITM_1l
official mascot of the amelia bowling (4th place) champs! XD

DLG ITM_1m
official mascot of the amelia bowling (4th place) champs! XD

DLG ITM_1n
official mascot of the amelia bowling (4th place) champs! XD

DLG ITM_1o
official mascot of the amelia bowling (4th place) champs! XD

DLG ITM_1g
"""
"listening to patterns in the sound of an 

endless

static

sea"
"""

DLG ITM_1h
"""
"listening to patterns in the sound of an 

endless

static

sea"
"""

DLG ITM_1i
"""
"listening to patterns in the sound of an 

endless

static

sea"
"""

DLG ITM_1j
"""
"listening to patterns in the sound of an 

endless

static

sea"
"""

DLG ITM_1p
sam took this pic and i thought i looked cute, kay?

DLG ITM_1q
sam took this pic and i thought i looked cute, kay?

DLG ITM_1a
"""
Comment from: Jodie Walker
Just so everyone knows: a certain SOMEONE does the cutest n dumbest dance to RENT opening song!
Posted: Sunday 1:04PM 
"""

DLG ITM_1r
Fav Movies: Star Wars (ESB!), Harry Potter, DodgeBall, Anchorman, RENT

DLG ITM_1s
Fav Movies: Star Wars (ESB!), Harry Potter, DodgeBall, Anchorman, RENT

DLG ITM_1t
Fav Movies: Star Wars (ESB!), Harry Potter, DodgeBall, Anchorman, RENT

DLG ITM_1u
Fav bands: Motion City Soundtrack, Bright Eyes, Blink 182, Jimmy Eat World, Dashboard Confessional

DLG ITM_1v
Fav bands: Motion City Soundtrack, Bright Eyes, Blink 182, Jimmy Eat World, Dashboard Confessional

DLG ITM_1w
Fav bands: Motion City Soundtrack, Bright Eyes, Blink 182, Jimmy Eat World, Dashboard Confessional

DLG ITM_1x
Fav T.V.: Scrubs, The Office, Death Note, Naruto

DLG ITM_1y
Fav T.V.: Scrubs, The Office, Death Note, Naruto

DLG ITM_1z
Fav T.V.: Scrubs, The Office, Death Note, Naruto

DLG ITM_20
"""
Comment from: Jodie Walker
Just so everyone knows: a certain SOMEONE does the cutest n dumbest dance to RENT opening song!
Posted: Sunday 1:04PM 
"""

DLG ITM_21
"""
Comment from: Jodie Walker
Just so everyone knows: a certain SOMEONE does the cutest n dumbest dance to RENT opening song!
Posted: Sunday 1:04PM 
"""

DLG ITM_22
"""
Comment from: Ryan Evans
i saw this lolcat and it reminded me of your cat last weekend :p
cheezburger.com/7396712960/i-win
Posted: Thursday 7:21PM 
"""

DLG ITM_23
"""
Comment from: Ryan Evans
i saw this lolcat and it reminded me of your cat last weekend :p
cheezburger.com/7396712960/i-win
Posted: Thursday 7:21PM 
"""

DLG ITM_24
"""
Comment from: Ryan Evans
i saw this lolcat and it reminded me of your cat last weekend :p
cheezburger.com/7396712960/i-win
Posted: Thursday 7:21PM 
"""

DLG ITM_25
"""
Comment from: Sam Malone
woooah, i'm gonna look so cool with my custom lil sirius black avie to show off! thank you <3 <3 <3
Posted: April 2nd
"""

DLG ITM_26
"""
Comment from: Sam Malone
woooah, i'm gonna look so cool with my custom lil sirius black avie to show off! thank you <3 <3 <3
Posted: April 2nd
"""

DLG ITM_27
"""
Comment from: Sam Malone
woooah, i'm gonna look so cool with my custom lil sirius black avie to show off! thank you <3 <3 <3
Posted: April 2nd
"""

DLG ITM_28
Jodie Walker

DLG ITM_29
Ryan Evans

DLG ITM_2a
Sam Malone

DLG ITM_2b
Friends: 86

DLG ITM_2c
Birthday: February 3rd, 1991

DLG ITM_2d
Blog Posts: 47

DLG ITM_2e
User since: October 2004

DLG ITM_2f
Pick 3 songs to upload

DLG ITM_b
(music "thousandmiles")Sometimes I feel so far away from Sam, even though we're so close. This song makes me think about that.

DLG ITM_2i
"""
I wish I knew Japanese so I could sing along...
Uploaded to my page.{
  - SongOne == 0 ?
    {SongOne = 2}
 - SongOne > 0 && SongTwo == 0?
    {SongTwo = 2}
  - SongTwo > 0?
    {SongThree = 2}
}
"""

DLG ITM_2j
"""
When I was little, my mom would sing this while doing laundry.
Uploaded to my page.{
  - SongOne == 0 ?
    {SongOne = 3}
 - SongOne > 0 && SongTwo == 0?
    {SongTwo = 3}
  - SongTwo > 0?
    {SongThree = 3}
}
"""

DLG ITM_2k
"""
I think I was like really little when this came out? This song used to scare me, but I like it a lot now.
Uploaded to my page.{
  - SongOne == 0 ?
    {SongOne = 4}
 - SongOne > 0 && SongTwo == 0?
    {SongTwo = 4}
  - SongTwo > 0?
    {SongThree = 4}
}
"""

DLG ITM_2l
"""
Jo thinks Fall Out Boy is so cheesy.
Uploaded to my page.{
  - SongOne == 0 ?
    {SongOne = 5}
 - SongOne > 0 && SongTwo == 0?
    {SongTwo = 5}
  - SongTwo > 0?
    {SongThree = 5}
}
"""

DLG ITM_2m
"""
Who doesn't love Weird Al?
Uploaded to my page.{
  - SongOne == 0 ?
    {SongOne = 6}
 - SongOne > 0 && SongTwo == 0?
    {SongTwo = 6}
  - SongTwo > 0?
    {SongThree = 6}
}
"""

DLG ITM_2n
"""
Sometimes I feel really invisible and no one is listening. That's what this song makes me think of.
Uploaded to my page.{
  - SongOne == 0 ?
    {SongOne = 7}
 - SongOne > 0 && SongTwo == 0?
    {SongTwo = 7}
  - SongTwo > 0?
    {SongThree = 7}
}
"""

DLG ITM_2o
"""
More than anything I want to leave this town and live in New York City.
Uploaded to my page.{
  - SongOne == 0 ?
    {SongOne = 8}
 - SongOne > 0 && SongTwo == 0?
    {SongTwo = 8}
  - SongTwo > 0?
    {SongThree = 8}
}
"""

DLG ITM_2p
"""
Jo LOVES The Shins. I think they're ok, but maybe a little pretentious?
Uploaded to my page.{
  - SongOne == 0 ?
    {SongOne = 9}
 - SongOne > 0 && SongTwo == 0?
    {SongTwo = 9}
  - SongTwo > 0?
    {SongThree = 9}
}
"""

DLG ITM_2q
"""
My mom gets mad when I play this song. She thinks I'm thinking about her when I listen to it. She takes things too seriously sometimes.
Uploaded to my page.{
  - SongOne == 0 ?
    {SongOne = 10}
 - SongOne > 0 && SongTwo == 0?
    {SongTwo = 10}
  - SongTwo > 0?
    {SongThree = 10}
}
"""

DLG ITM_2r
"""
I think it's important to make the personal political, you know?
Uploaded to my page.{
  - SongOne == 0 ?
    {SongOne = 11}
 - SongOne > 0 && SongTwo == 0?
    {SongTwo = 11}
  - SongTwo > 0?
    {SongThree = 11}
}
"""

DLG ITM_2s
"""
Cliche, but it's my favorite movie.
Uploaded to my page.{
  - SongOne == 0 ?
    {SongOne = 12}
 - SongOne > 0 && SongTwo == 0?
    {SongTwo = 12}
  - SongTwo > 0?
    {SongThree = 12}
}
"""

DLG ITM_2t
"""
I think I accidentally downloaded this song on Limewire. 
Uploaded to my page.{
  - SongOne == 0?
    {SongOne = 13}
   - SongOne > 0 && SongTwo == 0?
    {SongTwo = 13}
  - SongTwo > 0?
    {SongThree = 13}
}
"""

DLG ITM_2u
"""
I think this song is soooo funny!
Uploaded to my page.{
  - SongOne == 0 ?
    {SongOne = 14}
 - SongOne > 0 && SongTwo == 0?
    {SongTwo = 14}
  - SongTwo > 0?
    {SongThree = 14}
}
"""

DLG ITM_2v
"""
I'm going to name my first child Stacy so that this song can be about me.
Uploaded to my page.{
  - SongOne == 0 ?
    {SongOne = 15}
 - SongOne > 0 && SongTwo == 0?
    {SongTwo = 15}
  - SongTwo > 0?
    {SongThree = 15}
}
"""

DLG ITM_2w
"""
Maybe Jo's taste in music isn't so bad. I first heard this song in Fight Club, though.
Uploaded to my page.{
  - SongOne == 0 ?
    {SongOne = 16}
 - SongOne > 0 && SongTwo == 0?
    {SongTwo = 16}
  - SongTwo > 0?
    {SongThree = 16}
}
"""

DLG ITM_2x
"""
Sam just plays this song on repeat at the bowling alley.
Uploaded to my page.{
  - SongOne == 0 ?
    {SongOne = 17}
 - SongOne > 0 && SongTwo == 0?
    {SongTwo = 17}
  - SongTwo > 0?
    {SongThree = 17}

}
"""

DLG ITM_2y
"""
They did Mama Mia for the school musical last year and it was so cool. I want to try out next time, but I'm so scared.
Uploaded to my page.{
  - SongOne == 0 ?
    {SongOne = 18}
 - SongOne > 0 && SongTwo == 0?
    {SongTwo = 18}
  - SongTwo > 0?
    {SongThree = 18}
}
"""

DLG ITM_2z
"""
Dun dun dundundun dun duuuuuun DUUUUN.
Uploaded to my page.{
  - SongOne == 0 ?
    {SongOne = 19}
 - SongOne > 0 && SongTwo == 0?
    {SongTwo = 19}
  - SongTwo > 0?
    {SongThree = 19}
}
"""

DLG ITM_30
"""
They played this at the school field day last summer and we all danced in a circle to it.
Uploaded to my page.{
  - SongOne == 0 ?
    {SongOne = 20}
 - SongOne > 0 && SongTwo == 0?
    {SongTwo = 20}
  - SongTwo > 0?
    {SongThree = 20}
}
"""

DLG ITM_31
"""
Motion City Soundtrack is my favorite band. This song is about anxiety. I feel like it was written for me.
Uploaded to my page.{
  - SongOne == 0 ?
    {SongOne = 21}
 - SongOne > 0 && SongTwo == 0?
    {SongTwo = 21}
  - SongTwo > 0?
    {SongThree = 21}
}
"""

DLG ITM_32
"""
I'm not allowed to play this song out loud because of the word "whore." Also, I'm not sure what a groom's bride is?
Uploaded to my page.{
  - SongOne == 0 ?
    {SongOne = 22}
 - SongOne > 0 && SongTwo == 0?
    {SongTwo = 22}
  - SongTwo > 0?
    {SongThree = 22}
}
"""

DLG ITM_33
"""
I want someone to feel this way about me.
Uploaded to my page.{
  - SongOne == 0 ?
    {SongOne = 23}
 - SongOne > 0 && SongTwo == 0?
    {SongTwo = 23}
  - SongTwo > 0?
    {SongThree = 23}
}
"""

DLG ITM_34
"""
I have this band's t-shirt, but I've never seen them live.
Uploaded to my page.{
  - SongOne == 0 ?
    {SongOne = 24}
 - SongOne > 0 && SongTwo == 0?
    {SongTwo = 24}
  - SongTwo > 0?
    {SongThree = 24}
}
"""

DLG ITM_35
"""
A real comedy classic. 
Uploaded to my page.{
  - SongOne == 0 ?
    {SongOne = 25}
  - SongOne > 0 && SongTwo == 0?
    {SongTwo = 25}
  - SongTwo > 0?
    {SongThree = 25}

}
"""

DLG ITM_2h
"""
Sometimes I feel so far away from Sam, even though we're so close. This song makes me think about that.
Uploaded to my page.{
  - SongOne == 0 ?
    {SongOne = 1}
 - SongOne > 0 && SongTwo == 0?
    {SongTwo = 1}
  - SongTwo > 0?
    {SongThree = 1}
}
"""

DLG ITM_2g
"""
From Jodie Walker, Today 5:23PM
Hey dork! You should be a DJ, I've got your playlist on repeat. Ok, here's my ~official review~:
{
  - SongOne == 1 ?
    (music "thousandmiles")I can't believe you still listen to "A Thousand Miles"! That's basically your and Sam's song.
  - SongOne == 2 ?
    (music "angel")I don't know the first one. Is it from one of your ~animes~?
  - SongOne == 3 ?
    (music "bad")Is the first one Michael Jackson? My parents never let me listen to him. ._.
  - SongOne == 4 ?
    (music "teen")I bet Sam loooves that you're playing Nirvana *wink wink*
  - SongOne == 5 ?
    (music "grandtheft")Yeah, even the Fall Out Boy!
  - SongOne == 6 ?
    (music "stupid")You know how I love Weird Al.
  - SongOne == 7 ?
    (music "emergency")Hitting off with Paramore song, you're sooo emo.
  - SongOne == 8 ?
    (music "delilah")Of course you have "Hey There Delilah" in there. I'm surprised you skipped on "New York, New York"
  - SongOne == 9 ?
    (music "slang")I'm so glad you got into The Shins. The lyrics are so poetic and "Slang" is basically my song of the spring.
  - SongOne == 10 ?
    (music "hateeverything")Are you ok, though? You don't actually hate everything, right?
  - SongOne == 11 ?
    (music "killing")You are your political songs... *rolls eyes*
  - SongOne == 12 ?
    (music "starwars")You're suuuuch a Star Wars nerd. You know that there are other movies, right?!
  - SongOne == 13 ?
    (music "scartissue")Omg the Red Hot Chili Peppers - remember when Sam's dad started jamming to this on the way to bowling practice?
  - SongOne == 14 ?
    (music "foxtrot")Whooooa, a dirty song. Sneeeaky!
  - SongOne == 15 ?
    (music "stacy")Talk about nostalgia! Remember in Middle School when we listened to Fountain's of Wayne on your old CD player?
  - SongOne == 16 ?
    (music "whereismymind")Ok, ok, so I sweat "Where is my mind" is deeper than Fight Club gives it credit. Like, have you ever felt so blown that there's just nothing in your mind? 
  - SongOne == 17 ?
    (music "bitesthedust")If I wasn't mistaken, it seems like you're trying to impress a certain Sam since your included Queen.
  - SongOne == 18 ?
    (music "mamamia")Including some musical stuff is risky! But I like it, it mixes things up, huh?
  - SongOne == 19 ?
    (music "potter")Ugh, the emooootions this gives me! It's like I can remember being 12 and seeing the first movie with you and Sam.
  - SongOne == 20 ?
    (music "secret")"All American Rejects" just makes me want to dance, like last summer. <3
  - SongOne == 21 ?
    (music "alright")Of course, you got Motion City Soundtrack in there. I know the lyrics resonate with you, but I don't think you should be so nervous, you know?
  - SongOne == 22 ?
    (music "sins")An interesting choice with this one. I think Panic! At the Disco thinks of themselves like Oscar Wilde or something, but I just think of emo dance music.
  - SongOne == 23 ?
    (music "girlrockshow")Blink 182 - this song kind of weirds me out! Like, is he always checking on girls at concerts?! I'm just there to mosh.
}
"""

DLG ITM_36
"""
From Jodie Walker, Today 5:25PM
And the second one! {
  - SongTwo == 1 ?
    (music "thousandmiles")I can't believe you still listen to "A Thousand Miles"! That's basically your and Sam's song.
  - SongTwo == 2 ?
    (music "angel")I don't know this one. Is it from one of your ~animes~?
  - SongTwo == 3 ?
    (music "bad")Is this one Michael Jackson? My parents never let me listen to him. ._.
  - SongTwo == 4 ?
    (music "teen")I bet Sam loooves that you're playing Nirvana *wink wink*
  - SongTwo == 5 ?
    (music "grandtheft")"Grand Theft Autumn" is totally the only FoB song that's tolerable.
  - SongTwo == 6 ?
    (music "stupid")You know how I love Weird Al.
  - SongTwo == 7 ?
    (music "emergency")Hitting off with Paramore song, you're sooo emo.
  - SongTwo == 8 ?
    (music "delilah")Of course you have "Hey There Delilah" in there. I'm surprised you skipped on "New York, New York"
  - SongTwo == 9 ?
    (music "slang")I'm so glad you got into The Shins. The lyrics are so poetic and "Slang" is basically my song of the spring.
  - SongTwo == 10 ?
    (music "hateeverything")Are you ok, though? You don't actually hate everything, right?
  - SongTwo == 11 ?
    (music "killing")You are your political songs... *rolls eyes*
  - SongTwo == 12 ?
    (music "starwars")You're suuuuch a Star Wars nerd. You know that there are other movies, right?!
  - SongTwo == 13 ?
    (music "scartissue")Omg the Red Hot Chili Peppers - remember when Sam's dad started jamming to this on the way to bowling practice?
  - SongTwo == 14 ?
    (music "foxtrot")Whooooa, a dirty song. Sneeeaky! 
  - SongTwo == 15 ?
    (music "stacy")Talk about nostalgia! Remember in Middle School when we listened to Fountain's of Wayne on your old CD player?
  - SongTwo == 16 ?
    (music "whereismymind")Ok, ok, so I sweat "Where is my mind" is deeper than Fight Club gives it credit. Like, have you ever felt so blown that there's just nothing in your mind? 
  - SongTwo == 17 ?
    (music "bitesthedust")If I wasn't mistaken, it seems like you're trying to impress a certain Sam since your included Queen.
  - SongTwo == 18 ?
    (music "mamamia")Including some musical stuff is risky! But I like it, it mixes things up, huh?
  - SongTwo == 19 ?
    (music "potter")Ugh, the emooootions this gives me! It's like I can remember being 12 and seeing the first movie with you and Sam.
  - SongTwo == 20 ?
    (music "secret")"All American Rejects" just makes me want to dance, like last summer. <3
  - SongTwo == 21 ?
    (music "alright")Of course, you got Motion City Soundtrack in there. I know the lyrics resonate with you, but I don't think you should be so nervous, you know?
  - SongTwo == 22 ?
    (music "sins")An interesting choice with this one. I think Panic! At the Disco thinks of themselves like Oscar Wilde or something, but I just think of emo dance music.
  - SongTwo == 23 ?
    (music "girlrockshow")Blink 182 - this song kind of weirds me out! Like, is he always checking on girls at concerts?! I'm just there to mosh.}

"""

DLG ITM_37
"""
From Jodie Walker, Today 5:28PM
And the last song...{
  - SongThree == 1 ?
    (music "thousandmiles")I can't believe you still listen to "A Thousand Miles"! That's basically your and Sam's song.
  - SongThree == 2 ?
    (music "angel")I don't know this one. Is it from one of your ~animes~?
  - SongThree == 3 ?
    (music "bad")Is this one Michael Jackson? My parents never let me listen to him. ._.
  - SongThree == 4 ?
    (music "teen")I bet Sam loooves that you're playing Nirvana *wink wink*
  - SongThree == 5 ?
    (music "grandtheft")"Grand Theft Autumn" is totally the only FoB song that's tolerable.
  - SongThree == 6 ?
    (music "stupid")You know how I love Weird Al.
  - SongThree == 7 ?
    (music "emergency")Hitting off with Paramore song, you're sooo emo.
  - SongThree == 8 ?
    (music "delilah")Of course you have "Hey There Delilah" in there. I'm surprised you skipped on "New York, New York"
  - SongThree == 9 ?
    (music "slang")I'm so glad you got into The Shins. The lyrics are so poetic and "Slang" is basically my song of the spring.
  - SongThree == 10 ?
    (music "hateeverything")Are you ok, though? You don't actually hate everything, right?
  - SongThree == 11 ?
    (music "killing")You are your political songs... *rolls eyes*
  - SongThree == 12 ?
    (music "starwars")You're suuuuch a Star Wars nerd. You know that there are other movies, right?!
  - SongThree == 13 ?
    (music "scartissue")Omg the Red Hot Chili Peppers - remember when Sam's dad started jamming to this on the way to bowling practice?
  - SongThree == 14 ?
    (music "foxtrot")Whooooa, a dirty song. Sneeeaky! 
  - SongThree == 15 ?
    (music "stacy")Talk about nostalgia! Remember in Middle School when we listened to Fountain's of Wayne on your old CD player?
  - SongThree == 16 ?
    (music "whereismymind")Ok, ok, so I sweat "Where is my mind" is deeper than Fight Club gives it credit. Like, have you ever felt so blown that there's just nothing in your mind? 
  - SongThree == 17 ?
    (music "bitesthedust")If I wasn't mistaken, it seems like you're trying to impress a certain Sam since your included Queen.
  - SongThree == 18 ?
    (music "mamamia")Including some musical stuff is risky! But I like it, it mixes things up, huh?
  - SongThree == 19 ?
    (music "potter")Ugh, the emooootions this gives me! It's like I can remember being 12 and seeing the first movie with you and Sam.
  - SongThree == 20 ?
    (music "secret")"All American Rejects" just makes me want to dance, like last summer. <3
  - SongThree == 21 ?
    (music "alright")Of course, you got Motion City Soundtrack in there. I know the lyrics resonate with you, but I don't think you should be so nervous, you know?
  - SongThree == 22 ?
    (music "sins")An interesting choice with this one. I think Panic! At the Disco thinks of themselves like Oscar Wilde or something, but I just think of emo dance music.
  - SongThree == 23 ?
    (music "girlrockshow")Blink 182 - this song kind of weirds me out! Like, is he always checking on girls at concerts?! I'm just there to mosh.
}

"""

DLG ITM_38
From Me, Today 5:30PM: Haha, you saw I changed the playlist?! You're my favorite. I feel so honored to get such an in-depth analysis.

END 0
(music "S")<3

END undefined
Songs saved

END undefinee


VAR SongOne
0

VAR SongTwo
0

VAR SongThree
0







