
oh no I woke up on Mars

# BITSY VERSION 4.6

! ROOM_FORMAT 1

PAL 0
244,202,138
132,83,117
15,49,84

ROOM 0
a,a,a,a,a,a,a,a,a,a,a,a,a,a,a,a
a,a,h,a,a,a,a,a,a,a,a,a,a,a,h,a
a,a,a,a,a,a,i,a,a,e,f,a,a,a,a,a
a,a,a,a,a,a,a,a,a,c,d,a,a,a,a,a
a,a,a,a,a,a,a,a,a,a,a,a,a,i,a,a
a,a,a,a,a,h,a,a,a,a,a,a,a,a,i,a
a,i,a,a,a,a,a,a,a,a,a,a,a,a,a,a
b,b,b,g,g,g,g,g,g,g,g,g,g,b,b,b
0,0,0,0,0,0,0,0,0,0,0,0,0,0,0,0
0,0,0,0,l,0,0,0,0,0,0,m,0,0,0,0
0,x,0,0,0,0,k,0,0,0,0,0,0,0,0,0
0,0,0,0,0,0,0,0,0,0,j,0,0,0,x,0
0,0,0,0,0,0,0,l,0,0,0,0,0,0,0,0
0,0,0,0,0,0,0,0,0,0,v,0,0,n,0,0
0,0,n,0,0,0,0,0,0,0,0,0,0,0,0,0
0,0,0,0,0,0,w,0,0,0,0,0,0,0,0,0
ITM 0 1,13
ITM 1 9,8
ITM 1 10,8
PAL 0

TIL a
11111111
11111111
11111111
11111111
11111111
11111111
11111111
11111111
WAL false

TIL b
11111111
11111111
11111111
11111111
11111111
11111111
11111111
00000000
WAL true

TIL c
01110000
01110011
01111111
10100000
10110000
11011100
11100111
11111000

TIL d
01000110
11010010
00010110
00000101
00001101
00111011
11100111
00011111

TIL e
11111000
11100111
11011110
10111100
10111101
01110111
01111100
01111100

TIL f
00011111
11100111
11111011
01001101
00000101
00010110
00000010
01000010

TIL g
11111111
11111111
11111111
11111111
11111111
11111111
00000000
00000000
WAL true

TIL h
11111111
11111111
11111111
11111011
11111111
11111111
11111111
11111111

TIL i
11111111
11111111
11111111
11111111
11011111
11111111
11111111
11111111

TIL j
00000000
00000000
00000000
00011100
00111100
01111110
00000000
00000000
WAL true

TIL k
00000000
00000000
00000000
00111000
01111100
01111110
00000000
00000000
WAL true

TIL l
00000000
01000000
00010100
00000000
01100110
01110000
00100000
00000000

TIL m
00000000
01000000
00000010
00000000
00010000
00000110
00000110
00000000

TIL n
00000000
00000000
00001100
00011000
01000010
00110000
00000000
00000000

TIL v
00000000
00000000
00100000
00001100
00011000
00000000
01000011
00000111

TIL w
00000000
00000000
00000010
00000000
00110000
00111000
00000000
00000000

TIL x
00000000
00000000
00000000
00001000
00011100
00000000
01100000
00000000

SPR A
00011000
00100100
00100100
00011000
01111110
10111101
00100100
00100100
POS 0 8,10

SPR a
00000000
00000000
11110001
10010001
10010010
01111100
00111100
00100100
DLG SPR_0
POS 0 13,10

SPR b
00000000
00000000
00000000
01101111
10011100
10011100
01101111
00000000
DLG SPR_1
POS 0 5,11

SPR c
00001110
00010010
00110011
01001011
01100010
11110100
11110110
11111110
DLG SPR_2
POS 0 11,13

ITM 0
00000000
00000000
01111110
01101010
01010110
01111110
00000000
00000000
NAME coin
DLG ITM_0

ITM 1
00000000
00000000
00000000
00000000
00000000
00000000
00000000
00000000
NAME earthspot
DLG ITM_1

DLG SPR_0
"""
{shuffle
  - the cat meows, but you cannot hear it.
  - the poor creature wants biscuits. there are no biscuits in space.
  - you scritch the cat under its... helmet.
}{clr1} oh no{clr1}
"""

DLG SPR_1
"""
{shuffle
  - {clr1}who {shk}is{shk} that?{clr1}
  - {clr1}{wvy}helloooo{wvy}? can you hear me?{clr1}
  - {clr1}how did I get here?{clr1}
  - {clr1}wake up {shk}wake up!{shk}{clr1}
}{clr1} oh no{clr1}
"""

DLG SPR_2
"""
{sequence
  - {clr1}is that... a {shk}car?{shk}{clr1}
  - {clr1}what's a car doing out here in space?{clr1}
  - {clr1}I wonder if it still works... how do I even get in?{clr1}
  - {clr1}I don't even know how to drive.{clr1}
}{clr1} oh no{clr1}
"""

DLG ITM_0
you found a credit card! money is worthless in space.{clr1} oh no{clr1}

DLG ITM_1
"""
{
  - {item "earthspot"} == 1 ?
    {clr1}is that... is that {shk}Earth?{shk} oh no{clr1}
}
"""

VAR a
42


