
Intrepid

# BITSY VERSION 4.6

! ROOM_FORMAT 1

PAL 0
NAME inside
55,108,115
64,31,14
255,255,255

PAL 1
NAME start
201,97,43
122,239,255
255,255,255

PAL 2
NAME entrance
201,97,43
55,108,115
255,255,255

ROOM 0
a,a,a,a,a,a,a,a,a,a,a,a,a,a,a,a
a,a,a,a,a,a,a,a,a,a,a,a,a,a,a,a
a,a,a,a,a,a,a,a,a,a,a,a,a,a,a,a
a,a,a,a,a,a,a,a,a,a,a,a,a,a,a,a
a,a,a,a,a,a,a,a,a,a,a,a,a,a,a,a
a,a,a,a,a,a,a,a,a,a,a,a,a,a,a,a
g,g,g,g,t,r,r,u,g,t,r,v,r,u,g,g
0,0,0,0,s,0,0,0,0,0,0,0,s,0,0,0
0,0,0,0,0,0,0,0,0,0,0,0,0,0,0,0
0,0,0,0,0,0,0,0,0,0,d,0,w,w,0,0
0,0,0,0,0,0,0,d,0,0,0,0,0,0,0,0
w,w,w,w,w,w,w,w,w,w,0,0,d,d,0,0
0,0,0,0,0,0,0,0,0,0,0,d,d,d,0,0
h,h,h,h,h,h,h,h,h,h,h,h,h,h,h,h
a,a,a,a,a,a,a,a,a,a,a,a,a,a,a,a
a,a,a,a,a,a,a,a,a,a,a,a,a,a,a,a
ITM 0 13,10
EXT 11,10 0 12,10
EXT 13,10 1 13,10
EXT 10,11 0 11,11
PAL 0

ROOM 1
a,a,a,a,a,a,a,a,a,a,a,a,a,a,a,a
a,a,a,a,a,a,a,a,a,a,a,a,a,a,a,a
a,a,a,a,a,a,a,a,a,a,a,a,a,a,a,a
a,a,a,a,a,a,a,a,a,a,a,a,a,a,a,a
a,a,a,a,a,a,a,a,a,a,a,a,a,a,a,a
a,a,a,a,a,a,a,a,a,a,a,a,a,a,a,a
g,g,g,g,t,r,r,u,g,t,r,v,20,u,g,g
0,0,0,0,0,0,0,0,0,0,0,0,0,0,0,0
0,0,0,0,0,0,0,0,0,0,0,0,0,0,0,0
0,0,0,0,0,0,0,0,0,0,d,0,0,w,0,0
0,0,0,0,0,0,0,d,0,0,0,0,0,0,w,0
0,0,0,0,0,0,0,0,0,0,0,0,d,d,0,0
0,0,0,0,0,0,0,0,0,0,0,d,d,d,0,0
h,h,h,h,h,h,h,h,h,h,h,h,h,h,h,h
a,a,a,a,a,a,a,a,a,a,a,a,a,a,a,a
a,a,a,a,a,a,a,a,a,a,a,a,a,a,a,a
EXT 12,10 g 12,10
PAL 0

ROOM 2
a,a,a,a,a,a,a,a,a,a,a,a,a,a,a,a
a,a,a,a,a,a,a,a,a,a,a,a,a,a,a,a
a,a,a,a,a,a,a,a,a,a,a,a,a,a,a,a
a,a,a,a,a,a,a,a,a,a,a,a,a,a,a,a
a,a,a,a,a,a,a,a,a,a,a,a,a,a,a,a
a,a,a,a,a,a,a,a,a,a,a,a,g,a,a,a
g,g,g,g,t,r,r,u,g,t,20,v,0,u,g,g
0,0,0,0,0,0,0,0,0,0,0,0,0,0,0,0
0,0,0,0,0,0,0,0,0,0,0,0,0,0,0,0
0,0,0,0,0,0,0,0,0,0,d,0,0,0,0,0
0,0,0,0,0,0,0,d,0,0,29,s,p,0,0,0
0,0,0,0,0,0,0,0,0,0,0,0,d,d,0,0
0,0,0,0,0,0,0,0,0,0,0,d,d,d,0,0
h,h,h,h,h,h,h,h,h,h,h,h,h,h,h,h
a,a,a,a,a,a,a,a,a,a,a,a,a,a,a,a
a,a,a,a,a,a,a,a,a,a,a,a,a,a,a,a
NAME 2 up path
EXT 9,8 3 7,9
EXT 9,12 3 9,12
EXT 11,8 i 12,10
EXT 10,11 3 10,12
EXT 11,10 3 12,10
END undefined 13,10
END undefinee 10,7
PAL 0

ROOM 3
a,a,a,a,a,a,a,a,a,a,a,a,a,a,a,a
a,a,a,a,a,a,a,a,a,a,a,a,a,a,a,a
a,a,a,a,a,a,a,a,a,a,a,a,a,a,a,a
a,a,a,a,a,a,a,a,a,a,a,a,a,a,a,a
a,a,a,a,a,a,a,a,a,a,a,a,a,a,a,a
a,a,a,a,a,a,a,a,a,a,g,a,g,a,a,a
g,g,g,g,t,r,r,u,g,t,0,v,0,u,g,g
0,0,0,0,0,0,0,0,0,0,0,0,0,0,0,0
0,0,0,0,0,0,0,0,0,0,p,0,0,0,0,0
0,0,0,0,0,0,0,0,0,0,d,0,0,0,0,0
0,0,0,0,0,0,0,d,0,0,0,0,0,0,0,0
0,0,0,0,0,0,0,0,0,0,0,0,d,d,0,0
0,0,0,0,0,0,0,0,0,0,0,d,d,d,0,0
h,h,h,h,h,h,h,h,h,h,h,h,h,h,h,h
a,a,a,a,a,a,a,a,a,a,a,a,a,a,a,a
a,a,a,a,a,a,a,a,a,a,a,a,a,a,a,a
EXT 6,9 k 5,12
EXT 8,12 m 8,12
EXT 11,10 j 11,11
EXT 10,11 j 11,11
EXT 9,12 m 8,12
EXT 8,9 m 8,12
EXT 7,8 k 5,12
EXT 12,9 4 10,8
END undefined 13,10
PAL 0

ROOM 4
a,a,a,a,a,a,a,a,a,a,a,a,a,a,a,a
a,a,a,a,a,a,a,a,a,a,a,a,a,a,a,a
a,a,a,a,a,a,a,a,a,a,a,a,a,a,a,a
a,a,a,a,a,a,a,a,a,a,a,a,a,a,a,a
a,a,a,a,a,a,a,a,a,a,a,a,a,a,a,a
a,a,a,a,a,a,a,a,a,a,g,a,g,a,a,a
g,g,g,g,t,r,r,u,g,t,0,v,0,u,g,g
0,0,0,0,0,0,0,0,0,0,0,0,0,0,0,10
0,0,0,0,0,0,0,0,0,0,0,0,0,0,0,16
0,0,0,0,0,0,0,0,0,0,d,0,0,0,0,1c
0,0,0,0,0,0,0,d,0,0,21,0,0,0,0,1i
0,0,0,0,0,0,0,0,0,0,0,0,d,d,0,1o
0,0,0,0,0,0,0,0,0,0,0,d,d,d,0,1u
h,h,h,h,h,h,h,h,h,h,h,h,h,h,h,h
a,a,a,a,a,a,a,a,a,a,a,a,a,a,a,a
a,a,a,a,a,a,a,a,a,a,a,a,a,a,a,a
NAME 4a
EXT 11,8 n 12,10
EXT 9,8 o 9,12
END undefineg 10,7
PAL 0

ROOM 10
a,a,a,a,a,a,a,a,a,a,a,a,a,a,a,a
a,a,a,a,a,a,a,a,a,a,a,a,a,a,a,a
a,a,a,a,a,a,a,a,a,a,a,a,a,a,a,a
a,a,a,a,a,a,a,a,a,a,a,a,a,a,a,a
a,a,a,a,a,a,a,a,a,a,a,a,a,a,a,a
a,a,a,a,a,a,a,a,a,a,g,a,g,a,a,a
g,g,g,g,t,r,r,u,g,t,0,v,0,u,g,g
0,0,0,0,0,0,0,0,0,0,0,10,11,12,13,14
0,0,0,0,0,0,0,0,0,0,0,16,17,18,19,1a
0,0,0,0,0,0,0,0,0,0,d,1c,1d,1e,1f,1g
0,0,0,0,0,0,0,d,0,0,0,1i,1j,1j,1j,1k
0,0,0,0,0,0,0,0,0,0,0,1o,1p,1p,1p,1q
0,0,0,0,0,0,0,0,0,0,q,1u,1v,1w,1x,1y
h,h,h,h,h,h,h,h,h,h,h,h,h,h,h,h
a,a,a,a,a,a,a,a,a,a,a,a,a,a,a,a
a,a,a,a,a,a,a,a,a,a,a,a,a,a,a,a
NAME 8b
EXT 6,12 13 5,12
END undefineg 7,11
END undefineg 8,12
PAL 0

ROOM 11
a,a,a,a,a,a,a,a,a,a,a,a,a,a,a,a
a,a,a,a,a,a,a,a,a,a,a,a,a,a,a,a
a,a,a,a,a,a,a,a,a,a,a,a,a,a,a,a
a,a,a,a,a,a,a,a,a,a,a,a,a,a,a,a
a,a,a,a,a,a,a,a,a,a,a,a,a,a,a,a
a,a,a,a,a,a,a,a,a,a,g,a,g,a,a,a
g,g,g,g,t,r,r,u,g,t,0,v,0,u,g,g
0,0,0,0,0,0,0,0,0,0,10,11,12,13,14,15
0,0,0,0,0,0,0,0,0,0,16,17,17,18,19,1b
0,0,0,0,0,0,0,0,0,0,1c,1d,1d,1e,1f,1h
0,0,0,0,0,0,0,d,0,0,1i,1p,1j,1j,1j,1n
0,0,0,0,0,0,0,0,0,0,1o,1p,1p,1p,1p,1t
0,0,0,0,0,0,0,0,0,0,1u,1v,1w,1x,1y,1z
h,h,h,h,h,h,h,h,h,h,h,h,h,h,h,h
a,a,a,a,a,a,a,a,a,a,a,a,a,a,a,a
a,a,a,a,a,a,a,a,a,a,a,a,a,a,a,a
NAME 9a
EXT 2,12 12 1,12
END undefineg 3,11
PAL 0

ROOM 12
a,a,a,a,a,a,a,a,a,a,a,a,a,a,a,a
a,a,a,a,a,a,a,a,a,a,a,a,a,a,a,a
a,a,a,a,a,a,a,a,a,a,a,a,a,a,a,a
a,a,a,a,a,a,a,a,a,a,a,a,a,a,a,a
a,a,a,a,a,a,a,a,a,a,a,a,a,a,a,a
a,a,a,a,a,a,a,a,a,a,g,a,g,a,a,a
g,g,g,g,t,r,r,u,g,t,0,v,0,u,g,g
0,0,0,0,0,0,0,0,0,10,11,12,13,14,15,0
0,0,0,0,0,0,0,0,0,16,17,17,17,18,1b,0
0,0,0,0,0,0,0,0,0,1c,1d,1d,1d,1e,1h,0
0,0,0,0,0,0,0,d,0,1i,1j,1p,1j,1j,1n,0
0,0,0,0,0,0,0,0,0,1o,1p,1p,1p,1p,1t,0
0,0,0,0,0,0,0,0,0,1u,1v,1w,1x,1y,1z,0
h,h,h,h,h,h,h,h,h,h,h,h,h,h,h,h
a,a,a,a,a,a,a,a,a,a,a,a,a,a,a,a
a,a,a,a,a,a,a,a,a,a,a,a,a,a,a,a
NAME 10
EXT 0,12 y 15,2
EXT 2,12 y 15,2
END undefineg 1,11
END undefineg 3,11
PAL 0

ROOM 13
a,a,a,a,a,a,a,a,a,a,a,a,a,a,a,a
a,a,a,a,a,a,a,a,a,a,a,a,a,a,a,a
a,a,a,a,a,a,a,a,a,a,a,a,a,a,a,a
a,a,a,a,a,a,a,a,a,a,a,a,a,a,a,a
a,a,a,a,a,a,a,a,a,a,a,a,a,a,a,a
a,a,a,a,a,a,a,a,a,a,g,a,g,a,a,a
g,g,g,g,t,r,r,u,g,t,0,v,0,u,g,g
0,0,0,0,0,0,0,0,0,0,10,11,12,13,14,15
0,0,0,0,0,0,0,0,0,0,16,17,17,18,19,1b
0,0,0,0,0,0,0,0,0,0,1c,1d,1d,1e,1f,1h
0,0,0,0,0,0,0,d,0,0,1i,1p,1j,1j,1j,1n
0,0,0,0,0,0,0,0,0,0,1o,1p,1p,1p,1p,1t
0,0,0,0,0,0,0,0,0,0,1u,1v,1w,1x,1y,1z
h,h,h,h,h,h,h,h,h,h,h,h,h,h,h,h
a,a,a,a,a,a,a,a,a,a,a,a,a,a,a,a
a,a,a,a,a,a,a,a,a,a,a,a,a,a,a,a
NAME 9b
EXT 4,12 14 3,12
END undefineg 5,11
PAL 0

ROOM 14
a,a,a,a,a,a,a,a,a,a,a,a,a,a,a,a
a,a,a,a,a,a,a,a,a,a,a,a,a,a,a,a
a,a,a,a,a,a,a,a,a,a,a,a,a,a,a,a
a,a,a,a,a,a,a,a,a,a,a,a,a,a,a,a
a,a,a,a,a,a,a,a,a,a,a,a,a,a,a,a
a,a,a,a,a,a,a,a,a,a,g,a,g,a,a,a
g,g,g,g,t,r,r,u,g,t,0,v,0,u,g,g
0,0,0,0,0,0,0,0,0,10,11,12,13,14,15,0
0,0,0,0,0,0,0,0,0,16,17,17,17,18,1b,0
0,0,0,0,0,0,0,0,0,1c,1d,1d,1d,1e,1h,0
0,0,0,0,0,0,0,d,0,1i,1j,1p,1j,1j,1n,0
0,0,0,0,0,0,0,0,0,1o,1p,1p,1p,1p,1t,0
0,0,0,0,0,0,0,0,0,1u,1v,1w,1x,1y,1z,0
h,h,h,h,h,h,h,h,h,h,h,h,h,h,h,h
a,a,a,a,a,a,a,a,a,a,a,a,a,a,a,a
a,a,a,a,a,a,a,a,a,a,a,a,a,a,a,a
NAME 10b
EXT 0,12 y 15,2
EXT 2,12 y 15,2
END undefineg 1,11
END undefineg 3,11
PAL 0

ROOM g
a,a,a,a,a,a,a,a,a,a,a,a,a,a,a,a
a,a,a,a,a,a,a,a,a,a,a,a,a,a,a,a
a,a,a,a,a,a,a,a,a,a,a,a,a,a,a,a
a,a,a,a,a,a,a,a,a,a,a,a,a,a,a,a
a,a,a,a,a,a,a,a,a,a,a,a,a,a,a,a
a,a,a,a,a,a,a,a,a,a,a,a,a,a,a,a
g,g,g,g,t,r,r,u,g,t,r,v,r,u,g,g
0,0,0,0,0,0,0,0,0,0,0,0,21,0,0,0
0,0,0,0,0,0,0,0,0,0,0,0,0,0,0,0
0,0,0,0,0,0,0,0,0,0,d,0,0,w,0,0
0,0,0,0,0,0,0,d,0,0,0,0,0,0,w,0
0,0,0,0,0,0,0,0,0,0,0,0,d,d,0,0
0,0,0,0,0,0,0,0,0,0,0,d,d,d,0,0
h,h,h,h,h,h,h,h,h,h,h,h,h,h,h,h
a,a,a,a,a,a,a,a,a,a,a,a,a,a,a,a
a,a,a,a,a,a,a,a,a,a,a,a,a,a,a,a
NAME room 1b
EXT 12,9 2 10,8
EXT 11,10 h 11,11
END undefined 13,10
PAL 0

ROOM h
a,a,a,a,a,a,a,a,a,a,a,a,a,a,a,a
a,a,a,a,a,a,a,a,a,a,a,a,a,a,a,a
a,a,a,a,a,a,a,a,a,a,a,a,a,a,a,a
a,a,a,a,a,a,a,a,a,a,a,a,a,a,a,a
a,a,a,a,a,a,a,a,a,a,a,a,a,a,a,a
a,a,a,a,a,a,a,a,a,a,a,a,g,a,a,a
g,g,g,g,t,r,r,u,g,t,20,v,0,u,g,g
0,0,0,0,0,0,0,0,0,0,0,0,0,0,0,0
0,0,0,0,0,0,0,0,0,0,0,0,0,0,0,0
0,0,0,0,0,0,0,0,0,0,d,0,0,0,0,0
0,0,0,0,0,0,0,d,0,0,0,s,p,0,0,0
0,0,0,0,0,0,0,0,0,0,0,0,d,d,0,0
0,0,0,0,0,0,0,0,0,0,0,d,d,d,0,0
h,h,h,h,h,h,h,h,h,h,h,h,h,h,h,h
a,a,a,a,a,a,a,a,a,a,a,a,a,a,a,a
a,a,a,a,a,a,a,a,a,a,a,a,a,a,a,a
NAME 2 down path
EXT 9,8 3 7,9
EXT 9,12 3 9,12
EXT 11,8 3 12,10
EXT 10,11 3 10,12
EXT 11,10 3 12,10
END undefined 13,10
END undefinee 10,7
PAL 0

ROOM i
a,a,a,a,a,a,a,a,a,a,a,a,a,a,a,a
a,a,a,a,a,a,a,a,a,a,a,a,a,a,a,a
a,a,a,a,a,a,a,a,a,a,a,a,a,a,a,a
a,a,a,a,a,a,a,a,a,a,a,a,a,a,a,a
a,a,a,a,a,a,a,a,a,a,a,a,a,a,a,a
a,a,a,a,a,a,a,a,a,a,g,a,g,a,a,a
g,g,g,g,t,r,r,u,g,t,0,v,0,u,g,g
0,0,0,0,0,0,0,0,0,0,0,0,0,0,0,0
0,0,0,0,0,0,0,0,0,0,p,0,0,0,0,0
0,0,0,0,0,0,0,0,0,0,d,0,0,0,0,0
0,0,0,0,0,0,0,d,0,0,29,0,q,0,0,0
0,0,0,0,0,0,0,0,0,0,0,0,d,d,0,0
0,0,0,0,0,0,0,0,0,0,0,d,d,d,0,0
h,h,h,h,h,h,h,h,h,h,h,h,h,h,h,h
a,a,a,a,a,a,a,a,a,a,a,a,a,a,a,a
a,a,a,a,a,a,a,a,a,a,a,a,a,a,a,a
NAME 3b
EXT 11,10 j 11,11
EXT 12,9 4 10,8
END undefined 13,10
PAL 0

ROOM j
a,a,a,a,a,a,a,a,a,a,a,a,a,a,a,a
a,a,a,a,a,a,a,a,a,a,a,a,a,a,a,a
a,a,a,a,a,a,a,a,a,a,a,a,a,a,a,a
a,a,a,a,a,a,a,a,a,a,a,a,a,a,a,a
a,a,a,a,a,a,a,a,a,a,a,a,a,a,a,a
a,a,a,a,a,a,a,a,a,a,g,a,g,a,a,a
g,g,g,g,t,r,r,u,g,t,0,v,0,u,g,g
0,0,0,0,0,0,0,0,0,0,0,0,0,0,0,10
0,0,0,0,0,0,0,0,0,0,0,0,0,0,0,16
0,0,0,0,0,0,0,0,0,0,d,0,0,0,0,1c
0,0,0,0,0,0,0,d,0,0,21,0,0,0,0,1i
0,0,0,0,0,0,0,0,0,0,0,0,d,d,0,1o
0,0,0,0,0,0,0,0,0,0,0,d,d,d,0,1u
h,h,h,h,h,h,h,h,h,h,h,h,h,h,h,h
a,a,a,a,a,a,a,a,a,a,a,a,a,a,a,a
a,a,a,a,a,a,a,a,a,a,a,a,a,a,a,a
NAME 4b
EXT 11,10 n 12,10
END undefinee 10,11
PAL 0

ROOM k
a,a,a,a,a,a,a,a,a,a,a,a,a,a,a,a
a,a,a,a,a,a,a,a,a,a,a,a,a,a,a,a
a,a,a,a,a,a,a,a,a,a,a,a,a,a,a,a
a,a,a,a,a,a,a,a,a,a,a,a,a,a,a,a
a,a,a,a,a,a,a,a,a,a,a,a,a,a,a,a
a,a,a,a,a,a,a,a,a,a,g,a,g,a,a,a
g,g,g,g,t,r,r,u,g,t,0,v,0,u,g,g
0,0,0,0,0,0,0,0,0,0,0,0,0,0,0,10
0,0,0,0,0,0,0,0,0,0,0,0,0,0,0,16
0,0,0,0,0,0,0,0,0,0,d,0,0,0,0,1c
0,0,0,0,0,0,0,d,0,0,0,0,0,0,0,1i
0,0,0,0,0,0,0,0,0,0,0,0,d,d,0,1o
0,0,0,0,0,0,0,0,0,0,0,d,d,d,0,1u
h,h,h,h,h,h,h,h,h,h,h,h,h,h,h,h
a,a,a,a,a,a,a,a,a,a,a,a,a,a,a,a
a,a,a,a,a,a,a,a,a,a,a,a,a,a,a,a
NAME 4c
EXT 6,12 q 6,12
EXT 4,12 w 3,12
END undefineg 5,11
PAL 0

ROOM m
a,a,a,a,a,a,a,a,a,a,a,a,a,a,a,a
a,a,a,a,a,a,a,a,a,a,a,a,a,a,a,a
a,a,a,a,a,a,a,a,a,a,a,a,a,a,a,a
a,a,a,a,a,a,a,a,a,a,a,a,a,a,a,a
a,a,a,a,a,a,a,a,a,a,a,a,a,a,a,a
a,a,a,a,a,a,a,a,a,a,g,a,g,a,a,a
g,g,g,g,t,r,r,u,g,t,0,v,0,u,g,g
0,0,0,0,0,0,0,0,0,0,0,0,0,0,0,10
0,0,0,0,0,0,0,0,0,0,0,0,0,0,0,16
0,0,0,0,0,0,0,0,0,0,d,0,0,0,0,1c
0,0,0,0,0,0,0,d,0,0,0,0,0,0,0,1i
0,0,0,0,0,0,0,0,0,0,0,0,d,d,0,1o
0,0,0,0,0,0,0,0,0,0,0,d,d,d,0,1u
h,h,h,h,h,h,h,h,h,h,h,h,h,h,h,h
a,a,a,a,a,a,a,a,a,a,a,a,a,a,a,a
a,a,a,a,a,a,a,a,a,a,a,a,a,a,a,a
NAME 4e
EXT 9,12 o 9,12
EXT 7,12 q 6,12
END undefineg 8,11
PAL 0

ROOM n
a,a,a,a,a,a,a,a,a,a,a,a,a,a,a,a
a,a,a,a,a,a,a,a,a,a,a,a,a,a,a,a
a,a,a,a,a,a,a,a,a,a,a,a,a,a,a,a
a,a,a,a,a,a,a,a,a,a,a,a,a,a,a,a
a,a,a,a,a,a,a,a,a,a,a,a,a,a,a,a
a,a,a,a,a,a,a,a,a,a,g,a,g,a,a,a
g,g,g,g,t,r,r,u,g,t,0,v,0,u,g,g
0,0,0,0,0,0,0,0,0,0,0,0,0,0,10,11
0,0,0,0,0,0,0,0,0,0,0,0,0,0,16,17
0,0,0,0,0,0,0,0,0,0,d,0,0,0,1c,1d
0,0,0,0,0,0,0,d,0,0,0,0,0,0,1i,1j
0,0,0,0,0,0,0,0,0,0,2a,0,d,d,1o,1p
0,0,0,0,0,0,0,0,0,0,0,d,d,d,1u,1v
h,h,h,h,h,h,h,h,h,h,h,h,h,h,h,h
a,a,a,a,a,a,a,a,a,a,a,a,a,a,a,a
a,a,a,a,a,a,a,a,a,a,a,a,a,a,a,a
NAME 5a
EXT 11,10 r 11,11
END undefinef 13,10
END undefineg 12,9
PAL 0

ROOM o
a,a,a,a,a,a,a,a,a,a,a,a,a,a,a,a
a,a,a,a,a,a,a,a,a,a,a,a,a,a,a,a
a,a,a,a,a,a,a,a,a,a,a,a,a,a,a,a
a,a,a,a,a,a,a,a,a,a,a,a,a,a,a,a
a,a,a,a,a,a,a,a,a,a,a,a,a,a,a,a
a,a,a,a,a,a,a,a,a,a,g,a,g,a,a,a
g,g,g,g,t,r,r,u,g,t,0,v,0,u,g,g
0,0,0,0,0,0,0,0,0,0,0,0,0,0,10,11
0,0,0,0,0,0,0,0,0,0,0,0,0,0,16,17
0,0,0,0,0,0,0,0,0,0,d,0,0,0,1c,1d
0,0,0,0,0,0,0,d,0,0,0,0,0,0,1i,1j
0,0,0,0,0,0,0,0,0,0,2a,0,d,d,1o,1p
0,0,0,0,0,0,0,0,0,0,0,d,d,d,1u,1v
h,h,h,h,h,h,h,h,h,h,h,h,h,h,h,h
a,a,a,a,a,a,a,a,a,a,a,a,a,a,a,a
a,a,a,a,a,a,a,a,a,a,a,a,a,a,a,a
NAME 5b
EXT 8,12 p 8,12
END undefinee 10,12
END undefineg 9,11
PAL 0

ROOM p
a,a,a,a,a,a,a,a,a,a,a,a,a,a,a,a
a,a,a,a,a,a,a,a,a,a,a,a,a,a,a,a
a,a,a,a,a,a,a,a,a,a,a,a,a,a,a,a
a,a,a,a,a,a,a,a,a,a,a,a,a,a,a,a
a,a,a,a,a,a,a,a,a,a,a,a,a,a,a,a
a,a,a,a,a,a,a,a,a,a,g,a,g,a,a,a
g,g,g,g,t,r,r,u,g,t,0,v,0,u,g,g
0,0,0,0,0,0,0,0,0,0,0,0,0,10,11,12
0,0,0,0,0,0,0,0,0,0,0,0,0,16,17,18
0,0,0,0,0,0,0,0,0,0,d,0,0,1c,1d,1e
0,0,0,0,0,0,0,d,0,0,0,0,0,1i,1j,1k
0,0,0,0,0,0,0,0,0,0,0,0,d,1o,1p,1q
0,0,0,0,0,0,0,0,0,0,q,d,d,1u,1v,1w
h,h,h,h,h,h,h,h,h,h,h,h,h,h,h,h
a,a,a,a,a,a,a,a,a,a,a,a,a,a,a,a
a,a,a,a,a,a,a,a,a,a,a,a,a,a,a,a
NAME 6a
EXT 9,12 s 9,12
EXT 2,12 s 1,12
EXT 7,12 s 6,12
END undefineg 8,11
END undefineg 3,11
PAL 0

ROOM q
a,a,a,a,a,a,a,a,a,a,a,a,a,a,a,a
a,a,a,a,a,a,a,a,a,a,a,a,a,a,a,a
a,a,a,a,a,a,a,a,a,a,a,a,a,a,a,a
a,a,a,a,a,a,a,a,a,a,a,a,a,a,a,a
a,a,a,a,a,a,a,a,a,a,a,a,a,a,a,a
a,a,a,a,a,a,a,a,a,a,g,a,g,a,a,a
g,g,g,g,t,r,r,u,g,t,0,v,0,u,g,g
0,0,0,0,0,0,0,0,0,0,0,0,0,0,10,11
0,0,0,0,0,0,0,0,0,0,0,0,0,0,16,17
0,0,0,0,0,0,0,0,0,0,d,0,0,0,1c,1d
0,0,0,0,0,0,0,d,0,0,0,0,0,0,1i,1j
0,0,0,0,0,0,0,0,0,0,2a,0,d,d,1o,1p
0,0,0,0,0,0,0,0,0,0,0,d,d,d,1u,1v
h,h,h,h,h,h,h,h,h,h,h,h,h,h,h,h
a,a,a,a,a,a,a,a,a,a,a,a,a,a,a,a
a,a,a,a,a,a,a,a,a,a,a,a,a,a,a,a
NAME 5 fast
EXT 5,12 p 3,12
END undefineg 6,11
PAL 0

ROOM r
a,a,a,a,a,a,a,a,a,a,a,a,a,a,a,a
a,a,a,a,a,a,a,a,a,a,a,a,a,a,a,a
a,a,a,a,a,a,a,a,a,a,a,a,a,a,a,a
a,a,a,a,a,a,a,a,a,a,a,a,a,a,a,a
a,a,a,a,a,a,a,a,a,a,a,a,a,a,a,a
a,a,a,a,a,a,a,a,a,a,g,a,g,a,a,a
g,g,g,g,t,r,r,u,g,t,0,v,0,u,g,g
0,0,0,0,0,0,0,0,0,0,0,0,0,10,11,12
0,0,0,0,0,0,0,0,0,0,0,0,0,16,17,18
0,0,0,0,0,0,0,0,0,0,d,0,0,1c,1d,1e
0,0,0,0,0,0,0,d,0,0,0,0,0,1i,1j,1k
0,0,0,0,0,0,0,0,0,0,0,0,d,1o,1p,1q
0,0,0,0,0,0,0,0,0,0,q,d,d,1u,1v,1w
h,h,h,h,h,h,h,h,h,h,h,h,h,h,h,h
a,a,a,a,a,a,a,a,a,a,a,a,a,a,a,a
a,a,a,a,a,a,a,a,a,a,a,a,a,a,a,a
NAME 6b
EXT 10,11 s 9,12
END undefineg 11,10
PAL 0

ROOM s
a,a,a,a,a,a,a,a,a,a,a,a,a,a,a,a
a,a,a,a,a,a,a,a,a,a,a,a,a,a,a,a
a,a,a,a,a,a,a,a,a,a,a,a,a,a,a,a
a,a,a,a,a,a,a,a,a,a,a,a,a,a,a,a
a,a,a,a,a,a,a,a,a,a,a,a,a,a,a,a
a,a,a,a,a,a,a,a,a,a,g,a,g,a,a,a
g,g,g,g,t,r,r,u,g,t,0,v,0,u,g,g
0,0,0,0,0,0,0,0,0,0,0,0,10,11,12,13
0,0,0,0,0,0,0,0,0,0,0,0,16,17,18,19
0,0,0,0,0,0,0,0,0,0,d,0,1c,1d,1e,1f
0,0,0,0,0,0,0,d,0,0,0,0,1i,1j,1j,1k
0,0,0,0,0,0,0,0,0,0,0,0,1o,1p,1p,1q
0,0,0,0,0,0,0,0,0,0,q,d,1u,1v,1w,1x
h,h,h,h,h,h,h,h,h,h,h,h,h,h,h,h
a,a,a,a,a,a,a,a,a,a,a,a,a,a,a,a
a,a,a,a,a,a,a,a,a,a,a,a,a,a,a,a
NAME 7fast
EXT 0,12 y 15,2
EXT 5,12 z 4,12
EXT 8,12 10 7,12
END undefineg 1,11
END undefineg 6,11
END undefineg 9,11
PAL 0

ROOM t
2l,2l,2l,2l,2l,2l,2l,2l,2l,2l,2l,2l,2l,2l,2l,2l
2l,2l,2l,2l,2l,2l,2l,2l,2l,2l,2l,2l,2l,2l,2l,2l
2l,2l,2l,2l,2l,2l,2l,2l,2l,2l,2l,2l,2l,2l,2l,2l
2l,2l,2l,2l,2l,2l,2l,2l,2l,2l,2l,2l,2l,2l,2l,2l
2l,2l,2l,2l,2l,2l,2l,2l,2l,2l,2l,2l,2l,2l,2l,2l
2l,2l,2l,2l,2l,2l,2l,2l,2l,2l,2l,2l,2l,2l,2l,2l
2l,2f,2g,2l,2l,2l,2l,2l,2l,2l,2l,2l,2l,2l,2l,2l
2l,2d,2m,2h,2l,2l,2l,2l,2l,2e,2l,2l,2l,2j,2i,2l
0,0,0,0,0,0,0,0,0,0,0,0,0,0,0,0
0,0,0,0,0,0,0,0,0,0,0,0,0,0,0,0
0,0,0,0,0,0,0,3c,0,0,0,0,0,0,0,0
0,0,0,0,0,0,0,0,0,0,0,0,0,0,0,0
0,0,0,0,0,0,0,0,0,0,0,0,0,0,0,0
0,0,0,0,0,0,0,0,0,0,0,0,0,0,0,0
0,0,0,0,0,0,0,0,0,0,0,0,0,0,0,0
0,0,0,0,0,0,0,0,0,0,0,0,0,0,0,0
NAME Start
EXT 0,7 v 6,15
EXT 4,7 v 6,15
EXT 5,7 v 6,15
EXT 6,7 v 6,15
EXT 7,7 v 6,15
EXT 8,7 v 6,15
EXT 10,7 v 6,15
EXT 11,7 v 6,15
EXT 12,7 v 6,15
EXT 15,7 v 6,15
PAL 1

ROOM u
g,g,g,g,g,g,g,g,g,g,g,g,g,g,g,g
0,0,0,0,0,0,0,0,0,0,0,0,0,0,0,0
35,36,0,0,0,0,0,0,0,0,0,0,0,0,38,37
32,33,2w,2w,2w,2w,2w,2w,2w,2w,2w,2w,2w,2w,34,32
3b,2y,0,0,0,0,0,0,0,0,0,0,0,0,31,a
a,2y,0,0,0,0,0,0,0,0,0,0,0,0,31,3b
a,2y,0,0,0,0,0,0,0,0,0,0,0,0,31,a
a,39,0,0,0,0,0,0,0,0,0,0,0,0,31,3b
a,2y,0,0,0,0,0,0,0,0,0,0,0,0,31,a
a,2y,0,0,0,0,0,0,0,0,0,0,0,0,31,a
a,2y,0,0,0,0,0,0,0,0,0,0,0,0,3a,a
a,2y,0,0,0,0,0,0,0,0,0,0,0,0,31,a
a,39,0,0,0,0,0,0,0,0,0,0,0,0,31,a
a,2y,0,0,0,0,0,0,0,0,0,0,0,0,31,a
3b,2y,0,0,0,0,0,0,0,0,0,0,0,0,31,a
a,2y,0,0,0,0,0,0,0,0,0,0,0,0,3a,a
NAME Bridge
ITM 2 2,2
ITM 1 7,2
EXT 15,2 0 0,12
PAL 0

ROOM v
17,17,17,17,17,17,17,17,17,17,17,17,17,17,17,17
17,17,17,17,17,17,17,17,17,17,17,17,17,17,17,17
17,17,17,3g,3j,3k,3j,3i,3l,3i,3l,3h,17,17,17,17
17,17,3g,0,0,0,0,0,0,0,0,0,0,3h,17,17
17,3g,0,0,3p,0,0,0,0,0,0,0,3c,0,17,17
17,3o,0,0,0,0,0,3p,0,0,0,2v,0,0,3h,17
17,0,0,0,0,0,0,0,0,0,0,0,0,0,3o,17
17,3o,0,3q,0,0,0,0,0,0,0,0,0,0,0,17
17,0,0,0,0,0,2n,2p,2q,0,0,3p,0,0,3n,17
3w,3n,3v,2u,3v,3v,2o,3u,3u,2u,3v,3v,3v,2u,3o,3w
0,0,0,0,0,0,0,0,0,0,3s,0,0,0,0,0
0,3t,0,0,0,0,0,0,0,0,0,0,0,0,0,0
0,0,0,3r,0,0,0,0,0,0,0,3r,0,0,0,0
0,0,0,0,0,0,3t,0,0,0,0,0,0,0,0,0
0,0,0,0,0,0,0,0,0,0,3t,0,0,0,3t,0
0,3s,0,0,0,0,0,0,0,0,0,0,0,0,0,0
NAME Entrance
EXT 6,9 u 0,2
EXT 7,9 u 0,2
EXT 8,9 u 0,2
PAL 2

ROOM w
a,a,a,a,a,a,a,a,a,a,a,a,a,a,a,a
a,a,a,a,a,a,a,a,a,a,a,a,a,a,a,a
a,a,a,a,a,a,a,a,a,a,a,a,a,a,a,a
a,a,a,a,a,a,a,a,a,a,a,a,a,a,a,a
a,a,a,a,a,a,a,a,a,a,a,a,a,a,a,a
a,a,a,a,a,a,a,a,a,a,g,a,g,a,a,a
g,g,g,g,t,r,r,u,g,t,0,v,0,u,g,g
0,0,0,0,0,0,0,0,0,0,0,0,0,0,10,11
0,0,0,0,0,0,0,0,0,0,0,0,0,0,16,17
0,0,0,0,0,0,0,0,0,0,d,0,0,0,1c,1d
0,0,0,0,0,0,0,d,0,0,0,0,0,0,1i,1j
0,0,0,0,0,0,0,0,0,0,0,0,d,d,1o,1p
0,0,0,0,0,0,0,0,0,0,0,d,d,d,1u,1v
h,h,h,h,h,h,h,h,h,h,h,h,h,h,h,h
a,a,a,a,a,a,a,a,a,a,a,a,a,a,a,a
a,a,a,a,a,a,a,a,a,a,a,a,a,a,a,a
NAME 5c
EXT 2,12 x 1,12
END undefineg 3,11
PAL 0

ROOM x
a,a,a,a,a,a,a,a,a,a,a,a,a,a,a,a
a,a,a,a,a,a,a,a,a,a,a,a,a,a,a,a
a,a,a,a,a,a,a,a,a,a,a,a,a,a,a,a
a,a,a,a,a,a,a,a,a,a,a,a,a,a,a,a
a,a,a,a,a,a,a,a,a,a,a,a,a,a,a,a
a,a,a,a,a,a,a,a,a,a,g,a,g,a,a,a
g,g,g,g,t,r,r,u,g,t,0,v,0,u,g,g
0,0,0,0,0,0,0,0,0,0,0,0,0,10,11,12
0,0,0,0,0,0,0,0,0,0,0,0,0,16,17,18
0,0,0,0,0,0,0,0,0,0,d,0,0,1c,1d,1e
0,0,0,0,0,0,0,d,0,0,0,0,0,1i,1j,1k
0,0,0,0,0,0,0,0,0,0,0,0,d,1o,1p,1q
0,0,0,0,0,0,0,0,0,0,q,d,d,1u,1v,1w
h,h,h,h,h,h,h,h,h,h,h,h,h,h,h,h
a,a,a,a,a,a,a,a,a,a,a,a,a,a,a,a
a,a,a,a,a,a,a,a,a,a,a,a,a,a,a,a
NAME 6c
EXT 0,12 y 15,2
END undefineg 1,11
PAL 0

ROOM y
g,g,g,g,g,g,g,g,g,g,g,g,g,g,g,g
0,0,0,0,0,0,0,0,0,0,0,0,0,0,0,0
35,36,0,0,0,0,0,0,0,0,0,0,0,0,38,37
32,33,2w,2w,2w,2w,2w,2w,2w,2w,2w,2w,2w,2w,34,32
3b,2y,0,0,0,0,0,0,0,0,0,0,0,0,31,a
a,2y,0,0,0,0,0,0,0,0,0,0,0,0,31,3b
a,2y,0,0,0,0,0,0,0,0,0,0,0,0,31,a
a,39,0,0,0,0,0,0,0,0,0,0,0,0,31,3b
a,2y,0,0,0,0,0,0,0,0,0,0,0,0,31,a
a,2y,0,0,0,0,0,0,0,0,0,0,0,0,31,a
a,2y,0,0,0,0,0,0,0,0,0,0,0,0,3a,a
a,2y,0,0,0,0,0,0,0,0,0,0,0,0,31,a
a,39,0,0,0,0,0,0,0,0,0,0,0,0,31,a
a,2y,0,0,0,0,0,0,0,0,0,0,0,0,31,a
3b,2y,0,0,0,0,0,0,0,0,0,0,0,0,31,a
a,2y,0,0,0,0,0,0,0,0,0,0,0,0,3a,a
NAME bridge 2
ITM 3 11,2
ITM 4 8,2
ITM 5 3,2
END undefinej 2,2
END undefinek 3,1
END undefinek 4,1
END undefinek 5,1
END undefinek 6,1
END undefinek 7,1
END undefinek 8,1
END undefinek 9,1
END undefinek 10,1
END undefinek 11,1
END undefinek 12,1
END undefinek 13,1
PAL 0

ROOM z
a,a,a,a,a,a,a,a,a,a,a,a,a,a,a,a
a,a,a,a,a,a,a,a,a,a,a,a,a,a,a,a
a,a,a,a,a,a,a,a,a,a,a,a,a,a,a,a
a,a,a,a,a,a,a,a,a,a,a,a,a,a,a,a
a,a,a,a,a,a,a,a,a,a,a,a,a,a,a,a
a,a,a,a,a,a,a,a,a,a,g,a,g,a,a,a
g,g,g,g,t,r,r,u,g,t,0,v,0,u,g,g
0,0,0,0,0,0,0,0,0,0,0,10,11,12,13,14
0,0,0,0,0,0,0,0,0,0,0,16,17,18,19,1a
0,0,0,0,0,0,0,0,0,0,d,1c,1d,1e,1f,1g
0,0,0,0,0,0,0,d,0,0,0,1i,1j,1j,1j,1k
0,0,0,0,0,0,0,0,0,0,0,1o,1p,1p,1p,1q
0,0,0,0,0,0,0,0,0,0,q,1u,1v,1w,1x,1y
h,h,h,h,h,h,h,h,h,h,h,h,h,h,h,h
a,a,a,a,a,a,a,a,a,a,a,a,a,a,a,a
a,a,a,a,a,a,a,a,a,a,a,a,a,a,a,a
NAME 8a
EXT 3,12 11 3,12
END undefineg 4,11
PAL 0

TIL 10
00000000
00000000
00000000
00000000
00000000
00000001
00000011
00000111
NAME a1
WAL true

TIL 11
00000000
00000111
00011111
01111111
11111111
11111111
11111111
11111111
NAME a2
WAL true

TIL 12
00111111
11111111
11111111
11111111
11111111
11111111
11111111
11111111
NAME a3
WAL true

TIL 13
11111100
11111111
11111111
11111111
11111111
11111111
11111111
11111111
NAME a4
WAL true

TIL 14
00000000
11100000
11111100
11111110
11111111
11111111
11111111
11111111
NAME a5
WAL true

TIL 15
00000000
00000000
00000000
00000000
00000000
10000000
11000000
11100000
NAME a6
WAL true

TIL 16
00000111
00001111
00011111
00011111
00111111
00111111
01111111
01111111
NAME b1
WAL true

TIL 17
11111111
11111111
11111111
11111111
11111111
11111111
11111111
11111111
NAME b2
WAL true

TIL 18
11111111
11111111
11111111
11111111
11111111
11111111
11111111
11111111
NAME b3
WAL true

TIL 19
11111111
11111111
11111111
11111111
11111111
11111111
11111111
11111111
NAME b4
WAL true

TIL 20
01010101
00100010
00000000
01000000
00100000
00000010
00000100
00000000
NAME v loose rocks
WAL true

TIL 21
00000000
00000000
00000100
00001000
00000000
00100000
00010000
00000000
NAME falling
WAL false

TIL 22
11111111
11111111
11000011
11011011
11000011
11011011
11011011
11111111
NAME a

TIL 23
11111111
11111111
11000011
11011011
11000011
11011011
11000011
11111111
NAME 8

TIL 24
11111111
11111111
11000011
11011111
11011111
11011111
11000011
11111111

TIL 25
11111111
11111111
11111011
11111011
11000011
11011011
11000011
11111111
NAME d

TIL 26
11111111
11111111
11000011
11011011
11000011
11011111
11000011
11111111
NAME e

TIL 27
11111111
11111111
11000011
11011111
11000011
11011111
11011111
11111111
NAME f

TIL 28
11111111
11111111
11000011
11011011
11000011
11111011
11000011
11111111
NAME g

TIL 29
01001100
00100000
00000000
00000000
00000000
00000000
00000000
00000000
NAME pre fall
WAL false

TIL 30
00000000
01111111
01000000
01000000
01000000
01000000
01000000
01000000

TIL 31
01111111
01111111
01111111
01111111
01111111
01111111
01111111
01111111

TIL 32
10111111
10111111
00011000
11111111
11111111
11111111
11111111
11111111
NAME bridge edge
WAL true

TIL 33
10111111
10111111
00000000
11110000
11111000
11111110
11111110
11111110
NAME bridge edge right
WAL true

TIL 34
10111111
10111111
00000000
00011111
00111111
01111111
01111111
01111111
NAME bridge edge left
WAL true

TIL 35
00001000
00011100
00011010
00011010
00011001
00011001
00011000
00011000
NAME bridge post

TIL 36
00000000
00000000
00000000
00000000
00000000
00000000
10000000
10000000

TIL 37
00010000
00111000
01011000
01011000
10011000
10011000
00011000
00011000
NAME post 2

TIL 38
00000000
00000000
00000000
00000000
00000000
00000000
00000001
00000001

TIL 39
11111110
11011110
10111110
11111110
11111110
11111110
11111110
11011110

TIL a
11111111
11111111
11111111
11111111
11111111
11111111
11111111
11111111

TIL d
01011010
10000001
00000001
10000000
10000000
00000001
10000001
01001010
NAME small boulder
WAL true

TIL f
10000001
00000000
10100001
01001000
00000110
00000000
00000000
00000000
WAL true

TIL g
11111111
11111111
11111111
11111111
11111111
11111111
01000110
00000000
NAME ceiling

TIL h
01010110
11111111
11111111
11111111
11111111
11111111
11111111
11111111
NAME ground
WAL true

TIL i
11111111
11000011
11011011
11011011
11011011
11000011
11111111
11111111
NAME 0

TIL j
11111111
11101111
11101111
11101111
11101111
11101111
11111111
11111111
NAME 1

TIL k
11111111
11001111
10101111
11101111
11011111
10000111
11111111
11111111
NAME 2

TIL l
11111111
11111111
11001111
10110111
11101111
10110111
11001111
11111111
NAME 3

TIL m
11111111
11111111
11100111
11010111
10110111
10000011
11110111
11111111
NAME 4

TIL n
11111111
11000011
11011111
11000111
11111011
11011011
11000111
11111111
NAME 5

TIL p
00000000
00000000
00000000
00000000
00000010
01000100
00100000
00000000
NAME debris 1
WAL true

TIL q
00000000
00000000
00000000
00000000
00000000
00000000
00000000
01100110
NAME debris 2
WAL false

TIL r
01010101
00100010
00000000
00000000
00000000
00000000
00000000
00000000
NAME loose rocks
WAL true

TIL s
00000000
00000000
00000000
00000000
00000000
00000000
00000000
00000000
NAME not a wall
WAL false

TIL t
11111111
11111110
11111000
11110000
11000000
11000000
10000000
10000000
NAME alcove left

TIL u
11111111
11111111
11111111
00111111
00001111
00000110
00000000
00000000
NAME alcove right

TIL v
01001010
10000100
00000000
00000000
00000000
00000000
00000000
00000000
NAME lump

TIL w
00000000
00000000
00000000
00000000
00000000
00000000
00000000
00000000
NAME wall
WAL true

TIL x
00000000
00000000
00000000
00000000
00000000
00000000
00000000
00000000

TIL y
00000000
00000000
00000000
00000000
00000000
00000000
00000000
00000000

TIL z
00000000
00000000
00000000
00000000
00000000
00000000
00000000
00000000

TIL 1a
11111111
11111111
11111111
11111111
11111111
11111111
11111111
11111111
NAME b5
WAL true

TIL 1b
11100000
11110000
11111000
11111000
11111100
11111100
11111110
11111110
NAME b6
WAL true

TIL 1c
01111111
01111111
11111111
11111111
11111111
11111111
11111111
11111111
NAME c1
WAL true

TIL 1d
11111111
11111111
11111111
11111111
11111111
11111111
11111111
11111111
NAME c2
WAL true

TIL 1e
11111111
11111111
11111111
11111111
11111111
11111111
11111111
11111111
NAME c3
WAL true

TIL 1f
11111111
11111111
11111111
11111111
11111111
11111111
11111111
11111111
NAME c4
WAL true

TIL 1g
11111111
11111111
11111111
11111111
11111111
11111111
11111111
11111111
NAME c5
WAL true

TIL 1h
11111110
11111110
11111111
11111111
11111111
11111111
11111111
11111111
NAME c6
WAL true

TIL 1i
11111111
11111111
11111111
11111111
11111111
11111111
01111111
01111111
NAME d1
WAL true

TIL 1j
11111111
11111111
11111111
11111111
11111111
11111111
11111111
11111111
NAME d2
WAL true

TIL 1k
11111111
11111111
11111111
11111111
11111111
11111111
11111111
11111111
NAME d3
WAL true

TIL 1l
11111111
11111111
11111111
11111111
11111111
11111111
11111111
11111111
NAME d4
WAL true

TIL 1m
11111111
11111111
11111111
11111111
11111111
11111111
11111111
11111111
NAME d5
WAL true

TIL 1n
11111111
11111111
11111111
11111111
11111111
11111111
11111110
11111110
NAME d6
WAL true

TIL 1o
01111111
01111111
00111111
00111111
00011111
00011111
00001111
00000111
NAME e1
WAL true

TIL 1p
11111111
11111111
11111111
11111111
11111111
11111111
11111111
11111111
NAME e2
WAL true

TIL 1q
11111111
11111111
11111111
11111111
11111111
11111111
11111111
11111111
NAME e3
WAL true

TIL 1r
11111111
11111111
11111111
11111111
11111111
11111111
11111111
11111111
NAME e4
WAL true

TIL 1s
11111111
11111111
11111111
11111111
11111111
11111111
11111111
11111111
NAME e5
WAL true

TIL 1t
11111110
11111110
11111100
11111100
11111000
11111000
11110000
11100000
NAME e6
WAL true

TIL 1u
00000011
00000001
00000000
00000000
00000000
00000000
00000000
00000000
NAME f1
WAL true

TIL 1v
11111111
11111111
11111111
11111111
01111111
00011111
00000111
00000000
NAME f2
WAL true

TIL 1w
11111111
11111111
11111111
11111111
11111111
11111111
11111111
00111111
NAME f3
WAL true

TIL 1x
11111111
11111111
11111111
11111111
11111111
11111111
11111111
11111100
NAME f4
WAL true

TIL 1y
11111111
11111111
11111111
11111111
11111110
11111100
11100000
00000000
NAME f5
WAL true

TIL 1z
11100000
11000000
10000000
00000000
00000000
00000000
00000000
00000000
NAME f6
WAL true

TIL 2a
00000000
00000000
01000000
00100000
00000000
00000100
00001000
00000000
NAME falling 2
WAL false

TIL 2b
11111111
11111111
11000011
11011111
11000011
11011011
11000011
11111111
NAME 6

TIL 2c
11111111
11111111
11000011
11111011
11100001
11111011
11111011
11111111
NAME 7

TIL 2d
11110000
11110000
11110000
11110000
11100000
11000000
10000000
00000000
WAL true

TIL 2e
11111111
11100111
11000011
11000001
11000001
10000001
00000000
00000000
WAL true

TIL 2f
11111111
11111111
11111110
11111000
11110000
11110000
11110000
11110000
WAL true

TIL 2g
11111111
10001111
00000100
00000100
00000100
00000100
00000000
00000000
WAL true

TIL 2h
11111111
11111111
11111111
01111111
00111111
00011111
00000111
00000001
WAL true

TIL 2i
11111111
00000111
00000111
00000011
00000011
00000001
00000000
00000000
WAL true

TIL 2j
11111111
11110000
11100000
11100000
11000000
11000000
11000000
11000000
WAL true

TIL 2k
00000000
00000000
00000000
00000000
00000000
00000000
00000000
00000000

TIL 2l
11111111
11111111
11111111
11111111
11111111
11111111
11111111
11111111

TIL 2m
00000000
00000000
00000000
00000000
00000000
00000000
00000000
00000000
NAME wall
WAL true

TIL 2n
01000000
10001111
00011111
00111111
00111111
00111111
00111111
00111111

TIL 2o
10111111
00111111
01111111
01111111
01111111
01111111
01111111
01111111

TIL 2p
00000000
11111111
11111111
11111111
11111111
11111111
11111111
11111111

TIL 2q
00000001
11111100
11111110
11111110
11111110
11111110
11111111
11111111

TIL 2r
00000000
00000000
00000000
00000000
00000000
00000000
00000000
00000000

TIL 2s
11110001
11000100
10000010
00000000
00100000
10000000
00000000
00000000

TIL 2t
00000000
00000000
00000000
00001000
00100000
00000000
00010000
00000000

TIL 2u
00000000
00000000
00000000
00000000
00000000
00000001
10000010
01001010
WAL true

TIL 2v
00000000
01000000
00100000
00100000
01000100
01000100
00100010
00000000

TIL 2w
10111111
10111111
00000000
00000000
00000000
00000000
00000000
00000000
NAME bridge
WAL true

TIL 2x
00000000
11111110
00000010
00000010
00000010
00000010
00000010
00000010

TIL 2y
11111110
11111110
11111110
11111110
11111110
11111110
11111110
11111110

TIL 2z
00000000
11111111
00000000
00000000
00000000
00000000
00000000
00000000

TIL 3a
01111111
01111101
01111110
01111111
01111111
01111111
01011111
01111111

TIL 3b
11111111
11111111
11101111
11111111
11111111
11111111
11111110
11111111

TIL 3c
00000000
00000000
00000000
00000000
00000000
00000000
00000000
00000000

TIL 3d
11111111
11111111
11000011
11011111
11011111
11011111
11000011
11111111
NAME c

TIL 3e
11111111
11111111
11011111
11011111
11000011
11011011
11000011
11111111
NAME b

TIL 3f
11111111
11111111
11000111
11010111
11000111
11110111
11110111
11111111
NAME 9

TIL 3g
11110000
11000100
10000000
00000000
00000000
00000000
00100000
00000000

TIL 3h
00001111
00000011
00000001
00000000
00000010
10000000
00100000
00000000

TIL 3i
00000000
00000100
00001000
00000000
00000000
10000000
00000000
00000000

TIL 3j
00000000
00000000
00000000
00000000
00000000
00000000
00100000
00000000

TIL 3k
00000000
00000000
00000000
00000000
00100000
00001000
00000000
00000000

TIL 3l
00000000
00000000
00000000
00000000
00000000
00000000
00010000
00001000

TIL 3m
00000000
00000000
00000000
00001000
00010000
00000000
00000000
00000000
WAL false

TIL 3n
00000000
00000000
00000010
00000000
00100000
00010000
00000000
00000000
WAL true

TIL 3o
00000000
00000000
00000010
00000100
00000000
00000000
00000000
00000000
WAL true

TIL 3p
00000000
01000000
00000010
00000100
00000000
00000000
00000000
00000000

TIL 3q
00000000
00000000
00000000
00000000
00000000
00000000
00100000
00010000

TIL 3r
00000000
00000000
00000000
00000000
00000000
01000000
00100100
00100101
WAL false

TIL 3s
00000000
00000000
00000000
00000000
00000000
00000010
00100100
00100100

TIL 3t
00000000
00000000
00000000
00000000
00000000
01000000
00100100
00100100

TIL 3u
11111111
11111111
11111111
11111111
11111111
11111111
11111111
11111111

TIL 3v
00000000
00000000
00000000
00000000
00000000
00000000
00000000
00000000
WAL true

TIL 3w
11111111
11111111
11111111
11111111
11111111
11111111
11111111
11111111
WAL false

SPR 10
00000000
00000000
00000000
00000000
00000000
00000000
00000000
00000000
NAME bridge j2
DLG SPR_p
POS y 15,1

SPR 11
00000000
00000000
00000000
00000000
00000000
00000000
00000000
00000000
NAME bridge 1
DLG SPR_q
POS u 0,1

SPR 12
00000000
00000000
00000000
00000000
00000000
00000000
00000000
00000000
DLG SPR_r
POS u 1,1

SPR 13
00000000
00000000
00000000
00000000
00000000
00000000
00000000
00000000
DLG SPR_s
POS u 2,1

SPR 14
00000000
00000000
00000000
00000000
00000000
00000000
00000000
00000000
DLG SPR_t
POS u 3,1

SPR 15
00000000
00000000
00000000
00000000
00000000
00000000
00000000
00000000
DLG SPR_u
POS u 4,1

SPR 16
00000000
00000000
00000000
00000000
00000000
00000000
00000000
00000000
DLG SPR_v
POS u 5,1

SPR 17
00000000
00000000
00000000
00000000
00000000
00000000
00000000
00000000
DLG SPR_w
POS u 6,1

SPR 18
00000000
00000000
00000000
00000000
00000000
00000000
00000000
00000000
DLG SPR_x
POS u 7,1

SPR 19
00000000
00000000
00000000
00000000
00000000
00000000
00000000
00000000
DLG SPR_y
POS u 8,1

SPR A
00111100
01111110
00111100
00011000
01111110
00111100
00111100
00001100
>
00111100
01111110
00111100
00011000
01111110
00111100
00111100
00110000
POS t 5,14

SPR b
00000000
00000000
00000000
00000000
00000000
00000000
00000000
00000000
DLG SPR_2
POS 0 1,11

SPR c
00000000
00000000
00000000
00000000
00000000
00000000
00000000
00000000
DLG SPR_3
POS 0 2,11

SPR d
00000000
00000000
00000000
00000000
00000000
00000000
00000000
00000000
DLG SPR_4
POS 0 3,11

SPR e
00000000
00000000
00000000
00000000
00000000
00000000
00000000
00000000
DLG SPR_5
POS 0 4,11

SPR f
00000000
00000000
00000000
00000000
00000000
00000000
00000000
00000000
DLG SPR_6
POS 0 5,11

SPR g
00000000
00000000
00000000
00000000
00000000
00000000
00000000
00000000
DLG SPR_7
POS 0 6,11

SPR h
00000000
00000000
00000000
00000000
00000000
00000000
00000000
00000000
DLG SPR_8
POS 0 7,11

SPR i
00000000
00000000
00000000
00000000
00000000
00000000
00000000
00000000
DLG SPR_9
POS 0 8,11

SPR j
00000000
00000000
00000000
00000000
00000000
00000000
00000000
00000000
DLG SPR_a
POS 0 9,11

SPR k
00000000
00000000
00000000
00000000
00000000
00000000
00000000
00000000
DLG SPR_b
POS 0 12,9

SPR l
00000000
00000000
00000000
00000000
00000000
00000000
00000000
00000000
DLG SPR_1
POS 0 13,9

SPR m
00000000
00000000
00000000
00000000
00000000
00000000
00000000
00000000
DLG SPR_c
POS 1 13,9

SPR n
00000000
00000000
00000000
00000000
00000000
00000000
00000000
00000000
NAME One way
DLG SPR_0
POS w 4,12

SPR o
00000000
00000000
00000000
00000000
00000000
00000000
00000000
00000000
NAME one way 2
DLG SPR_d
POS x 2,12

SPR p
00000000
00000000
00000000
00000000
00000000
00000000
00000000
00000000
NAME one way 3
DLG SPR_e
POS q 7,12

SPR q
00000000
00000000
00000000
00000000
00000000
00000000
00000000
00000000
NAME one way 4
DLG SPR_f
POS p 4,12

SPR r
00000000
00000000
00000000
00000000
00000000
00000000
00000000
00000000
NAME oneway 5
DLG SPR_g
POS s 2,12

SPR s
00000000
00000000
00000000
00000000
00000000
00000000
00000000
00000000
NAME oneway 6
DLG SPR_h
POS s 10,12

SPR t
00000000
00000000
00000000
00000000
00000000
00000000
00000000
00000000
NAME one way 7
DLG SPR_i
POS s 7,12

SPR u
00000000
00000000
00000000
00000000
00000000
00000000
00000000
00000000
NAME one way 8
DLG SPR_j
POS z 5,12

SPR v
00000000
00000000
00000000
00000000
00000000
00000000
00000000
00000000
NAME one way 9
DLG SPR_k
POS 11 4,12

SPR w
00000000
00000000
00000000
00000000
00000000
00000000
00000000
00000000
NAME one way 10
DLG SPR_l
POS 11 4,12

SPR x
00000000
00000000
00000000
00000000
00000000
00000000
00000000
00000000
NAME one way 11
DLG SPR_m
POS 12 4,12

SPR y
00000000
00000000
00000000
00000000
00000000
00000000
00000000
00000000
NAME one way 12
DLG SPR_n
POS 12 2,12

SPR z
00000000
00000000
00000000
00000000
00000000
00000000
00000000
00000000
NAME bridge j
DLG SPR_o
POS y 14,1

SPR 1a
00000000
00000000
00000000
00000000
00000000
00000000
00000000
00000000
DLG SPR_z
POS u 9,1

SPR 1b
00000000
00000000
00000000
00000000
00000000
00000000
00000000
00000000
DLG SPR_10
POS u 10,1

SPR 1c
00000000
00000000
00000000
00000000
00000000
00000000
00000000
00000000
DLG SPR_11
POS u 11,1

SPR 1d
00000000
00000000
00000000
00000000
00000000
00000000
00000000
00000000
DLG SPR_12
POS u 12,1

SPR 1e
00000000
00000000
00000000
00000000
00000000
00000000
00000000
00000000
DLG SPR_13
POS u 13,1

SPR 1f
00000000
00000000
00000000
00000000
00000000
00000000
00000000
00000000
DLG SPR_14
POS u 14,1

SPR 1g
00000000
00000000
00000000
00000000
00000000
00000000
00000000
00000000
DLG SPR_15
POS u 15,1

SPR 1h
00000000
00000000
00000000
00000000
00000000
00000000
00000000
00000000
NAME boulder
DLG SPR_16
POS 1 14,10

SPR 1i
00000000
00000000
00000000
00000000
00000000
00000000
00000000
00000000
NAME one way 10
DLG SPR_17
POS 13 6,12

ITM 0
01111110
01101110
01111010
01110110
00111100
00011000
00011000
01111110
>
01101110
01011110
01110110
01111110
00111100
00011000
00011000
01111110
NAME artifact
DLG ITM_0

ITM 1
00000000
00000000
00000000
00000000
00000000
00000000
00000000
00000000
>
00000000
00000000
00000000
00000000
00000000
00000000
00000000
00000000
NAME creak2
DLG ITM_1

ITM 2
00000000
00000000
00000000
00000000
00000000
00000000
00000000
00000000
>
00000000
00000000
00000000
00000000
00000000
00000000
00000000
00000000
NAME creak 1
DLG ITM_2

ITM 3
00000000
00000000
00000000
00000000
00000000
00000000
00000000
00000000
>
00000000
00000000
00000000
00000000
00000000
00000000
00000000
00000000
NAME creak 3
DLG ITM_3

ITM 4
00000000
00000000
00000000
00000000
00000000
00000000
00000000
00000000
>
00000000
00000000
00000000
00000000
00000000
00000000
00000000
00000000
NAME creak 4
DLG ITM_4

ITM 5
00000000
00000000
00000000
00000000
00000000
00000000
00000000
00000000
>
00000000
00000000
00000000
00000000
00000000
00000000
00000000
00000000
NAME Final creak
DLG ITM_5

DLG ITM_0
* ominous rumbling *

DLG SPR_1
You decide not to jump unless absolutely necessary. You don't understand this place, and your actions might have unintended consequences.

DLG SPR_2
You decide not to jump unless absolutely necessary. You don't understand this place, and your actions might have unintended consequences.

DLG SPR_3
You decide not to jump unless absolutely necessary. You don't understand this place, and your actions might have unintended consequences.

DLG SPR_4
You decide not to jump unless absolutely necessary. You don't understand this place, and your actions might have unintended consequences.

DLG SPR_5
You decide not to jump unless absolutely necessary. You don't understand this place, and your actions might have unintended consequences.

DLG SPR_6
You decide not to jump unless absolutely necessary. You don't understand this place, and your actions might have unintended consequences.

DLG SPR_7
You decide not to jump unless absolutely necessary. You don't understand this place, and your actions might have unintended consequences.

DLG SPR_8
You decide not to jump unless absolutely necessary. You don't understand this place, and your actions might have unintended consequences.

DLG SPR_9
You decide not to jump unless absolutely necessary. You don't understand this place, and your actions might have unintended consequences.

DLG SPR_a
You decide not to jump unless absolutely necessary. You don't understand this place, and your actions might have unintended consequences.

DLG SPR_b
You decide not to jump unless absolutely necessary. You don't understand this place, and your actions might have unintended consequences.

DLG SPR_c
You try to jump, but the stolen artifact is heavy. You'd better not jump unless absolutely necessary.

DLG ITM_1
*creeeeeak*

DLG ITM_2
*creeak*

DLG SPR_0
You look over your shoulder, but the immense boulder is still rolling towards you. There's no going back now!

DLG SPR_d
You look over your shoulder, but the immense boulder is still rolling towards you. There's no going back now!

DLG SPR_e
You look over your shoulder, but the immense boulder is still rolling towards you. There's no going back now!

DLG SPR_f
You look over your shoulder, but the immense boulder is still rolling towards you. There's no going back now!

DLG SPR_g
You look over your shoulder, but the immense boulder is still rolling towards you. There's no going back now!

DLG SPR_h
You look over your shoulder, but the immense boulder is still rolling towards you. There's no going back now!

DLG SPR_i
You look over your shoulder, but the immense boulder is still rolling towards you. There's no going back now!

DLG SPR_j
You look over your shoulder, but the immense boulder is still rolling towards you. There's no going back now!

DLG SPR_k
You look over your shoulder, but the immense boulder is still rolling towards you. There's no going back now!

DLG SPR_l
You look over your shoulder, but the immense boulder is still rolling towards you. There's no going back now!

DLG SPR_m
You look over your shoulder, but the immense boulder is still rolling towards you. There's no going back now!

DLG SPR_n
You look over your shoulder, but the immense boulder is still rolling towards you. There's no going back now!

DLG ITM_3
*creak*

DLG ITM_4
*creeaak!!*

DLG SPR_o
At the last moment you notice how old and worn the bridge is, and decide against jumping. It doesn't look safe.

DLG SPR_p
At the last moment you notice how old and worn the bridge is, and decide against jumping. It doesn't look safe.

DLG ITM_5
*creeeeeak!!!*

DLG SPR_q
At the last moment you notice how old and worn the bridge is, and decide against jumping. It doesn't look safe.

DLG SPR_r
At the last moment you notice how old and worn the bridge is, and decide against jumping. It doesn't look safe.

DLG SPR_s
At the last moment you notice how old and worn the bridge is, and decide against jumping. It doesn't look safe.

DLG SPR_t
At the last moment you notice how old and worn the bridge is, and decide against jumping. It doesn't look safe.

DLG SPR_u
At the last moment you notice how old and worn the bridge is, and decide against jumping. It doesn't look safe.

DLG SPR_v
At the last moment you notice how old and worn the bridge is, and decide against jumping. It doesn't look safe.

DLG SPR_w
At the last moment you notice how old and worn the bridge is, and decide against jumping. It doesn't look safe.

DLG SPR_x
At the last moment you notice how old and worn the bridge is, and decide against jumping. It doesn't look safe.

DLG SPR_y
At the last moment you notice how old and worn the bridge is, and decide against jumping. It doesn't look safe.

DLG SPR_z
At the last moment you notice how old and worn the bridge is, and decide against jumping. It doesn't look safe.

DLG SPR_10
At the last moment you notice how old and worn the bridge is, and decide against jumping. It doesn't look safe.

DLG SPR_11
At the last moment you notice how old and worn the bridge is, and decide against jumping. It doesn't look safe.

DLG SPR_12
At the last moment you notice how old and worn the bridge is, and decide against jumping. It doesn't look safe.

DLG SPR_13
At the last moment you notice how old and worn the bridge is, and decide against jumping. It doesn't look safe.

DLG SPR_14
At the last moment you notice how old and worn the bridge is, and decide against jumping. It doesn't look safe.

DLG SPR_15
At the last moment you notice how old and worn the bridge is, and decide against jumping. It doesn't look safe.

DLG SPR_16
Looking deeper inside the cave, you see an immense boulder rolling towards you.

DLG SPR_17
You look over your shoulder, but the immense boulder is still rolling towards you. There's no going back now!

END 0
You replace the artifact that you were trying to steal, and the rumbling stops. With immediate disaster averted you are able to escape the cave. Upon seeing sunlight again you thank your lucky stars, and resolve ...

END undefined
You return the artifact and escape safely. However your near-death experience prompts deep soul-searching. You realise that your career until this point amounts to nothing more than a series of glorified thefts justified by problematic imperialist assumptions. You retrain as a landscape gardener.

END undefinee
The last thing you hear is a sickening crunch, as the heavy stone collides with your skull. You are knocked unconscious instantly. (And you die.)

END undefinef
You are crushed beneath the immense boulder. (And you die.)

END undefineg
You leap into the air with all your might, but the stolen artifact throws you off balance. Your ankle breaks as you land. You are trapped in the cave. (And you die).

END undefineh
Are you sure you want to jump on this bridge? it doesn't look very safe...

END undefinei


END undefinej
So close! But the weight of the stolen artifact is too much, and the bridge collapses. You fall into the cavern below. (And you die).

END undefinek
For some reason you jump on the already-rickety bridge. The added weight of the stolen artifact is too much for the fragile planks to bear. They splinter under your feet as you land, and you plunge into the cavern below. (And you die.)

VAR a
42


