
Self-Destruct.

# BITSY VERSION 4.6

! ROOM_FORMAT 1

PAL 0
69,63,86
255,255,255
255,255,255

ROOM 0
0,0,k,k,k,k,k,k,k,k,k,k,k,k,0,0
0,a,g,i,i,i,i,i,i,i,i,i,i,h,0,0
0,a,b,0,0,0,0,0,0,0,m,0,0,j,a,0
0,a,b,0,0,0,0,a,0,0,0,0,0,c,0,0
0,0,j,0,g,i,i,i,i,i,h,0,0,c,0,0
a,a,b,0,b,0,0,0,0,0,j,0,a,c,0,0
0,0,b,0,0,0,0,0,0,0,c,0,0,c,0,0
0,0,b,0,b,0,0,0,0,0,c,0,a,c,0,0
0,0,b,0,e,d,d,0,d,d,f,0,0,c,0,0
0,0,b,0,0,0,0,0,0,0,0,0,0,c,0,0
0,0,b,0,0,0,0,0,a,0,0,0,0,c,0,0
0,0,e,d,d,d,d,d,d,d,d,d,j,f,0,0
0,0,b,0,0,0,0,0,0,0,0,0,0,c,0,0
0,0,b,0,l,0,l,0,l,0,l,0,l,c,0,0
0,a,b,a,0,0,0,0,0,0,0,0,a,c,a,0
0,0,j,0,l,0,l,0,l,0,l,0,l,c,0,0
ITM 0 12,9
ITM 1 5,7
EXT 10,2 1 8,6
END undefined 11,2
PAL 0

ROOM 1
0,0,0,0,0,0,0,0,0,0,0,0,0,0,0,0
0,a,a,a,a,a,a,a,a,a,a,a,a,a,a,0
0,a,g,i,i,h,i,i,i,i,g,n,i,h,a,0
0,a,b,0,0,c,0,0,0,0,b,0,0,c,a,0
0,a,b,0,0,c,k,0,0,0,b,0,k,c,a,0
0,a,e,d,0,c,0,0,0,0,b,0,d,f,a,0
0,a,b,0,0,c,0,0,0,0,b,0,0,c,a,0
0,a,b,0,0,0,0,0,0,0,0,0,k,c,a,0
0,a,b,0,0,c,0,k,0,0,b,0,0,c,a,0
0,a,b,0,0,c,0,0,0,0,b,0,0,c,a,0
0,a,g,i,0,c,0,0,0,0,b,0,i,h,a,0
0,a,b,k,0,c,0,0,0,0,j,0,0,c,a,0
0,a,b,0,0,c,0,0,0,0,b,0,0,c,a,0
0,a,e,l,d,f,d,l,d,d,e,l,d,f,a,0
0,a,a,a,a,a,a,a,a,a,a,a,a,a,a,0
0,0,0,0,0,0,0,0,0,0,0,0,0,0,0,0
ITM 2 3,7
EXT 11,2 2 7,3
PAL 0

ROOM 2
0,0,0,0,0,0,0,0,0,0,0,0,0,0,0,0
0,a,0,0,a,a,0,a,a,a,a,a,a,a,a,0
0,a,g,i,i,i,h,i,i,g,i,i,n,h,a,0
0,0,b,0,0,0,c,0,0,b,k,0,0,c,a,0
0,a,b,0,0,0,c,0,0,b,0,0,0,c,a,0
0,0,b,k,0,0,0,0,0,0,0,0,0,c,a,0
0,0,e,d,d,j,f,0,0,e,d,d,d,f,a,0
0,0,b,0,0,0,0,0,0,0,0,0,k,c,a,0
0,0,g,i,i,i,h,0,0,g,i,i,i,h,a,0
0,0,b,k,0,0,c,0,0,b,0,0,0,c,a,0
0,a,b,0,0,0,0,0,0,0,0,0,0,j,a,0
0,0,b,0,0,0,c,0,0,b,k,0,0,c,a,0
0,0,b,0,0,0,c,0,0,b,0,0,0,c,a,0
0,0,e,l,d,l,f,d,d,e,l,d,l,f,a,0
0,a,a,a,a,a,a,a,a,a,a,a,a,a,a,0
0,0,0,0,0,0,0,0,0,0,0,0,0,0,0,0
EXT 12,2 4 4,4
PAL 0

ROOM 4
0,0,0,0,0,0,0,0,0,0,0,0,0,0,0,0
0,0,0,0,0,0,0,0,0,0,0,0,0,0,0,0
0,0,0,0,0,0,0,0,0,0,0,0,0,0,0,0
0,0,0,g,i,i,i,i,j,i,i,i,h,0,0,0
0,0,0,b,0,0,0,0,0,0,0,k,c,0,0,0
0,0,0,b,0,0,0,0,0,k,0,0,c,0,0,0
0,0,0,b,k,0,0,0,0,0,0,0,c,0,0,0
0,0,0,b,0,0,k,0,0,0,0,k,c,0,0,0
0,0,0,j,0,0,0,0,0,0,0,0,c,0,0,0
0,0,0,b,k,0,h,0,0,g,0,0,c,0,0,0
0,0,0,b,0,0,c,0,0,b,0,0,j,0,0,0
0,0,0,b,0,k,c,0,0,b,0,0,c,0,0,0
0,0,0,e,d,d,f,o,p,e,d,d,f,0,0,0
0,0,0,0,0,0,0,0,0,0,0,0,0,0,0,0
i,i,i,i,i,i,i,i,i,i,i,i,i,i,i,i
d,d,d,d,d,d,d,d,d,d,d,d,d,d,d,d
END undefined 7,12
END undefined 8,12
PAL 0

TIL a
00000000
00000000
00000000
00000000
00000000
00000000
00000000
00000000

TIL b
01010000
01010000
01010000
01010000
01010000
01010000
01010000
01010000
WAL true

TIL c
00001010
00001010
00001010
00001010
00001010
00001010
00001010
00001010
WAL true

TIL d
00000000
00000000
00000000
00000000
11111111
00000000
11111111
00000000
WAL true

TIL e
01010000
01010000
01010000
01010000
01011111
01000000
01111111
00000000
WAL true

TIL f
00001010
00001010
00001010
00001010
11111010
00000010
11111110
00000000
WAL true

TIL g
00000000
01111111
01000000
01011111
01010000
01010000
01010000
01010000
WAL true

TIL h
00000000
11111110
00000010
11111010
00001010
00001010
00001010
00001010
WAL true

TIL i
00000000
11111111
00000000
11111111
00000000
00000000
00000000
00000000
WAL true

TIL j
10101010
01010101
10000010
01000001
10000010
01000001
10101010
01010101
>
00000000
00000000
00101000
00010100
00101000
00010100
00000000
00000000
WAL true

TIL k
00000000
00000000
01010100
00010010
10001000
01010101
11111111
11111111

TIL l
01111110
10010001
10101001
11010001
10100001
10000001
10000001
01111110

TIL m
01111110
10100101
10111101
10100101
10111101
10100101
10111101
01111110
>
01111110
10111101
10100101
10111101
10100101
10111101
10100101
01111110

TIL n
01111110
01000010
01011010
01011010
01000010
01001010
01000010
01000010
>
01111110
01000010
01000010
01000010
01000010
01000010
01000010
01000010

TIL o
11111111
00000000
01101001
01000110
01100110
01000110
01101001
11111111

TIL p
11111111
00000000
01011110
01001100
01001100
01001100
01001100
11111111

SPR A
00111100
00100100
00100100
00111100
01011010
00011000
00100100
01100110
>
00000000
00111100
00111100
00111100
00111100
01011010
00100100
01100110
POS 0 3,2

SPR a
11111111
10000001
10101001
10010101
10000001
11111111
01000010
01000010
>
11111111
10000001
10010101
10101001
10000001
11111111
01000010
01000010
DLG SPR_0
POS 0 7,10

SPR d
01111110
01000010
01011010
01011010
01000010
00111100
01101010
01010110
>
01111110
01100110
01011010
01011010
01100110
00111100
01010110
01101010
DLG SPR_3
POS 0 7,4

SPR e
01111110
10000001
10101001
10010101
10000001
01100110
00011000
01111110
>
01111110
10000001
10010101
10101001
10000001
01100110
00011000
01111110
DLG SPR_4
POS 1 3,3

SPR f
00000000
01111110
01000010
01011010
01000010
01011010
01111110
00000000
>
00000000
01111110
01011010
01000010
01011010
01000010
01111110
00000000
DLG SPR_1
POS 4 10,11

SPR g
00001000
00011100
00111000
01110000
11100000
01110000
00111000
00010000
DLG SPR_5
POS 2 12,5

SPR h
00111100
01000010
01010010
01001010
01000010
01011010
01000010
00111100

ITM 0
00100000
01010000
00010000
00010000
00010000
00010000
00010100
00001000
NAME crowbar
DLG ITM_0

ITM 1
00000000
00000000
00100100
01111110
01010110
01101010
01111110
00000000
>
00100100
00010010
00100100
01111110
01010110
01101010
01111110
00000000
NAME battery
DLG ITM_1

ITM 2
00001100
00001110
00000111
00001011
00010000
00100000
01000000
10000000
NAME sledgehammer
DLG ITM_2

DLG SPR_0
"""
***24 HOURS UNTIL DESTRUCTION***
   ***EVACUATE IMMEDIATELY***
"""

DLG SPR_2
"""
/
/
/
/
/
/

"""

DLG SPR_3
"""
{
  - {item "battery"} == 1 ?
    //////////////////////
    /       *ERROR*      /
    /  *HARDWARE DAMAGE* /
    //////////////////////
  - else ?
    ///////////////
    / FATAL ERROR /
    /  NO POWER.  /
    ///////////////
}
"""

DLG ITM_0
You found a crowbar on the ground.

DLG ITM_1
You found a battery on the ground.

DLG SPR_4
"""
////////////////////////////
/       *WARNING*          /
/   *EXIT IMMEDIATELY*     /
/ *BUILDING DESTROYED:12H* /
/ {shk}*SYS_ERR;'#PO];][#;LP{shk}    /
////////////////////////////
"""

DLG ITM_2
You found a sledgehammer.

DLG SPR_1
To anyone still left in the building, the outside world is no better, society is in ruins. Good Luck.

DLG SPR_5
There is pistol on the floor. The magazine is empty. Must have been fired a while ago.

END 0


END undefined
Congratulations! You escaped.

VAR power
0


