Hot Pursuit: John

# BITSY VERSION 5.1

! ROOM_FORMAT 1

PAL 0
235,163,192
121,40,122
255,255,255

ROOM 0
a,a,a,a,a,a,a,a,a,a,a,a,a,a,a,a
a,0,0,0,0,0,0,0,0,0,0,0,0,0,0,a
a,0,0,0,0,0,0,0,0,0,0,0,0,0,0,a
a,0,0,0,0,0,0,0,0,0,0,0,0,0,0,a
a,0,0,0,0,0,0,0,0,0,0,0,0,0,0,a
a,0,0,0,0,0,0,0,0,0,0,0,0,0,0,a
a,0,0,0,0,0,0,0,0,0,0,0,0,0,0,a
a,0,0,0,0,0,0,0,0,0,0,0,0,0,0,a
a,0,0,0,0,0,0,0,0,0,0,0,0,0,0,a
a,0,0,0,0,0,0,0,0,0,0,0,0,0,0,a
a,0,0,0,0,0,0,0,0,0,0,0,0,0,0,a
a,0,0,0,0,0,0,0,0,0,0,0,0,0,0,a
a,0,0,0,0,0,0,0,0,0,0,0,0,0,0,a
a,0,0,0,0,0,0,0,0,0,0,0,0,0,0,a
a,0,0,0,0,0,0,0,0,0,0,0,0,0,0,a
a,a,a,a,a,a,a,a,a,a,a,a,d,a,a,a
EXT 12,15 1 1,0
PAL 0

ROOM 1
a,b,a,a,a,a,a,a,a,a,a,a,a,a,a,a
a,b,a,b,b,b,a,a,0,0,0,a,0,0,0,a
a,b,a,b,a,a,a,a,0,a,0,0,0,a,0,a
a,b,b,b,a,b,b,a,0,a,a,a,a,a,0,a
a,b,a,a,a,a,b,a,0,a,0,0,0,a,0,d
a,b,b,b,b,b,b,a,0,0,0,a,a,a,a,a
a,b,a,a,a,a,a,a,a,a,0,a,0,0,0,a
a,b,b,b,b,b,b,a,0,0,0,a,0,a,0,a
a,a,a,a,a,a,b,a,0,a,a,a,0,a,a,a
a,b,b,b,b,b,b,a,0,0,0,0,0,0,0,a
a,b,a,b,a,a,a,a,a,a,a,a,a,a,0,a
a,b,a,b,a,a,b,b,0,0,0,a,0,0,0,a
a,b,a,b,a,a,b,a,a,a,0,a,0,a,0,a
a,b,a,a,a,a,b,a,0,a,0,a,a,a,0,a
a,b,b,b,b,b,b,a,0,0,0,0,0,0,0,a
a,a,a,a,a,a,a,a,a,a,a,a,a,a,a,a
EXT 15,4 2 0,0
PAL 0

ROOM 2
0,0,0,0,0,0,0,0,0,0,0,0,0,0,0,0
0,0,0,0,0,0,0,0,0,0,0,0,0,0,0,0
0,0,0,0,0,0,0,0,0,0,0,0,0,0,0,0
0,0,0,0,0,0,0,0,0,0,0,0,0,0,0,0
0,0,0,0,0,0,0,0,0,0,0,0,0,0,0,0
0,0,0,0,0,0,0,0,0,0,0,0,0,0,0,0
0,0,0,0,0,0,0,0,0,0,0,0,0,0,0,0
0,0,0,0,0,0,0,0,0,0,0,0,0,0,0,0
0,0,0,0,0,0,0,0,0,0,0,0,0,0,0,0
0,0,0,0,0,0,0,0,0,0,0,0,0,0,0,0
0,0,0,0,0,0,0,0,0,0,0,0,0,0,0,0
0,0,0,0,0,0,0,0,0,0,0,0,0,0,0,0
0,0,0,0,0,0,0,0,0,0,0,0,0,0,0,0
0,0,0,0,0,0,0,0,0,0,0,0,0,0,0,0
0,0,0,0,0,0,0,0,0,0,0,0,0,0,0,0
0,0,0,0,0,0,0,0,0,0,0,0,0,0,0,0
ITM 0 15,10
EXT 0,0 3 1,15
PAL 0

ROOM 3
0,0,0,0,0,0,0,0,0,0,0,0,0,0,0,0
0,0,0,0,0,0,0,0,0,0,0,0,0,0,0,0
0,0,0,0,0,0,0,0,0,0,0,0,0,0,0,0
0,0,0,0,0,0,0,0,0,0,0,0,0,0,0,0
0,0,0,0,0,0,0,0,0,0,0,0,0,0,0,0
0,0,0,0,0,0,0,0,0,0,0,0,0,0,0,0
0,0,0,0,0,0,0,0,0,0,0,0,0,0,0,0
0,0,0,0,0,0,0,d,0,0,0,0,0,0,0,0
0,0,0,0,0,0,0,0,0,0,0,0,0,0,0,0
0,0,0,0,0,0,0,0,0,0,0,0,0,0,0,0
0,0,0,0,0,0,0,0,0,0,0,0,0,0,0,0
0,0,0,0,0,0,0,0,0,0,0,0,0,0,0,0
0,0,0,0,0,0,0,0,0,0,0,0,0,0,0,0
0,0,0,0,0,0,0,0,0,0,0,0,0,0,0,0
0,0,0,0,0,0,0,0,0,0,0,0,0,0,0,0
0,0,0,0,0,0,0,0,0,0,0,0,0,0,0,0
END undefined 7,7
PAL 0

TIL a
11111111
11111111
11000011
11011011
11011011
11000011
11111111
11111111
NAME wall01
WAL true

TIL b
11111111
11111111
11000011
11011011
11011011
11000011
11111111
11111111
NAME faketile

TIL c
00011000
00011000
00011000
00011000
11111111
01111110
00111100
00011000
NAME arrowdown

TIL d
00000000
00000000
00111100
00111100
00101100
00111100
00111100
00111100
NAME door

SPR A
00101111
00001111
00011100
10011100
01111110
01111100
00111100
00100100
>
00001111
01001111
00011100
10011100
01111110
01111100
00111100
00100100
POS 0 3,3

SPR a
11110000
11110000
00110000
00110000
00111100
00111110
00010101
00010100
>
00000000
11110000
11110000
00110000
00111100
00111110
00010101
00010100
NAME dino01
DLG SPR_0
POS 0 8,12

SPR b
01110000
01110000
00010000
00010000
00111000
00011101
00011110
00001000
>
01110000
01110000
00010000
00010000
00111000
00011100
00011110
00001001
NAME dino02
DLG SPR_2
POS 2 7,3

SPR c
00001000
00100010
10110100
00010101
01011111
01111111
00111110
00011100
>
00000010
01001000
00100000
00110100
10010101
01011111
00111110
00011100
NAME fire01
POS 2 9,6

SPR d
00000000
00100001
01001000
00101010
10110111
01111111
00111110
00011100
>
00000010
01001000
00100000
00110100
10010101
01011111
00111110
00011100
NAME fire02
POS 2 3,12

ITM 0
00000000
00000000
00000000
00000000
00000000
00000000
00000000
00000000
NAME apple
DLG ITM_0

DLG SPR_0
"""
{cycle
  - You and Gilbert need to work together!
  - {wvy}It's getting hot in here...{wvy}
}
"""

DLG SPR_1
Show me an apple

DLG ITM_0
You found a tasty apple.

DLG SPR_2
"""
{
  - {item "apple"} == 0 ?
    I've lost my apple...
  - {item "apple"} == 1 ?
    {shk}Go back to where you came from, thief!{shk}
}
"""

END 0


END undefined
You reached the end!

VAR a
42

