
Shards of glass

# BITSY VERSION 4.5

! ROOM_FORMAT 1

PAL 0
46,56,66
224,163,70
255,255,162

PAL 1
66,37,37
214,96,72
232,11,4

PAL 2
46,56,66
130,168,201
213,241,254

ROOM 0
0,0,0,0,0,l,0,0,0,0,0,0,l,0,0,0
0,m,0,0,0,0,0,0,0,0,n,0,0,0,0,0
0,0,n,0,0,0,0,0,l,0,0,0,0,0,0,0
l,0,0,0,0,0,0,0,0,0,0,0,0,0,l,0
0,0,0,0,0,0,k,0,0,0,0,0,l,0,0,n
0,0,k,0,b,0,j,0,k,0,0,k,0,0,0,0
d,k,j,d,g,b,g,b,j,0,d,j,0,0,0,0
k,j,0,b,0,0,0,g,f,b,0,0,0,d,k,0
j,b,d,f,0,0,0,0,0,0,d,b,k,0,j,0
0,0,d,0,g,0,0,0,0,g,0,d,j,0,0,d
0,d,0,b,0,0,0,0,0,0,f,b,0,b,0,0
b,0,f,0,0,0,0,0,0,0,0,f,b,0,b,0
0,d,g,0,g,0,0,0,0,0,0,g,d,0,0,0
d,b,0,f,0,0,0,0,0,0,0,0,0,d,b,0
b,d,g,0,0,0,0,h,0,0,0,d,g,d,0,d
0,0,d,0,b,0,0,i,h,0,0,0,b,0,d,0
EXT 7,15 1 2,0
EXT 8,15 1 3,0
PAL 0

ROOM 1
0,0,o,q,0,d,0,b,0,0,0,0,0,0,0,0
0,0,i,0,0,b,0,0,b,0,0,0,0,0,k,0
0,0,o,0,g,0,d,k,0,0,d,0,0,0,j,0
0,0,0,i,h,0,0,j,0,0,0,0,b,0,0,0
b,0,0,i,q,f,0,0,b,0,0,0,0,0,0,d
b,0,0,o,h,0,0,k,0,0,14,13,0,d,0,0
0,b,f,0,i,q,0,j,k,0,x,12,0,0,0,0
0,0,d,0,0,0,f,0,j,v,w,11,10,0,d,0
0,d,0,0,0,0,0,0,0,u,18,16,z,0,0,0
b,0,0,0,0,g,0,0,g,t,17,15,y,b,k,0
0,b,g,0,0,0,0,0,0,0,g,0,0,0,j,0
d,0,d,0,0,0,0,0,0,h,0,0,0,g,0,b
0,b,b,0,0,0,0,0,0,o,i,h,0,0,0,0
0,0,0,d,0,0,g,d,0,0,0,o,i,h,0,i
0,0,b,0,b,d,d,0,b,d,g,0,o,p,p,q
0,0,0,0,0,b,0,0,0,0,d,0,0,g,0,0
ITM 0 6,10
EXT 2,0 0 7,15
EXT 3,0 0 8,15
EXT 15,14 2 0,11
EXT 15,13 2 0,10
PAL 0

ROOM 2
0,0,0,0,0,0,1k,0,0,0,0,0,0,0,0,0
k,0,0,0,0,0,0,0,0,0,0,0,0,1j,0,0
j,0,0,0,1j,0,0,0,0,0,0,0,0,0,0,0
0,b,0,0,0,0,0,0,1k,0,0,0,0,0,0,d
d,b,0,d,0,1f,1f,1f,1f,1f,1f,1f,1f,d,b,0
0,d,b,0,1e,0,0,0,0,0,0,f,0,1n,d,d
f,0,d,1e,0,0,0,0,0,0,0,0,0,0,1n,b
0,0,0,0,0,0,0,f,0,0,0,0,0,0,0,0
0,0,0,0,0,0,0,0,g,0,0,0,0,0,i,h
0,i,0,0,19,1d,1d,1d,1d,1d,1d,1d,1d,1l,g,o
h,q,0,19,1a,1g,0,1h,0,0,1h,0,1m,1a,1l,0
q,0,0,1a,1b,0,0,1i,0,0,1i,0,1p,1b,1a,0
0,0,b,1b,1c,0,0,0,1k,0,0,0,0,1o,1o,f
0,0,g,1b,0,0,0,0,0,1j,0,0,0,1p,1o,b
g,0,1b,1c,0,0,0,1j,0,0,0,0,0,0,1p,1o
0,1b,1c,0,1k,0,0,0,0,0,0,1j,0,0,0,1o
ITM 1 6,6
ITM 2 15,11
EXT 0,11 1 15,14
EXT 0,10 1 15,13
EXT 15,8 3 0,9
EXT 15,9 3 0,10
PAL 0

ROOM 3
d,0,0,0,0,0,j,d,0,b,0,0,0,i,q,0
0,k,0,d,0,0,0,0,d,0,0,0,0,p,0,0
0,j,0,0,0,0,d,b,0,0,0,0,0,0,0,0
0,0,0,0,d,d,0,0,d,0,0,0,f,0,0,k
b,0,b,0,b,b,k,b,0,0,0,0,0,0,d,j
0,b,d,0,d,0,j,0,0,0,0,0,0,0,k,0
b,0,0,b,0,0,0,0,0,0,0,g,0,0,j,0
0,0,0,0,0,0,0,0,0,f,0,0,0,d,0,b
0,0,0,0,0,f,0,0,0,0,0,0,0,0,b,0
h,h,0,0,g,0,f,0,0,0,0,0,0,0,0,d
q,o,h,0,h,0,0,0,0,d,0,0,k,d,0,b
g,0,o,o,p,0,0,0,0,0,0,0,j,d,b,0
0,0,0,0,0,g,0,k,0,0,0,0,b,0,0,d
0,0,0,0,0,0,k,j,0,b,0,d,0,0,d,b
d,d,0,0,k,0,j,0,d,0,b,0,d,0,0,0
0,g,d,0,j,0,d,0,0,0,0,b,0,0,0,d
ITM 3 7,8
EXT 0,9 2 15,8
EXT 0,10 2 15,9
EXT 13,0 4 4,15
EXT 14,0 4 5,15
PAL 0

ROOM 4
0,0,0,0,0,0,0,0,0,0,l,0,0,n,0,0
0,m,0,l,0,0,0,0,0,0,0,0,0,0,l,0
l,0,0,0,0,0,0,0,l,0,0,0,0,0,0,0
0,0,n,0,0,l,0,0,0,0,0,0,0,0,0,l
0,l,0,0,0,0,0,0,n,0,0,0,k,0,0,0
0,0,0,0,0,0,0,d,k,0,0,d,j,0,0,0
0,0,0,0,k,b,0,0,j,d,b,0,d,b,0,k
0,d,0,d,j,0,b,b,0,0,0,b,0,d,0,j
0,0,b,0,b,0,0,d,0,k,0,0,0,0,b,0
d,d,0,d,0,d,0,0,b,j,0,0,0,0,0,b
0,0,b,0,0,0,0,0,0,0,0,0,0,0,0,d
0,d,0,0,0,0,0,g,0,d,0,0,0,k,0,d
d,b,d,0,0,0,f,0,0,d,0,0,0,j,0,0
d,0,0,0,f,0,0,0,0,0,b,0,0,0,0,d
b,d,0,0,0,i,0,0,0,0,d,d,0,0,b,0
d,0,0,g,i,h,0,d,0,d,b,0,b,b,0,0
EXT 4,15 3 13,0
EXT 5,15 3 14,0
EXT 8,10 5 8,10
PAL 0

ROOM 5
0,0,0,0,0,0,0,0,0,0,l,0,0,n,0,0
0,m,0,l,0,0,0,0,0,0,0,0,0,0,l,0
l,0,0,0,0,0,0,0,l,0,0,0,0,0,0,0
0,0,n,0,0,l,0,0,0,0,0,0,0,0,0,l
0,l,0,0,0,0,0,0,n,0,0,0,k,0,0,0
0,0,0,0,0,0,0,d,k,0,0,d,j,0,0,0
0,0,0,0,k,b,0,0,j,d,b,0,d,b,0,k
0,d,0,d,j,0,b,b,0,0,0,b,0,d,0,j
0,0,b,0,b,0,0,d,0,k,0,0,0,0,b,0
d,d,0,d,0,d,0,0,b,j,0,0,0,0,0,b
0,0,b,0,0,0,0,0,0,0,0,0,0,0,0,d
0,d,0,0,0,0,0,g,0,d,0,0,0,k,0,d
d,b,d,0,0,0,f,0,0,d,0,0,0,j,0,0
d,0,0,0,f,0,0,0,0,0,b,0,0,0,0,d
b,d,0,0,0,i,0,0,0,0,d,d,0,0,b,0
d,0,0,g,i,h,0,d,0,d,b,0,b,b,0,0
EXT 8,11 4 8,11
EXT 7,10 4 7,10
EXT 11,12 6 11,12
EXT 12,11 6 12,11
EXT 12,13 6 12,13
PAL 1

ROOM 6
0,0,0,0,0,0,0,0,0,0,l,0,0,n,0,0
0,m,0,l,0,0,0,0,0,0,0,0,0,0,l,0
l,0,0,0,0,0,0,0,l,0,0,0,0,0,0,0
0,0,n,0,0,l,0,0,0,0,0,0,0,0,0,l
0,l,0,0,0,0,0,0,n,0,0,0,k,0,0,0
0,0,0,0,0,0,0,d,k,0,0,d,j,0,0,0
0,0,0,0,k,b,0,0,j,d,b,0,d,b,0,k
0,d,0,d,j,0,b,b,0,0,0,b,0,d,0,j
0,0,b,0,b,0,0,d,0,k,0,0,0,0,b,0
d,d,0,d,0,d,0,0,b,j,0,0,0,0,0,b
0,0,b,0,0,0,0,0,0,0,0,0,0,0,0,d
0,d,0,0,0,0,0,g,0,d,0,0,0,k,0,d
d,b,d,0,0,0,f,0,0,d,0,0,0,j,0,0
d,0,0,0,f,0,0,0,0,0,b,0,0,0,0,d
b,d,0,0,0,i,0,0,0,0,d,d,0,0,b,0
d,0,0,g,i,h,0,d,0,d,b,0,b,b,0,0
EXT 4,15 7 13,0
EXT 5,15 7 14,0
PAL 2

ROOM 7
d,0,0,0,0,0,j,d,0,b,0,0,0,i,q,0
0,k,0,d,0,0,0,0,d,0,0,0,0,p,0,0
0,j,0,0,0,0,d,b,0,0,0,0,0,0,0,0
0,0,0,0,d,d,0,0,d,0,0,0,f,0,0,k
b,0,b,0,b,b,k,b,0,0,0,0,0,0,d,j
0,b,d,0,d,0,j,0,0,0,0,0,0,0,k,0
b,0,0,b,0,0,0,0,0,0,0,g,0,0,j,0
0,0,0,0,0,0,0,0,0,f,0,0,0,d,0,b
0,0,0,0,0,f,0,0,0,0,0,0,0,0,b,0
h,h,0,0,g,0,f,0,0,0,0,0,0,0,0,d
q,o,h,0,h,0,0,0,0,d,0,0,k,d,0,b
g,0,o,o,p,0,0,0,0,0,0,0,j,d,b,0
0,0,0,0,0,g,0,k,0,0,0,0,b,0,0,d
0,0,0,0,0,0,k,j,0,b,0,d,0,0,d,b
d,d,0,0,k,0,j,0,d,0,b,0,d,0,0,0
0,g,d,0,j,0,d,0,0,0,0,b,0,0,0,d
ITM 4 10,4
EXT 0,9 8 15,8
EXT 0,10 8 15,9
EXT 13,0 6 4,15
EXT 14,0 6 5,15
PAL 2

ROOM 8
0,0,0,0,0,0,1k,0,0,0,0,0,0,0,0,0
k,0,0,0,0,0,0,0,0,0,0,0,0,1j,0,0
j,0,0,0,1j,0,0,0,0,0,0,0,0,0,0,0
0,b,0,0,0,0,0,0,1k,0,0,0,0,0,0,d
d,b,0,d,0,1f,1f,1f,1f,1f,1f,1f,1f,d,b,0
0,d,b,0,1e,0,0,0,0,0,0,f,0,1n,d,d
f,0,d,1e,0,0,0,0,0,0,0,0,0,0,1n,b
0,0,0,0,0,0,0,f,0,0,0,0,0,0,0,0
0,0,0,0,0,0,0,0,g,0,0,0,0,0,i,h
0,i,0,0,19,1d,1d,1d,1d,1d,1d,1d,1d,1l,g,o
h,q,0,19,1a,1g,0,1h,0,0,1h,0,1m,1a,1l,0
q,0,0,1a,1b,0,0,1i,0,0,1i,0,1p,1b,1a,0
0,0,b,1b,1c,0,0,0,1k,0,0,0,0,1o,1o,f
0,0,g,1b,0,0,0,0,0,1j,0,0,0,1p,1o,b
g,0,1b,1c,0,0,0,1j,0,0,0,0,0,0,1p,1o
0,1b,1c,0,1k,0,0,0,0,0,0,1j,0,0,0,1o
ITM 5 1,14
ITM 6 12,6
EXT 0,11 9 15,14
EXT 0,10 9 15,13
EXT 15,8 7 0,9
EXT 15,9 7 0,10
PAL 2

ROOM 9
0,0,o,q,0,d,0,b,0,0,0,0,0,0,0,0
0,0,i,0,0,b,0,0,b,0,0,0,0,0,k,0
0,0,o,0,g,0,d,k,0,0,d,0,0,0,j,0
0,0,0,i,h,0,0,j,0,0,0,0,b,0,0,0
b,0,0,i,q,f,0,0,b,0,0,0,0,0,0,d
b,0,0,o,h,0,0,k,0,0,14,13,0,d,0,0
0,b,f,0,i,q,0,j,k,0,x,12,0,0,0,0
0,0,d,0,0,0,f,0,j,v,w,11,10,0,d,0
0,d,0,0,0,0,0,0,0,u,18,16,z,0,0,0
b,0,0,0,0,g,0,0,g,t,17,15,y,b,k,0
0,b,g,0,0,0,0,0,0,0,g,0,0,0,j,0
d,0,d,0,0,0,0,0,0,h,0,0,0,g,0,b
0,b,b,0,0,0,0,0,0,o,i,h,0,0,0,0
0,0,0,d,0,0,g,d,0,0,0,o,i,h,0,i
0,0,b,0,b,d,d,0,b,d,g,0,o,p,p,q
0,0,0,0,0,b,0,0,0,0,d,0,0,g,0,0
ITM 7 4,8
EXT 2,0 a 7,15
EXT 3,0 a 8,15
EXT 15,14 8 0,11
EXT 15,13 8 0,10
PAL 2

ROOM a
0,0,0,0,0,l,0,0,0,0,0,0,l,0,0,0
0,m,0,0,0,0,0,0,0,0,n,0,0,0,0,0
0,0,n,0,0,0,0,0,l,0,0,0,0,0,0,0
l,0,0,0,0,0,0,0,0,0,0,0,0,0,l,0
0,0,0,0,0,0,k,0,0,0,0,0,l,0,0,n
0,0,k,0,b,0,j,0,k,0,0,k,0,0,0,0
d,k,j,d,g,b,g,b,j,0,d,j,0,0,0,0
k,j,0,b,0,0,0,g,f,b,0,0,0,d,k,0
j,b,d,f,0,0,0,0,0,0,d,b,k,0,j,0
0,0,d,0,g,0,0,0,0,g,0,d,j,0,0,d
0,d,0,b,0,0,0,0,0,0,f,b,0,b,0,0
b,0,f,0,0,0,0,0,0,0,0,f,b,0,b,0
0,d,g,0,g,0,0,0,0,0,0,g,d,0,0,0
d,b,0,f,0,0,0,0,0,0,0,0,0,d,b,0
b,d,g,0,0,0,0,h,0,0,0,d,g,d,0,d
0,0,d,0,b,0,0,i,h,0,0,0,b,0,d,0
EXT 7,15 9 2,0
EXT 8,15 9 3,0
END undefined 6,7
PAL 2

TIL 10
00000000
00000000
00000000
00000000
00000000
00000000
10000000
00000000

TIL 11
00000000
00000110
00000110
11111111
00100011
00100011
11111111
00000000

TIL 12
00110000
00110000
00000000
11111000
01011000
01001100
01001100
11111100

TIL 13
00000000
00000000
00101011
11111111
00001011
10001000
10001000
11000000
>
00001000
00001000
00101000
11111111
00001000
10000000
10000000
11000000

TIL 14
00000100
00000100
00010100
11111111
00010100
00010100
00000000
00000010
>
00000100
00010100
11010100
11111111
11010100
00000100
00000000
00000010

TIL 15
00000000
00000000
11111111
00100100
00100100
11111111
00000000
00000000
WAL true

TIL 16
11111111
00100100
00100100
00100100
11111111
00000000
00000000
00000000

TIL 17
00000000
00000000
11011111
00000100
00000100
11111111
00000000
00000000
WAL true

TIL 18
10011111
00000100
00000100
00100100
00111111
00000000
00000000
00000000

TIL 19
00000001
00000011
00000110
00001101
00011011
00110000
01101101
11010101
WAL true

TIL a
11111111
10000001
10000001
10011001
10011001
10000001
10000001
11111111

TIL b
00000000
00000100
00000100
00000100
00100000
01000000
01001000
00001000
>
00000000
00000010
00000100
00000100
01000000
01000000
01001000
00001000
WAL true

TIL c
00000000
10101010
01010101
11111111
11111111
10101010
00000000
00000000

TIL d
00000000
00100000
00100000
01000000
01000100
01001000
00001000
00000000
>
00000000
00100000
00100000
01000000
01000100
01001000
00001000
00000000
WAL true

TIL e
11111111
11111101
11111011
11110111
11101101
11111011
11111111
11111111

TIL f
00000000
00000000
00000000
00001000
00000000
00100010
00000000
00000000
WAL false

TIL g
00000000
01000000
00000000
00000010
00000000
00100000
00000000
00000100
WAL false

TIL h
00000000
11000000
11000000
00000100
00110100
00100000
00001100
01101100

TIL i
00000000
00000110
00001010
00001100
00110000
00110011
00000011
00011000

TIL j
00011000
00101100
01101110
11011011
00101100
11101111
00011000
01111110
WAL true

TIL k
00000000
00000000
00000000
00010000
00000000
00011000
00101100
01001010
WAL true

TIL l
00000000
00000000
00000000
00000000
00010000
00000000
00000000
00000000

TIL m
00111110
01111001
11100000
11100000
11100000
11100000
01111001
00111110

TIL n
00000000
00000000
00000000
00000000
00001000
00000000
00000000
00000000
>
00000000
00000000
00000000
00001000
00010100
00001000
00000000
00000000

TIL o
00000010
00011010
00001000
01100001
01101101
00001100
00000000
00000000

TIL p
01101010
01101000
00000010
10000110
10110000
00111000
00000000
00000000

TIL q
11000110
11000010
00011000
00011000
01000000
01010000
00000000
00000000

TIL r
00010100
00101000
00101000
01010000
01010000
01010000
10100000
10100000

TIL s
00000001
00000001
00000001
00000001
00000010
00000101
00000101
00011010

TIL t
00000000
00000000
00111100
00100000
00100000
01111001
01000000
11110000
WAL true

TIL u
00000010
00000100
00000100
00000100
00001011
00001000
00001000
00010000
WAL true

TIL v
00000000
00000000
00000000
00000000
00000000
00000000
00000001
00000000

TIL w
00000000
01000000
01000000
10110011
10000100
10000100
01001111
00000000

TIL x
00001000
00001000
00000000
00010001
00010000
00100000
00100010
00101011

TIL y
00000000
00000000
11111100
00001100
00001100
11111110
00000110
00001111
WAL true

TIL z
11000000
01100000
01100000
01100000
11110000
00110000
00110000
00011000
WAL true

TIL 1a
01100011
01101111
11000000
11001101
00001101
01001100
01000001
00010101
WAL true

TIL 1b
00000000
01110000
10001000
00000100
11000100
00111100
01100010
00010110
WAL true

TIL 1c
00000000
00111000
00101000
11010010
00100010
11000000
00010000
01000000
>
00000000
00111000
00101000
11011001
00100001
11100010
00010000
01000000
WAL true

TIL 1d
10011101
11111111
00000000
11011011
10000011
00011000
01000001
00010101
WAL true

TIL 1e
00000001
00000011
00000110
00001100
00011000
00110000
01100000
11000000
WAL true

TIL 1f
00000000
00000000
00000000
00000000
00000000
00000000
10011111
11111111
WAL true

TIL 1g
01100011
01101111
11000000
11011100
00010000
01000000
01000000
11000000

TIL 1h
00011000
00000000
00011000
00000000
00000000
00011000
00011000
00011000

TIL 1i
00011000
00011000
00000000
00011000
00011000
00100100
00011000
00000000
>
00011000
00011000
00000000
00011000
00011000
00011000
00000000
00000000

TIL 1j
00000000
00000000
00000000
00000000
00011000
00000000
00000000
00000000
>
00000000
00000000
00000000
00000000
00100100
00011000
00000000
00000000

TIL 1k
00000000
00000000
00000000
00000000
00011000
00000000
00000000
00000000
>
00000000
00000000
00000000
00000000
00010000
00001100
00000000
00000000

TIL 1l
10000000
11000000
01100000
00110000
10011000
10001100
00110110
10110011
WAL true

TIL 1m
01100011
01101111
00000000
00001101
00000101
00000100
00000001
00000101

TIL 1n
10000000
11000000
01100000
00110000
00011000
00001100
00000110
00000011
WAL true

TIL 1o
00000000
00000110
00011001
00100101
01000010
01100001
00111111
01000010
WAL true

TIL 1p
00000000
00000000
00001000
00010100
00011011
01000101
01000111
00100000
>
00000000
00000000
00001000
00010100
00001011
00100101
00100011
00000000

SPR A
00111000
00001000
00011100
00000110
00011010
00011010
00011100
00010100
POS 0 6,10

SPR a
00000000
00000000
01010000
01010000
01110000
01111110
00111101
00100100
>
00000000
00000000
01010000
01010000
01110000
01111110
00111110
00100100
DLG SPR_0
POS 0 8,12

SPR b
00111110
01111001
11100000
11100000
11100000
11100000
01111001
00111110
POS 0 1,1

SPR c
00000000
00000000
01010000
01010000
01110000
01111000
00111110
00101101
>
00000000
00000000
01010000
01010000
01110000
01111000
00111111
00101100
DLG SPR_1
POS 1 12,11

SPR d
00000000
00000000
01010000
01010000
01110000
01111111
00111100
00100100
>
00000000
00000000
01010000
01010000
01110000
01111110
00111110
00100100
DLG SPR_2
POS 3 13,5

SPR e
00111110
01111001
11100000
11100000
11100000
11100000
01111001
00111110
POS 4 1,1

SPR f
00000000
00000000
00000000
00000000
00000000
00000000
00011011
11111011
POS 4 12,12

SPR g
00000000
00000000
00000000
00000000
00000000
00000000
00011011
11111011
>
00000000
00000000
00000000
00000000
00000000
00000000
00011001
11111011
POS 5 12,12

SPR h
00111110
01111001
11100000
11100000
11100000
11100000
01111001
00111110
POS 5 1,1

SPR i
00000000
00000000
00000000
00000000
00000000
00000000
00011011
11111011
DLG SPR_3
POS 6 12,12

SPR j
00111110
01111001
11100000
11100000
11100000
11100000
01111001
00111110
POS 6 1,1

SPR k
00000000
00000000
01010000
01010000
01110000
01111001
00111110
00101100
>
00000000
00000000
01010000
01010000
01110000
01111000
00111111
00101100
DLG SPR_4
POS 7 4,8

SPR l
00000000
00000000
01010000
01010000
01110000
01111110
00111101
00100100
>
00000000
00000000
01010000
01010000
01110000
01111110
00111110
00100100
DLG SPR_5
POS 9 12,10

SPR m
00000000
00000000
01010000
01010000
01110000
01110000
00111110
00111101
>
00000000
00000000
01010000
01010000
01110000
01110000
00111111
00111100
DLG SPR_6
POS a 9,11

SPR n
00000000
00000000
00001100
00001100
00010010
00001110
00000110
00111110
>
00000000
00000000
00001100
00001100
00001010
00001110
00000110
00111110
POS a 6,6

SPR o
00111110
01111001
11100000
11100000
11100000
11100000
01111001
00111110
POS a 1,1

ITM 0
00000000
00000000
00000100
00110000
01001010
00100100
00011100
00000000
>
00000000
00000000
00000100
00110000
01011010
00101100
00011100
00000000
NAME tea
DLG ITM_0

ITM 1
00000000
00000000
00000000
00110000
01001000
00100100
01011100
00100000
>
00000000
00000000
00000000
00110000
01011000
00101100
01011100
00100000
DLG ITM_1

ITM 2
00000000
00000100
10000000
00110010
01011000
00101100
00011100
00000000
>
00000000
00000100
10000000
00110010
01001000
00100100
00011100
00000000
DLG ITM_2

ITM 3
00000000
00010000
00000000
00110000
01011001
00101100
00011100
00000000
>
00000000
00010000
00000000
00110000
01001001
00100100
00011100
00000000
DLG ITM_3

ITM 4
00000000
00010000
00000000
00110000
01011001
00101100
00011100
00000000
>
00000000
00010000
00000000
00110000
01001001
00100100
00011100
00000000
DLG ITM_4

ITM 5
00000000
00000100
10000000
00110010
01011000
00101100
00011100
00000000
>
00000000
00000100
10000000
00110010
01001000
00100100
00011100
00000000
DLG ITM_5

ITM 6
00000000
00000000
00000000
00110000
01001000
00100100
01011100
00100000
>
00000000
00000000
00000000
00110000
01011000
00101100
01011100
00100000
DLG ITM_6

ITM 7
00000000
00000000
00000100
00110000
01001010
00100100
00011100
00000000
>
00000000
00000000
00000100
00110000
01011010
00101100
00011100
00000000
DLG ITM_7

DLG SPR_0
"""
{sequence
  - You shouldn't be out walking in the dark.
    You'll never find all the shards.
    They're already broken anyway.
  - It's almost midnight.
}
"""

DLG ITM_0
"""
A shard of glass.

They feel important.

But... I don't remember why.
{b = b + 1}
"""

DLG SPR_1
"""
{sequence
  - You should leave the shards alone.
    They're too damaged.
  - They're not yours anymore.
}
"""

DLG ITM_1
"""
Another shard.

I have to be somewhere.

At midnight.

I have to hurry.

But why...?
{b = b + 1}
"""

DLG ITM_3
"""
Have to bring the shards... to...
Where?
{b = b + 1}
"""

DLG SPR_2
"""
{sequence
  - I'm sorry.
    
    You're almost out of time.
  - The glass shines brighter in the dark.
}
"""

DLG ITM_2
"""
Who's waiting for me?

Why would someone need broken pieces of glass?
I'm almost out of time.
{b = b + 1}
"""

DLG SPR_3
"""
{sequence
  - That's...
    
    Me.
  - No.
}
"""

DLG SPR_4
"""
{sequence
  - The shards aren't for you.
    
    Not anymore.
  - She's waiting for you.
}
"""

DLG ITM_4
"""
I'm... dead.

Still...

I need the shards for... something.
{b = b + 1}
"""

DLG ITM_5
"""
It's almost midnight.

I didn't hurry to save myself.

She's running out of time.
{b = b + 1}
"""

DLG ITM_6
"""
All those things...

They don't feel as important anymore.
{b = b + 1}
"""

DLG ITM_7
"""
I don't collect them for me.

Not anymore.

I do it for her.
{b = b + 1}
"""

DLG SPR_5
"""
{sequence
  - She's waiting for your shards.
    
    They're going to give her a life she's never had before.
    The girl of glass.
    
    Broken, like your shards.
  - You'll make her whole.
}
"""

DLG SPR_6
"""
{
  - b == 0 ?
    The shards where never yours to give, not anymore.
    They're already collected.
    
    Does it matter?
    
    She's waiting for you.
    
    You will make her fly, on shards of glass.
    Or you will fall, together.
    {b = 9}
{c = 2}
  - b == 1 ?
    Even one single shard is enough.
    
    It's all part of the whole.
    
    I don't know what she'll do with the life you give her.
    Does it matter?
    
    You can make her fly, on shards of glass.
    Or you can let her fall.
    {b = 9}
{c = 1}
  - b == 2 ?
    Even two shards is enough.
    
    It's all part of the whole.
    
    I don't know what she'll do with the life you give her.
    Does it matter?
    
    You can make her fly, on shards of glass.
    Or you can let her fall.
    {b = 9}
{c = 1}
  - b == 3 ?
    Even three shards is enough.
    
    It's all part of the whole.
    
    I don't know what she'll do with the life you give her.
    Does it matter?
    
    You can make her fly, on shards of glass.
    Or you can let her fall.
    {b = 9}
{c = 1}
  - b == 4 ?
    Even four shards is enough.
    
    It's all part of the whole.
    
    I don't know what she'll do with the life you give her.
    Does it matter?
    
    You can make her fly, on shards of glass.
    Or you can let her fall.
    {b = 9}
{c = 1}
  - b == 5 ?
    Even five shards is enough.
    
    It's all part of the whole.
    
    I don't know what she'll do with the life you give her.
    Does it matter?
    
    You can make her fly, on shards of glass.
    Or you can let her fall.
    {b = 9}
{c = 1}
  - b == 6 ?
    Even six shards is enough.
    
    It's all part of the whole.
    
    I don't know what she'll do with the life you give her.
    Does it matter?
    
    You can make her fly, on shards of glass.
    Or you can let her fall.
    {b = 9}
{c = 1}
  - b == 7 ?
    Even seven shards is enough.
    
    It's all part of the whole.
    
    I don't know what she'll do with the life you give her.
    Does it matter?
    
    You can make her fly, on shards of glass.
    Or you can let her fall.
    {b = 9}
{c = 1}
  - b == 8 ?
    You found them all.
    
    The cracks will show, but they'll all fit together again.
    I don't know what she'll do with the life you give her.
    Does it matter?
    
    You can make her fly, on shards of glass.
    Or you can let her fall.
    {b = 9}
{c = 1}
  - c == 1 ?
    Will you let her fall?
  - c == 2 ?
    Will you fall together?
}
"""

END 0


END undefined
I won't let her fall.

VAR a
42

VAR b
0

VAR c
0


