A Party of High Tension

# BITSY VERSION 3.7

! ROOM_FORMAT 1

PAL 0
187,128,17
64,44,6
64,44,6

PAL 1
45,29,120
255,255,255
45,29,120

PAL 2
56,38,5
19,13,2
19,13,2

PAL 3
0,0,0
255,255,255
0,0,0

PAL 4
0,0,0
225,0,0
0,0,0

PAL 5
255,255,255
255,255,255
255,255,255

PAL 6
242,194,106
64,44,6
64,44,6

PAL 7
255,255,255
255,255,255
255,255,255

ROOM 0
c,d,d,d,d,d,d,d,d,d,d,d,d,d,b,10
a,f,f,f,a,0,0,0,0,0,0,h,a,0,0,0
a,0,0,0,n,0,0,0,0,0,0,0,13,0,0,0
a,g,g,g,a,0,0,0,0,0,0,0,a,0,0,0
c,d,d,d,d,d,b,l,m,c,d,d,d,d,d,b
a,0,0,s,0,0,a,0,0,0,0,0,n,0,0,a
a,0,i,q,k,0,a,0,0,0,0,0,a,0,e,a
a,0,i,p,k,0,a,0,0,c,d,d,d,d,d,b
a,0,i,p,k,0,a,0,0,a,0,0,0,0,z,a
a,0,i,p,k,0,0,0,0,0,0,y,x,0,0,a
a,0,i,p,k,0,0,0,0,0,0,v,w,0,0,a
a,0,i,p,k,0,a,0,0,a,0,v,w,0,0,a
a,0,i,p,k,0,a,0,0,a,0,v,w,0,0,a
a,0,i,o,k,0,a,0,0,a,0,t,u,0,0,a
a,0,0,j,0,0,a,11,12,a,0,0,0,0,0,a
c,d,d,d,d,d,d,d,d,d,d,d,d,d,d,b
WAL b,a,c,d,f,q,p,o,g,13
EXT 8,14 4 12,7
EXT 14,6 7 12,6
PAL 0

ROOM 1
c,d,d,d,d,d,d,d,d,d,d,d,d,d,b,10
a,f,f,f,a,0,0,0,0,0,0,h,a,0,0,0
a,1e,0,1d,n,0,0,0,0,0,0,0,0,0,0,0
a,g,1f,g,a,0,0,0,0,0,14,0,a,0,0,0
c,d,d,d,d,d,b,l,m,c,d,d,d,d,d,b
a,0,0,s,0,0,a,0,0,0,0,0,n,0,0,a
a,0,i,q,k,0,a,0,0,0,0,0,a,0,e,a
a,0,i,p,k,0,a,0,0,c,d,d,d,d,d,b
a,0,i,16,k,0,a,0,0,a,0,0,0,0,z,a
a,0,15,16,k,0,0,0,0,0,1g,y,x,0,0,a
a,0,i,16,k,0,0,0,0,0,0,v,w,0,0,a
a,0,i,17,k,0,a,0,0,a,0,v,w,1b,0,a
a,0,i,p,k,0,a,18,1a,a,0,v,w,0,0,a
a,0,i,o,k,0,a,0,19,a,0,t,u,0,0,a
a,0,0,j,0,0,a,11,12,a,0,0,0,0,0,a
c,d,d,d,d,d,d,d,d,d,d,d,d,d,d,b
WAL b,a,c,d,f,q,p,o,g,13
EXT 15,0 2 15,0
PAL 0

ROOM 2
c,d,d,d,d,d,d,d,d,d,d,d,d,d,b,10
a,f,f,f,a,0,0,0,0,0,0,h,a,0,0,0
a,1j,0,0,n,0,0,0,0,0,0,0,0,0,0,0
a,g,1f,1c,a,0,0,0,0,0,0,14,a,0,0,0
c,d,d,d,d,d,b,l,m,c,d,d,d,d,d,b
a,0,0,s,0,0,a,0,0,0,0,0,n,0,0,a
a,0,i,q,k,0,a,0,0,0,0,0,a,0,e,a
a,0,i,p,k,0,a,0,0,c,d,d,d,d,d,b
a,0,i,16,k,0,a,0,0,a,0,0,0,0,z,a
a,0,15,16,k,0,0,0,0,0,1h,1i,x,0,0,a
a,0,i,p,k,0,0,0,0,0,0,v,w,0,0,a
a,0,i,17,k,0,a,0,0,a,0,v,w,1b,0,a
a,0,i,p,k,0,a,18,0,a,0,v,w,0,0,a
a,0,i,o,k,0,a,0,1a,a,0,t,u,0,0,a
a,0,0,j,0,0,a,11,12,a,0,0,0,0,0,a
c,d,d,d,d,d,d,d,d,d,d,d,d,d,d,b
WAL b,a,c,d,f,q,p,o,g,13
EXT 11,2 0 11,2
PAL 0

ROOM 3
1q,1r,1r,1r,1r,1r,1r,1r,1r,1r,2k,1r,1r,1r,1r,1p
1n,0,0,0,0,0,0,0,0,2h,2i,2h,0,0,0,1o
1n,0,1v,21,20,0,24,21,21,29,2i,2a,2g,2c,0,1o
1n,0,1w,1z,22,0,25,0,0,28,2i,2f,2b,2d,0,1o
1n,0,1x,1y,23,0,26,1y,1y,27,2i,2c,2e,2a,0,1o
1n,0,0,0,0,0,0,0,0,2h,2i,2h,0,0,0,1o
1m,1k,1k,1k,1k,1k,1k,1k,1k,1k,2j,1k,1k,1k,1k,1l
1n,0,0,0,0,0,0,0,0,0,0,0,0,0,0,1o
1n,0,2h,2h,0,0,0,0,0,0,0,0,0,0,0,1o
1n,2h,3q,3s,3r,3u,3x,0,0,0,0,2h,2h,0,0,1o
1n,3m,3n,3o,3p,3v,3w,0,0,0,2h,0,0,2h,0,1o
1n,3l,3k,3j,3i,3h,0,0,0,0,2h,3b,3a,39,0,1o
1n,3c,3d,3e,3f,3g,0,0,0,0,0,36,37,38,0,1o
1n,0,0,0,0,0,0,0,0,0,0,0,0,0,0,1o
1n,0,0,0,0,0,0,0,0,0,0,0,0,0,0,1o
1t,1u,1u,1u,1u,1u,1u,1u,1u,1u,1u,1u,1u,1u,1u,1s
WAL 1k,1l,1m,2a,2c,2f,29,27,28,1r,2h,3c,37,38,39,3a,3e,3f,3g,3h,3i,3j,3l,3m,3o,3r,3u,3x,3w
EXT 10,0 4 10,9
EXT 12,10 c 8,11
EXT 3,9 c 6,11
PAL 0

ROOM 4
34,32,30,2r,0,0,0,0,0,0,0,0,2t,2v,2x,2z
33,31,2s,0,0,0,0,0,0,0,0,0,0,2u,2w,2y
32,30,2r,0,0,0,0,0,0,0,0,0,0,2t,2v,2x
31,2s,0,0,0,0,0,0,0,0,0,0,0,0,2u,2w
30,2r,0,0,0,0,0,0,0,0,0,0,0,0,2t,2v
2s,0,0,0,0,0,0,0,0,0,0,0,0,0,0,2u
2r,0,0,2o,2o,0,0,2n,1u,1u,1u,1u,2l,1k,2m,2t
2q,0,2o,2o,2o,2o,0,1o,0,0,0,0,0,0,1n,0
2p,2o,2o,2o,2o,2o,2o,1o,0,0,0,0,0,0,1n,0
1q,1r,1r,1r,1r,1r,1r,1r,1r,1r,2k,1r,1r,1r,1r,1p
1n,0,0,0,0,0,0,0,0,0,2i,0,0,0,0,1o
1n,0,1v,21,20,0,24,21,21,29,2i,2a,2g,2c,0,1o
1n,0,1w,1z,22,0,25,0,0,28,2i,2f,2b,2d,0,1o
1n,0,1x,1y,23,0,26,1y,1y,27,2i,2c,2e,2a,0,1o
1n,0,0,0,0,0,0,0,0,0,2i,0,0,0,0,1o
1m,1k,1k,1k,1k,1k,1k,1k,1k,1k,2j,1k,1k,1k,1k,1s
WAL 1r,1o,2h,1u,1n,2i,2q
EXT 10,9 3 10,0
EXT 12,6 0 8,13
PAL 0

ROOM 5
1q,1r,1r,1r,1r,1r,1r,1r,1r,1r,2k,1r,1r,1r,1r,1p
1n,0,0,0,0,0,0,0,0,2h,2i,2h,0,0,0,1o
1n,0,1v,21,20,0,24,21,21,29,2i,2a,2g,2c,0,1o
1n,0,1w,1z,22,0,25,0,0,28,2i,2f,2b,2d,0,1o
1n,0,1x,1y,23,0,26,1y,1y,27,2i,2c,2e,2a,0,1o
1n,0,0,0,0,0,0,0,0,2h,2i,2h,0,0,0,1o
1m,1k,1k,1k,1k,1k,1k,1k,1k,1k,2j,1k,1k,1k,1k,1l
1n,0,0,0,0,0,0,0,0,0,0,0,0,0,0,1o
1n,0,0,0,0,0,0,0,0,0,0,0,0,0,0,1o
1n,0,0,4c,0,0,0,0,0,0,0,2h,2h,0,0,1o
1n,0,0,49,4a,4b,0,0,0,0,2h,0,0,2h,0,1o
1n,48,47,46,45,44,0,0,0,0,2h,3b,3a,39,0,1o
1n,3y,3z,40,41,42,43,0,0,0,0,36,37,38,0,1o
1n,0,0,0,0,0,0,0,0,0,0,0,0,0,0,1o
1n,0,0,0,0,0,0,0,0,0,0,0,0,0,0,1o
1t,1u,1u,1u,1u,1u,1u,1u,1u,1u,1u,1u,1u,1u,1u,1s
WAL 1k,1l,1m,2a,2c,2f,29,27,28,1r,2h,3c,37,38,39,3a,3e,3f,3g,3h,3i,3j,3l,3m,3o,3r,3u,3x,3w,4c,4b,4a,48,47,49,43,44,42,41,40,3z,3y
EXT 10,0 4 10,9
PAL 0

ROOM 6
1q,1r,1r,1r,1r,1r,1r,1r,1r,1r,2k,1r,1r,1r,1r,1p
1n,0,0,0,0,0,0,0,0,2h,2i,2h,0,0,0,1o
1n,0,1v,21,20,0,24,21,21,29,2i,2a,2g,2c,0,1o
1n,0,1w,1z,22,0,25,0,0,28,2i,2f,2b,2d,0,1o
1n,0,1x,1y,23,0,26,1y,1y,27,2i,2c,2e,2a,0,1o
1n,0,0,0,0,0,0,0,0,2h,2i,2h,0,0,0,1o
1m,1k,1k,1k,1k,1k,1k,1k,1k,1k,2j,1k,1k,1k,1k,1l
1n,0,0,0,0,0,0,0,0,0,0,0,0,0,0,1o
1n,0,2h,2h,0,0,0,0,0,0,0,0,0,0,0,1o
1n,2h,3q,3s,3r,3u,3x,0,0,0,0,0,0,0,0,1o
1n,3m,3n,3o,3p,3v,3w,0,0,0,0,0,0,0,0,1o
1n,3l,3k,3j,3i,3h,0,0,0,0,0,0,4j,4i,4h,1o
1n,3c,3d,3e,3f,3g,0,0,0,0,0,4d,4e,4f,4g,1o
1n,0,0,0,0,0,0,0,0,0,0,0,0,0,0,1o
1n,0,0,0,0,0,0,0,0,0,0,0,0,0,0,1o
1t,1u,1u,1u,1u,1u,1u,1u,1u,1u,1u,1u,1u,1u,1u,1s
WAL 1k,1l,1m,2a,2c,2f,29,27,28,1r,2h,3c,37,38,39,3a,3e,3f,3g,3h,3i,3j,3l,3m,3o,3r,3u,3x,3w,4d,4e,4f,4g,4h,4i,4j
EXT 10,0 4 10,9
PAL 0

ROOM 7
4k,4k,4k,4k,4k,4k,4k,4k,4k,4k,4k,4k,4k,4k,4k,4k
4k,4k,4k,4k,4k,4k,4k,4k,4k,4k,4k,4k,4k,4k,4k,4k
4k,4k,4k,4k,4k,4k,4k,4k,4k,4k,4k,4k,4k,4k,4k,4k
4k,4k,4k,4k,4k,4k,4k,4k,4k,4k,4k,4k,4k,4k,4k,4k
4k,4k,4k,4k,4k,4k,4k,4k,4k,4k,4k,4k,4k,4k,4k,4k
4k,4k,4k,4n,4v,4m,c,d,d,d,d,d,d,b,4k,4k
4k,4k,4k,4x,4w,0,a,0,0,0,0,a,r,a,4k,4k
4k,4k,4k,4p,4y,0,13,0,4q,4r,0,13,0,a,4k,4k
4k,4k,4k,4p,0,0,13,0,4t,4u,0,13,0,a,4k,4k
4k,4k,4k,4p,0,0,a,0,0,0,0,a,e,a,4k,4k
4k,4k,4k,4o,4l,4l,c,d,d,d,d,d,d,b,4k,4k
4k,4k,4k,4k,4k,4k,4k,4k,4k,4k,4k,4k,4k,4k,4k,4k
4k,4k,4k,4k,4k,4k,4k,4k,4k,4k,4k,4k,4k,4k,4k,4k
4k,4k,4k,4k,4k,4k,4k,4k,4k,4k,4k,4k,4k,4k,4k,4k
4k,4k,4k,4k,4k,4k,4k,4k,4k,4k,4k,4k,4k,4k,4k,4k
4k,4k,4k,4k,4k,4k,4k,4k,4k,4k,4k,4k,4k,4k,4k,4k
WAL a,b,c,d,4n,4l,4m,4p,4x,4v,4o
EXT 4,6 8 7,11
EXT 12,6 0 14,6
PAL 0

ROOM 8
0,4y,0,4z,50,0,0,0,51,0,0,0,0,52,0,53
5b,0,5a,0,0,0,59,2h,0,58,57,0,56,55,0,54
0,5c,5d,5f,5e,0,2h,0,2h,0,5g,0,0,0,0,0
0,5n,2h,0,0,0,5m,2h,5l,5k,5j,0,0,5i,5h,0
0,2h,0,2h,0,5o,5p,0,5u,0,0,0,0,0,0,5s
5z,60,2h,5y,5w,5r,5q,0,5v,0,0,0,5t,0,0,0
61,62,0,0,5x,0,0,63,0,0,64,0,0,65,0,66
0,0,69,0,0,0,6b,0,0,0,0,0,0,0,68,67
6a,0,0,0,0,6c,6d,0,0,0,6e,0,0,6g,0,0
0,6o,6n,6m,0,6l,0,0,6k,0,6f,0,6i,0,0,6h
0,0,0,0,0,0,6p,6q,0,0,0,0,6j,6r,0,6s
0,0,0,0,6v,6u,2h,0,2h,0,6t,0,0,0,0,0
6w,0,6x,0,0,0,0,2h,6z,70,71,0,74,0,0,76
0,0,6y,7i,0,0,7g,0,0,73,72,0,75,0,77,0
0,0,0,0,0,0,7f,7d,0,7c,0,0,0,0,0,0
0,7j,0,0,0,7h,0,7e,0,0,7b,0,7a,0,79,78
WAL 2h,6q
EXT 7,11 8 2,4
EXT 2,4 8 7,2
EXT 7,2 9 4,6
PAL 1

ROOM 9
4k,4k,4k,4k,4k,4k,4k,4k,4k,4k,4k,4k,4k,4k,4k,4k
4k,4k,4k,4k,4k,4k,4k,4k,4k,4k,4k,4k,4k,4k,4k,4k
4k,4k,4k,4k,4k,4k,4k,4k,4k,4k,4k,4k,4k,4k,4k,4k
4k,4k,4k,4k,4k,4k,4k,4k,4k,4k,4k,4k,4k,4k,4k,4k
4k,4k,4k,4k,4k,4k,4k,4k,4k,4k,4k,4k,4k,4k,4k,4k
4k,4k,4k,4n,4v,4m,c,d,d,d,d,d,d,b,4k,4k
4k,4k,4k,4x,4w,0,a,0,0,0,0,a,r,a,4k,4k
4k,4k,4k,4p,0,0,13,0,4q,4r,0,13,0,a,4k,4k
4k,4k,4k,4p,0,0,13,0,4t,4u,0,13,0,a,4k,4k
4k,4k,4k,4p,0,0,a,0,0,0,0,a,e,a,4k,4k
4k,4k,4k,4o,4l,4l,c,d,d,d,d,d,d,b,4k,4k
4k,4k,4k,4k,4k,4k,4k,4k,4k,4k,4k,4k,4k,4k,4k,4k
4k,4k,4k,4k,4k,4k,4k,4k,4k,4k,4k,4k,4k,4k,4k,4k
4k,4k,4k,4k,4k,4k,4k,4k,4k,4k,4k,4k,4k,4k,4k,4k
4k,4k,4k,4k,4k,4k,4k,4k,4k,4k,4k,4k,4k,4k,4k,4k
4k,4k,4k,4k,4k,4k,4k,4k,4k,4k,4k,4k,4k,4k,4k,4k
WAL a,b,c,d,4n,4l,4m,4p,4x,4v,4o
EXT 4,6 8 7,11
EXT 12,8 a 12,8
PAL 0

ROOM a
4k,4k,4k,4k,4k,4k,4k,4k,4k,4k,4k,4k,4k,4k,4k,4k
4k,4k,4k,4k,4k,4k,4k,4k,4k,4k,4k,4k,4k,4k,4k,4k
4k,4k,4k,4k,4k,4k,4k,4k,4k,4k,4k,4k,4k,4k,4k,4k
4k,4k,4k,4k,4k,4k,4k,4k,4k,4k,4k,4k,4k,4k,4k,4k
4k,4k,4k,4k,4k,4k,4k,4k,4k,4k,4k,4k,4k,4k,4k,4k
4k,4k,4k,4n,4v,4m,c,d,d,d,d,d,d,b,4k,4k
4k,4k,4k,4x,4w,0,a,0,0,0,0,a,r,a,4k,4k
4k,4k,4k,4p,7k,0,13,0,4q,4r,0,13,0,a,4k,4k
4k,4k,4k,4p,0,0,13,0,4t,4u,0,13,0,a,4k,4k
4k,4k,4k,4p,0,0,a,0,0,0,0,a,e,a,4k,4k
4k,4k,4k,4o,4l,4l,c,d,d,d,d,d,d,b,4k,4k
4k,4k,4k,4k,4k,4k,4k,4k,4k,4k,4k,4k,4k,4k,4k,4k
4k,4k,4k,4k,4k,4k,4k,4k,4k,4k,4k,4k,4k,4k,4k,4k
4k,4k,4k,4k,4k,4k,4k,4k,4k,4k,4k,4k,4k,4k,4k,4k
4k,4k,4k,4k,4k,4k,4k,4k,4k,4k,4k,4k,4k,4k,4k,4k
4k,4k,4k,4k,4k,4k,4k,4k,4k,4k,4k,4k,4k,4k,4k,4k
WAL a,b,c,d,4n,4l,4m,4p,4x,4v,4o,n
EXT 4,6 8 7,11
EXT 12,9 b 12,9
PAL 2

ROOM b
2o,2o,2o,2o,2o,2o,2o,2o,2o,2o,2o,2o,2o,2o,2o,2o
2o,2o,2o,2o,2o,2o,2o,2o,2o,2o,2o,2o,2o,2o,2o,2o
2o,2o,2o,2o,2o,2o,2o,2o,2o,2o,2o,2o,2o,2o,2o,2o
2o,2o,2o,2o,2o,2o,2o,2o,2o,2o,2o,2o,2o,2o,2o,2o
2o,2o,2o,2o,2o,2o,2o,2o,2o,2o,2o,2o,2o,2o,2o,2o
2o,2o,2o,2o,2o,2o,c,d,d,d,d,d,d,b,2o,2o
2o,2o,2o,2o,2o,2o,a,0,0,a,0,0,0,a,2o,2o
2o,2o,2o,2o,2o,2o,a,0,0,a,0,a,0,a,2o,2o
2o,2o,2o,2o,2o,2o,a,0,c,b,0,a,0,a,2o,2o
2o,2o,2o,2o,2o,2o,a,0,0,0,0,a,7l,a,2o,2o
2o,2o,2o,2o,2o,2o,c,d,d,d,d,d,d,b,2o,2o
2o,2o,2o,2o,2o,2o,2o,2o,2o,2o,2o,2o,2o,2o,2o,2o
2o,2o,2o,2o,2o,2o,2o,2o,2o,2o,2o,2o,2o,2o,2o,2o
2o,2o,2o,2o,2o,2o,2o,2o,2o,2o,2o,2o,2o,2o,2o,2o
2o,2o,2o,2o,2o,2o,2o,2o,2o,2o,2o,2o,2o,2o,2o,2o
2o,2o,2o,2o,2o,2o,2o,2o,2o,2o,2o,2o,2o,2o,2o,2o
WAL 2o,a,b,c,d
EXT 7,8 d 5,6
PAL 2

ROOM c
0,0,0,0,0,0,0,0,0,0,0,0,0,0,0,0
0,0,0,0,0,0,0,0,0,0,0,0,0,0,0,0
0,0,0,0,0,0,0,0,0,0,0,0,0,0,0,0
0,0,0,0,0,0,0,0,0,0,0,0,0,0,0,0
0,0,0,0,0,0,0,0,0,0,0,0,0,0,0,0
0,0,0,0,0,0,0,0,0,0,0,0,0,0,0,0
0,0,0,0,0,82,87,86,85,84,83,0,0,0,0,0
0,0,0,0,0,7m,7n,7o,7p,7q,7r,0,0,0,0,0
0,0,0,0,0,0,0,0,0,0,0,0,0,0,0,0
0,0,0,0,0,0,0,0,0,0,0,0,0,0,0,0
0,0,0,0,0,0,7s,0,7s,0,0,0,0,0,0,0
0,0,0,0,0,7s,0,7s,0,7s,0,0,0,0,0,0
0,0,0,0,0,0,7s,0,7s,0,0,0,0,0,0,0
0,0,0,0,0,0,0,0,0,0,0,0,0,0,0,0
0,0,0,0,0,0,0,0,0,0,0,0,0,0,0,0
0,0,0,0,0,0,0,0,0,0,0,0,0,0,0,0
WAL 7s
EXT 6,11 6 3,9
EXT 8,11 5 12,10
PAL 3

ROOM d
0,0,0,0,0,0,0,0,0,0,0,0,0,0,0,0
0,0,0,0,0,0,0,0,0,0,0,0,0,0,0,0
0,0,0,0,0,0,0,0,0,0,0,0,0,0,0,0
0,0,0,7y,88,89,89,89,89,89,89,89,7w,80,0,0
0,0,0,7x,7u,7t,7t,7t,7t,7t,7t,7t,7v,7z,0,0
0,0,0,0,0,8x,0,0,0,0,0,0,0,0,0,0
0,0,0,0,8x,0,8x,0,0,0,0,0,0,0,0,0
0,0,0,0,0,8x,0,0,0,0,0,0,0,0,0,0
0,0,0,0,0,0,0,0,0,0,0,0,0,0,0,0
0,0,0,0,0,0,0,0,0,0,0,0,0,0,0,0
0,0,0,0,0,0,0,0,0,0,0,0,0,0,0,0
0,0,0,0,0,0,0,0,0,0,0,0,0,0,0,0
0,0,0,0,0,0,0,0,0,0,0,0,0,0,0,0
0,0,0,0,0,0,0,0,0,0,0,0,0,0,0,0
0,0,0,0,0,0,0,0,0,0,0,0,0,0,0,0
0,0,0,0,0,0,0,0,0,0,0,0,0,0,0,0
WAL 8x
EXT 5,6 e 7,10
PAL 4

ROOM e
0,0,0,0,0,0,0,0,0,0,0,0,0,0,0,0
0,0,0,0,0,0,0,0,0,0,0,0,0,0,0,0
0,0,0,0,0,0,0,0,0,0,0,0,0,0,0,0
0,0,0,0,0,0,0,0,0,0,0,0,0,0,0,0
0,0,0,8b,8f,0,0,0,8h,8j,8l,0,8o,0,0,0
0,0,0,8a,8e,8c,8d,0,8g,8i,8k,8m,8n,8p,0,0
0,0,0,0,0,0,0,8l,0,0,0,0,8l,0,0,0
0,0,0,8q,8r,8s,8t,8k,0,8v,8y,8y,8k,90,0,0
0,0,0,0,0,0,0,0,0,8w,0,0,0,0,0,0
0,0,0,0,0,0,0,8x,0,0,0,0,0,0,0,0
0,0,0,0,0,0,8x,0,8x,0,0,0,0,0,0,0
0,0,0,0,0,0,0,8x,0,0,0,0,0,0,0,0
0,0,0,0,0,0,0,0,0,0,0,0,0,0,0,0
0,0,0,0,0,0,0,0,0,0,0,0,0,0,0,0
0,0,0,0,0,0,0,0,0,0,0,0,0,0,0,0
0,0,0,0,0,0,0,0,0,0,0,0,0,0,0,0
WAL 8x
EXT 7,10 f 7,8
PAL 3

ROOM f
2o,2o,2o,2o,2o,2o,2o,2o,2o,2o,2o,2o,2o,2o,2o,2o
2o,2o,2o,2o,2o,2o,2o,2o,2o,2o,2o,2o,2o,2o,2o,2o
2o,2o,2o,2o,2o,2o,2o,2o,2o,2o,2o,2o,2o,2o,2o,2o
2o,2o,2o,2o,2o,2o,2o,2o,2o,2o,2o,2o,2o,2o,2o,2o
2o,2o,2o,2o,2o,2o,2o,2o,2o,2o,2o,2o,2o,2o,2o,2o
2o,2o,2o,2o,2o,2o,c,d,d,d,d,d,d,b,2o,2o
2o,2o,2o,2o,2o,2o,a,0,0,a,0,0,0,a,2o,2o
2o,2o,2o,2o,2o,2o,a,0,0,a,0,a,0,a,2o,2o
2o,2o,2o,2o,2o,2o,a,0,c,b,0,a,0,a,2o,2o
2o,2o,2o,2o,2o,2o,a,0,0,0,0,a,7l,a,2o,2o
2o,2o,2o,2o,2o,2o,c,d,d,d,d,d,d,b,2o,2o
2o,2o,2o,2o,2o,2o,2o,2o,2o,2o,2o,2o,2o,2o,2o,2o
2o,2o,2o,2o,2o,2o,2o,2o,2o,2o,2o,2o,2o,2o,2o,2o
2o,2o,2o,2o,2o,2o,2o,2o,2o,2o,2o,2o,2o,2o,2o,2o
2o,2o,2o,2o,2o,2o,2o,2o,2o,2o,2o,2o,2o,2o,2o,2o
2o,2o,2o,2o,2o,2o,2o,2o,2o,2o,2o,2o,2o,2o,2o,2o
WAL 2o,a,b,c,d
EXT 8,7 h 8,7
EXT 7,6 h 7,6
PAL 2

ROOM h
2o,2o,2o,2o,2o,2o,2o,2o,2o,2o,2o,2o,2o,2o,2o,2o
2o,2o,2o,2o,2o,2o,2o,2o,2o,2o,2o,2o,2o,2o,2o,2o
2o,2o,2o,2o,2o,2o,2o,2o,2o,2o,2o,2o,2o,2o,2o,2o
2o,2o,2o,2o,2o,2o,2o,2o,2o,2o,2o,2o,2o,2o,2o,2o
2o,2o,2o,2o,2o,2o,2o,2o,2o,2o,2o,2o,2o,2o,2o,2o
2o,2o,2o,2o,2o,2o,c,d,d,d,d,d,d,b,2o,2o
2o,2o,2o,2o,2o,2o,a,0,0,a,0,0,0,a,2o,2o
2o,2o,2o,2o,2o,2o,a,0,0,a,0,a,0,a,2o,2o
2o,2o,2o,2o,2o,2o,a,0,c,b,0,a,0,a,2o,2o
2o,2o,2o,2o,2o,2o,a,0,0,0,0,a,7l,a,2o,2o
2o,2o,2o,2o,2o,2o,c,d,d,d,d,d,d,b,2o,2o
2o,2o,2o,2o,2o,2o,2o,2o,2o,2o,2o,2o,2o,2o,2o,2o
2o,2o,2o,2o,2o,2o,2o,2o,2o,2o,2o,2o,2o,2o,2o,2o
2o,2o,2o,2o,2o,2o,2o,2o,2o,2o,2o,2o,2o,2o,2o,2o
2o,2o,2o,2o,2o,2o,2o,2o,2o,2o,2o,2o,2o,2o,2o,2o
2o,2o,2o,2o,2o,2o,2o,2o,2o,2o,2o,2o,2o,2o,2o,2o
WAL 2o,a,b,c,d
EXT 12,9 i 12,9
PAL 0

ROOM i
4k,4k,4k,4k,4k,4k,4k,4k,4k,4k,4k,4k,4k,4k,4k,4k
4k,4k,4k,4k,4k,4k,4k,4k,4k,4k,4k,4k,4k,4k,4k,4k
4k,4k,4k,4k,4k,4k,4k,4k,4k,4k,4k,4k,4k,4k,4k,4k
4k,4k,4k,4k,4k,4k,4k,4k,4k,4k,4k,4k,4k,4k,4k,4k
4k,4k,4k,4k,4k,4k,4k,4k,4k,4k,4k,4k,4k,4k,4k,4k
4k,4k,4k,4n,4v,4m,c,d,d,d,d,d,d,b,4k,4k
4k,4k,4k,4x,4w,0,a,99,2o,94,0,a,r,a,4k,4k
4k,4k,4k,4p,0,0,13,98,2o,93,0,13,0,a,4k,4k
4k,4k,4k,4p,0,0,13,97,2o,92,0,13,0,a,4k,4k
4k,4k,4k,4p,0,0,a,96,95,91,0,a,e,a,4k,4k
4k,4k,4k,4o,4l,4l,c,d,d,d,d,d,d,b,4k,4k
4k,4k,4k,4k,4k,4k,4k,4k,4k,4k,4k,4k,4k,4k,4k,4k
4k,4k,4k,4k,4k,4k,4k,4k,4k,4k,4k,4k,4k,4k,4k,4k
4k,4k,4k,4k,4k,4k,4k,4k,4k,4k,4k,4k,4k,4k,4k,4k
4k,4k,4k,4k,4k,4k,4k,4k,4k,4k,4k,4k,4k,4k,4k,4k
4k,4k,4k,4k,4k,4k,4k,4k,4k,4k,4k,4k,4k,4k,4k,4k
WAL a,b,c,d,4n,4l,4m,4p,4x,4v,4o,n
EXT 12,9 h 12,9
EXT 12,6 j 14,6
PAL 0

ROOM j
c,d,d,d,d,d,d,d,d,d,d,d,d,d,b,10
a,f,f,f,a,0,0,0,0,0,0,h,a,0,0,0
a,0,0,0,n,0,0,0,0,0,0,0,n,0,0,0
a,g,g,g,a,0,0,0,0,0,0,0,a,0,0,0
c,d,d,d,d,d,b,l,m,c,d,d,d,d,d,b
a,0,0,s,0,0,a,0,0,0,0,0,n,0,0,a
a,0,i,q,k,0,a,0,0,0,0,0,a,0,e,a
a,0,i,p,k,0,a,0,0,c,d,d,d,d,d,b
a,0,i,p,k,0,a,0,0,a,0,0,0,0,z,a
a,0,i,p,k,0,0,0,0,0,0,y,x,0,0,a
a,0,i,p,k,0,0,0,0,0,0,v,w,0,0,a
a,0,i,p,k,0,a,0,0,a,0,v,w,0,0,a
a,0,i,p,k,0,a,0,0,a,0,v,w,0,0,a
a,0,i,o,k,0,a,0,0,a,0,t,u,0,0,a
a,0,0,j,0,0,a,11,12,a,0,0,0,0,0,a
c,d,d,d,d,d,d,d,d,d,d,d,d,d,d,b
WAL b,a,c,d,f,q,p,o,g,13
EXT 14,6 i 12,6
EXT 15,2 k 6,10
PAL 0

ROOM k
0,0,0,0,9q,0,0,0,0,0,9q,0,0,0,9q,0
0,9q,0,0,0,0,0,9q,0,0,0,0,0,9q,0,0
0,0,9i,9k,9k,9k,9k,9k,9k,9k,9k,9k,9k,9j,0,9q
0,0,0,9f,9h,9h,9h,9h,9h,9h,9h,9h,9g,0,0,0
0,0,9q,9f,9h,9h,9h,9h,9h,9l,9m,9h,9g,0,9q,0
9q,0,0,9f,9h,9h,9h,9h,9h,9h,9h,9h,9g,0,0,0
0,0,0,9f,9h,9h,9o,9h,9h,9h,9h,9h,9g,0,0,9q
0,0,0,0,9q,0,9p,0,9q,0,0,0,0,0,0,0
0,9q,0,0,0,0,9p,0,0,0,0,9q,0,9q,0,0
0,0,0,9q,0,0,9p,0,0,9q,0,0,0,0,0,0
9e,9d,9d,9d,9d,9d,9d,9d,9d,9d,9d,9d,9d,9d,9d,9d
9a,9a,9a,9a,9a,9a,9a,9a,9a,9a,9a,9a,9a,9a,9a,9a
0,0,0,0,0,0,0,0,0,0,0,0,0,0,0,0
9c,9c,9c,9c,9c,9c,9c,9c,9c,9c,9c,9c,9c,9c,9c,9c
0,0,0,0,0,0,0,0,0,0,0,0,0,0,0,0
9b,9b,9b,9b,9b,9b,9b,9b,9b,9b,9b,9b,9b,9b,9b,9b
WAL 9m,9k,9j,9i,9h,9g,9f,9l
EXT 6,6 l 6,10
PAL 6

ROOM l
2o,2o,2o,2o,2o,2o,2o,2o,2o,2o,2o,2o,2o,2o,2o,2o
2o,2o,2o,2o,2o,2o,2o,2o,2o,2o,2o,2o,2o,2o,2o,2o
2o,2o,2o,2o,2o,2o,2o,2o,2o,2o,2o,2o,2o,2o,2o,2o
2o,2o,2o,2o,2o,2o,2o,2o,2o,2o,2o,2o,2o,2o,2o,2o
2o,2o,9r,9s,9s,9s,9s,9s,9s,9s,9s,9s,9s,9t,2o,2o
2o,2o,9u,a3,0,0,0,0,0,0,0,0,a4,9u,2o,2o
2o,2o,9u,9y,0,9x,9n,9n,9n,9n,9y,a2,9x,9u,2o,2o
2o,2o,9u,i,0,0,0,0,0,0,0,0,k,9u,2o,2o
2o,2o,9u,i,0,0,0,0,0,0,0,0,k,9u,2o,2o
2o,2o,9u,a0,j,j,0,j,j,j,j,j,a0,9u,2o,2o
2o,2o,9v,9s,9s,9s,n,9s,9s,9s,9s,9s,9s,9w,2o,2o
2o,2o,2o,2o,2o,2o,2o,2o,2o,2o,2o,2o,2o,2o,2o,2o
2o,2o,2o,2o,2o,2o,2o,2o,2o,2o,2o,2o,2o,2o,2o,2o
2o,2o,2o,2o,2o,2o,2o,2o,2o,2o,2o,2o,2o,2o,2o,2o
2o,2o,2o,2o,2o,2o,2o,2o,2o,2o,2o,2o,2o,2o,2o,2o
2o,2o,2o,2o,2o,2o,2o,2o,2o,2o,2o,2o,2o,2o,2o,2o
WAL 9u,9t,9s,9v,9w,2o,9r,9z,9y,9x,a0,9n,n
EXT 12,5 m 12,5
PAL 6

ROOM m
2o,2o,2o,2o,2o,2o,2o,2o,2o,2o,2o,2o,2o,2o,2o,2o
2o,2o,2o,2o,2o,2o,2o,2o,2o,2o,2o,2o,2o,2o,2o,2o
2o,2o,2o,2o,2o,2o,2o,2o,2o,2o,2o,2o,2o,2o,2o,2o
2o,2o,2o,2o,2o,2o,2o,2o,2o,2o,2o,2o,2o,2o,2o,2o
2o,2o,aa,a6,a6,a6,a6,a6,a6,a6,a6,a6,a6,ab,2o,2o
2o,2o,a7,0,0,0,0,0,0,0,0,0,ad,a5,2o,2o
2o,2o,a7,0,0,0,0,0,0,0,0,0,ae,a5,2o,2o
2o,2o,a7,0,0,0,0,0,0,0,0,0,0,a5,2o,2o
2o,2o,a7,0,0,0,0,0,0,0,0,0,0,a5,2o,2o
2o,2o,a7,0,0,0,0,0,0,0,0,0,0,a5,2o,2o
2o,2o,a9,a8,a8,a8,a8,a8,a8,a8,a8,a8,a8,ac,2o,2o
2o,2o,2o,2o,2o,2o,2o,2o,2o,2o,2o,2o,2o,2o,2o,2o
2o,2o,2o,2o,2o,2o,2o,2o,2o,2o,2o,2o,2o,2o,2o,2o
2o,2o,2o,2o,2o,2o,2o,2o,2o,2o,2o,2o,2o,2o,2o,2o
2o,2o,2o,2o,2o,2o,2o,2o,2o,2o,2o,2o,2o,2o,2o,2o
2o,2o,2o,2o,2o,2o,2o,2o,2o,2o,2o,2o,2o,2o,2o,2o
WAL 9u,9t,9s,9v,9w,2o,9r,9z,9y,9x,a0,9n,n,ae,ac,ab,aa,a9,a8,a7,a6,a5
END 0 12,5
PAL 6

TIL 10
00000000
00000000
00000000
10000000
10000000
00000000
00000000
00000000

TIL 11
00000000
11111111
10000000
10111011
10110010
10111011
10000000
11111111

TIL 12
00000000
11111110
00000010
10101010
10010010
10101010
00000010
11111110

TIL 13
11111111
11000011
10000001
10100001
10100001
10000001
10000001
11111111

TIL 14
00000000
00011001
00111101
11111111
10111100
10100100
00100100
01100110
>
00000000
10011000
10111100
11111111
00111101
00100101
00100100
01100110

TIL 15
00011000
01111100
01111110
01111100
01111100
01111100
01111100
01000100
>
00011000
01111100
01111100
01111110
01111100
01111100
01111100
01000100

TIL 16
10111101
11000011
10111001
10101101
10100101
10111001
11000011
10111101

TIL 17
10011001
10011001
10011001
10011001
10011101
10011001
10011001
10011001
>
10011001
10011001
10011001
10011101
10011001
10011001
10011001
10011001

TIL 18
00000000
00000000
00000000
00011000
00111100
11111111
00111100
00100100
>
00000000
00000000
00000000
00011000
10111101
01111110
00111100
00100100

TIL 19
00000000
00000000
00011000
10111100
01111111
00111100
00100100
00100100
>
00000000
00000000
00011000
00111101
11111110
00111100
00100100
00100100

TIL 20
11111000
11111100
00001110
00000111
00000011
00000011
00000011
00000011

TIL 21
11111111
11111111
00000000
00000000
00000000
00000000
00000000
00000000

TIL 22
00000011
00000111
00001110
11111100
11111100
00001110
00000111
00000011

TIL 23
00000011
00000011
00000011
00000011
00000111
00001110
11111100
11111000

TIL 24
00000011
00000111
00001110
00001100
00001100
00001100
00001100
00001100

TIL 25
00001100
00001100
00001100
00001100
00001100
00001100
00001100
00001100

TIL 26
00001100
00001100
00001100
00001100
00001100
00001110
00000111
00000011

TIL 27
00110000
00110000
00110000
00110000
00110000
01110000
11100000
11000000

TIL 28
00110000
00110000
00110000
00110000
00110000
00110000
00110000
00110000

TIL 29
11000000
11100000
01110000
00110000
00110000
00110000
00110000
00110000

TIL 30
00011000
00110000
00110001
01100001
01110011
11111011
11011111
10001111

TIL 31
01100001
01110011
11111011
11011110
10001110
10001100
00001100
00011000

TIL 32
10111110
00011110
00001100
00001100
00011000
00011000
00110000
00110001

TIL 33
00011000
00110000
00110000
01100000
01100001
11000001
11100011
11110011

TIL 34
01100001
11100011
11110011
10111110
10011110
00001100
00001100
00011000

TIL 35
00000000
00000000
00000000
11111111
11111111
00000000
00000000
00000000

TIL 36
00111111
00010000
00010110
00010110
00110000
00010000
00010000
00011111

TIL 37
11110000
00010000
00010000
00111111
00100000
00101100
00100000
11111111

TIL 38
00101010
00100010
11111111
10000001
10100001
10100001
10000001
11111111

TIL 39
00000000
11111100
00000100
00000100
11100100
00100100
00111110
00100010

TIL 40
00000001
11111001
00001001
01101111
01101001
00001001
00001001
11111111

TIL 41
11111000
00001000
01111111
01000001
01011001
01011001
01000001
11111111

TIL 42
00011111
00010000
00010110
00010110
00010000
00010000
00010000
11111111

TIL 43
10000000
10000000
10000000
10000000
10000000
10000000
10000000
10000000

TIL 44
10000000
10000000
10000000
10000000
11110000
00010000
11010000
11010000

TIL 45
00001000
00001010
00001010
00001000
00001111
00001000
11111000
00101000

TIL 46
10100000
11101100
00101100
00101100
00101100
00100000
11111111
00000001

TIL 47
00011111
00010000
00010000
00010100
00010100
00010000
11111111
00000000

TIL 48
00000000
00000000
00000000
00000000
00000000
00000000
00000111
00000100

TIL 49
00001010
00001010
00001010
00001010
00111111
11100000
10100000
10100000

TIL 50
00000000
10000000
00000000
10000000
00000000
00000000
00000000
00000000

TIL 51
00000000
00000000
00000000
00000000
00000000
00000000
00100000
00000000

TIL 52
00000000
00000000
00000000
10100000
01000000
10100000
00000000
00000000

TIL 53
00000000
00000000
00000000
00000000
00000000
00000000
00001000
00011100

TIL 54
00001000
00000000
00000000
00000000
00000000
00000000
00000000
00000000

TIL 55
00000000
00000000
00000000
00000000
00000010
00000111
00000010
00000000

TIL 56
00000000
00000000
00000000
01000000
00000000
00000000
00000000
00000000

TIL 57
00000000
00000000
00000000
00000000
01000000
01000000
11110000
01000000

TIL 58
00000000
00000000
00000000
00000000
00000000
00000000
00000001
00000000

TIL 59
00000010
00000111
00000010
00000000
00000000
00000000
00000000
00000000

TIL 60
00000000
00000000
00000000
00000000
00000000
00000000
00000000
10000000

TIL 61
00000001
00000010
00000000
00000000
00000000
00000000
00000000
00000000

TIL 62
00000000
10000000
00000000
00000000
00000000
00000000
00000000
00000000

TIL 63
00000000
00000000
00000101
00000010
00000101
00000000
00000000
00000000

TIL 64
00000000
00000000
00000000
00000000
00000000
00000000
01000000
00000000

TIL 65
00000000
00000000
00000000
00000000
00000000
00000000
00000000
10000000

TIL 66
01010000
00100000
01010000
00000000
00000000
00000000
00000000
00000000

TIL 67
00000000
00000000
00000000
00000000
00000000
10000000
00000000
00000000

TIL 68
00000000
00000000
00000000
00000000
00000001
00000011
00000001
00000000

TIL 69
00000000
00000000
00000000
01000000
11100000
01000000
00000000
00000000

TIL 70
00000000
00000000
00000000
00000000
00000000
00000000
00000010
00000001

TIL 71
00000000
00000000
00000000
00000000
00000000
00000000
10000000
00000000

TIL 72
10000000
00000000
00000000
00000000
00000000
00000000
00000000
00000000

TIL 73
00000010
00000000
00000000
00000000
00000000
00000000
00000000
00000000

TIL 74
00000000
00000000
00000000
00000000
00000000
00000000
00000000
00010000

TIL 75
00111000
00010000
00000000
00000000
00000000
00000000
00000000
00000000

TIL 76
00000000
00000000
00010000
00010000
01111100
00010000
00010000
00000000

TIL 77
00000000
00000000
00000000
01010000
00100000
01010000
00000000
00000000

TIL 78
00000000
00000000
00000000
00000000
10000000
11000000
10000000
00000000

TIL 79
00000000
00000000
00000000
00000000
00000000
00000001
00000000
00000000

TIL 80
00000000
00000000
00000000
00000000
00000000
00000000
00000000
00110000

TIL 81
00000000
00000000
00000000
00000000
00000000
00000000
00000000
00000000

TIL 82
00000000
00000000
00000000
00000000
00000000
00000000
00000000
00111100

TIL 83
00000000
00000000
00000000
00000000
00000000
00000000
00000000
01100000

TIL 84
00000000
00000000
00000000
00000000
00000000
00000000
00000000
11001100

TIL 85
00000000
00000000
00000000
00000000
00000000
00000000
00000000
00111100

TIL 86
00000000
00000000
00000000
00000000
00000000
00000000
00000000
00011000

TIL 87
00000000
00000000
00000000
00000000
00000000
00000000
00000000
11111100

TIL 88
00000000
00000000
00000000
00000000
00000000
00000000
00000000
00110000

TIL 89
00000000
00000000
00000000
00000000
00000000
00000000
00000000
11001100

TIL 90
00000000
00000000
00000000
00000000
00000000
00000000
00111000
00111000

TIL 91
11111110
11111111
11111111
11111111
11111110
11111100
11111100
11110000

TIL 92
11111110
11111110
11111110
11111100
11111110
11111110
11111100
11111110

TIL 93
11111100
11111110
11111110
11111110
11111100
11111100
11111110
11111110

TIL 94
10000000
10000000
11000000
11100000
11100000
11110000
11110000
11111000

TIL 95
11111111
11111111
11111111
11111111
11111111
11111111
11111111
01111111

TIL 96
00001111
00001111
00000111
00000111
00000011
00000011
00000001
00000000

TIL 97
00000111
00001111
00011111
00011111
00011111
00011111
00001111
00001111

TIL 98
00001111
00011111
00011111
00011111
00001111
00000111
00000111
00000011

TIL 99
00000111
00000111
00001111
00001111
00000111
00000111
00000111
00000111

TIL a
11111111
10000101
10000101
11111111
11111111
10100001
10100001
11111111

TIL b
11111111
00000101
00000101
11111111
11111111
00100001
00100001
11111111

TIL c
11111111
10000100
10000100
11111111
11111111
10100000
10100000
11111111

TIL d
11111111
00000100
00000100
11111111
11111111
00100000
00100000
11111111

TIL e
00000011
00000010
00001111
00001000
00111111
00100011
11111111
10001111

TIL f
11111111
10001000
10001000
10011100
10001000
10001000
11111111
00000000

TIL g
00000000
00000000
11111111
00000000
11111111
10001000
10011100
10001000

TIL h
00000000
11100111
11111111
00111100
00011000
00111100
00100100
00111100

TIL i
00000000
01100000
01100000
01100000
01100000
01111100
01111100
01000100

TIL j
00000000
00111100
00111100
00111100
00111100
00111100
00111100
00100100

TIL k
00000000
00000110
00000110
00000110
00000110
00111110
00111110
00100010

TIL l
11111111
10111000
11100000
11000000
10000000
10000000
00000000
00000000

TIL m
11111111
00011101
00000111
00000011
00000001
00000001
00000000
00000000

TIL n
11111111
11000011
10000001
10100001
10100001
10000001
10000001
11111111

TIL o
10011001
10011001
10111101
10000001
11111111
11000011
11000011
00000000

TIL p
10011001
10011001
10011001
10011001
10011001
10011001
10011001
10011001

TIL q
00000000
11111111
10000001
10111101
10011001
10011001
10011001
10011001

TIL r
11111111
11111111
11100111
11111111
11000011
11111111
10000001
11111111

TIL s
00000000
00111100
00100100
00100100
00111100
00111100
00111100
00100100

TIL t
10110110
10100010
10110110
10010100
10110110
10000000
11111111
10101010

TIL u
00101001
01101101
01000101
01101101
00101001
00000001
11111111
01010101

TIL v
10110110
10100010
10110110
10010100
10110110
10100010
10110110
10010100

TIL w
00101001
01101101
01000101
01101101
00101001
01101101
01000101
01101101

TIL x
01010101
11111111
00000001
01101101
00101001
01101101
01000101
01101101

TIL y
10101010
11111111
10000000
10010100
10110110
10100010
10110110
10010100

TIL z
00000000
00011000
00111100
01111110
00011000
00011000
00011000
00111100

TIL 1a
00000000
10011001
10111101
01111110
00111100
00100100
00100100
00100100
>
00000000
00011000
10111101
01111110
00111100
00100100
00100100
00100100

TIL 1b
00011000
00011000
01111110
10101101
00110100
00111100
00100100
00100100
>
00000000
00011000
00011000
01111110
10101101
00110100
00111100
00100100

TIL 1c
01010001
01110010
11111111
00111110
11111111
10001000
10011100
10001000
>
01010010
01110010
11111111
00111110
11111111
10001000
10011100
10001000

TIL 1d
00000000
00000000
00000000
01010001
01110010
01111110
00111110
00100010
>
00000000
00000000
00000000
01010010
01110010
01111110
00111110
00100010

TIL 1e
00000000
00000000
00011000
11111111
10111101
00111100
00100100
00000000

TIL 1f
00000000
00111000
11111111
00111000
11111111
10001000
10011100
10001000

TIL 1g
00000000
00000000
00111010
11101010
10001110
11000000
01000000
11000000
>
00000000
00111000
00101000
01101110
01000010
11000010
10000000
11000000

TIL 1h
00001000
00111000
00100000
00101110
00111010
00000011
00000000
00000000
>
00110000
01100000
01001110
01011011
01110001
00000001
00000000
00000000

TIL 1i
10101010
11111111
10000000
10010100
10110110
11100010
10110110
10010100
>
10101010
11111111
10000000
10010100
11110110
10100010
10110110
10010100

TIL 1j
00000000
00000000
00011000
11111111
10111101
00111100
00100100
00000000
>
00000000
00000000
00011001
11111111
10111100
00111100
00100100
00000000

TIL 1k
00000000
00000000
00000000
00000000
00000000
00000000
00000000
11111111

TIL 1l
00000001
00000001
00000001
00000001
00000001
00000001
00000001
11111111

TIL 1m
10000000
10000000
10000000
10000000
10000000
10000000
10000000
11111111

TIL 1n
10000000
10000000
10000000
10000000
10000000
10000000
10000000
10000000

TIL 1o
00000001
00000001
00000001
00000001
00000001
00000001
00000001
00000001

TIL 1p
11111111
00000001
00000001
00000001
00000001
00000001
00000001
00000001

TIL 1q
11111111
10000000
10000000
10000000
10000000
10000000
10000000
10000000

TIL 1r
11111111
00000000
00000000
00000000
00000000
00000000
00000000
00000000

TIL 1s
00000001
00000001
00000001
00000001
00000001
00000001
00000001
11111111

TIL 1t
10000000
10000000
10000000
10000000
10000000
10000000
10000000
11111111

TIL 1u
00000000
00000000
00000000
00000000
00000000
00000000
00000000
11111111

TIL 1v
11111111
11111111
11000000
11000000
11000000
11000000
11000000
11000000

TIL 1w
11000000
11000000
11000000
11111111
11111111
11000000
11000000
11000000

TIL 1x
11000000
11000000
11000000
11000000
11000000
11000000
11111111
11111111

TIL 1y
00000000
00000000
00000000
00000000
00000000
00000000
11111111
11111111

TIL 1z
00000000
00000000
00000000
11111111
11111111
00000000
00000000
00000000

TIL 2a
11000000
11100000
01110000
00111000
00011100
00001110
00000111
00000011

TIL 2b
11000011
11100111
01111110
00111100
00111100
01111110
11100111
11000011

TIL 2c
00000011
00000111
00001110
00011100
00111000
01110000
11100000
11000000

TIL 2d
10000000
00000000
00000000
00000000
00000000
00000000
00000000
10000000

TIL 2e
10000001
00000000
00000000
00000000
00000000
00000000
00000000
00000000

TIL 2f
00000001
00000000
00000000
00000000
00000000
00000000
00000000
00000001

TIL 2g
00000000
00000000
00000000
00000000
00000000
00000000
00000000
10000001

TIL 2h
00000000
00000000
00000000
00000000
00000000
00000000
00000000
00000000

TIL 2i
01111110
01000010
01111110
01000010
01111110
01000010
01111110
01000010

TIL 2j
01111110
01000010
01111110
01000010
01111110
01000010
01111110
11111111

TIL 2k
11111111
01000010
01111110
01000010
01111110
01000010
01111110
01000010

TIL 2l
00000000
00000000
00000000
00000000
01000010
01111110
01000010
11111111

TIL 2m
00000000
00000000
00000000
00000000
00000000
00000000
00000000
10000000

TIL 2n
00000000
00000000
00000000
00000000
00000000
00000000
00000000
00000001

TIL 2o
11111111
11111111
11111111
11111111
11111111
11111111
11111111
11111111

TIL 2p
11111111
11111111
11111111
11111111
11111111
11111111
11111111
11111111
>
00000000
00000000
00000000
00000000
00000000
00000000
00000000
00000000

TIL 2q
00000000
00000000
00000000
00000000
00000000
00000000
00000000
00000000
>
11111111
11111111
11111111
11111111
11111111
11111111
11111111
11111111

TIL 2r
11110000
11110000
11100000
11100000
11000000
11000000
10000000
10000000

TIL 2s
10001111
00001111
00011110
00011110
00111100
00111100
01111000
01111000

TIL 2t
00001111
00001111
00000111
00000111
00000011
00000011
00000001
00000001

TIL 2u
11110001
11110000
01111000
01111000
00111100
00111100
00011110
00011110

TIL 2v
00011000
00001100
10001100
10000110
11001110
11011111
11111011
11110001

TIL 2w
10000110
11001110
11011111
01111011
01110001
00110001
00110000
00011000

TIL 2x
01111101
01111000
00110000
00110000
00011000
00011000
00001100
10001100

TIL 2y
00011000
00001100
00001100
00000110
10000110
10000011
11000111
11001111

TIL 2z
10000110
11000111
11001111
01111101
01111001
00110000
00110000
00011000

TIL 3a
11110000
00010001
10010001
00010001
01111111
01000000
01011100
01000000

TIL 3b
00011111
00001000
00001011
00001000
00011000
00001000
00001000
00001000

TIL 3c
01000000
01000110
01000000
11111111
10010100
10010101
10010100
11110111

TIL 3d
10001001
10001001
10001001
11001001
01011111
01001001
01001001
11001001

TIL 3e
00011111
00000100
00000100
00000100
10000100
00000100
00000100
00000111

TIL 3f
11100111
00100000
10100000
10100000
00100000
00100000
00100000
11111111

TIL 3g
01000000
01000000
01000000
01000000
01000000
01000000
01000000
11000000

TIL 3h
00010000
11010000
00010000
00010000
00010000
11110000
01000000
01000000

TIL 3i
00010010
01010010
01010010
00010010
00010010
11111111
10000000
10000111

TIL 3j
00001000
00001000
10001000
00001000
00001000
00011111
00010010
10010010

TIL 3k
00001001
00001001
00011111
00001001
10001001
10001001
10001001
10011111

TIL 3l
00010001
00010101
00010101
00010001
00011111
00000100
00000100
01111111

TIL 3m
00000000
00000000
00000111
00000100
00000101
00000100
00000100
00011111

TIL 3n
00011111
00001001
11111111
00001001
11001001
00011111
00001001
11111111

TIL 3o
10000010
00000010
11111110
00000010
00000010
10000010
00000010
11111111

TIL 3p
00000000
00000000
00000000
00000000
00000000
00000000
00000000
11111111

TIL 3q
00000000
00000000
00000000
00000000
00000000
00000000
00000000
00001001

TIL 3r
00000000
00000000
00001111
00001000
11111111
00000000
11110000
11110000

TIL 3s
00000000
00000000
00000000
00000000
00000011
00000010
00000010
00000010

TIL 3t
00000000
00000000
00000000
00000000
00000000
00000000
00000000
00000000

TIL 3u
00000000
00000000
10000000
10000000
11000000
01000000
01111111
01000000

TIL 3v
01111111
01000000
01000000
01000000
01000000
01000000
01000000
11110000

TIL 3w
11110100
00011100
00000000
00000000
00000000
00000000
00000000
00000000

TIL 3x
00000000
00000000
00000000
00000000
00000000
00011100
11110100
00010100

TIL 3y
00000101
00000100
00000101
11111111
10000001
10001101
10000001
11111111

TIL 3z
11000000
00000011
11111110
00000010
00011010
00000010
00000010
11111111

TIL 4a
00000000
00000000
00000000
00000000
11111000
00001000
00001000
00001111

TIL 4b
00000000
00000000
00000000
00000000
00000000
00000000
00000000
10000000

TIL 4c
00011111
00010001
00011111
00001010
00001010
00001010
00001010
00001010

TIL 4d
11111111
10000000
10110000
10110000
10000000
10000000
10000000
11111111

TIL 4e
10000111
10000000
10000001
11111111
10000001
10110001
10000001
11111111

TIL 4f
01000000
01000000
11111110
00000011
01000010
01000010
00000010
11111111

TIL 4g
11111111
10000001
10001101
11100001
00100001
10100001
00100001
11111111

TIL 4h
00000000
00000000
00000000
11000000
01000000
01000000
01000000
01000000

TIL 4i
00000000
00000000
00000000
11111111
10000000
10000001
11000001
01000001

TIL 4j
00000000
00000000
00000000
00000000
00000000
00000000
11111111
10000000

TIL 4k
11111111
11111111
11111111
11111111
11111111
11111111
11111111
11111111

TIL 4l
00000000
00000000
00000000
11111111
11111111
00000000
11111111
11111111

TIL 4m
11111111
11111111
00000000
11111111
11111111
00000000
00000000
00000000

TIL 4n
11111111
11111111
11000000
11011111
11011111
11011000
11011011
11011011

TIL 4o
11011000
11011000
11011000
11011111
11011111
11000000
11111111
11111111

TIL 4p
11011000
11011000
11011000
11011000
11011000
11011000
11011000
11011000

TIL 4q
00000000
00000111
00011001
00100001
00100010
01011111
01001010
01000110

TIL 4r
00000000
11100000
10011000
10000100
01000100
11111010
01010010
01100010

TIL 4t
01000010
01000011
01000101
00100110
00100100
00011000
00000111
00000000

TIL 4u
01000010
11000010
10100010
01100100
00100100
00011000
11100000
00000000

TIL 4v
11111111
11111111
00000000
11111111
11111111
00000000
00000000
11000000

TIL 4w
11110000
11000000
11100000
00100000
00110000
00010000
00000000
00000000

TIL 4x
11011000
11011000
11011001
11011001
11011011
11011010
11011000
11011000

TIL 4y
00000000
00000000
01000000
11100000
01000000
00000000
00000000
00000000

TIL 4z
00000000
00000010
00000001
00000010
00000000
00000000
00000000
00000000

TIL 5a
00000000
00000000
00010000
00000000
00000000
00000000
00000000
00000000

TIL 5b
00000000
00000000
00000000
00000000
00000000
00000000
00100000
00000000

TIL 5c
00000000
00000000
00000000
00000000
00000000
00000010
00000111
00001111

TIL 5d
00000000
00000000
00000000
00000000
00000000
00000000
00000000
10000000

TIL 5e
01000000
01000000
11110000
01000000
01000000
00000000
00000000
00000000

TIL 5f
00000000
00000000
00000001
00000000
00000000
00000000
00000000
00000000

TIL 5g
01000000
00000000
00000000
00000000
00000000
00000000
00000000
00000000

TIL 5h
00000000
01000000
10000000
01000000
00000000
00000000
00000000
00000000

TIL 5i
00000000
00000001
00000000
00000001
00000000
00000000
00000000
00000000

TIL 5j
00000000
00000000
00000000
00000000
00000000
00000101
00000010
00000101

TIL 5k
00000000
00000000
10000000
00000000
00000000
00000000
00000000
00000000

TIL 5l
00000010
00000111
00001111
00000111
00000010
00000000
00000000
00000000

TIL 5m
00000000
00000000
00000000
10000000
00000000
00000000
00000000
00000000

TIL 5n
00000111
00000010
00000000
00000000
00000000
00000000
00000000
00000000

TIL 5o
00000000
00000000
00000000
00000000
00000000
00000000
00000010
00000001

TIL 5p
00000000
00000000
00000000
00000000
00000000
00000000
10000000
00000000

TIL 5q
10000000
00000000
00000000
00000000
00000000
00000000
00000000
00000000

TIL 5r
00000010
00000000
00000000
00000000
00000000
00000000
00000000
00000000

TIL 5s
00000000
00000000
00010000
00000000
00000000
00000000
00000000
00000000

TIL 5t
00000000
00000000
00010000
00010000
01111100
00010000
00010000
00000000

TIL 5u
00000000
00000000
00000000
00000000
00000000
00000000
00000000
00000010

TIL 5v
00000111
00000010
00000000
00000000
00000000
00000000
00000000
00000000

TIL 5w
00000000
00000000
00000000
00000000
00000000
00000000
00100000
01110000

TIL 5x
00100000
00000000
00000000
00000000
00000000
00000000
00000000
00000000

TIL 5y
00100000
00000000
00000000
00000000
00000000
00000000
00000000
00000000

TIL 5z
00000000
00000000
00000000
00000000
00000000
00000000
00000000
00000010

TIL 6a
00000000
00000000
00001000
00011100
00111110
00011100
00001000
00000000

TIL 6b
00000000
00000000
00000000
00000000
00000000
00000000
00000000
01000000

TIL 6c
00000000
00000001
00000000
00000000
00000000
00000000
00000000
00000000

TIL 6d
01000000
11110000
01000000
01000000
00000000
00000000
00000000
00000000

TIL 6e
00000000
00000000
00000000
00000000
00100000
00100000
11111000
00100000

TIL 6f
00100000
00000000
00000000
00000000
00000000
00000000
00000000
00000000

TIL 6g
00000000
00000000
00000000
00010100
00001000
00010100
00000000
00000000

TIL 6h
00000000
00000000
00000000
00000000
00000000
00000000
00100000
01110000

TIL 6i
00000000
00000000
00000000
00000000
00010000
00111000
01111100
00111000

TIL 6j
00010000
00000000
00000000
00000000
00000000
00000000
00000000
00000000

TIL 6k
00000000
00000000
00000000
00000000
00001000
00011100
00001000
00000000

TIL 6l
00000000
00000000
00000000
01000000
00000000
00000000
00000000
00000000

TIL 6m
01000000
10000000
01000000
00000000
00000000
00000000
00000000
00000000

TIL 6n
00000001
00000000
00000001
00000000
00000000
00000000
00000000
00000000

TIL 6o
00000000
00000000
00000000
00000000
00000000
00000000
00000000
00000010

TIL 6p
00000000
00000010
00000001
00000010
00000000
00000000
00000000
00000000

TIL 6q
00000000
10000000
00000000
10000000
00000000
00000000
00000000
00000000

TIL 6r
00000000
00000000
00000000
00000000
00001000
00000000
00000000
00000000

TIL 6s
00100000
00000000
00000000
00000000
00000000
00000000
00000000
00000000

TIL 6t
00000000
00000000
00000000
00000100
00000000
00000000
00000000
00000000

TIL 6u
00000000
00000000
00000000
00000000
00000100
00001110
00000100
00000000

TIL 6v
00000000
00000000
00000000
00000000
00000000
00000000
00100000
00000000

TIL 6w
00000000
00000000
00010000
00111000
00010000
00000000
00000000
00000000

TIL 6x
00000000
00000000
00000000
00000000
00000000
00000000
00100000
00100000

TIL 6y
11111000
00100000
00100000
00000000
00000000
00000000
00000000
00000000

TIL 6z
00000000
00000000
00100000
00000000
00000000
00000000
00000000
00000000

TIL 7a
00000100
00000000
00000000
00000000
00000000
00000000
00000000
00000000

TIL 7b
00000000
00000000
00000010
00000111
00000010
00000000
00000000
00000000

TIL 7c
00000000
00000000
00000000
00000000
00001000
00000000
00000000
00000000

TIL 7d
00000000
00000000
00000000
00000000
00000000
00000000
00000000
00001010

TIL 7e
00000100
00001010
00000000
00000000
00000000
00000000
00000000
00000000

TIL 7f
00011111
00001110
00000100
00000000
00000000
00000000
00000000
00000000

TIL 7g
00000000
00000000
00000000
00000000
00000000
00000000
00000100
00001110

TIL 7h
00000000
00000000
00000000
01000000
00000000
00000000
00000000
00000000

TIL 7i
00000000
00000000
00000000
00000000
00000000
00001000
00000000
00000000

TIL 7j
01010000
00100000
01010000
00000000
00000000
00000000
00000000
00000000

TIL 7k
00000000
00011000
00011000
00111100
00100100
00111100
00111100
00100100

TIL 7l
11111111
10000001
11111111
11000011
11111111
11100111
11111111
11111111

TIL 7m
01100110
11000110
11000000
11000000
11000000
11000110
01100110
00111100

TIL 7n
01100110
01100110
01100110
01111100
01101100
01100110
01100110
11100110

TIL 7o
00111100
01100110
01100110
01100110
01111110
01100110
01100110
01100110

TIL 7p
01100110
01100000
01100000
00111000
00001100
01100110
01100110
00111100

TIL 7q
11001100
11001100
11001100
11111100
11001100
11001100
11001100
11001100

TIL 7r
11110000
11110000
11110000
01100000
01100000
00000000
01100000
01100000

TIL 7s
00000000
00000000
00000000
00000000
00000000
00000000
00000000
00000000

TIL 7t
11001100
11001100
11001100
11111100
11001100
11001100
11001100
11001100

TIL 7u
01111000
11001100
11001100
11001100
11111100
11001100
11001100
11001100

TIL 7v
11110011
11110001
11110000
01100000
01100000
00000000
01100000
01100000

TIL 7w
00000000
00000000
00000000
00000000
00000000
00000000
00000000
01100011

TIL 7x
11001100
01001000
00000000
00000000
00000000
00000000
00000000
00000000

TIL 7y
00000000
00000000
00000000
00000000
00000000
00000000
00000000
11001100

TIL 7z
00110000
00100000
00000000
00000000
00000000
00000000
00000000
00000000

TIL 8a
10110100
00110000
00110000
00110000
00110000
00110000
00110000
01111000

TIL 8b
00000000
00000000
00000000
00000000
00000000
00000000
00000000
11111100

TIL 8c
00000000
00000000
00111100
00000110
00111110
01100110
01100110
00111011

TIL 8d
00010000
00110000
01111110
00110000
00110000
00110000
00110111
00011110

TIL 8e
01100000
01100000
01101100
01110110
01100110
01100110
01100110
11100110

TIL 8f
00000000
00000000
00000000
00000000
00000000
00000000
00000000
11100000

TIL 8g
00001100
00001100
01111100
11001100
11001100
11001100
11001100
01110110

TIL 8h
00000000
00000000
00000000
00000000
00000000
00000000
00000000
00011100

TIL 8i
00011000
00000000
01111000
00011000
00011000
00011000
00011000
01111110

TIL 8j
00000000
00000000
00000000
00000000
00000000
00000000
00000000
00011000

TIL 8k
00000110
00000110
00111110
01100110
01100110
01100110
01100110
00111011

TIL 8l
00000000
00000000
00000000
00000000
00000000
00000000
00000000
00001110

TIL 8m
00000000
00000000
00111110
00110011
00110011
00110011
00110011
00110011

TIL 8n
00110000
00011000
00000000
00000001
00000000
00000000
00000000
00000000

TIL 8o
00000000
00000000
00000000
00000000
00000000
00000000
00000000
00110000

TIL 8p
00000000
01000000
11000000
11111000
11000000
11000000
11011100
01111000

TIL 8q
00000000
00000000
01111000
11001100
01100000
00011000
11001100
01111000

TIL 8r
00000000
00000000
01111000
11001100
11001100
11001100
11001100
01111000

TIL 8s
00000000
00000000
11001100
11001100
11001100
11001100
11001100
01110110

TIL 8t
00000000
00000000
01111100
01100110
01100110
01100110
01100110
01100110

TIL 8u
00000000
00000000
00000000
00000000
00000000
00000000
00000000
00000000

TIL 8v
00000000
00000000
01110110
11001100
11001100
11001100
01111100
00001100

TIL 8w
11001100
01111000
00000000
00000000
00000000
00000000
00000000
00000000

TIL 8x
00000000
00000000
00000000
00000000
00000000
00000000
00000000
00000000

TIL 8y
00000000
00000000
00111100
01100110
01100110
01100110
01100110
00111100

TIL 9a
11111111
00000000
00000000
00000000
00000000
00000000
00000000
00000000

TIL 9b
00000000
00000000
00000000
00000000
00000000
00000000
00000000
11111111

TIL 9c
00000000
00000000
00000000
11100111
11100111
00000000
00000000
00000000

TIL 9d
11111111
00000001
00000001
00000001
00000001
00000001
00000001
11111111

TIL 9e
11111111
10000001
10000001
10000001
10000001
10000001
10000001
11111111

TIL 9f
10000100
11111111
10100000
11111111
10000100
11111111
10100000
11111111

TIL 9g
00000101
11111111
00100001
11111111
00000101
11111111
00100001
11111111

TIL 9h
00000100
11111111
00100000
11111111
00000100
11111111
00100000
11111111

TIL 9i
00000001
00000011
00000111
00001100
00011000
00111111
01100000
11111111

TIL 9j
10000000
11000000
11100000
00110000
00011000
11111100
00000110
11111111

TIL 9k
11111111
00000000
11111111
00000000
00000000
11111111
00000000
11111111

TIL 9l
11111111
10000000
10111011
10101010
10111010
10100011
10000000
11111111

TIL 9m
11100100
00111111
00100000
10111111
10100100
00111111
00100000
11111111

TIL 9n
11111111
00000000
00000000
00000000
00000000
11111111
00000000
11111111

TIL 9o
01111110
11000011
10000001
10100001
10100001
10000001
10000001
11111111

TIL 9p
00000000
00001100
00000000
01100000
00000110
00000000
00110000
00000000

TIL 9q
00000000
00000010
00100100
01000000
00000010
00100100
01000000
00000000

TIL 9r
11111111
10000000
10000000
10011111
10011111
10011000
10011000
10011001

TIL 9s
11111111
00000000
00000000
11111111
11111111
00000000
00000000
11111111

TIL 9t
11111111
00000001
00000001
11111001
11111001
00011001
00011001
10011001

TIL 9u
10011001
10011001
10011001
10011001
10011001
10011001
10011001
10011001

TIL 9v
10011001
10011000
10011000
10011111
10011111
10000000
10000000
11111111

TIL 9w
10011001
00011001
00011001
11111001
11111001
00000001
00000001
11111111

TIL 9x
11111111
10000000
10000000
10000000
10000000
11111111
10000000
11111111

TIL 9y
11111111
00000001
00000001
00000001
00000001
11111111
00000001
11111111

TIL 9z
11111111
00000000
00000000
00000000
00000000
11111111
00000000
11111111

TIL a0
00000000
01111110
01000010
01001010
01010010
01000010
01111110
00100100

TIL a1
00000000
00000000
00000000
00000000
00000000
00000000
00000000
00000000

TIL a2
11111111
10000001
10000011
10000011
10000001
11111111
00000001
00000000

TIL a3
11000000
01000000
11110000
00010000
11111100
11000100
11111111
11110001

TIL a4
00111111
00101111
00101011
00101010
00101010
00101011
00101111
00111111

TIL a5
10000000
10101010
10101010
10101010
10101010
10101010
10101010
10000000

TIL a6
00000000
01111110
00000000
01111110
00000000
01111110
00000000
11111111

TIL a7
00000001
01010101
01010101
01010101
01010101
01010101
01010101
00000001

TIL a8
11111111
00000000
01111110
00000000
01111110
00000000
01111110
00000000

TIL a9
00000001
01010100
01010110
01010000
01011110
01000000
01111110
00000000

TIL aa
00000000
01111110
01000000
01011110
01010000
01010110
01010100
00000001

TIL ab
00000000
01111110
00000010
01111010
00001010
01101010
00101010
10000000

TIL ac
10000000
00101010
01101010
00001010
01111010
00000010
01111110
00000000

TIL ad
00000011
00000010
00001111
00001000
00111111
00100000
11111111
10000000

TIL ae
11111111
10000000
10101010
10101010
10101010
10101010
10000000
11111111

TIL af
00000000
00000000
00000000
00000000
00000000
00000000
00000000
00000000

SPR 10
01000010
01000011
01000101
00100110
00100100
00011000
00000111
00000000
POS 7 8,8

SPR 11
01000010
11000010
10100010
01100100
00100100
00011000
11100000
00000000
POS 7 9,8

SPR 12
00000000
10011000
10111100
11111111
00111101
00100101
00100100
01100110
>
00000000
00011001
00111101
11111111
10111100
10100100
00100100
01100110
POS 7 12,8

SPR 13
00111100
00100100
00100100
00111100
01111110
01111110
00111100
00100100
POS 9 9,6

SPR 14
00000000
00000111
00011001
00100001
00100010
01011111
01001010
01000110
>
00000000
00001111
00110011
01000011
01000100
10111111
10010100
10001100
POS 9 8,7

SPR 15
00000000
11100000
10011000
10000100
01000100
11111010
01010010
01100010
>
00000000
11000000
00110000
00001000
10001000
11110100
10100100
11000100
POS 9 9,7

SPR 16
01000010
01000011
01000101
00100110
00100100
00011000
00000111
00000000
>
10000100
10000111
10001011
01001100
01001000
00110000
00001111
00000000
POS 9 8,8

SPR 17
01000010
11000010
10100010
01100100
00100100
00011000
11100000
00000000
>
10000100
10000100
01000100
11001000
01001000
00110000
11000000
00000000
POS 9 9,8

SPR 18
00000000
00011000
00011000
00111100
00100100
00111100
00111100
00100100
POS 9 4,7

SPR 19
00000000
10011000
10111100
11111111
00111101
00100101
00100100
01100110
>
00000000
00011001
00111101
11111111
10111100
10100100
00100100
01100110
POS 9 12,7

SPR 20
11111111
10000000
10000000
10000000
10000000
11111111
10000000
11111111
POS l 5,6

SPR 21
11111111
10000001
10000011
10000011
10000001
11111111
00000001
00000000
POS l 4,6

SPR 22
10111101
10111101
10111101
10111101
10100101
10000001
11111111
00000000
POS m 4,9

SPR 23
00000000
11111111
10000001
10000001
10000001
10111101
10100101
10100101
POS m 4,8

SPR 24
11110111
10101101
10111101
10100101
10100101
10000001
11111111
00000000
POS m 6,9

SPR 25
00000000
11111111
10000001
10000001
10000001
10011001
10011001
11111111
POS m 6,8

SPR 26
11111111
11111111
11111111
11111111
10100101
10000001
11111111
00000000
POS m 8,9

SPR 27
00000000
11111111
10000001
10011001
10111101
11111111
11111111
11111111
POS m 8,8

SPR 28
11111111
10111101
10111101
10100101
10100101
10000001
11111111
00000000
POS m 10,9

SPR 29
00000000
11111111
10000001
10000001
10100101
10111101
10111101
10011001
POS m 10,8

SPR A
00011000
00011000
00000000
01011010
10011001
00000000
00100100
00100100
>
00011000
00011000
00000000
01011010
01011010
00000000
00100100
00100100
POS 1 14,2

SPR a
11111111
11000011
10000001
10100001
10100001
10000001
10000001
11111111
POS 1 12,2

SPR b
01010001
01110010
11111111
00111110
11111111
10001000
10011100
10001000
>
01010010
01110010
11111111
00111110
11111111
10001000
10011100
10001000
POS 0 3,3

SPR c
00000000
00111000
11111111
00111000
11111111
10001000
10011100
10001000
POS 0 2,3

SPR d
00000000
00000000
00011000
11111111
10111101
00111100
00100100
00000000
>
00000000
00000000
00011001
11111111
10111100
00111100
00100100
00000000
POS 0 1,2

SPR e
00000000
00011000
00011000
01111110
10110101
00101100
00111100
00100100
>
00011000
00011000
01111110
10110101
00101100
00111100
00100100
00100100
POS 0 13,11

SPR f
00000000
00000000
00000000
00011000
00111100
11111111
00111100
00100100
>
00000000
00000000
00000000
00011000
10111101
01111110
00111100
00100100
POS 0 7,13

SPR g
10101010
11111111
10000000
10010100
10110110
10100010
10110110
10010100
>
10101010
11111111
10000000
10011100
10110110
10100010
10110110
10010100
POS 0 11,9

SPR h
00011000
01111100
01111100
01111110
01111100
01111110
01111110
01000100
>
00011000
01111100
01111110
01111100
01111100
01111110
01111110
01000100
POS 0 2,9

SPR i
00000000
10011000
10111100
11111111
00111101
00100101
00100100
01100110
>
00000000
00011001
00111101
11111111
10111100
10100100
00100100
01100110
POS 0 11,3

SPR j
10111101
11000011
10011001
10100101
10100101
10011001
11000011
10111101
POS 0 3,9

SPR k
10011001
10011001
10011001
10011001
10111001
10011001
10011001
10011001
>
10011001
10011001
10011001
10111001
10011001
10011001
10011001
10011001
POS 0 3,10

SPR l
11111111
11111111
11111111
11111111
11111111
11111111
11111111
11111111
>
00000001
00000001
00000001
00000001
00000001
00000001
00000001
00000001
POS 4 7,8

SPR m
00000001
00000001
00000001
00000001
00000001
00000001
00000001
00000001
>
11111111
11111111
11111111
11111111
11111111
11111111
11111111
11111111
POS 4 7,7

SPR n
00000000
00000000
00011000
10111100
01111111
00111100
00100100
00100100
>
00000000
00000000
00011000
00111101
11111110
00111100
00100100
00100100
POS 3 14,12

SPR o
00000000
10011001
10111101
01111110
00111100
00100100
00100100
00100100
>
00000000
00011000
10111101
01111110
00111100
00100100
00100100
00100100
POS 3 6,12

SPR p
00111100
01111110
10111101
10011001
00000000
00000000
00000000
00000000
>
00111100
01111110
10111101
00011000
00000000
00000000
00000000
00000000
POS 5 5,13

SPR q
00000000
00000000
00011000
10111100
01111111
00111100
00100100
00100100
>
00000000
00000000
00011000
00111101
11111110
00111100
00100100
00100100
POS 5 14,12

SPR r
00000000
10011001
10111101
01111110
00111100
00100100
00100100
00100100
>
00000000
00011000
10111101
01111110
00111100
00100100
00100100
00100100
POS 6 6,12

SPR s
00111100
01111111
10111100
00011000
00000000
00000000
00000000
00000000
>
00111100
11111110
00111101
00011000
00000000
00000000
00000000
00000000
POS 6 14,13

SPR t
00000000
00011000
00111100
11111111
01000010
01000010
01111110
01001010
>
00000000
00011000
00111100
11111111
01000010
01000010
01111110
01010010
POS 3 8,7

SPR u
00000000
00011000
00111100
11111111
01000010
01000010
01111110
01001010
>
00000000
00011000
00111100
11111111
01000010
01000010
01111110
01010010
POS 5 8,7

SPR v
00000000
00011000
00111100
11111111
01000010
01000010
01111110
01001010
>
00000000
00011000
00111100
11111111
01000010
01000010
01111110
01010010
POS 6 8,7

SPR w
00000000
00011000
00011000
00111100
00100100
00111100
00111100
00100100
POS 7 4,7

SPR x
00111100
00100100
00100100
00111100
01111110
01111110
00111100
00100100
POS 7 9,6

SPR y
00000000
11100000
10011000
10000100
01000100
11111010
01010010
01100010
POS 7 9,7

SPR z
00000000
00000111
00011001
00100001
00100010
01011111
01001010
01000110
POS 7 8,7

SPR 1a
00111100
00100100
00100100
00111100
01111110
01111110
00111100
00100100
POS a 9,6

SPR 1b
00000000
00000111
00011001
00100001
00100010
01011111
01001010
01000110
>
00000000
00001111
00110011
01000011
01000100
10111111
10010100
10001100
POS a 8,7

SPR 1c
00000000
11100000
10011000
10000100
01000100
11111010
01010010
01100010
>
00000000
11000000
00110000
00001000
10001000
11110100
10100100
11000100
POS a 9,7

SPR 1d
01000010
01000011
01000101
00100110
00100100
00011000
00000111
00000000
>
10000100
10000111
10001011
01001100
01001000
00110000
00001111
00000000
POS a 8,8

SPR 1e
01000010
11000010
10100010
01100100
00100100
00011000
11100000
00000000
>
10000100
10000100
01000100
11001000
01001000
00110000
11000000
00000000
POS a 9,8

SPR 1f
00000000
10011000
10111100
11111111
00111101
00100101
00100100
01100110
>
00000000
00011001
00111101
11111111
10111100
10100100
00100100
01100110
POS a 12,7

SPR 1g
01111110
01001010
01111110
01001010
01111110
01010010
01010010
01111110
POS f 8,6

SPR 1h
01111110
01001010
01111110
01001010
01111110
01010010
01010010
01111110
POS b 8,6

SPR 1i
01111110
01001010
01111110
01001010
01111110
01010010
01010010
01111110
POS g 8,6

SPR 1j
01111110
01001010
01111110
01001010
01111110
01010010
01010010
01111110
POS h 8,6

SPR 1k
10111100
10100100
11100100
11111100
10111100
10111100
11111100
11100100
POS i 9,6

SPR 1l
00011000
00001000
01111000
00111100
00111100
01111000
00001000
00011000
POS j 2,2

SPR 1m
00000000
01000000
11111111
11111110
11111111
10001010
10011110
10001000
>
00000000
01000000
11111111
11111110
11111111
10001010
10011110
10001000
POS j 3,3

SPR 1n
10000010
11001011
01110100
10000000
01000101
10000010
10110110
10010100
POS j 11,9

SPR 1o
00000000
01100001
01100111
01101111
01111111
01111111
01111110
01000100
POS j 2,9

SPR 1p
10111101
11000011
11111001
11100101
11100101
10011001
11000011
10111101
POS j 3,9

SPR 1q
00000000
11111110
00000010
10101010
10010010
10101010
00000010
11111110
POS j 8,14

SPR 1r
00000000
11111111
10000000
10111011
10110010
10111011
10000000
11111111
POS j 7,14

SPR 1s
00000000
00001100
11111100
00111111
00101111
11111100
00001100
00000000
POS j 13,12

SPR 1t
00000000
00000000
00000011
00000011
00001111
00111111
00101111
01101111
POS j 11,3

SPR 1u
00000000
00011000
00111100
01111110
00011000
00011000
00011011
00111110
POS 0 14,8

SPR 1v
00000000
00011000
00111100
01111110
00011000
00011000
00011000
00111110
POS 1 14,8

SPR 1w
00000000
00011100
00101111
11111001
10000001
11111111
01100110
01100110
>
00011100
00101111
11111001
10000001
11111111
01100110
01100110
00000000
POS k 10,12

SPR 1x
00000000
00011000
00111100
01111110
01111110
00100100
00100100
00100100
POS k 7,7

SPR 1y
00000000
00011000
00111100
01111110
01111110
00100100
00100100
00100100
POS k 5,7

SPR 1z
00000000
00011000
01111110
01111110
01111110
01000010
01000010
00000000
POS l 5,5

SPR 2a
10001001
10011001
10010001
10011101
10000001
10000001
11111111
00000000
POS m 4,6

SPR 2b
10000001
10000001
10000001
10000001
10000001
10000001
11111111
00000000
POS m 6,6

SPR 2c
10011001
10011011
10111111
10000001
10000001
10000001
11111111
00000000
POS m 8,6

SPR 2d
10111101
10111101
10100101
10000001
10000001
10000001
11111111
00000000
POS m 10,6

SPR 2e
00000000
11111111
10000001
10000001
10000001
10000001
10011001
11111111
POS m 10,5

SPR 2f
00000000
11111111
10000001
10000001
10011001
10111101
11111111
10011001
POS m 8,5

SPR 2g
00000000
11111111
10000001
10000001
10000001
10000001
10000001
10000001
POS m 6,5

SPR 2h
00000000
11111111
10000001
10000001
10001001
10111001
10100001
10111001
POS m 4,5

SPR 2i
00000000
01111111
01000000
01011100
01011100
01011100
01000000
01000000
POS m 12,9

SPR 2j
00000000
00000000
00011000
00111100
01111110
00111100
00111100
00100100
POS m 12,7

DLG 10
*Unholy screeching of billions of damed soul*

DLG 11
*Unholy screeching of billions of damed soul*

DLG 12
"The view is great from the balcony."

DLG 13
"So.. pretty..."

DLG 14
*Unholy screeching of billions of damed soul intensifies*

DLG 15
*Unholy screeching of billions of damed soul intensifies*

DLG 16
*Unholy screeching of billions of damed soul intensifies*

DLG 17
*Unholy screeching of billions of damed soul intensifies*

DLG 18
"Makes you think, doesn't it?"

DLG 19
"Sup."

DLG 20
Body confirmation? go though over to the right.

DLG 21
The flap won't move, there isn't any known way of getting past something like this.

DLG 22
Subject #6 "His blood was compleatly replaced with goat blood."

DLG 23
Subject #6 "His blood was compleatly replaced with goat blood."

DLG 24
Subject #4 "He died of a deathly reaction to cat air thing stuff... he had alrgies to cats."

DLG 25
Subject #4 "He died of a deathly reaction to cat air thing stuff... he had alrgies to cats."

DLG 26
Subject #5 "he suffacated on what is known as Subject #7" Subject #7 "A tiny man that died from BEING IN SIDE ANOTHER HUMAN BEING!"

DLG 27
Subject #5 "he suffacated on what is known as Subject #7" Subject #7 "A tiny man that died from BEING IN SIDE ANOTHER HUMAN BEING!"

DLG 28
Subject #3 "At first it seems as if someone hit the cat with evidence #1 multiple times, but it turns out that the cat head-butted evidence #1 until bleeding to death."

DLG 29
Subject #3 "At first it seems as if someone hit the cat with evidence #1 multiple times, but it turns out that the cat head-butted evidence #1 until bleeding to death."

DLG a
There is a note that says "Ring the door bell at the end of the protruding wall."

DLG c
A can of cat brand tuna, smells fishy and is about fifty times as heavy as it should be.

DLG b
"MEOW"

DLG d
"That cat has been trying to get me to open that can of tuna! I'm not gonna do it!"

DLG e
This man is covered in flour or some other powder.            This obviously means he is a baker.

DLG f
It's a magic box! really big inside!

DLG g
"Hey, get away from my girl!                                There seems to be a snake lying ontop of the pattern on the rug, it's impossible to tell if there is another snake here.

DLG h
"So.. full.."

DLG i
"Welcome! It's good to see you, how long has it been? Never mind, please talk to the other friends I invited!"

DLG j
A stack of plates, all licked clean.

DLG k
"I'm hungry! no one every thinks of the little guy!"              It apears to be a very small man, a "little guy" if you will.

DLG m
"TOLD YOU IT WAS BIGGER ON THE INSIDE!"                        If you had eardrums, they would be shattered.

DLG l
"TOLD YOU IT WAS BIGGER ON THE INSIDE!"                        If you had eardrums, they would be shattered.

DLG o
"Use the box cannon and destroy his base!"

DLG n
"Take this box rock, get on my base with the handles and throw it at his base!"

DLG p
"I WILL REBUILD!"

DLG q
"We did it!"

DLG r
*Evil laughter*

DLG s
"I WILL REBUILD!"

DLG t
"I'm the box historian, I did a deal with the box, sacrificed a goat and now I don't age as long as I stay in the box and record what happens in the box, I'm going to do this for a few more hundred years, Waiting for that future stuff! I have to write this down now."

DLG u
He's writing down what just happend.

DLG v
He's writing down what just happend.

DLG w
Look though the telescope, it's beautiful.

DLG x
"I think I might have drawn the wrong symbol and really, really messed up... darn."                                            "Atleast the room is lit up well."

DLG y
*Unholy screeching of billions of damed soul*

DLG z
*Unholy screeching of billions of damed soul*

DLG 1f
"The power went out! We should go to the attic, the breaker is there."

DLG 1j
There is a lot of sparking wires , but it seems to work again.

DLG 1k
There's no pulse but there isn't any sign

DLG 1l
It seems this man die from a hit to the head with a heavy blunt object.

DLG 1m
The cat seems to have been killed by repeated strikes to the forehead with a blunt object.

DLG 1n
The snake is dead on a very ripped up carpet, no outward signs of harm.

DLG 1p
The man is dead with his face on the plate, no outward signs of harm.

DLG 1o
The man is dead with his face on the plate, no outward signs of harm.

DLG 1q
The box has a pool of blood coming from it, it's also taped from the inside so there's no way of opening it.

DLG 1r
The box has a pool of blood coming from it, it's also taped from the inside so there's no way of opening it.

DLG 1s
The dead baker is clutching the can of cat brand tuna, his face is red from some kind of reaction, maybe poison

DLG 1t
the host is in the fetal postion, trying not to cry.

DLG 1u
The lamp is pluged in.

DLG 1v
the cord for the lamp was cut, the horror.

DLG 1w
*AGRESSIVE CAR NOISES*

DLG 1x
"Please go in a confirm the bodies."

DLG 1y
*Police noises*

DLG 1z
Body confirmation? go though over to the right.

DLG 2e
Subject #2 "It seems evidence #1 was droped on his head and he died."

DLG 2i
Evidence #1 "A can labed 'cat brand tuna' fifty times heavyer than normal, when it was opened up it was revealed to contain compacted cocain."

DLG 2f
Subject #1 "A lamp that got a signal though the power cord that it's lamp lover killed itself, we found out the other lamp handn't killed itself but it got the news about it's lover and joined it." *sniff* "So beautiful."

DLG 2c
Subject #1 "A lamp that got a signal though the power cord that it's lamp lover killed itself, we found out the other lamp handn't killed itself but it got the news about it's lover and joined it." *sniff* "So beautiful."

DLG 2d
Subject #2 "It seems evidence #1 was droped on his head and he died."

DLG 2a
Suject #8 this snake injested a toxic dye found in carpets."

DLG 2h
Suject #8 this snake injested a toxic dye found in carpets."

DLG 2j
This guy is the person that makes the notes for bodies, he is really bad at it, you are sure it's his fault, his fault alone, not the fault of a person making a game and getting really anoyyed at it, that same medaforacal person also would be finssing this game like three hours  before the jam ended.                  Your pretty sure this guy (the body note guy) is named dave, dave is totally a jerk and noone likes him, stop jugging the creator of some bitsy game, I SAID STOP IT.

END 0
Well **** parties.

