
A Problem

# BITSY VERSION 4.5

! ROOM_FORMAT 1

PAL 0
203,148,189
255,255,255
255,255,255

PAL 1
0,0,0
255,255,255
255,255,255

PAL 2
203,148,189
255,255,255
203,148,189

ROOM 0
0,0,0,0,0,0,0,0,0,0,0,0,0,0,0,0
0,0,0,0,0,0,0,0,0,0,0,0,0,0,0,0
0,0,0,0,0,0,0,0,0,0,0,0,0,0,0,0
0,0,0,0,0,0,0,0,0,0,0,0,0,0,0,0
0,0,0,0,0,0,0,0,0,0,0,0,0,0,0,0
0,0,0,0,0,0,0,0,0,0,0,0,0,0,0,0
0,0,0,0,0,0,0,0,0,0,0,0,0,0,0,0
0,0,0,0,0,0,0,o,p,0,0,0,0,0,0,0
0,0,0,0,0,0,0,m,n,0,0,0,0,0,0,0
0,0,0,0,0,0,0,0,0,0,0,0,0,0,0,0
0,0,0,0,0,0,0,0,0,0,0,0,0,0,0,0
0,0,0,0,0,0,0,0,0,0,0,0,0,0,0,0
0,0,0,0,0,0,0,0,0,0,0,0,0,0,0,0
0,0,0,0,0,0,0,0,0,0,0,0,0,0,0,0
0,0,0,0,0,0,0,0,0,0,0,0,0,0,0,0
0,0,0,0,0,0,0,0,0,0,0,0,0,0,0,0
EXT 7,8 1 12,3
EXT 8,8 1 12,3
EXT 7,7 1 12,3
EXT 8,7 1 12,3
PAL 1

ROOM 1
0,0,0,0,0,0,0,0,0,0,0,0,0,0,0,0
0,0,0,0,0,0,0,0,0,0,0,0,0,0,0,0
0,0,0,0,0,0,0,0,0,0,0,0,0,0,0,0
0,0,0,0,0,0,0,0,0,0,0,0,0,0,0,0
0,0,0,0,0,0,0,0,0,0,0,0,0,0,0,0
0,0,0,0,0,0,0,0,0,0,0,0,0,0,0,0
0,0,0,0,0,0,0,0,0,0,0,0,0,0,0,0
0,0,0,0,0,0,0,c,d,0,0,0,0,0,0,0
0,0,0,0,0,0,0,a,b,0,0,0,0,0,0,0
0,0,0,0,0,0,0,0,0,0,0,0,0,0,0,0
0,0,0,0,0,0,0,0,0,0,0,0,0,0,0,0
0,0,0,0,0,0,0,0,0,0,0,0,0,0,0,0
0,0,0,0,0,0,0,0,0,0,0,0,0,0,0,0
0,0,0,0,0,0,0,0,0,0,0,0,0,0,0,0
0,0,0,0,0,0,0,0,0,0,0,0,0,0,0,0
0,0,0,0,0,0,0,0,0,0,0,0,0,0,0,0
EXT 8,7 2 8,8
EXT 7,7 2 7,8
EXT 8,8 2 8,9
EXT 7,8 2 7,9
PAL 1

ROOM 2
0,0,0,0,0,0,0,0,e,0,0,e,0,0,0,0
0,0,0,0,0,0,0,0,e,0,0,e,0,0,0,0
0,0,0,0,0,0,0,0,e,0,0,e,0,0,0,0
0,0,0,0,0,0,0,e,0,0,0,e,0,0,0,0
0,0,0,0,0,0,0,e,0,0,e,0,0,0,0,0
0,0,0,0,0,0,e,0,0,0,e,0,0,0,0,0
0,0,0,0,0,0,e,0,0,0,e,0,0,0,0,0
0,0,0,0,0,0,e,0,0,e,0,0,0,0,0,0
0,0,0,0,0,0,e,0,0,e,0,0,0,0,0,0
0,0,0,0,0,0,e,0,0,e,0,0,0,0,0,0
0,0,0,0,0,0,0,0,0,e,0,0,0,0,0,0
0,0,0,0,0,0,0,0,0,0,0,0,0,0,0,0
0,0,0,0,0,0,0,0,0,0,0,0,0,0,0,0
0,0,0,0,0,0,0,0,0,0,0,0,0,0,0,0
0,0,0,0,0,0,0,0,0,0,0,0,0,0,0,0
0,0,0,0,0,0,0,0,0,0,0,0,0,0,0,0
EXT 10,0 4 10,15
EXT 9,0 4 9,15
PAL 1

ROOM 3
0,0,0,0,0,0,0,0,0,0,0,0,0,0,0,0
e,e,e,e,e,e,e,e,0,0,0,0,0,0,0,0
0,0,0,0,0,0,0,0,e,e,e,e,0,0,0,0
0,0,0,0,0,0,0,0,0,0,0,0,e,e,0,0
0,0,0,0,0,0,0,0,0,0,0,0,0,0,e,0
0,0,0,0,0,0,0,0,0,0,0,0,0,0,e,0
0,0,0,0,0,0,0,0,0,0,0,0,0,r,e,0
0,0,0,0,0,0,0,0,0,0,0,0,0,q,e,0
0,0,0,0,0,0,0,0,0,0,0,0,0,0,e,0
0,0,0,0,0,0,0,0,0,0,0,0,0,0,e,0
0,0,0,0,0,0,0,0,0,0,0,0,e,e,0,0
e,e,e,e,e,e,e,e,e,e,e,e,0,0,0,0
0,0,0,0,0,0,0,0,0,0,0,0,0,0,0,0
0,0,0,0,0,0,0,0,0,0,0,0,0,0,0,0
0,0,0,0,0,0,0,0,0,0,0,0,0,0,0,0
0,0,0,0,0,0,0,0,0,0,0,0,0,0,0,0
EXT 13,6 5 7,15
EXT 13,7 5 7,15
PAL 1

ROOM 4
0,0,0,0,0,0,0,0,0,0,0,0,0,0,0,0
0,0,0,0,0,0,0,0,0,0,0,e,e,e,e,e
0,0,0,0,0,0,0,0,0,0,e,0,0,0,0,0
0,0,0,0,0,0,0,0,0,0,e,0,0,0,0,0
0,0,0,0,0,0,0,0,0,e,0,0,0,0,0,0
0,0,0,0,0,0,0,0,0,e,0,0,0,0,0,0
0,0,0,0,0,0,0,0,0,e,0,0,0,0,0,0
0,0,0,0,0,0,0,0,e,0,0,0,0,0,0,0
0,0,0,0,0,0,0,0,e,0,0,0,0,0,0,0
0,0,0,0,0,0,0,0,e,0,0,0,0,0,0,0
0,0,0,0,0,0,0,0,e,0,0,0,0,0,0,0
0,0,0,0,0,0,0,0,e,0,0,0,0,0,e,e
0,0,0,0,0,0,0,0,e,0,0,0,0,e,0,0
0,0,0,0,0,0,0,0,e,0,0,0,e,0,0,0
0,0,0,0,0,0,0,0,e,0,0,e,0,0,0,0
0,0,0,0,0,0,0,0,e,0,0,e,0,0,0,0
EXT 15,2 3 0,2
EXT 15,3 3 0,3
EXT 15,4 3 0,4
EXT 15,5 3 0,5
EXT 15,6 3 0,6
EXT 15,7 3 0,7
EXT 15,8 3 0,8
EXT 15,9 3 0,9
EXT 15,10 3 0,10
PAL 1

ROOM 5
e,f,e,e,f,e,e,h,0,0,u,0,0,0,0,0
e,e,e,e,e,e,e,g,l,l,t,l,l,0,0,0
e,e,e,e,e,e,e,e,e,e,e,e,k,0,0,0
e,e,e,e,e,e,e,0,0,0,0,0,0,0,0,0
e,f,e,e,f,e,e,j,0,0,0,0,0,0,0,0
e,e,e,e,e,e,e,i,l,l,l,l,l,0,0,0
e,e,e,e,e,e,e,e,e,e,e,e,k,0,0,0
e,e,e,e,e,e,e,0,0,0,0,0,0,0,0,0
e,f,e,e,f,e,e,j,0,0,0,0,0,0,0,0e,
e,e,e,e,e,e,e,i,l,l,l,l,l,0,0,0e,
e,e,e,e,e,e,e,e,e,e,e,e,k,0,0,0
e,e,e,e,e,e,e,0,0,0,0,0,0,0,0,0
e,f,e,e,f,e,e,j,0,0,0,0,0,0,0,0
e,e,e,e,e,e,e,i,l,l,l,l,l,0,0,0
e,e,e,e,e,e,e,e,e,e,e,e,k,0,0,0
e,e,e,e,e,e,e,0,0,0,0,0,0,0,0,0
EXT 8,15 6 7,15
PAL 2

ROOM 6
e,f,e,e,f,e,e,h,0,0,0,u,0,0,0,0
e,e,e,e,e,e,e,g,l,l,l,t,l,0,0,0
e,e,e,e,e,e,e,e,e,e,e,e,k,0,0,0
e,e,e,e,e,e,e,0,0,0,0,0,0,0,0,0
e,f,e,e,f,e,e,j,0,0,0,0,0,0,0,0
e,e,e,e,e,e,e,i,l,l,l,l,l,0,0,0
e,e,e,e,e,e,e,e,e,e,e,e,k,0,0,0
e,e,e,e,e,e,e,0,0,0,0,0,0,0,0,0
e,f,e,e,f,e,e,j,0,0,0,0,0,0,0,0,e
e,e,e,e,e,e,e,i,l,l,l,l,l,0,0,0,e
e,e,e,e,e,e,e,e,e,e,e,e,k,0,0,0
e,e,e,e,e,e,e,0,0,0,0,0,0,0,0,0
e,f,e,e,f,e,e,j,0,0,0,0,0,0,0,0
e,e,e,e,e,e,e,i,l,l,l,l,l,0,0,0
e,e,e,e,e,e,e,e,e,e,e,e,k,0,0,0
e,e,e,e,e,e,e,0,0,0,0,0,0,0,0,0
EXT 8,15 7 7,15
PAL 2

ROOM 7
e,f,e,e,f,e,e,h,0,0,0,0,u,0,0,0
e,e,e,e,e,e,e,g,l,l,l,l,t,0,0,0
e,e,e,e,e,e,e,e,e,e,e,e,k,0,0,0
e,e,e,e,e,e,e,0,0,0,0,0,0,0,0,0
e,f,e,e,f,e,e,j,0,0,0,0,0,0,0,0
e,e,e,e,e,e,e,i,l,l,l,l,l,0,0,0
e,e,e,e,e,e,e,e,e,e,e,e,k,0,0,0
e,e,e,e,e,e,e,0,0,0,0,0,0,0,0,0
e,f,e,e,f,e,e,j,0,0,0,0,0,0,0,0,e
e,e,e,e,e,e,e,i,l,l,l,l,l,0,0,0,e
e,e,e,e,e,e,e,e,e,e,e,e,k,0,0,0
e,e,e,e,e,e,e,0,0,0,0,0,0,0,0,0
e,f,e,e,f,e,e,j,0,0,0,0,0,0,0,0
e,e,e,e,e,e,e,i,l,l,l,l,l,0,0,0
e,e,e,e,e,e,e,e,e,e,e,e,k,0,0,0
e,e,e,e,e,e,e,0,0,0,0,0,0,0,0,0
EXT 8,15 8 7,15
PAL 2

ROOM 8
e,f,e,e,f,e,e,h,0,0,0,0,w,0,0,0
e,e,e,e,e,e,e,g,l,l,l,l,v,0,0,0
e,e,e,e,e,e,e,e,e,e,e,e,k,0,0,0
e,e,e,e,e,e,e,0,0,0,0,0,0,0,0,0
e,f,e,e,f,e,e,j,0,0,0,0,0,0,0,0
e,e,e,e,e,e,e,i,l,l,l,l,l,0,0,0
e,e,e,e,e,e,e,e,e,e,e,e,k,0,0,0
e,e,e,e,e,e,e,0,0,0,0,0,0,0,0,0
e,f,e,e,f,e,e,j,0,0,0,0,0,0,0,0,e
e,e,e,e,e,e,e,i,l,l,l,l,l,0,0,0,e
e,e,e,e,e,e,e,e,e,e,e,e,k,0,0,0
e,e,e,e,e,e,e,0,0,0,0,0,0,0,0,0
e,f,e,e,f,e,e,j,0,0,0,0,0,0,0,0
e,e,e,e,e,e,e,i,l,l,l,l,l,0,0,0
e,e,e,e,e,e,e,e,e,e,e,e,k,0,0,0
e,e,e,e,e,e,e,0,0,0,0,0,0,0,0,0
EXT 8,15 9 7,15
PAL 2

ROOM 9
e,f,e,e,f,e,e,h,0,0,0,0,y,0,0,0
e,e,e,e,e,e,e,g,l,l,l,l,x,0,0,0
e,e,e,e,e,e,e,e,e,e,e,e,k,0,0,0
e,e,e,e,e,e,e,0,0,0,0,0,0,0,0,0
e,f,e,e,f,e,e,j,0,0,0,0,0,0,0,0
e,e,e,e,e,e,e,i,l,l,l,l,l,0,0,0
e,e,e,e,e,e,e,e,e,e,e,e,k,0,0,0
e,e,e,e,e,e,e,0,0,0,0,0,0,0,0,0
e,f,e,e,f,e,e,j,0,0,0,0,0,0,0,0,e
e,e,e,e,e,e,e,i,l,l,l,l,l,0,0,0,e
e,e,e,e,e,e,e,e,e,e,e,e,k,0,0,0
e,e,e,e,e,e,e,0,0,0,0,0,0,0,0,0
e,f,e,e,f,e,e,j,0,0,0,0,0,0,0,0
e,e,e,e,e,e,e,i,l,l,l,l,l,0,0,0
e,e,e,e,e,e,e,e,e,e,e,e,k,0,0,0
e,e,e,e,e,e,e,0,0,0,0,0,0,0,0,0
END undefined 8,15
PAL 2

TIL a
00000011
00000001
00000000
00000000
00000000
00000000
00000000
00000000

TIL b
11000000
00000000
00000000
00000000
00000000
00000000
00000000
00000000

TIL c
00000000
00000000
00000000
00000000
00000000
00000000
00000001
00000011

TIL d
00000000
00000000
00000000
00000000
00000000
00000000
11000000
11100000

TIL e
11111111
11111111
11111111
11111111
11111111
11111111
111111111
11111111
WAL true

TIL f
11111111
11011011
10000001
11000011
11000011
10000001
110110111
11111111
WAL true

TIL g
11111000
11001000
11111000
11111000
11111111
11111010
11111010
11111010
WAL true

TIL h
00000000
11111000
11111000
11111000
11111000
11111000
11111000
11111000
WAL true

TIL i
10000000
10000000
10000000
10000000
11111111
10101010
10101010
10101010

TIL j
00000000
10000000
10000000
10000000
10000000
10000000
10000000
10000000

TIL k
11111111
11111111
11111111
11111111
11111111
11111111
111111001
11100000
WAL true

TIL l
00000000
00000000
00000000
00000000
11111111
10101010
10101010
10101010

TIL m
00000001
00000000
00000000
00000000
00000000
00000000
00000000
00000000

TIL n
10000000
00000000
00000000
00000000
00000000
00000000
00000000
00000000

TIL o
00000000
00000000
00000000
00000000
00000000
00000000
00000000
00000001

TIL p
00000000
00000000
00000000
00000000
00000000
00000000
00000000
10000000

TIL q
00010011
00000011
00000011
00000011
00000011
00000011
000000001
00000000
>
00001011
00010011
00000011
00000011
00000011
00000011
00000000
00000000
WAL false

TIL r
00000000
00000000
00000011
00000011
00000011
00000011
000100111
00001011
>
00000000
00000000
00000011
00000011
00000011
00000011
00000011
00010011
WAL false

TIL s
00000000
00000000
00000000
00010001
00001010
00000100
00001000
00000000

TIL t
00011110
00011000
00011000
00010100
11111111
10101010
10101010
10101010

TIL u
00000000
00000000
00000000
00000000
00000000
00000000
00001110
00001110

TIL v
00001111
00001100
00001100
00001010
11111111
10101010
10101010
10101010

TIL w
00000000
00000000
00000000
00000000
00000000
00000000
00000111
00000111

TIL x
00001111
00001111
00001100
00001010
11111111
10101010
10101010
10101010

TIL y
00000000
00000000
00000000
00000000
00000000
00000000
00000000
00000111

SPR A
00000000
00000000
00011100
00111100
00111100
00110000
00101000
00000000
>
00000000
00011100
00011100
00111100
00110000
00110000
00101000
00000000
POS 0 3,12

SPR a
00000000
00000000
01010001
01110001
01110010
01111100
00111100
00100100
DLG SPR_0

ITM 0
00000000
00000000
00000000
00111100
01100100
00100100
00011000
00000000
NAME tea
DLG ITM_0

DLG SPR_0
I'm a cat

DLG ITM_0
You found a nice warm cup of tea

END 0


END undefined
Problem Solved

VAR a
42


