
Lisa

# BITSY VERSION 4.8

! ROOM_FORMAT 1

PAL 0
NAME palette 0
0,82,204
128,159,255
255,255,255

PAL 1
NAME palette 1
199,231,254
55,181,255
60,70,255

ROOM 0
f,f,f,f,f,f,f,f,f,f,f,f,f,f,f,f
f,f,d,f,f,f,f,f,f,f,f,f,f,f,f,f
f,f,f,f,f,f,f,f,f,f,f,f,f,f,f,f
f,f,f,f,i,k,m,o,q,r,s,t,f,f,f,f
f,f,f,f,h,j,l,n,p,p,p,u,v,w,x,f
f,f,f,f,f,f,f,f,f,f,f,f,f,f,f,f
f,f,f,f,f,f,f,f,f,f,f,f,f,f,f,f
e,e,e,e,e,e,e,e,e,e,e,e,e,e,e,e
0,0,0,0,0,0,0,0,0,0,0,0,0,0,0,0
0,a,a,0,0,a,0,0,0,0,a,0,0,b,a,0
0,0,0,0,a,a,b,0,0,a,a,a,0,0,0,0
0,a,0,0,a,a,0,c,a,a,a,a,a,a,0,0
0,0,a,a,0,0,a,a,a,a,0,a,a,0,g,a
0,a,a,a,0,a,a,a,b,0,a,0,a,a,0,0
0,0,0,a,b,a,a,0,a,c,a,a,a,0,0,0
0,0,0,0,0,0,0,0,0,0,0,0,0,0,0,0
NAME month_1
ITM 1 15,12
EXT 15,12 1 4,12
PAL 0

ROOM 1
f,f,f,f,f,f,f,f,f,f,f,f,f,f,f,f
f,f,f,y,f,f,f,f,f,f,f,f,f,f,f,f
f,f,f,f,f,f,f,f,f,f,f,f,f,f,f,f
f,f,i,k,m,o,q,r,s,t,f,f,f,f,f,f
f,f,h,j,l,n,p,p,p,u,v,w,x,f,f,f
f,f,f,f,f,f,f,f,f,f,f,f,f,f,f,f
f,f,f,f,f,f,f,f,f,f,f,f,f,f,f,f
e,e,e,e,e,e,e,e,e,e,e,e,e,e,e,e
0,0,0,0,0,0,0,0,0,0,0,0,0,0,0,0
0,0,0,a,a,0,0,a,a,a,a,a,0,0,0,0
0,0,a,b,a,a,c,a,0,0,0,b,a,0,0,0
0,a,a,a,a,a,a,a,a,a,a,a,a,0,0,0
0,a,a,0,0,0,0,a,a,a,a,a,a,0,g,0
0,a,a,b,a,0,0,a,a,a,0,b,a,0,0,0
0,0,a,a,a,a,a,a,a,a,a,0,0,0,0,0
0,0,0,0,0,0,0,0,0,0,0,0,0,0,0,0
NAME month_2
ITM 2 15,12
EXT 15,12 2 4,12
PAL 0

ROOM 2
f,f,f,f,f,f,f,f,f,f,f,f,f,f,f,f
f,f,f,f,z,f,f,f,f,f,f,f,f,f,f,f
f,f,f,f,f,f,f,f,f,f,f,f,f,f,f,f
i,k,m,o,q,r,s,t,f,f,f,f,f,f,f,f
h,j,l,n,p,p,p,u,v,w,x,f,f,f,f,f
f,f,f,f,f,f,f,f,f,f,f,f,f,f,f,f
f,f,f,f,f,f,f,f,f,f,f,f,f,f,f,f
e,e,e,e,e,e,e,e,e,e,e,e,e,e,e,e
0,0,0,0,0,0,0,0,0,0,0,0,0,0,0,0
0,c,0,0,a,0,0,b,0,0,0,a,0,0,0,0
0,0,0,a,a,a,0,a,a,a,a,0,0,a,a,0
0,0,a,0,0,0,a,0,a,0,0,0,0,a,0,0
0,a,0,0,0,0,0,a,a,0,0,a,a,0,g,0
0,a,0,a,0,0,a,a,0,c,a,a,0,0,0,0
0,0,a,0,0,b,a,0,0,0,a,0,b,0,0,0
0,0,0,0,0,0,0,0,0,0,0,0,0,0,0,0
NAME month_3
ITM 3 15,12
EXT 15,12 3 4,12
PAL 0

ROOM 3
f,f,f,f,f,f,f,f,f,f,f,f,f,f,f,f
f,f,f,f,f,10,f,f,f,f,f,f,f,f,f,f
f,f,f,f,f,f,f,f,f,f,f,f,f,f,f,f
m,o,q,r,s,t,f,f,f,f,f,f,f,f,f,f
l,n,p,p,p,u,v,w,x,f,f,f,f,f,f,f
f,f,f,f,f,f,f,f,f,f,f,f,f,f,f,f
f,f,f,f,f,f,f,f,f,f,f,f,f,f,f,f
e,e,e,e,e,e,e,e,e,e,e,e,e,e,e,e
0,0,0,0,0,0,0,0,0,0,0,0,0,0,0,0
0,0,c,b,0,0,a,0,a,a,a,0,0,0,0,0
0,0,0,0,0,0,0,a,a,a,a,0,0,b,0,0
0,0,0,0,0,0,0,a,a,a,0,0,0,0,0,0
0,0,0,0,0,0,a,0,0,0,0,0,0,0,g,0
0,a,a,0,0,0,0,0,0,0,0,a,a,0,a,0
0,a,a,a,a,0,a,0,0,b,0,a,a,a,0,0
0,0,0,0,0,0,0,0,0,0,0,0,0,0,0,0
NAME month_4
ITM 4 15,12
EXT 15,12 4 4,12
PAL 0

ROOM 4
f,f,f,f,f,f,f,f,f,f,f,f,f,f,f,f
f,f,f,f,f,f,11,f,f,f,f,f,f,f,f,f
f,f,f,f,f,f,f,f,f,f,f,f,f,f,f,f
q,r,s,t,f,f,f,f,f,f,f,f,f,f,f,f
p,p,p,u,v,w,x,f,f,f,f,f,f,f,f,f
f,f,f,f,f,f,f,f,f,f,f,f,f,f,f,f
f,f,f,f,f,f,f,f,f,f,f,f,f,f,f,f
e,e,e,e,e,e,e,e,e,e,e,e,e,e,e,e
0,0,0,0,0,0,0,0,0,0,0,0,0,0,0,0
0,0,0,0,0,0,b,0,0,0,0,0,0,0,0,0
0,0,a,0,0,a,a,0,0,0,a,0,0,0,0,0
0,0,a,0,a,a,a,0,0,a,a,0,a,0,0,0
0,0,a,a,0,a,0,0,a,0,a,a,0,0,0,0
0,0,0,a,a,0,0,0,0,0,0,0,0,0,0,0
0,0,a,a,c,0,0,a,b,0,0,0,0,0,0,0
0,0,0,0,0,0,0,0,0,0,0,0,0,0,0,0
NAME month_5
EXT 5,12 5 5,12
EXT 5,11 5 5,11
EXT 5,10 5 5,10
EXT 5,9 5 5,9
EXT 5,8 5 5,8
EXT 5,13 5 5,13
EXT 5,14 5 5,14
EXT 5,15 5 5,15
PAL 0

ROOM 5
f,f,f,f,f,f,f,f,f,f,f,f,f,f,f,f
f,f,f,f,f,f,f,f,f,f,f,f,f,f,f,f
f,f,f,f,f,f,f,f,f,f,f,f,f,f,f,f
s,t,f,f,f,f,f,f,f,f,f,f,f,f,f,f
p,u,v,w,x,f,f,f,f,f,f,f,f,f,f,f
f,f,f,f,f,f,f,f,f,f,f,f,f,f,f,f
f,f,f,f,f,f,f,f,f,f,f,f,f,f,f,f
e,e,e,e,e,e,e,e,e,e,e,e,e,e,e,e
0,0,0,0,0,0,0,0,0,0,0,0,0,0,0,0
0,0,0,0,0,0,b,0,0,0,0,0,0,0,0,0
0,0,a,0,0,a,a,0,0,0,a,0,0,0,0,0
0,0,a,0,a,a,a,0,0,a,a,0,a,0,0,0
0,0,a,a,0,a,0,0,a,0,a,a,0,0,0,0
0,0,0,a,a,0,0,0,0,0,0,0,0,0,0,0
0,0,a,a,c,0,0,a,b,0,0,0,0,0,0,0
0,0,0,0,0,0,0,0,0,0,0,0,0,0,0,0
NAME month_6
EXT 6,12 6 6,12
EXT 6,11 6 6,11
EXT 6,10 6 6,10
EXT 6,9 6 6,9
EXT 6,8 6 6,8
EXT 6,13 6 6,13
EXT 6,14 6 6,14
EXT 6,15 6 6,15
PAL 0

ROOM 6
f,f,f,f,f,f,f,f,f,f,f,f,f,f,f,f
f,f,f,f,f,f,f,f,f,f,f,f,f,f,f,f
f,f,f,f,f,f,f,f,f,f,f,f,f,f,f,f
f,f,f,f,f,f,f,f,f,f,f,f,f,f,f,f
v,w,x,f,f,f,f,f,f,f,f,f,f,f,f,f
f,f,f,f,f,f,f,f,f,f,f,f,f,f,f,f
f,f,f,f,f,f,f,f,f,f,f,f,f,f,f,f
e,e,e,e,e,e,e,e,e,e,e,e,e,e,e,e
0,0,0,0,0,0,0,0,0,0,0,0,0,0,0,0
0,0,0,0,0,0,b,0,0,0,0,0,0,0,0,0
0,0,a,0,0,a,a,0,0,0,a,0,0,0,0,0
0,0,a,0,a,a,a,0,0,a,a,0,a,0,0,0
0,0,a,a,0,a,0,0,a,0,a,a,0,0,0,0
0,0,0,a,a,0,0,0,0,0,0,0,0,0,0,0
0,0,a,a,c,0,0,a,b,0,0,0,0,0,0,0
0,0,0,0,0,0,0,0,0,0,0,0,0,0,0,0
NAME month_7
EXT 15,12 7 0,12
END 0 13,12
PAL 0

ROOM 7
f,f,f,f,f,f,f,f,f,f,f,f,f,f,f,f
f,f,f,f,f,f,f,f,f,f,f,f,f,f,f,f
f,f,f,f,f,f,f,f,f,f,f,f,f,f,f,f
f,f,f,f,f,f,f,f,f,f,f,f,f,f,f,f
x,f,f,f,f,f,f,f,f,f,f,f,f,f,f,f
f,f,f,f,f,f,f,f,f,f,f,f,f,f,f,f
f,f,f,f,f,f,f,f,f,f,f,f,f,f,f,f
e,e,e,e,e,e,e,e,e,e,e,e,e,e,e,e
a,0,c,0,0,f,d,f,f,d,f,0,0,a,0,0
0,0,0,0,0,f,x,x,x,x,f,0,0,a,a,0
0,0,0,0,b,f,f,f,f,f,f,b,0,c,a,0
0,0,0,b,0,f,f,f,f,f,f,0,b,0,a,0
0,a,0,0,0,f,f,o,u,o,v,0,0,0,a,0
a,a,0,0,0,f,f,f,f,f,f,0,0,0,0,0
a,a,a,0,0,f,f,f,f,f,f,0,0,a,0,0
0,a,a,0,0,f,f,f,f,f,f,0,0,a,a,0
NAME month_7_2
END 0 15,12
END 0 14,12
END 0 13,12
END 0 13,11
END 0 14,11
END 0 15,11
END 0 13,13
END 0 14,13
END 0 15,13
PAL 0

TIL 10
11001111
10001111
00011111
00011111
00011111
00011111
10001111
11001111
NAME moon_4

TIL 11
11000111
10011111
00111111
00111111
00111111
00111111
10011111
11001111
NAME moon_5

TIL a
00000000
00000000
00110000
01100000
00000000
00000100
00001110
00000000
NAME grass

TIL b
00000000
01000000
10100000
01000010
00100101
00100010
00000100
00000100
NAME flowers

TIL c
00000000
00001110
00011111
00111111
00111111
00000000
01100000
11110000
NAME rocks

TIL d
11000011
10000001
00000000
00000000
00000000
00000000
10000001
11000011
NAME moon

TIL e
11111111
11111111
00000000
11111111
11111111
00000000
00000000
11111111
NAME horizon
WAL true

TIL f
11111111
11111111
11111111
11111111
11111111
11111111
11111111
11111111
NAME plain

TIL g
00010000
00011000
10011100
11111110
10011100
00011000
00010000
00000000
>
00001000
00001100
01001110
01111111
01001110
00001100
00001000
00000000
NAME arrow_right

TIL h
11111111
11111111
11111111
00000000
11111000
11111111
11111111
11111111
NAME cloud_1

TIL i
11111111
11111111
11111111
11111111
11111111
11111111
11111111
11110000
NAME cloud_2

TIL j
11000000
11100000
11110000
00000000
00000000
11111111
11111111
11111111
NAME cloud_3

TIL k
11111111
11111111
11111111
11111111
11111111
11111111
11110000
00000000
NAME cloud_4

TIL l
00111111
00000111
01111111
00000000
00000000
11111111
11111111
11111111
NAME cloud_5

TIL m
11111111
11111111
11111111
11111111
11111000
11100011
00001111
11111111
NAME cloud_6

TIL n
11111111
11111111
11111111
00111100
00011110
10000000
11111111
11111111
NAME cloud_7

TIL o
11111111
11111000
11000011
00000111
00000001
11111111
11111111
11111111
NAME cloud_8

TIL p
11111111
11111111
11111111
00000000
00000000
00000000
11111111
11111111
NAME cloud_9

TIL q
10000001
00111100
11111110
11111111
11111111
11111111
11111111
11111111
NAME cloud_10

TIL r
11111111
11111111
00111111
10001111
11100011
11000000
10000000
11111111
NAME cloud_11

TIL s
11111111
11111111
11111111
11111111
11111111
00000000
00011111
10000000
NAME cloud_12

TIL t
11111111
11111111
11111111
11111111
11111111
01111111
11111111
00011111
NAME cloud_13

TIL u
11000111
11110000
11111111
00011100
00111000
00000000
11111111
11111111
NAME cloud_14

TIL v
11111111
00001111
11100000
00000000
00000000
00111111
11111111
11111111
NAME cloud_15

TIL w
11111111
11111111
00000001
00000000
00001111
11111111
11111111
11111111
NAME cloud_16

TIL x
11111111
11111111
11111111
00000000
11111111
11111111
11111111
11111111
NAME cloud_17

TIL y
11000111
10000011
00000011
00000011
00000011
00000011
10000011
11000111
NAME moon_2

TIL z
11000111
10000111
00000111
00000111
00000111
00000111
10000111
11000111
NAME moon_3

SPR A
00011000
00011000
00011000
00111100
01111110
10111101
00100100
00100100
>
00000000
00011000
00011000
00011000
00111100
11111111
00111100
00100100
POS 0 4,12

SPR a
00000000
00000000
01010001
01110001
01110010
01111100
00111100
00100100
>
00000000
00000000
00000000
01010001
01110001
01111110
01111100
00100100
NAME lisa_l
DLG SPR_0
POS 0 10,12

SPR b
01011000
01011000
00011000
00111100
01111110
10111101
00100100
00100100
>
00000000
01011000
01011000
00011000
00111100
11111111
00111100
00100100
NAME sis
DLG SPR_1
POS 0 7,13

SPR c
10000000
10001110
00001111
11111111
11111111
00000000
01100110
01100110
>
00000000
10000000
10001110
00001111
11111111
11111111
01100110
01100110
NAME truck
DLG SPR_2
POS 1 9,10

SPR d
00000100
00000100
00000000
01111110
01011010
01111110
01000010
01000010
NAME controller
DLG SPR_3
POS 1 6,13

SPR e
00000000
00000000
01010001
01110001
01110010
01111100
00111100
00100100
>
00000000
00000000
00000000
01010001
01110001
01111110
01111100
00100100
NAME lisa_grass
DLG SPR_4
POS 2 8,9

SPR f
00000000
00000000
10001010
10001110
01001110
00111110
00111100
00100100
>
00000000
00000000
00000000
10001010
10001110
01111110
00111110
00100100
NAME lisa_r
DLG SPR_6
POS 3 8,13

SPR g
00000000
00000000
00000000
00000000
00000000
00110000
01111010
00000000
NAME dead_rat
DLG SPR_5
POS 3 9,13

SPR h
00000000
00000000
10001010
10001110
01001110
00111110
00111100
00100100
>
00000000
00000000
00000000
10001010
10001110
01111110
00111110
00100100
NAME lisa_r_2
POS 4 14,12

SPR i
00000000
00000000
10001010
10001110
01001110
00111110
00111100
00100100
>
00000000
00000000
00000000
10001010
10001110
01111110
00111110
00100100
NAME lisa_r_3
POS 5 15,12

SPR j
00011000
00111100
00011000
00111100
01111110
10111101
00100100
00100100
>
00000000
00011000
00111100
00011000
00111100
11111111
00111100
00100100
NAME d
DLG SPR_7
POS 7 6,11

SPR k
00000000
00000000
00000000
01111000
11111101
00000000
00000000
00000000
DLG SPR_8
POS 7 11,12

ITM 1
00000000
00000000
00011000
00100100
00100100
00011000
00000000
00000000
NAME diag_1
DLG ITM_1

ITM 2
00000000
00000000
00011000
00100100
00100100
00011000
00000000
00000000
NAME diag_2
DLG ITM_0

ITM 3
00000000
00000000
00011000
00100100
00100100
00011000
00000000
00000000
NAME diag_3
DLG ITM_2

ITM 4
00000000
00000000
00011000
00100100
00100100
00011000
00000000
00000000
NAME diag_4
DLG ITM_3

DLG SPR_0
{wvy}meow{wvy}

DLG SPR_1
Mum brought home a kitten, what should we name her?

DLG SPR_2
{shk}The dinner is ready !{shk}

DLG ITM_1
Let's call her Lisa

DLG SPR_3
{wvy}Come sweetie !{wvy}

DLG ITM_0
So you don't want soup ? Do you want eggs ?

DLG SPR_4
{shk}Don't eat grass you silly !{shk}

DLG SPR_5
A dead rat

DLG SPR_6
{wvy}meow{wvy}

DLG SPR_7
I'm sorry

DLG ITM_2
Lisa where are you? Let's play.

DLG ITM_3
Mum, did you see Lisa ?

DLG SPR_8
"""
She's gone now...

Found her moon...

But our memory...

Remains.
"""

END 0
Lisa's gone...

VAR a
42


