Episode 2 - Home Life

# BITSY VERSION 5.1

! ROOM_FORMAT 1

PAL 0
NAME Colours
51,30,1
99,65,1
255,255,255

ROOM 0
0,0,0,0,0,0,0,0,0,0,0,0,0,0,0,0
0,0,0,0,0,0,0,0,0,0,0,0,0,0,0,0
0,0,0,0,0,0,0,0,0,0,0,0,0,0,0,0
0,0,0,0,0,0,0,a,a,a,a,a,a,a,0,0
0,0,0,0,0,0,0,a,b,b,b,b,b,a,0,0
0,0,0,0,0,0,0,a,c,0,0,0,c,a,0,0
0,0,0,0,0,0,0,a,c,h,g,i,c,a,a,a
0,0,0,0,0,0,0,a,c,e,d,f,c,b,b,b
0,0,0,0,0,0,0,a,c,k,j,l,c,c,c,c
0,0,0,0,0,0,0,a,a,a,a,a,a,a,a,a
0,0,0,0,0,0,0,b,b,b,b,b,b,b,b,b
0,0,0,0,0,0,0,0,0,0,0,0,0,0,0,0
0,0,0,0,0,0,0,0,0,0,0,0,0,0,0,0
0,0,0,0,0,0,0,0,0,0,0,0,0,0,0,0
0,0,0,0,0,0,0,0,0,0,0,0,0,0,0,0
0,0,0,0,0,0,0,0,0,0,0,0,0,0,0,0
NAME Basement
ITM 0 12,6
EXT 15,8 1 0,8
PAL 0

ROOM 1
0,0,0,0,0,0,0,0,0,0,0,0,0,0,0,0
0,0,a,a,a,a,a,0,0,0,0,0,0,0,0,0
0,0,a,b,b,b,a,0,0,0,0,0,0,0,0,0
0,0,a,c,c,c,a,0,0,0,0,0,0,0,0,0
0,0,a,c,c,c,a,0,0,0,0,0,0,0,0,0
0,0,a,p,a,p,a,0,0,0,0,0,0,0,0,0
a,a,a,c,a,p,a,0,0,0,0,0,0,0,0,0
b,b,b,b,b,p,a,0,0,0,0,0,0,0,0,0
c,c,c,c,c,c,a,0,0,0,0,0,0,0,0,0
a,a,a,a,a,a,a,0,0,0,0,0,0,0,0,0
b,b,b,b,b,b,b,0,0,0,0,0,0,0,0,0
0,0,0,0,0,0,0,0,0,0,0,0,0,0,0,0
0,0,0,0,0,0,0,0,0,0,0,0,0,0,0,0
0,0,0,0,0,0,0,0,0,0,0,0,0,0,0,0
0,0,0,0,0,0,0,0,0,0,0,0,0,0,0,0
0,0,0,0,0,0,0,0,0,0,0,0,0,0,0,0
NAME BasementStairs
EXT 0,8 2 15,8
EXT 3,6 3 2,6
PAL 0

ROOM 2
0,0,0,0,0,0,0,0,0,0,0,0,0,0,0,0
0,0,0,0,0,0,0,0,0,0,0,0,0,0,0,0
0,0,0,0,0,0,0,0,0,0,0,0,0,0,0,0
0,0,0,0,0,0,0,a,a,a,a,a,a,a,0,0
0,0,0,0,0,0,0,a,b,b,b,b,b,a,0,0
0,0,0,0,0,0,0,a,c,0,0,0,c,a,0,0
0,0,0,0,0,0,0,a,c,h,g,i,c,a,a,a
0,0,0,0,0,0,0,a,c,e,d,f,c,b,b,b
0,0,0,0,0,0,0,a,c,k,j,l,c,c,c,c
0,0,0,0,0,0,0,a,a,a,a,a,q,q,q,a
0,0,0,0,0,0,0,b,b,b,b,b,b,b,b,b
0,0,0,0,0,0,0,0,0,0,0,0,0,0,0,0
0,0,0,0,0,0,0,0,0,0,0,0,0,0,0,0
0,0,0,0,0,0,0,0,0,0,0,0,0,0,0,0
0,0,0,0,0,0,0,0,0,0,0,0,0,0,0,0
0,0,0,0,0,0,0,0,0,0,0,0,0,0,0,0
NAME Basement(Secrets)
ITM 1 12,5
EXT 15,8 1 0,8
END 0 13,8
PAL 0

ROOM 3
0,0,0,0,0,0,0,0,0,0,0,0,0,0,0,0
0,0,0,0,0,a,a,a,a,a,a,a,0,0,0,0
0,0,0,0,0,a,b,w,x,y,b,a,0,0,0,0
0,a,a,a,0,a,c,c,c,c,c,a,0,0,0,0
0,a,b,a,0,a,c,c,c,c,c,a,0,0,0,0
0,a,p,a,0,a,p,p,a,p,p,a,0,0,0,0
a,a,c,a,a,a,p,p,a,c,c,a,a,a,a,a
a,b,c,b,s,b,p,p,b,b,u,v,b,b,b,a
b,t,c,h,g,g,g,g,g,g,i,c,c,c,r,a
c,c,c,k,j,j,j,j,j,j,l,c,c,c,c,a
a,c,a,a,a,a,c,c,a,a,a,a,a,a,a,a
b,c,b,b,b,b,c,c,b,b,b,b,b,b,b,b
0,0,0,0,0,0,0,0,0,0,0,0,0,0,0,0
0,0,0,0,0,0,0,0,0,0,0,0,0,0,0,0
0,0,0,0,0,0,0,0,0,0,0,0,0,0,0,0
0,0,0,0,0,0,0,0,0,0,0,0,0,0,0,0
NAME DownstairsHall
EXT 2,5 1 3,5
EXT 6,11 4 6,11
EXT 7,11 4 7,11
EXT 1,11 7 1,11
EXT 10,6 8 10,6
EXT 9,6 8 9,6
PAL 0

ROOM 4
0,0,0,0,0,0,0,0,0,0,0,0,0,0,0,0
0,0,0,0,0,0,0,0,0,0,0,0,0,0,0,0
0,0,0,0,0,0,0,0,0,0,0,0,0,0,0,0
0,0,0,0,0,0,0,0,0,0,0,0,0,0,0,0
0,0,0,0,0,0,0,0,0,0,0,0,0,0,0,0
0,0,0,0,0,0,0,0,0,0,0,0,0,0,0,0
0,0,0,0,0,0,0,0,0,0,0,0,0,0,0,0
0,0,0,0,0,0,0,0,0,0,0,0,0,0,0,0
0,0,0,0,0,0,0,0,0,0,0,0,0,0,0,0
0,0,0,0,0,0,0,0,0,0,0,0,0,0,0,0
0,0,0,0,0,a,c,c,a,0,0,0,0,0,0,0
0,0,0,0,0,a,c,c,a,0,0,0,0,0,0,0
0,0,0,0,0,b,c,c,b,0,0,0,0,0,0,0
0,0,0,0,0,c,c,c,c,0,0,0,0,0,0,0
0,0,0,0,0,a,a,a,a,0,0,0,0,0,0,0
0,0,0,0,0,b,b,b,b,0,0,0,0,0,0,0
NAME DownstairsHall2
EXT 6,10 3 6,10
EXT 7,10 3 7,10
EXT 9,13 5 9,13
EXT 4,13 6 4,13
PAL 0

ROOM 5
0,0,0,0,0,0,0,0,0,0,0,0,0,0,0,0
0,0,0,0,0,0,0,0,0,0,0,0,0,0,0,0
0,0,0,0,0,0,0,0,0,0,0,0,0,0,0,0
0,0,0,0,0,0,0,0,0,0,0,0,0,0,0,0
0,0,0,0,0,0,0,0,0,0,0,0,0,0,0,0
0,0,0,0,0,0,0,0,0,0,0,0,0,0,0,0
0,0,0,0,0,0,0,0,0,0,0,0,0,0,0,0
0,0,0,0,0,0,0,0,0,0,0,0,0,0,0,0
0,0,0,0,0,0,0,0,0,0,0,0,0,0,0,0
0,0,0,0,0,0,0,0,0,a,a,a,a,a,a,0
0,0,0,0,0,0,0,0,0,a,b,b,b,b,a,0
0,0,0,0,0,0,0,0,a,a,h,g,z,10,a,0
0,0,0,0,0,0,0,0,b,b,e,d,13,14,a,0
0,0,0,0,0,0,0,0,c,c,k,j,11,12,a,0
0,0,0,0,0,0,0,0,a,a,a,a,a,a,a,0
0,0,0,0,0,0,0,0,b,b,b,b,b,b,b,0
NAME Lounge
EXT 8,13 4 8,13
PAL 0

ROOM 6
0,0,0,0,0,0,0,0,0,0,0,0,0,0,0,0
0,0,0,0,0,0,0,0,0,0,0,0,0,0,0,0
0,0,0,0,0,0,0,0,0,0,0,0,0,0,0,0
0,0,0,0,0,0,0,0,0,0,0,0,0,0,0,0
0,0,0,0,0,0,0,0,0,0,0,0,0,0,0,0
0,0,0,0,0,0,0,0,0,0,0,0,0,0,0,0
0,0,0,0,0,0,0,0,0,0,0,0,0,0,0,0
0,0,0,0,0,0,0,0,0,0,0,0,0,0,0,0
a,a,a,a,a,0,0,0,0,0,0,0,0,0,0,0
a,18,15,17,a,0,0,0,0,0,0,0,0,0,0,0
a,19,16,16,a,0,0,0,0,0,0,0,0,0,0,0
a,19,16,16,a,a,0,0,0,0,0,0,0,0,0,0
a,1a,16,16,b,b,0,0,0,0,0,0,0,0,0,0
a,16,16,16,16,16,0,0,0,0,0,0,0,0,0,0
a,a,a,a,a,a,0,0,0,0,0,0,0,0,0,0
0,0,0,0,0,0,0,0,0,0,0,0,0,0,0,0
NAME Kitchen
ITM 2 1,13
EXT 5,13 4 5,13
PAL 0

ROOM 7
0,0,0,0,0,0,0,0,0,0,0,0,0,0,0,0
0,0,0,0,0,0,0,0,0,0,0,0,0,0,0,0
0,0,0,0,0,0,0,0,0,0,0,0,0,0,0,0
0,0,0,0,0,0,0,0,0,0,0,0,0,0,0,0
0,0,0,0,0,0,0,0,0,0,0,0,0,0,0,0
0,0,0,0,0,0,0,0,0,0,0,0,0,0,0,0
0,0,0,0,0,0,0,0,0,0,0,0,0,0,0,0
0,0,0,0,0,0,0,0,0,0,0,0,0,0,0,0
0,0,0,0,0,0,0,0,0,0,0,0,0,0,0,0
0,0,0,0,0,0,0,0,0,0,0,0,0,0,0,0
a,1c,a,a,a,a,a,a,a,a,0,0,0,0,0,0
a,1c,1b,1d,1d,1d,1b,1b,1b,a,0,0,0,0,0,0
a,1c,1c,1c,1c,1c,1c,1c,1c,a,0,0,0,0,0,0
a,1c,1c,1c,1c,1c,1c,1c,1c,a,0,0,0,0,0,0
a,a,a,a,a,a,a,a,a,a,0,0,0,0,0,0
1b,1b,1b,1b,1b,1b,1b,1b,1b,1b,0,0,0,0,0,0
NAME Garage
EXT 1,10 3 1,10
PAL 0

ROOM 8
0,0,0,0,0,0,0,0,0,0,0,0,0,0,0,0
0,0,0,0,0,0,0,0,0,0,0,0,0,0,0,0
0,0,0,0,0,0,0,0,0,0,0,0,0,0,0,0
0,0,0,0,0,0,0,0,0,0,0,0,0,0,0,0
0,0,0,0,0,0,0,0,0,0,0,0,0,0,0,0
0,0,0,0,0,0,0,0,a,p,p,a,0,0,0,0
a,a,a,a,a,a,a,a,a,c,c,a,a,a,a,a
a,b,b,b,b,b,b,b,s,c,c,s,b,b,b,a
a,r,c,c,c,c,c,c,c,c,c,c,c,c,t,a
a,c,c,c,c,c,c,c,c,c,c,c,c,c,c,a
a,a,c,a,a,a,c,a,a,a,a,a,a,c,a,a
b,b,c,b,b,b,c,b,b,b,b,b,b,c,b,b
0,0,0,0,0,0,0,0,0,0,0,0,0,0,0,0
0,0,0,0,0,0,0,0,0,0,0,0,0,0,0,0
0,0,0,0,0,0,0,0,0,0,0,0,0,0,0,0
0,0,0,0,0,0,0,0,0,0,0,0,0,0,0,0
NAME UpstairsHall
EXT 9,5 3 9,5
EXT 10,5 3 10,5
EXT 13,11 9 13,11
EXT 6,11 a 6,11
EXT 2,11 b 2,11
PAL 0

ROOM 9
0,0,0,0,0,0,0,0,0,0,0,0,0,0,0,0
0,0,0,0,0,0,0,0,0,0,0,0,0,0,0,0
0,0,0,0,0,0,0,0,0,0,0,0,0,0,0,0
0,0,0,0,0,0,0,0,0,0,0,0,0,0,0,0
0,0,0,0,0,0,0,0,0,0,0,0,0,0,0,0
0,0,0,0,0,0,0,0,0,0,0,0,0,0,0,0
0,0,0,0,0,0,0,0,0,0,0,0,0,0,0,0
0,0,0,0,0,0,0,0,0,0,0,0,0,0,0,0
0,0,0,0,0,0,0,0,0,0,0,0,0,0,0,0
0,0,0,0,0,0,0,0,0,0,0,0,0,0,0,0
0,0,0,0,0,0,0,a,a,a,a,a,a,c,a,0
0,0,0,0,0,0,0,a,b,b,b,b,b,c,a,0
0,0,0,0,0,0,0,a,0,0,0,0,c,c,a,0
0,0,0,0,0,0,0,a,0,0,c,c,c,c,a,0
0,0,0,0,0,0,0,a,a,a,a,a,a,a,a,0
0,0,0,0,0,0,0,b,b,b,b,b,b,b,b,0
NAME ParentsRoom
EXT 13,10 8 13,10
PAL 0

ROOM a
0,0,0,0,0,0,0,0,0,0,0,0,0,0,0,0
0,0,0,0,0,0,0,0,0,0,0,0,0,0,0,0
0,0,0,0,0,0,0,0,0,0,0,0,0,0,0,0
0,0,0,0,0,0,0,0,0,0,0,0,0,0,0,0
0,0,0,0,0,0,0,0,0,0,0,0,0,0,0,0
0,0,0,0,0,0,0,0,0,0,0,0,0,0,0,0
0,0,0,0,0,0,0,0,0,0,0,0,0,0,0,0
0,0,0,0,0,0,0,0,0,0,0,0,0,0,0,0
0,0,0,0,0,0,0,0,0,0,0,0,0,0,0,0
0,0,0,0,0,0,0,0,0,0,0,0,0,0,0,0
0,0,0,a,a,a,1g,a,0,0,0,0,0,0,0,0
0,0,0,a,1e,1f,1g,a,0,0,0,0,0,0,0,0
0,0,0,a,0,1g,1g,a,0,0,0,0,0,0,0,0
0,0,0,a,1g,1g,1g,a,0,0,0,0,0,0,0,0
0,0,0,a,a,a,a,a,0,0,0,0,0,0,0,0
0,0,0,1e,1e,1e,1e,1e,0,0,0,0,0,0,0,0
NAME Bathoom
EXT 6,10 8 6,10
PAL 0

ROOM b
0,0,0,0,0,0,0,0,0,0,0,0,0,0,0,0
0,0,0,0,0,0,0,0,0,0,0,0,0,0,0,0
0,0,0,0,0,0,0,0,0,0,0,0,0,0,0,0
0,0,0,0,0,0,0,0,0,0,0,0,0,0,0,0
0,0,0,0,0,0,0,0,0,0,0,0,0,0,0,0
0,0,0,0,0,0,0,0,0,0,0,0,0,0,0,0
0,0,0,0,0,0,0,0,0,0,0,0,0,0,0,0
0,0,0,0,0,0,0,0,0,0,0,0,0,0,0,0
0,0,0,0,0,0,0,0,0,0,0,0,0,0,0,0
0,0,0,0,0,0,0,0,0,0,0,0,0,0,0,0
a,a,c,a,0,0,0,0,0,0,0,0,0,0,0,0
a,b,c,a,0,0,0,0,0,0,0,0,0,0,0,0
a,1h,c,a,0,0,0,0,0,0,0,0,0,0,0,0
a,1i,c,a,0,0,0,0,0,0,0,0,0,0,0,0
a,a,a,a,0,0,0,0,0,0,0,0,0,0,0,0
b,b,b,b,0,0,0,0,0,0,0,0,0,0,0,0
NAME Bedroom
EXT 2,10 8 2,10
END 2 1,12
PAL 0

TIL 10
00000000
11111100
11111110
11111110
00000001
11111111
11111111
00000011
NAME SofaRight
WAL true

TIL 11
00000001
01111100
01111111
01100000
01111111
01111111
01100000
00000000
NAME CoffeeTableLeft
WAL true

TIL 12
10000000
00111110
11111110
00000110
11111110
11111110
00000110
00000000
NAME CoffeeTableRight
WAL true

TIL 13
00000000
00111111
00111111
00111111
00111111
00111111
00111111
00111111
NAME TVLeft
WAL true

TIL 14
00000000
11111100
11111100
11111100
11111100
11111100
11111100
11111100
NAME TVRight
WAL true

TIL 15
01010101
10101010
11111111
11111111
10000001
10001101
10000001
11111111
NAME KitchenWall1
WAL true

TIL 16
00001111
00001111
00001111
00001111
11110000
11110000
11110000
11110000
NAME KitchenFloor

TIL 17
01010101
10101010
11111111
11111111
10001001
10011011
10001001
11111111
NAME KitchenWall2
WAL true

TIL 18
01010101
10101010
11111111
11111111
11110001
11110101
11110001
11111111
NAME CounterCorner
WAL true

TIL 19
11110111
11110111
11110111
11110111
11110000
11110000
11110000
11110000
NAME CounterSide
WAL true

TIL a
01010101
10000000
00000001
10000000
00000001
10000000
00000001
10101010
NAME Roof
WAL true

TIL b
00000000
00000000
00000000
11001011
00000000
00000000
00000000
11111111
NAME Wall
WAL true

TIL c
11101111
00000000
01111111
00000000
11011111
00000000
11111101
00000000
NAME Floor

TIL d
01010101
10001000
01010101
00100010
01010101
10001000
01010101
00100010
NAME CarpetCenter

TIL e
01110101
01011000
01110101
01010010
01110101
01011000
01110101
01010010
NAME CarpetLeft

TIL f
01010111
10001101
01010111
00100101
01010111
10001101
01010111
00100101
NAME CarpetRight

TIL g
11111111
01010101
11111111
00100010
01010101
10001000
01010101
00100010
NAME CarpetTop

TIL h
01111111
01010101
01111111
01010010
01110101
01011000
01110101
01010010
NAME CarpetTopLeft

TIL i
11111111
01010101
11111111
00100101
01010111
10001101
01010111
00100101
NAME CarpetTopRight

TIL j
01010101
10001000
01010101
00100010
11111111
01010101
11111111
00000000
NAME CarpetBottom

TIL k
01110101
01011000
01110101
01010010
01111111
01010101
01111111
00000000
NAME CarpetBottomLeft

TIL l
01010111
10001101
01010111
00100101
11111111
01010101
11111111
00000000
NAME CarpetBottomRight

TIL p
11111111
10000001
11111111
11000011
11111111
10000001
11111111
11000011
NAME Stairs

TIL q
01010101
10000000
00000001
10000000
00000001
10000000
00000001
10101010
NAME RoofWalkable
WAL false

TIL r
00000000
00111100
01000010
01000110
01111110
01100110
01100110
00000000
NAME Table W\phone
WAL true

TIL s
00000000
01111110
01000110
11010011
01111110
01111110
00000000
11111111
NAME Picture
WAL true

TIL t
00000000
00111100
01111110
01111110
01111110
01100110
01100110
00000000
NAME Table
WAL true

TIL u
00000000
01111111
01110100
11011111
01010010
01111111
00000000
11111111
NAME MediumPictureLeft
WAL true

TIL v
00000000
11111110
01001010
11110111
01001010
11111110
00000000
11111111
NAME MediumPictureRight
WAL true

TIL w
00000000
01111111
01000011
11011111
01111111
01111111
00000000
11111111
NAME LargePictureLeft
WAL true

TIL x
00000000
11111111
10001100
11111111
11111111
11111111
00000000
11111111
NAME LargePictureMiddle
WAL true

TIL y
00000000
11111110
00000010
00011011
10111110
11111110
00000000
11111111
NAME LargePictureRight
WAL true

TIL z
00000000
00111111
01111111
01111111
10000000
11111111
11111111
11000000
NAME SofaLeft
WAL true

TIL 1a
11110111
11110111
11110111
11110111
11110000
11110000
00000000
11110000
NAME CounterEnd
WAL true

TIL 1b
00000000
00100100
00000000
00001000
10100000
00000010
00000000
11111111
NAME GarageWall
WAL true

TIL 1c
11111111
00011000
00011000
11111111
11111111
01100000
01100000
11111111
NAME GarageFloor

TIL 1d
00000000
01111110
00000000
00000000
01111110
00000000
00000000
11111111
NAME GarageWallShelf
WAL true

TIL 1e
11111111
10011001
10011001
11100111
11100111
10011001
10011001
11111111
NAME BathroomWall
WAL true

TIL 1f
11111111
10000001
00000000
01111110
01111110
00011000
10011001
11011011
NAME BathroomWall W\sink
WAL true

TIL 1g
11111111
10101011
11010101
10101011
11010101
10101011
11010101
11111111
NAME BathroomFloor

TIL 1h
00000000
10000001
10011001
11111111
11111111
10000001
11111111
11000011
NAME BedTop

TIL 1i
11111111
10000001
10000001
10000001
10000001
10000001
11111111
10000001
NAME BedBottom
WAL true

SPR 10
00000000
00111111
00111111
00111111
00111111
00111111
00111111
00111111
NAME TvLeft
DLG SPR_e
POS 5 12,12

SPR 11
00000000
11111100
11111100
11111100
11111100
11111100
11000100
11111100
NAME TvRight
POS 5 13,12

SPR 12
00000001
01111100
01111111
01100000
01111111
01111111
01100000
00000000
NAME CoffeeTableLeft
DLG SPR_f
POS 5 12,13

SPR 13
10000000
00111110
11111110
00000110
11111110
11111110
00000110
00000000
NAME CoffeeTableRight
POS 5 13,13

SPR 14
01111111
10000000
10000011
10000100
01001001
00111010
00000010
11111001
NAME CarLeft
DLG SPR_l
POS 7 5,13

SPR 15
00000000
00000110
11000000
00100000
10010000
01011111
01000000
10011111
NAME CarMidLeft
DLG SPR_k
POS 7 6,13

SPR 16
10000000
10011000
10000011
10000100
10001001
11111010
00000010
11111001
NAME CarMidRight
DLG SPR_j
POS 7 7,13

SPR 17
11111001
00000100
11000100
00100101
10010101
01011000
01000000
10011111
NAME CarRight
DLG SPR_i
POS 7 8,13

SPR 18
11111111
00011000
00011000
11000000
00011111
00100000
01000000
10000000
NAME CarTopLeft
DLG SPR_h
POS 7 6,12

SPR 19
11111111
00011000
00011000
00000011
11111000
10000100
10000010
10000001
NAME CarTopRight
DLG SPR_g
POS 7 7,12

SPR A
00011000
00011000
00000000
00111100
01011010
01011010
00000000
00100100
>
00000000
00011000
00011000
00000000
00111100
01011010
01011010
00100100
POS 0 12,5

SPR a
01110000
11111111
11100000
11111111
11000000
11000000
11000000
11000000
NAME DeskLeft
DLG SPR_0
POS 0 9,5

SPR b
00111110
11100111
11000011
11111111
00000011
00000011
00000011
00000011
NAME DeskRight
DLG SPR_2
POS 0 11,5

SPR c
11111100
11111111
10111111
11111111
00000000
00000000
00000000
00000000
NAME DeskCenter
DLG SPR_1
POS 0 10,5

SPR d
00000000
00000000
00000000
00111111
00100000
00100000
00111111
00000110
NAME LeftMonitor(Left)
POS 0 9,4

SPR e
00000000
00000000
00000000
11001111
01001000
01001000
11001111
00000001
NAME CenterMonito
POS 0 10,4

SPR f
00000000
00000000
00000000
11110000
00010000
00010000
11110000
10000000
NAME RightMonitor
POS 0 11,4

SPR g
01000110
01101110
01111110
01111110
01001010
01011110
01111110
01111110
NAME BookshelfBottom
DLG SPR_3
POS 0 8,5

SPR h
00000000
01111110
01000010
01111110
01100010
01101010
01111110
01111110
NAME BookshelfTop
POS 0 8,4

SPR i
01111110
11111111
11100111
11111111
11111111
10000001
10000001
11111111
NAME Box
DLG SPR_4
POS 1 4,3

SPR j
01110000
11111111
11100000
11111111
11000000
11000000
11000000
11000000
NAME DeskLeftSecret
POS 2 9,5

SPR k
00111110
11100111
11000011
11111111
00000011
00000011
00000011
00000011
NAME DeskRightSecret
POS 2 11,5

SPR l
11111100
11111111
10111111
11111111
00000000
00000000
00000000
00000000
NAME DeskCenterSecret
POS 2 10,5

SPR m
00000000
00000000
00000000
00111111
00100000
00100000
00111111
00000110
NAME LeftMonitorSecret
POS 2 9,4

SPR n
00000000
00000000
00000000
11001111
01001000
01001000
11001111
00000001
NAME MonitorCenterSecret
POS 2 10,4

SPR o
00000000
00000000
00000000
11110000
00010000
00010000
11110000
10000000
NAME RightMonitorSecret
POS 2 11,4

SPR p
01000110
01101110
01111110
01111110
01001010
01011110
01111110
01111110
NAME BookshelfBottomSecret
POS 2 8,5

SPR q
00000000
01111110
01000010
01111110
01100010
01101010
01111110
01111110
NAME BookshelfTopSecret
POS 2 8,4

SPR r
11101111
00000000
01111111
00000000
11011111
00000000
11111101
00000000
NAME Info
DLG SPR_5
POS 3 0,9

SPR s
00000000
01111110
01000010
11010011
01111110
01111110
00000000
11111111
NAME PictureSmall1
DLG SPR_6
POS 3 4,7

SPR t
00000000
01111111
01110100
11011111
01010010
01111111
00000000
11111111
NAME PictureMediumLeft
DLG SPR_8
POS 3 10,7

SPR u
00000000
11111110
01001010
11110111
01001010
11111110
00000000
11111111
NAME PictureMediumRght
DLG SPR_7
POS 3 11,7

SPR v
00000000
01111111
01000110
11011111
01111111
01111111
00000000
11111111
NAME PictureLargeLeft
DLG SPR_9
POS 3 7,2

SPR w
00000000
11111111
10001100
11111111
11111111
11111111
00000000
11111111
NAME PictureLargeCenter
DLG SPR_a
POS 3 8,2

SPR x
00000000
11111110
00000010
00011011
10111110
11111110
00000000
11111111
NAME PictureLargeRight
DLG SPR_b
POS 3 9,2

SPR y
00000000
00111111
01111111
01111111
10000000
11111111
11111111
11000000
NAME SofaLeft
DLG SPR_c
POS 5 12,11

SPR z
00000000
11111100
11111110
11111110
00000001
11111111
11111111
00000011
NAME SofaRight
DLG SPR_d
POS 5 13,11

SPR 1a
01011010
01011010
01011010
00011000
00011000
00011000
00011000
00111100
>
00111100
01011010
01011010
01011010
00011000
00011000
00011000
00111100
NAME MomLegs
DLG SPR_m
POS 5 10,11

SPR 1b
00000000
00000000
00111000
00111000
01011000
00000000
00011000
00111100
>
00000000
00000000
00000000
00111000
00111000
01011000
00000000
00011000
NAME MomHead
POS 5 10,10

SPR 1c
11100001
11111001
11111111
11111111
00000001
11111111
10000011
10111011
NAME ParentsBedRight(Dad)
DLG SPR_o
POS 9 9,12

SPR 1d
10111011
00010011
11111111
00000011
00000011
00000011
11111111
00000011
NAME ParentsBedRightBottom(Dad)
DLG SPR_n
POS 9 9,13

SPR 1e
10000111
10011111
11111111
11111111
10000000
11111111
11000001
11000001
NAME ParentsBedLeft
POS 9 8,12

SPR 1f
11111111
11000000
11111111
11000000
11000000
11000000
11111111
11000000
NAME ParentsBedLeftBottom
POS 9 8,13

SPR 1g
01000001
01011101
01010101
01010101
01010101
01011101
01000001
01111111
NAME WardrobeBL
DLG SPR_q
POS 9 10,12

SPR 1h
10000010
10111010
10101010
10101010
10101010
10111010
10000010
11111110
NAME WardrobeBR
DLG SPR_p
POS 9 11,12

SPR 1i
00000000
01111111
01000001
11011101
01010101
01011101
01000001
11001101
NAME WardrobeTL
POS 9 10,11

SPR 1j
00000000
11111110
10000010
10111011
10101010
10111010
10000010
10110011
NAME WardrobeTR
POS 9 11,11

SPR 1k
00000000
00111100
00111100
01111110
01111110
00111100
00011000
00011000
NAME Toilet
DLG SPR_r
POS a 4,12

ITM 0
11101111
00000000
10111111
00000000
11011111
00000000
11111101
00000000
NAME Info
DLG ITM_0

ITM 1
00000000
00000000
00001000
00011100
00111000
00010000
00000000
00000000
NAME Mom Card
DLG ITM_1

ITM 2
00001111
00000011
00001001
00011101
10111000
10010000
11000000
11110000
NAME Dad Card
DLG ITM_2

DLG SPR_0
My PC. I've poured all my money into this.

DLG ITM_0
I feel safe in this house. Nothing can bother me here.

DLG SPR_1
I love this desk. It looks so perfect.

DLG SPR_2
My Ybox Two. It has some amazing games.

DLG SPR_3
My bookshelf. It's full of the games I own for my Ybox Two

DLG SPR_4
Wow. I just found one of my old games: Zombies. What a dreadful game by LionToothStudios. Can't believe I burnt this onto a disc from Game Jolt.

DLG ITM_1
"""
You found the {wvy}{rbw}Mom card{rbw}{wvy}

She's always been nice to you. She's always been so understanding.
"""

DLG SPR_5
I don't want to go out front.

DLG SPR_6
A lovely picture of a pixel rock.

DLG SPR_7
Some lovely abstract art.

DLG SPR_8
Some lovely abstract art.

DLG SPR_9
What an amazing hillside photo.

DLG SPR_a
What an amazing hillside photo.

DLG SPR_b
What an amazing hillside photo.

DLG SPR_c
Soooooooooooo comfy!

DLG SPR_d
Soooooooooooo comfy!

DLG SPR_e
The TV. What an amazing thing.

DLG SPR_f
What a nice coffee table.

DLG ITM_2
"""
You found the {wvy}{rbw}Dad card{rbw}{wvy}

He's always there when you need a friend to talk to or hang with.
"""

DLG SPR_g
My dads pride and joy. He loves this car so much.

DLG SPR_h
My dads pride and joy. He loves this car so much.

DLG SPR_i
My dads pride and joy. He loves this car so much.

DLG SPR_j
My dads pride and joy. He loves this car so much.

DLG SPR_k
My dads pride and joy. He loves this car so much.

DLG SPR_l
My dads pride and joy. He loves this car so much.

DLG SPR_m
Hey there son. I hope you're having a good day.

DLG SPR_n
Oh hey son. Is your mother home?

DLG SPR_o
Oh hey son. Is your mother home?

DLG SPR_p
Looks like there's another one of dads "business associates" in there.

DLG SPR_q
It's a wardrobe

DLG SPR_r
The pooper.

END 0
You come back into the room to play your games. It's better than going anywhere else. (Ending 1/2)

END 1


END 2
You crawl into your bed and go to sleep. You dream of a world where you don't have any issues at all. Life is good there. (Ending 2/2)

VAR a
42

