
              Oh no                     I fell off the cliff

# BITSY VERSION 4.6

! ROOM_FORMAT 1

PAL 0
13,48,16
50,120,59
50,120,59

ROOM 0
0,0,0,0,0,0,0,0,0,0,0,0,0,0,0,0
0,0,0,0,0,0,0,0,e,e,e,0,0,0,0,0
d,d,d,d,d,d,d,d,d,0,e,0,0,0,0,0
0,0,0,0,0,0,0,0,a,0,0,0,0,0,0,0
0,0,0,0,0,0,0,b,0,0,0,0,0,0,0,0
0,0,0,0,0,0,0,b,0,0,0,0,0,0,0,0
0,0,0,0,0,0,0,b,0,0,0,0,0,0,0,0
0,0,0,0,0,0,0,a,0,0,0,0,0,0,0,0
0,0,0,0,0,0,a,0,0,0,0,0,0,0,0,0
0,0,0,0,0,b,0,0,0,0,0,0,0,0,0,0
0,0,0,0,0,b,0,0,0,0,0,0,0,0,0,0
0,0,0,0,0,a,0,0,0,0,0,0,0,0,0,0
0,0,0,0,b,0,0,0,0,0,0,0,0,0,0,0
0,0,0,0,b,0,0,0,0,0,0,0,0,0,0,0
0,0,0,0,b,0,0,0,0,0,0,0,0,0,0,0
0,0,0,0,0,c,c,c,c,c,c,c,c,c,c,c
NAME 0
EXT 9,3 1 9,3
PAL 0

ROOM 1
0,0,0,0,0,0,0,0,0,0,0,0,0,0,0,0
0,0,0,0,0,0,0,0,0,0,0,0,0,0,0,0
d,d,d,d,d,d,d,d,d,e,e,0,0,0,0,0
0,0,0,0,0,0,0,0,a,0,e,0,0,0,0,0
0,0,0,0,0,0,0,b,0,0,0,0,0,0,0,0
0,0,0,0,0,0,0,b,0,0,0,0,0,0,0,0
0,0,0,0,0,0,0,b,0,0,0,0,0,0,0,0
0,0,0,0,0,0,0,a,0,0,0,0,0,0,0,0
0,0,0,0,0,0,a,0,0,0,0,0,0,0,0,0
0,0,0,0,0,b,0,0,0,0,0,0,0,0,0,0
0,0,0,0,0,b,0,0,0,0,0,0,0,0,0,0
0,0,0,0,0,a,0,0,0,0,0,f,0,g,0,0
0,0,0,0,b,0,0,0,0,0,0,j,i,h,0,0
0,0,0,0,b,0,0,0,0,0,0,0,0,0,0,0
0,0,0,0,b,0,0,0,0,0,0,0,0,0,0,0
0,0,0,0,0,c,c,c,c,c,c,c,c,c,c,c
ITM 0 9,3
EXT 9,4 2 9,4
PAL 0

ROOM 2
0,0,0,0,0,0,0,0,0,0,0,0,0,0,0,0
0,0,0,0,0,0,0,0,0,0,0,0,0,0,0,0
d,d,d,d,d,d,d,d,d,0,0,0,0,0,0,0
0,0,0,0,0,0,0,0,a,e,e,0,0,0,0,0
0,0,0,0,0,0,0,b,e,0,e,0,0,0,0,0
0,0,0,0,0,0,0,b,0,0,0,0,0,0,0,0
0,0,0,0,0,0,0,b,0,0,0,0,0,0,0,0
0,0,0,0,0,0,0,a,0,0,0,0,0,0,0,0
0,0,0,0,0,0,a,0,0,0,0,0,0,0,0,0
0,0,0,0,0,b,0,0,0,0,0,0,0,0,0,0
0,0,0,0,0,b,0,0,0,0,0,0,0,0,0,0
0,0,0,0,0,a,0,0,0,0,0,0,0,0,0,0
0,0,0,0,b,0,0,0,0,0,0,0,0,0,0,0
0,0,0,0,b,0,0,0,0,0,0,0,0,0,0,0
0,0,0,0,b,0,0,0,0,0,0,0,0,0,0,0
0,0,0,0,0,c,c,c,c,c,c,c,c,c,c,c
EXT 9,5 3 9,5
PAL 0

ROOM 3
0,0,0,0,0,0,0,0,0,0,0,0,0,0,0,0
0,0,0,0,0,0,0,0,0,0,0,0,0,0,0,0
d,d,d,d,d,d,d,d,d,0,0,0,0,0,0,0
0,0,0,0,0,0,0,0,a,0,0,0,0,0,0,0
0,0,0,0,0,0,0,b,e,e,e,0,0,0,0,0
0,0,0,0,0,0,0,b,e,0,e,0,0,0,0,0
0,0,0,0,0,0,0,b,0,0,0,0,0,0,0,0
0,0,0,0,0,0,0,a,0,0,0,0,0,0,0,0
0,0,0,0,0,0,a,0,0,0,0,0,0,0,0,0
0,0,0,0,0,b,0,0,0,0,0,0,0,0,0,0
0,0,0,0,0,b,0,0,0,0,0,0,0,0,0,0
0,0,0,0,0,a,0,0,0,0,0,f,0,g,0,0
0,0,0,0,b,0,0,0,0,0,0,j,i,h,0,0
0,0,0,0,b,0,0,0,0,0,0,0,0,0,0,0
0,0,0,0,b,0,0,0,0,0,0,0,0,0,0,0
0,0,0,0,0,c,c,c,c,c,c,c,c,c,c,c
ITM 1 9,5
EXT 9,6 4 9,6
PAL 0

ROOM 4
0,0,0,0,0,0,0,0,0,0,0,0,0,0,0,0
0,0,0,0,0,0,0,0,0,0,0,0,0,0,0,0
d,d,d,d,d,d,d,d,d,0,0,0,0,0,0,0
0,0,0,0,0,0,0,0,a,0,0,0,0,0,0,0
0,0,0,0,0,0,0,b,0,0,0,0,0,0,0,0
0,0,0,0,0,0,0,b,e,e,e,0,0,0,0,0
0,0,0,0,0,0,0,b,e,0,e,0,0,0,0,0
0,0,0,0,0,0,0,a,0,0,0,0,0,0,0,0
0,0,0,0,0,0,a,0,0,0,0,0,0,0,0,0
0,0,0,0,0,b,0,0,0,0,0,0,0,0,0,0
0,0,0,0,0,b,0,0,0,0,0,0,0,0,0,0
0,0,0,0,0,a,0,0,0,0,0,0,0,0,0,0
0,0,0,0,b,0,0,0,0,0,0,0,0,0,0,0
0,0,0,0,b,0,0,0,0,0,0,0,0,0,0,0
0,0,0,0,b,0,0,0,0,0,0,0,0,0,0,0
0,0,0,0,0,c,c,c,c,c,c,c,c,c,c,c
EXT 9,7 5 9,7
PAL 0

ROOM 5
0,0,0,0,0,0,0,0,0,0,0,0,0,0,0,0
0,0,0,0,0,0,0,0,0,0,0,0,0,0,0,0
d,d,d,d,d,d,d,d,d,0,0,0,0,0,0,0
0,0,0,0,0,0,0,0,a,0,0,0,0,0,0,0
0,0,0,0,0,0,0,b,0,0,0,0,0,0,0,0
0,0,0,0,0,0,0,b,0,0,0,0,0,0,0,0
0,0,0,0,0,0,0,b,e,e,e,0,0,0,0,0
0,0,0,0,0,0,0,a,e,0,e,0,0,0,0,0
0,0,0,0,0,0,a,0,0,0,0,0,0,0,0,0
0,0,0,0,0,b,0,0,0,0,0,0,0,0,0,0
0,0,0,0,0,b,0,0,0,0,0,0,0,0,0,0
0,0,0,0,0,a,0,0,0,0,0,f,0,g,0,0
0,0,0,0,b,0,0,0,0,0,0,j,i,h,0,0
0,0,0,0,b,0,0,0,0,0,0,0,0,0,0,0
0,0,0,0,b,0,0,0,0,0,0,0,0,0,0,0
0,0,0,0,0,c,c,c,c,c,c,c,c,c,c,c
ITM 2 9,7
EXT 9,8 6 9,8
PAL 0

ROOM 6
0,0,0,0,0,0,0,0,0,0,0,0,0,0,0,0
0,0,0,0,0,0,0,0,0,0,0,0,0,0,0,0
d,d,d,d,d,d,d,d,d,0,0,0,0,0,0,0
0,0,0,0,0,0,0,0,a,0,0,0,0,0,0,0
0,0,0,0,0,0,0,b,0,0,0,0,0,0,0,0
0,0,0,0,0,0,0,b,0,0,0,0,0,0,0,0
0,0,0,0,0,0,0,b,0,0,0,0,0,0,0,0
0,0,0,0,0,0,0,a,e,e,e,0,0,0,0,0
0,0,0,0,0,0,a,0,e,0,e,0,0,0,0,0
0,0,0,0,0,b,0,0,0,0,0,0,0,0,0,0
0,0,0,0,0,b,0,0,0,0,0,0,0,0,0,0
0,0,0,0,0,a,0,0,0,0,0,0,0,0,0,0
0,0,0,0,b,0,0,0,0,0,0,0,0,0,0,0
0,0,0,0,b,0,0,0,0,0,0,0,0,0,0,0
0,0,0,0,b,0,0,0,0,0,0,0,0,0,0,0
0,0,0,0,0,c,c,c,c,c,c,c,c,c,c,c
EXT 9,9 7 9,9
PAL 0

ROOM 7
0,0,0,0,0,0,0,0,0,0,0,0,0,0,0,0
0,0,0,0,0,0,0,0,0,0,0,0,0,0,0,0
d,d,d,d,d,d,d,d,d,0,0,0,0,0,0,0
0,0,0,0,0,0,0,0,a,0,0,0,0,0,0,0
0,0,0,0,0,0,0,b,0,0,0,0,0,0,0,0
0,0,0,0,0,0,0,b,0,0,0,0,0,0,0,0
0,0,0,0,0,0,0,b,0,0,0,0,0,0,0,0
0,0,0,0,0,0,0,a,0,0,0,0,0,0,0,0
0,0,0,0,0,0,a,0,e,e,e,0,0,0,0,0
0,0,0,0,0,b,0,0,e,0,e,0,0,0,0,0
0,0,0,0,0,b,0,0,0,0,0,0,0,0,0,0
0,0,0,0,0,a,0,0,0,0,0,f,0,g,0,0
0,0,0,0,b,0,0,0,0,0,0,j,i,h,0,0
0,0,0,0,b,0,0,0,0,0,0,0,0,0,0,0
0,0,0,0,b,0,0,0,0,0,0,0,0,0,0,0
0,0,0,0,0,c,c,c,c,c,c,c,c,c,c,c
ITM 3 9,9
EXT 9,10 8 9,10
PAL 0

ROOM 8
0,0,0,0,0,0,0,0,0,0,0,0,0,0,0,0
0,0,0,0,0,0,0,0,0,0,0,0,0,0,0,0
d,d,d,d,d,d,d,d,d,0,0,0,0,0,0,0
0,0,0,0,0,0,0,0,a,0,0,0,0,0,0,0
0,0,0,0,0,0,0,b,0,0,0,0,0,0,0,0
0,0,0,0,0,0,0,b,0,0,0,0,0,0,0,0
0,0,0,0,0,0,0,b,0,0,0,0,0,0,0,0
0,0,0,0,0,0,0,a,0,0,0,0,0,0,0,0
0,0,0,0,0,0,a,0,0,0,0,0,0,0,0,0
0,0,0,0,0,b,0,0,e,e,e,0,0,0,0,0
0,0,0,0,0,b,0,0,e,0,e,0,0,0,0,0
0,0,0,0,0,a,0,0,0,0,0,0,0,0,0,0
0,0,0,0,b,0,0,0,0,0,0,0,0,0,0,0
0,0,0,0,b,0,0,0,0,0,0,0,0,0,0,0
0,0,0,0,b,0,0,0,0,0,0,0,0,0,0,0
0,0,0,0,0,c,c,c,c,c,c,c,c,c,c,c
EXT 9,11 9 9,11
PAL 0

ROOM 9
0,0,0,0,0,0,0,0,0,0,0,0,0,0,0,0
0,0,0,0,0,0,0,0,0,0,0,0,0,0,0,0
d,d,d,d,d,d,d,d,d,0,0,0,0,0,0,0
0,0,0,0,0,0,0,0,a,0,0,0,0,0,0,0
0,0,0,0,0,0,0,b,0,0,0,0,0,0,0,0
0,0,0,0,0,0,0,b,0,0,0,0,0,0,0,0
0,0,0,0,0,0,0,b,0,0,0,0,0,0,0,0
0,0,0,0,0,0,0,a,0,0,0,0,0,0,0,0
0,0,0,0,0,0,a,0,0,0,0,0,0,0,0,0
0,0,0,0,0,b,0,0,0,0,0,0,0,0,0,0
0,0,0,0,0,b,0,0,e,e,e,0,0,0,0,0
0,0,0,0,0,a,0,0,e,0,e,f,0,g,0,0
0,0,0,0,b,0,0,0,0,0,0,j,i,h,0,0
0,0,0,0,b,0,0,0,0,0,0,0,0,0,0,0
0,0,0,0,b,0,0,0,0,0,0,0,0,0,0,0
0,0,0,0,0,c,c,c,c,c,c,c,c,c,c,c
ITM 4 9,11
EXT 9,12 a 9,12
PAL 0

ROOM a
0,0,0,0,0,0,0,0,0,0,0,0,0,0,0,0
0,0,0,0,0,0,0,0,0,0,0,0,0,0,0,0
d,d,d,d,d,d,d,d,d,0,0,0,0,0,0,0
0,0,0,0,0,0,0,0,a,0,0,0,0,0,0,0
0,0,0,0,0,0,0,b,0,0,0,0,0,0,0,0
0,0,0,0,0,0,0,b,0,0,0,0,0,0,0,0
0,0,0,0,0,0,0,b,0,0,0,0,0,0,0,0
0,0,0,0,0,0,0,a,0,0,0,0,0,0,0,0
0,0,0,0,0,0,a,0,0,0,0,0,0,0,0,0
0,0,0,0,0,b,0,0,0,0,0,0,0,0,0,0
0,0,0,0,0,b,0,0,0,0,0,0,0,0,0,0
0,0,0,0,0,a,0,0,e,e,e,0,0,0,0,0
0,0,0,0,b,0,0,0,e,0,e,0,0,0,0,0
0,0,0,0,b,0,0,0,0,0,0,0,0,0,0,0
0,0,0,0,b,0,0,0,0,0,0,0,0,0,0,0
0,0,0,0,0,c,c,c,c,c,c,c,c,c,c,c
EXT 9,13 b 9,13
PAL 0

ROOM b
0,0,0,0,0,0,0,0,0,0,0,0,0,0,0,0
0,0,0,0,0,0,0,0,0,0,0,0,0,0,0,0
d,d,d,d,d,d,d,d,d,0,0,0,0,0,0,0
0,0,0,0,0,0,0,0,a,0,0,0,0,0,0,0
0,0,0,0,0,0,0,b,0,0,0,0,0,0,0,0
0,0,0,0,0,0,0,b,0,0,0,0,0,0,0,0
0,0,0,0,0,0,0,b,0,0,0,0,0,0,0,0
0,0,0,0,0,0,0,a,0,0,0,0,0,0,0,0
0,0,0,0,0,0,a,0,0,0,0,0,0,0,0,0
0,0,0,0,0,b,0,0,0,0,0,0,0,0,0,0
0,0,0,0,0,b,0,0,0,0,0,0,0,0,0,0
0,0,0,0,0,a,0,0,0,0,0,f,0,g,0,0
0,0,0,0,b,0,0,0,e,e,e,j,i,h,0,0
0,0,0,0,b,0,0,0,e,0,e,0,0,0,0,0
0,0,0,0,b,0,0,0,0,0,0,0,0,0,0,0
0,0,0,0,0,c,c,c,c,c,c,c,c,c,c,c
ITM 5 9,13
EXT 9,14 c 9,14
PAL 0

ROOM c
0,0,0,0,0,0,0,0,0,0,0,0,0,0,0,0
0,0,0,0,0,0,0,0,0,0,0,0,0,0,0,0
d,d,d,d,d,d,d,d,d,0,0,0,0,0,0,0
0,0,0,0,0,0,0,0,a,0,0,0,0,0,0,0
0,0,0,0,0,0,0,b,0,0,0,0,0,0,0,0
0,0,0,0,0,0,0,b,0,0,0,0,0,0,0,0
0,0,0,0,0,0,0,b,0,0,0,0,0,0,0,0
0,0,0,0,0,0,0,a,0,0,0,0,0,0,0,0
0,0,0,0,0,0,a,0,0,0,0,0,0,0,0,0
0,0,0,0,0,b,0,0,0,0,0,0,0,0,0,0
0,0,0,0,0,b,0,0,0,0,0,0,0,0,0,0
0,0,0,0,0,a,0,0,0,0,0,0,0,0,0,0
0,0,0,0,b,0,0,0,0,0,0,0,0,0,0,0
0,0,0,0,b,0,0,0,e,e,e,0,0,0,0,0
0,0,0,0,b,0,0,0,e,0,e,0,0,0,0,0
0,0,0,0,0,c,c,c,c,c,c,c,c,c,c,c
END undefined 9,15
PAL 0

TIL a
00000010
00010100
00001000
00011000
00110000
00100000
01000000
10000000
NAME Cliff Slant
WAL true

TIL b
00000001
00000011
00000100
00011010
00000010
00010010
00001110
00000011
NAME Cliff Straight

TIL c
11111111
01001010
00001000
00000000
00110000
00000000
00000000
00000110
NAME Ground

TIL d
00000000
00000000
00000000
00000000
00000000
00000010
01001010
11111111
NAME Cliff Ground
WAL true

TIL e
00000000
00000000
00000000
00000000
00000000
00000000
00000000
00000000
NAME Barrier
WAL true

TIL f
00010000
00110000
01111111
11111111
01111111
00110000
00010000
00000000
NAME left

TIL g
00001000
00001100
11111110
11111111
11111110
00001100
00001000
00000000
NAME right

TIL h
11100000
11110000
10110000
11110000
11110000
00010000
11110000
11100000
NAME rightface

TIL i
00000111
10001111
01001101
01001111
01001111
00101000
11101111
00000111
NAME between

TIL j
00000000
00000111
00001000
00001011
00001000
00001000
00000111
00000000
NAME left speech

SPR A
00000110
00110100
00101100
00011010
00110110
01001000
01010000
00010000
>
01000110
00110100
00001100
00011010
00110001
01001001
10001000
00001000
POS 0 9,2

SPR a
00000000
00000000
01010001
01110001
01110010
01111100
00111100
00100100
DLG SPR_0

ITM 0
00000000
00000000
00000000
00000000
00000000
00000000
00000000
00000000
NAME tea
DLG ITM_0

ITM 1
00000000
00000000
00000000
00000000
00000000
00000000
00000000
00000000
DLG ITM_1

ITM 2
00000000
00000000
00000000
00000000
00000000
00000000
00000000
00000000
DLG ITM_2

ITM 3
00000000
00000000
00000000
00000000
00000000
00000000
00000000
00000000
DLG ITM_3

ITM 4
00000000
00000000
00000000
00000000
00000000
00000000
00000000
00000000
DLG ITM_4

ITM 5
00000000
00000000
00000000
00000000
00000000
00000000
00000000
00000000
DLG ITM_5

DLG SPR_0
I'm a cat

DLG ITM_0
This started out as a small bit of hiking.

DLG ITM_1
But now I'm falling off a cliff.

DLG ITM_2
This fall won't be enough to kill me.

DLG ITM_3
But I will definitely get injured.

DLG ITM_4
This will definitely break my legs.

DLG ITM_5
But I can call an ambulance anyway.

END 0


END undefined
     Oh no. I broke my legs.

VAR a
42


