              Noir

# BITSY VERSION 3.5

! ROOM_FORMAT 1

PAL 0
0,0,0
255,255,255
255,255,255

ROOM 0
0,0,0,0,0,0,0,0,0,0,0,0,0,0,0,0
0,a,a,a,a,a,a,a,a,a,a,a,a,a,a,0
0,a,0,0,0,0,0,0,0,0,0,0,0,0,a,0
0,a,0,0,0,0,0,0,0,0,0,0,0,0,a,0
0,a,0,0,0,0,0,0,0,0,0,0,0,0,a,0
0,a,0,0,0,e,0,0,0,0,0,0,0,0,a,0
0,a,0,0,0,0,0,0,0,0,0,0,0,0,0,0
0,a,0,d,c,0,0,0,0,0,0,0,0,0,0,0
0,a,0,0,0,0,0,0,0,0,0,0,0,0,0,0
0,a,0,0,0,0,0,0,0,0,0,0,0,0,0,0
0,a,0,0,0,0,0,0,0,0,0,0,0,0,a,0
0,a,0,e,0,0,0,0,0,0,0,0,0,0,a,0
0,a,0,0,0,0,e,0,0,0,0,0,0,0,a,0
0,a,0,0,0,0,0,0,0,0,0,0,0,0,a,0
0,a,a,a,a,a,a,a,a,a,a,a,a,a,a,0
0,0,0,0,0,0,0,0,0,0,0,0,0,0,0,0
WAL a
EXT 15,6 1 0,7
EXT 15,7 1 0,7
EXT 15,8 1 0,7
EXT 15,9 1 0,7
PAL 0

ROOM 1
0,0,0,0,0,0,0,0,0,0,0,0,0,0,0,0
0,0,0,y,y,0,0,0,0,i,0,0,0,0,0,0
0,0,0,0,0,0,0,0,0,0,0,0,0,0,0,0
i,0,0,0,0,y,0,0,0,0,y,0,0,0,0,0
0,0,0,0,0,0,0,0,0,0,0,0,y,0,0,0
k,k,k,k,k,k,k,k,k,k,k,k,k,k,k,k
k,k,k,k,k,k,k,k,k,k,k,k,k,k,k,k
k,k,k,k,k,k,k,k,k,k,k,k,k,k,k,k
k,k,k,k,k,k,k,k,k,k,k,k,k,k,k,k
k,k,k,k,k,k,k,k,k,k,k,k,k,k,k,k
0,0,0,0,0,0,0,0,0,0,0,0,0,0,0,0
0,y,0,0,0,0,0,i,0,0,0,0,y,0,0,0
0,0,0,0,0,0,0,0,0,0,0,0,0,0,0,0
0,0,0,0,0,0,0,i,0,0,0,0,0,0,0,0
0,0,0,0,0,0,0,0,0,y,0,0,0,0,0,0
0,0,i,0,0,0,0,0,0,0,0,0,0,0,0,0
EXT 15,5 2 0,7
EXT 15,6 2 0,7
EXT 15,7 2 0,7
EXT 15,8 2 0,7
EXT 15,9 2 0,7
PAL 0

ROOM 2
l,l,0,0,0,0,0,0,0,0,0,0,0,0,0,0
l,l,l,l,l,l,l,l,l,l,l,l,l,l,0,0
l,k,k,k,k,k,k,l,l,k,k,m,k,k,l,0
l,k,k,k,m,k,k,l,l,k,k,k,k,k,l,0
l,m,k,l,l,k,k,l,l,k,k,l,k,k,l,0
l,k,k,l,l,k,k,l,l,k,k,l,k,k,l,0
k,k,k,l,l,k,m,l,l,m,k,l,k,l,l,k
k,k,k,l,l,k,k,l,l,k,k,l,k,k,k,g
k,k,k,l,l,k,k,l,l,k,k,l,m,k,k,k
k,l,l,0,l,k,k,l,l,k,k,l,l,l,l,l
l,0,0,0,l,m,k,l,l,k,k,l,0,0,0,0
0,0,0,0,l,k,k,l,l,k,m,l,0,0,0,0
0,0,0,0,l,k,k,l,l,k,k,l,0,0,0,0
0,0,0,0,l,k,k,k,k,k,k,l,0,0,0,0
0,0,0,0,l,k,k,m,k,k,k,l,0,0,0,0
0,0,0,0,l,l,l,l,l,l,l,l,0,0,0,0
WAL l
EXT 15,7 3 0,7
END 0 1,4
END 0 4,3
END 0 6,6
END 0 5,10
END 0 7,14
END 0 10,11
END 0 9,6
END 0 11,2
END 0 12,8
PAL 0

ROOM 3
0,0,0,0,0,0,0,0,0,0,n,o,o,o,o,o
0,0,0,p,0,0,0,0,0,0,n,o,o,o,o,o
0,0,0,0,0,0,0,0,0,0,n,o,o,o,o,o
0,0,0,0,0,0,0,0,0,0,n,o,o,o,o,o
0,0,0,0,0,0,0,0,0,0,n,o,o,o,o,o
0,0,0,0,0,0,0,0,0,0,n,o,o,o,o,o
0,0,0,0,0,0,0,0,0,0,n,o,o,o,o,o
0,0,0,0,0,0,0,0,0,0,n,o,o,o,o,o
0,0,0,0,0,0,0,0,0,0,n,o,o,o,o,o
0,0,0,0,0,0,0,0,0,0,n,o,o,o,o,o
0,0,0,0,0,0,0,0,0,0,n,o,o,o,o,o
0,0,0,0,0,0,0,0,0,0,n,o,o,o,o,o
0,0,0,0,0,0,0,0,0,0,n,o,o,o,o,o
0,0,0,0,0,0,0,0,0,0,n,o,o,o,o,o
0,0,0,0,0,0,0,0,0,0,n,o,o,o,o,o
n,n,n,n,n,n,n,n,n,n,n,o,o,o,o,0
WAL n
EXT 3,1 4 7,15
PAL 0

ROOM 4
0,0,0,0,0,0,0,0,0,0,0,0,0,0,0,0
0,a,a,a,a,a,a,a,a,a,a,0,k,k,k,k
0,a,0,0,0,0,0,0,0,0,a,0,k,k,p,k
0,a,0,v,0,0,w,0,0,0,a,0,k,k,0,0
0,a,0,0,0,0,0,0,0,0,a,0,k,k,0,0
0,a,0,v,0,0,w,0,0,0,a,0,k,k,0,0
0,a,0,0,0,0,0,0,0,0,a,a,q,a,a,0
0,a,0,0,0,0,0,0,0,t,0,s,0,0,a,0
0,a,0,0,0,0,0,0,0,0,0,0,0,0,a,0
0,a,0,0,0,0,u,0,0,0,0,t,0,0,a,0
0,a,0,0,0,0,0,0,0,0,0,0,0,s,a,0
0,a,0,0,0,0,0,0,0,0,0,0,0,s,a,0
0,a,0,0,0,0,0,0,0,0,0,0,0,0,a,0
0,a,0,0,0,0,0,0,0,0,0,0,0,t,a,0
0,a,a,a,a,a,a,a,q,a,a,a,a,a,a,0
0,0,0,0,0,0,0,0,0,0,0,0,0,0,0,0
WAL a
EXT 14,2 5 0,7
PAL 0

ROOM 5
0,0,0,0,0,l,k,k,k,l,0,0,0,0,0,0
0,0,0,0,0,l,k,k,k,l,0,0,0,0,0,0
0,0,0,0,0,l,k,k,k,l,0,0,0,0,0,0
0,0,0,0,0,l,k,k,k,l,0,0,0,0,0,0
0,0,0,0,0,l,k,k,k,l,0,0,0,0,0,0
l,l,l,l,l,l,k,k,k,l,l,l,0,0,0,0
k,k,k,k,k,k,k,k,k,k,k,l,0,0,0,0
k,k,k,k,k,k,k,k,k,k,k,l,0,0,0,0
k,k,k,k,k,k,k,k,k,k,k,l,0,0,0,0
l,l,l,l,l,l,l,l,k,k,k,l,0,0,0,0
0,0,0,0,0,0,0,l,k,k,k,l,0,0,0,0
0,0,0,0,0,0,0,l,k,k,k,l,0,0,0,0
0,0,0,0,0,0,0,l,k,k,k,l,0,0,0,0
0,0,0,0,0,0,0,l,k,k,k,l,0,0,0,0
0,0,0,0,0,0,0,l,k,k,k,l,0,0,0,0
0,0,0,0,0,0,0,l,k,k,k,l,0,0,0,0
WAL l
EXT 6,0 6 7,15
EXT 7,0 6 7,15
EXT 8,0 6 7,15
EXT 8,15 7 7,0
EXT 9,15 7 7,0
EXT 10,15 7 7,0
PAL 0

ROOM 6
0,0,0,0,x,a,0,0,j,0,0,a,x,0,0,0
0,0,0,0,x,a,0,0,0,0,0,a,x,0,0,0
0,0,0,0,x,a,a,a,a,a,a,a,x,0,0,0
0,x,0,0,x,x,x,x,x,x,x,x,x,0,0,0
0,0,0,0,0,0,0,0,0,0,x,0,0,0,0,0
0,0,0,0,x,0,0,0,0,0,0,0,0,0,0,0
0,0,0,x,0,0,0,0,0,x,0,0,0,0,0,0
0,0,0,0,0,0,0,0,0,0,0,0,0,0,0,0
0,0,x,0,0,0,x,0,0,0,0,0,x,0,0,0
0,0,0,0,0,0,0,0,0,0,x,0,0,0,0,x
0,0,0,0,0,x,0,0,0,0,0,0,0,0,0,0
0,0,0,0,0,0,0,0,0,0,x,0,0,0,0,0
0,0,0,0,0,0,0,0,x,0,0,0,0,0,x,0
0,0,0,0,x,0,0,0,0,0,0,0,0,0,0,0
0,0,0,0,0,0,0,x,0,0,0,0,0,0,0,0
0,0,0,0,0,0,0,0,0,0,0,0,0,0,0,0
EXT 0,0 8 0,0
PAL 0

ROOM 7
o,o,o,o,n,0,0,0,0,0,0,n,o,o,o,o
o,o,o,o,n,0,0,0,0,0,0,n,o,o,o,o
o,o,o,o,n,0,0,0,0,0,0,n,o,o,o,o
o,o,o,o,n,0,0,0,0,0,0,n,o,o,o,o
o,o,o,o,n,0,0,0,0,0,0,n,o,o,o,o
o,o,o,o,n,0,0,0,0,0,0,n,o,o,o,o
o,o,o,o,n,0,0,0,0,0,0,n,o,o,o,o
o,o,o,o,n,0,0,0,0,0,0,n,o,o,o,o
o,o,o,o,n,0,0,0,0,0,0,n,o,o,o,o
o,o,o,o,n,0,0,0,0,0,0,n,o,o,o,o
o,o,o,o,n,0,0,0,0,0,0,n,o,o,o,o
o,o,o,o,n,0,0,0,0,0,0,n,o,o,o,o
o,o,o,o,n,0,0,0,0,0,0,n,o,o,o,o
o,o,o,o,n,0,0,0,0,0,0,n,o,o,o,o
o,o,o,o,n,0,0,0,0,0,0,n,o,o,o,o
o,o,o,o,n,0,0,0,0,0,0,n,o,o,o,o
WAL n
EXT 5,15 a 5,0
EXT 6,15 a 6,0
EXT 7,15 a 7,0
EXT 8,15 a 8,0
EXT 9,15 a 9,0
EXT 10,15 a 9,0
PAL 0

ROOM 8
0,0,n,0,0,0,0,0,0,0,0,0,0,0,0,q
0,0,n,0,0,0,0,0,0,0,0,0,0,0,0,0
0,0,n,0,0,0,0,0,0,0,0,0,0,0,0,0
0,0,0,0,0,0,0,0,0,0,0,0,0,0,0,0
0,0,0,0,0,0,0,0,0,0,0,0,0,0,0,0
0,0,0,0,0,0,0,0,0,0,0,0,v,0,0,w
0,0,0,0,0,0,0,0,0,0,0,0,0,0,0,0
0,0,0,0,0,0,0,0,0,0,0,0,0,0,q,0
0,0,0,0,0,0,0,0,0,0,0,0,0,0,0,0
0,0,0,0,0,0,0,0,0,0,0,0,v,0,0,w
0,0,0,0,0,0,0,0,0,0,0,0,0,0,0,0
0,0,0,0,0,0,0,0,0,0,0,0,0,0,0,0
0,0,n,0,0,0,0,0,0,0,0,0,0,0,0,0
0,0,n,0,0,0,0,0,0,0,0,0,0,0,0,0
0,0,n,0,0,0,0,0,0,0,0,0,0,0,0,0
0,0,n,0,0,0,0,0,0,0,0,0,0,0,0,0
WAL n
EXT 15,0 9 0,7
PAL 0

ROOM 9
k,k,k,k,k,k,k,k,k,k,k,k,k,k,k,k
k,k,k,k,k,k,k,k,k,k,k,k,k,k,k,k
0,0,0,0,0,0,0,0,0,0,0,0,0,0,0,0
0,0,0,0,0,0,0,0,0,0,0,0,0,0,0,0
0,0,0,0,0,0,0,0,0,0,0,0,0,0,0,0
0,0,0,0,0,0,0,0,0,0,0,0,0,0,0,0
0,0,0,0,0,0,0,0,0,0,0,0,0,0,p,0
0,0,0,0,0,0,0,0,0,0,0,0,0,0,0,0
0,0,0,0,0,0,0,0,0,0,0,0,0,0,0,0
0,0,0,0,0,0,0,0,0,0,0,0,0,0,0,0
0,0,0,0,0,0,0,0,0,0,0,0,0,0,0,0
0,0,0,0,0,0,0,0,0,0,0,0,0,0,0,0
0,0,0,0,0,0,0,0,0,0,0,0,0,0,0,0
k,k,k,k,k,k,k,k,k,k,k,k,k,k,k,k
k,k,k,k,k,k,k,k,k,k,k,k,k,k,k,k
k,k,k,k,k,k,k,k,k,k,k,k,k,k,k,k
WAL a
END 1 14,6
PAL 0

ROOM a
o,o,o,o,n,0,0,0,0,0,n,o,o,o,o,o
o,o,o,o,n,0,0,0,0,0,n,o,o,o,o,o
o,o,o,o,n,0,0,0,0,0,n,o,o,o,o,o
o,o,o,o,n,0,0,0,0,0,n,o,o,o,o,o
o,o,o,o,n,0,0,0,0,0,n,o,o,o,o,o
o,n,n,n,n,0,0,0,0,0,n,n,n,n,n,o
o,n,0,0,0,0,0,0,0,0,0,0,0,0,n,o
o,n,0,0,0,0,0,0,0,z,0,0,0,0,n,o
o,n,0,0,0,0,0,0,0,0,0,0,0,0,n,o
o,n,0,0,0,0,0,0,0,0,0,0,0,0,n,o
o,n,0,0,0,0,0,0,0,0,0,0,0,0,n,o
o,n,n,n,n,n,n,n,n,n,n,n,n,n,n,o
o,o,o,o,o,o,o,o,o,o,o,o,o,o,o,o
o,o,o,o,o,o,o,o,o,o,o,o,o,o,o,o
o,o,o,o,o,o,o,o,o,o,o,o,o,o,o,o
o,o,o,o,o,o,o,o,o,o,o,o,o,o,o,o
WAL n
END 2 9,7
PAL 0

TIL a
11111111
10000001
10000001
10011001
10011001
10000001
10000001
11111111

TIL d
11000000
11000000
11000000
11000000
11000000
11000000
11111100
10000100

TIL h
00000001
00001001
00000101
00000001
00001111
00001001
00000001
01111111

TIL g
11100111
11100111
11000011
11000011
11000011
11000011
11011011
11011011
>
11111100
11111100
11111000
11111000
11111000
11111000
11111010
11111010

TIL e
00000000
00000000
00111111
11010001
11001001
00111111
00000000
00000000

TIL i
00011000
00011000
01111110
10111101
01111110
00100100
00100100
00100100

TIL j
00000000
00000000
00011000
00011000
01111110
10111101
00111100
00100100
>
00000000
00000000
00011000
10011000
01111110
00111101
00111100
00100100

TIL c
01111111
00000001
00001001
00000001
00001101
00001101
00000001
00000001

TIL k
11111111
11111111
11111111
11111111
11111111
11111111
11111111
11111111

TIL l
00000000
00000000
00000000
00000000
00000000
00000000
00000000
00000000

TIL m
11111111
11111011
11000011
11001011
11010011
11000011
11111111
11111111

TIL n
00010000
00001000
00010000
00001000
00010000
00001000
00010000
00001000

TIL o
00000000
00000000
10000011
11111010
00001110
00000000
00000000
00000000
>
00000000
00000000
01110000
01010111
11011100
00000000
00000000
00000000

TIL p
00000000
00000000
00111110
00100010
11111111
11111111
01000010
00000000

TIL q
11111111
10000001
10000001
10000001
10000101
10000001
10000001
10000001

TIL r
00000000
00000000
00000000
00000000
00000000
00000000
00000000
00000000

TIL s
00000000
00000000
01111110
10111101
00111100
00000000
00000000
00000000

TIL t
00000000
00000000
00000000
00111100
01111110
11111111
00000000
00000000

TIL u
00000000
00000000
00000000
00000000
00000000
00000000
00000000
00000000

TIL v
00000000
01000000
01000000
01000000
01000000
01000000
01111100
01000100

TIL w
00000000
00000010
00000010
00000010
00000010
00000010
01111110
01000010

TIL x
00000000
00011001
00011010
00111100
00111100
01111100
10100100
00100100
>
00000000
00011000
10011000
01111100
00111110
00111101
00100100
00100100

TIL y
00000000
00000000
00011000
00011000
01111110
10111101
00111100
00100100

TIL z
00000000
00001100
00010010
11101100
00111110
00111111
00010010
00010010

SPR 10
00000000
00011000
00011001
01100110
10111100
01111100
00100100
00100100
>
00000000
00001100
00001100
01100110
10111101
01111100
00100100
00100100
POS 8 14,7

SPR 11
00000000
00011000
00100100
00011000
00111100
01111110
00011000
00011000
POS 9 5,6

SPR 12
00011000
00111100
00011000
01111110
10111101
01111110
00100100
00100100
POS 9 10,6

SPR 13
00000000
00011000
00100100
00011000
00111100
01111110
00011000
00011000
POS 7 7,8

SPR A
00011000
00111100
00011000
00011000
00111100
00111100
00111100
00100100
POS 0 3,7

SPR a
00000000
00000000
01010001
01110001
01110010
01111100
00111100
00100100
POS 4 11,11

SPR e
00000000
00011000
00100100
00011000
00111100
01111110
00011000
00011000
POS 0 10,8

SPR f
00111111
00000001
00000101
00000001
00001101
00001101
00000001
00000001
POS 0 4,7

SPR g
00000001
00001001
00000101
00000001
00011101
00010001
00000001
00111111
POS 0 4,8

SPR i
00000000
00011000
00011000
00111100
01011010
10100101
00100100
00100100
>
00000000
10011001
01011010
00111100
00011000
00100100
00100100
00100100
POS 1 14,1

SPR j
11111111
11100111
10110110
11000001
11100011
11101011
11101011
11111111
>
11111111
11100111
11110111
11000001
10100010
11101011
11101011
11111111
POS 2 2,7

SPR k
11111111
11000111
11110111
00100000
11010100
10010111
11110011
11111111
POS 1 7,7

SPR l
00011000
00011000
00111100
01111110
10111101
00111100
00100100
00100100
>
00011000
00011000
01111110
10111101
00111100
00111100
00100100
00100100
POS 3 8,7

SPR m
00011000
00111100
00011000
01111110
10111101
01111110
00100100
00100100
POS 3 8,3

SPR n
00000000
00011000
00100100
00011000
00111100
01111110
00011000
00011000
POS 4 4,3

SPR o
00000000
00100000
01010000
00100000
00001000
00010100
00001000
00000000
POS 4 2,8

SPR p
00000000
00100000
01010000
00100000
00001000
00010100
00001000
00000000
POS 4 2,9

SPR q
00000000
11110111
10101101
10110101
10101101
10110101
11101111
00000000
POS 4 4,11

SPR r
00000000
00111100
00100100
01111110
01000010
01000010
01111110
00000000
POS 4 5,8

SPR s
00000000
00111100
00100100
01111110
01000010
01000010
01111110
00000000
POS 4 6,8

SPR t
00011000
00111100
00011000
01111110
10111101
01111110
00100100
00100100
POS 5 7,4

SPR u
00000000
00011000
00100100
00011000
00111100
01111110
00011000
00011000
POS 5 10,9

SPR v
00000000
00011000
00011000
00111100
01011010
10100101
00100100
00100100
POS 6 15,5

SPR w
00000000
00011000
00011000
00111100
01011010
10100101
00100100
00100100
POS 6 1,11

SPR x
00000000
00011000
00011000
00111100
01011010
10100101
00100100
00100100
POS 6 15,15

SPR y
00000000
00010000
01111100
10111010
00010000
00101000
00101000
00101000
POS 8 7,5

SPR z
00000000
00010000
01111100
10111010
00010000
00101000
00101000
00101000
POS 8 9,7

DLG 10
Ok!OK!ill tell you..my name is Xander..suzie wanted jay to die..It would have gone well if you didn't catch the goon. 

DLG 11
I felt trapped.I really didn't know what to do.And Xander came along and convinced me that this was a great plan.I guess none of that matters anymore.

DLG 12
Great job,son.I know this is hard for you.I'll take over from here.

DLG 13
Huh.I expected a lot more thugs and civilians around here.guess we lucked out!

DLG a
Meow.

DLG e
Richard!I need your help!Someone shot my husband.

DLG d
table.

DLG k
Shot in the gut.No money was stolen.

DLG i
I saw a large man carry a gun and ran in this direction.

DLG j
Those things..They look like BOMBS!

DLG l
I...I was hired to kill Mr.Jay by..I don't know his name.The guys who payed me called him X.  

DLG m
Good work kid.Now take the cab and go home.

DLG n
Mr X?No does not ring a bell.Jay never had enemies.I'm going to come with you.I need to do this. 

DLG o
petunias.her favourite.

DLG p
petunias.her favourite.

DLG q
Old photographs.We looked so different back in college.So young.So naive.

DLG r
Bags haphazardly packed.

DLG s
Bags haphazardly packed.

DLG t
On further interrogation, the murder confessed he took the job at the pub upstate.

DLG u
I feel we need to go downtown and investigate.

DLG v
top-left corner.

DLG w
Get out of my face.

DLG x
x? no clue

DLG y
Hey you are no allowed..*POW!*

DLG z
boss you got ta get ba..*KA-POW!*

END 0
Boom.

END 1
        THE END

END 2
I'm sorry Rich.Nothing personal.

