
Being a pet owner.

# BITSY VERSION 4.8

! ROOM_FORMAT 1

PAL 0
2,32,209
0,0,0
255,254,4

PAL 1
219,196,143
255,255,254
3,16,255

PAL 2
2,255,43
1,31,255
255,30,3

ROOM 0
a,a,a,a,a,a,a,c,a,a,a,a,a,a,a,a
a,0,g,0,g,0,g,0,g,0,g,0,g,0,g,a
a,g,0,g,0,g,0,g,0,g,0,g,0,g,0,a
a,0,g,0,g,0,g,0,g,0,g,0,g,0,g,a
a,g,0,g,0,g,0,g,0,g,0,g,0,g,0,a
a,0,g,0,g,0,g,0,g,0,g,0,g,0,g,a
a,0,0,g,0,g,0,g,0,g,0,g,0,g,0,a
a,0,0,0,g,0,g,0,g,0,g,0,g,0,0,a
a,0,0,g,0,g,0,g,0,g,0,g,0,g,0,a
a,0,g,0,g,0,g,0,g,0,g,0,g,0,0,a
a,g,0,0,0,g,0,g,0,g,0,g,0,g,0,a
a,0,0,0,g,0,g,0,g,0,g,0,g,0,g,a
a,d,d,e,0,g,0,g,0,g,0,g,0,g,0,a
a,0,0,f,g,0,g,0,g,0,g,0,g,0,g,a
a,b,0,f,0,g,0,0,0,g,0,g,0,g,0,a
a,a,a,a,a,a,a,a,a,a,a,a,a,a,a,a
ITM 0 2,13
ITM 1 2,11
ITM 2 3,10
EXT 7,0 1 7,15
PAL 0

ROOM 1
j,j,j,j,j,j,j,j,j,j,j,j,j,j,j,j
0,0,0,0,0,0,0,0,0,0,0,0,0,0,0,0
s,s,0,s,s,0,s,s,0,s,s,0,s,s,0,s
0,0,0,0,0,0,0,0,0,0,0,0,0,0,0,0
j,j,j,j,j,j,j,j,j,j,j,j,j,j,j,j
0,1b,0,0,1b,0,1b,0,0,1b,0,1b,0,0,1b,0
0,k,l,l,m,0,k,l,l,m,0,k,l,l,m,0
0,o,0,0,n,0,o,0,0,n,0,o,0,0,n,0
0,o,16,16,n,0,o,16,16,n,0,o,16,16,n,0
0,o,0,0,n,0,o,0,0,n,0,o,0,0,n,0
0,q,r,r,p,0,q,r,r,p,0,q,r,r,p,0
0,0,0,0,0,0,0,0,0,0,0,0,0,0,0,0
0,0,0,0,0,0,0,0,0,0,0,0,0,0,0,2c
i,i,i,i,i,i,i,h,i,i,i,i,i,i,i,i
i,i,i,i,i,i,i,h,i,i,i,i,i,i,i,i
i,i,i,i,i,i,i,h,i,i,i,i,i,i,i,i
ITM 3 7,12
ITM 4 14,12
EXT 15,12 2 0,12
PAL 1

ROOM 2
j,j,j,j,j,j,t,z,10,10,10,10,10,10,10,x
0,0,0,0,0,0,0,0,1c,1c,0,1c,1c,0,1c,1c
s,s,0,s,s,0,s,0,1d,1d,0,1d,1d,0,1d,1d
0,0,0,0,0,0,w,v,x,x,x,x,x,x,x,x
j,j,j,j,j,j,t,u,y,y,y,y,y,y,y,y
0,1b,0,0,1b,0,1b,0,0,1b,15,15,0,0,0,2c
0,k,l,l,m,0,k,l,l,m,12,11,11,11,11,11
0,o,0,0,n,0,o,0,0,n,13,0,0,0,0,0
0,o,16,16,n,0,o,16,16,n,13,0,0,0,0,0
0,o,0,0,n,0,o,0,0,n,13,0,0,0,0,0
0,q,r,r,p,0,q,r,r,p,13,0,0,0,0,0
0,0,0,0,0,0,0,0,0,0,13,0,0,19,0,0
0,0,0,0,0,0,0,0,0,0,14,0,0,17,0,0
i,i,i,i,i,i,i,i,0,0,13,0,0,18,0,0
i,i,i,i,i,i,i,i,0,0,13,0,1a,0,0,0
i,i,i,i,i,i,i,i,0,0,13,0,0,0,0,0
ITM 5 4,12
ITM 6 9,12
EXT 15,5 3 0,12
PAL 2

ROOM 3
x,x,x,x,x,x,x,x,x,x,x,x,x,x,x,x
1c,1c,0,1c,1c,0,1c,1c,0,1c,1c,0,1c,1c,0,1c
1d,1d,0,1d,1d,0,1d,1d,0,1d,1d,0,1d,1d,0,1d
x,x,x,x,x,x,x,x,x,x,x,x,x,x,x,x
0,0,0,0,0,0,0,0,0,0,0,0,0,0,0,0
0,0,0,0,0,0,0,0,0,0,0,0,0,0,0,0
0,0,0,0,0,0,0,0,0,0,0,0,0,0,0,0
0,0,0,0,0,0,0,0,0,0,0,0,0,0,0,0
0,0,0,0,0,0,0,0,0,0,0,0,0,0,0,0
1g,1g,1g,1g,1g,1g,1g,1g,1g,1g,1g,1g,1g,1g,1g,1g
0,0,0,0,0,0,0,0,0,0,0,0,0,0,0,0
0,0,0,0,0,0,0,0,0,0,0,0,0,0,0,2c
0,0,0,0,0,0,0,0,0,0,0,0,0,0,0,0
1e,1e,1e,1e,1e,1e,1e,1e,1e,0,0,0,1f,1f,1f,1f
1e,1e,1e,1e,1e,1e,1e,1e,1e,0,0,0,1f,1f,1f,1f
1e,1e,1e,1e,1e,1e,1e,1e,1e,0,0,0,1f,1f,1f,1f
ITM 7 5,11
ITM 8 10,12
EXT 15,11 4 0,11
PAL 1

ROOM 4
1j,1j,1j,1j,1j,1j,1j,1j,1j,1j,1j,1j,1j,1j,1j,1j
1k,1k,0,1k,1k,0,1k,1k,0,1k,1k,0,1k,1k,0,1k
1l,1l,0,1l,1l,0,1l,1l,0,1l,1l,0,1l,1l,0,1l
1j,1j,1j,1j,1j,1j,1j,1j,1j,1j,1j,1j,1j,1j,1j,1j
0,0,0,0,0,0,0,0,0,0,0,0,0,0,0,0
0,0,0,0,0,0,0,0,0,0,0,0,0,0,0,0
0,0,1o,1p,0,0,0,0,0,0,0,1o,1p,0,0,0
0,0,0,1m,0,0,0,0,0,0,0,0,1m,0,0,0
0,0,0,1m,0,0,0,0,0,0,0,0,1m,0,0,0
1i,1i,1i,1n,1i,1i,1i,1i,1i,1i,1i,1i,1n,1i,1i,1i
0,0,0,0,0,0,0,0,0,0,0,0,0,0,0,0
0,0,0,0,0,0,0,0,0,0,0,0,0,0,0,2c
0,0,0,0,0,0,0,0,0,0,0,0,0,0,0,0
1h,1h,1h,1h,1h,1h,1h,1h,1h,1h,1h,1h,1h,1h,1h,1h
1h,1h,1h,1h,1h,1h,1h,1h,1h,1h,1h,1h,1h,1h,1h,1h
1h,1h,1h,1h,1h,1h,1h,1h,1h,1h,1h,1h,1h,1h,1h,1h
ITM 9 9,11
ITM a 8,10
ITM b 9,10
EXT 15,11 5 0,11
PAL 1

ROOM 5
21,21,21,21,21,21,21,21,21,1u,0,1x,0,1x,0,1x
21,21,21,21,21,21,21,21,21,1u,1b,1x,0,1x,0,1x
21,21,21,21,21,21,21,21,21,1u,0,1x,0,0,0,1x
1s,1s,1s,1s,1s,1s,1s,1s,1s,1t,1b,1x,0,1x,0,1x
1v,1v,1v,1v,1v,1v,1v,1v,1v,1v,1v,1w,0,1x,0,1x
0,0,0,0,0,0,0,0,0,0,0,0,0,0,0,1x
1v,1v,0,1v,1v,0,1v,1v,0,1v,1v,0,1v,0,0,1x
0,0,0,0,0,0,0,0,0,0,0,0,0,0,0,1x
1v,1v,1v,1v,1v,1v,1v,1v,1v,1v,1v,1y,0,1x,0,1x
1i,1i,1i,1i,1i,1i,1i,1i,1i,1q,1b,1x,0,1x,0,1x
0,0,0,0,0,0,0,0,0,1r,0,1x,0,0,0,1x
0,0,0,0,0,0,0,0,0,1r,1b,1x,0,1x,0,1x
0,0,0,0,0,0,0,0,0,1r,0,1x,0,1x,0,1x
20,20,20,20,20,20,0,0,0,1r,1b,1x,0,0,0,1x
20,20,20,20,20,20,0,0,0,1r,0,1x,0,1x,0,1x
20,20,20,20,20,20,0,2d,0,1r,0,1x,0,1x,0,0
ITM c 7,13
EXT 7,15 6 5,0
PAL 2

ROOM 6
22,22,22,0,0,0,0,0,0,1u,1b,1x,0,1x,0,1x
22,22,22,0,0,0,0,0,0,1u,0,1x,0,1x,0,1x
22,22,22,0,0,0,0,0,0,1u,0,1x,0,0,0,1x
22,22,22,0,0,0,0,0,0,1u,1b,1x,0,1x,0,1x
22,22,22,0,0,0,0,0,0,1u,0,1x,0,1x,0,1x
22,22,22,0,0,0,0,0,0,1u,0,1x,0,0,0,1x
22,22,22,0,0,0,0,0,0,1u,0,1x,0,1x,0,1x
22,22,22,0,0,0,0,0,0,1u,1b,1x,0,1x,0,1x
22,22,22,0,0,0,0,0,0,1u,0,1x,0,0,0,1x
22,22,22,0,0,0,0,0,0,1u,0,1x,0,1x,0,1x
22,22,22,0,0,0,0,0,0,1u,0,1x,0,1x,0,1x
22,22,22,0,0,0,0,0,0,1u,1b,1x,0,0,0,1x
22,22,22,0,0,0,0,0,0,1u,0,1x,0,1x,0,1x
22,22,22,0,0,0,0,0,0,1u,0,1x,0,1x,0,1x
22,22,22,0,0,0,0,0,0,1u,1b,1x,0,0,0,1x
22,22,22,0,0,2d,0,0,0,1u,0,1x,0,1x,0,1x
ITM d 5,5
ITM e 4,9
ITM f 5,9
EXT 5,15 7 5,0
PAL 2

ROOM 7
23,23,23,0,0,0,0,0,0,1u,0,1x,0,1x,0,1x
23,23,23,0,0,0,0,0,0,1u,0,1x,0,1x,0,1x
23,23,23,0,0,0,0,0,0,1u,26,25,27,0,0,1x
23,23,23,0,0,0,0,0,0,1u,24,1x,0,1x,0,1x
23,23,23,0,0,0,0,0,0,1u,24,1x,0,1x,0,1x
23,23,23,0,0,0,0,0,0,1u,24,1x,0,0,0,1x
23,23,23,0,0,0,0,0,0,1u,0,1x,0,1x,0,1x
23,23,23,0,0,0,0,0,0,1u,0,1x,0,1x,0,1x
23,23,23,0,0,0,0,0,0,1u,0,1x,0,0,0,1x
23,23,23,0,0,0,0,0,0,1u,0,1x,0,1x,0,1x
23,23,23,0,0,0,0,0,0,1u,0,1x,0,1x,0,1x
23,23,23,0,0,0,0,0,0,1u,26,25,27,0,0,1x
23,23,23,0,0,0,0,0,0,1u,24,1x,0,1x,0,1x
23,23,23,0,0,0,0,0,0,1u,24,1x,0,1x,0,1x
23,23,23,0,0,0,0,0,0,1u,24,1x,0,0,0,1x
23,23,23,0,0,0,2d,0,0,1u,0,1x,0,1x,0,1x
ITM g 10,9
ITM h 6,4
ITM i 8,10
EXT 6,15 8 6,0
PAL 0

ROOM 8
28,28,28,0,0,2e,0,0,0,0,0,24,0,24,0,24
28,28,28,0,0,0,0,0,0,0,0,24,0,24,0,24
28,28,28,0,0,0,0,0,0,0,0,24,0,0,0,24
28,28,28,0,0,0,0,0,0,0,0,24,0,24,0,24
28,28,28,0,0,0,0,0,0,0,0,24,0,24,0,24
28,28,28,0,0,0,0,0,0,0,0,24,0,0,0,24
28,28,28,0,0,0,0,0,0,0,0,24,0,24,0,24
28,28,28,0,0,0,0,0,0,0,0,24,0,24,0,24
28,28,28,26,25,27,0,0,0,0,0,24,0,0,0,24
28,28,28,24,2a,25,25,25,25,25,25,29,0,24,0,24
28,28,28,24,24,0,25,25,0,25,25,0,25,0,0,24
28,28,28,24,2b,25,25,25,25,25,25,25,25,25,25,29
28,28,28,24,0,0,0,0,0,0,0,0,0,0,0,0
28,28,28,28,28,28,28,28,28,28,28,28,28,28,28,28
28,28,28,28,28,28,28,28,28,28,28,28,28,28,28,28
28,28,28,28,28,28,28,28,28,28,28,28,28,28,28,28
ITM j 6,2
ITM k 9,6
EXT 5,0 9 7,0
PAL 1

ROOM 9
a,a,a,a,a,a,a,c,a,a,a,a,a,a,a,a
a,0,0,0,0,0,0,0,0,0,0,0,0,0,2f,a
a,0,0,0,0,0,0,0,0,0,0,0,0,2u,2f,a
a,0,0,0,0,0,0,0,0,0,0,0,0,0,2f,a
a,0,0,0,0,0,0,0,0,0,0,0,0,0,2t,a
a,2r,0,0,0,0,0,0,0,0,0,0,0,0,2f,a
a,2r,0,0,0,0,0,0,0,0,0,0,0,2u,2f,a
a,2s,0,0,0,0,0,0,0,0,0,0,0,0,2f,a
a,2r,0,0,0,0,0,0,0,0,0,0,0,0,2t,a
a,2r,0,0,0,0,0,0,0,0,0,0,0,0,2f,a
a,0,0,0,0,0,0,0,0,0,0,0,0,2u,2f,a
a,0,0,2k,2m,0,0,0,0,0,2p,2k,0,0,2f,a
a,0,0,2f,0,0,0,0,0,0,0,2f,0,0,0,a
a,0,0,2l,2o,2i,0,0,0,2j,2q,2l,0,0,0,a
a,0,0,0,0,2g,2f,2f,2f,2h,0,0,0,0,0,a
a,a,a,a,a,a,a,a,a,a,a,a,a,a,a,a
ITM l 7,2
ITM n 7,3
ITM m 7,4
ITM o 4,1
END undefined 3,1
PAL 0

TIL 10
00000000
00000000
11111111
11111111
11111111
00000000
00000000
00000000

TIL 11
00000000
00000000
00000000
11111111
11111111
00000000
00000000
00000000

TIL 12
00000000
00000000
00000000
00111111
00111111
00110000
00110000
00110000

TIL 13
00110000
00110000
00110000
00110000
00110000
00110000
00110000
00110000

TIL 14
00110000
01111000
01101000
00001000
00001000
01101000
01111000
00110000

TIL 15
00000000
01100110
01111110
00100100
00100100
01111110
01100110
00000000
>
00000000
01111110
01011010
01100110
01100110
01011010
01111110
00000000

TIL 16
00000000
00111100
00100100
00111100
00100000
00100000
00100000
00000000

TIL 17
11111111
10000001
10111101
10111101
10111101
10111101
10111101
10111101

TIL 18
10111101
10111101
10111101
10111101
10111101
10111101
10111101
10000001

TIL 19
00000000
00100100
00111100
00111100
00111100
00111100
00111100
00111100

TIL 20
11111111
10011001
10100101
10100101
10011001
10100101
10011001
11111111
WAL true

TIL 21
11111111
11000011
11100111
10111101
10111101
11100111
11100111
11111111
WAL true

TIL 22
11111111
11000011
11111111
11011011
10111101
11111111
11000011
11111111
WAL true

TIL 23
11111111
11111111
11000011
11011011
11011011
11000011
11111111
11111111

TIL 24
00011000
00011000
00011000
00011000
00011000
00011000
00011000
00011000

TIL 25
00000000
00000000
00000000
11111111
11111111
00000000
00000000
00000000

TIL 26
00000000
00000000
00000000
00011111
00011111
00011000
00011000
00011000

TIL 27
00000000
00000000
00000000
11111000
11111000
00000000
00000000
00000000
>
00000000
00000000
00000000
11111000
11111000
00011000
00100100
00000000

TIL 28
11111111
10100101
10011001
01100110
01100110
10011001
10100101
11111111

TIL 29
00011000
00011000
00011000
11111000
11111000
00000000
00000000
00000000

TIL a
11111111
11100111
11100111
10000001
10000001
11100111
11100111
11111111

TIL b
00000000
01110000
01110000
01110000
01110000
01110000
01110000
00000000

TIL c
11111111
10000001
10000001
10100101
10100101
10000001
10000001
11111111

TIL d
00000000
00000000
00000000
10101010
01010101
00000000
00000000
00000000

TIL e
00000000
00000000
00000000
10100000
01010000
00001000
00010000
00001000

TIL f
00010000
00001000
00010000
00001000
00010000
00001000
00010000
00001000

TIL g
10000001
10000001
11100111
00111100
00111100
11100111
10000001
10000001

TIL h
10000001
11111111
10000001
11111111
10000001
11111111
10000001
11111111

TIL i
11111111
10011001
10111101
11100111
11100111
10111101
10011001
11111111
WAL true

TIL j
11111111
11111111
11111111
00000000
00000000
11111111
11111111
11111111

TIL k
00000000
00000000
00000000
00011111
00010000
00010000
00010000
00010000

TIL l
00000000
00000000
00000000
11111111
00000000
00000000
00000000
00000000

TIL m
00000000
00000000
00000000
11111000
00001000
00001000
00001000
00001000

TIL n
00001000
00001000
00001000
00001000
00001000
00001000
00001000
00001000

TIL o
00010000
00010000
00010000
00010000
00010000
00010000
00010000
00010000

TIL p
00001000
00001000
00001000
00001000
11111000
00000000
00000000
00000000

TIL q
00010000
00010000
00010000
00010000
00011111
00000000
00000000
00000000

TIL r
00000000
00000000
00000000
00000000
11111111
00000000
00000000
00000000

TIL s
00000000
00000000
00000000
11111111
11111111
00000000
00000000
00000000

TIL t
11111111
11111100
11111000
00000001
00000111
11111111
11111111
11111111

TIL u
00011111
00111111
01111111
11110000
11100000
11000000
10000000
00000000

TIL v
00000000
00000000
00111111
01111111
11111111
11100000
11000000
10000000

TIL w
00000000
00000000
00000000
00000000
00000000
00000001
00000011
00000111

TIL x
00000000
00000000
11111111
11111111
11111111
00000000
00000000
00000000

TIL y
11111111
11111111
11111111
00000000
00000000
00000000
00000000
00000000

TIL z
00000000
00000000
01111111
11111111
11111111
11100000
11000000
00000000

TIL 1a
00000000
11000000
11000000
01111110
01111110
01011010
00011000
00111100

TIL 1b
00000000
00000000
01111110
00011000
00011000
00011000
00011000
00111100
>
00000000
10000001
01111110
00011000
00011000
00011000
00011000
00111100

TIL 1c
00000000
00000000
00000000
00000000
00000000
00000000
11111111
11111111

TIL 1d
11111111
11111111
00000000
00000000
00000000
00000000
00000000
00000000

TIL 1e
11111111
10100101
11011011
10100101
10100101
11011011
10100101
11111111

TIL 1f
11100111
11011011
10100101
01000010
01000010
10100101
11011011
11100111

TIL 1g
00000000
00000000
00000000
00000000
00000000
11111111
11111111
11111111

TIL 1h
11111111
11100111
11111111
10100101
10100101
11111111
11100111
11111111

TIL 1i
00000000
00000000
00000000
00000000
00000000
11111111
11111111
11111111

TIL 1j
00000000
00000000
00000000
11111111
11111111
00000000
00000000
00000000

TIL 1k
00000000
00000000
00000000
00000000
00000000
00000000
00000000
11111111

TIL 1l
11111111
00000000
00000000
00000000
00000000
00000000
00000000
00000000

TIL 1m
00011000
00011000
00011000
00011000
00011000
00011000
00011000
00011000

TIL 1n
00011000
00011000
00011000
00011000
00011000
11111111
11111111
11111111

TIL 1o
00011111
00011111
00000000
00000000
00000000
00000000
00000000
00000000
>
00011111
00011111
00011000
00100100
00000000
00000000
00000000
00000000

TIL 1p
11111000
11111000
00011000
00011000
00011000
00011000
00011000
00011000

TIL 1q
00000000
00000000
00000000
00000000
00000000
11100000
11100000
11100000

TIL 1r
11100000
11100000
11100000
11100000
11100000
11100000
11100000
11100000

TIL 1s
11111111
11111111
11111111
00000000
00000000
00000000
00000000
00000000

TIL 1t
11100000
11100000
11100000
00000000
00000000
00000000
00000000
00000000

TIL 1u
11100000
11100000
11100000
11100000
11100000
11100000
11100000
11100000

TIL 1v
00000000
00000000
00000000
11111111
11111111
00000000
00000000
00000000

TIL 1w
00011000
00011000
00011000
11111000
11111000
00000000
00000000
00000000

TIL 1x
00011000
00011000
00011000
00011000
00011000
00011000
00011000
00011000

TIL 1y
00000000
00000000
00000000
11111000
11111000
00011000
00011000
00011000

TIL 1z
00000000
00000000
00000000
00000000
00000000
00000000
00000000
00000000

TIL 2a
00000000
00000000
00000000
00011111
00011111
00011000
00011000
00011000

TIL 2b
00011000
00011000
00011000
00011111
00011111
00000000
00000000
00000000

TIL 2c
11111111
10000001
10110001
10001111
10001111
10110001
10000001
11111111

TIL 2d
11111111
10000001
10100101
10100101
10011001
10011001
10011001
11111111

TIL 2e
11111111
10011001
10011001
10011001
10100101
10100101
10000001
11111111

TIL 2f
11111111
11111111
11111111
11111111
11111111
11111111
11111111
11111111

TIL 2g
00000011
00000011
00000011
00000011
00000011
00000011
00000011
00000011

TIL 2h
11000000
11000000
11000000
11000000
11000000
11000000
11000000
11000000

TIL 2i
00000000
00000000
00000000
00000000
00000000
00000011
00000011
00000011

TIL 2j
00000000
00000000
00000000
00000000
00000000
11000000
11000000
11000000

TIL 2k
00000000
00000000
00000000
00000000
00000000
00000000
11111111
11111111

TIL 2l
11111111
11111111
00000000
00000000
00000000
00000000
00000000
00000000

TIL 2m
00000000
00000000
00000000
00000000
00000000
00000000
11100000
11100000

TIL 2n
00000000
00000000
00000000
00000000
00000000
00000000
00000111
00000111

TIL 2o
11100000
11100000
00000000
00000000
00000000
00000000
00000000
00000000

TIL 2p
00000000
00000000
00000000
00000000
00000000
00000000
00000111
00000111

TIL 2q
00000111
00000111
00000000
00000000
00000000
00000000
00000000
00000000

TIL 2r
00011000
00011000
00011000
00011000
00011000
00011000
00011000
00011000

TIL 2s
00011000
10011000
01011000
00111000
00111000
01011000
10011000
00011000

TIL 2t
11111111
11110111
11101011
11011101
10111011
11010111
11101111
11111111

TIL 2u
00000000
00000010
00100010
00011110
00011110
00100010
00000010
00000000

SPR 10
00000000
00000000
00011000
00011000
01111110
10111101
00111100
00100100

SPR 11
00000000
00011000
00011000
01111110
10111101
00111100
00111100
00100100
>
00000000
00011000
00111100
01111110
00111100
00111100
00111100
00100100
POS 4 11,10

SPR 12
00000000
00011000
00011000
01111110
10111101
00111100
00111100
00100100
>
00000000
00011000
00111100
01111110
00111100
00111100
00111100
00100100
POS 4 11,12

SPR 13
00000000
00000000
11100001
11100010
01111110
01111110
01111110
01000010
>
00000000
10100000
11100000
11100011
01111110
01111110
01111110
01000010
POS 5 7,14

SPR 14
00000000
00000000
11100001
11100010
01111110
01111110
01111110
01000010
>
00000000
10100000
11100000
11100011
01111110
01111110
01111110
01000010
POS 6 6,9

SPR 15
11000011
11100011
01110011
00111011
00011111
00001111
11111111
11111111
POS 8 10,8

SPR 16
11000011
11000111
11001110
11011100
11111000
11110000
11111111
11111111
POS 8 9,8

SPR 17
11111111
11111111
00001111
00011111
00111011
01110011
11100011
11000011
POS 8 10,7

SPR 18
11111111
11111111
11110000
11111000
11011100
11001110
11000111
11000011
POS 8 9,7

SPR 19
00000000
00000000
00000000
00000000
00000000
00000000
00000000
00000000

SPR A
00000000
00011000
00011000
01111110
10111101
00111100
00100100
00100100
POS 0 2,14

SPR a
00000000
00000000
11100001
11100010
01111110
01111110
01111110
01000010
>
00000000
10100000
11100000
11100011
01111110
01111110
01111110
01000010
DLG SPR_0
POS 0 3,9

SPR b
11111111
10000000
10111111
10001010
10001010
10111111
10000000
11111111
POS 0 6,14

SPR c
11111111
00000000
11111111
10100101
10100101
11111111
00000000
11111111
POS 0 7,14

SPR d
11111111
00000001
11111101
01010001
01010001
11111101
00000001
11111111
POS 0 8,14

SPR e
11110111
10110111
11010111
11100111
11100111
11010111
10110111
11110111
POS 0 1,7

SPR f
00000000
00000000
00000000
00000000
11111111
11111111
11111111
11111111
POS 0 1,6

SPR g
11111111
11111111
11111111
11111111
00000000
00000000
00000000
00000000
POS 0 1,8

SPR h
00000000
00110100
00011100
00011100
00011100
00110100
00000000
00000000
POS 0 2,7

SPR i
11111111
11111111
11111111
11111111
11111111
11111111
11111111
11111111
POS 0 14,8

SPR j
00000000
00000000
00000000
00000000
11111111
11111111
11111111
11111111
POS 0 14,7

SPR k
11111111
11111111
11111111
11111111
00000000
00000000
00000000
00000000
POS 0 14,9

SPR l
00000000
00000011
00000011
00000011
00000000
00000000
00000000
00000000
POS 0 13,9

SPR m
00000000
00000000
00000000
00000000
00000011
00000011
00000011
00000000
POS 0 13,7

SPR n
00000000
00000000
10000111
01000111
01111110
01111110
01111110
01000010
>
00000000
00000101
00000111
11000111
01111110
01111110
01111110
01000010
DLG SPR_1
POS 1 7,11

SPR o
00000000
00000000
11100001
11100010
01111110
01111110
01111110
01000010
>
00000000
10100000
11100000
11100011
01111110
01111110
01111110
01000010
POS 2 9,11

SPR p
00000000
00000000
00100010
00110010
00011110
00110110
01100110
00000000
POS 3 9,14

SPR q
00000000
00000000
00001000
00011000
00001100
01100110
00111100
00000000
POS 3 10,14

SPR r
00000000
00000000
00100000
00111100
00110110
00100100
01100110
00010010
POS 3 10,15

SPR s
00000000
00000000
00110000
01100000
11001000
00000010
00001110
01100110
POS 3 9,15

SPR t
00000000
00000000
11100001
11100010
01111110
01111110
01111110
01000010
>
00000000
10100000
11100000
11100011
01111110
01111110
01111110
01000010
POS 3 10,13

SPR u
00000000
00000000
00011000
00011000
01111110
10111101
00111100
00100100
POS 3 12,10

SPR v
00000000
00000000
00011000
00011000
01111110
10111101
00111100
00100100
POS 3 10,8

SPR w
00000000
00000000
00011000
00011000
01111110
10111101
00111100
00100100
POS 3 6,8

SPR x
00000000
00000000
00011000
00111100
00111100
00011000
00000000
00000000
>
00000000
00000000
00000000
00000000
00000000
00000000
00000000
00000000
POS 3 7,8

SPR y
00000000
00000000
00000000
00000000
00000000
00000000
00000000
00000000
>
00000000
00000000
00011000
00111100
00111100
00011000
00000000
00000000
POS 3 9,8

SPR z
00000000
00000000
11100001
11100010
01111110
01111110
01111110
01000010
>
00000000
10100000
11100000
11100011
01111110
01111110
01111110
01000010
POS 4 8,11

SPR 1a
00000000
00000000
00011000
00011000
01111110
10111101
00111100
00100100
POS 8 5,12

SPR 1b
00000000
00000000
00011000
00011000
01111110
10111101
00111100
00100100
POS 8 8,12

SPR 1c
00000000
00000000
00011000
00011000
01111110
10111101
00111100
00100100
POS 8 11,12

SPR 1d
00000000
00000000
11100001
11100010
01111110
01111110
01111110
01000010
>
00000000
10100000
11100000
11100011
01111110
01111110
01111110
01000010
DLG SPR_2
POS 8 8,4

SPR 1e
00000000
00000000
00000000
01100010
01100100
00111100
00111100
00100100
>
00000000
00000000
00000000
01100000
01100110
00111100
00111100
00100100
POS 9 8,13

SPR 1f
00000000
00000000
11100001
11100010
01111110
01111110
01111110
01000010
>
00000000
10100000
11100000
11100011
01111110
01111110
01111110
01000010
POS 9 8,5

SPR 1g
00000000
00000000
00011100
00110000
00000000
00011000
00001000
00000000
POS 9 4,10

SPR 1h
00000000
00000000
00000000
00100000
00001100
00111000
00110000
00000000
POS 9 10,10

SPR 1i
00000000
00000000
01010000
00000100
00011100
00010000
00001100
00000000
POS 9 2,8

SPR 1j
00000000
00000000
00000010
01011010
01000100
00010000
00111000
00000000
POS 9 9,8

SPR 1k
00000000
00100000
01011000
01000000
00101110
00000000
00000000
00000000
POS 9 12,5

SPR 1l
00000000
00110000
01100000
00000000
00001000
00010000
01111100
00000000
POS 9 3,5

ITM 0
00000000
00000000
00000000
00011000
00011000
00000000
00000000
00000000
NAME point
DLG ITM_0

ITM 1
00000000
00000000
00011110
01011100
01001111
01101100
01111100
00000000
DLG ITM_1

ITM 2
00000000
00000000
00000000
00011000
00011000
00000000
00000000
00000000
DLG ITM_2

ITM 3
00000000
00000000
00000000
00011000
00011000
00000000
00000000
00000000
DLG ITM_3

ITM 4
00000000
00000000
00000000
00011000
00011000
00000000
00000000
00000000
DLG ITM_4

ITM 5
00000000
00000000
00000000
00011000
00011000
00000000
00000000
00000000
DLG ITM_5

ITM 6
00000000
00000000
00000000
00011000
00011000
00000000
00000000
00000000
DLG ITM_6

ITM 7
00000000
00000000
00000000
00011000
00011000
00000000
00000000
00000000
DLG ITM_7

ITM 8
00000000
00000000
00000000
00011000
00011000
00000000
00000000
00000000
DLG ITM_8

ITM 9
00000000
00100000
00010000
00000000
00011000
00111100
00000000
00000000
>
00000000
00000100
00001000
00000000
00011000
00111100
00000000
00000000
DLG ITM_9

ITM a
00000000
00000000
00000000
00011000
00011000
00000000
00000000
00000000
DLG ITM_a

ITM b
00000000
00000000
00000000
00011000
00011000
00000000
00000000
00000000
DLG ITM_b

ITM c
00000000
00000000
00000000
00011000
00011000
00000000
00000000
00000000
DLG ITM_c

ITM d
00000000
00000000
00000000
00011000
00011000
00000000
00000000
00000000
DLG ITM_d

ITM e
00000000
00000000
00000000
10000110
01000110
00111100
00111100
00100100
>
00000000
00000000
10000000
10001100
01001100
00111000
00111000
00101000
DLG ITM_e

ITM f
00000000
00000000
00000000
00011000
00011000
00000000
00000000
00000000
DLG ITM_f

ITM g
00000000
00000000
10000111
01000111
01111110
01111110
01111110
01000010
>
00000000
00000101
00000111
11000111
01111110
01111110
01111110
01000010
DLG ITM_h

ITM h
00000000
00000000
00000000
00011000
00011000
00000000
00000000
00000000
DLG ITM_g

ITM i
00000000
00000000
00000000
00011000
00011000
00000000
00000000
00000000
DLG ITM_i

ITM j
00000000
00000000
00000000
00011000
00011000
00000000
00000000
00000000
DLG ITM_j

ITM k
00000000
00000000
00000000
00011000
00011000
00000000
00000000
00000000
DLG ITM_k

ITM l
00000000
00000000
00000000
00011000
00011000
00000000
00000000
00000000
DLG ITM_l

ITM m
00000000
00000000
00000000
00011000
00011000
00000000
00000000
00000000
DLG ITM_m

ITM n
00000000
00000000
00000000
00011000
00011000
00000000
00000000
00000000
DLG ITM_n

ITM o
00000000
00000100
00001100
00001100
00001100
00111110
00111110
00000000
DLG ITM_o

DLG SPR_0
Woof Woof!

DLG ITM_0
What's that smell?

DLG ITM_1
*steps on pee.* Yup, just as i guessed.

DLG ITM_2
Seems it's time to go for a walk with Oscar.

DLG ITM_3
Oscar! Follow me.

DLG SPR_1
Wooof!

DLG ITM_4
OSCAR! Come here.

DLG ITM_5
Stop pulling!

DLG ITM_6
Good boy.

DLG ITM_7
Oscar! Stay away from trash.

DLG ITM_8
Come on let us keep moving.

DLG ITM_9
*collects poop*

DLG ITM_a
*breaths* Smell of a lovely poop.

DLG ITM_b
*pulls out thrash bag*

DLG ITM_c
Go go Oscar.

DLG ITM_d
Oscar!!! Leave the cat alone.

DLG ITM_e
*kicks the cat*

DLG ITM_f
Moving on Oscar.

DLG ITM_g
Oscar!! Stay away from the road!

DLG ITM_h
*lifts Oscar*

DLG ITM_i
I will carry you to safe corner.

DLG ITM_j
Finally... A trash can.

DLG ITM_k
*throws poop bag*

DLG SPR_2
Let us head back home.

DLG ITM_l
Gollum! I'm home.

DLG ITM_m
For **** sake.

DLG ITM_n
House smells different. *breathes*

DLG ITM_o
*grabs mop with sadness*

END 0


END undefined
Thank you for watching.

VAR a
42


