
Far From Nights of Home

# BITSY VERSION 4.5

! ROOM_FORMAT 1

PAL 0
156,182,182
255,250,255
139,255,199

PAL 1
255,255,255
204,220,245
0,0,0

ROOM 0
0,0,0,0,0,0,0,0,0,0,0,0,0,0,0,0
0,0,0,0,0,0,0,0,0,0,0,0,0,0,0,0
0,0,0,0,0,0,0,0,0,0,0,0,0,0,0,0
0,0,0,0,0,0,0,0,0,0,0,0,0,0,0,0
0,0,0,0,0,0,0,0,0,0,0,0,0,0,0,0
0,m,c,c,c,o,g,0,0,0,0,0,0,0,0,0
0,k,s,0,0,d,i,0,0,0,0,0,0,0,0,0
0,l,s,j,j,s,h,0,0,0,0,0,0,0,0,0
0,0,u,0,0,u,0,0,0,0,0,0,0,0,0,0
0,0,0,0,0,0,0,0,0,0,0,0,0,0,0,0
0,0,0,0,0,0,0,0,0,0,0,0,0,0,0,0
0,0,0,0,0,0,0,0,0,0,0,0,0,0,0,0
0,0,0,0,0,0,0,0,0,0,0,0,0,0,0,0
0,0,0,0,0,0,0,0,0,0,0,0,0,0,0,0
0,0,0,0,0,0,0,0,0,0,0,0,0,0,0,0
0,0,0,0,0,0,0,0,0,0,0,0,0,0,0,0
NAME Bedroom
EXT 5,5 1 5,5
PAL 0

ROOM 1
0,0,0,0,0,0,0,0,0,0,0,0,0,0,0,0
0,0,0,0,0,0,0,0,0,0,0,0,0,0,0,0
0,0,0,0,0,0,0,0,0,0,0,0,0,0,0,0
0,0,0,0,0,0,m,c,c,c,g,0,0,0,0,0
m,c,c,c,c,c,c,c,o,c,c,c,c,c,g,0
k,0,0,0,0,0,0,0,d,0,0,0,0,0,i,0
l,s,j,j,j,n,j,j,j,j,j,j,n,s,h,0
0,t,v,0,0,v,l,s,j,s,h,0,0,t,0,0
0,t,u,0,0,u,0,u,0,u,0,0,0,t,0,0
0,u,0,0,0,0,0,0,0,0,0,0,0,u,0,0
0,0,0,0,0,0,0,0,0,0,0,0,0,0,0,0
0,0,0,0,0,0,0,0,0,0,0,0,0,0,0,0
0,0,0,0,0,0,0,0,0,0,0,0,0,0,0,0
0,0,0,0,0,0,0,0,0,0,0,0,0,0,0,0
0,0,0,0,0,0,0,0,0,0,0,0,0,0,0,0
0,0,0,0,0,0,0,0,0,0,0,0,0,0,0,0
NAME Hall outside room
EXT 5,6 0 5,6
EXT 8,4 2 8,4
EXT 12,6 5 12,6
PAL 0

ROOM 2
0,0,0,0,0,0,0,0,0,0,0,0,0,0,0,0
0,0,0,0,0,0,0,0,0,0,0,0,0,0,0,0
0,0,0,0,0,0,0,0,0,0,0,0,0,0,0,0
0,0,0,0,0,0,m,c,c,c,g,0,0,0,0,0
0,0,0,0,0,0,k,q,0,r,i,0,0,0,0,0
0,0,0,0,0,0,k,p,n,r,i,0,0,0,0,0
0,0,0,0,0,0,k,0,0,0,i,0,0,0,0,0
0,0,0,0,0,0,l,s,j,s,h,0,0,0,0,0
0,0,0,0,0,0,0,u,0,u,0,0,0,0,0,0
0,0,0,0,0,0,0,0,0,0,0,0,0,0,0,0
0,0,0,0,0,0,0,0,0,0,0,0,0,0,0,0
0,0,0,0,0,0,0,0,0,0,0,0,0,0,0,0
0,0,0,0,0,0,0,0,0,0,0,0,0,0,0,0
0,0,0,0,0,0,0,0,0,0,0,0,0,0,0,0
0,0,0,0,0,0,0,0,0,0,0,0,0,0,0,0
0,0,0,0,0,0,0,0,0,0,0,0,0,0,0,0
NAME Storage cupboard
EXT 8,5 1 8,5
PAL 0

ROOM 5
0,0,0,0,0,0,0,0,0,0,0,0,0,0,0,0
0,0,0,0,0,0,0,0,0,0,0,0,0,0,0,0
0,0,0,0,0,0,0,0,0,0,0,0,0,0,0,0
0,0,0,0,0,0,m,c,c,c,g,0,0,0,0,0
m,c,c,c,c,c,c,c,c,c,c,c,c,c,g,0
k,m,c,c,c,c,g,0,0,0,0,m,o,g,i,0
l,k,0,0,0,0,i,j,j,j,j,k,d,i,h,0
0,l,s,j,j,s,h,s,j,s,h,k,0,i,0,0
0,v,u,0,0,u,0,u,0,u,0,k,0,i,0,0
0,u,0,0,0,0,0,0,0,0,0,k,0,i,0,0
0,0,0,0,0,0,0,0,0,0,0,k,0,i,0,0
0,0,0,0,0,0,0,0,0,0,0,k,0,i,0,0
0,0,0,0,0,0,0,0,0,0,0,k,0,i,0,0
0,0,0,0,0,0,0,0,0,0,0,l,n,h,0,0
0,0,0,0,0,0,0,0,0,0,0,0,0,0,0,0
0,0,0,0,0,0,0,0,0,0,0,0,0,0,0,0
NAME hallway 2
EXT 12,5 1 12,5
EXT 12,13 6 12,13
PAL 0

ROOM 6
0,0,0,0,0,0,0,0,0,0,0,0,0,0,0,0
0,0,0,0,0,0,0,0,0,0,0,0,0,0,0,0
0,0,0,0,0,0,0,0,0,0,0,0,0,0,0,0
0,0,0,0,0,0,0,0,0,0,0,0,0,0,0,0
0,0,0,0,0,0,0,0,0,0,0,0,0,0,0,0
0,0,0,0,0,0,0,0,0,0,0,0,0,0,0,0
0,0,0,0,0,0,0,0,0,0,0,0,0,0,0,0
0,0,0,0,0,0,0,0,0,0,0,14,0,0,0,0
0,0,0,0,0,0,0,0,0,0,0,k,0,13,0,0
0,0,0,0,0,0,0,0,0,0,0,k,0,i,0,0
0,0,0,0,0,0,0,0,0,0,0,k,0,i,0,0
0,0,0,0,0,0,0,m,c,g,0,k,0,i,0,0
0,0,0,0,0,m,o,c,o,c,c,c,o,g,0,0
0,0,0,0,0,k,d,0,d,0,0,0,d,i,0,0
0,0,0,0,0,l,j,s,j,j,j,s,j,h,0,0
0,0,0,0,0,0,0,u,0,0,0,u,0,0,0,0
NAME lower hallway
EXT 12,12 5 12,12
EXT 8,12 7 8,12
EXT 6,12 8 6,12
PAL 0

ROOM 7
0,0,0,0,0,0,0,0,0,0,0,0,0,0,0,0
0,0,0,0,0,0,0,0,0,0,0,0,0,0,0,0
0,0,0,0,0,0,0,0,0,0,0,0,0,0,0,0
0,0,0,0,0,0,0,0,0,0,0,0,0,0,0,0
0,0,0,0,0,0,0,0,0,0,0,0,0,0,0,0
0,0,0,0,0,0,0,0,0,0,0,0,0,0,0,0
0,0,0,0,0,0,0,0,0,0,0,0,0,0,0,0
0,0,0,0,0,0,0,0,0,0,0,0,0,0,0,0
0,0,0,0,0,0,0,0,0,0,0,0,0,0,0,0
0,0,0,0,0,0,0,0,0,0,0,0,0,0,0,0
0,0,0,0,0,0,0,0,0,0,0,0,0,0,0,0
0,0,0,0,0,0,0,m,c,g,0,0,0,0,0,0
0,0,0,0,0,0,0,k,0,i,0,0,0,0,0,0
0,0,0,0,0,0,0,l,n,h,0,0,0,0,0,0
0,0,0,0,0,0,0,0,0,0,0,0,0,0,0,0
0,0,0,0,0,0,0,0,0,0,0,0,0,0,0,0
NAME Eldritch Horror
EXT 8,13 6 8,13
PAL 0

ROOM 8
0,0,0,0,0,0,0,0,0,0,0,0,0,0,0,0
0,0,0,0,0,0,0,0,0,0,0,0,0,0,0,0
0,0,0,0,0,0,0,0,0,0,0,0,0,0,0,0
0,0,0,0,0,0,0,0,0,0,0,0,0,0,0,0
0,0,0,0,0,0,0,0,0,0,0,0,0,0,0,0
0,0,0,0,0,0,0,0,0,0,0,0,0,0,0,0
0,0,0,0,0,0,0,0,0,0,0,0,0,0,0,0
0,0,0,0,0,0,0,0,0,0,0,0,0,0,0,0
0,0,0,0,0,0,0,0,0,0,0,0,0,0,0,0
0,0,0,0,0,0,0,0,0,0,0,0,0,0,0,0
0,0,0,0,0,0,0,0,0,0,0,0,0,0,0,0
0,0,0,m,c,c,0,g,0,0,0,0,0,0,0,0
0,0,0,k,12,0,0,i,0,0,0,0,0,0,0,0
0,0,0,l,17,s,n,h,0,0,0,0,0,0,0,0
0,0,0,0,0,t,0,0,0,0,0,0,0,0,0,0
0,0,0,0,0,u,0,0,0,0,0,0,0,0,0,0
NAME Ted's room
EXT 6,13 6 6,13
EXT 4,13 9 13,14
PAL 0

ROOM 9
0,0,0,0,0,0,0,0,0,0,0,0,0,0,0,0
0,0,0,0,0,0,0,0,0,0,0,0,0,0,0,0
0,0,0,0,0,0,0,0,0,0,0,0,0,0,0,0
0,0,0,0,0,0,0,0,0,0,0,0,0,0,0,0
0,0,0,0,0,0,0,0,0,0,0,0,1j,1k,1l,0
18,19,1a,1b,1c,1o,1f,1g,18,1a,1h,1i,0,0,0,1m
0,0,0,0,0,0,0,0,0,0,0,0,0,0,0,0
0,0,0,0,0,0,0,0,0,0,0,0,0,0,0,0
0,0,0,0,0,0,0,0,0,0,0,0,0,0,0,0
0,0,0,0,0,0,0,0,0,0,0,0,0,0,0,0
0,0,0,0,0,0,0,0,0,0,0,0,0,0,0,0
0,0,0,0,0,0,0,0,0,0,0,0,0,0,0,0
0,0,0,0,0,0,0,0,0,0,0,0,0,16,0,0
a,a,1n,a,a,a,a,a,a,a,a,a,a,15,0,a
a,a,0,0,0,0,0,0,0,0,0,0,0,0,a,a
a,a,a,a,a,a,a,a,a,a,a,a,a,a,a,a
NAME Outside
END undefined 2,12
PAL 1

TIL 10
00001100
00000010
00000000
00000010
00000000
00000010
00000000
00001110
WAL false

TIL 11
00000000
00000000
00000000
00101010
00000000
00000000
01011100
00000000
>
00000000
01001100
00000000
00000000
00000000
00110100
00000000
00000000

TIL 12
00000000
00000000
00000000
00000000
00111100
00011000
01111110
10000001

TIL 13
00000000
00000010
00000100
00000010
00000110
00000010
00000110
00000010
WAL true

TIL 14
00000000
01000000
00100000
01000000
01100000
01000000
01100000
01000000
WAL true

TIL 15
01000010
01111110
01000010
01111110
01000010
01000010
00000000
00000000
WAL true

TIL 16
01000000
00000000
01000010
00101100
00000010
00110110
01000010
01111110
WAL true

TIL 17
00000000
00000000
10101010
11111111
00000000
00000000
00000000
00000000
WAL false

TIL 18
00000000
00000000
00000000
00000000
00011111
00100000
11000000
00000000

TIL 19
00000000
00000000
00000000
00000000
11111111
00000000
00000000
00000000

TIL a
00000000
00000000
00000000
00000000
00000000
00000000
00000000
00000000
WAL true

TIL c
00000000
11111111
01010101
00000000
00000000
00000000
00000000
00000000
WAL true

TIL d
10000001
10000001
10100101
10011001
10011001
10100101
10000001
10000001

TIL e
00000000
10000000
10000000
10000000
11111111
10000000
11111111
10000000

TIL f
00000000
00000000
00000000
00010000
11110000
00010000
11110000
00010000

TIL g
00000000
11111000
01010100
00000010
00000110
00000010
00000110
00000010
WAL true

TIL h
00000110
00000010
10100100
11111000
00000000
00000000
00000000
00000000
WAL true

TIL i
00000110
00000010
00000110
00000010
00000110
00000010
00000110
00000010
WAL true

TIL j
00000000
00000000
10101010
11111111
00000000
00000000
00000000
00000000
WAL true

TIL k
01100000
01000000
01100000
01000000
01100000
01000000
01100000
01000000
WAL true

TIL l
01100000
01000000
00101010
00011111
00000000
00000000
00000000
00000000
WAL true

TIL m
00000000
00011111
00101010
01000000
01100000
01000000
01100000
01000000
WAL true

TIL n
10000001
10000001
10101010
00000000
00000000
00000000
00000000
00000000

TIL o
00000000
11111111
01010101
00000000
00000000
00000000
01111110
10000001
WAL false

TIL p
01000010
01111110
10101010
11111111
00000000
00000000
00000000
00000000
WAL true

TIL q
00000000
00111111
00100001
00100001
00111111
01111110
01000010
01000010

TIL r
00111100
00100100
00111100
01111110
01000010
01000010
01000010
01000010

TIL s
00000000
00000000
10101010
11111111
00011000
00011000
00011000
00011000
WAL true

TIL t
00011000
00011000
00011000
00011000
00011000
00011000
00011000
00011000
WAL true

TIL u
00011000
00011000
00011000
00011000
00010000
00001000
00010000
00000000
WAL true

TIL v
00000000
00010000
00001000
00010000
00011000
00011000
00011000
00011000
WAL true

TIL w
01111110
10000001
10010101
10101001
10010101
10000001
01111110
00000000

TIL x
00000000
00000000
00000010
00000001
00000110
00000010
00000110
00000010
WAL true

TIL y
00000010
00000101
00000010
00000000
00000000
00000000
00000000
00000000
WAL true

TIL z
00000011
00000101
00000101
00000101
00000101
00000101
00000101
00000011
WAL false

TIL 1a
00000000
00000000
00000110
01111001
10000000
00000000
00000000
00000000

TIL 1b
00000000
00000000
00000000
00000000
11100000
00111000
00001111
00000000

TIL 1c
00000000
00000000
00000001
00000010
00001100
01110000
11000000
00000000

TIL 1d
00000000
00000000
00000111
00011100
00010000
00110000
01100000
11000000

TIL 1e
00000000
00000000
11100000
00110000
00011000
00000110
00000010
00000010

TIL 1f
10000000
01100000
00011000
00000111
00000001
00000000
00000000
00000000

TIL 1g
00000000
00000000
00000000
00000000
11100000
00111111
00000001
00000000

TIL 1h
00000000
00000111
00111000
11000000
00000000
00000000
00000000
00000000

TIL 1i
00011111
11100000
00000000
00000000
00000000
00000000
00000000
00000000

TIL 1j
00000000
00000000
00000000
00000000
00000000
00000011
00011110
11100000

TIL 1k
00000000
00000000
00000000
00000000
00011000
11100111
00000000
00000000

TIL 1l
00000000
00000000
00000000
00000000
00000000
11100000
00111000
00001111

TIL 1m
11100000
00011111
00000000
00000000
00000000
00000000
00000000
00000000

TIL 1n
00000100
00000000
00000000
00100000
00000000
00000000
00000100
00100000

TIL 1o
00000001
00111110
11000000
00000000
00000000
00000000
00000000
00000000

SPR A
00000000
00001000
00000000
00111000
00111000
00011000
00010100
00010000
>
00000000
00001000
00000000
00111000
00111000
00011000
00010100
00000100
POS 0 4,6

SPR a
00000000
00000000
00000000
00000000
00000000
00000000
00011000
00011000
DLG SPR_0
POS 2 9,4

SPR b
00000000
01000000
01000000
01111111
01000000
01000000
01111111
01000000
POS 0 2,6

SPR c
00000000
00000000
00000010
11111110
00000010
00000010
11111110
00000010
DLG SPR_2
POS 0 3,6

SPR d
00000000
11111111
01010101
00000000
01111110
00000000
00000000
00000000
DLG SPR_3
POS 8 6,11

SPR e
00100100
01111110
01000010
01010010
01001010
01000010
01111110
00000000
DLG SPR_4
POS 1 3,5

SPR f
00000000
11111111
01010101
00000000
01111110
00000000
00000000
00000000
DLG SPR_5
POS 7 8,11

SPR g
01100000
01001000
01101000
01001000
01101000
01001000
01101000
01001000
DLG SPR_6
POS 5 11,8

SPR h
01101000
01001000
01101000
01001000
01101000
01001000
01101000
01001000
DLG SPR_7
POS 5 11,9

SPR i
01101000
01001000
01101000
01001000
01101000
01001000
01101000
01000000
DLG SPR_8
POS 5 11,10

SPR j
00000000
00010100
00000000
00111000
00111000
00111000
00111000
00101000
>
00000000
00010000
00000010
00111000
00111000
00111000
00111000
00101000
DLG SPR_9
POS 9 1,14

SPR k
00000000
01111110
01000010
01000010
01000010
01000010
01111110
00000000
POS 9 7,1

ITM 0
00000000
00000000
00000000
00111100
01100100
00100100
00011000
00000000
NAME tea
DLG ITM_0

DLG SPR_0
"""
Someone put a single can 
of diced pineapple here
No one likes pineapple at the station.
Back at home we have a walk 
"the pineapple track"
Named because some guy used to leave empty pineapple cans to mark the way.
"""

DLG ITM_0
You found a nice warm cup of tea

DLG SPR_1
I can't 

DLG SPR_2
Part of me wants to try and form good habits. Lie in bed to make it normal. But I can't sleep. Maybe Greg can help?

DLG SPR_3
"""
Hi Carl, I've gone outside
at 23:40. I can't sleep and you probably can't either. exit through the hatch and come find me - Greg.

I guess i'll go see him.
"""

DLG SPR_4
12th January. Two days in, 57 more to go.

DLG SPR_5
"""
"As a protest against the unequal distribution of sleeping quarter space Greg has moved his bedroom to the atrium by the hatch" - Greg.
Huh.
"""

DLG SPR_6
"""
30122017 -20 77.8477Â° S, 166.7602 E, -4.6 77Â°50â€²47â€³S 166Â°40â€²06â€³E. I'll update this chart tomorrow when Greg shows me where the thermometers are.
"""

DLG SPR_7
"""
30122017 -20 77.8477Â° S, 166.7602 E, -4.6 77Â°50â€²47â€³S 166Â°40â€²06â€³E. I'll update this chart tomorrow when Greg shows me where the thermometers are.

"""

DLG SPR_8
"""
30122017 -20 77.8477Â° S, 166.7602 E, -4.6 77Â°50â€²47â€³S 166Â°40â€²06â€³E. I'll update this chart tomorrow when Greg shows me where the thermometers are.

"""

DLG SPR_a
"""

{sequence
  - Good to see you tonight. It's just about midnight. Isn't the Sun Beautiful?
  - I know it's lonely at first.
}
"""

DLG SPR_9
"""
{sequence
  - Good to see you tonight. It's just about midnight. 
 - Isn't the Sun Beautiful?
  - I know it's lonely at first.
 - Have a walk about in the snow.
}
"""

END undefined
The Sun shines on the snow.

VAR a
42


