
{wvy}Slug Life{wvy}

# BITSY VERSION 4.5

! ROOM_FORMAT 1

PAL 0
NAME PinkCity
154,112,154
254,187,250
226,114,255

PAL 1
NAME DarkCity
25,25,25
105,105,105
255,255,255

PAL 2
NAME Egouts
22,41,17
96,133,76
94,222,64

PAL 3
NAME Commercial
82,72,28
166,163,1
204,4,38

PAL 4
NAME Sunset
196,116,76
110,59,49
255,217,89

PAL 5
NAME House
124,23,140
255,152,233
255,69,162

PAL 6
NAME DarkCity2
0,0,0
99,99,99
255,253,163

ROOM 0
l,k,m,o,q,n,1m,1n,o,1i,l,k,k,m,r,p
h,j,i,l,k,m,1k,1l,1d,1g,1e,1f,j,i,p,n
16,18,17,h,j,i,1p,1q,1a,1h,1b,1c,19,g,1p,1q
15,14,13,e,f,g,s,u,16,18,18,17,19,d,1r,10
x,10,0,c,b,d,0,t,16,18,18,17,0,11,0,0
x,0,10,0,1v,0,0,v,15,14,14,13,u,0,10,11
x,1o,0,0,1v,10,0,0,0,1r,0,0,t,11,0,1o
z,y,0,12,1v,0,11,0,0,0,12,0,t,0,11,12
0,x,0,0,1x,1w,1w,1x,12,0,0,0,v,s,s,s
0,x,11,0,10,0,1o,1x,1w,1w,1w,1x,10,0,0,0
11,z,w,y,0,0,0,11,1r,0,11,1v,0,0,11,0
0,0,12,z,y,0,0,0,0,10,0,1x,1w,1w,1w,1w
12,10,0,0,z,w,y,1o,0,0,0,0,11,0,0,10
1d,1s,1f,10,0,0,z,w,w,w,y,0,1o,0,10,0
1s,1s,1s,1f,12,11,10,0,0,0,z,w,w,w,w,w
0,0,0,1t,1s,1f,0,12,0,0,10,0,12,11,0,0
NAME Village_1
EXT 15,9 7 0,9
EXT 15,10 7 0,10
EXT 15,11 7 0,11
EXT 15,12 7 0,12
EXT 15,13 7 0,13
EXT 4,4 9 7,15
PAL 0

ROOM 1
21,2v,20,29,26,29,26,21,2n,2u,2u,2w,2g,2g,2g,2g
2v,0,2d,2b,2e,2b,0,2t,2m,2f,2f,34,2g,2g,2g,2g
36,0,0,0,1d,1s,1s,1s,1s,1s,1f,2g,1i,2g,2g,2g
37,38,0,0,1u,0,0,0,2v,0,1t,1s,1g,1e,1f,2g
1s,1s,1f,2z,1a,23,23,23,23,23,1c,23,1h,1b,1c,0
23,23,1c,30,1y,24,2a,24,2a,24,25,1y,2a,24,25,2g
2a,24,25,31,1z,27,28,27,28,27,22,20,29,26,21,2g
28,27,22,0,20,26,29,26,29,26,21,2q,2b,2t,2y,2x
29,26,21,0,2d,2c,2b,2e,2b,2t,2s,2r,0,0,0,0
35,2u,2u,2h,2h,2h,2h,2h,2h,2h,2l,0,2n,2h,2h,2h
2f,2f,2f,2f,2f,2f,2f,2f,2f,2f,2i,0,2m,2f,2f,2f
2g,2g,2g,2g,2g,2g,2g,2g,2g,2g,2i,30,2m,2g,2g,2g
2g,1d,1s,1s,1s,1s,1s,1f,2g,2g,2i,0,2m,2g,2g,2g
2g,1u,0,0,0,0,0,1t,2o,2g,2i,0,2m,2g,2g,2g
2g,1a,23,23,23,23,23,1c,2p,2g,32,0,2m,2g,2g,2g
2g,1y,2a,24,24,2a,24,25,2g,2g,2i,0,33,2g,2g,2g
NAME Dock_1
EXT 15,7 2 0,7
EXT 15,8 2 0,8
EXT 15,9 2 0,9
EXT 0,2 3 15,2
EXT 0,3 3 15,3
EXT 10,15 6 10,0
EXT 11,15 6 11,0
EXT 12,15 6 12,0
EXT 8,0 b 8,15
PAL 1

ROOM 2
2g,2g,2g,2g,2g,2g,2g,2g,2g,2g,2g,2g,2g,2g,2g,2g
2g,2j,2x,2x,2k,2g,2g,2j,2x,2k,2g,2g,2g,2g,2g,2g
2g,2i,2v,31,3y,3f,3f,2i,0,2m,2g,2g,2g,2g,2g,2g
2g,2i,0,0,2m,3e,3e,2i,3r,2m,2g,2g,2g,2g,2g,2g
2g,3c,2h,2u,2w,2g,2g,2i,0,2m,2g,2g,2g,2g,2g,2g
2g,3d,2f,2f,34,2g,2g,2i,0,2m,2g,2g,2g,2g,2g,2g
2g,2g,2g,2g,2g,2g,2g,2i,0,2m,2g,2g,2g,2g,2g,2g
2x,2x,2x,2x,2x,2x,2x,3b,3s,3a,2x,2k,2g,2g,2g,2g
0,0,30,0,38,0,0,0,0,3i,0,2m,2g,2j,2k,2g
2h,2h,2h,2h,2h,2h,2u,2u,2h,2h,2h,2w,2g,3c,2w,0
2f,2f,2f,2f,2f,2f,2f,2f,2f,2f,2f,34,2g,3d,34,2g
2g,2g,2g,2g,2g,2g,2g,2g,2g,2g,2g,2g,2g,2g,2g,2g
2g,2g,2g,2g,2g,2g,2g,2g,2g,2g,2g,2g,2g,2g,2g,2g
2g,2g,2g,2g,2g,2g,2g,2g,2g,2g,2g,2g,2g,2g,2g,2g
2g,2g,2g,2g,2g,2g,2g,2g,2g,2g,2g,2g,2g,2g,2g,2g
2g,2g,2g,2g,2g,2g,2g,2g,2g,2g,2g,2g,2g,2g,2g,2g
NAME Dock_2
ITM 3 2,3
EXT 0,8 1 15,8
EXT 0,7 1 15,7
EXT 0,9 1 15,9
PAL 1

ROOM 3
0,1t,1a,1c,26,1u,0,1t,1y,24,24,25,26,26,29,26
0,1t,1y,25,0,1a,23,1c,1z,27,27,22,2s,2r,2b,2v
23,1c,1z,22,2z,1y,2a,25,20,26,26,21,0,0,3j,3g
24,25,20,21,30,1z,28,22,3k,3l,2d,0,3x,0,3i,3h
27,22,32,0,31,20,29,21,2q,3x,0,30,0,0,0,1d
26,21,0,0,0,2t,2b,2s,2r,0,30,0,3s,0,0,1a
0,2t,0,0,0,38,0,0,0,0,3z,40,41,0,0,1y
0,0,0,0,0,0,3r,0,0,0,3y,3k,42,0,0,1z
w,w,w,0,w,y,0,0,0,0,45,43,44,0,0,20
11,1r,0,1v,11,x,0,0,0,0,3x,0,0,2n,2h,2u
1w,1w,1w,1x,10,x,3t,3x,3u,3v,0,0,0,2m,2f,2f
1o,0,11,1d,1s,1s,1s,1s,1f,3w,30,0,0,2m,2g,2g
1s,1s,1s,1u,0,0,0,0,1t,3m,0,0,0,1d,1s,1f
0,0,0,1a,23,23,23,23,1c,3o,0,0,3q,1a,23,1c
23,23,23,1y,24,2a,24,24,25,3n,47,47,3p,1y,24,25
24,24,24,1z,27,28,27,27,22,46,46,46,46,1z,27,22
NAME City_1
EXT 15,2 1 0,2
EXT 15,3 1 0,3
EXT 10,15 4 10,0
EXT 11,15 4 11,0
EXT 0,6 7 15,6
EXT 0,7 7 15,7
EXT 0,9 7 15,9
EXT 0,10 7 15,10
EXT 0,11 7 15,11
PAL 2

ROOM 4
27,27,22,20,26,26,26,26,21,48,48,48,48,20,26,21
26,26,21,5d,5e,5d,5e,2c,2d,0,49,49,0,2t,2m,2g
5e,5d,5e,5d,5e,5d,5e,3x,3u,3v,0,0,0,0,2m,2g
5e,59,58,58,58,58,58,58,58,58,57,0,0,38,2m,2g
5e,52,54,5a,5a,5a,5a,5a,5a,55,56,32,0,0,2m,2g
5e,50,4z,4w,53,53,53,53,4x,4y,51,3m,0,0,2m,2g
5e,1u,5b,4u,4a,4b,4c,4q,4v,5c,1t,3o,0,0,2m,2g
5e,1u,5b,4u,4d,4d,4e,4q,4v,5c,1t,3n,3x,0,2m,2g
5e,1u,5b,4u,4q,4f,4g,4h,4v,5c,1t,4a,4b,4c,2m,2g
5e,1u,5b,4u,4q,4d,4d,4d,4v,5c,1t,5h,5f,5g,2m,2g
5e,1u,5b,4u,4q,4a,4b,4c,4v,5c,1t,3m,3r,0,2m,2g
5e,4r,5b,4u,4q,4d,4d,4e,4v,5c,4n,32,0,0,2m,2g
5e,4p,4o,4i,23,4s,4j,23,4k,4l,4m,0,3s,0,2m,2g
5e,3s,0,0,0,5i,5i,2d,30,0,3x,0,5d,5e,2m,2g
5e,0,0,5d,5e,0,0,0,0,0,0,59,58,58,58,58
58,58,58,58,58,58,58,57,46,46,46,52,5a,5a,5a,5a
NAME Mall_Ext
EXT 10,0 3 10,15
EXT 11,0 3 11,15
EXT 5,12 5 7,15
EXT 6,12 5 8,15
EXT 8,15 a 8,0
EXT 9,15 a 9,0
EXT 10,15 a 10,0
PAL 3

ROOM 5
5l,5l,5l,5l,5l,5l,5l,6b,6b,5l,5l,5l,5l,5l,5l,5l
5l,5l,5l,5l,5l,5l,5s,6a,6a,5o,5l,5l,5l,5l,5l,5l
5l,5l,5l,5l,5l,5s,5t,6a,6a,5p,5o,5l,5l,5l,5l,5l
5l,5r,5r,5r,5s,5t,5x,6a,6a,5x,5p,5o,5r,5r,5r,5l
5l,5q,5q,5q,5t,0,0,0,0,0,0,5p,5q,5q,5q,5l
5u,0,0,0,0,0,0,60,5y,0,0,60,5y,0,5y,5u
5u,5v,5x,5x,5x,5x,0,0,0,0,0,0,0,0,5w,5u
5l,5v,5x,5x,5x,0,0,60,0,0,0,60,5z,0,5w,5l
5l,0,0,0,0,0,0,0,0,0,0,0,60,0,5y,5l
5u,69,68,63,47,68,63,47,68,63,0,0,0,0,0,5u
5u,5v,65,64,0,65,64,0,65,64,0,0,0,0,5w,5u
5l,5v,66,67,0,66,67,69,66,67,0,49,49,0,5w,5l
5l,5m,0,0,0,0,0,0,0,0,0,0,0,0,5n,5l
5l,5l,5l,5l,5j,0,0,0,0,0,0,5k,5l,5l,5l,5l
5l,5l,5l,5l,5l,5j,62,49,49,61,5k,5l,5l,5l,5l,5l
5l,5l,5l,5l,5l,5l,5j,0,0,5k,5l,5l,5l,5l,5l,5l
NAME Mall_Int
ITM 1 11,8
ITM 2 13,5
EXT 7,15 4 5,12
EXT 8,15 4 6,12
PAL 3

ROOM 6
2g,1z,28,27,27,28,27,22,2g,2g,2i,0,2m,2g,2g,2g
2g,1z,28,27,27,28,27,22,2g,2g,2i,0,2m,2g,2g,2g
2g,20,29,26,6c,29,26,21,2g,2g,2i,38,2m,2g,2g,2g
2g,2i,2b,2v,2e,2b,2v,2m,2g,2g,2i,0,2m,2g,2g,2g
2g,3c,2u,2h,2h,2u,2u,2w,2g,2g,2i,0,2m,2g,2g,2g
2g,3d,2f,2f,2f,2f,2f,34,2g,2g,2i,30,2m,2g,2g,2g
2g,2g,2g,2g,2g,2g,2g,2g,2g,2g,2i,0,2m,2g,2g,2g
2g,2g,2g,1d,1s,1s,1s,1f,2g,2g,2i,0,2m,2g,2g,2g
2g,2g,2g,1u,4f,4g,4h,1t,2g,2g,2i,0,2y,2x,2k,2g
2g,2g,2g,1u,4d,4d,4d,1t,2g,2g,2i,0,2n,2h,2w,2g
2g,2j,2x,1a,23,23,23,1c,2k,2g,2i,3x,2m,2f,34,2g
2g,2i,2v,1y,2a,24,2a,25,2m,2g,2i,0,2m,2g,2g,2g
2g,2i,2v,1z,28,27,28,22,2m,2g,3c,2h,2w,2g,2g,2g
2g,2i,30,20,29,6c,29,21,2m,2g,3d,2f,34,2g,2g,2g
2g,2i,0,2v,2b,2t,2b,2d,2m,2g,2g,2g,2g,2g,2g,2g
2g,2i,3x,3u,3v,0,3t,0,2m,2g,2g,2g,2g,2g,2g,2g
NAME Dock_3
EXT 10,0 1 10,15
EXT 11,0 1 11,15
EXT 12,0 1 12,15
PAL 1

ROOM 7
p,o,q,n,o,p,o,r,n,1z,27,28,1u,1z,22,3n
o,q,o,p,o,q,n,o,r,1z,27,28,1u,20,21,0
1p,1q,6e,1p,1q,6e,1p,1q,6e,1z,27,28,1a,23,23,23
10,0,12,11,0,1r,6d,1o,10,20,94,29,1y,24,2a,24
0,11,1r,6d,0,10,12,0,11,x,5i,2b,1z,27,28,27
0,6d,10,0,1o,11,0,6d,12,x,95,95,20,26,29,26
11,0,11,12,0,6d,6d,6d,6d,x,0,0,2c,2t,2b,2s
1o,0,0,6d,6d,6d,6d,6d,6d,x,0,0,0,0,0,0
s,s,s,6d,6d,1r,11,10,1o,z,w,w,w,w,w,w
0,12,11,0,10,0,0,0,0,0,11,10,0,0,11,0
0,0,0,0,11,11,1x,1w,1w,1w,1w,1w,1w,1w,1w,1w
1w,1w,1w,1w,1w,1w,1x,0,10,11,0,0,0,10,0,0
0,0,0,10,11,0,0,0,0,0,10,11,12,1d,1s,1s
0,10,11,0,0,10,0,11,12,0,0,0,1r,1u,0,0
s,s,s,s,s,s,s,s,s,s,s,s,s,1a,23,23
11,11,1o,12,11,0,11,12,11,1r,11,12,11,1y,24,24
NAME Street
ITM 4 10,6
EXT 0,9 0 15,9
EXT 0,10 0 15,10
EXT 0,11 0 15,11
EXT 0,12 0 15,12
EXT 0,13 0 15,13
EXT 15,9 3 0,9
EXT 15,10 3 0,10
EXT 15,11 3 0,11
EXT 15,6 3 0,6
EXT 15,7 3 0,7
PAL 4

ROOM 8
0,0,0,0,0,0,0,0,0,0,0,0,0,0,0,0
0,0,0,0,0,0,0,0,0,0,0,0,0,0,0,0
0,0,0,0,0,0,0,0,0,0,0,0,0,0,0,0
0,0,0,0,0,0,0,0,0,0,0,0,0,0,0,0
0,0,0,0,0,0,0,0,0,0,0,0,0,0,0,0
0,0,0,0,0,0,0,0,0,0,0,0,0,0,0,0
0,0,0,0,0,0,0,0,0,0,0,0,0,0,0,0
0,0,0,0,0,0,0,0,0,0,0,0,0,0,0,0
0,0,0,0,0,0,0,0,0,0,0,0,0,0,0,0
0,0,0,0,0,0,0,0,0,0,0,0,0,0,0,0
0,0,0,0,0,0,0,0,0,0,0,0,0,0,0,0
0,0,0,0,0,0,0,0,0,0,0,0,0,0,0,0
0,0,0,0,0,0,0,0,0,0,0,0,0,0,0,0
0,0,0,0,0,0,0,0,0,0,0,0,0,0,0,0
0,0,0,0,0,0,0,0,0,0,0,0,0,0,0,0
0,0,0,0,0,0,0,0,0,0,0,0,0,0,0,0
NAME Debug
PAL 0

ROOM 9
7u,6k,6l,6l,6l,6l,6l,6l,6l,6l,6l,6l,6l,6l,6m,7u
7v,6s,6r,6r,6r,6r,6r,6r,6r,6r,6r,6r,6r,6r,6t,80
7w,6j,7h,7h,7h,7h,7h,79,7a,7h,7h,7h,7h,7h,6n,82
7x,6j,7h,6f,7e,7d,7d,77,78,7h,7h,7h,6f,7h,6n,81
7i,6j,7h,7h,7f,73,71,70,70,72,74,7h,7h,7h,6n,83
7v,6j,7h,6f,7f,75,7h,6y,6z,7h,76,7h,6f,7h,6n,80
7y,6j,7h,7h,7f,7h,7h,6w,6x,7h,7h,7h,7h,7h,6n,7v
7z,6j,7h,6f,7g,7h,7h,6u,6v,7h,7h,7h,6f,7h,6n,7y
80,6j,7h,7h,7h,7h,7h,7h,7h,7h,7h,7h,7h,7h,6n,84
7i,6j,7h,7h,7h,7h,7h,7h,7h,7h,7h,7h,7h,7h,6n,81
6k,6l,6l,6l,6l,7c,7j,7l,7l,7n,7b,6l,6l,6l,6l,6m
6s,6r,6r,6r,6r,7q,7k,7m,7m,7o,7p,6r,6r,6r,6r,6t
6j,85,87,0,89,0,0,0,0,0,0,0,0,7t,7r,6n
6j,86,88,8f,8f,0,7j,7l,7l,7l,7l,7n,0,0,7s,6n
6j,8a,8b,8b,8c,8g,8l,8h,8h,8h,8h,8i,0,0,0,6n
6i,8d,6h,6h,8e,6h,6g,8h,6q,8k,8k,8j,6p,6p,6p,6o
NAME House
ITM 0 5,12
EXT 7,15 0 4,4
PAL 5

ROOM a
4q,4q,4q,4q,4q,4v,5c,4n,48,48,48,4r,5b,4u,4q,4q
23,23,23,23,23,4k,4l,4m,0,0,0,4p,4o,4i,23,23
3i,2d,0,2e,8t,0,0,0,0,0,0,0,0,0,0,2s
0,8p,8p,0,0,0,0,8y,8y,8x,0,8s,8q,7y,80,8r
0,8o,8o,0,8t,0,0,0,0,2t,0,8w,92,0,93,0
90,90,90,90,8u,90,90,90,90,90,90,90,90,90,90,90
8n,8n,8n,8n,8n,8n,8n,8n,8n,8n,8n,8n,8n,8n,8n,8n
8m,8m,8m,8m,8m,8m,8m,8m,8m,8m,8m,8m,8m,8m,8m,8m
8m,8m,8m,8m,8m,8m,8m,8m,8m,8m,8m,8m,8m,8m,8m,8m
91,91,91,91,8v,91,91,91,91,91,91,91,91,91,91,91
0,8p,8p,0,0,0,31,8y,8y,8x,0,82,81,80,8q,7z
0,8o,8o,32,8t,0,0,0,0,8z,0,8w,92,0,93,0
90,90,90,90,8u,90,90,90,90,90,90,90,90,90,90,90
8n,8n,8n,8n,8n,8n,8n,8n,8n,8n,8n,8n,8n,8n,8n,8n
8m,8m,8m,8m,8m,8m,8m,8m,8m,8m,8m,8m,8m,8m,8m,8m
8m,8m,8m,8m,8m,8m,8m,8m,8m,8m,8m,8m,8m,8m,8m,8m
NAME Gare
EXT 8,0 4 8,15
EXT 9,0 4 9,15
EXT 10,0 4 10,15
PAL 4

ROOM b
o,q,o,l,k,m,q,r,1d,1g,1e,1f,22,2m,2g,2g
1f,r,r,h,j,i,o,q,1a,1h,1b,1c,21,2m,2g,2g
96,1s,1f,e,18,g,r,o,99,98,9a,25,2n,2w,2g,2g
0,0,1t,c,b,d,w,1d,97,0,1t,22,2m,34,2g,2g
0,0,1t,0,1v,0,2s,1a,23,23,1c,22,2m,2g,2g,2g
9b,23,1c,0,1v,0,0,1y,24,24,25,21,2m,2g,2g,2g
1c,24,25,0,1v,0,3s,1z,27,27,22,2n,2w,2g,2g,2g
25,27,22,3j,0,0,0,20,26,26,21,2m,34,2g,2g,2g
22,26,21,1d,1s,1f,0,2s,8y,8y,2t,2m,2g,2g,2g,2g
1f,3k,3w,1u,0,1t,0,0,0,0,8t,2m,2g,2g,2g,2g
1t,3l,0,1u,0,96,1f,0,0,3x,8t,2m,2g,2g,2g,2g
1t,0,3i,1u,1i,0,1t,36,0,0,8t,2m,2g,2g,2g,2g
1t,32,1d,1s,1g,1e,1s,1f,0,0,8t,2m,2g,2g,2g,2g
1c,0,1a,23,1h,1b,23,1c,32,0,8t,2m,2g,2g,2g,2g
25,0,1y,2a,24,24,2a,25,0,0,2v,2m,2g,2g,2g,2g
22,2v,1z,28,27,27,28,22,0,2v,0,2m,2g,2g,2g,2g
NAME NorthDock
EXT 8,15 1 8,0
EXT 4,3 c 8,15
PAL 6

ROOM c
6k,6l,6l,6l,6l,6l,6l,6l,6b,6l,6l,6l,6l,6l,6l,6m
6s,6r,6r,6r,6r,6r,6r,6r,6a,6r,6r,6r,6r,6r,6r,6t
6j,0,0,0,0,0,0,0,6a,0,0,0,6f,0,0,6n
6j,1m,1n,0,0,0,0,0,0,0,7j,7l,7l,7l,7n,6n
6j,1k,1l,0,7j,7l,7l,7n,0,0,8l,8h,8h,8h,8i,6n
6j,0,0,0,8l,8h,8h,8i,0,0,8l,8h,8h,8h,8i,6n
6j,0,0,6f,8l,8h,8h,8i,0,0,7k,7m,7m,7m,7o,6n
6j,0,0,0,8l,8h,8h,8i,0,0,0,0,0,0,0,6n
6j,0,0,0,7k,7m,7m,7o,0,0,0,6f,0,0,0,6n
6j,6f,0,0,0,0,0,0,0,7j,7l,7l,7n,0,0,6n
6j,0,0,0,0,0,0,0,0,8l,8h,8h,8i,0,0,6n
6j,0,7j,7l,7l,7l,7n,0,0,8l,8h,8h,8i,0,6f,6n
6j,0,8l,8h,8h,8h,8i,6f,0,7k,7m,7m,7o,0,0,6n
6j,0,7k,7m,7m,7m,7o,0,0,0,0,0,0,0,0,6n
6j,0,0,0,0,0,0,0,0,0,0,0,0,0,0,6n
6i,6h,6h,6h,6h,6h,6h,9d,0,9c,6h,6h,6h,6h,6h,6o
NAME StarsHouse
ITM 5 1,11
ITM 5 1,12
ITM 5 1,14
ITM 5 1,13
ITM 5 14,14
ITM 5 14,13
ITM 5 14,12
ITM 5 6,9
ITM 5 5,9
ITM 6 12,13
ITM 6 10,13
ITM 6 12,7
ITM 6 8,5
ITM 6 3,8
ITM 6 1,7
ITM 6 4,3
EXT 8,15 b 4,3
END undefined 8,1
PAL 0

TIL 10
00000000
00000000
00001000
00000100
01000100
00100000
00100000
00000000
>
00000000
00000000
00000100
00000100
00100100
00100000
00100000
00000000
WAL false

TIL 11
00000000
00000000
00000000
00100000
00010000
00010000
00000000
00000000
>
00000000
00000000
00000000
00010000
00010000
00010000
00000000
00000000
WAL false

TIL 12
00000100
01000010
00100010
00100000
00000000
00001000
00000100
00000100
>
00000010
00100010
00100010
00100000
00000000
00000100
00000100
00000100

TIL 13
00110111
00000001
01100111
00000001
11100111
10111101
10100101
11111111
WAL true

TIL 14
00110011
00000000
01100110
00000000
11100111
10111101
10100101
11111111
WAL true

TIL 15
11100011
10000000
11100110
10000000
11100111
10111101
10100101
11111111
WAL true

TIL 16
11100110
10000000
11101100
10000000
11100110
10000000
11101100
10000000
WAL true

TIL 17
00110111
00000001
01100111
00000001
00110111
00000001
01100111
00000001
WAL true

TIL 18
00011000
11000011
00011000
00100100
01111110
00100100
01111110
00000000
WAL true

TIL 19
00000000
00110000
01001000
01111000
01001000
01111000
00000000
11111111
WAL true

TIL 20
11101010
10100000
11101010
10100000
11101010
10100000
11111111
11111111
WAL true

TIL 21
10101111
00000101
10101111
00000101
10101111
00000101
11111111
11111111
WAL true

TIL 22
10101111
00000101
10101111
00000101
10101111
00000101
10101111
00000101
WAL true

TIL 23
00000000
00000000
00000000
00000000
00000000
11111111
00000000
11111111
WAL true

TIL 24
11111111
10101010
11111111
00000000
10101010
00000000
10101010
00000000
WAL true

TIL 25
11111111
10101101
11111111
00000101
10101111
00000101
10101111
00000101
WAL true

TIL 26
10101010
00000000
10101010
00000000
10101010
00000000
11111111
11111111
WAL true

TIL 27
10101010
00000000
10101010
00000000
10101010
00000000
10101010
00000000
WAL true

TIL 28
10101110
00101100
10101110
00101100
10101110
00101100
10101110
00101100
WAL true

TIL 29
10101110
00101100
10101110
00101100
10101110
00101100
11101111
11101111
WAL true

TIL 30
00000000
01000000
01100000
01100100
00001110
00011110
00011100
00000000

TIL 31
00000000
00000000
00000100
00000000
00010001
00000011
00000011
00000001

TIL 32
11000000
11000010
11100000
11111000
11111001
11111011
11110000
11110000

TIL 33
00000011
00100011
00000111
00011111
00111111
00111111
00000111
01000011

TIL 34
11111111
00000101
01110101
01010101
01110101
00000101
11111111
11110001
>
11111111
00000101
01110101
01010101
01110101
00000101
11111111
10001111
WAL true

TIL 35
00101000
00111000
00111000
00000000
00000000
00000000
00000000
11111111

TIL 36
00000000
00010000
11000000
11110100
11110000
11110000
11111000
11111100

TIL 37
11111100
11111100
10111110
00011110
00111110
01111101
11111000
11100010

TIL 38
00100000
00000100
01100000
01111000
01111100
00111100
00111100
00000000

TIL 40
00000000
00000000
11000000
11110000
11111100
11111111
11111111
11111111

TIL 41
00000000
00000000
00000000
00000000
00111000
11111100
11111100
11111111

TIL 42
11111111
11111111
11111111
11111110
11111100
11111100
11111000
11100000

TIL 43
11111111
11111111
11111110
11111100
01111000
00000000
00000000
00000000

TIL 44
11100000
11000000
00000000
00000000
00000000
00000000
00000000
00000000

TIL 45
00001111
00001111
00000111
00000000
00000000
00000000
00000000
00000000

TIL 46
00000000
00000000
00000000
10101010
00000000
01010101
10101010
11111111

TIL 47
00011000
00011000
00011000
00011000
01111110
00111100
00011000
00000000

TIL 48
11111111
10101010
01010101
00000000
10101010
00000000
00000000
00000000

TIL 49
00011000
00111100
01111110
00011000
00011000
00011000
00011000
00000000

TIL 50
11111111
10100111
11111000
10100111
10100000
10100000
10100000
10100000
WAL true

TIL 51
11111111
11100101
00011111
11100101
00000101
00000101
00000101
00000101
WAL true

TIL 52
11101000
11100100
11100010
11101000
11100100
11100010
11111000
11111111
WAL true

TIL 53
01000100
00100010
00010001
11111111
11111111
11111111
00000000
11111111
WAL true

TIL 54
01000100
00100010
00010001
01000100
00100010
00010001
01000100
10100010
WAL true

TIL 55
01000100
00100010
00010001
00000100
01000010
00100001
00010000
00000001
WAL true

TIL 56
01000011
00100011
00010011
01000011
00100011
00010011
00001111
11111111
WAL true

TIL 57
11111100
11111110
00000111
00000011
11111011
01000111
00100011
00010011
WAL true

TIL 58
11111111
11111111
00000000
00000000
11111111
01000100
00100010
00010001
WAL true

TIL 59
00111111
01111111
11100000
11000000
11011111
11100100
11000010
11000001
WAL true

TIL 60
11111111
10010111
11111111
10101001
11111111
10101101
10101001
11111111
WAL true

TIL 61
01000000
10100000
11100000
10100000
10100000
10100000
10100000
11100000
WAL true

TIL 62
00000010
00000101
00000111
00000101
00000101
00000101
00000101
00000111

TIL 63
00011111
00010001
11111111
00010001
11111111
00010001
00011111
00010001
WAL true

TIL 64
00011111
01110001
01011111
01110001
01011111
11110001
00011111
00010001
WAL true

TIL 65
00001110
00001110
00000000
11111110
10101010
11111111
10000000
10111110
WAL true

TIL 66
11111111
10000000
10000000
11111111
00000000
00000000
00000000
00000000
WAL true

TIL 67
11111111
00011011
00010101
11111011
00011111
00010001
00010001
00011111
WAL true

TIL 68
00000000
00000000
00111111
00100001
00111111
00100001
00100001
00000000
WAL true

TIL 69
00000000
01111110
01000010
01000010
01111110
01000010
01000010
00000000
WAL true

TIL 70
01111110
11100011
01010010
11001011
11001001
10100101
10010011
11111111
WAL true

TIL 71
00100000
01010111
11111100
10110100
01010100
11111100
01010111
00100000
WAL true

TIL 72
00000100
11101010
00111111
00101101
00101010
00111111
11101010
00000100
WAL true

TIL 73
00000010
00000101
00000111
00001001
00011001
01100101
10100010
01111100
WAL true

TIL 74
01000000
10100000
11100000
10010000
10011000
10100110
01000101
00111110
WAL true

TIL 75
00110110
00101101
00110110
00111100
01111110
01010110
01010110
00111100
WAL true

TIL 76
01101100
10110100
01101100
00111100
01111110
01101010
01101010
00111100
WAL true

TIL 77
00011111
00110101
01010101
11010101
01010101
11010101
00110101
00011111
>
00011111
00110101
01010101
11010111
01010101
11010101
00110101
00011111
WAL true

TIL 78
11110000
01011000
01010100
01010111
01010100
01010110
01011000
11110000
>
11110000
01011000
01010100
01110111
01010100
01010110
01011000
11110000
WAL true

TIL 79
00000111
00000010
00000010
00001010
00001010
00111111
01010000
00110101
>
00000111
00010010
00000010
00101010
00001010
00111111
01010000
00010101
WAL true

TIL 80
11111111
11111111
11000011
11011111
11000111
11011111
11000011
11111111
WAL true

TIL 81
11111111
11111111
11000011
11011011
11000011
11011011
11011011
11111111
WAL true

TIL 82
11111111
11111111
11011011
11010111
11001111
11010111
11011011
11111111
WAL true

TIL 83
11111111
11111111
11000001
11010101
11010101
11011101
11011101
11111111
WAL true

TIL 84
11111111
11111111
11000011
11011111
11011111
11011111
11000011
11111111
WAL true

TIL 85
11111111
11111111
10001001
10001001
10000001
10100001
10000001
11111111
WAL true

TIL 86
11111111
11111111
00000000
00000000
00000000
00011100
00011100
00011100

TIL 87
11111110
11111110
00100010
00100010
00000010
00001010
00000010
11111110
WAL true

TIL 88
11111110
11111110
00000000
00000000
00000000
00111000
00111000
00111000

TIL 89
11111110
10000010
11000010
10000010
11111110
10000010
10000010
11111110
WAL true

TIL 90
00000000
00000000
00000000
00000000
01010101
01010101
00000000
11111111

TIL 91
11111111
11111111
00000000
01010101
01010101
00000000
00000000
00000000

TIL 92
10101010
01101100
00101000
00101000
00101000
00101000
00101000
00111000
WAL true

TIL 93
01010101
00110110
00010100
00010100
00010100
00010100
00010100
00011100
WAL true

TIL 94
10111111
00100001
10100001
00100001
10100011
00100001
11100001
11111111
WAL true

TIL 95
00000000
11111111
11010101
10101011
11111111
10000001
10000001
00000000
WAL true

TIL 96
00000101
00000100
00000111
00000111
00000111
00000000
00000000
00000000
WAL true

TIL 97
10100000
00100000
11100000
11100000
11100000
00000000
00000000
00000000
WAL true

TIL 98
11111111
10101010
11111111
00000000
10101010
00000000
11111111
11111111
WAL true

TIL 99
11111111
10101010
11111111
10100000
11101010
10100000
11111111
10111111
WAL true

TIL a
11111111
10000001
10111101
10100101
10100101
10111101
10000001
11111111
WAL true

TIL b
00000000
00000000
00000000
00111100
00100100
00101100
00100100
11111111
WAL false

TIL c
11000000
10100110
10001001
11001111
10101001
01001111
00100000
00011111
WAL true

TIL d
00000011
01100101
10010001
11110011
10010101
11110010
00000100
11111000
WAL true

TIL e
10100000
10000110
11001001
10101111
10001001
11001111
10100000
10011111
WAL true

TIL f
00000000
00011000
00100100
01011010
00100100
00101100
11111111
11111111
WAL true

TIL g
00000101
01100001
10010011
11110101
10010001
11110011
00000101
11111001
WAL true

TIL h
00011000
00100100
01000011
10000100
11001000
10110000
10011111
11000000
WAL true

TIL i
00011000
00100100
11000010
00100001
00010011
00001101
11111001
00000011
WAL true

TIL j
00000000
00000000
11111111
00000000
00000000
00000000
11111111
00000000
WAL true

TIL k
00000010
00010000
00101000
00010000
01000010
00000000
11111111
00000000
>
00000000
00010000
00101000
00010000
01000010
00000000
11111111
00000000
WAL true

TIL l
10000010
00000101
00010010
00101000
00010000
01000000
10100011
01000100
>
00000010
00000101
00010010
00101000
00010010
01000000
10100011
01000100
WAL true

TIL m
00000010
01001000
00010100
10001000
00100010
00000101
11000010
00100000
>
00000010
01001000
00010101
00001000
00100010
00000101
11000010
00100000
WAL true

TIL n
00000000
00000010
01001000
00010100
00001000
01000000
10100001
01000000
>
00000000
00000010
00001000
00010100
00001000
01000000
10101001
01000000
WAL true

TIL o
00000000
00001000
00000000
00000000
00000010
00000000
00001000
00000000
>
00000000
00001000
00000000
01000000
00000000
00000000
00001000
00000000
WAL true

TIL p
00000000
00000100
10000000
00010000
00101010
00010000
00000100
01000000
>
00000000
00000000
10000000
00010000
00101010
00010000
00000100
01000000
WAL true

TIL q
00000000
00100000
01010000
00100000
00000100
01001010
00000100
00010000
>
00000000
00100010
01010000
00100000
00000100
00001010
00000100
00010000
WAL true

TIL r
00000000
00100100
00001010
00000100
01000000
00000000
00010000
00000000
>
00000000
00100100
00001010
00000100
00000000
00000010
00010000
00000000
WAL true

TIL s
10000010
01010001
01001001
00001000
11100111
10111101
10100101
11111111
>
01000001
01001001
01001001
00001000
11100111
10111101
10100101
11111111
WAL true

TIL t
11100000
10101000
10100100
11100110
11100001
10101001
10100100
11100100
>
11100000
10100100
10100100
11100101
11100001
10100101
10100100
11100100
WAL true

TIL u
00100000
10010010
01010001
01000001
00001000
11100100
10100100
11100000
>
00010000
01010001
01010001
01000001
00000100
11100100
10100100
11100000
WAL true

TIL v
11101000
10100100
10100100
11100000
11100111
10111101
10100101
11111111
>
11100100
10100100
10100100
11100000
11100111
10111101
10100101
11111111
WAL true

TIL w
00000000
00000000
00000000
00000000
11100111
10111101
10100101
11111111
WAL true

TIL x
11100000
10100000
10100000
11100000
11100000
10100000
10100000
11100000
WAL true

TIL y
00000000
00000000
00000000
00000000
00000000
11100000
10100000
11100000
WAL true

TIL z
11100000
10100000
10100000
11100000
11100111
10111101
10100101
11111111
WAL true

TIL 1a
10100000
10100000
10100000
10111000
10101000
10111111
10000000
11111111
WAL true

TIL 1b
11000000
11000000
00000000
00000000
00000000
11111111
00000000
11111111
WAL true

TIL 1c
00000101
00000101
00000101
00011101
00010101
11111101
00000001
11111111
WAL true

TIL 1d
11111111
10000000
10111111
10101111
10111111
10111000
10111000
10100000
WAL true

TIL 1e
11111111
00000000
11111111
11111111
01111111
01000000
11000000
11000000
WAL true

TIL 1f
11111111
00000001
11111101
11110101
11111101
00011101
00011101
00000101
WAL true

TIL 1g
11100111
00111100
11111111
11111111
11111100
00111100
00111111
00111111
WAL true

TIL 1h
00111111
00111111
00111100
00000000
00000000
11111111
00000000
11111111
WAL true

TIL 1i
00000000
00001000
01000000
00000010
00000000
00000000
00111100
00100100
WAL true

TIL 1k
01111111
00111011
00011000
01011111
00011111
00111110
01111000
00000001
WAL true

TIL 1l
11111111
11011100
00011001
11111000
11111100
00011100
01000110
00000000
WAL true

TIL 1m
00000000
00100001
00001011
00000011
10000111
00001101
00111101
11111111
>
00000000
00100001
00001011
00000011
10000111
00001111
00111101
11111111
WAL true

TIL 1n
00000000
10010010
11000101
11000010
11100000
10111000
10111110
11111111

TIL 1o
00011000
00111100
00111100
00011000
00001000
00101010
00011100
00001000
>
00001100
00011110
00011110
00001100
00001000
00101010
00011100
00001000
WAL false

TIL 1p
00000001
00100011
00110001
01001011
10011101
11110111
00000000
00000000
WAL true

TIL 1q
00001000
10011100
00001000
10011100
00001000
11101011
00111110
00000000
WAL true

TIL 1r
00011000
00111100
00111100
00011100
00000100
00110101
01001110
00000100
>
00001100
00011110
00011110
00001100
00000100
00110101
01001110
00000100

TIL 1s
11111111
00000000
11111111
11111111
11111111
00000000
00000000
00000000
WAL true

TIL 1t
00000101
00000101
00000101
00000101
00000101
00000101
00000101
00000101
WAL true

TIL 1u
10100000
10100000
10100000
10100000
10100000
10100000
10100000
10100000
WAL true

TIL 1v
00000000
00011000
00111100
00111100
00000000
00111000
00011100
00011000

TIL 1w
00000000
00000000
01100110
01110111
01110111
01100011
00000000
00000000

TIL 1x
00000000
00000000
00011000
00111100
00111110
00111110
00011100
00000000

TIL 1y
11111111
10101010
11111111
10100000
11101010
10100000
11101010
10100000
WAL true

TIL 1z
11101010
10100000
11101010
10100000
11101010
10100000
11101010
10100000
WAL true

TIL 2a
11111111
10111010
11101111
00101100
10101110
00101100
10101110
00101100
WAL true

TIL 2b
00101000
00111000
00111000
00000000
00000000
00000000
00000000
00000000

TIL 2c
11111111
01111111
00111110
00111110
00111100
00011000
00000000
00000000

TIL 2d
01111111
00011110
01001100
00000000
00000100
00000000
00000000
00000000

TIL 2e
11111100
11110000
01110000
00000000
00000000
00000000
00000000
00000000

TIL 2f
11111111
00000000
01110111
01010101
01110111
00000000
11111111
10001111
>
11111111
00000000
01110111
01010101
01110111
00000000
11111111
11111000
WAL true

TIL 2g
00000000
00000000
00111000
01101100
00000000
00001110
00011011
00000000
>
00000000
00000000
00011000
00110000
00000000
00011000
00110000
00000000
WAL true

TIL 2h
00000000
00000000
00000000
00000000
00000000
00000000
00000000
11111111

TIL 2i
11000000
11000000
11000000
11000000
11000000
11000000
11000000
11000000

TIL 2j
11111111
11111111
11000000
11000000
11000000
11000000
11000000
11000000

TIL 2k
11111111
11111111
00000011
00000011
00000011
00000011
00000011
00000011

TIL 2l
00000000
00000000
00000000
00000000
00000000
00000000
00000000
11000000

TIL 2m
00000011
00000011
00000011
00000011
00000011
00000011
00000011
00000011

TIL 2n
00000000
00000000
00000000
00000000
00000000
00000000
00000000
00000011

TIL 2o
10000000
01000000
11111000
01101100
01000000
11001110
01011011
01000000
>
10000000
01000000
11011000
01110000
01000000
11011000
01110000
01000000
WAL true

TIL 2p
11000000
01000000
01111000
11101100
01000000
01001110
11111011
00000000
>
11000000
01000000
01011000
11110000
01000000
01011000
11110000
00000000
WAL true

TIL 2q
11111111
11111111
11111110
11111110
11111000
11111100
11111100
11110000

TIL 2r
11100000
11100000
11100000
11100000
11001000
00011100
00011100
00000000

TIL 2s
11111111
00111111
00111111
10011111
00000011
00000000
01001000
00000000

TIL 2t
00111100
00011100
00011000
00001000
00011000
00000000
00010000
00000000

TIL 2u
01111000
01001110
01111010
01001110
01001010
01111110
00000000
11111111
WAL true

TIL 2v
01111000
01001110
01111010
01001110
01001010
01111110
00000000
00000000
WAL true

TIL 2w
00000011
00000011
00000011
00000011
00000011
00000011
00000011
11111111

TIL 2x
11111111
11111111
00000000
00000000
00000000
00000000
00000000
00000000

TIL 2y
00000011
00000011
00000000
00000000
00000000
00000000
00000000
00000000

TIL 2z
10000000
11000000
11100000
11100010
11100110
11000110
11001100
10000000

TIL 3a
00000011
00000011
00000000
00000000
00000000
00000000
00000000
00000000

TIL 3b
11000000
11000000
00000000
00000000
00000000
00000000
00000000
00000000

TIL 3c
11000000
11000000
11000000
11000000
11000000
11000000
11000000
11111111

TIL 3d
11111111
10100000
10101110
10101010
10101110
10100000
11111111
11110001
>
11111111
10100000
10101110
10101010
10101110
10100000
11111111
10001111
WAL true

TIL 3e
10100101
10100101
10100101
10100101
10100101
11111111
10100101
11111111

TIL 3f
11111111
10100101
10100101
10100101
10100101
10100101
10100101
11111111

TIL 3g
10000100
00000000
10100011
10001111
11011111
11111111
11111111
11111111

TIL 3h
11111111
11111111
11111111
11111111
11111110
01111110
00111111
10000111

TIL 3i
00000111
00110111
00110011
01111001
01111000
01110010
00000000
00010000

TIL 3j
01000000
00011100
01111110
11111110
01111111
00111111
00011111
01001111

TIL 3k
11111111
11111111
11111111
11111111
11111111
11111111
11111111
11111111

TIL 3l
11111111
11111110
11111110
11111110
11111100
11111000
11100100
11000000

TIL 3m
11111111
00000001
11111101
11010101
10101101
11111101
00000001
11111111
>
11111111
11111111
11111111
11010111
10101111
11111111
11111111
11111111
WAL true

TIL 3n
11111000
00001000
11101000
00101000
00101000
11101000
00001000
11111000
>
11111000
11111000
11111000
00111000
00111000
11111000
11111000
11111000
WAL true

TIL 3o
00000000
00000000
11111111
00000001
11111101
00000001
11111111
00000000
>
00000000
00000000
11111111
11111111
11111111
11111111
11111111
00000000
WAL true

TIL 3p
00001111
00001111
00001111
01111111
01000000
01011111
01000000
01111111
>
00001111
00001000
00001000
01111111
01111111
01111111
01111111
01111111
WAL true

TIL 3q
11111111
10000000
10111111
10101011
10110101
10111111
10000000
11111111
>
11111111
11111111
11111111
11101011
11110101
11111111
11111111
11111111
WAL true

TIL 3r
00000000
00011100
00011110
00111110
00111110
00111100
00111100
00000000

TIL 3s
00000000
00111000
01111110
00111110
00111110
00111110
00001110
00000000

TIL 3t
00000000
00000000
00000000
00111000
00111110
00111110
01111111
01111111

TIL 3u
00000000
00000000
00000011
00000111
00001111
00011111
01111111
11111111

TIL 3v
00000000
00000000
11100000
11111000
11111100
11111100
11111110
11111110

TIL 3w
11111100
11111100
11111100
11111101
11111000
11110000
11100010
10001000

TIL 3x
00000000
01000010
00000111
00110110
01110000
11110000
11100010
00000000

TIL 3y
00001111
00011111
00111111
01111111
01111111
01111111
01111111
00111111

TIL 3z
00000000
00000000
00000001
00000011
00000011
00000111
00000111
00001111

TIL 4a
11111111
10000000
10111100
10100100
10111110
10100010
10111110
10000000
>
11111111
10000000
10000000
10000000
10000000
10000000
10000000
10000000
WAL true

TIL 4b
11111111
00000000
10001010
10001010
10001011
10001000
11111000
00000000
>
11111111
00000000
00000000
00000000
00000000
00000000
00000000
00000000
WAL true

TIL 4c
11111000
00001000
00101000
00101000
11101000
10001000
10001000
00001000
>
11111000
00001000
00001000
00001000
00001000
00001000
00001000
00001000
WAL true

TIL 4d
11111111
00000000
00010000
01010000
01010010
01010010
00010010
00000010
WAL true

TIL 4e
11111000
00000000
00001000
01001010
01001010
01001010
01000010
00000010
WAL true

TIL 4f
11111111
10000000
10111110
10101010
10101010
10100010
10100010
10000000
>
11111111
10000000
10000000
10000000
10000000
10000000
10000000
10000000
WAL true

TIL 4g
11111111
00000000
11111011
10001010
10001011
10001011
11111010
00000000
>
11111111
00000000
00000000
00000000
00000000
00000000
00000000
00000000
WAL true

TIL 4h
11111111
00000001
10111101
10100001
10111101
00100001
10111101
00000001
>
11111111
00000001
00000001
00000001
00000001
00000001
00000001
00000001
WAL true

TIL 4i
00010100
00010100
00010100
10010100
01110100
10010111
01110100
00011111
WAL true

TIL 4j
11111110
10000010
10000010
10000010
11000010
10000011
10000010
11111111
WAL false

TIL 4k
00101000
00101000
00101000
00101001
00101110
11101001
00101110
11111000
WAL true

TIL 4l
00000001
00000110
11111001
00000110
11111000
00000000
00000000
00000000
WAL true

TIL 4m
00000111
11111000
00000000
00000000
00000000
00000000
00000000
00000000
WAL false

TIL 4n
00000101
00000101
00000101
00000101
00000101
00000101
00000101
11111101
WAL true

TIL 4o
10000000
01100000
10011111
01100000
00011111
00000000
00000000
00000000
WAL true

TIL 4p
11100000
00011111
00000000
00000000
00000000
00000000
00000000
00000000
WAL true

TIL 4q
00000000
00010001
01010001
01010101
01010101
01010101
00000100
00000000
WAL true

TIL 4r
10100000
10100000
10100000
10100000
10100000
10100000
10100000
10111111
WAL true

TIL 4s
01111111
01000001
01000001
01000001
01000011
11000001
01000001
11111111

TIL 4u
00010100
00010100
00010100
00010100
00010100
00010100
00010100
00010100
WAL true

TIL 4v
00101000
00101000
00101000
00101000
00101000
00101000
00101000
00101000
WAL true

TIL 4w
01001000
00100100
10010010
11111111
11111111
01111111
10010100
01111111
WAL true

TIL 4x
01001000
00100100
00010011
11111111
11111111
11111110
00101001
11111110
WAL true

TIL 4y
00000111
11111111
11111110
11111001
00000110
11111000
00000000
00000000
WAL true

TIL 4z
11100000
11111111
01111111
10011111
01100000
00011111
00000000
00000000
WAL true

TIL 5a
01000100
00100010
00010001
01000100
00100010
00010001
01000100
00100010

TIL 5b
00100000
10100000
10101000
00101010
00101010
00001010
00000010
00000000
WAL true

TIL 5c
00000100
00000101
00010101
01010100
01010100
01010000
01000000
00000000

TIL 5d
00111111
11101110
11001110
11000000
11111111
01010000
01110000
00000000
WAL true

TIL 5e
11100000
11110000
01111000
00000100
11111100
10100000
11100000
00000000
WAL true

TIL 5f
11111111
00000000
00000000
00000000
00000000
00000000
00000000
00000000
WAL false

TIL 5g
11111000
00000000
00000000
00000000
00000000
00000000
00000000
00000000

TIL 5h
11111111
00000000
11111111
00000001
11111101
00000001
11111111
00000000
>
11111111
00000000
11111111
11111111
11111111
11111111
11111111
00000000
WAL true

TIL 5i
11100000
10101110
11101010
00001110
00000000
00111000
00101000
00111000

TIL 5j
11000000
11110000
10011000
10001100
10010110
10100010
11000011
11111111
WAL true

TIL 5k
00000011
00001111
00011001
00110001
01101001
01000101
11000011
11111111
WAL true

TIL 5l
11111111
11110111
11011011
11101101
10110111
11011011
11101111
11111111
WAL true

TIL 5m
10000000
10000000
11000000
11000000
11100000
10110000
11011100
11111111
WAL true

TIL 5n
00000001
00000001
00000011
00000011
00000111
00001101
00111011
11111111
WAL true

TIL 5o
11111111
10111011
10101101
10101111
10101010
10101010
10101010
10101010
WAL true

TIL 5p
10101010
11101010
00111010
00001010
00001110
00000010
00000010
00000011
WAL true

TIL 5q
01001010
01001010
01001010
01001010
01001010
01001010
01001010
11111111
WAL true

TIL 5r
01110111
10111011
11011101
11111111
01001010
01001010
01001010
01001010
WAL true

TIL 5s
11111111
11011101
10110101
11110101
01010101
01010101
01010101
01010101
WAL true

TIL 5t
01010101
01010111
01011100
01010000
01110000
01000000
01000000
11000000
WAL true

TIL 5u
11111111
10000100
00100001
10000100
00100001
10000100
00100001
11111111
WAL true

TIL 5v
10000000
01010000
10101000
01010101
10101010
01010100
10100000
01000000

TIL 5w
00000001
00001010
00010101
10101010
01010101
00101010
00010101
00000010

TIL 5x
00111000
01111100
00111000
00111000
00010000
00111000
01111100
00010000
WAL true

TIL 5y
11111111
10000001
11111111
10000001
11111111
10000001
10000001
11111111
WAL true

TIL 5z
11111111
10010101
11111111
10110001
11111111
10101011
10100101
11111111
WAL true

TIL 6a
10000001
11111111
10000001
11111111
10000001
11111111
10000001
11111111

TIL 6b
11111111
11111111
11111111
11111111
11111111
11111111
10000001
11111111
WAL true

TIL 6c
10111111
00100001
10100001
00100001
10100011
00100001
11100001
11111111
WAL false

TIL 6d
00011000
00011100
00011100
00111110
01111110
11111110
00001110
00001000
>
00110000
00111000
00111100
01111110
01111110
01111100
01111000
00001000
WAL true

TIL 6e
00000000
00001000
01000000
00000000
00011100
00110111
11100000
00000000
>
00000000
00100000
00000000
00000001
00011100
00110111
11100000
00000000
WAL true

TIL 6f
00100000
00110000
00101000
00101000
00010000
00111000
00101000
00111000
>
00001000
00011000
00101000
00101000
00010000
00111000
00101000
00111000
WAL true

TIL 6g
01010001
11111111
00000001
11111101
10101101
01010101
10101101
11010101
WAL true

TIL 6h
00000000
11111111
00000000
11111111
10101010
01010101
10101010
11111111
WAL true

TIL 6i
10101010
11011011
10101000
11011111
10101010
11010101
10101010
11111111
WAL true

TIL 6j
10101010
11011010
10101010
11011010
10101010
11011010
10101010
11011010
WAL true

TIL 6k
11111111
11010101
10101010
11010101
10101111
11011000
10101011
11011010
WAL true

TIL 6l
11111111
01010101
10101010
01010101
11111111
00000000
11111111
01100110
WAL true

TIL 6m
11111111
01010101
10101011
01010101
11111011
00010101
11011011
11010101
WAL true

TIL 6n
01011011
01010101
01011011
01010101
01011011
01010101
01011011
01010101
WAL true

TIL 6o
01011011
11010101
00011011
11110101
10101011
01010101
10101011
11111111
WAL true

TIL 6p
00000000
11111111
00000000
11111111
01010101
10101010
01010101
11111111
WAL true

TIL 6q
10000000
11111111
10000000
10111111
10110101
10101010
10110101
10101011
WAL true

TIL 6r
11001100
10011001
00110011
01100110
11001100
11111111
00000000
11111111
WAL true

TIL 6s
10101010
11011011
10101011
11011010
10101010
11011011
10101010
11011011
WAL true

TIL 6t
11011011
11010101
01011011
01010101
01011011
11010101
01011011
11010101
WAL true

TIL 6u
00010001
00111011
01010101
00110001
00011011
01110101
10000001
11111111
WAL true

TIL 6v
10001000
11011100
10101010
10001100
11011000
10101100
10000010
11111110
WAL true

TIL 6w
10100001
01111111
00100101
01100101
10111111
01100101
00100101
00011111
WAL true

TIL 6x
10000101
11111110
10100100
10100110
11111101
10100110
10100100
11111000
WAL true

TIL 6y
00100000
00011111
00001000
00000111
00001010
00011001
00100100
01100010
WAL true

TIL 6z
00000100
11111000
00010000
11100000
01010000
10011000
00100100
01000110
WAL true

TIL 7a
00000110
00000110
11001000
01010000
01010010
11111100
10010000
11111100
>
00110000
00110000
11010000
01010000
01010000
11111110
10010000
11111100
WAL true

TIL 7b
00000001
00000001
00000001
00000001
00000001
00000001
00000001
00000001

TIL 7c
10111000
10111000
10111000
10101110
10111110
10111110
10111010
10101010
WAL true

TIL 7d
00000000
00000000
00111000
11101111
00000000
11111111
00000000
00000000
>
00000000
00000000
00001110
11111011
00000000
11111111
00000000
00000000
WAL true

TIL 7e
00000000
00000000
00000000
00001111
00111000
01100011
01001100
01010000
WAL true

TIL 7f
01010000
01010000
01001000
00101000
00101000
00101000
01001000
01010000
>
01010000
11010000
10010000
11010000
01010000
01011000
01001000
01011000
WAL true

TIL 7g
01010011
01001010
00101010
11111110
10000011
10101011
10000011
11111110
WAL true

TIL 7h
00000000
00101010
00000000
00000000
00000000
01010100
00000000
00000000

TIL 7i
11111111
11111111
11111111
11111111
11111111
11111111
11111111
11111111
WAL true

TIL 7j
00000000
00011111
00100000
01001111
01010000
01010100
01010010
01010001

TIL 7k
01010001
01010010
01010100
01010000
01001111
00100000
00011111
00000000

TIL 7l
00000000
11111111
00000000
11111111
00000000
00100100
01000010
10000001

TIL 7m
10000001
01000010
00100100
00000000
11111111
00000000
11111111
00000000

TIL 7n
00000000
11111000
00000100
11110010
00001010
00101010
01001010
10001010

TIL 7o
10001010
01001010
00101010
00001010
11110010
00000100
11111000
00000000

TIL 7p
00000001
00111111
00100001
00101101
00100001
00111111
00100001
00111111
WAL true

TIL 7q
10101010
10101010
10101010
10101010
10101010
10101110
10111000
10000000
WAL true

TIL 7r
00000000
01111110
01000010
11100111
10111101
10000001
10100001
10011101
WAL true

TIL 7s
10000001
10000101
10010101
10100101
10001001
11000001
11111111
11111111
WAL true

TIL 7t
00010010
00101000
01000101
01111100
00010000
01111110
01001010
01111110
>
00010000
00101001
01000100
01111100
00010010
01111110
01001010
01111110
WAL true

TIL 7u
11111111
11111111
11000011
11011111
11000011
11111011
11000011
11111111
WAL true

TIL 7v
11111111
11111111
11011111
11011111
11011111
11011111
11000011
11111111
WAL true

TIL 7w
11111111
11111111
11011011
11011011
11011011
11011011
11000011
11111111
WAL true

TIL 7x
11111111
11111111
11000111
11011111
11010011
11011011
11000011
11111111
WAL true

TIL 7y
11111111
11111111
11101111
11111111
11101111
11101111
11101111
11111111
WAL true

TIL 7z
11111111
11111111
11000011
11011111
11000111
11011111
11011111
11111111
WAL true

TIL 8a
00000000
00111111
01000000
01001000
01010000
01000000
01000010
01000100
WAL true

TIL 8b
00000000
11111111
00000000
00100000
01000001
00001010
00010000
00000000
WAL true

TIL 8c
00000000
11111100
00000010
00100010
01000110
00001010
00100010
01000010
WAL true

TIL 8d
01000000
11111111
00000000
11111111
01010101
10101010
01010101
11111111
WAL true

TIL 8e
00000010
11111111
00000000
11111111
01010101
10101010
01010101
11111111
WAL true

TIL 8f
00000000
00000000
00000000
00000000
00000000
01111000
01111000
01111000

TIL 8g
00000000
00000000
00000000
00000000
01110000
01110000
01110000
00000000

TIL 8h
10000001
01000010
00100100
00000000
00000000
00100100
01000010
10000001

TIL 8i
10001010
01001010
00101010
00001010
00001010
00101010
01001010
10001010

TIL 8j
10001010
11111111
00000000
11111111
01010101
10101010
01010101
11111111
WAL true

TIL 8k
10000001
11111111
00000000
11111111
01010101
10101010
01010101
11111111
WAL true

TIL 8l
01010001
01010010
01010100
01010000
01010000
01010100
01010010
01010001

TIL 8m
00000000
01110111
11011101
01010101
01010101
11011101
01110111
00000000

TIL 8n
11111111
00000000
01110111
01010101
01110111
00000000
11111111
11111111
WAL true

TIL 8o
10000001
11111111
10000001
11111111
10000001
11111111
11111111
11111111
WAL true

TIL 8p
00000000
11111111
10000001
11111111
10000001
11111111
10000001
11111111
WAL true

TIL 8q
11111111
11111111
11000111
11010111
11000111
11001111
11010111
11111111
WAL true

TIL 8r
11111111
11111111
11011101
11011101
11010101
11010101
11000001
11111111
WAL true

TIL 8s
11111111
11111111
11000111
11011011
11011011
11011011
11000111
11111111
WAL true

TIL 8t
00011000
00011000
00011000
00100100
00100100
01000010
01000010
00000000
WAL true

TIL 8u
00011000
00011000
00011000
00100100
01110101
01010111
01000010
11111111
WAL true

TIL 8v
11111111
11111111
00011000
01110101
01110101
01000010
01000010
00000000
WAL true

TIL 8w
00000000
00111100
01100110
01111110
01101010
01010110
01101010
00111100
WAL true

TIL 8x
01111110
01101010
01111110
01010110
01111110
01011010
01011010
01111110
WAL true

TIL 8y
01111111
01010101
01010101
01111111
11111111
10000011
10000010
00000000
WAL true

TIL 8z
00000000
00000000
00000000
00100000
00000000
00010000
00001110
00000000
>
00000000
00000000
00010000
00000000
00000000
00010000
00001110
00000000

TIL 9a
11111111
10101010
11111111
00000000
10101010
00000000
11111111
11111101
WAL true

TIL 9b
00000000
00000000
00000000
00000000
00000000
00000111
00000100
00000101
WAL true

TIL 9c
00000000
01111111
10000000
10111111
10110101
10101010
10110101
10101011
WAL true

TIL 9d
00000000
11111110
00000001
11111101
10101101
01010101
10101101
11010101
WAL true

SPR 10
00111000
01111100
00111000
00111000
00010000
00111000
01111100
00010000
DLG SPR_g
POS 5 5,7

SPR 11
00111000
01111100
00111000
00111000
00010000
00111000
01111100
00010000
DLG SPR_h
POS 5 3,7

SPR 12
00000111
00001101
00011111
00011110
00111010
01101010
00001010
00000000
>
00000000
00000111
00001101
00011111
00111010
01101010
00001010
00000000
DLG SPR_i
POS 5 7,3

SPR 13
11100000
10110000
11111000
01111000
01011100
01010110
01010000
00000000
>
00000000
11100000
10110000
11111000
01111100
01010110
01010000
00000000
DLG SPR_j
POS 5 8,3

SPR 14
11100000
10110000
11111000
01111000
01011100
01010110
01010000
00000000
>
00000000
11100000
10110000
11111000
01111100
01010110
01010000
00000000
DLG SPR_k
POS 5 9,6

SPR 15
00000111
00001101
00011111
00011110
00111010
01101010
00001010
00000000
>
00000000
00000111
00001101
00011111
00111010
01101010
00001010
00000000
DLG SPR_l
POS 5 10,7

SPR 16
00000111
00001101
00011111
00011110
00111010
01101010
00001010
00000000
>
00000000
00000111
00001101
00011111
00111010
01101010
00001010
00000000
DLG SPR_m
POS 5 6,5

SPR 17
11100000
10110000
11111000
01111000
01011100
01010110
01010000
00000000
>
00000000
11100000
10110000
11111000
01111100
01010110
01010000
00000000
DLG SPR_n
POS 5 8,8

SPR 18
00000111
00001101
00011111
00011110
00111010
01101010
00001010
00000000
>
00000000
00000111
00001101
00011111
00111010
01101010
00001010
00000000
DLG SPR_o
POS 5 7,8

SPR 19
00000111
00001101
00011111
00011110
00111010
01101010
00001010
00000000
>
00000000
00000111
00001101
00011111
00111010
01101010
00001010
00000000
DLG SPR_p
POS 5 13,8

SPR A
00010000
00000010
01000000
00010100
00011100
00101000
00111100
11111100
>
00100001
00000000
00000101
01001111
00001010
00011111
01111111
11111111
POS 9 13,13

SPR a
00000000
00100010
01110111
01011101
01111111
00110110
00111110
00100100
>
01000100
11101110
10111010
11111110
11101110
01111100
00100100
00100100
DLG SPR_0
POS 8 4,1

SPR c
01000010
01100110
01111110
01011010
11011011
01111110
10111101
00011000
DLG SPR_1
POS 8 5,1

SPR e
00000000
00000000
00000100
00010000
00000000
00111011
01111110
11111011
>
00000100
00000000
00100100
00010000
00000001
00111010
01111111
11111010
DLG SPR_4
POS 3 9,7

SPR f
00000000
00000000
00000100
00010000
00000000
00111011
01111110
11111011
>
00000100
00000000
00100100
00010000
00000001
00111010
01111111
11111010
DLG SPR_6
POS 3 12,12

SPR g
00000000
00000000
00000100
00010000
00000000
00111011
01111110
11111011
>
00000100
00000000
00100100
00010000
00000001
00111010
01111111
11111010
DLG SPR_5
POS 3 12,9

SPR h
00000000
00000000
00000100
00010000
00000000
00111011
01111110
11111011
>
00000100
00000000
00100100
00010000
00000001
00111010
01111111
11111010
DLG SPR_2
POS 3 3,4

SPR i
11100000
10110000
11111000
01111000
01011100
01010110
01010000
00000000
>
00000000
11100000
10110000
11111000
01111100
01010110
01010000
00000000
DLG SPR_8
POS 4 13,4

SPR j
11100000
10110000
11111000
01111000
01011100
01010110
01010000
00000000
>
00000000
11100000
10110000
11111000
01111100
01010110
01010000
00000000
DLG SPR_a
POS 4 13,6

SPR k
11100000
10110000
11111000
01111000
01011100
01010110
01010000
00000000
>
00000000
11100000
10110000
11111000
01111100
01010110
01010000
00000000
DLG SPR_c
POS 4 10,14

SPR l
11100000
10110000
11111000
01111000
01011100
01010110
01010000
00000000
>
00000000
11100000
10110000
11111000
01111100
01010110
01010000
00000000
POS 4 2,14

SPR q
00000111
00001101
00011111
00011110
00111010
01101010
00001010
00000000
>
00000000
00000111
00001101
00011111
00111010
01101010
00001010
00000000
DLG SPR_f
POS 4 4,13

SPR r
00000111
00001101
00011111
00011110
00111010
01101010
00001010
00000000
>
00000000
00000111
00001101
00011111
00111010
01101010
00001010
00000000
DLG SPR_e
POS 4 1,14

SPR s
00000111
00001101
00011111
00011110
00111010
01101010
00001010
00000000
>
00000000
00000111
00001101
00011111
00111010
01101010
00001010
00000000
DLG SPR_d
POS 4 11,13

SPR t
00000111
00001101
00011111
00011110
00111010
01101010
00001010
00000000
>
00000000
00000111
00001101
00011111
00111010
01101010
00001010
00000000
DLG SPR_9
POS 4 12,4

SPR u
00000111
00001101
00011111
00011110
00111010
01101010
00001010
00000000
>
00000000
00000111
00001101
00011111
00111010
01101010
00001010
00000000
DLG SPR_b
POS 4 13,11

SPR v
00000000
00000000
00000000
00110000
01000000
01111000
00000000
00000000
POS 8 3,1

SPR w
11100000
10110000
11111000
01111000
01011100
01010110
01010000
00000000
>
00000000
11100000
10110000
11111000
01111100
01010110
01010000
00000000
DLG SPR_7
POS 1 12,8

SPR x
00000000
01010010
01110101
01110001
01010001
11111001
11111010
11111110
>
00000010
01010001
01110001
01110001
01010001
11111010
11111010
11111110
DLG SPR_15
POS c 8,13

SPR y
00000000
00000000
00000000
00000000
00010100
10011100
01111110
00111110
>
00000000
00000000
00000000
10000000
01010100
01011100
00111110
00111110
DLG SPR_17
POS c 3,10

SPR z
00000000
00000000
00000000
00000000
00110110
00011100
11111100
01111000
>
00000000
00000000
00000000
00011011
10001110
01111110
01111100
01001000
DLG SPR_q
POS 1 13,8

SPR 1a
11111011
11011010
10101010
11111110
10000011
10101010
10000011
11111110
DLG SPR_s
POS 9 4,7

SPR 1b
00111110
01111111
01000001
01010101
01010101
01000001
01111111
00111110
DLG SPR_t
POS 9 12,12

SPR 1c
01111111
01000001
01000011
01000001
01111111
01000001
01000001
01111111
DLG SPR_u
POS 9 3,12

SPR 1d
00000000
00000000
01111110
01010010
01100110
01111110
00010000
00010000
DLG SPR_r
POS 9 9,7

SPR 1e
11100000
10110000
11111000
01111000
01011100
01010110
01010000
00000000
>
00000000
11100000
10110000
11111000
01111100
01010110
01010000
00000000
DLG SPR_v
POS a 10,11

SPR 1f
11100000
10110000
11111000
01111000
01011100
01010110
01010000
00000000
>
00000000
11100000
10110000
11111000
01111100
01010110
01010000
00000000
DLG SPR_w
POS a 7,11

SPR 1g
00000111
00001101
00011111
00011110
00111010
01101010
00001010
00000000
>
00000000
00000111
00001101
00011111
00111010
01101010
00001010
00000000
DLG SPR_x
POS a 5,11

SPR 1h
00000111
00001101
00011111
00011110
00111010
01101010
00001010
00000000
>
00000000
00000111
00001101
00011111
00111010
01101010
00001010
00000000
DLG SPR_y
POS a 10,4

SPR 1i
11100000
10110000
11111000
01111000
01011100
01010110
01010000
00000000
>
00000000
11100000
10110000
11111000
01111100
01010110
01010000
00000000
DLG SPR_z
POS a 2,2

SPR 1j
11100000
10110000
11111000
01111000
01011100
01010110
01010000
00000000
>
00000000
11100000
10110000
11111000
01111100
01010110
01010000
00000000
DLG SPR_10
POS a 13,2

SPR 1k
00000000
00000000
00000100
00010000
00000000
00111011
01111110
11111011
>
00000100
00000000
00100100
00010000
00000001
00111010
01111111
11111010
DLG SPR_11
POS a 4,3

SPR 1l
00000000
00000000
00000100
00010000
00000000
00111011
01111110
11111011
>
00000100
00000000
00100100
00010000
00000001
00111010
01111111
11111010
DLG SPR_12
POS 6 11,11

SPR 1m
00000000
00000000
00000100
00010000
00000000
00111011
01111110
11111011
>
00000100
00000000
00100100
00010000
00000001
00111010
01111111
11111010
DLG SPR_13
POS 0 9,8

SPR 1n
00000000
00000000
00000100
00010000
00000000
00111011
01111110
11111011
>
00000100
00000000
00100100
00010000
00000001
00111010
01111111
11111010
DLG SPR_14
POS 7 7,11

SPR 1o
00000000
01000010
01100110
00111100
11111111
01101010
11111111
00111100
>
01000010
01100110
00111100
11111111
01101010
11111111
00111100
00100100
DLG SPR_18
POS c 9,7

SPR 1p
00000000
00111110
01101011
00111110
01110111
00111110
01111111
11111111
>
00111110
01101011
00111110
01110111
00111110
01111110
11111111
11011001
DLG SPR_19
POS c 13,8

SPR 1q
00000000
00000000
01111110
01010010
01100110
01111110
00010000
00010000
DLG SPR_16
POS c 1,5

SPR 1r
01010100
01110000
00100100
01110000
01110000
01110000
00110000
00011000
>
01010000
01110010
00100000
01110100
01110000
01110000
00110000
01100000
DLG SPR_1a
POS c 7,3

ITM 0
00000000
00000000
01110000
01110000
01110000
01010000
01110000
00000000
NAME Cellphone
DLG ITM_0

ITM 1
00000000
00111110
01111111
01111111
00111110
00111110
00111110
00000000
NAME Bread
DLG ITM_1

ITM 2
00000000
00111010
00101010
00101010
11101010
11101010
11101110
10100000
NAME Chargeur
DLG ITM_2

ITM 3
00000000
00010000
00101000
00110000
01010000
00100010
00000101
00000010
>
00000100
10010000
00101010
00110000
01010001
00100010
10000101
00010010
NAME Coins
DLG ITM_3

ITM 4
00010000
00101000
01010100
01111100
01010100
00111000
00010000
00010000
NAME Leave
DLG ITM_4

ITM 5
01111110
10001001
10100011
01000010
01001010
00110100
00100100
00011000
NAME Strawberry
DLG ITM_5

ITM 6
00101000
00000000
11111100
10000111
10000101
10000111
01001000
00110000
>
01010000
00000000
11111100
10000111
10000101
10000111
01001000
00110000
NAME Tea
DLG ITM_6

DLG SPR_0
"""
{wvy}{rbw}You are queer ?
Omg, me too !
Queer queer queer queer queer{rbw}{wvy}{sequence
  - 
  - 
}
"""

DLG ITM_0
"""
You found a {rbw}{wvy}cellphone{wvy}{rbw} !

Oh, the battery is empty. :'(
"""

DLG SPR_1
"""
{cycle
  - {shk}Sometimes I feel really lost.
    I want to hide myself in a little hole.{shk}
  - {shk}I haven't find a better place than this narrow street.{shk}
  - {shk}I'm a garbage and I don't fit really well here.{shk}
}
"""

DLG SPR_2
{clr3}{shk}Welp ! I'm trash, I should never leave home.{shk}{clr3}

DLG SPR_3
"""
{clr3}{shk}Welp !
I can not look at others in the eyes.{shk}{clr3}
"""

DLG SPR_4
{clr3}{shk}It hurts me when by mistake I meet someone's eyes.{shk}{clr3}

DLG SPR_5
{clr3}{shk}I never want to have to speak with my voice again.{shk}{clr3}

DLG SPR_6
"""
{
  - {item "Bread"} == 1 ?
    {clr3}{shk}I'm not hungry anymore,
     but I'm so tired...{shk}{clr3}
  - else ?
    {clr3}{shk}I'm already tired. I can't do it. But I'm hungry...{shk}{clr3}
}
"""

DLG SPR_8
"""
{shk}{clr3}They are touching each other,
 it's disgusting.{clr3}{shk}
"""

DLG SPR_9
"""
{shk}{clr3}They are touching each other,
 it's disgusting.{clr3}{shk}
"""

DLG SPR_a
"""
What do you want {wvy}{clr3}mister{clr3}{wvy} ?

I... I...
{shk}I'm not a "mister" !{shk}
??? {wvy}{clr3}*judging look*{clr3}{wvy}

{shk}... (I want to hide myself in a smoll hole and never come back to the surface again.){shk}
"""

DLG SPR_b
"""
Nice view, right, {wvy}{clr3}miss{clr3}{wvy} ?

(A view of the sea polluted by dockside industries is not so beautiful.)

{shk}Huh...{shk} {wvy}I'm not a "miss"{wvy}

??? {wvy}{clr3}*judging look*{clr3}{wvy}

{shk}(Bueeeh, I will never speak to a stranger again.){shk}
"""

DLG SPR_c
"""
{clr3}{shk}WOOH, GET OUT THE WAY DUDE !{shk}{clr3}

{shk}Iiiiiiik !!! S...
Sorry !!!{shk}
{wvy}* Try to not cry in public *{wvy}

(And I'm not a "dude"...)
"""

DLG SPR_d
"""
Pfff... he doesn't even help me to store the groceries...
(Why are you wasting your time with him ? Open your eyes !)
"""

DLG SPR_e
Ahah, I hate my life.

DLG SPR_f
"""
Hey, do you have a cigarette ?

Huuh, no... {shk}sorry !{shk}

{wvy}*Grumble*{wvy}
"""

DLG SPR_g
You could buy it, but does it really fit your {shk}{clr3}gender{clr3}{shk} ?

DLG SPR_h
It's too {shk}{clr3}expensive{clr3}{shk} for a slug like you.

DLG SPR_i
{shk}{clr3}There is too many people{clr3}{shk}

DLG SPR_j
{shk}{clr3}There is too many people{clr3}{shk}

DLG SPR_k
{shk}{clr3}There is too many people{clr3}{shk}

DLG SPR_l
{shk}{clr3}There is too many people{clr3}{shk}

DLG SPR_m
{shk}{clr3}There is too many people{clr3}{shk}

DLG SPR_n
{shk}{clr3}There is too many people{clr3}{shk}

DLG SPR_o
{shk}{clr3}There is too many people{clr3}{shk}

DLG ITM_1
"""
You found {wvy}{rbw}bread{rbw}{wvy} !

Finally you get something to eat !
"""

DLG SPR_p
{shk}{clr3}There is too many people{clr3}{shk}

DLG SPR_7
"""
{
  - {item "Coins"} == 1 ?
    Yo, do you have money for me ?
    
    Huu yeah, take it.
    
    Oh, thanks you.
    
    Have a nice day !
    
    *He didn't answer*
  - else ?
    Yo, do you have money for me ?
    
    {shk}Huuuuh, noooo, sorryyyy{shk}
}
"""

DLG SPR_q
"""
{shk}WOOF !! WOOF !!!!{shk}

{shk}Aaaaah !{shk}
"""

DLG ITM_2
You found a {wvy}{rbw}phone charger{rbw}{wvy} !

DLG ITM_3
You found some {wvy}{rbw}coins !{rbw}{wvy}

DLG SPR_r
"""
I used to take control of this robot in the past.
In it, there is no more feelings.
No fear, no doubt, no compassion.
No sadness, no wrath, no love.
In it, I don't care about anything.
Sometimes it's hard and I want to come back in it.
Other times, I would like to never return in this robot.
I think I'm glad it's currently disabled.
"""

DLG SPR_s
"""
This engine control the robot.
It is currently disabled.
"""

DLG SPR_t
"""
{
  - {item "Chargeur"} == 1 ?
    {wvy}{rbw}Phone charger plugged !{rbw}{wvy}
    
    {wvy}{clr3}New message:{clr3}{wvy}
    "Join us at the north of the docks, in the {wvy}{rbw}Star House{rbw}{wvy}."
    "Don't stay alone, we are kind and we will not judge you for being weird {wvy}{rbw}<3{rbw}{wvy}"
  - else ?
    It's a plug.
    But I don't have any {clr3}phone charger{clr3}.
}
"""

DLG SPR_u
"""
{
  - {item "Bread"} == 1 ?
    I'm glad I found the courage to finally go out and eat something.
  - else ?
    I'm really hungry and the cupboards are empty.
    I need to buy {clr3}bread{clr3} in town in order to eat something.
}
"""

DLG SPR_v
{shk}{clr3}There is too many people{clr3}{shk}

DLG SPR_w
{shk}{clr3}There is too many people{clr3}{shk}

DLG SPR_x
{shk}{clr3}There is too many people{clr3}{shk}

DLG SPR_y
{shk}{clr3}There is too many people{clr3}{shk}

DLG SPR_z
{shk}{clr3}There is too many people{clr3}{shk}

DLG SPR_10
{shk}{clr3}There is too many people{clr3}{shk}

DLG SPR_11
"""
{clr3}{shk}There is too much people and I'm not gonna take a train anyway.
It's way too far from my confort zone and I'm not ready to do that.{shk}{clr3}
"""

DLG SPR_12
"""
{clr3}{shk}Coming here was a mistake.

I feel like I can't continue to walk in this town, I can't breathe.

And I can't made my way back home too.
Weeeelp{shk}{clr3}
"""

DLG SPR_13
"""
{clr3}Do I really need to get out ?
I would prefer to stay safe at home...{clr3}
"""

DLG SPR_14
{clr3}{shk}I dread the city, the crowd, and the judgment of others.{shk}{clr3}

DLG ITM_4
You found a {rbw}{wvy}beautiful yellow fallen leave{wvy}{rbw} !

DLG SPR_15
"""
Welcome to the "{rbw}{wvy}Star House{wvy}{rbw}" !!
We have some respect for your pronouns here. You can grab any cup of tea or strawberry you want, enjoy !
"""

DLG SPR_16
"""
- The Motivational Star -
{rbw}{wvy}You can do it !
I believe in you !
You're strong !
You're beautiful !
You're awesome !
Just Do It !!{wvy}{rbw}
"""

DLG SPR_17
"""
Hi ! So, you're {rbw}queer{rbw} ?

Yeaah, I'm {wvy}{rbw}queer{rbw}{wvy} !

{rbw}{wvy}Queeeeeer{wvy}{rbw}

{rbw}{wvy}Queer queer queer queer queer{wvy}{rbw}

{shk}{rbw}Queeeeeeeeeeeeeeeeeeeer !!!!{rbw}{shk}
"""

DLG SPR_19
"""
Hi, welcome ! I'm happy to see people like me come here !
I'm a bit like a {wvy}{clr3}slug{clr3}{wvy} too. I hope you will find some peace and rest here.
"""

DLG SPR_18
"""
Heyo ! Please accept this present:
You got some {rbw}{wvy}love and support{wvy}{rbw} !
"""

DLG SPR_1a
"""
{clr3}I'm less messy, I'm not all shaking anymore.
I guess I found some...{clr3} {rbw}{wvy}self-confidence{wvy}{rbw} !
{clr3}And maybe some...{clr3}
{rbw}{wvy}self-love{wvy}{rbw} {clr3}too !!{clr3}
"""

DLG ITM_5
You find a {rbw}{wvy}Strawberry{wvy}{rbw} !

DLG ITM_6
You got a {wvy}{rbw}Cup of tea{rbw}{wvy} !

END 0


END undefined
{wvy}{rbw}T h e   e n d{rbw}{wvy}

VAR a
42


