
transmission

# BITSY VERSION 4.5

! ROOM_FORMAT 1

PAL 0
0,0,0
113,113,138
207,21,114

PAL 1
0,0,0
113,113,138
113,113,138

ROOM 0
0,0,0,0,0,0,0,0,0,0,0,0,0,0,0,0
0,0,0,0,0,0,0,0,0,0,0,0,0,0,0,0
0,0,0,0,0,0,0,0,0,0,0,0,0,0,0,0
0,0,0,0,0,0,0,0,0,0,0,0,0,0,0,0
0,0,0,0,0,0,0,0,0,0,0,0,0,0,0,0
0,0,0,0,0,0,0,0,0,0,0,0,0,0,0,0
0,0,0,0,0,0,0,0,0,0,0,0,0,0,0,0
0,0,0,0,0,0,0,0,0,0,0,0,0,0,0,0
0,0,0,0,0,0,0,0,0,0,0,0,0,0,0,0
0,0,0,0,0,0,0,0,0,0,0,0,0,0,0,0
0,0,0,0,0,0,0,0,0,0,0,0,0,0,0,0
0,0,0,0,0,0,0,0,0,0,0,0,0,0,0,0
0,0,0,0,0,0,0,0,0,0,0,0,0,0,0,0
0,0,0,0,0,0,0,0,0,0,0,0,0,0,0,0
0,0,0,0,0,0,0,0,0,0,0,0,0,0,0,0
0,0,0,0,0,0,0,0,0,0,0,0,0,0,0,0
EXT 15,0 1 7,7
EXT 0,0 1 7,7
EXT 1,0 1 7,7
EXT 2,0 1 7,7
EXT 3,0 1 7,7
EXT 4,0 1 7,7
EXT 5,0 1 7,7
EXT 6,0 1 7,7
EXT 7,0 1 7,7
EXT 8,0 1 7,7
EXT 9,0 1 7,7
EXT 10,0 1 7,7
EXT 11,0 1 7,7
EXT 12,0 1 7,7
EXT 13,0 1 7,7
EXT 14,0 1 7,7
EXT 0,1 1 7,7
EXT 0,2 1 7,7
EXT 0,3 1 7,7
EXT 0,4 1 7,7
EXT 0,5 1 7,7
EXT 0,6 1 7,7
EXT 0,7 1 7,7
EXT 0,8 1 7,7
EXT 0,9 1 7,7
EXT 0,10 1 7,7
EXT 0,11 1 7,7
EXT 0,12 1 7,7
EXT 0,13 1 7,7
EXT 0,14 1 7,7
EXT 0,15 1 7,7
EXT 1,15 1 7,7
EXT 2,15 1 7,7
EXT 3,15 1 7,7
EXT 4,15 1 7,7
EXT 5,15 1 7,7
EXT 6,15 1 7,7
EXT 7,15 1 7,7
EXT 9,15 1 7,7
EXT 8,15 1 7,7
EXT 10,15 1 7,7
EXT 11,15 1 7,7
EXT 12,15 1 7,7
EXT 13,15 1 7,7
EXT 14,15 1 7,7
EXT 15,15 1 7,7
EXT 15,14 1 7,7
EXT 15,13 1 7,7
EXT 15,12 1 7,7
EXT 15,11 1 7,7
EXT 15,10 1 7,7
EXT 15,9 1 7,7
EXT 15,8 1 7,7
EXT 15,7 1 7,7
EXT 15,6 1 7,7
EXT 15,5 1 7,7
EXT 15,4 1 7,7
EXT 15,3 1 7,7
EXT 15,2 1 7,7
EXT 15,1 1 7,7
PAL 0

ROOM 1
0,0,0,0,0,0,0,0,0,0,0,0,0,0,0,0
0,0,0,0,0,0,0,0,0,0,0,0,0,0,0,0
0,0,0,0,0,0,0,0,0,0,0,0,0,0,0,0
0,0,0,0,a,c,a,c,a,c,a,0,0,0,0,0
0,0,0,c,0,0,0,0,0,0,0,c,a,0,0,0
0,0,a,0,0,0,0,0,0,0,0,0,0,c,0,0
0,c,0,0,0,0,0,0,0,0,0,0,0,0,a,0
a,0,0,0,0,0,0,0,0,0,0,0,0,0,c,a
0,c,0,0,0,0,0,0,0,0,0,0,0,0,a,0
0,0,a,0,0,0,0,0,0,0,0,0,0,c,0,0
0,0,0,c,0,0,0,0,0,0,0,c,a,0,0,0
0,0,0,0,a,c,a,c,a,c,a,0,0,0,0,0
0,0,0,0,0,0,0,0,0,0,0,0,0,0,0,0
0,0,0,0,0,0,0,0,0,0,0,0,0,0,0,0
0,0,0,0,0,0,0,0,0,0,0,0,0,0,0,0
0,0,0,0,0,0,0,0,0,0,0,0,0,0,0,0
EXT 15,0 2 1,12
EXT 0,0 2 1,12
EXT 1,0 2 1,12
EXT 2,0 2 1,12
EXT 3,0 2 1,12
EXT 4,0 2 1,12
EXT 5,0 2 1,12
EXT 6,0 2 1,12
EXT 7,0 2 1,12
EXT 8,0 2 1,12
EXT 9,0 2 1,12
EXT 10,0 2 1,12
EXT 11,0 2 1,12
EXT 12,0 2 1,12
EXT 13,0 2 1,12
EXT 14,0 2 1,12
EXT 0,1 2 1,12
EXT 0,2 2 1,12
EXT 0,3 2 1,12
EXT 0,4 2 1,12
EXT 0,5 2 1,12
EXT 0,6 2 1,12
EXT 0,7 2 1,12
EXT 0,8 2 1,12
EXT 0,9 2 1,12
EXT 0,10 2 1,12
EXT 0,11 2 1,12
EXT 0,12 2 1,12
EXT 0,13 2 1,12
EXT 0,14 2 1,12
EXT 0,15 2 1,12
EXT 1,15 2 1,12
EXT 2,15 2 1,12
EXT 3,15 2 1,12
EXT 4,15 2 1,12
EXT 5,15 2 1,12
EXT 6,15 2 1,12
EXT 7,15 2 1,12
EXT 9,15 2 1,12
EXT 8,15 2 1,12
EXT 10,15 2 1,12
EXT 11,15 2 1,12
EXT 12,15 2 1,12
EXT 13,15 2 1,12
EXT 14,15 2 1,12
EXT 15,15 2 1,12
EXT 15,14 2 1,12
EXT 15,13 2 1,12
EXT 15,12 2 1,12
EXT 15,11 2 1,12
EXT 15,10 2 1,12
EXT 15,9 2 1,12
EXT 15,8 2 1,12
EXT 15,7 2 1,12
EXT 15,6 2 1,12
EXT 15,5 2 1,12
EXT 15,4 2 1,12
EXT 15,3 2 1,12
EXT 15,2 2 1,12
EXT 15,1 2 1,12
PAL 0

ROOM 2
0,0,0,0,0,0,0,0,0,0,e,e,e,e,e,e
0,0,0,0,0,0,0,0,0,0,0,e,e,e,e,e
0,0,0,0,0,0,0,0,0,0,e,0,e,e,e,e
0,0,0,0,0,0,0,0,e,e,e,e,0,e,e,e
0,0,0,0,0,0,0,e,e,e,e,e,0,e,e,e
0,0,0,0,0,0,e,e,e,e,e,e,e,0,e,e
0,0,0,0,0,e,e,e,e,e,e,e,e,0,0,e
0,0,0,0,0,e,e,e,0,0,e,e,0,0,0,0
0,0,0,0,e,e,0,0,e,e,e,0,0,0,0,0
0,0,0,e,e,0,e,0,0,0,0,0,0,0,0,0
0,0,e,e,0,0,0,e,e,0,0,0,0,0,0,0
0,0,e,0,0,0,0,0,0,0,0,0,0,0,0,0
0,0,0,0,0,0,0,0,0,0,0,0,0,0,0,0
0,0,0,0,0,0,0,0,0,0,0,0,0,0,0,0
0,0,0,0,0,0,0,0,0,0,0,0,0,0,0,0
0,0,0,0,0,0,0,0,0,0,0,0,0,0,0,0
EXT 15,0 3 7,7
EXT 0,0 3 7,7
EXT 1,0 3 7,7
EXT 2,0 3 7,7
EXT 3,0 3 7,7
EXT 4,0 3 7,7
EXT 5,0 3 7,7
EXT 6,0 3 7,7
EXT 7,0 3 7,7
EXT 8,0 3 7,7
EXT 9,0 3 7,7
EXT 10,0 3 7,7
EXT 11,0 3 7,7
EXT 12,0 3 7,7
EXT 13,0 3 7,7
EXT 14,0 3 7,7
EXT 0,1 3 7,7
EXT 0,2 3 7,7
EXT 0,3 3 7,7
EXT 0,4 3 7,7
EXT 0,5 3 7,7
EXT 0,6 3 7,7
EXT 0,7 3 7,7
EXT 0,8 3 7,7
EXT 0,9 3 7,7
EXT 0,10 3 7,7
EXT 0,11 3 7,7
EXT 0,12 3 7,7
EXT 0,13 3 7,7
EXT 0,14 3 7,7
EXT 0,15 3 7,7
EXT 1,15 3 7,7
EXT 2,15 3 7,7
EXT 3,15 3 7,7
EXT 4,15 3 7,7
EXT 5,15 3 7,7
EXT 6,15 3 7,7
EXT 7,15 3 7,7
EXT 9,15 3 7,7
EXT 8,15 3 7,7
EXT 10,15 3 7,7
EXT 11,15 3 7,7
EXT 12,15 3 7,7
EXT 13,15 3 7,7
EXT 14,15 3 7,7
EXT 15,15 3 7,7
EXT 15,14 3 7,7
EXT 15,13 3 7,7
EXT 15,12 3 7,7
EXT 15,11 3 7,7
EXT 15,10 3 7,7
EXT 15,9 3 7,7
EXT 15,8 3 7,7
EXT 15,7 3 7,7
EXT 15,6 3 7,7
EXT 15,5 3 7,7
EXT 15,4 3 7,7
EXT 15,3 3 7,7
EXT 15,2 3 7,7
EXT 15,1 3 7,7
PAL 0

ROOM 3
0,0,0,0,0,0,0,0,0,0,0,0,0,0,0,0
0,0,0,0,0,0,0,0,0,0,0,0,0,0,0,0
0,0,0,0,0,0,0,0,0,0,0,0,0,0,0,0
0,0,0,0,0,0,0,0,0,0,0,0,0,0,0,0
0,0,0,0,0,0,0,0,0,0,0,0,0,0,0,0
0,0,0,0,0,0,0,0,0,0,0,0,0,0,0,0
0,0,0,0,0,0,0,0,0,0,0,0,0,0,0,0
0,0,0,0,0,0,0,0,0,0,0,0,0,0,0,0
0,0,0,0,0,0,0,0,0,0,0,0,0,0,0,0
0,0,0,0,0,0,0,0,0,0,0,0,0,0,0,0
0,0,0,0,0,0,0,0,0,0,0,0,0,0,0,0
0,0,0,0,0,0,0,0,0,0,0,0,0,0,0,0
0,0,0,0,0,0,0,0,0,0,0,0,0,0,0,0
0,0,0,0,0,0,0,0,0,0,0,0,0,0,0,0
0,0,0,0,0,0,0,0,0,0,0,0,0,0,0,0
0,0,0,0,0,0,0,0,0,0,0,0,0,0,0,0
END undefined 0,0
END undefined 1,0
END undefined 2,0
END undefined 3,0
END undefined 4,0
END undefined 5,0
END undefined 6,0
END undefined 7,0
END undefined 8,0
END undefined 9,0
END undefined 10,0
END undefined 11,0
END undefined 12,0
END undefined 13,0
END undefined 14,0
END undefined 15,0
END undefined 0,1
END undefined 0,2
END undefined 0,3
END undefined 0,4
END undefined 0,5
END undefined 0,6
END undefined 0,7
END undefined 0,8
END undefined 0,9
END undefined 0,10
END undefined 0,11
END undefined 0,12
END undefined 0,13
END undefined 0,14
END undefined 0,15
END undefined 1,15
END undefined 2,15
END undefined 3,15
END undefined 4,15
END undefined 5,15
END undefined 6,15
END undefined 7,15
END undefined 8,15
END undefined 9,15
END undefined 10,15
END undefined 15,1
END undefined 15,2
END undefined 15,3
END undefined 15,4
END undefined 15,5
END undefined 15,6
END undefined 15,7
END undefined 15,8
END undefined 15,9
END undefined 15,10
END undefined 15,11
END undefined 15,12
END undefined 15,13
END undefined 15,14
END undefined 15,15
END undefined 14,15
END undefined 13,15
END undefined 12,15
END undefined 11,15
PAL 0

TIL a
00000000
00111100
01000010
10011001
10011001
01000010
00111100
00000000
>
00000000
00000000
00000000
00000000
00000000
00000000
00000000
00000000
WAL false

TIL b
00000000
00111100
01000010
10011001
10011001
01000010
00111100
00000000
>
00000000
00000000
00000000
00000000
00000000
00000000
00000000
00000000
WAL true

TIL c
00000000
00000000
00000000
00000000
00000000
00000000
00000000
00000000
>
00000000
00111100
01000010
10011001
10011001
01000010
00111100
00000000
WAL true

TIL d
00000000
00000000
00000000
00000000
00000000
00000000
00000000
00000000

TIL e
11111111
11111111
11111111
11111111
11111111
11111111
11111111
11111111
WAL true

SPR A
00000000
00011000
00111110
01011000
00011000
00100100
00101000
00000000
>
00000000
00011000
01111100
00011010
00011000
00100100
01000100
00000000
POS 0 3,3

SPR a
00001100
00110000
01000000
11111111
10000001
10100101
10000001
11111111
DLG SPR_0
POS 0 6,9

SPR b
11111111
11111111
11111111
11111111
11111111
11111111
11111111
11111111
DLG SPR_1
POS 2 2,11

SPR c
00001100
00110000
01000000
11111111
10000001
10100101
10000001
11111111
DLG SPR_2
POS 3 3,3

SPR d
00001100
00110000
01000000
11111111
10000001
10100101
10000001
11111111
DLG SPR_3
POS 3 12,3

SPR e
00001100
00110000
01000000
11111111
10000001
10100101
10000001
11111111
DLG SPR_4
POS 3 3,12

SPR f
00001100
00110000
01000000
11111111
10000001
10100101
10000001
11111111
DLG SPR_5
POS 3 12,12

ITM 0
00000000
00000000
00000000
00111100
01100100
00100100
00011000
00000000
NAME tea
DLG ITM_0

DLG SPR_0
...live transmission...

DLG ITM_0
You found a nice warm cup of tea

DLG SPR_1
touching from a distance

DLG SPR_2
DANCE!

DLG SPR_3
DANCE!

DLG SPR_4
DANCE!

DLG SPR_5
DANCE!

END 0


END undefined
No language, just sound.

END undefinee


VAR a
42


