There's a hole in the bottom of the ocean.

# BITSY VERSION 5.3

! ROOM_FORMAT 1

PAL 0
NAME sunset
214,161,143
143,214,214
223,235,235
214,161,143
200,106,106
87,193,193
227,216,181
0,0,0

PAL 1
NAME sea1
87,193,193
143,214,214
223,235,235
55,149,149
0,0,0
0,0,0
0,0,0
0,0,0

PAL 2
NAME sea2
55,149,149
87,193,193
143,214,214
34,93,93
0,0,0
0,0,0
0,0,0
0,0,0

PAL 3
NAME sea3
34,93,93
55,149,149
87,193,193
14,37,37
0,0,0
0,0,0
0,0,0
0,0,0

PAL 4
NAME sea4
21,56,56
34,93,93
55,149,149
7,19,19
0,0,0
0,0,0
0,0,0
0,0,0

PAL 5
NAME sea5
7,19,19
21,56,56
34,93,93
0,0,0
0,0,0
0,0,0
0,0,0
0,0,0

PAL 6
NAME end
21,56,56
34,93,93
55,149,149
0,0,0
7,19,19
0,0,0
0,0,0
0,0,0

ROOM 0
n,n,c,c,c,c,c,c,c,c,c,c,c,c,n,n
n,n,i,h,c,c,c,c,c,c,c,c,c,c,n,n
n,n,0,0,d,k,c,c,c,c,c,c,c,c,n,n
n,n,o,r,0,d,c,c,c,c,c,c,c,c,n,n
n,n,l,p,r,0,g,c,c,c,c,c,c,c,n,n
n,n,l,l,q,0,e,c,c,c,c,c,c,c,n,n
n,n,m,m,m,m,m,m,m,m,m,m,m,m,n,n
n,n,b,b,b,b,b,b,b,b,b,b,b,b,n,n
n,n,b,b,b,b,b,b,b,b,b,b,b,b,n,n
n,n,b,b,1n,b,b,b,b,b,b,b,b,b,n,n
n,n,b,b,b,b,b,b,b,b,b,1o,b,b,n,n
n,n,b,b,b,b,b,b,b,b,b,b,b,b,n,n
n,n,b,b,b,b,b,b,b,b,b,b,b,b,n,n
n,n,b,b,b,b,b,b,b,b,b,b,b,b,n,n
n,n,b,b,b,b,b,b,b,b,b,b,b,b,n,n
n,n,b,b,b,b,b,b,b,b,b,b,b,b,n,n
NAME sunset
ITM 3 2,15
ITM 3 3,15
ITM 3 4,15
ITM 3 5,15
ITM 3 6,15
ITM 3 7,15
ITM 3 8,15
ITM 3 9,15
ITM 3 10,15
ITM 3 11,15
ITM 3 12,15
ITM 3 13,15
ITM 1 2,5
ITM 1 4,5
ITM 1 6,5
ITM 1 8,5
ITM 1 10,5
ITM 1 12,5
ITM 2 3,5
ITM 2 5,5
ITM 2 7,5
ITM 2 9,5
ITM 2 11,5
ITM 2 13,5
ITM 4 4,9
ITM 6 11,10
EXT 2,15 1 2,1
EXT 3,15 1 3,1
EXT 4,15 1 4,1
EXT 5,15 1 5,1
EXT 6,15 1 6,1
EXT 7,15 1 7,1
EXT 8,15 1 8,1
EXT 9,15 1 9,1
EXT 10,15 1 10,1
EXT 11,15 1 11,1
EXT 12,15 1 12,1
EXT 13,15 1 13,1
PAL 0

ROOM 1
n,n,s,s,s,s,s,s,s,s,s,s,s,s,n,n
n,n,1q,0,0,0,0,0,0,0,0,0,0,0,n,n
n,n,1p,0,0,0,0,0,0,0,0,0,0,1r,n,n
n,n,0,0,0,0,0,0,0,0,0,0,0,0,n,n
n,n,1p,0,0,0,0,0,0,0,0,0,0,1s,n,n
n,n,1q,0,0,0,0,0,0,0,0,0,0,1r,n,n
n,n,0,0,0,0,0,0,0,0,0,0,0,0,n,n
n,n,u,0,0,0,0,0,0,0,0,0,0,11,n,n
n,n,u,0,0,0,0,0,0,0,0,0,0,11,n,n
n,n,v,0,0,1t,0,0,0,0,0,0,0,12,n,n
n,n,w,0,0,0,0,0,0,0,0,0,0,13,n,n
n,n,x,0,0,0,0,0,0,0,0,0,0,14,n,n
n,n,y,0,0,0,0,0,0,0,0,0,0,15,n,n
n,n,z,0,0,0,0,0,0,0,0,0,0,16,n,n
n,n,10,0,0,0,0,0,0,0,0,0,0,17,n,n
n,n,n,t,t,t,t,t,t,t,t,t,t,n,n,n
NAME sea1
ITM 7 10,5
ITM 9 5,9
EXT 3,15 2 3,0
EXT 4,15 2 4,0
EXT 5,15 2 5,0
EXT 6,15 2 6,0
EXT 7,15 2 7,0
EXT 8,15 2 8,0
EXT 9,15 2 9,0
EXT 10,15 2 10,0
EXT 11,15 2 11,0
EXT 12,15 2 12,0
PAL 1

ROOM 2
n,n,n,s,s,s,s,s,s,s,s,s,s,n,n,n
n,n,n,0,0,0,0,0,0,0,0,0,0,n,n,n
n,n,n,0,0,0,0,0,0,0,0,0,1s,n,n,n
n,n,n,1q,0,0,0,0,0,0,0,0,0,n,n,n
n,n,n,0,0,0,0,0,0,0,0,0,0,n,n,n
n,n,n,1q,0,0,0,0,0,0,0,0,0,n,n,n
n,n,n,0,0,0,0,0,0,0,0,0,1r,n,n,n
n,n,n,u,0,0,0,0,0,0,0,0,11,n,n,n
n,n,n,u,0,0,0,0,0,0,0,0,11,n,n,n
n,n,n,v,0,0,0,0,0,0,0,0,12,n,n,n
n,n,n,w,0,0,0,0,0,0,0,0,13,n,n,n
n,n,n,x,0,0,0,0,0,0,0,0,14,n,n,n
n,n,n,y,0,0,0,0,0,0,0,0,15,n,n,n
n,n,n,z,0,0,0,0,0,0,0,0,16,n,n,n
n,n,n,10,0,0,0,0,0,0,0,0,17,n,n,n
n,n,n,n,t,t,t,t,t,t,t,t,n,n,n,n
NAME sea2
ITM 8 6,10
EXT 4,15 3 4,0
EXT 5,15 3 5,0
EXT 6,15 3 6,0
EXT 7,15 3 7,0
EXT 8,15 3 8,0
EXT 9,15 3 9,0
EXT 10,15 3 10,0
EXT 11,15 3 11,0
PAL 2

ROOM 3
n,n,n,n,s,s,s,s,s,s,s,s,n,n,n,n
n,n,n,n,0,0,0,0,0,0,0,0,n,n,n,n
n,n,n,n,0,0,0,0,0,0,0,0,n,n,n,n
n,n,n,n,0,0,0,0,0,0,0,0,n,n,n,n
n,n,n,n,0,0,0,0,0,0,0,0,n,n,n,n
n,n,n,n,0,0,0,0,0,0,0,0,n,n,n,n
n,n,n,n,0,0,0,0,0,0,0,0,n,n,n,n
n,n,n,n,u,1u,1v,0,0,0,0,11,n,n,n,n
n,n,n,n,u,0,0,0,0,0,0,11,n,n,n,n
n,n,n,n,v,0,0,0,0,0,0,12,n,n,n,n
n,n,n,n,w,0,0,0,0,0,0,13,n,n,n,n
n,n,n,n,x,0,0,0,0,0,0,14,n,n,n,n
n,n,n,n,y,0,0,0,0,0,0,15,n,n,n,n
n,n,n,n,z,0,0,0,0,0,0,16,n,n,n,n
n,n,n,n,10,0,0,0,0,0,0,17,n,n,n,n
n,n,n,n,n,t,t,t,t,t,t,n,n,n,n,n
NAME sea3
ITM a 9,4
EXT 5,15 4 5,0
EXT 6,15 4 6,0
EXT 7,15 4 7,0
EXT 8,15 4 8,0
EXT 9,15 4 9,0
EXT 10,15 4 10,0
PAL 3

ROOM 4
n,n,n,n,n,s,s,s,s,s,s,n,n,n,n,n
n,n,n,n,n,0,0,0,0,0,0,n,n,n,n,n
n,n,n,n,n,0,0,0,0,0,0,n,n,n,n,n
n,n,n,n,n,0,0,0,0,0,0,n,n,n,n,n
n,n,n,n,n,0,0,0,0,0,0,n,n,n,n,n
n,n,n,n,n,0,0,0,0,0,0,n,n,n,n,n
n,n,n,n,n,0,0,0,0,0,0,n,n,n,n,n
n,n,n,n,n,u,0,0,0,0,11,n,n,n,n,n
n,n,n,n,n,u,0,0,0,0,11,n,n,n,n,n
n,n,n,n,n,v,0,0,0,0,12,n,n,n,n,n
n,n,n,n,n,w,0,0,0,0,13,n,n,n,n,n
n,n,n,n,n,x,0,0,0,0,14,n,n,n,n,n
n,n,n,n,n,y,0,0,0,0,15,n,n,n,n,n
n,n,n,n,n,z,0,0,0,0,16,n,n,n,n,n
n,n,n,n,n,10,0,0,0,0,17,n,n,n,n,n
n,n,n,n,n,n,t,t,t,t,n,n,n,n,n,n
NAME sea4
ITM b 6,5
EXT 6,15 5 6,0
EXT 7,15 5 7,0
EXT 8,15 5 8,0
EXT 9,15 5 9,0
PAL 4

ROOM 5
n,n,n,n,n,n,s,s,s,s,n,n,n,n,n,n
n,n,n,n,n,n,0,0,0,0,n,n,n,n,n,n
n,n,n,n,n,n,0,0,0,0,n,n,n,n,n,n
n,n,n,n,n,n,0,0,0,0,n,n,n,n,n,n
n,n,n,n,n,n,0,0,0,0,n,n,n,n,n,n
n,n,n,n,n,n,0,0,0,0,n,n,n,n,n,n
n,n,n,n,n,n,0,0,0,0,n,n,n,n,n,n
n,n,n,n,n,n,0,0,0,0,n,n,n,n,n,n
n,n,n,n,n,n,0,0,0,0,n,n,n,n,n,n
n,n,n,n,n,n,0,0,0,0,n,n,n,n,n,n
n,n,n,n,n,n,18,1a,1b,19,n,n,n,n,n,n
n,n,n,n,n,n,n,n,n,n,n,n,n,n,n,n
n,n,n,n,n,n,n,n,n,n,n,n,n,n,n,n
n,n,n,n,n,n,n,n,n,n,n,n,n,n,n,n
n,n,n,n,n,n,n,n,n,n,n,n,n,n,n,n
n,n,n,n,n,n,n,n,n,n,n,n,n,n,n,n
NAME sea5
ITM c 8,3
EXT 7,10 6 7,1
EXT 8,10 6 8,1
PAL 5

ROOM 6
n,n,n,n,n,n,n,1m,1m,n,n,n,n,n,n,n
n,n,n,n,n,n,n,0,0,n,n,n,n,n,n,n
n,n,n,n,n,n,n,0,0,n,n,n,n,n,n,n
n,n,n,n,n,n,n,0,0,n,n,n,n,n,n,n
n,n,n,n,n,n,n,0,0,n,n,n,n,n,n,n
n,n,n,n,n,n,1d,0,0,1c,n,n,n,n,n,n
n,n,n,n,n,1d,0,0,0,0,1c,n,n,n,n,n
n,n,n,n,1d,23,0,1e,1f,0,0,1c,n,n,n,n
n,n,n,n,0,0,1l,b,b,1g,1y,1z,n,n,n,n
n,n,n,n,0,0,1k,b,b,1h,0,20,n,n,n,n
n,n,n,n,18,1w,0,1j,1i,0,0,19,n,n,n,n
n,n,n,n,n,18,1x,0,0,22,19,n,n,n,n,n
n,n,n,n,n,n,18,0,21,19,n,n,n,n,n,n
n,n,n,n,n,n,n,n,n,n,n,n,n,n,n,n
n,n,n,n,n,n,n,n,n,n,n,n,n,n,n,n
n,n,n,n,n,n,n,n,n,n,n,n,n,n,n,n
NAME endhole
END undefined 7,7
END undefined 8,7
PAL 6

TIL 10
11111110
11111110
11111110
11111110
11111110
11111110
11111110
11111110
NAME lcreep7
WAL true
COL 4

TIL 11
00000001
00000001
00000001
00000001
00000001
00000001
00000001
00000001
NAME rcreep1
WAL false
COL 4

TIL 12
00000011
00000011
00000011
00000011
00000011
00000011
00000011
00000011
NAME rcreep2
WAL false
COL 4

TIL 13
00000111
00000111
00000111
00000111
00000111
00000111
00000111
00000111
NAME rcreep3
WAL false
COL 4

TIL 14
00001111
00001111
00001111
00001111
00001111
00001111
00001111
00001111
NAME rcreep4
WAL false
COL 4

TIL 15
00011111
00011111
00011111
00011111
00011111
00011111
00011111
00011111
NAME rcreep5
WAL true
COL 4

TIL 16
00111111
00111111
00111111
00111111
00111111
00111111
00111111
00111111
NAME rcreep6
WAL true
COL 4

TIL 17
01111111
01111111
01111111
01111111
01111111
01111111
01111111
01111111
NAME rcreep7
WAL true
COL 4

TIL 18
10000000
10000000
11000000
11000000
11100000
11110000
11111100
11111111
NAME curve1
WAL true
COL 3

TIL 19
00000001
00000001
00000011
00000011
00000111
00001111
00111111
11111111
NAME curve2
WAL true
COL 3

TIL 20
10000000
01000000
00100000
00100000
00000000
00010000
00100000
00000000
NAME skel5

TIL 21
01000000
00001100
00001100
01001100
11100001
01100000
00000100
00100000
NAME skel6

TIL 22
00000000
00010000
00001000
01010100
00100000
11010000
01000000
00000000
NAME skel7

TIL 23
01000000
11110000
00100000
01010000
00001000
00001010
00000100
00001010
NAME skel8
WAL true

TIL a
11111111
10000001
10000001
10011001
10011001
10000001
10000001
11111111
NAME starter

TIL b
11111111
11111111
11111111
11111111
11111111
11111111
11111111
11111111
NAME fullsea

TIL c
11111111
11111111
11111111
11111111
11111111
11111111
11111111
11111111
NAME fullsky
COL 4

TIL d
01011111
10101111
00010111
00101011
00000101
00001010
00000001
00000010
NAME sky border1
COL 4

TIL e
00001111
00010111
00001111
00010111
00001111
00010111
00001011
00000111
NAME sky border2
COL 4

TIL f
00000011
00000011
00000011
00000011
00000011
00000001
00000001
00000001
NAME sky border3
COL 4

TIL g
11111111
01111111
10111111
01011111
00101111
00011111
00101111
00010111
NAME sky border4
COL 4

TIL h
11111111
11111111
11111111
10111111
01010111
00101011
00000101
00000010
NAME sky border5
COL 4

TIL i
11111111
11111111
01010111
10101010
00000101
00000000
00000000
00000000
NAME sky border6
COL 4

TIL j
11111111
10101011
01010101
00000010
00000000
00000000
00000000
00000000
NAME sky border7
COL 4

TIL k
11111111
11111111
11111111
11111111
11111111
11111111
01111111
10111111
NAME sky border8
COL 4

TIL l
11111111
11111111
11111111
11111111
11111111
11111111
11111111
11111111
NAME fullsun
COL 6

TIL m
11111111
11111111
11111111
11111111
11111111
11111111
11111111
11111111
NAME fullseawall
WAL true

TIL n
11111111
11111111
11111111
11111111
11111111
11111111
11111111
11111111
NAME fullblack
WAL true
COL 7

TIL o
00000000
00000000
00000000
00000000
01000000
00001000
11100001
11111110
>
00000000
00000000
10000000
00010000
00000010
00000000
11100000
11111110
NAME sun1
COL 6

TIL p
00010000
11000000
11110100
11111000
11111100
11111101
11111110
11111110
>
00000100
11000000
11110001
11111000
11111100
11111100
11111110
11111110
NAME sun2
COL 6

TIL q
00000000
10100000
10000000
10100000
10000000
11000000
11010000
11000000
>
00000000
10010000
10000000
10000000
10001000
11000000
11000000
11000100
NAME sun3
COL 6

TIL r
00000000
00000000
00000000
00000000
00000000
00000000
00000000
01000000
>
00000000
00000000
00000000
00000000
10000000
00100000
00000000
00010000
NAME sun3
COL 6

TIL s
11111111
11101110
10111011
01010101
10101010
01000100
00000000
00000000
NAME seahigher

TIL t
00000000
00010001
01000100
10101010
01010101
10111011
11111111
11111111
NAME sealower
COL 3

TIL u
10000000
10000000
10000000
10000000
10000000
10000000
10000000
10000000
NAME lcreep1
WAL false
COL 4

TIL v
11000000
11000000
11000000
11000000
11000000
11000000
11000000
11000000
NAME lcreep2
WAL false
COL 4

TIL w
11100000
11100000
11100000
11100000
11100000
11100000
11100000
11100000
NAME lcreep3
WAL false
COL 4

TIL x
11110000
11110000
11110000
11110000
11110000
11110000
11110000
11110000
NAME lcreep4
WAL false
COL 4

TIL y
11111000
11111000
11111000
11111000
11111000
11111000
11111000
11111000
NAME lcreep5
WAL true
COL 4

TIL z
11111100
11111100
11111100
11111100
11111100
11111100
11111100
11111100
NAME lcreep6
WAL true
COL 4

TIL 1a
00000000
00000000
01000100
00000001
00010000
00000100
00100011
00001111
>
00000000
10001000
00000001
00100000
00001010
01000000
00000011
00001111
NAME shine1

TIL 1b
00000000
00010000
01000000
00000100
01001000
00100000
11000100
11110000
>
00001000
01000000
00000010
00100100
10000000
00010010
11000000
11110000
NAME shine2

TIL 1c
11111111
00111111
00001111
00000111
00000011
00000011
00000001
00000001
NAME curve3
WAL true
COL 3

TIL 1d
11111111
11111100
11110000
11100000
11000000
11000000
10000000
10000000
NAME curve4
WAL true
COL 3

TIL 1e
00000000
00000000
00000000
00000000
00000000
00011111
11111111
11111111
NAME glow1

TIL 1f
00000000
00000000
00000000
00000000
00000000
11111000
11111111
11111111
NAME glow2

TIL 1g
11000000
11000000
11000000
11100000
11100000
11100000
11100000
11100000
NAME glow3
WAL true

TIL 1h
11100000
11100000
11100000
11100000
11100000
11000000
11000000
11000000
NAME glow4

TIL 1i
11111111
11111111
11111000
00000000
00000000
00000000
00000000
00000000
NAME glow5

TIL 1j
11111111
11111111
00011111
00000000
00000000
00000000
00000000
00000000
NAME glow6

TIL 1k
00000111
00000111
00000111
00000111
00000111
00000011
00000011
00000011
NAME glow7

TIL 1l
00000011
00000011
00000011
00000111
00000111
00000111
00000111
00000111
NAME glow8
WAL true

TIL 1m
11111111
11101110
10111011
01010101
10101010
01000100
00000000
00000000
NAME seahighend
COL 4

TIL 1n
11111111
11101111
10101111
10000011
10101111
11111111
11111111
11111111
>
11111111
11110111
11010111
11000001
11010111
11111111
11111111
11111111
NAME deadfish1

TIL 1o
11111111
11011111
11011011
10000011
11011011
11011111
11111111
11111111
>
11111111
11101111
11101101
11000001
11101101
11101111
11111111
11111111
NAME deadfish2

TIL 1p
00010000
10111000
00010000
10100000
11101000
10010100
01001000
10000000
NAME leftcoral1

TIL 1q
10000000
10100000
01010000
10100000
10000000
01000000
10000000
00000000
NAME leftcoral2

TIL 1r
00000000
00000001
00000111
00101001
01010001
00100010
00000101
00000001
NAME rightcoral1

TIL 1s
00000000
00100001
01110011
00101101
00000010
00000001
00000000
00000001
NAME rightcoral2

TIL 1t
00000000
01000100
00101100
01111011
01001110
00000100
00001000
00000000
>
00000000
10001000
01011000
11110110
10011100
00001000
00010000
00000000
NAME deadfish5

TIL 1u
00000000
00000011
00000011
00000011
00000000
00000000
00000000
00000000
>
00000000
00000111
00000111
00000111
00000000
00000000
00000000
00000000
NAME fish6 1

TIL 1v
00000000
10000000
10000000
10000000
00000000
00000000
00000000
00000000
>
00000000
00000000
00000000
00000000
00000000
00000000
00000000
00000000
NAME fish6 2

TIL 1w
00000000
01110000
01110101
00001010
00010100
00001010
00100001
00100000
NAME skel1

TIL 1x
10001000
00000100
00000100
00000000
10000010
01000000
00000000
00000000
NAME skel2

TIL 1y
00000000
10000000
01100000
00010000
00001000
00000101
00001010
00000101
NAME skel3
WAL true

TIL 1z
00000000
00100000
01110000
01100000
10000000
01000000
00100000
00010000
NAME skel4

SPR A
10000001
01011010
00111100
00011000
00011000
00111100
01000010
00100100
>
00011000
00011000
00111100
01011010
10011001
00100100
00100100
00100100
POS 0 7,7

SPR a
00000000
00000000
01010001
01110001
01110010
01111100
00111100
00100100
DLG SPR_0

SPR b
11111111
11111111
11111111
11111111
11111111
11111111
11111111
11111111
NAME fullsun
COL 6

SPR c
00000000
00000000
00000000
00000000
00000000
00000000
00000000
00000000
NAME nogo
DLG SPR_1
POS 0 7,6

SPR d
11111111
11111100
11110000
11100000
11000000
11000000
10000000
10000000
NAME icurve1
POS 6 7,0
COL 3

SPR e
11111111
00111111
00001111
00000111
00000011
00000011
00000001
00000001
NAME 1curve2
POS 6 8,0
COL 3

SPR f
00000000
00000000
00010010
00000000
00000011
01000111
00001111
00001111
>
00000000
00000100
01000000
00000000
00000011
00000111
00101111
00001111
NAME orb1
POS 6 7,8

SPR g
00000000
00001000
01000000
00000000
11000000
11100100
01110000
10110000
>
00000000
01000000
00000000
00001000
11000000
11100000
11110010
11110000
NAME orb2
POS 6 8,8

SPR h
10110000
11110010
11100000
11000000
00000000
00000100
01000000
00000000
>
10110000
00110100
11100000
11000000
00001000
00100000
00000000
00000000
NAME orb3
POS 6 8,9

SPR i
00001111
00001111
01000111
00000011
00000000
01000100
00000000
00000000
>
00001111
00101111
00000111
00000011
00010000
00000000
00000010
00000000
NAME orb4
POS 6 7,9

SPR j
00000000
00000000
00000010
00111110
00111110
00000010
00000000
00000000
>
01001000
10110000
01111010
01111110
01111110
01111010
10110000
01001000
NAME fish4
DLG SPR_2
POS 2 9,5

SPR k
00000110
00001001
01010001
01111000
01011100
00011100
00000000
00000000
>
00001100
00010010
10100010
11110000
10111000
00111000
00000000
00000000
NAME fish6
DLG SPR_3
POS 3 5,7

ITM 0
00000000
00000000
00000000
00111100
01100100
00100100
00011000
00000000
NAME tea
DLG ITM_0

ITM 1
00000000
00000000
00000000
00000000
11110000
11111100
11111111
11111111
>
00000000
00000000
00000000
00000000
11111000
11111110
11111111
11111111
>
00000000
00000000
00000000
00000000
00000111
00011111
11111111
11111111
NAME wave1
COL 1

ITM 2
00000000
00000000
00000000
00000000
00000111
00011111
11111111
11111111
>
00000000
00000000
00000000
00000000
00011111
01111111
11111111
11111111
>
00000000
00000000
00000000
00000000
11110000
11111100
11111111
11111111
NAME wave2
COL 1

ITM 3
00000000
00010001
01000100
10101010
01010101
10111011
11111111
11111111
NAME seaentry
COL 5

ITM 4
00000000
00010000
01011100
01111100
01011100
00010000
00000000
00000000
>
00000000
00001000
00101110
00111110
00101110
00001000
00000000
00000000
NAME fish1
DLG ITM_1

ITM 5
00000000
00000000
00000010
00111110
00111110
00000010
00000000
00000000
>
01001000
10110000
01111010
01111110
01111110
01111010
10110000
01001000
NAME fish2
DLG ITM_4

ITM 6
00000000
00100000
01110100
01111100
01110100
00100000
00000000
00000000
>
00000000
00010000
00111010
00111110
00111010
00010000
00000000
00000000
NAME fish3
DLG ITM_2

ITM 7
00000000
00001100
00001010
00000110
00000000
01110000
01010000
01110000
>
00001110
00001010
00001110
00000000
00110000
01010000
01100000
00000000
NAME bubbles
DLG ITM_3

ITM 8
00000000
00001100
00001010
00000110
00000000
01110000
01010000
01110000
>
00001110
00001010
00001110
00000000
00110000
01010000
01100000
00000000
NAME bubbles2
DLG ITM_5

ITM 9
00001000
01000100
01101110
01111111
01101111
01000100
00001000
00000000
>
00010000
10001000
11011100
11111110
11011110
10001000
00010000
00000000
NAME fish5
DLG ITM_6

ITM a
00000000
00001100
00001010
00000110
00000000
01110000
01010000
01110000
>
00001110
00001010
00001110
00000000
00110000
01010000
01100000
00000000
NAME bubbles3
DLG ITM_7

ITM b
00000000
00001100
00001010
00000110
00000000
01110000
01010000
01110000
>
00001110
00001010
00001110
00000000
00110000
01010000
01100000
00000000
NAME bubbles4
DLG ITM_8

ITM c
00000000
00001100
00001010
00000110
00000000
01110000
01010000
01110000
>
00001110
00001010
00001110
00000000
00110000
01010000
01100000
00000000
NAME bubbles5
DLG ITM_9

DLG SPR_0
I'm a cat

DLG ITM_0
You found a nice warm cup of tea

DLG SPR_1
You can't swim up, something is pulling you further down...

DLG ITM_1
A little fish! You sneak up on it and rip the meat off its bones. You gulp down raw fish and ocean water.

DLG ITM_2
A little fish! You tear it apart with your teeth, and devour it.

DLG ITM_3
Bubbles rise up from below. You don't need air anymore...

DLG ITM_4
Ouch! A point fish. You cannot eat it.

DLG SPR_2
{shk}Ouch!{shk} A pointy fish. You cannot eat it.

DLG ITM_5
The crevice gets smaller the further down you go.

DLG ITM_6
A big fish! You tilt your head back and force it down.

DLG ITM_7
Where are you being led? It {shk}excites{shk} you.

DLG SPR_3
A fish that lives in the dark. You don't want to eat it.

DLG ITM_8
You're so close, {shk}you're beginning to shake.{shk}

DLG ITM_9
"""
{shk}There! 

The hole in the bottom of the ocean.{shk}
"""

VAR a
42

