
sunbeam

# BITSY VERSION 4.8

! ROOM_FORMAT 1

PAL 0
63,65,122
254,203,253
219,233,238

ROOM 0
h,1z,h,h,h,1a,19,18,17,16,h,1w,h,h,h,h
h,h,1m,h,h,1b,h,h,0,15,h,h,h,h,1i,1x
h,h,h,h,h,y,h,h,h,14,h,h,h,h,1j,h
1w,h,h,21,h,10,z,11,12,13,h,h,20,h,h,h
h,h,h,h,h,h,h,h,h,h,h,h,h,h,h,h
i,i,i,i,j,1y,0,0,k,i,l,0,1c,0,0,0
0,1f,0,c,d,d,m,d,d,d,d,d,e,0,0,0
0,0,0,b,g,g,g,g,n,g,g,g,f,0,0,0
q,q,q,q,q,28,1d,q,q,q,1g,q,q,1e,q,t
p,p,p,p,p,p,p,p,p,p,p,p,p,p,p,s
o,o,o,o,o,o,o,o,o,o,o,o,o,o,o,r
h,h,h,h,h,h,h,1k,h,h,h,h,h,h,1w,h
h,h,h,1x,h,h,h,1h,h,h,h,h,h,h,1z,h
v,v,u,v,v,v,v,v,v,v,v,u,v,w,h,1x
h,h,h,h,h,20,h,h,h,1m,h,h,h,x,h,h
h,h,h,h,1w,h,h,h,h,h,h,h,h,x,h,h
EXT 0,9 1 15,9
PAL 0

ROOM 1
h,h,h,h,h,1w,h,h,h,h,h,h,h,h,h,1z
h,1x,h,h,h,h,h,h,h,h,h,h,1t,1r,1s,h
h,h,h,h,h,h,h,h,h,h,h,h,h,1s,1l,h
20,h,h,h,h,h,h,h,h,h,h,h,h,h,1r,1x
h,h,h,h,h,h,h,h,1w,h,h,h,h,1t,h,h
0,1y,0,22,i,j,0,1y,k,i,l,0,k,i,i,j
0,1f,0,c,d,d,m,d,d,23,d,d,e,0,0,0
0,0,0,b,g,g,g,g,g,g,g,g,f,0,0,0
q,q,q,q,28,28,1d,q,q,q,1g,q,q,1e,q,q
p,p,25,p,p,p,p,p,p,24,p,p,p,p,p,p
o,o,o,o,o,o,o,o,o,27,o,o,o,26,o,o
h,h,h,1m,h,h,h,h,h,h,h,h,h,h,h,h
v,v,1v,v,v,v,1q,h,h,1x,h,h,1k,h,1z,h
v,v,v,v,v,v,1p,v,v,v,v,1n,v,v,1v,v
v,v,v,v,v,v,v,v,1u,v,v,1o,h,h,h,h
h,h,h,20,h,h,h,h,h,h,h,h,h,1w,h,h
EXT 0,9 2 15,9
PAL 0

ROOM 2
h,h,h,2q,h,1w,1t,1x,h,2q,h,h,h,h,2q,h
2q,1x,h,h,1l,2e,2f,2g,2h,1t,h,h,2p,h,2q,h
2q,h,2o,h,1s,3v,3u,3t,0,2h,1r,h,h,1h,2q,h
h,h,2q,1s,2i,2r,2s,2t,3p,2n,2j,2h,h,h,2q,1i
h,h,2q,2i,3r,2y,2z,2u,3o,0,0,2l,1r,h,2q,h
0,1y,0,0,3s,2x,2w,2v,3q,0,0,0,0,0,3n,j
0,1f,0,c,d,d,3k,d,d,23,d,d,e,0,0,0
0,0,0,b,g,g,3j,g,g,g,g,g,f,0,0,0
0,0,0,0,28,28,3i,q,q,q,1g,q,q,1e,q,q
36,37,35,0,38,3e,3c,3b,3m,24,p,p,p,p,p,p
2c,2b,34,3a,39,3f,3g,3h,3l,27,o,o,o,26,o,o
h,2a,v,v,v,v,v,1u,v,v,1v,v,1q,h,1i,h
h,2a,v,v,v,1v,33,1m,v,v,32,v,1p,v,v,v
h,2a,v,v,v,v,v,v,31,30,v,1v,v,v,1v,v
h,2a,v,v,v,1n,v,v,v,v,v,v,v,v,v,v
h,29,v,v,v,1o,h,h,1x,h,h,h,h,1w,h,h
EXT 8,9 3 9,11
PAL 0

ROOM 3
0,0,5m,0,4z,0,0,0,5p,0,4s,0,0,0,0,0
0,0,0,0,0,0,0,0,0,0,0,0,0,0,0,0
0,4t,0,0,0,0,0,0,0,0,0,0,0,0,0,0
0,0,0,5n,0,0,0,0,0,0,0,0,0,4y,0,0
0,0,0,0,0,0,0,0,0,0,0,0,0,0,0,0
0,0,4y,5q,0,0,0,0,0,0,0,0,0,4t,0,5m
0,5n,5m,0,0,0,0,5o,0,0,0,4z,0,0,0,0
0,0,0,46,45,5b,58,4u,44,5h,44,44,4u,44,44,44
0,0,48,47,5c,0,5l,0,0,5i,2m,0,5a,0,0,5d
0,46,47,5d,0,0,2n,0,5a,0,0,5d,0,59,5a,0
0,49,55,54,0,5j,0,0,43,41,40,0,0,5l,0,0
5m,49,56,0,2m,0,5l,0,42,0,3z,0,0,5e,50,51
0,49,57,0,0,5l,5d,0,3w,3x,3y,0,5g,5f,52,53
4t,4a,4b,4c,4d,4p,4d,4r,4q,4d,4e,0,4v,0,4i,4j
0,0,0,5n,0,0,0,0,0,4z,4f,4g,4g,4g,4h,0
0,0,0,0,4y,0,0,0,5p,0,5m,0,0,4s,0,5q
END undefined 9,10
END undefined 8,11
END undefined 10,11
END undefined 9,12
PAL 0

TIL 10
11111000
11111000
11111100
11111111
11111111
11111111
11111111
11111111

TIL 11
01000010
01000010
01000010
11111111
11111111
11111111
11111111
11111111

TIL 12
00001000
00001000
00001000
11111111
11111111
11111111
11111111
11111111

TIL 13
00011111
00011111
00111111
11111111
11111111
11111111
11111111
11111111

TIL 14
00011111
00011111
00011111
00011111
11111111
00011111
00011111
00011111

TIL 15
00011111
00011111
00011111
11111111
00011111
00011111
00011111
00011111

TIL 16
11111111
11111111
11111111
11111111
11111111
00111111
00011111
00011111

TIL 17
11111111
11111111
11111111
11111111
11111111
00001000
00001000
00001000

TIL 18
11111111
11111111
11111111
11111111
11111111
01000010
01000010
01000010

TIL 19
11111111
11111111
11111111
11111111
11111111
00010000
00010000
00010000

TIL 20
10011001
01111110
01000010
11010011
11011011
01000010
01111110
10011001

TIL 21
11111111
11111101
11111111
01111111
11111111
11111111
10111111
11111111

TIL 22
00000000
00001001
00000110
00000100
00000100
00000000
00000000
00000000

TIL 23
11111111
00000000
00000000
00000000
00000100
00000000
00000000
00000000
>
11111111
00000000
00000000
00000000
00000000
00000000
00000000
00000000

TIL 24
00011000
00001000
00011000
11111111
00000000
00001000
01110000
00000010

TIL 25
00011000
00001000
00011000
11111111
00000000
01000000
00000010
00000000

TIL 26
00000000
10100000
00000010
00000000
11111111
00011000
00010000
00011000
WAL true

TIL 27
00000000
00010000
01000000
00000000
11111111
00011000
00010000
00011000
WAL true

TIL 28
00000000
00000000
00000000
00000000
00000000
00000000
00000000
11111111
WAL true

TIL 29
10111011
10000011
10000011
10111000
10011111
11000000
11111111
11111111
>
10000011
10000011
10111011
10000000
10000011
11000000
11111111
11111111

TIL 30
01111111
00111111
00011111
00100000
10001111
11000000
11111111
11111111
>
01111111
00111111
01011111
00000000
10011111
11000000
11111111
11111111

TIL 31
11111110
11111100
11111000
00000000
10011001
00000011
11011111
11111011
>
11111110
11111100
11111000
00000100
11100001
00000011
11011111
11111011

TIL 32
11111111
11111111
10010111
10000000
10000111
10000000
10010111
11111111
>
11111111
11111111
10010111
10000000
10000011
10000000
10010111
11111111

TIL 33
11111111
11111111
11101001
00000001
10000001
00000001
11101001
11111111
>
11111111
11111111
11101001
00000001
11100001
00000001
11101001
11111111

TIL 34
00000100
00000111
00111100
01000100
01011110
01000101
11111000
00000000

TIL 35
11111000
00000100
11111100
00000100
11111100
00000100
11111100
00000100
>
00000000
11111000
00000100
11111100
00000100
11111100
00000100
11111100

TIL 36
00011111
00100000
00111111
00100000
00111111
00100000
00111111
00100000
>
00000000
00011111
00100000
00111111
00100000
00111111
00100000
00111111

TIL 37
11111111
00000000
10111101
00000000
10111101
00000000
10111101
00000000
>
00000000
11111111
00000000
10111101
00000000
10111101
00000000
10111101

TIL 38
10011000
10001000
10011000
11111111
10000000
10000000
10000000
10000000
WAL false

TIL 39
10000000
10000001
11111110
10000000
11111111
10011000
10010000
10011000
WAL true

TIL 40
00000000
01010000
10000100
01001000
11100010
00100100
00011010
00010100

TIL 41
00001000
01000010
10000000
01010011
11111111
00000000
00000000
00000000

TIL 42
00001000
00011000
00101000
00011000
10001000
10011000
01011000
00101000

TIL 43
00000000
00000100
01000001
00010100
00001011
00000100
10011000
00101000

TIL 44
00000000
11111111
00000000
00000000
00000000
00000000
00000000
00000000

TIL 45
00000000
00001111
00010110
00111010
01100000
10000010
01010000
00100100

TIL 46
00000000
00000000
00000000
00000000
00000000
00000000
00000001
00000010

TIL 47
00000100
00001100
00010000
00101001
01010100
10000000
00010010
00100000

TIL 48
00000000
00000000
00000000
00000000
00000000
00000000
00000001
00000010

TIL 49
00000100
00000100
00000101
00000110
00000100
00000110
00000101
00000100

TIL 50
01000000
00011011
00100000
00100110
00100000
00001010
00100000
00011111

TIL 51
00000010
11101000
00000100
11010100
10010100
11110000
00000100
11011000

TIL 52
01001011
00000001
00001000
00000000
00000010
00000000
00000000
00000000

TIL 53
11011010
00010000
00010000
00000000
00010000
00001000
00000000
00000000

TIL 54
00000010
00100000
00000110
11111010
11011010
00000110
01000000
10100010

TIL 55
00000001
00010000
01000100
00011101
00111111
10110000
00010000
00110001

TIL 56
00110000
00100010
00110100
00110000
00100100
00110000
00111001
00110000

TIL 57
00110000
00110011
00101101
00011001
01000011
00001000
01000000
00000010

TIL 58
00000000
11111111
01010111
00000001
01001001
01000000
00101000
00000010

TIL 59
01100000
00010010
00000001
00110000
00000010
00001000
00100000
00000000

TIL b
10000000
10000000
10000000
10010000
10000000
01000000
00100000
00011111
>
10000000
10000000
10000000
10000000
10000000
01000000
00100000
00011111
WAL false

TIL c
00011111
00100000
01000000
10000000
10000000
10000000
10000000
10000000
WAL true

TIL d
11111111
00000000
00000000
00000000
00000000
00000000
00000000
00000000
WAL true

TIL e
11111000
00000100
00000010
00000001
00000001
00000001
00100001
00000001
>
11111000
00000100
00000010
00000001
00000001
00000001
00000001
00000001
WAL true

TIL f
00000001
00000001
00000001
00000001
00000001
00000010
00000100
11111000

TIL g
00000000
00000000
00000000
00000000
00000000
00000000
00000000
11111111

TIL h
11111111
11111111
11111111
11111111
11111111
11111111
11111111
11111111
WAL true

TIL i
01000010
11111111
00000000
00000000
00000000
00000000
00000000
00000000

TIL j
01010000
11110000
00010000
00111000
00000000
00000000
00000000
00000000

TIL k
01000100
00111111
00000000
00000000
00000000
00000000
00000000
00000000

TIL l
00101000
11110000
00000000
00000000
00000000
00000000
00000000
00000000

TIL m
11111111
00000000
00000010
00011000
00100100
00100100
00011000
01000000
>
11111111
00000000
00000000
00011001
00100100
00100100
10011000
00000000
WAL true

TIL n
00000000
00000000
00000000
00000000
00000000
00000000
00000000
11111111
>
00000000
00000000
00000000
00010000
00000000
00000000
00000000
11111111

TIL o
00000000
00000000
00000000
00000000
11111111
00011000
00010000
00011000
WAL true

TIL p
00011000
00001000
00011000
11111111
00000000
00000000
00000000
00000000
WAL false

TIL q
00000000
00000000
00000000
00000000
00000000
00000000
00000000
11111111
WAL true

TIL r
00100000
00100000
00100000
00100000
11000000
01100000
01000000
01100000
WAL true

TIL s
01100000
00100000
01100000
11100000
00100000
00100000
00100000
00100000
WAL true

TIL t
00000000
00000000
00000000
00000000
00000000
00000000
00000000
11000000
WAL true

TIL u
11111111
11111111
11000011
00011000
10011001
00011000
11000011
11111111
>
11111111
11111111
11000011
00011000
11011000
00011000
11000011
11111111

TIL v
11111111
11111111
11111111
00000000
10011111
00000000
11111111
11111111
>
11111111
11111111
11111111
00000000
11100111
00000000
11111111
11111111

TIL w
11111111
11111111
11111111
00000111
00110011
00001011
11101011
11101011
>
11111111
11111111
11111111
00000111
11000011
00001011
11101011
11101011

TIL x
11100011
11100011
11101011
11101011
11101011
11101011
11101011
11101011
>
11101011
11101011
11100011
11100011
11101011
11101011
11101011
11101011

TIL y
11111000
11111000
11111000
11111000
11111111
11111000
11111000
11111000

TIL z
00010000
00010000
00010000
11111111
11111111
11111111
11111111
11111111

TIL 1a
11111111
11111111
11111111
11111111
11111111
11111100
11111000
11111000

TIL 1b
11111000
11111000
11111000
11111111
11111000
11111000
11111000
11111000

TIL 1c
00000100
00000000
00000000
00100000
00000000
00000000
00000000
00000000

TIL 1d
01000010
00000010
00000000
00000000
00000000
00000000
00000000
11111111
WAL true

TIL 1e
00000000
00000000
00000000
00000000
00000000
00000010
00000000
11111111
WAL true

TIL 1f
00000000
00000000
00000000
00000001
01000000
00000000
00000000
00000000

TIL 1g
00010100
00010000
00010000
00000000
00000000
00000000
00000000
11111111
WAL true

TIL 1h
11111111
11111111
11001001
01011110
11111111
11111011
11111111
11111111

TIL 1i
11101111
11101111
11011111
11111111
10111011
11111011
10111101
11111111

TIL 1j
10111110
11001111
11111101
11011011
11100011
10000111
11111111
01111110

TIL 1k
11111111
11111111
10111111
01010011
00111011
01110111
11001101
01111110

TIL 1l
11111111
11111111
11111111
10101111
11010111
11111011
11111101
11111111

TIL 1m
11111111
11011111
11111011
11111111
11011111
11011111
10111100
11111111

TIL 1n
11111111
11111111
11000011
00011000
10011001
00011000
11000011
11100111
>
11111111
11111111
11000011
00011000
11011000
00011000
11000011
11100111

TIL 1o
11100111
11000011
11100111
00000111
10000111
00001111
11111111
11111111
>
11100111
11000011
11100111
00000111
11100111
00001111
11111111
11111111

TIL 1p
11100111
11100111
11000011
00011000
10011001
00011000
11000011
11111111
>
11100111
11100111
11000011
00011000
11011000
00011000
11000011
11111111

TIL 1q
11111111
11111111
11111111
00001111
10000111
00000111
11100111
11000011
>
11111111
11111111
11111111
00001111
11100111
00000111
11100111
11000011

TIL 1r
11101110
01011001
11110011
11100001
01000111
11011110
01111101
11101111

TIL 1s
11111111
11101111
11100111
01110001
11111011
11111110
10101111
11111111

TIL 1t
11101010
11100111
10001111
11011101
11111011
11111111
11111111
11111111

TIL 1u
11111111
11111111
11111111
00000000
10011111
00000000
11011111
11111011
>
11111111
11111111
11111111
00000000
11100111
00000000
11011111
11111011

TIL 1v
11111111
11111111
11111111
00000000
10011111
00000000
11101111
10111111
>
11111111
11111111
11111111
00000000
11100111
00000000
11101111
10111111

TIL 1w
11111111
11111111
11011111
11111111
11111111
11111111
11111111
11111111

TIL 1x
11111111
11111111
11111111
11111111
11111111
11111111
11110111
11111111

TIL 1y
01001000
00001000
00000000
00000000
00000000
00000000
00000000
00000000

TIL 1z
00100100
01111110
11000011
01011010
01011010
11000011
01111110
00100100

TIL 2a
10000011
10111011
10000011
10000000
10000011
10111000
10111011
10000011
>
10111011
10000011
10000011
10111000
10111111
10000000
10000011
10111011

TIL 2b
00000000
00000000
00000000
00000000
00111000
01111100
10000011
10111010
>
00000000
00000000
00000000
00000000
00111000
01111100
10111011
10000010

TIL 2c
00100000
11100000
00101100
00100000
00100100
00100000
00011111
00000000

TIL 2d
00000001
00000001
00000001
00000001
11000110
00101000
00101000
00101000

TIL 2e
11111111
11111101
10000000
11010110
10000100
00000100
10100000
10000000

TIL 2f
11111111
01101101
11010010
01001000
00010100
00010100
00000000
00000000

TIL 2g
11011111
11111101
01000001
01011010
01000110
00001000
00100100
00001000

TIL 2h
11111111
01101101
00011011
10001111
00010111
10000001
10010101
00000001

TIL 2i
11111110
10010110
10110000
01100000
11101010
11001000
10100001
00000000

TIL 2j
11111011
01111010
01111100
10100100
00001000
00100010
10101010
01000000

TIL 2k
10000000
11000000
10100000
10000000
11000000
10100000
10000000
10100000

TIL 2l
00000001
00000111
00111001
00100011
01000001
01010101
00010001
00001011

TIL 2m
01000000
00000010
00000000
00000000
00000000
00000000
00000000
01000000

TIL 2n
00000100
00000000
00000000
00000000
00010000
00001000
00000000
00000000

TIL 2o
00011001
01011100
01000010
11010001
11001011
00000010
01111110
10011001

TIL 2p
00100100
01110110
11000011
01011010
01001010
10000011
01110010
00100100

TIL 2q
11101111
11011111
11111111
11011111
11101111
11111111
11101111
11011111

TIL 2r
00000100
00100111
00011000
01010011
00100100
01001000
11010100
01010010
>
00000100
00100111
00011000
01010011
00100100
01001000
11010110
01010001

TIL 2s
00100010
11111111
00000000
11111111
00000000
00000000
00000000
00000000

TIL 2t
00100010
11111100
00001001
11000110
00100010
00110011
01001010
01001010
>
00100010
11111100
00001001
11000110
00100010
01010011
10001010
10001010

TIL 2u
10001010
00001011
00001010
00001011
00001010
00001010
10001011
01001010
>
01001010
10001011
00001010
00001011
00001010
10001010
01001011
01001010

TIL 2v
00101010
00011011
00010010
00100010
11000101
00001000
11110100
00100010
>
00101010
00011011
00010010
00100010
11000101
00001000
11110100
00100010

TIL 2w
00000000
00000000
00000000
00111100
11000011
01000010
11000011
01000010

TIL 2x
01010001
01010001
11001010
01000100
10100011
00110000
01001111
10010101
>
01010001
01010010
11001010
01000100
10100011
00110000
01001111
10010101

TIL 2y
01010001
11010001
01010000
01010000
11010000
01010000
01010000
11010000
>
01010000
11010000
01010000
01010000
11010000
01010000
01010000
11010000

TIL 2z
00111100
01000010
10011001
10101101
10111101
10011001
01000010
10111100

TIL 3a
00000000
11111111
00000000
00000001
00000010
11111100
00000000
00000000

TIL 3b
00011000
00001000
11111100
00000011
00000010
00000011
00000010
00000010
WAL false

TIL 3c
01011010
01100110
11011111
01001110
01011110
01001110
01011110
01001110
>
01011010
01100110
11011111
01000110
01001110
01000110
01001110
01000110
WAL false

TIL 3d
00000000
00000000
00000000
00000000
00000000
00000000
00000000
00000000

TIL 3e
00011000
00001000
00111111
11000000
01000000
01000000
01000000
01110000
WAL false

TIL 3f
11010000
01110000
01000000
01000000
11111111
01111111
01010000
00111111
WAL true

TIL 3g
01001110
00111100
00000000
00000000
11111111
11111111
00010000
11111111
>
01000110
00111100
00000000
00000000
11111111
11111111
00010000
11111111
WAL true

TIL 3h
00000010
00000010
00000011
00000010
11111111
11111110
00010010
11111100
WAL true

TIL 3i
01000010
01000010
01100110
01011010
01000010
01000010
01000010
11000011
WAL true

TIL 3j
01000010
01000010
01100110
01011010
01000010
01000010
01000010
11000011

TIL 3k
11000011
01000010
01100110
01011010
01000010
01000010
01000010
01000010

TIL 3l
10100000
10100000
11100000
00010000
11111111
00011000
00010000
00011000
WAL true

TIL 3m
00011000
00001000
00011000
11111111
00000000
11100000
10110000
10100000
WAL false

TIL 3n
00100000
00001001
00100110
01000100
00000100
00100000
00000000
00100000

TIL 3o
00000000
10000000
01100000
00000000
01110000
00000000
10100000
00000000

TIL 3p
00000000
10001100
00110000
01000000
00000000
00100000
10010000
00000100

TIL 3q
00000000
10000000
00000000
10111000
00000000
10100000
00000000
10010000

TIL 3r
00000000
00000111
00000000
00001110
00000100
00000001
00011011
00000000

TIL 3s
00000000
00011001
00000000
00001101
00000000
00000000
00010001
00001010

TIL 3t
00000000
00000000
00000000
00010000
01010000
01000100
01000100
01010010

TIL 3u
00000000
00000000
00000100
00000000
00001000
01000000
01100100
01000010

TIL 3v
01000000
00000100
10001000
00001000
10010001
00000100
10000100
00010010

TIL 3w
00011000
00101000
01010100
00000111
00010101
00100000
01001010
00000000

TIL 3x
00000000
00000000
00000000
11111111
01100001
01001010
10101000
00000010

TIL 3y
00011000
00010100
00100010
11001000
01010100
10000010
01000000
00001000

TIL 3z
00010010
00011000
00010111
00011000
00011110
00011000
00011000
00010010

TIL 4a
00000010
00000001
00000000
00000000
00000000
00000000
00000000
00000000

TIL 4b
00000000
11111111
00000000
00000000
00000000
00000000
00000000
00000000

TIL 4c
00000000
11111111
01000000
00111111
00010000
00001111
00000100
00000011

TIL 4d
00000000
11111111
00000000
11111111
00000000
11111111
00000000
11111111

TIL 4e
00010000
10000101
01011000
11100000
00010000
11110101
00101000
11000100

TIL 4f
00111111
00000000
00000000
00000000
00000000
00000000
00000000
00000000

TIL 4g
11111111
00000000
00000000
00000000
00000000
00000000
00000000
00000000

TIL 4h
11110000
00000000
00000000
00000000
00000000
00000000
00000000
00000000

TIL 4i
00000000
00000010
00000100
00100010
00000011
00011010
01101100
00001000

TIL 4j
00000000
00000000
00000000
00000000
11111111
00000000
00000000
00000000

TIL 4k
00000000
00000000
00000000
00000000
10000000
01000000
00100000
00010000

TIL 4l
00001000
11111111
00000000
00000000
00000000
00000000
00000000
00000000

TIL 4m
00001000
00000100
00000010
00000001
00000000
00000000
00000000
00000000

TIL 4n
00000000
00000000
00000000
00000000
10000000
01000000
00100000
00010000

TIL 4o
00000000
00000000
00000000
00000000
00000001
00000010
00000100
00111000

TIL 4p
00000000
11111111
01000000
11111111
00010100
11111111
01000000
11111111
>
00000000
11111111
00010010
11111111
10000010
11111111
00001100
11111111

TIL 4q
00000000
11111111
01100000
11111111
00010100
11111111
00001010
11111111
>
00000000
11111111
00001100
11111111
01000010
11111111
01010100
11111111

TIL 4r
00000000
11111111
00110000
11111111
00111011
11111111
00011000
11111111
>
00000000
11111111
00001001
11111111
11100100
11111111
01100000
11111111

TIL 4s
00000000
00000000
00010000
00101000
00010000
00000000
00000000
00000000
>
00000000
00000000
00000000
00010000
00000000
00000000
00000000
00000000

TIL 4t
00000000
00000000
00000000
00000000
00000000
00000000
00000100
00000000
>
00000000
00000000
00000000
00000000
00000000
00000100
00001010
00000100

TIL 4u
00000000
11111111
10010010
00010100
00000000
00010000
00000100
00000100

TIL 4v
00000000
00000000
00000010
00000010
01010000
01000000
01001010
01000010

TIL 4w
00000000
11111111
00000000
00000000
00000000
01000000
01000010
01010010

TIL 4x
00000000
11111111
00000000
00000000
00100100
10000000
01000100
10011000

TIL 4y
00000000
00000000
00000000
00001000
00000000
00000000
00000000
00000000
>
00000000
00000000
00000000
00000000
00000000
00000000
00000000
00000000

TIL 4z
00000000
00000000
00000000
00000000
00000000
00000000
00000000
00000000
>
00000000
00000000
00000000
01000000
00000000
00000000
00000000
00000000

TIL 5a
00000000
00000010
00000000
00000000
00100000
00000010
01100000
00000000

TIL 5b
00000000
11111111
01000011
00100110
01100000
00000110
01001000
00000010

TIL 5c
00000010
01001000
10000000
01001010
00010010
01000000
00000000
00000000

TIL 5d
00000000
01000100
00100000
00000000
00000000
01001000
00000100
00000000

TIL 5e
00000000
00010000
00000010
10000000
01001000
00000000
00000010
00000000

TIL 5f
00000000
00001000
01000000
00011000
00000000
01001010
01000000
00100000

TIL 5g
00000000
00010000
00010100
00000001
00000001
01001000
00001100
00000000

TIL 5h
00000000
11111111
00100100
00100000
00000100
00001000
00100000
00001100

TIL 5i
00010100
00000100
00010000
00100000
00000100
00000000
00101000
00010000

TIL 5j
00000000
00011011
00000100
00100000
00000110
00100000
00001100
00000000

TIL 5k
01100100
00000110
01101000
10000000
00000000
01001000
00101011
00000000

TIL 5l
00000000
00000000
01110110
00000000
00000000
01011100
00000000
00011011

TIL 5m
00000000
00000000
00000000
00000000
00000000
00100000
00000000
00000000
>
00000000
00000000
00000000
00000000
00000000
00000000
00000000
00000000

TIL 5n
00000000
00000000
00001000
00000000
00100010
00000000
00001000
00000000
>
00000000
00000000
00000000
00000000
00001000
00000000
00000000
00000000

TIL 5o
00000000
00000000
00000000
00000000
00000000
00100000
00000000
00000000
>
00000000
00000000
00000000
00100000
00000000
10001000
00000000
00100000

TIL 5p
00000000
00000100
00000110
00000000
00000000
00000000
00000000
00000000
>
00000000
00000000
00000000
00000000
00000000
01000000
01100000
00000000

TIL 5q
00000000
00010000
00100000
00000000
00000000
00000000
00000000
00000000
>
00000000
00000000
00000000
00000000
00000010
00000000
00001000
00000000

SPR 10
11111111
00000000
10000000
01111111
01111111
10000000
00000000
11111111
POS 1 6,2

SPR 11
11111111
00000011
00000001
00000001
11000001
01000001
00100001
00010001
>
11111111
11000011
00111001
00000101
00000011
00000011
00000011
00000101
POS 1 5,1

SPR 12
00010001
00001010
00000100
00000111
00000111
00000100
00001010
00010001
>
00000101
00000010
00000100
00000111
00000111
00000100
00000010
00000101
POS 1 5,2

SPR 13
00000000
00000000
00000000
00000000
00000000
00000000
00000000
00000000

SPR 14
00010001
00010001
10100001
01000001
00000001
00000001
00000011
11111111
>
00000101
00000011
00000011
00000011
00000101
00001001
11110011
11111111
POS 1 5,3

SPR 15
10000001
00000001
00000011
11111111
11111110
00000000
00000000
11111111
POS 1 7,2

SPR 16
11111110
11111010
11111110
11111010
11111110
11111010
11111110
11111010
POS 1 7,0

SPR 17
01111111
01011111
01111111
01011111
01111111
01011111
01111111
01011111
POS 1 8,0

SPR 18
10000001
10000000
11000000
11111111
01111111
00000000
00000000
11111111
POS 1 8,2

SPR 19
11111111
00000000
00000001
11111110
11111110
00000001
00000000
11111111
POS 1 9,2

SPR 20
11111111
00100000
00010000
00010000
00001000
00001000
00000100
00000100
POS 2 9,6

SPR 21
00000100
00000100
00000010
00000010
00000010
00000010
00000010
11111111
POS 2 9,7

SPR 22
11111111
00001000
00010000
00010000
00100000
00100000
01000000
01000000
POS 2 4,6

SPR 23
01000000
01000000
10000000
10000000
10000000
10000000
10000000
11111111
POS 2 4,7

SPR 24
00000000
00010000
00000000
00000100
00001000
00010000
00000000
11111111
POS 2 5,7

SPR 25
11111111
00000000
00000000
00000000
00011100
00100010
01000000
00000000
POS 2 8,6

SPR 26
11111111
01000001
01000101
01001001
01000001
00111110
00000000
00000000
>
11111111
11111000
00000000
00000000
00000000
00000000
00000000
00000000
POS 2 10,6

SPR 27
00100000
00010000
00000000
00100000
00000000
00010000
00000000
00100000
POS 2 14,6

SPR 28
00000000
00100000
00000000
00000000
00000000
00100000
00000000
00000000
POS 2 14,7

SPR 29
00000000
00000000
00001011
00010000
00010000
00000000
00010000
00000000
POS 2 15,6

SPR 30
00000000
00000000
00000000
00000000
00000000
00000000
00000000
00000000
>
00000000
00000000
00000000
00000000
00000000
00000000
10000000
01000000
POS 3 0,4

SPR 31
00100000
00100000
00100000
00100000
00000000
00100000
00000000
00100000
POS 3 12,4

SPR 32
00000010
00100100
01001000
00010000
00100100
01001000
10010000
00100000
POS 3 4,4

SPR 33
00000010
00100100
01001000
00010000
00100100
01001000
10010000
00100000

SPR 34
00000010
00100100
01001000
00010000
00100100
01001000
10010000
00100000

SPR 35
00000010
00100100
01001000
00010000
00100100
01001000
10010000
00100000
POS 3 7,4

SPR 36
00000010
00100100
01001000
00010000
00100100
01001000
10010000
00100000
POS 3 9,5

SPR 37
00000010
00100100
01001000
00010000
00100100
01001000
10010000
00100000

SPR 38
00000010
00100100
01001000
00010000
00100100
01001000
10010000
00100000

SPR 39
00000010
00100100
01001000
00010000
00100100
01001000
10010000
00100000
POS 3 5,5

SPR A
00011000
00011000
00011000
00111100
01111110
10111101
00100100
00100100
POS 0 10,9

SPR b
11111111
00000000
00000000
00011001
00100100
00100100
10011000
00000000
>
11111111
00000000
00000010
00011000
00100100
00100100
00011000
01000000
POS 0 6,6

SPR c
00010010
00010010
00010010
00010010
00010010
00010010
00010010
00010010
POS 0 14,6

SPR d
00010010
00010010
00010010
00010001
00001000
00000100
00000010
00000001
POS 0 14,7

SPR e
00010010
00010010
00010010
00010010
00010010
00010010
00010010
00010010
POS 0 14,5

SPR f
00000000
00000000
00000000
00000000
11111111
00000000
00000000
11111111
POS 0 15,7

SPR g
11111000
00000100
00000010
00000010
00000010
00000100
11111000
00000000
POS 0 1,7

SPR h
11111111
00000000
00000000
00000000
00000000
00000000
11111111
00000000
POS 0 0,7

SPR i
10101101
10101101
10101101
10101101
11100000
10111111
10010000
11111111
POS 0 6,2

SPR j
10110110
10110110
10110110
10110110
00000000
11111111
01000010
11111111
POS 0 7,2

SPR k
10010101
10110101
10010101
11110101
00000111
11111101
00001001
11111111
POS 0 8,2

SPR l
11111111
10010000
10111111
11100000
10101101
10101101
10101101
10101101
>
11111111
10010000
10111111
11100000
10100000
10100001
10101101
10101101
POS 0 6,1

SPR m
11111111
01000010
11111111
00000000
10000110
10000110
10000110
10000110
>
11111111
01000010
11111111
00000000
00000000
10000000
10000000
10110110
POS 0 7,1

SPR n
11111111
00001001
11111101
00000111
11110101
10010101
10110101
10010101
POS 0 8,1

SPR o
11111111
11000000
10000000
10000000
10000001
10000010
10001100
10001000
>
11111111
11011111
10100000
10100000
11000000
11000000
11000000
11000000
POS 1 2,1

SPR p
10001000
10001000
10000100
10001000
10001000
10000100
10000100
10000010
>
10100000
10100000
10100000
10100000
10100000
11000000
11000000
10100000
POS 1 2,2

SPR q
10000010
10000100
10000100
10000011
10000000
10000000
11000000
11111111
>
10100000
11000000
11000000
11000000
10100000
10010000
11001111
11111111
POS 1 2,3

SPR r
11111111
00000000
00000000
00100000
11010001
00001110
00000000
00000000
>
11111111
11100001
00011110
00000000
00000000
00000000
00000000
00000000
POS 1 3,1

SPR s
11111111
00000000
00000000
00100000
11010001
00001110
00000000
00000000
>
11111111
11100001
00011110
00000000
00000000
00000000
00000000
00000000
POS 1 4,1

SPR t
00000000
00000000
00011101
10100010
01000000
00000000
00000000
11111111
>
00000000
00000000
00000000
00000000
00011000
01100100
10000011
11111111
POS 1 4,3

SPR u
00000000
00000000
00011101
10100010
01000000
00000000
00000000
11111111
>
00000000
00000000
00000000
00000000
00011000
01100100
10000011
11111111
POS 1 3,3

SPR w
00000000
00000000
00000000
00000000
00000000
00000000
00000000
00000000
POS 1 3,2

SPR x
00000000
00000000
00000000
00000000
00000000
00000000
00000000
00000000
POS 1 4,2

SPR y
11111110
11100011
11000101
11000011
11000110
11000011
11000101
11000011
>
11111110
11100011
11000110
11000011
11000101
11000011
11000110
11000011
POS 1 7,1

SPR z
01111111
11000111
10100011
11000011
01100011
11000011
10100011
11000011
>
01111111
11000111
01100011
11000011
10100011
11000011
01100011
11000011
POS 1 8,1

SPR 1a
10010000
01100000
00100000
11100000
11100000
00100000
01010000
10001000
>
10100000
01000000
00100000
11100000
11100000
00100000
01000000
10100000
POS 1 10,2

SPR 1b
11111111
11001100
10110011
11000000
11000000
11000000
11000000
10100000
>
11111111
11000000
10000000
10000000
10000000
10001100
10010010
10010001
POS 1 10,1

SPR 1c
11111111
00000000
00000000
11110011
00001100
00000000
00000000
00000000
>
11111111
00000000
00000000
00000000
00000000
00011000
01100100
10000010
POS 1 11,1

SPR 1d
11001011
00001010
00000010
11000000
00110010
00001000
00000100
00000100
>
11001011
00001010
00000010
00000000
00000010
00000000
00000000
00000000
POS 1 12,1

SPR 1e
11011001
10010001
00001010
01000000
00000001
00000000
01000001
00000100
POS 1 13,1

SPR 1f
00000011
00000001
00100000
00000000
00000000
00000001
00001111
00000000
POS 1 13,2

SPR 1g
00000111
00000001
00000001
00010011
00000000
00000001
00000000
11001100
POS 1 13,3

SPR 1h
00000100
00000100
00001000
00110000
11000000
00001000
00001001
11111101
>
00000000
00000000
00000000
00000000
00000000
00001000
00001001
11111101
POS 1 12,3

SPR 1i
00000000
00000000
00000000
00000000
00000000
10000011
01111100
11111111
>
00010000
00010000
10010000
01100000
00000000
00000000
00000000
11111111
POS 1 11,3

SPR 1j
10100000
11000000
11000000
11000000
10100000
10010001
11001110
11111111
>
10001000
10010000
10001001
10000110
10000000
10000000
11000000
11111111
POS 1 10,3

SPR 1k
00000000
00000000
00000000
00000000
00000000
00000000
00000000
00000000
>
00000010
00000100
00000010
00000010
00000010
00000100
00001000
00001000
POS 1 11,2

SPR 1l
00000100
00000010
00000010
00000010
00000010
00000100
00001000
00001000
>
00000000
00000000
00000000
00000000
00000000
00000000
00000000
00000000
POS 1 12,2

SPR 1m
11111111
00000000
00000000
00000000
00000111
00001000
00010000
00010000
POS 1 6,6

SPR 1n
11111111
00000110
00000000
00000000
11100000
00010000
00001000
00001000
>
11111111
00000000
00000000
00000000
11100000
00010000
00001000
00001000
POS 1 7,6

SPR 1o
00010000
00010001
00010010
00010000
00001000
00000111
00110000
11111111
>
00010000
00010001
00010010
11010000
11001000
00000111
00000000
11111111
POS 1 6,7

SPR 1p
00001000
00001000
00001000
00001000
00010000
11100000
00000000
11111111
POS 1 7,7

SPR 1q
11111111
00000000
00000000
00000000
00000000
00000000
00000000
00000000
>
11111111
00000000
00000000
00000000
11000000
11000000
00000000
00000000
POS 1 8,6

SPR 1r
00010111
00000000
10000000
10000000
00000000
01000000
00101111
00000000
POS 1 14,7

SPR 1s
11110111
00000000
00000000
00000000
00000000
00000000
11011111
00000000
POS 1 15,7

SPR 1t
00100000
00100000
00100000
00100000
00100000
00010000
00001000
00000100
POS 1 0,5

SPR 1u
00000100
00000000
00000000
00000100
00000100
00000100
00000000
00000100
POS 1 0,6

SPR 1v
00000100
00001000
00010000
00100000
00100000
00100000
00100000
00100000
POS 1 0,7

SPR 1w
00100000
00100000
00100000
00100000
00100000
00100000
00100000
11111111
POS 1 0,8

SPR 1x
00000000
00000000
00000000
00000000
00000000
00000000
00000000
11111111

SPR 1y
11111111
10111011
11111111
11111100
11111000
11111000
11011000
11111100
>
11111111
10110000
11100000
11101000
11100000
11100100
11010000
11111100
POS 2 8,12

SPR 1z
11111111
11111111
11111011
01011111
00111101
00011111
00011111
00111111
>
11111111
00011111
01001011
00001111
00001101
00101111
00011111
00111111
POS 2 9,12

SPR 2a
00000000
00010000
00000000
00010000
00010000
00010000
00000101
00000000
POS 2 15,7

SPR 2b
00000000
00000100
00100000
00000000
01000000
00000000
01000100
00000000
POS 2 1,7

SPR 2c
00111100
01000011
10011001
10110101
10100101
10011001
01000010
10111100
>
10111100
01111111
11100001
11001101
11011011
11010011
01001110
10111100
POS 2 6,4

SPR 2d
00000000
11111111
00100000
01001110
01011000
01001111
01100000
10111011
POS 3 13,7

SPR 2e
00000000
11111111
00000100
11110010
00011000
11110010
00000110
10011001
POS 3 14,7

SPR 2f
00000000
00000000
11111000
00000111
00000000
00000000
00000000
00000000
POS 3 9,1

SPR 2g
00000000
11111111
00000000
00000000
00000000
00000000
00000000
00000000
POS 3 8,1

SPR 2h
00000000
11111111
00000000
00000000
00000000
00000000
00000000
00000000
POS 3 7,1

SPR 2i
00000000
00000000
00011111
11100000
00000000
00000000
00000000
00000000
POS 3 6,1

SPR 2j
00000000
00000000
00000000
00000000
00011111
11100000
00000000
00000000
POS 3 5,1

SPR 2k
00000000
00000000
00000000
00000000
11111000
00000111
00000000
00000000
POS 3 10,1

SPR 2l
00000000
00000000
00000000
00000000
00000000
00000000
11000000
00110000
POS 3 11,1

SPR 2m
00000000
00000000
00000000
00000000
00000000
00000000
00000011
00001100
POS 3 4,1

SPR 2n
00001000
00000100
00000010
00000001
00000000
00000000
00000000
00000000
POS 3 11,2

SPR 2o
00010000
00000000
00000000
10000000
00010010
00100100
01000000
00000000
POS 3 4,2

SPR 2p
00000000
00000000
00000000
00000000
10000000
10000000
01000000
01000000
POS 3 12,2

SPR 2q
01000000
01000000
00100000
00100000
00100000
00100000
00100000
00100000
POS 3 12,3

SPR 2r
00000000
00000111
00001000
00010000
00100000
01000000
01000000
01000000
>
00000000
00000000
00000000
00000000
00000000
00000000
00000000
00000000
POS 3 14,0

SPR 2s
01000000
01000010
01000100
00100000
00010000
00001000
00000111
00000000
>
00000000
00000000
00000000
00000000
00000000
00000000
00000000
00000000
POS 3 14,1

SPR 2t
00000000
11100000
00010000
00001000
00000100
00000010
00000010
00000010
>
00000000
00000000
00000000
00000000
00000000
00000000
00000000
00000000
POS 3 15,0

SPR 2u
00000010
00000010
00000010
00000100
00001000
00010000
11100000
00000000
>
00000000
00000000
00000000
00000000
00000000
00000000
00000000
00000000
POS 3 15,1

SPR 2v
00000000
00000000
00000000
00000000
00000000
00000000
00000000
00000000
>
00000000
00000001
00000010
00000100
00000100
00000100
00000100
00000100
POS 3 15,3

SPR 2w
00000000
00000000
00000000
00000000
00000000
00000000
00000000
00000000
>
00000100
00000010
00000001
00000000
00000000
00000000
00000000
00000000
POS 3 15,4

SPR 2x
10000000
01000000
00100000
00010000
00001000
00001000
00001000
00001000
>
00000000
00000000
00000000
00000000
00000000
00000000
00000000
00000000
POS 3 0,8

SPR 2y
00001000
00001000
00010000
00100000
01000000
10000000
00000000
00000000
>
00000000
00000000
00000000
00000000
00000000
00000000
00000000
00000000
POS 3 0,9

SPR 2z
00000000
00000000
00000000
00000000
00000000
00000000
00000000
00000000
>
01000000
01000000
01000000
01000000
01000000
10000000
00000000
00000000
POS 3 0,5

SPR 3a
00000010
00100100
01001000
00010000
00100100
01001000
10010000
00100000
POS 3 6,5

SPR 3b
00000010
00100100
01001000
00010000
00100100
01001000
10010000
00100000
POS 3 11,5

SPR 3c
00000010
00100100
01001000
00010000
00100100
01001000
10010000
00100000
POS 3 10,4

SPR 3d
00000010
00100100
01001000
00010000
00100100
01001000
10010000
00100000
POS 3 8,5

SPR 3e
00000010
00100100
01001000
00010000
00100100
01001000
10010000
00100000
POS 3 5,3

SPR 3f
00000010
00100100
01001000
00010000
00100100
01001000
10010000
00100000
POS 3 4,2

SPR 3g
00000000
00000000
00010010
00100100
01000000
00000000
00000010
00000000
POS 3 9,4

SPR 3h
00000000
00000000
00010010
00100100
01000000
00000000
00000010
00000000
POS 3 6,4

SPR 3i
00000000
00000000
00010010
00100100
01000000
00000000
00000010
00000000
POS 3 10,5

SPR 3j
00000000
00000000
00010010
00100100
01000000
00000000
00000010
00000000
POS 3 7,5

SPR 3k
00000000
00000000
00010010
00100100
01000000
00000000
00000010
00000000
POS 3 4,3

SPR 3l
00000000
01000000
10000000
00000000
00000000
00000000
00000000
00000000
POS 3 12,5

SPR 3m
01001010
10100110
00100010
00000000
00101000
00000000
00100010
00000000
POS 3 13,8

SPR 3n
10011000
10100100
00001000
01001010
00101001
00000000
01000000
00000000
POS 3 14,8

SPR 3o
00000000
00000000
00000000
00011000
00100010
01000000
00000000
00000000

SPR 3p
00000000
00000000
00000000
01110000
10000100
00000000
00000000
00000000
POS 3 7,3

SPR 3q
00000000
00000000
00000100
00010000
00000000
00000000
00000000
00000000
POS 3 9,3

SPR 3r
00000000
00100000
00000000
01000000
00000000
00000000
00000000
00000000

ITM 0
00000000
00000000
00000000
00111100
01100100
00100100
00011000
00000000
NAME tea
DLG ITM_0

DLG ITM_0
You found a nice warm cup of tea

END 0


END undefined
sunbeam on a space whale

VAR a
42


