
Get home with clean shoes!

# BITSY VERSION 4.8

! ROOM_FORMAT 1

PAL 0
194,147,104
118,240,0
118,240,0

ROOM 0
0,b,0,i,0,0,a,a,a,a,a,a,a,a,a,a
m,n,d,j,0,0,a,a,a,a,a,a,a,a,a,a
h,f,l,b,0,a,0,0,a,a,a,a,a,a,a,0
g,e,k,0,a,a,a,a,a,a,a,a,a,0,0,0
0,0,0,0,0,a,a,a,a,0,a,a,a,a,a,0
0,0,0,0,0,0,a,a,a,a,a,a,a,a,a,0
0,0,0,0,a,a,a,a,a,a,a,a,a,a,0,0
a,a,a,a,a,a,a,a,a,a,a,a,0,0,0,0
0,0,a,a,a,a,a,a,a,a,a,0,a,a,a,0
a,a,0,a,a,a,a,a,a,a,a,a,a,0,0,0
a,a,a,a,a,a,a,0,a,a,a,a,a,0,0,0
a,a,a,a,a,a,a,a,a,a,a,0,0,0,0,0
a,0,a,a,a,a,a,a,a,a,0,0,0,0,0,0
a,a,a,a,a,0,a,a,a,0,0,0,0,0,0,0
a,a,0,a,a,a,a,a,a,0,0,0,0,0,0,0
a,a,a,a,a,a,0,0,0,0,0,0,0,0,0,0
ITM 0 7,7
ITM 0 6,7
ITM 0 7,6
ITM 0 6,6
ITM 0 5,6
ITM 0 5,7
ITM 0 5,8
ITM 0 6,8
ITM 0 7,8
ITM 0 8,8
ITM 0 8,7
ITM 0 8,6
ITM 0 9,6
ITM 0 9,7
ITM 0 9,8
ITM 0 10,8
ITM 0 10,7
ITM 0 10,6
ITM 0 11,6
ITM 0 11,7
ITM 0 6,5
ITM 0 6,3
ITM 0 6,4
ITM 0 7,3
ITM 0 7,5
ITM 0 7,4
ITM 0 8,3
ITM 0 8,4
ITM 0 8,5
ITM 0 10,5
ITM 0 7,1
ITM 0 8,1
ITM 0 9,1
ITM 0 10,1
ITM 0 12,1
ITM 0 11,1
ITM 0 13,1
ITM 0 14,1
ITM 0 14,2
ITM 0 13,2
ITM 0 12,2
ITM 0 11,2
ITM 0 10,2
ITM 0 11,4
ITM 0 12,4
ITM 0 13,4
ITM 0 12,3
ITM 0 11,3
ITM 0 3,8
ITM 0 4,8
ITM 0 1,7
ITM 0 2,7
ITM 0 3,7
ITM 0 1,11
ITM 0 1,10
ITM 0 1,9
ITM 0 9,5
ITM 0 10,4
ITM 0 10,3
ITM 0 9,3
ITM 0 8,2
ITM 0 11,5
ITM 0 12,5
ITM 0 12,8
ITM 0 12,9
ITM 0 11,10
ITM 0 11,9
ITM 0 10,9
ITM 0 9,9
ITM 0 8,9
ITM 0 7,9
ITM 0 6,9
ITM 0 5,9
ITM 0 4,9
ITM 0 3,9
ITM 0 2,10
ITM 0 2,11
ITM 0 3,11
ITM 0 3,10
ITM 0 4,10
ITM 0 5,10
ITM 0 6,10
ITM 0 5,11
ITM 0 6,11
ITM 0 7,11
ITM 0 8,11
ITM 0 8,10
ITM 0 9,10
ITM 0 9,11
ITM 0 8,12
ITM 0 7,12
ITM 0 6,12
ITM 0 5,12
ITM 0 4,12
ITM 0 2,12
ITM 0 3,12
ITM 0 1,14
ITM 0 1,13
ITM 0 2,13
ITM 0 3,13
ITM 0 4,13
ITM 0 3,14
ITM 0 4,14
ITM 0 5,14
ITM 0 7,14
ITM 0 6,14
ITM 0 6,13
ITM 1 7,10
ITM 1 5,13
ITM 1 9,4
ITM 1 11,8
ITM 1 12,7
ITM 1 13,3
ITM 1 1,12
ITM 0 12,6
ITM 0 14,4
ITM 1 2,14
ITM 0 4,7
ITM 0 4,11
ITM 0 9,2
ITM 0 7,13
ITM 0 4,6
ITM 0 7,0
ITM 0 8,0
ITM 0 9,0
ITM 0 10,0
ITM 0 11,0
ITM 0 13,0
ITM 0 12,0
ITM 0 14,0
ITM 0 0,10
ITM 0 0,11
ITM 0 0,12
ITM 0 0,13
ITM 0 0,14
ITM 0 0,15
ITM 0 1,15
ITM 0 2,15
ITM 0 3,15
ITM 0 4,15
ITM 0 15,0
ITM 1 7,2
END 0 1,3
END 0 0,3
END 1 7,2
END 1 9,4
END 1 13,3
END 1 12,7
END 1 11,8
END 1 7,10
END 1 5,13
END 1 2,14
END 1 1,12
END 1 7,8
END 1 8,6
END 1 6,6
END 1 5,9
END 1 11,0
END 1 2,15
END 1 10,1
END 1 14,0
END 1 1,9
END 1 10,7
END 1 9,2
END 1 4,13
END 1 9,8
END 1 4,7
END 1 2,11
PAL 0

TIL a
00000000
10101010
00000000
10101010
00000000
10101010
00000000
10101010

TIL b
00000001
00000010
00000100
00001000
00010000
00100000
01000000
10000000
WAL true

TIL c
10000000
01000000
00100000
00010000
00001000
00000100
00000010
00000001
WAL true

TIL d
00000001
00000010
00000100
00001000
00010000
00100000
01000000
10000000
WAL true

TIL e
11100000
00100000
00100000
00100000
10100000
00100000
00100000
11111111
WAL false

TIL f
00000000
00000000
00111000
00101000
00101000
00111000
00000000
00000000
WAL true

TIL g
10000111
10000100
10000100
10000100
10000100
10000100
10000100
11111111
WAL false

TIL h
10000000
10000000
10011100
10010100
10010100
10011100
10000000
10000000
WAL true

TIL i
00000001
00000011
00000101
00001001
00010001
00100001
01000001
10000001
WAL true

TIL j
00000001
00001001
00011001
00101001
00101001
00101001
00110001
00100001
WAL true

TIL k
10000001
10000010
10000100
10001000
10010000
10100000
11000000
10000000
WAL true

TIL l
10000100
10001100
10010100
10010100
10010100
10011000
10010000
10000000
WAL true

TIL m
00000001
00000010
00000100
00001000
00010000
00100000
01000000
11111111
WAL true

TIL n
10000000
01000000
00100000
00010000
00001000
00000100
00000010
11111111
WAL true

SPR A
00011000
00011010
00111100
01011000
00011000
00111100
00100000
00100000
>
00011000
01011000
00111100
00011010
00011000
00111100
00000100
00000100
POS 0 12,14

SPR a
01010000
01110000
01110000
00100000
00111110
00111101
00100100
00100100
>
01010000
01110000
01110001
00100010
00111100
00111100
00100100
00100100
DLG SPR_0
POS 0 3,4

SPR b
00011000
00011000
00111100
01011010
00011000
00111100
00100100
00100100
>
00011000
01011000
00111100
00011010
00011000
00111100
00100100
00100100
DLG SPR_1
POS 0 13,13

ITM 0
10101010
10101010
10101010
10101010
10101010
10101010
10101010
10101010
NAME tea

ITM 1
00000000
00000000
00000000
00000000
00010000
00011000
00111100
00000000

DLG SPR_0
{shk}woof! woof! woof! woof! woof!{shk}

DLG SPR_1
I forgot my jacket inside. Get it for me?

END 0
Home safe! Now for the trip back...

END 1
{shk}Eeeeeeeew!{shk}

VAR a
42


