Just another day... Wait, what?

# BITSY VERSION 3.2

! ROOM_FORMAT 1

PAL 0
173,165,228
90,74,202
251,255,252

PAL 1
177,255,140
56,174,0
255,164,151

PAL 2
250,244,135
150,142,5
94,167,227

PAL 3
72,227,255
0,152,179
255,255,255

PAL 4
245,184,227
169,22,125
236,239,101

ROOM 0
0,0,0,0,0,0,0,0,0,0,0,0,0,0,0,0
0,a,a,a,a,a,a,a,a,a,a,a,a,a,a,0
0,a,0,0,0,0,0,0,0,0,0,0,0,0,a,0
0,a,0,0,0,0,0,0,0,0,0,0,0,0,a,0
0,a,0,0,0,0,0,0,0,0,0,0,0,0,a,0
0,a,0,0,0,f,e,0,0,h,h,0,0,0,a,0
0,a,0,0,0,0,d,g,r,m,n,p,0,0,a,0
0,a,0,0,0,s,b,c,c,c,c,l,q,0,a,0
0,a,0,0,0,0,0,o,o,0,k,c,i,j,a,0
0,a,0,0,0,0,0,0,0,0,0,o,o,0,a,0
0,a,0,0,0,0,0,0,15,0,15,0,0,0,a,0
0,a,0,0,0,0,0,0,0,0,0,0,0,0,a,0
0,a,0,0,0,0,0,15,0,15,0,0,0,0,a,0
0,a,0,0,0,0,0,0,0,0,0,0,0,0,a,0
0,a,a,a,a,a,a,a,0,a,a,a,a,a,a,0
0,0,0,0,0,0,0,a,0,a,0,0,0,0,0,0
WAL a,b,c,d,e,f,g,h,i,j,k,l,m,n,r,v
EXT 8,15 1 7,0
PAL 0

ROOM 1
0,0,0,0,0,0,a,0,a,0,0,0,0,0,0,0
a,a,a,a,a,a,a,0,a,a,a,a,a,a,a,a
a,0,0,0,0,0,0,0,0,0,0,0,0,0,0,a
a,0,0,0,0,0,w,0,w,0,0,0,0,0,0,a
a,0,0,0,0,0,0,0,0,0,0,0,0,0,0,a
a,0,x,0,0,0,0,0,w,0,w,0,0,x,0,a
a,0,0,0,0,0,0,0,0,0,0,0,0,0,0,a
a,0,0,0,0,0,0,0,0,0,w,0,w,0,0,a
a,0,0,0,0,0,0,0,0,0,0,0,0,0,0,0
a,0,0,0,0,0,0,0,0,0,0,0,0,w,0,a
a,0,0,0,0,0,0,0,0,0,x,0,0,0,0,a
a,0,0,t,0,0,0,0,0,0,0,0,0,0,0,a
a,0,u,c,v,w,0,x,0,0,0,0,0,0,0,a
a,0,0,0,0,0,0,0,0,0,0,0,0,0,0,a
a,a,a,a,a,a,a,a,a,a,a,a,a,a,a,a
0,0,0,0,0,0,0,0,0,0,0,0,0,0,0,0
WAL a,v,u,t
EXT 15,8 2 0,8
PAL 1

ROOM 2
0,0,0,0,0,0,0,a,0,a,0,0,0,0,0,0
0,a,a,a,a,a,a,a,0,a,a,a,a,a,a,0
0,a,0,0,0,0,0,0,0,0,0,0,0,0,a,0
0,a,0,0,0,0,0,y,0,0,0,0,0,0,a,0
0,a,0,0,10,0,0,0,0,y,0,0,0,0,a,0
0,a,0,0,x,0,y,0,0,0,0,0,0,0,a,0
0,a,0,0,0,0,0,0,0,0,z,0,0,0,a,0
a,a,0,0,y,0,0,y,0,0,0,11,0,0,a,0
0,0,0,0,0,0,0,0,0,0,0,0,0,0,a,0
a,a,0,y,0,0,0,z,0,0,0,0,0,0,a,0
0,a,0,0,0,0,0,12,0,0,0,0,0,0,a,0
0,a,0,0,0,0,0,0,0,0,10,0,0,0,a,0
0,a,0,0,0,0,0,0,0,0,x,0,0,0,a,0
0,a,0,0,0,0,0,0,0,0,0,0,0,0,a,0
0,a,a,a,a,a,a,a,a,a,a,a,a,a,a,0
0,0,0,0,0,0,0,0,0,0,0,0,0,0,0,0
WAL a,v
EXT 8,0 4 8,15
PAL 2

ROOM 3
0,0,0,0,0,0,0,0,0,0,0,0,0,0,0,0
0,a,a,a,a,a,a,a,a,a,a,a,a,a,a,0
a,a,0,13,0,0,13,0,13,13,0,13,0,0,a,a
a,13,0,0,13,13,13,13,13,13,13,13,13,0,0,a
a,0,13,13,13,13,13,13,13,13,13,13,0,13,13,a
a,13,0,13,13,13,13,13,13,13,13,13,13,0,0,a
a,0,13,13,0,13,0,0,0,0,0,0,0,13,0,a
a,0,0,13,0,0,0,0,14,0,0,0,13,0,0,a
a,a,a,0,0,0,0,0,0,0,0,0,0,a,a,a
0,0,a,0,0,0,0,0,0,0,0,0,0,a,0,0
0,0,a,0,0,0,0,0,0,0,0,0,0,a,0,0
0,0,a,a,a,a,a,a,0,a,a,a,a,a,0,0
0,0,0,0,0,0,0,a,0,a,0,0,0,0,0,0
0,0,0,0,0,0,0,a,0,a,0,0,0,0,0,0
0,0,0,0,0,0,0,a,0,a,0,0,0,0,0,0
0,0,0,0,0,0,0,a,0,a,0,0,0,0,0,0
WAL 13,a,v
END undefined 8,7
PAL 3

ROOM 4
0,0,0,0,0,0,0,a,0,a,0,0,0,0,0,0
0,0,0,0,0,0,0,a,0,a,0,0,0,0,0,0
0,0,0,0,0,0,0,a,0,a,0,0,0,0,0,0
0,0,0,0,0,a,a,a,0,a,a,a,0,0,0,0
0,0,0,0,0,a,0,0,0,0,0,a,0,0,0,0
0,0,0,0,0,a,0,0,0,0,0,a,0,0,0,0
0,0,0,0,0,a,0,0,0,0,0,a,0,0,0,0
0,0,0,0,0,a,0,0,0,0,0,a,0,0,0,0
0,0,0,0,0,a,0,0,0,0,0,a,0,0,0,0
0,0,0,0,0,a,0,0,0,0,0,a,0,0,0,0
0,0,0,0,0,a,0,0,0,0,0,a,0,0,0,0
0,0,0,0,0,a,a,a,0,a,a,a,0,0,0,0
0,0,0,0,0,0,0,a,0,a,0,0,0,0,0,0
0,0,0,0,0,0,0,a,0,a,0,0,0,0,0,0
0,0,0,0,0,0,0,a,0,a,0,0,0,0,0,0
0,0,0,0,0,0,0,a,0,a,0,0,0,0,0,0
WAL a
EXT 8,0 3 8,15
PAL 4

TIL 10
10000000
11000000
11000000
10100000
10010000
10001000
01000110
00111111

TIL 11
10000000
01000000
00100000
00010000
00001010
00000100
00001010
00000001

TIL 12
00000001
00000010
00000100
00001000
01010000
00100000
01010000
10000000

TIL 13
00011000
00011000
00011000
00111100
01111110
10111101
00100100
00100100

TIL 14
10000000
01010000
00100000
11111111
10001001
10001011
11111111
01000010

TIL 15
00010000
00000010
00111000
01111100
01111101
01111100
01111000
00000000

TIL a
11111111
10000001
10100101
10100101
10000001
10111101
10000001
11111111
>
00000000
01111110
01011010
01011010
01111110
01000010
01111110
00000000

TIL b
11110111
11100011
11000001
11000001
11100011
01110111
01111111
00111111

TIL c
11111111
11111111
11111111
11111111
11111111
11111111
11111111
11111111

TIL d
11110100
01111000
00111101
00111110
00011111
00011111
00111111
01111111

TIL e
00000000
00000000
00000000
10000000
10100000
11000000
11010000
11100000

TIL f
00000000
00000000
00000000
00000000
00000011
00000111
00000101
00000111

TIL g
00000001
00001011
00000110
00101110
00011100
11111000
11110000
11110000

TIL h
00000000
10000000
10100000
10100000
01110000
00010000
00010000
00010000

TIL i
00000000
10000000
11100000
11110000
11111100
11111111
11111111
11111111

TIL j
00000000
00000000
00000000
00000000
00000001
10001111
11111110
11111100

TIL k
01111111
01111111
00111111
00111111
00011111
00001111
00000111
00000000

TIL l
11000000
11000000
11100000
11100000
11110000
11110000
11111000
11111100

TIL m
00011111
00111111
01111111
01111111
11111111
11111111
11111111
11111111

TIL n
11110000
11111000
11111100
11111110
11111110
11111111
11111111
11111111

TIL o
00010000
00111000
01111100
00111000
00111000
00010000
00000000
00000000

TIL p
00000100
00001100
00010111
00011010
00011100
00100000
01000000
10000000

TIL q
00000000
00000000
00001110
00010100
00011110
00111001
01000110
10000000

TIL r
00000000
00010000
00010000
00111000
00010000
00010000
00010000
00010000

TIL s
00000000
01110000
10001000
10011000
10000011
10001110
01111000
00000000

TIL t
00000000
00011000
00111100
00111110
01111010
01111101
11111111
11111111

TIL u
00000001
00000111
00001111
00011111
00111111
00111111
01111111
11111111

TIL v
10000000
10000000
11000000
11010000
11110000
11110000
11111000
11111100

TIL w
00001000
01000000
00011100
00111110
10111110
00111110
00011110
00000000

TIL x
00001000
00001000
11010000
11111111
11111100
00101100
11000100
00000010

TIL y
00000000
00011110
00111110
10111110
00111110
00011100
01000000
00001000

TIL z
00010000
00010000
00001011
11111111
00111111
00110100
00100011
01000000

SPR A
00011000
00011000
00011000
00111100
01111110
10111101
00100100
00100100
>
00011000
00011000
00111100
01111110
10111101
00111100
00100100
00100100
POS 0 5,3

SPR a
00000000
01010000
01010000
01110000
01110000
01111010
00111100
00111100
>
00000000
00000000
01010000
01010000
01110000
01111000
01111110
00111100
POS 0 8,11

SPR b
00000000
00110000
01101000
01111000
00011000
00011001
00110010
00111110
>
00000000
00000000
00110000
01101000
01111000
00111010
01110001
01111111
POS 1 3,7

SPR c
00000000
01111100
01111100
01111100
11111110
01111100
01111100
00101000
>
01111100
01111100
01000000
01111100
01111100
11111110
01111100
00101000
POS 2 5,11

SPR d
10000000
01010000
00100000
11111111
10001001
10001011
11111111
01000010
>
00000000
10000000
01010000
11111111
10001001
10001011
11111111
01000010
POS 1 11,13

SPR e
00001110
00010001
01110101
00010001
01110001
00010001
00011111
00001010
>
00000000
00001110
00010001
01110101
00010001
00010001
00011111
00001010
POS 4 8,7

SPR f
00000000
01110000
11001100
11010100
10110101
11000101
01111111
00000000
>
00000000
01110000
11001100
11010100
10110100
11000101
01111111
00000000

SPR g
10000000
01010000
00100000
11111111
10001001
10001011
11111111
01000010
>
01000000
00101000
00110000
11111111
10001001
10001011
11111111
01000010
POS 2 13,2

SPR h
00000000
11111111
10000001
10111101
10000001
11111111
00011000
00011000
POS 1 5,12

SPR i
10000000
01010000
00100000
11111111
10001001
10001011
11111111
01000010
POS 3 8,9

SPR j
10000000
01010000
00100000
11111111
10001001
10001011
11111111
01000010
>
00000000
10000000
01010000
00100000
11111111
10001001
10001011
11111111
POS 0 7,3

SPR k
10000000
01010000
00100000
11111111
10001001
10001011
11111111
01000010
>
00000000
11000000
00110000
11111111
10001001
10001011
11111111
01000010

DLG a
BZZZZT...Terrible incident...

DLG b
BZZZT.... So many deaths....

DLG d
Do you remember?

DLG g
Do you wish to remember?

DLG h
Sword in the Stone

DLG c
BZZT.... Giant monster....

DLG e
BZT.... Hero....

DLG f


DLG i
You're our hero

DLG j
It's a radio. You can only hear static.

DLG k
Can't you see?

END 0


END undefined
You saved us.

END undefinee


