A time machine

# BITSY VERSION 5.1

! ROOM_FORMAT 1

PAL 0
45,36,54
120,120,137
255,255,255

PAL 1
254,255,250
43,30,232
43,30,232

PAL 2
151,194,82
241,255,61
73,128,56

PAL 3
204,82,25
255,159,57
255,255,255

PAL 4
0,0,0
255,255,255
255,255,255

PAL 5
166,184,66
221,230,89
220,255,78

ROOM 0
a,a,a,a,c,h,t,k,v,v,k,p,a,a,w,a
a,a,a,a,d,i,k,k,k,t,k,q,a,b,a,a
a,b,a,a,e,j,k,v,r,k,k,o,a,a,a,a
a,a,a,a,f,k,t,k,s,k,k,n,a,a,a,a
a,a,a,a,g,k,s,v,k,u,k,m,a,a,a,a
a,a,a,a,30,30,30,30,30,30,30,14,a,a,a,a
a,a,b,a,30,30,30,30,30,30,30,13,a,a,a,a
w,a,a,a,30,19,30,30,30,30,30,12,z,a,b,a
a,y,a,a,30,30,30,30,30,30,30,30,10,a,a,a
a,a,a,a,30,1b,30,30,30,30,30,30,a,a,w,a
a,a,a,a,30,30,30,30,30,30,30,30,a,a,a,a
a,a,a,a,30,30,30,30,30,30,30,30,a,a,a,a
a,a,a,a,30,30,30,30,30,30,30,30,a,a,a,a
b,a,a,a,17,30,30,30,30,30,30,30,a,a,b,a
a,a,w,a,16,30,30,30,30,30,30,30,a,b,a,a
a,a,a,a,15,30,1c,30,30,30,1d,30,a,a,a,a
ITM f 10,4
EXT 10,4 o 9,9
PAL 0

ROOM 2
a,a,a,a,c,h,t,k,v,v,k,p,a,a,w,a
a,a,a,a,d,i,1k,1l,1n,1q,k,q,a,b,a,a
a,b,a,a,e,j,1h,1j,1m,1p,1t,o,a,a,a,a
a,a,a,a,f,k,1i,1o,k,1s,1u,n,a,a,a,a
a,a,a,a,g,k,s,v,k,u,k,m,a,a,a,a
a,a,a,a,0,0,0,1y,0,1c,0,14,a,a,a,a
a,a,b,a,1x,0,0,0,1y,1x,0,13,a,a,a,a
w,a,a,a,0,19,0,1y,0,0,0,12,z,a,b,a
a,y,a,a,0,1a,0,1w,1y,0,0,11,10,a,a,a
a,a,a,a,0,1b,0,1y,1y,0,0,0,a,a,w,a
a,a,a,a,0,0,0,1y,1y,0,0,0,a,a,a,a
a,a,a,a,0,0,0,0,1y,0,0,0,a,a,a,a
a,a,a,a,18,0,1x,1y,0,1x,0,0,a,a,a,a
b,a,a,a,17,0,0,1w,1y,1w,0,0,a,a,b,a
a,a,w,a,16,0,1v,1x,1y,1v,0,0,a,b,a,a
a,a,a,a,15,0,1c,19,1y,1w,1d,1c,a,a,a,a
NAME chamber 1
EXT 8,14 3 8,14
PAL 0

ROOM 3
a,a,a,a,c,h,t,k,v,v,k,p,a,a,w,a
a,a,a,a,d,i,1k,1l,1n,1q,k,q,a,b,a,a
a,b,a,a,e,j,1h,1j,1m,1p,1t,o,a,a,a,a
a,a,a,a,f,k,1i,1o,k,1s,1u,n,a,a,a,a
a,a,a,a,g,k,s,v,k,u,k,m,a,a,a,a
a,a,a,a,0,0,0,1y,0,1c,0,14,a,a,a,a
a,a,b,a,1x,0,0,0,1y,1x,0,13,a,a,a,a
w,a,a,a,0,19,0,1y,0,0,0,12,z,a,b,a
a,y,a,a,0,1a,0,1w,1y,0,0,11,10,a,a,a
a,a,a,a,0,1b,0,1y,1y,0,0,0,a,a,w,a
a,a,a,a,0,0,0,1y,1y,0,0,0,a,a,a,a
a,a,a,a,0,0,0,0,1y,0,0,0,a,a,a,a
a,a,a,a,18,0,1x,1y,0,1x,0,0,a,a,a,a
b,a,a,a,17,0,0,1w,1y,1w,0,0,a,a,b,a
a,a,w,a,16,0,0,1x,1y,0,0,0,a,b,a,a
a,a,a,a,15,0,1c,19,1y,1w,1d,1c,a,a,a,a
NAME chamber 2
EXT 8,13 b 8,13
PAL 0

ROOM b
a,a,a,a,c,h,t,k,v,v,k,p,a,a,w,a
a,a,a,a,d,i,1k,1l,1n,1q,k,q,a,b,a,a
a,b,a,a,e,j,1h,1j,1m,1p,1t,o,a,a,a,a
a,a,a,a,f,k,1i,1o,k,1s,1u,n,a,a,a,a
a,a,a,a,g,k,s,v,k,u,k,m,a,a,a,a
a,a,a,a,0,0,0,1y,0,1c,0,14,a,a,a,a
a,a,b,a,1x,0,0,0,1y,1x,0,13,a,a,a,a
w,a,a,a,0,19,0,1y,0,0,0,12,z,a,b,a
a,y,a,a,0,1a,0,1w,1y,0,0,11,10,a,a,a
a,a,a,a,0,1b,0,1y,1y,0,0,0,a,a,w,a
a,a,a,a,0,0,0,1y,1y,0,0,0,a,a,a,a
a,a,a,a,0,0,0,0,1y,0,0,0,a,a,a,a
a,a,a,a,18,0,1x,20,0,1x,0,0,a,a,a,a
b,a,a,a,17,0,0,1w,1y,1w,0,0,a,a,b,a
a,a,w,a,16,0,0,1x,1y,0,0,0,a,b,a,a
a,a,a,a,15,0,1c,19,1y,1w,1d,1c,a,a,a,a
EXT 8,12 c 8,12
PAL 0

ROOM c
a,a,a,a,c,h,t,k,v,v,k,p,a,a,w,a
a,a,a,a,d,i,1k,1l,1n,1q,k,q,a,b,a,a
a,b,a,a,e,j,1h,1j,1m,1p,1t,o,a,a,a,a
a,a,a,a,f,k,1i,1o,k,1s,1u,n,a,a,a,a
a,a,a,a,g,k,s,v,k,u,k,m,a,a,a,a
a,a,a,a,0,0,0,1y,0,1c,0,14,a,a,a,a
a,a,b,a,1x,0,0,0,1y,1x,0,13,a,a,a,a
w,a,a,a,0,19,0,1y,0,0,0,12,z,a,b,a
a,y,a,a,0,1a,0,1w,1y,1v,0,11,10,a,a,a
a,a,a,a,0,1b,0,1y,1y,1v,0,0,a,a,w,a
a,a,a,a,0,0,0,1y,1y,1v,0,0,a,a,a,a
a,a,a,a,0,0,0,1v,1y,1v,0,0,a,a,a,a
a,a,a,a,18,0,1x,20,0,1x,0,0,a,a,a,a
b,a,a,a,17,0,0,1w,1y,1w,0,0,a,a,b,a
a,a,w,a,16,0,0,1x,1y,0,0,0,a,b,a,a
a,a,a,a,15,0,1c,19,1y,1w,1d,1c,a,a,a,a
EXT 8,11 d 8,11
PAL 0

ROOM d
a,a,a,a,c,h,t,k,v,v,k,p,a,a,w,a
a,a,a,a,d,i,1k,1l,1n,1q,k,q,a,b,a,a
a,b,a,a,e,j,1h,1j,1m,1p,1t,o,a,a,a,a
a,a,a,a,f,k,1i,1o,k,1s,1u,n,a,a,a,a
a,a,a,a,g,k,s,v,k,u,k,m,a,a,a,a
a,a,a,a,0,0,0,1y,0,1c,0,14,a,a,a,a
a,a,b,a,1x,0,0,0,1y,1x,0,13,a,a,a,a
w,a,a,a,0,19,0,1y,0,0,0,12,z,a,b,a
a,y,a,a,0,1a,0,1w,1y,1v,0,11,10,a,a,a
a,a,a,a,0,1b,0,1y,1y,1v,0,0,a,a,w,a
a,a,a,a,0,0,0,20,1y,1v,0,0,a,a,a,a
a,a,a,a,0,0,0,1v,1y,1v,0,0,a,a,a,a
a,a,a,a,18,0,1x,20,1v,1x,0,0,a,a,a,a
b,a,a,a,17,0,0,1w,1y,1w,0,0,a,a,b,a
a,a,w,a,16,0,0,1x,1y,0,0,0,a,b,a,a
a,a,a,a,15,0,1c,19,1y,1w,1d,1c,a,a,a,a
EXT 8,10 e 8,10
PAL 0

ROOM e
a,a,a,a,c,h,t,k,v,v,k,p,a,a,w,a
a,a,a,a,d,i,1k,1l,1n,1q,k,q,a,b,a,a
a,b,a,a,e,j,1h,1j,1m,1p,1t,o,a,a,a,a
a,a,a,a,f,k,1i,1o,k,1s,1u,n,a,a,a,a
a,a,a,a,g,k,s,v,k,u,k,m,a,a,a,a
a,a,a,a,0,0,0,1y,0,1c,0,14,a,a,a,a
a,a,b,a,1x,0,0,0,1y,1x,0,13,a,a,a,a
w,a,a,a,0,19,0,1y,0,0,0,12,z,a,b,a
a,y,a,a,0,1a,0,1w,1y,0,0,11,10,a,a,a
a,a,a,a,0,1b,0,20,1y,1v,0,0,a,a,w,a
a,a,a,a,0,0,0,20,1y,1v,0,0,a,a,a,a
a,a,a,a,0,0,0,1v,20,1v,0,0,a,a,a,a
a,a,a,a,18,0,1x,1y,0,1x,0,0,a,a,a,a
b,a,a,a,17,0,0,1w,1y,1w,0,0,a,a,b,a
a,a,w,a,16,0,0,1x,1y,0,0,0,a,b,a,a
a,a,a,a,15,0,1c,19,1y,1w,1d,1c,a,a,a,a
EXT 8,9 f 8,9
PAL 0

ROOM f
a,a,a,a,c,h,t,k,v,v,k,p,a,a,w,a
a,a,a,a,d,i,1k,1l,1n,1q,k,q,a,b,a,a
a,b,a,a,e,j,1h,1j,1m,1p,1t,o,a,a,a,a
a,a,a,a,f,k,1i,1o,k,1s,1u,n,a,a,a,a
a,a,a,a,g,k,s,v,k,u,k,m,a,a,a,a
a,a,a,a,0,0,0,1y,0,1c,0,14,a,a,a,a
a,a,b,a,1x,0,0,0,1y,1x,0,13,a,a,a,a
w,a,a,a,0,19,0,20,0,0,0,12,z,a,b,a
a,y,a,a,0,1a,0,1w,1y,1v,0,11,10,a,a,a
a,a,a,a,0,1b,0,20,1y,1v,0,0,a,a,w,a
a,a,a,a,0,0,0,1y,1y,1v,0,0,a,a,a,a
a,a,a,a,0,0,0,1v,1y,1v,0,0,a,a,a,a
a,a,a,a,18,0,1x,1y,0,1x,0,0,a,a,a,a
b,a,a,a,17,0,0,1w,1y,1w,0,0,a,a,b,a
a,a,w,a,16,0,0,1x,1y,0,0,0,a,b,a,a
a,a,a,a,15,0,1c,19,1y,1w,1d,1c,a,a,a,a
ITM 2 8,8
ITM 3 8,7
EXT 8,6 g 8,6
PAL 0

ROOM g
a,a,a,a,c,h,t,k,v,v,k,p,a,a,w,a
a,a,a,a,d,i,1k,1l,1n,1q,k,q,a,b,a,a
a,b,a,a,e,j,1h,1j,1m,1p,1t,o,a,a,a,a
a,a,a,a,f,k,1i,1o,k,1s,1u,n,a,a,a,a
a,a,a,a,g,k,s,v,k,u,k,m,a,a,a,a
a,a,a,a,0,0,0,1y,0,1c,0,14,a,a,a,a
a,a,b,a,1x,0,0,0,1y,1x,0,13,a,a,a,a
w,a,a,a,0,19,0,1y,0,0,0,12,z,a,b,a
a,y,a,a,0,1a,0,1w,1y,1v,0,11,10,a,a,a
a,a,a,a,0,1b,0,20,1y,1v,0,0,a,a,w,a
a,a,a,a,0,0,0,1y,1y,1v,0,0,a,a,a,a
a,a,a,a,0,0,0,1v,1y,1v,0,0,a,a,a,a
a,a,a,a,18,0,1x,1y,0,1x,0,0,a,a,a,a
b,a,a,a,17,0,0,1w,1y,1w,0,0,a,a,b,a
a,a,w,a,16,0,0,1x,1y,0,0,0,a,b,a,a
a,a,a,a,15,0,1c,19,1y,1w,1d,1c,a,a,a,a
EXT 8,5 h 8,5
PAL 0

ROOM h
a,a,a,a,c,h,t,k,v,v,k,p,a,a,w,a
a,a,a,a,d,i,1k,1l,1n,1q,k,q,a,b,a,a
a,b,a,a,e,j,1h,1j,1m,1p,1t,o,a,a,a,a
a,a,a,a,f,k,1i,1o,k,1s,1u,n,a,a,a,a
a,a,a,a,g,k,s,v,k,u,k,m,a,a,a,a
a,a,a,a,0,0,0,1y,0,1c,0,14,a,a,a,a
a,a,b,a,1x,0,0,0,1y,1x,0,13,a,a,a,a
w,a,a,a,0,19,0,20,0,0,0,12,z,a,b,a
a,y,a,a,0,1a,0,1w,1y,1v,0,11,10,a,a,a
a,a,a,a,0,1b,0,20,1y,1v,0,0,a,a,w,a
a,a,a,a,0,0,0,1y,1y,1v,0,0,a,a,a,a
a,a,a,a,0,0,0,1v,1y,1v,0,0,a,a,a,a
a,a,a,a,18,0,1x,1y,0,1x,0,0,a,a,a,a
b,a,a,a,17,0,0,1w,1y,1w,0,0,a,a,b,a
a,a,w,a,16,0,0,1x,1y,0,0,0,a,b,a,a
a,a,a,a,15,0,1c,19,1y,1w,1d,1c,a,a,a,a
ITM 5 8,2
EXT 8,6 g 8,6
EXT 8,2 0 8,2
PAL 1

ROOM i
0,0,0,0,0,23,24,24,24,24,25,0,0,0,0,0
0,0,0,0,0,23,24,24,24,24,25,0,0,0,0,0
0,0,0,0,0,23,24,24,24,24,25,0,0,0,0,0
0,0,26,0,0,23,24,24,24,24,25,26,0,26,0,0
0,0,0,26,0,23,24,24,24,24,25,0,26,0,0,0
0,0,0,0,0,23,24,24,24,24,25,0,0,0,0,0
0,0,0,0,0,23,24,24,24,24,25,0,0,0,0,0
0,0,26,0,0,23,24,24,24,24,25,0,0,0,0,0
0,0,0,0,0,23,24,24,24,24,25,0,0,0,0,0
0,0,0,0,0,23,24,24,24,2b,2c,0,0,0,0,0
0,0,0,0,0,23,24,24,24,29,0,0,0,0,0,0
0,0,0,0,0,23,24,24,24,27,28,28,28,28,28,28
0,0,0,0,0,23,24,24,24,27,28,28,28,28,28,28
0,0,26,0,0,23,24,24,24,27,28,2f,2f,28,2f,2f
0,26,0,0,0,23,24,24,24,0,28,28,28,28,28,28
0,0,0,0,0,23,24,24,2e,0,28,28,28,28,28,28
ITM 9 7,6
ITM b 9,14
EXT 9,14 m 3,8
PAL 3

ROOM j
a,a,a,a,c,h,t,k,v,v,k,p,a,a,w,a
a,a,a,a,d,i,1k,1l,1n,1q,k,q,a,b,a,a
a,b,a,a,e,j,1h,1j,1m,1p,1t,o,a,a,a,a
a,a,a,a,f,k,1i,1o,k,1s,1u,n,a,a,a,a
a,a,a,a,g,k,s,v,k,u,k,m,a,a,a,a
a,a,a,a,0,0,0,1y,0,1c,0,14,a,a,a,a
a,a,b,a,1x,0,0,0,1y,1x,0,13,a,a,a,a
w,a,a,a,0,19,0,1y,0,0,0,12,z,a,b,a
a,y,a,a,0,1a,0,1w,1y,0,0,11,10,a,a,a
a,a,a,a,0,1b,0,1y,1y,0,0,0,a,a,w,a
a,a,a,a,0,0,0,1y,1y,0,0,0,a,a,a,a
a,a,a,a,0,0,0,0,1y,0,0,0,a,a,a,a
a,a,a,a,18,0,1x,1y,0,1x,0,0,a,a,a,a
b,a,a,a,17,0,0,1w,1y,1w,0,0,a,a,b,a
a,a,w,a,16,0,1v,1x,1y,1v,0,0,a,b,a,a
a,a,a,a,15,0,1c,19,1y,1w,1d,1c,a,a,a,a
NAME First encounter
ITM 6 8,15
ITM 7 8,14
EXT 8,14 k 7,7
PAL 0

ROOM k
21,21,21,21,21,21,21,21,21,21,21,21,21,21,21,21
21,21,21,21,21,21,21,21,21,21,21,21,21,21,21,21
21,21,21,21,21,21,21,21,21,21,21,21,21,21,21,21
21,21,21,21,21,21,21,21,21,21,21,21,21,21,21,21
21,21,21,21,21,21,21,21,21,21,21,21,21,21,21,21
21,21,21,21,21,21,21,21,21,21,21,21,21,21,21,21
21,21,21,21,21,21,21,21,21,21,21,21,21,21,21,21
21,21,21,21,21,21,21,21,21,21,21,21,21,21,21,21
21,21,21,21,21,21,21,21,21,21,21,21,21,21,21,21
21,21,21,21,21,21,21,21,21,21,21,21,21,21,21,21
21,21,21,21,21,21,21,21,21,21,21,21,21,21,21,21
21,21,21,21,21,21,21,21,21,21,21,21,21,21,21,21
21,21,21,21,21,21,21,21,21,21,21,21,21,21,21,21
21,21,21,21,21,21,21,21,21,21,21,21,21,21,21,21
21,21,21,21,21,21,21,21,21,21,21,21,21,21,21,21
21,21,21,21,21,21,21,21,21,21,21,21,21,21,21,21
ITM 8 11,11
EXT 11,11 2 8,15
PAL 1

ROOM l
a,a,a,a,c,h,t,k,v,v,k,p,a,a,w,a
a,a,a,a,d,i,k,k,k,t,k,q,a,b,a,a
a,b,a,a,e,j,k,v,r,k,k,o,a,a,a,a
a,a,a,a,f,k,t,k,s,k,k,n,a,a,a,a
a,a,a,a,g,k,s,v,k,u,k,m,a,a,a,a
a,a,a,a,0,0,0,0,0,1c,0,14,a,a,a,a
a,a,b,a,0,0,0,0,0,0,0,13,a,a,a,a
w,a,a,a,0,19,0,0,0,0,0,12,z,a,b,a
a,y,a,a,0,1a,0,0,0,0,0,11,10,a,a,a
a,a,a,a,0,1b,0,0,0,0,0,0,a,a,w,a
a,a,a,a,0,0,0,0,0,0,0,0,a,a,a,a
a,a,a,a,0,0,0,0,0,0,0,0,a,a,a,a
a,a,a,a,18,0,0,0,1c,0,0,0,a,a,a,a
b,a,a,a,17,0,0,0,0,0,0,0,a,a,b,a
a,a,w,a,16,0,0,0,0,0,0,0,a,b,a,a
a,a,a,a,15,0,1c,0,0,0,1d,1c,a,a,a,a
PAL 0

ROOM m
0,0,0,0,0,0,0,0,0,0,0,0,0,0,0,0
0,0,0,0,0,0,0,0,0,0,0,0,0,0,0,0
0,0,0,0,0,0,0,0,0,0,0,0,0,0,0,0
0,0,0,2g,2k,2k,2k,2k,2k,2k,2k,2k,2j,0,0,0
0,0,0,2g,0,2m,0,0,2o,2n,2p,0,2j,0,0,0
0,0,0,2g,0,2l,2l,2l,2l,2l,2l,0,2j,0,0,0
0,0,0,2g,0,2l,2l,2l,2l,2l,2l,0,2j,0,0,0
0,0,0,2g,0,2l,2l,2l,2l,2q,2l,0,2j,0,0,0
0,0,0,0,0,2l,2l,2l,2l,2l,2r,0,2j,0,0,0
0,0,0,0,0,2l,2l,2l,2l,2l,2l,0,2j,0,0,0
0,0,0,2g,2s,2l,2l,2l,2l,2l,2l,0,2j,0,0,0
0,0,0,2g,2t,0,0,0,0,0,0,0,2j,0,0,0
0,0,0,2g,2k,2k,2k,2k,2k,2k,2k,2k,2j,0,0,0
0,0,0,0,0,0,0,0,0,0,0,0,0,0,0,0
0,0,0,0,0,0,0,0,0,0,0,0,0,0,0,0
0,0,0,0,0,0,0,0,0,0,0,0,0,0,0,0
ITM a 9,9
EXT 9,9 n 8,9
PAL 3

ROOM n
0,2v,0,2v,0,2v,0,2v,0,2v,0,2v,0,2v,0,2v
2v,0,2v,0,2v,0,2v,0,2v,0,2v,0,2v,0,2v,0
0,2v,0,2v,0,2v,0,2v,0,2v,0,2v,0,2v,0,2v
2v,0,2v,0,2v,0,2v,0,2v,0,2v,0,2v,0,2v,0
0,2v,0,2v,0,2v,0,2v,2y,2v,0,2v,0,2v,0,2v
2v,0,2v,0,2v,0,2v,0,2v,0,2v,0,2v,0,2v,0
0,2v,0,2v,0,2v,0,2v,0,2v,0,2v,0,2v,0,2v
2v,0,2v,0,2v,0,2v,0,2v,0,2v,0,2v,0,2v,0
0,2v,0,2v,0,2v,0,2v,0,2v,0,2v,0,2v,0,2v
2v,0,2v,0,2v,0,2v,0,2v,0,2v,0,2v,0,2v,0
0,2v,0,2v,0,2v,0,2v,0,2v,0,2v,0,2v,0,2v
2v,0,2v,0,2v,0,2v,0,2v,0,2v,0,2v,0,2v,0
0,2v,0,2v,0,2v,0,2v,0,2v,0,2v,0,2v,0,2v
2v,0,2v,0,2v,0,2v,0,2v,0,2v,0,2v,0,2v,0
0,2v,0,2v,0,2v,0,2v,0,2v,0,2v,0,2v,0,2v
2v,0,2v,0,2v,0,2v,0,2v,0,2v,0,2v,0,2v,0
ITM c 8,5
ITM d 8,4
EXT 8,4 j 8,15
PAL 4

ROOM o
0,0,0,0,0,0,0,0,0,0,0,0,0,0,0,0
0,0,0,0,0,0,0,0,0,0,0,0,0,0,0,0
0,0,0,0,0,0,0,0,0,0,0,0,0,0,0,0
0,0,0,2g,2k,2k,2k,2k,2k,2k,2k,2k,2j,0,0,0
0,0,0,2g,0,2m,0,0,2o,2n,2p,0,2j,0,0,0
0,0,0,2g,0,2l,2l,2l,2l,2l,2l,0,2j,0,0,0
0,0,0,2g,0,2l,2l,2l,2l,2l,2l,0,2j,0,0,0
0,0,0,2g,0,2l,2l,2l,2l,2q,2l,0,2j,0,0,0
0,0,0,0,0,2l,2l,2l,2l,2l,2r,0,2j,0,0,0
0,0,0,0,0,2l,2l,2l,2l,2l,2l,0,2j,0,0,0
0,0,0,2g,2s,2l,2l,2l,2l,2l,2l,0,2j,0,0,0
0,0,0,2g,2t,0,0,0,0,0,0,0,2j,0,0,0
0,0,0,2g,2k,2k,2k,2k,2k,2k,2k,2k,2j,0,0,0
0,0,0,0,0,0,0,0,0,0,0,0,0,0,0,0
0,0,0,0,0,0,0,0,0,0,0,0,0,0,0,0
0,0,0,0,0,0,0,0,0,0,0,0,0,0,0,0
EXT 3,8 p 9,14
PAL 5

ROOM p
0,0,0,0,0,23,24,24,24,24,25,0,0,0,0,0
0,0,0,0,0,23,24,24,24,24,25,0,0,0,0,0
0,0,0,0,0,23,24,24,24,24,25,0,0,0,0,0
0,0,26,0,0,23,24,24,24,24,25,26,0,26,0,0
0,0,0,26,0,23,24,24,24,24,25,0,26,0,0,0
0,0,0,0,0,23,24,24,24,24,25,0,0,0,0,0
0,0,0,0,0,23,24,24,24,24,25,0,0,0,0,0
0,0,26,0,0,23,24,24,24,24,25,0,0,0,0,0
0,0,0,0,0,23,24,24,24,24,25,0,0,0,0,0
0,0,0,0,0,23,24,24,24,2b,2c,0,0,0,0,0
0,0,0,0,0,23,24,24,24,29,0,0,0,0,0,0
0,0,0,0,0,23,24,24,24,27,28,28,28,28,28,28
0,0,0,0,0,23,24,24,24,27,28,28,28,28,28,28
0,0,26,0,0,23,24,24,24,27,28,2f,2f,28,2f,2f
0,26,0,0,0,23,24,24,24,0,28,28,28,28,28,28
0,0,0,31,0,23,24,24,2e,0,28,28,28,28,28,28
EXT 9,14 o 3,8
EXT 4,15 q 4,15
PAL 5

ROOM q
0,0,0,0,0,23,24,24,24,24,25,0,0,0,0,0
0,0,0,0,0,23,24,24,24,24,25,0,0,0,0,0
0,0,0,0,0,23,24,24,24,24,25,0,0,0,0,0
0,0,26,0,0,23,24,24,24,24,25,26,0,26,0,0
0,0,0,26,0,23,24,24,24,24,25,0,26,0,0,0
0,0,0,0,0,23,24,24,24,24,25,0,0,0,0,0
0,0,0,0,0,23,24,24,24,24,25,0,0,0,0,0
0,0,26,0,0,23,24,24,24,24,25,0,0,0,0,0
0,0,0,0,0,23,24,24,24,24,25,0,0,0,0,0
0,0,0,0,0,23,24,24,24,2b,2c,0,0,0,0,0
0,0,0,0,0,23,24,24,24,29,0,0,0,0,0,0
0,0,0,0,0,23,24,24,24,27,28,28,28,28,28,28
0,0,0,0,0,23,24,24,24,27,28,28,28,28,28,28
0,0,26,0,0,23,24,24,24,27,28,2f,2f,28,2f,2f
0,26,0,0,0,23,24,24,24,0,28,28,28,28,28,28
0,0,0,31,0,23,24,24,2e,0,28,28,28,28,28,28
EXT 5,15 r 4,15
EXT 4,14 r 4,15
EXT 3,15 r 4,15
PAL 5

ROOM r
0,0,0,0,0,23,24,24,24,24,25,0,0,0,0,0
0,0,0,0,0,23,24,24,24,24,25,0,0,0,0,0
0,0,0,0,0,23,24,24,24,24,25,0,0,0,0,0
0,0,26,0,0,23,24,24,24,24,25,26,0,26,0,0
0,0,0,26,0,23,24,24,24,24,25,0,26,0,0,0
0,0,0,0,0,23,24,24,24,24,25,0,0,0,0,0
0,0,0,0,0,23,24,24,24,24,25,0,0,0,0,0
0,0,26,0,0,23,24,24,24,24,25,0,0,0,0,0
0,0,0,0,0,23,24,24,24,24,25,0,0,0,0,0
0,0,0,0,0,23,24,24,24,2b,2c,0,0,0,0,0
0,0,0,0,0,23,24,24,24,29,0,0,0,0,0,0
0,0,0,0,0,23,24,24,24,27,28,28,28,28,28,28
0,0,0,0,0,23,24,24,24,27,28,28,28,28,28,28
0,0,26,0,0,23,24,24,24,27,28,2f,2f,28,2f,2f
0,26,0,0,0,23,24,24,24,0,28,28,28,28,28,28
0,0,0,31,0,23,24,24,2e,0,28,28,28,28,28,28
EXT 4,14 s 4,15
EXT 5,15 s 4,15
EXT 3,15 s 4,15
PAL 5

ROOM s
0,0,0,0,0,23,24,24,24,24,25,0,0,0,0,0
0,0,0,0,0,23,24,24,24,24,25,0,0,0,0,0
0,0,0,0,0,23,24,24,24,24,25,0,0,0,0,0
0,0,26,0,0,23,24,24,24,24,25,26,0,26,0,0
0,0,0,26,0,23,24,24,24,24,25,0,26,0,0,0
0,0,0,0,0,23,24,24,24,24,25,0,0,0,0,0
0,0,0,0,0,23,24,24,24,24,25,0,0,0,0,0
0,0,26,0,0,23,24,24,24,24,25,0,0,0,0,0
0,0,0,0,0,23,24,24,24,24,25,0,0,0,0,0
0,0,0,0,0,23,24,24,24,2b,2c,0,0,0,0,0
0,0,0,0,0,23,24,24,24,29,0,0,0,0,0,0
0,0,0,0,0,23,24,24,24,27,28,28,28,28,28,28
0,0,0,0,0,23,24,24,24,27,28,28,28,28,28,28
0,0,26,0,0,23,24,24,24,27,28,2f,2f,28,2f,2f
0,26,0,0,0,23,24,24,24,0,28,28,28,28,28,28
0,0,0,31,0,23,24,24,2e,0,28,28,28,28,28,28
END undefined 3,15
END undefined 4,14
END undefined 5,15
PAL 5

TIL 10
01001110
01010000
10100111
00100000
01001110
10100000
01010111
00010000
WAL true

TIL 11
00000001
00000000
00000000
00000001
00000000
00000000
00000000
00000000

TIL 12
00000100
00010100
00001000
00010000
00010000
00001001
00010110
00000000

TIL 13
00100000
10100000
01010100
01001010
00110010
01000001
00000010
00000100
>
00100000
10100000
01010100
01001010
00110010
00100001
00000010
00000100

TIL 14
00000010
00000010
00001001
00010101
00001010
00000010
00001100
00010010
>
00000010
00000010
00001001
00010101
00001010
00000010
00001101
00010000

TIL 15
00101000
00010000
10100000
01000000
01000000
00101000
01010000
00010000

TIL 16
00001001
00101001
01010101
10100010
00000001
00000110
00001001
10010000
>
00001001
00001001
00100101
11010010
00100001
00000110
00001010
10010000

TIL 17
00110000
01001010
00100100
10100010
01000101
00100010
00011000
00100110

TIL 18
00001000
00010100
00001000
00110000
01001000
00001000
00110100
01000000
>
00001000
00010100
00001000
00110000
01001000
00001100
00110000
01000000
WAL true

TIL 19
00000000
00100000
00111000
01000100
01100100
00011000
00000100
00000100
WAL true

TIL 20
00000000
01111010
01001000
00111010
00000000
00011100
01010010
00011110
WAL true

TIL 21
11101111
11101111
11101111
11101111
11110111
11110111
11110111
11110111
>
11110111
11110111
11110111
11110111
11101111
11101111
11101111
11101111

TIL 22
00000000
00000000
00000000
01001000
00101001
00101010
00101010
00000000
>
00000000
00000000
00000000
01001001
01001010
00101010
00101010
00000000

TIL 23
01111111
01111111
11111111
11111111
01111111
01111111
00111111
00111111

TIL 24
11111111
11111111
11111111
11111111
11111111
11111111
11111111
11111111

TIL 25
11111110
11111110
11111100
11111100
11111110
11111110
11111111
11111111

TIL 26
00000000
00000000
00000000
01100110
00011000
00000000
00000000
00000000

TIL 27
10111011
10000000
10101110
10000000
10111011
10000000
10101110
10000000

TIL 28
10111011
00000000
11101110
00000000
10111011
00000000
11101110
00000000

TIL 29
11100000
11000000
10000000
00000000
00000000
00000000
00000000
00000000
WAL true

TIL 30
01001010
01001010
00101001
00100101
00100101
00101001
01010010
01010010
>
01000010
01000010
10010100
10010100
10010100
10010100
00101010
00101010

TIL 31
01111110
00111100
00111100
00111100
11111111
11111111
01000010
01000010
WAL false

TIL a
11101110
00000000
01110111
00000000
11101110
00000000
01110111
00000000
NAME brick
WAL false

TIL b
11101110
00000000
00000111
00000000
11101110
00000000
01110111
00000000
NAME brick alt
WAL true

TIL c
10010000
10100000
10100000
11000000
11111111
10000000
11000000
01111111

TIL d
10001110
10000000
10000100
11000000
01111111
10000000
10000000
11111111
>
10001110
10000100
10000000
11000100
01111111
10000000
10000000
11111111

TIL e
11010000
10100000
10000000
10000000
11111111
10100010
11000100
11111111

TIL f
10000010
10000100
10001000
10010100
11111111
10100000
10000000
11111111

TIL g
10100010
11000100
10100000
10010000
11111111
10010000
10000000
11111111
>
10100010
11000100
10100000
10010000
11111111
10000000
10010000
11111111

TIL h
00000100
00001000
00010100
00101111
11111111
01110000
10100000
11111111
>
00000100
00001000
00010100
00111111
11111111
01110000
10100000
11111111

TIL i
00000100
00001000
00010100
00101111
11111111
01110000
10100000
11111111
>
00000100
00001000
00010100
00111111
11111111
01110000
10100000
11111111

TIL j
00010000
00010000
00010000
00111000
11101111
00010101
00000010
11111111

TIL k
00000000
00000000
00000000
00000000
11111111
00000000
00000000
11111111

TIL l
00000001
00000001
00000001
00000001
11111111
00000001
00000001
11111111

TIL m
00011101
00001101
00000001
01111001
11111111
01010001
00100011
11111100
>
00011101
00001001
00000101
01111001
11111111
01010001
00100011
11111100

TIL n
00000001
00000001
00000001
01110011
10001111
00000001
00000001
11111111

TIL o
01010001
01010001
00100001
00010011
11111110
00010101
00001001
11111111

TIL p
10000101
10000011
01011101
00101001
11111111
01001101
00111001
11111111

TIL q
00011001
00001001
00000001
00011001
11111111
01001101
00111001
11111111
>
00011001
00000001
00001001
00011001
11111111
01001101
00111001
11111111

TIL r
00100100
00010100
00001000
00000100
11111111
00001000
00010000
11111111

TIL s
00001000
00000111
00000001
00000010
11111111
00001100
00000000
11111111
>
00001000
00000111
00000001
00000010
11111111
00001000
00000100
11111111

TIL t
00100100
00011000
00100010
11000101
11111111
00000000
00001100
11110011

TIL u
10100000
10100000
01000000
00111000
11000111
00000101
00000010
11111111

TIL v
00100010
00100100
00010110
00001001
11111111
00000000
00000000
11111111

TIL w
11001110
00100000
01010111
00110001
11001110
00001010
01110100
00000001
WAL true

TIL x
11001110
00100000
01010111
00110001
11001110
00001010
01110100
00000001
WAL true

TIL y
11010110
00101000
01010111
00110001
11001110
00001010
01110100
00000001
>
11010110
00101000
01010111
00110001
11001110
00001010
01110000
00000101
WAL true

TIL z
11101110
00000000
00110111
01000000
00101110
01000000
10010111
10100000
WAL true

TIL 1a
00001000
00001001
00001010
00100100
01010100
00101010
01010001
00000001

TIL 1b
11000010
00111100
01000000
10100000
00010110
00001000
00001000
00000000

TIL 1c
00000000
00100000
00011100
00011000
00000000
00000000
00000000
00000000
WAL true

TIL 1d
00001000
00001010
00000100
00000010
00010010
00001100
00000010
00000001

TIL 1e
01010100
10101010
01010101
01010111
11111111
00000100
00001000
11111111

TIL 1f
01010101
10101010
11010101
11010101
11111111
00110000
01000000
11111111

TIL 1g
00000011
00001111
00011001
01111011
11111111
00101010
00000000
11111111

TIL 1h
01111110
11111111
11111110
10010011
10010011
01111110
01010100
11101111

TIL 1i
00111000
00010000
00000001
00000001
11111111
00000000
00000000
11111111

TIL 1j
11010101
10101010
10101010
01101010
11111010
10110101
10110000
11111111

TIL 1k
00101000
00010000
00000000
00000000
11111111
00000000
00011110
11111101

TIL 1l
00000000
00000000
00000000
00000000
11111111
01101010
10010101
01010101

TIL 1m
01010101
10101010
10101010
10101010
10101011
01010100
00000000
11111111

TIL 1n
00000000
00000000
00000001
00000011
11111111
11101011
01010111
01010101

TIL 1o
11111110
11100110
10000011
10000001
11101111
00110001
00110000
11111111

TIL 1p
10101100
10101100
10101000
10111111
11011000
11101111
01100011
11111111

TIL 1q
00100100
00011000
00000010
11110101
10111111
11011100
10101100
10101111

TIL 1r
00000000
00000000
00000000
00000000
11111111
00000000
00000000
11111111

TIL 1s
00111000
00011111
00001111
00000000
11111111
00000000
00001100
11111111

TIL 1t
00000000
00000000
00000000
00000000
11111111
10011000
11111000
11111111

TIL 1u
00000000
00110000
11111100
00000000
11111111
00000000
00000000
11111111

TIL 1v
00000000
00000000
00000000
00000000
00000000
00000000
00000000
00000000
WAL true

TIL 1w
00000000
00001000
01100000
01100100
01110000
00110000
00000000
00000000
WAL true

TIL 1x
00000000
00011000
00111000
00110000
00000000
01000000
00000000
00100000
WAL true

TIL 1y
00000000
01111010
01001000
00111010
00000000
00011100
01010010
00011110

TIL 1z
00000000
01110010
01001000
01111000
00000000
01011100
00010010
00011110

TIL 2a
00000000
00000000
00000000
00000000
00000000
00000000
00000000
00000000

TIL 2b
11111111
11111111
11111111
11111111
11111110
11111100
11111000
11110000

TIL 2c
11111111
11111110
10000000
00000000
00000000
00000000
00000000
00000000
WAL true

TIL 2d
00000000
00000000
00000000
00000000
00000000
00000000
00000000
00000000
WAL true

TIL 2e
11111110
11111110
11111000
11111000
11100000
11100000
00000000
00000000

TIL 2f
10111011
01111110
11000010
01000010
11111111
01000010
11000010
01111110

TIL 2g
00111011
00000000
00101110
00000000
00111011
00000000
00101110
00000000
WAL true

TIL 2h
00000000
00000000
00000000
00000000
00000000
00000000
00000000
00000000
WAL true

TIL 2i
10111011
10000000
10101110
10000000
10111011
10000000
10101110
10000000
WAL true

TIL 2j
00111100
00000000
11101100
00000000
00111100
00000000
11101100
00000000
WAL true

TIL 2k
10111011
00000000
11101110
00000000
10111011
00000000
11101110
00000000
WAL true

TIL 2l
00000000
01100110
01100110
00000000
00000000
01100110
01100110
00000000

TIL 2m
01000000
01110000
00010000
00010000
01111100
01111100
01111100
01101100
WAL true

TIL 2n
00000000
00101000
00010000
11111111
11111111
10000001
10000001
10000001
WAL true

TIL 2o
00000000
00010000
00010000
00010000
00011110
00010010
00010010
00010010

TIL 2p
00000000
00001000
00001000
00001000
01111000
01001000
01001000
01001000

TIL 2q
01000010
00100100
00011000
01111110
01000010
01011010
01001010
01111110
WAL true

TIL 2r
00011110
00011110
00011110
01111110
01111110
01111110
01000010
00000000
WAL true

TIL 2s
11111110
10010010
10010010
11111110
11111110
10010010
10010010
11111110

TIL 2t
11111110
10100010
11100010
10000010
10100010
11100010
10100010
11111110

TIL 2u
00000000
00000000
00000000
00000000
00000000
00000000
00000000
00000000

TIL 2v
00000011
00000010
00000100
00000100
00001000
00110000
11000000
10000000
>
00000001
00000011
00001100
00010000
00100000
00100000
01000000
11000000

TIL 2w
00000000
00000000
00000000
00000000
00000000
00000000
00000000
00000000

TIL 2x
01111110
01111110
00111111
00111111
00011111
00001111
00000000
00000000

TIL 2y
00000000
00011000
00100100
01000010
01000010
01000010
01000010
01000010

TIL 2z
01111111
00111111
00111111
00111111
00011111
00110110
11000000
10000000
>
01111111
00111111
00111111
00111111
00111111
00100110
01000000
11000000

SPR 10
00000000
00000000
00000000
00000000
00000000
00101000
00010000
00010000
>
00000000
00000000
00000000
00000000
00000000
00000000
00101000
00010000
POS 8 10,2

SPR 11
00000000
00000000
00000000
00000000
00000000
00101000
00010000
00010000
>
00000000
00000000
00000000
00000000
00000000
00000000
00101000
00010000
POS 8 10,0

SPR 12
00000000
00000000
00000000
00000000
00000000
00000000
00000000
00010100
>
00000000
00000000
00000000
00000000
00000000
00000000
00000000
00101000
POS 8 4,4

SPR 13
00000000
00000000
00000000
00000000
00000000
00000000
00000000
00010100
>
00000000
00000000
00000000
00000000
00000000
00000000
00000000
00101000
POS 8 7,0

SPR 14
00000000
00000000
00000000
00000000
00000000
00000000
00000000
00010100
>
00000000
00000000
00000000
00000000
00000000
00000000
00000000
00101000
POS 8 11,4

SPR 15
00000000
00000000
00000000
00000000
00000000
00000000
00000000
01010100
>
00000000
00000000
00000000
00000000
00000000
00000000
00000000
10101000
POS 8 10,4

SPR 16
00000000
00000000
00000000
00100000
01000000
00101100
01010000
00010000
>
00000000
00000000
00000000
01001000
01000100
00101000
01010000
00010000
POS 9 4,4

SPR 17
00000000
00000000
00000000
00000000
00000000
00101000
00010000
00010000
POS 9 5,4

SPR 18
00000000
00000000
00000000
00000000
00000000
00101000
00010000
00010000
POS 9 9,4

SPR 19
00000000
00000000
00000000
00000000
00000000
00101000
00010000
00010000
>
00000000
00000000
00000000
00000000
00000000
00000000
00101000
00010000
POS 9 10,4

SPR 20
00000000
00000000
00000000
00000000
00000000
00101000
00010000
00010000

SPR 21
10001011
10100100
01001010
00100100
01000100
00101011
01010000
00010000
>
10001010
10100101
01001010
10100100
01000101
00101010
00010000
00010000
POS 9 10,6

SPR 22
00000000
00000000
00000000
00000000
00000000
00000000
00000000
01010100
>
00000000
00000000
00000000
00000000
00000000
00000000
00000000
10101000
POS 9 6,13

SPR 23
00000000
00000000
00000000
00000100
00101000
00101000
00010000
00010000
>
00000000
00000000
00000000
00000000
01001000
00101000
00010000
00010000
POS b 6,1

SPR 24
00000000
00000000
00000000
00000100
00101000
00101000
00010000
00010000
>
00000000
00000000
00000000
00000000
01001000
00101000
00010000
00010000
POS b 9,3

SPR 25
00000000
00000000
00000000
00000000
00000000
00101000
00010000
00010000
POS b 7,2

SPR 26
00000000
00000000
00000000
00100000
01000000
00101100
01010000
00010000
>
00000000
00000000
00000000
01000000
01000100
00101000
01010000
00010000
POS c 6,1

SPR 27
00000000
00000000
00000000
00100000
01000000
00101100
01010000
00010000
>
00000000
00000000
00000000
01000000
01000100
00101000
01010000
00010000
POS c 9,3

SPR 28
00000000
00000000
00000000
00000100
00101000
00101000
00010000
00010000
>
00000000
00000000
00000000
00000000
01001000
00101000
00010000
00010000
POS c 7,2

SPR 29
00000000
00000000
00000000
00000000
00000000
00101000
00010000
00010000
POS c 8,2

SPR 30
00000000
00000000
00000000
00000000
00000000
00101000
00010000
00010000
POS e 9,1

SPR 31
00000000
00000000
00000000
00000000
00000000
00101000
00010000
00010000
POS e 6,3

SPR 32
00000000
00000000
00000000
00000100
00101000
00101000
00010000
00010000
>
00000000
00000000
00000000
00000000
01001000
00101000
00010000
00010000
POS e 7,4

SPR 33
00000000
00000000
00000000
00100000
01000000
00101100
01010000
00010000
>
00000000
00000000
00000000
01000000
01000100
00101000
01010000
00010000
POS e 10,2

SPR 34
00000000
00000000
00000000
00000000
00000000
00000000
00000000
01010100
>
00000000
00000000
00000000
00000000
00000000
00000000
00000000
10101000
POS e 5,4

SPR 35
00000000
00000000
00000000
00000000
00000000
00000000
00000000
01010100
>
00000000
00000000
00000000
00000000
00000000
00000000
00000000
10101000
POS e 11,0

SPR 36
00000000
00000000
00000000
00000000
00000000
00101000
00010000
00010000
POS e 11,2

SPR 37
00000000
00000000
00000000
00000000
00000000
00101000
00010000
00010000
POS e 8,3

SPR 38
00000000
00000000
00000000
00000000
00000000
00101000
00010000
00010000
POS e 5,1

SPR 39
00000000
00000000
00000000
00000000
00000000
00101000
00010000
00010000
>
00000000
00000000
00000000
00000000
00000000
00000000
00101000
00010000
POS e 7,3

SPR 40
00000000
00000000
00000000
00000000
00000000
00101000
00010000
00010000
>
00000000
00000000
00000000
00000000
00000000
00000000
00101000
00010000
POS f 9,6

SPR 41
00000000
00000000
00000000
00000000
00000000
00000000
00000000
01010100
>
00000000
00000000
00000000
00000000
00000000
00000000
00000000
10101000
POS f 9,0

SPR 42
00000000
00000000
00000000
00000000
00000000
00000000
00000000
01010100
>
00000000
00000000
00000000
00000000
00000000
00000000
00000000
10101000
POS f 7,6

SPR 43
00000000
00000000
00000000
00000000
00000000
00000000
00000000
01010100
>
00000000
00000000
00000000
00000000
00000000
00000000
00000000
10101000

SPR 44
00000000
00000000
00000000
00000000
00000000
00000000
00000000
01010100
>
00000000
00000000
00000000
00000000
00000000
00000000
00000000
10101000
POS f 4,0

SPR 45
00000000
00000000
00000000
00000000
00000000
00000000
00000000
01010100
>
00000000
00000000
00000000
00000000
00000000
00000000
00000000
10101000
POS f 8,10

SPR 46
10001011
10100100
01001010
00100100
01000100
00101011
01010000
00010000
>
10001010
10100101
01001010
10100100
01000101
00101010
00010000
00010000

SPR 47
10001011
10100100
01001010
00100100
01000100
00101011
01010000
00010000
>
10001010
10100101
01001010
10100100
01000101
00101010
00010000
00010000

SPR 48
00000000
00000000
00000000
00000000
00000000
00000000
00000000
00000000
POS g 6,1

SPR 49
11111111
11111111
11111111
11111111
11111111
11111111
11111111
11111111
POS g 7,1

SPR 50
10001011
10100100
01001010
00100100
01000100
00101011
01010000
00010000
>
10001010
10100101
01001010
10100100
01000101
00101010
00010000
00010000
POS f 10,1

SPR 51
00000000
00000000
00000000
00000000
00000000
00101000
00010000
00010000

SPR 52
00000000
00000100
01001000
00100100
01000100
00101000
01010000
00010000
>
00000000
00000100
11000010
00100100
01000100
00101000
01010000
00010000
POS s 3,14

SPR 53
00000000
00000000
00000000
00100000
01000000
00101100
01010000
00010000
>
00000000
00000000
00000000
01001000
01000100
00101000
01010000
00010000
POS s 11,8

SPR 54
00000000
00000000
00000000
00100000
01000000
00101100
01010000
00010000
>
00000000
00000000
00000000
01001000
01000100
00101000
01010000
00010000
POS s 12,5

SPR 55
10001011
10100100
01001010
00100100
01000100
00101011
01010000
00010000
>
01001010
10100101
01001010
00100100
01000100
10101010
00010001
00010000
POS s 12,8

SPR 56
00000000
00000100
01001000
00100100
01000100
00101000
01010000
00010000
>
00000000
00000100
11000010
00100100
01000100
00101000
01010000
00010000
POS s 2,6

SPR 57
00000000
00000000
00000000
00000000
00000000
00000000
00000000
00010100
>
00000000
00000000
00000000
00000000
00000000
00000000
00000000
00101000
POS s 0,8

SPR 58
00000000
00000000
00000000
00000000
00000000
00000000
00000000
00010100
>
00000000
00000000
00000000
00000000
00000000
00000000
00000000
00101000
POS s 13,2

SPR 59
00000000
00000000
00000000
00000000
00000000
00000000
00000000
00010100
>
00000000
00000000
00000000
00000000
00000000
00000000
00000000
00101000
POS s 4,12

SPR A
00011000
00011000
00011000
00111100
01111110
10111101
00100100
00100100
POS i 7,5

SPR a
00000000
00000000
01010001
01110001
01110010
01111100
00111100
00100100
DLG SPR_0

SPR b
00000000
00000000
01010001
01110001
01110010
01111100
00111100
00100100

SPR c
00000000
00000000
00000000
00000000
00000000
00101000
00010000
00010000
POS 3 6,1

SPR d
00000000
00000000
00000000
00000000
00000000
00101000
00010000
00010000
POS 3 9,3

SPR e
00000000
00000000
00000000
00000100
00101000
00101000
00010000
00010000
>
00000000
00000000
00000000
00000000
01001000
00101000
00010000
00010000
POS 4 6,1

SPR f
00000000
00000000
00000000
00000100
00101000
00101000
00010000
00010000
>
00000000
00000000
00000000
00000000
01001000
00101000
00010000
00010000
POS 4 9,3

SPR g
00000000
00000000
00000000
00100000
01000000
00101100
01010000
00010000
>
00000000
00000000
00000000
01000000
01000100
00101000
01010000
00010000
POS 5 6,1

SPR h
00000000
00000000
00000000
00100000
01000000
00101100
01010000
00010000
>
00000000
00000000
00000000
01001000
01000100
00101000
01010000
00010000
POS f 8,1

SPR i
00000000
00000000
00000000
00000000
00000000
00101000
00010000
00010000
POS 5 7,3

SPR j
00000000
00000000
00000000
00000000
00000000
00101000
00010000
00010000
POS 5 8,1

SPR k
00000000
00000000
00000000
00000100
00101000
00101000
00010000
00010000
>
00000000
00000000
00000000
00000000
01001000
00101000
00010000
00010000
POS 7 7,3

SPR l
00000000
00000000
00000000
00000100
00101000
00101000
00010000
00010000
>
00000000
00000000
00000000
00000000
01001000
00101000
00010000
00010000
POS 7 8,1

SPR m
00000000
00000000
01001010
00100100
01000100
00101000
01010000
00010000
>
00000000
00000100
00001000
00100100
01000100
00101000
01010000
00010000
POS 7 6,1

SPR n
00000000
00000100
01001000
00100100
01000100
00101000
01010000
00010000
>
00000000
00000100
11000010
00100100
01000100
00101000
01010000
00010000
POS 7 9,3

SPR o
00000000
00000000
00000000
00000000
00000000
00101000
00010000
00010000
POS 7 5,2

SPR p
00000000
00000000
00000000
00000000
00000000
00101000
00010000
00010000
POS 7 7,2

SPR q
00000000
00000000
00000000
00000000
00000000
00101000
00010000
00010000
POS 7 9,1

SPR r
00000000
00000000
00000000
00000100
00101000
00101000
00010000
00010000
>
00000000
00000000
00000000
00000000
01001000
00101000
00010000
00010000
POS 8 5,2

SPR s
00000000
00000000
00000000
00000100
00101000
00101000
00010000
00010000
>
00000000
00000000
00000000
00000000
01001000
00101000
00010000
00010000
POS r 3,14

SPR t
00000000
00000000
00000000
00000100
00101000
00101000
00010000
00010000
>
00000000
00000000
00000000
00000000
01001000
00101000
00010000
00010000
POS 8 9,1

SPR u
00000000
00000000
00000000
00100000
01000000
00101100
01010000
00010000
>
00000000
00000000
00000000
01001000
01000100
00101000
01010000
00010000
POS 5 9,3

SPR v
10001011
10100100
01001010
00100100
01000100
00101011
01010000
00010000
>
01001010
10100101
01001010
00100100
01000100
10101010
00010001
00010000
POS 8 6,1

SPR w
10001011
10100100
01001010
00100100
01000100
00101011
01010000
00010000
>
10001010
10100101
01001010
10100100
01000101
00101010
00010000
00010000
POS 8 9,3

SPR x
00000000
00000000
00000000
00000000
00000000
00101000
00010000
00010000
POS 8 8,2

SPR y
00000000
00000000
00000000
00000000
00000000
00101000
00010000
00010000
>
00000000
00000000
00000000
00000000
00000000
00000000
00101000
00010000
POS 8 7,1

SPR z
00000000
00000000
00000000
00000000
00000000
00101000
00010000
00010000
>
00000000
00000000
00000000
00000000
00000000
00000000
00101000
00010000
POS q 3,14

SPR 1a
10001011
10100100
01001010
00100100
01000100
00101011
01010000
00010000
>
10001010
10100101
01001010
10100100
01000101
00101010
00010000
00010000
POS 9 6,3

SPR 1b
00000000
00000000
00000000
00100000
01000000
00101100
01010000
00010000
>
00000000
00000000
00000000
01001000
01000100
00101000
01010000
00010000
POS 9 7,2

SPR 1c
00000000
00000000
00000000
00100000
01000000
00101100
01010000
00010000
>
00000000
00000000
00000000
01001000
01000100
00101000
01010000
00010000
POS 9 9,3

SPR 1d
00000000
00000000
00000000
00100000
01000000
00101100
01010000
00010000
>
00000000
00000000
00000000
01001000
01000100
00101000
01010000
00010000
POS 9 10,2

SPR 1e
10001011
10100100
01001010
00100100
01000100
00101011
01010000
00010000
>
01001010
10100101
01001010
00100100
01000100
10101010
00010001
00010000
POS 9 9,2

SPR 1f
10001011
10100100
01001010
00100100
01000100
00101011
01010000
00010000
>
10001010
10100101
01001010
10100100
01000101
00101010
00010000
00010000
POS 9 9,1

SPR 1g
10001011
10100100
01001010
00100100
01000100
00101011
01010000
00010000
>
10001010
10100101
01001010
10100100
01000101
00101010
00010000
00010000
POS 9 5,2

SPR 1h
00000000
00000100
01001000
00100100
01000100
00101000
01010000
00010000
>
00000000
00000100
11000010
00100100
01000100
00101000
01010000
00010000
POS 9 6,1

SPR 1i
00000000
00000100
01001000
00100100
01000100
00101000
01010000
00010000
>
00000000
00000100
11000010
00100100
01000100
00101000
01010000
00010000
POS 9 7,3

SPR 1j
00000000
00000000
00000000
00000000
00000000
00101000
00010000
00010000
POS 9 8,3

SPR 1k
00000000
00000000
00000000
00000100
00101000
00101000
00010000
00010000
>
00000000
00000000
00000000
00000000
01001000
00101000
00010000
00010000
POS 9 8,2

SPR 1l
00000000
00000000
00000000
00000000
00000000
00101000
00010000
00010000
POS 9 7,1

SPR 1m
10001011
10100100
01001010
00100100
01000100
00101011
01010000
00010000
>
01001010
10100101
01001010
00100100
01000100
10101010
00010001
00010000
POS 9 8,1

SPR 1n
00000000
00000000
00000000
00000000
00000000
00101000
00010000
00010000
POS 9 9,0

SPR 1o
00000000
00000000
00000000
00000000
00000000
00000000
00000000
01010100
>
00000000
00000000
00000000
00000000
00000000
00000000
00000000
10101000
POS 9 8,0

SPR 1p
00000000
00000000
00000000
00000000
00000000
00000000
00000000
01010100
>
00000000
00000000
00000000
00000000
00000000
00000000
00000000
10101000
POS 9 5,1

SPR 1q
00000000
00000000
00000000
00000000
00000000
00000000
00000000
00010100
>
00000000
00000000
00000000
00000000
00000000
00000000
00000000
00101000
POS 9 10,3

SPR 1r
00000000
00000000
00000000
00000000
00000000
00000000
00000000
00010100
>
00000000
00000000
00000000
00000000
00000000
00000000
00000000
00101000

SPR 1s
00000000
00000000
00000000
00000000
00000000
00101000
00010000
00010000
POS 9 5,0

SPR 1t
00000000
00000000
00000000
00000000
00000000
00000000
00000000
00010100
>
00000000
00000000
00000000
00000000
00000000
00000000
00000000
00101000
POS 9 4,0

SPR 1u
00000000
00000000
00000000
00000100
00101000
00101000
00010000
00010000
>
00000000
00000000
00000000
00000000
01001000
00101000
00010000
00010000
POS 9 7,5

SPR 1v
00000000
00000000
00000000
00000000
00000000
00101000
00010000
00010000
POS 9 11,0

SPR 1w
00000000
00000000
00000000
00000000
00000000
00000000
00000000
01010100
>
00000000
00000000
00000000
00000000
00000000
00000000
00000000
10101000
POS 9 5,6

SPR 1x
00000000
00000000
00000000
00000000
00000000
00000000
00000000
01010100
>
00000000
00000000
00000000
00000000
00000000
00000000
00000000
10101000

SPR 1y
00000000
00000000
00000000
00000000
00000000
00000000
00000000
01010100
>
00000000
00000000
00000000
00000000
00000000
00000000
00000000
10101000
POS 9 10,11

SPR 1z
00000000
00000000
00000000
00000000
00000000
00101000
00010000
00010000
POS 9 5,12

SPR 2a
00000000
00000000
00000000
00000000
00000000
00101000
00010000
00010000
POS c 7,1

SPR 2b
00000000
00000000
00000000
00000000
00000000
00101000
00010000
00010000

SPR 2c
00000000
00000000
00000000
00000000
00000000
00101000
00010000
00010000
>
00000000
00000000
00000000
00000000
00000000
00000000
00101000
00010000
POS c 10,2

SPR 2d
00000000
00000100
01001000
00100100
01000100
00101000
01010000
00010000
>
00000000
00000100
11000010
00100100
01000100
00101000
01010000
00010000
POS d 6,1

SPR 2e
00000000
00000000
01001010
00100100
01000100
00101000
01010000
00010000
>
00000000
00000100
00001000
00100100
01000100
00101000
01010000
00010000
POS d 9,3

SPR 2f
00000000
00000000
00000000
00000100
00101000
00101000
00010000
00010000
>
00000000
00000000
00000000
00000000
01001000
00101000
00010000
00010000
POS d 8,2

SPR 2g
00000000
00000000
00000000
00000100
00101000
00101000
00010000
00010000
>
00000000
00000000
00000000
00000000
01001000
00101000
00010000
00010000
POS d 7,1

SPR 2h
00000000
00000000
00000000
00100000
01000000
00101100
01010000
00010000
>
00000000
00000000
00000000
01001000
01000100
00101000
01010000
00010000
POS d 7,2

SPR 2i
00000000
00000000
00000000
00000100
00101000
00101000
00010000
00010000
>
00000000
00000000
00000000
00000000
01001000
00101000
00010000
00010000
POS d 10,2

SPR 2j
00000000
00000000
00000000
00000000
00000000
00101000
00010000
00010000
POS d 5,3

SPR 2k
00000000
00000000
00000000
00000000
00000000
00101000
00010000
00010000
>
00000000
00000000
00000000
00000000
00000000
00000000
00101000
00010000
POS d 7,4

SPR 2l
00000000
00000000
00000000
00000000
00000000
00101000
00010000
00010000
>
00000000
00000000
00000000
00000000
00000000
00000000
00101000
00010000
POS d 8,1

SPR 2m
00000000
00000000
00000000
00000000
00000000
00101000
00010000
00010000
POS d 9,2

SPR 2n
00000000
00000000
00000000
00000000
00000000
00101000
00010000
00010000
>
00000000
00000000
00000000
00000000
00000000
00000000
00101000
00010000
POS d 5,2

SPR 2o
00000000
00000000
00000000
00000000
00000000
00000000
00000000
00010100
>
00000000
00000000
00000000
00000000
00000000
00000000
00000000
00101000
POS d 9,1

SPR 2p
10001011
10100100
01001010
00100100
01000100
00101011
01010000
00010000
>
10001010
10100101
01001010
10100100
01000101
00101010
00010000
00010000
POS e 6,1

SPR 2q
10001011
10100100
01001010
00100100
01000100
00101011
01010000
00010000
>
01001010
10100101
01001010
00100100
01000100
10101010
00010001
00010000
POS e 9,3

SPR 2r
00000000
00000000
00000000
00100000
01000000
00101100
01010000
00010000
>
00000000
00000000
00000000
01001000
01000100
00101000
01010000
00010000

SPR 2s
00000000
00000100
01001000
00100100
01000100
00101000
01010000
00010000
>
00000000
00000100
11000010
00100100
01000100
00101000
01010000
00010000
POS e 7,2

SPR 2t
00000000
00000000
00000000
00100000
01000000
00101100
01010000
00010000
>
00000000
00000000
00000000
01001000
01000100
00101000
01010000
00010000
POS e 7,1

SPR 2u
00000000
00000000
00000000
00100000
01000000
00101100
01010000
00010000
>
00000000
00000000
00000000
01001000
01000100
00101000
01010000
00010000
POS e 8,2

SPR 2v
00000000
00000100
01001000
00100100
01000100
00101000
01010000
00010000
>
00000000
00000100
11000010
00100100
01000100
00101000
01010000
00010000

SPR 2w
00000000
00000000
00000000
00000100
00101000
00101000
00010000
00010000
>
00000000
00000000
00000000
00000000
01001000
00101000
00010000
00010000
POS e 9,2

SPR 2x
00000000
00000000
00000000
00000100
00101000
00101000
00010000
00010000
>
00000000
00000000
00000000
00000000
01001000
00101000
00010000
00010000
POS e 8,1

SPR 2y
00000000
00000000
00000000
00000100
00101000
00101000
00010000
00010000
>
00000000
00000000
00000000
00000000
01001000
00101000
00010000
00010000
POS e 5,2

SPR 2z
00000000
00000000
00000000
01000000
00101000
00101000
00010000
00010000
>
00000000
00000000
00000000
00000100
00101000
00101000
00010000
00010000
POS e 5,3

SPR 3a
00000000
00000000
00000000
00000000
00000000
00000000
00000000
00010100
>
00000000
00000000
00000000
00000000
00000000
00000000
00000000
00101000
POS e 4,2

SPR 3b
10001011
10100100
01001010
00100100
01000100
00101011
01010000
00010000
>
01001010
10100101
01001010
00100100
01000100
10101010
00010001
00010000
POS f 6,1

SPR 3c
00000000
00000000
00000000
00000000
00000000
00000000
00000000
01010100
>
00000000
00000000
00000000
00000000
00000000
00000000
00000000
10101000
POS f 6,0

SPR 3d
10001011
10100100
01001010
00100100
01000100
00101011
01010000
00010000
>
01001010
10100101
01001010
00100100
01000100
10101010
00010001
00010000
POS f 9,3

SPR 3e
00000000
00000100
01001000
00100100
01000100
00101000
01010000
00010000
>
00000000
00000100
11000010
00100100
01000100
00101000
01010000
00010000
POS f 9,2

SPR 3f
00000000
00000100
01001000
00100100
01000100
00101000
01010000
00010000
>
00000000
00000100
11000010
00100100
01000100
00101000
01010000
00010000
POS f 5,2

SPR 3g
00000000
00000000
00000000
00000100
00101000
00101000
00010000
00010000
>
00000000
00000000
00000000
00000000
01001000
00101000
00010000
00010000
POS f 5,1

SPR 3h
00000000
00000000
00000000
00000100
00101000
00101000
00010000
00010000
>
00000000
00000000
00000000
00000000
01001000
00101000
00010000
00010000
POS f 6,3

SPR 3i
00000000
00000000
00000000
00000100
00101000
00101000
00010000
00010000
>
00000000
00000000
00000000
00000000
01001000
00101000
00010000
00010000

SPR 3j
00000000
00000000
00000000
00000100
00101000
00101000
00010000
00010000
>
00000000
00000000
00000000
00000000
01001000
00101000
00010000
00010000
POS f 7,3

SPR 3k
00000000
00000100
01001000
00100100
01000100
00101000
01010000
00010000
>
00000000
00000100
11000010
00100100
01000100
00101000
01010000
00010000
POS f 5,3

SPR 3l
10001011
10100100
01001010
00100100
01000100
00101011
01010000
00010000
>
10001010
10100101
01001010
10100100
01000101
00101010
00010000
00010000
POS f 7,1

SPR 3m
10001011
10100100
01001010
00100100
01000100
00101011
01010000
00010000
>
10001010
10100101
01001010
10100100
01000101
00101010
00010000
00010000
POS f 8,2

SPR 3n
00000000
00000100
01001000
00100100
01000100
00101000
01010000
00010000
>
00000000
00000100
11000010
00100100
01000100
00101000
01010000
00010000
POS f 7,2

SPR 3o
00000000
00000000
01001010
00100100
01000100
00101000
01010000
00010000
>
00000000
00000100
00001000
00100100
01000100
00101000
01010000
00010000
POS f 8,3

SPR 3p
00000000
00000000
00000000
00000100
00101000
00101000
00010000
00010000
>
00000000
00000000
00000000
00000000
01001000
00101000
00010000
00010000
POS f 8,4

SPR 3q
00000000
00000000
00000000
00100000
01000000
00101100
01010000
00010000
>
00000000
00000000
00000000
01001000
01000100
00101000
01010000
00010000
POS f 6,4

SPR 3r
00000000
00000000
00000000
00000000
00000000
00101000
00010000
00010000
POS f 5,4

SPR 3s
00000000
00000000
00000000
00000000
00000000
00101000
00010000
00010000
POS f 7,0

SPR 3t
00000000
00000000
00000000
00000000
00000000
00101000
00010000
00010000
POS f 10,4

SPR 3u
00000000
00000000
00000000
00000100
00101000
00101000
00010000
00010000
>
00000000
00000000
00000000
00000000
01001000
00101000
00010000
00010000
POS f 11,2

SPR 3v
00000000
00000100
01001000
00100100
01000100
00101000
01010000
00010000
>
00000000
00000100
11000010
00100100
01000100
00101000
01010000
00010000
POS f 10,2

SPR 3w
00000000
00000000
00000000
00000000
00000000
00101000
00010000
00010000
>
00000000
00000000
00000000
00000000
00000000
00000000
00101000
00010000
POS f 4,2

SPR 3x
00000000
00000000
00000000
00000000
00000000
00101000
00010000
00010000
>
00000000
00000000
00000000
00000000
00000000
00000000
00101000
00010000
POS f 11,0

SPR 3y
00000000
00000000
00000000
00000000
00000000
00101000
00010000
00010000
>
00000000
00000000
00000000
00000000
00000000
00000000
00101000
00010000
POS f 5,0

SPR 3z
00000000
00000000
00000000
00000000
00000000
00101000
00010000
00010000
>
00000000
00000000
00000000
00000000
00000000
00000000
00101000
00010000
POS f 4,5

SPR 4a
11111111
11111111
11111111
11111111
11111111
11111111
11111111
11111111
POS g 7,2

SPR 4b
11111111
11111111
11111111
11111111
11111111
11111111
11111111
11111111
POS g 5,3

SPR 4c
11111111
11111111
11111111
11111111
11111111
11111111
11111111
11111111

SPR 4d
11111111
11111111
11111111
11111111
11111111
11111111
11111111
11111111
POS g 8,3

SPR 4e
11111111
11111111
11111111
11111111
11111111
11111111
11111111
11111111
POS g 8,2

SPR 4f
11111111
11111111
11111111
11111111
11111111
11111111
11111111
11111111
POS g 8,1

SPR 4g
11111111
11111111
11111111
11111111
11111111
11111111
11111111
11111111
POS g 5,1

SPR 4h
11111111
11111111
11111111
11111111
11111111
11111111
11111111
11111111
POS g 5,2

SPR 4i
11111111
00000000
11111111
00000000
11111111
00000000
11111111
00000000
POS g 9,1

SPR 4j
11111111
00000000
11111111
00000000
11111111
00000000
11111111
00000000
POS g 9,2

SPR 4k
11111111
00000000
11111111
00000000
11111111
00000000
11111111
00000000
POS g 9,3

SPR 4l
11111111
00000000
11111111
00000000
11111111
00000000
11111111
00000000
POS g 7,3

SPR 4m
00000000
00000000
00000000
00000000
00000000
00000000
00000000
00000000
POS g 10,1

SPR 4n
00000000
00000000
00000000
00000000
00000000
00000000
00000000
00000000
POS g 10,2

SPR 4o
00000000
00000000
00000000
00000000
00000000
00000000
00000000
00000000
POS g 10,3

SPR 4p
00000000
00000000
00000000
00000000
00000000
00000000
00000000
00000000
POS g 10,4

SPR 4q
11111111
11111111
11111111
11111111
11111111
11111111
11111111
11111111
POS g 11,3

SPR 4r
11111111
11111111
11111111
11111111
11111111
11111111
11111111
11111111
POS g 11,4

SPR 4s
11111111
00000000
11111111
00000000
11111111
00000000
11111111
00000000
POS g 6,4

SPR 4t
00000000
00000000
00000000
00000000
00000000
00000000
00000000
00000000
POS g 7,4

SPR 4u
11111111
11111111
11111111
11111111
11111111
11111111
11111111
11111111

SPR 4v
00000000
00000000
00000000
00000000
00000000
00000000
00000000
00000000

SPR 4w
00000000
00000000
00000000
00000000
00000000
00101000
00010000
00010000
POS r 13,8

SPR 4x
00000000
00000000
00000000
00000000
00000000
00101000
00010000
00010000
POS r 1,6

SPR 4y
00000000
00000000
00000000
00000100
00101000
00101000
00010000
00010000
>
00000000
00000000
00000000
00000000
01001000
00101000
00010000
00010000
POS f 5,0

SPR 4z
00000000
00000000
00000000
00000000
00000000
00101000
00010000
00010000
POS f 6,0

SPR 5a
00000000
00000000
00000000
00000100
00101000
00101000
00010000
00010000
>
00000000
00000000
00000000
00000000
01001000
00101000
00010000
00010000
POS s 2,8

SPR 5b
00000000
00000000
00000000
00000100
00101000
00101000
00010000
00010000
>
00000000
00000000
00000000
00000000
01001000
00101000
00010000
00010000
POS s 12,6

SPR 5c
00000000
00000000
00000000
00000000
00000000
00101000
00010000
00010000
POS s 1,2

SPR 5d
00000000
00000000
00000000
00000000
00000000
00101000
00010000
00010000
POS s 11,2

SPR 5e
00000000
00000000
00000000
00000000
00000000
00101000
00010000
00010000
POS s 15,8

SPR 5f
00000000
00000000
00000000
00000100
00101000
00101000
00010000
00010000
>
00000000
00000000
00000000
00000000
01001000
00101000
00010000
00010000
POS s 3,0

ITM 0
00000111
00001100
00010000
00111100
01011111
01001110
01011100
01110000
NAME tea
DLG ITM_0

ITM 1
00000000
00000000
00000000
00000000
00000000
00000000
00000000
00000000

ITM 2
00000000
00000000
00000000
00000000
00000000
00000000
00000000
01010100
>
00000000
00000000
00000000
00000000
00000000
00000000
00000000
00101010
DLG ITM_1

ITM 3
00000000
00000000
00000000
00000000
00000000
00000000
00000000
00000000
DLG ITM_2

ITM 4
00000000
00000000
00000000
00000000
00010000
00010000
00010000
00010000

ITM 5
00000000
00000000
00000000
00000000
00000000
00010100
00001000
00001000
>
00000000
00000000
00000000
00000000
00000000
00000000
00010100
00001000
DLG ITM_3

ITM 6
00000000
00000000
00000000
00000000
00000000
00000000
00000000
00000000

ITM 7
00000000
00000000
00000000
00000000
00000000
00000000
00000000
00000000
DLG ITM_5

ITM 8
00000000
00011000
00100100
01000010
01000010
01000010
01000010
01000010
DLG ITM_a

ITM 9
00100100
00100100
00010010
00001110
00101110
00011111
00001110
00000011
>
00100100
00100100
00110100
00011100
01011101
00111110
00001111
00000111
DLG ITM_6

ITM a
01000010
00111100
01000010
10100101
01000010
00100100
00011000
00100100
>
01000010
00111100
01000010
10011001
01000010
00100100
00011000
00100100
DLG ITM_8

ITM b
00000000
00000000
00000000
00000000
00000000
00000000
00000000
00000000
DLG ITM_7

ITM c
01000010
01000010
00100001
00100001
01000010
01000010
00111100
00000000
>
01000010
01000010
10000100
10000100
01000010
01000010
00111100
00000000
DLG ITM_9

ITM d
00000000
00011000
00100100
01000010
01000010
01000010
01000010
01000010
DLG ITM_4

ITM e
00000000
00000000
00000000
00000000
00000000
00000000
00000000
00000000

ITM f
00000000
00011000
00100100
01000010
01000010
01000010
01000010
01000010

ITM g
00000000
00000000
00000000
00000000
00000000
00000000
00000000
00000000

DLG SPR_0
I'm a cat

DLG ITM_0
You found a nice warm cup of tea

DLG ITM_1
{clr2}Are you sad to see me go?{clr2}

DLG ITM_2
{clr2}Come a little closer.{clr2}

DLG ITM_3
You take a piece.

DLG ITM_5
{clr2}The water drips down and wears the skin from my bones{clr2}

DLG ITM_6
"""
It's all felt wrong since the Oldest passed.
I wasn't there, but everyone in this town tells me crops were thriving in those days.
Colors were brighter in the times of the Living.
"""

DLG ITM_7
"""
I built a time machine to go back to when It lived. 
Everyone in town laughed at me but I could tell that deep down they were praying it would work.
It had been so long, the sun beating down on us, our sweat baptising the earth like rain from dawn to dusk.
"""

DLG ITM_8
"""
I checked the planets' alignment. If my tireless calculations were correct, this device would transport me to the Moments before Its death.
At last, perhaps I could resurrect that Last Living Hope.
"""

DLG ITM_9
Space warps around me and folds me into the moment I sought.

DLG ITM_a
"""
{clr2}I've been dead for a long,
long time.
There is no time
you can travel to
when I have not died{clr2}
"""

DLG ITM_4
But even in this distant past, no living Beast could I find.

VAR a
42

