1998

# BITSY VERSION 5.2

! ROOM_FORMAT 1

PAL 0
NAME palette 8
127,199,175
244,77,94
255,255,255

PAL 1
255,255,255
0,0,0
255,255,255

PAL 2
255,255,255
0,0,0
255,78,134

PAL 3
236,251,65
236,251,65
215,4,99

PAL 4
164,42,27
255,255,255
140,156,255

PAL 5
164,42,27
255,236,204
255,236,204

PAL 6
140,223,214
164,42,27
255,255,255

PAL 7
NAME palette 0
195,92,47
234,155,103
255,236,188

ROOM 8
0,2h,2j,0,o,p,o,p,o,p,o,p,0,1p,1q,0
1w,2g,2i,1u,f,d,d,d,d,d,d,g,1u,1u,1u,2a
1v,0,22,21,f,d,d,d,d,d,d,g,0,0,0,29
1v,0,m,0,f,d,d,d,d,d,d,g,0,0,0,29
2d,22,21,0,0,0,0,0,0,0,0,0,0,0,2w,29
2c,0,0,0,0,0,0,0,0,0,0,0,0,0,2w,29
1v,0,0,0,0,0,27,27,27,27,0,0,2u,0,0,29
r,1h,1k,1k,0,0,25,25,25,25,0,0,0,2u,0,29
q,1i,e,e,0,0,25,25,25,25,0,0,0,0,2w,29
r,1i,e,e,0,0,25,25,25,25,0,0,0,0,2w,29
q,1f,1j,1j,0,0,25,25,25,25,0,0,0,0,0,29
2e,0,0,0,0,2z,30,30,26,26,0,0,0,u,x,10
2d,0,0,2z,0,0,2z,0,0,0,0,0,0,v,0,0
2c,0,0,0,2z,0,0,2z,0,0,0,0,0,v,0,11
2e,0,0,0,0,2z,0,0,2z,0,0,0,0,t,w,z
1y,2z,0,0,0,0,2z,0,2z,0,0,0,0,0,0,29
NAME start
ITM 0 7,14
ITM 2 6,13
ITM 3 5,13
ITM 4 5,12
ITM 5 4,12
ITM 1 6,14
ITM 9 14,4
END 0 14,4
PAL 0

TIL 10
00000000
00000000
00000000
11111111
11111111
00000000
00100111
00010101

TIL 11
00000110
00000110
00000110
00011110
00011100
00000110
00000000
00000000

TIL 12
00000000
11111111
10000000
10101100
10100001
10000001
10011001
10000000

TIL 13
00000000
11111111
00000001
00001101
01001101
01000001
00001101
00100001

TIL 14
00000001
00010101
01010101
01000001
00001101
00000001
11111111
00000000

TIL 15
10000000
10110001
10110000
10000110
10100110
10000000
11111111
00000000

TIL 16
00100000
00101111
01100000
01100000
01101111
11100000
11100000
11101111
>
00100011
00101100
01100000
01100011
01101100
11100000
11100011
11101100
NAME AC

TIL 17
11100000
11101111
11100000
01100000
01101111
01100000
00100000
00101111
>
11100011
11101100
11100000
01100011
01101100
01100000
00100011
00101100

TIL 18
00100000
01110111
01110000
11110111
11110000
11110111
10100000
10000000
>
00100000
01110111
01110000
11110111
11110000
11110111
10100000
10000000

TIL 19
10000000
10000000
10000000
10000000
10000000
11110000
00000000
00000000

TIL 20
00110000
00110000
00110000
11110000
11100000
00110000
00000000
00000000

TIL 21
00000000
10000000
11001000
10001100
10001000
10011000
00011000
00000000
>
00000000
00001000
10001100
11001000
10011000
10011000
10000000
00000000

TIL 22
00000000
00000000
00001000
00001100
00001001
00011001
00011000
00000000
>
00000000
00001000
00001100
00001000
00011000
00011001
00000001
00000000

TIL 23
11111111
10000001
10111101
10100101
10100101
10111101
10000001
11111111

TIL 24
01110101
01110101
00000101
01010101
00000101
01110101
01000101
00000101
>
01110101
01110101
00000101
00000101
00000101
01110101
01000101
00000101
WAL true

TIL 25
10101010
01010101
10101010
01010101
10101010
01010101
10101010
01010101

TIL 26
10101010
01010101
10101010
01010101
11111111
11111111
11111111
10101010

TIL 27
01010101
11111111
11111111
01010101
10101010
01010101
10101010
01010101

TIL 28
00100101
00100101
00110001
00001101
00000011
00000000
00000000
00000000

TIL 29
10100000
10100000
10100000
10100000
10100000
10100000
10100000
10100000
WAL true

TIL 30
10101010
01010101
10101010
01010101
11111111
11111111
11111111
10101010
WAL true

TIL 31
00000000
00000000
00000000
00000000
00000000
11111111
00000000
11111111

TIL 32
10100000
10100000
10100000
10100000
10100000
10111111
10000000
11111111

TIL 33
10100000
10100000
10100000
10100000
10100000
10100000
10100000
10100000

TIL 34
00000000
00000000
00000000
01010101
11111111
11111111
11111111
11111111
WAL true

TIL 35
00000000
00000000
00000000
01010101
11111111
11111111
11111111
11111111
WAL true

TIL d
00000000
01010101
01010101
10101010
10101010
01010101
01010101
11111111
NAME tile a
WAL true

TIL e
01100111
00011001
01100111
00011001
01100111
00011001
01100111
00011001
WAL true

TIL f
10000000
10010101
10010101
10101010
10101010
10010101
10010101
11111111
WAL true

TIL g
00000001
01010101
01010101
10101001
10101001
01010101
01010101
11111111
WAL true

TIL h
11100110
10011000
11100110
10011000
11100110
10011000
11100110
10011000
WAL true

TIL i
11111111
10000000
11100110
10011000
11100110
10011000
11100110
10011000
WAL true

TIL j
11100110
10011000
11100110
10011000
11100110
10011000
10000000
11111111
WAL true

TIL k
11111111
00000001
01100111
00011001
01100111
00011001
01100111
00011001
WAL true

TIL l
01100111
00011001
01100111
00011001
01100111
00011001
00000001
11111111
WAL true

TIL m
10101111
11111101
11001101
10100101
10110101
11001101
11111001
11111111
>
10101111
11111101
11001101
10110101
10010101
11001101
11111001
11111111
NAME recPlayer

TIL n
11111111
11111111
11111111
11111111
11111111
11111111
11111111
11111111
WAL true

TIL o
00000000
00000000
01111111
01000000
01011101
00000000
11111111
11111111
WAL true

TIL p
00000000
00000000
01111110
00000010
11011010
00000000
11111111
11111111
WAL true

TIL q
00100011
00101011
00101011
00101011
00100011
00010011
00001011
00000011
WAL true

TIL r
00110011
00101011
00100111
00100011
00101011
00101011
00001011
00100011
WAL true

TIL s
00000000
11111110
00000010
00011010
00011010
00000010
00000010
00000010

TIL t
00110000
00110000
00110000
00111111
00111111
00000000
00000000
00000000
WAL true

TIL u
00000000
00000000
00000000
00111111
00111111
00110000
00110000
00110000
WAL true

TIL v
00110111
00110101
00110111
00110101
00110101
00110111
00110101
00110111
WAL true

TIL w
00000000
00000000
00000000
11111111
11111111
00000000
00000000
00000000

TIL x
00000100
00001000
00010000
11100000
11100000
00000000
00000000
00000000

TIL y
00000000
00000000
00000000
00000000
00000000
00000000
00000000
00000000
WAL true

TIL z
00000111
01110111
00000000
11111111
11111111
00000000
00000000
00000000

TIL 1a
00000001
00000001
00000001
00000001
00000001
00000111
00000000
00000000

TIL 1b
00100101
00100101
00110001
00001101
00000011
00000000
00000000
00000000

TIL 1c
00000000
00000000
00000000
00110000
00101100
00100010
00101001
00101001

TIL 1d
00001000
00001000
00001000
00001000
00001000
00001000
00001000
00001000

TIL 1e
11111111
00000000
00000000
00000000
00000000
00000000
00000000
00000000

TIL 1f
11100111
10011001
11100111
10011001
11000111
11110001
11111111
00011111
WAL true

TIL 1g
11111111
10000000
11100110
10011000
11100110
10011000
11100110
10011000
WAL true

TIL 1h
11110000
11111111
10001111
10000001
11100111
10011001
11100111
10011001
WAL true

TIL 1i
11100111
10011001
11100111
10011001
11100111
10011001
11100111
10011001
WAL true

TIL 1j
01100111
00011001
01100111
00011001
11000111
11110001
11111111
00011111
WAL true

TIL 1k
11110000
11111111
00001111
00000001
01100111
00011001
01100111
00011001
WAL true

TIL 1l
00100000
00100000
00100000
00100000
00100000
00100000
00100000
00100000

TIL 1m
00000000
00000000
00000000
00000000
00000000
11111111
00000000
11111111
WAL true

TIL 1n
00000000
00000000
11111111
10000000
10101100
10100001
10000001
10011001

TIL 1o
00000000
00000000
11111111
00000001
00001101
01001101
01000001
00001101

TIL 1p
00000000
11111111
10000000
10101101
10000001
10011001
10000000
11111111

TIL 1q
00000000
11111111
00000001
01100101
01100001
00001101
00000001
11111111
>
00000000
11111111
00000001
01100101
01100001
00001101
00000001
11111111

TIL 1r
00000101
00000101
00000101
00000101
00000101
00000101
00000101
00000101
WAL true

TIL 1s
00000000
00000000
00000000
00000000
00000000
00000111
00000100
00000101
WAL true

TIL 1t
10100000
10100000
10100000
10100000
10100000
10100000
10100000
10100000
WAL false

TIL 1u
00000000
00000000
00000000
00000000
11111111
00000000
11111111
00000000
WAL true

TIL 1v
00000101
00000101
00000101
00000101
00000101
00000101
00000101
00000101
>
00000101
00000101
00000101
00000101
00000101
00000101
00000101
00000101
WAL true

TIL 1w
00000000
00000000
00000000
00000000
00000111
00000100
00000101
00000101
WAL true

TIL 1x
00000101
01110101
01110101
01010101
01010101
01110101
01110101
00000101
WAL true

TIL 1y
00000101
00000101
00000101
00000101
00000101
00000101
00000101
00000101
WAL true

TIL 1z
10000000
11000000
10001000
10001100
10001000
10011000
00011000
00000000
>
00000000
10001000
11001100
10001000
10011000
10011000
10000000
00000000

TIL 2a
00000000
00000000
00000000
00000000
11100000
00100000
10100000
10100000
WAL true

TIL 2b
00000101
11000101
11100101
11100101
01100101
00000101
01110101
01110101
WAL true

TIL 2c
10010101
10010101
01010101
10110101
01010101
00100101
00010101
00001101
WAL true

TIL 2d
10000101
01000101
10100101
11010101
10101101
10010101
10010101
10010101
WAL true

TIL 2e
00000101
00000101
00000101
00000101
00000101
00000101
00000101
00000101
WAL true

TIL 2f
00000000
00000000
00000000
11111111
11111111
11100110
11001011
11010010
>
00000000
00000000
00000000
11111111
11111111
11100110
11001011
11010010

TIL 2g
10000000
11111111
00000000
00000000
11111111
00000000
11111111
00000000
WAL true

TIL 2h
00000000
11111111
10000000
10000000
10101101
10100100
10101101
10000000
>
00000000
11111111
10000000
10000000
10101100
10100100
10101100
10000000

TIL 2i
00000001
11111111
00000000
00000000
11111111
00000000
11111111
00000000
WAL true

TIL 2j
00000000
11111111
00000001
00000001
01110101
01010101
01110101
00000001

TIL 2k
01111111
01000000
01000000
01000000
01000000
01000000
01000000
01000000

TIL 2l
00010000
00111000
00010000
00111000
00010000
01111100
01111100
01111100

TIL 2m
11111111
11111111
00000000
11101110
11101110
11101110
11101110
00000000

TIL 2n
00000000
00000000
00000000
00000000
00000000
00000000
00000000
00000000

TIL 2p
00000000
00000000
00000000
00000000
00000000
00000000
00000000
11111111

TIL 2q
01110111
01110111
01110111
01110111
00000000
00000000
00000000
00000000

TIL 2r
00000010
00000010
00000010
00000010
00000010
00000010
00000010
00000011

TIL 2s
01110111
01110111
01110111
01110111
00000000
11101110
11101110
11111111

TIL 2t
00000011
00000010
00000010
00000010
00000010
00000010
00000010
00000010

TIL 2u
00000000
00011000
00000000
01011010
01011010
00000000
00011000
00000000

TIL 2v
00110110
00110110
00000000
11111111
11111111
00000000
11011011
11011011

TIL 2w
00011111
00001111
00011111
00001111
00011111
00001111
00011111
00001111
WAL false

TIL 2x
11111111
00000000
01101101
01101101
00000000
11011011
11011011
00000000

TIL 2y
11100111
10111111
10000001
11111111
00000000
00000000
00000000
00000000

TIL 2z
00000000
00000000
00000000
00000000
00000000
00000000
00000000
00000000
WAL true

SPR A
00111100
00100100
00011000
00111100
01011010
00111100
00011000
00011000
POS 8 7,15

SPR j
00000000
00000000
00110010
11100010
11111100
00111100
11111100
00000000
>
00000000
00000000
00110000
11100011
11111110
00111100
11111100
00000000
DLG SPR_6
POS 8 13,2

SPR k
00011000
00011100
00001000
01011000
00111000
00011000
00011000
00011000
NAME dude
POS 8 14,12

SPR m
00000000
00110000
00110000
01110000
10110000
00110000
01010000
01010000
DLG SPR_1
POS 8 4,9

SPR n
00011000
01011000
01111100
00011010
00011100
00111100
00100100
00000000
DLG SPR_2
POS 8 8,4

SPR o
00000000
00000000
00000000
00000000
00000000
00000000
00010000
00000000

SPR p
00000000
00000000
00000000
00000000
00000110
00000000
00000000
00000000
NAME Spice Up
DLG SPR_3
POS 8 3,10

SPR q
00000000
00000000
00000000
00000000
00000110
00000000
00000000
00000000
NAME Crush
DLG SPR_0
POS 8 3,8

SPR r
00000000
00000000
00000000
00000000
00000110
00000000
00000000
00000000
NAME Caula
DLG SPR_4
POS 8 2,7

SPR s
00000000
00000000
00000000
00100000
00100000
00000000
00000000
00000000
NAME Celine
DLG SPR_5
POS 8 4,2

SPR t
00000000
00000000
00000000
00001000
00001000
00000000
00000000
00000000
NAME Chumba
DLG SPR_7
POS 8 7,3

SPR u
00000000
00000000
00000000
00000000
00000000
00010000
00010000
00000000
NAME SixPence
DLG SPR_8
POS 8 5,3

SPR v
00000000
00000000
00000000
00001000
00001000
00000000
00000000
00000000
NAME Heather
DLG SPR_9
POS 8 10,3

SPR w
00000000
00000000
00000000
00000000
00000000
00000100
00000100
00000000
DLG SPR_a
POS 8 11,2

ITM 0
00000000
00000000
00000000
00000000
00000000
00000000
00000000
00000000
NAME diaOne
DLG ITM_0

ITM 1
00000000
00000000
00000000
00000000
00000000
00000000
00000000
00000000
NAME diaTwo
DLG ITM_1

ITM 2
00000000
00000000
00000000
00000000
00000000
00000000
00000000
00000000
NAME diaThree
DLG ITM_2

ITM 3
00000000
00000000
00000000
00000000
00000000
00000000
00000000
00000000
NAME diaFour
DLG ITM_3

ITM 4
00000000
00000000
00000000
00000000
00000000
00000000
00000000
00000000
NAME diaFive
DLG ITM_4

ITM 5
00000000
00000000
00000000
00000000
00000000
00000000
00000000
00000000
DLG ITM_5

ITM 9
00000000
00000000
00010000
00000000
00000000
00000000
00000000
00000000
DLG ITM_7

DLG SPR_6
woof

DLG SPR_1
excuse you...

DLG SPR_2
what a classic! timeless!

DLG ITM_0
"""
Can't believe I get to see X outside of school. 
She's cool...
"""

DLG ITM_1
"""
Wonder what she will be wearing?  
......
 
Who cares, she's a friend and I would like her regardless.
"""

DLG ITM_2
"""
On the other hand, I don't want to be overdressed... 
Maybe I should just call and ask her?
"""

DLG ITM_3
"""
Don't be stupid, you are just meeting her to hangout, no need to make it awkward.

......

I mean, if giving her a mixtape for her birthday won't make it awkward, nothing else will.
"""

DLG ITM_4
"""
That's not awkward though, I make all of my friends mixtapes...

OK, not all but most of them.
 
......

And she's cool and we have been sharing a lot and she remembered {clr2}MY{clr2} birthday so it won't be awkward.
"""

DLG ITM_5
Now I just need to choose some good tracks and all will be well!

DLG SPR_0
"""
{wvy}it's just...a little crush...na na na na
not like I faint every time we tou...
{wvy}I know she has been listening to this {clr2}a lot{clr2}, so might be good.
{rbw}......{rbw}

Although, now that I listen to the lyrics...would she {shk}{clr2}misunderstand{clr2}{shk} it?

Maybe it's best to pass on this one. 
"""

DLG SPR_3
"""
{shk}Slam it to the left{shk}
 
{rbw}If you're havin' a good time{rbw}
  
{shk}Shake it to the right{shk}
 
{rbw}If ya know that you feel fine{rbw} 

{shk}Chicas to the front!{shk}

{shk}Ha! ha!{shk}

{rbw}......{rbw}

ok, I don't think so...
"""

DLG SPR_4
"""
{wvy}I don't wanna wait, for our liiiiiives to be oveeer la la la la la laa will it BEEEEEEEEE {wvy}

OK now, I know she loves {clr2}Cawson's Mreek{clr2}, so I have to include this one. And also, we listen to this a lot, {clr2}together{clr2}
......

I really love sharing my headphones with her...
...she {wvy}keeps{wvy} talking about Pacey though, Pacey this, Pacey that, I don't see the big deal to be honest. He is a guy just like all the other guys, looking like a guy, a very guy guy, a guy, meh. I could never share my headphones with a guy, {shk}gross{shk}.
Anyway, this one goes in the list!
"""

DLG SPR_5
"""
{wvy}Neaaaaaar
{wvy}
{wvy}Faaaaaaaaaaaaaaaar
{wvy}
{wvy}WhereeeeeeEEEEEEEEEEEEEEEEEEEEE
{wvy}
{wvy}eeever you aaaa...{wvy}


{clr2}no.{clr2}
"""

DLG SPR_7
"""
{wvy}he drinks a Whiskey drink, {wvy}

{wvy}he drinks a Vodka drink{wvy}

{wvy}he drinks a Lager drink, {wvy}

{wvy}he drinks a Cider drink{wvy}

{wvy}he sings the songs that remind him of the good times{wvy}
{wvy}he sings the songs that remind him of the best times{wvy}
......

{shk}why not?{shk}
"""

DLG SPR_8
"""
{wvy}kiiiiiiss meeeee {wvy}

{wvy}beneath the milky twilight{wvy}

{wvy}Leaaaaaaight me out on the moonLIT floooOOOoor{wvy}
Lift your open hand

{wvy}la la la labla bla blaaaa surround meeee{wvy}
Ugh, I really like this song, it's a good one and we even sang it together a few times, but would the lyrics throw her off? 
Sigh, I mean what if it does? It's not like I {shk}{rbw}"like her"{rbw}{shk} like her anyway. So I am sure she won't misunderstand.
......

We both know girls {clr2}don't{clr2} like other girls that way anyway. 
So.

......

AND {shk}even{shk} if they did,

I definitely don't like her that way.

"""

DLG SPR_9
"""
I do like this song a lot, but will she? 
The title is neutral enough, she might not care for the lyrics?
.....

I love the lyrics though

{wvy}nothing heals me like you do{wvy}

I {clr2}do{clr2} feel better when I am around her...
{rbw}......{rbw}

{wvy}keep me, in your bed all day{wvy}
 
Yeah right, like anyone would even LET me in their bed, let alone keep me. 

{shk}Anyway...{shk}

...I know for sure she won't, I mean she {shk}shouldn't,{shk} of course she {shk}shouldn't!!{shk} 

Because she is a {shk}FRIEND!{shk}

A good friend, maybe my future best friend.
So, let's not ruin this brain! 
"""

DLG SPR_a
"""
{wvy}Don't want to cloooooose my eyes

{wvy}{wvy}I don't want to faAAaall asleep{wvy}

{wvy}'Cause I'd miss you {shk}baby{shk}{wvy}

......

You know what,

I will just get her a book instead.
"""

DLG ITM_7
"""
This book looks nice, should do just {wvy}fine{wvy}.
Adrienne Rich
Collected Poems: 1950 - 2012
{rbw}{wvy}fin{wvy}{rbw}

made by {rbw}Berrak{rbw}

https://berraknil.github.io
"""

END 0


END undefined


END undefinee


END undefinef


VAR a
42

