
Snowy road

# BITSY VERSION 4.5

! ROOM_FORMAT 1

PAL 0
15,88,20
255,255,255
232,210,90

PAL 1
254,246,131
255,145,77
148,97,3

PAL 2
58,115,56
255,255,255
148,97,3

PAL 3
176,176,176
255,255,255
255,210,115

PAL 4
125,125,125
255,255,255
255,223,130

PAL 5
255,255,255
255,255,255
255,255,255

PAL 6
148,148,148
255,255,255
255,223,130

PAL 7
204,204,204
255,255,255
255,223,130

PAL 8
232,232,232
255,255,255
255,223,130

PAL 9
255,255,255
255,255,255
255,255,255

PAL a
140,171,145
255,255,255
255,223,130

PAL b
108,133,112
255,255,255
255,223,130

ROOM 8
r,r,r,r,r,r,r,r,r,r,r,r,r,r,r,r
r,r,r,r,r,r,r,r,r,r,r,r,r,r,r,r
r,r,r,r,r,r,r,r,r,r,r,r,r,r,r,r
v,v,v,v,v,v,v,v,v,v,v,v,v,v,v,v
0,0,0,0,0,0,0,0,0,0,0,0,0,0,0,0
0,0,0,0,0,3c,0,0,0,0,0,0,0,0,0,0
0,0,66,69,65,3b,0,0,0,0,0,0,0,0,0,0
0,66,63,r,64,37,0,0,0,0,0,0,0,2s,0,0
66,63,r,3a,r,36,65,0,0,0,0,0,2q,2r,2y,0
68,r,r,r,r,r,67,0,0,0,0,0,2p,r,2x,0
2z,r,3a,r,3a,r,32,0,0,0,0,0,2o,r,2w,0
2z,r,r,r,4c,3k,32,72,72,3i,72,72,2n,r,2v,72
3e,3e,3e,3e,4d,3w,7q,3f,3g,3h,0,71,2m,2t,2u,0
5m,5m,5m,5m,5m,5m,5m,5m,5m,5m,5m,5m,5m,5m,5m,5m
r,r,r,r,r,r,r,r,r,r,r,r,r,r,42,r
r,r,r,r,r,r,r,r,r,r,r,r,r,r,r,r
EXT 15,12 d 0,12
PAL 3

ROOM a
r,r,r,r,r,r,r,r,r,r,r,r,r,r,r,r
r,r,r,r,r,r,r,r,r,r,r,r,r,r,r,r
r,r,r,r,r,r,r,r,r,r,r,r,r,r,r,r
v,v,v,v,v,v,v,v,v,v,v,v,v,v,v,v
45,45,45,44,44,44,44,44,44,44,44,44,44,44,44,44
45,45,45,44,44,44,44,44,44,44,44,44,44,44,44,44
45,45,45,44,44,44,44,44,44,44,44,44,44,44,44,44
45,45,45,44,2s,44,44,2s,44,44,2s,44,44,2s,44,44
45,45,45,2q,2r,2y,2q,2r,2y,2q,2r,2y,2q,2r,2y,2q
45,45,45,2p,r,2x,2p,r,2x,2p,r,2x,2p,r,2x,2p
45,45,45,2o,r,2w,2o,r,2w,2o,r,2w,2o,r,2w,2o
45,45,45,2n,r,2v,2n,r,2v,2n,r,2v,2n,r,2v,2n
0,0,0,2m,2t,2u,2m,2t,2u,2m,2t,2u,2m,2t,2u,2m
5m,5m,5m,5m,5m,5m,5m,5m,5m,5m,5m,5m,5m,5m,5m,5m
r,r,r,r,r,r,r,r,r,r,r,r,r,r,r,r
r,r,r,r,r,r,r,r,r,r,r,r,r,r,r,r
EXT 15,12 l 0,12
PAL a

ROOM c
r,r,r,r,r,r,r,r,r,r,r,r,r,r,r,r
r,r,r,r,r,r,r,r,r,r,r,r,r,r,r,r
r,r,r,r,r,r,r,r,r,r,r,r,r,r,r,r
r,r,r,r,r,r,r,r,r,r,r,r,r,r,r,r
r,r,r,r,r,r,r,r,r,r,r,r,r,r,r,r
r,r,r,r,r,r,r,r,r,r,r,r,r,r,r,r
r,r,r,r,r,r,r,r,r,r,r,r,r,r,r,r
r,r,r,r,r,r,r,r,r,r,r,r,r,r,r,r
r,55,53,58,53,53,53,53,53,53,53,53,53,53,54,r
r,57,72,58,72,0,0,4h,0,0,0,0,0,0,51,r
r,57,72,58,72,5j,5k,0,0,5b,5c,0,0,0,51,r
r,57,72,58,4n,72,5h,72,4s,4r,5d,5g,72,4u,51,r
r,57,58,58,59,4k,4l,4i,4f,4g,4j,5f,0,4v,51,r
r,56,50,50,50,50,50,50,50,50,50,50,7j,50,52,r
r,r,r,r,r,r,r,r,r,r,r,r,4z,r,r,r
r,r,r,r,r,r,r,r,r,r,r,r,r,r,r,r
ITM 5 7,12
EXT 12,13 8 5,12
PAL 1

ROOM d
r,r,r,r,r,r,r,r,r,r,r,r,r,r,r,r
r,r,r,r,r,r,r,r,r,r,r,r,r,r,r,r
r,r,r,r,r,r,r,r,r,r,r,r,r,r,r,r
v,v,v,v,v,v,v,v,v,v,v,v,v,v,v,v
2b,2b,2b,2b,2b,2b,2b,2b,2b,2b,2b,2b,2b,2b,2b,2b
2b,2b,2b,2b,2b,2b,2b,2b,2b,2b,2b,2b,2b,2b,2b,2b
0,0,5u,5y,5y,5y,5t,5v,0,5u,5y,5y,5y,5t,5v,0
0,0,5q,5w,5x,5r,5r,5s,0,5q,5r,5r,5w,5x,5s,0
0,0,5q,5r,5y,5w,5x,5s,0,5q,5w,5x,5w,5x,5s,0
0,0,5q,5r,5r,5r,5r,5s,0,5q,5y,5r,5r,5r,5s,0
0,0,r,r,r,r,r,r,0,r,r,r,r,r,r,0
72,72,r,5z,74,0,5z,r,0,r,5z,r,r,5z,r,72
0,73,5n,5o,60,60,60,60,60,62,6b,6a,6a,6a,6a,7w
5m,5m,5m,5m,5m,5m,5m,5m,5m,5m,5m,5m,5m,5m,5m,5m
r,r,r,r,r,r,r,r,r,r,r,r,r,r,r,r
r,r,r,r,r,r,r,r,r,r,r,r,r,r,r,r
EXT 15,12 e 0,12
PAL 3

ROOM e
r,r,r,r,r,r,r,r,r,r,r,r,r,r,r,r
r,r,r,r,r,r,r,r,r,r,r,r,r,r,r,r
r,r,r,r,r,r,r,r,r,r,r,r,r,r,r,r
r,r,r,r,r,r,r,r,r,r,r,r,r,r,r,r
v,v,v,v,v,v,v,v,v,v,v,v,v,v,v,v
2b,2b,2b,2b,2b,2b,2b,2b,2b,2b,2b,2b,2b,2b,2b,2b
5u,5t,5y,5y,5y,5v,2b,2b,2b,2b,2b,2b,2b,2b,2b,2b
5q,5y,5w,5x,5r,5s,2b,2b,2b,2b,2b,2b,2b,2b,2b,2b
5q,5r,5y,5r,5r,5s,0,0,0,0,0,0,0,0,0,0
5q,5r,5r,5r,5r,5s,0,0,0,0,0,0,0,0,0,0
r,r,r,r,r,r,0,0,0,0,0,0,0,0,7c,0
r,5z,r,r,40,r,72,0,72,40,72,t,72,77,78,79
7k,7k,7k,6e,6c,6e,6c,6c,6c,6c,6d,s,0,76,7b,7a
5m,5m,5m,5m,5m,5m,5m,5m,5m,5m,5m,5m,5m,5m,5m,5m
r,r,r,r,r,r,r,r,r,r,r,r,r,r,r,r
r,r,r,r,r,r,r,r,r,r,r,r,r,r,r,r
ITM 7 12,12
EXT 15,12 f 0,12
PAL 3

ROOM f
r,r,r,r,r,r,r,r,r,r,r,r,r,r,r,r
r,r,r,r,r,r,r,r,r,r,r,r,r,r,r,r
r,r,r,r,r,r,r,r,r,r,r,r,r,r,r,r
r,r,r,r,r,r,r,r,r,r,r,r,r,r,r,r
v,v,v,v,v,v,v,v,v,v,v,v,v,v,v,v
b,b,b,b,b,b,b,b,b,b,b,b,b,b,b,b
b,b,b,b,b,b,b,b,b,b,b,b,b,b,b,b
b,b,b,b,b,b,b,b,b,b,b,b,b,b,b,b
b,b,b,b,b,b,b,b,b,b,b,b,b,b,b,b
b,b,b,b,b,b,b,b,b,b,b,b,b,b,b,b
0,0,0,0,0,0,0,0,0,0,0,0,0,0,0,0
72,72,72,72,72,72,0,72,72,72,72,6k,0,6k,6k,6k
2a,2a,2a,2a,2c,0,3n,0,2d,2a,2c,7x,6h,6h,6h,6h
5m,5m,5m,5m,5m,5m,5m,5m,5m,5m,5m,5m,5m,5m,5m,5m
r,r,r,r,r,r,r,r,r,r,r,r,r,r,r,r
r,r,r,r,r,r,r,r,r,r,r,r,r,r,r,r
EXT 15,12 g 0,12
PAL 3

ROOM g
r,r,r,r,r,r,r,r,r,r,r,r,r,r,r,r
r,r,r,r,r,r,r,r,r,r,r,r,r,r,r,r
r,r,r,r,r,r,r,r,r,r,r,r,r,r,r,r
r,r,r,r,r,r,r,r,r,r,r,r,r,r,r,r
v,v,v,v,v,v,v,v,v,v,v,v,v,v,v,v
b,b,b,b,b,b,b,b,b,b,b,b,b,b,b,b
b,b,b,b,b,b,b,b,b,b,b,b,b,b,b,b
b,b,b,b,b,b,b,b,b,b,b,b,b,b,b,b
b,b,b,b,b,b,b,b,b,b,b,b,b,b,b,b
b,b,b,b,b,b,b,b,b,b,b,b,b,b,b,b
b,b,b,b,b,b,b,b,b,b,b,b,b,b,b,b
6l,6l,6l,6l,6l,6l,7z,7z,7z,7z,7z,72,72,72,7n,7n
6h,6h,6h,6h,6h,6h,6h,6h,6h,6h,6h,7f,7h,7g,7d,7d
5m,5m,5m,5m,5m,5m,5m,5m,5m,5m,5m,4a,49,4b,5m,5m
r,r,r,r,r,r,r,r,r,r,r,r,r,r,r,r
r,r,r,r,r,r,r,r,r,r,r,r,r,r,r,r
EXT 15,12 i 0,12
PAL 3

ROOM i
r,r,r,r,r,r,r,r,r,r,r,r,r,r,r,r
r,r,r,r,r,r,r,r,r,r,r,r,r,r,r,r
r,r,r,r,r,r,r,r,r,r,r,r,r,r,r,r
r,r,r,r,r,r,r,r,r,r,r,r,r,r,r,r
v,v,v,v,v,v,v,v,v,v,v,v,v,v,v,v
44,44,44,44,44,44,44,44,44,44,44,44,44,44,44,44
44,44,44,44,44,44,44,44,44,44,44,44,44,44,44,44
44,44,44,44,44,44,44,44,44,44,44,44,44,44,44,44
44,44,44,44,44,44,44,44,44,44,44,44,44,44,44,44
44,44,44,44,44,44,44,44,44,44,44,44,44,44,44,44
44,44,44,44,44,44,44,44,44,44,44,44,44,44,44,44
7n,7n,7e,7n,7n,7m,7n,7m,7n,7n,7e,7n,7n,7m,7n,7m
7d,7d,7d,7d,7d,7d,7d,7d,7d,7d,7d,7d,7d,7d,7d,7d
5m,5m,5m,5m,5m,5m,5m,5m,5m,5m,5m,5m,5m,5m,5m,5m
r,r,r,r,r,r,r,r,r,r,r,r,r,r,r,r
r,r,r,r,r,r,r,r,r,r,r,r,r,r,r,r
EXT 15,12 n 0,12
PAL 7

ROOM k
0,0,0,0,0,0,0,0,0,0,0,0,0,0,0,0
0,0,0,0,0,0,0,0,0,0,0,0,0,0,0,0
0,0,0,0,0,0,0,0,0,0,0,0,0,0,0,0
0,0,0,0,0,0,0,0,0,0,0,0,0,0,0,0
0,0,0,0,0,0,0,0,0,0,0,0,0,0,0,0
0,0,0,0,0,0,0,0,0,0,0,0,0,0,0,0
0,0,0,0,0,0,0,0,0,0,0,0,0,0,0,0
0,0,0,0,0,0,0,0,0,0,0,0,0,0,0,0
0,0,0,0,0,0,0,0,0,0,0,0,0,0,0,0
0,0,0,0,0,0,0,0,0,0,0,0,0,0,0,0
0,0,0,0,0,0,0,0,0,0,0,0,0,0,0,0
6o,6o,6o,6o,6o,6o,6o,6o,6o,6o,6o,6o,6o,6o,6o,6o
0,0,0,0,0,0,0,0,0,0,0,0,0,0,0,0
6o,6o,6o,6o,6o,6o,6o,6o,6o,6o,6o,6o,6o,6o,6o,6o
0,0,0,0,0,0,0,0,0,0,0,0,0,0,0,0
0,0,0,0,0,0,0,0,0,0,0,0,0,0,0,0
EXT 15,12 a 0,12
PAL 5

ROOM l
r,r,r,r,r,r,r,r,r,r,r,r,r,r,r,r
r,r,r,r,r,r,r,r,r,r,r,r,r,r,r,r
r,r,r,r,r,r,r,r,r,r,r,r,r,r,r,r
v,v,v,v,v,v,v,v,v,v,v,v,v,v,v,v
44,44,44,44,44,44,44,44,44,44,44,44,44,44,44,44
44,44,44,44,44,44,44,44,44,44,44,44,44,3c,44,44
44,44,44,44,44,44,44,44,44,44,66,69,65,3b,44,44
44,44,2s,44,44,2s,44,44,44,66,63,r,64,37,44,44
2y,2q,2r,2y,2q,2r,2y,0,66,63,r,r,r,36,65,0
2x,2p,r,2x,2p,r,2x,0,68,r,r,3a,r,r,67,0
2w,2o,r,2w,2o,r,2w,0,2z,r,r,r,r,r,32,0
2v,2n,r,2v,2n,r,2v,72,2z,3k,r,3a,r,3a,32,72
2u,2m,2t,2u,2m,2t,2u,0,7o,3w,7p,5n,5o,5p,6x,0
5m,5m,5m,5m,5m,5m,5m,5m,5m,5m,5m,5m,5m,5m,5m,5m
r,r,r,r,r,r,r,r,r,41,r,r,r,r,r,r
r,r,r,r,r,r,r,r,r,r,r,r,r,r,r,r
EXT 9,11 m 3,12
PAL b

ROOM m
r,r,r,r,r,r,r,r,r,r,r,r,r,r,r,r
r,r,r,r,r,r,r,r,r,r,r,r,r,r,r,r
r,r,r,r,r,r,r,r,r,r,r,r,r,r,r,r
r,r,r,r,r,r,r,r,r,r,r,r,r,r,r,r
r,r,r,r,r,r,r,r,r,r,r,r,r,r,r,r
r,r,r,r,r,r,r,r,r,r,r,r,r,r,r,r
r,r,r,r,r,r,r,r,r,r,r,r,r,r,r,r
r,r,r,r,r,r,r,r,r,r,r,r,r,r,r,r
r,55,53,53,53,53,53,53,53,53,53,53,53,53,54,r
r,57,0,0,0,0,7s,0,0,0,0,0,0,0,51,r
r,57,0,0,0,0,7u,0,4o,4p,4q,0,7r,7v,51,r
r,57,6y,6z,70,6s,6t,72,72,72,0,0,0,0,51,r
r,57,6w,0,0,6r,6q,4i,4f,4g,4j,0,6u,6v,51,r
r,56,50,7j,50,50,50,50,50,50,50,50,50,50,52,r
r,r,r,r,r,r,r,r,r,r,r,r,r,r,r,r
r,r,r,r,r,r,r,r,r,r,r,r,r,r,r,r
EXT 9,12 o 9,12
PAL 1

ROOM n
r,r,r,r,r,r,r,r,r,r,r,r,r,r,r,r
r,r,r,r,r,r,r,r,r,r,r,r,r,r,r,r
r,r,r,r,r,r,r,r,r,r,r,r,r,r,r,r
r,r,r,r,r,r,r,r,r,r,r,r,r,r,r,r
v,v,v,v,v,v,v,v,v,v,v,v,v,v,v,v
45,45,45,45,45,45,45,45,45,45,45,45,45,45,45,45
45,45,45,45,45,45,45,45,45,45,45,45,45,45,45,45
45,45,45,45,45,45,45,45,45,45,45,45,45,45,45,45
45,45,45,45,45,45,45,45,45,45,45,45,45,45,45,45
45,45,45,45,45,45,45,45,45,45,45,45,45,45,45,45
45,45,45,45,45,45,45,45,45,45,45,45,45,45,45,45
7m,7n,7m,7n,7m,7n,7m,7n,7m,7n,7m,7n,7m,7n,7m,7n
7d,7d,7d,7d,7d,7d,7d,7d,7d,7d,7d,7d,7d,7d,7d,7d
5m,5m,5m,5m,5m,5m,5m,5m,5m,5m,5m,5m,5m,5m,5m,5m
r,r,r,r,r,r,r,r,r,r,r,r,r,r,r,r
r,r,r,r,r,r,r,r,r,r,r,r,r,r,r,r
EXT 15,12 k 0,12
PAL 8

ROOM o
r,r,r,r,r,r,r,r,r,r,r,r,r,r,r,r
r,r,r,r,r,r,r,r,r,r,r,r,r,r,r,r
r,r,r,r,r,r,r,r,r,r,r,r,r,r,r,r
r,r,r,r,r,r,r,r,r,r,r,r,r,r,r,r
r,r,r,r,r,r,r,r,r,r,r,r,r,r,r,r
r,r,r,r,r,r,r,r,r,r,r,r,r,r,r,r
r,r,r,r,r,r,r,r,r,r,r,r,r,r,r,r
r,r,r,r,r,r,r,r,r,r,r,r,r,r,r,r
r,55,53,53,53,53,53,53,53,53,53,53,53,53,54,r
r,57,0,0,0,0,7s,0,0,0,0,0,0,0,51,r
r,57,0,0,0,0,7u,0,4o,4p,4q,0,7r,7v,51,r
r,57,6y,6z,70,6s,6t,72,0,0,0,0,0,0,51,r
r,57,6w,0,0,6r,6q,4i,4f,4g,4j,0,6u,6v,51,r
r,56,50,7j,50,50,50,50,50,50,50,50,50,50,52,r
r,r,r,r,r,r,r,r,r,r,r,r,r,r,r,r
r,r,r,r,r,r,r,r,r,r,r,r,r,r,r,r
END 0 3,13
PAL 1

TIL 15
00000000
00001000
10000000
00000000
00100100
00000000
10001000
00000000
>
00000000
00100000
00000010
00010000
00000010
01000000
00000100
00000000

TIL 17
00011000
00011000
00011000
00011000
00011000
00011000
00011000
00011000

TIL 30
00000010
00000101
00001011
00010111
00101111
01011111
10111111
01011111

TIL 31
01000000
10100000
11010000
11101000
11110100
11111010
11111101
11111010

TIL 32
11111000
11111000
11111000
11111000
11111000
11111000
11111000
11111000
WAL true

TIL 33
00000000
00000000
00000000
00011000
00100100
01011010
10111101
01111110

TIL 34
00000000
00000000
00000000
00000000
00000000
00000000
00000000
10000000

TIL 35
00000000
00000000
00000000
00000000
00000000
00000000
00000000
00000001

TIL 36
01001001
10111111
11010001
11101111
11110101
11111011
11111101
11111110

TIL 37
00000000
11111111
10100101
11111111
10001001
11111111
10100101
11111111

TIL 38
00000010
00000101
00001011
00010111
00101111
01011111
10111111
01111111

TIL 39
01000000
10100000
11010000
11101000
11110100
11111010
11111101
11111110

TIL 40
00111100
01111110
11111111
11111111
11111111
11111111
01111110
00111100
WAL true

TIL 41
11100111
11000011
10000001
00000000
11000011
11000011
11000011
11111111
>
11111111
11100111
11000011
10000001
00000000
11000011
11000011
11000011

TIL 42
11111111
11110111
11110011
10000001
10000000
10000001
11110011
11110111
>
11111111
11101111
11100111
00000011
00000001
00000011
11100111
11101111

TIL 43
11111111
11110111
11100111
11000000
10000000
11000000
11100111
11110111
>
11111111
11101111
11001111
10000001
00000001
10000001
11001111
11101111

TIL 44
00001000
01000000
00000000
00010010
10000000
00001000
00100010
00000000
>
01000000
00010010
00000000
00001000
00100000
00000010
01001000
00000000
WAL true

TIL 45
10010100
00100010
10001000
00010001
01000100
00101001
10000100
00100010
>
01000010
10001000
00100101
01001010
10010000
00000100
01010010
10001000
WAL true

TIL 46
00111100
01000010
01000010
01000010
11111111
10101011
11010101
01111110

TIL 47
00000000
00000000
00000000
00111100
01000010
10000001
11111111
01111110

TIL 49
11111111
00000000
11111111
00000000
00000000
00000000
00000000
00000000
WAL true

TIL 50
11111111
00000000
11111111
11111111
11111111
11111111
11111111
11111111
WAL true

TIL 51
10111111
10111111
10111111
10111111
10111111
10111111
10111111
10111111
WAL true

TIL 52
10111111
00111111
11111111
11111111
11111111
11111111
11111111
11111111

TIL 53
11111111
11111111
11111111
11111111
11111111
11111111
00000000
11111111
WAL true

TIL 54
11111111
11111111
11111111
11111111
11111111
11111111
00111111
10111111

TIL 55
11111111
11111111
11111111
11111111
11111111
11111111
11111100
11111101

TIL 56
11111101
11111100
11111111
11111111
11111111
11111111
11111111
11111111

TIL 57
11111101
11111101
11111101
11111101
11111101
11111101
11111101
11111101
WAL true

TIL 58
10000001
11111111
10000001
11111111
10000001
11111111
10000001
11111111

TIL 59
11111111
10101101
10000001
11111111
10111101
10111101
10111101
10000001

TIL 60
10000001
01111110
11111111
11111111
11111111
11111111
11111111
11111111

TIL 61
00000000
00000000
00000000
00000000
00000000
00000000
00000000
11111111

TIL 62
11111111
11111111
01111111
10000111
11111011
11111101
11111110
11111110

TIL 63
00111110
01111101
01111011
11110111
11101111
11011111
10111111
01111111

TIL 64
01110000
10111000
11011110
11101111
11110111
11111011
11111101
11111110

TIL 65
00000000
00000000
00000000
00000000
10000000
11000000
11100000
11110000

TIL 66
00000000
00000000
00000000
00000000
00000011
00000111
00011111
00011111

TIL 67
01110000
10111000
11011100
11101110
11110111
11111011
11111101
11111010

TIL 68
00011110
01111101
01111011
01110111
11101111
11011111
10111111
01011111

TIL 69
00000000
00110000
01111000
11111111
11100111
11011011
10111101
01111110

TIL 70
00000000
11111111
01001001
10110111
11001100
10000100
01001000
00110000
WAL true

TIL 71
00000000
00000000
00000000
00000000
00000000
01111000
11111110
11111111
WAL false

TIL 72
00000000
00000000
00000000
00000000
00000000
00000000
00000000
00000000
WAL true

TIL 73
00000000
00000000
00000000
00000000
00000000
00000110
00111111
11111111

TIL 74
11111111
11111101
11111010
11111001
11110111
11101111
10011111
00011111
WAL true

TIL 75
00001110
00000110
00000001
00000000
00000000
00000000
00000000
00000000

TIL 76
00111111
01111111
01111111
11111111
11111111
11111111
11111111
11111111

TIL 77
00000000
00000001
00000011
00000111
00001111
00011111
00011111
00111111
WAL true

TIL 78
01111110
11111111
11111111
11111111
11111111
11111111
11111111
11111111
WAL true

TIL 79
00000000
10000000
11000000
11100000
11110000
11111000
11111000
11111100
WAL true

TIL a
11111111
10000001
10000001
10011001
10011001
10000001
10000001
11111111
WAL true

TIL b
00000000
00000100
01000000
00000000
00000010
00000000
00100000
00000000
>
00000000
00010000
00000000
00000010
01000000
00000000
00000100
00000000
WAL true

TIL r
11111111
11111111
11111111
11111111
11111111
11111111
11111111
11111111
WAL true

TIL s
01111110
00111100
01111110
11111111
11111111
11111111
11111111
01111110

TIL t
00000000
00001110
00011111
00111110
01111110
00111100
01111110
01101010
WAL true

TIL u
00110100
01011011
00110110
11011100
01101101
00111010
00111100
00111100

TIL v
11111111
11111111
01110111
10101010
01010101
10101010
01000100
00000000

TIL 1d
01111110
00111100
01111110
11111111
11111111
11111111
11111111
01111110

TIL 1e
00000000
00000000
00000000
00000000
00111100
01111110
01010110
01010110

TIL 2a
00001000
00011100
00011100
11111111
11111111
00011100
00011100
00011100

TIL 2b
00000000
00010000
00000000
00000000
00000000
00100000
00000010
00000000
>
00000000
00100000
00000000
00000000
00000100
00000000
01000000
00000000

TIL 2c
00001000
00011100
00011100
11111100
11111100
00011100
00011100
00011100

TIL 2d
00001000
00011100
00011100
00011111
00011111
00011100
00011100
00011100

TIL 2l
00001000
00011000
00011000
00011000
00011000
00111100
00011000
01011010

TIL 2m
01111111
00000111
01111111
11111111
01111111
00001111
00000000
00000000

TIL 2n
00111111
00000111
01111111
11111111
01111111
00000111
01111111
11111111
WAL true

TIL 2o
00011111
00001111
01110011
00111111
00111111
00001111
01110011
00111111

TIL 2p
00000111
00000001
00011110
00001111
00001111
00000011
00111101
00011111

TIL 2q
00000000
00000000
00000000
00000001
00000011
00000001
00000110
00001111

TIL 2r
11011011
11111111
01111110
10111101
11111111
11111111
11111111
11111111

TIL 2s
00000000
00000000
00000000
00010000
00011000
00011000
01011010
00111100

TIL 2t
11111111
11111111
11111111
11111111
11111111
11111111
00111100
00111100

TIL 2u
11111110
11100000
11111110
11111111
11111110
11100000
00000000
00000000

TIL 2v
11111100
11100000
11111110
11111111
11111110
11100000
11111110
11111111
WAL true

TIL 2w
11111000
11110000
11001110
11111100
11111100
11100000
10011110
11111100

TIL 2x
11100000
10000000
01111000
11110000
11110000
11000000
10111100
11111000

TIL 2y
00000000
00000000
00000000
10000000
11000000
10000000
01100000
11110000

TIL 2z
00011111
00011111
00011111
00011111
00011111
00011111
00011111
00011111
WAL true

TIL 3a
11111111
10010011
10010011
11111111
10010011
10010011
11111111
00000001
WAL true

TIL 3b
00011110
00111100
00111100
00111000
00111000
00111000
00011000
00010000
>
00011110
00001110
00011110
00011100
00011100
00001100
00001100
00010000

TIL 3c
00000000
00011100
00011110
00111110
01111110
01111110
00111110
00011100
>
00011100
00111110
01111110
00111110
00001110
00011111
00011111
00011110

TIL 3d
11011101
01101110
10111101
01111111
11111111
01111100
00011000
00010000

TIL 3e
01000101
10111010
11011110
01111111
11111100
01111110
10111001
11010111

TIL 3f
00000000
00000001
00000011
00001111
00011111
01111111
11111111
11111111

TIL 3g
01110101
11111010
11111001
11111111
11111111
11111111
11111111
11111111

TIL 3h
00000000
00000000
00000000
10000000
11110000
11111100
11111100
11111111

TIL 3i
00000010
00000101
00000110
00001000
00010000
00100000
01000000
10000000
WAL true

TIL 3j
01111110
01111110
11111111
10000001
11111111
10000001
11111111
10000001

TIL 3k
00000000
01111110
01111110
01111110
01111110
01111010
01111110
01111110

TIL 3l
00111100
11111110
11100111
00011001
11111110
10000001
10000001
11111110

TIL 3m
00000000
00101100
01111010
11011111
11110111
11111111
11111111
01111110

TIL 3n
00011000
01111110
11000010
01111110
00011000
00011000
00011000
00011000

TIL 3v
00000000
00000000
00000000
00000000
00000001
00000001
00011100
11111111

TIL 3w
01111110
00000000
11111111
01000010
01111110
01000010
01111110
01000010

TIL 4a
11111111
00000000
11111111
00100100
01001000
10010000
00100000
11000000
WAL true

TIL 4b
11111111
00000000
11111111
00100100
00010010
00001001
00000100
00000011
WAL true

TIL 4c
11111111
11111111
11111111
11111111
11111111
11000011
10111101
10100101
WAL true

TIL 4d
10111101
10111101
10000001
11100111
11100111
11100111
11100111
11100111

TIL 4e
11111111
00000000
00000000
00000000
00000000
00000000
00000000
00000000

TIL 4f
11111111
10000000
11111111
01101000
01110000
01100000
01100000
01100000

TIL 4g
11111111
00000001
11111111
00010110
00001110
00000110
00000110
00000110

TIL 4h
00111100
01000010
10111101
10101101
10100101
10111101
01000010
00111100

TIL 4i
00100000
00100000
00100000
00100000
00111100
00111100
00100100
00100100

TIL 4j
00000100
00000100
00000100
00000100
00111100
00111100
00100100
00100100

TIL 4k
11111111
10000000
10000000
11111111
11111111
11111111
11111111
11111111

TIL 4l
11111111
00000001
00000001
11111111
11111111
11111111
11111111
11111111

TIL 4m
11111111
11001001
11011011
11111111
10011001
10111101
10111101
10011001

TIL 4n
00000000
00011000
01111110
11111111
11000011
01000010
01000010
01111110
WAL true

TIL 4o
00000000
00011110
00100001
00101101
00100001
00011110
11111111
11111111

TIL 4p
00000000
00111000
01000101
01010101
01000101
00111000
11111111
11111111

TIL 4q
00000000
11100000
00010000
01010000
00010000
11100000
11111100
11111100

TIL 4r
00000000
00000000
00000000
00000000
00000000
00111100
00100110
00011000
WAL true

TIL 4s
00010000
00111000
01111010
00101101
01000101
01000101
01000110
00111000

TIL 4t
00000000
11111111
10011001
10011001
10011001
10011001
11111111
00000000
WAL true

TIL 4u
00000000
00011000
01011000
00111000
00011010
00011100
01011000
11111000
WAL true

TIL 4v
11011010
11011100
01011000
00011000
00011000
00011000
00011000
00111100

TIL 4w
00000000
00000000
00000000
00000000
00000000
00000000
00000000
00000001

TIL 4x
00000001
00000001
00000000
00000000
00000000
00000000
00000000
00000000

TIL 4y
00000000
11111111
10000001
11111111
11111111
11111111
11111111
11111111

TIL 4z
11000011
11000011
11000011
00000000
10000001
11000011
11100111
11111111
>
11111111
11000011
11000011
11000011
00000000
10000001
11000011
11100111

TIL 5a
11111111
10000001
10010001
10000011
10000001
11000001
10001001
11111111
>
11111111
10000101
10100001
10000001
10000101
10000001
10100001
11111111

TIL 5b
01111110
01000010
01010010
01011010
01001010
01011010
01000010
01111110

TIL 5c
11111110
10000010
10110010
10111010
10000010
11111110
00000000
01111000

TIL 5d
01001000
01001000
01001000
01111000
00000000
00000000
00000000
00000000
WAL true

TIL 5e
01111110
00000000
00000000
00000000
00000000
00000000
00000000
00000000

TIL 5f
01000010
01011010
01011010
01011010
01011010
01111110
01111110
11000011

TIL 5g
00000000
00100100
01001000
00100100
00000000
01111110
01000010
01111110
>
00000000
00100100
00010010
00100100
00000000
01111110
01000010
01111110

TIL 5h
00000000
00000000
00000000
00000000
00111000
00111000
00011000
00011000
WAL true

TIL 5j
11111111
00100100
00100100
00100100
00101110
11101010
01101010
00000000

TIL 5k
11111111
10000100
10000100
10001110
11011111
11011111
10011111
00001110

TIL 5m
11111111
10101010
11111111
11111111
11111111
11111111
11111111
11111111
WAL true

TIL 5n
11111111
11111111
11111111
11100000
00001111
01111111
11111111
11111111

TIL 5o
11111111
11111111
11110000
00000111
11111111
11111111
11111111
11111111

TIL 5p
11111111
11111111
00000111
11110000
11111111
11111111
11111111
11111111

TIL 5q
10000000
11111111
10000000
11111111
10000000
11111111
10000000
11111111

TIL 5r
00000000
11111111
00000000
11111111
00000000
11111111
00000000
11111111

TIL 5s
00000001
11111111
00000001
11111111
00000001
11111111
00000001
11111111

TIL 5t
00000000
00000000
11111111
11111111
00000000
11111111
00000000
11111111

TIL 5u
00000000
00000000
11111111
11111111
10000000
11111111
10000000
11111111

TIL 5v
00000000
00000000
11111111
11111111
00000001
11111111
00000001
11111111

TIL 5w
11111111
11111111
01111111
11111111
00001111
11111111
11111111
11111111

TIL 5x
11111100
11111111
11111110
11111111
11111110
11111111
11111111
11111111

TIL 5y
00111111
11111111
11111111
11111111
00000000
11111111
00000000
11111111

TIL 5z
00000000
01100110
01100110
01100110
00000000
01100110
01100110
00000000
WAL true

TIL 6a
11111111
10000011
01101101
11110110
10111110
11111010
11111110
01111101

TIL 6b
11111111
11111111
11111111
11111110
11111110
11111110
11111110
11111111

TIL 6c
00111111
11111111
11111111
11111111
11111111
11111111
11111111
11111111

TIL 6d
00000000
11110000
11110000
11111000
11111110
11111111
11111111
11111111

TIL 6e
11111111
11100000
00001111
11111111
11111111
11111111
11111111
11111111

TIL 6f
00000000
00000000
00000000
00000000
00111111
01111111
11111111
11111111

TIL 6g
00000000
00000000
00000000
00000000
00011000
00111100
00111100
00011000

TIL 6h
11111111
00000000
00011100
01100011
00000000
01110000
10001101
00000000

TIL 6j
00000000
00001000
00001000
11001000
01101011
10110110
11010100
01010100
WAL true

TIL 6k
00000000
00110000
01111100
00111010
11010110
11101110
01111000
00110000
WAL true

TIL 6l
00000000
11101110
10011010
01101101
11111110
11010110
10111010
00111010
>
00000000
11101110
10011010
01101101
11111110
11010110
10111010
00111010
WAL true

TIL 6m
00000000
00000000
01111000
11111111
11111111
11111111
11111111
11111111

TIL 6n
00000000
00000000
00111100
11111110
11111111
11111111
11111111
11111111

TIL 6o
11000011
10000001
00000000
00000000
00000000
00000000
10000001
11000011
WAL true

TIL 6q
11111110
11111100
11111100
00011100
01011100
11011100
11111100
11011100
>
11111110
11111100
11111100
00011100
10011100
11011100
11111100
11011100

TIL 6r
11111111
01111111
01111111
01110000
01110010
01110111
01111111
01110111
>
11111111
01111111
01111111
01110000
01110101
01110011
01111111
01110111

TIL 6s
00000000
00000000
00000000
01010100
01010100
01111100
00010000
00111000
WAL true

TIL 6t
00000000
00000000
00000000
11101110
10101010
10101010
01000100
11101110
WAL true

TIL 6u
00111111
01000000
01101010
10100100
10100000
11111111
10010101
10010101

TIL 6v
11111100
00000010
01010110
00100101
00000101
11111111
01010101
01010101

TIL 6w
11111111
10000001
11111111
11111111
11111111
11111111
11111111
10111101

TIL 6x
11111000
11111000
11111000
00000000
11111000
11111110
11111111
11111111

TIL 6y
00000000
00111100
00011000
00100100
01000010
01000010
00100100
00111100
WAL true

TIL 6z
00000000
11111111
10010010
11111111
00000000
00000000
00000000
00000000
WAL true

TIL 7a
11111100
11111110
11111110
11111111
11111111
11111111
11111111
11111111

TIL 7b
11111111
11000011
10000001
00000000
00000000
00000000
00000000
00000000

TIL 7c
00000000
00000000
00000000
00011000
00011110
00011100
00010000
00010000

TIL 7d
11111111
11111111
11111111
11111111
11111111
10111111
10110111
11110111

TIL 7e
00000000
00000000
00000000
00000000
00000000
01111000
11111111
11111111

TIL 7f
01111111
10100101
10100101
10100101
10100001
10100001
10000000
10000000
>
01111111
10100101
10100101
10100001
10100101
10100000
10100000
10000000

TIL 7g
01111110
10000001
00001001
01001001
01001001
01001001
01000001
00000001
>
01111110
10000001
00001001
01001001
01001001
01000001
01001001
01000001

TIL 7h
01111111
10100101
00100101
00100101
00100001
00100001
00000000
00000000
>
01111111
10100101
00100101
00100101
00100101
00100001
00100001
00000000

TIL 7i
00000100
00100101
00100101
00100101
00100001
00100001
00000000
00000000

TIL 7j
10000001
11111111
11111111
11111111
11111111
11111111
11111111
11111111

TIL 7k
11111111
11111111
11111111
11111111
11000000
00111111
11111111
11111111

TIL 7m
00000000
00000000
00000000
00000000
00000000
01111100
11111110
11111111
WAL true

TIL 7n
00000000
00000000
00000000
00000000
00000000
01111000
11111111
11111111
WAL true

TIL 7o
00011111
00011111
00011111
00011111
00011111
00011111
00000000
00011111
WAL false

TIL 7p
11111111
11111111
11111111
11111111
11111111
11111111
00000000
11111111

TIL 7q
11111000
11111000
11111000
11111000
11111000
11111000
00000000
11111000

TIL 7r
00000000
00000000
11111111
10000001
10101101
10111001
10000001
11111111

TIL 7s
00000000
00111100
01111110
11100111
11010011
11011011
11100111
01111110

TIL 7t
00100100
00100100
00100100
00100100
00100100
00100100
01111110
01111110

TIL 7u
01111110
01100110
01100110
01100110
01100110
00111100
00011000
00000000

TIL 7v
01111110
01000010
01011010
01001010
01010010
01011010
01000010
01111110

TIL 7w
00000000
00000000
01101100
11110110
10111110
11111010
11111110
01111100

TIL 7x
01111111
10000000
10011100
11100011
10000000
11110000
10001101
10000000

TIL 7y
01111110
11111111
11111011
11001000
01101011
10110110
11010101
11010101
WAL true

TIL 7z
00000000
00000000
00000000
00000000
00011100
00111110
01111111
11111111
WAL true

SPR 10
00011000
00011000
01111110
10111101
01111110
00111100
00111100
00100100
>
00011000
00011000
01111110
01111110
00111100
00111100
00111100
00010100
DLG SPR_1
POS 8 8,11

SPR A
00011000
00011000
00011000
00111100
01111110
10111101
00100100
00100100
POS c 3,8

SPR a
00000000
00000000
01010001
01110001
01110010
01111100
00111100
00100100
DLG SPR_0

SPR h
00111100
01000010
01000010
01111110
00101100
00111100
00111100
00011000
POS 3 9,12

SPR m
00011000
00011000
00111100
01111110
10111101
00111100
00111100
00100100
>
00011000
00011001
00111110
01111100
10111100
00111100
00111100
00100100
DLG SPR_7
POS c 2,12

SPR n
00010000
00111000
01111010
00101101
01000101
01000101
01000110
00111000
DLG SPR_5
POS c 8,11

SPR o
00000000
00100100
01001000
00100100
00000000
01111110
01000010
01111110
>
00000000
00100100
00010010
00100100
00000000
01111110
01000010
01111110
DLG SPR_6
POS c 11,11

SPR p
10011000
10011000
10111100
11111110
10111101
10111100
10100100
11100100
>
10011000
10011001
10111110
11111100
10111100
10111100
10100100
11100100
DLG SPR_a
POS d 8,11

SPR q
00011100
00011010
00111110
01111100
10111100
00111100
00111100
00100100
>
00011000
00011000
11111100
00111110
00111101
00111100
00111100
00100100
DLG SPR_9
POS d 5,11

SPR r
00000000
00011000
00011000
01111110
00111100
00111100
00100100
00100100
>
00000000
00011000
00011010
01111100
00111100
00111100
00100100
00100100
DLG SPR_h
POS e 4,11

SPR s
00000000
00011000
00011000
01111110
00111100
00111100
00100100
00100100
>
00000000
00011000
01011010
00111100
00111100
00111100
00100100
00100100
DLG SPR_b
POS e 8,11

SPR t
00000000
00011000
00011000
01111110
00111100
00111100
00100100
00100100
>
00000000
00011000
00011000
01111100
00111110
00111100
00100100
00100100
DLG SPR_c
POS e 7,11

SPR u
10011000
10011000
10111100
11111110
10111101
10111100
10100100
11100100
>
10011000
10011001
10111110
11111100
10111100
10111100
10100100
11100100
DLG SPR_e
POS f 12,11

SPR v
00000000
00011000
00011000
00111100
01111110
10111101
00111100
00100100
>
00000000
00011000
00011001
00111110
01111100
10111100
00111100
00100100
DLG SPR_8
POS o 10,12

SPR w
00111100
01000010
10000001
10000001
11111111
10010101
10101001
01111110
DLG SPR_f
POS o 9,11

SPR x
00000000
00000000
00011000
11111110
10000001
10000001
11111110
00011000
DLG SPR_d
POS f 6,11

SPR y
00000000
00000000
00000000
01111110
10000001
11111111
10000001
11111111
DLG SPR_g
POS o 8,11

SPR z
00000000
00011000
00011000
00111100
01111110
10111101
00111100
00100100
>
00000000
00011000
00011001
00111110
01111100
10111100
00111100
00100100
POS m 10,12

ITM 0
00000000
00000000
00000000
00111100
01100100
00100100
00011000
00000000
NAME tea
DLG ITM_0

ITM 5
00111100
01000010
10000001
10000001
11111111
10010101
10101001
01111110
DLG ITM_2

ITM 6
00000001
00000010
00000100
00001000
00010000
00100000
01000000
10000000
DLG ITM_3

ITM 7
00000000
00000000
00000000
00000000
00000000
00000000
00001000
00111100
DLG ITM_4

DLG SPR_0
I'm a cat

DLG ITM_0
You found a nice warm cup of tea

DLG SPR_5
This is floral pot.

DLG SPR_6
ATITI!

DLG SPR_7
{clr2}Emily{clr2}, please deliver the apple pie to the old woman living in the outskirts of a village.

DLG ITM_2
There is an apple pie in the basket. You get a basket.

DLG ITM_3
Whiteout!

DLG SPR_8
"""
{sequence
  - Oh, {clr2}Emily{clr2}! This is gift for me?
  - Thank you for coming all the way in this snow. Let's wait for the snow to stop.
}
"""

DLG ITM_4
You get an odd glove.

DLG SPR_9
Phew! I'm exhausted. Shoveling snow is a very!

DLG SPR_a
Hey {clr3}Emily{clr3}, where are you going?

DLG SPR_b
What is in the basket?

DLG SPR_c
"""
{
  - {item "7"} == 0 ?
    I lost one of my glove...
  - {item "7"} == 1 ?
    It is my glove! Thank you {clr3}Emily{clr3}!
}
"""

DLG SPR_d
>>>The outskirts of a village>>>

DLG SPR_e
It will heavy snow today. You had better hurry.

DLG SPR_f
This is a basket.

DLG SPR_g
This is an apple pie. This smells nice!

DLG SPR_h
Yoo-hoo!

DLG SPR_1
"""
{shk}Oh...it's so cold today.{shk}

Are you going out? Be careful,{clr3}Emily.{clr3}
"""

END 0
You drank tea at old woman's house, After snow stopped you returned to home. ...END...

VAR a
42


