
Choices

# BITSY VERSION 4.8

! ROOM_FORMAT 1

PAL 0
170,214,176
233,242,188
255,255,255

PAL 1
41,62,112
73,94,140
255,255,255

PAL 2
96,59,140
140,82,154
140,82,154

PAL 3
124,177,228
110,71,71
255,239,170

PAL 4
239,220,188
226,166,116
255,255,255

ROOM 0
0,0,0,a,0,0,b,a,a,b,0,0,a,0,0,0
0,a,a,a,a,a,b,a,a,b,a,a,a,a,a,0
0,a,0,a,0,a,b,a,a,b,a,0,a,0,a,0
a,a,a,0,a,b,b,a,a,b,b,a,0,a,a,a
0,a,0,a,b,b,a,a,a,a,b,b,a,0,a,0
0,a,a,b,b,a,a,a,a,a,a,b,b,a,a,0
b,b,b,b,a,a,c,a,a,c,a,a,b,b,a,0
a,a,a,a,a,a,a,c,c,a,a,a,0,b,a,0
a,a,a,a,a,a,a,c,c,a,a,a,0,b,a,0
b,b,b,b,a,a,c,a,a,c,a,a,b,b,a,0
0,a,a,b,b,a,a,a,a,a,a,b,b,a,a,0
0,a,0,a,b,b,a,a,a,a,b,b,a,0,a,0
a,a,a,0,a,b,b,0,0,b,b,a,0,a,a,a
0,a,0,a,0,a,b,b,b,b,a,0,a,0,a,0
0,a,a,a,a,a,a,a,a,a,a,a,a,a,a,0
0,0,0,a,0,0,0,0,0,0,0,0,a,0,0,0
NAME start
EXT 7,0 1 7,15
EXT 8,0 1 8,15
PAL 1

ROOM 1
c,0,c,0,c,0,g,e,e,g,0,c,0,c,0,c
0,c,0,c,0,0,f,d,e,g,0,0,c,0,c,0
c,0,c,0,c,0,f,d,e,f,0,c,0,c,0,c
0,c,0,c,0,0,b,d,d,b,0,0,c,0,c,0
c,0,c,0,0,b,b,a,a,b,b,0,0,c,0,c
0,c,0,0,b,b,a,a,a,a,b,b,0,0,c,0
0,0,0,b,b,a,a,a,a,a,a,b,b,0,0,0
g,f,b,b,a,a,a,0,0,a,a,a,b,b,f,g
e,e,d,d,a,a,0,0,0,0,a,a,a,d,e,e
e,d,d,d,a,a,0,0,0,0,a,a,a,d,d,e
g,f,b,b,a,a,a,0,0,a,a,a,b,b,f,g
0,0,0,b,b,a,a,a,a,a,a,b,b,0,0,0
0,c,0,0,b,b,a,a,a,a,b,b,0,0,c,0
c,0,c,0,0,b,b,a,a,b,b,0,0,c,0,c
0,c,0,c,0,0,b,a,a,b,0,0,c,0,c,0
c,0,c,0,c,0,b,a,a,b,0,c,0,c,0,c
NAME you seem weary yourself
EXT 0,8 2 15,8
EXT 0,9 2 15,9
EXT 7,15 0 7,0
EXT 8,15 0 8,0
EXT 8,0 3 8,15
EXT 15,9 4 0,9
EXT 15,8 4 0,9
PAL 1

ROOM 2
j,j,j,i,j,j,j,j,j,h,m,l,j,j,j,j
j,i,m,m,j,m,j,j,j,j,i,j,h,k,j,i
j,m,l,l,n,j,j,j,h,i,h,j,i,j,j,j
m,j,j,j,j,j,j,j,j,j,j,i,i,h,j,j
j,m,j,j,i,j,m,j,j,k,j,j,h,j,i,h
m,m,i,j,m,m,n,m,i,m,j,i,j,i,h,e
j,j,j,m,m,l,m,l,m,l,i,h,j,h,e,e
j,n,m,l,j,j,j,i,i,h,j,j,i,h,e,e
j,i,j,j,i,m,j,j,j,j,n,j,j,i,e,h
m,j,j,j,m,j,j,j,k,i,j,j,i,j,i,h
i,j,j,j,j,i,n,j,m,j,m,j,j,h,e,e
i,j,j,j,j,j,j,j,h,m,l,i,i,i,e,e
j,j,j,i,i,j,j,m,l,j,k,j,j,i,h,e
j,j,m,i,j,n,i,i,h,j,j,i,j,i,i,h
j,m,m,l,m,j,j,j,j,j,i,j,i,j,j,i
j,j,m,j,j,h,j,j,j,m,j,j,j,j,m,j
NAME where you are from
EXT 15,8 1 0,8
EXT 15,9 1 0,9
EXT 5,10 5 7,11
PAL 0

ROOM 3
3t,3t,3v,3t,3t,3t,2x,o,o,o,2w,3t,3t,j,3t,3t
j,3t,0,3t,j,3t,11,o,o,o,2v,3t,3t,3t,3t,3w
3t,3t,3t,j,3t,z,o,o,o,o,o,2s,3t,3t,j,3t
3t,3u,3t,3t,y,o,o,o,o,o,o,2t,3t,3t,3t,3t
j,3t,3t,v,o,o,18,15,o,o,o,2u,3t,j,3t,3t
3t,j,3t,w,o,12,14,16,o,o,o,2r,3t,3t,j,3t
3t,3t,p,o,u,13,o,o,o,o,o,2q,3t,3t,3t,3t
3t,3u,q,x,t,o,o,o,o,o,o,2p,3t,3t,3t,3t
j,3t,r,s,3t,o,o,o,o,o,o,2o,g,3t,3t,3t
3t,3t,3t,j,3t,o,1o,1n,28,o,2f,o,2i,3t,3t,3t
3u,j,3t,3t,3u,o,1i,1h,29,27,2b,2g,2j,2k,3t,3t
3t,3t,3t,j,3t,1b,1g,1j,o,26,2e,1x,2h,2l,3t,3t
3t,j,3t,j,3t,1a,2d,1k,1p,25,24,1w,3t,2m,3t,3t
3t,3u,3t,3u,3t,19,o,2c,1q,1s,22,1y,21,j,3t,3t
3t,3t,j,3t,j,3u,1d,1m,0,1r,23,1z,20,3t,3t,3t
3u,3t,3t,3t,3t,3t,3t,3t,3t,1t,1u,3t,3u,3u,3t,3t
NAME not alone
EXT 8,15 1 8,0
END undefinee 2,0
PAL 2

ROOM 4
0,0,0,0,0,0,0,0,0,0,0,0,0,0,0,0
0,0,0,0,0,0,0,0,0,0,0,0,0,0,0,0
0,0,0,0,0,0,0,0,0,0,0,0,0,0,0,0
0,0,0,0,0,0,0,0,0,0,0,0,0,0,0,0
0,0,0,0,0,0,0,0,0,0,0,0,0,0,0,0
0,0,0,0,0,0,0,0,0,0,0,0,0,0,0,0
0,0,0,0,0,0,0,0,0,0,0,0,0,0,0,0
0,0,0,0,0,0,0,0,0,0,0,0,0,0,0,0
17,17,17,17,17,17,17,17,17,17,17,17,0,0,0,0
0,0,0,0,0,0,0,0,0,0,0,17,0,0,0,0
2y,2y,2y,2y,2y,2y,2y,2y,2y,2y,30,17,0,0,0,0
2z,2z,2z,2z,2z,2z,2z,2z,2z,2z,30,17,0,0,0,0
2z,2z,2z,2z,2z,2z,2z,2z,2z,2z,30,0,0,0,0,0
0,0,0,0,0,0,0,0,0,17,0,17,0,0,0,0
0,0,0,0,0,0,0,0,0,0,17,0,0,0,0,0
0,0,0,0,0,0,0,0,0,0,0,0,0,0,0,0
NAME where you will go
EXT 0,9 1 15,9
END 0 11,12
PAL 3

ROOM 5
0,0,0,0,0,0,0,0,0,0,0,0,0,0,0,0
0,0,0,0,0,0,0,0,0,0,0,0,0,0,0,0
0,0,0,0,0,0,0,0,0,0,0,0,0,0,0,0
0,0,0,0,0,0,0,0,0,0,0,0,0,0,0,0
0,0,0,0,3o,3n,3n,3n,3n,3n,3n,3p,0,0,0,0
0,0,0,0,33,3q,3m,3l,0,0,3r,32,0,0,0,0
0,0,0,0,33,3h,3f,3g,3h,3j,3k,32,0,0,0,0
0,0,0,0,33,c,c,c,c,3i,c,32,0,0,0,0
0,0,0,0,33,c,c,c,c,c,c,32,0,0,0,0
0,0,0,0,33,38,39,c,c,c,c,32,0,0,0,0
0,0,0,0,3b,3a,3d,c,c,3e,3a,3c,0,0,0,0
0,0,0,0,0,0,33,c,c,32,0,0,0,0,0,0
0,0,0,0,0,0,0,3s,3s,0,0,0,0,0,0,0
0,0,0,0,0,0,0,0,0,0,0,0,0,0,0,0
0,0,0,0,0,0,0,0,0,0,0,0,0,0,0,0
0,0,0,0,0,0,0,0,0,0,0,0,0,0,0,0
NAME Home
EXT 7,11 2 5,10
EXT 8,11 2 5,10
END undefined 5,9
PAL 4

TIL 10
00000000
00000000
00000000
00000000
00000000
00000000
00000000
00000001

TIL 11
01111111
01111111
01111111
01111111
01111111
01111111
11111111
11111111
WAL true

TIL 12
11111111
11111111
11111111
11111111
11111111
11111110
11111001
11100111

TIL 13
00011111
11111111
11111111
11111111
11111111
11111111
11111111
11111111

TIL 14
11111101
11111011
11110111
11101111
10011111
01111111
11111111
11111111

TIL 15
11111111
11111111
11111111
11111111
11111111
11111111
11111111
11111111

TIL 16
11111111
11111111
11111111
11111111
11111111
11111111
11111111
11111111

TIL 17
00000000
00000000
00000000
00000000
00000000
00000000
00000000
00000000
WAL true

TIL 18
11111111
11111111
11111111
11111111
11111111
11111111
11111111
11111110

TIL 19
00011111
00011111
00001111
00001111
00000111
00000111
00000011
00000011
WAL true

TIL 20
10000000
10000000
10000000
10000000
10000000
10000000
00000000
00000000

TIL 21
00000000
00000000
00000000
00000000
00000000
00000000
10000000
10000000

TIL 22
10111111
11011111
11101111
11101111
11110111
11111011
11111101
11111110

TIL 23
11111110
11111111
11111111
11111111
11111111
11111111
11111111
11111111
WAL true

TIL 24
11111111
11111111
11111111
11111111
11111111
11111111
01111111
10111111

TIL 25
11111011
11111101
11111101
11111101
11111110
11111110
11111111
11111111

TIL 26
11011111
11011111
11101111
11101111
11110111
11110111
11111011
11111011

TIL 27
11111111
01111111
01111111
01111111
01111111
10111111
10111111
10111111

TIL 28
11111111
11111111
11111111
11111110
11111101
11111101
11111101
11111110
WAL true

TIL 29
11111110
11111111
11111111
11111111
11111111
11111111
11111111
11111111
WAL true

TIL 30
11000000
10000000
11000000
10000000
11000000
10000000
11000000
10000000

TIL 31
11111111
11101111
11111101
11101111
11111111
10000001
10000001
10000001

TIL 32
11000000
11000000
11000000
11000000
11000000
11000000
11000000
11000000
WAL true

TIL 33
00000011
00000011
00000011
00000011
00000011
00000011
00000011
00000011
WAL true

TIL 36
11111111
11011011
10100101
11011011
11011011
10100101
11011011
10000001

TIL 37
10000000
11011010
10100100
11011010
11011010
10100100
11011010
10000000

TIL 38
01000000
01000000
01000000
01111100
01111100
01000100
01000100
00000000

TIL 39
00000000
11111111
11111111
10000001
10000001
10000001
10000001
00000000
WAL true

TIL a
10100101
01000010
10011001
00100100
00100100
10011001
01000010
10100101
NAME fancy
WAL false

TIL b
01000010
11000011
00000000
00011000
00011000
00000000
11000011
01000010
WAL true

TIL c
00000000
01011010
00100100
01011010
01011010
00100100
01011010
00000000

TIL d
00000010
10001000
01010101
10001000
00100000
01010000
00100010
00000101

TIL e
00000010
10001000
00000101
10001000
00100000
01010000
00000010
00000100

TIL f
00000010
11000010
00000000
00011000
00010000
00000000
11000001
00000010
WAL true

TIL g
00000010
01000000
00000000
00001000
00010000
00000000
00000001
00000010
WAL false

TIL h
00010100
10010001
00000001
10001000
00001010
01000010
01010000
00000010
>
00100100
10010010
00000001
10010000
00001100
10000010
01010000
00000010

TIL i
00010010
00010001
01000001
01001000
00001010
01000010
01000100
00010100
>
00100000
00010010
10000001
01010000
00001100
10000010
01001000
00000100

TIL j
00000100
10010000
00000010
10000000
00001000
00000010
01010000
00000000
>
00000100
10010000
00000010
01000000
00001000
00000010
01001000
00000000

TIL k
00000100
10010000
00000100
10001010
00100100
01010010
00100101
00000010
>
00000100
10010000
00001000
10010100
01001000
10100100
01001010
00000100

TIL l
01011000
01111100
01111110
11111111
01001010
01111110
01001010
01111010
WAL true

TIL m
00000000
00010000
00111000
00111000
01111100
01111100
00010000
00010000
>
00000000
01000000
01100000
11110000
11111000
01111100
00010000
00010000
WAL true

TIL n
00111000
10010000
00000010
10011100
00001000
11100010
01010000
00000000
>
00111000
10010000
00000010
01011100
00001000
11100010
01001000
00000000

TIL o
11111111
11111111
11111111
11111111
11111111
11111111
11111111
11111111
WAL true

TIL p
00000001
00000001
00000011
00000011
00000111
00000111
00001111
00001111
WAL true

TIL q
00001111
00001111
00011111
00011111
00000111
00111011
00111101
00111101
WAL true

TIL r
00111101
01111011
01111011
11110111
11110111
11101111
00011111
00111111
WAL true

TIL s
11111100
11111000
11110000
11110000
11100000
11000000
10000000
00000000
WAL true

TIL t
11100001
11000001
10000001
00000001
00000001
00000001
00000000
00000000
WAL false

TIL u
11111111
11111110
11111101
11111001
11111001
11110001
11110001
11100001
WAL true

TIL v
00000001
00000011
00000011
00000111
00000111
00001111
00001111
00011111
WAL true

TIL w
00011111
00111111
00111111
01111111
01111111
11111111
11111111
11111111
WAL true

TIL x
11111111
11111111
11111111
11111111
11111111
11111110
11111110
11111100
WAL true

TIL y
00000011
00000111
00001111
00001111
00011111
00111111
01111111
11111111
WAL true

TIL z
00000001
00000011
00000111
00001111
00111111
01111111
11111111
11111111
WAL true

TIL 1a
01111111
01111111
01111111
00111111
00111111
00111111
00111111
00111111
WAL true

TIL 1b
11111111
11111111
01111111
01111111
01111111
01111111
01111111
01111111
WAL true

TIL 1c
00000001
00000000
00000000
00000000
00000000
00000000
00000000
00000000

TIL 1d
11111111
11111111
01111111
00111111
00011111
00001111
00000011
00000000
WAL true

TIL 1e
00000000
00000000
00000000
00000000
00000000
00000000
10000000
10000000

TIL 1f
11111100
11111100
11111100
11111110
11111110
11111110
11111110
11111111

TIL 1g
11111100
11111100
11111100
11111100
11111100
11111100
11111100
11111100
WAL true

TIL 1h
01111111
00111111
00111111
00111111
00111111
00011111
00011111
00011111
WAL false

TIL 1i
11111100
11111100
11111100
11111100
11111100
11111100
11111100
11111100
WAL true

TIL 1j
00001111
00001111
00001111
00000111
00000111
00000111
00000011
00000011
WAL false

TIL 1k
00000001
00000001
00000000
00000000
00000000
00000000
00000000
00000000

TIL 1l
11000000
11000000
11100000
11110000
11111000
11111100
11111110
11111111

TIL 1m
11111111
11111111
11111111
11111111
11111111
11111110
11111110
00111000
WAL false

TIL 1n
11111111
11111111
11111111
11111111
11111111
01111111
01111111
01111111

TIL 1o
11111111
11111111
11111111
11111111
11111111
11111111
11111110
11111100
WAL true

TIL 1p
11111111
11111111
11111111
01111111
01111111
00111111
00111111
00011111
WAL true

TIL 1q
00011111
00001111
00001111
00000111
00000111
00000011
00000011
00000001

TIL 1r
11111111
11111111
01111111
01111111
00111111
00011111
00001111
00000111
WAL false

TIL 1s
11111111
11111111
11111111
11111111
11111111
11111111
11111111
11111111
WAL true

TIL 1t
00000111
00000011
00000001
00000000
00000000
00000000
00000000
00000000

TIL 1u
11111111
11111111
11111111
01111110
00000000
00000000
00000000
00000000
WAL true

TIL 1v
10000000
10000000
00000000
00000000
00000000
00000000
00000000
00000000

TIL 1w
11000000
11100000
11100000
11100000
11110000
11110000
11110000
11111000

TIL 1x
00000111
00000011
00000001
00000000
10000000
10000000
10000000
11000000

TIL 1y
11111000
11111100
11111110
11111110
11111111
11111111
11111111
11111111

TIL 1z
11111111
01111111
01111111
10111111
10111111
10111111
10111111
10111110

TIL 2a
11111111
11111111
11111111
11111111
11111111
11111111
11111111
11111111

TIL 2b
11110001
11110000
11111000
11111000
11111000
11111100
11111100
11111100

TIL 2c
10000000
11000000
11100000
11110000
11111000
11111100
11111110
11111110

TIL 2d
11111100
11111110
11111110
11111110
11111110
11111110
11111111
11111111
WAL true

TIL 2e
11111110
11111110
11111111
11111111
11111111
11111111
11111111
11111111

TIL 2f
11111111
11111111
11111111
11110111
11101111
11101111
11100111
11110011

TIL 2g
11111111
11111111
01111111
01111111
00111111
00011111
00011111
00001111

TIL 2h
11111111
11111111
11111111
11111111
01111111
00111111
00011111
00000111

TIL 2i
00000000
00000000
10000000
10000000
11000000
11100000
11100000
11110000

TIL 2j
11110000
11111000
11111100
11111100
11111110
11111111
11111111
11111111

TIL 2k
00000000
00000000
00000000
00000000
00000000
00000000
10000000
11100000

TIL 2l
11111000
11111100
11111110
11111111
11111111
11111111
11111111
11111110

TIL 2m
11111000
00000000
00000000
00000000
00000000
00000000
00000000
00000000

TIL 2n
00000001
00000000
00000000
00000000
00000000
00000000
00000000
00000000

TIL 2o
11111100
11111100
11111100
11111100
11111100
11111110
11111110
11111110

TIL 2p
11111000
11111000
11111000
11111000
11111000
11111000
11111000
11111100

TIL 2q
11111100
11111100
11111100
11111100
11111100
11111000
11111000
11111000

TIL 2r
11111110
11111110
11111110
11111110
11111100
11111100
11111100
11111100

TIL 2s
00000000
10000000
10000000
11000000
11000000
11100000
11100000
11110000

TIL 2t
11110000
11111000
11111000
11111000
11111100
11111100
11111100
11111100

TIL 2u
11111100
11111110
11111110
11111110
11111110
11111110
11111110
11111110

TIL 2v
11111110
11111110
11111110
11111110
11111110
11111110
11111110
11111111

TIL 2w
11111111
11111111
11111111
11111111
11111111
11111110
11111110
11111110

TIL 2x
11111111
11111111
01111111
01111111
01111111
01111111
01111111
01111111
WAL true

TIL 2y
11111111
01010101
11111111
00110000
00110000
00110000
00110000
00110000
WAL true

TIL 2z
00110000
00110000
00110000
00110000
00110000
00110000
00110000
00110000
WAL true

TIL 3a
11111111
11111111
00000000
00000000
00000000
00000000
00000000
00000000
WAL true

TIL 3b
00000011
00000011
00000000
00000000
00000000
00000000
00000000
00000000
WAL true

TIL 3c
11000000
11000000
00000000
00000000
00000000
00000000
00000000
00000000
WAL true

TIL 3d
11111111
11111111
00000011
00000011
00000011
00000011
00000011
00000011
WAL true

TIL 3e
11111111
11111111
11000000
11000000
11000000
11000000
11000000
11000000
WAL true

TIL 3f
01000000
01000000
01000000
01111111
00000000
00000000
00000000
11111111
WAL true

TIL 3g
00000010
00000010
00000010
11111110
00000000
00000000
00000000
11111111
WAL true

TIL 3h
00000000
00000000
00000000
00000000
00000000
00000000
00000000
11111111
WAL true

TIL 3i
00001110
01011110
00100100
01011010
01011010
00100100
01011010
00000000

TIL 3j
00000100
00001010
00000100
00001001
00010110
00001001
00001110
11111111
WAL true

TIL 3k
00000000
00000000
00000000
00000000
10000000
00000000
00000000
11111111
WAL true

TIL 3l
00000000
00000000
00000000
00000000
11111110
00000010
00000010
00000010

TIL 3m
00000000
00000000
00000000
00000000
01111111
01000000
01000000
01000000

TIL 3n
00000000
00000000
00000000
00000000
00000000
00000000
11111111
11111111

TIL 3o
00000000
00000000
00000000
00000000
00000000
00000000
00000011
00000011

TIL 3p
00000000
00000000
00000000
00000000
00000000
00000000
11000000
11000000

TIL 3q
00000000
01111110
01000010
01010010
01010110
01111110
00000000
00000000

TIL 3r
00000000
01111110
01000010
01001010
01111110
01111110
00000000
00000000

TIL 3s
00000000
00000000
00000000
00000000
00000000
00000000
00000000
00000000
WAL true

TIL 3t
10000000
00010000
00000000
00000000
00000100
00000000
00010000
00000000

TIL 3u
00000000
00000000
00000000
00100000
00000100
00000000
00000000
00000000
>
00000000
00000000
00100000
00000000
00000000
00000010
00000000
00000000

TIL 3v
11000011
11000011
00011000
00111100
00111100
00011000
11000011
11000011

TIL 3w
00000010
01000000
00000000
00001000
00010000
00000000
00000001
00000010
WAL false

SPR 10
00000000
00000000
00000000
00000000
00000000
00000000
01010101
10101010
POS 4 13,13

SPR 11
00000000
00000000
00000000
00000000
00000000
00000000
01010101
10101010
POS 4 14,13

SPR 12
00000000
00000000
00000000
00000000
00000000
00000000
01010101
10101010
POS 4 15,13

SPR 13
00000000
00000000
00000000
00000000
00000000
00000000
01010101
10101010
POS 4 11,11

SPR 14
00000000
00000000
00000000
00000000
00000000
00000000
01010101
10101010
POS 4 12,11

SPR 15
00000000
00000000
00000000
00000000
00000000
00000000
01010101
10101010
POS 4 13,11

SPR 16
00000000
00000000
00000000
00000000
00000000
00000000
01010101
10101010
POS 4 14,11

SPR 17
00000000
00000000
00000000
00000000
00000000
00000000
01010101
10101010
POS 4 15,11

SPR 18
00000000
00110000
01001000
10000110
10000001
11111111
00000000
00000000
POS 4 6,5

SPR 19
00000000
00110000
01001000
10000110
10000001
11111111
00000000
00000000
POS 4 11,5

SPR A
00100000
00111100
00110100
00001000
00011110
00111101
00010100
00100100
>
01000000
00111100
00110100
00001000
00111100
01011110
00010100
00010010
POS 0 0,7

SPR a
00011100
00101010
00011100
00111000
00111000
00110000
01110000
01100000
NAME ghost
DLG SPR_0
POS 0 8,12

SPR c
00011100
00101010
00011100
00111000
00111000
00110000
01110000
01100000
NAME ghost 2
DLG SPR_1
POS 1 7,7

SPR d
00111000
01101100
00111000
00010000
00111000
00110000
00110000
01100000
DLG SPR_2
POS 1 3,8

SPR e
00011100
00110110
00011100
00001000
00011100
00001100
00001100
00000110
DLG SPR_3
POS 1 13,8

SPR f
00011000
00111100
01111110
11111111
01001010
01111110
01001010
01111010
DLG SPR_4
POS 2 5,9

SPR g
11110111
11000011
11010011
11000011
11100111
11000011
11100111
11010111
>
11111011
11000011
11010011
11000011
11100111
11000011
11100111
11101011
DLG SPR_5
POS 3 7,9

SPR h
00011000
00111100
01111100
10111100
00111100
00111110
00101101
00001100
DLG SPR_6
POS 3 2,1

SPR i
00010000
00011000
00011100
00011110
00010000
11111111
10000001
01000001
DLG SPR_7
POS 4 10,13

SPR j
00000000
00000000
00000000
00000000
00000000
00000000
01010101
10101010
POS 4 12,12

SPR k
00000000
00000000
00000000
00000000
00000000
00000000
01010101
10101010
POS 4 14,12

SPR l
00000000
00000000
00000000
00000000
00000000
00000000
01010101
10101010
POS 4 13,12

SPR m
00000000
00000000
00000000
00000000
00000000
00000000
01010101
10101010
POS 4 15,12

SPR n
00000000
00000000
00000000
00000000
00000000
00000000
01010101
10101010
POS 4 0,13

SPR o
00000000
00000000
00000000
00000000
00000000
00000000
01010101
10101010
POS 4 1,13

SPR p
00000000
00000000
00000000
00000000
00000000
00000000
01010101
10101010
POS 4 2,13

SPR q
00000000
00000000
00000000
00000000
00000000
00000000
01010101
10101010
POS 4 3,13

SPR r
00000000
00000000
00000000
00000000
00000000
00000000
01010101
10101010
POS 4 4,13

SPR s
00000000
00000000
00000000
00000000
00000000
00000000
01010101
10101010
POS 4 5,13

SPR t
00000000
00000000
00000000
00000000
00000000
00000000
01010101
10101010
POS 4 6,13

SPR u
00000000
00000000
00000000
00000000
00000000
00000000
01010101
10101010
POS 4 7,13

SPR v
00000000
00000000
00000000
00000000
00000000
00000000
01010101
10101010
POS 4 9,13

SPR w
00000000
00000000
00000000
00000000
00000000
00000000
01010101
10101010
POS 4 8,13

SPR x
00000000
00000000
00000000
00000000
00000000
00000000
01010101
10101010

SPR y
00000000
00000000
00000000
00000000
00000000
00000000
01010101
10101010
POS 4 11,13

SPR z
00000000
00000000
00000000
00000000
00000000
00000000
01010101
10101010
POS 4 12,13

SPR 1a
00000000
00110000
01001000
10000110
10000001
11111111
00000000
00000000
POS 4 2,5

SPR 1b
00010100
01000000
00011001
10111100
00111101
10011000
00000010
00101000
POS 4 12,2

SPR 1c
00100100
00111100
00101100
00010000
00111110
01111100
00100100
01000100
>
01000010
00111100
00101100
00010000
01111100
00111110
00100100
00100010
DLG SPR_8
POS 5 6,8

ITM 0
00000000
00000000
00000000
00111100
01100100
00100100
00011000
00000000
NAME tea
DLG ITM_0

DLG ITM_0
You found a nice warm cup of tea

DLG SPR_0
"""
{clr2}Foolish Child...{clr2}

{clr2}You Care For Nought. 

Go Forth And Learn,

{shk} Lest You Wind Up A Husk Like Me...{shk}{clr2}
"""

DLG SPR_1
{clr2}what {wvy}...{wvy} do you crave?{clr2}

DLG SPR_2
{clr2}{wvy}where are you from.....{wvy}{clr2}

DLG SPR_3
{clr2}{shk}where will you go....{shk}{clr2}

DLG SPR_4
{clr1} {wvy}mm... smells like big sister is baking again{wvy} {clr1}

DLG SPR_6
"""
{shk}{clr2}you take and take and take.

when will your greed be satiated?
always a question of what you want

no care for anyone else{clr2}{shk}
"""

DLG SPR_7
"""
{clr3}Do not dwell on your mistakes. 

You must keep progressing, improving.

Head eastward to start writing your future.{clr3}
"""

DLG SPR_8
"""
{clr2}Ahh good timing! 
I'm making dinner.
Please have a seat, 
I need someone to help 
chop the carrots.{clr2}
"""

DLG SPR_5
{clr2}I hear that man's treasure has value beyond reason. Surely this is what you seek? But his riches are a mere rumour... perhaps there is more to life than pursuit of gold{clr2}

END 0
The salty wind in your lungs refreshes you, and your soul is cleansed by the unending vastness of the sea and sky. Your potential is as endless as the wind in your sail.

END undefined
You have returned to your family home. Maybe your growth will stagnate, but your sister appreciates your selfless choice.

END undefinee
You find that you were unable to stop yourself from pursuing the path of selfishness. Your soul corrodes as you give in to temptation. 

VAR a
42


