I received a letter from the King. I must meet him urgently.

# BITSY VERSION 2.2

! ROOM_FORMAT 1

PAL 0
51,34,45
53,136,140
89,193,159

ROOM 0
0,0,0,0,0,0,0,0,0,0,0,0,0,0,0,0
0,0,0,0,0,0,0,0,0,0,0,0,0,0,0,0
0,0,0,0,0,0,0,0,0,0,0,0,0,0,0,0
0,0,0,0,0,0,0,0,0,0,0,0,0,0,0,0
0,0,0,0,0,0,0,0,0,0,0,0,0,0,0,0
0,0,0,0,0,0,0,0,0,0,0,0,0,0,0,0
0,i,i,i,i,i,i,i,i,i,i,i,i,i,i,0
0,0,0,h,0,0,0,0,0,h,0,0,0,0,h,0
0,0,0,g,0,0,0,0,0,g,0,0,0,e,j,e
0,0,0,g,0,0,0,0,0,g,0,0,e,0,g,0
0,0,0,g,0,0,0,0,0,g,0,e,0,b,a,e
0,0,0,g,0,0,0,0,0,g,e,0,b,c,d,e
e,e,e,j,e,e,e,e,e,j,0,b,c,d,d,e
e,0,0,g,0,0,0,f,0,g,b,c,d,d,d,e
e,a,a,a,a,a,a,a,a,a,a,a,a,a,a,e
e,e,e,e,e,e,e,e,e,e,e,e,e,e,e,e
WAL a,c,d,e,j
EXT 14,9 1 1,9

ROOM 1
0,0,0,0,0,0,0,0,0,0,0,0,0,0,0,0
0,0,0,0,0,0,0,0,0,0,0,0,0,0,0,0
0,i,i,i,i,i,i,i,i,i,i,i,i,i,i,0
0,0,h,0,0,h,0,0,0,0,0,0,0,h,0,0
0,0,g,0,0,g,0,0,0,0,0,e,e,j,e,e
0,0,g,0,0,g,0,0,0,0,e,0,0,g,0,0
0,0,g,0,0,g,0,0,0,e,0,b,a,a,a,e
0,0,g,0,0,g,0,0,e,0,b,c,d,d,d,e
e,e,j,e,e,j,e,e,0,b,c,d,d,d,d,e
e,0,g,0,0,g,0,0,b,c,d,d,d,d,d,e
e,a,a,a,a,a,a,a,a,a,a,a,a,a,a,e
e,e,e,e,e,e,e,e,e,e,e,e,e,e,e,e
0,0,0,0,0,0,0,0,0,0,0,0,0,0,0,0
0,0,0,0,0,0,0,0,0,0,0,0,0,0,0,0
0,0,0,0,0,0,0,0,0,0,0,0,0,0,0,0
0,0,0,0,0,0,0,0,0,0,0,0,0,0,0,0
WAL a,c,d,e,j
EXT 1,9 2 1,11
EXT 15,5 2 1,11

ROOM 2
0,0,0,0,0,0,0,0,0,0,0,0,0,0,0,0
0,0,0,0,0,0,0,0,0,0,0,0,0,0,0,0
0,0,0,0,0,0,0,0,0,0,0,0,0,0,0,0
0,0,0,0,0,0,0,0,0,0,0,0,0,0,0,0
0,i,i,i,i,i,i,i,i,i,i,i,i,i,i,0
0,0,0,h,0,0,h,0,0,h,0,0,0,0,0,0
0,0,0,g,0,0,g,0,0,g,0,0,0,0,0,0
0,0,0,g,0,0,g,0,0,g,0,0,0,0,0,0
0,0,0,g,0,0,g,0,0,g,0,0,0,0,0,0
0,0,0,g,0,e,j,e,e,j,0,0,0,r,q,0
e,e,e,j,e,0,g,0,0,g,0,m,n,o,p,0
0,0,0,g,0,b,k,k,l,k,k,l,k,k,l,0
e,a,a,a,a,a,a,a,a,a,a,a,a,a,a,0
0,0,0,0,0,0,0,0,0,0,0,0,0,0,0,0
0,0,0,0,0,0,0,0,0,0,0,0,0,0,0,0
0,0,0,0,0,0,0,0,0,0,0,0,0,0,0,0
WAL a,l,k,m,j,e
EXT 0,11 3 14,14

ROOM 3
0,0,0,0,0,0,0,0,0,0,0,0,0,0,0,0
0,0,0,0,0,0,0,0,0,0,0,0,0,13,14,0
0,0,0,0,0,0,0,0,0,0,0,t,u,v,w,w
0,0,0,0,0,0,1c,0,0,0,0,0,s,x,x,x
0,0,0,1c,0,0,0,0,1c,0,0,0,s,x,x,x
0,0,0,0,0,0,0,0,0,0,0,0,s,x,y,x
0,0,0,0,0,1c,0,0,0,0,1c,0,s,x,x,x
0,0,0,0,0,0,0,0,0,0,0,0,s,x,y,x
0,0,0,0,0,0,0,0,0,0,0,0,s,x,x,x
0,0,0,0,0,0,0,0,0,0,0,0,s,x,x,x
0,0,0,0,0,0,0,0,0,0,0,0,10,z,z,z
0,0,0,0,0,0,0,0,0,0,0,0,11,0,0,12
0,0,0,0,0,0,0,0,0,0,0,0,11,0,0,12
0,e,e,e,e,e,e,e,e,e,e,e,11,e,e,12
0,0,1a,0,18,0,1b,0,19,0,1b,0,16,0,0,15
0,17,17,17,17,17,17,17,17,17,17,17,17,17,17,17
WAL 15,e,17
EXT 0,14 4 14,10

ROOM 4
0,0,0,0,0,0,0,0,0,0,0,0,0,0,0,0
0,0,0,0,0,0,0,0,0,0,0,0,0,0,0,0
0,0,0,0,0,0,0,1c,0,0,0,0,0,0,0,0
0,0,0,0,0,0,0,0,0,0,0,0,1c,0,1c,0
0,0,0,0,1c,0,0,0,0,0,0,0,0,0,0,0
0,0,1c,0,0,0,0,0,0,1c,0,0,0,0,0,0
0,0,0,0,0,0,0,0,0,0,0,0,0,0,0,0
0,0,0,0,0,0,0,0,0,0,0,0,0,0,0,0
0,0,0,0,0,e,e,e,e,e,e,e,0,0,0,0
0,e,e,e,e,0,0,0,1f,0,0,e,e,e,e,0
0,1f,0,0,0,0,1e,1e,1e,1e,0,e,0,1f,0,e
0,1e,1e,1d,1d,1e,1d,1d,1d,1d,0,0,0,1e,1e,0
0,1d,1d,1d,1d,1d,1d,1d,1d,1d,1e,1e,1e,1d,1d,0
0,1d,1d,1d,1d,1d,1d,1d,1d,1d,1d,1d,1d,1d,1d,0
0,1d,1d,1d,1d,1d,1d,1d,1d,1d,1d,1d,1d,1d,1d,0
0,0,0,0,0,0,0,0,0,0,0,0,0,0,0,0
WAL 1e,1d,e
EXT 0,10 5 14,11

ROOM 5
0,0,0,0,0,0,0,0,0,0,0,0,0,0,0,0
0,0,0,0,0,0,0,0,0,0,0,0,0,0,0,0
0,0,0,0,0,0,0,0,0,0,0,0,0,0,0,0
0,0,0,0,0,0,0,0,0,0,0,0,0,0,0,0
0,0,0,0,0,0,0,0,0,0,0,1h,0,0,0,0
0,0,0,0,0,1i,0,0,0,0,0,0,0,0,0,0
0,0,1i,0,0,0,0,0,1i,0,0,0,0,0,0,0
0,0,0,0,1i,0,0,0,0,0,0,0,1i,0,0,0
0,0,0,0,0,0,0,0,0,0,0,0,0,0,0,0
0,0,0,0,0,1j,0,0,0,0,0,0,0,0,0,0
0,e,e,e,1k,e,1l,e,e,e,e,e,e,e,e,0
0,0,0,1m,0,0,0,1n,0,0,0,0,0,0,0,e
0,1g,1g,1g,1g,1g,1g,1g,1g,1g,1g,1g,1g,1g,1g,0
0,0,0,0,0,0,0,0,0,0,0,0,0,0,0,0
0,0,0,0,0,0,0,0,0,0,0,0,0,0,0,0
0,0,0,0,0,0,0,0,0,0,0,0,0,0,0,0
WAL 1g,1l,1k,e
EXT 0,11 6 14,12

ROOM 6
0,0,0,0,0,0,0,0,0,0,0,0,0,0,0,0
0,0,0,0,0,0,0,0,0,0,0,0,0,0,0,0
0,0,0,0,0,0,0,0,0,0,0,0,0,0,0,0
0,0,0,0,0,0,0,0,0,0,0,0,0,0,0,0
0,0,0,0,0,0,0,1c,0,0,0,0,0,0,0,0
0,0,0,0,1c,0,0,0,0,0,1h,0,0,0,0,0
0,0,0,0,0,0,0,0,0,0,0,0,0,1c,0,0
0,0,0,0,0,0,0,0,0,0,0,0,0,0,0,0
0,1w,1w,1w,1w,1x,0,0,0,0,0,0,0,0,0,0
0,1v,1v,1v,0,0,0,0,0,0,0,0,0,0,0,0
0,1t,1t,1s,1y,1y,1y,0,0,0,0,0,0,0,0,0
0,1t,1t,1s,1u,0,1y,1y,1y,1y,1y,1y,1y,1y,1y,0
0,1r,1r,1q,1p,0,0,0,0,0,0,0,0,0,0,e
0,17,17,17,17,17,17,17,17,17,17,17,17,17,17,0
0,0,0,0,0,0,0,0,0,0,0,0,0,0,0,0
0,0,0,0,0,0,0,0,0,0,0,0,0,0,0,0
WAL 17,1p,1y,e
EXT 3,11 7 10,10

ROOM 7
0,0,0,0,0,0,0,0,0,0,0,0,0,0,0,0
0,0,0,0,0,0,0,0,0,0,0,0,0,0,0,0
0,0,0,0,0,0,0,0,0,0,0,0,0,0,0,0
0,0,0,0,0,0,0,0,0,0,0,0,0,0,0,0
0,0,0,0,0,0,0,0,0,0,0,0,0,0,0,0
0,0,0,0,0,0,0,0,0,0,0,0,0,0,0,0
0,0,0,22,22,22,22,22,22,22,22,22,22,0,0,0
0,0,0,20,0,0,24,0,0,24,0,0,21,0,0,0
0,0,0,20,0,0,0,0,0,0,0,0,21,0,0,0
0,0,0,20,1y,1y,0,1y,1y,1y,1y,1y,21,0,0,0
0,0,0,20,0,27,0,25,26,0,23,0,21,0,0,0
0,0,0,1z,1z,1z,1z,1z,1z,1z,1z,1z,1z,0,0,0
0,0,0,0,0,0,0,0,0,0,0,0,0,0,0,0
0,0,0,0,0,0,0,0,0,0,0,0,0,0,0,0
0,0,0,0,0,0,0,0,0,0,0,0,0,0,0,0
0,0,0,0,0,0,0,0,0,0,0,0,0,0,0,0
WAL 20,1z,21,1y
EXT 11,10 8 8,12

ROOM 8
0,0,0,0,0,0,0,0,0,0,0,0,0,0,0,0
0,0,0,0,0,0,0,0,0,0,0,0,0,0,0,0
0,0,0,0,0,0,0,0,0,0,0,0,0,0,0,0
0,0,0,0,0,0,0,0,0,0,0,0,0,0,0,0
0,0,0,0,0,0,0,1c,0,0,0,0,0,0,0,0
0,0,0,0,1c,0,0,0,0,0,1h,0,0,0,0,0
0,0,0,0,0,0,0,0,0,0,0,0,0,1c,0,0
0,0,0,0,0,0,0,0,0,0,0,0,0,0,0,0
0,1w,1w,1w,1w,1x,0,0,0,0,0,0,0,0,0,0
0,1v,1v,1v,0,0,0,0,0,28,29,2a,0,0,0,0
0,1t,1t,1s,0,0,0,0,0,0,0,0,0,0,0,0
0,1t,1t,1s,1u,e,1y,1y,1y,1y,1y,1y,1y,1y,1y,0
0,1r,1r,1q,1p,1y,0,0,0,0,0,0,0,0,1y,0
0,17,17,17,17,17,17,17,17,17,17,17,17,17,17,0
0,0,0,0,0,0,0,0,0,0,0,0,0,0,0,0
0,0,0,0,0,0,0,0,0,0,0,0,0,0,0,0
WAL 17,1p,1y

TIL 10
11111111
11111111
11101010
11110101
11000000
11000000
11111111
11111111

TIL 11
11011000
11011000
11111000
11011000
11011000
11011000
11011000
11011000

TIL 12
11011001
11011110
11111001
11011001
11011110
11011001
11011001
11011110

TIL 13
00001000
00010100
00001000
00001011
00001111
00001111
00001100
00001000
>
00001000
00010100
00001000
00001100
00001111
00001111
00001011
00001000

TIL 14
00000000
00000000
00000000
00100000
11100000
11100000
11000000
00000000
>
00000000
00000000
00000000
11000000
11100000
11100000
00100000
00000000

TIL 15
11011001
11011110
11111001
11011001
11011110
11111111
11011011
11111111

TIL 16
11011000
11011000
11111000
11011000
11011000
11111000
10101000
11111000

TIL 17
11111111
11111111
10110110
00000000
00000000
00000000
00000000
00000000

TIL 18
00000000
00000000
00100000
01010000
00100000
00100000
01001000
01000100

TIL 19
00000000
00000000
00000000
00000000
00000010
00000010
01000100
01100100

TIL 20
00110011
00101011
00100111
00101011
00110011
00101011
00100111
00101011

TIL 21
11100100
11010100
11001100
11010100
11100100
11010100
11001100
11010100

TIL 22
00000000
00000000
10101010
11111111
00011000
00011000
11111111
11111111

TIL 23
01111110
11111111
01111110
11111111
01110010
11111111
01111110
11111111

TIL 24
00100100
00100100
00100100
01111110
00111100
00000000
00000000
00000000

TIL 25
00000000
00000000
00000000
11111111
01111111
00100000
00100000
00100000

TIL 26
00000000
00010000
10111000
11111111
11111110
00000100
00000100
00000100

TIL 27
00011100
01111110
00111100
00101000
00011100
01000001
01010101
00010100

TIL 28
00000000
00000000
11100000
01010011
01011010
01010101
00000000
00000000

TIL 29
00000000
00000000
00000000
00011011
10010110
00001010
00000000
00000000

TIL a
11111111
10101010
01010101
00000000
11111111
00000000
11111111
11111111

TIL b
00000001
00000011
00000110
00001101
00011011
00110101
01101001
11011111

TIL c
10111111
01000001
10111101
10110001
10100101
10101101
10000001
11111111

TIL d
11111111
10000001
10111101
10110001
10100101
10101101
10000001
11111111

TIL e
00000000
00000000
00000000
00000000
00000000
00000000
00000000
00000000

TIL f
00000000
00011100
00011110
00001010
00010100
01000001
01010101
00010100

TIL g
01011010
01011010
01011010
01011010
01011010
01011010
01011010
01011010

TIL h
11111111
01010101
11111111
11111111
10000001
01111110
00000000
01111110

TIL i
00000000
00000000
00000000
11111111
11111111
00000000
01010101
11111111

TIL j
01011010
01011010
01011010
01011010
01011010
01011010
01011010
01011010

TIL k
11111111
11111111
00000000
11111111
00000000
00000000
00000000
00000000

TIL l
11111111
11111111
00000000
11111111
00111100
00011000
00011000
00011000

TIL m
00000000
00000000
00000000
00000000
00000000
00000000
10000000
11111111

TIL n
00000000
00000000
00000000
00000000
00000000
00011111
00101010
11110101

TIL o
00011011
00011111
00001101
00001010
00011010
11111111
10101010
01010101

TIL p
00110000
11110000
10110000
01010000
01010000
11111111
01010101
00101010

TIL q
00000000
00111000
10110000
10110000
10110000
01110000
10110000
11110000

TIL r
00000101
00000111
00000111
00000010
00100111
00100000
00111101
00000101

TIL s
11001000
11111000
11000111
11000100
11111000
11001000
11000111
11000100

TIL t
00000000
00000000
00000000
00000000
00001111
00001110
00000011
00000001

TIL u
00000000
10100000
11110000
11111111
11010101
11111111
11000111
11000100

TIL v
00000100
00000100
00000100
11000100
11100110
11111111
11010101
11111111

TIL w
00000000
00000000
00000000
00000000
01100110
11111111
01010101
11111111

TIL x
11001000
00111000
11000111
01000100
00111000
11001000
00000111
00111100

TIL y
11100110
01111110
11100111
01100110
01100110
11100110
01100111
01111110

TIL z
11111111
11111111
10101010
01010101
00000000
00000000
11111111
11111111

TIL 1a
00000000
00000000
00010000
00101000
00010000
00100000
00100000
00010000

TIL 1b
00000000
00000000
00000000
00000000
00000000
00000000
01000000
01001000

TIL 1c
00000000
00000000
00000000
00111100
01111110
00000000
00000000
00000000

TIL 1d
00110000
11001011
01000110
00100010
00100100
00011010
01100001
10010001

TIL 1e
10111101
11111111
01000110
00100010
00100100
00011010
01100001
10010001

TIL 1f
00000000
00000000
00000000
00000000
00000000
00000000
01000000
00100010

TIL 1g
11111111
11111111
11111111
11111111
00000000
11111111
00000000
11111111

TIL 1h
01000010
00111100
11000011
01000010
01000010
11000011
00111100
01000010
>
00010000
10111101
01000010
01000011
11000010
01000010
10111101
00010100

TIL 1i
00000000
00000000
00000000
01110101
00000000
10111111
00000000
00000000
>
00000000
00000000
00000000
11000110
00000000
11011011
00000000
00000000

TIL 1j
00000000
00000000
00000000
00000000
00011000
00100100
01000010
10000001

TIL 1k
00000001
00000010
00000100
00001000
00010000
00100000
01000000
10000000

TIL 1l
10000000
01000000
00100000
00010000
00001000
00000100
00000010
00000001

TIL 1m
00000001
00000010
00000100
00001000
00010000
00100000
01000000
10000000

TIL 1n
10000000
01000000
00100000
00010000
00001000
00000100
00000010
00000001

TIL 1o
00000000
00000000
00000000
00000000
00000000
00000000
00000000
00000000

TIL 1p
10000000
10000000
00000000
11000000
01110000
10011100
10100000
10101000

TIL 1q
00000011
11111111
00000011
00000011
11111111
11111111
01011010
01011010

TIL 1r
00000000
11111111
00000000
00000000
11111111
11111111
01011010
01011010

TIL 1s
11111111
00000011
00000011
11111111
00000011
00000011
11111111
00000011

TIL 1t
11111111
00000000
00000000
11111111
00000000
00000000
11111111
00000000

TIL 1u
10000000
10000000
10000000
10000000
10000000
11000000
10000000
10000000

TIL 1v
00000000
11111111
10101010
11111111
11111111
11111111
01010101
11111111

TIL 1w
00000000
00000000
00000000
11011011
11111111
11111111
00000000
11111111

TIL 1x
00000000
00000000
00000000
11000000
11111000
11111111
00000000
11111000

TIL 1y
00000000
00000000
00000000
00000000
00000000
00000000
00000000
00000000

TIL 1z
11111111
11111111
00000000
11111111
10101010
00000000
00000000
00000000

TIL 2a
00010000
00010000
00010000
00110000
11010000
11110000
00000000
00000000

SPR A
00000000
00111100
00111100
00101000
00011100
01000001
01010101
00010100
POS 0 1,13

SPR a
11111111
10000001
10111101
10000001
11111111
00000110
00000001
00000000
>
11111111
10000001
10000001
10000001
11111111
00000110
00000001
00000000
POS 0 6,12

SPR b
00000000
00000000
00000000
00000000
00000000
00000000
11111110
00000001
POS 2 12,8

SPR c
00000000
00000000
00000000
00000000
00000000
00000000
01111111
10000000
POS 2 11,8

SPR d
00000001
00000010
11111111
10000001
10111101
10000001
11111111
00000000
>
00000001
00000010
11111111
10000001
10000001
10000001
11111111
00000000
POS 2 10,9

SPR e
00000000
00000000
00000000
00000000
00000000
00000000
00000000
00000000

SPR f
11111111
10000001
10111101
10000001
11111111
01100000
10000000
00000000
>
11111111
10000001
10000001
10000001
11111111
01100000
10000000
00000000
POS 7 6,9

DLG a
The king is expecting you, please head up the stairs.

DLG d
My dear Jarl Gregory. Listen closely. I am nearing my last days on this earth. I need someone to take my place. <But who could replace you?> I have a son. It is time I told this. <Where does he live, my king?> I know I can only trust you to go and find him. He lives in an old house near the beach of the Westmond Sea. I know it is a long journey, but it is my dying wish. I wish you the best in your travel. <I will not dissapoint you sire, goodbye.>

DLG f
I'm the next king? Oh god. I can't believe it! I'm sorry, but I can't be the next king. My heart belongs to the seas. I'm very sorry. <But who must replace him then?> Why not you? <That's actually not a bad idea.> Here, take this, a letter signed by me, declaring you are king. It will be my first and final act as king. <Thank you. I will go back at once to tell them the news.> Take care!

