Oh wow...it really is coming down out there, huh?          Y'all will just disappear into the deep, deeeeeeeeeeeeeeeeeeeeeeeep snow with your little stubby legs.    We all better just snuggle up and watch the snow fall...

PAL 0
214,233,223
255,255,255
239,165,116

ROOM 0
qwqqwqqsowqwqqqw
w0wq0wgpzoq0qwq0
0wq0qgpaazow0qqw
0q0wgpaaaaztk00q
q0qspaaaaaaruqwq
w0gpaaagoaarzo0q
qggaaaazpaaraotw
isqaaagqwoara0tjs
000aaaqwqqaraw0q
qw0aaazqqpara0q0
000aaaaqqaara00w
nnnaaaa00aarannnn
ggg0k0000000booo
ggb00000000k0boob
g00000000000000o
0k00000b000b0b00
WAL c,a,o,i,j,n,p,q,s,w,g,z

TIL a
11111111
11111111
11011011
11100111
11100111
11011011
11111111
11111111

TIL b
00000000
00000000
00010000
01110001
11011111
11111111
00111111
00100001

TIL g
00000011
00000110
00001100
00011100
00011000
00110000
11000000
10000000

TIL i
00000011
00001111
00001111
00001110
00011000
00011100
00010110
00000001

TIL j
11000000
11100000
01110000
01111000
11111000
11101000
01101000
00101000

TIL k
00000000
00000000
00001000
10001110
11111011
11111111
11111100
10000100

TIL n
11111111
11000011
10000001
11111111
10000001
10000001
10000001
10000001

TIL o
10000000
11000000
00100000
00111000
00011100
00001100
00000010
00000011

TIL p
00000001
00000011
00000111
00001111
00011011
00110011
01111111
11111111

TIL s
00000001
00000111
00001111
00011011
00111001
01111001
11011000
10010000

TIL t
10000000
11100000
01110000
01111100
01111100
01001110
01001010
00000011

TIL u
11011100
11110110
10111010
10101101
10101111
10001011
00001111
00000011

TIL w
00010000
00000000
01010100
00111000
00111000
01010100
00000000
00010000

TIL z
10000000
11000000
11100000
11110000
11011000
11001100
11111110
11111111

TIL q
00000010
00000000
00000000
10010000
00000000
00000000
00000010
00000000

TIL r
01000010
01111110
01000010
01111110
01000010
01111110
01000010
01111110

SPR A
01000010
00111100
00100100
00111100
01111110
10111101
00100100
00100100
POS 0 4,14

SPR a
00000000
00000000
00010000
01110001
11011111
11111111
00111111
00100001
POS 0 9,13

SPR m
00000000
00000000
00010000
00011100
00010110
01011110
01111100
11111111
POS 0 3,14

SPR d
00000000
00000000
00000000
00010000
01110001
11011111
11111111
00111111
POS 0 12,14

SPR e
00001010
00000110
00101101
01101001
01011001
01111110
11111111
11111111
POS 0 7,11

SPR f
00001001
01000000
01100010
10110010
10010101
10011101
11111111
11111111
POS 0 8,11

SPR g
00000000
00000000
00001000
10001110
11111011
11111111
11111100
10000100
POS 0 12,3

SPR h
00000000
00000000
00000000
00001000
10001110
11111011
11111111
11111100
POS 0 6,12

DLG a
Who's the cutest? WHO? WHOOOOOOOO? YOU??? The answer is.......................YES. IT'S YOU. YOU ARE THE CUTEST. *Pick up that crazy cute fuzz face and hold them in your arms*

DLG d
Hey, cutie fuzz babykiss. You are all surrounded by warm, happy puppies. Livin' the dream. Let me just get right in on that cuddle pile. Yeah, so soft, so warm, such good puppy smells, mmmmmmmmmmmmmmmm......*Cuddle that adorable fluff for 5 hours*

DLG e
Mmm...nice and toasty. Keepin' me and all the fuzzy cutie corgis nice and warm. Snow days are A+++++. Thanks, Winter.

DLG f
Staring into the fire is so mesmerizing......................    *Fall asleep after staring into the fire for hourssss* *Wake up with 5 puppies piled on them all in a cuddle nap pile*

DLG g
How did you even get up here? No, seriously though. How...what...WHY...I mean if you are having fun up here, keep on keepin' on. I'm gonna go back inside and get my cuddle on. *Hug snowy fuzz butt reallllll tight*

DLG h
That fires real nice, huh? You got it made. Looks like you might need a snuggle buddy. *Cuddle up to super warm cutie*

DLG m
You really got relaxin' down to a science there. Really just spreadin' out and chillllllllin'. Or warmin'? What would you call what you are doing? No rush. I'll just hug you while you think. You are the smartiest puppy! Yes, you are! *Wait patiently for Cutie Smartie Butt to answer in English cause dogs definitely speak english*

