
you wake up

# BITSY VERSION 4.8

! ROOM_FORMAT 1

PAL 0
0,0,0
236,234,255
255,255,255

ROOM 0
f,g,g,g,g,g,v,x,y,w,g,g,g,g,g,h
e,0,0,0,0,0,0,0,0,0,0,0,0,0,0,i
e,0,0,0,0,0,0,0,0,0,0,0,0,0,0,i
e,0,0,0,0,0,0,0,0,0,0,0,0,0,0,i
e,0,0,0,0,0,0,0,0,0,0,0,0,0,0,i
e,0,0,0,0,m,o,o,o,o,p,0,0,0,0,i
e,0,0,0,0,u,0,0,0,0,q,0,0,0,0,i
e,0,0,0,0,u,0,0,0,0,q,0,0,0,0,i
e,0,0,0,0,u,0,0,0,0,q,0,0,0,0,i
e,0,0,0,0,u,0,0,0,0,q,0,0,0,0,i
e,0,0,0,0,t,s,s,s,s,r,0,0,0,0,i
e,0,0,0,0,0,0,0,0,0,0,0,0,0,0,i
e,0,0,0,0,0,0,0,0,0,0,0,0,0,0,i
e,0,0,0,0,0,0,0,0,0,0,0,0,0,0,i
e,0,0,0,0,0,0,0,0,0,0,0,0,0,0,i
l,j,j,j,j,j,j,j,j,j,j,j,j,j,j,k
EXT 7,0 1 7,15
EXT 8,0 1 8,15
PAL 0

ROOM 1
f,g,g,g,g,g,g,g,g,g,g,g,g,g,g,h
e,0,0,0,0,0,0,0,0,0,0,0,0,0,0,i
e,0,0,0,0,0,0,0,0,0,0,0,0,0,0,i
e,0,0,0,0,0,0,0,0,0,0,0,0,0,0,i
e,0,0,0,0,0,0,0,0,0,0,0,0,0,0,i
e,0,0,0,0,0,0,0,0,0,0,0,0,0,0,i
e,0,0,0,0,0,0,0,0,0,0,0,0,0,0,i
e,0,0,0,0,0,0,0,0,0,0,0,0,0,0,i
e,0,0,0,0,0,0,0,0,0,0,0,0,0,0,i
e,0,0,0,0,0,0,0,0,0,0,0,0,0,0,i
e,0,0,0,0,0,0,0,0,0,0,0,0,0,0,i
e,0,0,0,0,0,0,0,0,0,0,0,0,0,0,i
e,0,0,0,0,0,0,0,0,0,0,0,0,0,0,i
e,0,0,0,0,0,0,0,0,0,0,0,0,0,0,i
e,0,0,0,0,0,0,0,0,0,0,0,0,0,0,i
l,j,j,j,j,j,z,x,y,10,j,j,j,j,j,k
ITM 2 12,7
ITM 1 13,5
END undefined 1,1
PAL 0

TIL 10
10000000
11111111
11111111
11111111
11111111
11111111
11111111
11111111
WAL true

TIL e
11111110
11111110
11111110
11111110
11111110
11111110
11111110
11111110
WAL true

TIL f
11111111
11111111
11111111
11111111
11111111
11111111
11111111
11111110
WAL true

TIL g
11111111
11111111
11111111
11111111
11111111
11111111
11111111
00000000
WAL true

TIL h
11111111
11111111
11111111
11111111
11111111
11111111
11111111
01111111
WAL true

TIL i
01111111
01111111
01111111
01111111
01111111
01111111
01111111
01111111
WAL true

TIL j
00000000
11111111
11111111
11111111
11111111
11111111
11111111
11111111
WAL true

TIL k
01111111
11111111
11111111
11111111
11111111
11111111
11111111
11111111
WAL true

TIL l
11111110
11111111
11111111
11111111
11111111
11111111
11111111
11111111
WAL true

TIL m
01000000
11000000
00111111
00101000
00110100
00101010
00100110
00100000

TIL o
00000000
00000000
11111111
00000000
00000000
00000000
00000000
00000000

TIL p
00000010
00000011
11111100
00010100
00101100
01010100
01100100
00000100

TIL q
00000100
00000100
00000100
00000100
00000100
00000100
00000100
00000100

TIL r
00000100
01100100
01010100
00101100
00010100
11111100
00000011
00000010

TIL s
00000000
00000000
00000000
00000000
00000000
11111111
00000000
00000000

TIL t
00100000
00100110
00101010
00110100
00101000
00111111
11000000
01000000

TIL u
00100000
00100000
00100000
00100000
00100000
00100000
00100000
00100000

TIL v
11111111
11111111
11111111
11111111
11111111
11111111
11111111
00000001
WAL true

TIL w
11111111
11111111
11111111
11111111
11111111
11111111
11111111
10000000
WAL true

TIL x
11111111
10000001
10000001
10000101
10000001
10000001
10000001
11111111

TIL y
11111111
10000001
10000001
10100001
10000001
10000001
10000001
11111111

TIL z
00000001
11111111
11111111
11111111
11111111
11111111
11111111
11111111
WAL true

SPR A
00111100
01111110
01011010
00111100
01111110
10111101
00100100
00100100
>
00000000
00111100
01111110
01011010
00111100
01111110
10111101
00100100
POS 0 7,6

SPR n
00000000
01100000
01111111
01100000
01101110
01101110
01101110
01101110
DLG SPR_4
POS 0 7,7

SPR o
01101110
01101110
01101110
01101110
01100000
01111111
01100000
00000000
DLG SPR_2
POS 0 7,8

SPR p
00000010
00000010
00000010
00000010
00000010
11111110
00000000
00000000
DLG SPR_1
POS 0 8,8

SPR q
00000000
00000000
11111110
00000010
00000010
00000010
00000010
00000010
DLG SPR_0
POS 0 8,7

SPR r
11111111
10000000
10101110
10010001
10000000
11111111
00011000
00011000
DLG SPR_5
POS 1 7,11

SPR s
11111111
00000001
10111001
01000101
00000001
11111111
00011000
00011000
DLG SPR_9
POS 1 8,11

ITM 1
00000000
00000000
00110000
01001000
01001000
01111010
00000101
00000000
NAME toaster
DLG ITM_1

ITM 2
00000000
00000000
01111100
10100010
10100010
11111110
00000000
00000000
NAME bread
DLG ITM_0

DLG SPR_6
you use the toilet

DLG SPR_7
you use the toilet

DLG SPR_8
you use the toilet

DLG SPR_0
why would you go back to sleep?

DLG SPR_1
why would you go back to sleep?

DLG SPR_2
why would you go back to sleep?

DLG SPR_4
why would you back to sleep?

DLG SPR_3
it reads yo

DLG SPR_5
"""
you read it... it says "you have been taken obey our instructions and you will be set free....

now make toast"
"""

DLG SPR_9
"""
you read it... it says "you have been taken obey our instructions and you will be set free....

now make toast"
"""

DLG ITM_1
"""
you have a toaster
{toast = toast + 1} {
  - toast == 2 ?
    well done the exit is in the top left

}{
  - {item "0"} == 1 ?

  - else ?

}
"""

DLG ITM_0
"""
you have bread
{toast = toast + 1}{
  - toast == 2 ?
    well done the exit is in the top left
}
"""

END 0


END undefined
"your free" said the voice ....

VAR a
42

VAR toast
0


