
Listen

# BITSY VERSION 4.6

! ROOM_FORMAT 1

PAL 0
NAME VOID
0,0,0
128,128,128
128,128,128

PAL 1
NAME ROCK
128,128,128
167,187,255
167,187,255

PAL 2
NAME WATER
167,187,255
40,140,227
40,140,227

PAL 3
NAME FIRE
255,128,51
230,48,31
230,48,31

PAL 4
NAME GRASS
79,161,64
142,255,123
142,255,123

PAL 5
NAME AIR
133,204,237
229,229,229
229,229,229

PAL 6
NAME SPACE
43,1,105
255,238,207
255,238,207

PAL 7
NAME FLORA
243,156,255
169,95,224
169,95,224

PAL 8
NAME VOID2
245,245,245
196,196,196
196,196,196

ROOM 0
a,a,a,a,a,a,0,0,0,0,a,a,a,a,a,a
a,a,a,a,a,a,0,0,0,0,a,a,a,a,a,a
a,a,a,a,a,a,0,0,0,0,a,a,a,a,a,a
a,a,a,0,0,0,0,0,0,0,0,0,0,a,a,a
a,a,a,0,0,0,0,0,0,0,0,0,0,a,a,a
a,a,a,0,0,0,0,0,0,0,0,0,0,a,a,a
a,a,a,0,0,0,0,0,0,0,0,0,0,a,a,a
a,a,a,0,0,0,0,c,d,0,0,0,0,a,a,a
a,a,a,0,0,0,0,b,e,0,0,0,0,a,a,a
a,a,a,0,0,0,0,0,0,0,0,0,0,a,a,a
a,a,a,0,0,0,0,0,0,0,0,0,0,a,a,a
a,a,a,0,0,0,0,0,0,0,0,0,0,a,a,a
a,a,a,0,0,0,0,0,0,0,0,0,0,a,a,a
a,a,a,a,a,a,a,a,a,a,a,a,a,a,a,a
a,a,a,a,a,a,a,a,a,a,a,a,a,a,a,a
a,a,a,a,a,a,a,a,a,a,a,a,a,a,a,a
NAME VOID
EXT 6,0 1 6,15
EXT 7,0 1 7,15
EXT 8,0 1 8,15
EXT 9,0 1 9,15
PAL 0

ROOM 1
a,a,a,a,a,a,a,a,a,a,a,a,a,a,a,a
a,a,a,a,a,a,a,a,a,a,a,a,a,a,a,a
a,a,a,a,a,a,a,a,a,a,a,a,a,a,a,a
a,a,a,0,0,0,0,0,0,0,0,0,0,a,a,a
a,a,a,0,0,0,0,0,0,0,0,0,0,a,a,a
a,a,a,0,0,0,0,0,0,0,0,0,0,a,a,a
a,a,a,0,0,0,0,0,0,0,0,0,0,0,0,0
a,a,a,0,0,0,0,g,h,0,0,0,0,0,0,0
a,a,a,0,0,0,0,f,i,0,0,0,0,0,0,0
a,a,a,0,0,0,0,0,0,0,0,0,0,0,0,0
a,a,a,0,0,0,0,0,0,0,0,0,0,a,a,a
a,a,a,0,0,0,0,0,0,0,0,0,0,a,a,a
a,a,a,0,0,0,0,0,0,0,0,0,0,a,a,a
a,a,a,a,a,a,0,0,0,0,a,a,a,a,a,a
a,a,a,a,a,a,0,0,0,0,a,a,a,a,a,a
a,a,a,a,a,a,0,0,0,0,a,a,a,a,a,a
NAME ROCK
EXT 6,15 0 6,0
EXT 7,15 0 7,0
EXT 8,15 0 8,0
EXT 9,15 0 9,0
EXT 15,6 2 0,6
EXT 15,7 2 0,7
EXT 15,8 2 0,8
EXT 15,9 2 0,9
PAL 1

ROOM 2
a,a,a,a,a,a,a,a,a,a,a,a,a,a,a,a
a,a,a,a,a,a,a,a,a,a,a,a,a,a,a,a
a,a,a,a,a,a,a,a,a,a,a,a,a,a,a,a
a,a,a,0,0,0,0,0,0,0,0,0,0,a,a,a
a,a,a,0,0,0,0,0,0,0,0,0,0,a,a,a
a,a,a,0,0,0,0,0,0,0,0,0,0,a,a,a
0,0,0,0,0,0,0,0,0,0,0,0,0,a,a,a
0,0,0,0,0,0,0,j,k,0,0,0,0,a,a,a
0,0,0,0,0,0,0,m,l,0,0,0,0,a,a,a
0,0,0,0,0,0,0,0,0,0,0,0,0,a,a,a
a,a,a,0,0,0,0,0,0,0,0,0,0,a,a,a
a,a,a,0,0,0,0,0,0,0,0,0,0,a,a,a
a,a,a,0,0,0,0,0,0,0,0,0,0,a,a,a
a,a,a,a,a,a,0,0,0,0,a,a,a,a,a,a
a,a,a,a,a,a,0,0,0,0,a,a,a,a,a,a
a,a,a,a,a,a,0,0,0,0,a,a,a,a,a,a
NAME WATER
EXT 0,6 1 15,6
EXT 0,7 1 15,7
EXT 0,8 1 15,8
EXT 0,9 1 15,9
EXT 6,15 5 6,0
EXT 7,15 5 7,0
EXT 8,15 5 8,0
EXT 9,15 5 9,0
PAL 2

ROOM 4
a,a,a,a,a,a,a,a,a,a,a,a,a,a,a,a
a,a,a,a,a,a,a,a,a,a,a,a,a,a,a,a
a,a,a,a,a,a,a,a,a,a,a,a,a,a,a,a
a,a,a,0,0,0,0,0,0,0,0,0,0,a,a,a
a,a,a,0,0,0,0,0,0,0,0,0,0,a,a,a
a,a,a,0,0,0,0,0,0,0,0,0,0,a,a,a
0,0,0,0,0,0,0,0,0,0,0,0,0,0,0,0
0,0,0,0,0,0,0,n,o,0,0,0,0,0,0,0
0,0,0,0,0,0,0,q,p,0,0,0,0,0,0,0
0,0,0,0,0,0,0,0,0,0,0,0,0,0,0,0
a,a,a,0,0,0,0,0,0,0,0,0,0,a,a,a
a,a,a,0,0,0,0,0,0,0,0,0,0,a,a,a
a,a,a,0,0,0,0,0,0,0,0,0,0,a,a,a
a,a,a,a,a,a,a,a,a,a,a,a,a,a,a,a
a,a,a,a,a,a,a,a,a,a,a,a,a,a,a,a
a,a,a,a,a,a,a,a,a,a,a,a,a,a,a,a
NAME FIRE
EXT 15,6 6 0,6
EXT 15,7 6 0,7
EXT 15,8 6 0,8
EXT 15,9 6 0,9
EXT 0,6 7 15,6
EXT 0,7 7 15,7
EXT 0,8 7 15,8
EXT 0,9 7 15,9
PAL 3

ROOM 5
a,a,a,a,a,a,0,0,0,0,a,a,a,a,a,a
a,a,a,a,a,a,0,0,0,0,a,a,a,a,a,a
a,a,a,a,a,a,0,0,0,0,a,a,a,a,a,a
a,a,a,0,0,0,0,0,0,0,0,0,0,a,a,a
a,a,a,0,0,0,0,0,0,0,0,0,0,a,a,a
a,a,a,0,0,0,0,0,0,0,0,0,0,a,a,a
a,a,a,0,0,0,0,0,0,0,0,0,0,a,a,a
a,a,a,0,0,0,0,r,s,0,0,0,0,a,a,a
a,a,a,0,0,0,0,u,t,0,0,0,0,a,a,a
a,a,a,0,0,0,0,0,0,0,0,0,0,a,a,a
a,a,a,0,0,0,0,0,0,0,0,0,0,a,a,a
a,a,a,0,0,0,0,0,0,0,0,0,0,a,a,a
a,a,a,0,0,0,0,0,0,0,0,0,0,a,a,a
a,a,a,a,a,a,0,0,0,0,a,a,a,a,a,a
a,a,a,a,a,a,0,0,0,0,a,a,a,a,a,a
a,a,a,a,a,a,0,0,0,0,a,a,a,a,a,a
NAME GRASS
EXT 6,0 2 6,15
EXT 7,0 2 7,15
EXT 8,0 2 8,15
EXT 9,0 2 9,15
EXT 6,15 6 6,0
EXT 7,15 6 7,0
EXT 8,15 6 8,0
EXT 9,15 6 9,0
PAL 4

ROOM 6
a,a,a,a,a,a,0,0,0,0,a,a,a,a,a,a
a,a,a,a,a,a,0,0,0,0,a,a,a,a,a,a
a,a,a,a,a,a,0,0,0,0,a,a,a,a,a,a
a,a,a,0,0,0,0,0,0,0,0,0,0,a,a,a
a,a,a,0,0,0,0,0,0,0,0,0,0,a,a,a
a,a,a,0,0,0,0,0,0,0,0,0,0,a,a,a
0,0,0,0,0,0,0,0,0,0,0,0,0,a,a,a
0,0,0,0,0,0,0,v,w,0,0,0,0,a,a,a
0,0,0,0,0,0,0,y,x,0,0,0,0,a,a,a
0,0,0,0,0,0,0,0,0,0,0,0,0,a,a,a
a,a,a,0,0,0,0,0,0,0,0,0,0,a,a,a
a,a,a,0,0,0,0,0,0,0,0,0,0,a,a,a
a,a,a,0,0,0,0,0,0,0,0,0,0,a,a,a
a,a,a,a,a,a,a,a,a,a,a,a,a,a,a,a
a,a,a,a,a,a,a,a,a,a,a,a,a,a,a,a
a,a,a,a,a,a,a,a,a,a,a,a,a,a,a,a
NAME AIR
EXT 6,0 5 6,15
EXT 7,0 5 7,15
EXT 8,0 5 8,15
EXT 9,0 5 9,15
EXT 0,6 4 15,6
EXT 0,7 4 15,7
EXT 0,8 4 15,8
EXT 0,9 4 15,9
PAL 5

ROOM 7
a,a,a,a,a,a,0,0,0,0,a,a,a,a,a,a
a,a,a,a,a,a,0,0,0,0,a,a,a,a,a,a
a,a,a,a,a,a,0,0,0,0,a,a,a,a,a,a
a,a,a,0,0,0,0,0,0,0,0,0,0,a,a,a
a,a,a,0,0,0,0,0,0,0,0,0,0,a,a,a
a,a,a,0,0,0,0,0,0,0,0,0,0,a,a,a
a,a,a,0,0,0,0,0,0,0,0,0,0,0,0,0
a,a,a,0,0,0,0,z,10,0,0,0,0,0,0,0
a,a,a,0,0,0,0,12,11,0,0,0,0,0,0,0
a,a,a,0,0,0,0,0,0,0,0,0,0,0,0,0
a,a,a,0,0,0,0,0,0,0,0,0,0,a,a,a
a,a,a,0,0,0,0,0,0,0,0,0,0,a,a,a
a,a,a,0,0,0,0,0,0,0,0,0,0,a,a,a
a,a,a,a,a,a,a,a,a,a,a,a,a,a,a,a
a,a,a,a,a,a,a,a,a,a,a,a,a,a,a,a
a,a,a,a,a,a,a,a,a,a,a,a,a,a,a,a
NAME SPACE
EXT 15,6 4 0,6
EXT 15,7 4 0,7
EXT 15,8 4 0,8
EXT 15,9 4 0,9
EXT 6,0 8 6,15
EXT 7,0 8 7,15
EXT 8,0 8 8,15
EXT 9,0 8 9,15
PAL 6

ROOM 8
a,a,a,a,a,a,0,0,0,0,a,a,a,a,a,a
a,a,a,a,a,a,0,0,0,0,a,a,a,a,a,a
a,a,a,a,a,a,0,0,0,0,a,a,a,a,a,a
a,a,a,0,0,0,0,0,0,0,0,0,0,a,a,a
a,a,a,0,0,0,0,0,0,0,0,0,0,a,a,a
a,a,a,0,0,0,0,0,0,0,0,0,0,a,a,a
a,a,a,0,0,0,0,0,0,0,0,0,0,a,a,a
a,a,a,0,0,0,0,13,14,0,0,0,0,a,a,a
a,a,a,0,0,0,0,16,15,0,0,0,0,a,a,a
a,a,a,0,0,0,0,0,0,0,0,0,0,a,a,a
a,a,a,0,0,0,0,0,0,0,0,0,0,a,a,a
a,a,a,0,0,0,0,0,0,0,0,0,0,a,a,a
a,a,a,0,0,0,0,0,0,0,0,0,0,a,a,a
a,a,a,a,a,a,0,0,0,0,a,a,a,a,a,a
a,a,a,a,a,a,0,0,0,0,a,a,a,a,a,a
a,a,a,a,a,a,0,0,0,0,a,a,a,a,a,a
NAME FLORA
EXT 6,15 7 6,0
EXT 7,15 7 7,0
EXT 8,15 7 8,0
EXT 9,15 7 9,0
EXT 6,0 9 6,15
EXT 7,0 9 7,15
EXT 8,0 9 8,15
EXT 9,0 9 9,15
PAL 7

ROOM 9
a,a,a,a,a,a,a,a,a,a,a,a,a,a,a,a
a,a,a,a,a,a,a,a,a,a,a,a,a,a,a,a
a,a,a,a,a,a,a,a,a,a,a,a,a,a,a,a
a,a,a,0,0,0,0,0,0,0,0,0,0,a,a,a
a,a,a,0,0,0,0,0,0,0,0,0,0,a,a,a
a,a,a,0,0,0,0,0,0,0,0,0,0,a,a,a
a,a,a,0,0,0,0,0,0,0,0,0,0,a,a,a
a,a,a,0,0,0,0,17,18,0,0,0,0,a,a,a
a,a,a,0,0,0,0,1a,19,0,0,0,0,a,a,a
a,a,a,0,0,0,0,0,0,0,0,0,0,a,a,a
a,a,a,0,0,0,0,0,0,0,0,0,0,a,a,a
a,a,a,0,0,0,0,0,0,0,0,0,0,a,a,a
a,a,a,0,0,0,0,0,0,0,0,0,0,a,a,a
a,a,a,a,a,a,0,0,0,0,a,a,a,a,a,a
a,a,a,a,a,a,0,0,0,0,a,a,a,a,a,a
a,a,a,a,a,a,0,0,0,0,a,a,a,a,a,a
NAME VOID2
EXT 6,15 a 6,0
EXT 7,15 a 7,0
EXT 8,15 a 8,0
EXT 9,15 a 9,0
PAL 8

ROOM a
a,a,a,a,a,a,0,0,0,0,a,a,a,a,a,a
a,a,a,a,a,a,0,0,0,0,a,a,a,a,a,a
a,a,a,a,a,a,0,0,0,0,a,a,a,a,a,a
a,a,a,0,0,0,0,0,0,0,0,0,0,a,a,a
a,a,a,0,0,0,0,0,0,0,0,0,0,a,a,a
a,a,a,0,0,0,0,0,0,0,0,0,0,a,a,a
a,a,a,0,0,0,0,0,0,0,0,0,0,a,a,a
a,a,a,0,0,0,0,c,d,0,0,0,0,a,a,a
a,a,a,0,0,0,0,b,e,0,0,0,0,a,a,a
a,a,a,0,0,0,0,0,0,0,0,0,0,a,a,a
a,a,a,0,0,0,0,0,0,0,0,0,0,a,a,a
a,a,a,0,0,0,0,0,0,0,0,0,0,a,a,a
a,a,a,0,0,0,0,0,0,0,0,0,0,a,a,a
a,a,a,a,a,a,a,a,a,a,a,a,a,a,a,a
a,a,a,a,a,a,a,a,a,a,a,a,a,a,a,a
a,a,a,a,a,a,a,a,a,a,a,a,a,a,a,a
NAME VOID3
END undefined 6,0
END undefined 7,0
END undefined 8,0
END undefined 9,0
PAL 0

TIL 10
11111111
00000001
10001001
10011101
10001001
11000001
11100001
11111001
NAME SPACE_b
WAL true

TIL 11
11111101
11100001
11000001
10001001
10010101
00001001
00000001
11111111
NAME SPACE_c
WAL true

TIL 12
10011111
10000111
10000011
10010001
10111001
10010001
10000000
11111111
NAME SPACE_d

TIL 13
11111111
10000000
10110001
10011101
10011111
10011111
10001111
10011110
NAME FLORA_a
WAL true

TIL 14
11111111
00000001
00001101
10111001
11111001
11111001
11110001
01111101
NAME FLORA_b
WAL true

TIL 15
01111001
11110001
11111001
11111001
10111101
10000101
10000001
11111111
NAME FLORA_c
WAL true

TIL 16
10111110
10001111
10011111
10011111
10011101
10110001
10000001
11111111
NAME FLORA_d
WAL true

TIL 17
11111111
10000000
10000011
10001100
10010011
10010100
10101000
10101000
NAME VOID2_a
WAL true

TIL 18
11111111
00000001
11000001
00110001
11001001
00101001
00010101
00010101
NAME VOID2_b
WAL true

TIL 19
00010101
00010101
00101001
11001001
00110001
11000001
00000001
11111111
NAME VOID2_c
WAL true

TIL a
11111111
10000001
10000001
10011001
10011001
10000001
10000001
11111111
NAME WALL
WAL true

TIL b
10000011
10000111
10001110
10011100
10111000
11110000
11100000
11111111
NAME VOID_a
WAL true

TIL c
11111111
11100000
11110000
10111000
10011100
10001110
10000111
10000011
NAME VOID_b
WAL true

TIL d
11111111
00000111
00001111
00011101
00111001
01110001
11100001
11000001
NAME VOID_c
WAL true

TIL e
11000001
11100001
01110001
00111001
00011101
00001111
00000111
11111111
NAME VOID_d
WAL true

TIL f
10000111
10000100
10001011
10011111
10011111
10111111
10000000
11111111
NAME ROCK_a
WAL true

TIL g
11111111
10000000
10000000
10000000
10000001
10000001
10000011
10000011
NAME ROCK_b
WAL true

TIL h
11111111
00000001
00000001
00000001
10000001
11100001
11110001
11110001
NAME ROCK_c
WAL true

TIL i
01101001
10011101
11111101
11111101
11111101
11111101
00000001
11111111
NAME ROCK_d
WAL true

TIL j
11111111
10000000
10000001
10000011
10000111
10000111
10001111
10001111
NAME WATER_a
WAL true

TIL k
11111111
00000001
10000001
11000001
11100001
11100001
11110001
11110001
NAME WATER_b
WAL true

TIL l
11111001
11011001
10011001
00110001
11100001
11000001
00000001
11111111
NAME WATER_c
WAL true

TIL m
10011111
10011111
10011111
10001111
10000111
10000011
10000000
11111111
NAME WATER_d
WAL true

TIL n
11111111
10000001
10101010
10011010
10110100
10010100
10100100
10101110
NAME FIRE_a
WAL true

TIL o
11111111
10000001
01010101
01011001
00101101
00101001
00100101
01110101
NAME FIRE_b
WAL true

TIL p
11111101
11111101
11111001
11110101
11101001
11010101
00000001
11111111
NAME FIRE_c
WAL true

TIL q
10111110
10111111
10011111
10101111
10010111
10101011
10000000
11111111
NAME FIRE_d
WAL true

TIL r
11111111
10000101
10001010
10010101
10101010
10110101
10011010
10001101
NAME GRASS_a
WAL true

TIL s
11111111
01010001
10101001
01010101
10101101
01010101
10101001
01110001
NAME GRASS_b
WAL true

TIL t
11000001
01000001
01000001
01000001
01100001
00110001
00011101
11111111
NAME GRASS_c
WAL true

TIL u
10000010
10000010
10000010
10000010
10000100
10001000
10110000
11111111
NAME GRASS_d
WAL true

TIL v
11111111
11011011
10110110
11101101
11011011
11010110
11010101
11010101
NAME AIR_a
WAL true

TIL w
11111111
11111011
00001101
11110111
00011011
11101101
10110101
01010101
NAME AIR_b
WAL true

TIL x
11010101
00110101
11101101
00011011
11110111
00001101
11111011
11111111
NAME AIR_c
WAL true

TIL y
11010101
11010110
11011011
11101100
10110111
11011000
10101111
11111111
NAME AIR_d
WAL true

TIL z
11111111
10000000
10010000
10101001
10010001
10000011
10000111
10111111
NAME SPACE_a
WAL true

TIL 1a
10101000
10101000
10010100
10010011
10001100
10000011
10000000
11111111
NAME VOID2_d
WAL true

SPR A
00000000
00000000
00111110
00100010
00100010
01100110
01100110
00000000
>
00000000
00111110
00100010
00100010
01100110
01100110
00000000
00000000
POS 0 3,12

SPR a
11111111
10000001
10000001
10011001
10011001
10000001
10000001
11111111
DLG SPR_0
POS 0 1,11

ITM 0
00000000
00000000
00000000
00111100
01100100
00100100
00011000
00000000
NAME tea
DLG ITM_0

DLG SPR_0
I'm a cat

DLG ITM_0
You found a nice warm cup of tea

END 0


END undefined
The end.


