MINOTAUR

# BITSY VERSION 3.3

! ROOM_FORMAT 1

PAL 0
0,0,0
153,102,0
255,0,0

PAL 1
0,0,0
153,102,0
255,0,255

PAL 2
0,0,0
0,255,0
255,0,255

PAL 3
0,0,255
0,255,0
255,0,255

PAL 4
255,255,255
0,0,0
0,0,0

ROOM 0
a,a,a,a,a,a,a,a,a,a,a,a,a,a,a,0
a,0,0,0,0,0,0,0,0,0,0,0,0,0,a,0
a,0,a,a,a,a,a,a,a,a,a,a,a,0,a,0
a,0,a,0,0,0,0,0,0,0,0,0,a,0,a,0
a,0,a,0,a,a,a,a,a,a,a,0,a,0,a,0
a,0,a,0,a,0,0,0,0,0,a,0,a,0,a,0
a,0,a,0,a,0,a,a,a,0,a,0,a,0,a,0
a,0,a,0,a,0,a,0,0,0,a,0,a,0,a,0
a,0,a,0,a,0,a,0,a,a,a,0,a,0,a,0
a,0,a,0,a,0,a,0,a,0,a,0,a,0,a,0
a,0,a,0,0,0,a,0,a,0,a,0,a,0,a,0
a,0,a,a,a,a,a,0,a,0,a,0,a,0,a,a
a,0,0,0,0,0,0,0,a,0,0,0,a,0,0,a
a,a,a,a,a,a,a,a,a,a,a,a,a,a,0,a
0,0,0,0,0,0,0,0,0,0,0,0,0,0,0,a
0,0,0,0,0,0,0,0,0,a,a,a,a,a,a,a
WAL a
EXT 9,10 1 0,15
PAL 0

ROOM 1
a,a,a,a,a,a,a,a,a,a,a,a,a,a,a,0
a,0,0,0,0,0,0,0,0,0,0,0,0,0,a,0
a,0,a,a,a,a,a,a,a,a,a,a,a,0,a,0
a,0,a,0,0,0,0,0,0,0,0,0,a,0,a,0
a,0,a,0,a,a,a,a,a,a,a,0,a,0,a,0
a,0,a,0,a,0,0,0,0,0,a,0,a,0,a,0
a,0,a,0,a,0,a,a,a,0,a,0,a,0,a,0
a,0,a,0,a,0,a,0,0,0,a,0,a,0,a,0
a,0,a,0,a,0,a,0,a,a,a,0,a,0,a,0
a,0,a,0,a,0,a,0,a,0,a,0,a,0,a,0
a,0,a,0,0,0,a,0,a,b,a,0,a,0,a,0
a,0,a,a,a,a,a,0,a,0,a,0,a,0,a,a
a,0,0,0,0,0,0,0,a,0,0,0,a,0,0,a
a,a,a,a,a,a,a,a,a,a,a,a,a,a,0,a
0,0,0,0,0,0,0,0,0,0,0,0,0,0,0,a
0,0,0,0,0,0,0,0,0,a,a,a,a,a,a,a
WAL a
EXT 9,11 2 0,15
PAL 0

ROOM 2
a,a,a,a,a,a,a,a,a,a,a,a,a,a,a,0
a,0,0,0,0,0,0,0,0,0,0,0,0,0,a,0
a,0,a,a,a,a,a,a,a,a,a,a,a,0,a,0
a,0,a,0,0,0,0,0,0,0,0,0,a,0,a,0
a,0,a,0,a,a,a,a,a,a,a,0,a,0,a,0
a,0,a,0,a,0,0,0,0,0,a,0,a,0,a,0
a,0,a,0,a,0,a,a,a,0,a,0,a,0,a,0
a,0,a,0,a,0,a,0,0,0,a,0,a,0,a,0
a,0,a,0,a,0,a,0,a,a,a,0,a,0,a,0
a,0,a,0,a,0,a,0,a,0,a,0,a,0,a,0
a,0,a,0,0,0,a,0,a,b,a,0,a,0,a,0
a,0,a,a,a,a,a,0,a,b,a,0,a,0,a,a
a,0,0,0,0,0,0,0,a,0,0,0,a,0,0,a
a,a,a,a,a,a,a,a,a,a,a,a,a,a,0,a
0,0,0,0,0,0,0,0,0,0,0,0,0,0,0,a
0,0,0,0,0,0,0,0,0,a,a,a,a,a,a,a
WAL a
EXT 9,12 3 0,15
PAL 0

ROOM 3
a,a,a,a,a,a,a,a,a,a,a,a,a,a,a,0
a,0,0,0,0,0,0,0,0,0,0,0,0,0,a,0
a,0,a,a,a,a,a,a,a,a,a,a,a,0,a,0
a,0,a,0,0,0,0,0,0,0,0,0,a,0,a,0
a,0,a,0,a,a,a,a,a,a,a,0,a,0,a,0
a,0,a,0,a,0,0,0,0,0,a,0,a,0,a,0
a,0,a,0,a,0,a,a,a,0,a,0,a,0,a,0
a,0,a,0,a,0,a,0,0,0,a,0,a,0,a,0
a,0,a,0,a,0,a,0,a,a,a,0,a,0,a,0
a,0,a,0,a,0,a,0,a,0,a,0,a,0,a,0
a,0,a,0,0,0,a,0,a,b,a,0,a,0,a,0
a,0,a,a,a,a,a,0,a,b,a,0,a,0,a,a
a,0,0,0,0,0,0,0,a,b,0,0,a,0,0,a
a,a,a,a,a,a,a,a,a,a,a,a,a,a,0,a
0,0,0,0,0,0,0,0,0,0,0,0,0,0,0,a
0,0,0,0,0,0,0,0,0,a,a,a,a,a,a,a
WAL a
EXT 10,12 4 0,15
PAL 0

ROOM 4
a,a,a,a,a,a,a,a,a,a,a,a,a,a,a,0
a,0,0,0,0,0,0,0,0,0,0,0,0,0,a,0
a,0,a,a,a,a,a,a,a,a,a,a,a,0,a,0
a,0,a,0,0,0,0,0,0,0,0,0,a,0,a,0
a,0,a,0,a,a,a,a,a,a,a,0,a,0,a,0
a,0,a,0,a,0,0,0,0,0,a,0,a,0,a,0
a,0,a,0,a,0,a,a,a,0,a,0,a,0,a,0
a,0,a,0,a,0,a,0,0,0,a,0,a,0,a,0
a,0,a,0,a,0,a,0,a,a,a,0,a,0,a,0
a,0,a,0,a,0,a,0,a,0,a,0,a,0,a,0
a,0,a,0,0,0,a,0,a,b,a,0,a,0,a,0
a,0,a,a,a,a,a,0,a,b,a,0,a,0,a,a
a,0,0,0,0,0,0,0,a,b,b,0,a,0,0,a
a,a,a,a,a,a,a,a,a,a,a,a,a,a,0,a
0,0,0,0,0,0,0,0,0,0,0,0,0,0,0,a
0,0,0,0,0,0,0,0,0,a,a,a,a,a,a,a
WAL a
EXT 11,12 5 0,15
PAL 0

ROOM 5
a,a,a,a,a,a,a,a,a,a,a,a,a,a,a,0
a,0,0,0,0,0,0,0,0,0,0,0,0,0,a,0
a,0,a,a,a,a,a,a,a,a,a,a,a,0,a,0
a,0,a,0,0,0,0,0,0,0,0,0,a,0,a,0
a,0,a,0,a,a,a,a,a,a,a,0,a,0,a,0
a,0,a,0,a,0,0,0,0,0,a,0,a,0,a,0
a,0,a,0,a,0,a,a,a,0,a,0,a,0,a,0
a,0,a,0,a,0,a,0,0,0,a,0,a,0,a,0
a,0,a,0,a,0,a,0,a,a,a,0,a,0,a,0
a,0,a,0,a,0,a,0,a,0,a,0,a,0,a,0
a,0,a,0,0,0,a,0,a,b,a,0,a,0,a,0
a,0,a,a,a,a,a,0,a,b,a,0,a,0,a,a
a,0,0,0,0,0,0,0,a,b,b,b,a,0,0,a
a,a,a,a,a,a,a,a,a,a,a,a,a,a,0,a
0,0,0,0,0,0,0,0,0,0,0,0,0,0,0,a
0,0,0,0,0,0,0,0,0,a,a,a,a,a,a,a
WAL a
EXT 11,11 6 0,15
PAL 0

ROOM 6
a,a,a,a,a,a,a,a,a,a,a,a,a,a,a,0
a,0,0,0,0,0,0,0,0,0,0,0,0,0,a,0
a,0,a,a,a,a,a,a,a,a,a,a,a,0,a,0
a,0,a,0,0,0,0,0,0,0,0,0,a,0,a,0
a,0,a,0,a,a,a,a,a,a,a,0,a,0,a,0
a,0,a,0,a,0,0,0,0,0,a,0,a,0,a,0
a,0,a,0,a,0,a,a,a,0,a,0,a,0,a,0
a,0,a,0,a,0,a,0,0,0,a,0,a,0,a,0
a,0,a,0,a,0,a,0,a,a,a,0,a,0,a,0
a,0,a,0,a,0,a,0,a,0,a,0,a,0,a,0
a,0,a,0,0,0,a,0,a,b,a,0,a,0,a,0
a,0,a,a,a,a,a,0,a,b,a,b,a,0,a,a
a,0,0,0,0,0,0,0,a,b,b,b,a,0,0,a
a,a,a,a,a,a,a,a,a,a,a,a,a,a,0,a
0,0,0,0,0,0,0,0,0,0,0,0,0,0,0,a
0,0,0,0,0,0,0,0,0,a,a,a,a,a,a,a
WAL a
EXT 11,10 7 0,15
PAL 0

ROOM 7
a,a,a,a,a,a,a,a,a,a,a,a,a,a,a,0
a,0,0,0,0,0,0,0,0,0,0,0,0,0,a,0
a,0,a,a,a,a,a,a,a,a,a,a,a,0,a,0
a,0,a,0,0,0,0,0,0,0,0,0,a,0,a,0
a,0,a,0,a,a,a,a,a,a,a,0,a,0,a,0
a,0,a,0,a,0,0,0,0,0,a,0,a,0,a,0
a,0,a,0,a,0,a,a,a,0,a,0,a,0,a,0
a,0,a,0,a,0,a,0,0,0,a,0,a,0,a,0
a,0,a,0,a,0,a,0,a,a,a,0,a,0,a,0
a,0,a,0,a,0,a,0,a,0,a,0,a,0,a,0
a,0,a,0,0,0,a,0,a,b,a,b,a,0,a,0
a,0,a,a,a,a,a,0,a,b,a,b,a,0,a,a
a,0,0,0,0,0,0,0,a,b,b,b,a,0,0,a
a,a,a,a,a,a,a,a,a,a,a,a,a,a,0,a
0,0,0,0,0,0,0,0,0,0,0,0,0,0,0,a
0,0,0,0,0,0,0,0,0,a,a,a,a,a,a,a
WAL a
EXT 11,9 8 0,15
PAL 0

ROOM 8
a,a,a,a,a,a,a,a,a,a,a,a,a,a,a,0
a,0,0,0,0,0,0,0,0,0,0,0,0,0,a,0
a,0,a,a,a,a,a,a,a,a,a,a,a,0,a,0
a,0,a,0,0,0,0,0,0,0,0,0,a,0,a,0
a,0,a,0,a,a,a,a,a,a,a,0,a,0,a,0
a,0,a,0,a,0,0,0,0,0,a,0,a,0,a,0
a,0,a,0,a,0,a,a,a,0,a,0,a,0,a,0
a,0,a,0,a,0,a,0,0,0,a,0,a,0,a,0
a,0,a,0,a,0,a,0,a,a,a,0,a,0,a,0
a,0,a,0,a,0,a,0,a,0,a,b,a,0,a,0
a,0,a,0,0,0,a,0,a,b,a,b,a,0,a,0
a,0,a,a,a,a,a,0,a,b,a,b,a,0,a,a
a,0,0,0,0,0,0,0,a,b,b,b,a,0,0,a
a,a,a,a,a,a,a,a,a,a,a,a,a,a,0,a
0,0,0,0,0,0,0,0,0,0,0,0,0,0,0,a
0,0,0,0,0,0,0,0,0,a,a,a,a,a,a,a
WAL a
EXT 11,8 9 0,15
PAL 1

ROOM 9
a,a,a,a,a,a,a,a,a,a,a,a,a,a,a,0
a,0,0,0,0,0,0,0,0,0,0,0,0,0,a,0
a,0,a,a,a,a,a,a,a,a,a,a,a,0,a,0
a,0,a,0,0,0,0,0,0,0,0,0,a,0,a,0
a,0,a,0,a,a,a,a,a,a,a,0,a,0,a,0
a,0,a,0,a,0,0,0,0,0,a,0,a,0,a,0
a,0,a,0,a,0,a,a,a,0,a,0,a,0,a,0
a,0,a,0,a,0,a,0,0,0,a,0,a,0,a,0
a,0,a,0,a,0,a,0,a,a,a,b,a,0,a,0
a,0,a,0,a,0,a,0,a,0,a,b,a,0,a,0
a,0,a,0,0,0,a,0,a,b,a,b,a,0,a,0
a,0,a,a,a,a,a,0,a,b,a,b,a,0,a,a
a,0,0,0,0,0,0,0,a,b,b,b,a,0,0,a
a,a,a,a,a,a,a,a,a,a,a,a,a,a,0,a
0,0,0,0,0,0,0,0,0,0,0,0,0,0,0,a
0,0,0,0,0,0,0,0,0,a,a,a,a,a,a,a
WAL a
EXT 11,7 a 0,15
PAL 1

ROOM 10
a,a,a,a,a,a,a,a,a,a,a,a,a,a,a,0
a,0,0,0,0,0,0,0,0,0,0,0,0,0,a,0
a,0,a,a,a,a,a,a,a,a,a,a,a,0,a,0
a,0,a,b,b,b,b,b,b,b,b,b,a,0,a,0
a,0,a,b,a,a,a,a,a,a,a,b,a,0,a,0
a,0,a,b,a,b,0,0,0,0,a,b,a,0,a,0
a,0,a,b,a,b,a,a,a,0,a,b,a,0,a,0
a,0,a,b,a,b,a,0,0,0,a,b,a,0,a,0
a,0,a,b,a,b,a,0,a,a,a,b,a,0,a,0
a,0,a,b,a,b,a,0,a,0,a,b,a,0,a,0
a,0,a,b,b,b,a,0,a,b,a,b,a,0,a,0
a,0,a,a,a,a,a,0,a,b,a,b,a,0,a,a
a,0,0,0,0,0,0,0,a,b,b,b,a,0,0,a
a,a,a,a,a,a,a,a,a,a,a,a,a,a,0,a
0,0,0,0,0,0,0,0,0,0,0,0,0,0,0,a
0,0,0,0,0,0,0,0,0,a,a,a,a,a,a,a
WAL a
EXT 6,5 11 0,15
PAL 2

ROOM 11
a,a,a,a,a,a,a,a,a,a,a,a,a,a,a,0
a,0,0,0,0,0,0,0,0,0,0,0,0,0,a,0
a,0,a,a,a,a,a,a,a,a,a,a,a,0,a,0
a,0,a,b,b,b,b,b,b,b,b,b,a,0,a,0
a,0,a,b,a,a,a,a,a,a,a,b,a,0,a,0
a,0,a,b,a,b,b,0,0,0,a,b,a,0,a,0
a,0,a,b,a,b,a,a,a,0,a,b,a,0,a,0
a,0,a,b,a,b,a,0,0,0,a,b,a,0,a,0
a,0,a,b,a,b,a,0,a,a,a,b,a,0,a,0
a,0,a,b,a,b,a,0,a,0,a,b,a,0,a,0
a,0,a,b,b,b,a,0,a,b,a,b,a,0,a,0
a,0,a,a,a,a,a,0,a,b,a,b,a,0,a,a
a,0,0,0,0,0,0,0,a,b,b,b,a,0,0,a
a,a,a,a,a,a,a,a,a,a,a,a,a,a,0,a
0,0,0,0,0,0,0,0,0,0,0,0,0,0,0,a
0,0,0,0,0,0,0,0,0,a,a,a,a,a,a,a
WAL a
EXT 7,5 12 0,15
PAL 2

ROOM 12
a,a,a,a,a,a,a,a,a,a,a,a,a,a,a,0
a,0,0,0,0,0,0,0,0,0,0,0,0,0,a,0
a,0,a,a,a,a,a,a,a,a,a,a,a,0,a,0
a,0,a,b,b,b,b,b,b,b,b,b,a,0,a,0
a,0,a,b,a,a,a,a,a,a,a,b,a,0,a,0
a,0,a,b,a,b,b,b,0,0,a,b,a,0,a,0
a,0,a,b,a,b,a,a,a,0,a,b,a,0,a,0
a,0,a,b,a,b,a,0,0,0,a,b,a,0,a,0
a,0,a,b,a,b,a,0,a,a,a,b,a,0,a,0
a,0,a,b,a,b,a,0,a,0,a,b,a,0,a,0
a,0,a,b,b,b,a,0,a,b,a,b,a,0,a,0
a,0,a,a,a,a,a,0,a,b,a,b,a,0,a,a
a,0,0,0,0,0,0,0,a,b,b,b,a,0,0,a
a,a,a,a,a,a,a,a,a,a,a,a,a,a,0,a
0,0,0,0,0,0,0,0,0,0,0,0,0,0,0,a
0,0,0,0,0,0,0,0,0,a,a,a,a,a,a,a
WAL a
EXT 8,5 13 0,15
PAL 2

ROOM 13
a,a,a,a,a,a,a,a,a,a,a,a,a,a,a,0
a,0,0,0,0,0,0,0,0,0,0,0,0,0,a,0
a,0,a,a,a,a,a,a,a,a,a,a,a,0,a,0
a,0,a,b,b,b,b,b,b,b,b,b,a,0,a,0
a,0,a,b,a,a,a,a,a,a,a,b,a,0,a,0
a,0,a,b,a,b,b,b,b,0,a,b,a,0,a,0
a,0,a,b,a,b,a,a,a,0,a,b,a,0,a,0
a,0,a,b,a,b,a,0,0,0,a,b,a,0,a,0
a,0,a,b,a,b,a,0,a,a,a,b,a,0,a,0
a,0,a,b,a,b,a,0,a,0,a,b,a,0,a,0
a,0,a,b,b,b,a,0,a,b,a,b,a,0,a,0
a,0,a,a,a,a,a,0,a,b,a,b,a,0,a,a
a,0,0,0,0,0,0,0,a,b,b,b,a,0,0,a
a,a,a,a,a,a,a,a,a,a,a,a,a,a,0,a
0,0,0,0,0,0,0,0,0,0,0,0,0,0,0,a
0,0,0,0,0,0,0,0,0,a,a,a,a,a,a,a
WAL a
EXT 9,5 14 0,15
PAL 2

ROOM 14
a,a,a,a,a,a,a,a,a,a,a,a,a,a,a,0
a,0,0,0,0,0,0,0,0,0,0,0,0,0,a,0
a,0,a,a,a,a,a,a,a,a,a,a,a,0,a,0
a,0,a,b,b,b,b,b,b,b,b,b,a,0,a,0
a,0,a,b,a,a,a,a,a,a,a,b,a,0,a,0
a,0,a,b,a,b,b,b,b,b,a,b,a,0,a,0
a,0,a,b,a,b,a,a,a,0,a,b,a,0,a,0
a,0,a,b,a,b,a,0,0,0,a,b,a,0,a,0
a,0,a,b,a,b,a,0,a,a,a,b,a,0,a,0
a,0,a,b,a,b,a,0,a,0,a,b,a,0,a,0
a,0,a,b,b,b,a,0,a,b,a,b,a,0,a,0
a,0,a,a,a,a,a,0,a,b,a,b,a,0,a,a
a,0,0,0,0,0,0,0,a,b,b,b,a,0,0,a
a,a,a,a,a,a,a,a,a,a,a,a,a,a,0,a
0,0,0,0,0,0,0,0,0,0,0,0,0,0,0,a
0,0,0,0,0,0,0,0,0,a,a,a,a,a,a,a
WAL a
EXT 9,6 15 0,15
PAL 2

ROOM 15
a,a,a,a,a,a,a,a,a,a,a,a,a,a,a,0
a,0,0,0,0,0,0,0,0,0,0,0,0,0,a,0
a,0,a,a,a,a,a,a,a,a,a,a,a,0,a,0
a,0,a,b,b,b,b,b,b,b,b,b,a,0,a,0
a,0,a,b,a,a,a,a,a,a,a,b,a,0,a,0
a,0,a,b,a,b,b,b,b,b,a,b,a,0,a,0
a,0,a,b,a,b,a,a,a,b,a,b,a,0,a,0
a,0,a,b,a,b,a,0,0,0,a,b,a,0,a,0
a,0,a,b,a,b,a,0,a,a,a,b,a,0,a,0
a,0,a,b,a,b,a,0,a,0,a,b,a,0,a,0
a,0,a,b,b,b,a,0,a,b,a,b,a,0,a,0
a,0,a,a,a,a,a,0,a,b,a,b,a,0,a,a
a,0,0,0,0,0,0,0,a,b,b,b,a,0,0,a
a,a,a,a,a,a,a,a,a,a,a,a,a,a,0,a
0,0,0,0,0,0,0,0,0,0,0,0,0,0,0,a
0,0,0,0,0,0,0,0,0,a,a,a,a,a,a,a
WAL a
EXT 9,7 16 0,15
PAL 2

ROOM 16
a,a,a,a,a,a,a,a,a,a,a,a,a,a,a,0
a,0,0,0,0,0,0,0,0,0,0,0,0,0,a,0
a,0,a,a,a,a,a,a,a,a,a,a,a,0,a,0
a,0,a,b,b,b,b,b,b,b,b,b,a,0,a,0
a,0,a,b,a,a,a,a,a,a,a,b,a,0,a,0
a,0,a,b,a,b,b,b,b,b,a,b,a,0,a,0
a,0,a,b,a,b,a,a,a,b,a,b,a,0,a,0
a,0,a,b,a,b,a,0,0,b,a,b,a,0,a,0
a,0,a,b,a,b,a,0,a,a,a,b,a,0,a,0
a,0,a,b,a,b,a,0,a,0,a,b,a,0,a,0
a,0,a,b,b,b,a,0,a,b,a,b,a,0,a,0
a,0,a,a,a,a,a,0,a,b,a,b,a,0,a,a
a,0,0,0,0,0,0,0,a,b,b,b,a,0,0,a
a,a,a,a,a,a,a,a,a,a,a,a,a,a,0,a
0,0,0,0,0,0,0,0,0,0,0,0,0,0,0,a
0,0,0,0,0,0,0,0,0,a,a,a,a,a,a,a
WAL a
EXT 8,7 17 0,15
PAL 3

ROOM 17
a,a,a,a,a,a,a,a,a,a,a,a,a,a,a,0
a,0,0,0,0,0,0,0,0,0,0,0,0,0,a,0
a,0,a,a,a,a,a,a,a,a,a,a,a,0,a,0
a,0,a,b,b,b,b,b,b,b,b,b,a,0,a,0
a,0,a,b,a,a,a,a,a,a,a,b,a,0,a,0
a,0,a,b,a,b,b,b,b,b,a,b,a,0,a,0
a,0,a,b,a,b,a,a,a,b,a,b,a,0,a,0
a,0,a,b,a,b,a,0,b,b,a,b,a,0,a,0
a,0,a,b,a,b,a,0,a,a,a,b,a,0,a,0
a,0,a,b,a,b,a,0,a,0,a,b,a,0,a,0
a,0,a,b,b,b,a,0,a,b,a,b,a,0,a,0
a,0,a,a,a,a,a,0,a,b,a,b,a,0,a,a
a,0,0,0,0,0,0,0,a,b,b,b,a,0,0,a
a,a,a,a,a,a,a,a,a,a,a,a,a,a,0,a
0,0,0,0,0,0,0,0,0,0,0,0,0,0,0,a
0,0,0,0,0,0,0,0,0,a,a,a,a,a,a,a
WAL a
EXT 7,7 18 0,15
PAL 3

ROOM 18
a,a,a,a,a,a,a,a,a,a,a,a,a,a,a,0
a,0,0,0,0,0,0,0,0,0,0,0,0,0,a,0
a,0,a,a,a,a,a,a,a,a,a,a,a,0,a,0
a,0,a,b,b,b,b,b,b,b,b,b,a,0,a,0
a,0,a,b,a,a,a,a,a,a,a,b,a,0,a,0
a,0,a,b,a,b,b,b,b,b,a,b,a,0,a,0
a,0,a,b,a,b,a,a,a,b,a,b,a,0,a,0
a,0,a,b,a,b,a,b,b,b,a,b,a,0,a,0
a,0,a,b,a,b,a,0,a,a,a,b,a,0,a,0
a,0,a,b,a,b,a,0,a,0,a,b,a,0,a,0
a,0,a,b,b,b,a,0,a,b,a,b,a,0,a,0
a,0,a,a,a,a,a,0,a,b,a,b,a,0,a,a
a,0,0,0,0,0,0,0,a,b,b,b,a,0,0,a
a,a,a,a,a,a,a,a,a,a,a,a,a,a,0,a
0,0,0,0,0,0,0,0,0,0,0,0,0,0,0,a
0,0,0,0,0,0,0,0,0,a,a,a,a,a,a,a
WAL a
EXT 7,8 19 0,15
PAL 3

ROOM 19
a,a,a,a,a,a,a,a,a,a,a,a,a,a,a,0
a,0,0,0,0,0,0,0,0,0,0,0,0,0,a,0
a,0,a,a,a,a,a,a,a,a,a,a,a,0,a,0
a,0,a,b,b,b,b,b,b,b,b,b,a,0,a,0
a,0,a,b,a,a,a,a,a,a,a,b,a,0,a,0
a,0,a,b,a,b,b,b,b,b,a,b,a,0,a,0
a,0,a,b,a,b,a,a,a,b,a,b,a,0,a,0
a,0,a,b,a,b,a,b,b,b,a,b,a,0,a,0
a,0,a,b,a,b,a,b,a,a,a,b,a,0,a,0
a,0,a,b,a,b,a,0,a,0,a,b,a,0,a,0
a,0,a,b,b,b,a,0,a,b,a,b,a,0,a,0
a,0,a,a,a,a,a,0,a,b,a,b,a,0,a,a
a,0,0,0,0,0,0,0,a,b,b,b,a,0,0,a
a,a,a,a,a,a,a,a,a,a,a,a,a,a,0,a
0,0,0,0,0,0,0,0,0,0,0,0,0,0,0,a
0,0,0,0,0,0,0,0,0,a,a,a,a,a,a,a
WAL a
EXT 7,9 1a 0,15
PAL 3

ROOM 20
a,a,a,a,a,a,a,a,a,a,a,a,a,a,a,0
a,b,b,b,b,b,b,b,0,0,0,0,0,0,a,0
a,b,a,a,a,a,a,a,a,a,a,a,a,0,a,0
a,b,a,b,b,b,b,b,b,b,b,b,a,0,a,0
a,b,a,b,a,a,a,a,a,a,a,b,a,0,a,0
a,b,a,b,a,b,b,b,b,b,a,b,a,0,a,0
a,b,a,b,a,b,a,a,a,b,a,b,a,0,a,0
a,b,a,b,a,b,a,b,b,b,a,b,a,0,a,0
a,b,a,b,a,b,a,b,a,a,a,b,a,0,a,0
a,b,a,b,a,b,a,b,a,0,a,b,a,0,a,0
a,b,a,b,b,b,a,b,a,b,a,b,a,0,a,0
a,b,a,a,a,a,a,b,a,b,a,b,a,0,a,a
a,b,b,b,b,b,b,b,a,b,b,b,a,0,0,a
a,a,a,a,a,a,a,a,a,a,a,a,a,a,0,a
0,0,0,0,0,0,0,0,0,0,0,0,0,0,0,a
0,0,0,0,0,0,0,0,0,a,a,a,a,a,a,a
WAL a
EXT 8,1 21 0,15
PAL 3

ROOM 21
a,a,a,a,a,a,a,a,a,a,a,a,a,a,a,0
a,b,b,b,b,b,b,b,b,0,0,0,0,0,a,0
a,b,a,a,a,a,a,a,a,a,a,a,a,0,a,0
a,b,a,b,b,b,b,b,b,b,b,b,a,0,a,0
a,b,a,b,a,a,a,a,a,a,a,b,a,0,a,0
a,b,a,b,a,b,b,b,b,b,a,b,a,0,a,0
a,b,a,b,a,b,a,a,a,b,a,b,a,0,a,0
a,b,a,b,a,b,a,b,b,b,a,b,a,0,a,0
a,b,a,b,a,b,a,b,a,a,a,b,a,0,a,0
a,b,a,b,a,b,a,b,a,0,a,b,a,0,a,0
a,b,a,b,b,b,a,b,a,b,a,b,a,0,a,0
a,b,a,a,a,a,a,b,a,b,a,b,a,0,a,a
a,b,b,b,b,b,b,b,a,b,b,b,a,0,0,a
a,a,a,a,a,a,a,a,a,a,a,a,a,a,0,a
0,0,0,0,0,0,0,0,0,0,0,0,0,0,0,a
0,0,0,0,0,0,0,0,0,a,a,a,a,a,a,a
WAL a
EXT 9,1 22 0,15
PAL 3

ROOM 22
a,a,a,a,a,a,a,a,a,a,a,a,a,a,a,0
a,b,b,b,b,b,b,b,b,b,0,0,0,0,a,0
a,b,a,a,a,a,a,a,a,a,a,a,a,0,a,0
a,b,a,b,b,b,b,b,b,b,b,b,a,0,a,0
a,b,a,b,a,a,a,a,a,a,a,b,a,0,a,0
a,b,a,b,a,b,b,b,b,b,a,b,a,0,a,0
a,b,a,b,a,b,a,a,a,b,a,b,a,0,a,0
a,b,a,b,a,b,a,b,b,b,a,b,a,0,a,0
a,b,a,b,a,b,a,b,a,a,a,b,a,0,a,0
a,b,a,b,a,b,a,b,a,0,a,b,a,0,a,0
a,b,a,b,b,b,a,b,a,b,a,b,a,0,a,0
a,b,a,a,a,a,a,b,a,b,a,b,a,0,a,a
a,b,b,b,b,b,b,b,a,b,b,b,a,0,0,a
a,a,a,a,a,a,a,a,a,a,a,a,a,a,0,a
0,0,0,0,0,0,0,0,0,0,0,0,0,0,0,a
0,0,0,0,0,0,0,0,0,a,a,a,a,a,a,a
WAL a
EXT 10,1 23 0,15
PAL 3

ROOM 23
a,a,a,a,a,a,a,a,a,a,a,a,a,a,a,0
a,b,b,b,b,b,b,b,b,b,b,0,0,0,a,0
a,b,a,a,a,a,a,a,a,a,a,a,a,0,a,0
a,b,a,b,b,b,b,b,b,b,b,b,a,0,a,0
a,b,a,b,a,a,a,a,a,a,a,b,a,0,a,0
a,b,a,b,a,b,b,b,b,b,a,b,a,0,a,0
a,b,a,b,a,b,a,a,a,b,a,b,a,0,a,0
a,b,a,b,a,b,a,b,b,b,a,b,a,0,a,0
a,b,a,b,a,b,a,b,a,a,a,b,a,0,a,0
a,b,a,b,a,b,a,b,a,0,a,b,a,0,a,0
a,b,a,b,b,b,a,b,a,b,a,b,a,0,a,0
a,b,a,a,a,a,a,b,a,b,a,b,a,0,a,a
a,b,b,b,b,b,b,b,a,b,b,b,a,0,0,a
a,a,a,a,a,a,a,a,a,a,a,a,a,a,0,a
0,0,0,0,0,0,0,0,0,0,0,0,0,0,0,a
0,0,0,0,0,0,0,0,0,a,a,a,a,a,a,a
WAL a
EXT 11,1 24 0,15
PAL 3

ROOM 24
a,a,a,a,a,a,a,a,a,a,a,a,a,a,a,0
a,b,b,b,b,b,b,b,b,b,b,b,0,0,a,0
a,b,a,a,a,a,a,a,a,a,a,a,a,0,a,0
a,b,a,b,b,b,b,b,b,b,b,b,a,0,a,0
a,b,a,b,a,a,a,a,a,a,a,b,a,0,a,0
a,b,a,b,a,b,b,b,b,b,a,b,a,0,a,0
a,b,a,b,a,b,a,a,a,b,a,b,a,0,a,0
a,b,a,b,a,b,a,b,b,b,a,b,a,0,a,0
a,b,a,b,a,b,a,b,a,a,a,b,a,0,a,0
a,b,a,b,a,b,a,b,a,0,a,b,a,0,a,0
a,b,a,b,b,b,a,b,a,b,a,b,a,0,a,0
a,b,a,a,a,a,a,b,a,b,a,b,a,0,a,a
a,b,b,b,b,b,b,b,a,b,b,b,a,0,0,a
a,a,a,a,a,a,a,a,a,a,a,a,a,a,0,a
0,0,0,0,0,0,0,0,0,0,0,0,0,0,0,a
0,0,0,0,0,0,0,0,0,a,a,a,a,a,a,a
WAL a
EXT 12,1 25 0,15
PAL 4

ROOM 25
a,a,a,a,a,a,a,a,a,a,a,a,a,a,a,0
a,b,b,b,b,b,b,b,b,b,b,b,b,0,a,0
a,b,a,a,a,a,a,a,a,a,a,a,a,0,a,0
a,b,a,b,b,b,b,b,b,b,b,b,a,0,a,0
a,b,a,b,a,a,a,a,a,a,a,b,a,0,a,0
a,b,a,b,a,b,b,b,b,b,a,b,a,0,a,0
a,b,a,b,a,b,a,a,a,b,a,b,a,0,a,0
a,b,a,b,a,b,a,b,b,b,a,b,a,0,a,0
a,b,a,b,a,b,a,b,a,a,a,b,a,0,a,0
a,b,a,b,a,b,a,b,a,0,a,b,a,0,a,0
a,b,a,b,b,b,a,b,a,b,a,b,a,0,a,0
a,b,a,a,a,a,a,b,a,b,a,b,a,0,a,a
a,b,b,b,b,b,b,b,a,b,b,b,a,0,0,a
a,a,a,a,a,a,a,a,a,a,a,a,a,a,0,a
0,0,0,0,0,0,0,0,0,0,0,0,0,0,0,a
0,0,0,0,0,0,0,0,0,a,a,a,a,a,a,a
WAL a
EXT 13,1 26 0,15
PAL 4

ROOM 26
a,a,a,a,a,a,a,a,a,a,a,a,a,a,a,0
a,b,b,b,b,b,b,b,b,b,b,b,b,b,a,0
a,b,a,a,a,a,a,a,a,a,a,a,a,0,a,0
a,b,a,b,b,b,b,b,b,b,b,b,a,0,a,0
a,b,a,b,a,a,a,a,a,a,a,b,a,0,a,0
a,b,a,b,a,b,b,b,b,b,a,b,a,0,a,0
a,b,a,b,a,b,a,a,a,b,a,b,a,0,a,0
a,b,a,b,a,b,a,b,b,b,a,b,a,0,a,0
a,b,a,b,a,b,a,b,a,a,a,b,a,0,a,0
a,b,a,b,a,b,a,b,a,0,a,b,a,0,a,0
a,b,a,b,b,b,a,b,a,b,a,b,a,0,a,0
a,b,a,a,a,a,a,b,a,b,a,b,a,0,a,a
a,b,b,b,b,b,b,b,a,b,b,b,a,0,0,a
a,a,a,a,a,a,a,a,a,a,a,a,a,a,0,a
0,0,0,0,0,0,0,0,0,0,0,0,0,0,0,a
0,0,0,0,0,0,0,0,0,a,a,a,a,a,a,a
WAL a
EXT 13,2 27 0,15
PAL 4

ROOM 27
a,a,a,a,a,a,a,a,a,a,a,a,a,a,a,0
a,b,b,b,b,b,b,b,b,b,b,b,b,b,a,0
a,b,a,a,a,a,a,a,a,a,a,a,a,b,a,0
a,b,a,b,b,b,b,b,b,b,b,b,a,0,a,0
a,b,a,b,a,a,a,a,a,a,a,b,a,0,a,0
a,b,a,b,a,b,b,b,b,b,a,b,a,0,a,0
a,b,a,b,a,b,a,a,a,b,a,b,a,0,a,0
a,b,a,b,a,b,a,b,b,b,a,b,a,0,a,0
a,b,a,b,a,b,a,b,a,a,a,b,a,0,a,0
a,b,a,b,a,b,a,b,a,0,a,b,a,0,a,0
a,b,a,b,b,b,a,b,a,b,a,b,a,0,a,0
a,b,a,a,a,a,a,b,a,b,a,b,a,0,a,a
a,b,b,b,b,b,b,b,a,b,b,b,a,0,0,a
a,a,a,a,a,a,a,a,a,a,a,a,a,a,0,a
0,0,0,0,0,0,0,0,0,0,0,0,0,0,0,a
0,0,0,0,0,0,0,0,0,a,a,a,a,a,a,a
WAL a
EXT 13,3 28 0,15
PAL 4

ROOM 28
a,a,a,a,a,a,a,a,a,a,a,a,a,a,a,0
a,b,b,b,b,b,b,b,b,b,b,b,b,b,a,0
a,b,a,a,a,a,a,a,a,a,a,a,a,b,a,0
a,b,a,b,b,b,b,b,b,b,b,b,a,b,a,0
a,b,a,b,a,a,a,a,a,a,a,b,a,0,a,0
a,b,a,b,a,b,b,b,b,b,a,b,a,0,a,0
a,b,a,b,a,b,a,a,a,b,a,b,a,0,a,0
a,b,a,b,a,b,a,b,b,b,a,b,a,0,a,0
a,b,a,b,a,b,a,b,a,a,a,b,a,0,a,0
a,b,a,b,a,b,a,b,a,0,a,b,a,0,a,0
a,b,a,b,b,b,a,b,a,b,a,b,a,0,a,0
a,b,a,a,a,a,a,b,a,b,a,b,a,0,a,a
a,b,b,b,b,b,b,b,a,b,b,b,a,0,0,a
a,a,a,a,a,a,a,a,a,a,a,a,a,a,0,a
0,0,0,0,0,0,0,0,0,0,0,0,0,0,0,a
0,0,0,0,0,0,0,0,0,a,a,a,a,a,a,a
WAL a
EXT 13,4 29 0,15
PAL 4

ROOM 29
a,a,a,a,a,a,a,a,a,a,a,a,a,a,a,0
a,b,b,b,b,b,b,b,b,b,b,b,b,b,a,0
a,b,a,a,a,a,a,a,a,a,a,a,a,b,a,0
a,b,a,b,b,b,b,b,b,b,b,b,a,b,a,0
a,b,a,b,a,a,a,a,a,a,a,b,a,b,a,0
a,b,a,b,a,b,b,b,b,b,a,b,a,0,a,0
a,b,a,b,a,b,a,a,a,b,a,b,a,0,a,0
a,b,a,b,a,b,a,b,b,b,a,b,a,0,a,0
a,b,a,b,a,b,a,b,a,a,a,b,a,0,a,0
a,b,a,b,a,b,a,b,a,0,a,b,a,0,a,0
a,b,a,b,b,b,a,b,a,b,a,b,a,0,a,0
a,b,a,a,a,a,a,b,a,b,a,b,a,0,a,a
a,b,b,b,b,b,b,b,a,b,b,b,a,0,0,a
a,a,a,a,a,a,a,a,a,a,a,a,a,a,0,a
0,0,0,0,0,0,0,0,0,0,0,0,0,0,0,a
0,0,0,0,0,0,0,0,0,a,a,a,a,a,a,a
WAL a
EXT 13,5 2a 0,15
PAL 4

ROOM a
a,a,a,a,a,a,a,a,a,a,a,a,a,a,a,0
a,0,0,0,0,0,0,0,0,0,0,0,0,0,a,0
a,0,a,a,a,a,a,a,a,a,a,a,a,0,a,0
a,0,a,0,0,0,0,0,0,0,0,0,a,0,a,0
a,0,a,0,a,a,a,a,a,a,a,0,a,0,a,0
a,0,a,0,a,0,0,0,0,0,a,0,a,0,a,0
a,0,a,0,a,0,a,a,a,0,a,0,a,0,a,0
a,0,a,0,a,0,a,0,0,0,a,b,a,0,a,0
a,0,a,0,a,0,a,0,a,a,a,b,a,0,a,0
a,0,a,0,a,0,a,0,a,0,a,b,a,0,a,0
a,0,a,0,0,0,a,0,a,b,a,b,a,0,a,0
a,0,a,a,a,a,a,0,a,b,a,b,a,0,a,a
a,0,0,0,0,0,0,0,a,b,b,b,a,0,0,a
a,a,a,a,a,a,a,a,a,a,a,a,a,a,0,a
0,0,0,0,0,0,0,0,0,0,0,0,0,0,0,a
0,0,0,0,0,0,0,0,0,a,a,a,a,a,a,a
WAL a
EXT 11,6 b 0,15
PAL 1

ROOM b
a,a,a,a,a,a,a,a,a,a,a,a,a,a,a,0
a,0,0,0,0,0,0,0,0,0,0,0,0,0,a,0
a,0,a,a,a,a,a,a,a,a,a,a,a,0,a,0
a,0,a,0,0,0,0,0,0,0,0,0,a,0,a,0
a,0,a,0,a,a,a,a,a,a,a,0,a,0,a,0
a,0,a,0,a,0,0,0,0,0,a,0,a,0,a,0
a,0,a,0,a,0,a,a,a,0,a,b,a,0,a,0
a,0,a,0,a,0,a,0,0,0,a,b,a,0,a,0
a,0,a,0,a,0,a,0,a,a,a,b,a,0,a,0
a,0,a,0,a,0,a,0,a,0,a,b,a,0,a,0
a,0,a,0,0,0,a,0,a,b,a,b,a,0,a,0
a,0,a,a,a,a,a,0,a,b,a,b,a,0,a,a
a,0,0,0,0,0,0,0,a,b,b,b,a,0,0,a
a,a,a,a,a,a,a,a,a,a,a,a,a,a,0,a
0,0,0,0,0,0,0,0,0,0,0,0,0,0,0,a
0,0,0,0,0,0,0,0,0,a,a,a,a,a,a,a
WAL a
EXT 11,5 c 0,15
PAL 1

ROOM c
a,a,a,a,a,a,a,a,a,a,a,a,a,a,a,0
a,0,0,0,0,0,0,0,0,0,0,0,0,0,a,0
a,0,a,a,a,a,a,a,a,a,a,a,a,0,a,0
a,0,a,0,0,0,0,0,0,0,0,0,a,0,a,0
a,0,a,0,a,a,a,a,a,a,a,0,a,0,a,0
a,0,a,0,a,0,0,0,0,0,a,b,a,0,a,0
a,0,a,0,a,0,a,a,a,0,a,b,a,0,a,0
a,0,a,0,a,0,a,0,0,0,a,b,a,0,a,0
a,0,a,0,a,0,a,0,a,a,a,b,a,0,a,0
a,0,a,0,a,0,a,0,a,0,a,b,a,0,a,0
a,0,a,0,0,0,a,0,a,b,a,b,a,0,a,0
a,0,a,a,a,a,a,0,a,b,a,b,a,0,a,a
a,0,0,0,0,0,0,0,a,b,b,b,a,0,0,a
a,a,a,a,a,a,a,a,a,a,a,a,a,a,0,a
0,0,0,0,0,0,0,0,0,0,0,0,0,0,0,a
0,0,0,0,0,0,0,0,0,a,a,a,a,a,a,a
WAL a
EXT 11,4 d 0,15
PAL 1

ROOM d
a,a,a,a,a,a,a,a,a,a,a,a,a,a,a,0
a,0,0,0,0,0,0,0,0,0,0,0,0,0,a,0
a,0,a,a,a,a,a,a,a,a,a,a,a,0,a,0
a,0,a,0,0,0,0,0,0,0,0,0,a,0,a,0
a,0,a,0,a,a,a,a,a,a,a,b,a,0,a,0
a,0,a,0,a,0,0,0,0,0,a,b,a,0,a,0
a,0,a,0,a,0,a,a,a,0,a,b,a,0,a,0
a,0,a,0,a,0,a,0,0,0,a,b,a,0,a,0
a,0,a,0,a,0,a,0,a,a,a,b,a,0,a,0
a,0,a,0,a,0,a,0,a,0,a,b,a,0,a,0
a,0,a,0,0,0,a,0,a,b,a,b,a,0,a,0
a,0,a,a,a,a,a,0,a,b,a,b,a,0,a,a
a,0,0,0,0,0,0,0,a,b,b,b,a,0,0,a
a,a,a,a,a,a,a,a,a,a,a,a,a,a,0,a
0,0,0,0,0,0,0,0,0,0,0,0,0,0,0,a
0,0,0,0,0,0,0,0,0,a,a,a,a,a,a,a
WAL a
EXT 11,3 e 0,15
PAL 1

ROOM e
a,a,a,a,a,a,a,a,a,a,a,a,a,a,a,0
a,0,0,0,0,0,0,0,0,0,0,0,0,0,a,0
a,0,a,a,a,a,a,a,a,a,a,a,a,0,a,0
a,0,a,0,0,0,0,0,0,0,0,b,a,0,a,0
a,0,a,0,a,a,a,a,a,a,a,b,a,0,a,0
a,0,a,0,a,0,0,0,0,0,a,b,a,0,a,0
a,0,a,0,a,0,a,a,a,0,a,b,a,0,a,0
a,0,a,0,a,0,a,0,0,0,a,b,a,0,a,0
a,0,a,0,a,0,a,0,a,a,a,b,a,0,a,0
a,0,a,0,a,0,a,0,a,0,a,b,a,0,a,0
a,0,a,0,0,0,a,0,a,b,a,b,a,0,a,0
a,0,a,a,a,a,a,0,a,b,a,b,a,0,a,a
a,0,0,0,0,0,0,0,a,b,b,b,a,0,0,a
a,a,a,a,a,a,a,a,a,a,a,a,a,a,0,a
0,0,0,0,0,0,0,0,0,0,0,0,0,0,0,a
0,0,0,0,0,0,0,0,0,a,a,a,a,a,a,a
WAL a
EXT 10,3 f 0,15
PAL 1

ROOM f
a,a,a,a,a,a,a,a,a,a,a,a,a,a,a,0
a,0,0,0,0,0,0,0,0,0,0,0,0,0,a,0
a,0,a,a,a,a,a,a,a,a,a,a,a,0,a,0
a,0,a,0,0,0,0,0,0,0,b,b,a,0,a,0
a,0,a,0,a,a,a,a,a,a,a,b,a,0,a,0
a,0,a,0,a,0,0,0,0,0,a,b,a,0,a,0
a,0,a,0,a,0,a,a,a,0,a,b,a,0,a,0
a,0,a,0,a,0,a,0,0,0,a,b,a,0,a,0
a,0,a,0,a,0,a,0,a,a,a,b,a,0,a,0
a,0,a,0,a,0,a,0,a,0,a,b,a,0,a,0
a,0,a,0,0,0,a,0,a,b,a,b,a,0,a,0
a,0,a,a,a,a,a,0,a,b,a,b,a,0,a,a
a,0,0,0,0,0,0,0,a,b,b,b,a,0,0,a
a,a,a,a,a,a,a,a,a,a,a,a,a,a,0,a
0,0,0,0,0,0,0,0,0,0,0,0,0,0,0,a
0,0,0,0,0,0,0,0,0,a,a,a,a,a,a,a
WAL a
EXT 9,3 g 0,15
PAL 1

ROOM g
a,a,a,a,a,a,a,a,a,a,a,a,a,a,a,0
a,0,0,0,0,0,0,0,0,0,0,0,0,0,a,0
a,0,a,a,a,a,a,a,a,a,a,a,a,0,a,0
a,0,a,0,0,0,0,0,0,b,b,b,a,0,a,0
a,0,a,0,a,a,a,a,a,a,a,b,a,0,a,0
a,0,a,0,a,0,0,0,0,0,a,b,a,0,a,0
a,0,a,0,a,0,a,a,a,0,a,b,a,0,a,0
a,0,a,0,a,0,a,0,0,0,a,b,a,0,a,0
a,0,a,0,a,0,a,0,a,a,a,b,a,0,a,0
a,0,a,0,a,0,a,0,a,0,a,b,a,0,a,0
a,0,a,0,0,0,a,0,a,b,a,b,a,0,a,0
a,0,a,a,a,a,a,0,a,b,a,b,a,0,a,a
a,0,0,0,0,0,0,0,a,b,b,b,a,0,0,a
a,a,a,a,a,a,a,a,a,a,a,a,a,a,0,a
0,0,0,0,0,0,0,0,0,0,0,0,0,0,0,a
0,0,0,0,0,0,0,0,0,a,a,a,a,a,a,a
WAL a
EXT 8,3 h 0,15
PAL 1

ROOM h
a,a,a,a,a,a,a,a,a,a,a,a,a,a,a,0
a,0,0,0,0,0,0,0,0,0,0,0,0,0,a,0
a,0,a,a,a,a,a,a,a,a,a,a,a,0,a,0
a,0,a,0,0,0,0,0,b,b,b,b,a,0,a,0
a,0,a,0,a,a,a,a,a,a,a,b,a,0,a,0
a,0,a,0,a,0,0,0,0,0,a,b,a,0,a,0
a,0,a,0,a,0,a,a,a,0,a,b,a,0,a,0
a,0,a,0,a,0,a,0,0,0,a,b,a,0,a,0
a,0,a,0,a,0,a,0,a,a,a,b,a,0,a,0
a,0,a,0,a,0,a,0,a,0,a,b,a,0,a,0
a,0,a,0,0,0,a,0,a,b,a,b,a,0,a,0
a,0,a,a,a,a,a,0,a,b,a,b,a,0,a,a
a,0,0,0,0,0,0,0,a,b,b,b,a,0,0,a
a,a,a,a,a,a,a,a,a,a,a,a,a,a,0,a
0,0,0,0,0,0,0,0,0,0,0,0,0,0,0,a
0,0,0,0,0,0,0,0,0,a,a,a,a,a,a,a
WAL a
EXT 7,3 i 0,15
PAL 1

ROOM i
a,a,a,a,a,a,a,a,a,a,a,a,a,a,a,0
a,0,0,0,0,0,0,0,0,0,0,0,0,0,a,0
a,0,a,a,a,a,a,a,a,a,a,a,a,0,a,0
a,0,a,0,0,0,0,b,b,b,b,b,a,0,a,0
a,0,a,0,a,a,a,a,a,a,a,b,a,0,a,0
a,0,a,0,a,0,0,0,0,0,a,b,a,0,a,0
a,0,a,0,a,0,a,a,a,0,a,b,a,0,a,0
a,0,a,0,a,0,a,0,0,0,a,b,a,0,a,0
a,0,a,0,a,0,a,0,a,a,a,b,a,0,a,0
a,0,a,0,a,0,a,0,a,0,a,b,a,0,a,0
a,0,a,0,0,0,a,0,a,b,a,b,a,0,a,0
a,0,a,a,a,a,a,0,a,b,a,b,a,0,a,a
a,0,0,0,0,0,0,0,a,b,b,b,a,0,0,a
a,a,a,a,a,a,a,a,a,a,a,a,a,a,0,a
0,0,0,0,0,0,0,0,0,0,0,0,0,0,0,a
0,0,0,0,0,0,0,0,0,a,a,a,a,a,a,a
WAL a
EXT 6,3 j 0,15
PAL 1

ROOM j
a,a,a,a,a,a,a,a,a,a,a,a,a,a,a,0
a,0,0,0,0,0,0,0,0,0,0,0,0,0,a,0
a,0,a,a,a,a,a,a,a,a,a,a,a,0,a,0
a,0,a,0,0,0,b,b,b,b,b,b,a,0,a,0
a,0,a,0,a,a,a,a,a,a,a,b,a,0,a,0
a,0,a,0,a,0,0,0,0,0,a,b,a,0,a,0
a,0,a,0,a,0,a,a,a,0,a,b,a,0,a,0
a,0,a,0,a,0,a,0,0,0,a,b,a,0,a,0
a,0,a,0,a,0,a,0,a,a,a,b,a,0,a,0
a,0,a,0,a,0,a,0,a,0,a,b,a,0,a,0
a,0,a,0,0,0,a,0,a,b,a,b,a,0,a,0
a,0,a,a,a,a,a,0,a,b,a,b,a,0,a,a
a,0,0,0,0,0,0,0,a,b,b,b,a,0,0,a
a,a,a,a,a,a,a,a,a,a,a,a,a,a,0,a
0,0,0,0,0,0,0,0,0,0,0,0,0,0,0,a
0,0,0,0,0,0,0,0,0,a,a,a,a,a,a,a
WAL a
EXT 5,3 k 0,15
PAL 1

ROOM k
a,a,a,a,a,a,a,a,a,a,a,a,a,a,a,0
a,0,0,0,0,0,0,0,0,0,0,0,0,0,a,0
a,0,a,a,a,a,a,a,a,a,a,a,a,0,a,0
a,0,a,0,0,b,b,b,b,b,b,b,a,0,a,0
a,0,a,0,a,a,a,a,a,a,a,b,a,0,a,0
a,0,a,0,a,0,0,0,0,0,a,b,a,0,a,0
a,0,a,0,a,0,a,a,a,0,a,b,a,0,a,0
a,0,a,0,a,0,a,0,0,0,a,b,a,0,a,0
a,0,a,0,a,0,a,0,a,a,a,b,a,0,a,0
a,0,a,0,a,0,a,0,a,0,a,b,a,0,a,0
a,0,a,0,0,0,a,0,a,b,a,b,a,0,a,0
a,0,a,a,a,a,a,0,a,b,a,b,a,0,a,a
a,0,0,0,0,0,0,0,a,b,b,b,a,0,0,a
a,a,a,a,a,a,a,a,a,a,a,a,a,a,0,a
0,0,0,0,0,0,0,0,0,0,0,0,0,0,0,a
0,0,0,0,0,0,0,0,0,a,a,a,a,a,a,a
WAL a
EXT 4,3 l 0,15
PAL 1

ROOM l
a,a,a,a,a,a,a,a,a,a,a,a,a,a,a,0
a,0,0,0,0,0,0,0,0,0,0,0,0,0,a,0
a,0,a,a,a,a,a,a,a,a,a,a,a,0,a,0
a,0,a,0,b,b,b,b,b,b,b,b,a,0,a,0
a,0,a,0,a,a,a,a,a,a,a,b,a,0,a,0
a,0,a,0,a,0,0,0,0,0,a,b,a,0,a,0
a,0,a,0,a,0,a,a,a,0,a,b,a,0,a,0
a,0,a,0,a,0,a,0,0,0,a,b,a,0,a,0
a,0,a,0,a,0,a,0,a,a,a,b,a,0,a,0
a,0,a,0,a,0,a,0,a,0,a,b,a,0,a,0
a,0,a,0,0,0,a,0,a,b,a,b,a,0,a,0
a,0,a,a,a,a,a,0,a,b,a,b,a,0,a,a
a,0,0,0,0,0,0,0,a,b,b,b,a,0,0,a
a,a,a,a,a,a,a,a,a,a,a,a,a,a,0,a
0,0,0,0,0,0,0,0,0,0,0,0,0,0,0,a
0,0,0,0,0,0,0,0,0,a,a,a,a,a,a,a
WAL a
EXT 3,3 m 0,15
PAL 2

ROOM m
a,a,a,a,a,a,a,a,a,a,a,a,a,a,a,0
a,0,0,0,0,0,0,0,0,0,0,0,0,0,a,0
a,0,a,a,a,a,a,a,a,a,a,a,a,0,a,0
a,0,a,b,b,b,b,b,b,b,b,b,a,0,a,0
a,0,a,0,a,a,a,a,a,a,a,b,a,0,a,0
a,0,a,0,a,0,0,0,0,0,a,b,a,0,a,0
a,0,a,0,a,0,a,a,a,0,a,b,a,0,a,0
a,0,a,0,a,0,a,0,0,0,a,b,a,0,a,0
a,0,a,0,a,0,a,0,a,a,a,b,a,0,a,0
a,0,a,0,a,0,a,0,a,0,a,b,a,0,a,0
a,0,a,0,0,0,a,0,a,b,a,b,a,0,a,0
a,0,a,a,a,a,a,0,a,b,a,b,a,0,a,a
a,0,0,0,0,0,0,0,a,b,b,b,a,0,0,a
a,a,a,a,a,a,a,a,a,a,a,a,a,a,0,a
0,0,0,0,0,0,0,0,0,0,0,0,0,0,0,a
0,0,0,0,0,0,0,0,0,a,a,a,a,a,a,a
WAL a
EXT 3,4 n 0,15
PAL 2

ROOM n
a,a,a,a,a,a,a,a,a,a,a,a,a,a,a,0
a,0,0,0,0,0,0,0,0,0,0,0,0,0,a,0
a,0,a,a,a,a,a,a,a,a,a,a,a,0,a,0
a,0,a,b,b,b,b,b,b,b,b,b,a,0,a,0
a,0,a,b,a,a,a,a,a,a,a,b,a,0,a,0
a,0,a,0,a,0,0,0,0,0,a,b,a,0,a,0
a,0,a,0,a,0,a,a,a,0,a,b,a,0,a,0
a,0,a,0,a,0,a,0,0,0,a,b,a,0,a,0
a,0,a,0,a,0,a,0,a,a,a,b,a,0,a,0
a,0,a,0,a,0,a,0,a,0,a,b,a,0,a,0
a,0,a,0,0,0,a,0,a,b,a,b,a,0,a,0
a,0,a,a,a,a,a,0,a,b,a,b,a,0,a,a
a,0,0,0,0,0,0,0,a,b,b,b,a,0,0,a
a,a,a,a,a,a,a,a,a,a,a,a,a,a,0,a
0,0,0,0,0,0,0,0,0,0,0,0,0,0,0,a
0,0,0,0,0,0,0,0,0,a,a,a,a,a,a,a
WAL a
EXT 3,5 o 0,15
PAL 2

ROOM o
a,a,a,a,a,a,a,a,a,a,a,a,a,a,a,0
a,0,0,0,0,0,0,0,0,0,0,0,0,0,a,0
a,0,a,a,a,a,a,a,a,a,a,a,a,0,a,0
a,0,a,b,b,b,b,b,b,b,b,b,a,0,a,0
a,0,a,b,a,a,a,a,a,a,a,b,a,0,a,0
a,0,a,b,a,0,0,0,0,0,a,b,a,0,a,0
a,0,a,0,a,0,a,a,a,0,a,b,a,0,a,0
a,0,a,0,a,0,a,0,0,0,a,b,a,0,a,0
a,0,a,0,a,0,a,0,a,a,a,b,a,0,a,0
a,0,a,0,a,0,a,0,a,0,a,b,a,0,a,0
a,0,a,0,0,0,a,0,a,b,a,b,a,0,a,0
a,0,a,a,a,a,a,0,a,b,a,b,a,0,a,a
a,0,0,0,0,0,0,0,a,b,b,b,a,0,0,a
a,a,a,a,a,a,a,a,a,a,a,a,a,a,0,a
0,0,0,0,0,0,0,0,0,0,0,0,0,0,0,a
0,0,0,0,0,0,0,0,0,a,a,a,a,a,a,a
WAL a
EXT 3,6 p 0,15
PAL 2

ROOM p
a,a,a,a,a,a,a,a,a,a,a,a,a,a,a,0
a,0,0,0,0,0,0,0,0,0,0,0,0,0,a,0
a,0,a,a,a,a,a,a,a,a,a,a,a,0,a,0
a,0,a,b,b,b,b,b,b,b,b,b,a,0,a,0
a,0,a,b,a,a,a,a,a,a,a,b,a,0,a,0
a,0,a,b,a,0,0,0,0,0,a,b,a,0,a,0
a,0,a,b,a,0,a,a,a,0,a,b,a,0,a,0
a,0,a,0,a,0,a,0,0,0,a,b,a,0,a,0
a,0,a,0,a,0,a,0,a,a,a,b,a,0,a,0
a,0,a,0,a,0,a,0,a,0,a,b,a,0,a,0
a,0,a,0,0,0,a,0,a,b,a,b,a,0,a,0
a,0,a,a,a,a,a,0,a,b,a,b,a,0,a,a
a,0,0,0,0,0,0,0,a,b,b,b,a,0,0,a
a,a,a,a,a,a,a,a,a,a,a,a,a,a,0,a
0,0,0,0,0,0,0,0,0,0,0,0,0,0,0,a
0,0,0,0,0,0,0,0,0,a,a,a,a,a,a,a
WAL a
EXT 3,7 q 0,15
PAL 2

ROOM q
a,a,a,a,a,a,a,a,a,a,a,a,a,a,a,0
a,0,0,0,0,0,0,0,0,0,0,0,0,0,a,0
a,0,a,a,a,a,a,a,a,a,a,a,a,0,a,0
a,0,a,b,b,b,b,b,b,b,b,b,a,0,a,0
a,0,a,b,a,a,a,a,a,a,a,b,a,0,a,0
a,0,a,b,a,0,0,0,0,0,a,b,a,0,a,0
a,0,a,b,a,0,a,a,a,0,a,b,a,0,a,0
a,0,a,b,a,0,a,0,0,0,a,b,a,0,a,0
a,0,a,0,a,0,a,0,a,a,a,b,a,0,a,0
a,0,a,0,a,0,a,0,a,0,a,b,a,0,a,0
a,0,a,0,0,0,a,0,a,b,a,b,a,0,a,0
a,0,a,a,a,a,a,0,a,b,a,b,a,0,a,a
a,0,0,0,0,0,0,0,a,b,b,b,a,0,0,a
a,a,a,a,a,a,a,a,a,a,a,a,a,a,0,a
0,0,0,0,0,0,0,0,0,0,0,0,0,0,0,a
0,0,0,0,0,0,0,0,0,a,a,a,a,a,a,a
WAL a
EXT 3,8 r 0,15
PAL 2

ROOM r
a,a,a,a,a,a,a,a,a,a,a,a,a,a,a,0
a,0,0,0,0,0,0,0,0,0,0,0,0,0,a,0
a,0,a,a,a,a,a,a,a,a,a,a,a,0,a,0
a,0,a,b,b,b,b,b,b,b,b,b,a,0,a,0
a,0,a,b,a,a,a,a,a,a,a,b,a,0,a,0
a,0,a,b,a,0,0,0,0,0,a,b,a,0,a,0
a,0,a,b,a,0,a,a,a,0,a,b,a,0,a,0
a,0,a,b,a,0,a,0,0,0,a,b,a,0,a,0
a,0,a,b,a,0,a,0,a,a,a,b,a,0,a,0
a,0,a,0,a,0,a,0,a,0,a,b,a,0,a,0
a,0,a,0,0,0,a,0,a,b,a,b,a,0,a,0
a,0,a,a,a,a,a,0,a,b,a,b,a,0,a,a
a,0,0,0,0,0,0,0,a,b,b,b,a,0,0,a
a,a,a,a,a,a,a,a,a,a,a,a,a,a,0,a
0,0,0,0,0,0,0,0,0,0,0,0,0,0,0,a
0,0,0,0,0,0,0,0,0,a,a,a,a,a,a,a
WAL a
EXT 3,9 s 0,15
PAL 2

ROOM s
a,a,a,a,a,a,a,a,a,a,a,a,a,a,a,0
a,0,0,0,0,0,0,0,0,0,0,0,0,0,a,0
a,0,a,a,a,a,a,a,a,a,a,a,a,0,a,0
a,0,a,b,b,b,b,b,b,b,b,b,a,0,a,0
a,0,a,b,a,a,a,a,a,a,a,b,a,0,a,0
a,0,a,b,a,0,0,0,0,0,a,b,a,0,a,0
a,0,a,b,a,0,a,a,a,0,a,b,a,0,a,0
a,0,a,b,a,0,a,0,0,0,a,b,a,0,a,0
a,0,a,b,a,0,a,0,a,a,a,b,a,0,a,0
a,0,a,b,a,0,a,0,a,0,a,b,a,0,a,0
a,0,a,0,0,0,a,0,a,b,a,b,a,0,a,0
a,0,a,a,a,a,a,0,a,b,a,b,a,0,a,a
a,0,0,0,0,0,0,0,a,b,b,b,a,0,0,a
a,a,a,a,a,a,a,a,a,a,a,a,a,a,0,a
0,0,0,0,0,0,0,0,0,0,0,0,0,0,0,a
0,0,0,0,0,0,0,0,0,a,a,a,a,a,a,a
WAL a
EXT 3,10 t 0,15
PAL 2

ROOM t
a,a,a,a,a,a,a,a,a,a,a,a,a,a,a,0
a,0,0,0,0,0,0,0,0,0,0,0,0,0,a,0
a,0,a,a,a,a,a,a,a,a,a,a,a,0,a,0
a,0,a,b,b,b,b,b,b,b,b,b,a,0,a,0
a,0,a,b,a,a,a,a,a,a,a,b,a,0,a,0
a,0,a,b,a,0,0,0,0,0,a,b,a,0,a,0
a,0,a,b,a,0,a,a,a,0,a,b,a,0,a,0
a,0,a,b,a,0,a,0,0,0,a,b,a,0,a,0
a,0,a,b,a,0,a,0,a,a,a,b,a,0,a,0
a,0,a,b,a,0,a,0,a,0,a,b,a,0,a,0
a,0,a,b,0,0,a,0,a,b,a,b,a,0,a,0
a,0,a,a,a,a,a,0,a,b,a,b,a,0,a,a
a,0,0,0,0,0,0,0,a,b,b,b,a,0,0,a
a,a,a,a,a,a,a,a,a,a,a,a,a,a,0,a
0,0,0,0,0,0,0,0,0,0,0,0,0,0,0,a
0,0,0,0,0,0,0,0,0,a,a,a,a,a,a,a
WAL a
EXT 4,10 u 0,15
PAL 2

ROOM u
a,a,a,a,a,a,a,a,a,a,a,a,a,a,a,0
a,0,0,0,0,0,0,0,0,0,0,0,0,0,a,0
a,0,a,a,a,a,a,a,a,a,a,a,a,0,a,0
a,0,a,b,b,b,b,b,b,b,b,b,a,0,a,0
a,0,a,b,a,a,a,a,a,a,a,b,a,0,a,0
a,0,a,b,a,0,0,0,0,0,a,b,a,0,a,0
a,0,a,b,a,0,a,a,a,0,a,b,a,0,a,0
a,0,a,b,a,0,a,0,0,0,a,b,a,0,a,0
a,0,a,b,a,0,a,0,a,a,a,b,a,0,a,0
a,0,a,b,a,0,a,0,a,0,a,b,a,0,a,0
a,0,a,b,b,0,a,0,a,b,a,b,a,0,a,0
a,0,a,a,a,a,a,0,a,b,a,b,a,0,a,a
a,0,0,0,0,0,0,0,a,b,b,b,a,0,0,a
a,a,a,a,a,a,a,a,a,a,a,a,a,a,0,a
0,0,0,0,0,0,0,0,0,0,0,0,0,0,0,a
0,0,0,0,0,0,0,0,0,a,a,a,a,a,a,a
WAL a
EXT 5,10 v 0,15
PAL 2

ROOM v
a,a,a,a,a,a,a,a,a,a,a,a,a,a,a,0
a,0,0,0,0,0,0,0,0,0,0,0,0,0,a,0
a,0,a,a,a,a,a,a,a,a,a,a,a,0,a,0
a,0,a,b,b,b,b,b,b,b,b,b,a,0,a,0
a,0,a,b,a,a,a,a,a,a,a,b,a,0,a,0
a,0,a,b,a,0,0,0,0,0,a,b,a,0,a,0
a,0,a,b,a,0,a,a,a,0,a,b,a,0,a,0
a,0,a,b,a,0,a,0,0,0,a,b,a,0,a,0
a,0,a,b,a,0,a,0,a,a,a,b,a,0,a,0
a,0,a,b,a,0,a,0,a,0,a,b,a,0,a,0
a,0,a,b,b,b,a,0,a,b,a,b,a,0,a,0
a,0,a,a,a,a,a,0,a,b,a,b,a,0,a,a
a,0,0,0,0,0,0,0,a,b,b,b,a,0,0,a
a,a,a,a,a,a,a,a,a,a,a,a,a,a,0,a
0,0,0,0,0,0,0,0,0,0,0,0,0,0,0,a
0,0,0,0,0,0,0,0,0,a,a,a,a,a,a,a
WAL a
EXT 5,9 w 0,15
PAL 2

ROOM w
a,a,a,a,a,a,a,a,a,a,a,a,a,a,a,0
a,0,0,0,0,0,0,0,0,0,0,0,0,0,a,0
a,0,a,a,a,a,a,a,a,a,a,a,a,0,a,0
a,0,a,b,b,b,b,b,b,b,b,b,a,0,a,0
a,0,a,b,a,a,a,a,a,a,a,b,a,0,a,0
a,0,a,b,a,0,0,0,0,0,a,b,a,0,a,0
a,0,a,b,a,0,a,a,a,0,a,b,a,0,a,0
a,0,a,b,a,0,a,0,0,0,a,b,a,0,a,0
a,0,a,b,a,0,a,0,a,a,a,b,a,0,a,0
a,0,a,b,a,b,a,0,a,0,a,b,a,0,a,0
a,0,a,b,b,b,a,0,a,b,a,b,a,0,a,0
a,0,a,a,a,a,a,0,a,b,a,b,a,0,a,a
a,0,0,0,0,0,0,0,a,b,b,b,a,0,0,a
a,a,a,a,a,a,a,a,a,a,a,a,a,a,0,a
0,0,0,0,0,0,0,0,0,0,0,0,0,0,0,a
0,0,0,0,0,0,0,0,0,a,a,a,a,a,a,a
WAL a
EXT 5,8 x 0,15
PAL 2

ROOM x
a,a,a,a,a,a,a,a,a,a,a,a,a,a,a,0
a,0,0,0,0,0,0,0,0,0,0,0,0,0,a,0
a,0,a,a,a,a,a,a,a,a,a,a,a,0,a,0
a,0,a,b,b,b,b,b,b,b,b,b,a,0,a,0
a,0,a,b,a,a,a,a,a,a,a,b,a,0,a,0
a,0,a,b,a,0,0,0,0,0,a,b,a,0,a,0
a,0,a,b,a,0,a,a,a,0,a,b,a,0,a,0
a,0,a,b,a,0,a,0,0,0,a,b,a,0,a,0
a,0,a,b,a,b,a,0,a,a,a,b,a,0,a,0
a,0,a,b,a,b,a,0,a,0,a,b,a,0,a,0
a,0,a,b,b,b,a,0,a,b,a,b,a,0,a,0
a,0,a,a,a,a,a,0,a,b,a,b,a,0,a,a
a,0,0,0,0,0,0,0,a,b,b,b,a,0,0,a
a,a,a,a,a,a,a,a,a,a,a,a,a,a,0,a
0,0,0,0,0,0,0,0,0,0,0,0,0,0,0,a
0,0,0,0,0,0,0,0,0,a,a,a,a,a,a,a
WAL a
EXT 5,7 y 0,15
PAL 2

ROOM y
a,a,a,a,a,a,a,a,a,a,a,a,a,a,a,0
a,0,0,0,0,0,0,0,0,0,0,0,0,0,a,0
a,0,a,a,a,a,a,a,a,a,a,a,a,0,a,0
a,0,a,b,b,b,b,b,b,b,b,b,a,0,a,0
a,0,a,b,a,a,a,a,a,a,a,b,a,0,a,0
a,0,a,b,a,0,0,0,0,0,a,b,a,0,a,0
a,0,a,b,a,0,a,a,a,0,a,b,a,0,a,0
a,0,a,b,a,b,a,0,0,0,a,b,a,0,a,0
a,0,a,b,a,b,a,0,a,a,a,b,a,0,a,0
a,0,a,b,a,b,a,0,a,0,a,b,a,0,a,0
a,0,a,b,b,b,a,0,a,b,a,b,a,0,a,0
a,0,a,a,a,a,a,0,a,b,a,b,a,0,a,a
a,0,0,0,0,0,0,0,a,b,b,b,a,0,0,a
a,a,a,a,a,a,a,a,a,a,a,a,a,a,0,a
0,0,0,0,0,0,0,0,0,0,0,0,0,0,0,a
0,0,0,0,0,0,0,0,0,a,a,a,a,a,a,a
WAL a
EXT 5,6 z 0,15
PAL 2

ROOM z
a,a,a,a,a,a,a,a,a,a,a,a,a,a,a,0
a,0,0,0,0,0,0,0,0,0,0,0,0,0,a,0
a,0,a,a,a,a,a,a,a,a,a,a,a,0,a,0
a,0,a,b,b,b,b,b,b,b,b,b,a,0,a,0
a,0,a,b,a,a,a,a,a,a,a,b,a,0,a,0
a,0,a,b,a,0,0,0,0,0,a,b,a,0,a,0
a,0,a,b,a,b,a,a,a,0,a,b,a,0,a,0
a,0,a,b,a,b,a,0,0,0,a,b,a,0,a,0
a,0,a,b,a,b,a,0,a,a,a,b,a,0,a,0
a,0,a,b,a,b,a,0,a,0,a,b,a,0,a,0
a,0,a,b,b,b,a,0,a,b,a,b,a,0,a,0
a,0,a,a,a,a,a,0,a,b,a,b,a,0,a,a
a,0,0,0,0,0,0,0,a,b,b,b,a,0,0,a
a,a,a,a,a,a,a,a,a,a,a,a,a,a,0,a
0,0,0,0,0,0,0,0,0,0,0,0,0,0,0,a
0,0,0,0,0,0,0,0,0,a,a,a,a,a,a,a
WAL a
EXT 5,5 10 0,15
PAL 2

ROOM 1a
a,a,a,a,a,a,a,a,a,a,a,a,a,a,a,0
a,0,0,0,0,0,0,0,0,0,0,0,0,0,a,0
a,0,a,a,a,a,a,a,a,a,a,a,a,0,a,0
a,0,a,b,b,b,b,b,b,b,b,b,a,0,a,0
a,0,a,b,a,a,a,a,a,a,a,b,a,0,a,0
a,0,a,b,a,b,b,b,b,b,a,b,a,0,a,0
a,0,a,b,a,b,a,a,a,b,a,b,a,0,a,0
a,0,a,b,a,b,a,b,b,b,a,b,a,0,a,0
a,0,a,b,a,b,a,b,a,a,a,b,a,0,a,0
a,0,a,b,a,b,a,b,a,0,a,b,a,0,a,0
a,0,a,b,b,b,a,0,a,b,a,b,a,0,a,0
a,0,a,a,a,a,a,0,a,b,a,b,a,0,a,a
a,0,0,0,0,0,0,0,a,b,b,b,a,0,0,a
a,a,a,a,a,a,a,a,a,a,a,a,a,a,0,a
0,0,0,0,0,0,0,0,0,0,0,0,0,0,0,a
0,0,0,0,0,0,0,0,0,a,a,a,a,a,a,a
WAL a
EXT 7,10 1b 0,15
PAL 3

ROOM 1b
a,a,a,a,a,a,a,a,a,a,a,a,a,a,a,0
a,0,0,0,0,0,0,0,0,0,0,0,0,0,a,0
a,0,a,a,a,a,a,a,a,a,a,a,a,0,a,0
a,0,a,b,b,b,b,b,b,b,b,b,a,0,a,0
a,0,a,b,a,a,a,a,a,a,a,b,a,0,a,0
a,0,a,b,a,b,b,b,b,b,a,b,a,0,a,0
a,0,a,b,a,b,a,a,a,b,a,b,a,0,a,0
a,0,a,b,a,b,a,b,b,b,a,b,a,0,a,0
a,0,a,b,a,b,a,b,a,a,a,b,a,0,a,0
a,0,a,b,a,b,a,b,a,0,a,b,a,0,a,0
a,0,a,b,b,b,a,b,a,b,a,b,a,0,a,0
a,0,a,a,a,a,a,0,a,b,a,b,a,0,a,a
a,0,0,0,0,0,0,0,a,b,b,b,a,0,0,a
a,a,a,a,a,a,a,a,a,a,a,a,a,a,0,a
0,0,0,0,0,0,0,0,0,0,0,0,0,0,0,a
0,0,0,0,0,0,0,0,0,a,a,a,a,a,a,a
WAL a
EXT 7,11 1c 0,15
PAL 3

ROOM 1c
a,a,a,a,a,a,a,a,a,a,a,a,a,a,a,0
a,0,0,0,0,0,0,0,0,0,0,0,0,0,a,0
a,0,a,a,a,a,a,a,a,a,a,a,a,0,a,0
a,0,a,b,b,b,b,b,b,b,b,b,a,0,a,0
a,0,a,b,a,a,a,a,a,a,a,b,a,0,a,0
a,0,a,b,a,b,b,b,b,b,a,b,a,0,a,0
a,0,a,b,a,b,a,a,a,b,a,b,a,0,a,0
a,0,a,b,a,b,a,b,b,b,a,b,a,0,a,0
a,0,a,b,a,b,a,b,a,a,a,b,a,0,a,0
a,0,a,b,a,b,a,b,a,0,a,b,a,0,a,0
a,0,a,b,b,b,a,b,a,b,a,b,a,0,a,0
a,0,a,a,a,a,a,b,a,b,a,b,a,0,a,a
a,0,0,0,0,0,0,0,a,b,b,b,a,0,0,a
a,a,a,a,a,a,a,a,a,a,a,a,a,a,0,a
0,0,0,0,0,0,0,0,0,0,0,0,0,0,0,a
0,0,0,0,0,0,0,0,0,a,a,a,a,a,a,a
WAL a
EXT 7,12 1d 0,15
PAL 3

ROOM 1d
a,a,a,a,a,a,a,a,a,a,a,a,a,a,a,0
a,0,0,0,0,0,0,0,0,0,0,0,0,0,a,0
a,0,a,a,a,a,a,a,a,a,a,a,a,0,a,0
a,0,a,b,b,b,b,b,b,b,b,b,a,0,a,0
a,0,a,b,a,a,a,a,a,a,a,b,a,0,a,0
a,0,a,b,a,b,b,b,b,b,a,b,a,0,a,0
a,0,a,b,a,b,a,a,a,b,a,b,a,0,a,0
a,0,a,b,a,b,a,b,b,b,a,b,a,0,a,0
a,0,a,b,a,b,a,b,a,a,a,b,a,0,a,0
a,0,a,b,a,b,a,b,a,0,a,b,a,0,a,0
a,0,a,b,b,b,a,b,a,b,a,b,a,0,a,0
a,0,a,a,a,a,a,b,a,b,a,b,a,0,a,a
a,0,0,0,0,0,0,b,a,b,b,b,a,0,0,a
a,a,a,a,a,a,a,a,a,a,a,a,a,a,0,a
0,0,0,0,0,0,0,0,0,0,0,0,0,0,0,a
0,0,0,0,0,0,0,0,0,a,a,a,a,a,a,a
WAL a
EXT 6,12 1e 0,15
PAL 3

ROOM 1e
a,a,a,a,a,a,a,a,a,a,a,a,a,a,a,0
a,0,0,0,0,0,0,0,0,0,0,0,0,0,a,0
a,0,a,a,a,a,a,a,a,a,a,a,a,0,a,0
a,0,a,b,b,b,b,b,b,b,b,b,a,0,a,0
a,0,a,b,a,a,a,a,a,a,a,b,a,0,a,0
a,0,a,b,a,b,b,b,b,b,a,b,a,0,a,0
a,0,a,b,a,b,a,a,a,b,a,b,a,0,a,0
a,0,a,b,a,b,a,b,b,b,a,b,a,0,a,0
a,0,a,b,a,b,a,b,a,a,a,b,a,0,a,0
a,0,a,b,a,b,a,b,a,0,a,b,a,0,a,0
a,0,a,b,b,b,a,b,a,b,a,b,a,0,a,0
a,0,a,a,a,a,a,b,a,b,a,b,a,0,a,a
a,0,0,0,0,0,b,b,a,b,b,b,a,0,0,a
a,a,a,a,a,a,a,a,a,a,a,a,a,a,0,a
0,0,0,0,0,0,0,0,0,0,0,0,0,0,0,a
0,0,0,0,0,0,0,0,0,a,a,a,a,a,a,a
WAL a
EXT 5,12 1f 0,15
PAL 3

ROOM 1f
a,a,a,a,a,a,a,a,a,a,a,a,a,a,a,0
a,0,0,0,0,0,0,0,0,0,0,0,0,0,a,0
a,0,a,a,a,a,a,a,a,a,a,a,a,0,a,0
a,0,a,b,b,b,b,b,b,b,b,b,a,0,a,0
a,0,a,b,a,a,a,a,a,a,a,b,a,0,a,0
a,0,a,b,a,b,b,b,b,b,a,b,a,0,a,0
a,0,a,b,a,b,a,a,a,b,a,b,a,0,a,0
a,0,a,b,a,b,a,b,b,b,a,b,a,0,a,0
a,0,a,b,a,b,a,b,a,a,a,b,a,0,a,0
a,0,a,b,a,b,a,b,a,0,a,b,a,0,a,0
a,0,a,b,b,b,a,b,a,b,a,b,a,0,a,0
a,0,a,a,a,a,a,b,a,b,a,b,a,0,a,a
a,0,0,0,0,b,b,b,a,b,b,b,a,0,0,a
a,a,a,a,a,a,a,a,a,a,a,a,a,a,0,a
0,0,0,0,0,0,0,0,0,0,0,0,0,0,0,a
0,0,0,0,0,0,0,0,0,a,a,a,a,a,a,a
WAL a
EXT 4,12 1g 0,15
PAL 3

ROOM 1g
a,a,a,a,a,a,a,a,a,a,a,a,a,a,a,0
a,0,0,0,0,0,0,0,0,0,0,0,0,0,a,0
a,0,a,a,a,a,a,a,a,a,a,a,a,0,a,0
a,0,a,b,b,b,b,b,b,b,b,b,a,0,a,0
a,0,a,b,a,a,a,a,a,a,a,b,a,0,a,0
a,0,a,b,a,b,b,b,b,b,a,b,a,0,a,0
a,0,a,b,a,b,a,a,a,b,a,b,a,0,a,0
a,0,a,b,a,b,a,b,b,b,a,b,a,0,a,0
a,0,a,b,a,b,a,b,a,a,a,b,a,0,a,0
a,0,a,b,a,b,a,b,a,0,a,b,a,0,a,0
a,0,a,b,b,b,a,b,a,b,a,b,a,0,a,0
a,0,a,a,a,a,a,b,a,b,a,b,a,0,a,a
a,0,0,0,b,b,b,b,a,b,b,b,a,0,0,a
a,a,a,a,a,a,a,a,a,a,a,a,a,a,0,a
0,0,0,0,0,0,0,0,0,0,0,0,0,0,0,a
0,0,0,0,0,0,0,0,0,a,a,a,a,a,a,a
WAL a
EXT 3,12 1h 0,15
PAL 3

ROOM 1h
a,a,a,a,a,a,a,a,a,a,a,a,a,a,a,0
a,0,0,0,0,0,0,0,0,0,0,0,0,0,a,0
a,0,a,a,a,a,a,a,a,a,a,a,a,0,a,0
a,0,a,b,b,b,b,b,b,b,b,b,a,0,a,0
a,0,a,b,a,a,a,a,a,a,a,b,a,0,a,0
a,0,a,b,a,b,b,b,b,b,a,b,a,0,a,0
a,0,a,b,a,b,a,a,a,b,a,b,a,0,a,0
a,0,a,b,a,b,a,b,b,b,a,b,a,0,a,0
a,0,a,b,a,b,a,b,a,a,a,b,a,0,a,0
a,0,a,b,a,b,a,b,a,0,a,b,a,0,a,0
a,0,a,b,b,b,a,b,a,b,a,b,a,0,a,0
a,0,a,a,a,a,a,b,a,b,a,b,a,0,a,a
a,0,0,b,b,b,b,b,a,b,b,b,a,0,0,a
a,a,a,a,a,a,a,a,a,a,a,a,a,a,0,a
0,0,0,0,0,0,0,0,0,0,0,0,0,0,0,a
0,0,0,0,0,0,0,0,0,a,a,a,a,a,a,a
WAL a
EXT 2,12 1i 0,15
PAL 3

ROOM 1i
a,a,a,a,a,a,a,a,a,a,a,a,a,a,a,0
a,0,0,0,0,0,0,0,0,0,0,0,0,0,a,0
a,0,a,a,a,a,a,a,a,a,a,a,a,0,a,0
a,0,a,b,b,b,b,b,b,b,b,b,a,0,a,0
a,0,a,b,a,a,a,a,a,a,a,b,a,0,a,0
a,0,a,b,a,b,b,b,b,b,a,b,a,0,a,0
a,0,a,b,a,b,a,a,a,b,a,b,a,0,a,0
a,0,a,b,a,b,a,b,b,b,a,b,a,0,a,0
a,0,a,b,a,b,a,b,a,a,a,b,a,0,a,0
a,0,a,b,a,b,a,b,a,0,a,b,a,0,a,0
a,0,a,b,b,b,a,b,a,b,a,b,a,0,a,0
a,0,a,a,a,a,a,b,a,b,a,b,a,0,a,a
a,0,b,b,b,b,b,b,a,b,b,b,a,0,0,a
a,a,a,a,a,a,a,a,a,a,a,a,a,a,0,a
0,0,0,0,0,0,0,0,0,0,0,0,0,0,0,a
0,0,0,0,0,0,0,0,0,a,a,a,a,a,a,a
WAL a
EXT 1,12 1j 0,15
PAL 3

ROOM 1j
a,a,a,a,a,a,a,a,a,a,a,a,a,a,a,0
a,0,0,0,0,0,0,0,0,0,0,0,0,0,a,0
a,0,a,a,a,a,a,a,a,a,a,a,a,0,a,0
a,0,a,b,b,b,b,b,b,b,b,b,a,0,a,0
a,0,a,b,a,a,a,a,a,a,a,b,a,0,a,0
a,0,a,b,a,b,b,b,b,b,a,b,a,0,a,0
a,0,a,b,a,b,a,a,a,b,a,b,a,0,a,0
a,0,a,b,a,b,a,b,b,b,a,b,a,0,a,0
a,0,a,b,a,b,a,b,a,a,a,b,a,0,a,0
a,0,a,b,a,b,a,b,a,0,a,b,a,0,a,0
a,0,a,b,b,b,a,b,a,b,a,b,a,0,a,0
a,0,a,a,a,a,a,b,a,b,a,b,a,0,a,a
a,b,b,b,b,b,b,b,a,b,b,b,a,0,0,a
a,a,a,a,a,a,a,a,a,a,a,a,a,a,0,a
0,0,0,0,0,0,0,0,0,0,0,0,0,0,0,a
0,0,0,0,0,0,0,0,0,a,a,a,a,a,a,a
WAL a
EXT 1,11 1k 0,15
PAL 3

ROOM 1k
a,a,a,a,a,a,a,a,a,a,a,a,a,a,a,0
a,0,0,0,0,0,0,0,0,0,0,0,0,0,a,0
a,0,a,a,a,a,a,a,a,a,a,a,a,0,a,0
a,0,a,b,b,b,b,b,b,b,b,b,a,0,a,0
a,0,a,b,a,a,a,a,a,a,a,b,a,0,a,0
a,0,a,b,a,b,b,b,b,b,a,b,a,0,a,0
a,0,a,b,a,b,a,a,a,b,a,b,a,0,a,0
a,0,a,b,a,b,a,b,b,b,a,b,a,0,a,0
a,0,a,b,a,b,a,b,a,a,a,b,a,0,a,0
a,0,a,b,a,b,a,b,a,0,a,b,a,0,a,0
a,0,a,b,b,b,a,b,a,b,a,b,a,0,a,0
a,b,a,a,a,a,a,b,a,b,a,b,a,0,a,a
a,b,b,b,b,b,b,b,a,b,b,b,a,0,0,a
a,a,a,a,a,a,a,a,a,a,a,a,a,a,0,a
0,0,0,0,0,0,0,0,0,0,0,0,0,0,0,a
0,0,0,0,0,0,0,0,0,a,a,a,a,a,a,a
WAL a
EXT 1,10 1l 0,15
PAL 3

ROOM 1l
a,a,a,a,a,a,a,a,a,a,a,a,a,a,a,0
a,0,0,0,0,0,0,0,0,0,0,0,0,0,a,0
a,0,a,a,a,a,a,a,a,a,a,a,a,0,a,0
a,0,a,b,b,b,b,b,b,b,b,b,a,0,a,0
a,0,a,b,a,a,a,a,a,a,a,b,a,0,a,0
a,0,a,b,a,b,b,b,b,b,a,b,a,0,a,0
a,0,a,b,a,b,a,a,a,b,a,b,a,0,a,0
a,0,a,b,a,b,a,b,b,b,a,b,a,0,a,0
a,0,a,b,a,b,a,b,a,a,a,b,a,0,a,0
a,0,a,b,a,b,a,b,a,0,a,b,a,0,a,0
a,b,a,b,b,b,a,b,a,b,a,b,a,0,a,0
a,b,a,a,a,a,a,b,a,b,a,b,a,0,a,a
a,b,b,b,b,b,b,b,a,b,b,b,a,0,0,a
a,a,a,a,a,a,a,a,a,a,a,a,a,a,0,a
0,0,0,0,0,0,0,0,0,0,0,0,0,0,0,a
0,0,0,0,0,0,0,0,0,a,a,a,a,a,a,a
WAL a
EXT 1,9 1m 0,15
PAL 3

ROOM 1m
a,a,a,a,a,a,a,a,a,a,a,a,a,a,a,0
a,0,0,0,0,0,0,0,0,0,0,0,0,0,a,0
a,0,a,a,a,a,a,a,a,a,a,a,a,0,a,0
a,0,a,b,b,b,b,b,b,b,b,b,a,0,a,0
a,0,a,b,a,a,a,a,a,a,a,b,a,0,a,0
a,0,a,b,a,b,b,b,b,b,a,b,a,0,a,0
a,0,a,b,a,b,a,a,a,b,a,b,a,0,a,0
a,0,a,b,a,b,a,b,b,b,a,b,a,0,a,0
a,0,a,b,a,b,a,b,a,a,a,b,a,0,a,0
a,b,a,b,a,b,a,b,a,0,a,b,a,0,a,0
a,b,a,b,b,b,a,b,a,b,a,b,a,0,a,0
a,b,a,a,a,a,a,b,a,b,a,b,a,0,a,a
a,b,b,b,b,b,b,b,a,b,b,b,a,0,0,a
a,a,a,a,a,a,a,a,a,a,a,a,a,a,0,a
0,0,0,0,0,0,0,0,0,0,0,0,0,0,0,a
0,0,0,0,0,0,0,0,0,a,a,a,a,a,a,a
WAL a
EXT 1,8 1n 0,15
PAL 3

ROOM 1n
a,a,a,a,a,a,a,a,a,a,a,a,a,a,a,0
a,0,0,0,0,0,0,0,0,0,0,0,0,0,a,0
a,0,a,a,a,a,a,a,a,a,a,a,a,0,a,0
a,0,a,b,b,b,b,b,b,b,b,b,a,0,a,0
a,0,a,b,a,a,a,a,a,a,a,b,a,0,a,0
a,0,a,b,a,b,b,b,b,b,a,b,a,0,a,0
a,0,a,b,a,b,a,a,a,b,a,b,a,0,a,0
a,0,a,b,a,b,a,b,b,b,a,b,a,0,a,0
a,b,a,b,a,b,a,b,a,a,a,b,a,0,a,0
a,b,a,b,a,b,a,b,a,0,a,b,a,0,a,0
a,b,a,b,b,b,a,b,a,b,a,b,a,0,a,0
a,b,a,a,a,a,a,b,a,b,a,b,a,0,a,a
a,b,b,b,b,b,b,b,a,b,b,b,a,0,0,a
a,a,a,a,a,a,a,a,a,a,a,a,a,a,0,a
0,0,0,0,0,0,0,0,0,0,0,0,0,0,0,a
0,0,0,0,0,0,0,0,0,a,a,a,a,a,a,a
WAL a
EXT 1,7 1o 0,15
PAL 3

ROOM 1o
a,a,a,a,a,a,a,a,a,a,a,a,a,a,a,0
a,0,0,0,0,0,0,0,0,0,0,0,0,0,a,0
a,0,a,a,a,a,a,a,a,a,a,a,a,0,a,0
a,0,a,b,b,b,b,b,b,b,b,b,a,0,a,0
a,0,a,b,a,a,a,a,a,a,a,b,a,0,a,0
a,0,a,b,a,b,b,b,b,b,a,b,a,0,a,0
a,0,a,b,a,b,a,a,a,b,a,b,a,0,a,0
a,b,a,b,a,b,a,b,b,b,a,b,a,0,a,0
a,b,a,b,a,b,a,b,a,a,a,b,a,0,a,0
a,b,a,b,a,b,a,b,a,0,a,b,a,0,a,0
a,b,a,b,b,b,a,b,a,b,a,b,a,0,a,0
a,b,a,a,a,a,a,b,a,b,a,b,a,0,a,a
a,b,b,b,b,b,b,b,a,b,b,b,a,0,0,a
a,a,a,a,a,a,a,a,a,a,a,a,a,a,0,a
0,0,0,0,0,0,0,0,0,0,0,0,0,0,0,a
0,0,0,0,0,0,0,0,0,a,a,a,a,a,a,a
WAL a
EXT 1,6 1p 0,15
PAL 3

ROOM 1p
a,a,a,a,a,a,a,a,a,a,a,a,a,a,a,0
a,0,0,0,0,0,0,0,0,0,0,0,0,0,a,0
a,0,a,a,a,a,a,a,a,a,a,a,a,0,a,0
a,0,a,b,b,b,b,b,b,b,b,b,a,0,a,0
a,0,a,b,a,a,a,a,a,a,a,b,a,0,a,0
a,0,a,b,a,b,b,b,b,b,a,b,a,0,a,0
a,b,a,b,a,b,a,a,a,b,a,b,a,0,a,0
a,b,a,b,a,b,a,b,b,b,a,b,a,0,a,0
a,b,a,b,a,b,a,b,a,a,a,b,a,0,a,0
a,b,a,b,a,b,a,b,a,0,a,b,a,0,a,0
a,b,a,b,b,b,a,b,a,b,a,b,a,0,a,0
a,b,a,a,a,a,a,b,a,b,a,b,a,0,a,a
a,b,b,b,b,b,b,b,a,b,b,b,a,0,0,a
a,a,a,a,a,a,a,a,a,a,a,a,a,a,0,a
0,0,0,0,0,0,0,0,0,0,0,0,0,0,0,a
0,0,0,0,0,0,0,0,0,a,a,a,a,a,a,a
WAL a
EXT 1,5 1q 0,15
PAL 3

ROOM 1q
a,a,a,a,a,a,a,a,a,a,a,a,a,a,a,0
a,0,0,0,0,0,0,0,0,0,0,0,0,0,a,0
a,0,a,a,a,a,a,a,a,a,a,a,a,0,a,0
a,0,a,b,b,b,b,b,b,b,b,b,a,0,a,0
a,0,a,b,a,a,a,a,a,a,a,b,a,0,a,0
a,b,a,b,a,b,b,b,b,b,a,b,a,0,a,0
a,b,a,b,a,b,a,a,a,b,a,b,a,0,a,0
a,b,a,b,a,b,a,b,b,b,a,b,a,0,a,0
a,b,a,b,a,b,a,b,a,a,a,b,a,0,a,0
a,b,a,b,a,b,a,b,a,0,a,b,a,0,a,0
a,b,a,b,b,b,a,b,a,b,a,b,a,0,a,0
a,b,a,a,a,a,a,b,a,b,a,b,a,0,a,a
a,b,b,b,b,b,b,b,a,b,b,b,a,0,0,a
a,a,a,a,a,a,a,a,a,a,a,a,a,a,0,a
0,0,0,0,0,0,0,0,0,0,0,0,0,0,0,a
0,0,0,0,0,0,0,0,0,a,a,a,a,a,a,a
WAL a
EXT 1,4 1r 0,15
PAL 3

ROOM 1r
a,a,a,a,a,a,a,a,a,a,a,a,a,a,a,0
a,0,0,0,0,0,0,0,0,0,0,0,0,0,a,0
a,0,a,a,a,a,a,a,a,a,a,a,a,0,a,0
a,0,a,b,b,b,b,b,b,b,b,b,a,0,a,0
a,b,a,b,a,a,a,a,a,a,a,b,a,0,a,0
a,b,a,b,a,b,b,b,b,b,a,b,a,0,a,0
a,b,a,b,a,b,a,a,a,b,a,b,a,0,a,0
a,b,a,b,a,b,a,b,b,b,a,b,a,0,a,0
a,b,a,b,a,b,a,b,a,a,a,b,a,0,a,0
a,b,a,b,a,b,a,b,a,0,a,b,a,0,a,0
a,b,a,b,b,b,a,b,a,b,a,b,a,0,a,0
a,b,a,a,a,a,a,b,a,b,a,b,a,0,a,a
a,b,b,b,b,b,b,b,a,b,b,b,a,0,0,a
a,a,a,a,a,a,a,a,a,a,a,a,a,a,0,a
0,0,0,0,0,0,0,0,0,0,0,0,0,0,0,a
0,0,0,0,0,0,0,0,0,a,a,a,a,a,a,a
WAL a
EXT 1,3 1s 0,15
PAL 3

ROOM 1s
a,a,a,a,a,a,a,a,a,a,a,a,a,a,a,0
a,0,0,0,0,0,0,0,0,0,0,0,0,0,a,0
a,0,a,a,a,a,a,a,a,a,a,a,a,0,a,0
a,b,a,b,b,b,b,b,b,b,b,b,a,0,a,0
a,b,a,b,a,a,a,a,a,a,a,b,a,0,a,0
a,b,a,b,a,b,b,b,b,b,a,b,a,0,a,0
a,b,a,b,a,b,a,a,a,b,a,b,a,0,a,0
a,b,a,b,a,b,a,b,b,b,a,b,a,0,a,0
a,b,a,b,a,b,a,b,a,a,a,b,a,0,a,0
a,b,a,b,a,b,a,b,a,0,a,b,a,0,a,0
a,b,a,b,b,b,a,b,a,b,a,b,a,0,a,0
a,b,a,a,a,a,a,b,a,b,a,b,a,0,a,a
a,b,b,b,b,b,b,b,a,b,b,b,a,0,0,a
a,a,a,a,a,a,a,a,a,a,a,a,a,a,0,a
0,0,0,0,0,0,0,0,0,0,0,0,0,0,0,a
0,0,0,0,0,0,0,0,0,a,a,a,a,a,a,a
WAL a
EXT 1,2 1t 0,15
PAL 3

ROOM 1t
a,a,a,a,a,a,a,a,a,a,a,a,a,a,a,0
a,0,0,0,0,0,0,0,0,0,0,0,0,0,a,0
a,b,a,a,a,a,a,a,a,a,a,a,a,0,a,0
a,b,a,b,b,b,b,b,b,b,b,b,a,0,a,0
a,b,a,b,a,a,a,a,a,a,a,b,a,0,a,0
a,b,a,b,a,b,b,b,b,b,a,b,a,0,a,0
a,b,a,b,a,b,a,a,a,b,a,b,a,0,a,0
a,b,a,b,a,b,a,b,b,b,a,b,a,0,a,0
a,b,a,b,a,b,a,b,a,a,a,b,a,0,a,0
a,b,a,b,a,b,a,b,a,0,a,b,a,0,a,0
a,b,a,b,b,b,a,b,a,b,a,b,a,0,a,0
a,b,a,a,a,a,a,b,a,b,a,b,a,0,a,a
a,b,b,b,b,b,b,b,a,b,b,b,a,0,0,a
a,a,a,a,a,a,a,a,a,a,a,a,a,a,0,a
0,0,0,0,0,0,0,0,0,0,0,0,0,0,0,a
0,0,0,0,0,0,0,0,0,a,a,a,a,a,a,a
WAL a
EXT 1,1 1u 0,15
PAL 3

ROOM 1u
a,a,a,a,a,a,a,a,a,a,a,a,a,a,a,0
a,b,0,0,0,0,0,0,0,0,0,0,0,0,a,0
a,b,a,a,a,a,a,a,a,a,a,a,a,0,a,0
a,b,a,b,b,b,b,b,b,b,b,b,a,0,a,0
a,b,a,b,a,a,a,a,a,a,a,b,a,0,a,0
a,b,a,b,a,b,b,b,b,b,a,b,a,0,a,0
a,b,a,b,a,b,a,a,a,b,a,b,a,0,a,0
a,b,a,b,a,b,a,b,b,b,a,b,a,0,a,0
a,b,a,b,a,b,a,b,a,a,a,b,a,0,a,0
a,b,a,b,a,b,a,b,a,0,a,b,a,0,a,0
a,b,a,b,b,b,a,b,a,b,a,b,a,0,a,0
a,b,a,a,a,a,a,b,a,b,a,b,a,0,a,a
a,b,b,b,b,b,b,b,a,b,b,b,a,0,0,a
a,a,a,a,a,a,a,a,a,a,a,a,a,a,0,a
0,0,0,0,0,0,0,0,0,0,0,0,0,0,0,a
0,0,0,0,0,0,0,0,0,a,a,a,a,a,a,a
WAL a
EXT 2,1 1v 0,15
PAL 3

ROOM 1v
a,a,a,a,a,a,a,a,a,a,a,a,a,a,a,0
a,b,b,0,0,0,0,0,0,0,0,0,0,0,a,0
a,b,a,a,a,a,a,a,a,a,a,a,a,0,a,0
a,b,a,b,b,b,b,b,b,b,b,b,a,0,a,0
a,b,a,b,a,a,a,a,a,a,a,b,a,0,a,0
a,b,a,b,a,b,b,b,b,b,a,b,a,0,a,0
a,b,a,b,a,b,a,a,a,b,a,b,a,0,a,0
a,b,a,b,a,b,a,b,b,b,a,b,a,0,a,0
a,b,a,b,a,b,a,b,a,a,a,b,a,0,a,0
a,b,a,b,a,b,a,b,a,0,a,b,a,0,a,0
a,b,a,b,b,b,a,b,a,b,a,b,a,0,a,0
a,b,a,a,a,a,a,b,a,b,a,b,a,0,a,a
a,b,b,b,b,b,b,b,a,b,b,b,a,0,0,a
a,a,a,a,a,a,a,a,a,a,a,a,a,a,0,a
0,0,0,0,0,0,0,0,0,0,0,0,0,0,0,a
0,0,0,0,0,0,0,0,0,a,a,a,a,a,a,a
WAL a
EXT 3,1 1w 0,15
PAL 3

ROOM 1w
a,a,a,a,a,a,a,a,a,a,a,a,a,a,a,0
a,b,b,b,0,0,0,0,0,0,0,0,0,0,a,0
a,b,a,a,a,a,a,a,a,a,a,a,a,0,a,0
a,b,a,b,b,b,b,b,b,b,b,b,a,0,a,0
a,b,a,b,a,a,a,a,a,a,a,b,a,0,a,0
a,b,a,b,a,b,b,b,b,b,a,b,a,0,a,0
a,b,a,b,a,b,a,a,a,b,a,b,a,0,a,0
a,b,a,b,a,b,a,b,b,b,a,b,a,0,a,0
a,b,a,b,a,b,a,b,a,a,a,b,a,0,a,0
a,b,a,b,a,b,a,b,a,0,a,b,a,0,a,0
a,b,a,b,b,b,a,b,a,b,a,b,a,0,a,0
a,b,a,a,a,a,a,b,a,b,a,b,a,0,a,a
a,b,b,b,b,b,b,b,a,b,b,b,a,0,0,a
a,a,a,a,a,a,a,a,a,a,a,a,a,a,0,a
0,0,0,0,0,0,0,0,0,0,0,0,0,0,0,a
0,0,0,0,0,0,0,0,0,a,a,a,a,a,a,a
WAL a
EXT 4,1 1x 0,15
PAL 3

ROOM 1x
a,a,a,a,a,a,a,a,a,a,a,a,a,a,a,0
a,b,b,b,b,0,0,0,0,0,0,0,0,0,a,0
a,b,a,a,a,a,a,a,a,a,a,a,a,0,a,0
a,b,a,b,b,b,b,b,b,b,b,b,a,0,a,0
a,b,a,b,a,a,a,a,a,a,a,b,a,0,a,0
a,b,a,b,a,b,b,b,b,b,a,b,a,0,a,0
a,b,a,b,a,b,a,a,a,b,a,b,a,0,a,0
a,b,a,b,a,b,a,b,b,b,a,b,a,0,a,0
a,b,a,b,a,b,a,b,a,a,a,b,a,0,a,0
a,b,a,b,a,b,a,b,a,0,a,b,a,0,a,0
a,b,a,b,b,b,a,b,a,b,a,b,a,0,a,0
a,b,a,a,a,a,a,b,a,b,a,b,a,0,a,a
a,b,b,b,b,b,b,b,a,b,b,b,a,0,0,a
a,a,a,a,a,a,a,a,a,a,a,a,a,a,0,a
0,0,0,0,0,0,0,0,0,0,0,0,0,0,0,a
0,0,0,0,0,0,0,0,0,a,a,a,a,a,a,a
WAL a
EXT 5,1 1y 0,15
PAL 3

ROOM 1y
a,a,a,a,a,a,a,a,a,a,a,a,a,a,a,0
a,b,b,b,b,b,0,0,0,0,0,0,0,0,a,0
a,b,a,a,a,a,a,a,a,a,a,a,a,0,a,0
a,b,a,b,b,b,b,b,b,b,b,b,a,0,a,0
a,b,a,b,a,a,a,a,a,a,a,b,a,0,a,0
a,b,a,b,a,b,b,b,b,b,a,b,a,0,a,0
a,b,a,b,a,b,a,a,a,b,a,b,a,0,a,0
a,b,a,b,a,b,a,b,b,b,a,b,a,0,a,0
a,b,a,b,a,b,a,b,a,a,a,b,a,0,a,0
a,b,a,b,a,b,a,b,a,0,a,b,a,0,a,0
a,b,a,b,b,b,a,b,a,b,a,b,a,0,a,0
a,b,a,a,a,a,a,b,a,b,a,b,a,0,a,a
a,b,b,b,b,b,b,b,a,b,b,b,a,0,0,a
a,a,a,a,a,a,a,a,a,a,a,a,a,a,0,a
0,0,0,0,0,0,0,0,0,0,0,0,0,0,0,a
0,0,0,0,0,0,0,0,0,a,a,a,a,a,a,a
WAL a
EXT 6,1 1z 0,15
PAL 3

ROOM 1z
a,a,a,a,a,a,a,a,a,a,a,a,a,a,a,0
a,b,b,b,b,b,b,0,0,0,0,0,0,0,a,0
a,b,a,a,a,a,a,a,a,a,a,a,a,0,a,0
a,b,a,b,b,b,b,b,b,b,b,b,a,0,a,0
a,b,a,b,a,a,a,a,a,a,a,b,a,0,a,0
a,b,a,b,a,b,b,b,b,b,a,b,a,0,a,0
a,b,a,b,a,b,a,a,a,b,a,b,a,0,a,0
a,b,a,b,a,b,a,b,b,b,a,b,a,0,a,0
a,b,a,b,a,b,a,b,a,a,a,b,a,0,a,0
a,b,a,b,a,b,a,b,a,0,a,b,a,0,a,0
a,b,a,b,b,b,a,b,a,b,a,b,a,0,a,0
a,b,a,a,a,a,a,b,a,b,a,b,a,0,a,a
a,b,b,b,b,b,b,b,a,b,b,b,a,0,0,a
a,a,a,a,a,a,a,a,a,a,a,a,a,a,0,a
0,0,0,0,0,0,0,0,0,0,0,0,0,0,0,a
0,0,0,0,0,0,0,0,0,a,a,a,a,a,a,a
WAL a
EXT 7,1 20 0,15
PAL 3

ROOM 2a
a,a,a,a,a,a,a,a,a,a,a,a,a,a,a,0
a,b,b,b,b,b,b,b,b,b,b,b,b,b,a,0
a,b,a,a,a,a,a,a,a,a,a,a,a,b,a,0
a,b,a,b,b,b,b,b,b,b,b,b,a,b,a,0
a,b,a,b,a,a,a,a,a,a,a,b,a,b,a,0
a,b,a,b,a,b,b,b,b,b,a,b,a,b,a,0
a,b,a,b,a,b,a,a,a,b,a,b,a,0,a,0
a,b,a,b,a,b,a,b,b,b,a,b,a,0,a,0
a,b,a,b,a,b,a,b,a,a,a,b,a,0,a,0
a,b,a,b,a,b,a,b,a,0,a,b,a,0,a,0
a,b,a,b,b,b,a,b,a,b,a,b,a,0,a,0
a,b,a,a,a,a,a,b,a,b,a,b,a,0,a,a
a,b,b,b,b,b,b,b,a,b,b,b,a,0,0,a
a,a,a,a,a,a,a,a,a,a,a,a,a,a,0,a
0,0,0,0,0,0,0,0,0,0,0,0,0,0,0,a
0,0,0,0,0,0,0,0,0,a,a,a,a,a,a,a
WAL a
EXT 13,6 2b 0,15
PAL 4

ROOM 2b
a,a,a,a,a,a,a,a,a,a,a,a,a,a,a,0
a,b,b,b,b,b,b,b,b,b,b,b,b,b,a,0
a,b,a,a,a,a,a,a,a,a,a,a,a,b,a,0
a,b,a,b,b,b,b,b,b,b,b,b,a,b,a,0
a,b,a,b,a,a,a,a,a,a,a,b,a,b,a,0
a,b,a,b,a,b,b,b,b,b,a,b,a,b,a,0
a,b,a,b,a,b,a,a,a,b,a,b,a,b,a,0
a,b,a,b,a,b,a,b,b,b,a,b,a,0,a,0
a,b,a,b,a,b,a,b,a,a,a,b,a,0,a,0
a,b,a,b,a,b,a,b,a,0,a,b,a,0,a,0
a,b,a,b,b,b,a,b,a,b,a,b,a,0,a,0
a,b,a,a,a,a,a,b,a,b,a,b,a,0,a,a
a,b,b,b,b,b,b,b,a,b,b,b,a,0,0,a
a,a,a,a,a,a,a,a,a,a,a,a,a,a,0,a
0,0,0,0,0,0,0,0,0,0,0,0,0,0,0,a
0,0,0,0,0,0,0,0,0,a,a,a,a,a,a,a
WAL a
EXT 13,7 2c 0,15
PAL 4

ROOM 2c
a,a,a,a,a,a,a,a,a,a,a,a,a,a,a,0
a,b,b,b,b,b,b,b,b,b,b,b,b,b,a,0
a,b,a,a,a,a,a,a,a,a,a,a,a,b,a,0
a,b,a,b,b,b,b,b,b,b,b,b,a,b,a,0
a,b,a,b,a,a,a,a,a,a,a,b,a,b,a,0
a,b,a,b,a,b,b,b,b,b,a,b,a,b,a,0
a,b,a,b,a,b,a,a,a,b,a,b,a,b,a,0
a,b,a,b,a,b,a,b,b,b,a,b,a,b,a,0
a,b,a,b,a,b,a,b,a,a,a,b,a,0,a,0
a,b,a,b,a,b,a,b,a,0,a,b,a,0,a,0
a,b,a,b,b,b,a,b,a,b,a,b,a,0,a,0
a,b,a,a,a,a,a,b,a,b,a,b,a,0,a,a
a,b,b,b,b,b,b,b,a,b,b,b,a,0,0,a
a,a,a,a,a,a,a,a,a,a,a,a,a,a,0,a
0,0,0,0,0,0,0,0,0,0,0,0,0,0,0,a
0,0,0,0,0,0,0,0,0,a,a,a,a,a,a,a
WAL a
EXT 13,8 2d 0,15
PAL 4

ROOM 2d
a,a,a,a,a,a,a,a,a,a,a,a,a,a,a,0
a,b,b,b,b,b,b,b,b,b,b,b,b,b,a,0
a,b,a,a,a,a,a,a,a,a,a,a,a,b,a,0
a,b,a,b,b,b,b,b,b,b,b,b,a,b,a,0
a,b,a,b,a,a,a,a,a,a,a,b,a,b,a,0
a,b,a,b,a,b,b,b,b,b,a,b,a,b,a,0
a,b,a,b,a,b,a,a,a,b,a,b,a,b,a,0
a,b,a,b,a,b,a,b,b,b,a,b,a,b,a,0
a,b,a,b,a,b,a,b,a,a,a,b,a,b,a,0
a,b,a,b,a,b,a,b,a,0,a,b,a,0,a,0
a,b,a,b,b,b,a,b,a,b,a,b,a,0,a,0
a,b,a,a,a,a,a,b,a,b,a,b,a,0,a,a
a,b,b,b,b,b,b,b,a,b,b,b,a,0,0,a
a,a,a,a,a,a,a,a,a,a,a,a,a,a,0,a
0,0,0,0,0,0,0,0,0,0,0,0,0,0,0,a
0,0,0,0,0,0,0,0,0,a,a,a,a,a,a,a
WAL a
EXT 13,9 2e 0,15
PAL 4

ROOM 2e
a,a,a,a,a,a,a,a,a,a,a,a,a,a,a,0
a,b,b,b,b,b,b,b,b,b,b,b,b,b,a,0
a,b,a,a,a,a,a,a,a,a,a,a,a,b,a,0
a,b,a,b,b,b,b,b,b,b,b,b,a,b,a,0
a,b,a,b,a,a,a,a,a,a,a,b,a,b,a,0
a,b,a,b,a,b,b,b,b,b,a,b,a,b,a,0
a,b,a,b,a,b,a,a,a,b,a,b,a,b,a,0
a,b,a,b,a,b,a,b,b,b,a,b,a,b,a,0
a,b,a,b,a,b,a,b,a,a,a,b,a,b,a,0
a,b,a,b,a,b,a,b,a,0,a,b,a,b,a,0
a,b,a,b,b,b,a,b,a,b,a,b,a,0,a,0
a,b,a,a,a,a,a,b,a,b,a,b,a,0,a,a
a,b,b,b,b,b,b,b,a,b,b,b,a,0,0,a
a,a,a,a,a,a,a,a,a,a,a,a,a,a,0,a
0,0,0,0,0,0,0,0,0,0,0,0,0,0,0,a
0,0,0,0,0,0,0,0,0,a,a,a,a,a,a,a
WAL a
EXT 13,10 2f 0,15
PAL 4

ROOM 2f
a,a,a,a,a,a,a,a,a,a,a,a,a,a,a,0
a,b,b,b,b,b,b,b,b,b,b,b,b,b,a,0
a,b,a,a,a,a,a,a,a,a,a,a,a,b,a,0
a,b,a,b,b,b,b,b,b,b,b,b,a,b,a,0
a,b,a,b,a,a,a,a,a,a,a,b,a,b,a,0
a,b,a,b,a,b,b,b,b,b,a,b,a,b,a,0
a,b,a,b,a,b,a,a,a,b,a,b,a,b,a,0
a,b,a,b,a,b,a,b,b,b,a,b,a,b,a,0
a,b,a,b,a,b,a,b,a,a,a,b,a,b,a,0
a,b,a,b,a,b,a,b,a,0,a,b,a,b,a,0
a,b,a,b,b,b,a,b,a,b,a,b,a,b,a,0
a,b,a,a,a,a,a,b,a,b,a,b,a,0,a,a
a,b,b,b,b,b,b,b,a,b,b,b,a,0,0,a
a,a,a,a,a,a,a,a,a,a,a,a,a,a,0,a
0,0,0,0,0,0,0,0,0,0,0,0,0,0,0,a
0,0,0,0,0,0,0,0,0,a,a,a,a,a,a,a
WAL a
EXT 13,11 2g 0,15
PAL 4

ROOM 2g
a,a,a,a,a,a,a,a,a,a,a,a,a,a,a,0
a,b,b,b,b,b,b,b,b,b,b,b,b,b,a,0
a,b,a,a,a,a,a,a,a,a,a,a,a,b,a,0
a,b,a,b,b,b,b,b,b,b,b,b,a,b,a,0
a,b,a,b,a,a,a,a,a,a,a,b,a,b,a,0
a,b,a,b,a,b,b,b,b,b,a,b,a,b,a,0
a,b,a,b,a,b,a,a,a,b,a,b,a,b,a,0
a,b,a,b,a,b,a,b,b,b,a,b,a,b,a,0
a,b,a,b,a,b,a,b,a,a,a,b,a,b,a,0
a,b,a,b,a,b,a,b,a,0,a,b,a,b,a,0
a,b,a,b,b,b,a,b,a,b,a,b,a,b,a,0
a,b,a,a,a,a,a,b,a,b,a,b,a,b,a,a
a,b,b,b,b,b,b,b,a,b,b,b,a,0,0,a
a,a,a,a,a,a,a,a,a,a,a,a,a,a,0,a
0,0,0,0,0,0,0,0,0,0,0,0,0,0,0,a
0,0,0,0,0,0,0,0,0,a,a,a,a,a,a,a
WAL a
EXT 13,12 2h 0,15
PAL 4

ROOM 2h
a,a,a,a,a,a,a,a,a,a,a,a,a,a,a,0
a,b,b,b,b,b,b,b,b,b,b,b,b,b,a,0
a,b,a,a,a,a,a,a,a,a,a,a,a,b,a,0
a,b,a,b,b,b,b,b,b,b,b,b,a,b,a,0
a,b,a,b,a,a,a,a,a,a,a,b,a,b,a,0
a,b,a,b,a,b,b,b,b,b,a,b,a,b,a,0
a,b,a,b,a,b,a,a,a,b,a,b,a,b,a,0
a,b,a,b,a,b,a,b,b,b,a,b,a,b,a,0
a,b,a,b,a,b,a,b,a,a,a,b,a,b,a,0
a,b,a,b,a,b,a,b,a,0,a,b,a,b,a,0
a,b,a,b,b,b,a,b,a,b,a,b,a,b,a,0
a,b,a,a,a,a,a,b,a,b,a,b,a,b,a,a
a,b,b,b,b,b,b,b,a,b,b,b,a,b,0,a
a,a,a,a,a,a,a,a,a,a,a,a,a,a,0,a
0,0,0,0,0,0,0,0,0,0,0,0,0,0,0,a
0,0,0,0,0,0,0,0,0,a,a,a,a,a,a,a
WAL a
EXT 14,12 2i 0,15
PAL 4

ROOM 2i
a,a,a,a,a,a,a,a,a,a,a,a,a,a,a,0
a,b,b,b,b,b,b,b,b,b,b,b,b,b,a,0
a,b,a,a,a,a,a,a,a,a,a,a,a,b,a,0
a,b,a,b,b,b,b,b,b,b,b,b,a,b,a,0
a,b,a,b,a,a,a,a,a,a,a,b,a,b,a,0
a,b,a,b,a,b,b,b,b,b,a,b,a,b,a,0
a,b,a,b,a,b,a,a,a,b,a,b,a,b,a,0
a,b,a,b,a,b,a,b,b,b,a,b,a,b,a,0
a,b,a,b,a,b,a,b,a,a,a,b,a,b,a,0
a,b,a,b,a,b,a,b,a,0,a,b,a,b,a,0
a,b,a,b,b,b,a,b,a,b,a,b,a,b,a,0
a,b,a,a,a,a,a,b,a,b,a,b,a,b,a,a
a,b,b,b,b,b,b,b,a,b,b,b,a,b,b,a
a,a,a,a,a,a,a,a,a,a,a,a,a,a,0,a
0,0,0,0,0,0,0,0,0,0,0,0,0,0,0,a
0,0,0,0,0,0,0,0,0,a,a,a,a,a,a,a
WAL a
EXT 14,13 2j 0,15
PAL 4

ROOM 2j
a,a,a,a,a,a,a,a,a,a,a,a,a,a,a,0
a,b,b,b,b,b,b,b,b,b,b,b,b,b,a,0
a,b,a,a,a,a,a,a,a,a,a,a,a,b,a,0
a,b,a,b,b,b,b,b,b,b,b,b,a,b,a,0
a,b,a,b,a,a,a,a,a,a,a,b,a,b,a,0
a,b,a,b,a,b,b,b,b,b,a,b,a,b,a,0
a,b,a,b,a,b,a,a,a,b,a,b,a,b,a,0
a,b,a,b,a,b,a,b,b,b,a,b,a,b,a,0
a,b,a,b,a,b,a,b,a,a,a,b,a,b,a,0
a,b,a,b,a,b,a,b,a,0,a,b,a,b,a,0
a,b,a,b,b,b,a,b,a,b,a,b,a,b,a,0
a,b,a,a,a,a,a,b,a,b,a,b,a,b,a,a
a,b,b,b,b,b,b,b,a,b,b,b,a,b,b,a
a,a,a,a,a,a,a,a,a,a,a,a,a,a,b,a
0,0,0,0,0,0,0,0,0,0,0,0,0,0,0,a
0,0,0,0,0,0,0,0,0,a,a,a,a,a,a,a
WAL a
EXT 14,14 2k 0,15
PAL 4

ROOM 2k
a,a,a,a,a,a,a,a,a,a,a,a,a,a,a,0
a,b,b,b,b,b,b,b,b,b,b,b,b,b,a,0
a,b,a,a,a,a,a,a,a,a,a,a,a,b,a,0
a,b,a,b,b,b,b,b,b,b,b,b,a,b,a,0
a,b,a,b,a,a,a,a,a,a,a,b,a,b,a,0
a,b,a,b,a,b,b,b,b,b,a,b,a,b,a,0
a,b,a,b,a,b,a,a,a,b,a,b,a,b,a,0
a,b,a,b,a,b,a,b,b,b,a,b,a,b,a,0
a,b,a,b,a,b,a,b,a,a,a,b,a,b,a,0
a,b,a,b,a,b,a,b,a,0,a,b,a,b,a,0
a,b,a,b,b,b,a,b,a,b,a,b,a,b,a,0
a,b,a,a,a,a,a,b,a,b,a,b,a,b,a,a
a,b,b,b,b,b,b,b,a,b,b,b,a,b,b,a
a,a,a,a,a,a,a,a,a,a,a,a,a,a,b,a
0,0,0,0,0,0,0,0,0,0,0,0,0,0,b,a
0,0,0,0,0,0,0,0,0,a,a,a,a,a,a,a
WAL a
EXT 13,14 2l 0,15
PAL 4

ROOM 2l
a,a,a,a,a,a,a,a,a,a,a,a,a,a,a,0
a,b,b,b,b,b,b,b,b,b,b,b,b,b,a,0
a,b,a,a,a,a,a,a,a,a,a,a,a,b,a,0
a,b,a,b,b,b,b,b,b,b,b,b,a,b,a,0
a,b,a,b,a,a,a,a,a,a,a,b,a,b,a,0
a,b,a,b,a,b,b,b,b,b,a,b,a,b,a,0
a,b,a,b,a,b,a,a,a,b,a,b,a,b,a,0
a,b,a,b,a,b,a,b,b,b,a,b,a,b,a,0
a,b,a,b,a,b,a,b,a,a,a,b,a,b,a,0
a,b,a,b,a,b,a,b,a,0,a,b,a,b,a,0
a,b,a,b,b,b,a,b,a,b,a,b,a,b,a,0
a,b,a,a,a,a,a,b,a,b,a,b,a,b,a,a
a,b,b,b,b,b,b,b,a,b,b,b,a,b,b,a
a,a,a,a,a,a,a,a,a,a,a,a,a,a,b,a
0,0,0,0,0,0,0,0,0,0,0,0,0,b,b,a
0,0,0,0,0,0,0,0,0,a,a,a,a,a,a,a
WAL a
EXT 12,14 2m 0,15
PAL 4

ROOM 2m
a,a,a,a,a,a,a,a,a,a,a,a,a,a,a,0
a,b,b,b,b,b,b,b,b,b,b,b,b,b,a,0
a,b,a,a,a,a,a,a,a,a,a,a,a,b,a,0
a,b,a,b,b,b,b,b,b,b,b,b,a,b,a,0
a,b,a,b,a,a,a,a,a,a,a,b,a,b,a,0
a,b,a,b,a,b,b,b,b,b,a,b,a,b,a,0
a,b,a,b,a,b,a,a,a,b,a,b,a,b,a,0
a,b,a,b,a,b,a,b,b,b,a,b,a,b,a,0
a,b,a,b,a,b,a,b,a,a,a,b,a,b,a,0
a,b,a,b,a,b,a,b,a,0,a,b,a,b,a,0
a,b,a,b,b,b,a,b,a,b,a,b,a,b,a,0
a,b,a,a,a,a,a,b,a,b,a,b,a,b,a,a
a,b,b,b,b,b,b,b,a,b,b,b,a,b,b,a
a,a,a,a,a,a,a,a,a,a,a,a,a,a,b,a
0,0,0,0,0,0,0,0,0,0,0,0,b,b,b,a
0,0,0,0,0,0,0,0,0,a,a,a,a,a,a,a
WAL a
EXT 11,14 2n 0,15
PAL 4

ROOM 2n
a,a,a,a,a,a,a,a,a,a,a,a,a,a,a,0
a,b,b,b,b,b,b,b,b,b,b,b,b,b,a,0
a,b,a,a,a,a,a,a,a,a,a,a,a,b,a,0
a,b,a,b,b,b,b,b,b,b,b,b,a,b,a,0
a,b,a,b,a,a,a,a,a,a,a,b,a,b,a,0
a,b,a,b,a,b,b,b,b,b,a,b,a,b,a,0
a,b,a,b,a,b,a,a,a,b,a,b,a,b,a,0
a,b,a,b,a,b,a,b,b,b,a,b,a,b,a,0
a,b,a,b,a,b,a,b,a,a,a,b,a,b,a,0
a,b,a,b,a,b,a,b,a,0,a,b,a,b,a,0
a,b,a,b,b,b,a,b,a,b,a,b,a,b,a,0
a,b,a,a,a,a,a,b,a,b,a,b,a,b,a,a
a,b,b,b,b,b,b,b,a,b,b,b,a,b,b,a
a,a,a,a,a,a,a,a,a,a,a,a,a,a,b,a
0,0,0,0,0,0,0,0,0,0,0,b,b,b,b,a
0,0,0,0,0,0,0,0,0,a,a,a,a,a,a,a
WAL a
EXT 10,14 2o 0,15
PAL 4

ROOM 2o
a,a,a,a,a,a,a,a,a,a,a,a,a,a,a,0
a,b,b,b,b,b,b,b,b,b,b,b,b,b,a,0
a,b,a,a,a,a,a,a,a,a,a,a,a,b,a,0
a,b,a,b,b,b,b,b,b,b,b,b,a,b,a,0
a,b,a,b,a,a,a,a,a,a,a,b,a,b,a,0
a,b,a,b,a,b,b,b,b,b,a,b,a,b,a,0
a,b,a,b,a,b,a,a,a,b,a,b,a,b,a,0
a,b,a,b,a,b,a,b,b,b,a,b,a,b,a,0
a,b,a,b,a,b,a,b,a,a,a,b,a,b,a,0
a,b,a,b,a,b,a,b,a,0,a,b,a,b,a,0
a,b,a,b,b,b,a,b,a,b,a,b,a,b,a,0
a,b,a,a,a,a,a,b,a,b,a,b,a,b,a,a
a,b,b,b,b,b,b,b,a,b,b,b,a,b,b,a
a,a,a,a,a,a,a,a,a,a,a,a,a,a,b,a
0,0,0,0,0,0,0,0,0,0,b,b,b,b,b,a
0,0,0,0,0,0,0,0,0,a,a,a,a,a,a,a
WAL a
EXT 9,14 2p 0,15
PAL 4

ROOM 2p
a,a,a,a,a,a,a,a,a,a,a,a,a,a,a,0
a,b,b,b,b,b,b,b,b,b,b,b,b,b,a,0
a,b,a,a,a,a,a,a,a,a,a,a,a,b,a,0
a,b,a,b,b,b,b,b,b,b,b,b,a,b,a,0
a,b,a,b,a,a,a,a,a,a,a,b,a,b,a,0
a,b,a,b,a,b,b,b,b,b,a,b,a,b,a,0
a,b,a,b,a,b,a,a,a,b,a,b,a,b,a,0
a,b,a,b,a,b,a,b,b,b,a,b,a,b,a,0
a,b,a,b,a,b,a,b,a,a,a,b,a,b,a,0
a,b,a,b,a,b,a,b,a,0,a,b,a,b,a,0
a,b,a,b,b,b,a,b,a,b,a,b,a,b,a,0
a,b,a,a,a,a,a,b,a,b,a,b,a,b,a,a
a,b,b,b,b,b,b,b,a,b,b,b,a,b,b,a
a,a,a,a,a,a,a,a,a,a,a,a,a,a,b,a
0,0,0,0,0,0,0,0,0,0,b,b,b,b,b,a
0,0,0,0,0,0,0,0,0,a,a,a,a,a,a,a
WAL a
PAL 4

TIL a
01000100
11010110
11111110
11111110
11010110
01010100
00010000
00010000

TIL b
00000000
00000000
00011000
01011000
01010011
01111111
00010011
00101000

SPR 10
10000100
11111100
10101000
11111110
01111001
01011100
01010010
01001001
>
10000100
11111100
10101000
11111100
01111010
01011001
11010100
00010010
POS p 9,9

SPR 11
10000100
11111100
10101000
11111110
01111001
01011100
01010010
01001001
>
10000100
11111100
10101000
11111100
01111010
01011001
11010100
00010010
POS q 9,9

SPR 12
10000100
11111100
10101000
11111110
01111001
01011100
01010010
01001001
>
10000100
11111100
10101000
11111100
01111010
01011001
11010100
00010010
POS r 9,9

SPR 13
10000100
11111100
10101000
11111110
01111001
01011100
01010010
01001001
>
10000100
11111100
10101000
11111100
01111010
01011001
11010100
00010010
POS s 9,9

SPR 14
10000100
11111100
10101000
11111110
01111001
01011100
01010010
01001001
>
10000100
11111100
10101000
11111100
01111010
01011001
11010100
00010010
POS t 9,9

SPR 15
10000100
11111100
10101000
11111110
01111001
01011100
01010010
01001001
>
10000100
11111100
10101000
11111100
01111010
01011001
11010100
00010010
POS u 9,9

SPR 16
10000100
11111100
10101000
11111110
01111001
01011100
01010010
01001001
>
10000100
11111100
10101000
11111100
01111010
01011001
11010100
00010010
POS v 9,9

SPR 17
10000100
11111100
10101000
11111110
01111001
01011100
01010010
01001001
>
10000100
11111100
10101000
11111100
01111010
01011001
11010100
00010010
POS w 9,9

SPR 18
10000100
11111100
10101000
11111110
01111001
01011100
01010010
01001001
>
10000100
11111100
10101000
11111100
01111010
01011001
11010100
00010010
POS x 9,9

SPR 19
10000100
11111100
10101000
11111110
01111001
01011100
01010010
01001001
>
10000100
11111100
10101000
11111100
01111010
01011001
11010100
00010010
POS y 9,9

SPR 20
10000100
11111100
10101000
11111110
01111001
01011100
01010010
01001001
>
10000100
11111100
10101000
11111100
01111010
01011001
11010100
00010010
POS 1n 9,9

SPR 21
10000100
11111100
10101000
11111110
01111001
01011100
01010010
01001001
>
10000100
11111100
10101000
11111100
01111010
01011001
11010100
00010010
POS 1o 9,9

SPR 22
10000100
11111100
10101000
11111110
01111001
01011100
01010010
01001001
>
10000100
11111100
10101000
11111100
01111010
01011001
11010100
00010010
POS 1p 9,9

SPR 23
10000100
11111100
10101000
11111110
01111001
01011100
01010010
01001001
>
10000100
11111100
10101000
11111100
01111010
01011001
11010100
00010010
POS 1q 9,9

SPR 24
10000100
11111100
10101000
11111110
01111001
01011100
01010010
01001001
>
10000100
11111100
10101000
11111100
01111010
01011001
11010100
00010010
POS 1r 9,9

SPR 25
10000100
11111100
10101000
11111110
01111001
01011100
01010010
01001001
>
10000100
11111100
10101000
11111100
01111010
01011001
11010100
00010010
POS 1s 9,9

SPR 26
10000100
11111100
10101000
11111110
01111001
01011100
01010010
01001001
>
10000100
11111100
10101000
11111100
01111010
01011001
11010100
00010010
POS 1t 9,9

SPR 27
10000100
11111100
10101000
11111110
01111001
01011100
01010010
01001001
>
10000100
11111100
10101000
11111100
01111010
01011001
11010100
00010010
POS 1u 9,9

SPR 28
10000100
11111100
10101000
11111110
01111001
01011100
01010010
01001001
>
10000100
11111100
10101000
11111100
01111010
01011001
11010100
00010010
POS 1v 9,9

SPR 29
10000100
11111100
10101000
11111110
01111001
01011100
01010010
01001001
>
10000100
11111100
10101000
11111100
01111010
01011001
11010100
00010010
POS 1w 9,9

SPR 30
10000100
11111100
10101000
11111110
01111001
01011100
01010010
01001001
>
10000100
11111100
10101000
11111100
01111010
01011001
11010100
00010010
POS 2n 9,9

SPR 31
10000100
11111100
10101000
11111110
01111001
01011100
01010010
01001001
>
10000100
11111100
10101000
11111100
01111010
01011001
11010100
00010010
POS 2o 9,9

SPR 32
10000100
11111100
10101000
11111110
01111001
01011100
01010010
01001001
>
10000100
11111100
10101000
11111100
01111010
01011001
11010100
00010010
POS 2p 9,9

SPR 33
00000000
00000000
00011000
01011000
01010011
01111111
00010011
00101000
POS 2p 9,14

SPR A
00000000
00000000
00011000
01011000
01010011
01111111
00010011
00101000
>
00000000
00011000
01011000
01010011
01111111
00010011
00101000
00101000
POS 0 0,15

SPR d
10000100
11111100
10101000
11111110
01111001
01011100
01010010
01001001
>
10000100
11111100
10101000
11111100
01111010
01011001
11010100
00010010
POS 2 9,9

SPR e
10000100
11111100
10101000
11111110
01111001
01011100
01010010
01001001
>
10000100
11111100
10101000
11111100
01111010
01011001
11010100
00010010
POS 3 9,9

SPR f
10000100
11111100
10101000
11111110
01111001
01011100
01010010
01001001
>
10000100
11111100
10101000
11111100
01111010
01011001
11010100
00010010
POS 4 9,9

SPR g
10000100
11111100
10101000
11111110
01111001
01011100
01010010
01001001
>
10000100
11111100
10101000
11111100
01111010
01011001
11010100
00010010
POS 5 9,9

SPR h
10000100
11111100
10101000
11111110
01111001
01011100
01010010
01001001
>
10000100
11111100
10101000
11111100
01111010
01011001
11010100
00010010
POS 6 9,9

SPR i
10000100
11111100
10101000
11111110
01111001
01011100
01010010
01001001
>
10000100
11111100
10101000
11111100
01111010
01011001
11010100
00010010
POS 7 9,9

SPR j
10000100
11111100
10101000
11111110
01111001
01011100
01010010
01001001
>
10000100
11111100
10101000
11111100
01111010
01011001
11010100
00010010
POS 8 9,9

SPR k
10000100
11111100
10101000
11111110
01111001
01011100
01010010
01001001
>
10000100
11111100
10101000
11111100
01111010
01011001
11010100
00010010
POS 9 9,9

SPR l
10000100
11111100
10101000
11111110
01111001
01011100
01010010
01001001
>
10000100
11111100
10101000
11111100
01111010
01011001
11010100
00010010
POS a 9,9

SPR m
10000100
11111100
10101000
11111110
01111001
01011100
01010010
01001001
>
10000100
11111100
10101000
11111100
01111010
01011001
11010100
00010010
POS b 9,9

SPR n
10000100
11111100
10101000
11111110
01111001
01011100
01010010
01001001
>
10000100
11111100
10101000
11111100
01111010
01011001
11010100
00010010
POS c 9,9

SPR o
10000100
11111100
10101000
11111110
01111001
01011100
01010010
01001001
>
10000100
11111100
10101000
11111100
01111010
01011001
11010100
00010010
POS d 9,9

SPR p
10000100
11111100
10101000
11111110
01111001
01011100
01010010
01001001
>
10000100
11111100
10101000
11111100
01111010
01011001
11010100
00010010
POS e 9,9

SPR q
10000100
11111100
10101000
11111110
01111001
01011100
01010010
01001001
>
10000100
11111100
10101000
11111100
01111010
01011001
11010100
00010010
POS f 9,9

SPR r
10000100
11111100
10101000
11111110
01111001
01011100
01010010
01001001
>
10000100
11111100
10101000
11111100
01111010
01011001
11010100
00010010
POS g 9,9

SPR s
10000100
11111100
10101000
11111110
01111001
01011100
01010010
01001001
>
10000100
11111100
10101000
11111100
01111010
01011001
11010100
00010010
POS h 9,9

SPR t
10000100
11111100
10101000
11111110
01111001
01011100
01010010
01001001
>
10000100
11111100
10101000
11111100
01111010
01011001
11010100
00010010
POS i 9,9

SPR u
10000100
11111100
10101000
11111110
01111001
01011100
01010010
01001001
>
10000100
11111100
10101000
11111100
01111010
01011001
11010100
00010010
POS j 9,9

SPR v
10000100
11111100
10101000
11111110
01111001
01011100
01010010
01001001
>
10000100
11111100
10101000
11111100
01111010
01011001
11010100
00010010
POS k 9,9

SPR w
10000100
11111100
10101000
11111110
01111001
01011100
01010010
01001001
>
10000100
11111100
10101000
11111100
01111010
01011001
11010100
00010010
POS l 9,9

SPR x
10000100
11111100
10101000
11111110
01111001
01011100
01010010
01001001
>
10000100
11111100
10101000
11111100
01111010
01011001
11010100
00010010
POS m 9,9

SPR y
10000100
11111100
10101000
11111110
01111001
01011100
01010010
01001001
>
10000100
11111100
10101000
11111100
01111010
01011001
11010100
00010010
POS n 9,9

SPR z
10000100
11111100
10101000
11111110
01111001
01011100
01010010
01001001
>
10000100
11111100
10101000
11111100
01111010
01011001
11010100
00010010
POS o 9,9

SPR 1a
10000100
11111100
10101000
11111110
01111001
01011100
01010010
01001001
>
10000100
11111100
10101000
11111100
01111010
01011001
11010100
00010010
POS z 9,9

SPR 1b
10000100
11111100
10101000
11111110
01111001
01011100
01010010
01001001
>
10000100
11111100
10101000
11111100
01111010
01011001
11010100
00010010
POS 10 9,9

SPR 1c
10000100
11111100
10101000
11111110
01111001
01011100
01010010
01001001
>
10000100
11111100
10101000
11111100
01111010
01011001
11010100
00010010
POS 11 9,9

SPR 1d
10000100
11111100
10101000
11111110
01111001
01011100
01010010
01001001
>
10000100
11111100
10101000
11111100
01111010
01011001
11010100
00010010
POS 12 9,9

SPR 1e
10000100
11111100
10101000
11111110
01111001
01011100
01010010
01001001
>
10000100
11111100
10101000
11111100
01111010
01011001
11010100
00010010
POS 0 9,9

SPR 1f
10000100
11111100
10101000
11111110
01111001
01011100
01010010
01001001
>
10000100
11111100
10101000
11111100
01111010
01011001
11010100
00010010
POS 1 9,9

SPR 1g
10000100
11111100
10101000
11111110
01111001
01011100
01010010
01001001
>
10000100
11111100
10101000
11111100
01111010
01011001
11010100
00010010
POS 13 9,9

SPR 1h
10000100
11111100
10101000
11111110
01111001
01011100
01010010
01001001
>
10000100
11111100
10101000
11111100
01111010
01011001
11010100
00010010
POS 14 9,9

SPR 1i
10000100
11111100
10101000
11111110
01111001
01011100
01010010
01001001
>
10000100
11111100
10101000
11111100
01111010
01011001
11010100
00010010
POS 15 9,9

SPR 1j
10000100
11111100
10101000
11111110
01111001
01011100
01010010
01001001
>
10000100
11111100
10101000
11111100
01111010
01011001
11010100
00010010
POS 16 9,9

SPR 1k
10000100
11111100
10101000
11111110
01111001
01011100
01010010
01001001
>
10000100
11111100
10101000
11111100
01111010
01011001
11010100
00010010
POS 17 9,9

SPR 1l
10000100
11111100
10101000
11111110
01111001
01011100
01010010
01001001
>
10000100
11111100
10101000
11111100
01111010
01011001
11010100
00010010
POS 18 9,9

SPR 1m
10000100
11111100
10101000
11111110
01111001
01011100
01010010
01001001
>
10000100
11111100
10101000
11111100
01111010
01011001
11010100
00010010
POS 19 9,9

SPR 1n
10000100
11111100
10101000
11111110
01111001
01011100
01010010
01001001
>
10000100
11111100
10101000
11111100
01111010
01011001
11010100
00010010
POS 1a 9,9

SPR 1o
10000100
11111100
10101000
11111110
01111001
01011100
01010010
01001001
>
10000100
11111100
10101000
11111100
01111010
01011001
11010100
00010010
POS 1b 9,9

SPR 1p
10000100
11111100
10101000
11111110
01111001
01011100
01010010
01001001
>
10000100
11111100
10101000
11111100
01111010
01011001
11010100
00010010
POS 1c 9,9

SPR 1q
10000100
11111100
10101000
11111110
01111001
01011100
01010010
01001001
>
10000100
11111100
10101000
11111100
01111010
01011001
11010100
00010010
POS 1d 9,9

SPR 1r
10000100
11111100
10101000
11111110
01111001
01011100
01010010
01001001
>
10000100
11111100
10101000
11111100
01111010
01011001
11010100
00010010
POS 1e 9,9

SPR 1s
10000100
11111100
10101000
11111110
01111001
01011100
01010010
01001001
>
10000100
11111100
10101000
11111100
01111010
01011001
11010100
00010010
POS 1f 9,9

SPR 1t
10000100
11111100
10101000
11111110
01111001
01011100
01010010
01001001
>
10000100
11111100
10101000
11111100
01111010
01011001
11010100
00010010
POS 1g 9,9

SPR 1u
10000100
11111100
10101000
11111110
01111001
01011100
01010010
01001001
>
10000100
11111100
10101000
11111100
01111010
01011001
11010100
00010010
POS 1h 9,9

SPR 1v
10000100
11111100
10101000
11111110
01111001
01011100
01010010
01001001
>
10000100
11111100
10101000
11111100
01111010
01011001
11010100
00010010
POS 1i 9,9

SPR 1w
10000100
11111100
10101000
11111110
01111001
01011100
01010010
01001001
>
10000100
11111100
10101000
11111100
01111010
01011001
11010100
00010010
POS 1j 9,9

SPR 1x
10000100
11111100
10101000
11111110
01111001
01011100
01010010
01001001
>
10000100
11111100
10101000
11111100
01111010
01011001
11010100
00010010
POS 1k 9,9

SPR 1y
10000100
11111100
10101000
11111110
01111001
01011100
01010010
01001001
>
10000100
11111100
10101000
11111100
01111010
01011001
11010100
00010010
POS 1l 9,9

SPR 1z
10000100
11111100
10101000
11111110
01111001
01011100
01010010
01001001
>
10000100
11111100
10101000
11111100
01111010
01011001
11010100
00010010
POS 1m 9,9

SPR 2a
10000100
11111100
10101000
11111110
01111001
01011100
01010010
01001001
>
10000100
11111100
10101000
11111100
01111010
01011001
11010100
00010010
POS 1x 9,9

SPR 2b
10000100
11111100
10101000
11111110
01111001
01011100
01010010
01001001
>
10000100
11111100
10101000
11111100
01111010
01011001
11010100
00010010
POS 1y 9,9

SPR 2c
10000100
11111100
10101000
11111110
01111001
01011100
01010010
01001001
>
10000100
11111100
10101000
11111100
01111010
01011001
11010100
00010010
POS 1z 9,9

SPR 2d
10000100
11111100
10101000
11111110
01111001
01011100
01010010
01001001
>
10000100
11111100
10101000
11111100
01111010
01011001
11010100
00010010
POS 20 9,9

SPR 2e
10000100
11111100
10101000
11111110
01111001
01011100
01010010
01001001
>
10000100
11111100
10101000
11111100
01111010
01011001
11010100
00010010
POS 21 9,9

SPR 2f
10000100
11111100
10101000
11111110
01111001
01011100
01010010
01001001
>
10000100
11111100
10101000
11111100
01111010
01011001
11010100
00010010
POS 22 9,9

SPR 2g
10000100
11111100
10101000
11111110
01111001
01011100
01010010
01001001
>
10000100
11111100
10101000
11111100
01111010
01011001
11010100
00010010
POS 23 9,9

SPR 2h
10000100
11111100
10101000
11111110
01111001
01011100
01010010
01001001
>
10000100
11111100
10101000
11111100
01111010
01011001
11010100
00010010
POS 24 9,9

SPR 2i
10000100
11111100
10101000
11111110
01111001
01011100
01010010
01001001
>
10000100
11111100
10101000
11111100
01111010
01011001
11010100
00010010
POS 25 9,9

SPR 2j
10000100
11111100
10101000
11111110
01111001
01011100
01010010
01001001
>
10000100
11111100
10101000
11111100
01111010
01011001
11010100
00010010
POS 26 9,9

SPR 2k
10000100
11111100
10101000
11111110
01111001
01011100
01010010
01001001
>
10000100
11111100
10101000
11111100
01111010
01011001
11010100
00010010
POS 27 9,9

SPR 2l
10000100
11111100
10101000
11111110
01111001
01011100
01010010
01001001
>
10000100
11111100
10101000
11111100
01111010
01011001
11010100
00010010
POS 28 9,9

SPR 2m
10000100
11111100
10101000
11111110
01111001
01011100
01010010
01001001
>
10000100
11111100
10101000
11111100
01111010
01011001
11010100
00010010
POS 29 9,9

SPR 2n
10000100
11111100
10101000
11111110
01111001
01011100
01010010
01001001
>
10000100
11111100
10101000
11111100
01111010
01011001
11010100
00010010
POS 2a 9,9

SPR 2o
10000100
11111100
10101000
11111110
01111001
01011100
01010010
01001001
>
10000100
11111100
10101000
11111100
01111010
01011001
11010100
00010010
POS 2b 9,9

SPR 2p
10000100
11111100
10101000
11111110
01111001
01011100
01010010
01001001
>
10000100
11111100
10101000
11111100
01111010
01011001
11010100
00010010
POS 2c 9,9

SPR 2q
10000100
11111100
10101000
11111110
01111001
01011100
01010010
01001001
>
10000100
11111100
10101000
11111100
01111010
01011001
11010100
00010010
POS 2d 9,9

SPR 2r
10000100
11111100
10101000
11111110
01111001
01011100
01010010
01001001
>
10000100
11111100
10101000
11111100
01111010
01011001
11010100
00010010
POS 2e 9,9

SPR 2s
10000100
11111100
10101000
11111110
01111001
01011100
01010010
01001001
>
10000100
11111100
10101000
11111100
01111010
01011001
11010100
00010010
POS 2f 9,9

SPR 2t
10000100
11111100
10101000
11111110
01111001
01011100
01010010
01001001
>
10000100
11111100
10101000
11111100
01111010
01011001
11010100
00010010
POS 2g 9,9

SPR 2u
10000100
11111100
10101000
11111110
01111001
01011100
01010010
01001001
>
10000100
11111100
10101000
11111100
01111010
01011001
11010100
00010010
POS 2h 9,9

SPR 2v
10000100
11111100
10101000
11111110
01111001
01011100
01010010
01001001
>
10000100
11111100
10101000
11111100
01111010
01011001
11010100
00010010
POS 2i 9,9

SPR 2w
10000100
11111100
10101000
11111110
01111001
01011100
01010010
01001001
>
10000100
11111100
10101000
11111100
01111010
01011001
11010100
00010010
POS 2j 9,9

SPR 2x
10000100
11111100
10101000
11111110
01111001
01011100
01010010
01001001
>
10000100
11111100
10101000
11111100
01111010
01011001
11010100
00010010
POS 2k 9,9

SPR 2y
10000100
11111100
10101000
11111110
01111001
01011100
01010010
01001001
>
10000100
11111100
10101000
11111100
01111010
01011001
11010100
00010010
POS 2l 9,9

SPR 2z
10000100
11111100
10101000
11111110
01111001
01011100
01010010
01001001
>
10000100
11111100
10101000
11111100
01111010
01011001
11010100
00010010
POS 2m 9,9

DLG 33
You cannot enter the labyrinth because it is full of corpses.

DLG a


DLG b


END 0


