
Jessica's Maze......

# BITSY VERSION 4.6

! ROOM_FORMAT 1

PAL 0
40,194,204
255,44,222
248,255,74

ROOM 0
0,0,0,0,0,0,0,0,0,0,0,0,0,0,0,0
0,b,b,b,b,b,b,b,b,b,b,b,b,b,b,0
0,a,0,0,0,0,a,0,0,0,0,0,0,0,a,0
0,a,a,a,a,a,a,0,0,0,a,a,a,0,a,0
0,a,a,0,0,0,0,0,0,0,a,0,0,0,a,0
0,a,a,a,a,a,0,a,a,a,a,0,0,0,a,0
0,a,0,0,0,a,0,a,0,0,0,0,0,0,a,0
0,a,b,b,0,a,0,a,0,a,a,a,a,a,a,0
0,a,0,b,0,a,0,a,0,a,0,0,0,0,0,0
0,a,0,b,0,a,a,a,0,a,0,0,0,0,0,0
0,a,0,0,0,0,0,0,0,a,0,0,a,a,a,0
0,a,0,b,0,0,0,0,0,0,0,0,0,0,a,0
0,a,b,b,0,0,b,0,0,b,0,0,0,0,a,0
0,a,0,0,0,0,b,0,0,b,0,0,0,0,a,0
0,b,b,b,b,b,b,b,b,b,b,b,b,b,b,0
0,0,0,0,0,0,0,0,0,0,0,0,0,0,0,0
ITM 0 12,12
ITM 0 2,11
ITM 0 3,4
ITM 0 12,4
EXT 14,8 1 0,8
EXT 14,9 1 0,7
PAL 0

ROOM 1
a,a,a,a,a,a,a,a,a,a,a,a,a,a,a,a
a,0,0,0,0,0,0,0,0,0,0,0,0,0,a,a
a,0,0,a,a,a,a,a,a,a,a,a,a,0,a,a
a,0,0,a,0,0,0,0,0,0,0,0,a,0,a,a
a,0,0,a,0,a,a,a,a,a,a,0,a,0,a,a
a,0,0,a,0,a,a,0,0,a,a,0,a,0,a,a
a,a,a,a,0,a,a,a,a,a,a,0,a,0,a,a
0,0,0,0,0,a,0,0,0,0,a,0,a,0,a,a
0,0,0,0,0,a,a,a,a,a,a,a,a,0,a,a
a,0,a,0,0,0,0,0,0,0,0,0,a,0,a,a
a,0,a,0,a,a,0,0,0,0,a,0,a,0,a,a
a,0,a,0,a,a,a,a,a,a,a,0,0,0,0,a
a,0,a,a,a,0,0,0,0,0,0,0,0,0,0,a
a,0,0,0,a,a,a,a,a,a,a,a,a,0,0,a
a,0,0,0,0,0,0,0,0,0,0,0,a,0,0,a
a,a,a,a,a,a,a,a,a,a,a,a,a,a,c,a
ITM 1 10,1
EXT 0,8 0 14,8
END undefined 14,14
PAL 0

TIL a
11111111
11000011
10100101
10011001
10011001
10100101
11000011
11111111
WAL true

TIL b
11111111
10100101
10111101
10011001
11111111
10000001
11100111
11111111
WAL true

TIL c
00000000
00000000
00011000
00111100
00111100
00110100
00111100
00111100

SPR A
00011000
00011000
00011000
00111100
01111110
10111101
00100100
00100100
>
00011000
00011000
00011000
10111101
01111110
00111100
00100100
00100100
POS 0 2,9

SPR a
01110000
10101000
00100001
01110011
00110010
01111100
00111100
00100100
DLG SPR_0
POS 0 8,12

SPR b
00000000
00000000
00111110
00100010
00111110
01110111
00110110
00110110
DLG SPR_1

SPR c
00000000
01110000
01110000
00100000
11111000
10101000
00100000
11111000
DLG SPR_2
POS 1 8,10

ITM 0
00000000
00000000
00000000
00111100
01100100
00100100
00011000
00000000
NAME tea
DLG ITM_0

ITM 1
00000000
00000000
00111000
00100110
00100010
00111110
00011000
00100100
DLG ITM_1

DLG SPR_0
i am a alien .

DLG SPR_1
i am a human .

DLG SPR_2
i will eat you.

DLG ITM_1
you have found me i will help you find the ending it is in one of the corners. 

DLG ITM_0
"""
1 point tea.{
  - {item "tea"} > 3 ?
    you have drunk all the tea.....
  - else ?

}
"""

END 0


END undefined
you have done well but i will get you.

VAR a
42


