For Alanna

# BITSY VERSION 3.1

! ROOM_FORMAT 1

PAL 0
57,106,42
113,248,148
255,255,255

ROOM 0
0,0,0,0,0,0,0,0,0,0,0,0,0,0,0,0
0,0,c,0,0,0,0,0,d,0,0,0,0,0,d,0
0,0,0,0,0,0,0,0,0,0,0,0,0,0,0,0
0,0,0,0,d,0,0,0,0,0,0,0,0,0,0,0
0,d,0,0,0,0,0,0,0,0,0,0,0,0,0,0
0,0,0,0,0,0,0,0,0,0,0,0,0,d,0,0
b,b,b,b,b,b,b,b,b,b,b,b,b,b,b,b
0,0,0,0,0,0,0,0,0,0,0,0,0,0,0,0
a,0,0,0,0,a,0,0,0,0,0,0,a,0,0,0
0,a,a,0,0,0,0,0,0,a,0,0,0,0,a,0
0,0,0,0,0,0,0,a,0,0,a,0,0,0,0,0
0,0,0,0,0,0,0,0,0,0,0,a,0,0,0,0
0,a,0,0,0,0,0,0,0,0,0,0,0,0,0,0
0,0,0,a,0,0,0,0,0,0,0,0,0,0,a,0
0,0,0,0,a,0,0,0,0,a,0,0,0,0,0,0
0,0,0,0,0,0,0,0,0,0,0,0,0,0,0,0
WAL b
END undefined 15,7
END undefined 15,8
END undefined 15,9
END undefined 15,10
END undefined 15,11
END undefined 15,12
END undefined 15,13
END undefined 15,14
END undefined 15,15
END undefined 14,15
END undefined 13,15
END undefined 12,15
END undefined 11,15
END undefined 10,15
END undefined 9,15
END undefined 8,15
END undefined 7,15
END undefined 6,15
END undefined 5,15
END undefined 4,15
END undefined 3,15
END undefined 2,15
END undefined 1,15
END undefined 0,15
END undefined 0,14
END undefined 0,12
END undefined 0,13
END undefined 0,11
END undefined 0,10
END undefined 0,9
END undefined 0,8
END undefined 0,7
PAL 0

TIL a
00000000
00000000
00001010
00000100
00010100
00100100
00100000
00000000

TIL b
00000000
00000000
00000000
00000000
11111111
00000000
00000000
00000000

TIL c
00111100
00001110
00000110
00000111
00000111
00000110
00001110
00111100

TIL d
00000000
00000000
00000000
00001000
00000000
00000000
00000000
00000000
>
00000000
00000000
00001000
00010100
00001000
00000000
00000000
00000000

SPR A
00011000
00011000
00011000
00111100
01111110
10111101
00100100
00100100
POS 0 4,10

SPR a
00000000
00000000
01010001
01110001
01110010
01111100
00111100
00100100
POS 0 8,12

DLG a
Hello Alanna. Scratch behind my ears please. *Purrrr*

END 0


END undefined
Have a beautiful day. Find love in the eyes of those around you.

