
cruising

# BITSY VERSION 4.8

! ROOM_FORMAT 1

PAL 0
204,30,181
117,219,255
255,254,4

PAL 1
53,151,255
255,50,63
255,225,1

PAL 2
NAME blue
255,230,221
56,93,255
2,115,15

ROOM 0
0,0,0,0,0,0,0,0,0,0,0,0,0,0,0,0
0,a,a,a,a,0,0,a,a,a,a,a,a,a,a,0
0,a,c,c,c,0,c,c,a,a,a,a,a,a,a,0
0,a,c,c,c,0,c,c,a,a,0,0,a,a,a,0
0,a,c,c,c,0,c,c,a,a,0,0,a,a,a,0
0,a,c,c,c,0,c,c,a,a,b,b,a,a,a,0
0,a,c,c,c,0,c,c,a,a,b,b,a,a,a,0
0,a,c,c,c,0,c,c,c,a,b,b,b,a,a,0
0,a,0,0,0,0,0,0,0,a,b,b,b,b,a,0
0,a,0,0,0,0,0,0,0,0,0,0,0,0,a,0
0,a,0,0,0,0,0,0,0,0,0,0,0,0,a,0
0,a,0,c,c,c,0,0,0,0,0,0,0,0,a,0
0,a,0,c,c,c,0,0,0,0,0,0,0,0,a,0
0,a,0,0,0,0,0,0,0,0,0,0,0,0,a,0
0,a,a,a,a,a,a,a,a,a,a,a,a,a,a,0
0,0,0,0,0,0,0,0,0,0,0,0,0,0,0,0
NAME 1
EXT 5,1 1 6,14
PAL 0

ROOM 1
0,0,0,0,0,0,0,0,0,0,0,0,0,0,0,0
0,0,0,0,0,0,c,c,0,c,0,0,0,0,0,0
0,0,0,c,c,c,c,0,0,c,0,0,0,0,0,0
0,0,c,c,c,0,0,0,0,c,0,0,0,0,0,0
0,0,c,c,0,0,0,0,c,c,c,0,0,0,0,0
0,c,c,0,0,0,0,0,c,c,c,0,0,0,0,0
0,c,c,0,0,d,0,d,0,c,c,c,0,0,0,0
c,c,0,0,0,0,0,0,0,0,c,c,c,0,0,0
c,0,0,d,0,d,0,d,0,0,c,c,c,0,0,0
c,0,0,0,0,0,0,0,0,0,c,c,c,0,0,0
0,c,0,0,0,d,0,d,0,0,c,c,c,c,0,0
0,c,c,0,0,0,0,0,c,c,c,c,c,c,0,0
0,0,c,c,0,0,0,0,c,c,c,c,0,0,0,0
0,0,0,c,c,0,0,0,c,c,c,0,0,0,0,0
0,0,0,0,c,c,0,c,c,c,0,0,0,0,0,0
0,0,0,0,0,0,0,0,0,0,0,0,0,0,0,0
NAME 2
EXT 8,1 2 6,15
PAL 1

ROOM 2
c,c,c,c,c,c,c,c,c,c,c,c,c,c,c,c
c,c,0,0,0,0,0,0,0,0,0,0,0,c,c,c
c,0,0,0,0,0,0,0,0,0,0,0,0,0,0,c
0,0,0,0,0,0,0,0,0,0,0,0,0,0,0,0
c,0,0,0,0,0,0,0,0,0,0,0,0,0,0,c
c,0,0,0,0,0,0,0,0,0,0,0,0,0,0,c
c,0,0,0,0,0,0,0,0,0,0,0,0,0,0,c
c,0,0,e,0,0,0,0,0,0,0,0,0,0,c,c
c,c,0,0,0,0,0,0,0,0,0,0,0,0,c,c
c,c,c,0,0,0,e,0,0,0,0,0,c,c,c,c
c,c,c,0,e,0,0,0,0,e,0,0,c,c,c,c
c,c,c,0,0,0,0,0,0,0,0,c,c,c,c,c
c,c,c,c,b,b,b,b,b,c,c,c,c,c,c,c
0,0,0,0,0,b,b,b,0,0,0,0,0,0,0,0
0,0,0,0,0,b,b,b,0,0,0,0,0,0,0,0
0,0,0,0,0,0,b,0,0,0,0,0,0,0,0,0
NAME 3
EXT 0,3 3 15,3
EXT 15,3 5 0,4
PAL 2

ROOM 3
c,c,c,c,c,c,c,c,c,c,c,c,c,c,c,c
c,c,c,c,c,c,c,c,c,c,c,c,c,c,c,c
c,c,c,c,c,c,c,c,c,c,c,c,c,c,c,c
0,0,0,0,0,0,0,0,0,0,0,0,0,0,0,0
0,0,0,0,0,0,0,0,0,0,0,c,c,c,c,c
0,0,d,0,d,0,d,0,d,0,0,0,c,c,c,c
0,0,0,0,0,0,0,0,0,0,0,0,0,0,0,c
0,d,0,d,0,d,0,d,0,d,0,0,0,0,0,0
0,0,0,0,0,0,0,0,0,0,0,0,0,0,0,0
0,0,d,0,d,0,d,0,d,0,0,f,f,f,0,0
0,0,0,0,0,0,0,0,0,0,0,f,g,f,0,0
0,0,0,0,0,0,0,0,0,0,0,f,b,f,0,0
0,0,0,0,0,0,0,0,0,0,0,0,b,0,0,0
0,0,0,0,0,0,0,0,0,0,0,0,0,0,0,0
0,0,0,0,0,0,0,0,0,0,0,0,0,0,0,0
0,0,0,0,0,0,0,0,0,0,0,0,0,0,0,0
NAME 4
EXT 12,10 4 8,13
PAL 2

ROOM 4
0,0,0,0,0,0,0,0,0,0,0,0,0,0,0,0
0,0,0,0,0,0,f,f,f,f,f,f,0,0,0,0
0,0,0,0,0,f,f,0,0,0,0,f,f,0,0,0
0,0,0,0,f,0,0,0,0,0,0,0,f,0,0,0
0,0,0,0,f,0,0,0,0,f,f,f,f,f,0,0
0,0,0,0,f,0,0,0,0,0,0,0,0,f,f,0
0,0,0,0,f,0,0,0,0,0,0,0,0,0,f,0
0,0,0,0,f,f,f,f,f,b,f,f,f,f,f,0
0,0,0,0,f,0,0,0,0,0,0,0,0,0,f,0
0,0,0,0,f,0,0,0,0,0,0,0,0,f,f,0
0,0,0,0,f,0,0,0,0,0,0,0,0,f,0,0
0,0,0,0,f,0,0,0,0,0,0,0,f,0,0,0
0,0,0,0,f,0,0,0,0,0,0,0,f,0,0,0
0,0,0,0,f,f,f,f,g,f,f,f,f,0,0,0
0,0,0,0,0,0,0,0,0,0,0,0,0,0,0,0
0,0,0,0,0,0,0,0,0,0,0,0,0,0,0,0
NAME 5
ITM 0 6,5
EXT 8,13 3 12,11
PAL 0

ROOM 5
c,c,c,c,c,c,c,c,c,c,c,c,c,c,c,c
c,c,c,c,c,c,c,c,c,c,c,c,c,c,c,c
c,c,c,c,c,c,c,c,c,c,c,0,0,0,0,0
c,c,c,c,c,c,c,c,c,c,0,0,0,0,0,0
0,0,0,0,0,0,0,0,0,0,0,0,0,0,0,0
c,c,c,0,0,0,0,0,0,0,0,0,0,0,0,0
c,c,c,c,0,0,0,0,0,0,0,0,0,0,0,0
0,0,0,0,0,0,0,0,0,0,0,0,0,0,0,0
0,0,0,0,0,0,d,0,0,d,0,0,0,0,0,0
0,0,0,0,0,0,0,0,0,0,0,0,0,0,0,0
0,0,0,d,0,0,0,0,0,0,0,0,0,0,0,0
0,0,0,0,0,0,0,0,0,0,0,0,0,0,0,0
0,0,0,0,0,0,0,d,0,0,0,0,0,0,0,0
0,0,0,0,0,0,0,0,0,0,0,d,0,0,0,0
0,0,0,0,d,0,0,0,0,0,0,0,0,0,0,0
0,0,0,0,0,0,0,0,0,0,0,0,0,0,0,0
NAME 6
EXT 0,4 2 15,3
PAL 1

TIL a
11101111
11010011
10011001
10011001
10011001
11100111
11100111
11111111
>
00001000
00111100
01110110
01100110
01101110
00011000
00011000
00000000
NAME clove
WAL true

TIL b
11111111
00000000
11111111
00000000
11111111
00000000
11111111
00000000
NAME stair
WAL false

TIL c
00000010
00001101
00000000
00010000
01101100
00000000
00000000
00000010
>
00000000
01000000
00000000
00000010
00001101
00000000
00100000
11010000
NAME water
WAL true

TIL d
00111100
01000010
10011001
10111101
10011001
10011001
10000001
11111111
NAME grave

TIL e
00000000
00100000
00000010
01000000
00001000
00000100
00010000
00000000
NAME grass

TIL f
11111111
10000001
10000001
10000001
10000001
10000001
10000001
11111111
NAME building1
WAL true

TIL g
00000000
01111110
01111110
01111110
01111110
01111110
01111110
01111110
NAME door

SPR A
00100100
01000010
01011010
01111110
11111110
00111101
00100100
00100100
>
00100100
01000010
01011010
01111110
01111111
10111100
00100100
00100100
POS 0 11,3
ITM 0 1

SPR a
01110000
01010000
01010001
01110001
01110010
01111100
00111100
00100100
>
00000000
01110000
01010001
01110001
01110010
01111100
00111100
00100100
DLG SPR_0
POS 0 8,11

SPR b
00000000
10000000
00111100
01000010
11111111
10011001
10011001
11111111
>
00000010
00111100
01000010
11111111
10011001
10011001
11111111
00000000
NAME radio
POS 2 8,6

SPR c
01110000
01010000
01010001
01010001
01110010
00011000
01111100
10100100
>
00000000
01110000
01010000
01010000
01110010
10011100
01111100
00100100
NAME boy1
DLG SPR_2
POS 2 10,6

SPR d
01111001
10000100
10010110
10110101
10010101
10000001
01010101
10101010
NAME ghost
DLG SPR_1
POS 1 6,7

SPR e
01110000
01010000
01010001
01010001
01110010
00011000
01111100
10100100
>
00000000
01110000
01010000
01010000
01110010
10011100
01111100
00100100
NAME boy2
DLG SPR_5
POS 2 7,5

SPR f
01110000
01010000
01010001
01110001
01110010
01111100
00111100
00100100
>
00000000
01110000
01010001
01110001
01110010
01111100
00111100
00100100
NAME cat2
DLG SPR_6
POS 3 7,8

SPR g
11111000
01010000
01010001
01110001
01110010
01111100
00111100
00100100
>
00000000
11111000
01010000
01110001
01110010
01111100
00111100
00100100
NAME barguy
DLG SPR_7
POS 4 11,3

SPR h
01110000
01110000
01010001
01010001
01110010
01011100
00111100
00100100
>
00000000
01110000
01010000
01110001
01010010
01111100
00111100
00100100
NAME beachguy
DLG SPR_8
POS 5 9,9

ITM 0
00000000
00111100
00100100
00111100
01100100
00100100
00011000
00000000
NAME beer
DLG ITM_0

DLG SPR_0
{shk}There are no RNG gods.{shk}{shk}Just G O D god.{shk}

DLG SPR_1
"""
I would ask you for seven orbs, but I know they don't exist.{shuffle
  - Seven orbs, heaven shmorbs...
  - Get outta here...!
}
"""

DLG SPR_2
"""
{sequence
  - my boyfriend broke up with me because i did an earthbound speedrun.
  - it's his favorite game
}
"""

DLG SPR_3
"""
{sequence
  - we're boyfriends now.
  - we make out on the beach all the time
  - please leave
}
"""

DLG SPR_4
we're boyfriends now. we make out on the

DLG SPR_5
we're boyfriends now. we make out on the beach all the time. pls leave.

DLG SPR_6
I've been thinking a lot about final fantasy 15 lately. I'm glad that there is a game about bro love and all but it feels like a missed opportunity to express male-male love. tho i never played any of the dlc...

DLG SPR_7
It's hard to find someone who gets you. It's hard to find someone who's Eva theories match with yours, and who thinks that the purity of modernism is evil like you do.

DLG ITM_0
picked up beer even tho you're only 19

DLG SPR_8
"""
my grandma is buried here.{
  - {item "beer"} <= 1 ?
    hey you've got beer? let's hook up. (nice!)
  - else ?
    whatever
}
"""

VAR a
42


