Moon Harvest

# BITSY VERSION 5.3

! ROOM_FORMAT 1

PAL 0
58,145,158
0,0,0
255,72,224

PAL 1
48,73,74
0,0,0
255,72,224

PAL 2
0,0,0
255,72,224
9,153,2

ROOM 1
a,a,a,a,a,a,a,a,a,a,a,a,a,a,a,a
a,a,a,a,a,a,a,a,a,a,h,a,a,a,a,a
a,h,a,a,a,a,a,a,a,a,a,a,a,a,a,a
a,a,a,a,a,a,a,a,a,a,a,a,a,a,a,a
a,a,a,a,a,a,a,a,a,a,a,a,a,a,a,a
a,a,a,a,a,a,a,a,a,a,a,a,a,h,a,a
a,a,a,a,a,a,a,a,a,a,a,a,a,a,a,a
a,a,a,a,a,a,a,a,a,a,a,a,a,a,a,a
a,b,g,c,d,e,f,0,0,f,e,d,c,g,b,a
0,0,0,j,0,0,0,0,0,i,0,0,j,0,0,0
i,0,0,0,0,0,0,0,0,0,0,0,0,0,0,0
0,q,r,0,0,j,0,k,k,k,k,k,k,k,k,0
0,o,p,0,0,0,0,0,13,13,13,13,13,13,l,0
0,0,0,0,0,0,0,m,13,13,13,13,13,13,l,0
0,0,0,0,0,0,0,k,k,k,k,k,k,k,k,0
0,i,0,0,0,0,0,0,0,0,0,0,0,0,0,0
EXT 8,12 3 9,12
PAL 0

ROOM 2
a,a,a,a,a,a,a,a,a,a,a,a,a,a,a,a
a,a,a,a,a,a,a,a,a,a,a,a,a,a,a,a
a,a,a,a,a,a,a,a,a,a,a,a,a,a,a,a
a,a,s,s,s,s,s,s,s,s,s,s,s,s,a,a
a,a,s,s,s,s,s,s,s,s,s,s,w,s,a,a
a,a,s,s,s,s,s,s,s,s,s,s,x,s,a,a
a,a,s,s,s,s,s,s,s,s,s,s,s,s,a,a
a,a,s,s,s,s,12,0,11,s,s,s,s,s,a,a
a,a,s,s,s,s,y,z,10,s,s,s,s,s,a,a
a,a,s,s,s,s,s,s,s,s,s,s,s,s,a,a
a,a,s,s,s,s,s,s,s,s,s,s,s,s,a,a
a,a,s,s,s,s,s,s,s,s,s,s,s,s,a,a
a,a,a,a,a,a,a,t,a,a,a,a,a,a,a,a
a,a,a,a,a,a,a,a,a,a,a,a,a,a,a,a
a,a,a,a,a,a,a,a,a,a,a,a,a,a,a,a
a,a,a,a,a,a,a,a,a,a,a,a,a,a,a,a
EXT 7,12 1 2,13
PAL 0

ROOM 3
a,a,a,a,a,a,a,a,a,a,a,a,a,a,a,a
a,a,a,a,a,a,a,a,a,a,h,a,a,a,a,a
a,h,a,a,a,a,a,a,a,a,a,a,a,a,a,a
a,a,a,a,a,a,a,a,a,a,a,a,a,a,a,a
a,a,a,a,a,a,a,a,a,a,a,a,a,a,a,a
a,a,a,a,a,a,a,a,a,a,a,a,a,h,a,a
a,a,a,a,a,a,a,a,a,a,a,a,a,a,a,a
a,a,a,a,a,a,a,a,a,a,a,a,a,a,a,a
a,b,g,c,d,e,f,0,0,f,e,d,c,g,b,a
0,0,0,j,0,0,0,0,0,i,0,0,j,0,0,0
i,0,0,0,0,0,0,0,0,0,0,0,0,0,0,0
0,q,r,0,0,j,0,k,k,k,k,k,k,k,k,0
0,o,p,0,0,0,0,0,13,13,13,13,13,13,l,0
0,0,0,0,0,0,0,m,13,13,13,13,13,13,l,0
0,0,0,0,0,0,0,k,k,k,k,k,k,k,k,0
0,i,0,0,0,0,0,0,0,0,0,0,0,0,0,0
EXT 10,12 4 10,12
PAL 0

ROOM 4
a,a,a,a,a,a,a,a,a,a,a,a,a,a,a,a
a,a,a,a,a,a,a,a,a,a,h,a,a,a,a,a
a,h,a,a,a,a,a,a,a,a,a,a,a,a,a,a
a,a,a,a,a,a,a,a,a,a,a,a,a,a,a,a
a,a,a,a,a,a,a,a,a,a,a,a,a,a,a,a
a,a,a,a,a,a,a,a,a,a,a,a,a,h,a,a
a,a,a,a,a,a,a,a,a,a,a,a,a,a,a,a
a,a,a,a,a,a,a,a,a,a,a,a,a,a,a,a
a,b,g,c,d,e,f,0,0,f,e,d,c,g,b,a
0,0,0,j,0,0,0,0,0,i,0,0,j,0,0,0
i,0,0,0,0,0,0,0,0,0,0,0,0,0,0,0
0,q,r,0,0,j,0,k,k,k,k,k,k,k,k,0
0,o,p,0,0,0,0,0,13,13,13,13,13,13,l,0
0,0,0,0,0,0,0,m,13,13,13,13,13,13,l,0
0,0,0,0,0,0,0,k,k,k,k,k,k,k,k,0
0,i,0,0,0,0,0,0,0,0,0,0,0,0,0,0
EXT 11,12 5 11,12
PAL 0

ROOM 5
a,a,a,a,a,a,a,a,a,a,a,a,a,a,a,a
a,a,a,a,a,a,a,a,a,a,h,a,a,a,a,a
a,h,a,a,a,a,a,a,a,a,a,a,a,a,a,a
a,a,a,a,a,a,a,a,a,a,a,a,a,a,a,a
a,a,a,a,a,a,a,a,a,a,a,a,a,a,a,a
a,a,a,a,a,a,a,a,a,a,a,a,a,h,a,a
a,a,a,a,a,a,a,a,a,a,a,a,a,a,a,a
a,a,a,a,a,a,a,a,a,a,a,a,a,a,a,a
a,b,g,c,d,e,f,0,0,f,e,d,c,g,b,a
0,0,0,j,0,0,0,0,0,i,0,0,j,0,0,0
i,0,0,0,0,0,0,0,0,0,0,0,0,0,0,0
0,q,r,0,0,j,0,k,k,k,k,k,k,k,k,0
0,o,p,0,0,0,0,0,13,13,13,13,13,13,l,0
0,0,0,0,0,0,0,m,13,13,13,13,13,13,l,0
0,0,0,0,0,0,0,k,k,k,k,k,k,k,k,0
0,i,0,0,0,0,0,0,0,0,0,0,0,0,0,0
EXT 12,12 6 12,12
PAL 0

ROOM 6
a,a,a,a,a,a,a,a,a,a,a,a,a,a,a,a
a,a,a,a,a,a,a,a,a,a,h,a,a,a,a,a
a,h,a,a,a,a,a,a,a,a,a,a,a,a,a,a
a,a,a,a,a,a,a,a,a,a,a,a,a,a,a,a
a,a,a,a,a,a,a,a,a,a,a,a,a,a,a,a
a,a,a,a,a,a,a,a,a,a,a,a,a,h,a,a
a,a,a,a,a,a,a,a,a,a,a,a,a,a,a,a
a,a,a,a,a,a,a,a,a,a,a,a,a,a,a,a
a,b,g,c,d,e,f,0,0,f,e,d,c,g,b,a
0,0,0,j,0,0,0,0,0,i,0,0,j,0,0,0
i,0,0,0,0,0,0,0,0,0,0,0,0,0,0,0
0,q,r,0,0,j,0,k,k,k,k,k,k,k,k,0
0,o,p,0,0,0,0,0,13,13,13,13,13,13,l,0
0,0,0,0,0,0,0,m,13,13,13,13,13,13,l,0
0,0,0,0,0,0,0,k,k,k,k,k,k,k,k,0
0,i,0,0,0,0,0,0,0,0,0,0,0,0,0,0
EXT 13,12 7 13,12
PAL 0

ROOM 7
a,a,a,a,a,a,a,a,a,a,a,a,a,a,a,a
a,a,a,a,a,a,a,a,a,a,h,a,a,a,a,a
a,h,a,a,a,a,a,a,a,a,a,a,a,a,a,a
a,a,a,a,a,a,a,a,a,a,a,a,a,a,a,a
a,a,a,a,a,a,a,a,a,a,a,a,a,a,a,a
a,a,a,a,a,a,a,a,a,a,a,a,a,h,a,a
a,a,a,a,a,a,a,a,a,a,a,a,a,a,a,a
a,a,a,a,a,a,a,a,a,a,a,a,a,a,a,a
a,b,g,c,d,e,f,0,0,f,e,d,c,g,b,a
0,0,0,j,0,0,0,0,0,i,0,0,j,0,0,0
i,0,0,0,0,0,0,0,0,0,0,0,0,0,0,0
0,q,r,0,0,j,0,k,k,k,k,k,k,k,k,0
0,o,p,0,0,0,0,0,13,13,13,13,13,13,l,0
0,0,0,0,0,0,0,m,13,13,13,13,13,13,l,0
0,0,0,0,0,0,0,k,k,k,k,k,k,k,k,0
0,i,0,0,0,0,0,0,0,0,0,0,0,0,0,0
EXT 13,13 8 13,13
PAL 0

ROOM 8
a,a,a,a,a,a,a,a,a,a,a,a,a,a,a,a
a,a,a,a,a,a,a,a,a,a,h,a,a,a,a,a
a,h,a,a,a,a,a,a,a,a,a,a,a,a,a,a
a,a,a,a,a,a,a,a,a,a,a,a,a,a,a,a
a,a,a,a,a,a,a,a,a,a,a,a,a,a,a,a
a,a,a,a,a,a,a,a,a,a,a,a,a,h,a,a
a,a,a,a,a,a,a,a,a,a,a,a,a,a,a,a
a,a,a,a,a,a,a,a,a,a,a,a,a,a,a,a
a,b,g,c,d,e,f,0,0,f,e,d,c,g,b,a
0,0,0,j,0,0,0,0,0,i,0,0,j,0,0,0
i,0,0,0,0,0,0,0,0,0,0,0,0,0,0,0
0,q,r,0,0,j,0,k,k,k,k,k,k,k,k,0
0,o,p,0,0,0,0,0,13,13,13,13,13,13,l,0
0,0,0,0,0,0,0,m,13,13,13,13,13,13,l,0
0,0,0,0,0,0,0,k,k,k,k,k,k,k,k,0
0,i,0,0,0,0,0,0,0,0,0,0,0,0,0,0
EXT 12,13 9 12,13
PAL 0

ROOM 9
a,a,a,a,a,a,a,a,a,a,a,a,a,a,a,a
a,a,a,a,a,a,a,a,a,a,h,a,a,a,a,a
a,h,a,a,a,a,a,a,a,a,a,a,a,a,a,a
a,a,a,a,a,a,a,a,a,a,a,a,a,a,a,a
a,a,a,a,a,a,a,a,a,a,a,a,a,a,a,a
a,a,a,a,a,a,a,a,a,a,a,a,a,h,a,a
a,a,a,a,a,a,a,a,a,a,a,a,a,a,a,a
a,a,a,a,a,a,a,a,a,a,a,a,a,a,a,a
a,b,g,c,d,e,f,0,0,f,e,d,c,g,b,a
0,0,0,j,0,0,0,0,0,i,0,0,j,0,0,0
i,0,0,0,0,0,0,0,0,0,0,0,0,0,0,0
0,q,r,0,0,j,0,k,k,k,k,k,k,k,k,0
0,o,p,0,0,0,0,0,13,13,13,13,13,13,l,0
0,0,0,0,0,0,0,m,13,13,13,13,13,13,l,0
0,0,0,0,0,0,0,k,k,k,k,k,k,k,k,0
0,i,0,0,0,0,0,0,0,0,0,0,0,0,0,0
EXT 11,13 a 11,13
PAL 0

ROOM 10
a,a,a,a,a,a,a,a,a,a,a,a,a,a,a,a
a,a,a,a,a,a,a,a,a,a,h,a,a,a,a,a
a,h,a,a,a,a,a,a,a,a,a,a,a,a,a,a
a,a,a,a,a,a,a,a,a,a,a,a,a,a,a,a
a,a,a,a,a,a,a,a,a,a,a,a,a,a,a,a
a,a,a,a,a,a,a,a,a,a,a,a,a,h,a,a
a,a,a,a,a,a,a,a,a,a,a,a,a,a,a,a
a,a,a,a,a,a,a,a,a,a,a,a,a,a,a,a
a,b,g,c,d,e,f,0,0,f,e,d,c,g,b,a
0,0,0,j,0,0,0,0,0,i,0,0,j,0,0,0
i,0,0,0,0,0,0,0,0,0,0,0,0,0,0,0
0,q,r,0,0,j,0,k,k,k,k,k,k,k,k,0
0,o,p,0,0,0,0,m,13,13,13,13,13,13,l,0
0,0,0,0,0,0,0,0,13,13,13,13,13,13,l,0
0,0,0,0,0,0,0,k,k,k,k,k,k,k,k,0
0,i,0,0,0,0,0,0,0,0,0,0,0,0,0,0
EXT 2,12 11 8,12
PAL 0

ROOM 11
a,a,a,a,a,a,a,a,a,a,a,a,a,a,a,a
a,a,a,a,a,a,a,1h,d,1g,a,a,a,a,a,a
a,a,a,a,a,a,1m,0,a,0,1n,a,a,a,a,a
a,a,a,a,a,a,a,1j,1l,1k,a,a,a,a,a,a
a,a,a,a,a,a,a,a,a,a,a,a,a,a,a,a
a,a,a,a,a,a,a,a,17,a,a,a,a,a,a,a
a,a,a,a,a,a,a,a,17,a,a,a,a,a,a,a
a,a,a,a,a,a,a,a,17,a,a,a,a,a,a,a
a,a,a,a,a,a,a,a,17,a,a,a,a,a,a,a
a,a,a,a,a,a,a,a,17,a,a,a,a,a,a,a
a,a,a,a,a,a,a,a,17,a,a,a,a,a,a,a
a,a,a,a,a,a,a,a,17,a,a,a,a,a,a,a
a,a,a,a,a,a,a,a,17,a,a,a,a,a,a,a
a,a,a,a,a,a,a,a,17,a,a,a,a,a,a,a
a,a,a,a,a,a,a,a,a,a,a,a,a,a,a,a
a,a,a,a,a,a,a,a,a,a,a,a,a,a,a,a
EXT 8,5 12 7,3
PAL 0

ROOM 12
a,a,a,a,a,a,a,a,a,a,a,a,a,a,a,a
a,a,a,a,a,a,a,a,a,a,a,a,a,a,a,a
a,a,a,a,a,a,a,a,a,a,a,a,a,a,a,a
a,a,s,s,s,s,s,s,s,s,s,s,s,s,a,a
a,a,s,s,s,s,s,s,s,s,s,s,w,s,a,a
a,a,s,s,s,s,s,s,s,s,s,s,x,s,a,a
a,a,s,s,s,s,s,s,s,s,s,s,s,s,a,a
a,a,s,s,s,s,12,0,11,s,s,s,s,s,a,a
a,a,s,s,s,s,y,z,10,s,s,s,s,s,a,a
a,a,s,s,s,s,s,s,s,s,s,s,s,s,a,a
a,a,s,s,s,s,s,s,s,s,s,s,s,s,a,a
a,a,s,s,s,s,s,s,s,s,s,s,s,s,a,a
a,a,a,a,a,a,a,t,a,a,a,a,a,a,a,a
a,a,a,a,a,a,a,a,a,a,a,a,a,a,a,a
a,a,a,a,a,a,a,a,a,a,a,a,a,a,a,a
a,a,a,a,a,a,a,a,a,a,a,a,a,a,a,a
EXT 7,12 13 2,13
PAL 0

ROOM 13
a,a,a,a,a,a,a,a,a,a,a,a,a,a,a,a
a,a,a,a,a,a,a,a,a,a,h,a,a,a,a,a
a,h,a,a,a,a,a,a,a,a,a,a,a,a,a,a
a,a,a,a,a,a,a,a,a,a,a,a,a,a,a,a
a,a,a,a,a,a,a,a,a,a,a,a,a,a,a,a
a,a,a,a,a,a,a,a,a,a,a,a,a,h,a,a
a,a,a,a,a,a,a,a,a,a,a,a,a,a,a,a
a,a,a,a,a,a,a,a,a,a,a,a,a,a,a,a
a,b,g,c,d,e,f,0,0,f,e,d,c,g,b,a
0,0,0,j,0,0,0,0,0,i,0,0,j,0,0,0
i,0,0,0,0,0,0,0,0,0,0,0,0,0,0,0
0,q,r,0,0,j,0,0,k,k,0,0,0,0,0,0
0,o,p,0,0,0,0,k,13,13,0,m,0,0,0,0
0,0,0,0,0,0,0,0,13,0,13,m,0,0,0,0
0,0,0,0,0,0,0,0,k,0,k,0,0,0,0,0
0,i,0,0,0,0,0,0,0,0,0,0,0,0,0,0
EXT 9,14 15 7,15
EXT 12,11 0 0,0
PAL 1

ROOM 15
0,0,0,0,0,0,0,1o,0,0,0,0,0,0,0,0
0,0,0,0,0,0,0,1o,0,0,0,0,0,0,0,0
0,0,0,0,0,0,0,1o,0,0,0,0,0,0,0,0
0,0,0,0,0,0,0,1o,0,0,0,0,0,0,0,0
0,0,0,0,0,0,0,1o,0,0,0,0,0,0,0,0
0,0,0,0,0,0,0,1o,0,0,0,0,0,0,0,0
0,0,0,0,0,0,0,1o,0,0,0,0,0,0,0,0
0,0,0,0,0,0,0,1o,0,0,0,0,0,0,0,0
0,0,0,0,0,0,0,1o,0,0,0,0,0,0,0,0
0,0,0,0,0,0,0,1o,0,0,0,0,0,0,0,0
0,0,0,0,0,0,0,1o,0,0,0,0,0,0,0,0
0,0,0,0,0,0,0,1o,0,0,0,0,0,0,0,0
0,0,0,0,0,0,0,1o,0,0,0,0,0,0,0,0
0,0,0,0,0,0,0,1o,0,0,0,0,0,0,0,0
0,0,0,0,0,0,0,1o,0,0,0,0,0,0,0,0
0,0,0,0,0,0,0,1o,0,0,0,0,0,0,0,0
EXT 7,0 16 7,15
PAL 2

ROOM 16
0,0,0,0,0,0,0,0,0,0,0,0,0,0,0,0
0,0,0,0,0,0,0,0,0,0,0,0,0,0,0,0
0,0,0,0,0,0,0,0,0,0,0,0,0,0,0,0
0,0,0,0,0,0,0,0,0,0,0,0,0,0,0,0
0,0,0,0,0,0,0,0,0,0,0,0,0,0,0,0
0,0,0,0,0,0,0,0,0,0,0,0,0,0,0,0
0,0,0,0,0,0,0,0,0,0,0,0,0,0,0,0
0,0,0,0,0,0,0,0,0,0,0,0,0,0,0,0
0,0,0,0,0,0,0,0,0,0,0,0,0,0,0,0
0,0,0,0,0,0,0,0,0,0,0,0,0,0,0,0
0,0,0,0,0,0,0,1p,0,0,0,0,0,0,0,0
0,0,0,0,0,0,0,1o,0,0,0,0,0,0,0,0
0,0,0,0,0,0,0,1o,0,0,0,0,0,0,0,0
0,0,0,0,0,0,0,1o,0,0,0,0,0,0,0,0
0,0,0,0,0,0,0,1o,0,0,0,0,0,0,0,0
0,0,0,0,0,0,0,1o,0,0,0,0,0,0,0,0
END undefined 7,11
PAL 2

ROOM a
a,a,a,a,a,a,a,a,a,a,a,a,a,a,a,a
a,a,a,a,a,a,a,a,a,a,h,a,a,a,a,a
a,h,a,a,a,a,a,a,a,a,a,a,a,a,a,a
a,a,a,a,a,a,a,a,a,a,a,a,a,a,a,a
a,a,a,a,a,a,a,a,a,a,a,a,a,a,a,a
a,a,a,a,a,a,a,a,a,a,a,a,a,h,a,a
a,a,a,a,a,a,a,a,a,a,a,a,a,a,a,a
a,a,a,a,a,a,a,a,a,a,a,a,a,a,a,a
a,b,g,c,d,e,f,0,0,f,e,d,c,g,b,a
0,0,0,j,0,0,0,0,0,i,0,0,j,0,0,0
i,0,0,0,0,0,0,0,0,0,0,0,0,0,0,0
0,q,r,0,0,j,0,k,k,k,k,k,k,k,k,0
0,o,p,0,0,0,0,0,13,13,13,13,13,13,l,0
0,0,0,0,0,0,0,m,13,13,13,13,13,13,l,0
0,0,0,0,0,0,0,k,k,k,k,k,k,k,k,0
0,i,0,0,0,0,0,0,0,0,0,0,0,0,0,0
EXT 10,13 b 10,13
PAL 0

ROOM b
a,a,a,a,a,a,a,a,a,a,a,a,a,a,a,a
a,a,a,a,a,a,a,a,a,a,h,a,a,a,a,a
a,h,a,a,a,a,a,a,a,a,a,a,a,a,a,a
a,a,a,a,a,a,a,a,a,a,a,a,a,a,a,a
a,a,a,a,a,a,a,a,a,a,a,a,a,a,a,a
a,a,a,a,a,a,a,a,a,a,a,a,a,h,a,a
a,a,a,a,a,a,a,a,a,a,a,a,a,a,a,a
a,a,a,a,a,a,a,a,a,a,a,a,a,a,a,a
a,b,g,c,d,e,f,0,0,f,e,d,c,g,b,a
0,0,0,j,0,0,0,0,0,i,0,0,j,0,0,0
i,0,0,0,0,0,0,0,0,0,0,0,0,0,0,0
0,q,r,0,0,j,0,k,k,k,k,k,k,k,k,0
0,o,p,0,0,0,0,0,13,13,13,13,13,13,l,0
0,0,0,0,0,0,0,m,13,13,13,13,13,13,l,0
0,0,0,0,0,0,0,k,k,k,k,k,k,k,k,0
0,i,0,0,0,0,0,0,0,0,0,0,0,0,0,0
EXT 9,13 c 9,13
PAL 0

ROOM c
a,a,a,a,a,a,a,a,a,a,a,a,a,a,a,a
a,a,a,a,a,a,a,a,a,a,h,a,a,a,a,a
a,h,a,a,a,a,a,a,a,a,a,a,a,a,a,a
a,a,a,a,a,a,a,a,a,a,a,a,a,a,a,a
a,a,a,a,a,a,a,a,a,a,a,a,a,a,a,a
a,a,a,a,a,a,a,a,a,a,a,a,a,h,a,a
a,a,a,a,a,a,a,a,a,a,a,a,a,a,a,a
a,a,a,a,a,a,a,a,a,a,a,a,a,a,a,a
a,b,g,c,d,e,f,0,0,f,e,d,c,g,b,a
0,0,0,j,0,0,0,0,0,i,0,0,j,0,0,0
i,0,0,0,0,0,0,0,0,0,0,0,0,0,0,0
0,q,r,0,0,j,0,k,k,k,k,k,k,k,k,0
0,o,p,0,0,0,0,0,13,13,13,13,13,13,l,0
0,0,0,0,0,0,0,m,13,13,13,13,13,13,l,0
0,0,0,0,0,0,0,k,k,k,k,k,k,k,k,0
0,i,0,0,0,0,0,0,0,0,0,0,0,0,0,0
EXT 8,13 d 8,13
PAL 0

ROOM d
a,a,a,a,a,a,a,a,a,a,a,a,a,a,a,a
a,a,a,a,a,a,a,a,a,a,h,a,a,a,a,a
a,h,a,a,a,a,a,a,a,a,a,a,a,a,a,a
a,a,a,a,a,a,a,a,a,a,a,a,a,a,a,a
a,a,a,a,a,a,a,a,a,a,a,a,a,a,a,a
a,a,a,a,a,a,a,a,a,a,a,a,a,h,a,a
a,a,a,a,a,a,a,a,a,a,a,a,a,a,a,a
a,a,a,a,a,a,a,a,a,a,a,a,a,a,a,a
a,b,g,c,d,e,f,0,0,f,e,d,c,g,b,a
0,0,0,j,0,0,0,0,0,i,0,0,j,0,0,0
i,0,0,0,0,0,0,0,0,0,0,0,0,0,0,0
0,q,r,0,0,j,0,k,k,k,k,k,k,k,k,0
0,o,p,0,0,0,0,m,13,13,13,13,13,13,l,0
0,0,0,0,0,0,0,0,13,13,13,13,13,13,l,0
0,0,0,0,0,0,0,k,k,k,k,k,k,k,k,0
0,i,0,0,0,0,0,0,0,0,0,0,0,0,0,0
EXT 6,13 e 7,13
PAL 0

ROOM e
a,a,a,a,a,a,a,a,a,a,a,a,a,a,a,a
a,a,a,a,a,a,a,a,a,a,h,a,a,a,a,a
a,h,a,a,a,a,a,a,a,a,a,a,a,a,a,a
a,a,a,a,a,a,a,a,a,a,a,a,a,a,a,a
a,a,a,a,a,a,a,a,a,a,a,a,a,a,a,a
a,a,a,a,a,a,a,a,a,a,a,a,a,h,a,a
a,a,a,a,a,a,a,a,a,a,a,a,a,a,a,a
a,a,a,a,a,a,a,a,a,a,a,a,a,a,a,a
a,b,g,c,d,e,f,0,0,f,e,d,c,g,b,a
0,0,0,j,0,0,0,0,0,i,0,0,j,0,0,0
i,0,0,0,0,0,0,0,0,0,0,0,0,0,0,0
0,q,r,0,0,j,0,k,k,k,k,k,k,k,k,0
0,o,p,0,0,0,0,m,13,13,13,13,13,13,l,0
0,0,0,0,0,0,0,0,13,13,13,13,13,13,l,0
0,0,0,0,0,0,0,k,k,k,k,k,k,k,k,0
0,i,0,0,0,0,0,0,0,0,0,0,0,0,0,0
ITM 1 6,13
EXT 2,12 f 7,4
PAL 0

ROOM f
a,a,a,a,a,a,a,a,a,a,a,a,a,a,a,a
a,a,a,a,a,a,a,a,a,a,a,a,a,a,a,a
a,a,a,a,a,a,a,a,a,a,a,a,a,a,a,a
a,a,s,s,s,s,s,s,s,s,s,s,s,s,a,a
a,a,s,s,s,s,s,s,s,s,s,s,w,s,a,a
a,a,s,s,s,s,s,s,s,s,s,s,x,s,a,a
a,a,s,s,s,s,s,s,s,s,s,s,s,s,a,a
a,a,s,s,s,s,12,0,11,s,s,s,s,s,a,a
a,a,s,s,s,s,y,z,10,s,s,s,s,s,a,a
a,a,s,s,s,s,s,s,s,s,s,s,s,s,a,a
a,a,s,s,s,s,s,s,s,s,s,s,s,s,a,a
a,a,s,s,s,s,s,s,s,s,s,s,s,s,a,a
a,a,a,a,a,a,a,t,a,a,a,a,a,a,a,a
a,a,a,a,a,a,a,a,a,a,a,a,a,a,a,a
a,a,a,a,a,a,a,a,a,a,a,a,a,a,a,a
a,a,a,a,a,a,a,a,a,a,a,a,a,a,a,a
EXT 7,12 g 2,13
PAL 0

ROOM g
a,a,a,a,a,a,a,a,a,a,a,a,a,a,a,a
a,a,a,a,a,a,a,a,a,a,h,a,a,a,a,a
a,h,a,a,a,a,a,a,a,a,a,a,a,a,a,a
a,a,a,a,a,a,a,a,a,a,a,a,a,a,a,a
a,a,a,a,a,a,a,a,a,a,a,a,a,a,a,a
a,a,a,a,a,a,a,a,a,a,a,a,a,h,a,a
a,a,a,a,a,a,a,a,a,a,a,a,a,a,a,a
a,a,a,a,a,a,a,a,a,a,a,a,a,a,a,a
a,b,g,c,d,e,f,0,0,f,e,d,c,g,b,a
0,0,0,j,0,0,0,0,0,i,0,0,j,0,0,0
i,0,0,0,0,0,0,0,0,0,0,0,0,0,0,0
0,q,r,0,0,j,0,k,k,k,k,k,k,k,k,0
0,o,p,0,0,0,0,0,13,13,13,13,13,13,l,0
0,0,0,0,0,0,0,m,13,13,13,13,13,13,l,0
0,0,0,0,0,0,0,k,k,k,k,k,k,k,k,0
0,i,0,0,0,0,0,0,0,0,0,0,0,0,0,0
EXT 7,12 h 8,12
PAL 0

ROOM h
a,a,a,a,a,a,a,a,a,a,a,a,a,a,a,a
a,a,a,a,a,a,a,a,a,a,h,a,a,a,a,a
a,h,a,a,a,a,a,a,a,a,a,a,a,a,a,a
a,a,a,a,a,a,a,a,a,a,a,a,a,a,a,a
a,a,a,a,a,a,a,a,a,a,a,a,a,a,a,a
a,a,a,a,a,a,a,a,a,a,a,a,a,h,a,a
a,a,a,a,a,a,a,a,a,a,a,a,a,a,a,a
a,a,a,a,a,a,a,a,a,a,a,a,a,a,a,a
a,b,g,c,d,e,f,0,0,f,e,d,c,g,b,a
0,0,0,j,0,0,0,0,0,i,0,0,j,0,0,0
i,0,0,0,0,0,0,0,0,0,0,0,0,0,0,0
0,q,r,0,0,j,0,k,k,k,k,k,k,k,k,0
0,o,p,0,0,0,0,0,13,14,13,13,13,13,l,0
0,0,0,0,0,0,0,m,13,13,13,13,13,13,l,0
0,0,0,0,0,0,0,k,k,k,k,k,k,k,k,0
0,i,0,0,0,0,0,0,0,0,0,0,0,0,0,0
EXT 9,12 i 9,12
PAL 0

ROOM i
a,a,a,a,a,a,a,a,a,a,a,a,a,a,a,a
a,a,a,a,a,a,a,a,a,a,h,a,a,a,a,a
a,h,a,a,a,a,a,a,a,a,a,a,a,a,a,a
a,a,a,a,a,a,a,a,a,a,a,a,a,a,a,a
a,a,a,a,a,a,a,a,a,a,a,a,a,a,a,a
a,a,a,a,a,a,a,a,a,a,a,a,a,h,a,a
a,a,a,a,a,a,a,a,a,a,a,a,a,a,a,a
a,a,a,a,a,a,a,a,a,a,a,a,a,a,a,a
a,b,g,c,d,e,f,0,0,f,e,d,c,g,b,a
0,0,0,j,0,0,0,0,0,i,0,0,j,0,0,0
i,0,0,0,0,0,0,0,0,0,0,0,0,0,0,0
0,q,r,0,0,j,0,k,k,k,k,k,k,k,k,0
0,o,p,0,0,0,0,0,13,13,14,13,13,13,l,0
0,0,0,0,0,0,0,m,13,13,13,13,13,13,l,0
0,0,0,0,0,0,0,k,k,k,k,k,k,k,k,0
0,i,0,0,0,0,0,0,0,0,0,0,0,0,0,0
EXT 10,12 j 10,12
PAL 0

ROOM j
a,a,a,a,a,a,a,a,a,a,a,a,a,a,a,a
a,a,a,a,a,a,a,a,a,a,h,a,a,a,a,a
a,h,a,a,a,a,a,a,a,a,a,a,a,a,a,a
a,a,a,a,a,a,a,a,a,a,a,a,a,a,a,a
a,a,a,a,a,a,a,a,a,a,a,a,a,a,a,a
a,a,a,a,a,a,a,a,a,a,a,a,a,h,a,a
a,a,a,a,a,a,a,a,a,a,a,a,a,a,a,a
a,a,a,a,a,a,a,a,a,a,a,a,a,a,a,a
a,b,g,c,d,e,f,0,0,f,e,d,c,g,b,a
0,0,0,j,0,0,0,0,0,i,0,0,j,0,0,0
i,0,0,0,0,0,0,0,0,0,0,0,0,0,0,0
0,q,r,0,0,j,0,k,k,k,k,k,k,k,k,0
0,o,p,0,0,0,0,0,13,13,13,14,13,13,l,0
0,0,0,0,0,0,0,m,13,13,13,13,13,13,l,0
0,0,0,0,0,0,0,k,k,k,k,k,k,k,k,0
0,i,0,0,0,0,0,0,0,0,0,0,0,0,0,0
EXT 11,12 k 11,12
PAL 0

ROOM k
a,a,a,a,a,a,a,a,a,a,a,a,a,a,a,a
a,a,a,a,a,a,a,a,a,a,h,a,a,a,a,a
a,h,a,a,a,a,a,a,a,a,a,a,a,a,a,a
a,a,a,a,a,a,a,a,a,a,a,a,a,a,a,a
a,a,a,a,a,a,a,a,a,a,a,a,a,a,a,a
a,a,a,a,a,a,a,a,a,a,a,a,a,h,a,a
a,a,a,a,a,a,a,a,a,a,a,a,a,a,a,a
a,a,a,a,a,a,a,a,a,a,a,a,a,a,a,a
a,b,g,c,d,e,f,0,0,f,e,d,c,g,b,a
0,0,0,j,0,0,0,0,0,i,0,0,j,0,0,0
i,0,0,0,0,0,0,0,0,0,0,0,0,0,0,0
0,q,r,0,0,j,0,k,k,k,k,k,k,k,k,0
0,o,p,0,0,0,0,0,13,13,13,13,14,13,l,0
0,0,0,0,0,0,0,m,13,13,13,13,13,13,l,0
0,0,0,0,0,0,0,k,k,k,k,k,k,k,k,0
0,i,0,0,0,0,0,0,0,0,0,0,0,0,0,0
NAME farm4
EXT 12,12 l 12,12
PAL 0

ROOM l
a,a,a,a,a,a,a,a,a,a,a,a,a,a,a,a
a,a,a,a,a,a,a,a,a,a,h,a,a,a,a,a
a,h,a,a,a,a,a,a,a,a,a,a,a,a,a,a
a,a,a,a,a,a,a,a,a,a,a,a,a,a,a,a
a,a,a,a,a,a,a,a,a,a,a,a,a,a,a,a
a,a,a,a,a,a,a,a,a,a,a,a,a,h,a,a
a,a,a,a,a,a,a,a,a,a,a,a,a,a,a,a
a,a,a,a,a,a,a,a,a,a,a,a,a,a,a,a
a,b,g,c,d,e,f,0,0,f,e,d,c,g,b,a
0,0,0,j,0,0,0,0,0,i,0,0,j,0,0,0
i,0,0,0,0,0,0,0,0,0,0,0,0,0,0,0
0,q,r,0,0,j,0,k,k,k,k,k,k,k,k,0
0,o,p,0,0,0,0,0,13,13,13,13,13,14,l,0
0,0,0,0,0,0,0,m,13,13,13,13,13,13,l,0
0,0,0,0,0,0,0,k,k,k,k,k,k,k,k,0
0,i,0,0,0,0,0,0,0,0,0,0,0,0,0,0
NAME farm5
EXT 13,12 m 13,12
PAL 0

ROOM m
a,a,a,a,a,a,a,a,a,a,a,a,a,a,a,a
a,a,a,a,a,a,a,a,a,a,h,a,a,a,a,a
a,h,a,a,a,a,a,a,a,a,a,a,a,a,a,a
a,a,a,a,a,a,a,a,a,a,a,a,a,a,a,a
a,a,a,a,a,a,a,a,a,a,a,a,a,a,a,a
a,a,a,a,a,a,a,a,a,a,a,a,a,h,a,a
a,a,a,a,a,a,a,a,a,a,a,a,a,a,a,a
a,a,a,a,a,a,a,a,a,a,a,a,a,a,a,a
a,b,g,c,d,e,f,0,0,f,e,d,c,g,b,a
0,0,0,j,0,0,0,0,0,i,0,0,j,0,0,0
i,0,0,0,0,0,0,0,0,0,0,0,0,0,0,0
0,q,r,0,0,j,0,k,k,k,k,k,k,k,k,0
0,o,p,0,0,0,0,0,13,13,13,13,13,13,l,0
0,0,0,0,0,0,0,m,13,13,13,13,13,15,l,0
0,0,0,0,0,0,0,k,k,k,k,k,k,k,k,0
0,i,0,0,0,0,0,0,0,0,0,0,0,0,0,0
NAME farm6
EXT 13,13 n 13,13
PAL 0

ROOM n
a,a,a,a,a,a,a,a,a,a,a,a,a,a,a,a
a,a,a,a,a,a,a,a,a,a,h,a,a,a,a,a
a,h,a,a,a,a,a,a,a,a,a,a,a,a,a,a
a,a,a,a,a,a,a,a,a,a,a,a,a,a,a,a
a,a,a,a,a,a,a,a,a,a,a,a,a,a,a,a
a,a,a,a,a,a,a,a,a,a,a,a,a,h,a,a
a,a,a,a,a,a,a,a,a,a,a,a,a,a,a,a
a,a,a,a,a,a,a,a,a,a,a,a,a,a,a,a
a,b,g,c,d,e,f,0,0,f,e,d,c,g,b,a
0,0,0,j,0,0,0,0,0,i,0,0,j,0,0,0
i,0,0,0,0,0,0,0,0,0,0,0,0,0,0,0
0,q,r,0,0,j,0,k,k,k,k,k,k,k,k,0
0,o,p,0,0,0,0,0,13,13,13,13,13,13,l,0
0,0,0,0,0,0,0,m,13,13,13,13,15,13,l,0
0,0,0,0,0,0,0,k,k,k,k,k,k,k,k,0
0,i,0,0,0,0,0,0,0,0,0,0,0,0,0,0
EXT 12,13 o 12,13
PAL 0

ROOM o
a,a,a,a,a,a,a,a,a,a,a,a,a,a,a,a
a,a,a,a,a,a,a,a,a,a,h,a,a,a,a,a
a,h,a,a,a,a,a,a,a,a,a,a,a,a,a,a
a,a,a,a,a,a,a,a,a,a,a,a,a,a,a,a
a,a,a,a,a,a,a,a,a,a,a,a,a,a,a,a
a,a,a,a,a,a,a,a,a,a,a,a,a,h,a,a
a,a,a,a,a,a,a,a,a,a,a,a,a,a,a,a
a,a,a,a,a,a,a,a,a,a,a,a,a,a,a,a
a,b,g,c,d,e,f,0,0,f,e,d,c,g,b,a
0,0,0,j,0,0,0,0,0,i,0,0,j,0,0,0
i,0,0,0,0,0,0,0,0,0,0,0,0,0,0,0
0,q,r,0,0,j,0,k,k,k,k,k,k,k,k,0
0,o,p,0,0,0,0,0,13,13,13,13,13,13,l,0
0,0,0,0,0,0,0,m,13,13,13,15,13,13,l,0
0,0,0,0,0,0,0,k,k,k,k,k,k,k,k,0
0,i,0,0,0,0,0,0,0,0,0,0,0,0,0,0
EXT 11,13 p 11,13
PAL 0

ROOM p
a,a,a,a,a,a,a,a,a,a,a,a,a,a,a,a
a,a,a,a,a,a,a,a,a,a,h,a,a,a,a,a
a,h,a,a,a,a,a,a,a,a,a,a,a,a,a,a
a,a,a,a,a,a,a,a,a,a,a,a,a,a,a,a
a,a,a,a,a,a,a,a,a,a,a,a,a,a,a,a
a,a,a,a,a,a,a,a,a,a,a,a,a,h,a,a
a,a,a,a,a,a,a,a,a,a,a,a,a,a,a,a
a,a,a,a,a,a,a,a,a,a,a,a,a,a,a,a
a,b,g,c,d,e,f,0,0,f,e,d,c,g,b,a
0,0,0,j,0,0,0,0,0,i,0,0,j,0,0,0
i,0,0,0,0,0,0,0,0,0,0,0,0,0,0,0
0,q,r,0,0,j,0,k,k,k,k,k,k,k,k,0
0,o,p,0,0,0,0,0,13,13,13,13,13,13,l,0
0,0,0,0,0,0,0,m,13,13,15,13,13,13,l,0
0,0,0,0,0,0,0,k,k,k,k,k,k,k,k,0
0,i,0,0,0,0,0,0,0,0,0,0,0,0,0,0
EXT 10,13 q 10,13
PAL 0

ROOM q
a,a,a,a,a,a,a,a,a,a,a,a,a,a,a,a
a,a,a,a,a,a,a,a,a,a,h,a,a,a,a,a
a,h,a,a,a,a,a,a,a,a,a,a,a,a,a,a
a,a,a,a,a,a,a,a,a,a,a,a,a,a,a,a
a,a,a,a,a,a,a,a,a,a,a,a,a,a,a,a
a,a,a,a,a,a,a,a,a,a,a,a,a,h,a,a
a,a,a,a,a,a,a,a,a,a,a,a,a,a,a,a
a,a,a,a,a,a,a,a,a,a,a,a,a,a,a,a
a,b,g,c,d,e,f,0,0,f,e,d,c,g,b,a
0,0,0,j,0,0,0,0,0,i,0,0,j,0,0,0
i,0,0,0,0,0,0,0,0,0,0,0,0,0,0,0
0,q,r,0,0,j,0,k,k,k,k,k,k,k,k,0
0,o,p,0,0,0,0,0,13,13,13,13,13,13,l,0
0,0,0,0,0,0,0,m,13,15,13,13,13,13,l,0
0,0,0,0,0,0,0,k,k,k,k,k,k,k,k,0
0,i,0,0,0,0,0,0,0,0,0,0,0,0,0,0
EXT 9,13 r 9,13
PAL 0

ROOM r
a,a,a,a,a,a,a,a,a,a,a,a,a,a,a,a
a,a,a,a,a,a,a,a,a,a,h,a,a,a,a,a
a,h,a,a,a,a,a,a,a,a,a,a,a,a,a,a
a,a,a,a,a,a,a,a,a,a,a,a,a,a,a,a
a,a,a,a,a,a,a,a,a,a,a,a,a,a,a,a
a,a,a,a,a,a,a,a,a,a,a,a,a,h,a,a
a,a,a,a,a,a,a,a,a,a,a,a,a,a,a,a
a,a,a,a,a,a,a,a,a,a,a,a,a,a,a,a
a,b,g,c,d,e,f,0,0,f,e,d,c,g,b,a
0,0,0,j,0,0,0,0,0,i,0,0,j,0,0,0
i,0,0,0,0,0,0,0,0,0,0,0,0,0,0,0
0,q,r,0,0,j,0,k,k,k,k,k,k,k,k,0
0,o,p,0,0,0,0,m,13,13,13,13,13,13,l,0
0,0,0,0,0,0,0,0,15,13,13,13,13,13,l,0
0,0,0,0,0,0,0,k,k,k,k,k,k,k,k,0
0,i,0,0,0,0,0,0,0,0,0,0,0,0,0,0
EXT 9,13 0 0,0
EXT 8,13 s 7,13
PAL 0

ROOM s
a,a,a,a,a,a,a,a,a,a,a,a,a,a,a,a
a,a,a,a,a,a,a,a,a,a,h,a,a,a,a,a
a,h,a,a,a,a,a,a,a,a,a,a,a,a,a,a
a,a,a,a,a,a,a,a,a,a,a,a,a,a,a,a
a,a,a,a,a,a,a,a,a,a,a,a,a,a,a,a
a,a,a,a,a,a,a,a,a,a,a,a,a,h,a,a
a,a,a,a,a,a,a,a,a,a,a,a,a,a,a,a
a,a,a,a,a,a,a,a,a,a,a,a,a,a,a,a
a,b,g,c,d,e,f,0,0,f,e,d,c,g,b,a
0,0,0,j,0,0,0,0,0,i,0,0,j,0,0,0
i,0,0,0,0,0,0,0,0,0,0,0,0,0,0,0
0,q,r,0,0,j,0,k,k,k,k,k,k,k,k,0
0,o,p,0,0,0,0,m,13,13,13,13,13,13,l,0
0,0,0,0,0,0,0,0,13,13,13,13,13,13,l,0
0,0,0,0,0,0,0,k,k,k,k,k,k,k,k,0
0,i,0,0,0,0,0,0,0,0,0,0,0,0,0,0
EXT 2,12 t 7,4
PAL 0

ROOM t
a,a,a,a,a,a,a,a,a,a,a,a,a,a,a,a
a,a,a,a,a,a,a,a,a,a,a,a,a,a,a,a
a,a,a,a,a,a,a,a,a,a,a,a,a,a,a,a
a,a,s,s,s,s,s,s,s,s,s,s,s,s,a,a
a,a,s,s,s,s,s,s,s,s,s,s,w,s,a,a
a,a,s,s,s,s,s,s,s,s,s,s,x,s,a,a
a,a,s,s,s,s,s,s,s,s,s,s,s,s,a,a
a,a,s,s,s,s,12,0,11,s,s,s,s,s,a,a
a,a,s,s,s,s,y,z,10,s,s,s,s,s,a,a
a,a,s,s,s,s,s,s,s,s,s,s,s,s,a,a
a,a,s,s,s,s,s,s,s,s,s,s,s,s,a,a
a,a,s,s,s,s,s,s,s,s,s,s,s,s,a,a
a,a,a,a,a,a,a,t,a,a,a,a,a,a,a,a
a,a,a,a,a,a,a,a,a,a,a,a,a,a,a,a
a,a,a,a,a,a,a,a,a,a,a,a,a,a,a,a
a,a,a,a,a,a,a,a,a,a,a,a,a,a,a,a
EXT 7,12 u 3,13
PAL 0

ROOM u
a,a,a,a,a,a,a,a,a,a,a,a,a,a,a,a
a,a,a,a,a,a,a,a,a,a,h,a,a,a,a,a
a,h,a,a,a,a,a,a,a,a,a,a,a,a,a,a
a,a,a,a,a,a,a,a,a,a,a,a,a,a,a,a
a,a,a,a,a,a,a,a,a,a,a,a,a,a,a,a
a,a,a,a,a,a,a,a,a,a,a,a,a,h,a,a
a,a,a,a,a,a,a,a,a,a,a,a,a,a,a,a
a,a,a,a,a,a,a,a,a,a,a,a,a,a,a,a
a,b,g,c,d,e,f,0,0,f,e,d,c,g,b,a
0,0,0,j,0,0,0,0,0,i,0,0,j,0,0,0
i,0,0,0,0,0,0,0,0,0,0,0,0,0,0,0
0,q,r,0,0,j,0,k,k,k,k,k,k,k,k,0
0,o,p,0,0,0,0,m,13,13,13,13,13,13,l,0
0,0,0,0,0,0,0,0,13,13,13,13,13,13,l,0
0,0,0,0,0,0,0,k,k,k,k,k,k,k,k,0
0,i,0,0,0,0,0,0,0,0,0,0,0,0,0,0
EXT 2,12 v 8,12
PAL 0

ROOM v
a,a,a,a,a,a,a,a,a,a,a,a,a,a,a,a
a,a,a,a,a,a,a,a,a,a,a,a,a,a,a,a
a,a,a,a,a,a,a,a,a,a,a,a,a,a,a,a
a,a,a,a,a,16,a,a,a,a,a,a,16,a,a,a
a,a,a,a,a,a,a,a,a,a,a,a,a,a,a,a
a,16,a,a,a,a,a,a,17,a,a,a,a,a,a,a
a,a,a,a,a,a,a,a,17,a,a,a,a,a,16,17
a,a,a,a,a,a,16,a,17,a,a,a,16,a,a,a
a,16,a,a,a,a,a,a,17,a,a,a,a,a,a,a
a,a,a,a,a,a,a,a,17,a,a,a,a,a,a,a
16,a,a,a,a,a,a,a,17,a,a,16,a,a,a,a
a,a,a,a,a,a,a,a,17,a,a,a,a,a,a,a
a,a,a,a,a,a,a,a,17,a,a,a,a,a,a,a
a,a,a,a,16,a,a,a,a,a,a,a,a,a,a,a
a,a,a,a,a,a,a,a,a,a,a,a,a,a,a,a
a,a,a,a,a,a,a,a,a,a,a,a,a,a,a,a
EXT 8,5 w 7,3
PAL 0

ROOM w
a,a,a,a,a,a,a,a,a,a,a,a,a,a,a,a
a,a,a,a,a,a,a,a,a,a,a,a,a,a,a,a
a,a,a,a,a,a,a,a,a,a,a,a,a,a,a,a
a,a,s,s,s,s,s,s,s,s,s,s,s,s,a,a
a,a,s,s,s,s,s,s,s,s,s,s,w,s,a,a
a,a,s,s,s,s,s,s,s,s,s,s,x,s,a,a
a,a,s,s,s,s,s,s,s,s,s,s,s,s,a,a
a,a,s,s,s,s,12,0,11,s,s,s,s,s,a,a
a,a,s,s,s,s,y,z,10,s,s,s,s,s,a,a
a,a,s,s,s,s,s,s,s,s,s,s,s,s,a,a
a,a,s,s,s,s,s,s,s,s,s,s,s,s,a,a
a,a,s,s,s,s,s,s,s,s,s,s,s,s,a,a
a,a,a,a,a,a,a,t,a,a,a,a,a,a,a,a
a,a,a,a,a,a,a,a,a,a,a,a,a,a,a,a
a,a,a,a,a,a,a,a,a,a,a,a,a,a,a,a
a,a,a,a,a,a,a,a,a,a,a,a,a,a,a,a
EXT 7,12 x 3,13
PAL 0

ROOM x
a,a,a,a,a,a,a,a,a,a,a,a,a,a,a,a
a,a,a,a,a,a,a,a,a,a,h,a,a,a,a,a
a,h,a,a,a,a,a,a,a,a,a,a,a,a,a,a
a,a,a,a,a,a,a,a,a,a,a,a,a,a,a,a
a,a,a,a,a,a,a,a,a,a,a,a,a,a,a,a
a,a,a,a,a,a,a,a,a,a,a,a,a,h,a,a
a,a,a,a,a,a,a,a,a,a,a,a,a,a,a,a
a,a,a,a,a,a,a,a,a,a,a,a,a,a,a,a
a,b,g,c,d,e,f,0,0,f,e,d,c,g,b,a
0,0,0,j,0,0,0,0,0,i,0,0,j,0,0,0
i,0,0,0,0,0,0,0,0,0,0,0,0,0,0,0
0,q,r,0,0,j,0,k,k,k,k,k,k,k,k,0
0,o,p,0,0,0,0,m,13,13,13,13,13,13,l,0
0,0,0,0,0,0,0,0,13,13,13,13,13,13,l,0
0,0,0,0,0,0,0,k,k,k,k,k,k,k,k,0
0,i,0,0,0,0,0,0,0,0,0,0,0,0,0,0
EXT 2,12 y 8,12
PAL 0

ROOM y
a,a,a,a,a,a,a,a,a,a,a,a,a,a,a,a
a,a,a,a,a,a,a,18,1c,a,a,a,a,a,a,a
a,a,a,a,a,a,a,1a,1d,1f,a,a,a,a,a,a
a,a,a,a,a,a,a,19,1e,1b,a,a,a,a,a,a
a,a,a,a,a,a,a,a,a,a,a,a,a,a,a,a
a,a,a,a,a,a,a,a,17,a,a,a,a,a,a,a
a,a,a,a,a,a,a,a,17,a,a,a,a,a,a,a
a,a,a,a,a,a,a,a,17,a,a,a,a,a,a,a
a,a,a,a,a,a,a,a,17,a,a,a,a,a,a,a
a,a,a,a,a,a,a,a,17,a,a,a,a,a,a,a
a,a,a,a,a,a,a,a,17,a,a,a,a,a,a,a
a,a,a,a,a,a,a,a,17,a,a,a,a,a,a,a
a,a,a,a,a,a,a,a,17,a,a,a,a,a,a,a
a,a,a,a,a,a,a,a,17,a,a,a,a,a,a,a
a,a,a,a,a,a,a,a,a,a,a,a,a,a,a,a
a,a,a,a,a,a,a,a,a,a,a,a,a,a,a,a
EXT 8,5 z 7,3
PAL 0

ROOM z
a,a,a,a,a,a,a,a,a,a,a,a,a,a,a,a
a,a,a,a,a,a,a,a,a,a,a,a,a,a,a,a
a,a,a,a,a,a,a,a,a,a,a,a,a,a,a,a
a,a,s,s,s,s,s,s,s,s,s,s,s,s,a,a
a,a,s,s,s,s,s,s,s,s,s,s,w,s,a,a
a,a,s,s,s,s,s,s,s,s,s,s,x,s,a,a
a,a,s,s,s,s,s,s,s,s,s,s,s,s,a,a
a,a,s,s,s,s,12,0,11,s,s,s,s,s,a,a
a,a,s,s,s,s,y,z,10,s,s,s,s,s,a,a
a,a,s,s,s,s,s,s,s,s,s,s,s,s,a,a
a,a,s,s,s,s,s,s,s,s,s,s,s,s,a,a
a,a,s,s,s,s,s,s,s,s,s,s,s,s,a,a
a,a,a,a,a,a,a,t,a,a,a,a,a,a,a,a
a,a,a,a,a,a,a,a,a,a,a,a,a,a,a,a
a,a,a,a,a,a,a,a,a,a,a,a,a,a,a,a
a,a,a,a,a,a,a,a,a,a,a,a,a,a,a,a
EXT 7,12 10 3,13
PAL 0

TIL 10
00000001
00000001
00000001
00000001
00000001
11111111
00000100
11111111
WAL true

TIL 11
00000001
00000001
00000001
00000001
00000001
00000001
00000001
00000001
WAL true

TIL 12
10000000
10000000
10000000
10000000
10000000
10000000
10000000
10000000
WAL true

TIL 13
00000000
00000000
00000000
00000000
00111000
01101100
11000111
00000000

TIL 14
00000000
11110000
00111000
11101000
00000100
00000000
00001000
00000000
>
00000000
11110000
00111000
11100100
00001000
00000100
00001000
00000000

TIL 15
00000000
00001111
00011100
00000111
00100000
01000000
00100000
00000000
>
00000000
00001111
00011100
00100111
01000000
00100000
01000000
00000000

TIL 16
11111111
10111011
11111111
11101111
11111111
10111101
11111111
11111111
>
11111111
11111111
11101111
11111101
11111111
11011111
11111011
11111111
WAL true

TIL 17
11111111
11111111
11111111
11111111
11111111
11111111
11111111
11111111
WAL false

TIL 18
11111111
11111100
11110000
11100001
11000011
10000111
10000111
00000111
WAL true

TIL 19
10000000
10000000
11000000
11000000
11100000
11100000
11110000
11111100
WAL false

TIL a
11111111
11111111
11111111
11111111
11111111
11111111
11111111
11111111
WAL true

TIL b
11111111
11111111
11111111
11111111
11111111
11111111
11111111
00000000
WAL true

TIL c
11111111
11111111
11111111
11111111
11111111
00000000
00000000
00000000
WAL true

TIL d
11111111
11111111
11111111
11111111
00000000
00000000
00000000
00000000
WAL true

TIL e
11111111
11111111
11111111
00000000
00000000
00000000
00000000
00000000
WAL true

TIL f
11111111
00000000
00000000
00000000
00000000
00000000
00000000
00000000
WAL true

TIL g
11111111
11111111
11111111
11111111
11111111
11111111
00000000
00000000
WAL true

TIL h
11111111
11100111
11100111
10000001
10000001
11100111
11100111
11111111
>
11111111
11111111
11000011
11000011
11000011
11000011
11111111
11111111

TIL i
00000000
00000000
00111100
11000011
01000010
01000010
10111101
00000000
WAL false

TIL j
00000000
00000110
00001001
01101001
10010110
10010000
10010000
01101000

TIL k
00000000
10000001
11111111
11000011
10100101
10011001
11111111
10000001
WAL true

TIL l
00000001
00000001
00000001
00000001
00000001
00000001
00000001
00000001
WAL true

TIL m
10000000
10000000
10000000
10000000
10000000
10000000
10000000
10000000
WAL true

TIL n
00000000
00000000
00000000
00000000
00000000
00000000
00000000
00000000

TIL o
01000000
01111111
01000000
01000000
01111111
01000000
01000000
01111111
WAL true

TIL p
00000010
11111110
10001010
10001010
10011110
10001010
10001010
11111110
WAL false

TIL q
00000011
00001110
00011000
00110000
01100000
11111111
01000000
01111111
WAL true

TIL r
11000000
01110000
00011000
00001100
00000110
11111111
00000010
11111110
WAL true

TIL s
00000100
00010101
00000100
11111111
00100000
10101000
00100000
11111111

TIL t
11000011
11000011
11100011
11000011
11000011
11000011
11100111
11111111

TIL w
00000100
11111111
10100101
10100101
11111111
10000001
10000001
10000001

TIL x
10000001
10000001
10000001
10000001
10000001
10000001
11111111
11111111

TIL y
10000000
10000000
10000000
10000000
10000000
11111111
00100000
11111111
WAL true

TIL z
00000000
00000000
00000000
00000000
00000000
11111111
00000000
11111111
WAL true

TIL 1a
10000011
10000001
00000000
00000000
00000000
00000000
10000000
10000000
WAL false

TIL 1b
11110001
00000001
00000011
00000111
00000111
00000111
00011111
00111111
WAL false

TIL 1c
00000111
00000011
11111001
11111101
11111111
11111111
11111111
11111111
WAL false

TIL 1d
11111111
11111111
11111111
00000011
00111101
01011011
10011010
01111100

TIL 1e
00000000
00000000
00000000
00010000
00010000
00000000
00000000
00000000

TIL 1f
11111111
11111111
11111111
11111111
11110111
11111011
11111001
11111001
WAL true

TIL 1g
11111111
11111111
11111111
11111111
11111111
00001111
00000111
00000000
WAL true

TIL 1h
11111111
11111111
11111111
11111111
11111111
11110000
11100000
00000000
WAL true

TIL 1i
00000000
11000000
11111000
11111111
11111111
11111111
11111111
11111111
WAL true

TIL 1j
00000000
11100000
11110000
11111111
11111111
11111111
11111111
11111111
WAL true

TIL 1k
00000000
00000111
00001111
11111111
11111111
11111111
11111111
11111111
WAL true

TIL 1l
00000000
00000000
00000000
10000001
11111111
11111111
11111111
11111111
WAL true

TIL 1m
11111000
11100000
11000000
00000000
00000000
11000000
11100000
11111100
WAL true

TIL 1n
00011111
00000111
00000011
00000000
00000000
00000011
00000111
00011111
WAL true

TIL 1o
01001110
00111000
01100010
01011110
00110000
01100110
01011110
00110000
>
01100110
00011110
01110000
01101110
00011000
01110010
01101110
00011000

TIL 1p
00000000
00000000
00000000
00011000
00111100
01100110
01011110
00110000
>
00000000
00000000
00000000
00011000
00111100
01110010
01101110
00011000

SPR 10
00000000
00000000
00000000
00000000
00000000
00000000
00010000
00101000
POS 9 11,12

SPR 11
00000000
00000000
00000000
00000000
00000000
00000000
00010000
00101000
POS 9 12,12

SPR 12
00000000
00000000
00000000
00000000
00000000
00000000
00010000
00101000
POS 9 13,12

SPR 13
00000000
00000000
00000000
00000000
00000000
00000000
00010000
00101000
POS 9 13,13

SPR 14
00000000
00000000
00000000
00000000
00000000
00000000
00010000
00101000
POS a 8,12

SPR 15
00000000
00000000
00000000
00000000
00000000
00000000
00010000
00101000
POS a 9,12

SPR 16
00000000
00000000
00000000
00000000
00000000
00000000
00010000
00101000
POS a 10,12

SPR 17
00000000
00000000
00000000
00000000
00000000
00000000
00010000
00101000
POS a 11,12

SPR 18
00000000
00000000
00000000
00000000
00000000
00000000
00010000
00101000
POS a 12,12

SPR 19
00000000
00000000
00000000
00000000
00000000
00000000
00010000
00101000
POS a 13,12

SPR 20
00000000
00000000
00000000
00000000
00000000
00000000
00010000
00101000
POS d 13,12

SPR 21
00000000
00000000
00000000
00000000
00000000
00000000
00010000
00101000
POS d 13,13

SPR 22
00000000
00000000
00000000
00000000
00000000
00000000
00010000
00101000
POS d 12,13

SPR 23
00000000
00000000
00000000
00000000
00000000
00000000
00010000
00101000
POS d 11,13

SPR 24
00000000
00000000
00000000
00000000
00000000
00000000
00010000
00101000
POS d 10,13

SPR 25
00000000
00000000
00000000
00000000
00000000
00000000
00010000
00101000
POS d 9,13

SPR 26
00000000
00000000
00000000
00000000
00000000
00000000
00010000
00101000
POS e 8,12

SPR 27
00000000
00000000
00000000
00000000
00000000
00000000
00010000
00101000
POS e 9,12

SPR 28
00000000
00000000
00000000
00000000
00000000
00000000
00010000
00101000
POS e 10,12

SPR 29
00000000
00000000
00000000
00000000
00000000
00000000
00010000
00101000
POS e 11,12

SPR 30
00010000
00010000
00010000
00010000
00010000
00010000
00010000
00101000
POS h 9,13

SPR 31
00010000
00010000
00010000
00010000
00010000
00010000
00010000
00101000
POS h 10,13

SPR 32
00010000
00010000
00010000
00010000
00010000
00010000
00010000
00101000
POS h 11,13

SPR 33
00010000
00010000
00010000
00010000
00010000
00010000
00010000
00101000
POS h 12,13

SPR 34
00010000
00010000
00010000
00010000
00010000
00010000
00010000
00101000
POS h 13,13

SPR 35
00010000
00010000
00010000
00010000
00010000
00010000
00010000
00101000

SPR 36
00010000
00010000
00010000
00010000
00010000
00010000
00010000
00101000
POS i 11,12

SPR 37
00010000
00010000
00010000
00010000
00010000
00010000
00010000
00101000
POS i 12,12

SPR 38
00010000
00010000
00010000
00010000
00010000
00010000
00010000
00101000
POS i 13,12

SPR 39
00010000
00010000
00010000
00010000
00010000
00010000
00010000
00101000
POS i 13,13

SPR 40
00010000
00010000
00010000
00010000
00010000
00010000
00010000
00101000
POS l 10,13

SPR 41
00010000
00010000
00010000
00010000
00010000
00010000
00010000
00101000
POS l 9,13

SPR 42
00010000
00010000
00010000
00010000
00010000
00010000
00010000
00101000
POS l 8,13

SPR 43
00010000
00010000
00010000
00010000
00010000
00010000
00010000
00101000

SPR 44
00010000
00010000
00010000
00010000
00010000
00010000
00010000
00101000
POS m 12,13

SPR 45
00010000
00010000
00010000
00010000
00010000
00010000
00010000
00101000
POS m 11,13

SPR 46
00010000
00010000
00010000
00010000
00010000
00010000
00010000
00101000
POS m 10,13

SPR 47
00010000
00010000
00010000
00010000
00010000
00010000
00010000
00101000
POS m 9,13

SPR 48
00010000
00010000
00010000
00010000
00010000
00010000
00010000
00101000
POS m 8,13

SPR 49
00010000
00010000
00010000
00010000
00010000
00010000
00010000
00101000

SPR 50
00010000
00100000
00010000
00001000
00010000
00010000
00010000
00101000
>
00000000
00010000
00110000
00011000
00010000
00010000
00010000
00101000
POS r 10,13

SPR 51
00010000
00100000
00010000
00001000
00010000
00010000
00010000
00101000
>
00000000
00010000
00110000
00011000
00010000
00010000
00010000
00101000
POS r 8,12

SPR 52
00010000
00100000
00010000
00001000
00010000
00010000
00010000
00101000
>
00000000
00010000
00110000
00011000
00010000
00010000
00010000
00101000
POS r 9,12

SPR 53
00010000
00100000
00010000
00001000
00010000
00010000
00010000
00101000
>
00000000
00010000
00110000
00011000
00010000
00010000
00010000
00101000
POS r 10,12

SPR 54
00010000
00100000
00010000
00001000
00010000
00010000
00010000
00101000
>
00000000
00010000
00110000
00011000
00010000
00010000
00010000
00101000
POS r 11,12

SPR 55
00010000
00100000
00010000
00001000
00010000
00010000
00010000
00101000
>
00000000
00010000
00110000
00011000
00010000
00010000
00010000
00101000
POS r 12,12

SPR 56
00010000
00100000
00010000
00001000
00010000
00010000
00010000
00101000
>
00000000
00010000
00110000
00011000
00010000
00010000
00010000
00101000
POS r 13,12

SPR 57
00010000
00100000
00010000
00001000
00010000
00010000
00010000
00101000
>
00000000
00010000
00110000
00011000
00010000
00010000
00010000
00101000
POS r 13,13

SPR 58
00010000
00100000
00010000
00001000
00010000
00010000
00010000
00101000
>
00000000
00010000
00110000
00011000
00010000
00010000
00010000
00101000
POS r 12,13

SPR 59
00010000
00100000
00010000
00001000
00010000
00010000
00010000
00101000
>
00000000
00010000
00110000
00011000
00010000
00010000
00010000
00101000
POS r 11,13

SPR 60
00010000
00100000
00010000
00001000
00010000
00010000
00010000
00101000
>
00000000
00010000
00110000
00011000
00010000
00010000
00010000
00101000
POS n 11,12

SPR 61
00010000
00100000
00010000
00001000
00010000
00010000
00010000
00101000
>
00000000
00010000
00110000
00011000
00010000
00010000
00010000
00101000
POS n 10,12

SPR 62
00010000
00100000
00010000
00001000
00010000
00010000
00010000
00101000
>
00000000
00010000
00110000
00011000
00010000
00010000
00010000
00101000
POS n 9,12

SPR 63
00010000
00100000
00010000
00001000
00010000
00010000
00010000
00101000
>
00000000
00010000
00110000
00011000
00010000
00010000
00010000
00101000
POS n 8,12

SPR 64
00010000
00100000
00010000
00001000
00010000
00010000
00010000
00101000
>
00000000
00010000
00110000
00011000
00010000
00010000
00010000
00101000
POS m 12,12

SPR 65
00010000
00100000
00010000
00001000
00010000
00010000
00010000
00101000
>
00000000
00010000
00110000
00011000
00010000
00010000
00010000
00101000
POS m 11,12

SPR 66
00010000
00100000
00010000
00001000
00010000
00010000
00010000
00101000
>
00000000
00010000
00110000
00011000
00010000
00010000
00010000
00101000
POS m 10,12

SPR 67
00010000
00100000
00010000
00001000
00010000
00010000
00010000
00101000
>
00000000
00010000
00110000
00011000
00010000
00010000
00010000
00101000
POS m 9,12

SPR 68
00010000
00100000
00010000
00001000
00010000
00010000
00010000
00101000
>
00000000
00010000
00110000
00011000
00010000
00010000
00010000
00101000
POS m 8,12

SPR 69
00010000
00100000
00010000
00001000
00010000
00010000
00010000
00101000
>
00000000
00010000
00110000
00011000
00010000
00010000
00010000
00101000
POS l 11,12

SPR 70
01111110
10000001
10011101
11010101
00100101
10011101
10000001
01111110
>
01111110
10000001
10111101
10100101
10100101
11001101
00000001
01111110

SPR 71
00000000
00100000
01110000
00111000
00011000
00001100
00000110
00000011

SPR 72
00000011
00000011
00000110
00000110
00011100
00110000
00110000
01010000

SPR 73
00000111
00000110
00001100
00010000
00010000
00110000
00110000
01010000
>
00000111
00000111
00000110
00000110
00011100
00110000
00110000
01010000
POS x 11,13

SPR 74
00010000
00111000
00111000
00111000
01111110
01111110
11111101
10111011

SPR 75
00111000
00111000
00111000
00010000
00010000
00010000
00010000
00101000

SPR 76
11000000
11000000
01000000
00110000
00011000
00011000
00000100
00001010
POS x 10,13

SPR 77
00000000
00000000
00010100
00011000
00110000
01100000
11000000
10000000

SPR 78
00000000
00000000
00010100
00011000
00110000
01100000
11000000
10000000
>
00000000
00000000
00010100
01111000
01100000
11000000
10000000
10000000
POS x 13,12

SPR 79
11000000
11000000
01000000
00110000
00011000
00011000
00000100
00001010
>
11000000
01100000
00010000
00001000
00001000
00011000
00000100
00001010
POS x 13,13

SPR 80
01110000
11100000
10010000
00110000
11100000
00110000
11110000
11110000
POS 10 13,12

SPR 81
01110000
11100000
10010000
00110000
11100000
00110000
11110000
11110000
POS 10 13,11

SPR 82
01110000
11100000
10010000
00110000
11100000
00110000
11110000
11110000
POS 10 13,10

SPR 83
11111100
11100011
00011111
11111111
11111111
11000000
00111111
11111111
POS 10 12,10

SPR 84
11111100
11100011
00011111
11111111
11111111
11000000
00111111
11111111
POS 10 12,11

SPR 85
11111100
11100011
00011111
11111111
11111111
11000000
00111111
11111111
POS 10 12,12

SPR 86
00000000
00000000
00000000
00000000
10000000
11000000
11000000
11100000
POS 10 13,9

SPR 87
00000000
00000000
00000000
00000001
00000111
00001111
00001111
00011111
POS 10 11,9

SPR 88
11111111
11111111
11111111
11111111
11111111
11111111
00010000
00111000
POS 10 12,13

SPR 89
11110000
11110000
11110000
11110000
11110000
11110000
00010000
00011000
POS 10 13,13

SPR 90
11111111
11111111
11111111
11111111
11111110
11000001
00001111
11111111
POS 13 9,7

SPR 91
11111111
11111111
11111111
11111111
11111110
11000001
00001111
11111111
POS 13 9,6

SPR 92
11111111
11111111
11111111
11111111
11111110
11000001
00001111
11111111
POS 13 9,5

SPR 93
11111111
11111111
11111111
11111111
11111110
11000001
00001111
11111111
POS 13 9,4

SPR 94
11111111
11111111
11111111
11111111
11111110
11000001
00001111
11111111
POS 13 9,3

SPR 95
11111111
11111111
11111111
11111111
11111110
11000001
00001111
11111111
POS 13 9,2

SPR 96
11111111
11111111
11111111
11111111
11111110
11000001
00001111
11111111
POS 13 9,1

SPR 97
11111111
11111111
11111111
11111111
11111110
11000001
00001111
11111111
POS 13 9,0

SPR 98
11111111
11111111
11111111
11111111
11111110
11000001
00001111
11111111
POS 13 9,13

SPR 99
11111111
11111111
11111111
11111111
11111111
11111111
11111111
01111111
POS 16 7,5

SPR A
00011000
00011000
00011000
00111100
01111110
10111101
00100100
00100100
POS 2 7,4

SPR a
00000000
00000000
01010001
01110001
01110010
01111100
00111100
00100100
DLG SPR_0
POS 0 7,10

SPR b
00000000
00000000
00000000
00000000
00000000
00000000
00010000
00101000
POS 3 8,12

SPR c
11111111
10000001
10111101
10000001
10010101
10101001
10000001
11111111
NAME Day 1 journal
DLG SPR_2
POS 2 7,7

SPR d
00000000
00000000
00000000
00000000
00000000
00000000
00010000
00101000
POS 4 8,12

SPR e
00000000
00000000
00000000
00000000
00000000
00000000
00010000
00101000
POS 4 9,12

SPR f
00000000
00000000
00000000
00000000
00000000
00000000
00010000
00101000
POS 5 8,12

SPR g
00000000
00000000
00000000
00000000
00000000
00000000
00010000
00101000
POS 5 9,12

SPR h
00000000
00000000
00000000
00000000
00000000
00000000
00010000
00101000
POS 5 10,12

SPR i
00000000
00000000
00000000
00000000
00000000
00000000
00010000
00101000
POS 6 8,12

SPR j
00000000
00000000
00000000
00000000
00000000
00000000
00010000
00101000
POS 6 9,12

SPR k
00000000
00000000
00000000
00000000
00000000
00000000
00010000
00101000
POS 6 10,12

SPR l
00000000
00000000
00000000
00000000
00000000
00000000
00010000
00101000
POS 6 11,12

SPR m
00000000
00000000
00000000
00000000
00000000
00000000
00010000
00101000
POS 7 8,12

SPR n
00000000
00000000
00000000
00000000
00000000
00000000
00010000
00101000
POS 7 9,12

SPR o
00000000
00000000
00000000
00000000
00000000
00000000
00010000
00101000
POS 7 10,12

SPR p
00000000
00000000
00000000
00000000
00000000
00000000
00010000
00101000
POS 7 11,12

SPR q
00000000
00000000
00000000
00000000
00000000
00000000
00010000
00101000
POS 7 12,12

SPR r
00000000
00000000
00000000
00000000
00000000
00000000
00010000
00101000
POS 8 8,12

SPR s
00000000
00000000
00000000
00000000
00000000
00000000
00010000
00101000
POS 8 9,12

SPR t
00000000
00000000
00000000
00000000
00000000
00000000
00010000
00101000
POS 8 10,12

SPR u
00000000
00000000
00000000
00000000
00000000
00000000
00010000
00101000
POS 8 11,12

SPR v
00000000
00000000
00000000
00000000
00000000
00000000
00010000
00101000
POS 8 12,12

SPR w
00000000
00000000
00000000
00000000
00000000
00000000
00010000
00101000
POS 8 13,12

SPR x
00000000
00000000
00000000
00000000
00000000
00000000
00010000
00101000
POS 9 8,12

SPR y
00000000
00000000
00000000
00000000
00000000
00000000
00010000
00101000
POS 9 9,12

SPR z
00000000
00000000
00000000
00000000
00000000
00000000
00010000
00101000
POS 9 10,12

SPR 1a
00000000
00000000
00000000
00000000
00000000
00000000
00010000
00101000
POS a 13,13

SPR 1b
00000000
00000000
00000000
00000000
00000000
00000000
00010000
00101000
POS a 12,13

SPR 1c
00000000
00000000
00000000
00000000
00000000
00000000
00010000
00101000
POS b 8,12

SPR 1d
00000000
00000000
00000000
00000000
00000000
00000000
00010000
00101000
POS b 9,12

SPR 1e
00000000
00000000
00000000
00000000
00000000
00000000
00010000
00101000
POS b 10,12

SPR 1f
00000000
00000000
00000000
00000000
00000000
00000000
00010000
00101000
POS b 11,12

SPR 1g
00000000
00000000
00000000
00000000
00000000
00000000
00010000
00101000
POS b 12,12

SPR 1h
00000000
00000000
00000000
00000000
00000000
00000000
00010000
00101000
POS b 13,12

SPR 1i
00000000
00000000
00000000
00000000
00000000
00000000
00010000
00101000
POS b 13,13

SPR 1j
00000000
00000000
00000000
00000000
00000000
00000000
00010000
00101000
POS b 12,13

SPR 1k
00000000
00000000
00000000
00000000
00000000
00000000
00010000
00101000
POS b 11,13

SPR 1l
00000000
00000000
00000000
00000000
00000000
00000000
00010000
00101000
POS c 8,12

SPR 1m
00000000
00000000
00000000
00000000
00000000
00000000
00010000
00101000
POS c 9,12

SPR 1n
00000000
00000000
00000000
00000000
00000000
00000000
00010000
00101000
POS c 10,12

SPR 1o
00000000
00000000
00000000
00000000
00000000
00000000
00010000
00101000
POS c 11,12

SPR 1p
00000000
00000000
00000000
00000000
00000000
00000000
00010000
00101000
POS c 12,12

SPR 1q
00000000
00000000
00000000
00000000
00000000
00000000
00010000
00101000
POS c 13,12

SPR 1r
00000000
00000000
00000000
00000000
00000000
00000000
00010000
00101000
POS c 13,13

SPR 1s
00000000
00000000
00000000
00000000
00000000
00000000
00010000
00101000
POS c 12,13

SPR 1t
00000000
00000000
00000000
00000000
00000000
00000000
00010000
00101000
POS c 11,13

SPR 1u
00000000
00000000
00000000
00000000
00000000
00000000
00010000
00101000
POS c 10,13

SPR 1v
00000000
00000000
00000000
00000000
00000000
00000000
00010000
00101000
POS d 8,12

SPR 1w
00000000
00000000
00000000
00000000
00000000
00000000
00010000
00101000
POS d 9,12

SPR 1x
00000000
00000000
00000000
00000000
00000000
00000000
00010000
00101000
POS d 10,12

SPR 1y
00000000
00000000
00000000
00000000
00000000
00000000
00010000
00101000
POS d 11,12

SPR 1z
00000000
00000000
00000000
00000000
00000000
00000000
00010000
00101000
POS d 12,12

SPR 2a
00000000
00000000
00000000
00000000
00000000
00000000
00010000
00101000
POS e 12,12

SPR 2b
00000000
00000000
00000000
00000000
00000000
00000000
00010000
00101000
POS e 13,12

SPR 2c
00000000
00000000
00000000
00000000
00000000
00000000
00010000
00101000
POS e 13,13

SPR 2d
00000000
00000000
00000000
00000000
00000000
00000000
00010000
00101000
POS e 12,13

SPR 2e
00000000
00000000
00000000
00000000
00000000
00000000
00010000
00101000
POS e 11,13

SPR 2f
00000000
00000000
00000000
00000000
00000000
00000000
00010000
00101000
POS e 10,13

SPR 2g
00000000
00000000
00000000
00000000
00000000
00000000
00010000
00101000
POS e 9,13

SPR 2h
00000000
00000000
00000000
00000000
00000000
00000000
00010000
00101000
DLG SPR_1
POS e 8,13

SPR 2i
11111111
10000001
10111101
10000001
10010101
10101001
10000001
11111111
DLG SPR_3
POS f 7,7

SPR 2j
00010000
00010000
00010000
00010000
00010000
00010000
00010000
00101000
POS g 8,12

SPR 2k
00010000
00010000
00010000
00010000
00010000
00010000
00010000
00101000
POS g 9,12

SPR 2l
00010000
00010000
00010000
00010000
00010000
00010000
00010000
00101000
POS g 10,12

SPR 2m
00010000
00010000
00010000
00010000
00010000
00010000
00010000
00101000
POS g 11,12

SPR 2n
00010000
00010000
00010000
00010000
00010000
00010000
00010000
00101000
POS g 12,12

SPR 2o
00010000
00010000
00010000
00010000
00010000
00010000
00010000
00101000
POS g 13,12

SPR 2p
00010000
00010000
00010000
00010000
00010000
00010000
00010000
00101000
POS g 8,13

SPR 2q
00010000
00010000
00010000
00010000
00010000
00010000
00010000
00101000
POS g 9,13

SPR 2r
00010000
00010000
00010000
00010000
00010000
00010000
00010000
00101000
POS g 10,13

SPR 2s
00010000
00010000
00010000
00010000
00010000
00010000
00010000
00101000
POS g 11,13

SPR 2t
00010000
00010000
00010000
00010000
00010000
00010000
00010000
00101000
POS g 12,13

SPR 2u
00010000
00010000
00010000
00010000
00010000
00010000
00010000
00101000

SPR 2v
00010000
00010000
00010000
00010000
00010000
00010000
00010000
00101000
POS h 10,12

SPR 2w
00010000
00010000
00010000
00010000
00010000
00010000
00010000
00101000
POS h 11,12

SPR 2x
00010000
00010000
00010000
00010000
00010000
00010000
00010000
00101000
POS h 12,12

SPR 2y
00010000
00010000
00010000
00010000
00010000
00010000
00010000
00101000
POS h 13,12

SPR 2z
00010000
00010000
00010000
00010000
00010000
00010000
00010000
00101000
POS h 8,13

SPR 3a
00010000
00010000
00010000
00010000
00010000
00010000
00010000
00101000
POS i 12,13

SPR 3b
00010000
00010000
00010000
00010000
00010000
00010000
00010000
00101000
POS i 11,13

SPR 3c
00010000
00010000
00010000
00010000
00010000
00010000
00010000
00101000
POS i 10,13

SPR 3d
00010000
00010000
00010000
00010000
00010000
00010000
00010000
00101000
POS i 9,13

SPR 3e
00010000
00010000
00010000
00010000
00010000
00010000
00010000
00101000
POS i 8,13

SPR 3f
00010000
00010000
00010000
00010000
00010000
00010000
00010000
00101000

SPR 3g
00010000
00010000
00010000
00010000
00010000
00010000
00010000
00101000
POS j 12,12

SPR 3h
00010000
00010000
00010000
00010000
00010000
00010000
00010000
00101000
POS j 13,12

SPR 3i
00010000
00010000
00010000
00010000
00010000
00010000
00010000
00101000
POS j 13,13

SPR 3j
00010000
00010000
00010000
00010000
00010000
00010000
00010000
00101000
POS j 12,13

SPR 3k
00010000
00010000
00010000
00010000
00010000
00010000
00010000
00101000
POS j 11,13

SPR 3l
00010000
00010000
00010000
00010000
00010000
00010000
00010000
00101000
POS j 10,13

SPR 3m
00010000
00010000
00010000
00010000
00010000
00010000
00010000
00101000
POS j 9,13

SPR 3n
00010000
00010000
00010000
00010000
00010000
00010000
00010000
00101000
POS j 8,13

SPR 3o
00010000
00010000
00010000
00010000
00010000
00010000
00010000
00101000

SPR 3p
00010000
00010000
00010000
00010000
00010000
00010000
00010000
00101000
POS k 13,12

SPR 3q
00010000
00010000
00010000
00010000
00010000
00010000
00010000
00101000
POS k 13,13

SPR 3r
00010000
00010000
00010000
00010000
00010000
00010000
00010000
00101000
POS k 12,13

SPR 3s
00010000
00010000
00010000
00010000
00010000
00010000
00010000
00101000
POS k 11,13

SPR 3t
00010000
00010000
00010000
00010000
00010000
00010000
00010000
00101000
POS k 10,13

SPR 3u
00010000
00010000
00010000
00010000
00010000
00010000
00010000
00101000
POS k 9,13

SPR 3v
00010000
00010000
00010000
00010000
00010000
00010000
00010000
00101000
POS k 8,13

SPR 3w
00010000
00010000
00010000
00010000
00010000
00010000
00010000
00101000

SPR 3x
00010000
00010000
00010000
00010000
00010000
00010000
00010000
00101000
POS l 13,13

SPR 3y
00010000
00010000
00010000
00010000
00010000
00010000
00010000
00101000
POS l 12,13

SPR 3z
00010000
00010000
00010000
00010000
00010000
00010000
00010000
00101000
POS l 11,13

SPR 4a
00010000
00010000
00010000
00010000
00010000
00010000
00010000
00101000
POS n 11,13

SPR 4b
00010000
00010000
00010000
00010000
00010000
00010000
00010000
00101000
POS n 10,13

SPR 4c
00010000
00010000
00010000
00010000
00010000
00010000
00010000
00101000
POS n 9,13

SPR 4d
00010000
00010000
00010000
00010000
00010000
00010000
00010000
00101000
POS n 8,13

SPR 4e
00010000
00010000
00010000
00010000
00010000
00010000
00010000
00101000

SPR 4f
00010000
00010000
00010000
00010000
00010000
00010000
00010000
00101000
POS o 10,13

SPR 4g
00010000
00010000
00010000
00010000
00010000
00010000
00010000
00101000
POS o 8,13

SPR 4h
00010000
00010000
00010000
00010000
00010000
00010000
00010000
00101000
POS o 9,13

SPR 4i
00010000
00010000
00010000
00010000
00010000
00010000
00010000
00101000
POS p 9,13

SPR 4j
00010000
00010000
00010000
00010000
00010000
00010000
00010000
00101000

SPR 4k
00010000
00010000
00010000
00010000
00010000
00010000
00010000
00101000
POS p 8,13

SPR 4l
00010000
00010000
00010000
00010000
00010000
00010000
00010000
00101000

SPR 4m
00010000
00010000
00010000
00010000
00010000
00010000
00010000
00101000
POS q 8,13

SPR 4n
00010000
00010000
00010000
00010000
00010000
00010000
00010000
00101000

SPR 4o
00010000
00100000
00010000
00001000
00010000
00010000
00010000
00101000
>
00000000
00010000
00110000
00011000
00010000
00010000
00010000
00101000
POS s 8,13

SPR 4p
00010000
00100000
00010000
00001000
00010000
00010000
00010000
00101000
>
00000000
00010000
00110000
00011000
00010000
00010000
00010000
00101000
POS s 9,13

SPR 4q
00010000
00100000
00010000
00001000
00010000
00010000
00010000
00101000
>
00000000
00010000
00110000
00011000
00010000
00010000
00010000
00101000
POS s 8,12

SPR 4r
00010000
00100000
00010000
00001000
00010000
00010000
00010000
00101000
>
00000000
00010000
00110000
00011000
00010000
00010000
00010000
00101000
POS s 9,12

SPR 4s
00010000
00100000
00010000
00001000
00010000
00010000
00010000
00101000
>
00000000
00010000
00110000
00011000
00010000
00010000
00010000
00101000
POS s 10,12

SPR 4t
00010000
00100000
00010000
00001000
00010000
00010000
00010000
00101000
>
00000000
00010000
00110000
00011000
00010000
00010000
00010000
00101000
POS s 10,13

SPR 4u
00010000
00100000
00010000
00001000
00010000
00010000
00010000
00101000
>
00000000
00010000
00110000
00011000
00010000
00010000
00010000
00101000
POS s 11,12

SPR 4v
00010000
00100000
00010000
00001000
00010000
00010000
00010000
00101000
>
00000000
00010000
00110000
00011000
00010000
00010000
00010000
00101000
POS s 12,12

SPR 4w
00010000
00100000
00010000
00001000
00010000
00010000
00010000
00101000
>
00000000
00010000
00110000
00011000
00010000
00010000
00010000
00101000
POS s 13,12

SPR 4x
00010000
00100000
00010000
00001000
00010000
00010000
00010000
00101000
>
00000000
00010000
00110000
00011000
00010000
00010000
00010000
00101000
POS s 11,13

SPR 4y
00010000
00100000
00010000
00001000
00010000
00010000
00010000
00101000
>
00000000
00010000
00110000
00011000
00010000
00010000
00010000
00101000
POS s 12,13

SPR 4z
00010000
00100000
00010000
00001000
00010000
00010000
00010000
00101000
>
00000000
00010000
00110000
00011000
00010000
00010000
00010000
00101000
POS s 13,13

SPR 5a
00010000
00100000
00010000
00001000
00010000
00010000
00010000
00101000
>
00000000
00010000
00110000
00011000
00010000
00010000
00010000
00101000
POS q 11,13

SPR 5b
00010000
00100000
00010000
00001000
00010000
00010000
00010000
00101000
>
00000000
00010000
00110000
00011000
00010000
00010000
00010000
00101000
POS q 12,13

SPR 5c
00010000
00100000
00010000
00001000
00010000
00010000
00010000
00101000
>
00000000
00010000
00110000
00011000
00010000
00010000
00010000
00101000
POS q 13,13

SPR 5d
00010000
00100000
00010000
00001000
00010000
00010000
00010000
00101000
>
00000000
00010000
00110000
00011000
00010000
00010000
00010000
00101000
POS q 13,12

SPR 5e
00010000
00100000
00010000
00001000
00010000
00010000
00010000
00101000
>
00000000
00010000
00110000
00011000
00010000
00010000
00010000
00101000
POS q 12,12

SPR 5f
00010000
00100000
00010000
00001000
00010000
00010000
00010000
00101000
>
00000000
00010000
00110000
00011000
00010000
00010000
00010000
00101000
POS q 11,12

SPR 5g
00010000
00100000
00010000
00001000
00010000
00010000
00010000
00101000
>
00000000
00010000
00110000
00011000
00010000
00010000
00010000
00101000
POS q 10,12

SPR 5h
00010000
00100000
00010000
00001000
00010000
00010000
00010000
00101000
>
00000000
00010000
00110000
00011000
00010000
00010000
00010000
00101000
POS q 9,12

SPR 5i
00010000
00100000
00010000
00001000
00010000
00010000
00010000
00101000
>
00000000
00010000
00110000
00011000
00010000
00010000
00010000
00101000
POS q 8,12

SPR 5j
00010000
00100000
00010000
00001000
00010000
00010000
00010000
00101000
>
00000000
00010000
00110000
00011000
00010000
00010000
00010000
00101000
POS p 12,13

SPR 5k
00010000
00100000
00010000
00001000
00010000
00010000
00010000
00101000
>
00000000
00010000
00110000
00011000
00010000
00010000
00010000
00101000
POS p 13,13

SPR 5l
00010000
00100000
00010000
00001000
00010000
00010000
00010000
00101000
>
00000000
00010000
00110000
00011000
00010000
00010000
00010000
00101000
POS o 13,13

SPR 5m
00010000
00100000
00010000
00001000
00010000
00010000
00010000
00101000
>
00000000
00010000
00110000
00011000
00010000
00010000
00010000
00101000
POS p 13,12

SPR 5n
00010000
00100000
00010000
00001000
00010000
00010000
00010000
00101000
>
00000000
00010000
00110000
00011000
00010000
00010000
00010000
00101000
POS p 12,12

SPR 5o
00010000
00100000
00010000
00001000
00010000
00010000
00010000
00101000
>
00000000
00010000
00110000
00011000
00010000
00010000
00010000
00101000
POS p 11,12

SPR 5p
00010000
00100000
00010000
00001000
00010000
00010000
00010000
00101000
>
00000000
00010000
00110000
00011000
00010000
00010000
00010000
00101000
POS p 10,12

SPR 5q
00010000
00100000
00010000
00001000
00010000
00010000
00010000
00101000
>
00000000
00010000
00110000
00011000
00010000
00010000
00010000
00101000
POS p 9,12

SPR 5r
00010000
00100000
00010000
00001000
00010000
00010000
00010000
00101000
>
00000000
00010000
00110000
00011000
00010000
00010000
00010000
00101000
POS p 8,12

SPR 5s
00010000
00100000
00010000
00001000
00010000
00010000
00010000
00101000
>
00000000
00010000
00110000
00011000
00010000
00010000
00010000
00101000
POS o 13,12

SPR 5t
00010000
00100000
00010000
00001000
00010000
00010000
00010000
00101000
>
00000000
00010000
00110000
00011000
00010000
00010000
00010000
00101000
POS o 12,12

SPR 5u
00010000
00100000
00010000
00001000
00010000
00010000
00010000
00101000
>
00000000
00010000
00110000
00011000
00010000
00010000
00010000
00101000
POS o 11,12

SPR 5v
00010000
00100000
00010000
00001000
00010000
00010000
00010000
00101000
>
00000000
00010000
00110000
00011000
00010000
00010000
00010000
00101000
POS o 10,12

SPR 5w
00010000
00100000
00010000
00001000
00010000
00010000
00010000
00101000
>
00000000
00010000
00110000
00011000
00010000
00010000
00010000
00101000
POS o 9,12

SPR 5x
00010000
00100000
00010000
00001000
00010000
00010000
00010000
00101000
>
00000000
00010000
00110000
00011000
00010000
00010000
00010000
00101000
POS o 8,12

SPR 5y
00010000
00100000
00010000
00001000
00010000
00010000
00010000
00101000
>
00000000
00010000
00110000
00011000
00010000
00010000
00010000
00101000
POS n 13,12

SPR 5z
00010000
00100000
00010000
00001000
00010000
00010000
00010000
00101000
>
00000000
00010000
00110000
00011000
00010000
00010000
00010000
00101000
POS n 12,12

SPR 6a
00010000
00100000
00010000
00001000
00010000
00010000
00010000
00101000
>
00000000
00010000
00110000
00011000
00010000
00010000
00010000
00101000
POS l 10,12

SPR 6b
00010000
00100000
00010000
00001000
00010000
00010000
00010000
00101000
>
00000000
00010000
00110000
00011000
00010000
00010000
00010000
00101000
POS l 9,12

SPR 6c
00010000
00100000
00010000
00001000
00010000
00010000
00010000
00101000
>
00000000
00010000
00110000
00011000
00010000
00010000
00010000
00101000
POS l 8,12

SPR 6d
00010000
00100000
00010000
00001000
00010000
00010000
00010000
00101000
>
00000000
00010000
00110000
00011000
00010000
00010000
00010000
00101000
POS k 10,12

SPR 6e
00010000
00100000
00010000
00001000
00010000
00010000
00010000
00101000
>
00000000
00010000
00110000
00011000
00010000
00010000
00010000
00101000
POS k 9,12

SPR 6f
00010000
00100000
00010000
00001000
00010000
00010000
00010000
00101000
>
00000000
00010000
00110000
00011000
00010000
00010000
00010000
00101000
POS k 8,12

SPR 6g
00010000
00100000
00010000
00001000
00010000
00010000
00010000
00101000
>
00000000
00010000
00110000
00011000
00010000
00010000
00010000
00101000
POS j 9,12

SPR 6h
00010000
00100000
00010000
00001000
00010000
00010000
00010000
00101000
>
00000000
00010000
00110000
00011000
00010000
00010000
00010000
00101000
POS j 8,12

SPR 6i
00010000
00100000
00010000
00001000
00010000
00010000
00010000
00101000
>
00000000
00010000
00110000
00011000
00010000
00010000
00010000
00101000
POS i 8,12

SPR 6j
00000000
00000000
00000000
00000000
00000000
00000000
00000000
00000000
POS h 6,12

SPR 6k
00010000
00010000
00010000
00010000
00010000
00010000
00010000
00101000
POS g 13,13

SPR 6l
00000000
00000000
00000000
01001000
00001100
00000100
00000000
00000000

SPR 6m
11111111
10000001
10111101
10000001
10010101
10101001
10000001
11111111
DLG SPR_4
POS t 7,7

SPR 6n
00000000
00101000
00010000
00010000
00011000
00001000
00011000
00101000
>
00000000
00101000
00010000
00010000
00011000
00001000
00011000
00010100
POS u 8,12

SPR 6o
00100100
00100100
00100100
00111000
00010000
00010000
00010000
00101000
>
00010100
00011000
00110000
00011000
00010000
00010000
00010000
00101000
DLG SPR_5
POS u 8,13

SPR 6p
00000000
00101000
00010000
00010000
00011000
00001000
00011000
00101000
>
00000000
00101000
00010000
00010000
00011000
00001000
00011000
00010100
POS u 9,12

SPR 6q
00000000
00101000
00010000
00010000
00011000
00001000
00011000
00101000
>
00000000
00101000
00010000
00010000
00011000
00001000
00011000
00010100
POS u 10,12

SPR 6r
00000000
00101000
00010000
00010000
00011000
00001000
00011000
00101000
>
00000000
00101000
00010000
00010000
00011000
00001000
00011000
00010100
POS u 11,12

SPR 6s
00000000
00101000
00010000
00010000
00011000
00001000
00011000
00101000
>
00000000
00101000
00010000
00010000
00011000
00001000
00011000
00010100
POS u 12,12

SPR 6t
00000000
00101000
00010000
00010000
00011000
00001000
00011000
00101000
>
00000000
00101000
00010000
00010000
00011000
00001000
00011000
00010100
POS u 13,12

SPR 6u
00100100
00100100
00100100
00111000
00010000
00010000
00010000
00101000
>
00010100
00011000
00110000
00011000
00010000
00010000
00010000
00101000
POS u 9,13

SPR 6v
00100100
00100100
00100100
00111000
00010000
00010000
00010000
00101000
>
00010100
00011000
00110000
00011000
00010000
00010000
00010000
00101000
POS u 10,13

SPR 6w
00100100
00100100
00100100
00111000
00010000
00010000
00010000
00101000
>
00010100
00011000
00110000
00011000
00010000
00010000
00010000
00101000
POS u 11,13

SPR 6x
00100100
00100100
00100100
00111000
00010000
00010000
00010000
00101000
>
00010100
00011000
00110000
00011000
00010000
00010000
00010000
00101000
POS u 12,13

SPR 6y
00100100
00100100
00100100
00111000
00010000
00010000
00010000
00101000
>
00010100
00011000
00110000
00011000
00010000
00010000
00010000
00101000
POS u 13,13

SPR 6z
11111111
01111111
11111111
11111011
11111011
11111111
01111111
11111111
POS v 8,4

SPR 7a
00011000
00111000
00110000
00010000
00010000
00010000
00010000
00101000
>
00110000
00111000
00011000
00010000
00010000
00010000
00010000
00101000
POS x 12,13

SPR 7b
00010000
00011000
00110000
00011000
00111000
00111000
11111100
10111011
>
00010000
00110000
00011000
00110000
00110000
00111100
01111110
11111011
POS x 12,12

SPR 7c
00000000
00100000
01110000
00110000
00010000
00010000
00011100
00000111
>
00000000
00100000
01110000
00111000
00011000
00001100
00000110
00000011
POS x 11,12

SPR 7d
00011000
00111000
00110000
00010000
00010000
00010000
00010000
00101000
>
00110000
00111000
00011000
00010000
00010000
00010000
00010000
00101000
POS x 9,13

SPR 7e
00000000
00100000
01110000
00110000
00010000
00010000
00011100
00000111
>
00000000
00100000
01110000
00111000
00011000
00001100
00000110
00000011
POS x 8,12

SPR 7f
00010000
00011000
00110000
00011000
00111000
00111000
11111100
10111011
>
00010000
00110000
00011000
00110000
00110000
00111100
01111110
11111011
POS x 9,12

SPR 7g
00000000
00000000
00010100
00011000
00110000
01100000
11000000
10000000
>
00000000
00000000
00010100
01111000
01100000
11000000
10000000
10000000
POS x 10,12

SPR 7h
00000111
00000110
00001100
00010000
00010000
00110000
00110000
01010000
>
00000111
00000111
00000110
00000110
00011100
00110000
00110000
01010000
DLG SPR_7
POS x 8,13

SPR 7i
01111100
01111100
01111100
01100100
01100100
00100100
00100100
00000100
>
01111100
01111100
01111100
01111000
01111000
01010000
01010000
00010000
POS y 8,3

SPR 7j
00011111
00011111
00011111
00011111
00011111
00011111
00010000
00110000
DLG SPR_8
POS 10 8,13

SPR 7k
11111111
11111111
11111111
11111111
11111111
11111111
00010000
00111000
POS 10 9,13

SPR 7l
11110000
11110000
11110000
11110000
11110000
11110000
00010000
00011000
POS 10 10,13

SPR 7m
00011111
00011110
00011000
00001011
00011111
00011111
00001110
00010000
POS 10 8,12

SPR 7n
00011111
00011111
00011000
00001111
00011111
00011111
00001111
00010000
POS 10 8,11

SPR 7o
00011111
00011111
00011000
00000111
00011111
00011111
00001111
00010000
POS 10 8,10

SPR 7p
00000000
00000000
00000000
00000001
00000111
00001111
00001111
00011111
POS 10 8,9

SPR 7q
00001000
00011100
00111110
11111111
11111111
11111111
11111111
11111111
POS 10 9,9

SPR 7s
00010000
11100000
00010000
11110000
00100000
01110000
11110000
00010000
POS 10 10,11

SPR 7t
11000000
11100000
11100000
00110000
11100000
10110000
00110000
00010000
POS 10 10,10

SPR 7u
00000000
00000000
00000000
00000000
10000000
11000000
11000000
11100000
POS 10 10,9

SPR 7v
11111100
11100011
00011111
11111111
11111111
11000000
00111111
11111111
POS 10 9,10

SPR 7w
11111100
11100011
00011111
11111111
11111111
11000000
00111111
11111111
POS 10 9,11

SPR 7x
11111100
11100011
00011111
11111111
11111111
11000000
00111111
11111111
POS 10 9,12

SPR 7y
01110000
11100000
10010000
00110000
11100000
00110000
11110000
11110000
POS 10 10,12

SPR 7z
00001000
00011100
00111110
11111111
11111111
11111111
11111111
11111111
POS 10 12,9

SPR 8a
00011111
00011111
00011111
00011111
00011111
00011111
00010000
00110000
POS 10 11,13

SPR 8b
00011111
00011110
00011000
00001011
00011111
00011111
00001110
00010000
POS 10 11,10

SPR 8c
00011111
00011110
00011000
00001011
00011111
00011111
00001110
00010000
POS 10 11,11

SPR 8d
00011111
00011110
00011000
00001011
00011111
00011111
00001110
00010000
POS 10 11,12

SPR 8e
00000000
00111100
01111110
01100110
01100110
01111110
00111100
00000000
>
00000000
00111100
01111110
01100110
01100110
01111110
00111100
00000000
POS 11 8,2

SPR 8f
11111111
11111111
11111111
11111111
11111111
11111111
01111111
00111111
POS 13 8,13

SPR 8g
11111111
11111111
11111111
11111111
11111111
11100000
00011111
11111111
POS 13 8,12

SPR 8h
11111111
11111111
11111111
11111111
11111110
11000001
00001111
11111111
POS 13 8,11

SPR 8i
11111111
11111111
11111111
11111111
11111111
11111100
00000001
11101111
POS 13 8,10

SPR 8j
00111111
00111111
00111111
00111100
00110001
00001111
00111111
00111111
POS 13 8,9

SPR 8k
00000111
00000111
00000111
00000110
00000001
00000111
00000111
00000111
POS 13 8,8

SPR 8l
00000000
00000000
00000000
00000000
00000000
00000000
00000000
00000000

SPR 8m
11111111
11111111
11111110
11100000
00001111
11111111
11111111
11111111
POS 13 9,8

SPR 8r
11111110
11111110
11111110
11111110
11111110
11111110
11111110
11111100
POS 13 10,13

SPR 8s
11111111
11111111
11111110
11100000
00001111
11111111
11111111
11111111
POS 13 9,12

SPR 8t
11111111
11111111
11111110
11100000
00001111
11111111
11111111
11111111
POS 13 9,11

SPR 8u
11111111
11111111
11111110
11100000
00001111
11111111
11111111
11111111
POS 13 9,10

SPR 8v
11111111
11111111
11111110
11100000
00001111
11111111
11111111
11111111
POS 13 9,9

SPR 8w
11110000
10000110
01111110
11111110
11111110
11111100
11111100
11111110
POS 13 10,12

SPR 8x
11110000
10000110
01111110
11111110
11111110
11111100
11111100
11111110
POS 13 10,11

SPR 8y
11110000
10000110
01111110
11111110
11111110
11111100
11111100
11111110
POS 13 10,10

SPR 8z
11110000
10000000
01110000
11110000
11110000
11110000
11110000
11110000
POS 13 10,9

SPR 9a
11111111
11111111
11111111
11111111
11111111
01111111
00000011
00000000
POS 16 6,5

SPR 9b
11111111
11111111
11111111
00011111
00000111
00000000
00000000
00000000
POS 16 5,5

SPR 9c
11111111
00011111
00001111
00000000
00000000
00000000
00000000
00000000
POS 16 4,5

SPR 9d
00000111
00000000
00000000
00000000
00000000
00000000
00000000
00000000
POS 16 3,5

SPR 9e
00000000
00000000
00000000
00000000
00000000
11111110
11111111
00111111
POS 16 3,4

SPR 9f
00000000
00000000
00000000
11000000
11110000
00011111
00000111
00000000
POS 16 2,4

SPR 9g
00000000
00000000
11111100
00011111
00000111
00000000
00000000
00000000
POS 16 1,4

SPR 9h
11111111
00011111
00000111
00000000
00000000
00000000
00000000
00000000
POS 16 0,4

SPR 9i
11111111
11111000
11100000
00000000
00000000
00000000
00000000
00000000
POS 16 15,4

SPR 9j
00000000
00000000
00001111
11111000
11100000
00000000
00000000
00000000
POS 16 14,4

SPR 9k
00000000
00000000
00000000
00000000
00000111
11111000
11000000
00000000
POS 16 13,4

SPR 9l
00000000
00000000
00000000
00000000
00000000
00000000
00000111
11111100
POS 16 12,4

SPR 9m
11111111
11111100
11100000
00000000
00000000
00000000
00000000
00000000
POS 16 11,5

SPR 9n
11111111
11111111
11111111
11111000
11000000
00000000
00000000
00000000
POS 16 10,5

SPR 9o
11111111
11111111
11111111
11111111
11111111
11111100
11100000
00000000
POS 16 9,5

SPR 9p
11111111
11111111
11111111
11111111
11111111
11111111
11111111
11111000
POS 16 8,5

SPR 9q
11111111
11111110
11111100
01111100
01111100
01111100
00111100
00010000
POS 16 4,2

SPR 9r
00011111
00001111
00001111
00001111
00000111
00000111
00000011
00000001
POS 16 3,1

SPR 9s
11111111
01111111
00111111
00111111
01111111
01111111
01111111
00111111
POS 16 3,0

SPR 9t
11111110
11111110
11111110
11111110
11111111
11111111
11111111
11111111
POS 16 4,1

SPR 9u
11111111
11111111
11111110
11111110
11111100
11111100
11111110
11111111
POS 16 4,0

SPR 9v
11111111
11111111
11111111
11111111
11111110
11111110
11111100
01111000
POS 16 11,1

SPR 9w
00000111
00000111
00000011
00000011
00000011
00000001
00000001
00000000
POS 16 10,1

SPR 9x
11111111
11111111
11111111
11111111
11111111
11111111
11111111
11111111
POS 16 11,0

SPR 9y
10000000
10000000
10000000
00000000
00000000
00000000
00000000
00000000
POS 16 12,1

SPR 9z
11110000
11110000
11110000
11100000
11100000
11000000
10000000
10000000
POS 16 12,0

SPR a0
11111110
11111110
11111110
01111110
01111100
01111000
01111000
00110000
POS 16 13,1

SPR a1
00011111
00111111
00111111
11111111
11111110
11111110
11111110
11111110
POS 16 13,0

SPR a2
01111111
01111111
01111111
00111111
00111111
00011111
00001111
00001111
POS 16 10,0

SPR a3
00000000
00000000
00000000
00000000
00000000
00000000
01111111
11111111
POS 16 4,4

SPR a4
00000000
00000000
00000000
00000000
00000000
01111111
11111111
11111111
POS 16 5,4

SPR a5
00000000
00000000
00000000
00110000
01111111
11111111
11111111
11111111
POS 16 6,4

SPR a6
00000000
00000000
00000000
00000000
01111111
11111111
11111111
11111111
POS 16 7,4

SPR a7
00000000
00000000
00000000
00001010
10001111
11011111
11111111
11111111
POS 16 11,4

SPR a8
00001111
00000111
00000111
00001111
00001111
11111111
11111111
11111111
POS 16 9,4

SPR a9
11111000
11111000
11111100
11111110
11111110
11111111
11111111
11111111
POS 16 10,4

SPR aa
00000000
10110100
01111110
00011111
00001111
00000111
00000111
00001111
POS 16 9,3

SPR ab
00000000
00000000
11000000
11110000
11110000
11110000
11111000
11111000
POS 16 10,3

SPR ac
00000000
00000000
00000000
00000000
00000000
10000001
10100001
11110011
POS 16 8,4

SPR ad
00000000
00000000
00011000
00111100
00111100
00011000
00000000
00000000
>
00000000
00000000
00000000
00011000
00011000
00000000
00000000
00000000
POS 15 11,3

SPR ae
00000000
00000000
00011000
00111100
00111100
00011000
00000000
00000000
>
00000000
00000000
00000000
00011000
00011000
00000000
00000000
00000000
POS 15 2,4

SPR af
00000000
00000000
00011000
00111100
00111100
00011000
00000000
00000000
>
00000000
00000000
00000000
00011000
00011000
00000000
00000000
00000000
POS 15 13,10

SPR ag
00000000
01000000
11100000
01000000
00000100
00001110
00000100
00000000
>
00000000
00000000
01000000
00000000
00000000
00000100
00000000
00000000
POS 15 3,8

SPR ah
00000000
01000000
11100000
01000000
00000100
00001110
00000100
00000000
>
00000000
00000000
01000000
00000000
00000000
00000100
00000000
00000000
POS 15 14,2

SPR ai
00000000
01000000
11100000
01000000
00000100
00001110
00000100
00000000
>
00000000
00000000
01000000
00000000
00000000
00000100
00000000
00000000

SPR aj
00000000
01000000
11100000
01000000
00000100
00001110
00000100
00000000
>
00000000
00000000
01000000
00000000
00000000
00000100
00000000
00000000
POS 15 13,7

SPR ak
11111111
10000001
10111101
10000001
10010101
10101001
10000001
11111111
DLG SPR_6
POS w 7,7

SPR al
11111111
10000001
10111101
10000001
10010101
10101001
10000001
11111111
DLG SPR_9
POS z 7,7

SPR am
11111111
10000001
10111101
10000001
10010101
10101001
10000001
11111111
DLG SPR_a
POS 12 7,7

ITM 0
00000000
00000000
00000000
00111100
01100100
00100100
00011000
00000000
NAME tea
DLG ITM_0

ITM 1
00000000
00000000
00000000
00000000
00000000
00000000
00000000
00000000
DLG ITM_1

DLG SPR_0
I'm a cat

DLG ITM_0
You found a nice warm cup of tea

DLG SPR_1
All planted, Time to go HOME

DLG SPR_2
"""
DAY 1
I guess this is my new HOME. It's a bit lonely here. There isn't very much to do. I found some seeds under the bed. Might as well plant them
"""

DLG ITM_1
That was more tiring than I thought. Well time to head HOME 

DLG SPR_3
"""
Day 21
Life on the moon isn't as hard as you'd think. It is lonely though. The seeds are sprouting nicely. I wonder what might happen if I water them?
"""

DLG SPR_4
"""
Day 22
The plants have been acting really weird since I watered them. They make me kind of uncomfortable. They keep trying to wrap around themselves
"""

DLG SPR_5
Ew, they keep grabbing at each other

DLG SPR_6
"""
Day 32
Ever since I watered those weird seeds I've had strange nightmares. They keep drawing me towards them, away from safety, away from HOME. The plants disgust me. Why did I think watering them would be good? 
THE MOON HAS NO WATER IDIOT
"""

DLG SPR_7
Ugh these things are disgusting, I think they are starting to merge together though

DLG SPR_8
You know, they're actually starting to look kind of beautiful as long as you don't look too close

DLG SPR_9
"""
Day 51
THE NIGHTMARES STILL HAVEN'T STOPPED. The moon feels even more alien to me than when I first got here. This place is no HOME to me. You know, I may have been too quick to judge the plants, they are starting to come together nicely and actually look kind of nice
"""

DLG SPR_a
"""
Day 65
I need to get off this dead rock. There is nothing here for me. There is nothing here for anyone. 
I miss HOME. 
I need to go HOME.
The plant will take me HOME.
...
...
...
"""

END 0


END undefined
HOME

VAR a
42

