M.O.T.H.

# BITSY VERSION 3.5

! ROOM_FORMAT 1

PAL 0
98,68,108
148,255,132
255,242,211

ROOM 0
2f,23,2c,2d,2e,27,b,0,c,0,1l,1m,1w,1v,1u,0
22,21,2b,28,25,26,b,0,c,0,1k,1n,1q,1t,0,0
1z,20,2a,29,24,0,1e,1d,1c,1b,1l,1i,1p,1s,0,0
1y,1x,14,18,19,1g,1f,0,0,1a,17,16,15,1r,0,0
0,10,13,2p,2o,2n,0,0,0,2x,2y,2z,12,11,0,0
0,z,2h,2g,2l,2m,0,0,0,2w,2v,2q,2r,y,0,0
30,x,2i,2j,2k,0,0,0,0,0,2u,2t,2s,w,30,30
31,v,0,0,0,0,0,0,0,0,0,0,0,u,31,31
0,t,0,0,0,0,0,0,0,0,0,0,0,s,0,0
0,r,0,0,0,0,0,0,0,0,0,0,0,q,0,0
0,o,n,0,0,0,0,0,0,0,0,0,m,p,0,0
0,3d,l,j,0,0,0,0,0,0,0,i,k,36,0,0
3d,3e,3c,0,h,f,d,d,d,e,g,0,39,35,36,0
3e,3c,0,0,0,0,b,0,c,0,0,0,0,39,37,36
3c,0,0,0,0,0,b,0,c,0,0,0,0,0,39,35
0,0,0,0,0,0,b,0,c,0,0,0,0,0,0,39
WAL 3q,3p,3o,3w,3v,3u,3t,3s,3r,c
EXT 7,15 1 7,1
EXT 7,12 4 8,12
PAL 0

ROOM 1
3n,3n,3n,3n,3w,3v,b,0,c,3j,3m,3n,3n,3n,3n,3n
0,0,0,0,0,3u,3p,0,3f,3i,0,0,0,0,0,0
0,0,0,0,0,3r,3q,0,3g,3h,0,0,0,0,0,0
3o,3o,3o,3o,3t,3s,b,0,c,3k,3l,3o,3o,3o,3o,3o
0,0,0,0,0,0,b,0,c,0,0,0,0,0,0,0
0,0,0,0,0,0,b,0,c,0,0,0,0,0,0,0
3o,3o,3o,3o,3w,3v,b,0,c,3j,3m,3n,3n,3n,3n,3n
0,0,0,0,0,3u,3p,0,3f,3i,0,0,0,0,0,0
0,0,0,0,0,3r,3p,0,3g,3h,0,0,0,0,0,0
3n,3n,3n,3n,3t,3s,b,0,c,3k,3l,3o,3o,3o,3o,3o
0,0,0,0,0,0,b,0,c,0,0,0,0,0,0,0
0,0,0,0,0,0,b,0,c,0,0,0,0,0,0,0
3o,3o,3o,3o,3w,3v,b,0,c,3j,3m,3n,3n,3n,3n,3n
0,0,0,0,0,3u,3p,0,3g,3i,0,0,0,0,0,0
0,0,0,0,0,3r,3q,0,3f,3h,0,0,0,0,0,0
3n,3n,3n,3n,3t,3s,b,0,c,3k,3l,3o,3o,3o,3o,3o
WAL 3q,3p,c
EXT 7,0 0 7,14
EXT 7,15 2 7,1
PAL 0

ROOM 2
3n,3n,3n,3n,3w,3v,b,0,c,3j,3m,3n,3n,3n,3n,3n
0,0,0,0,0,3u,3p,0,3f,3i,0,0,0,0,0,0
0,0,0,0,0,3r,3q,0,3g,3h,0,0,0,0,0,0
3o,3o,3o,3o,3t,3s,b,0,c,3k,3l,3o,3o,3o,3o,3o
0,0,0,0,0,0,b,0,c,0,0,0,0,0,0,0
0,0,0,0,0,0,b,0,c,0,0,0,0,0,0,0
3o,3o,3o,3o,3w,3v,b,0,c,3j,3m,3n,3n,3n,3n,3n
0,0,0,0,0,3u,3p,0,3f,3i,0,0,0,0,0,0
0,0,0,0,0,3r,3p,0,3g,3h,0,0,0,0,0,0
3n,3n,3n,3n,3t,3s,b,0,c,3k,3l,3o,3o,3o,3o,3o
0,0,0,0,0,0,b,0,c,0,0,0,0,0,0,0
0,0,0,0,0,0,b,0,c,0,0,0,0,0,0,0
3o,3o,3o,3o,3w,3v,b,0,c,3j,3m,3n,3n,3n,3n,3n
0,0,0,0,0,3u,3p,0,3g,3i,0,0,0,0,0,0
0,0,0,0,0,3r,3q,0,3f,3h,0,0,0,0,0,0
3n,3n,3n,3n,3t,3s,b,0,c,3k,3l,3o,3o,3o,3o,3o
WAL 3q,3p,c
EXT 7,0 1 7,14
EXT 7,15 3 7,1
PAL 0

ROOM 3
0,0,0,0,0,0,b,0,c,0,0,0,0,0,0,0
0,0,3z,3y,3y,3y,3x,0,42,3y,3y,44,0,0,0,0
0,0,41,0,0,0,0,0,c,0,0,45,0,0,0,0
0,0,41,0,0,0,b,0,c,0,0,45,0,0,0,0
0,0,41,0,0,0,b,0,c,0,0,45,0,0,0,0
0,0,41,0,0,0,b,0,42,3y,3y,46,0,0,0,0
0,0,41,0,0,0,b,0,c,0,0,45,0,0,0,0
0,0,41,0,0,0,b,0,c,0,0,45,0,0,0,0
0,0,41,0,0,0,b,0,42,3y,3y,46,0,0,0,0
0,0,41,0,0,0,b,0,c,0,0,45,0,0,0,0
0,0,41,0,0,0,b,0,c,0,0,45,0,0,0,0
0,0,41,0,0,0,b,0,c,0,0,45,0,0,0,0
0,0,41,0,0,0,b,0,c,0,0,45,0,0,0,0
0,0,41,0,0,0,0,0,42,3y,3y,43,0,0,0,0
0,0,40,3y,3y,3y,3x,0,c,0,0,0,0,0,0,0
0,0,0,0,0,0,b,0,c,3k,0,0,0,0,0,0
WAL 3q,3p,c,b,41,40,3z,42,46,45,3y,3o,3n
EXT 7,0 2 7,14
PAL 0

ROOM 4
0,0,0,0,0,0,4k,0,0,4k,0,0,0,0,0,0
0,0,0,0,0,0,4k,0,0,4k,0,0,0,0,0,0
0,0,3z,44,0,0,4k,0,0,4k,0,0,3z,44,0,0
0,0,40,43,0,0,4k,0,0,4k,0,0,40,43,0,0
0,0,0,0,0,0,4k,0,0,4k,0,0,0,0,0,0
9w,0,0,0,0,0,4k,0,0,4k,0,0,0,0,0,0
9w,0,0,0,0,0,4k,0,0,4k,0,0,0,0,0,0
9w,0,0,0,0,0,4k,0,0,4k,0,0,0,0,0,0
9w,0,0,0,0,0,4k,0,0,4k,0,0,0,0,0,0
9w,0,0,0,0,0,4k,0,0,4k,0,0,0,0,0,0
9w,0,0,0,0,0,4k,0,0,4k,0,0,0,0,0,0
0,0,0,0,0,0,4k,0,0,4k,0,0,0,0,0,0
0,0,0,0,0,0,4k,0,0,4k,0,0,0,0,0,0
4h,4g,4f,0,0,0,4k,0,0,4k,0,0,0,4a,4b,4c
0,0,4e,4d,47,47,4i,47,47,4j,47,47,48,49,0,0
0,0,0,0,0,0,0,0,0,0,0,0,0,0,0,0
WAL 47,48,49,4a,4b,4c,4d,4e,4f,4g,4h,4i,4j
EXT 8,13 0 7,13
EXT 7,13 0 7,13
EXT 7,0 5 7,14
EXT 8,0 5 8,14
EXT 9,0 5 9,14
EXT 6,0 5 6,14
EXT 5,0 5 5,14
EXT 10,0 5 10,14
EXT 4,0 5 4,14
EXT 11,0 5 11,14
EXT 0,5 a 14,5
EXT 0,6 a 14,6
EXT 0,7 a 14,7
EXT 0,8 a 14,8
EXT 0,9 a 14,9
EXT 0,10 a 14,10
EXT 0,11 a 14,11
PAL 0

ROOM 5
0,0,0,0,0,0,0,51,50,0,0,0,0,0,0,0
0,56,52,52,53,0,0,4y,4z,0,0,56,52,52,53,0
0,55,52,52,54,0,0,0,0,0,0,55,52,52,54,0
98,98,98,98,98,98,99,0,0,9a,98,98,98,98,98,98
9b,9b,9b,9b,9b,9b,96,0,0,97,9b,9b,9b,9b,9b,9b
0,0,0,0,0,0,4k,0,0,4k,0,0,0,0,0,0
0,0,0,0,0,0,4k,0,0,4k,0,0,0,0,0,0
0,0,0,0,0,0,4k,0,0,4k,0,0,0,0,0,0
0,0,0,0,0,0,4k,0,0,4k,0,0,0,0,0,0
0,0,0,0,0,0,4k,0,0,4k,0,0,0,0,0,0
0,0,0,0,0,0,4k,0,0,4k,0,0,0,0,0,0
0,0,0,0,0,0,4k,0,0,4k,0,0,0,0,0,0
0,0,0,0,0,0,4k,0,0,4k,0,0,0,0,0,0
0,0,0,0,0,0,4k,0,0,4k,0,0,0,0,0,0
0,0,0,0,0,0,4k,0,0,4k,0,0,0,0,0,0
0,0,0,0,0,0,4k,0,0,4k,0,0,0,0,0,0
WAL 4j,4i,4h,4g,4f,4e,4d,4c,4b,4a,49,48,47
EXT 7,1 6 7,2
EXT 8,1 6 8,2
EXT 7,0 6 6,1
EXT 8,0 6 9,1
EXT 0,4 b 14,0
EXT 0,3 c 14,15
EXT 4,15 4 4,1
EXT 5,15 4 5,1
EXT 6,15 4 6,1
EXT 7,15 4 7,1
EXT 8,15 4 8,1
EXT 9,15 4 9,1
EXT 10,15 4 10,1
EXT 11,15 4 11,1
PAL 0

ROOM 6
0,0,0,0,5c,0,0,51,50,0,0,5e,0,0,0,0
5f,5f,5f,5f,5c,0,0,4y,4z,0,0,5e,5f,5f,5f,5f
0,0,0,0,0,0,0,0,0,0,0,0,0,0,0,0
0,0,0,0,0,0,0,0,0,0,0,0,0,0,0,0
5g,5g,5g,5g,5c,0,0,0,0,0,0,5e,5g,5g,5g,5g
0,0,0,0,5b,5d,5d,5d,5d,5d,5d,58,0,0,0,0
0,0,0,0,0,0,0,0,0,0,0,0,0,0,0,0
0,0,0,0,0,0,0,0,0,0,0,0,0,0,0,0
0,0,0,0,0,0,0,0,0,0,0,0,0,0,0,0
0,0,0,0,0,0,0,0,0,0,0,0,0,0,0,0
0,0,0,0,0,0,0,0,0,0,0,0,0,0,0,0
0,0,0,0,0,0,0,0,0,0,0,0,0,0,0,0
0,0,0,0,0,0,0,0,0,0,0,0,0,0,0,0
0,0,0,0,0,0,0,0,0,0,0,0,0,0,0,0
0,0,0,0,0,0,0,0,0,0,0,0,0,0,0,0
0,0,0,0,0,0,0,0,0,0,0,0,0,0,0,0
WAL 58,59,5a,5b,5c,5d,5e,5f,5g
EXT 0,2 7 14,2
EXT 0,3 7 14,3
EXT 7,1 5 7,2
EXT 8,1 5 8,2
EXT 7,0 5 6,1
EXT 8,0 5 9,1
PAL 0

ROOM 7
0,0,5h,0,0,0,5h,0,0,0,0,0,0,0,0,0
0,0,5h,0,0,0,5h,5f,5f,5f,5f,5f,5f,5f,5f,5f
0,0,5h,0,0,0,0,0,0,0,0,0,0,0,0,0
0,0,5h,0,0,0,0,0,0,0,0,0,0,0,0,0
0,0,5h,0,0,0,5h,5g,5g,5g,5g,5g,5g,5g,5g,5g
0,0,5h,0,0,0,5h,0,0,0,0,0,0,0,0,0
0,0,5h,0,0,0,5h,0,0,0,0,0,0,0,0,0
0,0,5h,0,0,0,5h,0,0,0,0,0,0,0,0,0
0,0,0,5i,0,0,0,5i,0,0,0,0,0,0,0,0
0,0,0,5j,0,0,0,5j,0,0,0,0,0,0,0,0
0,0,0,5k,0,0,0,5k,0,0,0,0,0,0,0,0
0,0,0,0,5l,0,0,0,5l,0,0,0,0,0,0,0
0,0,0,0,5m,0,0,0,5m,0,0,0,0,0,0,0
0,0,0,0,0,5l,0,0,0,5l,0,0,0,0,0,0
0,0,0,0,0,5m,0,0,0,5m,0,0,0,0,0,0
0,0,0,0,0,0,5n,0,0,0,5n,0,0,0,0,0
WAL 5n,5m,5l,5k,5j,5i,5h,5g,5f
EXT 3,0 8 3,14
EXT 4,0 8 4,14
EXT 5,0 8 5,14
EXT 6,0 8 6,14
EXT 15,2 6 1,2
EXT 15,3 6 1,3
PAL 0

ROOM 8
0,0,0,0,0,0,0,0,0,0,0,0,0,0,0,0
0,0,0,0,0,0,0,0,0,0,0,0,0,0,0,0
0,0,0,0,0,0,0,0,0,0,0,0,0,0,0,0
0,0,0,0,0,0,0,0,0,0,0,0,0,0,0,0
0,0,0,0,0,0,0,0,0,0,0,0,0,0,0,0
0,0,0,0,0,0,0,0,0,0,0,0,0,0,0,0
0,0,0,0,6g,6h,6i,6j,0,0,0,0,0,0,0,0
0,0,0,6d,6f,0,0,6e,0,0,0,0,0,0,6a,6b
0,0,0,6c,0,0,0,6c,0,0,0,0,67,68,69,0
5y,5x,5w,6c,0,6k,6l,6c,0,63,64,65,66,0,0,0
0,0,5v,5u,5z,60,61,5r,5t,62,0,0,0,0,0,0
0,0,0,5q,0,0,0,5q,0,0,0,0,0,0,0,0
0,0,0,5p,0,0,0,5p,0,0,0,0,0,0,0,0
0,0,5h,0,0,0,5h,0,0,0,0,0,0,0,0,0
0,0,5h,0,0,0,5h,0,0,0,0,0,0,0,0,0
0,0,5h,0,0,0,5h,0,0,0,0,0,0,0,0,0
WAL 5p,5q,5h
EXT 4,11 9 4,14
EXT 5,11 9 5,14
EXT 6,11 9 6,14
EXT 3,15 7 3,1
EXT 4,15 7 4,1
EXT 5,15 7 5,1
EXT 6,15 7 6,1
PAL 0

ROOM 9
0,0,6z,0,0,73,71,71,71,71,72,0,0,0,0,0
0,6x,6y,0,0,74,76,76,76,76,75,0,0,0,0,0
6v,6w,0,0,0,5b,5d,5d,5d,5d,58,0,0,0,0,0
0,0,0,0,0,0,0,0,0,0,0,0,7c,7b,7i,7k
0,0,0,0,0,0,0,0,0,0,0,0,7d,7e,0,7l
0,0,0,0,0,0,0,0,0,0,0,0,7f,7g,7h,7j
0,0,0,0,0,0,0,6q,6r,0,0,0,0,0,0,0
0,6t,0,0,0,0,0,6p,6o,0,0,0,0,0,0,0
0,6u,0,0,0,0,0,0,0,0,0,0,0,0,7m,0
0,6u,0,0,0,0,0,0,0,0,0,0,0,0,0,0
0,6s,0,0,0,0,0,0,0,0,0,0,0,0,0,0
0,0,0,0,0,0,0,0,0,0,0,0,0,0,0,0
0,0,0,0,0,0,0,0,0,0,0,0,0,0,0,0
0,0,0,0,0,0,0,0,0,0,0,0,0,0,6n,6m
0,0,0,0,0,0,0,0,0,0,0,0,0,6n,0,0
0,0,0,0,0,94,95,0,0,0,0,0,0,6m,0,0
WAL 6m
EXT 4,15 8 4,12
EXT 5,15 8 5,12
EXT 6,15 8 6,12
PAL 0

ROOM a
0,0,0,0,0,0,81,80,82,0,0,0,0,0,0,0
0,0,0,0,0,0,0,0,7v,81,80,82,0,0,0,0
0,0,0,0,0,0,0,0,0,0,0,7v,81,80,82,0
0,0,0,0,0,0,0,0,0,0,0,0,0,0,7v,81
7y,0,0,0,0,0,0,0,0,0,0,0,0,0,0,0
7z,7y,0,0,0,0,0,0,0,0,0,0,0,0,0,0
0,7z,7y,0,0,0,0,0,0,0,0,0,0,0,0,0
0,0,7x,7y,0,9v,9u,0,0,0,0,0,0,0,0,0
0,0,7w,7u,7t,9s,9t,0,0,0,0,0,0,0,0,0
0,0,0,0,7v,7u,7t,0,0,0,0,0,0,0,0,0
0,0,0,0,0,0,7v,7u,7t,7o,0,0,0,0,0,0
0,0,0,0,0,0,0,0,7v,7s,7r,7p,0,0,0,0
0,0,0,0,0,0,0,0,0,0,0,7q,7s,7r,7p,7o
0,0,0,0,0,0,0,0,0,0,0,0,0,0,7q,7n
0,0,0,0,0,0,0,0,0,0,0,0,0,0,0,0
0,0,0,0,0,0,0,0,0,0,0,0,0,0,0,0
WAL 7q,7r,7s,7t,7u,7w,7x,7y,7z
EXT 15,11 4 1,11
EXT 15,10 4 1,10
EXT 15,9 4 1,9
EXT 15,8 4 1,8
EXT 15,7 4 1,7
EXT 15,6 4 1,6
EXT 15,5 4 1,5
EXT 1,0 b 14,11
EXT 2,0 b 14,13
EXT 3,0 b 14,14
EXT 4,0 b 13,14
EXT 5,0 b 14,12
EXT 0,0 b 12,14
EXT 15,1 5 1,4
EXT 15,0 5 1,3
EXT 5,8 h 14,1
EXT 4,8 h 13,1
PAL 0

ROOM b
0,0,0,0,89,0,0,0,0,0,9w,0,0,0,0,0
30,30,30,30,89,7i,7i,7i,7i,7i,7i,7i,7i,7i,7i,7i
0,0,0,0,89,0,0,0,0,0,0,0,0,0,0,0
0,0,0,0,89,0,0,0,0,0,0,0,0,0,0,0
0,0,0,0,89,0,0,0,0,0,0,0,0,0,0,0
0,0,0,0,89,0,0,0,0,0,0,0,0,0,0,0
0,0,0,0,89,0,0,0,0,0,0,0,0,0,0,0
0,0,0,0,8a,86,0,0,0,0,0,0,0,0,0,0
0,0,0,0,0,83,0,0,0,0,0,0,0,0,0,0
0,0,0,0,0,88,86,0,0,0,0,0,0,0,0,0
0,0,0,0,0,0,83,0,0,0,0,0,0,0,0,0
0,0,0,0,0,0,88,86,0,0,0,0,0,0,0,0
0,0,0,0,0,0,0,83,85,0,0,0,0,0,0,0
0,0,0,0,0,0,0,84,7x,7y,0,0,0,0,0,0
0,0,0,0,0,0,0,0,0,7z,7y,0,0,0,0,0
0,0,0,0,0,0,0,0,0,7w,7x,8b,0,0,0,0
WAL 7x,7z,85,84,8b,8a,89,88,87,86,83,82,81,80
EXT 15,15 a 5,1
EXT 14,15 a 4,1
EXT 13,15 a 3,1
EXT 12,15 a 2,1
EXT 15,14 a 6,1
EXT 15,13 a 7,1
EXT 5,0 d 14,8
EXT 10,0 c 10,15
EXT 15,0 5 2,4
PAL 0

ROOM c
0,0,0,0,0,0,0,0,0,0,0,8f,8g,0,0,0
0,0,0,0,0,0,0,0,0,8h,8i,0,0,0,0,0
0,0,0,0,0,0,0,0,8f,8g,0,0,0,0,0,0
0,0,0,0,0,0,0,8d,8e,0,0,0,0,0,0,0
0,0,0,0,0,0,0,8c,0,0,0,0,0,0,0,0
0,0,0,0,0,0,8d,8e,0,0,0,0,0,0,0,0
0,0,0,0,0,0,8c,0,0,0,0,0,0,0,0,0
0,0,0,0,0,8d,8e,0,0,0,0,0,0,0,0,0
0,0,0,0,0,8c,0,0,0,0,0,0,0,0,0,0
0,0,0,0,89,8e,0,0,0,0,0,0,0,0,0,0
0,0,0,0,89,0,0,0,0,0,0,0,0,0,0,0
0,0,0,0,89,0,0,0,0,0,0,0,0,0,0,0
0,0,0,0,89,0,0,0,0,0,0,0,0,0,0,0
0,0,0,0,89,0,0,0,0,0,0,0,0,0,0,0
30,30,30,30,89,7i,7i,7i,7i,7i,7i,7i,7i,7i,7i,0
0,0,0,0,89,0,0,0,0,9w,0,0,0,0,0,0
WAL 8g,8f,8h,8i,8e,8d,8c,89
EXT 5,15 d 14,6
EXT 9,15 b 9,0
EXT 15,15 5 2,3
PAL 0

ROOM d
0,8q,0,0,0,8p,8q,0,0,0,8p,8q,0,0,0,8p
0,8q,0,0,0,8p,8q,0,0,0,8p,8q,0,0,0,8p
0,8q,0,0,0,8p,8q,0,0,0,8p,8q,0,0,0,8p
0,8o,0,0,0,8n,8o,0,0,0,8n,8o,0,0,0,8n
0,0,8m,0,8l,0,0,8m,0,8l,0,0,8m,0,8l,0
8j,8j,8j,8j,8j,8j,8j,8j,8j,8j,8j,8j,8j,8j,8j,8j
0,0,0,0,0,0,0,0,0,0,0,0,0,0,0,0
0,0,0,0,0,0,0,0,0,0,0,0,0,0,0,0
0,0,0,0,0,0,0,0,0,0,0,0,0,0,0,0
8k,8k,8k,8k,8k,8k,8k,8k,8k,8k,8k,8k,8k,8k,8k,8k
0,0,8s,0,8r,0,0,8s,0,8r,0,0,8s,0,8r,0
0,8u,0,0,0,8t,8u,0,0,0,8t,8u,0,0,0,8t
0,8q,0,0,0,8p,8q,0,0,0,8p,8q,0,0,0,8p
0,8q,0,0,0,8p,8q,0,0,0,8p,8q,0,0,0,8p
0,8q,0,0,0,8p,8q,0,0,0,8p,8q,0,0,0,8p
0,8q,0,0,0,8p,8q,0,0,0,8p,8q,0,0,0,8p
WAL 8j,8k
EXT 15,8 b 6,0
EXT 15,6 c 6,15
EXT 0,6 e 14,6
EXT 0,7 e 14,7
EXT 0,8 e 14,8
EXT 15,7 c 6,15
PAL 0

ROOM e
0,8q,0,0,0,8p,8q,0,0,0,8p,8q,0,0,0,8p
0,8q,0,0,0,8p,8q,0,0,0,8p,8q,0,0,0,8p
0,8q,0,0,0,8p,8q,0,0,0,8p,8q,0,0,0,8p
0,8o,0,0,0,8n,8o,0,0,0,8n,8o,0,0,0,8n
0,0,8m,0,8l,0,0,8m,0,8l,0,0,8m,0,8l,0
8j,8j,8j,8j,8j,8j,8j,8w,0,8v,8j,8j,8j,8j,8j,8j
0,0,0,0,0,0,0,0,0,0,0,0,0,0,0,0
0,0,0,0,0,0,0,0,0,0,0,0,0,0,0,0
0,0,0,0,0,0,0,0,0,0,0,0,0,0,0,0
8k,8k,8k,8k,8k,8k,8k,8k,8k,8k,8k,8k,8k,8k,8k,8k
0,0,8s,0,8r,0,0,8s,0,8r,0,0,8s,0,8r,0
0,8u,0,0,0,8t,8u,0,0,0,8t,8u,0,0,0,8t
0,8q,0,0,0,8p,8q,0,0,0,8p,8q,0,0,0,8p
0,8q,0,0,0,8p,8q,0,0,0,8p,8q,0,0,0,8p
0,8q,0,0,0,8p,8q,0,0,0,8p,8q,0,0,0,8p
0,8q,0,0,0,8p,8q,0,0,0,8p,8q,0,0,0,8p
WAL 8j,8k
EXT 15,6 d 1,6
EXT 15,7 d 1,7
EXT 15,8 d 1,8
EXT 0,6 f 14,6
EXT 0,7 f 14,7
EXT 0,8 f 14,8
PAL 0

ROOM f
0,0,0,0,0,0,0,0,0,0,0,0,0,0,0,0
0,0,0,0,0,0,0,0,0,0,0,0,0,0,0,0
0,0,0,0,0,0,0,0,0,0,0,0,0,0,0,0
0,0,0,0,0,0,0,0,0,0,0,0,0,0,0,0
0,0,0,0,0,0,0,0,0,0,0,0,0,0,0,0
0,91,8z,8z,8z,8z,8z,8z,8z,8x,8j,8j,8j,8j,8j,8j
0,93,0,0,0,0,0,0,0,0,0,0,0,0,0,0
0,93,0,0,0,0,0,0,0,0,0,0,0,0,0,0
0,93,0,0,0,0,0,0,0,0,0,0,0,0,0,0
0,92,90,90,90,90,90,90,90,8y,8k,8k,8k,8k,8k,8k
0,0,0,0,0,0,0,0,0,0,0,0,0,0,0,0
0,0,0,0,0,0,0,0,0,0,0,0,0,0,0,0
0,0,0,0,0,0,0,0,0,0,0,0,0,0,0,0
0,0,0,0,0,0,0,0,0,0,0,0,0,0,0,0
0,0,0,0,0,0,0,0,0,0,0,0,0,0,0,0
0,0,0,0,0,0,0,0,0,0,0,0,0,0,0,0
WAL 8j,8k,8z,90,8y,8x,93,92,91
EXT 15,6 e 1,7
EXT 15,7 e 1,7
EXT 15,8 e 1,8
PAL 0

ROOM h
0,0,3k,36,3k,36,0,0,0,9e,0,9c,3c,0,0,0
36,0,0,3k,36,3k,36,0,0,9d,9r,3c,0,0,0,9c
3k,36,0,0,3k,36,3k,9g,9f,0,3c,0,0,0,9c,3c
36,3k,36,0,0,0,9e,0,9c,3c,0,0,0,9c,3c,0
3k,36,3k,36,0,0,9d,9r,3c,0,0,0,9c,3c,9i,9j
0,3k,36,3k,9g,9f,0,3c,0,0,0,9c,3c,9r,0,9q
0,0,3k,9e,0,9c,3c,0,0,0,9c,3c,0,9h,0,0
36,0,0,9d,9r,3c,0,0,0,9c,3c,0,0,9k,9o,0
3k,9g,9f,0,3c,0,0,0,9c,3c,9q,9i,9j,0,9k,9o
0,0,9c,3c,0,0,0,9c,3c,9r,0,0,9l,9m,0,9k
0,9c,3c,0,0,0,9c,3c,0,9h,0,0,0,9n,9m,0
9c,3c,0,0,0,0,3c,0,0,9k,9o,0,0,0,9n,9m
3c,0,0,0,0,3c,9q,9i,9j,0,9k,9o,0,0,0,0
0,0,0,9c,3c,9r,0,0,9n,9m,0,9k,9o,0,0,0
0,0,9c,3c,0,9h,0,0,0,9n,9m,0,9k,9o,0,0
0,9c,3c,0,0,9k,9o,0,0,0,9n,9m,0,9k,9o,0
EXT 15,0 a 5,7
EXT 14,0 a 4,7
EXT 13,0 a 3,7
EXT 15,1 a 6,8
EXT 1,15 i 14,1
EXT 0,15 i 13,1
EXT 0,14 i 13,0
PAL 0

ROOM i
0,1r,3k,36,3k,36,29,21,1z,9e,0,9c,3c,0,0,0
36,1x,1s,3k,36,3k,36,23,20,9d,9r,3c,0,0,0,9c
3k,36,28,25,2a,36,3k,9g,9f,0,3c,0,0,0,9c,3c
36,3k,36,25,2a,26,9e,0,9c,3c,0,0,0,9c,3c,0
26,36,3k,36,28,27,9d,9r,3c,0,0,0,9c,3c,9i,9j
24,22,36,3k,9g,9f,0,3c,0,0,0,9c,3c,9r,1l,1m
23,1u,24,9e,0,9c,3c,0,0,0,9c,3c,0,9h,1r,1p
36,1x,21,9d,9r,3c,0,0,0,9c,3c,0,0,9k,9o,1s
3k,9g,9f,0,3c,0,0,0,9c,3c,9q,9i,9j,0,9k,9o
0,0,9c,3c,0,0,0,9c,3c,9r,2d,2e,2d,9m,0,9k
0,9c,3c,0,0,0,9c,3c,0,9h,2f,2a,29,2c,9m,0
9c,3c,0,0,0,0,3c,0,0,9k,1m,1v,28,2a,1q,9m
3c,0,0,0,0,3c,9q,9i,9j,0,9k,2e,1v,1u,1x,26
0,0,0,9c,3c,9r,1v,1u,20,9m,0,9k,9o,21,24,2e
0,0,9c,3c,0,9h,1t,21,26,25,9m,0,9k,25,27,2d
0,9c,3c,0,0,9k,9o,25,1w,27,9n,9m,0,9k,9o,0
EXT 15,0 h 1,14
EXT 14,0 h 0,13
PAL 0

TIL 10
00000000
00000000
00000000
00000000
00000000
00000000
00000001
00000010

TIL 11
00000000
00000000
00000000
00000000
00000000
00000000
10000000
01000000

TIL 12
00100001
00010001
00001010
00000100
00000010
00000001
00000000
00000000

TIL 13
01000100
00101000
00010000
00100000
01000000
10000000
00000000
00000000

TIL 14
11010111
01000100
01111100
00000010
00001101
00001000
10000101
01000010

TIL 15
00000010
01000110
01011000
10101000
00000100
00000100
10011000
01100001

TIL 16
01000100
01001000
11010011
00110010
00001100
00000011
00000000
00000000

TIL 17
11111010
00000111
00000000
00000000
00000000
00000000
00000000
00000000

TIL 18
10000110
11000100
01110000
00010011
10011100
00110000
11000000
00000000

TIL 19
11000100
01011111
11100000
00000000
00000000
00000000
00000000
00000000

TIL 20
00000110
00000100
10000100
01101111
00011000
00010100
00100110
01000010

TIL 21
00110100
11000110
11010101
01101000
01000110
10101001
00010001
00000011

TIL 22
11110000
00001000
00001111
10001111
01011000
00110000
00111100
00110111

TIL 23
00100000
01011100
01001000
10000111
11100001
00101011
00011100
00100100

TIL 24
00000011
00111010
01000100
00100100
00010100
01110100
10000100
01000100

TIL 25
00001000
00110001
00100010
01001100
10110000
00011100
10100111
01000001

TIL 26
00100000
00010000
00010000
00110000
01100000
11000000
00000000
00000000

TIL 27
10000000
10000000
10000000
11000000
01000000
01000000
00100000
00100000

TIL 28
10010000
10101000
01010100
00100100
00011111
01111110
11000011
10000000

TIL 29
11000001
01000010
01101110
00110000
00001100
11010110
00110001
01000000

TIL 30
00000000
00000000
00000000
11111111
00000000
00000000
00000000
00000000

TIL 31
00000000
00000000
00000000
00000000
00000000
11111111
00000000
00000000

TIL 32
00000000
00000000
00000000
00000000
00000000
00000000
00000000
00000000

TIL 35
00000001
00000000
00000000
00000000
00000000
00000000
00000000
10000000

TIL 36
00000000
10000000
01000000
00100000
00010000
00001000
00000100
00000010

TIL 37
00000001
00000000
00000000
00000000
00000000
00000000
00000000
10000000

TIL 39
01000000
00100000
00010000
00001000
00000100
00000010
00000001
00000000

TIL 40
01000000
01000000
00100000
00010000
00001111
00000000
00000000
00000000

TIL 41
01000000
01000000
01000000
01000000
01000000
01000000
01000000
01000000

TIL 42
00010000
00010000
00010000
00010000
00011111
00010000
00010000
00010000

TIL 43
00000010
00000010
00000100
00001000
11110000
00000000
00000000
00000000

TIL 44
00000000
00000000
00000000
00000000
11111000
00000100
00000010
00000010

TIL 45
00000010
00000010
00000010
00000010
00000010
00000010
00000010
00000010

TIL 46
00000010
00000010
00000010
00000010
11111110
00000010
00000010
00000010

TIL 47
00000000
00000000
00000000
11111111
11111111
11111111
00000000
00000000

TIL 48
00000000
00001111
11111111
11111111
11110000
00000000
00000000
00000000

TIL 49
11111111
11111100
11100000
00000000
00000000
00000000
00000000
00000000

TIL 50
00000000
11110000
00011000
11100100
00010110
00001010
10001010
11001010

TIL 51
00000000
00001111
00011000
00100111
01101000
01010000
01010001
01010011

TIL 52
00000000
00000000
11111111
00000000
00000000
00000000
00000000
00000000

TIL 53
00000000
00001100
11110100
00001000
00001000
00001000
00001000
00001000

TIL 54
00001000
00001000
11110100
00001100
00000000
00000000
00000000
00000000

TIL 55
00000100
00000100
00001011
00001100
00000000
00000000
00000000
00000000

TIL 56
00000000
00001100
00001011
00000100
00000100
00000100
00000100
00000100

TIL 57
00000000
00000000
00000000
00000000
00000000
00000000
00000000
00000000

TIL 58
00000010
00000010
00000010
00000110
00000100
00011000
11110000
00000000

TIL 59
00000000
11110000
00011000
00000100
00000110
00000010
00000010
00000010

TIL 60
00000000
00000000
00000000
00000000
00000000
11111111
00000000
00000000

TIL 61
00000000
00000000
00000000
00000000
00000000
11111111
00000000
00000000

TIL 62
00001110
11110000
00000000
00000000
00000000
00000000
00000000
00000000

TIL 63
00000000
00000000
00000000
00000000
00000000
00000000
00000000
00000001

TIL 64
00000000
00000000
00000000
00000000
00000000
00000111
00111000
11000000

TIL 65
00000000
00000000
00000011
00011100
11100000
00000000
00000000
00000000

TIL 66
00001100
01110000
10000000
00000000
00000000
00000000
00000000
00000000

TIL 67
00000000
00000000
00000000
00000000
00000000
00000000
00000001
00000010

TIL 68
00000000
00000000
00000001
00000110
00011000
01100000
10000000
00000000

TIL 69
00011000
01100000
10000000
00000000
00000000
00000000
00000000
00000000

TIL 70
11000000
10000000
00000000
00000000
00000000
00000000
00000000
00000000

TIL 71
00000000
11111111
00000000
11111111
11111111
11111111
11111111
11111111

TIL 72
00000000
11110000
00011000
11000100
11100110
10110010
10011010
10011010

TIL 73
00000000
00001111
00011000
00100011
01100111
01001111
01011111
01011111

TIL 74
01011111
01011111
01011111
01011111
01011111
01001111
01000111
01000000

TIL 75
10011010
11011010
11111010
11111010
11111010
11110010
11100010
00000010

TIL 76
11111111
11111111
11111111
11111111
11111111
11111111
11111111
00000000

TIL 77
00000000
00011000
00111000
00001000
00001000
00001000
00001000
00111110

TIL 78
00000000
00011100
00100010
00000100
00001000
00010000
00100000
00111110

TIL 79
00011000
00100100
00000010
00000100
00011000
00000100
00000010
00111100

TIL 80
00000000
00000000
11000000
11111000
11111111
00111111
00000111
00000000

TIL 81
11110000
11111110
01111111
00001111
00000001
00000000
00000000
00000000

TIL 82
00000000
00000000
00000000
00000000
11000000
11110000
11111100
00111111

TIL 83
00111000
00111000
00011100
00011100
00001110
00001110
00000111
00000111

TIL 84
00000011
00000001
00000000
00000000
00000000
00000000
00000000
00000000

TIL 85
00000000
00000000
00000000
00000000
00000000
00000000
00000000
10000000

TIL 86
10000000
10000000
11000000
11000000
11100000
11100000
01110000
01110000

TIL 87
00000000
00000000
00000000
00000000
00000000
00000000
00000000
00000000

TIL 88
00000011
00000011
00000011
00000001
00000001
00000001
00000000
00000000

TIL 89
00000011
00000011
00000011
00000011
00000011
00000011
00000011
00000011

TIL 90
00000000
00000000
00000000
00000000
00000000
11111111
00000000
00000000

TIL 91
00000000
00000000
00000011
00000100
00001000
00001000
00001000
00001000

TIL 92
00001000
00001000
00001000
00001000
00000100
00000011
00000000
00000000

TIL 93
00001000
00001000
00001000
00001000
00001000
00001000
00001000
00001000

TIL 94
00000000
00000000
00000000
01111111
01111111
01111111
01111111
01111111

TIL 95
00000000
00000000
00000000
11111110
11111110
11111110
11111110
11111110

TIL 96
00000000
00000000
00000000
00000000
00000000
11111000
11111000
00011000

TIL 97
00000000
00000000
00000000
00000000
00000000
00011111
00011111
00011000

TIL 98
00000000
00000000
00000000
11111111
11111111
00000000
00000000
00000000

TIL 99
00011000
00011000
00011000
11111000
11111000
00000000
00000000
00000000

TIL b
00001000
00001000
00001000
00001000
00001000
00001000
00001000
00001000

TIL c
00010000
00010000
00010000
00010000
00010000
00010000
00010000
00010000

TIL d
00000000
00000000
00000000
00000000
00000000
00000000
00000000
11111111

TIL e
00000000
00000000
00000000
00000000
00000000
00000111
00011100
11110000

TIL f
00000000
00000000
00000000
00000000
00000000
11100000
00111000
00001111

TIL g
00000011
00000100
00001000
00010000
01100000
11000000
00000000
00000000

TIL h
11000000
00100000
00010000
00001000
00000110
00000011
00000000
00000000

TIL i
00000000
00000000
00000001
00000010
00000100
00001010
00110001
11000000

TIL j
00000000
00000000
10000000
01000000
00100000
01010000
10001100
00000011

TIL k
00100001
01000000
10000000
00000000
00000000
00000000
00000000
10000000

TIL l
10000100
00000010
00000001
00000000
00000000
00000000
00000000
00000001

TIL m
00000000
00000000
00000000
00000001
00000010
00000100
00001100
00010010

TIL n
00000000
00000000
00000000
10000000
01000000
00100000
00110000
01001000

TIL o
00000010
00000001
00000001
00000000
00000000
00000000
00000000
00000000

TIL p
01000000
10000000
10000000
00000000
00000000
00000000
00000000
00000000

TIL q
00000100
00001000
00001000
00010000
00010000
00100000
00100000
01000000

TIL r
00100000
00010000
00010000
00001000
00001000
00000100
00000100
00000010

TIL s
00000010
00000010
00000010
00000010
00000100
00000100
00000100
00000100

TIL t
01000000
01000000
01000000
01000000
00100000
00100000
00100000
00100000

TIL u
00000010
00000010
00000010
00000010
00000010
00000011
00000010
00000010

TIL v
01000000
01000000
01000000
01000000
01000000
11000000
01000000
01000000

TIL w
00000100
00000100
00000100
00000011
00000010
00000010
00000010
00000010

TIL x
00100000
00100000
00100000
11000000
01000000
01000000
01000000
01000000

TIL y
01000000
00100000
00100000
00010000
00010000
00001000
00001000
00000100

TIL z
00000010
00000100
00000100
00001000
00001000
00010000
00010000
00100000

TIL 1a
00011111
00000000
00000000
00000000
00000000
00000000
00000000
00000000

TIL 1b
00000000
00000000
00000000
00000000
00000000
00000000
00000000
11100000

TIL 1c
00010000
00010000
00010000
00010000
00010000
00010000
00010000
11111111

TIL 1d
00000000
00000000
00000000
00000000
00000000
00000000
00000000
11111111

TIL 1e
00001000
00001000
00001000
00001000
00001000
00001000
00001000
00001111

TIL 1f
11110000
00000000
00000000
00000000
00000000
00000000
00000000
00000000

TIL 1g
11111111
00000000
00000000
00000000
00000000
00000000
00000000
00000000

TIL 1h
00000000
00000000
00000000
00000000
00000000
00000000
00000001
00000010

TIL 1i
01001000
01001000
10000100
01000011
01000001
01000010
10000010
01000100

TIL 1j
00000000
00000000
00000000
00000000
00000000
10000000
00000000
01000000

TIL 1k
00010000
00011000
00000100
00000100
00000010
00000001
00000000
00000000

TIL 1l
00100000
00010000
00010001
00010010
00100100
01000010
00100010
00010001

TIL 1m
01000000
10000001
00110010
01000100
01111000
00011000
00001100
11000010

TIL 1n
01100001
00010000
00010010
00100100
01000100
10001000
10001010
10010001

TIL 1o
00000000
00000000
00000000
00000000
00000000
00000000
00000000
00000000

TIL 1p
01001000
10000100
00101000
10111000
11110010
00001110
00000111
00000011

TIL 1q
01000000
00110010
00001101
10000001
01000000
00100000
00011000
00000110

TIL 1r
10011000
10010000
01010000
00010000
00010000
00100000
01000000
10000000

TIL 1s
00001000
00001000
00001000
00101000
00101000
01110000
11001000
10001000

TIL 1t
00000001
10000001
10000001
01000101
00111101
01000010
10000100
10001000

TIL 1u
00010010
00001100
11001000
01101000
00110000
00100000
01000000
10000000

TIL 1v
00000000
00110000
11000111
01111000
00101100
00111000
01000000
10000000

TIL 1w
00000000
11000000
00101001
00010111
00010010
00110001
01010000
10010000

TIL 1x
01000010
10000100
10001000
01000100
00111100
00000111
00000001
00000000

TIL 1y
11000010
00000001
00000000
00000000
00000000
00000000
00000000
00000000

TIL 1z
00110000
01001110
10010011
00001001
10010000
01011000
00101100
00100010

TIL 2a
10001100
10000100
01100100
00010110
00001010
00010111
01100100
10000100

TIL 2b
00001000
10001100
01100100
00100100
01100111
10110100
00011000
00001000

TIL 2c
00000000
00000000
11111100
10000110
01000011
01100001
00110100
00011010

TIL 2d
00110001
00101010
11100101
10001010
00010100
11101010
00010001
00010010

TIL 2e
11000000
01100000
00100000
00111111
00101011
00100101
00101001
00010001

TIL 2f
00011000
00001000
00011000
00010011
00011110
00011000
00110000
01100000

TIL 2g
00010000
00100000
01000000
10000000
00000000
00000000
00000000
00000000

TIL 2h
00000000
00000000
00000000
00000000
00000001
00000010
00000010
00000100

TIL 2i
00000100
00001000
00001000
00000100
00000100
00000010
00000001
00000000

TIL 2j
00000000
00000000
00000000
00000000
00000000
00000001
10000110
01111000

TIL 2k
00001000
00010000
00100000
01000000
10000000
00000000
00000000
00000000

TIL 2l
00000000
00000001
00000001
00000010
00000010
00000100
00000100
00001000

TIL 2m
10000000
00000000
00000000
00000000
00000000
00000000
00000000
00000000

TIL 2n
00000000
00000000
00000000
00000000
00000000
00000000
00000000
10000000

TIL 2o
00000000
00000000
00000000
00000000
00111100
11000010
00000001
00000000

TIL 2p
00000000
00000000
00000000
00000000
00000000
00000001
00000010
00001100

TIL 2q
00001000
00000100
00000010
00000001
00000000
00000000
00000000
00000000

TIL 2r
00000000
00000000
00000000
00000000
10000000
01000000
01000000
00100000

TIL 2s
00100000
00010000
00010000
00100000
00100000
01000000
10000000
00000000

TIL 2t
00000000
00000000
00000000
00000000
00000000
10000000
01100001
00011110

TIL 2u
00010000
00001000
00000100
00000010
00000001
00000000
00000000
00000000

TIL 2v
00000000
10000000
10000000
01000000
01000000
00100000
00100000
00010000

TIL 2w
00000001
00000000
00000000
00000000
00000000
00000000
00000000
00000000

TIL 2x
00000000
00000000
00000000
00000000
00000000
00000000
00000000
00000001

TIL 2y
00000000
00000000
00000000
00000000
00111100
01000011
10000000
00000000

TIL 2z
00000000
00000000
00000000
00000000
00000000
10000000
01000000
00110000

TIL 3b
00000000
00000000
00000000
00000000
00000000
00000000
00000000
00000000

TIL 3c
00000010
00000100
00001000
00010000
00100000
01000000
10000000
00000000

TIL 3d
00000000
00000001
00000010
00000100
00001000
00010000
00100000
01000000

TIL 3e
10000000
00000000
00000000
00000000
00000000
00000000
00000000
00000001

TIL 3f
00010000
00010000
00011111
00010000
00010000
00010000
00010000
00010000

TIL 3g
00010000
00010000
00010000
00011111
00010000
00010000
00010000
00010000

TIL 3h
00000000
00000000
00000000
10000000
01000000
00100000
00011000
00000110

TIL 3i
00100000
01000000
10000000
00000000
00000000
00000000
00000000
00000000

TIL 3j
00000000
00000000
00000000
00000000
00000000
00000001
00000110
00011000

TIL 3k
00000001
00000000
00000000
00000000
00000000
00000000
00000000
00000000

TIL 3l
11100000
00011110
00000001
00000000
00000000
00000000
00000000
00000000

TIL 3m
00000000
00000000
00000000
00000001
00011110
11100000
00000000
00000000

TIL 3n
00000000
00000000
00000000
11111111
00000000
00000000
00000000
00000000

TIL 3o
00000000
00000000
11111111
00000000
00000000
00000000
00000000
00000000

TIL 3p
00000000
00000000
00000000
00000000
00000000
00000000
00000000
00000000

TIL 3q
00000000
00000000
00000000
00000000
00000000
00000000
00000000
00000000

TIL 3r
00000000
00000000
00000000
00000001
00000010
00000100
00011000
01100000

TIL 3s
10000000
00000000
00000000
00000000
00000000
00000000
00000000
00000000

TIL 3t
00000111
01111000
10000000
00000000
00000000
00000000
00000000
00000000

TIL 3u
00000100
00000010
00000001
00000000
00000000
00000000
00000000
00000000

TIL 3v
00000000
00000000
00000000
00000000
00000000
10000000
01100000
00011000

TIL 3w
00000000
00000000
00000000
10000000
01111000
00000111
00000000
00000000

TIL 3x
00001000
00001000
00001000
00001000
11111000
00001000
00001000
00001000

TIL 3y
00000000
00000000
00000000
00000000
11111111
00000000
00000000
00000000

TIL 3z
00000000
00000000
00000000
00000000
00001111
00010000
00100000
01000000

TIL 4a
00000000
00000000
00000000
00000000
00000000
00000000
00000011
00011111

TIL 4b
00000000
00000000
00000000
00000001
00001111
01111111
11111110
11110000

TIL 4c
00000000
00000111
00111111
11111111
11111000
11000000
00000000
00000000

TIL 4d
11000000
11111000
11111111
00111111
00000111
00000000
00000000
00000000

TIL 4e
01111111
00001111
00000001
00000000
00000000
00000000
00000000
00000000

TIL 4f
00000000
00000000
00000000
00000000
00000000
11000000
11111000
11111111

TIL 4g
00000000
00000000
10000000
11110000
11111110
01111111
00001111
00000001

TIL 4h
00000000
11111000
11111111
11111111
00000111
00000000
00000000
00000000

TIL 4i
00011000
00011000
00011000
11111111
11111111
11111111
00000000
00000000

TIL 4j
00011000
00011000
00011000
11111111
11111111
11111111
00000000
00000000

TIL 4k
00011000
00011000
00011000
00011000
00011000
00011000
00011000
00011000

TIL 4l
00000000
00000000
00000000
11000000
01100000
00111100
00000111
00000000

TIL 4m
00000000
00000000
00000000
00000011
00000110
00111100
11100000
00000000

TIL 4n
00000000
00000000
00000000
00000000
00000000
00000000
00000011
11111110

TIL 4o
00000000
00000000
00000000
00000000
00000000
00000000
11000000
01111111

TIL 4p
11111110
00000001
00000000
00000000
00000000
00000000
00000000
00000000

TIL 4q
01111111
10000000
00000000
00000000
00000000
00000000
00000000
00000000

TIL 4r
00000000
11111100
00000011
00000000
00000000
00000000
00000000
00000000

TIL 4s
00000000
00000000
11111100
00000011
00000000
00000000
00000000
00000000

TIL 4t
00000000
00000000
00000000
11111100
00000011
00000000
00000000
00000000

TIL 4u
00000000
01111111
10000000
00000000
00000000
00000000
00000000
00000000

TIL 4v
00000000
00000000
00111111
11000000
00000000
00000000
00000000
00000000

TIL 4w
00000000
00000000
00000000
00011111
11100000
00000000
00000000
00000000

TIL 4x
00000000
00000000
00000000
00000000
11111111
00000000
00000000
00000000

TIL 4y
01010011
01010001
01010000
01101000
00100111
00011000
00001111
00000000

TIL 4z
11001010
10001010
00001010
00010110
11100100
00011000
11110000
00000000

TIL 5a
00000000
00001111
00011000
00100000
01100000
01000000
01000000
01000000

TIL 5b
01000000
01000000
01000000
01100000
00100000
00011000
00001111
00000000

TIL 5c
01000000
01000000
01000000
01000000
01000000
01000000
01000000
01000000

TIL 5d
00000000
00000000
00000000
00000000
00000000
00000000
11111111
00000000

TIL 5e
00000010
00000010
00000010
00000010
00000010
00000010
00000010
00000010

TIL 5f
00000000
00000000
00000000
00000000
00000000
00000000
00000000
11111111

TIL 5g
11111111
00000000
00000000
00000000
00000000
00000000
00000000
00000000

TIL 5h
00000001
00000001
00000001
00000001
00000001
00000001
00000001
00000001

TIL 5i
10000000
10000000
10000000
01000000
01000000
01000000
00100000
00100000

TIL 5j
00100000
00010000
00010000
00010000
00001000
00001000
00001000
00000100

TIL 5k
00000100
00000100
00000010
00000010
00000010
00000001
00000001
00000001

TIL 5l
10000000
10000000
01000000
01000000
00100000
00100000
00010000
00010000

TIL 5m
00001000
00001000
00000100
00000100
00000010
00000010
00000001
00000001

TIL 5n
10000000
01000000
00100000
00010000
00001000
00000100
00000010
00000001

TIL 5o
00000000
00000000
00000000
00000000
00000000
00000000
00000000
00011111

TIL 5p
00100000
00100000
01000000
01000000
01000000
10000000
10000000
10000000

TIL 5q
00000100
00001000
00001000
00001000
00010000
00010000
00010000
00100000

TIL 5r
00000010
00000010
00000010
00000010
00001111
11110010
00000010
00000100

TIL 5t
00000000
00000000
00000011
00011100
11100000
00000000
00000000
00000000

TIL 5u
00000010
11110010
00001111
00000001
00000001
00000010
00000010
00000100

TIL 5v
00001111
00000000
00000000
00000000
00000000
00000000
00000000
00000000

TIL 5w
00000000
00000000
00000000
00000000
00000000
00000000
00000000
11110000

TIL 5x
00000000
00000000
00000000
00000000
10000000
01110000
00001111
00000000

TIL 5y
00000000
00000000
11000000
00111000
00000111
00000000
00000000
00000000

TIL 5z
00000000
00000000
00000000
11100000
00011110
00000001
00000000
00000000

TIL 6a
00000000
00000000
00000000
00000000
00000000
00000000
00000001
00000110

TIL 6b
00000000
00000000
00000001
00000110
00011000
01100000
10000000
00000000

TIL 6c
00000010
00000010
00000010
00000010
00000010
00000010
00000010
00000010

TIL 6d
00000000
00000000
00000000
00000000
00000000
00000001
00000010
00000010

TIL 6e
00010000
00010000
00001000
00001000
00000100
00000100
00000010
00000010

TIL 6f
00001000
00010000
00100000
01000000
10000000
00000000
00000000
00000000

TIL 6g
00000000
00000000
00000000
00000000
00000000
00000000
00000001
00000110

TIL 6h
00000000
00000000
00000000
00000111
00011000
01100000
10000000
00000000

TIL 6i
00000000
00000000
00000000
11100000
00011000
00000110
00000001
00000000

TIL 6j
00000000
00000000
00000000
00000000
00000000
00000000
10000000
01100000

TIL 6k
00000000
00000000
00000000
00000000
00011000
00001111
00000000
00000000

TIL 6l
00000000
00000000
00000000
00000000
00111000
11100000
00000000
00000000

TIL 6m
00000011
00000110
00001100
00011000
00110000
01100000
11000000
10000000

TIL 6n
00000000
00000000
00000000
00000000
00000000
00000000
00000000
00000001

TIL 6o
01100000
11110011
10100010
10101110
11101110
11101110
11111100
00001100

TIL 6p
00011000
00110110
00111110
00010011
00011011
00001111
01111110
01111100

TIL 6q
00000000
00111100
01011100
11011100
10110101
11110111
01111111
00110011

TIL 6r
00000000
00000010
00111110
11110110
11010110
11111100
11111110
00000011

TIL 6s
00010000
00010000
00010000
00010000
00010000
00010000
00011111
00000000

TIL 6t
00000000
00011111
00010000
00010000
00010000
00010000
00010000
00010000

TIL 6u
00010000
00010000
00010000
00010000
00010000
00010000
00010000
00010000

TIL 6v
00000000
00000001
00000011
00000110
00001100
11111000
00000000
00000000

TIL 6w
11000000
10000000
00000000
00000000
00000000
00000000
00000000
00000000

TIL 6x
00000000
00000001
00000011
00000110
00001100
00011000
00110000
01100000

TIL 6y
11000000
10000000
00000000
00000000
00000000
00000000
00000000
00000000

TIL 6z
00001000
00001000
00001000
00001000
00001000
00011000
00110000
01100000

TIL 7a
01000100
01000100
01000100
01000100
01111110
00000100
00000100
00000100

TIL 7b
00000000
00000000
00000000
11111111
11111111
11111111
11111111
11111111

TIL 7c
00000000
00000000
00000000
01111111
01111111
01111111
01111111
01111111

TIL 7d
01111111
01111111
01111111
01111111
01111111
01111111
01111111
01111111

TIL 7e
11111111
11111111
11111111
11111111
11111111
11111111
11111111
11111111

TIL 7f
01111111
01111111
01111111
01111111
01111111
01111111
00000000
00000000

TIL 7g
11111111
11111111
11111111
11111111
11111111
11111111
00000000
00000000

TIL 7h
00000000
00000000
00000000
00000000
00000000
11111111
00000000
00000000

TIL 7i
00000000
00000000
00000000
11111111
00000000
00000000
00000000
00000000

TIL 7j
00001000
00001000
00001000
00001000
00010000
11100000
00000000
00000000

TIL 7k
00000000
00000000
00000000
11100000
00010000
00001000
00001000
00001000

TIL 7l
00001000
00001000
00001000
00001000
00001000
00001000
00001000
00001000

TIL 7m
00011111
00011111
00011111
00011111
00011111
00011111
00011111
00011111

TIL 7n
11111111
11111111
11111111
00011111
00000000
00000000
00000000
00000000

TIL 7o
00000000
00000000
00000000
00000000
00000000
00000000
00000000
11100000

TIL 7p
00000000
00000000
00000000
00000000
00000000
11111000
11111111
11111111

TIL 7q
00111111
00000111
00000000
00000000
00000000
00000000
00000000
00000000

TIL 7r
00000000
00000000
11000000
11111000
11111111
00111111
00000111
00000000

TIL 7s
11110000
11111110
01111111
00001111
00000001
00000000
00000000
00000000

TIL 7t
00000000
00000000
00000000
00000000
11000000
11110000
11111100
00111111

TIL 7u
11000000
11110000
11111100
00111111
00001111
00000011
00000000
00000000

TIL 7v
00001111
00000011
00000000
00000000
00000000
00000000
00000000
00000000

TIL 7w
00000001
00000001
00000000
00000000
00000000
00000000
00000000
00000000

TIL 7x
11100000
11110000
01111000
00111100
00011110
00001111
00000111
00000011

TIL 7y
00000000
00000000
00000000
00000000
00000000
00000000
10000000
11000000

TIL 7z
11110000
01111000
00111100
00011110
00001111
00000111
00000011
00000001

TIL 8a
00000011
00000011
00000011
00000001
00000000
00000000
00000000
00000000

TIL 8b
00000000
00000000
00000000
00000000
00000000
00000000
10000000
11000000

TIL 8c
00011100
00011100
00111000
00111000
01110000
01110000
11100000
11100000

TIL 8d
00000001
00000001
00000011
00000011
00000111
00000111
00001110
00001110

TIL 8e
11000000
11000000
10000000
10000000
00000000
00000000
00000000
00000000

TIL 8f
00000000
00000000
00000011
00000011
00011100
00011100
11100000
11100000

TIL 8g
01110000
01110000
10000000
10000000
00000000
00000000
00000000
00000000

TIL 8h
00000000
00000000
00000000
00000000
00000001
00000001
00001110
00001110

TIL 8i
00000111
00000111
00111000
00111000
11000000
11000000
00000000
00000000

TIL 8j
00000000
00000000
00000000
00000000
00000000
00000000
00000000
11111111

TIL 8k
11111111
00000000
00000000
00000000
00000000
00000000
00000000
00000000

TIL 8l
00000001
00000001
00000010
00000010
00000100
00000100
00001000
00010000

TIL 8m
10000000
10000000
01000000
01000000
00100000
00100000
00010000
00001000

TIL 8n
00100000
00100000
00100000
00100000
00100000
01000000
10000000
10000000

TIL 8o
00000100
00000100
00000100
00000100
00000100
00000010
00000001
00000001

TIL 8p
00100000
00100000
00100000
00100000
00100000
00100000
00100000
00100000

TIL 8q
00000100
00000100
00000100
00000100
00000100
00000100
00000100
00000100

TIL 8r
00010000
00001000
00000100
00000100
00000010
00000010
00000001
00000001

TIL 8s
00001000
00010000
00100000
00100000
01000000
01000000
10000000
10000000

TIL 8t
10000000
10000000
01000000
00100000
00100000
00100000
00100000
00100000

TIL 8u
00000001
00000001
00000010
00000100
00000100
00000100
00000100
00000100

TIL 8v
00010000
00010000
00010000
00011100
00000100
00000100
00000100
00000111

TIL 8w
00000100
00000100
00000100
00011100
00010000
00010000
00010000
11110000

TIL 8x
00000000
00000000
11100000
00010000
00001000
00000100
00000010
00000001

TIL 8y
00000001
00000010
00000100
00001000
00010000
11100000
00000000
00000000

TIL 8z
00000000
00000000
11111111
00000000
00000000
00000000
00000000
00000000

TIL 9a
00011000
00011000
00011000
00011111
00011111
00000000
00000000
00000000

TIL 9b
00000000
00000000
00000000
00000000
00000000
11111111
11111111
00000000

TIL 9c
00000000
00000000
00000000
00000000
00000000
00000000
00000000
00000001

TIL 9d
00001000
00001000
00001000
00000100
00000010
00000001
00000000
00000000

TIL 9e
10000000
01000000
00100000
00010000
00001000
00001000
00001000
00001000

TIL 9f
00000000
00000000
00000000
00000000
11111100
00000010
00000001
00000000

TIL 9g
00000000
10000000
01000000
00100000
00011111
00000000
00000000
00000000

TIL 9h
00100000
00010000
00001000
00001000
00001000
00001000
00001000
00001000

TIL 9i
00000000
00000000
10000000
01000000
00111111
00000000
00000000
00000000

TIL 9j
00000000
00000000
00000000
00000000
11110000
00001000
00000100
00000010

TIL 9k
00001000
00000100
00000010
00000001
00000000
00000000
00000000
00000000

TIL 9l
00000001
00000000
00000000
00000000
00000000
00000000
00000000
00000000

TIL 9m
00000000
10000000
01000000
00100000
00010000
00001000
00000100
00000010

TIL 9n
00000001
00000000
00000000
00000000
00000000
00000000
00000000
00000000

TIL 9o
00000000
00000000
00000000
00000000
10000000
01000000
00100000
00010000

TIL 9p
00000000
00000000
00000000
00000000
00000000
00000000
00000000
00000000

TIL 9q
00000010
00000001
00000000
00000000
00000000
00000000
00000000
00000000

TIL 9r
00000000
00000000
00000000
00000000
00000000
00000000
10000000
01000000

TIL 9s
11111111
11111111
01111111
00011111
00000111
00000001
00000000
00000000

TIL 9t
11111110
11111111
11111110
11111100
11111000
11110000
01100000
00000000

TIL 9u
00000000
00000000
00000000
00000000
00000000
11000000
11110000
11111100

TIL 9v
00000000
00000000
00000000
00001100
00011111
00111111
01111111
11111111

TIL 9w
11111111
11000011
10000001
10000001
10000001
10000001
11000011
11111111

SPR 10
01111110
11011011
11111111
01111110
01011010
10100101
01011010
00000000
POS 3 5,11

SPR 11
01111110
11011011
11111111
01111110
01011010
10100101
01011010
00000000
POS 3 3,9

SPR 12
01111110
11011011
11111111
01111110
01011010
10100101
01011010
00000000
POS 3 5,7

SPR 13
01111110
11011011
11111111
01111110
01011010
10100101
01011010
00000000
POS 3 3,5

SPR 14
01111110
11011011
11111111
01111110
01011010
10100101
01011010
00000000
POS 3 5,3

SPR 15
00010000
00010000
00001000
00001000
00001000
00010000
00010000
00010000
POS 3 8,11

SPR 16
00010000
00010000
00001000
00001000
00001000
00010000
00010000
00010000
POS 3 8,7

SPR 17
00010000
00010000
00001000
00001000
00001000
00010000
00010000
00010000
POS 3 8,3

SPR 18
00000000
00111100
01000010
01011010
01000010
00100100
00011000
00011000
POS 3 7,15

SPR 19
00000011
00000110
00001100
00011000
00110000
01100000
11000000
10000000
POS 9 14,14

SPR 20
11111111
00000000
00000000
00000000
00000000
00000000
00000000
00000000
POS d 3,5

SPR 21
00001111
00001000
00001000
00001000
00001000
00001000
00001000
11111000
POS d 2,5

SPR 22
11110000
00010000
00010000
00010000
00010000
00010000
00010000
00011111
POS e 14,5

SPR 23
11111111
00000000
00000000
00000000
00000000
00000000
00000000
00000000
POS e 13,5

SPR 24
00001111
00001000
00001000
00001000
00001000
00001000
00001000
11111000
POS e 12,5

SPR 25
11110000
00010000
00010000
00010000
00010000
00010000
00010000
00011111
POS e 4,5

SPR 26
11111111
00000000
00000000
00000000
00000000
00000000
00000000
00000000
POS e 3,5

SPR 27
00001111
00001000
00001000
00001000
00001000
00001000
00001000
11111000
POS e 2,5

SPR 28
00111111
00100000
00100000
00100000
00100000
00100000
00100000
11100000
POS e 9,9

SPR 29
00000000
00000000
00000000
00000000
00000000
00000000
00000000
11111111
POS e 8,9

SPR 30
00000001
00000010
00000100
00001100
00010010
00100001
01000000
10000000
POS g 12,5

SPR 31
00000000
00000000
01000010
00100100
00011000
00011000
00000000
00000000
>
00000000
00000000
00000000
00111100
01011010
00000000
00000000
00000000

SPR 32
00100001
00010010
00001100
00001000
00010000
00100000
01000000
10000000
POS g 10,2

SPR 33
01000001
00100010
00010100
00001000
00010000
00100000
01000000
10000000
POS g 9,3

SPR 34
00100001
00010010
00001100
00001000
00010000
00100000
01000000
10000000
POS g 7,5

SPR 35
01000001
00100010
00010100
00001000
00010000
00100000
01000000
10000000
POS g 6,6

SPR 36
00100001
00010010
00001100
00001000
00010000
00100000
01000000
10000000
POS g 4,8

SPR 37
01000001
00100010
00010100
00001000
00010000
00100000
01000000
10000000
POS g 3,9

SPR 38
00100001
00010010
00001100
00001000
00010000
00100000
01000000
10000000
POS h 10,2

SPR 39
01000001
00100010
00010100
00001000
00010000
00100000
01000000
10000000
POS h 9,3

SPR A
01111110
10100101
11011011
01111110
01111110
10100101
01011010
00000000
POS 9 13,6

SPR a
00000000
00000000
01010001
01110001
01110010
01111100
00111100
00100100

SPR b
00001000
00001000
00001000
11111000
10000000
10000000
10000000
10000000
POS 1 6,1

SPR c
00001000
00001000
00001000
11111000
10000000
10000000
10000000
10000000
POS 1 6,7

SPR d
00001000
00001000
00001000
11111000
10000000
10000000
10000000
10000000
POS 1 6,13

SPR e
10000000
10000000
10000000
11111000
00001000
00001000
00001000
00001000
POS 1 6,2

SPR f
10000000
10000000
10000000
11111000
00001000
00001000
00001000
00001000
POS 1 6,8

SPR g
10000000
10000000
10000000
11111000
00001000
00001000
00001000
00001000
POS 1 6,14

SPR h
00010000
00010000
00011111
00000001
00000001
00000001
00000001
00000001
POS 1 8,1

SPR i
00010000
00010000
00011111
00000001
00000001
00000001
00000001
00000001
POS 1 8,7

SPR j
00010000
00010000
00011111
00000001
00000001
00000001
00000001
00000001
POS 1 8,13

SPR k
00000001
00000001
00000001
00000001
00011111
00010000
00010000
00010000
POS 1 8,2

SPR l
00000001
00000001
00000001
00000001
00011111
00010000
00010000
00010000
POS 1 8,8

SPR m
00000001
00000001
00000001
00000001
00011111
00010000
00010000
00010000
POS 1 8,14

SPR n
00001000
00001000
00001000
11111000
10000000
10000000
10000000
10000000
POS 2 6,1

SPR o
00001000
00001000
00001000
11111000
10000000
10000000
10000000
10000000
POS 2 6,7

SPR p
00001000
00001000
00001000
11111000
10000000
10000000
10000000
10000000
POS 2 6,13

SPR q
10000000
10000000
10000000
11111000
00001000
00001000
00001000
00001000
POS 2 6,2

SPR r
10000000
10000000
10000000
11111000
00001000
00001000
00001000
00001000
POS 2 6,8

SPR s
10000000
10000000
10000000
11111000
00001000
00001000
00001000
00001000
POS 2 6,14

SPR t
00010000
00010000
00011111
00000001
00000001
00000001
00000001
00000001
POS 2 8,1

SPR u
00000001
00000001
00000001
00000001
00011111
00010000
00010000
00010000
POS 2 8,2

SPR v
00010000
00010000
00011111
00000001
00000001
00000001
00000001
00000001
POS 2 8,7

SPR w
00010000
00010000
00011111
00000001
00000001
00000001
00000001
00000001
POS 2 8,13

SPR x
00000001
00000001
00000001
00000001
00011111
00010000
00010000
00010000
POS 2 8,8

SPR y
00000001
00000001
00000001
00000001
00011111
00010000
00010000
00010000
POS 2 8,14

SPR z
00000000
00000000
00000000
00000000
00000000
00000000
00000000
00000000

SPR 1a
00000000
10000000
10000000
10000000
10000000
10000000
10000000
10000000
POS 9 2,7

SPR 1b
10000000
10000000
10000000
10000000
10000000
10000000
10000000
10000000
POS 9 2,8

SPR 1c
10000000
10000000
10000000
10000000
10000000
10000000
10000000
10000000
POS 9 2,9

SPR 1d
10000000
10000000
10000000
10000000
10000000
10000000
10000000
00000000
POS 9 2,10

SPR 1e
01010101
00000000
01010101
00000000
01010101
00000000
11111111
00000000
POS 9 6,2

SPR 1f
01010101
00000000
01010101
00000000
01010101
00000000
11111111
00000000
POS 9 7,2

SPR 1g
01010101
00000000
01010101
00000000
01010101
00000000
11111111
00000000
POS 9 8,2

SPR 1h
01010101
00000000
01010101
00000000
01010101
00000000
11111111
00000000
POS 9 9,2

SPR 1i
00000000
01111110
01111110
01111110
01111110
01110010
01111110
00000000
POS 9 15,8

SPR 1j
00111111
00100000
00100000
00100000
00100000
00100000
00100000
11100000
POS d 14,9

SPR 1k
00000000
00000000
00000000
00000000
00000000
00000000
00000000
11111111
POS d 13,9

SPR 1l
11111100
00000100
00000100
00000100
00000100
00000100
00000100
00000111
POS d 12,9

SPR 1m
00111111
00100000
00100000
00100000
00100000
00100000
00100000
11100000
POS d 9,9

SPR 1n
00000000
00000000
00000000
00000000
00000000
00000000
00000000
11111111
POS d 8,9

SPR 1o
11111100
00000100
00000100
00000100
00000100
00000100
00000100
00000111
POS d 7,9

SPR 1p
00111111
00100000
00100000
00100000
00100000
00100000
00100000
11100000
POS d 4,9

SPR 1q
00000000
00000000
00000000
00000000
00000000
00000000
00000000
11111111
POS d 3,9

SPR 1r
11111100
00000100
00000100
00000100
00000100
00000100
00000100
00000111
POS d 2,9

SPR 1t
11110000
00010000
00010000
00010000
00010000
00010000
00010000
00011111
POS d 14,5

SPR 1u
11111111
00000000
00000000
00000000
00000000
00000000
00000000
00000000
POS d 13,5

SPR 1v
00001111
00001000
00001000
00001000
00001000
00001000
00001000
11111000
POS d 12,5

SPR 1w
11110000
00010000
00010000
00010000
00010000
00010000
00010000
00011111
POS d 9,5

SPR 1x
11111111
00000000
00000000
00000000
00000000
00000000
00000000
00000000
POS d 8,5

SPR 1y
00001111
00001000
00001000
00001000
00001000
00001000
00001000
11111000
POS d 7,5

SPR 1z
11110000
00010000
00010000
00010000
00010000
00010000
00010000
00011111
POS d 4,5

SPR 2a
11111100
00000100
00000100
00000100
00000100
00000100
00000100
00000111
POS e 7,9

SPR 2b
00000000
00000000
01000010
00100100
00011000
00011000
00000000
00000000
>
00000000
00000000
00000000
00111100
01011010
00000000
00000000
00000000
POS f 3,7

SPR 2c
00000000
00000000
01000010
00100100
00011000
00011000
00000000
00000000
>
00000000
00000000
00000000
00111100
01011010
00000000
00000000
00000000
POS f 5,6

SPR 2d
00000000
00000000
01000010
00100100
00011000
00011000
00000000
00000000
>
00000000
00000000
00000000
00111100
01011010
00000000
00000000
00000000
POS f 7,8

SPR 2e
00000000
00000000
01000010
00100100
00011000
00011000
00000000
00000000
>
00000000
00000000
00000000
00111100
01011010
00000000
00000000
00000000
POS 9 10,3

SPR 2f
00000000
00000000
01000010
00100100
00011000
00011000
00000000
00000000
>
00000000
00000000
00000000
00111100
01011010
00000000
00000000
00000000
POS 8 4,12

SPR 2g
00000000
00000000
01000010
00100100
00011000
00011000
00000000
00000000
>
00000000
00000000
00000000
00111100
01011010
00000000
00000000
00000000
POS 6 5,1

SPR 2h
00000000
00000000
01000010
00100100
00011000
00011000
00000000
00000000
>
00000000
00000000
00000000
00111100
01011010
00000000
00000000
00000000
POS 5 5,2

SPR 2i
00000000
00000000
01000010
00100100
00011000
00011000
00000000
00000000
>
00000000
00000000
00000000
00111100
01011010
00000000
00000000
00000000
POS 5 10,2

SPR 2j
00111111
00100000
00100000
00100000
00100000
00100000
00100000
11100000
POS e 14,9

SPR 2k
00000000
00000000
00000000
00000000
00000000
00000000
00000000
11111111
POS e 13,9

SPR 2l
11111100
00000100
00000100
00000100
00000100
00000100
00000100
00000111
POS e 12,9

SPR 2m
00111111
00100000
00100000
00100000
00100000
00100000
00100000
11100000
POS e 4,9

SPR 2n
00000000
00000000
00000000
00000000
00000000
00000000
00000000
11111111
POS e 3,9

SPR 2o
11111100
00000100
00000100
00000100
00000100
00000100
00000100
00000111
POS e 2,9

SPR 2p
00110100
01101010
01110101
00001010
00010101
00011011
00001101
00000111
POS e 9,1

SPR 2q
01001110
01111010
00110010
00111110
00111000
00111000
00100111
11100001
POS e 7,0

SPR 2r
01011000
11101110
10001000
00001000
10001100
11100110
00111111
11101101
POS e 8,0

SPR 2s
11011001
11001101
10000001
10010001
00010001
10010111
00010000
10000000
POS e 7,1

SPR 2t
00000001
00000010
00000100
00001000
00010000
00110000
01001000
10000100
POS g 6,11

SPR 2u
00000001
00000010
00000100
00001100
00010010
00100001
01000000
10000000
POS g 4,13

SPR 2v
00000001
00000010
00000100
00001000
00010000
00100000
01000000
10000000
POS g 5,12

SPR 2w
00000001
00000010
00000100
00001000
00010000
00110000
01001000
10000100
POS g 10,7

SPR 2x
00000001
00000010
00000100
00001100
00010010
00100001
01000000
10000000
POS g 8,9

SPR 2y
00000001
00000010
00000100
00001000
00010000
00100000
01000000
10000000
POS g 9,8

SPR 2z
00000001
00000011
00000100
00001000
00010000
00100000
11000000
00000000
POS g 13,4

SPR 3a
00100001
00010010
00001100
00001000
00010000
00100000
01000000
10000000

SPR 3b
01000001
00100010
00010100
00001000
00010000
00100000
01000000
10000000

SPR 3c
00100001
00010010
00001100
00001000
00010000
00100000
01000000
10000000
POS h 7,5

SPR 3d
01000001
00100010
00010100
00001000
00010000
00100000
01000000
10000000
POS h 6,6

SPR 3e
00100001
00010010
00001100
00001000
00010000
00100000
01000000
10000000
POS h 4,8

SPR 3f
01000001
00100010
00010100
00001000
00010000
00100000
01000000
10000000
POS h 3,9

SPR 3g
00000001
00000010
00000100
00001100
00010010
00100001
01000000
10000000
POS h 12,5

SPR 3h
00000001
00000011
00000100
00001000
00010000
00100000
11000000
00000000
POS h 13,4

SPR 3i
00000001
00000010
00000100
00001000
00010000
00100000
01000000
10000000
POS h 9,8

SPR 3j
00000001
00000010
00000100
00001100
00010010
00100001
01000000
10000000
POS h 8,9

SPR 3k
00000001
00000010
00000100
00001000
00010000
00110000
01001000
10000100
POS h 10,7

SPR 3l
00000001
00000010
00000100
00001100
00010010
00100001
01000000
10000000
POS h 4,13

SPR 3m
00000001
00000010
00000100
00001000
00010000
00100000
01000000
10000000
POS h 5,12

SPR 3n
00000001
00000010
00000100
00001000
00010000
00110000
01001000
10000100
POS h 6,11

SPR 3o
00000000
00111100
01000010
01011010
01000010
00100100
00011000
00011000
POS i 12,1

SPR 3p
00000000
00111100
01000010
01011010
01000010
00100100
00011000
00011000
POS i 13,3

SPR 3q
00000000
00111100
01000010
01011010
01000010
00100100
00011000
00011000
POS 7 8,15

SPR 3r
00000000
00111100
01000010
01011010
01000010
00100100
00011000
00011000
POS 6 15,3

SPR 3s
00000000
00111100
01000010
01011010
01000010
00100100
00011000
00011000
POS 5 15,4

DLG 10
Welcome to the Mining Offline Subterranean Hub. We are glad you have finally made it to the international movement that will save our race...and the world! For information, please continue on through our welcome center. For your convenience, all audio and legible language will be automatically set using information from your identity scan from earlier.  

DLG 11
For short we call the Mining Offline Subterranean Hub "M.O.T.H.". Yeah we know the "T" is in subterranean but you can't imagine how long it takes a group of 9 people to name something. Geez.

DLG 12
Very soon you will be leaving your current bodies and transferring into brand new ones in your designated data roots. It may sound worrying, but we can assure you that the process is completely safe and no one has ever been harmed in a transfer.

DLG 13
Now please, before you leave make sure you have something to eat using your vouchers across the hall. Your body will need as much energy as possible in order for us to transfer successfully.

DLG 14
Again, welcome to M.O.T.H. and enjoy the rest of your life knowing that you have made the world a better place. 

DLG 15
Rubble covers the front of a room, preventing any entry. A sign above with words partially faded says, "First C-". Cute green square characters are posing on the letter F. 

DLG 16
A large poster on the wall shows a brown, round object wearing a crown with something inside of it. The only text on the poster says "It feels good to be king."

DLG 17
This is one of my favorite places. There isn't anything to do but stare at one of the most beautiful things I have ever seen in my life. An old poster on the inside of a window colored with bright shades of yellows and reds. A triangle overflows with magical goop in the center. Two red circles on the poster with arms and legs stare at the star of the poster with a similar expression to mine. Above the massive word "PIZZA" exclaims the image's presence. Sometimes when I look at this I can almost hear it calling for me, but I know its simply a dream forever out of my reach. 

DLG 18
Sorry, the subway is officially shut down. 

DLG 19
A large pane of glass gives view of the entire hub below. It's hard to tell if it feels more lonely seeing it all from above or standing down below. 

DLG 20
Server root "Burma" has completed transfer.

DLG 21
Server root "Burma" has completed transfer.

DLG 22
Server root "Laos" has completed transfer.

DLG 23
Server root "Laos" has completed transfer.

DLG 24
Server root "Laos" has completed transfer. 

DLG 25
Server root "Zimbabwe" has completed transfer.

DLG 26
Server root "Zimbabwe" has completed transfer.

DLG 27
Server root "Zimbabwe" has completed transfer.

DLG 28
Server root "Somalia" has completed transfer.

DLG 29
Server root "Somalia" has completed transfer.

DLG 30
Server root "Paraguay" has completed transfer.

DLG 32
Server root "Sri Lanka" has completed transfer.

DLG 33
Server root "Sri Lanka" has completed transfer.

DLG 34
Server root "Venezuela" has completed transfer.

DLG 35
Server root "Venezuela" has completed transfer.

DLG 36
Server root "Oman" has completed transfer.

DLG 37
Server root "Oman" has completed transfer. 

DLG 38
Server root "United Kingdom" has completed transfer.

DLG 39
Server root "United Kingdom" has completed transfer.

DLG a
I'm a cat

DLG b
Server Root "Chile" has completed transfer.

DLG c
Server root "Kenya" has completed transfer

DLG d
Server root "Portugal" has completed transfer

DLG e
Server Root "Chile" has completed transfer.

DLG f
Server root "Kenya" has completed transfer

DLG g
Server root "Portugal" has completed transfer

DLG h
Server root "Romania" has completed transfer.

DLG i
Server root "Liberia" has completed transfer.

DLG j
Server root "Haiti" has completed transfer.

DLG k
Server root "Romania" has completed transfer.

DLG l
Server root "Liberia" has completed transfer.

DLG m
Server root "Haiti" has completed transfer.

DLG n
Server root "Egypt" has completed transfer

DLG o
Server root "Bolivia" has completed transfer.

DLG p
Server root "France" has completed transfer.

DLG q
Server root "Egypt" has completed transfer

DLG r
Server root "Bolivia" has completed transfer.

DLG s
Server root "France" has completed transfer.

DLG t
Server root "Iceland" has completed transfer. 

DLG u
Server root "Iceland" has completed transfer.

DLG v
Server root "Mexico" has completed transfer.

DLG x
Server root "Mexico" has completed transfer.

DLG w
Server root "Russia" has completed transfer.

DLG y
Server root "Russia" has completed transfer.

DLG 1a
This part of the shelf is pretty empty aside from a little bit of dirt. 

DLG 1b
A book labeled, "Metamorphosis" sits on this part of the shelf. 

DLG 1c
A binder labeled, "Maintaining M.O.T.H." sits here. I looked at this a couple of times but all of the parts of this place that it talks about don't exist or stopped functioning a long time ago.

DLG 1d
A book titled, "Decaying Planet: Problems, Solutions, and the Inevitable"

DLG 1k
Server root "South Korea" has completed transfer. 

DLG 1j
Server root "South Korea" has completed transfer. 

DLG 1l
Server root "South Korea" has completed transfer. 

DLG 1o
Server root "Morocco" has completed transfer. 

DLG 1n
Server root "Morocco" has completed transfer. 

DLG 1m
Server root "Morocco" has completed transfer. 

DLG 1p
Server root "Turkey" has completed transfer.

DLG 1q
Server root "Turkey" has completed transfer.

DLG 1r
Server root "Turkey" has completed transfer. 

DLG 1t
Server root "New Zealand" has completed transfer. 

DLG 1u
Server root "New Zealand" has completed transfer. 

DLG 1v
Server root "New Zealand" has completed transfer. 

DLG 1w
Server root "Kuwait" has completed server transfer.

DLG 1x
Server root "Kuwait" has completed transfer. 

DLG 1y
Server root "Kuwait" has completed transfer. 

DLG 1z
Server root "Burma" has completed transfer".

DLG 2b
@IKr3K%FM$)K Aphel $TJGKDM%G942m2$G thanks jTG($40jg#$tj44#JMg 

DLG 2c
mothbadFAKVMOEMWja mainten#@KGAmdf "Hey! You're pretty cute aren't you?" 2tW@JEGOAMvd

DLG 2d
J$t325%#E#@EKEmfOGPFLBVKM Pyreflies jaSDJN$I$(9534 JN$39tjg archiv@#RJE$#@(T "Do you know where we are?"

DLG 2e
dj392fm2#%)(J Procedure JTM(G2m249) "Can you help me?"

DLG 2f
"I guess walking around is better than laying down forever."

DLG 1i
Looking in the glass next to where I sleep I see my head reflecting. It used to shine but now it has faded slightly and my large eyes have lost their shape. 

DLG 2g
29jogn#$(JaAEOj9 Overlook aSD09j2m#IN39nA$fj procjasD( "I don't feel so good..."

DLG 1e
Hello, how can I assist you?

DLG 1f
Want to go over the steps of metamorphosis again?

DLG 1g
Sorry, applications: "Flitter", and "Social Butterfly" are unable to be accessed at this time. 

DLG 1h
Sorry, at this time I am having trouble opening the internet. Would you like to go over the stages of metamorphosis again?

DLG 2h
Central 2jt2q0gwjF)Jajsd Main ajJFAomdffif "This place is massive."

DLG 2i
a0(OJAG3m4nf OJG943gnQ1``~JOM millions asDOAJMN(@ "HELLOOOOOoooooo?" (helloooooo)

DLG 2a
Server root "Somalia" has completed transfer.

DLG 2j
Server root "Tunisia" has completed data transfer.

DLG 2k
Server root "Tunisia" has completed data transfer.

DLG 2l
Server root "Tunisia" has completed data transfer.

DLG 2m
Server root "Ireland" has completed transfer.

DLG 2n
Server root "Ireland" has completed transfer.

DLG 2o
Server root "Ireland" has completed transfer.

DLG 2p
A dirty piece of torn, white cloth. 

DLG 2q
These look like the wings of M.O.T.H. outside.

DLG 2r
These look like the wings of M.O.T.H. outside.

DLG 2s
These look like the wings of M.O.T.H. outside.

DLG 2t
Server root "Austria" has completed transfer.

DLG 2u
Server root "Austria" has completed transfer.

DLG 2v
Server root "Austria" has completed transfer.

DLG 2w
Server root "El Salvador" has completed transfer.

DLG 2x
Server root "El Salvador" has completed transfer.

DLG 2y
Server root "El Salvador" has completed transfer.

DLG 2z
Server root "Paraguay" has completed transfer.

DLG 3a
Server root "Madagascar" has completed transfer.

DLG 3b
Server root "Madagascar" has completed transfer.

DLG 3c
Server root "Georgia" has completed transfer. 

DLG 3d
Server root "Georgia" has completed transfer.

DLG 3e
Server root "Macedonia" has completed transfer.

DLG 3f
Server root "Macedonia" has completed transfer.

DLG 3g
Server root "China" has completed transfer.

DLG 3h
Server root "China" has completed transfer.

DLG 3i
Server root "Peru" has completed transfer.

DLG 3j
Server root "Peru" has completed transfer.

DLG 3k
Server root "Peru" has completed transfer.

DLG 3l
Server root "Ghana" has completed transfer.

DLG 3m
Server root "Ghana" has completed transfer.

DLG 3n
Server root "Ghana" has completed transfer.

DLG 3o
Data Hole Levi is currently still rooting, only certified personnel may enter past here. 

DLG 3p
ata Hole Levi is currently still rooting, only certified personnel may enter past here. 

DLG 3q
Bzzzzzt, will be ready when the game is done :)

DLG 3r
Bzzzzzt, will be ready when the game is done :)

DLG 3s
Bzzzzzt, will be ready when the game is done :)

