The basic train ride

# BITSY VERSION 5.1

! ROOM_FORMAT 1

PAL 0
255,230,221
153,96,114
230,163,176

PAL 1
255,192,162
153,96,114
230,163,176

ROOM 0
0,0,0,0,0,0,0,0,0,0,0,0,0,0,0,0
0,0,0,0,0,0,0,0,0,0,0,0,0,0,0,0
b,b,b,b,b,b,b,b,b,b,b,b,b,b,b,b
0,0,0,0,0,0,0,0,0,0,0,0,0,0,0,0
g,g,g,j,0,d,g,g,g,j,0,d,g,j,0,0
p,0,p,i,m,e,p,l,o,i,m,e,o,n,0,0
f,f,f,h,a,c,f,k,f,h,a,c,f,h,a,a
0,0,0,0,0,0,0,0,0,0,0,0,0,0,0,0
q,s,s,t,0,q,s,s,t,0,x,x,x,x,x,x
r,v,w,u,0,r,v,w,u,0,x,x,x,x,x,x
0,0,0,0,0,0,0,0,0,0,x,x,x,x,x,x
0,0,0,0,0,0,0,0,0,0,0,0,0,0,0,0
0,0,0,0,0,0,0,0,0,0,0,0,0,0,0,0
0,0,0,0,0,0,0,0,0,0,0,0,0,0,0,0
0,0,0,0,0,0,0,0,0,0,0,0,0,0,0,0
0,0,0,0,0,0,0,0,0,0,0,0,0,0,0,0
EXT 7,7 1 8,11
EXT 6,7 1 7,11
END undefined 7,15
PAL 0

ROOM 1
0,0,0,0,0,0,0,0,0,0,0,0,0,0,0,0
0,0,0,0,0,0,0,0,0,0,0,0,0,0,0,0
0,15,15,15,15,15,15,15,15,15,15,15,15,15,15,0
0,15,0,0,0,0,0,0,0,0,0,0,0,0,15,0
0,15,0,0,0,0,0,0,0,0,0,0,0,0,15,0
1a,15,0,0,0,0,0,0,0,0,0,0,0,0,15,1a
15,15,0,0,0,0,0,0,0,0,0,0,0,0,15,15
0,0,0,0,0,0,0,0,0,0,0,0,0,0,0,0
0,0,0,0,0,0,0,0,0,0,0,0,0,0,0,0
15,15,0,0,0,0,0,0,0,0,0,0,0,i,15,15
1b,15,0,0,0,0,0,y,z,0,0,0,0,i,15,1b
0,15,0,0,0,0,0,0,0,0,0,0,0,0,15,0
0,15,15,15,15,15,15,15,15,15,15,15,15,15,15,0
0,0,0,0,0,0,0,0,0,0,0,0,0,0,0,0
0,0,0,0,0,0,0,0,0,0,0,0,0,0,0,0
0,0,0,0,0,0,0,0,0,0,0,0,0,0,0,0
EXT 0,7 2 15,7
EXT 15,7 3 0,7
PAL 0

ROOM 2
0,0,0,0,0,0,0,0,0,0,0,0,0,0,0,0
0,0,0,0,0,0,0,0,0,0,0,0,0,0,0,0
0,15,15,15,15,15,15,15,15,15,15,15,15,15,15,0
0,15,0,0,0,0,15,0,0,0,15,0,0,0,15,0
0,15,0,0,0,0,15,0,0,0,15,0,0,0,15,0
1a,15,0,0,0,0,15,0,0,0,15,0,0,0,15,1a
17,15,15,14,15,15,15,15,14,15,15,15,14,15,15,15
19,15,0,0,0,0,0,0,0,0,0,0,0,0,0,0
19,15,0,0,0,0,0,0,0,0,0,0,0,0,0,0
18,15,0,0,0,0,0,0,0,0,0,0,0,0,15,15
1b,15,0,0,0,0,0,0,0,0,0,0,0,0,15,1b
0,15,15,15,15,15,15,15,15,15,15,15,15,15,15,0
0,0,0,0,0,0,0,0,0,0,0,0,0,0,0,0
0,0,0,0,0,0,0,0,0,0,0,0,0,0,0,0
0,0,0,0,0,0,0,0,0,0,0,0,0,0,0,0
0,0,0,0,0,0,0,0,0,0,0,0,0,0,0,0
ITM 0 2,5
ITM 1 13,3
EXT 15,8 1 0,8
END undefinee 2,4
PAL 0

ROOM 3
0,0,0,0,0,0,0,0,0,0,0,0,0,0,0,0
0,0,0,0,0,0,0,0,0,0,0,0,0,0,0,0
0,0,0,0,0,0,0,0,0,0,0,0,0,0,0,0
0,0,0,0,0,0,0,0,0,0,0,0,0,0,0,0
0,0,15,15,15,15,15,15,15,15,15,0,0,0,0,0
1a,1a,15,0,0,0,0,0,0,0,15,1a,1a,1a,1a,1a
15,15,15,0,0,0,0,0,0,0,15,17,17,17,17,17
0,0,0,0,0,0,0,0,0,16,15,19,19,19,19,19
0,0,0,0,0,0,0,0,0,0,15,19,19,19,19,19
15,15,15,0,0,0,0,0,0,0,15,18,18,18,18,18
1b,1b,15,0,0,0,0,0,0,0,15,1b,1b,1b,1b,1b
0,0,15,15,15,15,15,15,15,15,15,0,0,0,0,0
0,0,0,0,0,0,0,0,0,0,0,0,0,0,0,0
0,0,0,0,0,0,0,0,0,0,0,0,0,0,0,0
0,0,0,0,0,0,0,0,0,0,0,0,0,0,0,0
0,0,0,0,0,0,0,0,0,0,0,0,0,0,0,0
EXT 0,8 1 15,8
PAL 0

TIL 10
00000000
11111111
00000001
00000001
00000001
00000001
00000001
00000001

TIL 11
10000000
10000000
10000000
10000000
10000000
10000000
10000000
11111111

TIL 12
00000001
00000001
00000001
00000001
00000001
00000001
00000001
11111111

TIL 13
00000000
00000000
00000000
00000000
00000000
00000000
00000000
11111111

TIL 14
11111111
10000001
10000001
10001101
10001101
10000001
10000001
11111111

TIL 15
11111111
10000001
10000001
10000001
10000001
10000001
10000001
11111111

TIL 16
11111111
11111111
11000011
11000011
11000011
11000011
11111111
11111111

TIL 17
11111111
01011010
01011010
01011010
01011010
01011010
01011010
01011010

TIL 18
01011010
01011010
01011010
01011010
01011010
01011010
01011010
11111111

TIL 19
01011010
01011010
01011010
01011010
01011010
01011010
01011010
01011010

TIL a
00000000
01010101
11111111
01010101
01010101
11111111
01010101
00000000

TIL b
00000000
00000000
01100000
10010000
00001000
00101001
00000110
00000000
>
00000000
00000000
00000110
00001001
00010000
10010010
01100000
00000000

TIL c
10000000
10000000
10000000
10000000
10000000
10000000
01111111
00000000

TIL d
00000000
01111111
10000000
10000000
10000000
10000000
10000000
10000000

TIL e
10000000
10000000
10000000
10000000
10000000
10000000
10000000
10000000

TIL f
00000000
00000000
00000000
00000000
00000000
00000000
11111111
00000000

TIL g
00000000
11111111
00000000
00000000
00000000
00000000
00000000
00000000

TIL h
00000001
00000001
00000001
00000001
00000001
00000001
11111110
00000000

TIL i
00000001
00000001
00000001
00000001
00000001
00000001
00000001
00000001

TIL j
00000000
11111110
00000001
00000001
00000001
00000001
00000001
00000001

TIL k
10000001
10000001
10000001
10000001
10000001
10000001
10000001
00000000

TIL l
00000000
00000000
00000000
00000000
00000000
00000000
00000000
01111110

TIL m
00000000
00000000
11111111
00000000
11111111
00000000
00000000
00000000

TIL n
00000111
00001001
00010001
00100001
01000001
10000001
10000001
11111111

TIL o
00000000
01111100
10000010
10000010
10000010
10000010
10000010
01111100

TIL p
00000000
00111110
01000001
01000001
01000001
01000001
01000001
00111110

TIL q
01111111
10000000
10000000
11111111
01100000
01100000
01100000
01100000

TIL r
01100000
01100000
01100000
01100000
01100000
01100000
01100000
01100000

TIL s
11111111
00000000
00000000
11111111
00000000
00000000
00000000
00000000

TIL t
11111110
00000001
00000001
11111111
00000110
00000110
00000110
00000110

TIL u
00000110
00000110
00000110
00000110
00000110
00000110
00000110
00000110

TIL v
00000000
00000000
01111111
01000000
01000000
01000000
01111111
01111111

TIL w
00000000
00000000
11111110
00000010
00000010
00000010
11111110
11111110

TIL x
10101010
01010101
10101010
01010101
10101010
01010101
10101010
01010101

TIL y
00000000
01111111
01000000
01000000
01000000
01000000
01000000
01111111

TIL z
00000000
11111110
00000010
00000010
00000010
00000010
00000010
11111110

TIL 1a
00000000
00000000
00000000
00000000
00000000
00000000
00000000
01011010

TIL 1b
01011010
00000000
00000000
00000000
00000000
00000000
00000000
00000000

SPR 10
00011100
00011110
00011100
00011100
00011111
00011100
00001000
00001000
>
00000000
00011100
00011110
00011100
00011100
00011111
00011100
00001000
NAME Sprite 24
DLG SPR_q
POS 3 8,7

SPR A
00000000
00011000
00011000
01111110
10111101
00111100
00100100
00100100
>
00000000
00000000
00011000
00011000
01111110
10111101
00111100
00100100
POS 0 7,13

SPR a
00000000
00000000
00000000
01010001
01110001
01111110
01111100
00111100
>
00000000
00000000
01010001
01110001
01110010
01111100
00111100
00100100
NAME Sprite 1
DLG SPR_0
POS 0 2,13

SPR b
00000000
00111100
01011010
00011000
01111110
10111101
00100100
00100100
>
00000000
00000000
00111100
01011010
00011000
01111110
10111101
00100100
NAME Sprite 2
DLG SPR_1
POS 0 1,13

SPR c
00000000
00011000
00011000
00111100
01011010
00011000
00100100
00100100
>
00000000
00000000
00011000
00011000
00111100
01011010
00011000
00100100
NAME Sprite 3
DLG SPR_2
POS 0 8,7

SPR d
00000000
00011000
00111100
00011000
00111100
00111100
00011000
00011000
>
00000000
00000000
00011000
00111100
00011000
00111100
00111100
00011000
NAME Sprite 4
DLG SPR_3
POS 0 2,9

SPR e
00000000
00000000
00011000
00111100
00011000
00111100
00111100
00011000
>
00000000
00011000
00111100
00011000
00111100
00111100
00011000
00011000
NAME Sprite 5
DLG SPR_4
POS 0 1,9

SPR f
11111111
10000001
10000001
10000001
10000001
10000001
10000001
11111111
NAME Table 1
DLG SPR_5
POS 1 4,6

SPR g
11111111
10000001
10000001
10000001
10000001
10000001
10000001
11111111
NAME Table 2
DLG SPR_6
POS 1 6,4

SPR h
11111111
10000001
10000001
10000001
10000001
10000001
10000001
11111111
NAME Table 3
DLG SPR_7
POS 1 8,6

SPR i
11111111
10000001
10000001
10000001
10000001
10000001
10000001
11111111
NAME Table 4
DLG SPR_8
POS 1 10,4

SPR j
00000100
00011000
00011000
00111100
01011010
00011000
00011000
00011000
>
00000000
00000100
00011000
00011000
00111100
01011010
00011000
00011000
NAME Sprite 6
DLG SPR_9
POS 1 5,6

SPR k
00000000
00111000
01011000
00111100
01011010
00011000
00011000
00011000
>
00000000
00000000
00111000
01011000
00111100
01011010
00011000
00011000
NAME Sprite 7
DLG SPR_a
POS 1 3,6

SPR l
00000000
00100100
00011000
00111001
00011010
00011100
00011100
00000000
>
00000000
00100100
00011000
00111000
00011010
00011101
00011100
00000000
NAME Sprite 8
DLG SPR_c
POS 1 7,4

SPR m
00111100
01011010
00111100
00011000
01111110
00011000
00100100
00100100
>
00000000
00111100
01011010
00111100
00011000
01111110
00011000
00100100
NAME Sprite 9
DLG SPR_b
POS 1 9,6

SPR n
00000100
00011000
00011000
00111100
00111100
00111100
00011000
00011000
>
00000000
00000100
00011000
00011000
00111100
00111100
00111100
00011000
NAME Sprite 11
DLG SPR_d
POS 1 9,10

SPR o
00000000
00011100
00101100
00101111
00001100
00001100
00001100
00001110
>
00000000
00000000
00011100
00101100
00101111
00001100
00001100
00001110
NAME Sprite 12
DLG SPR_e
POS 1 9,4

SPR p
00000000
00000000
00110000
00110000
11110000
00110000
00110000
01110000
>
00000000
00110000
00110000
11110000
00110000
00110000
00110000
01110000
NAME Sprite 13
DLG SPR_f
POS 1 11,4

SPR q
01111110
10000001
10111101
10111101
10000001
11111111
11111111
11111111
NAME Sprite 14
DLG SPR_g
POS 2 2,3

SPR r
01111110
10000001
10111101
10111101
10000001
11111111
11111111
11111111
NAME Sprite 15
DLG SPR_h
POS 2 7,3

SPR s
01111110
10000001
10111101
10111101
10000001
11111111
11111111
11111111
NAME Sprite 16
DLG SPR_i
POS 2 11,3

SPR t
00011000
00011000
00111100
01011010
10011001
00011000
00011000
00011000
>
00000000
00011000
00011000
00111100
01011010
10011001
00011000
00011000
NAME Sprite 17
DLG SPR_j
POS 2 2,10

SPR u
11111111
10011001
10011001
11111111
11111111
10011001
10011001
11111111
NAME Sprite 18
DLG SPR_k
POS 2 5,3

SPR v
11111111
10000001
10000101
10000001
11111111
10000001
10000001
11111111
NAME Sprite 19
DLG SPR_l
POS 2 4,3

SPR w
01111110
10000001
10111101
10100101
10100101
10111101
10000001
01111110
NAME Sprite 20
DLG SPR_m
POS 2 9,3

SPR x
00000000
00111100
01010110
01010110
01111110
01111110
01011010
00000000
>
00000000
00111100
01010110
01010110
01111110
01111110
01100110
00000000
NAME Sprite 21
DLG SPR_n
POS 2 13,10

SPR y
00000100
00011100
00010101
00111110
00011100
00011100
00111000
00000000
>
00000100
00011100
00010100
00111100
00011110
00011101
00111000
00000000
NAME Sprite 22
DLG SPR_o
POS 2 8,8

SPR z
00000000
00000000
00111100
00101000
00111100
00111100
00100100
00100100
>
00000000
00000000
00000000
00111100
00101000
00111100
00111100
00100100
NAME Sprite 23
DLG SPR_p
POS 2 7,8

ITM 0
00000000
00000000
00111100
00011000
00100100
01000010
00111100
00000000
NAME Goodie Bag
DLG ITM_0

ITM 1
00100100
00100100
00011000
00011000
00111100
00011000
00100100
00000000
NAME Usagi Doll
DLG ITM_1

DLG SPR_0
Meow!

DLG SPR_1
I ca't wait for my friend Bebe to come from the train!

DLG SPR_2
"""
your free to get inside,
 I already have your ticket in my hands!
"""

DLG SPR_3
This bench is not comfortable but i'm tired of walking..

DLG SPR_4
"""
I like this bench it's so
rough and scaly!
"""

DLG SPR_5
This table has two ladies talking to each other

DLG SPR_6
This table has a dog next to it.

DLG SPR_7
This table has a man listening to music

DLG SPR_8
This table has a couple

DLG SPR_9
No, a fork is better than a spoon because you grab those tasty meats by just stabbing it!

DLG SPR_a
Nu-uh! A spoon is better because you can scoop things! Like rice, soup, tiny veggie bits, and many more!

DLG SPR_b
This person is listening to music, he can't talk to you because he seems so busy.

DLG SPR_c
Awoooo!

DLG SPR_d
Hello! Your train room is at the left.

DLG SPR_e
No, I love you more! Hehe!

DLG SPR_f
I love you!

DLG SPR_g
It's your bed. It's very basic.

DLG SPR_h
It's a bed. You can't sleep in it because it's somebody's bed

DLG SPR_i
It's a bed. You can't sleep in it because it's somebody's bed

DLG SPR_j
I'm kinda tired and I want to sleep, but sadly I don't know which room is my room!

DLG SPR_k
It's a mini like stove. You want to cook something but your lazy.

DLG SPR_l
It's a fridge there's nothing inside of it, because you didn't pack any food yesterday.

DLG ITM_0
You got a goodie bag! Inside of it is cookies!

DLG SPR_m
"""
It's a table and on the table is a book called "How to be kawaii 101"
......
That's a weird title for 
a book.
"""

DLG ITM_1
You got a Usagi doll! Why did you steal the doll? :)

DLG SPR_n
So uh... no food... this train ride sucks.

DLG SPR_o
Rawr! Nanodesu!

DLG SPR_p
EEEEK! Too scary!

DLG SPR_q
Oh, hey passenger! Are you enjoying the train ride? It's very relaxing I know!

END 0
I'm so soerror sorry for the s and crap just hang in there ok MC?

END undefined
You left the train station. Why did you leave?

END undefinee
You sleep in your bed, being comfortable and wonder what will bring next time you visit the train station...

VAR a
42

