
Wine Day Afternoon

# BITSY VERSION 4.8

! ROOM_FORMAT 1

PAL 0
194,27,102
240,252,255
254,195,251

PAL 1
NAME wine dungeon
232,26,107
255,255,255
0,0,0

PAL 2
NAME black white
0,0,0
255,255,255
255,255,255

PAL 3
255,255,255
255,255,255
255,255,255

PAL 4
NAME wine_choice
255,134,215
118,118,255
247,255,228

PAL 5
NAME red_room
255,14,57
252,241,239
41,0,4

PAL 6
NAME white_room
255,255,255
0,0,0
255,3,17

ROOM 0
v,v,v,v,v,v,v,v,v,v,v,v,v,v,v,v
0,a,b,b,b,b,b,b,b,b,b,b,b,b,d,0
0,c,0,0,0,0,0,0,0,0,0,0,k,0,c,0
0,c,0,g,h,0,0,0,0,0,0,0,0,0,c,0
0,c,0,0,0,0,0,0,0,0,0,o,q,p,c,0
0,c,b,b,b,d,0,0,0,0,a,b,b,b,c,0
0,c,r,r,r,r,0,0,0,0,c,t,0,0,c,0
0,c,r,w,r,r,0,0,0,0,0,0,0,0,c,0
0,c,r,r,r,c,0,0,j,0,c,0,0,u,c,0
0,e,b,b,b,b,b,b,i,b,b,b,b,b,f,0
0,0,0,0,0,0,0,0,s,0,0,0,0,0,0,0
m,0,l,0,0,0,0,0,n,0,0,m,0,0,l,0
0,0,0,0,l,0,0,0,n,0,0,v,v,v,v,v
l,0,0,0,0,0,0,0,n,0,0,0,0,0,0,l
0,0,m,0,0,0,0,0,n,0,0,0,0,0,m,0
v,v,v,v,v,v,v,v,n,v,v,v,v,v,v,v
NAME home
EXT 8,15 1 3,0
PAL 2

ROOM 1
0,0,0,n,0,0,0,0,0,0,0,0,0,0,0,0
0,0,0,n,0,0,0,l,0,0,0,0,0,0,0,0
0,0,0,n,0,0,0,0,0,y,0,0,0,0,0,0
0,0,0,n,0,0,0,m,0,0,0,0,0,0,0,0
0,0,0,n,0,0,0,0,0,0,l,0,0,z,0,0
0,0,0,n,0,0,0,0,0,0,0,0,y,0,0,0
0,0,0,n,0,0,0,0,0,0,0,0,0,0,0,0
0,0,0,n,0,v,v,v,v,v,v,v,v,v,v,v
l,0,0,n,n,n,n,n,n,n,n,n,n,n,n,n
0,0,0,n,n,n,n,n,n,n,n,n,n,n,n,n
0,0,0,n,0,v,v,v,v,v,v,v,v,v,v,v
0,l,0,n,0,0,0,0,0,0,y,z,0,0,0,0
0,0,0,n,0,0,0,0,0,0,0,0,m,0,0,0
z,0,0,n,0,0,0,x,x,x,x,x,0,0,0,0
0,0,0,n,0,0,x,x,x,x,x,x,x,x,0,0
0,0,0,n,0,0,x,x,x,x,x,x,x,x,x,x
NAME road 1
EXT 15,8 3 0,8
EXT 15,9 3 0,9
EXT 3,0 0 8,15
EXT 3,15 2 3,0
PAL 2

ROOM 2
0,0,0,n,0,0,0,x,x,x,x,x,x,x,0,0
0,0,0,n,0,y,0,0,x,x,x,x,x,x,x,0
0,0,0,n,0,0,0,0,x,x,x,x,x,x,x,x
0,0,0,n,0,0,0,y,0,x,x,x,x,x,x,x
0,0,0,n,0,0,0,l,0,0,x,x,x,x,x,x
x,l,0,n,0,0,0,0,0,0,x,x,x,x,x,x
x,x,0,n,0,0,y,0,0,0,0,0,x,x,x,x
x,x,0,n,0,0,0,0,0,0,l,0,x,x,x,x
x,l,0,n,0,0,0,0,0,0,0,0,x,x,x,x
0,0,0,n,0,0,0,0,0,l,0,0,x,x,x,x
0,0,0,n,0,0,0,0,0,0,0,y,x,x,x,x
11,11,11,n,11,11,11,11,11,11,11,11,x,x,x,x
12,12,12,n,12,12,12,12,12,12,12,12,13,13,13,13
12,12,12,10,12,12,12,12,12,12,12,12,13,13,13,13
12,12,12,0,12,12,12,12,12,12,12,12,13,13,13,13
12,12,12,0,12,12,12,12,12,12,12,12,13,13,13,13
NAME road 2
ITM 0 3,7
EXT 3,0 1 3,15
END 0 3,13
PAL 2

ROOM 3
0,0,0,0,0,18,0,1a,0,0,19,0,0,0,0,0
0,0,0,0,18,0,1a,0,0,1a,0,19,0,0,0,0
0,0,0,0,16,16,16,16,16,16,16,16,0,0,0,0
0,0,0,0,16,17,16,1c,1d,16,17,16,0,0,0,0
1b,1b,1b,1b,16,16,16,i,i,16,16,16,1b,1b,1b,1b
0,0,0,0,0,0,y,n,n,y,0,0,0,0,0,0
0,0,0,0,0,0,y,n,n,y,0,0,0,0,0,0
v,v,v,v,v,v,v,n,n,v,v,v,v,v,v,v
n,n,n,n,n,n,n,n,n,n,n,n,n,n,n,15
n,n,n,n,n,n,n,n,n,n,n,n,n,n,n,15
v,v,v,v,v,v,v,v,v,v,v,v,v,v,v,v
0,0,0,0,0,0,0,0,0,0,0,0,0,0,0,0
0,0,0,0,0,0,0,0,0,0,0,0,0,0,0,0
0,0,0,0,0,0,0,0,0,0,0,0,0,0,0,x
x,0,0,x,x,x,x,x,x,x,x,x,x,0,x,x
x,x,x,x,x,x,x,x,x,x,x,x,x,x,x,x
EXT 0,8 1 15,8
EXT 0,9 1 15,9
EXT 7,4 4 7,14
EXT 8,4 4 8,14
PAL 2

ROOM 4
0,0,0,0,0,0,0,0,0,0,1m,0,0,1n,0,0
0,0,0,0,0,0,0,0,0,0,1m,0,0,1n,0,0
0,0,a,b,b,b,b,b,b,b,b,1l,1l,b,d,0
0,0,c,1f,1f,1f,1f,1f,1f,0,0,1k,1k,0,c,0
0,0,c,0,0,0,0,0,0,0,0,0,0,0,c,0
0,0,c,1i,1g,0,0,1g,0,1f,1f,1f,1f,1i,c,0
0,0,c,0,1g,0,0,1g,0,0,0,0,0,0,c,0
0,0,c,0,1g,0,0,1g,0,0,1e,1e,0,0,c,0
0,0,c,0,1g,0,0,1g,1j,0,0,0,0,0,c,0
0,0,c,0,1g,0,0,1g,0,0,1e,1e,0,0,c,0
0,0,c,0,1g,0,0,1g,0,0,0,0,0,0,c,0
0,0,c,1j,1g,0,0,1g,0,0,1e,1e,0,0,c,0
0,0,c,0,0,0,0,0,0,0,0,0,0,0,c,0
0,0,c,0,0,0,0,r,r,0,0,1h,0,0,c,0
0,0,c,0,1i,0,0,r,r,0,0,1i,0,0,c,0
0,0,e,b,b,b,b,r,r,b,b,b,b,b,f,0
NAME gen store inside
EXT 7,15 3 7,5
EXT 8,15 3 8,5
EXT 11,2 5 7,13
EXT 12,2 5 7,13
PAL 2

ROOM 5
0,0,0,0,0,0,0,0,0,0,0,0,0,0,0,0
0,0,0,0,0,0,0,0,0,0,0,0,0,0,0,0
0,0,0,0,0,0,0,0,0,0,0,0,0,0,0,0
0,0,0,0,1x,20,20,22,20,20,1y,0,0,0,0,0
0,0,0,0,1v,0,0,0,0,0,1w,0,0,0,0,0
0,0,0,0,1v,0,0,0,0,0,1w,0,0,0,0,0
0,0,0,0,1v,21,21,21,21,21,1w,0,0,0,0,0
0,0,0,0,1v,0,0,0,0,0,1w,0,0,0,0,0
0,0,0,0,1t,0,0,0,0,0,1u,0,0,0,0,0
0,0,0,0,0,1t,0,0,0,1u,0,0,0,0,0,0
0,0,0,0,0,0,1t,0,1u,0,0,0,0,0,0,0
0,0,0,0,0,0,1w,0,1v,0,0,0,0,0,0,0
0,0,0,0,0,0,1w,0,1v,0,0,0,0,0,0,0
0,0,0,0,0,0,1w,0,1v,0,0,0,0,0,0,0
0,0,0,0,0,0,1u,0,1t,0,0,0,0,0,0,0
0,0,0,0,0,0,1q,1q,1q,0,0,0,0,0,0,0
NAME wine_dungeon_intro
ITM 1 7,10
EXT 7,3 6 7,13
PAL 1

ROOM 6
0,0,0,0,0,0,0,0,0,0,0,0,0,0,0,0
1w,20,20,20,20,20,20,20,20,20,20,20,22,20,20,1v
1w,0,0,0,0,0,0,0,0,0,0,23,0,0,23,1v
1w,25,24,24,24,24,24,24,24,24,26,23,0,0,23,1v
1w,23,0,0,0,0,0,0,0,0,23,23,0,25,2a,1v
1w,23,0,23,0,25,24,24,26,0,23,23,0,23,0,1v
1w,23,0,23,0,23,0,0,23,0,23,23,0,23,0,1v
1w,27,24,28,0,29,24,24,28,0,23,23,0,23,0,1v
1w,23,0,23,0,0,0,0,23,0,29,2a,0,23,0,1v
1w,23,0,23,0,25,26,0,23,0,0,0,0,23,0,1v
1w,23,0,0,0,23,23,0,27,24,24,24,0,23,0,1v
1w,29,24,24,24,28,23,0,23,0,0,0,0,23,0,1v
0,20,20,20,20,20,1y,0,1x,20,20,20,20,20,20,0
0,0,0,0,0,0,1w,0,1v,0,0,0,0,0,0,0
0,0,0,0,0,0,0,20,0,0,0,0,0,0,0,0
0,0,0,0,0,0,0,0,0,0,0,0,0,0,0,0
NAME wine_dungeon_maze
ITM 3 2,6
ITM 2 7,11
EXT 12,1 7 8,13
PAL 1

ROOM 7
0,0,0,0,0,0,0,0,0,0,0,0,0,0,0,0
0,0,0,0,0,2m,0,0,0,0,0,2m,0,0,0,0
0,0,0,0,0,0,0,0,0,0,0,0,0,0,0,0
0,0,0,0,2d,2e,2f,0,0,2g,2h,2i,2j,2e,2l,0
0,0,0,0,0,0,0,0,2k,0,0,0,0,0,0,0
0,0,0,0,0,1w,22,1v,0,1w,22,1v,0,0,0,0
0,0,0,0,0,1w,0,1v,0,1w,0,1v,0,0,0,0
0,0,0,0,0,1w,0,20,20,20,0,1v,0,0,0,0
0,0,1i,0,0,1w,0,0,0,0,0,1v,0,0,0,0
0,0,0,0,0,1w,0,0,0,0,0,1v,0,0,0,0
0,0,0,0,0,1w,0,0,0,0,0,1v,0,0,1i,0
0,0,0,0,0,0,20,1y,0,1x,20,0,0,0,0,0
0,0,0,1i,0,0,0,1w,0,1v,0,0,1i,0,0,0
0,0,0,0,0,0,0,1w,0,1v,0,0,0,0,0,0
0,0,0,0,0,0,0,0,20,0,0,0,0,0,0,0
0,0,0,0,0,0,0,0,0,0,0,0,0,0,0,0
NAME wine_dungeon_choice_room
ITM 4 8,11
EXT 6,5 8 8,13
EXT 10,5 9 8,12
PAL 1

ROOM 8
0,0,0,0,0,0,0,0,0,0,0,0,0,0,0,0
0,0,0,2m,0,0,0,0,0,0,2d,0,0,0,0,0
0,0,0,2f,0,0,0,0,0,0,0,2e,2f,0,0,0
0,2d,2e,0,0,0,0,22,0,0,0,0,0,0,2m,0
0,0,0,0,0,0,0,0,0,0,0,0,0,0,0,0
0,0,0,2m,0,0,0,0,0,0,0,0,0,0,0,0
0,0,0,0,0,0,0,0,0,0,0,0,0,0,0,0
0,0,0,0,0,0,0,0,0,0,0,0,0,0,0,0
0,0,0,0,0,0,0,0,0,0,0,0,0,0,0,0
0,0,0,0,0,0,0,0,0,0,0,0,0,0,0,0
0,0,0,0,0,0,0,0,0,0,2m,0,0,0,0,0
0,0,0,2m,0,0,0,0,0,0,0,0,0,0,0,0
0,0,0,0,0,0,0,0,0,0,0,0,2d,0,0,0
0,2d,0,2f,0,0,0,0,0,0,0,0,0,2e,0,0
0,0,2e,0,0,0,0,0,0,0,0,0,0,0,2f,0
0,0,0,0,0,0,0,0,0,0,0,2m,0,0,0,0
NAME wine_dungeon_red_room
EXT 7,3 a 8,14
PAL 5

ROOM 9
0,0,0,0,0,0,0,0,0,0,0,0,0,0,0,0
0,0,0,0,0,2m,0,0,0,0,2m,0,0,0,0,0
0,0,0,0,0,0,0,0,0,0,0,0,0,2m,0,0
0,2g,2m,2i,2m,2e,0,22,0,0,0,0,0,0,0,0
0,0,2h,0,2j,0,0,0,0,0,0,0,0,0,2m,0
0,0,0,0,0,0,0,0,0,0,0,0,0,0,0,0
0,0,0,0,0,0,0,0,0,0,0,0,0,0,0,0
0,0,0,2m,0,0,0,0,0,0,0,0,0,0,0,0
0,0,0,0,0,0,0,0,0,0,0,2h,0,2j,0,0
0,0,0,0,0,0,0,0,0,0,2g,0,2i,0,2e,0
0,0,2m,0,0,0,0,0,0,0,0,0,0,0,0,0
0,0,0,0,0,0,0,0,0,0,0,0,2m,0,0,0
0,0,0,0,0,0,0,0,0,0,0,0,0,0,0,0
0,0,0,0,0,0,0,0,0,0,0,0,0,0,0,0
0,2m,0,2g,2h,2i,2j,2e,0,0,0,0,0,0,0,0
0,0,0,0,0,0,0,0,0,0,0,2m,0,0,0,0
NAME white_room
EXT 7,3 a 8,14
PAL 6

ROOM a
0,0,0,0,0,0,0,0,0,0,0,0,0,0,0,0
38,0,0,0,0,2z,32,30,0,2z,32,30,0,0,0,0
0,0,0,0,2z,0,2w,33,33,33,2x,0,30,0,0,38
0,0,38,0,31,0,2w,0,0,0,2x,38,31,0,0,0
0,0,0,0,31,0,2u,2t,0,2s,2v,0,31,0,0,0
0,0,0,0,31,0,38,2q,2p,2r,0,0,31,0,38,0
0,0,0,0,31,0,0,0,2o,0,38,0,31,0,0,0
0,0,38,0,31,0,0,38,2o,0,0,0,31,0,0,0
0,0,0,0,31,0,0,0,2n,0,0,0,31,0,0,0
0,0,0,36,0,0,0,0,0,0,0,0,0,37,0,0
0,0,0,35,33,33,33,33,39,33,33,33,33,34,0,0
0,0,0,0,0,0,0,0,0,0,0,0,0,0,0,0
0,0,0,0,0,0,0,0,0,0,0,0,0,0,0,0
0,0,0,0,0,0,0,3g,0,3g,0,0,0,0,0,0
0,0,0,0,0,0,0,3g,0,3g,0,0,0,0,0,0
0,0,0,0,0,0,0,0,0,0,0,0,0,0,0,0
NAME wine_dungeon_fountain
ITM 6 8,13
EXT 8,10 b 8,0
END 1 4,9
END 1 5,9
END 1 6,9
END 1 7,9
END 1 8,9
END 1 9,9
END 1 10,9
END 1 11,9
END 1 12,9
PAL 1

ROOM b
0,0,0,0,0,0,0,3g,0,3g,0,0,0,0,0,0
0,0,0,0,0,0,0,3g,0,3g,0,0,0,0,0,0
0,0,38,0,0,0,0,3g,0,3g,0,0,0,0,38,0
0,0,0,0,0,0,0,3g,3f,3g,0,0,0,0,0,0
0,0,0,0,0,0,0,1w,3h,1v,0,0,0,0,0,0
38,0,0,0,0,0,0,1w,0,1v,0,0,0,38,0,0
0,0,0,0,0,0,0,1w,0,1v,0,0,0,0,0,0
0,0,38,0,0,0,0,1u,0,1t,0,0,0,0,0,38
0,0,0,0,0,0,1u,3g,0,3g,1t,0,0,0,0,0
0,0,0,0,0,1u,0,3g,0,3g,0,1t,0,0,0,0
0,0,38,0,1u,0,0,3g,0,3g,0,0,1t,0,0,0
0,0,0,1w,33,33,33,33,33,33,33,33,33,1v,38,0
0,0,0,1w,0,0,0,0,0,0,0,0,0,1v,0,0
0,0,0,1w,0,3b,0,3c,0,3d,0,3e,0,1v,0,0
0,0,0,1w,0,0,0,0,0,0,0,0,0,1v,0,0
0,0,0,1w,0,0,0,0,0,0,0,0,0,1v,0,0
NAME wine_dungeon_ending
ITM 7 8,2
ITM 8 8,6
ITM 9 8,10
EXT 8,11 c 7,4
PAL 1

ROOM c
0,0,0,0,0,0,18,1a,1a,19,0,0,0,0,0,0
0,0,0,0,0,18,1a,1a,1a,1a,19,0,0,0,0,0
0,l,0,0,0,3l,3n,3i,3i,3n,3m,0,0,0,l,0
0,0,0,0,0,0,0,1k,1k,0,0,0,0,0,0,0
0,0,0,0,0,0,0,n,n,0,0,0,y,0,0,0
0,0,0,x,x,0,0,n,n,0,0,0,0,0,0,0
0,x,x,x,x,0,0,n,n,0,0,0,0,0,0,0
x,x,x,x,x,0,0,n,n,0,0,0,0,0,y,0
x,x,x,x,0,0,0,n,n,v,v,v,v,v,v,v
0,x,x,x,0,0,0,n,n,n,n,n,n,n,n,n
0,0,x,x,0,0,0,n,n,n,n,n,n,n,n,n
0,0,x,x,x,0,0,v,v,v,v,v,v,v,v,v
x,x,x,x,x,0,0,0,0,0,0,0,0,0,0,0
x,x,x,0,0,0,3j,2d,2e,2f,2i,2j,3k,0,0,0
x,0,0,0,0,0,0,0,0,0,0,0,0,0,0,0
0,0,0,0,0,0,0,0,0,0,0,0,0,0,0,l
NAME credit 1
EXT 15,9 d 1,9
EXT 15,10 d 1,10
PAL 1

ROOM d
0,0,0,0,0,0,0,0,0,0,0,0,0,0,0,0
0,0,0,0,0,0,0,0,0,0,0,0,l,0,0,0
0,0,0,v,v,v,v,v,v,v,0,0,0,0,y,0
0,0,0,n,n,n,n,n,n,n,0,0,0,0,0,0
0,0,0,n,n,n,n,n,n,n,0,0,0,x,x,x
0,0,0,n,n,v,v,v,n,n,0,0,0,x,x,x
0,0,0,n,n,0,0,0,n,n,0,0,0,x,x,x
0,0,0,n,n,0,0,0,n,n,0,0,0,0,x,x
v,v,v,n,n,0,0,0,n,n,0,0,0,0,x,x
n,n,n,n,n,0,0,0,n,n,0,0,0,0,0,x
n,n,n,n,n,0,0,0,n,n,0,0,0,0,0,x
v,v,v,v,v,0,0,0,n,n,0,0,l,0,0,x
0,0,0,0,l,0,0,0,n,n,0,0,0,0,0,0
0,z,0,0,0,0,0,0,n,n,0,0,y,0,0,0
0,0,0,0,0,0,0,0,n,n,0,0,0,0,z,0
0,0,0,0,0,0,0,0,n,n,0,0,0,0,0,0
NAME credit 2
EXT 0,9 c 14,9
EXT 0,10 c 14,10
EXT 8,15 e 8,1
EXT 9,15 e 9,1
PAL 1

ROOM e
x,x,x,0,0,0,0,0,n,n,0,0,0,0,x,x
x,x,x,x,0,0,0,0,n,n,0,0,0,0,x,x
x,x,y,x,0,0,0,0,n,n,0,0,l,0,0,x
0,x,x,x,0,0,0,0,n,n,0,0,0,0,0,0
0,0,0,0,0,y,0,0,n,n,0,0,0,z,0,0
0,0,0,0,0,0,0,0,n,n,0,0,l,0,0,0
0,0,0,0,0,0,0,0,n,n,0,0,0,0,0,z
v,v,v,v,v,v,v,v,n,n,0,0,0,0,0,0
n,n,n,n,n,n,n,n,n,n,0,0,0,0,0,l
n,n,n,n,n,n,n,n,n,n,0,l,0,0,0,0
v,v,v,v,v,v,v,v,v,v,0,0,0,l,0,0
0,0,0,0,0,0,0,0,0,0,0,0,0,0,z,0
0,0,0,0,0,0,0,0,0,0,0,0,0,0,0,0
l,l,l,l,l,l,l,l,l,l,l,l,l,l,l,l
l,l,l,l,l,l,l,l,x,x,l,l,l,l,l,l
l,l,l,l,l,l,x,x,x,x,x,x,x,l,l,l
NAME credit 3
EXT 8,0 d 8,14
EXT 9,0 d 9,14
EXT 0,8 f 14,8
EXT 0,9 f 14,9
PAL 1

ROOM f
0,0,0,0,0,18,0,1a,0,0,19,0,0,0,0,0
0,0,0,0,18,0,1a,0,0,1a,0,19,0,0,0,0
0,0,0,0,16,16,16,16,16,16,16,16,0,0,0,0
0,0,0,0,16,17,16,1c,1d,16,17,16,0,0,0,0
1b,1b,1b,1b,16,16,16,i,i,16,16,16,1b,1b,1b,1b
0,0,0,0,0,0,y,n,n,y,0,0,0,0,0,0
0,0,0,0,0,0,y,n,n,y,0,0,0,0,0,0
v,v,v,v,v,v,v,15,15,v,v,v,v,v,v,v
n,n,n,n,n,n,n,n,n,n,n,n,n,n,n,n
n,n,n,n,n,n,n,n,n,n,n,n,n,n,n,n
v,v,v,v,v,v,v,v,v,v,v,v,v,v,v,v
0,0,0,0,0,0,0,0,0,0,0,0,0,0,0,0
0,0,0,0,0,0,0,0,0,0,0,0,0,0,0,0
0,0,0,0,0,0,0,0,0,0,0,0,0,0,0,x
x,0,0,x,x,x,x,x,x,x,x,x,x,0,x,x
x,x,x,x,x,x,x,x,x,x,x,x,x,x,x,x
NAME credit 4 store
EXT 0,8 g 14,8
EXT 0,9 g 14,9
EXT 15,8 e 1,8
EXT 15,9 e 1,9
PAL 1

ROOM g
0,0,0,n,0,0,0,0,0,0,0,0,0,0,0,0
0,0,0,n,0,0,0,l,0,0,0,0,0,0,0,0
0,0,0,n,0,0,0,0,0,y,0,0,0,0,0,0
0,0,0,n,0,0,0,m,0,0,0,0,0,0,0,0
0,0,0,n,0,0,0,0,0,0,l,0,0,z,0,0
0,0,0,n,0,0,0,0,0,0,0,0,y,0,0,0
0,0,0,n,0,0,0,0,0,0,0,0,0,0,0,0
0,0,0,n,0,v,v,v,v,v,v,v,v,v,v,v
l,0,0,n,n,n,n,n,n,n,n,n,n,n,n,n
0,0,0,n,n,n,n,n,n,n,n,n,n,n,n,n
0,0,0,n,0,v,v,v,v,v,v,v,v,v,v,v
0,l,0,n,0,0,0,0,0,0,y,z,0,0,0,0
0,0,0,n,0,0,0,0,0,0,0,0,m,0,0,0
z,0,0,n,0,0,0,x,x,x,x,x,0,0,0,0
0,0,0,n,0,0,x,x,x,x,x,x,x,x,0,0
0,0,0,n,0,0,x,x,x,x,x,x,x,x,x,x
NAME credit 5 road
EXT 15,8 f 1,8
EXT 15,9 f 1,9
EXT 3,0 h 8,14
PAL 1

ROOM h
v,v,v,v,v,v,v,v,v,v,v,v,v,v,v,v
0,a,b,b,b,b,b,b,b,b,b,b,b,b,d,0
0,c,0,0,0,0,0,0,0,0,0,0,k,0,c,0
0,c,0,g,h,0,0,0,0,0,0,0,0,0,c,0
0,c,0,0,0,0,0,0,0,0,0,o,q,p,c,0
0,c,b,b,b,d,0,0,0,0,a,b,b,b,c,0
0,c,r,r,r,r,0,0,0,0,c,t,0,0,c,0
0,c,r,w,r,r,0,0,0,0,0,0,0,0,c,0
0,c,r,r,r,c,0,0,j,0,c,0,0,u,c,0
0,e,b,b,b,b,b,b,i,b,b,b,b,b,f,0
0,0,0,0,0,0,0,0,s,0,0,0,0,0,0,0
m,0,l,0,0,0,0,0,n,0,0,m,0,0,l,0
0,0,0,0,l,0,0,0,n,0,0,v,v,v,v,v
l,0,0,0,0,0,0,0,n,0,0,0,0,0,0,l
0,0,m,0,0,0,0,0,n,0,0,0,0,0,m,0
v,v,v,v,v,v,v,v,n,v,v,v,v,v,v,v
NAME end of game hosue
EXT 8,15 g 3,1
END 2 8,9
PAL 1

TIL 10
11111111
11111111
11111111
11111110
01110110
00100100
00000100
00000000
NAME edge road

TIL 11
00000000
00000000
00000000
00000000
11111111
00000000
00000000
11111111
NAME edge 1
WAL true

TIL 12
00011000
00011000
00011000
00011000
00011000
00011000
00011000
00011000
NAME edge wall
WAL true

TIL 13
11111111
01110111
10101010
11011101
01110111
10101010
11011101
11111111
>
11111111
11111111
01110111
10101010
11011101
01110111
10101010
11011101
NAME waterfall

TIL 14
11111111
11111111
11111111
11111111
11111111
11111111
11111111
11111111
NAME BLOcK

TIL 15
00000000
00011000
00111100
00100100
00111100
00100100
00111100
01111110
NAME road block
WAL true

TIL 16
11111111
00000000
11111111
00000000
00000000
11111111
00000000
11111111
NAME gen store 1
WAL true

TIL 17
00011000
00011000
00011000
11111111
11111111
00011000
00011000
00011000
NAME gen store window

TIL 18
00000001
00000011
00000110
00001100
00011110
00110000
01111000
11000000
NAME slant 1

TIL 19
10000000
11000000
01100000
00110000
11111000
00001100
00111110
00000011
NAME slant 2

TIL 20
11111111
11111111
00000000
00000000
00000000
00000000
00000000
00000000
NAME flat 3
WAL true

TIL 21
00000000
00000000
00100010
01110111
11011101
10001000
00000000
00000000
>
00000000
00100010
01110111
11011101
10001000
00000000
00000000
00000000
NAME wine_waves

TIL 22
11111111
11111111
01000100
00000000
00100001
10100101
10000100
00000000
>
11111111
11111111
00000000
01000100
00000000
00000001
10100001
10000100
NAME wine_dungeon_exit

TIL 23
00001000
00010000
00001000
00010000
00001000
00010000
00001000
00010000
NAME maze wall_vert
WAL true

TIL 24
00000000
00000000
00000000
10101010
01010101
00000000
00000000
00000000
NAME maze_wall_horizon
WAL true

TIL 25
00000000
00000000
00001000
00010101
00001010
00010000
00001000
00010000
NAME maze_wall_left_corner
WAL true

TIL 26
00000000
00000000
01001000
10110100
01001000
00010000
00001000
00010000
NAME maze_wall_right_corner
WAL true

TIL 27
00001000
00010000
00001000
00010101
00001010
00010000
00001000
00010000
NAME maze_wall_tri_1
WAL true

TIL 28
00001000
00010000
00001000
01010100
10101000
00010000
00001000
00010000
NAME maze_wall_tri_2
WAL true

TIL 29
00001000
00010000
00001000
00010101
00001010
00000000
00000000
00000000
NAME maze_wall_left_corer_2
WAL true

TIL 30
10010000
01001000
00100100
10010010
01001001
00100100
10010010
01001001
>
01001000
00100100
10010010
01001001
00100100
10010010
01001001
00100100
NAME wf12

TIL 31
01010101
01010101
01010101
01010101
01010101
01010101
01010101
01010101
>
10010010
10010010
01001001
01001001
10010010
10010010
01001001
01001001
NAME wf12

TIL 32
00000000
11111111
00000000
11111111
00000000
11111111
00000000
11111111
>
01100110
10011001
00000000
01100110
10011001
00000000
01100110
10011001
NAME wf15

TIL 33
00000000
00000000
00100010
01010101
10001000
00000000
00000000
00000000
>
00000000
00100010
01010101
10001000
00000000
00000000
00000000
00000000
NAME wine wave 2

TIL 34
00010000
00100000
01000000
10000000
00000000
00000000
00000000
00000000
>
00100000
01000000
10000000
00000000
00000000
00000000
00000000
00000000
NAME wf16

TIL 35
00001000
00000100
00000010
00000001
00000000
00000000
00000000
00000000
>
00000100
00000010
00000001
00000000
00000000
00000000
00000000
00000000
NAME wf16

TIL 36
00000100
00001000
00010000
00100000
00010000
00100000
00010000
00001000
>
00000010
00000100
00001000
00010000
00001000
00010000
00001000
00001000
NAME wf19

TIL 37
01110000
00001000
00000100
00001000
00000100
00001000
00010000
00010000
>
01000000
00110000
00001000
00010000
00001000
00010000
00100000
00100000
NAME wf21

TIL 38
00000000
00000000
00010000
00111000
00010000
00000000
00000000
00000000
>
00000000
00010000
00111000
01111100
00111000
00010000
00000000
00000000
NAME sparkles

TIL 39
00011000
00011000
00011000
00111100
00100100
00111100
00100100
00111100
NAME bottle

TIL a
00111111
00100000
00100000
00100111
00100100
00100100
00100100
00100111
NAME home wall corner 1
WAL true

TIL b
11111111
00000000
00000000
11111111
00000000
00000000
00000000
11111111
NAME home wall horiz 
WAL true

TIL c
00100100
00100100
00100100
00100100
00100100
00100100
00100100
00100100
NAME home wall vert
WAL true

TIL d
11111100
00000100
00000100
11100100
00100100
00100100
00100100
11100100
NAME home corner 2
WAL true

TIL e
00100111
00100000
00100000
00111111
00100000
00100000
00100000
00111111
NAME home corner 3
WAL true

TIL f
11100100
00000100
00000100
11111100
00000100
00000100
00000100
11111100
NAME home corner 4
WAL true

TIL g
10000000
10111011
10111010
11111110
11111110
11111111
11111111
10000000
NAME bed 1
WAL false

TIL h
00000000
00000000
11110000
00011111
00000001
00000001
11111111
00000001
NAME bed2

TIL i
11111111
10000001
10000001
10000001
10000101
10000001
10000001
10000001

TIL j
10101010
11111111
10101010
01010101
10101010
01010101
11111111
10101010
NAME carpet

TIL k
01000010
00100100
11111111
11111111
11111111
11111111
11111111
10000001
>
01000010
00100100
11111111
10000001
10000001
10000001
11111111
10000001
NAME tv
WAL true

TIL l
00000000
00010000
00010001
01001001
00101010
00101010
00101010
00000000
NAME grass

TIL m
00000000
00000100
00001010
00000100
00100000
01010000
00100000
00000000
NAME flower

TIL n
01001010
01000001
00101000
10000100
01001010
00100001
10001100
00000010
NAME dirt road

TIL o
00000000
00000000
10111111
10111111
10111111
10000000
11111111
11111111
NAME couch 1

TIL p
00000000
00000000
11111101
11111101
11111101
00000001
11111111
11111111
NAME couch 2

TIL q
00000000
00000000
11111111
11111111
11111111
00000000
11111111
11111111
NAME couch 3

TIL r
00110011
00110011
11001100
11001100
00110011
00110011
11001100
11001100
NAME kitchen tile

TIL s
11111111
11111111
11111111
11111111
01010111
11101010
01000000
00010101
NAME doormat

TIL t
00000000
00000000
00000000
01111110
01111110
00111100
00011000
00111100
NAME sink

TIL u
11111000
10001000
10011100
10111110
10000000
10000000
10000000
10000000
NAME shower

TIL v
00000000
00000000
01100110
01100110
11111111
11111111
01100110
01100110
NAME fence 1
WAL true

TIL w
00000000
00000000
00000000
01111110
01000010
01111110
01000010
01000010
NAME table
WAL true

TIL x
11111111
11110111
11101011
11111111
11011101
10101010
11111111
11111111
>
11111111
11111111
11100011
11111111
11111111
10001000
11111111
11111111
NAME water
WAL true

TIL y
00000000
00000000
00011100
00111110
00111110
01111110
01111110
00000000
NAME rock
WAL true

TIL z
00000000
00000000
00000000
00110000
01111000
01111100
01111100
00000000
NAME rock 2
WAL true

TIL 1a
00000000
00000000
11111111
00100000
00000000
11111111
00001000
00000000
NAME store roof

TIL 1b
00000000
00111000
01110100
01111110
01011010
01111110
00111000
00000000
NAME bush

TIL 1c
11111111
11111111
10001001
11011011
11011001
11011011
10011001
11111111
NAME gen store sign 1

TIL 1d
11111111
11111111
00010001
01010101
01010101
01010101
01010101
11111111

TIL 1e
00000000
00001100
01101100
01111110
11111111
10000001
10000001
11111111
NAME fruit box
WAL true

TIL 1f
11111111
10000000
10010110
10010110
11111111
10000001
10000001
11111111
NAME stack 1
WAL true

TIL 1g
11111110
11001010
11011010
11111010
10001010
10011010
10001010
11111110
NAME stack 2
WAL true

TIL 1h
00001100
00001111
00011111
01111111
01000000
01111111
01000001
01000001
NAME desk
WAL true

TIL 1i
00001000
00010010
00100100
01001001
10010010
00100100
01001000
10010000
NAME light

TIL 1j
00000000
00000000
11100000
10100000
11100110
00001110
00000110
00100000
NAME spill

TIL 1k
11111111
11111111
11111111
10101101
00101101
00001000
01000010
00010000
NAME exit dungeon floor

TIL 1l
11111111
11000011
10000001
00000000
00000000
00000000
00000000
00000000
NAME exit dungeon door

TIL 1m
11100000
11100000
10000000
10000000
10000000
11100000
11100000
10000000
NAME left cave 1

TIL 1n
00000001
00001111
00001111
00000001
00000001
00000111
00000111
00000001
NAME right cave 1

TIL 1o
00000001
00000011
00000110
00001100
00011000
00011000
00011000
00011000
NAME diag_wall_1
WAL true

TIL 1p
11000000
11100000
01110000
00111000
00011000
00011000
00011000
00011000
NAME diag_wall_2
WAL true

TIL 1q
00000000
00000000
00000000
11111111
11111111
00000000
00000000
00000000
NAME flat_1
WAL true

TIL 1r
00011000
00011000
00011000
00011111
00011111
00000000
00000000
00000000
NAME corner_1
WAL true

TIL 1s
00011000
00011000
00011000
11111000
11111000
00000000
00000000
00000000
NAME corner_2
WAL true

TIL 1t
11000000
11100000
01110000
00111000
00011100
00001110
00000111
00000011
NAME tile_3
WAL true

TIL 1u
00000011
00000111
00001110
00011100
00111000
01110000
11100000
11000000
NAME diag_4
WAL true

TIL 1v
11000000
11000000
11000000
11000000
11000000
11000000
11000000
11000000
NAME line_vert_1
WAL true

TIL 1w
00000011
00000011
00000011
00000011
00000011
00000011
00000011
00000011
NAME vert_line_2
WAL true

TIL 1x
11111111
11111111
11000000
11000000
11000000
11000000
11000000
11000000
NAME wine_corner 4
WAL true

TIL 1y
11111111
11111111
00000011
00000011
00000011
00000011
00000011
00000011
NAME wine_corner_5
WAL true

TIL 1z
11111111
11111111
00000011
00000011
00000011
00000011
00000011
00000011
NAME test
WAL true

TIL 2a
00001000
00010000
00001000
01010100
10101000
00000000
00000000
00000000
NAME maze_wall_corner_4
WAL true

TIL 2b
11111111
11111111
11111111
11111111
11111111
11111111
11111111
11111111
NAME all_White

TIL 2c
11111111
10000001
10000001
10000001
10000001
10000001
10000001
11111111
NAME red_block

TIL 2d
00000000
01111000
01001000
01011000
01110000
01011000
01001000
00000000
>
01111000
01001000
01011000
01110000
01011000
01001000
00000000
00000000
NAME letter R

TIL 2e
00000000
00000000
01110000
01000000
01110000
01000000
01110000
00000000
>
00000000
00111000
00100000
00111000
00100000
00111000
00000000
00000000
NAME letter E

TIL 2f
00000000
00001000
00001000
00001000
00111000
00101000
00111000
00000000
>
00000000
00000100
00000100
00011100
00010100
00011100
00000000
00000000
NAME letter d

TIL 2g
00000000
00000000
01000100
01010100
01010100
01111100
00000000
00000000
>
00000000
00000000
00000000
01000100
01010100
01010100
01111100
00000000
NAME letter W

TIL 2h
00000000
00000000
00100000
00100000
00111100
00100100
00100100
00000000
>
00000000
00000000
00000000
00100000
00100000
00111100
00100100
00100100
NAME letter h

TIL 2i
00000000
00000000
00010000
00000000
00010000
00010000
00010000
00000000
>
00000000
00010000
00000000
00000000
00010000
00010000
00010000
00000000
NAME letter i

TIL 2j
00000000
00000000
00010000
00111000
00010000
00010000
00011000
00000000
>
00000000
00010000
00111000
00010000
00010000
00011000
00000000
00000000
NAME letter t

TIL 2k
00000000
00000000
00000000
01110110
01010100
01110100
00000000
00000000
>
00000000
00000000
11101100
10101000
11101000
00000000
00000000
00000000
NAME or letters

TIL 2l
00000000
00111100
00000100
00011100
00010000
00000000
00010000
00000000
>
00111100
00000100
00011100
00010000
00000000
00010000
00000000
00000000
NAME question mark

TIL 2m
01111110
01000010
01000010
01100110
00111100
00011000
00011000
00111100
>
00000000
01111110
01000010
01000010
01100110
00111100
00011000
00111100
NAME wine_glass

TIL 2n
00011000
00011000
00011000
00011000
00011000
00011000
00011000
00111100
NAME wtf 1

TIL 2o
00011000
00011000
00011000
00011000
00011000
00011000
00011000
00011000
NAME wf 2

TIL 2p
00000000
00000000
00000000
00000000
10000001
01000010
00100100
00011000
NAME wf2

TIL 2q
00001000
00000100
00000010
00000001
00000000
00000000
00000000
00000000
NAME wf3

TIL 2r
00010000
00100000
01000000
10000000
00000000
00000000
00000000
00000000
NAME wf 4

TIL 2s
00000000
00000000
00000000
00000000
00000001
00000010
00000100
00001000
NAME wf 5

TIL 2t
00000000
00000000
00000000
00000000
10000000
01000000
00100000
00010000
NAME wf5

TIL 2u
00000001
00000001
00000001
00000001
00000000
00000000
00000000
00000000
NAME wf6

TIL 2v
10000000
10000000
10000000
10000000
00000000
00000000
00000000
00000000
NAME wf7

TIL 2w
00000001
00000001
00000001
00000001
00000001
00000001
00000001
00000001
NAME wf8

TIL 2x
10000000
10000000
10000000
10000000
10000000
10000000
10000000
10000000
NAME wf9

TIL 2y
11111111
00000000
00000000
00000000
00000000
00000000
00000000
00000000
NAME wf10

TIL 2z
00010010
00100100
01001001
10010010
00100100
01001001
10010010
00100100
>
00100100
01001001
10010010
00100100
01001001
10010010
00100100
01001000
NAME wf11

TIL 3a
00000000
00000000
01000001
01001001
01001001
00101010
00010100
00000000
NAME final room

TIL 3b
11000011
11000011
11000011
11011011
11011011
11011011
11011011
11111111
NAME letter w

TIL 3c
11111111
11111111
00011000
00011000
00011000
00011000
11111111
11111111
NAME letter I

TIL 3d
11000011
11100011
11110011
11111011
11011111
11001111
11000111
11000011
NAME letter N

TIL 3e
11111111
11111111
11000000
11110000
11110000
11000000
11111111
11111111
NAME letter E

TIL 3f
11111111
10000001
10000001
10000001
10000001
10000001
10000001
10000001
NAME wine cap

TIL 3g
00000000
00000000
00000000
00000000
00000000
00000000
00000000
00000000
NAME invis wall
WAL true

TIL 3h
11111111
11111111
00000000
00000000
00000000
00000000
00000000
00000000
NAME fake_wall_2

TIL 3i
11111111
11011011
11011011
01011010
01011010
11111111
01011010
01011010
NAME exit dungeon gated

TIL 3j
00000000
00111100
00100000
00100000
00100000
00111100
00000000
00000000
>
00000000
00000000
00111100
00100000
00100000
00100000
00111100
00000000
NAME C let

TIL 3k
00000000
00000000
01111000
01000000
01111000
00001000
01111000
00000000
>
00000000
00000000
00111100
00100000
00111100
00000100
00111100
00000000
NAME S letter

TIL 3l
11000000
11000000
11000000
11000000
11000000
11000000
11111111
11111111
NAME exit dung corner 
WAL true

TIL 3m
00000011
00000011
00000011
00000011
00000011
00000011
11111111
11111111
NAME exit dung right corner
WAL true

TIL 3n
00000000
00000000
00000000
00000000
00000000
00000000
11111111
11111111
NAME end dungeon str
WAL true

TIL 3o
01100000
01100000
01100100
01111110
01111111
01111110
00000100
00000000
NAME arrow

TIL 3p
11111111
11111111
10000011
10000011
10000011
10000011
10000011
10000011
NAME doghouse

SPR 10
00000000
00000000
00000000
00000000
00011100
00100100
00000000
00000000
DLG SPR_n

SPR 11
00000000
01100110
11111111
11111111
11111111
01111110
00111100
00011000
>
00000000
01100110
10011001
10000001
10000001
01000010
00100100
00011000
NAME credit 1 - Saam
DLG SPR_o
POS c 10,6

SPR 12
00000000
01100110
11111111
11111111
11111111
01111110
00111100
00011000
>
00000000
01100110
10011001
10000001
10000001
01000010
00100100
00011000
NAME credit - WJ
DLG SPR_p
POS c 9,14

SPR 13
00000000
01100110
11111111
11111111
11111111
01111110
00111100
00011000
>
00000000
01100110
10011001
10000001
10000001
01000010
00100100
00011000
NAME credit - Bitsy
DLG SPR_q
POS d 1,4

SPR 14
00000000
01100110
11111111
11111111
11111111
01111110
00111100
00011000
>
00000000
01100110
10011001
10000001
10000001
01000010
00100100
00011000
NAME credit 4
DLG SPR_r
POS d 12,9

SPR 15
00011000
00111100
01111110
00000000
01111110
10111101
00111100
00100100
>
00011000
00111100
00111100
10100101
01111110
00111100
00111100
00100100
NAME heather credits
DLG SPR_s
POS e 5,8

SPR 16
00000000
01100110
11111111
11111111
11111111
01111110
00111100
00011000
>
00000000
01100110
10011001
10000001
10000001
01000010
00100100
00011000
NAME credit 5 nina
DLG SPR_t
POS e 13,8

SPR 17
00001100
00001110
00001111
11000001
11000000
01111111
00011111
00011111
>
00001100
00001110
00111111
01110001
00100000
00111111
00011111
00011111
NAME dungeon master end
DLG SPR_u
POS g 3,15

SPR 18
00000000
00000000
00000000
00000011
01010010
01111110
11111011
11110111
>
00000000
00000000
00000000
00000000
01010011
01111110
11111011
11110111
NAME doggo sleep
DLG SPR_v
POS h 12,13

SPR 19
00000000
01100110
11111111
11111111
11111111
01111110
00111100
00011000
>
00000000
01100110
10011001
10000001
10000001
01000010
00100100
00011000
NAME credit 6
DLG SPR_w
POS g 8,5

SPR A
00000000
00011100
00011010
00000000
01111110
10111101
00111100
00100100
POS 0 7,3

SPR a
00000000
01010000
01010011
11110010
11111010
00110100
00111110
00101010
>
00000000
00000000
01010110
01010010
11111010
11110100
00111110
00101010
NAME doggo
DLG SPR_0
POS 0 12,13

SPR b
00001110
00001010
00001010
00001010
01111110
01111100
00011000
00111100
NAME toilet
DLG SPR_1
POS 0 13,6

SPR c
00000000
00000000
01100110
01100110
11111111
11111111
01100110
01100110
NAME fence

SPR d
11111111
11111111
11111011
11111011
11111111
11111111
11111111
10000001
NAME fridge
DLG SPR_2
POS 0 2,6

SPR e
00011000
00001000
01111111
01000101
01000101
01111111
00011000
00011000
NAME mailbox
DLG SPR_3

SPR f
11111111
10000001
10100101
10010101
10000001
11111111
01000010
01000010
NAME sign gen store
DLG SPR_4
POS 1 7,5

SPR g
11111111
10000001
10100101
10010101
10000001
11111111
01000010
01000010
NAME edge of the world
DLG SPR_5
POS 2 5,8

SPR h
11111111
10000001
10100101
10010101
10000001
11111111
01000010
01000010
NAME road block sign
DLG SPR_6
POS 3 13,8

SPR i
00000000
00111000
00011000
00000011
10111111
01111111
00111100
00100100
>
00000000
00111000
00011000
00000011
00111111
11111111
00111100
00100100
NAME store person 1
DLG SPR_7
POS 4 5,5

SPR j
00011000
00011100
00011000
00000000
01111110
10111101
00111100
00100100
>
00000000
00011000
00011100
00011000
01111110
01111110
00111100
00100100
NAME rando store person 1
DLG SPR_8
POS 4 12,9

SPR k
00011000
00111100
00011000
00000000
10111110
01111101
00111100
00100100
>
00011000
00111100
00011000
00000000
00111110
11111110
00111100
00100100
NAME store clerk
DLG SPR_9
POS 4 12,13

SPR l
00000000
00000000
00111100
00111100
00000000
00011000
00011000
00000000
>
00000000
00000000
00000000
00000000
00000000
00000000
00000000
00000000

SPR m
00001100
00001110
00001111
11000001
11000000
01111111
00011111
00011111
>
00001100
00001110
00111111
01110001
00100000
00111111
00011111
00011111
NAME wine_DM_01
DLG SPR_a
POS 5 9,5

SPR n
00001100
00001110
00001111
11000001
11000000
01111111
00011111
00011111
>
00001100
00001110
00111111
01110001
00100000
00111111
00011111
00011111
NAME wine_DM_02
DLG SPR_b
POS 6 13,2

SPR o
00011000
00111100
01111110
00000000
01111110
10111101
00111100
00100100
>
00011000
00111100
00111100
10100101
01111110
00111100
00111100
00100100
NAME Heather
DLG SPR_c
POS 6 2,8

SPR p
01111110
01111110
01111010
01011110
01110010
01111110
01111110
01101010
>
01111110
01111010
01011110
01110010
01110010
01111110
01111110
01101010
NAME Wine Ghost
DLG SPR_d
POS 6 9,11

SPR q
00000000
00000000
00000000
00000000
00000000
00000000
00000000
00000000

SPR r
00001100
00001110
00001111
11000001
11000000
01111111
00011111
00011111
>
00001100
00001110
00111111
01110001
00100000
00111111
00011111
00011111
NAME wine_DM_03
DLG SPR_e
POS 7 8,8

SPR s
00001100
00001110
00001111
11000001
11000000
01111111
00011111
00011111
>
00001100
00001110
00111111
01110001
00100000
00111111
00011111
00011111
NAME dungeon_master_red
DLG SPR_f
POS 8 11,5

SPR t
01111110
01111110
01111010
01011110
01110010
01111110
01111110
01101010
>
01111110
01111010
01011110
01110010
01110010
01111110
01111110
01101010
NAME red wine ghost
DLG SPR_g
POS 8 4,8

SPR u
01111110
01111110
01111010
01011110
01110010
01111110
01111110
01101010
>
01111110
01111010
01011110
01110010
01110010
01111110
01111110
01101010
NAME wine ghost red 2
DLG SPR_h
POS 8 12,9

SPR v
01111110
01111110
01111010
01011110
01110010
01111110
01111110
01101010
>
01111110
01111010
01011110
01110010
01110010
01111110
01111110
01101010
NAME white_wine_ghost
DLG SPR_i
POS 9 12,8

SPR w
00001100
00001110
00001111
11000001
11000000
01111111
00011111
00011111
>
00001100
00001110
00111111
01110001
00100000
00111111
00011111
00011111
NAME dungeon_master_fount
DLG SPR_j
POS a 11,12

SPR x
00000000
00000000
00000000
00010000
00011100
00000100
00000000
00000000
NAME wine_end_01
DLG SPR_k

SPR y
00000000
00000000
00000000
00010000
00100000
01000000
00000000
00000000
NAME Wine_fntn_test
DLG SPR_l

SPR z
00000000
00000000
00000000
00000000
00011100
00100100
00000000
00000000
NAME wine_fntn_end_2
DLG SPR_m

SPR 1a
00001100
00001110
00001111
11000001
11000000
01111111
00011111
00011111
>
00001100
00001110
00111111
01110001
00100000
00111111
00011111
00011111
NAME dungeon_master_dupe
DLG SPR_x
POS 9 11,4

SPR 1b
01111110
01111110
01111010
01011110
01110010
01111110
01111110
01101010
>
01111110
01111010
01011110
01110010
01110010
01111110
01111110
01101010
NAME wine ghost buzz dupe
DLG SPR_y
POS 9 2,6

ITM 0
00000000
00000000
01111110
01001010
01111110
01100110
01111110
00000000
NAME warning
DLG ITM_0

ITM 1
00000000
00000000
00111100
00100100
00100100
00111100
00000000
00000000
>
00000000
00000000
00000000
00011000
00011000
00000000
00000000
00000000
NAME wine_dm_blank1
DLG ITM_1

ITM 2
00000000
00000000
00111100
00100100
00100100
00111100
00000000
00000000
>
00000000
00000000
00000000
00011000
00011000
00000000
00000000
00000000
NAME wine_maze_intro
DLG ITM_2

ITM 3
00000000
00100100
00000000
00011110
00000100
00100000
00000010
00000000
>
01000010
00000000
00000000
00000000
00011110
00000100
01000000
00000001
NAME vibrator
DLG ITM_3

ITM 4
00000000
00000000
00111100
00100100
00100100
00111100
00000000
00000000
>
00000000
00000000
00000000
00011000
00011000
00000000
00000000
00000000
NAME wine dung room 2
DLG ITM_4

ITM 5
00000000
00000000
00000000
00000000
00000000
00000000
00000000
00000000
NAME testing end
DLG ITM_5

ITM 6
00000000
00000000
00111100
00100100
00100100
00111100
00000000
00000000
>
00000000
00000000
00000000
00011000
00011000
00000000
00000000
00000000
NAME wine trial fntn
DLG ITM_6

ITM 7
00000000
00000000
00000000
00000000
00000000
00000000
00000000
00000000
NAME wine end room 1
DLG ITM_7

ITM 8
00000000
00000000
00000000
00000000
00000000
00000000
00000000
00000000
NAME wine end room 2
DLG ITM_9

ITM 9
00000000
00000000
00000000
00000000
00000000
00000000
00000000
00000000
NAME end room 3 aroma
DLG ITM_8

DLG SPR_0
Doggo: {shk}Bork! Bork!{shk}

DLG SPR_1
Toilet: *FLUSH*

DLG SPR_2
No wine in here...

DLG SPR_3
"""
You: No wine in the mailbox either...

"""

DLG SPR_4
Come on down to Jenny's General Store! Just head East.

DLG SPR_5
WARNING: EDGE OF THE WORLD, WATCH YOUR STEP

DLG SPR_6
UNDER CONSTRUCTION

DLG SPR_7
Store Helper: Wine? We're out....we might have some in the back.

DLG SPR_8
Creepy Customer: I like to squeeze the fruits to see if they're {shk}{wvy}fressssh.{wvy}{shk}

DLG SPR_9
Store Clerk: Are you gonna just stand there or buy something? I don' got all day.

DLG ITM_0
READ SIGN FIRST!

DLG ITM_1
YOU HAVE ENTERED THE WINE DUNGEON!

DLG SPR_a
Wine Dungeon Master: You must pass the Wine Trials....don't ask me why.

DLG ITM_2
TRIAL 1: THE WINE MAZE OF {wvy}TIPSYNESS{wvy}.

DLG SPR_b
Wine Dungeon Master: How did you  solve the maze that qui....nevermind the next trial is much harder.

DLG SPR_c
"""
{
  - {item "vibrator"} == 1 ?
    A vibrator. {wvy}{rbw}THANK GOD!!!{rbw}{wvy}
  - {item "vibrator"} == 0 ?
    Heather: I WAS JUST LOOKING FOR THE {clr1}{shk}SEX{shk}{clr1} AISLE!!!!!
}
"""

DLG SPR_d
Wine Ghost:{wvy} Are you lost or just drunk?{wvy}

DLG ITM_3
You got a....vibrator?

DLG SPR_e
Wine Dungeon Master: Red on the Left or White on the Right? Decisions, decisions...

DLG ITM_4
TRIAL 2: {clr1}RED{clr1} OR WHITE WINE?

DLG SPR_f
Wine Dungeon Master: Ah yes! You picked the right choice.

DLG SPR_g
Wine Ghost: {wvy}I love me a good {clr1}Cabernet{clr1}.{wvy}

DLG SPR_h
Other Wine Ghost: {wvy}I don't care about the color I just like the {shk}BUZZZZZZZZ{shk}.{wvy}

DLG SPR_i
Wine Ghost: {wvy}Chardonnay is my jaaaaaaaaam!{wvy}

DLG SPR_j
Wine Dungeon Master: Be careful as you step into the Wine Fountain as you may never want to leave....

DLG ITM_5
TEST: GO TO NEXT ROOM

DLG SPR_k
You finally made it. You got through the Wine Dungeon.

DLG SPR_l
TRIAL 3: The test of {wvy}{shk}TEMPTATION.{shk}{wvy}

DLG SPR_m
You grasp the bottle with your hand and it pops open.

DLG SPR_n
The aroma is strong, but you decide it's best to enjoy this at home in a nice wine glass.

DLG SPR_o
A game by {wvy}Saam Pahlavan{wvy}

DLG ITM_6
TRIAL 3: The test of {wvy}{shk}TEMPTATION.{shk}{wvy}

DLG ITM_7
You finally made it. You got through the Wine Dungeon.

DLG ITM_8
The aroma is strong, but you decide it's best to enjoy this at home in a nice wine glass.

DLG ITM_9
You grasp the bottle with your hand and it pops open.

DLG SPR_p
Created for {rbw}#WineJam 2018{rbw}

DLG SPR_q
Created using {wvy}Bitsy{wvy}!

DLG SPR_r
Thank you to the {rbw}hentaiphd{rbw} community!

DLG SPR_s
Heather: {shk}THANK GOD I'M OUT OF THAT DUNGEON....IT WASN'T EVEN A{shk}{wvy}{rbw}SEX DUNGEON{rbw}{wvy}.

DLG SPR_t
{wvy}Vibrator Sidequest Design{wvy} by {rbw}Nina Freeman{rbw}. Seriously it was all her idea don't get {shk}mad{shk} at me Heather plz.

DLG SPR_u
Wine Dungeon Master: Just go home already!

DLG SPR_v
Doggo:{wvy} ZzzzZzzzz{wvy}

DLG SPR_w
{wvy}{rbw}Thank you for playing!{rbw}{wvy}

DLG SPR_x
Wine Dungeon Master: Ah yes! You picked the right choice.

DLG SPR_y
Other Wine Ghost: {wvy}I don't care about the color I just like the {shk}BUZZZZZZZZ{shk}.{wvy}

END 0
You fell off the edge of the world. THE END

END 1
You fell into the Wine Fountain and never left....at least you got drunk.

END 2
You enter your home after a long day and pour yourself a glass of wine.....wait..........this is just grape juice

VAR a
42

VAR heather
0

VAR vibr
0


