
maze

# BITSY VERSION 4.6

! ROOM_FORMAT 1

PAL 0
204,26,166
12,145,255
114,255,48

ROOM 0
0,0,0,0,0,0,0,0,0,0,0,0,0,0,0,0
0,a,a,a,a,a,a,a,a,a,a,a,a,a,a,0
0,a,0,0,0,0,0,b,0,0,0,0,0,0,a,0
0,a,0,0,0,0,0,b,0,0,0,0,0,0,a,0
0,a,0,0,0,0,0,0,0,0,0,0,0,0,a,0
0,a,0,0,0,0,0,b,0,0,0,0,0,0,a,0
0,a,b,b,b,b,b,b,0,0,0,0,0,0,a,0
0,a,0,0,0,0,0,0,0,0,0,0,0,0,a,0
0,a,0,0,0,0,0,0,0,0,0,0,0,0,a,0
0,a,0,0,0,0,0,0,0,0,0,0,0,0,a,0
0,a,0,0,0,c,c,c,0,c,c,0,0,0,a,0
0,a,0,0,0,c,0,0,0,0,c,0,0,0,a,0
0,a,0,0,0,c,0,0,0,0,c,0,0,0,a,0
0,a,0,0,0,c,0,0,0,0,c,0,0,0,a,0
0,a,a,a,a,a,a,a,a,a,a,a,a,a,a,0
0,0,0,0,0,0,0,0,0,0,0,0,0,0,0,0
NAME unicorn
ITM 0 13,6
ITM 0 11,10
ITM 1 13,8
EXT 13,8 1 1,7
PAL 0

ROOM 1
0,0,0,0,0,0,0,0,0,0,0,0,0,0,0,0
0,0,0,0,0,0,0,0,0,0,0,0,0,0,0,0
0,c,c,c,c,c,c,0,c,c,c,c,c,c,c,c
0,c,0,0,0,0,0,0,0,0,0,0,0,0,0,c
0,c,0,0,0,0,0,0,0,0,0,0,0,0,0,c
0,c,0,0,0,0,0,0,0,0,0,0,0,0,0,c
0,c,0,0,0,0,0,0,0,0,0,0,0,0,0,c
0,c,0,0,0,0,0,0,0,0,0,0,0,0,0,c
0,0,0,0,0,0,0,0,0,0,0,0,0,0,0,0
0,c,0,0,0,0,0,0,0,0,0,0,0,0,0,c
0,c,0,0,0,0,0,0,0,0,0,0,0,0,0,c
0,c,0,0,0,0,0,0,0,0,0,0,0,0,0,c
0,c,0,0,0,0,0,0,0,0,0,0,0,0,0,c
0,c,0,0,0,0,0,0,0,0,0,0,0,0,0,c
0,c,c,c,c,c,c,c,c,c,0,c,c,c,c,c
0,0,0,0,0,0,0,0,0,0,0,0,0,0,0,0
ITM 1 14,8
ITM 1 1,7
ITM 1 2,7
EXT 14,8 2 1,7
END undefinee 1,8
PAL 0

ROOM 2
0,0,0,0,0,0,0,0,0,0,0,0,0,0,0,0
0,a,a,a,a,a,a,a,a,a,a,a,a,a,a,0
0,a,0,0,0,0,0,0,0,0,0,a,0,0,a,0
0,a,a,a,a,0,a,a,a,a,a,a,0,0,0,0
0,a,0,0,a,0,a,0,0,0,0,0,0,0,a,0
0,a,a,a,a,0,a,0,a,a,a,0,0,0,a,0
0,a,a,0,0,0,a,0,a,0,0,a,0,0,a,0
0,0,0,0,0,a,a,0,0,a,0,a,0,0,a,0
0,a,0,a,0,a,a,a,a,a,0,a,0,0,a,0
0,a,0,a,0,a,a,0,0,0,0,a,0,0,a,0
0,a,0,a,0,0,0,a,a,a,a,a,0,0,a,0
0,a,0,a,0,0,0,0,0,0,0,0,0,0,a,0
0,a,0,a,a,a,a,a,a,a,a,a,a,a,a,0
0,a,0,0,0,0,0,0,0,0,0,0,0,0,a,0
0,a,a,a,a,a,a,a,a,a,a,a,a,a,a,0
0,0,0,0,0,0,0,0,0,0,0,0,0,0,0,0
ITM 1 1,7
ITM 1 0,0
ITM 2 4,7
ITM 2 2,12
ITM 2 5,10
ITM 2 5,3
ITM 2 13,6
ITM 2 11,4
ITM 2 12,11
ITM 2 13,8
ITM 2 13,3
ITM 2 9,13
ITM 2 2,8
ITM 2 7,7
ITM 2 0,12
ITM 0 14,3
EXT 14,3 3 8,10
PAL 0

ROOM 3
0,0,a,0,0,0,0,0,0,0,0,0,0,0,0,0
a,0,a,0,0,0,0,0,0,0,0,0,0,0,0,0
0,0,0,0,0,0,0,0,0,0,0,0,0,0,0,0
0,0,0,0,0,0,0,0,0,0,0,0,0,0,0,0
0,0,0,0,0,0,0,0,0,0,0,0,0,0,0,0
0,0,0,0,0,0,0,0,0,0,0,a,0,a,a,a
0,0,0,0,0,0,0,0,0,0,0,0,0,0,0,0
0,0,0,0,0,0,0,0,0,0,0,a,0,a,a,a
0,0,0,0,0,0,0,0,0,0,0,0,0,0,0,0
0,0,0,0,0,0,0,0,0,0,0,0,0,0,0,0
0,0,0,0,0,0,0,0,0,0,0,0,0,0,0,0
0,0,0,0,0,0,0,0,0,0,0,0,0,0,0,0
0,0,0,0,0,0,0,0,0,0,0,0,0,0,0,0
0,0,0,0,0,0,0,0,0,0,0,0,0,0,0,0
0,0,0,0,0,0,0,0,0,0,0,0,0,0,0,0
0,0,0,0,0,0,0,0,0,0,0,0,0,0,0,0
ITM 2 8,15
ITM 2 3,9
ITM 2 4,9
ITM 2 3,3
ITM 2 10,8
ITM 2 6,5
ITM 2 1,6
EXT 15,6 4 0,8
END undefinee 0,0
PAL 0

ROOM 4
0,0,0,0,0,0,0,0,0,0,0,0,0,0,0,0
0,0,0,0,0,0,0,0,0,0,0,0,0,0,0,0
0,0,0,0,0,0,0,0,0,0,0,0,0,0,0,0
0,0,0,0,0,0,0,0,0,0,0,0,0,0,0,0
0,0,0,0,0,0,0,0,0,0,0,0,0,0,0,0
0,0,0,0,0,0,0,0,0,0,0,0,0,0,0,0
0,0,0,0,0,0,0,0,0,0,0,0,0,0,0,0
0,0,0,0,0,0,0,0,0,0,0,0,0,0,0,0
0,0,0,0,0,0,0,0,0,0,0,0,0,0,0,0
0,0,0,0,0,0,0,0,0,0,0,0,0,0,0,0
0,0,0,0,0,0,0,0,0,0,0,0,0,0,0,0
0,0,0,0,0,0,0,0,0,0,0,0,0,0,0,0
0,0,0,0,0,0,0,0,0,0,0,0,0,0,0,0
0,0,0,0,0,0,0,0,0,0,0,0,0,0,0,0
0,0,0,0,0,0,0,0,0,0,0,0,0,0,0,0
0,0,0,0,0,0,0,0,0,0,0,0,0,0,0,0
ITM 2 0,6
ITM 2 1,10
ITM 2 12,4
ITM 2 4,13
ITM 2 7,6
ITM 2 7,10
ITM 2 9,11
ITM 2 6,8
ITM 2 7,9
ITM 2 9,10
ITM 2 1,3
ITM 2 5,9
ITM 1 2,5
ITM 1 1,8
ITM 1 3,10
ITM 1 4,3
ITM 1 2,3
ITM 1 3,6
ITM 1 4,4
ITM 1 6,3
ITM 1 7,14
ITM 1 6,7
ITM 1 4,8
ITM 1 3,7
ITM 1 4,6
ITM 1 5,6
ITM 1 11,13
ITM 1 9,13
ITM 1 5,10
ITM 1 2,12
ITM 1 9,0
ITM 1 11,7
ITM 1 7,1
ITM 1 12,7
ITM 1 13,7
ITM 1 12,3
ITM 1 10,2
ITM 0 1,1
ITM 0 3,4
ITM 0 7,3
ITM 0 9,7
ITM 0 7,4
ITM 0 8,7
ITM 0 10,5
ITM 0 8,3
ITM 0 13,10
ITM 0 11,11
ITM 0 10,8
ITM 0 6,11
ITM 0 1,15
ITM 0 10,15
ITM 0 13,15
ITM 0 12,6
ITM 0 9,6
ITM 0 2,1
ITM 0 3,1
ITM 0 4,2
ITM 0 14,3
ITM 0 14,4
ITM 0 14,7
ITM 0 14,9
ITM 0 14,12
ITM 0 14,14
ITM 0 12,8
ITM 0 14,1
ITM 0 11,0
PAL 0

TIL a
11111111
10000001
10111101
10111101
10111101
10111101
10000001
11111111
WAL true

TIL b
11000001
01100011
00110110
00011100
00011100
00110110
01100011
11000001
WAL true

TIL c
11000111
10101001
10010001
10000001
01000010
00100100
00011000
00000000
WAL true

SPR A
00011000
00011000
00011000
00111100
01111110
10111101
00100100
00100100
POS 0 2,8

SPR a
00100000
00100000
01110001
01110001
00010010
01111100
00111100
00100100
DLG SPR_0
POS 0 8,12

SPR b
00000011
01111111
01111100
01111100
00101000
00101000
00101000
00101000
>
00000011
01111111
01111100
01111100
00011000
00100100
01000010
10000001
DLG SPR_1
POS 0 11,10

SPR c
00000000
00000000
00000000
00001000
00001101
01110011
11111111
01111000
DLG SPR_2
POS 0 12,7

SPR d
00111000
00111000
00111000
11111110
00111000
00101000
00101000
00101000
DLG SPR_3

ITM 0
00000000
00000000
00000000
00111100
01100100
00100100
00011000
00000000
NAME tea
DLG ITM_0

ITM 1
00000000
00000000
00000100
11111010
10100100
00000000
00000000
00000000

ITM 2
00000000
00111100
01000010
11111111
01000010
00100100
00011000
00000000
>
00000000
00111100
01010010
11111111
01001010
00100100
00011000
00000000
NAME diamond
DLG ITM_2

DLG SPR_0
I'm a unicorn and get off of me

DLG ITM_0
You found a nice warm cup of tea

DLG SPR_1
hi i'm a giraffe i will kick you.

DLG SPR_2
yum yum you are gonna go in mi tum

DLG SPR_3
collect all the diamonds.

DLG ITM_1
"""
{
  - {item "diamond"} == 4 ?
    there are more
  - {item "diamond"} == 12 ?

}
"""

DLG ITM_2
"""
{
  - {item "diamond"} == 4 ?
    there are more
  - {item "diamond"} == 12 ?
    well done  you found them all
}
"""

END 0


END undefined
you've won the game!

END undefinee
you died

VAR a
42



