
nieve

# BITSY VERSION 4.5

! ROOM_FORMAT 1

PAL 0
232,239,254
2,44,255
232,239,254

PAL 1
3,30,255
114,95,255
19,28,255

ROOM 0
s,t,t,t,t,t,t,t,t,t,t,t,t,t,t,u
r,0,0,0,0,0,0,0,0,0,0,0,0,0,0,v
r,0,0,0,0,0,z,z,z,0,0,0,0,0,0,v
r,0,0,0,0,0,z,0,z,0,0,0,0,0,0,v
r,0,0,0,0,0,z,0,z,0,0,0,0,0,0,v
r,0,0,0,0,0,z,z,z,0,0,0,0,0,0,v
r,0,0,0,0,0,0,0,0,0,0,0,0,0,0,v
r,0,0,0,0,0,0,0,0,0,0,0,0,0,0,v
r,0,0,0,0,m,a,n,g,h,o,p,q,0,0,v
r,n,b,l,k,f,n,i,i,h,n,m,b,e,g,v
r,h,h,l,h,e,a,e,j,i,m,i,h,e,f,v
r,d,a,b,d,d,d,e,h,a,i,b,i,d,j,v
r,c,c,c,c,c,c,c,c,c,c,c,c,c,c,v
r,c,c,c,c,c,c,c,c,c,c,c,c,c,c,v
r,c,c,c,c,c,c,c,c,c,c,c,c,c,c,v
y,x,x,x,x,x,x,x,x,x,x,x,x,x,x,w
EXT 7,3 0 7,4
PAL 0

TIL a
00010000
00011100
00100010
00110010
00110001
01110001
01111001
11111001

TIL b
00000100
00001010
00011010
00111010
00111001
01110001
01110001
11100001

TIL c
11111111
00000000
11111111
00000000
11111111
00000000
11111111
00000000

TIL d
00001100
00110010
01100001
11000001
11000010
01100010
00111100
00011000

TIL e
00000000
00000100
00001010
00011010
00011001
00110001
01100001
11000001

TIL f
00000000
00010000
00111000
01110000
01100100
11100001
11000001
10000000

TIL g
00000000
00100000
01100000
11010000
10010000
10001000
00000110
00000001

TIL h
00000000
00000000
00000000
00000000
00000000
01000000
10101110
00010001

TIL i
00000000
01000000
11000000
10100000
00110010
00110101
00101100
01011100

TIL j
00000000
00000000
00001000
00011000
00110100
00110010
01100001
11000001

TIL k
00011000
00110100
00110010
00110010
01110010
11011001
11111001
11111001

TIL l
00011000
00110100
01101100
11001100
11001010
11010001
11010001
11100001

TIL m
00010000
00011000
00110000
00110010
01110000
01100001
11100001
11000001

TIL n
00000000
00000000
00010000
00110000
01100000
11101000
11100010
10000001

TIL o
00000000
00000000
00000000
00000000
00000000
01011100
10100010
00010001

TIL p
00000000
00000000
00000000
00000000
00000000
00010000
10100010
01001101

TIL q
00000000
00000000
00000000
00000000
00000000
00010000
10100000
01001000

TIL r
00000100
00000101
00000100
00000101
00000100
00000101
00000100
00000101

TIL s
00000000
00000000
00000000
00000000
00000000
00000011
00000100
00000101

TIL t
00000000
00000000
00000000
00000000
00000000
11111111
00000000
01010101

TIL u
00000000
00000000
00000000
00000000
00000000
11000000
00100000
00100000

TIL v
00100000
10100000
00100000
10100000
00100000
10100000
00100000
10100000

TIL w
00100000
00100000
11000000
00000000
00000000
00000000
00000000
00000000

TIL x
10101010
00000000
11111111
00000000
00000000
00000000
00000000
00000000

TIL y
00000100
00000100
00000011
00000000
00000000
00000000
00000000
00000000

TIL z
00000000
00000000
00000000
00000000
00000000
00000000
00000000
00000000
WAL true

SPR A
00000000
00000000
00010000
00101000
00010000
00000000
00000000
00000000
POS 0 7,4

SPR a
00000000
00000000
01010001
01110001
01110010
01111100
00111100
00100100
DLG SPR_0

ITM 0
00000000
00000000
00000000
00111100
01100100
00100100
00011000
00000000
NAME tea
DLG ITM_0

DLG SPR_0
I'm a cat

DLG ITM_0
You found a nice warm cup of tea

VAR a
42


