
{clr2}Worm Dungeon{clr2} by Daniel Linssen

# BITSY VERSION 4.5

! ROOM_FORMAT 1

PAL 0
NAME level 0
112,44,74
166,84,95
255,255,255

PAL 1
NAME level 1
168,59,85
230,138,108
255,255,255

PAL 2
NAME level 2
196,85,79
252,155,109
255,255,255

PAL 3
NAME level 3
209,115,77
255,180,114
255,255,255

PAL 4
NAME level 4
230,160,101
255,221,129
255,255,255

PAL 5
NAME level 5
241,198,123
255,243,174
255,255,255

PAL 6
NAME level ?
36,19,41
69,30,61
255,255,255

PAL 7
NAME level 6
254,228,154
254,250,198
255,255,255

PAL 8
NAME level 7
254,249,178
255,255,221
255,255,255

PAL 9
NAME level 8
255,255,255
255,255,255
255,255,255

ROOM 1
c,d,d,d,d,d,d,d,d,d,d,d,d,d,d,j
e,1n,1n,1n,1n,1n,1n,1n,1n,1n,1n,1n,1n,1n,1n,i
e,1n,1n,1n,1n,1n,1n,1n,1o,1o,1o,1o,1o,1n,1n,i
e,1n,1n,1n,1n,1n,1n,1n,17,y,y,y,18,1n,1n,i
e,1n,1n,1n,1n,1n,1n,1n,10,0,0,2c,10,1o,1n,i
e,1n,1n,1o,1o,1o,1o,1o,10,0,2c,0,x,18,1n,i
e,1n,1o,1i,1h,2m,1h,1f,z,0,0,0,0,10,1n,i
e,1n,1i,1k,0,0,0,10,0,0,0,0,0,10,1n,i
e,1n,10,0,0,0,0,u,0,0,0,0,0,10,1n,i
e,1n,10,0,0,0,0,10,0,0,0,0,2b,10,1n,i
e,1n,10,0,0,0,12,1b,13,14,2b,0,0,10,1n,i
e,1n,10,0,0,0,10,1n,1n,15,13,13,13,16,1n,i
e,1n,15,14,0,0,10,1n,1n,1n,1n,1n,1n,1n,1n,i
e,1n,1n,10,0,12,16,1n,1n,1n,1n,1n,1n,1n,1n,i
e,1n,1n,10,2e,10,1o,1o,1o,1o,1n,1n,1n,1n,1n,i
f,g,g,g,g,g,k,l,m,1p,g,g,g,g,g,h
NAME room 0.0
EXT 4,14 2 4,1
EXT 5,6 a 5,6
PAL 0

ROOM 2
c,d,d,d,d,d,d,d,d,d,d,d,d,d,d,j
e,1n,1n,10,2d,10,1o,1o,1n,1n,1n,1n,1n,1n,1n,i
e,1n,1n,10,0,x,y,18,1n,1n,1o,1o,1o,1o,1n,i
e,1n,1n,10,0,0,0,10,1o,1o,1i,1h,1h,1j,1n,i
e,1n,1n,10,0,0,0,x,1g,1h,1k,2b,0,10,1n,i
e,1n,1n,15,14,0,0,0,10,0,0,0,0,10,1n,i
e,1n,1n,1n,1a,p,p,p,z,0,0,0,0,10,1n,i
e,1n,1n,1o,10,0,0,0,0,0,0,0,0,10,1n,i
e,1o,1o,1i,1k,0,0,0,0,0,0,0,0,10,1n,i
e,1h,1h,1k,0,0,0,0,0,0,12,13,13,16,1n,i
e,2g,0,0,0,0,0,12,13,13,16,1n,1n,1n,1n,i
e,13,13,13,13,13,13,16,1n,1n,1n,1n,1n,1n,1n,i
e,1n,1n,1n,1n,1n,1n,1n,1n,1n,1n,1n,1n,1n,1n,i
e,1n,1n,1n,1n,1n,1n,1n,1n,1n,1n,1n,1n,1n,1n,i
e,1n,1n,1n,1n,1n,1o,1o,1o,1o,1n,1n,1n,1n,1n,i
f,g,g,g,g,g,k,l,m,1p,g,g,g,g,g,h
NAME room 0.1
EXT 1,10 3 14,10
EXT 4,1 1 4,14
PAL 0

ROOM 3
c,d,d,d,d,d,d,d,d,d,d,d,d,d,d,j
e,1n,1n,1n,1n,1n,1n,1n,1o,1o,1o,1o,1o,1o,1n,i
e,1n,1n,1n,1n,1n,1n,1o,17,y,y,y,y,18,1n,i
e,1n,1o,1o,1o,1o,1o,17,z,2b,0,0,0,10,1n,i
e,1n,1i,1h,1h,1h,1j,10,0,0,0,0,0,10,1n,i
e,1n,10,2c,0,0,10,10,0,17,y,p,p,1d,1n,i
e,1n,10,0,12,p,19,10,0,10,0,0,0,10,1n,i
e,1n,10,0,10,0,x,z,0,10,2b,0,0,10,1n,i
e,1n,10,0,10,0,0,0,0,15,14,0,0,10,1o,i
e,1n,10,0,x,y,y,18,0,0,15,14,0,1l,1h,i
e,1n,10,0,0,0,2b,10,0,0,0,10,0,0,2f,i
e,1n,10,0,0,0,0,x,y,y,18,15,13,1c,13,i
e,1n,15,13,14,0,0,0,0,0,10,2b,0,10,1n,i
e,1n,1n,1n,15,13,13,14,0,12,1b,13,13,16,1n,i
e,1n,1n,1n,1n,1n,1o,10,2e,10,1n,1n,1n,1n,1n,i
f,g,g,g,g,g,k,l,m,1p,g,g,g,g,g,h
NAME room 0.2
ITM 0 10,10
EXT 8,14 4 8,1
EXT 14,10 2 1,10
PAL 0

ROOM 4
c,d,d,d,d,d,d,d,d,d,d,d,d,d,d,j
e,1n,1n,1n,1n,1n,1o,10,2d,10,1o,1o,1o,1o,1n,i
e,1n,1n,1n,1n,1n,17,z,0,x,y,y,y,18,1n,i
e,1n,1n,1n,1n,1n,10,0,0,0,0,2c,0,10,1n,i
e,1n,1n,1n,1n,1n,10,0,0,0,0,0,0,10,1n,i
e,1n,1o,1o,1o,1o,1e,p,p,p,y,y,y,1d,1n,i
e,1n,17,y,y,1g,1k,0,0,0,0,0,0,10,1n,i
e,1n,10,2c,0,10,0,0,0,0,0,0,0,10,1o,i
e,1n,15,14,0,s,0,0,0,0,0,0,0,1l,1h,i
e,1n,1n,10,0,10,0,0,0,0,0,0,0,0,2f,i
e,1n,1n,10,0,15,p,14,0,0,0,0,0,12,13,i
e,1n,1n,10,2c,0,0,15,13,13,13,p,p,19,1n,i
e,1n,1n,15,13,14,0,0,0,2c,0,0,0,10,1n,i
e,1n,1n,1n,1n,15,13,13,13,13,13,13,13,16,1n,i
e,1n,1n,1n,1n,1n,1o,1o,1o,1o,1n,1n,1n,1n,1n,i
f,g,g,g,g,g,k,l,m,1p,g,g,g,g,g,h
NAME room 0.3
EXT 14,9 5 1,9
EXT 8,1 3 8,14
PAL 0

ROOM 5
c,d,d,d,d,d,d,d,d,d,d,d,d,d,d,j
e,1n,1n,1n,1n,1n,1n,1n,1o,1n,1n,1n,1n,1n,1n,i
e,1n,1n,1o,1o,1o,1o,21,2d,22,1n,1n,1n,1n,1n,i
e,1n,1n,17,y,y,18,21,1z,22,1n,1n,1n,1n,1n,i
e,1n,1n,10,0,0,10,24,1z,25,1o,1o,1n,1n,1n,i
e,1n,1n,10,0,0,x,1g,1z,1h,1h,1j,1o,1n,1n,i
e,1n,1n,10,0,0,0,10,20,0,2b,1l,1j,1n,1n,i
e,1o,1o,1e,p,y,y,z,0,0,0,0,10,1n,1n,i
e,1h,1h,1k,0,0,0,0,0,0,0,0,10,1n,1n,i
e,2g,0,0,0,0,0,0,0,0,0,0,10,1n,1n,i
e,13,14,0,0,0,2b,0,0,12,13,13,16,1n,1n,i
e,1n,10,0,0,0,0,0,0,10,1n,1n,1n,1n,1n,i
e,1n,15,13,13,13,13,13,13,16,1n,1n,1n,1n,1n,i
e,1n,1n,1n,1n,1n,1n,1n,1n,1n,1n,1n,1n,2y,1n,i
e,1n,1n,1n,1n,1n,1o,1o,1o,1o,1n,1n,1n,1n,1n,i
f,g,g,g,g,g,k,l,m,1p,g,g,g,g,g,h
NAME room 0.4
EXT 8,2 6 8,6
EXT 1,9 4 14,9
PAL 0

ROOM 6
c,d,d,d,d,d,d,d,d,d,d,d,d,d,d,j
e,1n,1n,1n,1n,1n,1n,1n,1n,1n,1n,1n,1n,1n,1n,i
e,1n,1n,1n,1n,1o,1o,1o,1o,1o,1o,1o,1n,1n,1n,i
e,1n,1n,1n,1n,1i,1h,1h,1h,1h,1h,1j,1n,1n,1n,i
e,1n,1n,1o,1o,10,2a,0,0,0,0,10,1n,1n,1n,i
e,1n,1n,17,y,1d,0,0,0,0,0,10,1o,1n,1n,i
e,1n,1n,10,0,s,0,12,1z,14,0,1l,1j,1n,1n,i
e,1n,1n,10,0,s,0,15,13,16,0,0,10,1n,1n,i
e,y,y,z,0,15,14,0,0,0,0,2a,10,1n,1n,i
e,2g,0,0,0,0,15,p,1c,13,13,13,16,1n,1n,i
e,13,13,13,14,0,0,0,10,1n,1n,1n,1n,1n,1n,i
e,1n,1n,1n,15,13,13,13,16,1n,1n,1n,1n,1n,1n,i
e,1n,1n,1n,1n,1n,1n,1n,1n,1n,1n,1n,1n,1n,1n,i
e,1n,1n,1n,1n,1n,1n,1n,1n,1n,1n,1n,1n,1n,1n,i
e,1n,1n,1n,1n,1n,1o,1o,1o,1o,1n,1n,1n,1n,1n,i
f,g,g,g,g,g,k,l,m,1q,g,g,g,g,g,h
NAME room 1.4
EXT 8,6 5 8,3
EXT 1,9 7 14,9
PAL 1

ROOM 7
c,d,d,d,d,d,d,d,d,d,d,d,d,d,d,j
e,1n,1n,1n,10,2d,10,1o,1o,1o,10,2d,10,1n,1n,i
e,1n,1n,1n,10,0,1l,1h,1h,1j,10,0,10,1n,1n,i
e,1n,1n,1n,10,2h,0,0,0,1l,1k,2h,10,1n,1n,i
e,1n,1n,1o,10,0,0,0,0,0,0,0,10,1n,1n,i
e,1n,1o,1i,1k,0,0,0,0,0,0,0,10,1o,1n,i
e,1h,1h,1k,0,0,0,12,13,14,0,0,1l,1j,1n,i
e,2g,0,2h,0,0,0,u,0,15,14,0,0,10,1n,i
e,13,13,13,14,0,0,10,0,2c,s,0,0,1l,1h,i
e,1o,1o,1o,10,0,0,x,p,y,z,0,0,0,2f,i
e,1h,1h,1h,1k,0,0,0,0,0,0,0,0,12,13,i
e,2g,0,0,2h,0,0,12,14,0,0,0,12,16,1n,i
e,13,13,13,13,14,0,10,10,2h,12,13,16,1n,1n,i
e,1n,1n,1n,1n,15,13,16,10,0,10,1n,1n,1n,1n,i
e,1n,1n,1n,1n,1n,1o,1o,10,2e,10,1n,1n,1n,1n,i
f,g,g,g,g,g,k,l,m,1q,g,g,g,g,g,h
NAME room 1.3
ITM 0 8,7
EXT 14,9 6 1,9
EXT 3,7 4 3,7
EXT 4,11 4 4,11
EXT 9,12 4 9,12
EXT 11,3 4 11,3
EXT 5,1 8 5,14
PAL 1

ROOM 8
c,d,d,d,d,d,d,d,d,d,d,d,d,d,d,j
e,1n,1n,1o,1o,1o,1o,1o,1o,1n,1n,1n,1n,1n,1n,i
e,1n,1n,17,y,y,y,y,18,1o,1o,1o,1o,1n,1n,i
e,1n,1o,10,0,0,0,2c,x,y,1g,1h,1j,1o,1o,i
e,1n,17,z,0,0,0,0,0,0,10,0,1l,1f,y,i
e,1n,10,2h,0,0,0,0,17,y,z,0,0,u,2f,i
e,1n,10,0,0,0,0,0,10,0,0,0,2c,1a,13,i
e,1n,10,0,0,17,y,y,z,0,0,12,13,16,1n,i
e,1n,1e,y,y,z,0,0,0,0,0,10,1n,1n,1n,i
e,1n,10,2c,0,0,0,0,0,0,0,10,1n,1n,1n,i
e,1n,15,13,14,0,0,0,2c,12,13,16,1n,1n,1n,i
e,1n,1n,1n,10,0,0,12,13,16,1n,1n,1n,1n,1n,i
e,1n,1n,1n,10,0,0,10,1n,1n,1n,1n,1n,1n,1n,i
e,1n,1n,1n,10,0,12,16,1n,1n,1n,1n,1n,2x,1n,i
e,1n,1n,1n,10,2e,10,1o,1o,1o,1n,1n,1n,1n,1n,i
f,g,g,g,g,g,k,l,m,1q,g,g,g,g,g,h
NAME room 1.2
ITM 2 9,4
EXT 14,5 9 1,5
EXT 5,14 7 5,1
EXT 3,5 3 3,5
PAL 1

ROOM 9
c,d,d,d,d,d,d,d,d,d,d,d,d,d,d,j
e,1n,1n,1n,1n,1o,1o,1o,1o,1o,10,2d,10,1o,1n,i
e,1n,1n,1n,1n,1i,1h,1h,1h,1h,1k,0,1l,1j,1n,i
e,1o,1o,1o,1o,10,0,0,0,0,0,0,0,10,1n,i
e,1h,1h,1h,1j,10,0,0,0,0,0,0,0,10,1n,i
e,2g,0,0,10,10,0,12,14,0,12,14,0,10,1n,i
e,13,14,0,10,10,2h,10,10,2h,10,10,2h,10,1n,i
e,1n,10,0,1l,1k,0,1l,1k,0,1l,1k,0,10,1n,i
e,1n,10,0,0,0,0,0,0,0,0,0,0,10,1n,i
e,1n,10,0,0,0,0,0,0,0,0,0,12,16,1n,i
e,1n,10,0,0,0,0,0,0,12,13,13,16,1n,1n,i
e,1n,15,13,14,0,0,12,13,16,1n,1n,1n,1n,1n,i
e,1n,1n,1n,15,13,13,16,1n,1n,1n,1n,1n,1n,1n,i
e,1n,1n,1n,1n,1n,1n,1n,1n,1n,1n,1n,1n,1n,1n,i
e,1n,1n,1n,1n,1n,1o,1o,1o,1o,1n,1n,1n,1n,1n,i
f,g,g,g,g,g,k,l,m,1q,g,g,g,g,g,h
NAME room 1.1
EXT 11,1 b 11,14
EXT 1,5 8 14,5
EXT 6,6 2 6,6
EXT 9,6 2 9,6
PAL 1

ROOM 10
c,d,d,d,d,d,d,d,d,d,d,d,d,d,d,j
e,1n,1n,1n,1n,1n,1n,1n,1n,1n,1n,1n,1n,1n,1n,i
e,1n,1n,1n,1n,1n,1n,1n,1n,1n,1n,1n,1n,1n,1n,i
e,1n,1n,1n,1n,1n,1n,1n,1n,1n,1n,1n,1n,1n,1n,i
e,1n,1n,1n,1n,1n,1n,1n,1n,1n,1n,1n,1n,1n,1n,i
e,1n,1n,1n,1n,1n,33,33,33,1n,1n,1n,1n,1n,1n,i
e,1n,1n,1n,1n,21,12,13,14,22,1n,1n,1n,1n,1n,i
e,1n,1n,1n,1n,21,10,0,10,22,1n,1n,1n,1n,1n,i
e,1n,1n,1n,1n,21,15,13,16,22,1n,1n,1n,1n,1n,i
e,1n,1n,1n,1n,1n,27,27,27,1n,1n,1n,1n,1n,1n,i
e,1n,1n,1n,1n,1n,1n,1n,1n,1n,1n,1n,1n,1n,1n,i
e,1n,1n,1n,1n,1n,1n,1n,1n,1n,1n,1n,1n,1n,1n,i
e,1n,1n,1n,1n,1n,1n,1n,1n,1n,1n,1n,1n,1n,1n,i
e,1n,1n,1n,1n,1n,1n,1n,1n,1n,1n,1n,1n,1n,1n,i
e,1n,1n,1n,1n,1n,1o,1o,1o,1o,1n,1n,1n,1n,1n,i
f,g,g,g,g,g,k,l,m,o,g,g,g,g,g,h
NAME room ?.?.0
EXT 7,7 11 7,7
PAL 6

ROOM 11
c,d,d,d,d,d,d,d,d,d,d,d,d,d,d,j
e,1n,1n,1n,1n,1n,1n,1n,1n,1n,1n,1n,1n,1n,1n,i
e,1n,1n,1n,1n,1n,1n,1n,1n,1n,1n,1n,1n,1n,1n,i
e,1n,1n,1n,1n,1n,1n,1n,1n,1n,1n,1n,1n,1n,1n,i
e,1n,1n,1n,1n,1n,1n,1n,1n,1n,1n,1n,1n,1n,1n,i
e,1n,1n,1n,1n,0,0,0,0,0,1n,1n,1n,1n,1n,i
e,1n,1n,1n,1n,0,12,13,14,0,1n,1n,1n,1n,1n,i
e,1n,1n,1n,1n,0,10,0,10,0,1n,1n,1n,1n,1n,i
e,1n,1n,1n,1n,0,15,13,16,0,1n,1n,1n,1n,1n,i
e,1n,1n,1n,1n,0,0,0,0,0,1n,1n,1n,1n,1n,i
e,1n,1n,1n,1n,1n,1n,1n,1n,1n,1n,1n,1n,1n,1n,i
e,1n,1n,1n,1n,1n,1n,1n,1n,1n,1n,1n,1n,1n,1n,i
e,1n,1n,1n,1n,1n,1n,1n,1n,1n,1n,1n,1n,1n,1n,i
e,1n,1n,1n,1n,1n,1n,1n,1n,1n,1n,1n,1n,1n,1n,i
e,1n,1n,1n,1n,1n,1o,1o,1o,1o,1n,1n,1n,1n,1n,i
f,g,g,g,g,g,k,l,m,o,g,g,g,g,g,h
NAME room ?.?.1
EXT 7,7 12 7,7
PAL 6

ROOM 12
c,d,d,d,d,d,d,d,d,d,d,d,d,d,d,j
e,1n,1n,1n,1n,1n,1n,1n,1n,1n,1n,1n,1n,1n,1n,i
e,1n,1n,1n,1n,1n,1n,1n,1n,1n,1n,1n,1n,1n,1n,i
e,1n,1n,1n,1n,1n,1n,1n,1n,1n,1n,1n,1n,1n,1n,i
e,1n,1n,1n,1n,33,33,33,33,33,1n,1n,1n,1n,1n,i
e,1n,1n,1n,21,0,0,0,0,0,22,1n,1n,1n,1n,i
e,1n,1n,1n,21,0,12,13,14,0,22,1n,1n,1n,1n,i
e,1n,1n,1n,21,0,10,0,10,0,22,1n,1n,1n,1n,i
e,1n,1n,1n,21,0,15,13,16,0,22,1n,1n,1n,1n,i
e,1n,1n,1n,21,0,0,0,0,0,22,1n,1n,1n,1n,i
e,1n,1n,1n,1n,27,27,27,27,27,1n,1n,1n,1n,1n,i
e,1n,1n,1n,1n,1n,1n,1n,1n,1n,1n,1n,1n,1n,1n,i
e,1n,1n,1n,1n,1n,1n,1n,1n,1n,1n,1n,1n,1n,1n,i
e,1n,1n,1n,1n,1n,1n,1n,1n,1n,1n,1n,1n,1n,1n,i
e,1n,1n,1n,1n,1n,1o,1o,1o,1o,1n,1n,1n,1n,1n,i
f,g,g,g,g,g,k,l,m,o,g,g,g,g,g,h
NAME room ?.?.2
EXT 7,7 13 7,7
PAL 6

ROOM 13
c,d,d,d,d,d,d,d,d,d,d,d,d,d,d,j
e,0,0,0,29,0,0,0,0,0,0,0,0,0,29,i
e,0,29,0,0,0,0,0,0,29,0,0,0,0,0,i
e,0,0,0,0,0,0,0,0,0,0,0,29,0,0,i
e,0,0,0,0,0,0,29,0,0,0,0,0,0,0,i
e,0,0,0,0,0,0,0,0,0,0,29,0,0,0,i
e,0,0,29,0,0,12,13,14,0,0,0,0,0,0,i
e,0,0,0,0,0,10,2c,10,0,0,0,0,0,0,i
e,29,0,0,0,0,10,0,10,0,29,0,0,0,29,i
e,0,0,0,29,0,10,0,10,0,0,0,0,0,0,i
e,0,0,0,0,0,10,0,10,0,0,0,29,0,0,i
e,0,0,17,y,1g,1k,0,10,29,0,0,0,0,0,i
e,29,0,10,0,s,0,0,10,0,0,29,0,0,0,i
e,0,29,10,0,1a,13,13,16,0,0,0,0,0,0,i
e,0,0,10,2e,10,0,29,0,0,0,0,0,29,0,i
f,g,g,g,g,g,k,l,m,o,g,g,g,g,g,h
NAME room ?.?.3
EXT 4,14 15 4,1
PAL 6

ROOM 15
c,d,d,d,d,d,d,d,d,d,d,d,d,d,d,j
e,29,0,10,2d,10,0,0,29,0,0,0,0,29,0,i
e,0,0,10,0,10,0,0,0,0,0,29,0,0,0,i
e,0,29,10,0,10,0,0,0,0,0,0,0,0,0,i
e,0,0,1a,p,19,28,2d,28,0,0,0,0,29,0,i
e,0,0,10,0,10,28,1z,28,0,29,0,0,0,0,i
e,29,0,10,0,10,28,1z,28,0,0,0,0,0,0,i
e,0,0,10,0,10,1i,20,1h,1j,0,0,29,0,0,i
e,0,0,10,0,1l,1k,0,2c,1l,1j,0,0,0,0,i
e,0,1i,1k,2c,0,0,0,0,2b,1l,1h,1j,0,0,i
e,0,10,0,0,0,0,0,0,0,0,0,10,0,0,i
e,0,10,2c,0,0,2b,0,0,0,0,2c,10,0,0,i
e,0,15,14,2c,0,0,0,0,2c,12,13,16,0,29,i
e,0,0,15,13,13,13,13,13,13,16,0,0,0,0,i
e,29,0,0,0,0,0,0,0,0,0,0,29,0,0,i
f,g,g,g,g,g,k,l,m,o,g,g,g,g,g,h
NAME room ?.?.4
EXT 7,4 i 7,11
EXT 4,9 j 4,9
EXT 6,7 0 0,0
EXT 4,1 13 4,14
PAL 6

ROOM 16
c,d,d,d,d,d,d,d,d,d,d,d,d,d,d,j
e,1n,1n,1n,1o,1o,1o,1o,1o,1o,1o,1o,1o,1o,1o,i
e,1n,1n,1n,17,y,y,y,1g,1h,1h,1h,1h,1h,1h,i
e,1n,1o,1o,10,2a,0,0,s,0,0,0,0,0,2f,i
e,1n,17,y,z,0,0,12,1b,13,14,0,12,13,13,i
e,1n,10,0,0,0,0,x,y,1g,1k,0,10,1n,1n,i
e,1n,10,0,12,14,0,0,0,15,13,13,19,1n,1n,i
e,1n,1e,y,1d,15,13,14,0,0,0,2a,10,1n,1n,i
e,1n,10,0,1l,1h,1f,z,0,0,12,13,16,1n,1n,i
e,1n,10,0,0,0,u,0,0,12,16,1n,1n,1n,1n,i
e,1n,10,0,0,12,1b,14,0,10,1o,1o,1o,1o,1o,i
e,1n,10,0,2a,10,1n,10,0,x,y,y,y,y,y,i
e,1n,10,0,12,16,1n,10,0,0,0,0,0,0,2f,i
e,1n,10,0,10,1n,1n,15,13,13,13,13,13,13,13,i
e,1n,10,2e,10,1n,1o,1o,1o,1o,1n,1n,1n,1n,1n,i
f,g,g,g,g,g,k,l,m,1s,g,g,g,g,g,h
NAME room 3.2b
EXT 8,10 q 8,10
EXT 14,12 17 1,12
PAL 3

ROOM 17
c,d,d,d,d,d,d,d,d,d,d,d,d,d,d,j
e,1o,1o,1o,1o,1o,1n,1n,1n,1o,10,2d,10,1n,1n,i
e,y,y,y,y,18,1n,1n,1n,1i,1k,0,10,1n,1n,i
e,2g,0,0,0,10,1n,1n,1n,10,2a,0,10,1n,1n,i
e,13,14,0,0,10,1n,1n,1n,10,0,12,16,1n,1n,i
e,1n,1e,p,p,1d,1o,1o,1o,10,0,1l,1j,1n,1n,i
e,1n,10,0,0,1l,1h,1j,1i,1k,0,2a,10,1n,1n,i
e,1n,10,0,0,2h,2h,1l,1k,2h,0,0,10,1n,1n,i
e,1n,10,0,0,2h,2h,2h,2h,2h,0,0,10,1n,1n,i
e,1n,10,0,0,2h,2h,2h,2h,2h,0,0,10,1n,1n,i
e,1o,15,13,13,13,14,2h,2h,2h,12,13,16,1n,1n,i
e,y,1g,1h,1h,1j,15,13,13,13,16,1n,1n,1n,1n,i
e,2g,s,0,0,10,1n,1n,1n,1n,1n,1n,1n,1n,1n,i
e,13,19,0,0,10,1n,1n,1n,1n,1n,1n,1n,1n,1n,i
e,1n,15,13,13,16,1o,1o,1o,1o,1n,1n,1n,1n,1n,i
f,g,g,g,g,g,k,l,m,1s,g,g,g,g,g,h
NAME room 3.1b
EXT 1,12 16 14,12
EXT 3,13 0 0,0
PAL 3

ROOM 18
c,d,d,d,d,d,d,d,d,d,d,d,d,d,d,j
e,0,29,0,0,0,0,0,0,0,0,0,0,0,29,i
e,0,0,0,0,0,28,2d,2d,28,0,0,0,0,0,i
e,0,0,29,0,0,28,1z,1z,28,0,29,0,0,0,i
e,0,0,0,0,0,29,1z,1z,28,0,0,0,0,29,i
e,0,0,0,0,0,28,1z,1z,28,0,0,29,0,0,i
e,29,0,0,0,0,28,1z,1z,28,0,0,0,0,0,i
e,0,0,0,0,12,13,20,20,13,14,0,0,0,0,i
e,0,0,0,29,10,0,0,0,0,10,0,0,0,0,i
e,0,0,0,0,10,0,0,0,0,10,0,0,0,29,i
e,0,0,0,0,10,0,0,0,0,10,0,0,0,0,i
e,0,0,29,0,10,0,0,0,0,10,29,0,0,0,i
e,0,29,0,0,10,0,0,0,0,10,0,0,29,0,i
e,0,0,0,29,10,0,0,0,0,10,0,0,0,0,i
e,0,0,0,0,10,2e,2e,2e,2e,10,0,29,0,0,i
f,g,g,g,g,g,k,l,m,1t,g,g,g,g,g,h
NAME room 4.3
EXT 6,14 v 6,1
EXT 7,14 v 7,1
EXT 8,14 v 8,1
EXT 9,14 v 9,1
EXT 6,10 0 0,0
EXT 7,2 19 7,12
EXT 8,2 19 8,12
PAL 4

ROOM 19
c,d,d,d,d,d,d,d,d,d,d,d,d,d,d,j
e,0,0,0,0,0,0,0,0,0,0,0,0,0,0,i
e,0,0,0,0,0,0,0,0,0,0,0,0,0,0,i
e,0,0,0,0,0,28,2d,2d,28,0,0,0,0,0,i
e,0,0,0,0,0,28,1z,1z,28,0,0,0,0,0,i
e,0,0,0,0,0,28,1z,1z,28,0,0,0,0,0,i
e,0,0,0,0,0,28,1z,1z,28,0,0,0,0,0,i
e,0,0,0,0,0,28,1z,1z,28,0,0,0,0,0,i
e,0,0,0,0,0,28,1z,1z,28,0,0,0,0,0,i
e,0,0,0,0,0,28,1z,1z,28,0,0,0,0,0,i
e,0,0,0,0,0,28,1z,1z,28,0,0,0,0,0,i
e,0,0,0,0,0,28,1z,1z,28,0,0,0,0,0,i
e,0,0,0,0,0,28,20,20,28,0,0,0,0,0,i
e,0,0,0,0,0,28,2e,2e,28,0,0,0,0,0,i
e,0,0,0,0,0,0,0,0,0,0,0,0,0,0,i
f,g,g,g,g,g,k,l,m,1u,g,g,g,g,g,h
NAME room 5.0
EXT 7,13 18 7,3
EXT 8,13 18 8,3
EXT 7,3 1a 7,12
EXT 8,3 1a 8,12
EXT 6,10 0 0,0
PAL 5

ROOM a
c,d,d,d,d,d,d,d,d,d,d,d,d,d,d,j
e,1n,1i,1h,1h,1h,1j,1n,1n,1n,1n,1n,1n,1n,1n,i
e,1n,10,0,0,0,10,1n,1o,1o,1o,1o,1o,1n,1n,i
e,1n,1a,1z,14,0,10,1n,17,y,y,y,18,1n,1n,i
e,1n,15,13,14,0,10,1n,10,0,0,2c,10,1o,1n,i
e,1n,1n,1o,10,0,10,1o,10,0,2c,0,x,18,1n,i
e,1n,1o,1i,1k,0,1l,1f,z,0,0,0,0,10,1n,i
e,1n,1i,1k,0,0,0,10,0,0,0,0,0,10,1n,i
e,1n,10,0,0,0,0,u,0,0,0,0,0,10,1n,i
e,1n,10,0,0,0,0,10,0,0,0,0,2b,10,1n,i
e,1n,10,0,0,0,12,1b,13,14,2b,0,0,10,1n,i
e,1n,10,0,0,0,10,1n,1n,15,13,13,13,16,1n,i
e,1n,15,14,0,0,10,1n,1n,1n,1n,1n,1n,1n,1n,i
e,1n,1n,10,0,12,16,1n,1n,1n,1n,1n,1n,1n,1n,i
e,1n,1n,10,2e,10,1o,1o,1o,1o,1n,1n,1n,1n,1n,i
f,g,g,g,g,g,k,l,m,1p,g,g,g,g,g,h
NAME room 0.0 ext
EXT 4,14 2 4,1
EXT 5,7 1 5,7
EXT 3,3 g 7,5
PAL 0

ROOM b
c,d,d,d,d,d,d,d,d,d,d,d,d,d,d,j
e,1n,1n,1n,1n,1n,1n,1n,1n,1n,1o,1n,1n,1n,1n,i
e,1n,1n,1n,1n,1n,1n,1n,1n,21,2d,22,1n,1n,1n,i
e,1n,1n,1n,1o,1o,1o,1o,1o,21,1z,22,1n,1n,1n,i
e,1n,1n,1o,17,y,y,y,18,24,1z,25,1o,1n,1n,i
e,1n,1n,17,z,0,0,0,1l,1h,1z,1h,1j,1n,1n,i
e,1n,1n,10,0,2a,0,0,s,0,20,0,10,1n,1n,i
e,1n,1n,10,0,0,0,0,s,0,0,0,10,1n,1n,i
e,1n,1n,10,2a,0,0,12,1b,13,13,13,16,1n,1n,i
e,1n,1n,15,14,0,0,x,1g,1h,1h,1j,1o,1n,1n,i
e,1n,1n,1n,10,0,2a,0,s,0,0,1l,1j,1n,1n,i
e,1n,1n,1n,15,13,13,13,19,0,0,0,10,1n,1n,i
e,1n,1n,1n,1n,1n,1n,1n,15,13,14,0,10,1n,1n,i
e,1n,1n,1n,1n,1n,1n,1n,1n,1n,10,0,10,1n,1n,i
e,1n,1n,1n,1n,1n,1o,1o,1o,1o,10,2e,10,1n,1n,i
f,g,g,g,g,g,k,l,m,1q,g,g,g,g,g,h
NAME room 1.0
EXT 10,2 c 10,6
EXT 11,14 9 11,1
PAL 1

ROOM c
c,d,d,d,d,d,d,d,d,d,d,d,d,d,d,j
e,1n,1n,1n,1n,1n,1o,1o,1o,1o,1o,1n,1n,1n,1n,i
e,1n,1n,1n,1o,1o,1i,1h,1h,1h,1h,1j,1o,1n,1n,i
e,1n,1o,1o,1i,1h,1k,0,0,0,0,1l,1j,1n,1n,i
e,1n,1i,1h,1k,0,2a,0,0,0,0,0,10,1n,1n,i
e,1n,10,0,0,0,0,0,0,0,0,0,10,1n,1n,i
e,1n,10,2a,0,0,0,0,0,12,1z,13,19,1n,1n,i
e,1n,10,0,2a,0,0,0,0,15,14,0,10,1o,1n,i
e,1n,10,0,0,0,0,0,0,2a,15,13,1l,1j,1n,i
e,1n,10,0,0,12,13,14,0,0,0,0,0,10,1n,i
e,1n,10,0,0,10,1o,1a,13,13,13,13,13,19,1n,i
e,1n,10,0,0,1l,1f,z,0,0,0,0,0,10,1n,i
e,1n,15,14,0,0,u,0,0,12,13,13,13,16,1n,i
e,1n,1n,10,0,12,1b,13,13,16,1n,1n,1n,1n,1n,i
e,1n,1n,10,2e,10,1o,1o,1o,1o,1n,1n,1n,1n,1n,i
f,g,g,g,g,g,k,l,m,1r,g,g,g,g,g,h
NAME room 2.0
EXT 10,6 b 10,3
EXT 4,14 k 4,1
PAL 2

ROOM g
c,d,d,d,d,d,d,d,d,d,d,d,d,d,d,j
e,1n,1n,1n,1n,1n,1n,1n,1n,1n,1n,1n,1n,1n,1n,i
e,1n,1n,1n,1n,1n,1n,1n,1n,1n,1n,1n,1n,1n,1n,i
e,1n,1n,1n,1n,1n,1n,1o,1n,1n,1n,1n,1n,1n,1n,i
e,1n,1n,1n,1n,1n,21,2d,22,1n,1n,1n,1n,1n,1n,i
e,1n,1n,1n,1n,1n,21,1z,22,1n,1n,1n,1n,1n,1n,i
e,1n,1n,1n,1n,1n,21,1z,22,1n,1n,1n,1n,1n,1n,i
e,1n,1n,1n,1n,1n,21,1z,22,1n,1n,1n,1n,1n,1n,i
e,1n,1n,1n,1n,1n,21,1z,22,1n,1n,1n,1n,1n,1n,i
e,1n,1n,1n,1n,1n,21,1z,22,1n,1n,1n,1n,1n,1n,i
e,1n,1n,1n,1n,1n,21,1z,22,1n,1n,1n,1n,1n,1n,i
e,1n,1n,1n,1n,1n,21,20,22,1n,1n,1n,1n,1n,1n,i
e,1n,1n,1n,1n,1n,21,2e,22,1n,1n,1n,1n,1n,1n,i
e,1n,1n,1n,1n,1n,1n,1n,1n,1n,1n,1n,1n,1n,1n,i
e,1n,1n,1n,1n,1n,1o,1o,1o,1o,1n,1n,1n,1n,1n,i
f,g,g,g,g,g,k,l,m,o,g,g,g,g,g,h
NAME room ?.0
EXT 7,4 a 3,3
EXT 7,12 h 7,5
PAL 6

ROOM h
c,d,d,d,d,d,d,d,d,d,d,d,d,d,d,j
e,1n,1n,1n,1n,1n,1n,1n,1n,1n,1n,1n,1n,1n,1n,i
e,1n,1n,1n,1n,1n,1n,1n,1n,1n,1n,1n,1n,1n,1n,i
e,1n,1n,1n,1n,1n,33,33,33,1n,1n,1n,1n,1n,1n,i
e,1n,1n,1n,1n,1n,28,2d,28,1n,1n,1n,1n,1n,1n,i
e,1n,1n,1n,1n,1n,28,1z,28,1n,1n,1n,1n,1n,1n,i
e,1n,1n,1n,1n,1n,28,1z,28,1n,1n,1n,1n,1n,1n,i
e,1n,1n,1n,1n,1n,28,1z,28,1n,1n,1n,1n,1n,1n,i
e,1n,1n,1n,1n,1n,28,1z,28,1n,1n,1n,1n,1n,1n,i
e,1n,1n,1n,1n,1n,28,1z,28,1n,1n,1n,1n,1n,1n,i
e,1n,1n,1n,1n,1n,28,1z,28,1n,1n,1n,1n,1n,1n,i
e,1n,1n,1n,1n,1n,28,20,28,1n,1n,1n,1n,1n,1n,i
e,1n,1n,1n,1n,1n,0,2e,0,1n,1n,1n,1n,1n,1n,i
e,1n,1n,1n,1n,1n,27,27,27,1n,1n,1n,1n,1n,1n,i
e,1n,1n,1n,1n,1n,1o,1o,1o,1o,1n,1n,1n,1n,1n,i
f,g,g,g,g,g,k,l,m,o,g,g,g,g,g,h
NAME room ?.1
EXT 7,4 g 7,11
EXT 7,12 i 7,5
PAL 6

ROOM i
c,d,d,d,d,d,d,d,d,d,d,d,d,d,d,j
e,1n,1n,1n,1n,1n,1n,1n,1n,1n,1n,1n,1n,1n,1n,i
e,1n,1n,1n,1n,1n,1o,1o,1o,1n,1n,1n,1n,1n,1n,i
e,1n,1n,1n,1n,21,0,0,0,22,1n,1n,1n,1n,1n,i
e,1n,1n,1n,1n,21,28,2d,28,22,1n,1n,1n,1n,1n,i
e,1n,1n,1n,1n,21,28,1z,28,22,1n,1n,1n,1n,1n,i
e,1n,1n,1n,1n,21,28,1z,28,22,1n,1n,1n,1n,1n,i
e,1n,1n,1n,1n,21,28,1z,28,22,1n,1n,1n,1n,1n,i
e,1n,1n,1n,1n,21,28,1z,28,22,1n,1n,1n,1n,1n,i
e,1n,1n,1n,1n,21,28,1z,28,22,1n,1n,1n,1n,1n,i
e,1n,1n,1n,1n,21,28,1z,28,22,1n,1n,1n,1n,1n,i
e,1n,1n,1n,1n,21,28,20,28,22,1n,1n,1n,1n,1n,i
e,1n,1n,1n,1n,21,28,2e,28,22,1n,1n,1n,1n,1n,i
e,1n,1n,1n,1n,21,0,0,0,22,1n,1n,1n,1n,1n,i
e,1n,1n,1n,1n,1n,1o,1o,1o,1o,1n,1n,1n,1n,1n,i
f,g,g,g,g,g,k,l,m,o,g,g,g,g,g,h
NAME room ?.2
EXT 7,4 h 7,11
EXT 7,12 j 7,5
PAL 6

ROOM j
c,d,d,d,d,d,d,d,d,d,d,d,d,d,d,j
e,29,0,0,0,0,0,0,29,0,0,0,0,29,0,i
e,0,0,0,29,0,0,0,0,0,0,29,0,0,0,i
e,0,29,0,0,0,0,0,0,0,0,0,0,0,0,i
e,0,0,0,0,0,28,2d,28,0,0,0,0,29,0,i
e,0,0,29,0,0,28,1z,28,0,29,0,0,0,0,i
e,29,0,0,0,0,28,1z,28,0,0,0,0,0,0,i
e,0,0,0,0,0,1i,20,1h,1j,0,0,29,0,0,i
e,0,0,1i,2m,1h,1k,0,2c,1l,1j,0,0,0,0,i
e,0,1i,1k,2c,0,0,0,0,2b,1l,1h,1j,0,0,i
e,0,10,0,0,0,0,0,0,0,0,0,10,0,0,i
e,0,10,2c,0,0,2b,0,0,0,0,2c,10,0,0,i
e,0,15,14,2c,0,0,0,0,2c,12,13,16,0,29,i
e,0,0,15,13,13,13,13,13,13,16,0,0,0,0,i
e,29,0,0,0,0,0,0,0,0,0,0,29,0,0,i
f,g,g,g,g,g,k,l,m,o,g,g,g,g,g,h
NAME room ?.3
ITM 0 11,11
EXT 7,4 i 7,11
EXT 4,8 15 4,8
PAL 6

ROOM k
c,d,d,d,d,d,d,d,d,d,d,d,d,d,d,j
e,1n,1n,10,2d,10,1n,1n,1n,1n,1n,1n,1n,1n,1n,i
e,1n,1n,10,0,10,1n,1n,1n,1n,1n,1n,1n,1n,1n,i
e,1n,1n,10,0,10,1n,1n,1n,1n,1n,1n,1n,1n,1n,i
e,1n,1n,10,0,10,1n,1n,1n,1o,1o,1o,1n,1n,1n,i
e,1n,1n,10,0,10,1n,1o,1o,1i,1h,1j,1n,1n,1n,i
e,1o,1o,10,0,10,1o,1i,1h,1k,0,10,1n,1n,1n,i
e,1h,1h,1k,0,1l,1j,10,0,0,0,10,1n,1n,1n,i
e,2g,0,0,0,2c,1l,1k,2c,2c,0,10,1n,1n,1n,i
e,13,13,13,14,2c,2c,0,2c,12,13,16,1n,1n,1n,i
e,1n,1n,1n,15,13,13,13,13,16,1n,1n,1n,1n,1n,i
e,1n,1n,1n,1n,1n,1n,1n,1n,1n,1n,1n,1n,1n,1n,i
e,1n,1n,1n,1n,1n,1n,1n,1n,1n,1n,1n,1n,1n,1n,i
e,1n,1n,1n,1n,1n,1n,1n,1n,1n,1n,1n,1n,2w,1n,i
e,1n,1n,1n,1n,1n,1o,1o,1o,1o,1n,1n,1n,1n,1n,i
f,g,g,g,g,g,k,l,m,1r,g,g,g,g,g,h
NAME room 2.1
ITM 0 10,6
EXT 4,1 c 4,14
EXT 1,8 l 14,8
PAL 2

ROOM l
c,d,d,d,d,d,d,d,d,d,d,d,d,d,d,j
e,1n,1n,1n,1n,1o,1o,1o,1o,1o,1o,1o,1n,1n,1n,i
e,1n,1n,1o,1o,1i,1h,1h,1h,1h,1h,1j,1o,1o,1n,i
e,1o,1o,1i,1h,1k,0,2h,0,0,0,1l,1h,1j,1n,i
e,1i,1h,1k,0,0,0,12,14,0,0,0,0,10,1n,i
e,10,0,0,0,0,0,1l,1k,0,0,0,0,10,1n,i
e,10,0,0,0,0,0,0,0,0,12,14,2h,10,1o,i
e,10,0,12,14,2h,12,14,0,0,10,10,0,1l,1h,i
e,10,0,1l,1k,0,10,15,14,2h,10,10,0,0,2f,i
e,10,0,2h,0,0,1l,1h,1k,0,1l,1k,0,12,13,i
e,15,13,13,14,0,0,0,2h,0,0,0,0,10,1n,i
e,1i,1h,1h,1k,0,0,12,14,0,0,0,0,10,1n,i
e,10,0,0,0,0,0,10,15,13,13,13,13,16,1n,i
e,10,0,12,13,13,13,16,1n,1n,1n,1n,1n,1n,1n,i
e,10,2e,10,1n,1n,1o,1o,1o,1o,1n,1n,1n,1n,1n,i
f,g,g,g,g,g,k,l,m,1r,g,g,g,g,g,h
NAME room 2.2
EXT 14,8 k 1,8
EXT 2,14 m 2,1
EXT 7,3 8 7,3
EXT 3,9 8 3,9
EXT 8,10 8 8,10
EXT 12,6 8 12,6
PAL 2

ROOM m
c,d,d,d,d,d,d,d,d,d,d,d,d,d,d,j
e,10,2d,10,1n,1n,1n,1n,1n,1n,1n,1n,1n,1n,1n,i
e,10,0,10,1o,1o,1o,1o,1n,1n,1n,1n,1n,1n,1n,i
e,10,0,1l,1h,1h,1h,1j,1n,1n,1n,1n,1n,1n,1n,i
e,10,0,2i,0,0,0,10,1o,1o,1o,1o,1o,1n,1n,i
e,15,13,14,0,0,0,10,1i,1h,1f,y,18,1n,1n,i
e,1n,1n,10,0,0,0,1l,1k,2i,u,0,10,1n,1n,i
e,1n,1n,15,14,2j,2i,2j,2i,2i,10,0,10,1o,1n,i
e,1n,1n,1n,10,2j,2i,2i,2i,2j,u,0,x,18,1n,i
e,1n,1n,1n,15,14,2j,2i,2j,2i,10,0,0,10,1n,i
e,1n,1n,1n,1n,15,13,2l,13,14,10,0,0,10,1o,i
e,1n,1n,1n,1n,1n,1n,1n,1n,1a,16,0,0,x,y,i
e,1n,1n,1n,1n,1n,1n,1n,1n,15,13,14,0,0,2f,i
e,1n,1n,1n,1n,1n,1n,1n,1n,1n,1n,15,13,13,13,i
e,1n,1n,1n,1n,1n,1o,1o,1o,1o,1n,1n,1n,1n,1n,i
f,g,g,g,g,g,k,l,m,1r,g,g,g,g,g,h
NAME room 2.3
EXT 2,1 l 2,14
EXT 14,12 n 1,12
EXT 5,7 7 5,7
EXT 5,8 7 5,8
EXT 6,9 7 6,9
EXT 8,9 7 8,9
EXT 9,8 7 9,8
EXT 7,7 7 7,7
EXT 7,10 1d 7,10
PAL 2

ROOM n
c,d,d,d,d,d,d,d,d,d,d,d,d,d,d,j
e,1n,1n,1o,1o,1n,1o,1o,1n,1n,1n,1o,1o,1n,1n,i
e,1n,21,2r,0,0,2p,0,0,0,0,0,2r,22,1n,i
e,1n,24,2u,2v,0,2o,0,0,2s,2t,0,2q,25,1n,i
e,1n,17,y,y,y,y,y,y,y,y,y,y,18,1n,i
e,1n,10,2k,0,0,2k,0,0,2k,0,0,2k,10,1o,i
e,1n,10,0,0,0,0,0,0,0,0,0,0,10,2d,i
e,1n,10,0,0,0,0,0,0,0,0,0,0,10,1z,i
e,1n,10,0,0,0,0,0,0,0,0,0,0,10,1z,i
e,1n,15,13,14,0,17,y,y,18,0,17,y,1d,1z,i
e,1o,1o,1o,10,0,10,2h,0,10,0,10,2k,10,1z,i
e,1h,1f,y,z,0,15,13,13,16,0,10,0,1l,20,i
e,2g,u,0,0,0,0,0,0,0,0,10,0,0,0,i
e,13,1b,13,13,13,13,13,13,13,13,1b,13,13,13,i
e,1n,1n,1n,1n,1n,1o,1o,1o,1o,1n,1n,1n,1n,1n,i
f,g,g,g,g,g,k,l,m,1r,g,g,g,g,g,h
NAME room 2.4
EXT 1,12 m 14,12
EXT 14,6 o 14,11
EXT 3,5 n 8,10
EXT 6,5 n 12,10
EXT 9,5 n 8,10
EXT 12,5 n 8,10
EXT 12,10 n 6,5
EXT 7,10 6 7,10
PAL 2

ROOM o
c,d,d,d,d,d,d,d,d,d,d,d,d,d,d,j
e,1n,1n,1n,1n,1n,1o,1o,1o,1o,1o,1o,1n,1n,1n,i
e,1n,1n,1n,1n,1n,17,y,y,y,y,18,1n,1n,1n,i
e,1n,1n,1n,1n,1n,10,2a,0,0,0,10,1n,1n,1n,i
e,1n,1n,1n,1n,1n,10,0,0,0,2a,10,1o,1n,1n,i
e,1n,1n,1o,1o,1o,10,0,0,0,0,x,18,1n,1n,i
e,1n,1o,17,y,y,z,0,0,0,0,0,10,1n,1n,i
e,1o,17,z,0,0,0,0,0,17,y,p,1d,1n,1n,i
e,y,z,0,0,0,0,0,17,z,0,0,10,1o,1o,i
e,2g,0,0,0,0,0,0,10,0,0,0,1l,1h,1h,i
e,13,14,0,0,0,0,0,s,0,0,0,0,0,0,i
e,1n,15,13,13,14,0,0,10,0,0,0,0,12,1z,i
e,1n,1n,1n,1n,10,0,12,1b,14,0,0,12,1b,13,i
e,1n,1n,1n,1n,15,13,16,1n,15,13,13,16,1n,1n,i
e,1n,1n,1n,1n,1n,1o,1o,1o,1o,1n,1n,1n,1n,1n,i
f,g,g,g,g,g,k,l,m,1s,g,g,g,g,g,h
NAME room 3.4
EXT 1,9 p 14,9
EXT 14,11 n 14,7
PAL 3

ROOM p
c,d,d,d,d,d,d,d,d,d,d,d,d,d,d,j
e,1n,10,2d,10,1o,1o,1o,1o,1o,1o,1o,1n,1n,1n,i
e,1n,10,0,1l,1h,1h,1h,1h,1h,1h,1j,1n,1n,1n,i
e,1n,10,0,0,0,0,0,0,0,0,10,1n,1n,1n,i
e,1n,15,14,0,0,0,0,0,0,0,0,0,1n,1n,i
e,1n,1i,1k,0,0,0,0,0,0,0,1l,1j,1n,1n,i
e,1n,10,0,0,0,0,0,0,0,0,0,10,1n,1n,i
e,1n,10,0,12,13,13,13,13,13,14,0,10,1o,1o,i
e,1n,10,0,1l,1j,1i,1h,1j,1i,1k,0,1e,y,y,i
e,1n,10,0,2d,1l,1k,2d,1l,1k,2d,0,u,0,2f,i
e,1n,10,0,2z,0,0,30,0,0,31,0,10,12,13,i
e,1n,15,14,2e,12,14,2e,12,14,2e,12,1b,16,1n,i
e,1n,1n,15,13,16,15,13,16,15,13,16,1n,1n,1n,i
e,1n,1n,1n,1n,1n,1n,1n,1n,1n,1n,1n,1n,1n,1n,i
e,1n,1n,1n,1n,1n,1o,1o,1o,1o,1n,1n,1n,1n,1n,i
f,g,g,g,g,g,k,l,m,1s,g,g,g,g,g,h
NAME room 3.3
EXT 3,1 q 3,14
EXT 14,9 o 1,9
PAL 3

ROOM q
c,d,d,d,d,d,d,d,d,d,d,d,d,d,d,j
e,1n,1n,1n,1o,1o,1o,1o,1o,1o,1o,1o,1o,1o,1o,i
e,1n,1n,1n,17,y,y,y,1g,1h,1h,1h,1h,1h,1h,i
e,1n,1o,1o,10,2a,0,0,s,0,0,0,0,0,2f,i
e,1n,17,y,z,0,0,12,1b,13,14,0,12,13,13,i
e,1n,10,0,0,0,0,x,y,1g,1k,0,10,1n,1n,i
e,1n,10,0,12,14,0,0,0,15,13,13,19,1n,1n,i
e,1n,1e,y,1d,15,13,14,0,0,0,2a,10,1n,1n,i
e,1n,10,0,1l,1h,1f,z,0,0,12,13,16,1n,1n,i
e,1n,10,0,0,0,u,0,0,12,16,1n,1n,1n,1n,i
e,1n,10,0,0,12,1b,14,0,10,1n,1n,1n,1n,1n,i
e,1n,10,0,2a,10,1n,15,2l,16,1n,1n,1n,1n,1n,i
e,1n,10,0,12,16,1n,1n,1n,1n,1n,1n,1n,1n,1n,i
e,1n,10,0,10,1n,1n,1n,1n,1n,1n,1n,1n,1n,1n,i
e,1n,10,2e,10,1n,1o,1o,1o,1o,1n,1n,1n,1n,1n,i
f,g,g,g,g,g,k,l,m,1s,g,g,g,g,g,h
NAME room 3.2
EXT 3,14 p 3,1
EXT 14,3 r 1,3
EXT 8,11 16 8,11
PAL 3

ROOM r
c,d,d,d,d,d,d,d,d,d,d,d,d,d,d,j
e,1o,1o,1o,1o,1o,1n,1n,1n,1o,10,2d,10,1n,1n,i
e,y,y,y,y,18,1n,1n,1n,1i,1k,0,10,1n,1n,i
e,2g,0,0,0,10,1n,1n,1n,10,2a,0,10,1n,1n,i
e,13,14,0,0,10,1n,1n,1n,10,0,12,16,1n,1n,i
e,1n,1e,p,p,1d,1o,1o,1o,10,0,1l,1j,1n,1n,i
e,1n,10,0,0,1l,1h,1j,1i,1k,0,2a,10,1n,1n,i
e,1n,10,0,0,2h,2h,1l,1k,2h,0,0,10,1n,1n,i
e,1n,10,0,0,2h,2h,2h,2h,2h,0,0,10,1n,1n,i
e,1n,10,0,0,2h,2h,2h,2h,2h,0,0,10,1n,1n,i
e,1n,15,13,13,13,14,2h,2h,2h,12,13,16,1n,1n,i
e,1n,1n,1n,1n,1n,15,13,13,13,16,1n,1n,1n,1n,i
e,1n,1n,1n,1n,1n,1n,1n,1n,1n,1n,1n,1n,1n,1n,i
e,1n,1n,1n,1n,1n,1n,1n,1n,1n,1n,1n,1n,1n,1n,i
e,1n,1n,1n,1n,1n,1o,1o,1o,1o,1n,1n,1n,1n,1n,i
f,g,g,g,g,g,k,l,m,1s,g,g,g,g,g,h
NAME room 3.1
EXT 1,3 q 14,3
EXT 11,1 s 11,14
EXT 5,8 k 5,8
EXT 5,9 k 5,9
EXT 6,9 k 6,9
EXT 8,9 k 8,9
EXT 8,8 k 8,8
EXT 9,8 k 9,8
PAL 3

ROOM s
c,d,d,d,d,d,d,d,d,d,d,d,d,d,d,j
e,1n,1n,1n,1n,1n,21,2d,2d,22,1n,1n,1n,1n,1n,i
e,1n,1o,1o,1o,1o,21,1z,1z,22,1o,1o,1o,1o,1n,i
e,1n,1i,1h,1h,1j,21,1z,1z,22,1i,1h,1h,1j,1n,i
e,1n,10,0,2a,10,21,1z,1z,22,10,0,0,10,1n,i
e,1n,10,0,0,10,24,1z,1z,25,10,2a,0,10,1n,i
e,1n,10,0,0,1e,y,20,20,y,1d,0,0,10,1n,i
e,1n,10,0,0,u,0,0,0,0,s,0,0,10,1n,i
e,1n,10,0,0,u,0,0,0,0,s,0,2a,10,1n,i
e,1n,10,0,0,x,y,p,p,y,z,0,0,10,1n,i
e,1n,10,0,0,2a,0,0,0,0,0,2a,0,10,1n,i
e,1n,10,2a,0,0,0,0,0,0,0,0,0,10,1n,i
e,1n,15,13,13,13,13,13,13,13,14,0,12,16,1n,i
e,1n,1n,1n,1n,1n,1n,1n,1n,1n,10,0,10,1n,1n,i
e,1n,1n,1n,1n,1n,1o,1o,1o,1o,10,2e,10,1n,1n,i
f,g,g,g,g,g,k,l,m,1s,g,g,g,g,g,h
NAME room 3.0
EXT 11,14 r 11,1
EXT 7,1 t 7,6
EXT 8,1 t 8,6
PAL 3

ROOM t
c,d,d,d,d,d,d,d,d,d,d,d,d,d,d,j
e,1i,1h,1h,1h,1h,1h,1h,1h,1h,1h,1h,1k,2d,10,i
e,10,0,0,0,0,0,0,0,0,0,0,0,0,10,i
e,10,0,12,13,13,13,13,13,13,13,13,14,0,10,i
e,10,0,10,1i,1h,1h,1h,1h,1h,1h,1j,10,0,10,i
e,10,0,10,10,0,0,0,0,0,0,10,10,0,10,i
e,10,0,10,10,0,12,1z,1z,14,0,10,10,0,10,i
e,10,0,10,10,0,10,28,28,10,0,10,10,0,10,i
e,10,0,10,10,0,10,0,0,10,0,10,10,0,10,i
e,10,0,10,10,0,15,13,13,16,0,10,10,0,10,i
e,10,0,10,10,0,0,0,0,0,0,10,10,0,10,i
e,10,0,10,15,13,14,0,0,12,13,16,10,0,10,i
e,10,0,1l,1h,1h,1k,0,0,1l,1h,1h,1k,0,10,i
e,10,0,0,0,0,0,0,0,0,0,0,0,0,10,i
e,15,13,13,13,13,13,13,13,13,13,13,13,13,16,i
f,g,g,g,g,g,k,l,m,1t,g,g,g,g,g,h
NAME room 4.0
EXT 13,1 u 13,14
EXT 7,6 s 7,2
EXT 8,6 s 8,2
PAL 4

ROOM u
c,d,d,d,d,d,d,d,d,d,d,d,d,d,d,j
e,29,0,0,0,10,2d,2d,2d,2d,10,0,0,29,0,i
e,0,0,0,29,10,0,0,0,0,10,0,0,0,0,i
e,0,0,0,0,10,0,0,0,0,10,29,0,0,0,i
e,0,29,0,0,10,0,0,0,0,10,0,0,0,0,i
e,0,0,0,29,10,0,0,0,0,10,0,0,29,0,i
e,0,0,0,0,10,0,0,0,0,10,0,0,0,29,i
e,0,0,29,0,10,0,0,0,0,10,0,29,0,0,i
e,13,13,13,14,10,0,0,0,0,10,12,13,13,13,i
e,1n,1n,1n,1a,16,0,0,0,0,15,19,1n,1n,1n,i
e,1o,1o,1o,10,0,0,0,0,0,0,10,1o,1o,1o,i
e,1i,1h,1h,1k,0,0,0,0,0,0,1l,1h,1h,1j,i
e,10,0,0,u,0,0,0,0,0,0,s,0,0,10,i
e,15,13,13,1b,13,13,13,13,13,13,1b,14,0,10,i
e,1n,1n,1n,1n,1n,1o,1o,1o,1o,1n,1n,10,2e,10,i
f,g,g,g,g,g,k,l,m,1t,g,g,g,g,g,h
NAME room 4.1
ITM 0 2,12
EXT 13,14 t 13,1
EXT 7,1 v 7,14
EXT 8,1 v 8,14
EXT 6,1 v 6,14
EXT 9,1 v 9,14
PAL 4

ROOM v
c,d,d,d,d,d,d,d,d,d,d,d,d,d,d,j
e,0,0,0,0,10,2d,2d,2d,2d,10,0,29,0,0,i
e,0,0,29,0,10,0,0,0,0,10,0,0,0,0,i
e,0,0,0,29,10,0,0,0,0,10,0,0,0,0,i
e,0,0,0,0,10,0,0,0,0,10,0,0,29,0,i
e,29,0,0,0,10,2h,2h,2h,2h,10,29,0,0,0,i
e,0,0,0,0,10,2h,2h,2h,2h,10,0,0,0,0,i
e,0,0,0,0,10,2h,2h,2h,2h,10,0,0,0,29,i
e,0,0,29,0,10,2h,2h,2h,2h,10,0,0,0,0,i
e,0,0,0,0,10,2h,2h,2h,2h,10,0,29,0,0,i
e,0,29,0,0,10,2h,2h,2h,2h,10,0,0,0,29,i
e,0,0,0,0,10,0,32,0,0,10,0,0,0,0,i
e,0,0,0,29,10,0,0,0,0,10,0,0,0,0,i
e,0,0,0,0,10,0,0,0,0,10,0,29,0,0,i
e,29,0,0,0,10,2e,2e,2e,2e,10,29,0,0,0,i
f,g,g,g,g,g,k,l,m,1t,g,g,g,g,g,h
NAME room 4.2
EXT 6,14 u 6,1
EXT 7,14 u 7,1
EXT 8,14 u 8,1
EXT 9,14 u 9,1
EXT 6,10 w 7,7
EXT 7,10 w 7,7
EXT 9,10 w 7,7
EXT 9,9 w 7,7
EXT 8,8 w 7,7
EXT 7,8 w 7,7
EXT 6,6 w 7,7
EXT 7,6 w 7,7
EXT 9,7 w 7,7
EXT 8,5 w 7,7
EXT 7,5 w 7,7
EXT 6,5 w 7,7
EXT 6,1 18 6,14
EXT 7,1 18 7,14
EXT 8,1 18 8,14
EXT 9,1 18 9,14
PAL 4

ROOM w
c,d,d,d,d,d,d,d,d,d,d,d,d,d,d,j
e,1n,1n,1n,1n,1n,1n,1n,1n,1n,1n,1n,1n,1n,1n,i
e,1n,1n,1n,1n,1n,1n,1n,1n,1n,1n,1n,1n,1n,1n,i
e,1n,1n,1n,1n,1n,1n,1n,1n,1n,1n,1n,1n,1n,1n,i
e,1n,1n,1n,1n,1o,1o,1o,1o,1o,1o,1n,1n,1n,1n,i
e,1n,1n,1n,1n,12,13,13,13,13,14,1n,1n,1n,1n,i
e,1n,1n,1n,1n,10,28,28,28,28,10,1n,1n,1n,1n,i
e,1n,1n,1n,1n,10,28,0,28,28,10,1n,1n,1n,1n,i
e,1n,1n,1n,1n,10,28,28,28,28,10,1n,1n,1n,1n,i
e,1n,1n,1n,1n,10,28,28,28,28,10,1n,1n,1n,1n,i
e,1n,1n,1n,1n,15,13,13,13,13,16,1n,1n,1n,1n,i
e,1n,1n,1n,1n,1n,1n,1n,1n,1n,1n,1n,1n,1n,1n,i
e,1n,1n,1n,1n,1n,1n,1n,1n,1n,1n,1n,1n,1n,1n,i
e,1n,1n,1n,1n,1n,1n,1n,1n,1n,1n,1n,1n,1n,1n,i
e,1n,1n,1n,1n,1n,1o,1o,1o,1o,1n,1n,1n,1n,1n,i
f,g,g,g,g,g,k,l,m,1s,g,g,g,g,g,h
NAME room 3.?
EXT 7,7 x 7,7
PAL 3

ROOM x
c,d,d,d,d,d,d,d,d,d,d,d,d,d,d,j
e,1n,1n,1n,1n,1n,1n,1n,1n,1n,1n,1n,1n,1n,1n,i
e,1n,1n,1n,1n,1n,1n,1n,1n,1n,1n,1n,1n,1n,1n,i
e,1n,1n,1n,1n,1n,1n,1n,1n,1n,1n,1n,1n,1n,1n,i
e,1n,1n,1n,1n,1n,1o,1o,1o,1o,1n,1n,1n,1n,1n,i
e,1n,1n,1n,1n,1o,12,13,13,14,1n,1n,1n,1n,1n,i
e,1n,1n,1n,1n,12,16,28,28,10,1n,1n,1n,1n,1n,i
e,1n,1n,1n,1n,10,28,0,28,10,1n,1n,1n,1n,1n,i
e,1n,1n,1n,1n,10,28,28,28,10,1n,1n,1n,1n,1n,i
e,1n,1n,1n,1n,15,13,13,13,16,1n,1n,1n,1n,1n,i
e,1n,1n,1n,1n,1n,1n,1n,1n,1n,1n,1n,1n,1n,1n,i
e,1n,1n,1n,1n,1n,1n,1n,1n,1n,1n,1n,1n,1n,1n,i
e,1n,1n,1n,1n,1n,1n,1n,1n,1n,1n,1n,1n,1n,1n,i
e,1n,1n,1n,1n,1n,1n,1n,1n,1n,1n,1n,1n,1n,1n,i
e,1n,1n,1n,1n,1n,1o,1o,1o,1o,1n,1n,1n,1n,1n,i
f,g,g,g,g,g,k,l,m,1r,g,g,g,g,g,h
NAME room 2.?
EXT 7,7 y 7,7
PAL 2

ROOM y
c,d,d,d,d,d,d,d,d,d,d,d,d,d,d,j
e,1n,1n,1n,1n,1n,1n,1n,1n,1n,1n,1n,1n,1n,1n,i
e,1n,1n,1n,1n,1n,1n,1n,1n,1n,1n,1n,1n,1n,1n,i
e,1n,1n,1n,1n,1n,1n,1n,1n,1n,1n,1n,1n,1n,1n,i
e,1n,1n,1n,1n,1n,1n,1o,1o,1o,1n,1n,1n,1n,1n,i
e,1n,1n,1n,1n,1n,1o,12,13,14,1n,1n,1n,1n,1n,i
e,1n,1n,1n,1n,1o,12,16,28,10,1n,1n,1n,1n,1n,i
e,1n,1n,1n,1n,12,16,0,28,10,1n,1n,1n,1n,1n,i
e,1n,1n,1n,1n,10,28,28,12,16,1n,1n,1n,1n,1n,i
e,1n,1n,1n,1n,15,13,13,16,1n,1n,1n,1n,1n,1n,i
e,1n,1n,1n,1n,1n,1n,1n,1n,1n,1n,1n,1n,1n,1n,i
e,1n,1n,1n,1n,1n,1n,1n,1n,1n,1n,1n,1n,1n,1n,i
e,1n,1n,1n,1n,1n,1n,1n,1n,1n,1n,1n,1n,1n,1n,i
e,1n,1n,1n,1n,1n,1n,1n,1n,1n,1n,1n,1n,1n,1n,i
e,1n,1n,1n,1n,1n,1o,1o,1o,1o,1n,1n,1n,1n,1n,i
f,g,g,g,g,g,k,l,m,1q,g,g,g,g,g,h
NAME room 1.?
EXT 7,7 z 7,7
PAL 1

ROOM z
c,d,d,d,d,d,d,d,d,d,d,d,d,d,d,j
e,1n,1n,1n,1n,1n,1n,1n,1n,1n,1n,1n,1n,1n,1n,i
e,1n,1n,1n,1n,1n,1n,1n,1n,1n,1n,1n,1n,1n,1n,i
e,1n,1n,1n,1n,1n,1n,1n,1n,1n,1n,1n,1n,1n,1n,i
e,1n,1n,1n,1n,1n,1n,1n,1n,1n,1n,1n,1n,1n,1n,i
e,1n,1n,1n,1n,1n,1o,1o,1o,1n,1n,1n,1n,1n,1n,i
e,1n,1n,1n,1n,1n,12,13,14,1o,1n,1n,1n,1n,1n,i
e,1n,1n,1n,1n,1n,10,0,15,14,1n,1n,1n,1n,1n,i
e,1n,1n,1n,1n,1n,15,14,12,16,1n,1n,1n,1n,1n,i
e,1n,1n,1n,1n,1n,1n,15,16,1n,1n,1n,1n,1n,1n,i
e,1n,1n,1n,1n,1n,1n,1n,1n,1n,1n,1n,1n,1n,1n,i
e,1n,1n,1n,1n,1n,1n,1n,1n,1n,1n,1n,1n,1n,1n,i
e,1n,1n,1n,1n,1n,1n,1n,1n,1n,1n,1n,1n,1n,1n,i
e,1n,1n,1n,1n,1n,1n,1n,1n,1n,1n,1n,1n,1n,1n,i
e,1n,1n,1n,1n,1n,1o,1o,1o,1o,1n,1n,1n,1n,1n,i
f,g,g,g,g,g,k,l,m,1p,g,g,g,g,g,h
NAME room 0.?
EXT 7,7 10 7,7
PAL 0

ROOM 1a
c,d,d,d,d,d,d,d,d,d,d,d,d,d,d,j
e,0,0,0,0,0,0,0,0,0,0,0,0,0,0,i
e,0,0,0,0,0,0,0,0,0,0,0,0,0,0,i
e,0,0,0,0,0,28,2d,2d,28,0,0,0,0,0,i
e,0,0,0,0,0,28,1z,1z,28,0,0,0,0,0,i
e,0,0,0,0,0,28,1z,1z,28,0,0,0,0,0,i
e,0,0,0,0,0,28,1z,1z,28,0,0,0,0,0,i
e,0,0,0,0,0,28,1z,1z,28,0,0,0,0,0,i
e,0,0,0,0,0,28,1z,1z,28,0,0,0,0,0,i
e,0,0,0,0,0,28,1z,1z,28,0,0,0,0,0,i
e,0,0,0,0,0,28,1z,1z,28,0,0,0,0,0,i
e,0,0,0,0,0,28,1z,1z,28,0,0,0,0,0,i
e,0,0,0,0,0,28,20,20,28,0,0,0,0,0,i
e,0,0,0,0,0,28,2e,2e,28,0,0,0,0,0,i
e,0,0,0,0,0,0,0,0,0,0,0,0,0,0,i
f,g,g,g,g,g,k,l,m,1v,g,g,g,g,g,h
NAME room 6.0
EXT 7,13 19 7,4
EXT 8,13 19 8,4
EXT 7,3 1b 7,12
EXT 8,3 1b 8,12
EXT 6,10 0 0,0
PAL 7

ROOM 1b
c,d,d,d,d,d,d,d,d,d,d,d,d,d,d,j
e,0,0,0,0,0,0,0,0,0,0,0,0,0,0,i
e,0,0,0,0,0,0,0,0,0,0,0,0,0,0,i
e,0,0,0,0,0,28,2d,2d,28,0,0,0,0,0,i
e,0,0,0,0,0,28,1z,1z,28,0,0,0,0,0,i
e,0,0,0,0,0,28,1z,1z,28,0,0,0,0,0,i
e,0,0,0,0,0,28,1z,1z,28,0,0,0,0,0,i
e,0,0,0,0,0,28,1z,1z,28,0,0,0,0,0,i
e,0,0,0,0,0,28,1z,1z,28,0,0,0,0,0,i
e,0,0,0,0,0,28,1z,1z,28,0,0,0,0,0,i
e,0,0,0,0,0,28,1z,1z,28,0,0,0,0,0,i
e,0,0,0,0,0,28,1z,1z,28,0,0,0,0,0,i
e,0,0,0,0,0,28,20,20,28,0,0,0,0,0,i
e,0,0,0,0,0,28,2e,2e,28,0,0,0,0,0,i
e,0,0,0,0,0,0,0,0,0,0,0,0,0,0,i
f,g,g,g,g,g,k,l,m,1w,g,g,g,g,g,h
NAME room 7.0
EXT 7,13 1a 7,4
EXT 8,13 1a 8,4
EXT 7,3 1c 7,12
EXT 8,3 1c 7,12
EXT 6,10 0 0,0
PAL 8

ROOM 1c
c,d,d,d,d,d,d,d,d,d,d,d,d,d,d,j
e,0,0,0,0,0,0,0,0,0,0,0,0,0,0,i
e,0,0,0,0,0,0,0,0,0,0,0,0,0,0,i
e,0,0,0,0,0,0,0,0,0,0,0,0,0,0,i
e,0,0,0,0,0,0,0,0,0,0,0,0,0,0,i
e,0,0,0,0,0,0,0,0,0,0,0,0,0,0,i
e,0,0,0,0,0,0,0,0,0,0,0,0,0,0,i
e,0,0,0,0,0,0,0,0,0,0,0,0,0,0,i
e,0,0,0,0,0,0,0,0,0,0,0,0,0,0,i
e,0,0,0,0,0,0,0,0,0,0,0,0,0,0,i
e,0,0,0,0,0,28,28,28,0,0,0,0,0,0,i
e,0,0,0,0,0,28,0,28,0,0,0,0,0,0,i
e,0,0,0,0,0,28,0,28,0,0,0,0,0,0,i
e,0,0,0,0,0,28,28,28,0,0,0,0,0,0,i
e,0,0,0,0,0,0,0,0,0,0,0,0,0,0,i
f,g,g,g,g,g,k,l,m,1x,g,g,g,g,g,h
NAME room 8.0
EXT 6,10 0 0,0
END 0 7,11
PAL 9

ROOM 1d
c,d,d,d,d,d,d,d,d,d,d,d,d,d,d,j
e,10,2d,10,1n,1n,1n,1n,1n,1n,1n,1n,1n,1n,1n,i
e,10,0,10,1o,1o,1o,1o,1n,1n,1n,1n,1n,1n,1n,i
e,10,0,1l,1h,1h,1h,1j,1n,1n,1n,1n,1n,1n,1n,i
e,10,0,2i,0,0,0,10,1o,1o,1o,1o,1o,1n,1n,i
e,15,13,14,0,0,0,10,1i,1h,1f,y,18,1n,1n,i
e,1n,1n,10,0,0,0,1l,1k,2i,u,0,10,1n,1n,i
e,1n,1n,15,14,2j,2i,2j,2i,2i,10,0,10,1o,1n,i
e,1n,1n,1n,10,2j,2i,2i,2i,2j,u,0,x,18,1n,i
e,1n,1n,1n,15,14,2j,2i,2j,2i,10,0,0,10,1n,i
e,1o,1o,1o,1o,15,14,0,12,14,10,0,0,10,1o,i
e,y,y,y,1g,1h,1k,0,10,1a,16,0,0,x,y,i
e,2g,0,0,s,0,0,0,10,15,13,14,0,0,2f,i
e,13,13,13,1b,13,13,13,16,1n,1n,15,13,13,13,i
e,1n,1n,1n,1n,1n,1o,1o,1o,1o,1n,1n,1n,1n,1n,i
f,g,g,g,g,g,k,l,m,1r,g,g,g,g,g,h
NAME room 2.3b
EXT 7,9 m 7,9
EXT 1,12 1e 14,12
PAL 2

ROOM 1e
c,d,d,d,d,d,d,d,d,d,d,d,d,d,d,j
e,1n,1n,1n,1n,1o,1o,1o,1o,1o,1n,1n,1n,1n,1n,i
e,1n,1n,1o,1o,1i,1h,1h,1h,1j,1o,1o,1o,1n,1n,i
e,1n,1n,1i,1h,1k,0,0,0,1l,1h,1h,1j,1n,1n,i
e,1n,1n,10,2n,0,0,0,0,0,0,0,10,1n,1n,i
e,1n,1n,10,0,0,0,0,0,2a,0,0,10,1n,1n,i
e,1n,1n,10,0,0,0,0,0,0,2a,0,10,1n,1n,i
e,1n,1n,10,2a,0,0,0,0,0,0,0,10,1n,1n,i
e,1n,1n,15,13,14,0,0,2a,0,12,13,16,1n,1n,i
e,1n,1n,1n,1n,1a,p,13,13,p,19,1n,1n,1n,1n,i
e,1n,1n,1n,1n,10,0,0,0,2a,10,1o,1o,1o,1o,i
e,1n,1n,1n,1n,10,0,2a,0,0,x,y,y,y,y,i
e,1n,1n,1n,1n,15,13,13,14,0,0,0,0,0,2f,i
e,1n,1n,1n,1n,1n,1n,1n,15,13,13,13,13,13,13,i
e,1n,1n,1n,1n,1n,1o,1o,1o,1o,1n,1n,1n,1n,1n,i
f,g,g,g,g,g,k,l,m,1r,g,g,g,g,g,h
NAME room 2.3c
EXT 14,12 1d 1,12
EXT 4,4 1f 7,8
PAL 2

ROOM 1f
c,d,d,d,d,d,d,d,d,d,d,d,d,d,d,j
e,1n,1n,1n,1n,1o,1o,1o,1o,1o,1n,1n,1n,1n,1n,i
e,1n,1n,1o,1o,1i,1h,1h,1h,1j,1o,1o,1o,1n,1n,i
e,1n,1n,1i,1h,1k,0,0,2a,1l,1h,1h,1j,1n,1n,i
e,1n,1n,10,2n,0,2a,0,0,0,0,2a,10,1n,1n,i
e,1n,1n,10,0,0,0,0,0,23,0,0,10,1n,1n,i
e,1n,1n,10,0,0,0,2a,0,0,2a,0,10,1n,1n,i
e,1n,1n,10,23,0,0,28,0,0,0,0,10,1n,1n,i
e,1n,1n,15,13,14,28,0,35,0,12,13,16,1n,1n,i
e,1n,1n,1n,1n,1a,p,13,13,p,19,1n,1n,1n,1n,i
e,1n,1n,1n,1n,10,2a,0,0,2a,10,1o,1o,1o,1o,i
e,1n,1n,1n,1n,10,0,23,0,0,x,y,y,y,y,i
e,1n,1n,1n,1n,15,13,13,14,0,0,0,0,0,2f,i
e,1n,1n,1n,1n,1n,1n,1n,15,13,13,13,13,13,13,i
e,1n,1n,1n,1n,1n,1o,1o,1o,1o,1n,1n,1n,1n,1n,i
f,g,g,g,g,g,k,l,m,1r,g,g,g,g,g,h
NAME room 2.3d
EXT 7,8 1g 10,5
PAL 3

ROOM 1g
c,d,d,d,d,d,d,d,d,d,d,d,d,d,d,j
e,1n,1n,1n,1n,1o,1o,1o,1o,1o,1n,1n,1n,1n,1n,i
e,1n,1n,1o,1o,1i,1h,1h,1h,1j,1o,1o,1o,1n,1n,i
e,1n,1n,1i,1h,1k,0,0,2a,1l,1h,1h,1j,1n,1n,i
e,1n,1n,10,2n,0,23,0,0,0,28,2a,10,1n,1n,i
e,1n,1n,10,0,2a,0,0,0,35,0,28,10,1n,1n,i
e,1n,1n,10,0,0,0,23,0,0,34,0,10,1n,1n,i
e,1n,1n,10,23,0,2a,0,0,0,0,2a,10,1n,1n,i
e,1n,1n,15,13,14,0,0,23,0,12,13,16,1n,1n,i
e,1n,1n,1n,1n,1a,p,13,13,p,19,1n,1n,1n,1n,i
e,1n,1n,1n,1n,10,2a,0,0,23,10,1o,1o,1o,1o,i
e,1n,1n,1n,1n,10,0,23,0,0,x,y,y,y,y,i
e,1n,1n,1n,1n,15,13,13,14,2a,0,0,0,0,2f,i
e,1n,1n,1n,1n,1n,1n,1n,15,13,13,13,13,13,13,i
e,1n,1n,1n,1n,1n,1o,1o,1o,1o,1n,1n,1n,1n,1n,i
f,g,g,g,g,g,k,l,m,1r,g,g,g,g,g,h
NAME room 2.3e
ITM 3 8,7
ITM 3 9,4
ITM 3 4,6
EXT 10,5 1h 5,7
PAL 4

ROOM 1h
c,d,d,d,d,d,d,d,d,d,d,d,d,d,d,j
e,1n,1n,1n,1n,1o,1o,1o,1o,1o,1n,1n,1n,1n,1n,i
e,1n,1n,1o,1o,1i,1h,1h,1h,1j,1o,1o,1o,1n,1n,i
e,1n,1n,1i,1h,1k,0,0,23,1l,1h,1h,1j,1n,1n,i
e,1n,1n,10,2n,0,23,0,0,0,0,2a,10,1n,1n,i
e,1n,1n,10,0,23,0,0,0,23,0,0,10,1n,1n,i
e,1n,1n,10,0,28,0,23,0,0,2a,0,10,1n,1n,i
e,1n,1n,10,35,0,34,0,0,0,0,23,10,1n,1n,i
e,1n,1n,15,13,14,0,0,23,0,12,13,16,1n,1n,i
e,1n,1n,1n,1n,1a,p,13,13,p,19,1n,1n,1n,1n,i
e,1n,1n,1n,1n,10,23,0,0,23,10,1o,1o,1o,1o,i
e,1n,1n,1n,1n,10,0,23,0,0,x,y,y,y,y,i
e,1n,1n,1n,1n,15,13,13,14,23,0,0,0,0,2f,i
e,1n,1n,1n,1n,1n,1n,1n,15,13,13,13,13,13,13,i
e,1n,1n,1n,1n,1n,1o,1o,1o,1o,1n,1n,1n,1n,1n,i
f,g,g,g,g,g,k,l,m,1r,g,g,g,g,g,h
NAME room 2.3f
ITM 3 4,6
ITM 3 8,7
ITM 3 9,4
ITM 3 9,9
ITM 3 6,3
ITM 3 7,10
EXT 5,7 1i 7,3
PAL 5

ROOM 1i
c,d,d,d,d,d,d,d,d,d,d,d,d,d,d,j
e,1n,1n,1n,1n,1o,1o,1o,1o,1o,1n,1n,1n,1n,1n,i
e,1n,1n,1o,1o,1i,1h,2m,1h,1j,1o,1o,1o,1n,1n,i
e,1n,1n,1i,1h,1k,0,0,23,1l,1h,1h,1j,1n,1n,i
e,1n,1n,10,2n,0,23,0,2a,0,0,23,10,1n,1n,i
e,1n,1n,10,0,23,0,0,0,23,0,0,10,1n,1n,i
e,1n,1n,10,0,28,0,23,0,0,23,0,10,1n,1n,i
e,1n,1n,10,35,0,23,0,0,2a,0,23,10,1n,1n,i
e,1n,1n,15,13,14,0,2a,23,0,12,13,16,1n,1n,i
e,1n,1n,1n,1n,1a,p,13,13,p,19,1n,1n,1n,1n,i
e,1n,1n,1n,1n,10,23,0,2a,23,10,1o,1o,1o,1o,i
e,1n,1n,1n,1n,10,0,23,0,0,x,y,y,y,y,i
e,1n,1n,1n,1n,15,13,13,14,23,0,0,0,0,2f,i
e,1n,1n,1n,1n,1n,1n,1n,15,13,13,13,13,13,13,i
e,1n,1n,1n,1n,1n,1o,1o,1o,1o,1n,1n,1n,1n,1n,i
f,g,g,g,g,g,k,l,m,1r,g,g,g,g,g,h
NAME room 2.3g
ITM 3 7,10
ITM 3 9,9
ITM 3 4,6
ITM 3 8,7
ITM 3 9,4
ITM 3 6,3
ITM 3 7,5
ITM 3 11,6
ITM 3 9,11
ITM 3 6,9
ITM 3 5,4
ITM 3 8,2
END undefinef 6,3
END undefinef 8,3
END undefinef 7,4
END undefinef 7,2
PAL 7

TIL 10
00010000
00010000
00010000
00010000
00010000
00010000
00010000
00000000
WAL true

TIL 12
00000000
00000000
00000000
00001110
00010000
00010000
00010000
00000000
WAL true

TIL 13
00000000
00000000
00000000
11111110
00000000
00000000
00000000
00000000
WAL true

TIL 14
00000000
00000000
00000000
11100000
00010000
00010000
00010000
00000000
WAL true

TIL 15
00010000
00010000
00010000
00001110
00000000
00000000
00000000
00000000
WAL true

TIL 16
00010000
00010000
00010000
11100000
00000000
00000000
00000000
00000000
WAL true

TIL 17
00000000
00000000
00001110
00011110
00011110
00010000
00010000
00000000
WAL true

TIL 18
00000000
00000000
11100000
11110000
11110000
00010000
00010000
00000000
WAL true

TIL 19
00010000
00010000
00010000
11110000
00010000
00010000
00010000
00000000
WAL true

TIL 20
10000010
11111110
10000010
11111110
10000010
00000000
00000000
00000000

TIL 21
00100000
00010000
10000000
01000000
00100000
00010000
10000000
01000000
WAL true

TIL 22
00000010
00010001
00001000
00000100
00000010
00010001
00001000
00000100
WAL true

TIL 23
00010000
00010000
00010000
01010100
00111000
00010000
00000000
00000000

TIL 24
00100000
00010000
10000000
01000000
00100000
00010000
00000000
00000000
WAL true

TIL 25
00000010
00010001
00001000
00000100
00000010
00000001
00000000
00000000
WAL true

TIL 26
00000000
00010001
00000000
01000100
00000000
00010001
00000000
01000100

TIL 27
00000000
00000000
00000000
00000000
00100010
00010001
10001000
01000100

TIL 28
00000000
00000000
00000000
00000000
00000000
00000000
00000000
00000000
WAL true

TIL 29
00000000
00000000
00000000
00000000
00010000
00000000
00000000
00000000
WAL true

TIL 30
00000000
00010000
00110000
00010000
00010000
00010000
00111000
00000000

TIL 31
00000000
00010000
00101000
00001000
00010000
00100000
00111000
00000000

TIL 32
00000000
00000000
00000000
00010000
00100000
00001000
00000000
00000000

TIL 33
00100010
00010001
10001000
01000100
00000000
00000000
00000000
00000000
WAL true

TIL 34
00000000
00000000
00000000
00000000
00101000
00010000
00000000
00000000
WAL true

TIL 35
00010000
00010000
00010000
01010100
00111000
00010000
00000000
00000000
WAL true

TIL b
11111110
11111110
11111110
11111110
11111110
11111110
11111110
00000000
WAL true

TIL c
00000000
01111111
01000000
01011111
01011111
01011110
01011100
01011000
WAL true

TIL d
00000000
11111111
00000000
11111111
11111111
00000000
00000000
00000000
WAL true

TIL e
01011000
01011000
01011000
01011000
01011000
01011000
01011000
01011000
WAL true

TIL f
01011000
01011100
01011110
01011111
01011111
01000000
01111111
00000000
WAL true

TIL g
00000000
00000000
00000000
11111111
11111111
00000000
11111111
00000000
WAL true

TIL h
00011010
00111010
01111010
11111010
11111010
00000010
11111110
00000000
WAL true

TIL i
00011010
00011010
00011010
00011010
00011010
00011010
00011010
00011010
WAL true

TIL j
00000000
11111110
00000010
11111010
11111010
01111010
00111010
00011010
WAL true

TIL k
00000000
00010001
00010001
00010001
00010001
00010001
00011101
00000000
WAL true

TIL l
00000000
11010101
00010101
10010101
00010101
00010101
11001001
00000000
WAL true

TIL m
00000000
11010000
00010000
10010000
00010000
00010000
11011100
00000000
WAL true

TIL o
00000000
00100000
01010000
00010001
00100001
00000000
00100001
00000000
WAL true

TIL p
00000000
11111110
00000000
11111110
00000000
11111110
00000000
00000000

TIL s
01010000
01010100
01010100
01010100
01010100
01010100
00010100
00000100

TIL u
00010100
01010100
01010100
01010100
01010100
01010100
01010000
01000000

TIL x
00010000
00010000
00011110
00011110
00001110
00000000
00000000
00000000
WAL true

TIL y
00000000
00000000
11111110
11111110
11111110
00000000
00000000
00000000
WAL true

TIL z
00010000
00010000
11110000
11110000
11100000
00000000
00000000
00000000
WAL true

TIL 1a
00010000
00010000
00010000
00011110
00010000
00010000
00010000
00000000
WAL true

TIL 1b
00010000
00010000
00010000
11111110
00000000
00000000
00000000
00000000
WAL true

TIL 1c
00000000
00000000
00000000
11111110
00010000
00010000
00010000
00000000
WAL true

TIL 1d
00010000
00010000
11110000
11110000
11110000
00010000
00010000
00000000
WAL true

TIL 1e
00010000
00010000
00011110
00011110
00011110
00010000
00010000
00000000
WAL true

TIL 1f
00000000
00000000
11111110
11111110
11111110
11110000
11110000
00000000
WAL true

TIL 1g
00000000
00000000
11111110
11111110
11111110
00011110
00011110
00000000
WAL true

TIL 1h
00000000
00000000
11111110
11111110
11111110
11111110
11111110
00000000
WAL true

TIL 1i
00000000
00000000
00001110
00011110
00011110
00011110
00011110
00000000
WAL true

TIL 1j
00000000
00000000
11100000
11110000
11110000
11110000
11110000
00000000
WAL true

TIL 1k
00010000
00010000
11110000
11110000
11110000
11110000
11100000
00000000
WAL true

TIL 1l
00010000
00010000
00011110
00011110
00011110
00011110
00001110
00000000
WAL true

TIL 1n
00100010
00010001
10001000
01000100
00100010
00010001
10001000
01000100
WAL true

TIL 1o
00100010
00010001
10001000
01000100
00100010
00010001
00000000
00000000
WAL true

TIL 1p
00000000
00100000
01010000
01010001
01010001
01010000
00100001
00000000
WAL true

TIL 1q
00000000
00100000
01100000
00100001
00100001
00100000
01110001
00000000
WAL true

TIL 1r
00000000
00100000
01010000
00010001
00100001
01000000
01110001
00000000
WAL true

TIL 1s
00000000
01100000
00010000
00100001
00010001
00010000
01100001
00000000
WAL true

TIL 1t
00000000
01010000
01010000
01010001
01110001
00010000
00010001
00000000
WAL true

TIL 1u
00000000
01110000
01000000
01100001
00010001
00010000
01100001
00000000
WAL true

TIL 1v
00000000
00110000
01000000
01100001
01010001
01010000
00100001
00000000
WAL true

TIL 1w
00000000
01110000
00010000
00010001
00100001
00100000
00100001
00000000
WAL true

TIL 1x
00000000
00100000
01010000
00100001
01010001
01010000
00100001
00000000
WAL true

TIL 1y
00000000
00100000
01010000
01010001
00110001
00010000
01100001
00000000
WAL true

TIL 1z
10000010
11111110
10000010
11111110
10000010
11111110
10000010
11111110

TIL 2a
00000000
00000000
00000000
00000000
00101000
00010000
00000000
00000000

TIL 2b
00000000
00000000
00111000
01111100
01111100
00010000
00010000
00000000

TIL 2c
00001000
00000000
10000010
00010000
00000000
01000000
00000100
00000000

TIL 2d
00000000
00000000
00010000
00111000
01111100
00000000
00000000
00000000

TIL 2e
00000000
00000000
01111100
00111000
00010000
00000000
00000000
00000000

TIL 2f
00000000
00000000
00100000
00110000
00111000
00110000
00100000
00000000

TIL 2g
00000000
00000000
00001000
00011000
00111000
00011000
00001000
00000000

TIL 2h
00000000
00000000
00111000
01000100
01000100
01000100
00111000
00000000

TIL 2i
00000000
00000000
00111000
01000100
01000100
01000100
00111000
00000000
>
00000000
00000000
00111000
01000100
01010100
01000100
00111000
00000000

TIL 2j
00000000
00000000
00111000
01000100
01010100
01000100
00111000
00000000
>
00000000
00000000
00111000
01000100
01000100
01000100
00111000
00000000

TIL 2k
00000000
00000000
01111100
01000100
01010100
01000100
01111100
00000000
>
00000000
11111110
10000010
10111010
10101010
10111010
10000010
11111110

TIL 2l
00000000
00000000
00000000
11111110
00000000
00000000
00000000
00000000

TIL 2m
00000000
00000000
11111110
11111110
11111110
11111110
11111110
00000000

TIL 2n
00000000
01111100
10000010
10111010
10101010
10111010
10000010
01111100

TIL 2o
11101110
11111110
11101110
01000000
11101110
11111110
11101110
00000000

TIL 2p
00000000
00000000
00000000
00000000
00001110
00001110
00001110
00000100

TIL 2q
00001110
00001110
00001110
00000100
11101110
11111110
11101110
00000000

TIL 2r
00000000
00000000
00000000
00000000
11101110
11111110
11101110
00000100

TIL 2s
11101110
11101111
11101110
01000100
11101110
11111110
11101110
00000000

TIL 2t
11100000
11100000
11100000
00000000
00000000
00000000
00000000
00000000

TIL 2u
00001110
00001110
00001110
00000100
00001110
00001111
00001110
00000000

TIL 2v
00000000
00000000
00000000
00000000
11100000
11100000
11100000
00000000

TIL 2w
00000010
00010001
00000000
01010100
00000000
00010001
10000000
01000100

TIL 2x
00000010
00000001
00101000
00000000
00101000
00000001
10000000
01000100

TIL 2y
00000010
00010001
01000100
00010000
01000100
00010001
10000000
01000100

TIL 2z
00000000
00010000
00101000
00101000
00101000
00101000
00010000
00000000

SPR 10
00000000
00000000
00000000
01111100
00000000
00000000
00000000
00000000
DLG SPR_9
POS p 4,11

SPR 11
00000000
00000000
00000000
01111100
00000000
00000000
00000000
00000000
DLG SPR_a
POS p 7,11

SPR 12
00000000
00000000
00000000
01111100
00000000
00000000
00000000
00000000
DLG SPR_b
POS p 10,11

SPR 13
00000000
00000000
00010000
00000000
00111000
00010000
00000000
00000000
>
00000000
00010000
00000000
00111000
00010000
00000000
00000000
00000000
DLG SPR_d
POS c 12,11

SPR 14
11000000
11100000
11100000
11101100
11101100
11100000
11100000
11000000
DLG SPR_e
POS t 7,13

SPR 15
11111111
11111111
11111111
11111111
11111111
11111111
11111111
11111111
POS t 6,13

SPR 16
11111111
11111111
11111111
11111111
11111111
11111111
11111111
11111111
POS t 5,13

SPR 17
11111111
11111111
11111111
11111111
11111111
11111111
11111111
11111111
POS t 4,13

SPR 18
11111111
11111111
11111111
11111111
11111111
11111111
11111111
11111111
POS t 3,13

SPR 19
11111111
11111111
11111111
11111111
01111111
01111111
00111111
00001111
POS t 2,13

SPR A
00010000
00000000
01111100
11111110
01111100
01101100
01000100
00000000
POS 1 10,4

SPR b
00000000
00010000
00000000
00111000
00111000
00111000
00111100
00011100
POS 5 4,3

SPR c
00011100
00001100
00001110
00000110
00000110
01001110
00111100
00000000
>
00011100
00001100
00001110
00000110
00000110
00001110
01111100
00000000
DLG SPR_1
POS 5 4,4

SPR d
00000000
00010000
00000000
00111000
01111100
00111000
00101000
00000000
>
00000000
00010000
00000000
00111100
01111000
00111000
00101000
00000000
DLG SPR_0
POS 9 8,10

SPR e
00000000
00010000
00000000
01111000
00111100
00111000
00101000
00000000
>
00000000
00010000
00000000
00111000
01111100
00111000
00101000
00000000
DLG SPR_2
POS 9 5,11

SPR f
00000000
00010000
00000000
01111100
00111000
00111000
00101000
00000000
>
00000000
00010000
00000000
00111000
01111100
00111000
00101000
00000000
DLG SPR_3
POS 9 3,10

SPR g
01111100
11111110
01111100
11111110
01111100
01000100
00000000
00000000
DLG SPR_4
POS 8 6,8

SPR h
00010000
00000000
01111100
11111110
01111100
11111110
01111100
11111110
DLG SPR_5
POS 8 6,7

SPR i
00000000
00000000
00000000
00011111
00111111
01111111
10011111
00011111
POS 1e 6,3

SPR j
00000000
00010000
00000000
11111111
11111111
11111111
11111111
11111111
POS 1e 7,3

SPR k
00000000
00000000
00000000
11110000
11111000
11111100
11110010
11110000
POS 1e 8,3

SPR l
11100000
11100000
11100000
11000000
11000000
11000000
01000000
00000000
DLG SPR_j
POS 1e 8,4

SPR p
00001111
00001111
00001111
00001111
00000111
00000110
00000100
00000000
DLG SPR_k
POS 1e 6,4

SPR q
11111111
11111111
11111111
11111111
11111111
00000000
00000000
00000000
DLG SPR_l
POS 1e 7,4

SPR r
00000000
00010000
11000110
11111110
01111100
00111000
00010000
00000000
>
00010000
11000110
11111110
01111100
00111000
00010000
00000000
00000000
DLG SPR_g
POS 2 6,3

SPR s
00000000
01011111
00011111
00001111
00000111
00000001
00000000
00000000
DLG SPR_c
POS p 10,4

SPR t
00000000
11111111
11111111
11111111
11111111
11111111
01010101
00000000
POS p 11,4

SPR u
00000000
11111111
11111111
11111111
11111111
11111111
01010101
00000000
POS p 12,4

SPR v
00000000
11111000
11111110
11111111
11111111
11111111
01001001
00000000
POS p 13,4

SPR w
00000000
00000000
00000000
10000000
11100010
11111100
00000000
00000000
>
00000000
00000000
00000000
10000100
11100100
11111000
00000000
00000000
POS p 14,4

SPR x
00000000
00010000
00010000
01111100
00010000
00010000
00000000
00000000
DLG SPR_6
POS p 4,9

SPR y
00000000
00010000
00010000
01111100
00010000
00010000
00000000
00000000
DLG SPR_7
POS p 7,9

SPR z
00000000
00010000
00010000
01111100
00010000
00010000
00000000
00000000
DLG SPR_8
POS p 10,9

SPR 1a
11111110
11111110
11111110
11111110
11111110
11111110
11111110
11111110
POS t 2,12

SPR 1b
11111110
11111110
11111110
11111110
11111110
11111110
11111110
11111110
POS t 2,11

SPR 1c
11111110
11111110
11111110
11111110
11111110
11111110
11111110
11111110
POS t 2,10

SPR 1d
11111110
11111110
11111110
11111110
11111110
11111110
11111110
11111110
POS t 2,9

SPR 1e
11111110
11111110
11111110
11111110
11111110
11111110
11111110
11111110
POS t 2,8

SPR 1f
11111110
11111110
11111110
11111110
11111110
11111110
11111110
11111110
POS t 2,7

SPR 1g
11111110
11111110
11111110
11111110
11111110
11111110
11111110
11111110
POS t 2,6

SPR 1h
11111110
11111110
11111110
11111110
11111110
11111110
11111110
11111110
POS t 2,5

SPR 1i
11111110
11111110
11111110
11111110
11111110
11111110
11111110
11111110
POS t 2,4

SPR 1j
11111110
11111110
11111110
11111110
11111110
11111110
11111110
11111110
POS t 2,3

SPR 1k
00000000
00001111
00111111
01111111
01111111
11111111
11111111
11111111
DLG SPR_f
POS t 2,2

SPR 1l
00000000
11111111
11111111
11111111
11111111
11111111
11111111
00000000
POS t 3,2

SPR 1m
00000000
11111111
11111111
11111111
11111111
11111111
11111111
00000000
POS t 4,2

SPR 1n
00000000
11111111
11111111
11111111
11111111
11111111
11111111
00000000
POS t 5,2

SPR 1o
00000000
11111110
11111111
11111111
11111111
11111111
11111111
00000000
POS t 6,2

SPR 1p
00000000
00000000
11000000
11110000
11111000
11111100
11111110
00000000
POS t 7,2

SPR 1q
00000001
00000111
00001111
00011111
00111111
01111111
01111111
11111111
>
00000011
00001111
00011111
00111111
01111111
01111111
11111111
11111111
POS t 1,10

SPR 1r
11111111
11111111
11111111
01111111
01111111
00111111
00001111
00000000
>
11111111
11111111
01111111
01111111
00111111
00011111
00000111
00000000
POS t 1,11

SPR 1s
00000000
00000010
00000000
00000110
00001110
10011100
01111000
00000000
>
00000000
00000010
00000000
00000110
00001110
00011100
11111000
00000000
DLG SPR_h
POS 7 6,12

SPR 1t
00000000
01000000
00000000
01100000
01100000
01110001
00111110
00000000
>
00000000
01000000
00000000
01100000
01100010
01110010
00111100
00000000
DLG SPR_i
POS 17 4,13

ITM 0
00000000
00111000
01000100
10111010
01010100
00101000
00010000
00000000
>
00000000
00000000
00111000
01000100
10111010
01010100
00101000
00010000
NAME gem
DLG ITM_0

ITM 2
00000000
00010000
01010100
01010100
01101100
01111100
00000000
00000000
>
00000000
00010000
01010100
01010100
01111100
01111100
00000000
00000000
NAME crown
DLG ITM_1

ITM 3
00000000
00000000
00000000
01000100
01101100
01111100
01111100
00111000

DLG SPR_1
"""
{
  - {item "crown"} >= 1 ?
    A {clr2}beautiful crown{clr2}!
    
    All my friends will be jealous
    when they see me wearing it!
    It will fit so perfectly around my body.
    They will all envy me!
    
    ...
    
    I'll let you in on a little secret.
    The dungeon extends far deeper than this level.
    There's a false wall in the very first room.
    You should go have a look, if you're feeling brave!
  - else ?
    I desire a {clr2}beautiful crown{clr2}!
    Everyone will soon adore me.
    Please, find one for me!
}
"""

DLG ITM_1
A {clr2}beautiful crown{clr2}, adorned with a huge ruby.

DLG SPR_0
Watch out, the left and right paths are both traps! Hehehe.

DLG SPR_2
The right path is a trap, be careful! Hahahaha!

DLG SPR_3
Either the left route or the right route is safe. Hee hee!

DLG SPR_4
"""
{cycle
  - Be careful in the next room,
    at least two of those little scamps will lie to you.
  - I hate liars.
    Don't let them trick you.
}
"""

DLG SPR_5
"""
{sequence
  - Oh, what are you doing up there?
  - Hello up there!
  - Hi again.
  - Haha, hi.
  - Hi...
  - ...
}
"""

DLG ITM_0
In the dim dungeon light the {clr2}diamond{clr2} almost seems to glow.

DLG SPR_6
"""
{
  - l0 >= 9 ?
    {l0 = 0}
  - else ?
    {l0 = l0 + 1}
}{say l0}
"""

DLG SPR_7
"""
{
  - l1 >= 9 ?
    {l1 = 0}
  - else ?
    {l1 = l1 + 1}
}{say l1}
"""

DLG SPR_8
"""
{
  - l2 >= 9 ?
    {l2 = 0}
  - else ?
    {l2 = l2 + 1}
}{say l2}
"""

DLG SPR_9
"""
{
  - l0 <= 0 ?
    {l0 = 9}
  - else ?
    {l0 = l0 - 1}
}{say l0}
"""

DLG SPR_a
"""
{
  - l1 <= 0 ?
    {l1 = 9}
  - else ?
    {l1 = l1 - 1}
}{say l1}
"""

DLG SPR_b
"""
{
  - l2 <= 0 ?
    {l2 = 9}
  - else ?
    {l2 = l2 - 1}
}{say l2}
"""

DLG SPR_c
"""
Ah, {say {100 * l0 + 10 * l1 + l2}}? Interesting...
{
  - {100 * l0 + 10 * l1 + l2} == 745 ?
    {translate = 1}A beautiful number!
    It has perfect form!
    
    It brings me both inexplicable joy and overwhelming misery!
    I must reward you for bringing to me such a number!
    There is a little creature deeper down in the dungeon.
    I will help you understand it, so that you may help each other.
    Ignore the words it says and concentrate on the tone instead.
    The words will just get in the way of what it's trying to say.
    And if you find any more lovely numbers, bring them to me!
  - {100 * l0 + 10 * l1 + l2} == 420 ?
    This number amuses me slightly.
    ...But it is not amusing enough! Stop fooling around.
  - {100 * l0 + 10 * l1 + l2} == 911 ?
    This number seems useful.
    But I don't need a number like this right now.
  - {100 * l0 + 10 * l1 + l2} == 69 ?
    This number amuses me slightly.
    ...But it is not amusing enough! Stop fooling around.
  - {100 * l0 + 10 * l1 + l2} == 999 ?
    This is a very large number.
    But just because a number is large does not mean it is valuable!
  - {100 * l0 + 10 * l1 + l2} == 12 ?
    
    I'm not sure you understand how the device works.
  - {100 * l0 + 10 * l1 + l2} == 123 ?
    You must be new to this.
    123 is for novices and those who do not appreciate numbers!
  - {100 * l0 + 10 * l1 + l2} == 984 ?
    Hideous! HIDEOUS!
    Take this disgusting number away from me.
    I don't want to see it anymore.
    
    Why would you even think I would like a number such as this one?
  - {100 * l0 + 10 * l1 + l2} == 0 ?
    
    Do you know how to use the device below? Just fiddle with it, then when you get a nice number, come and talk to me.
  - else ?
    That number does not please me!
    I am very particular about my numbers.
    {say {100 * l0 + 10 * l1 + l2}} will simply not do!
}
"""

DLG SPR_d
"""
{realgem = {item "gem"}}{
  - {realgem + 10 * translate} < 5 ?
    Gamgada turo ragoye {say {5 - {item "gem"}}} mana {clr2}feleda{clr2}!
    Paloga vasile!
  - {realgem + 10 * translate} == 5 ?
    Degan eppen pedayi aza bigofi tribil yotapamara seg!
    Loso tegala pamane {clr2}feleda{clr2} tem dapir, pitol turo eruna!
    Ragoye wulegic carapa? Namada lelay slineku regir liyenap!
    Pati hupe li sa okalawo.
    
    Ingo, ondara, lim lim, ondara, ingoro, tama link, onda onda,
    epan storam gromofi!
  - {realgem + 10 * translate} < 15 ?
    Please bring me {say {5 - {item "gem"}}} more {clr2}diamonds{clr2}!
    I really like how they shine!
  - else ?
    So many {clr2}diamonds{clr2}! Thank you!
    Thank you! Thank you!
    You want to leave this dungeon, don't you? It's easy! It's easy!
    Once you find the bridge, stand on the dirty spot.
    Then, from there, go right, then up, then up again, then...
    left twice, up twice, right twice, up, right, up twice
    and you should be clear!
}
"""

DLG SPR_e
"""
{shk}BE CAREFUL UP AHEAD.{shk}

{shk}ONE MISSTEP AND YOU'LL FALL A LONG WAY DOWN.{shk}
{shk}A LONG,{shk}

{shk}LONG,{shk}

{shk}{clr2}LONG{clr2} WAY DOWN.{shk}
{sequence
  - 
  - 
    
    {shk}AND MAYBE I WILL BE WAITING FOR YOU AT THE BOTTOM.{shk}
}
"""

DLG SPR_f
Test!

DLG SPR_g
"""
Welcome to the worm dungeon!

You'll need to be both clever and observant if you want to have any chance of ever finding your way out of here!
Good luck!
"""

DLG SPR_h
"""
Watch out for those tiles, some of them are very fragile.
The lightest touch and they'll give way, then you'll be falling down to the level below!
"""

DLG SPR_i
"""
Oh, you found me! I suppose you want a prize now?
Wait, what? You... actually do?

Umm, okay, sure. Uhhh, you get... the number 984!
Congratulations. Bye now.
"""

DLG SPR_j
"""
Hello!

Welcome to my garden.
It isn't much yet,
on account of how hard it is to grow flowers inside a dungeon,
but I'm going to keep trying!

You're welcome to join me.
Maybe together we can succeed!
Just stand in that corner over there and we'll get started!
But only if you're going to commit yourself fully.
"""

DLG SPR_k
"""
Hello!

Welcome to my garden.
It isn't much yet,
on account of how hard it is to grow flowers inside a dungeon,
but I'm going to keep trying!

You're welcome to join me.
Maybe together we can succeed!
Just stand in that corner over there and we'll get started!
But only if you're going to commit yourself fully.
"""

DLG SPR_l
"""
Hello!

Welcome to my garden.
It isn't much yet,
on account of how hard it is to grow flowers inside a dungeon,
but I'm going to keep trying!

You're welcome to join me.
Maybe together we can succeed!
Just stand in that corner over there and we'll get started!
But only if you're going to commit yourself fully.
"""

END 0
You emerge from the mouth of a colossal worm.                After having spent so much time in the darkness,               the afternoon sun is blindingly bright.                         A few moments later your eyes adapt and you spot another dungeon in the distance. You set off.

END undefined
This is a test!

END undefinee


END undefinef
The garden prospers.           Eventually you grow old and decide to stay. And one day a young traveler arrives.

VAR l0
0

VAR l1
0

VAR l2
0

VAR translate
0

VAR realgem
undefined


