
git pull cake

# BITSY VERSION 4.8

! ROOM_FORMAT 1

PAL 0
0,82,204
128,159,255
255,255,255

PAL 1
255,255,255
255,255,255
255,255,255

ROOM 0
0,0,0,0,0,0,0,0,0,0,0,0,0,0,0,0
0,a,a,a,a,a,a,a,a,a,a,a,a,a,a,0
0,a,0,0,0,0,0,0,0,0,0,0,0,0,a,0
0,a,0,0,0,0,0,0,0,0,0,0,0,0,a,0
0,a,0,0,0,0,0,0,0,0,0,0,0,0,a,0
0,a,0,0,0,0,0,0,0,0,0,0,0,0,a,0
0,a,0,0,0,0,0,0,0,0,0,0,0,0,a,0
0,a,0,0,0,0,0,0,0,0,0,0,0,0,a,0
0,a,0,0,0,0,0,0,0,0,0,0,0,0,a,0
0,a,0,0,0,0,0,0,0,0,0,0,0,0,a,0
0,a,0,0,0,0,0,0,0,0,0,0,0,0,a,0
0,a,0,0,0,0,0,0,0,0,0,0,0,0,a,0
0,a,0,0,0,0,0,0,0,0,0,0,0,0,a,0
0,a,0,0,0,0,0,0,0,0,0,0,0,0,a,0
0,a,a,a,a,a,a,a,a,a,a,a,a,a,a,0
0,0,0,0,0,0,0,0,0,0,0,0,0,0,0,0
PAL 0

TIL a
11111111
10000001
10000001
10011001
10011001
10000001
10000001
11111111

SPR A
00011000
00011000
00011000
00111100
01111110
10111101
00100100
00100100
POS 0 4,4

SPR a
00000000
01111100
01111100
01011000
01101000
01110000
00111000
00011000
>
00000000
00000000
00000000
00000000
00000000
00000000
00000000
00000000
NAME cake
DLG SPR_0
POS 0 8,12

ITM 0
00000000
00000000
00000000
00111100
01100100
00100100
00011000
00000000
NAME tea
DLG ITM_0

DLG SPR_0
I'm a cake{shk}{shk}{rbw}   A piece of caaaaaaaake{rbw}

DLG ITM_0
You found a nice warm cup of tea

VAR a
42


