
{wvy}{clr1}bug city!{clr1}{wvy}

# BITSY VERSION 4.8

! ROOM_FORMAT 1

PAL 0
255,87,153
131,191,230
205,153,255

ROOM 0
0,0,0,0,0,0,0,0,0,0,c,c,c,0,0,0
0,0,0,0,0,0,0,0,0,0,c,c,c,0,0,0
0,0,0,0,e,0,0,0,0,0,c,c,c,0,0,0
0,0,0,0,0,0,0,0,0,0,b,b,b,0,0,0
0,0,0,0,0,0,0,0,0,0,0,0,0,0,0,0
0,0,0,0,0,0,0,0,0,0,0,0,0,0,0,0
d,f,d,f,0,0,0,0,0,0,0,0,0,0,0,0
d,f,d,f,0,0,0,0,0,0,0,0,0,0,0,0
d,f,d,f,0,0,0,0,0,0,0,0,0,0,0,0
0,0,0,0,0,0,0,0,0,0,0,0,0,0,0,0
0,0,0,0,0,0,0,0,0,0,0,0,0,0,0,0
0,0,0,0,0,0,0,0,0,0,0,0,0,0,0,0
0,0,0,0,0,0,0,0,0,0,0,0,0,0,0,0
0,0,0,0,0,0,0,0,0,0,0,0,0,0,0,0
0,0,0,0,0,0,0,0,0,0,0,0,0,0,0,0
0,0,0,0,0,0,0,0,0,0,0,0,0,0,0,0
PAL 0

ROOM 1
c,c,c,c,c,c,c,c,c,c,c,c,c,c,c,c
c,c,a,c,c,c,c,c,c,c,c,c,c,c,c,c
c,c,c,c,c,c,c,c,c,c,c,c,c,c,a,c
c,c,c,c,c,c,c,c,c,c,c,c,c,c,c,c
c,c,c,c,c,c,c,c,c,c,c,c,c,c,c,c
d,f,d,f,d,f,d,0,d,f,c,c,c,c,c,c
d,f,d,f,d,f,d,0,d,f,d,c,c,c,c,c
c,c,c,c,c,c,c,c,c,c,d,f,c,c,c,c
c,c,c,c,c,c,c,a,c,c,c,f,d,c,c,c
c,c,c,c,c,c,c,c,c,c,c,c,d,f,d,f
b,b,b,b,b,b,b,b,b,b,b,c,c,f,d,f
g,0,0,g,0,0,g,g,g,0,g,b,b,b,b,b
0,0,g,0,0,g,0,0,0,0,0,g,g,g,g,g
0,g,g,g,0,0,0,0,0,g,0,0,g,0,0,0
0,0,0,0,0,0,0,0,g,0,0,0,0,0,0,g
g,0,0,0,0,g,g,g,g,g,0,0,g,g,g,0
ITM 0 0,12
ITM 0 11,15
ITM 0 10,15
ITM 0 9,11
ITM 0 5,11
ITM 0 1,11
ITM 0 1,15
ITM 0 2,15
ITM 0 4,15
ITM 0 11,13
ITM 0 15,13
ITM 0 7,5
ITM 0 7,6
PAL 0

TIL a
11111111
11000011
10000001
10000001
10000001
11000011
11100110
10100110
>
11111111
11000011
10000001
10000001
10000001
11000011
10100111
10100110
NAME tree
WAL true

TIL b
11111111
11111111
10101010
01010101
10101010
00000000
01010101
00000000
NAME grass
WAL false

TIL c
11111111
11110111
11101001
11111111
11111111
11011111
10100111
11111111
>
11111111
11111101
11110010
11111111
11101111
10010111
11111111
11111111
NAME grass

TIL d
10101010
01010101
10101010
01010101
10101010
01010101
10101010
01010101
>
01101100
11011011
01101100
11011011
01101100
11011011
01101100
11011011
NAME sea1
WAL true

TIL e
10101010
01010101
10101010
01010101
10101010
01010101
10101010
01010101
NAME stillsea?

TIL f
10101010
01010101
10101010
01010101
10101010
01010101
10101010
01010101
>
01101100
11011011
01101100
11011011
01101100
11011011
01101100
11011011
NAME sea2
WAL true

TIL g
01000000
10100100
01001010
00000100
00100000
01010010
00100101
00000010

SPR A
00000000
00100100
00011000
00100100
00111100
00100100
00011000
00000000
POS 1 3,14

SPR a
00000000
01101100
10010010
10010010
01010100
10010010
10010010
01101100
>
00000000
01101100
01010100
01010100
00111000
01010100
01010100
01101100
NAME butterfly
DLG SPR_0
POS 1 14,13

SPR b
00000000
00000000
00100100
00011000
00111100
00011000
00100100
00000000
>
00000000
00000000
00100100
00011000
01111110
00100100
00000000
00000000
NAME swimmer
DLG SPR_1
POS 1 2,6

SPR c
00000000
00000000
00100100
00011000
00111100
00011000
00100100
00000000
>
00000000
00000000
00100100
00011000
01111110
00100100
00000000
00000000
NAME swimmer2
DLG SPR_2
POS 1 5,13

SPR d
00000000
00000000
01101100
11111110
11111110
01111100
00111000
00010000
>
10010010
00010000
01101100
11010110
10101010
01010100
00101000
10010010
NAME heartberry
DLG SPR_3
POS 1 11,2

SPR e
00000000
00100100
00011000
00100100
00111100
00100100
00011000
00000000
NAME beefriend
DLG SPR_4
POS 1 10,12

ITM 0
00000000
00000000
00000000
00010000
00101000
00010000
00000000
00000000
NAME flowie
DLG ITM_0

DLG SPR_0
{clr3}do you like butter?{clr3}

DLG SPR_1
{clr2}{wvy}the water's lovely!{wvy}{clr2}

DLG SPR_2
{shk}{clr3}help me!{clr3}{shk}

DLG SPR_3
{clr1}what am i?{clr1}

DLG SPR_4
"""
{
  - {item "flowie"} < 5 ?
    {clr3}bzzzzz...{clr3}
  - {item "flowie"} < 13 ?
    {clr3}bzzzzz??{clr3}
  - {item "flowie"} == 13 ?
    {rbw}you're busier than me!{rbw}
}
"""

DLG ITM_0
"""
{
  - {item "flowie"} < 11 ?
    sacre-fleur!
  - {item "flowie"} < 12 ?
    ...are you stealing?
  - {item "flowie"} < 13 ?
    you're a thief, aren't you!
  - {item "flowie"} == 13 ?
    why don't you take the bugs as well... T-T
}{sequence
  - 
  - 
}
"""

VAR a
42


