record of the jam for posterity 

# BITSY VERSION 5.1

! ROOM_FORMAT 1

PAL 0
41,91,99
173,117,163
252,255,255

ROOM 0
a,a,a,a,a,a,a,a,a,a,a,a,a,a,a,a
a,0,0,0,0,0,0,0,0,0,0,0,0,0,0,a
0,0,0,0,0,0,0,0,0,0,0,0,0,0,0,a
0,0,0,0,d,0,0,0,0,0,0,0,0,0,0,a
0,0,0,0,0,0,0,0,0,c,c,0,0,0,0,a
a,0,0,0,0,0,0,0,0,c,c,0,0,0,0,a
a,0,0,0,0,0,0,0,0,c,c,0,0,0,0,a
a,0,0,0,0,0,0,0,0,c,c,0,0,0,0,a
a,0,0,b,0,0,0,0,0,0,0,0,0,0,0,a
a,0,0,b,0,0,0,0,0,c,c,0,0,0,0,a
a,f,f,b,0,0,0,0,0,c,c,0,0,0,0,a
a,0,0,0,0,0,0,0,0,c,c,0,0,0,0,a
a,0,0,0,0,0,0,0,0,c,c,0,0,0,0,a
a,0,0,0,0,0,0,0,0,0,0,0,0,0,0,a
a,0,0,0,0,0,0,0,0,0,0,0,0,0,0,a
a,a,0,0,a,a,a,a,a,a,a,a,a,0,0,a
PAL 0

TIL a
11111111
11010001
10100101
10000011
10100101
11111111
11000011
11100111

TIL b
01111111
00111111
00111111
00111111
00111111
00111111
00111111
01111111

TIL c
01111110
01111110
01111110
01111110
01111110
01111110
01111110
01111110

TIL d
11111111
11111111
11111111
11111111
11111111
11111111
00000000
00000000

TIL e
11111111
11111111
11111111
11111111
11111111
11111111
10000001
00000000

TIL f
00000000
10000001
11111111
11111111
11111111
11111111
11111111
11111111

SPR A
00000000
00000000
00000000
00000000
00011000
00111100
010110100
11111111
POS 0 0,3

SPR a
00000000
00000000
01010001
01110001
01110010
01111100
00111100
00100100
DLG SPR_0
POS 0 2,13

SPR b
00000000
00000000
01010001
01110001
01110010
01111100
00111100
00100100
DLG SPR_1
POS 0 11,4

SPR c
00000000
00000000
01010001
01110001
01110010
01111100
00111100
00100100
DLG SPR_2
POS 0 11,14

SPR d
00000000
00000000
00000000
00000000
00000000
01111110
01111100
01111110
DLG SPR_3
POS 0 4,2

SPR e
00000000
00000000
00000000
00000000
00000000
00000000
00000000
00000000

SPR f
00000000
00000000
01010001
01110001
01110010
01111100
00111100
00100100
DLG SPR_4
POS 0 9,3

SPR g
00000000
00000000
00000000
00000000
00000000
00000000
00000000
00000000

SPR h
00000000
00000000
01010001
01110001
01110010
01111100
00111100
00100100
DLG SPR_5
POS 0 9,13

SPR i
00000000
00000000
01010001
01110001
01110010
01111100
00111100
00100100
DLG SPR_6
POS 0 11,11

SPR j
00000000
00000000
01010001
01110001
01110010
01111100
00111100
00100100
DLG SPR_7
POS 0 8,5

SPR k
00000000
00000000
01010001
01110001
01110010
01111100
00111100
00100100
DLG SPR_8
POS 0 8,6

SPR l
00000000
00000000
01010001
01110001
01110010
01111100
00111100
00100100
DLG SPR_9
POS 0 11,9

SPR m
00000000
00000000
01010001
01110001
01110010
01111100
00111100
00100100
DLG SPR_a
POS 0 8,10

SPR n
00000000
11111000
10001000
11111000
10001000
10001000
10001000
11111000
DLG SPR_b
POS 0 1,8

SPR o
00000001
00000001
00000001
00000001
00000001
00000001
00000001
00000001
DLG SPR_c
POS 0 14,5

SPR p
00000001
00000001
00000001
00000001
00000001
00000001
00000001
00000001
POS 0 14,4

SPR q
00000001
00000001
00000001
00000001
00000001
00000001
00000001
00000001
DLG SPR_d
POS 0 14,11

SPR r
00000001
00000001
00000001
00000001
00000001
00000001
00000001
00000001
DLG SPR_e
POS 0 14,12

SPR s
00000000
00000000
00000000
00000000
00000000
00000000
00000000
11111111
DLG SPR_f
POS 0 13,15

SPR t
00000000
00000000
00000000
00000000
00000000
00000000
00000000
11111111

SPR u
00000000
00000000
00000000
00000000
00000000
00000000
00000000
11111111

SPR v
00000000
00000000
00000000
00000000
00000000
00000000
00000000
11111111
DLG SPR_g
POS 0 14,15

SPR w
11111111
00000000
00000000
00000000
00000000
00000000
00000000
00000000
DLG SPR_h
POS 0 0,2

ITM 0
00000000
00000000
00000000
00111100
01100100
00100100
00011000
00000000
NAME tea
DLG ITM_0

DLG SPR_0
Frank: oh hey

DLG ITM_0
You found a nice warm cup of tea

DLG SPR_1
Yuxin: *typing sounds*

DLG SPR_2
im a cat

DLG SPR_3
it's the livestream phone-camera. wave to all the people!

DLG SPR_4
Blake: *loud laughter*

DLG SPR_5
Flan: *coughs* 2 hour jam? who needs it! I made this in 10 minutes !

DLG SPR_6
Dennis: *in the zone*

DLG SPR_7
have you ever used bitsy before? today is my first time!

DLG SPR_8
yeah! ive made a little something before

DLG SPR_9
Can i get past you to that outlet real quick?

DLG SPR_a
Gus: *chuckles under his breath*

DLG SPR_b
please please please do not open the fridge

DLG SPR_c
it's a projection by the catamites

DLG SPR_d
it's the bitsy quilt! 

DLG SPR_e
oh hey, that's my player character!

DLG SPR_f
door to the bathroom, but this game only has one room

DLG SPR_g
door to the bathroom, but this game only has one room!

DLG SPR_h
it's the Babycastles sign 

VAR a
42

