

# BITSY VERSION 5.3

! ROOM_FORMAT 1

PAL 0
189,246,255
161,198,210
255,129,192
253,70,90
255,255,255

ROOM 0
0,0,0,0,0,0,0,0,0,0,0,0,0,0,0,0
0,0,0,0,0,i,k,m,o,0,0,0,0,0,0,0
0,0,0,0,0,j,l,n,p,0,0,0,0,0,0,0
0,0,0,0,0,0,a,0,0,0,0,0,0,0,0,0
0,0,0,0,0,0,0,0,0,0,q,s,u,0,0,0
b,d,f,h,0,0,0,0,0,0,r,t,v,0,0,0
c,e,g,0,0,0,0,0,0,a,0,0,0,w,y,10
0,0,a,0,0,0,0,0,0,0,0,0,0,x,z,11
0,0,0,0,0,0,0,a,0,0,0,0,0,0,0,0
a,0,0,0,0,0,0,0,0,0,0,0,0,0,a,0
0,0,0,0,0,0,0,0,0,1q,1u,1y,22,26,2a,0
0,15,18,1b,1e,a,0,1p,1m,1r,1v,1z,23,27,2b,0
0,16,19,1c,1f,0,1i,1k,1n,1s,1w,20,24,28,2c,a
14,17,1a,1d,1g,1h,1j,1l,1o,1t,1x,21,25,29,2d,0
12,12,12,12,12,12,12,12,12,12,12,12,12,12,12,12
13,13,13,13,13,13,13,13,13,13,13,13,13,13,13,13
ITM 1 0,0
ITM 1 1,0
ITM 1 2,0
ITM 1 3,0
ITM 1 4,0
ITM 1 5,0
ITM 1 6,0
ITM 1 7,0
ITM 1 8,0
ITM 1 9,0
ITM 1 10,0
ITM 1 11,0
ITM 1 12,0
ITM 1 13,0
ITM 1 14,0
ITM 1 15,0
ITM 1 0,1
ITM 1 1,1
ITM 1 2,1
ITM 1 3,1
ITM 1 4,1
ITM 1 5,1
ITM 1 6,1
ITM 1 7,1
ITM 1 8,1
ITM 1 9,1
ITM 1 10,1
ITM 1 11,1
ITM 1 12,1
ITM 1 13,1
ITM 1 14,1
ITM 1 15,1
ITM 1 0,2
ITM 1 1,2
ITM 1 2,2
ITM 1 3,2
ITM 1 4,2
ITM 1 5,2
ITM 1 6,2
ITM 1 7,2
ITM 1 8,2
ITM 1 9,2
ITM 1 10,2
ITM 1 11,2
ITM 1 12,2
ITM 1 13,2
ITM 1 14,2
ITM 1 15,2
ITM 1 0,3
ITM 1 1,3
ITM 1 2,3
ITM 1 3,3
ITM 1 4,3
ITM 1 5,3
ITM 1 6,3
ITM 1 8,3
ITM 1 9,3
ITM 1 10,3
ITM 1 11,3
ITM 1 12,3
ITM 1 13,3
ITM 1 14,3
ITM 1 15,3
ITM 1 0,4
ITM 1 1,4
ITM 1 2,4
ITM 1 3,4
ITM 1 4,4
ITM 1 5,4
ITM 1 6,4
ITM 1 7,4
ITM 1 8,4
ITM 1 9,4
ITM 1 10,4
ITM 1 11,4
ITM 1 12,4
ITM 1 13,4
ITM 1 14,4
ITM 1 15,4
ITM 1 0,5
ITM 1 1,5
ITM 1 2,5
ITM 1 3,5
ITM 1 4,5
ITM 1 5,5
ITM 1 6,5
ITM 1 7,5
ITM 1 8,5
ITM 1 9,5
ITM 1 10,5
ITM 1 11,5
ITM 1 12,5
ITM 1 13,5
ITM 1 14,5
ITM 1 15,5
ITM 1 0,6
ITM 1 1,6
ITM 1 2,6
ITM 1 3,6
ITM 1 4,6
ITM 1 5,6
ITM 1 6,6
ITM 1 7,6
ITM 1 8,6
ITM 1 9,6
ITM 1 10,6
ITM 1 11,6
ITM 1 12,6
ITM 1 13,6
ITM 1 14,6
ITM 1 15,6
ITM 1 0,7
ITM 1 1,7
ITM 1 2,7
ITM 1 3,7
ITM 1 4,7
ITM 1 5,7
ITM 1 6,7
ITM 1 7,7
ITM 1 8,7
ITM 1 9,7
ITM 1 10,7
ITM 1 11,7
ITM 1 12,7
ITM 1 13,7
ITM 1 14,7
ITM 1 15,7
ITM 1 0,8
ITM 1 1,8
ITM 1 2,8
ITM 1 3,8
ITM 1 4,8
ITM 1 5,8
ITM 1 6,8
ITM 1 7,8
ITM 1 8,8
ITM 1 9,8
ITM 1 10,8
ITM 1 11,8
ITM 1 12,8
ITM 1 13,8
ITM 1 14,8
ITM 1 15,8
ITM 1 0,9
ITM 1 1,9
ITM 1 2,9
ITM 1 3,9
ITM 1 4,9
ITM 1 5,9
ITM 1 6,9
ITM 1 7,9
ITM 1 8,9
ITM 1 9,9
ITM 1 10,9
ITM 1 11,9
ITM 1 12,9
ITM 1 13,9
ITM 1 14,9
ITM 1 15,9
ITM 1 0,10
ITM 1 1,10
ITM 1 2,10
ITM 1 3,10
ITM 1 4,10
ITM 1 5,10
ITM 1 6,10
ITM 1 7,10
ITM 1 8,10
ITM 1 9,10
ITM 1 10,10
ITM 1 11,10
ITM 1 12,10
ITM 1 13,10
ITM 1 14,10
ITM 1 15,10
ITM 1 0,11
ITM 1 1,11
ITM 1 2,11
ITM 1 3,11
ITM 1 4,11
ITM 1 5,11
ITM 1 6,11
ITM 1 7,11
ITM 1 8,11
ITM 1 9,11
ITM 1 10,11
ITM 1 11,11
ITM 1 12,11
ITM 1 13,11
ITM 1 14,11
ITM 1 15,11
ITM 1 0,12
ITM 1 1,12
ITM 1 2,12
ITM 1 3,12
ITM 1 4,12
ITM 1 5,12
ITM 1 6,12
ITM 1 7,12
ITM 1 8,12
ITM 1 9,12
ITM 1 10,12
ITM 1 11,12
ITM 1 12,12
ITM 1 13,12
ITM 1 14,12
ITM 1 15,12
ITM 1 0,13
ITM 1 1,13
ITM 1 2,13
ITM 1 3,13
ITM 1 4,13
ITM 1 5,13
ITM 1 6,13
ITM 1 7,13
ITM 1 8,13
ITM 1 9,13
ITM 1 10,13
ITM 1 11,13
ITM 1 12,13
ITM 1 13,13
ITM 1 14,13
ITM 1 15,13
END undefined 8,14
END undefined 9,14
END undefined 10,14
END undefined 11,14
END undefined 12,14
END undefined 13,14
END undefined 14,14
END undefined 15,14
END undefined 7,14
END undefined 6,14
END undefined 5,14
END undefined 4,14
END undefined 3,14
END undefined 2,14
END undefined 1,14
END undefined 0,14
PAL 0

ROOM 1
0,0,0,0,0,0,0,0,0,0,0,0,0,0,0,0
0,0,0,0,0,0,0,0,0,0,0,0,0,0,0,0
0,0,0,0,0,0,0,0,0,0,0,0,0,0,0,0
0,0,0,0,0,0,0,0,0,0,0,0,0,0,0,0
0,0,0,0,0,0,0,0,0,0,0,0,0,0,0,0
0,0,0,0,0,0,0,0,0,0,0,0,0,0,0,0
0,0,0,0,0,0,0,0,0,0,0,0,0,0,0,0
0,0,0,0,0,0,0,0,0,0,0,0,0,0,0,0
0,0,0,0,0,0,0,0,0,0,0,0,0,0,0,0
0,0,0,0,0,0,0,0,0,0,0,0,0,0,0,0
0,0,0,0,0,0,0,0,0,0,0,0,0,0,0,0
0,0,0,0,0,0,0,0,0,0,0,0,0,0,0,0
0,0,0,0,0,0,0,0,0,0,0,0,0,0,0,0
0,0,0,0,0,0,0,0,0,0,0,0,0,0,0,0
0,0,0,0,0,0,0,0,0,0,0,0,0,0,0,0
0,0,0,0,0,0,0,0,0,0,0,0,0,0,0,0
PAL 0

TIL 10
00000000
00000000
00000000
11000111
11001111
11111111
11111111
11111111
NAME cloud4

TIL 11
11111111
11111111
11111110
11111000
00000000
00000000
00000000
00000000
NAME cloud4

TIL 12
11111111
00000000
00000000
00000000
00000000
00000000
00000000
00000000
NAME road top

TIL 13
00111100
00000000
00000000
00000000
00000000
00000000
00000000
00000000
NAME road line

TIL 14
00000000
00000000
00000000
11111100
10000100
10110100
10000101
10000101
NAME buildings

TIL 15
00000000
00000000
00000000
00000000
00111111
00100000
01100000
11000000
NAME buildings

TIL 16
10001111
10001111
10011111
10011111
10011111
10011111
10000000
10000000
NAME buildings

TIL 17
11111100
10000100
10000100
10000100
10110100
10000100
10000100
10000100
NAME buildings

TIL 18
00000000
00000000
00000000
00000000
11111111
00000001
00000001
00000001
NAME buildings

TIL 19
11110001
11110001
11111001
11111001
11111001
11111001
00000001
00000001
NAME buildings

TIL 20
10000000
10000000
10000000
10000000
10000000
10000000
10000000
10000000
NAME buildings

TIL 21
10000000
10000000
10000000
10000000
10000000
10000000
10000000
10000000
NAME buildings

TIL 22
11111111
00000000
00000000
00000000
00000000
00000000
00000000
10000000
NAME buildings

TIL 23
11000000
01000000
01000000
01001111
01011000
01010000
11010000
10010000
NAME buildings

TIL 24
00010000
00010000
00011000
00001111
00000000
00000000
11111111
10000000
NAME buildings

TIL 25
10000000
10000000
10000000
10011101
10000000
10000000
10000000
10000000
NAME buildings

TIL 26
11111111
00000000
00000000
00000000
00000000
00000000
00000000
00001111
NAME buildings

TIL 27
00011000
00010000
00010000
10010000
11010000
01010000
01011000
01001111
NAME buildings

TIL 28
01000000
01000000
11000000
10000000
00000000
00000000
11111000
00001000
NAME buildings

TIL 29
00001000
00001000
00001000
11001000
00001000
00001000
00001000
00001000
NAME buildings

TIL a
00000000
00001000
00001010
00010010
00010100
00000100
00000000
00000000
>
00000000
00000000
00001000
00001010
00010010
00010100
00000100
00000000
NAME rain
WAL false

TIL b
00000000
00000000
00000000
00000000
00000011
00000011
00000111
00000111
NAME cloud1

TIL c
00000111
00000111
00000011
00000000
00000000
00000000
00000000
00000000
NAME cloud1

TIL d
00000000
00000000
00111111
01111111
11111111
11111111
11111111
11111111
NAME cloud1

TIL e
11111111
11110111
11100011
00000000
00000000
00000000
00000000
00000000
NAME cloud1

TIL f
00000000
00000000
10001111
10011111
11111111
11111111
11111111
11111111
NAME cloud1

TIL g
11111110
11111100
11110000
00000000
00000000
00000000
00000000
00000000
NAME cloud1

TIL h
00000000
00000000
10000000
11000000
11000000
11000000
11000000
00000000
NAME cloud1

TIL i
00000000
00000000
00000000
00000000
00000000
00000000
00000001
00000111
NAME cloud2

TIL j
00001111
00001111
00001111
00001111
00000111
00000000
00000000
00000000
NAME cloud2

TIL k
00000000
00000000
00000000
00000000
01111110
11111111
11111111
11111111
NAME cloud2

TIL l
11111111
11111111
11111111
11101111
11000111
00000000
00000000
00000000
NAME cloud2

TIL m
00000000
00000000
00000000
00000000
00111111
01111111
11111111
11111111
NAME cloud2

TIL n
11111111
11111111
11111111
11111110
11111000
00000000
00000000
00000000
NAME cloud2

TIL o
00000000
00000000
00000000
00000000
00000000
10000000
11000000
11000000
NAME cloud2

TIL p
11000000
10000000
00000000
00000000
00000000
00000000
00000000
00000000
NAME cloud2

TIL q
00000000
00111110
01111111
01111111
01111111
01111111
01111111
00111111
NAME cloud3


TIL r
00001111
00000011
00000000
00000000
00000000
00000000
00000000
00000000
NAME cloud3

TIL s
00000000
00111111
00111111
11111111
11111111
11111111
11111111
11111111
NAME cloud3

TIL t
11111101
11111000
00000000
00000000
00000000
00000000
00000000
00000000
NAME cloud3

TIL u
00000000
10000000
11000000
11100000
11111000
11111100
11111100
11111100
NAME cloud3

TIL v
11111100
11111000
00000000
00000000
00000000
00000000
00000000
00000000
NAME cloud3

TIL w
00000000
00000000
00000000
00000000
00000000
00000000
00000001
00000011
NAME cloud4

TIL x
00000011
00000011
00000011
00000001
00000000
00000000
00000000
00000000
NAME cloud4

TIL y
00000000
00000000
00000000
00011111
00111111
01111111
11111111
11111111
NAME cloud4

TIL z
11111111
11111111
11111011
11110001
00000000
00000000
00000000
00000000
NAME cloud4

TIL 1a
00000001
00000001
00000001
00000001
00000001
00000001
00000001
00000001
NAME buildings

TIL 1b
00000000
00000000
00000000
00000000
00000000
00000001
00000111
00000111
NAME buildings

TIL 1c
00001101
00001111
00001111
00001111
00001111
00001111
00011111
00011111
NAME buildings

TIL 1d
00011011
00011111
00001111
00000000
00000000
00000000
10000000
10000000
NAME buildings

TIL 1e
00000000
00000000
00000000
00000000
00000000
10000000
11100000
11111000
NAME buildings

TIL 1f
11111000
11111000
10111100
11111100
11111100
01111100
11111100
11011100
NAME buildings

TIL 1g
11111100
11111000
11111000
11100000
10000001
10000011
10000111
10000111
NAME buildings

TIL 1h
00000000
00000000
00000000
00000000
11000011
11110111
11111111
11111111
NAME buildings

TIL 1i
00000000
00000000
00000001
00000111
00000111
00000111
00000111
00000110
NAME buildings

TIL 1j
00000110
00000110
00000111
10000111
11000111
11000111
11001111
10001111
NAME buildings

TIL 1k
00011111
01111111
11111111
11111111
11111111
10001111
10001111
00001110
NAME buildings

TIL 1l
00001110
00001110
11111111
11111111
11111111
11111111
11111111
11111111
NAME buildings

TIL 1m
00000000
00000000
00000000
00000000
00000000
01111100
11111100
11111100
NAME buildings

TIL 1n
11111100
11111100
11111100
11111100
11111100
10001100
10001100
00001100
NAME buildings

TIL 1o
00001100
00001100
11111100
11111100
11111100
11111100
11111111
11111111
NAME buildings

TIL 1p
00000000
00000000
00000000
00000000
00000000
00000000
00000001
00000111
NAME buildings

TIL 1q
00000000
00000000
00000000
00000000
00000000
00000000
00000000
00011111
NAME buildings

TIL 1r
00011111
00011111
00011111
00001000
00001000
11111111
10000000
10000000
NAME buildings

TIL 1s
10000000
10000000
10001100
10010010
10000001
10000000
10000000
10000000
NAME buildings

TIL 1t
10011111
10010000
10010000
10010000
10010000
10010000
10010000
10010000
NAME buildings

TIL 1u
00000000
00000000
00000000
00000000
00000000
00000000
00000000
11111100
NAME buildings

TIL 1v
11111100
11111100
11111100
10001000
10001000
11111111
00000000
00000000
NAME buildings

TIL 1w
00000000
00000000
00110000
01001000
10000000
00000000
00000000
00000000
NAME buildings

TIL 1x
11111100
10000100
10000100
10000100
10000100
10000100
10000100
10000100
NAME buildings

TIL 1y
00111111
01100000
11000000
10000000
10000000
10000000
10000000
10001111
NAME buildings

TIL 1z
10011000
10010000
10010000
10010000
10010000
10010000
10011000
10001111
NAME buildings

TIL 2a
11100000
00110000
00011000
00001000
00001000
00001000
00001000
10001000
NAME buildings

TIL 2b
11001000
01001000
01001000
01001000
01001000
01001000
11001000
10001000
NAME buildings

TIL 2c
00001000
00001000
00001000
00001000
00001000
00001000
00001000
00001000
NAME buildings

TIL 2d
00001000
00001000
00001000
00001000
00001000
00001000
00001100
00001100
NAME buildings


SPR A
00001000
00011100
00111110
01111111
01111111
00001000
00101000
00111000
POS 0 7,3

SPR c
00001000
00011100
00111110
01111111
01111111
00001000
00101000
00111000
NAME umbrella
COL 4

ITM 1
00000000
00001000
00001010
00010010
00010100
00000100
00000000
00000000
>
00000000
00000000
00001000
00001010
00010010
00010100
00000100
00000000
NAME rain
COL 4

END 0


END undefined
{br}     {clr3}{printSprite "umbrella"}{clr3}

END undefinee
{printSprite "umbrella"}

VAR a
42
