
Sunday Morning Church Bus

# BITSY VERSION 4.6

! ROOM_FORMAT 1

PAL 0
NAME BusIn
99,160,203
255,197,83
255,255,255

PAL 1
NAME BusOut
137,161,181
245,207,94
255,255,255

ROOM 0
0,n,n,n,n,n,n,n,n,n,n,n,n,n,0,0
12,0,0,0,0,0,0,0,0,0,0,0,0,0,o,0
12,0,0,0,0,0,0,0,0,0,0,0,0,0,m,m
12,0,0,0,0,0,0,0,0,0,0,0,0,0,o,12
12,n,n,n,n,n,n,n,n,n,n,n,n,n,o,12
12,0,0,0,0,0,0,0,0,0,0,n,n,0,o,12
12,a,a,a,a,a,a,a,a,a,a,e,e,a,m,m
12,0,0,0,0,0,0,0,0,0,0,e,e,0,o,12
0,m,v,u,m,m,m,m,m,m,m,0,0,v,u,m
0,0,s,t,0,0,0,0,0,0,0,0,0,s,t,0
0,0,0,0,0,0,0,0,0,0,0,0,0,0,0,0
0,0,0,0,0,0,0,0,0,0,0,0,0,0,0,0
0,0,0,0,0,0,0,0,0,0,0,0,0,0,0,0
0,0,0,0,0,0,0,0,0,0,0,0,0,0,0,0
0,0,0,0,0,0,0,0,0,0,0,0,0,0,0,0
m,m,m,m,m,m,m,m,m,m,m,m,m,m,m,m
NAME BusOut
EXT 11,6 1 3,1
EXT 12,6 1 2,1
PAL 1

ROOM 1
0,0,n,n,0,0,0,0,0,0,0,0,0,0,0,0
w,a,e,e,d,a,d,a,d,a,d,a,d,a,0,0
l,n,e,e,c,n,c,0,c,n,c,n,c,n,10,n
k,0,0,0,b,0,b,0,b,0,b,0,b,0,o,0
k,j,0,0,0,0,0,0,0,0,0,0,0,p,o,0
k,0,f,0,f,0,f,0,f,0,f,0,f,0,o,0
h,q,g,0,c,0,c,0,c,0,c,0,c,0,o,0
i,r,b,0,b,0,b,0,b,0,b,0,b,0,o,0
v,u,m,m,m,m,m,m,m,m,m,v,u,m,0,0
s,t,0,0,0,0,0,0,0,0,0,s,t,0,0,0
z,x,y,z,x,y,z,x,y,z,x,y,z,x,y,z
0,0,0,0,0,0,0,0,0,0,0,0,0,0,0,0
0,0,0,0,0,0,0,0,0,0,0,0,0,0,0,0
0,0,0,0,0,0,0,0,0,0,0,0,0,0,0,0
0,0,0,0,0,0,0,0,0,0,0,0,0,0,0,0
m,m,m,m,m,m,m,m,m,m,m,m,m,m,m,m
NAME BusInInter1
ITM 0 7,2
EXT 7,7 2 7,7
PAL 0

ROOM 2
0,0,n,n,0,0,0,0,0,0,0,0,0,0,0,0
w,a,e,e,d,a,d,a,d,a,d,a,d,a,0,0
l,n,e,e,c,n,c,0,c,n,c,n,c,n,10,n
k,0,0,1d,b,1a,b,1b,b,0,b,0,b,0,o,0
k,17,0,0,0,0,0,0,0,0,0,0,0,p,o,0
k,0,f,0,f,0,f,0,f,0,f,0,f,0,o,0
19,13,g,0,c,0,c,0,c,0,c,0,c,0,o,0
18,14,b,0,b,0,b,0,b,0,b,0,b,0,o,0
v,u,m,m,m,m,m,m,m,m,m,v,u,m,0,0
s,t,0,0,0,0,0,0,0,0,0,s,t,0,0,0
0,15,16,0,15,16,0,15,16,0,15,16,0,15,16,0
0,0,0,0,0,0,0,0,0,0,0,0,0,0,0,0
0,0,0,0,0,0,0,0,0,0,0,0,0,0,0,0
0,0,0,0,0,0,0,0,0,0,0,0,0,0,0,0
0,0,0,0,0,0,0,0,0,0,0,0,0,0,0,0
m,m,m,m,m,m,m,m,m,m,m,m,m,m,m,m
NAME BusIn1A
ITM 0 7,4
EXT 7,6 3 7,7
PAL 0

ROOM 3
0,0,n,n,0,0,0,0,0,0,0,0,0,0,0,0
w,a,e,e,d,a,d,a,d,a,d,a,d,a,0,0
l,n,e,e,c,n,c,0,c,n,c,n,c,n,10,n
k,0,1e,0,b,1a,b,1b,b,0,b,0,b,0,o,0
k,17,0,0,1d,0,0,0,0,0,0,0,0,p,o,0
k,0,f,0,f,0,f,0,f,0,f,0,f,0,o,0
19,13,g,0,c,0,c,0,c,0,c,0,c,0,o,0
18,14,b,0,b,0,b,0,b,0,b,0,b,0,o,0
v,u,m,m,m,m,m,m,m,m,m,v,u,m,0,0
s,t,0,0,0,0,0,0,0,0,0,s,t,0,0,0
0,15,16,0,15,16,0,15,16,0,15,16,0,15,16,0
0,0,0,0,0,0,0,0,0,0,0,0,0,0,0,0
0,0,0,0,0,0,0,0,0,0,0,0,0,0,0,0
0,0,0,0,0,0,0,0,0,0,0,0,0,0,0,0
0,0,0,0,0,0,0,0,0,0,0,0,0,0,0,0
m,m,m,m,m,m,m,m,m,m,m,m,m,m,m,m
NAME BusIn1B
ITM 0 7,4
EXT 7,6 4 7,7
PAL 0

ROOM 4
0,0,n,n,0,0,0,0,0,0,0,0,0,0,0,0
w,a,e,e,d,a,d,a,d,a,d,a,d,a,0,0
l,n,e,e,c,n,c,0,c,n,c,n,c,n,10,n
k,0,0,0,b,1a,b,1b,b,0,b,0,b,0,o,0
k,17,0,1e,0,1d,0,0,0,0,0,0,0,p,o,0
k,0,f,0,f,0,f,0,f,0,f,0,f,0,o,0
19,13,g,0,c,0,c,0,c,0,c,0,c,0,o,0
18,14,b,0,b,0,b,0,b,0,b,0,b,0,o,0
v,u,m,m,m,m,m,m,m,m,m,v,u,m,0,0
s,t,0,0,0,0,0,0,0,0,0,s,t,0,0,0
0,15,16,0,15,16,0,15,16,0,15,16,0,15,16,0
0,0,0,0,0,0,0,0,0,0,0,0,0,0,0,0
0,0,0,0,0,0,0,0,0,0,0,0,0,0,0,0
0,0,0,0,0,0,0,0,0,0,0,0,0,0,0,0
0,0,0,0,0,0,0,0,0,0,0,0,0,0,0,0
m,m,m,m,m,m,m,m,m,m,m,m,m,m,m,m
NAME BusIn1C
ITM 0 7,4
EXT 7,6 5 7,7
PAL 0

ROOM 5
0,0,n,n,0,0,0,0,0,0,0,0,0,0,0,0
w,a,e,e,d,a,d,a,d,a,d,a,d,a,0,0
l,n,e,e,c,n,c,0,c,n,c,n,c,n,10,n
k,0,0,0,b,1a,b,1b,b,0,b,0,b,0,o,0
k,17,0,0,1e,0,1d,0,0,0,0,0,0,p,o,0
k,0,f,0,f,0,f,0,f,0,f,0,f,0,o,0
19,13,g,0,c,0,c,0,c,0,c,0,c,0,o,0
18,14,b,0,b,0,b,0,b,0,b,0,b,0,o,0
v,u,m,m,m,m,m,m,m,m,m,v,u,m,0,0
s,t,0,0,0,0,0,0,0,0,0,s,t,0,0,0
0,15,16,0,15,16,0,15,16,0,15,16,0,15,16,0
0,0,0,0,0,0,0,0,0,0,0,0,0,0,0,0
0,0,0,0,0,0,0,0,0,0,0,0,0,0,0,0
0,0,0,0,0,0,0,0,0,0,0,0,0,0,0,0
0,0,0,0,0,0,0,0,0,0,0,0,0,0,0,0
m,m,m,m,m,m,m,m,m,m,m,m,m,m,m,m
NAME BusIn1D
ITM 0 7,4
EXT 7,6 6 7,6
PAL 0

ROOM 6
0,0,n,n,0,0,0,0,0,0,0,0,0,0,0,0
w,a,e,e,d,a,d,a,d,a,d,a,d,a,0,0
l,n,e,e,c,n,c,0,c,n,c,n,c,n,10,n
k,0,0,0,b,1a,b,1b,b,0,b,0,b,0,o,0
k,17,0,0,0,1e,0,0,0,0,0,0,0,p,o,0
k,0,f,0,f,0,f,0,f,0,f,0,f,0,o,0
19,13,g,0,c,0,c,0,c,0,c,0,c,0,o,0
18,14,b,0,b,0,b,0,b,0,b,0,b,0,o,0
v,u,m,m,m,m,m,m,m,m,m,v,u,m,0,0
s,t,0,0,0,0,0,0,0,0,0,s,t,0,0,0
0,15,16,0,15,16,0,15,16,0,15,16,0,15,16,0
0,0,0,0,0,0,0,0,0,0,0,0,0,0,0,0
0,0,0,0,0,0,0,0,0,0,0,0,0,0,0,0
0,0,0,0,0,0,0,0,0,0,0,0,0,0,0,0
0,0,0,0,0,0,0,0,0,0,0,0,0,0,0,0
m,m,m,m,m,m,m,m,m,m,m,m,m,m,m,m
NAME BusIn1E
ITM 0 7,4
EXT 7,7 7 7,7
PAL 0

ROOM 7
0,0,n,n,0,0,0,0,0,0,0,0,0,0,0,0
w,a,e,e,d,a,d,a,d,a,d,a,d,a,0,0
l,n,e,e,c,n,c,0,c,n,c,n,c,n,10,n
k,0,0,0,b,1a,b,1b,b,0,b,0,b,0,o,0
k,17,0,0,0,0,1e,0,1d,0,0,0,0,p,o,0
k,0,f,0,f,0,f,0,f,0,f,0,f,0,o,0
19,13,g,0,c,0,c,0,c,0,c,0,c,0,o,0
18,14,b,0,b,0,b,0,b,0,b,0,b,0,o,0
v,u,m,m,m,m,m,m,m,m,m,v,u,m,0,0
s,t,0,0,0,0,0,0,0,0,0,s,t,0,0,0
0,15,16,0,15,16,0,15,16,0,15,16,0,15,16,0
0,0,0,0,0,0,0,0,0,0,0,0,0,0,0,0
0,0,0,0,0,0,0,0,0,0,0,0,0,0,0,0
0,0,0,0,0,0,0,0,0,0,0,0,0,0,0,0
0,0,0,0,0,0,0,0,0,0,0,0,0,0,0,0
m,m,m,m,m,m,m,m,m,m,m,m,m,m,m,m
NAME BusIn1F
ITM 0 7,4
EXT 7,6 8 7,7
PAL 0

ROOM 8
0,0,n,n,0,0,0,0,0,0,0,0,0,0,0,0
w,a,e,e,d,a,d,a,d,a,d,a,d,a,0,0
l,n,e,e,c,n,c,1m,c,n,c,n,c,n,10,n
k,0,0,0,b,1a,b,1b,b,1d,b,0,b,0,o,0
k,17,0,0,0,0,0,0,0,0,0,0,0,p,o,0
k,0,f,0,f,0,f,0,f,0,f,0,f,0,o,0
19,13,g,0,c,0,c,0,c,0,c,0,c,0,o,0
18,14,b,0,b,0,b,0,b,0,b,0,b,0,o,0
v,u,m,m,m,m,m,m,m,m,m,v,u,m,0,0
s,t,0,0,0,0,0,0,0,0,0,s,t,0,0,0
0,15,16,0,15,16,0,15,16,0,15,16,0,15,16,0
0,0,0,0,0,0,0,0,0,0,0,0,0,0,0,0
0,0,0,0,0,0,0,0,0,0,0,0,0,0,0,0
0,0,0,0,0,0,0,0,0,0,0,0,0,0,0,0
0,0,0,0,0,0,0,0,0,0,0,0,0,0,0,0
m,m,m,m,m,m,m,m,m,m,m,m,m,m,m,m
NAME BusIn1G
ITM 0 7,4
EXT 7,6 9 7,7
PAL 0

ROOM 9
0,0,n,n,0,0,0,0,0,0,0,0,0,0,0,0
w,a,e,e,d,a,d,a,d,a,d,a,d,a,0,0
l,n,e,e,c,n,c,1m,c,n,c,n,c,n,10,n
k,0,0,0,b,1a,b,1b,b,1l,b,0,b,0,o,0
k,j,0,0,0,0,0,0,0,0,0,0,0,p,o,0
k,0,f,0,f,0,f,0,f,0,f,0,f,0,o,0
h,q,g,0,c,0,c,0,c,0,c,0,c,0,o,0
i,r,b,0,b,0,b,0,b,0,b,0,b,0,o,0
v,u,m,m,m,m,m,m,m,m,m,v,u,m,0,0
s,t,0,0,0,0,0,0,0,0,0,s,t,0,0,0
z,x,y,z,x,y,z,x,y,z,x,y,z,x,y,z
0,0,0,0,0,0,0,0,0,0,0,0,0,0,0,0
0,0,0,0,0,0,0,0,0,0,0,0,0,0,0,0
0,0,0,0,0,0,0,0,0,0,0,0,0,0,0,0
0,0,0,0,0,0,0,0,0,0,0,0,0,0,0,0
m,m,m,m,m,m,m,m,m,m,m,m,m,m,m,m
NAME BusInInter2
ITM 0 7,4
EXT 6,4 a 6,4
EXT 6,5 a 6,5
PAL 0

ROOM a
0,0,n,n,0,0,0,0,0,0,0,0,0,0,0,0
w,a,e,e,d,a,d,a,d,a,d,a,d,a,0,0
l,n,e,e,c,n,c,1m,c,n,c,n,c,n,10,n
k,0,0,0,b,1a,b,1b,b,1l,b,0,b,0,o,0
k,17,0,0,0,0,0,0,0,0,0,0,0,p,o,0
k,0,f,0,f,0,f,0,f,0,f,0,f,0,o,0
19,13,g,0,c,0,c,0,c,0,c,0,c,0,o,0
18,14,b,0,b,0,b,0,b,0,b,0,b,0,o,0
v,u,m,m,m,m,m,m,m,m,m,v,u,m,0,0
s,t,0,0,0,0,0,0,0,0,0,s,t,0,0,0
0,15,16,0,15,16,0,15,16,0,15,16,0,15,16,0
0,0,0,0,0,0,0,0,0,0,0,0,0,0,0,0
0,0,0,0,0,0,0,0,0,0,0,0,0,0,0,0
0,0,0,0,0,0,0,0,0,0,0,0,0,0,0,0
0,0,0,0,0,0,0,0,0,0,0,0,0,0,0,0
m,m,m,m,m,m,m,m,m,m,m,m,m,m,m,m
NAME BusIn2A
ITM 0 7,4
EXT 3,3 b 3,4
EXT 2,3 b 2,4
PAL 0

ROOM b
0,0,n,n,0,0,0,0,0,0,0,0,0,0,0,0
w,a,e,e,d,a,d,a,d,a,d,a,d,a,0,0
l,n,e,e,c,n,c,1m,c,n,c,n,c,n,10,n
k,0,1g,1f,b,1a,b,1b,b,1l,b,0,b,0,o,0
k,17,0,0,0,0,0,0,0,0,0,0,0,p,o,0
k,0,f,0,f,0,f,0,f,0,f,0,f,0,o,0
19,13,g,0,c,0,c,0,c,0,c,0,c,0,o,0
18,14,b,0,b,0,b,0,b,0,b,0,b,0,o,0
v,u,m,m,m,m,m,m,m,m,m,v,u,m,0,0
s,t,0,0,0,0,0,0,0,0,0,s,t,0,0,0
0,15,16,0,15,16,0,15,16,0,15,16,0,15,16,0
0,0,0,0,0,0,0,0,0,0,0,0,0,0,0,0
0,0,0,0,0,0,0,0,0,0,0,0,0,0,0,0
0,0,0,0,0,0,0,0,0,0,0,0,0,0,0,0
0,0,0,0,0,0,0,0,0,0,0,0,0,0,0,0
m,m,m,m,m,m,m,m,m,m,m,m,m,m,m,m
NAME BusIn2B
ITM 0 7,4
EXT 3,5 c 3,5
EXT 4,5 c 4,5
EXT 5,4 c 5,4
PAL 0

ROOM c
0,0,n,n,0,0,0,0,0,0,0,0,0,0,0,0
w,a,e,e,d,a,d,a,d,a,d,a,d,a,0,0
l,n,e,e,c,n,c,1m,c,n,c,n,c,n,10,n
k,0,1h,1e,b,1a,b,1b,b,1l,b,0,b,0,o,0
k,17,0,1g,1f,0,0,0,0,0,0,0,0,p,o,0
k,0,f,0,f,0,f,0,f,0,f,0,f,0,o,0
19,13,g,0,c,0,c,0,c,0,c,0,c,0,o,0
18,14,b,0,b,0,b,0,b,0,b,0,b,0,o,0
v,u,m,m,m,m,m,m,m,m,m,v,u,m,0,0
s,t,0,0,0,0,0,0,0,0,0,s,t,0,0,0
0,15,16,0,15,16,0,15,16,0,15,16,0,15,16,0
0,0,0,0,0,0,0,0,0,0,0,0,0,0,0,0
0,0,0,0,0,0,0,0,0,0,0,0,0,0,0,0
0,0,0,0,0,0,0,0,0,0,0,0,0,0,0,0
0,0,0,0,0,0,0,0,0,0,0,0,0,0,0,0
m,m,m,m,m,m,m,m,m,m,m,m,m,m,m,m
NAME BusIn2C
ITM 0 7,4
EXT 6,4 d 6,4
EXT 5,5 d 5,5
PAL 0

ROOM d
0,0,n,n,0,0,0,0,0,0,0,0,0,0,0,0
w,a,e,e,d,a,d,a,d,a,d,a,d,a,0,0
l,n,e,e,c,n,c,1m,c,n,c,n,c,n,10,n
k,0,0,1e,b,1a,b,1b,b,1l,b,0,b,0,o,0
k,17,0,1h,0,1f,0,0,0,0,0,0,0,p,o,0
k,0,f,0,1g,0,f,0,f,0,f,0,f,0,o,0
19,13,g,0,c,0,c,0,c,0,c,0,c,0,o,0
18,14,b,0,b,0,b,0,b,0,b,0,b,0,o,0
v,u,m,m,m,m,m,m,m,m,m,v,u,m,0,0
s,t,0,0,0,0,0,0,0,0,0,s,t,0,0,0
0,15,16,0,15,16,0,15,16,0,15,16,0,15,16,0
0,0,0,0,0,0,0,0,0,0,0,0,0,0,0,0
0,0,0,0,0,0,0,0,0,0,0,0,0,0,0,0
0,0,0,0,0,0,0,0,0,0,0,0,0,0,0,0
0,0,0,0,0,0,0,0,0,0,0,0,0,0,0,0
m,m,m,m,m,m,m,m,m,m,m,m,m,m,m,m
NAME BusIn2D
ITM 0 7,4
EXT 7,4 e 7,5
EXT 6,5 e 6,5
PAL 0

ROOM e
0,0,n,n,0,0,0,0,0,0,0,0,0,0,0,0
w,a,e,e,d,a,d,a,d,a,d,a,d,a,0,0
l,n,e,e,c,n,c,1m,c,n,c,n,c,n,10,n
k,0,0,0,b,1a,b,1b,b,1l,b,0,b,0,o,0
k,17,0,0,1e,0,1f,0,0,0,0,0,0,p,o,0
k,0,f,0,1h,1g,f,0,f,0,f,0,f,0,o,0
19,13,g,0,c,0,c,0,c,0,c,0,c,0,o,0
18,14,b,0,b,0,b,0,b,0,b,0,b,0,o,0
v,u,m,m,m,m,m,m,m,m,m,v,u,m,0,0
s,t,0,0,0,0,0,0,0,0,0,s,t,0,0,0
0,15,16,0,15,16,0,15,16,0,15,16,0,15,16,0
0,0,0,0,0,0,0,0,0,0,0,0,0,0,0,0
0,0,0,0,0,0,0,0,0,0,0,0,0,0,0,0
0,0,0,0,0,0,0,0,0,0,0,0,0,0,0,0
0,0,0,0,0,0,0,0,0,0,0,0,0,0,0,0
m,m,m,m,m,m,m,m,m,m,m,m,m,m,m,m
NAME BusIn2E
ITM 0 7,4
EXT 7,6 f 7,6
EXT 8,5 f 8,5
EXT 8,4 f 8,4
PAL 0

ROOM f
0,0,n,n,0,0,0,0,0,0,0,0,0,0,0,0
w,a,e,e,d,a,d,a,d,a,d,a,d,a,0,0
l,n,e,e,c,n,c,1m,c,n,c,n,c,n,10,n
k,0,0,0,b,1a,b,1b,b,1l,b,0,b,0,o,0
k,17,0,0,0,1h,0,0,0,0,0,0,0,p,o,0
k,0,f,0,f,1m,1g,1f,f,0,f,0,f,0,o,0
19,13,g,0,c,0,c,0,c,0,c,0,c,0,o,0
18,14,b,0,b,0,b,0,b,0,b,0,b,0,o,0
v,u,m,m,m,m,m,m,m,m,m,v,u,m,0,0
s,t,0,0,0,0,0,0,0,0,0,s,t,0,0,0
0,15,16,0,15,16,0,15,16,0,15,16,0,15,16,0
0,0,0,0,0,0,0,0,0,0,0,0,0,0,0,0
0,0,0,0,0,0,0,0,0,0,0,0,0,0,0,0
0,0,0,0,0,0,0,0,0,0,0,0,0,0,0,0
0,0,0,0,0,0,0,0,0,0,0,0,0,0,0,0
m,m,m,m,m,m,m,m,m,m,m,m,m,m,m,m
NAME BusIn2F
ITM 0 7,4
EXT 9,4 g 9,4
EXT 7,7 g 7,7
EXT 9,5 g 9,5
PAL 0

ROOM g
0,0,n,n,0,0,0,0,0,0,0,0,0,0,0,0
w,a,e,e,d,a,d,a,d,a,d,a,d,a,0,0
l,n,e,e,c,n,c,1m,c,n,c,n,c,n,10,n
k,0,0,0,b,1a,b,1b,b,1l,b,0,b,0,o,0
k,17,0,0,0,0,1h,0,1f,0,0,0,0,p,o,0
k,0,f,0,f,0,1e,1g,f,0,f,0,f,0,o,0
19,13,g,0,c,0,c,0,c,0,c,0,c,0,o,0
18,14,b,0,b,0,b,0,b,0,b,0,b,0,o,0
v,u,m,m,m,m,m,m,m,m,m,v,u,m,0,0
s,t,0,0,0,0,0,0,0,0,0,s,t,0,0,0
0,15,16,0,15,16,0,15,16,0,15,16,0,15,16,0
0,0,0,0,0,0,0,0,0,0,0,0,0,0,0,0
0,0,0,0,0,0,0,0,0,0,0,0,0,0,0,0
0,0,0,0,0,0,0,0,0,0,0,0,0,0,0,0
0,0,0,0,0,0,0,0,0,0,0,0,0,0,0,0
m,m,m,m,m,m,m,m,m,m,m,m,m,m,m,m
NAME BusIn2G
ITM 0 7,4
EXT 10,5 h 10,5
EXT 10,4 h 10,4
EXT 7,6 h 8,5
PAL 0

ROOM h
0,0,n,n,0,0,0,0,0,0,0,0,0,0,0,0
w,a,e,e,d,a,d,a,d,a,d,a,d,a,0,0
l,n,e,e,c,n,c,1m,c,n,c,n,c,n,10,n
k,0,0,0,b,1a,b,1b,b,1l,b,0,b,0,o,0
k,17,0,0,0,0,0,0,0,0,0,0,0,p,o,0
k,0,f,0,f,0,1h,1e,f,1f,f,0,f,0,o,0
19,13,g,0,c,0,c,0,c,0,c,0,c,0,o,0
18,14,b,0,b,0,b,1g,b,0,b,0,b,0,o,0
v,u,m,m,m,m,m,m,m,m,m,v,u,m,0,0
s,t,0,0,0,0,0,0,0,0,0,s,t,0,0,0
0,15,16,0,15,16,0,15,16,0,15,16,0,15,16,0
0,0,0,0,0,0,0,0,0,0,0,0,0,0,0,0
0,0,0,0,0,0,0,0,0,0,0,0,0,0,0,0
0,0,0,0,0,0,0,0,0,0,0,0,0,0,0,0
0,0,0,0,0,0,0,0,0,0,0,0,0,0,0,0
m,m,m,m,m,m,m,m,m,m,m,m,m,m,m,m
NAME BusIn2H
ITM 0 7,4
EXT 9,4 i 9,4
PAL 0

ROOM i
0,0,n,n,0,0,0,0,0,0,0,0,0,0,0,0
w,a,e,e,d,a,d,a,d,a,d,a,d,a,0,0
l,n,e,e,c,n,c,1m,c,n,c,n,c,n,10,n
k,0,0,0,b,1a,b,1b,b,1l,b,0,b,0,o,0
k,17,0,0,0,0,0,0,0,0,0,0,0,p,o,0
k,0,f,0,f,0,f,0,1e,0,f,0,f,0,o,0
19,13,g,0,c,1h,c,0,c,1f,c,0,c,0,o,0
18,14,b,0,b,0,b,1g,b,0,b,0,b,0,o,0
v,u,m,m,m,m,m,m,m,m,m,v,u,m,0,0
s,t,0,0,0,0,0,0,0,0,0,s,t,0,0,0
0,15,16,0,15,16,0,15,16,0,15,16,0,15,16,0
0,0,0,0,0,0,0,0,0,0,0,0,0,0,0,0
0,0,0,0,0,0,0,0,0,0,0,0,0,0,0,0
0,0,0,0,0,0,0,0,0,0,0,0,0,0,0,0
0,0,0,0,0,0,0,0,0,0,0,0,0,0,0,0
m,m,m,m,m,m,m,m,m,m,m,m,m,m,m,m
NAME BusIn2I
ITM 0 7,4
EXT 8,4 j 8,4
EXT 7,4 j 7,5
EXT 6,5 j 6,5
PAL 0

ROOM j
0,0,n,n,0,0,0,0,0,0,0,0,0,0,0,0
w,a,e,e,d,a,d,a,d,a,d,a,d,a,0,0
l,n,e,e,c,n,c,1m,c,n,c,n,c,n,10,n
k,0,0,0,b,1a,b,1b,b,1l,b,0,b,0,o,0
k,17,0,0,0,0,0,0,0,0,0,0,0,p,o,0
k,0,f,0,f,0,f,0,f,0,f,0,f,0,o,0
19,13,g,0,c,1h,c,0,c,1m,c,0,c,0,o,0
18,14,b,0,b,0,b,1g,b,1n,b,0,b,0,o,0
v,u,m,m,m,m,m,m,m,m,m,v,u,m,0,0
s,t,0,0,0,0,0,0,0,0,0,s,t,0,0,0
0,15,16,0,15,16,0,15,16,0,15,16,0,15,16,0
0,0,0,0,0,0,0,0,0,0,0,0,0,0,0,0
0,0,0,0,0,0,0,0,0,0,0,0,0,0,0,0
0,0,0,0,0,0,0,0,0,0,0,0,0,0,0,0
0,0,0,0,0,0,0,0,0,0,0,0,0,0,0,0
m,m,m,m,m,m,m,m,m,m,m,m,m,m,m,m
NAME BusIn2J
ITM 0 7,4
EXT 7,6 k 7,6
PAL 0

ROOM k
0,0,n,n,0,0,0,0,0,0,0,0,0,0,0,0
w,a,e,e,d,a,d,a,d,a,d,a,d,a,0,0
l,n,e,e,c,n,c,1m,c,n,c,n,c,n,10,n
k,0,0,0,b,1a,b,1b,b,1l,b,0,b,0,o,0
k,j,0,0,0,0,0,0,0,0,0,0,0,p,o,0
k,0,f,0,f,0,f,0,f,0,f,0,f,0,o,0
h,q,g,0,c,1h,c,0,c,1m,c,0,c,0,o,0
i,r,b,0,b,0,b,1g,b,1n,b,0,b,0,o,0
v,u,m,m,m,m,m,m,m,m,m,v,u,m,0,0
s,t,0,0,0,0,0,0,0,0,0,s,t,0,0,0
z,x,y,z,x,y,z,x,y,z,x,y,z,x,y,z
0,0,0,0,0,0,0,0,0,0,0,0,0,0,0,0
0,0,0,0,0,0,0,0,0,0,0,0,0,0,0,0
0,0,0,0,0,0,0,0,0,0,0,0,0,0,0,0
0,0,0,0,0,0,0,0,0,0,0,0,0,0,0,0
m,m,m,m,m,m,m,m,m,m,m,m,m,m,m,m
NAME BusInInter3
ITM 0 7,4
EXT 13,4 l 13,4
EXT 13,5 l 13,5
PAL 0

ROOM l
0,0,n,n,0,0,0,0,0,0,0,0,0,0,0,0
w,a,e,e,d,a,d,a,d,a,d,a,d,a,0,0
l,n,e,e,c,n,c,1m,c,n,c,n,c,n,10,n
k,0,0,0,b,1a,b,1b,b,1l,b,0,b,0,o,0
k,j,0,0,0,0,0,0,1k,0,0,0,0,p,o,0
k,0,f,0,f,0,f,0,f,0,f,0,f,0,o,0
h,q,g,0,c,1h,c,0,c,1m,c,1j,c,0,o,0
i,r,b,0,b,0,b,1o,b,1n,b,0,b,0,o,0
v,u,m,m,m,m,m,m,m,m,m,v,u,m,0,0
s,t,0,0,0,0,0,0,0,0,0,s,t,0,0,0
z,x,y,z,x,y,z,x,y,z,x,y,z,x,y,z
0,0,0,0,0,0,0,0,0,0,0,0,0,0,0,0
0,0,0,0,0,0,0,0,0,0,0,0,0,0,0,0
0,0,0,0,0,0,0,0,0,0,0,0,0,0,0,0
0,0,0,0,0,0,0,0,0,0,0,0,0,0,0,0
m,m,m,m,m,m,m,m,m,m,m,m,m,m,m,m
NAME BusInInter4
ITM 0 7,4
EXT 3,4 m 3,4
EXT 3,5 m 3,5
PAL 0

ROOM m
0,0,n,n,0,0,0,0,0,0,0,0,0,0,0,0
w,a,e,e,d,a,d,a,d,a,d,a,d,a,0,0
l,n,e,e,c,n,c,1m,c,1c,c,n,c,n,10,n
k,0,0,0,b,1a,b,1b,b,1l,b,1f,b,0,o,0
k,j,0,0,0,0,0,0,0,0,0,0,0,p,o,0
k,0,f,0,f,0,f,0,f,0,f,0,f,0,o,0
h,q,g,0,c,1h,c,0,c,1m,c,0,c,0,o,0
i,r,b,1q,b,0,b,1g,b,1n,b,1j,b,0,o,0
v,u,m,m,m,m,m,m,m,m,m,v,u,m,0,0
s,t,0,0,0,0,0,0,0,0,0,s,t,0,0,0
z,x,y,z,x,y,z,x,y,z,x,y,z,x,y,z
0,0,0,0,0,0,0,0,0,0,0,0,0,0,0,0
0,0,0,0,0,0,0,0,0,0,0,0,0,0,0,0
0,0,0,0,0,0,0,0,0,0,0,0,0,0,0,0
0,0,0,0,0,0,0,0,0,0,0,0,0,0,0,0
m,m,m,m,m,m,m,m,m,m,m,m,m,m,m,m
NAME BusInInter5
ITM 0 7,4
EXT 13,4 n 13,4
EXT 13,5 n 13,5
PAL 0

ROOM n
0,0,n,n,0,0,0,0,0,0,0,0,0,0,0,0
w,a,e,e,d,a,d,a,d,a,d,a,d,a,0,0
l,n,e,e,c,n,c,1m,c,1c,c,1p,c,n,10,n
k,0,0,1n,b,1a,b,0,b,1l,b,1f,b,0,o,0
k,j,0,0,0,0,0,0,0,0,1b,0,0,p,o,0
k,0,f,0,f,0,f,0,f,0,f,0,f,0,o,0
h,q,g,1m,c,1h,c,0,c,1m,c,1k,c,0,o,0
i,r,b,1q,b,1l,b,1g,b,1n,b,1j,b,0,o,0
v,u,m,m,m,m,m,m,m,m,m,v,u,m,0,0
s,t,0,0,0,0,0,0,0,0,0,s,t,0,0,0
z,x,y,z,x,y,z,x,y,z,x,y,z,x,y,z
0,0,0,0,0,0,0,0,0,0,0,0,0,0,0,0
0,0,0,0,0,0,0,0,0,0,0,0,0,0,0,0
0,0,0,0,0,0,0,0,0,0,0,0,0,0,0,0
0,0,0,0,0,0,0,0,0,0,0,0,0,0,0,0
m,m,m,m,m,m,m,m,m,m,m,m,m,m,m,m
NAME BusInInter6
ITM 0 9,4
EXT 4,4 o 4,4
EXT 4,5 o 4,5
PAL 0

ROOM o
0,0,n,n,0,0,0,0,0,0,0,0,0,0,0,0
w,a,e,e,d,a,d,a,d,a,d,a,d,a,0,0
l,n,e,e,c,n,c,0,c,0,c,1p,c,n,10,n
k,0,0,1n,b,1a,b,1e,b,1l,b,1f,b,0,o,0
k,17,0,0,0,0,0,0,1b,1k,0,0,0,p,o,0
k,0,f,0,f,1h,f,0,f,0,f,1c,f,0,o,0
19,13,g,1m,c,1l,c,0,c,1m,c,0,c,0,o,0
18,14,b,1q,b,0,b,1g,b,1n,b,1j,b,0,o,0
v,u,m,m,m,m,m,m,m,m,m,v,u,m,0,0
s,t,0,0,0,0,0,0,0,0,0,s,t,0,0,0
0,0,0,0,0,0,0,0,0,0,0,0,0,0,0,0
0,0,0,0,0,0,0,0,0,0,0,0,0,0,0,0
0,0,0,0,0,0,0,0,0,0,0,0,0,0,0,0
0,0,0,0,0,0,0,0,0,0,0,0,0,0,0,0
0,0,0,0,0,0,0,0,0,0,0,0,0,0,0,0
m,m,m,m,m,m,m,m,m,m,m,m,m,m,m,m
NAME BusIn3A
EXT 3,4 p 3,4
EXT 3,5 p 3,5
PAL 0

ROOM p
0,0,n,n,0,0,0,0,0,0,0,0,0,0,0,0
w,a,e,e,d,a,d,a,d,a,d,a,d,a,0,0
l,n,e,e,c,n,c,0,c,0,c,0,c,n,10,n
k,0,0,0,b,1a,b,0,b,0,b,0,b,0,o,0
k,17,0,0,1q,0,1l,1b,0,1k,1n,0,1p,p,o,0
k,0,f,0,1m,1h,f,1m,1d,1n,1m,1c,f,0,o,0
19,13,g,1m,c,0,c,1o,c,0,c,1j,c,0,o,0
18,14,b,0,b,0,b,0,b,0,b,0,b,0,o,0
v,u,m,m,m,m,m,m,m,m,m,v,u,m,0,0
s,t,0,0,0,0,0,0,0,0,0,s,t,0,0,0
0,0,0,0,0,0,0,0,0,0,0,0,0,0,0,0
0,0,0,0,0,0,0,0,0,0,0,0,0,0,0,0
0,0,0,0,0,0,0,0,0,0,0,0,0,0,0,0
0,0,0,0,0,0,0,0,0,0,0,0,0,0,0,0
0,0,0,0,0,0,0,0,0,0,0,0,0,0,0,0
m,m,m,m,m,m,m,m,m,m,m,m,m,m,m,m
NAME BusIn3B
END 0 2,2
END 0 3,2
PAL 0

TIL 10
10000000
10000000
10000000
10000000
10000000
10000000
10000000
11111111
NAME FloorNE
WAL true

TIL 11
10100011
10100011
10100011
10100011
10100011
10011111
10000011
11111111
NAME SeatS2
WAL true

TIL 12
00000001
00000001
00000001
00000001
00000001
00000001
00000001
00000001
NAME FloorW
WAL true

TIL 13
00001110
00011111
00011111
00010101
11111111
00011111
00001111
11111111
>
00001110
00011111
00011111
00011010
11111111
00011111
00001111
11111111
NAME DriverHeadStop
WAL true

TIL 14
00011111
00011111
00111011
01100011
11000110
00001100
00000000
00000000
NAME DriverFeetStop
WAL true

TIL 15
11111111
10000000
10000000
10000000
10000000
10000000
10000000
11111111
NAME RoadLine1Stop

TIL 16
11111111
00000001
00000001
00000001
00000001
00000001
00000001
11111111
NAME RoadLine2Stop

TIL 17
11111000
11111000
11111000
10001000
10001000
10001000
10001000
01110000
NAME TrashCanStop
WAL false

TIL 18
10001000
10001000
10001000
10010000
10100000
11011100
10011100
10000000
NAME BrakesStop
WAL true

TIL 19
00010100
00010110
00010101
00010101
00101111
01000101
10000101
10001010
NAME SteeringWheelStop
WAL true

TIL a
11111111
10000001
10000001
11111111
10000001
10000001
10000001
11111111
NAME window
WAL true

TIL b
11000101
11000101
11000101
11000101
11000101
11111001
11000001
11111111
NAME SeatS
WAL true

TIL c
00000101
00000101
00000101
11111101
11000101
11000101
11000101
11000111
NAME SeatM
WAL true

TIL d
11111111
10000001
10000001
11111111
10000001
10000001
10000111
11111101
NAME SeatWindow
WAL true

TIL e
10000001
10000001
10000001
10000001
10000001
10000001
10000001
10000001
NAME door
WAL false

TIL f
00000000
00000000
00000000
00000000
00000000
00000000
00000111
00000101
NAME SeatN
WAL false

TIL g
00000101
00000101
00000101
00000101
00000101
00000111
11111101
11000101
NAME SeatDriver
WAL false

TIL h
00010100
00010110
00010101
00010101
00101111
01000101
10000101
10001010
>
00010100
00010110
00010101
00010111
00101101
01000111
10000101
10001010
NAME SteeringWheel
WAL true

TIL i
10001000
10001000
10001000
10010000
10100000
11011100
10011100
10000000
>
10001000
10001000
10001000
10010000
10100000
11000000
10011100
10011100
NAME Brakes
WAL true

TIL j
11111000
11111000
11111000
10001000
10001000
10001000
10001000
01110000
>
01111100
01111100
01111100
01000100
01000100
01000100
01000100
00111000
NAME TrashCan
WAL false

TIL k
00010100
00010100
00010100
00010100
00010100
00010100
00010100
00010100
NAME Dashboard
WAL true

TIL l
00010000
00010000
00010000
00010000
00111000
01010100
10010100
10010100
NAME DashboardN
WAL true

TIL m
11111111
00000000
00000000
00000000
00000000
00000000
00000000
00000000
NAME FloorS
WAL true

TIL n
00000000
00000000
00000000
00000000
00000000
00000000
00000000
11111111
NAME FloorN
WAL true

TIL o
10000000
10000000
10000000
10000000
10000000
10000000
10000000
10000000
NAME FloorE
WAL true

TIL p
00000000
00000000
00000000
00000000
00000001
00000001
00000001
00000011
NAME Emergency
WAL false

TIL q
00001110
00011111
00011111
00010101
11111111
00011111
00001111
11111111
>
00001110
00011111
00011111
00001011
00011111
11111111
11111111
00011111
NAME DriverHead
WAL true

TIL r
00011111
00011111
00111011
01100011
11000110
00001100
00000000
00000000
>
00011111
00011111
00011011
00110110
01101100
00011000
00000000
00000000
NAME DriverFeet
WAL true

TIL s
10000011
10000001
01000000
01000000
00100000
00010000
00001100
00000011
NAME WheelSW
WAL true

TIL t
11000001
10000001
00000010
00000010
00000100
00001000
00110000
11000000
NAME WheelSE
WAL true

TIL u
11111111
00110001
00001001
00000101
00000011
00000011
10000001
11000001
NAME WheelNE
WAL true

TIL v
11111111
10001100
10010000
10100000
11000000
11000000
10000001
10000011
NAME WheelNW
WAL true

TIL w
00000011
00000100
00000100
00001000
00001000
00010000
00010000
00010000
NAME Windshield
WAL true

TIL x
11111111
10000000
10000000
10000000
10000000
10000000
10000000
11111111
>
00000000
00000000
00000000
00000000
00000000
00000000
00000000
00000000
NAME RoadLine1

TIL y
11111111
00000001
00000001
00000001
00000001
00000001
00000001
11111111
>
11111111
10000000
10000000
10000000
10000000
10000000
10000000
11111111
NAME RoadLine2

TIL z
00000000
00000000
00000000
00000000
00000000
00000000
00000000
00000000
>
11111111
00000001
00000001
00000001
00000001
00000001
00000001
11111111
NAME RoadLine3

TIL 1a
01111110
10000011
11111101
10101101
01111111
11111110
01111100
11111111
>
01111110
10000011
11111101
11010101
01111111
11111110
01111100
11111111
NAME Morgan

TIL 1b
00111110
01111111
01010111
00111111
00011011
00111111
00111100
01111110
NAME Beth
WAL true

TIL 1c
00000000
00000000
00111100
00101000
00111100
01111110
00111100
00100100
NAME Child1
WAL true

TIL 1d
00000000
00011000
00111100
00101000
00111100
01111110
00111100
00100100
NAME Child2
WAL true

TIL 1e
00000000
00111100
01111110
10101001
00111100
01111110
00111100
00111100
NAME Child3
WAL true

TIL 1f
00000000
00111100
01111110
01101010
10111100
01111110
00111100
00100100
NAME Child4
WAL true

TIL 1g
00000000
00011000
01111110
01111110
01101010
10111101
01111110
00100100
NAME Child5
WAL true

TIL 1h
00000000
00011000
00111100
01111110
01101010
11111100
01111110
00100100
NAME Child6
WAL true

TIL 1i
00000000
00011000
00111100
01111100
01101010
00111100
01111110
00100100
NAME Child7
WAL true

TIL 1j
00011000
00111100
01111111
00101000
00111100
01111110
00111100
00100100
NAME Child8
WAL true

TIL 1k
00000000
00000000
00111100
00010100
00111100
01111110
00111100
00100100
NAME Child1Flip
WAL true

TIL 1l
00000000
00011000
00111100
00010100
00111100
01111110
00111100
00100100
NAME Child2Flip
WAL true

TIL 1m
00000000
00111100
01111110
10010101
00111100
01111110
00111100
00111100
NAME Child3Flip
WAL true

TIL 1n
00000000
00111100
01111110
01010110
00111101
01111110
00111100
00100100
NAME Child4Flip
WAL true

TIL 1o
00000000
00011000
01111110
01111110
01010110
10111101
01111110
00100100
NAME Child5Flip
WAL true

TIL 1p
00000000
00011000
00111100
01111110
01010110
00111111
01111110
00100100
NAME Child6Flip
WAL true

TIL 1q
00000000
00011000
00111100
00111110
01010110
00111100
01111110
00100100
NAME Child7Flip
WAL true

SPR A
00111110
01111110
01010110
00111100
00011000
01111110
00111100
00100100
>
00111110
01111110
01010110
00111100
00011000
00111100
01111110
00100100
POS 0 0,11

SPR a
01111110
10000011
11111101
11010101
01111111
11111110
01111100
11111111
>
01111110
10000011
11111101
10101101
01111111
11111110
01111100
11111111
NAME Morgan
DLG SPR_0
POS 1 5,3

SPR b
00111110
01111111
01010111
00111111
00011011
01111111
00111100
01111110
>
00111110
01111111
01010111
00111111
01011011
00111111
00111100
01111110
NAME Beth
DLG SPR_1
POS 1 7,3

SPR c
00001110
00011111
00011111
00010101
11111111
00011011
00001111
11111111
>
00001110
00011111
00011111
00001011
00011111
11110111
11111111
00011111
NAME DriverHead
DLG SPR_2
POS 1 1,6

SPR d
00000000
00000000
00111100
00101000
00111100
01111110
00111100
00100100
NAME Child1
DLG SPR_3
POS 6 7,5

SPR e
00000000
00011000
00111100
00101000
00111100
01111110
00111100
00100100
>
00000000
00011000
00111100
00101000
00111110
00111100
00111100
00100100
NAME Child2
DLG SPR_4
POS 6 7,5

SPR f
01111110
10000011
11111101
11010101
01111111
11111110
01111100
11111111
NAME Morgan2
DLG SPR_5
POS a 5,3

SPR g
00000000
00111100
01111110
10101001
00111100
01111110
00111100
00100100
>
00000000
00111100
01111110
10101001
00111110
01111100
00111100
00100100
NAME Child3

SPR h
00000000
00011000
01111110
01111110
01101010
10111101
01111110
00100100
>
00000000
00011000
01111110
01111110
01101010
10111111
01111100
00100100
NAME Child4Sit
DLG SPR_6
POS g 7,5

SPR i
00000000
00011000
01111110
01111110
01101010
10111101
01111110
00100100
>
00000000
00011000
01111110
01111110
01101010
10111111
01111100
00100100
NAME Child4Phone
DLG SPR_7
POS k 7,7

ITM 0
00011100
00101010
01000001
10010101
11001001
01010011
00100110
00011100
NAME cookies
DLG ITM_0

DLG SPR_1
...

DLG SPR_0
Are you ready, Sam.

DLG SPR_2
How are you, Sam?

DLG ITM_0
These are cookies for the children.

DLG SPR_3
I want a cookie!

DLG SPR_4
Sup, Sam?

DLG SPR_5
Can you walk them to here, Sam?

DLG SPR_6
Bro. Sam, sit with me!

DLG SPR_7
Bro. Sam, can I play on your phone?

END 0
I line up the kindergarten kids and we enter the church. The older kids are driven to another gym entrance. Time to get to choir!

VAR a
42


