
Internet Girlfriend.

# BITSY VERSION 4.8

! ROOM_FORMAT 1

PAL 0
156,244,237
203,75,230
41,2,207

ROOM 0
u,u,s,u,u,u,u,u,u,u,u,u,u,u,u,u
u,u,u,u,u,z,z,z,z,z,z,z,u,u,t,u
u,u,u,u,z,0,0,p,q,r,0,0,z,u,u,u
t,u,u,10,0,0,0,m,n,o,0,0,0,10,u,u
s,u,10,11,j,j,k,l,0,v,w,x,y,11,10,u
u,u,12,k,g,f,c,e,c,e,c,h,i,15,12,u
u,u,12,d,b,d,b,d,b,d,b,d,b,d,12,u
u,u,12,e,c,e,c,e,c,e,c,e,c,e,12,u
u,u,12,d,b,d,b,d,b,d,b,d,b,d,12,u
u,u,11,10,c,e,c,e,c,e,c,e,c,10,11,u
u,u,13,12,b,d,b,d,b,d,b,d,b,12,16,u
u,u,14,11,10,e,c,e,c,e,c,e,10,11,17,u
u,u,u,13,11,10,10,d,b,d,10,10,11,16,u,u
u,t,u,14,13,11,12,e,c,e,12,11,16,17,s,u
u,u,u,u,14,13,12,d,b,d,12,16,17,u,u,u
u,u,u,t,u,14,12,e,c,e,12,17,u,u,u,u
EXT 7,15 1 15,12
EXT 8,15 1 15,12
EXT 9,15 1 15,12
PAL 0

ROOM 1
0,0,0,0,0,0,0,0,0,0,0,0,0,0,0,0
0,0,0,0,0,0,0,0,0,0,0,0,0,0,0,0
0,0,0,0,0,0,0,0,0,0,0,0,1a,1b,0,0
0,1a,1c,1b,0,0,0,0,0,0,0,0,0,0,0,0
0,0,0,0,0,0,0,0,0,0,0,0,0,0,0,0
0,0,0,0,0,0,1a,1b,0,0,0,0,0,0,0,0
0,0,0,0,0,0,0,0,0,0,0,0,0,0,0,0
0,0,0,0,0,0,0,0,0,0,0,0,0,0,0,0
0,0,0,0,0,0,0,0,0,0,0,0,0,0,0,0
18,19,18,19,18,19,18,19,18,19,18,19,18,19,18,19
u,u,u,u,u,u,u,u,u,u,u,u,u,u,u,u
u,1d,1e,1f,u,u,u,u,u,u,u,u,u,u,u,u
u,1g,u,u,u,u,u,u,u,t,u,u,u,u,u,u
u,u,u,u,u,u,u,u,u,u,u,u,u,u,u,u
u,u,u,s,u,u,u,u,u,u,u,u,u,u,u,u
u,u,u,u,u,u,u,u,u,u,u,u,s,u,u,u
EXT 0,12 3 15,11
PAL 0

ROOM 2
0,0,0,0,0,0,0,0,0,0,0,0,0,0,0,0
0,0,0,0,0,0,0,0,1a,1c,1b,0,0,0,0,0
0,0,0,0,0,0,0,0,0,0,0,0,0,0,0,0
0,0,0,0,0,0,0,0,0,0,0,0,0,0,0,0
1a,1b,0,0,0,1w,1t,0,0,0,0,0,0,0,0,0
0,0,0,20,1y,1v,1s,0,0,0,0,0,0,1a,1b,0
0,0,0,1z,1x,1u,1r,0,0,0,0,0,0,0,0,0
1k,1k,1k,1k,1k,1j,1i,1i,1i,1i,1i,1i,1m,0,0,0
18,1l,18,19,18,1l,18,19,18,19,18,1l,18,19,18,19
u,1h,u,u,u,1h,u,u,u,u,u,1h,u,u,u,u
1o,1n,u,u,1o,1n,u,u,u,u,1o,1n,4e,4e,u,1p
u,u,u,u,u,u,u,u,u,u,4e,0,u,u,4e,u
u,u,u,u,u,u,u,u,u,u,u,4e,4e,4e,u,u
u,u,u,u,u,u,1p,1q,u,u,u,u,u,u,u,u
u,1p,1q,u,u,u,u,u,u,u,u,u,u,u,u,u
u,u,u,u,u,u,u,u,u,u,u,u,u,1p,1q,u
NAME scene4
ITM 2 13,11
EXT 13,11 4 13,11
PAL 0

ROOM 3
0,0,0,0,0,0,0,0,0,0,0,0,0,0,0,0
0,0,0,0,0,0,0,0,1a,1c,1b,0,0,0,0,0
0,0,0,0,0,0,0,0,0,0,0,0,0,0,0,0
0,0,0,0,0,0,0,0,0,0,0,0,0,0,0,0
1a,1b,0,0,24,0,0,0,0,0,0,0,0,0,0,0
0,0,0,27,25,23,22,0,0,0,0,0,0,1a,1b,0
0,0,0,26,u,u,21,0,0,0,0,0,0,0,0,0
1k,1k,1k,1k,1k,1j,1i,1i,1i,1i,1i,1i,1m,0,0,0
18,1l,18,19,18,1l,18,19,18,19,18,1l,18,19,18,19
u,1h,u,u,u,1h,u,u,u,u,u,1h,u,u,u,4e
1o,1n,u,u,1o,1n,u,u,u,u,1o,1n,4e,4e,4e,1p
u,u,u,u,u,u,u,u,u,u,4e,u,u,u,u,u
u,u,u,u,u,u,u,u,u,u,u,4e,4e,4e,4e,4e
u,u,u,u,u,u,1p,1q,u,u,u,u,u,u,u,u
u,1p,1q,u,u,u,u,u,u,u,u,u,u,u,u,u
u,u,u,u,u,u,u,u,u,u,u,u,u,1p,1q,u
NAME SCENE3
ITM 1 11,11
ITM 0 14,11
EXT 11,11 2 11,11
EXT 10,12 2 11,11
EXT 11,13 2 11,11
EXT 11,14 2 11,11
PAL 0

ROOM 4
0,0,0,0,0,0,0,0,0,0,0,0,0,0,0,0
0,0,0,0,0,0,0,0,1a,1c,1b,0,0,0,0,0
0,0,0,0,0,0,0,0,0,0,0,0,0,0,0,0
0,0,0,0,0,0,0,0,0,0,0,0,0,0,0,0
1a,1b,0,0,0,1w,1t,0,0,0,0,0,0,0,0,0
0,0,0,20,1y,28,29,0,0,0,0,0,0,1a,1b,0
0,0,0,1z,1x,1u,1r,0,0,0,0,0,0,0,0,0
1k,1k,1k,1k,1k,1j,1i,1i,1i,1i,1i,1i,1m,0,0,0
18,1l,18,19,18,1l,18,19,18,19,18,1l,18,19,18,19
u,1h,u,u,u,1h,u,u,u,u,u,1h,u,u,u,u
1o,1n,u,u,1o,1n,u,u,u,u,1o,1n,u,4e,4e,1p
u,u,u,u,u,u,u,u,u,u,u,u,4e,u,u,4e
u,u,u,u,u,u,u,u,u,u,u,u,u,4e,4e,u
u,u,u,u,u,u,1p,1q,u,u,u,u,u,u,u,u
u,1p,1q,u,u,u,u,u,u,u,u,u,u,u,u,u
u,u,u,u,u,u,u,u,u,u,u,u,u,1p,1q,u
NAME scene 5
ITM 3 14,11
EXT 14,11 5 14,11
PAL 0

ROOM 5
0,0,0,0,0,0,0,0,0,0,0,0,0,0,0,0
0,0,0,0,0,0,0,0,1a,1c,1b,0,0,0,0,0
0,0,0,0,0,0,0,0,0,0,0,0,0,0,0,0
0,0,0,0,0,0,0,0,0,0,0,0,0,0,0,0
1a,1b,0,0,0,1w,1t,0,0,0,0,0,0,0,0,0
0,0,0,20,1y,28,29,0,0,0,0,0,0,1a,1b,0
0,0,0,1z,1x,1u,1r,0,0,0,0,0,0,0,0,0
1k,1k,1k,1k,1k,1j,1i,1i,1i,1i,1i,1i,1m,0,0,0
18,1l,18,19,18,1l,18,19,18,19,18,1l,18,19,18,19
u,1h,u,u,u,1h,u,u,u,u,u,1h,u,u,u,u
1o,1n,u,u,1o,1n,4e,4e,4e,4e,1o,1n,4e,4e,4e,1p
u,u,u,u,u,4e,u,u,u,u,u,u,u,u,u,4e
u,u,u,u,u,u,4e,4e,4e,4e,4e,4e,4e,4e,4e,u
u,u,u,u,u,u,1p,1q,u,u,u,u,u,u,u,u
u,1p,1q,u,u,u,u,u,u,u,u,u,u,u,u,u
u,u,u,u,u,u,u,u,u,u,u,u,u,1p,1q,u
NAME scene 6
ITM 4 10,11
ITM 5 6,11
EXT 6,11 6 6,11
PAL 0

ROOM 6
0,0,0,0,0,0,0,0,0,0,0,0,0,0,0,0
0,0,0,0,0,0,0,0,1a,1c,1b,0,0,0,0,0
0,0,0,0,0,0,0,0,0,0,0,0,0,0,0,0
0,0,0,0,0,0,0,0,0,0,0,0,0,0,0,0
1a,1b,0,0,0,1w,1t,0,0,0,0,0,0,0,0,0
0,0,0,20,1y,28,29,0,0,0,0,0,0,1a,1b,0
0,0,0,1z,1x,1u,1r,0,0,0,0,0,0,0,0,0
1k,1k,1k,1k,1k,1j,1i,1i,1i,1i,1i,1i,1m,0,0,0
18,1l,18,19,18,1l,18,19,18,19,18,1l,18,19,18,19
u,1h,u,u,u,1h,u,4e,u,u,u,1h,u,u,u,u
1o,1n,u,u,1o,1n,u,4e,4e,4e,1o,1n,4e,4e,4e,1p
u,u,u,u,u,4e,u,4e,u,u,u,u,u,u,u,u
u,u,u,u,u,u,4e,u,u,u,u,u,u,u,u,u
u,u,u,u,u,u,1p,1q,u,u,u,u,u,u,u,u
u,1p,1q,u,u,u,u,u,u,u,u,u,u,u,u,u
u,u,u,u,u,u,u,u,u,u,u,u,u,1p,1q,u
NAME Scene 7
ITM 6 6,9
EXT 6,9 7 8,15
PAL 0

ROOM 7
0,0,0,0,0,0,0,0,0,0,0,0,0,0,0,0
0,0,0,0,0,0,0,0,0,0,1a,1b,0,0,0,0
1a,1c,1b,0,0,0,0,0,0,0,0,0,0,0,0,0
0,0,0,0,0,2l,2m,0,0,0,0,0,35,36,0,0
0,0,0,0,0,2k,2n,2o,2s,2t,2w,33,34,37,0,0
0,0,0,0,2i,2j,2p,2q,2u,2v,2x,30,31,38,0,0
0,0,0,0,2h,0,0,2r,3h,3i,2y,2z,32,39,0,0
1b,0,0,0,2g,3f,3k,3o,3r,3u,3x,3y,3g,3a,3b,0
0,0,0,2d,2f,3j,3l,3p,3s,3v,3z,41,42,0,3c,0
0,0,0,2c,2e,3n,3m,3q,3t,3w,40,43,44,3e,3d,0
2a,2b,2a,2b,2a,2b,2a,2b,4d,2b,2a,2b,2a,2b,2a,2b
0,0,0,0,0,0,0,4f,4c,4f,0,0,0,0,0,0
0,0,0,0,0,0,0,4f,4c,4f,0,0,0,0,0,0
45,45,45,45,45,45,45,45,4c,45,45,45,45,45,45,45
0,0,46,47,47,47,47,48,4c,4f,0,0,0,0,0,46
18,19,4a,4b,4b,4b,4b,49,4c,18,19,18,19,18,19,4a
NAME scene 8
EXT 8,9 8 7,10
PAL 0

ROOM 8
u,u,u,u,u,u,u,u,u,u,u,u,u,u,u,u
u,u,u,t,u,u,u,u,u,u,u,u,t,u,u,u
u,u,u,u,4g,4h,4k,4m,4r,4s,u,u,u,u,u,u
u,u,u,u,4i,4j,4l,4n,4q,4t,u,u,u,u,u,u
u,u,u,u,u,u,4e,4o,4p,u,u,u,u,u,u,u
u,s,u,u,u,u,4e,u,4e,u,u,u,u,u,u,u
u,u,u,u,u,u,4e,u,4e,u,u,u,u,u,u,s
u,u,u,u,u,u,4e,u,4e,u,u,u,u,u,u,u
u,u,u,u,u,u,4e,u,4e,u,u,u,u,u,u,u
u,u,u,u,u,u,4e,u,4e,u,u,u,u,u,u,u
u,u,u,u,u,u,4e,u,4e,u,u,u,u,u,u,u
u,u,u,u,u,u,4e,u,4e,u,u,u,u,u,u,u
u,t,u,u,u,u,u,4e,u,u,u,u,s,u,u,u
u,u,u,u,u,u,u,u,u,u,u,u,u,u,u,u
u,u,u,u,u,t,u,u,u,u,u,u,u,u,u,u
u,u,u,u,u,u,u,u,u,u,u,u,u,u,u,u
ITM 7 7,6
END 0 7,4
PAL 0

TIL 10
11111111
11000011
10000001
10000001
10000001
10000001
10000001
10000001
WAL true

TIL 11
10000001
10000001
10000001
10000001
11000011
11111111
10010101
10001011
WAL true

TIL 12
10000001
10010010
10000001
10000001
01000001
10000001
10000101
10000001
WAL true

TIL 13
10000101
10001010
10000101
11000010
11001001
11000010
11100001
11100000

TIL 14
11110001
11110000
11111000
11111101
11111110
11111111
11111111
11111111

TIL 15
10000001
10000000
10000001
10000001
10000001
10000011
01111111
00001110

TIL 16
01000101
10001011
00000101
10001011
00010111
10101011
01010111
10100111

TIL 17
01011111
00101111
00011111
10111111
01111111
11111111
11111111
11111111

TIL 18
00000000
00000000
00000000
00000000
00011111
01111111
11111111
11111111
>
00000000
00000000
00000000
00000000
11111000
11111100
11111111
11111111
WAL true

TIL 19
00000000
00000000
00000000
00000000
10000000
11111000
11111111
11111111
>
00000000
00000000
00000000
00000000
00000001
00011111
11111111
11111111
WAL true

TIL 20
00110000
01111000
11111000
11011000
00011000
00011100
00001111
00000110
>
01000000
11011100
11111110
01110110
00000110
00000110
00000111
00000110

TIL 21
11111110
11111110
11111110
11111110
11111110
11111100
11111100
11111000

TIL 22
00000000
00000000
00000000
11100000
11110000
11111000
11111100
11111110

TIL 23
11000000
11110000
11111111
11111111
11111111
11111111
11111111
11111111
>
10000000
11110000
11111111
11111111
11111111
11111111
11111111
11111111

TIL 24
00000000
00000000
00000000
00000000
00000000
00001100
00001110
00001111
>
00000000
00000000
00000000
00000000
00000000
00000000
00001100
00001111

TIL 25
00000111
00000111
00000111
00000011
00000111
00011111
01111111
11111111

TIL 26
01111111
00111111
00001111
00001111
00011111
00011111
00111111
01111111
>
00111111
00011111
00001111
00000111
00011111
00011111
00111111
01111111

TIL 27
00000000
00000000
00000000
00000000
00000000
01111000
01111110
00111111
>
00000000
00000000
00000000
00000000
00000000
00110000
11111100
11111111

TIL 28
11001010
11111110
10000000
10110000
10011000
10001111
10000000
01000000
>
11001010
11111110
10000000
10110000
10011101
10001111
10000111
01000010

TIL 29
00100101
00111111
11100001
01000111
01001101
11111001
00000010
00000100
>
00100101
00111111
11100001
01000111
11101101
11111001
11111010
11010100

TIL 30
00000000
00000000
11111110
00000011
00000000
00000000
00000000
00000000

TIL 31
00000000
00000000
00000000
10000000
10000000
01000000
01000000
01100000

TIL 32
00100000
00100000
00110000
10010000
11110000
00110000
00000000
00000000

TIL 33
00000000
00000000
00000001
00000011
00001100
00011000
11110000
00000000

TIL 34
00111000
11100000
10000000
00000000
00000000
00000000
00000000
00000000

TIL 35
00000000
00000000
00000000
00000000
00000000
00000000
00000011
00001110

TIL 36
00000000
00000000
00000000
00000000
00000000
00111110
11100010
00000010

TIL 37
00000010
00000010
00000010
00000110
00000100
00000100
00000100
00001100

TIL 38
00001000
00001000
00001000
00010000
00010000
00110000
00100000
00100000

TIL 39
01100000
01100000
00110000
00011000
00001000
00001100
00000110
00000011

TIL 40
00111100
00111000
00111000
00010011
00011110
11110000
00000000
11111111
>
11111111
11111111
10111111
10011111
10001111
10001111
10000111
11111111

TIL 41
11111111
00001000
00011000
00111000
01111001
11111011
01111010
01111100
>
11111111
11111111
11111111
11111111
11111111
11111111
11111111
11111111

TIL 42
01110000
11100000
11000000
10000000
10000000
00000000
00000000
00000000
>
11111000
11111000
11111000
11111000
11110000
11110000
11110000
11100000

TIL 43
00111000
01100000
11000000
10000000
00000000
00000000
00000000
11111111
>
11111111
11111111
11111111
11111111
11111111
11111110
11111100
11111111

TIL 44
00000000
00000000
00000000
00000000
00000000
00000000
00000000
11111111
>
11000000
11000000
10000000
10000000
00000000
00000000
00000000
11111111

TIL 45
00000110
11101000
00000000
00011110
00000000
11111101
00111110
11111111
WAL true

TIL 46
11111111
11111111
11111111
11111111
11101000
11011000
10101000
11010100

TIL 47
11111111
11111111
11111111
11111111
00000100
00100000
00100000
00010010
WAL false

TIL 48
11111111
11111111
11111111
11100101
00000101
10010001
10000101
00000001
WAL true

TIL 49
00000001
01000001
00000001
01001001
00001001
00101001
10001001
00000001
WAL true

TIL a
11111111
10000001
10000001
10011001
10011001
10000001
10000001
11111111

TIL b
00011100
00110110
01111111
11010100
10001000
01011000
00101000
00111100
NAME a

TIL c
00100111
01000010
10000001
10000001
10000001
10000001
01000010
00111100
NAME c

TIL d
00000100
00001100
00010110
11100011
01110111
01011000
01110000
10010000
NAME b

TIL e
00001000
00001100
00001111
10011010
11110001
00011011
00001110
00000100
NAME d

TIL f
00000100
00000100
00000111
00011010
11110001
00011011
00001110
00000100
NAME Lcorn1

TIL g
00000100
00000010
00000001
00000001
00000001
00000001
00000010
11111100
NAME lcorn2

TIL h
00000100
00001000
00010000
10011100
11110010
00011011
00001110
00000100
NAME rcorn1

TIL i
00100000
00100000
00100001
01000000
01000001
10000001
01000011
00111100
NAME rcorn 2

TIL j
00010000
00000000
00000000
00010000
00000000
00000000
00001000
00001000

TIL k
10000001
10000001
01000000
01000000
01100000
00010000
00010000
00011000

TIL l
00001001
00000110
10000110
10001010
11110101
11000010
01100011
11111100

TIL m
00101110
00101011
00100111
00100000
00011111
00010011
00010011
00010011

TIL n
01000100
00111000
11111111
00000000
11111111
00001001
00000110
11111111
>
00000000
00000000
11111111
00000000
11111111
00001001
00100110
11111111

TIL o
10111100
10111100
00111100
00111100
11111100
11111000
11100000
11100000

TIL p
00011111
00100000
00100111
00101010
00101101
00101010
00101110
00101010

TIL q
11111111
00000000
11111111
11000000
00000000
01001000
00000000
11111100

TIL r
11100000
00110000
00111000
10111000
10111100
10111100
10111100
10111100

TIL s
11111111
11111111
11100111
11000011
11000011
11100111
10111111
11111111
>
11111111
11101111
11111111
11111111
11010011
11100001
11100001
11110011
NAME bubs 1

TIL t
11111111
11111111
10111111
11111111
11111111
11100111
11100111
11111111
>
11111111
11111111
11111111
11111111
11111111
11111111
11100111
11100111
NAME bubs2

TIL u
11111111
11111111
11111111
11111111
11111111
11111111
11111111
11111111
NAME dark

TIL v
10100000
01100000
01000001
01000001
11100010
01111010
11001101
00110000

TIL w
00000100
00000100
00000000
00001000
00001000
00010000
10100000
01111000

TIL x
00010000
00010001
00000000
00100001
00100000
01000010
01000010
10000010

TIL y
00001000
00000000
00000000
00001000
00000000
00010000
00000000
00010000

TIL z
11111111
11111111
11000011
10000001
00000001
10000011
01111101
00000001
WAL true

TIL 1a
00000000
00000001
00011101
00100010
01000000
01111111
00000000
00000000

TIL 1b
11100000
00011000
00000100
00000010
00000001
11111111
00000000
00000000

TIL 1c
11100001
00010110
00001000
00000000
00000000
11111111
00000000
00000000

TIL 1d
11111111
11111111
10000000
10011001
10010101
11010101
10011001
10000000

TIL 1e
11111111
11111111
00000000
11011010
01010010
01010011
11011010
00000000

TIL 1f
11111111
11111111
00011111
10011111
10111111
00011111
10011111
00011111

TIL 1g
11111111
11101111
11000001
10000001
11000001
11101111
11111111
11111111
>
11100111
11010000
10111110
01111110
10111110
11010000
11100111
11111111

TIL 1h
11000001
11000101
10100101
10100001
10101001
10101001
10001001
10101001
WAL true

TIL 1i
11111111
10000011
00110000
11000000
00000011
00111000
00000110
11111111

TIL 1j
11111111
11001110
01111100
11100100
11111100
10001100
11111010
11111111

TIL 1k
11111111
00111111
11100011
00011110
11100011
10111110
01110001
11111111

TIL 1l
11111111
11111111
11111111
11110001
11100101
11010001
11010001
10000101

TIL 1m
11111110
00100001
00001101
11100001
00000011
00111001
00010010
11111100

TIL 1n
10010001
10100101
10100101
10000101
10010011
10100001
11010011
11111111
WAL true

TIL 1o
11111111
11111111
11111100
11111011
11110111
11111011
11111100
11111111
>
11111111
11111111
11111011
11101110
11011101
11101110
11111011
11111111
WAL true

TIL 1p
11111111
11111111
11111111
11111000
11101111
10111111
11111111
11111111
>
11111111
11111111
11111111
11111111
11010111
01111100
11111111
11111111

TIL 1q
11111111
11111111
11111111
11111111
00111010
11001111
11111111
11111111
>
11111111
11111111
11111111
11001111
01111111
11111001
11111111
11111111

TIL 1r
00000100
00000010
00000010
00110001
01000001
10000001
10000001
01111110

TIL 1s
00100101
00111111
11100001
01000111
01001101
11111001
00000010
00000100

TIL 1t
00000100
00001010
00010010
00010010
11100001
00000001
00011111
00100001

TIL 1u
00000000
00000000
00010000
00001100
00000011
10000000
11000000
11111111

TIL 1v
11001010
11111110
10000000
10110000
10011000
10001111
10000000
01000000

TIL 1w
00001000
00010100
00100100
01000100
01000011
10000000
10111100
11000010

TIL 1x
00000000
00000000
00000000
00110000
00001000
00001000
00001000
11111111

TIL 1y
00000000
00000000
00000000
00111111
01100101
10101001
00101010
00000000

TIL 1z
00000100
00000100
00001000
00001000
00001000
00001000
00001000
00001111

TIL 2a
11111111
01000000
00111100
00000010
10000000
01100011
00011000
00000001

TIL 2b
11111111
00000000
00001110
10000001
01110000
00000000
00001110
01100001
WAL true

TIL 2c
11000000
10000100
10001000
10010000
10010000
10010000
10010000
11111111

TIL 2d
00000000
00000000
00000000
00000000
00000111
00011100
00110000
01100000

TIL 2e
00001100
00000100
00100110
01100010
01000001
11000001
10000000
11111111

TIL 2f
00100000
00110000
00010000
11110000
00010000
00001000
00001000
00001000

TIL 2g
00100000
00100000
00100000
00100000
00100000
00100000
00100000
00100000

TIL 2h
00001100
00001000
00010000
00010000
00110000
00100000
00100000
00100000

TIL 2i
00000000
00000000
00000001
00000011
00000010
00000010
00000110
00000100

TIL 2j
01100001
11000011
10000110
00000100
00000100
00001000
00001000
00001111

TIL 2k
00010000
00010000
00010000
00010000
00010000
00010000
00010000
00110000

TIL 2l
00011110
00100001
00100000
00100000
00100000
00100000
00100000
00100000

TIL 2m
00000000
11000000
01100000
00110000
00011000
00001000
00000100
00000011

TIL 2n
00000000
00000000
00000000
00000000
00000000
00000000
00000000
11111111

TIL 2o
11000000
01100000
00110000
00011111
00000000
00000000
00000000
10000000

TIL 2p
00000000
00000000
00000000
00000000
00000010
00000110
00000110
11111110

TIL 2q
11100000
00110000
00011000
00001000
00001000
00001100
00000100
00000100

TIL 2r
10000100
01110100
00011100
00000100
00000000
00000000
00000000
00000000

TIL 2s
00000000
00000000
00000000
11110000
00111111
00111000
00011000
00011000

TIL 2t
00000000
00000000
00000000
00000000
11111100
00111111
00110000
00110000

TIL 2u
00011000
00001100
00001100
00000000
00000000
00000000
00000000
00000000

TIL 2v
00110000
00100000
00100000
00000000
00000000
00000000
00000000
00000000

TIL 2w
00000000
00000000
00000000
00000000
00000000
11111111
01110001
01100000

TIL 2x
01100000
11000000
10000001
10000110
00001100
00011000
00010000
00110000

TIL 2y
00100000
01100000
01000000
11001111
11111000
11000000
00000000
00000000

TIL 2z
11000000
11000000
11000000
11111111
00000000
00000000
00000000
00000000

TIL 3a
00000001
00000001
00000000
00000000
00000000
00000000
00000000
00000000

TIL 3b
00000000
10000000
10000000
10000000
10000000
10000000
10000000
10000000

TIL 3c
01000000
01000000
01000000
01000000
11110000
10011000
10000100
10000010

TIL 3d
00000001
00000001
00010001
00001001
10001001
10001001
10001001
11111111

TIL 3e
00000001
00000011
00000010
00000100
00001000
00010000
00100000
11111111

TIL 3f
00000000
01110000
01111000
01111100
01100111
00000011
00000011
00000011

TIL 3g
00000000
00000000
00000000
00000000
00000110
00001110
11111110
11111000

TIL 3h
00001111
00000111
00000001
00000001
00000001
00000001
00000001
00000011

TIL 3i
11000000
11110000
11110000
10000000
00000000
00000000
00000000
00000000

TIL 3j
00000011
00000001
00000001
00000000
00000000
00000000
00000000
00000000
>
00000011
00000011
00000011
00000011
00000011
00000001
00000001
00000000

TIL 3k
00000000
00000000
00000000
00000000
00000000
11100000
00111111
10001000
>
00000000
00000001
00111110
11110000
11110000
11111001
11111001
11111101

TIL 3l
10001000
11011000
11011100
11110100
11100110
01100011
00100001
00100001
>
11111111
11111111
11111111
11111111
11111111
11111111
11111111
11111111

TIL 3m
00011000
00000110
00000011
00000001
00000000
00000000
00000000
11111111
>
01111111
01111111
00111111
00011111
00001111
00000111
00000011
11111111

TIL 3n
00000000
00000000
00000000
00000000
00000000
00000000
00000000
11111111

TIL 3o
00000000
00000000
00000000
00000000
00000111
01111100
11000100
00000100
>
00001111
11111111
11111111
11111111
11111111
11111111
11111111
11111111

TIL 3p
00000110
00000110
00000111
00001101
00011000
00010000
00100000
11100000
>
11111111
11111111
11111111
11111111
11111111
11111111
11111111
11111111

TIL 3q
11000000
10000000
11000001
11000001
01110111
00011111
00000111
11111111
>
11111111
11101111
11001111
10001111
10001111
00001111
10011111
11111111

TIL 3r
00000011
00000111
00001111
11111111
10001111
00000111
00000011
00000011
>
11111111
11111111
11111111
11111111
11111111
11111111
11111111
11111111

TIL 3s
00000011
00000111
00000111
00000111
00001111
11001011
01111011
00110011
>
11111111
11111111
11111111
11111111
11111111
11111111
11111111
11111111

TIL 3t
01100011
11000001
10000001
00000001
00000001
00000011
11111111
11111111
>
11111111
11111111
11111111
11111111
11111111
11111111
11111111
11111111

TIL 3u
10000000
11100000
11011000
10001100
00000011
00000001
00000000
00000000
>
11111100
11111111
11111111
11111111
11111111
11111111
11111111
11111111

TIL 3v
00000000
10000000
10000001
11000011
11000110
11100110
10101100
00111100
>
11111111
11111111
11111111
11111111
11111111
11111111
11111111
11111111

TIL 3w
00011100
00011100
00001000
00001000
00001000
00000100
11111111
11111111
>
11111111
11111111
11111111
11111111
11111111
11111111
11111111
11111111

TIL 3x
00000000
00000000
00000000
00000000
00000000
10000000
11100000
01111111
>
00000000
00000000
11100000
11111100
11111111
11111000
11111000
11111000

TIL 3y
00000000
00000000
00000000
00000000
00000000
00000000
00000000
00000001
>
00000000
00000000
00000000
00000000
11100000
01111110
01111111
11111111

TIL 3z
11110001
11100000
11100000
11100000
11100000
11100001
11100111
01101110
>
11111000
11111001
11111011
11111111
11111111
11111111
11111111
11111111

TIL 4a
10100000
11000100
11100100
11001000
10100000
10100100
11010100
10100000

TIL 4b
01000000
01000100
01000000
01000000
01001000
00001000
00001000
00000000

TIL 4c
10111101
10000001
10111101
10000001
10111101
10000001
10111101
10000001

TIL 4d
11111111
10111101
10111101
10000001
10111101
10000001
10111101
10000001

TIL 4e
11111111
11111111
11111111
11111111
11111111
11111111
11111111
11111111
NAME WALL DARK
WAL true

TIL 4f
00000000
00000000
00000000
00000000
00000000
00000000
00000000
00000000
NAME WALL LIGHT
WAL true

TIL 4g
11111111
11111111
11111111
11111111
11111111
11111100
11110000
11100000

TIL 4h
11111111
11111111
11111111
11111111
01101111
00101111
00100111
01100100

TIL 4i
10000000
10000000
10001000
10011000
11111100
11111100
11111100
11111110

TIL 4j
11100000
11110001
11110011
11111001
01111001
01111111
01111111
01111111

TIL 4k
11111111
11111111
11111111
11110001
11100000
11100100
11100001
01100111

TIL 4l
00110000
00011001
10011111
11111111
11111110
11111110
11111110
11111110

TIL 4m
11111111
11111111
11111111
11111111
11111111
11111111
11111111
01111111

TIL 4n
01111111
11001110
00000110
00001110
00011110
00110110
01100111
01001111

TIL 4o
00011001
00110001
10000011
10001111
11111111
11111111
11111111
11111111

TIL 4p
00111111
11111111
11111111
11111111
11111111
11111111
11111111
11111111

TIL 4q
11100110
01100110
00100110
00010011
01000011
01100011
00110011
00111111

TIL 4r
11111111
11111111
11111111
11111100
11110000
11110000
11111001
11100100

TIL 4s
11111111
11111111
11111111
00111111
00001111
10001111
11001111
11001111

TIL 4t
11001111
10001111
00011111
00111111
11111111
11111111
11111111
11111111

SPR A
00000000
01111000
11111101
10101111
11111111
10001111
01111101
01000100
POS 0 8,5

SPR a
00001000
00000100
00001000
00011100
11111111
11010101
10101011
11111111
>
00001000
00000100
00001000
00011100
11111111
10101011
11010101
11111111
DLG SPR_0
POS 0 8,4

ITM 0
00111000
01000100
10010010
10010010
10000010
10010001
01000010
00111100
>
00000000
00000000
00000000
00000000
00000000
00000000
00000000
00000000
NAME tea
DLG ITM_0

ITM 1
00111000
01000100
10010010
10010010
10000010
10010001
01000010
00111100
>
00000000
00000000
00000000
00000000
00000000
00000000
00000000
00000000
DLG ITM_1

ITM 2
00111100
01000010
10000001
10000001
10101011
00000001
10000001
01111110
>
00111100
01000010
10000001
10000001
10101001
00000001
10000001
01111110
DLG ITM_2

ITM 3
00111100
01000010
10000001
10000001
10101011
00000001
10000001
01111110
>
00111100
01000010
10000001
10000001
10101001
00000001
10000001
01111110
DLG ITM_3

ITM 4
00111100
01000010
10000001
10000001
10101011
00000001
10000001
01111110
>
00111100
01000010
10000001
10000001
10101001
00000001
10000001
01111110
DLG ITM_4

ITM 5
00111100
01000010
10000001
10000001
10101011
00000001
10000001
01111110
>
00111100
01000010
10000001
10000001
10101001
00000001
10000001
01111110
DLG ITM_5

ITM 6
00111100
01000010
10000001
10000001
10101011
00000001
10000001
01111110
>
00111100
01000010
10000001
10000001
10101001
00000001
10000001
01111110
DLG ITM_6

ITM 7
10000001
00000000
00000000
00000000
01010100
00000000
10000001
11111111
>
10000001
00000000
00000000
00000000
01010000
00000000
10000001
11111111
DLG ITM_7

DLG SPR_0
"""
Hey, it's me your internet girlfriend



What? You wanna {wvy}MEEEET{wvy}? like.. {wvy}IRL{wvy}?

Okay fine! meet me at the docks! {wvy}Ill see you there{wvy}. 
"""

DLG ITM_0
{clr2}IT'S MY INTERNET GIRLFRIEND! She's {wvy}SO BIG!{wvy}{clr2}

DLG ITM_1
{clr2}OH MY GOD! ITS A {shk}CAAAAT!{shk}{clr2}

DLG ITM_2
{clr1}What's the matter? Don't you recognize your {wvy}INTERNET GIRLFRIEND?!{wvy}{clr1}

DLG ITM_3
{wvy}{clr1}Why don't you come over here and we can talk about it?{clr1}{wvy}

DLG ITM_4
{clr1}That's it! just {wvy}relax{wvy}. I just want to explain myself.{clr1}

DLG ITM_5
{clr1}I'll tell you why I pretend to be a fish on the internet...{clr1}

DLG ITM_6
{wvy}{clr1}Just a little closer...{clr1}{wvy}

DLG ITM_7
"""
{clr2}I guess that's it then...

This is where I live now.. 


I sure hope you enjoyed my {wvy}romantic journey!{wvy}{clr2}
"""

END 0
{wvy}A tiny game by HmnPrsn. 

VAR a
42


