
Toy Box

# BITSY VERSION 4.5

! ROOM_FORMAT 1

PAL 0
NAME sleepy
32,50,247
26,101,255
231,235,252

PAL 1
NAME noon
18,135,255
56,192,255
245,254,255

PAL 2
NAME afternoon
2,125,196
70,184,219
213,233,255

PAL 3
NAME dusk
197,97,115
254,179,189
247,247,247

PAL 4
NAME twilight
97,35,107
107,60,79
216,201,227

PAL 5
NAME scared
0,0,0
255,12,4
255,255,255

PAL 6
NAME end
255,255,255
216,231,247
6,1,41

PAL 7
NAME evening
123,160,137
137,201,194
255,255,255

PAL 8
NAME sunset
45,119,140
129,180,194
249,255,249

PAL 9
NAME night
37,2,97
66,66,69
105,107,110

PAL a
NAME sleepy b
2,9,207
62,88,255
255,255,255

PAL b
NAME void
0,0,0
3,15,255
255,255,255

PAL c
NAME anim2
92,18,25
255,99,76
255,255,255

ROOM 0
e,e,e,e,e,e,e,e,e,e,e,e,e,e,e,e
e,a,a,a,a,a,a,a,a,a,a,a,a,a,a,e
e,a,0,0,0,0,0,0,0,0,0,0,0,0,a,e
e,a,0,0,0,0,0,0,0,0,0,0,0,0,a,e
e,a,0,0,0,0,0,0,0,0,0,0,0,0,a,e
e,a,0,0,0,0,0,0,0,0,0,0,0,0,a,e
0,0,0,0,0,0,e,e,e,e,0,0,0,0,0,0
0,0,0,0,0,0,e,f,f,e,0,0,0,0,0,0
0,0,0,0,0,0,e,f,f,e,0,0,0,0,0,0
0,0,0,0,0,0,e,e,e,e,0,0,0,0,0,0
e,a,0,0,0,0,0,0,0,0,0,0,0,0,a,e
e,a,0,0,0,0,0,0,0,0,0,0,0,0,a,e
e,a,0,0,0,0,0,0,0,0,0,0,0,0,a,e
e,a,0,0,0,0,0,0,0,0,0,0,0,0,a,e
e,a,a,a,a,a,a,a,a,a,a,a,a,a,a,e
e,e,e,e,e,e,e,e,e,e,e,e,e,e,e,e
NAME cradle
EXT 0,7 1 15,7
EXT 0,8 1 15,8
EXT 0,9 1 15,9
EXT 0,6 1 15,6
EXT 15,6 3 0,7
EXT 15,7 3 0,8
EXT 15,8 3 0,8
EXT 15,9 3 0,9
PAL 0

ROOM 1
e,e,e,e,e,e,e,e,e,e,e,e,e,e,e,e
j,j,j,j,j,j,j,j,j,j,j,j,j,j,j,e
w,w,w,w,0,w,w,w,w,w,w,w,w,w,w,e
k,k,k,k,k,k,k,k,k,k,k,k,k,k,k,e
0,0,0,0,0,0,0,0,0,0,0,0,0,0,0,e
0,g,0,0,0,0,0,0,p,0,0,0,0,0,0,e
0,0,o,0,0,0,0,0,0,0,0,0,0,0,0,0
0,0,0,0,0,0,0,0,0,0,0,0,p,0,0,0
n,n,n,n,n,n,n,n,n,n,n,0,0,0,0,0
n,n,n,n,n,n,n,n,n,n,n,0,0,0,0,0
j,j,j,j,j,j,j,j,j,j,j,0,o,0,0,e
q,u,q,u,q,u,q,u,q,u,q,0,0,0,0,e
0,0,0,0,0,0,0,0,0,0,0,o,0,0,0,e
0,0,0,p,0,0,0,0,0,0,o,0,0,0,0,e
0,0,0,0,0,0,0,0,0,0,0,0,0,0,0,e
e,e,e,e,e,e,e,e,e,e,e,e,e,e,e,e
NAME restroom
EXT 0,7 2 15,7
EXT 0,6 2 15,6
EXT 0,5 2 15,5
EXT 0,4 2 15,4
EXT 0,13 2 15,13
EXT 0,14 2 15,14
EXT 15,6 0 0,6
EXT 15,7 0 0,7
EXT 15,8 0 0,8
EXT 15,9 0 0,9
EXT 0,12 2 15,12
EXT 1,11 c 1,11
EXT 3,11 c 3,11
EXT 5,11 c 5,11
EXT 7,11 c 7,11
EXT 9,11 c 9,11
PAL 0

ROOM 2
e,e,e,e,e,e,e,e,e,e,e,e,e,e,e,e
e,j,j,j,j,j,j,j,j,j,j,j,j,j,j,j
e,y,w,w,w,w,w,w,w,w,y,w,w,w,w,w
e,w,w,w,w,w,y,w,w,w,w,w,w,y,w,w
e,0,0,0,0,0,0,0,0,0,0,0,0,0,0,0
e,0,0,0,0,0,0,0,0,0,0,0,0,0,0,0
e,0,0,0,0,0,0,0,0,0,0,0,0,0,0,0
e,0,0,0,0,0,0,0,0,0,0,0,0,0,0,0
e,0,n,n,n,0,0,0,0,n,n,n,n,n,n,n
z,0,n,n,n,0,0,0,0,n,n,n,n,n,n,n
z,0,j,j,j,0,0,0,0,j,j,j,j,j,j,j
e,0,q,u,q,0,0,0,0,q,u,q,u,q,u,q
e,0,0,0,0,0,0,0,0,0,0,0,0,0,0,0
e,0,0,0,0,0,0,0,0,0,0,0,0,0,0,0
e,0,0,0,0,0,0,0,0,0,0,0,0,0,0,0
e,e,e,e,e,e,e,e,e,e,e,e,e,e,e,e
NAME restroom2
EXT 15,4 1 0,4
EXT 15,5 1 0,5
EXT 15,6 1 0,6
EXT 15,7 1 0,7
EXT 15,10 1 0,10
EXT 15,11 1 0,11
EXT 15,12 1 0,12
EXT 15,13 1 0,13
EXT 15,14 1 0,14
EXT 3,11 g 3,11
EXT 10,11 g 10,11
EXT 12,11 g 12,11
EXT 14,11 g 14,11
EXT 0,10 f 15,10
EXT 0,9 f 15,9
PAL 0

ROOM 3
e,e,e,e,e,e,e,e,e,e,e,e,e,e,e,e
e,e,e,e,e,e,e,e,e,e,e,e,e,e,e,e
e,11,11,11,11,11,11,11,11,11,11,11,11,11,11,11
e,11,16,11,16,11,16,11,16,11,16,11,16,11,16,11
e,11,u,11,u,11,u,11,u,11,u,11,u,11,u,11
e,0,0,0,18,0,18,0,18,0,18,0,18,0,18,0
e,0,0,0,0,0,0,0,0,0,0,0,0,0,0,0
0,0,0,0,0,0,0,0,0,0,0,0,0,0,0,16
0,0,0,0,0,0,0,0,0,0,0,0,0,0,0,16
0,0,0,0,0,0,0,0,0,0,0,0,0,0,0,16
e,0,0,0,0,0,0,0,0,0,0,0,0,0,0,0
e,0,18,0,18,0,18,0,18,0,18,0,18,0,18,0
e,j,19,j,19,j,19,j,19,j,19,j,19,j,19,j
e,j,j,j,j,j,j,j,j,j,j,j,j,j,j,j
e,e,e,e,e,e,e,e,e,e,e,e,e,e,e,e
e,e,e,e,e,e,e,e,e,e,e,e,e,e,e,e
NAME apartment
ITM k 15,11
EXT 4,4 0 12,3
EXT 6,4 0 12,3
EXT 8,4 0 12,3
EXT 10,4 0 12,3
EXT 12,4 0 12,3
EXT 14,4 0 12,3
EXT 2,12 0 12,3
EXT 4,12 0 12,3
EXT 6,12 0 12,3
EXT 8,12 0 12,3
EXT 10,12 0 12,3
EXT 14,12 0 12,3
EXT 0,7 0 15,6
EXT 0,8 0 15,7
EXT 0,9 0 15,9
EXT 12,12 4 0,9
PAL 0

ROOM 4
0,0,0,0,0,0,0,10,0,10,0,0,0,0,0,0
0,0,0,0,0,0,0,10,0,10,0,0,0,0,0,0
0,0,0,0,0,0,0,10,0,10,0,0,0,0,0,0
0,0,0,0,0,0,0,10,0,10,0,0,0,0,0,0
0,0,0,0,0,0,0,10,0,10,0,0,0,0,0,0
0,0,0,0,0,0,0,10,0,10,0,0,0,0,0,0
0,0,0,0,0,0,0,10,0,10,0,0,0,0,0,0
0,0,0,0,0,0,0,10,0,10,0,0,0,0,0,0
10,10,10,10,10,10,10,10,0,10,0,0,0,0,0,0
0,0,0,0,0,0,0,0,0,10,0,0,0,0,0,0
10,10,10,10,10,10,10,10,10,10,0,0,0,0,0,0
0,0,0,0,0,0,0,0,0,0,0,0,0,0,0,0
0,0,0,0,0,0,0,0,0,0,0,0,0,0,0,0
0,0,0,0,0,0,0,0,0,0,0,0,0,0,0,0
0,0,0,0,0,0,0,0,0,0,0,0,0,0,0,0
0,0,0,0,0,0,0,0,0,0,0,0,0,0,0,0
NAME apartment7b
ITM b 8,1
ITM b 1,9
ITM b 8,7
ITM b 8,4
EXT 8,0 5 7,9
PAL a

ROOM 5
0,0,0,0,0,0,0,0,0,0,0,0,0,0,0,0
0,0,0,0,0,0,0,0,0,0,0,0,0,0,0,0
0,0,0,0,0,0,0,0,0,0,0,0,0,0,0,0
0,0,0,0,0,0,0,0,0,0,0,0,0,0,0,0
0,0,0,0,0,0,0,0,0,0,0,0,0,0,0,0
0,0,0,0,0,0,0,0,0,0,0,0,0,0,0,0
0,0,0,0,0,0,0,0,0,0,0,0,0,0,0,0
0,0,0,0,0,0,0,0,0,0,0,0,0,0,0,0
0,0,0,0,0,0,0,0,0,0,0,0,0,0,0,0
0,0,0,0,0,0,1w,0,1w,0,0,0,0,0,0,0
0,0,0,0,0,0,1w,1w,1w,0,0,0,0,0,0,0
0,0,0,0,0,0,0,0,0,0,0,0,0,0,0,0
0,0,0,0,0,0,0,0,0,0,0,0,0,0,0,0
0,0,0,0,0,0,0,0,0,0,0,0,0,0,0,0
0,0,0,0,0,0,0,0,0,0,0,0,0,0,0,0
0,0,0,0,0,0,0,0,0,0,0,0,0,0,0,0
NAME intermission1
ITM b 7,8
ITM 6 4,6
ITM 6 9,12
ITM h 5,2
ITM i 9,2
ITM m 7,3
ITM 6 11,4
ITM n 7,2
EXT 6,8 6 6,8
EXT 8,8 6 8,8
EXT 7,7 6 7,7
PAL 5

ROOM 6
j,16,16,16,16,16,16,16,16,16,16,16,16,16,16,j
j,16,16,16,16,16,16,16,16,16,16,16,16,16,16,j
j,16,19,16,16,16,16,19,19,16,16,16,16,19,16,j
j,16,1v,16,16,16,16,1v,1v,16,16,16,16,u,16,j
j,0,0,0,21,0,0,0,0,0,0,0,0,0,0,j
j,0,0,0,0,0,0,0,0,0,0,0,0,0,0,j
0,0,0,0,0,0,0,0,0,0,0,0,0,0,0,0
0,0,0,0,0,0,0,0,0,0,0,0,0,0,0,0
j,j,0,0,0,0,0,0,0,0,0,0,22,0,j,j
j,j,0,0,1y,20,1z,21,0,0,0,0,0,0,j,j
j,j,0,0,0,0,0,0,0,0,0,0,0,0,j,j
j,j,j,j,j,j,j,j,j,0,0,j,j,j,j,j
j,j,j,j,j,j,j,j,j,0,0,j,j,j,j,j
j,j,j,j,j,j,j,j,j,0,0,j,j,j,j,j
j,j,j,j,j,j,j,j,j,0,0,j,j,j,j,j
j,j,j,j,j,j,j,j,j,0,0,j,j,j,j,j
NAME living room
ITM c 9,15
ITM e 10,2
ITM e 11,2
ITM f 5,2
ITM d 4,2
ITM 2 12,8
ITM c 10,15
ITM c 2,4
EXT 15,7 p 0,7
EXT 15,6 p 0,6
EXT 0,6 7 15,6
EXT 0,7 7 15,7
EXT 13,3 8 13,15
PAL 1

ROOM 7
j,j,j,j,j,j,j,j,j,j,j,j,j,j,j,j
j,16,j,j,1h,1h,1h,1h,1h,j,j,16,16,j,j,j
j,u,j,j,j,j,j,j,j,j,j,1v,1v,j,j,j
j,22,0,0,0,0,0,0,0,0,0,18,18,0,j,j
j,0,0,0,0,0,0,0,0,0,0,0,0,0,j,j
j,0,0,0,0,0,0,0,0,0,0,0,0,0,j,j
j,0,0,22,22,22,22,22,22,22,22,22,0,0,0,0
j,0,0,23,23,23,23,23,23,23,23,23,0,0,0,0
j,0,0,k,k,k,k,k,k,k,k,k,0,0,j,j
j,0,0,22,22,22,22,22,22,22,22,22,0,0,j,j
1p,0,0,0,0,0,0,0,0,0,0,0,0,0,j,j
j,j,j,j,j,j,j,j,j,j,j,j,j,j,j,j
j,j,j,j,j,j,j,j,j,j,j,j,j,j,j,j
j,j,j,j,j,j,j,j,j,j,j,j,j,j,j,j
j,j,j,j,j,j,j,j,j,j,j,j,j,j,j,j
j,j,j,j,j,j,j,j,j,j,j,j,j,j,j,j
NAME birthday party
ITM m 10,6
ITM m 9,9
ITM m 7,6
ITM m 5,9
ITM m 4,6
ITM m 11,9
EXT 15,6 6 0,6
EXT 15,7 6 0,7
EXT 1,2 a 1,15
PAL 1

ROOM 8
e,e,e,e,e,e,j,1e,1g,1d,24,1f,1e,1d,1d,j
e,e,e,e,e,e,j,1g,24,24,24,1g,24,24,24,j
e,e,e,e,e,e,j,1d,25,1e,1g,1d,24,1g,24,j
e,e,e,e,e,e,j,1g,24,1b,1d,1d,24,1b,24,j
e,0,0,0,e,e,j,1d,24,24,24,24,25,1g,24,j
e,0,0,0,e,e,j,1b,1b,1b,24,1b,1g,1g,25,j
e,0,0,0,e,e,j,1b,1d,1f,24,1g,1d,1e,24,j
e,e,e,e,e,e,j,1b,24,24,24,25,24,24,24,j
e,e,e,e,e,e,j,1b,25,1g,1b,1b,1g,24,1b,j
e,e,e,e,e,e,j,1d,25,1g,24,24,24,25,25,j
e,e,e,e,e,e,j,1d,1g,24,24,1b,1c,25,1e,j
e,e,e,e,e,e,j,1d,1g,24,1g,1d,1g,25,1d,j
e,e,e,e,e,e,j,1f,1g,25,1g,1b,1g,1g,1d,j
e,e,e,e,e,e,j,0,0,0,0,0,0,0,0,j
e,e,e,e,e,e,j,0,0,0,0,0,0,0,0,j
e,e,e,e,e,e,j,j,j,j,j,j,j,0,j,j
NAME Toy Closet
ITM 1 2,5
EXT 13,15 6 13,4
EXT 10,0 9 7,15
PAL a

ROOM 9
0,0,0,0,0,0,0,0,0,0,0,0,0,0,0,0
0,0,0,0,0,0,0,0,0,0,0,0,0,0,0,0
0,0,0,0,l,l,l,l,l,l,l,l,0,0,0,0
0,0,0,0,0,0,0,0,0,0,0,0,0,0,0,0
0,0,0,0,0,0,0,0,0,0,0,0,0,0,0,0
0,0,1g,0,0,0,0,0,0,0,1s,0,0,0,0,0
0,0,0,0,0,0,0,0,0,0,0,1m,1n,0,0,0
0,0,0,0,0,1m,1n,0,0,0,1f,0,0,0,0,1c
0,0,0,0,0,0,0,0,0,0,0,0,0,0,0,0
0,0,0,0,0,0,1g,0,0,1f,0,1s,0,0,0,0
0,1b,0,0,0,0,0,0,0,0,0,0,0,0,0,0
0,0,0,0,1s,0,0,0,0,0,0,0,0,0,0,0
0,0,0,0,0,0,0,0,0,0,0,0,0,0,0,0
0,21,21,21,0,0,0,0,0,0,0,0,21,21,21,0
0,0,0,0,0,0,0,0,0,0,0,0,0,0,0,0
0,0,0,0,0,0,1w,0,1w,0,0,0,0,0,0,0
NAME bedroom1
ITM e 6,1
ITM e 5,1
ITM e 7,1
ITM e 8,1
ITM e 9,1
ITM e 10,1
ITM e 11,1
ITM e 4,1
ITM 6 3,6
ITM 6 9,8
ITM j 8,9
ITM m 7,9
ITM h 7,10
ITM i 8,10
ITM b 7,14
EXT 6,14 b 6,13
EXT 7,13 b 7,12
EXT 8,14 b 8,13
PAL b

ROOM 10
1p,12,w,w,2a,10,10,10,w,w,12,1p,1p,1p,1p,1p
1p,12,w,w,10,b,1w,10,10,y,12,1p,1p,1p,1p,1p
1p,y,y,w,10,1e,w,w,y,w,y,n,n,n,n,1p
1p,y,12,0,10,10,y,y,w,w,y,n,n,n,n,1p
1p,12,12,10,10,10,w,y,12,12,12,j,v,j,v,1p
1p,0,0,0,0,0,0,0,0,0,0,q,u,q,u,1p
1p,0,10,0,0,10,0,0,0,10,0,10,0,0,0,28
1p,0,0,1u,0,0,0,0,10,10,0,29,29,29,29,1p
1p,23,23,23,23,23,23,23,0,0,0,k,k,k,k,1p
1p,n,n,n,n,n,n,n,0,10,0,0,0,0,10,1p
j,n,n,n,n,n,n,n,0,0,0,0,1m,1n,24,j
j,j,j,j,j,j,j,j,10,j,j,j,j,j,j,j
e,e,e,e,e,e,e,j,z,j,1q,1q,1q,1q,1q,1q
e,e,e,e,e,e,e,j,1s,j,j,j,j,j,j,j
e,e,e,e,e,e,e,j,0,28,0,24,0,24,0,0
e,e,e,e,e,e,e,j,j,j,1p,j,j,j,j,j
NAME anim2
EXT 15,6 r 0,6
EXT 6,5 u 7,5
EXT 7,6 u 7,5
EXT 8,5 u 7,5
PAL c

ROOM a
14,14,14,14,14,14,14,14,14,14,14,14,14,14,14,14
14,14,14,14,14,14,14,14,14,14,14,14,14,14,14,14
14,14,14,14,14,14,14,14,14,14,14,14,14,14,14,14
14,14,14,14,14,14,14,14,14,14,14,14,14,14,14,14
e,e,e,e,e,e,e,e,e,e,e,e,e,e,e,e
j,j,j,j,j,j,j,e,j,e,e,e,e,e,e,j
j,16,16,16,16,16,j,e,j,e,e,e,e,e,e,j
j,17,17,17,12,w,j,e,j,15,15,v,v,15,15,j
j,0,h,0,k,k,j,e,j,15,15,u,u,15,15,j
j,0,0,0,0,0,j,e,j,0,0,0,0,0,0,j
j,0,0,0,0,0,j,e,j,0,1t,0,0,1t,0,j
j,0,0,0,0,0,j,e,j,0,0,1y,1z,0,0,j
j,0,0,0,0,0,j,e,j,0,1g,0,0,1k,1l,j
j,0,0,0,0,0,j,e,j,0,0,0,0,1i,1j,j
j,0,0,0,0,0,j,e,j,0,0,1s,1s,0,0,j
j,0,j,j,j,j,j,e,j,0,0,0,0,0,0,j
NAME bedroom2
ITM 9 4,9
ITM e 2,6
EXT 1,15 6 2,4
PAL b

ROOM b
14,14,14,26,26,26,26,26,26,26,26,26,26,14,14,14
14,14,14,26,26,26,26,26,26,26,26,26,26,14,14,14
14,14,14,26,1h,26,d,1p,1p,d,26,1h,26,14,14,14
e,e,e,26,1h,26,1p,16,16,1p,26,1h,26,e,e,e
e,e,e,26,26,26,1p,u,u,1p,26,26,26,e,e,e
e,0,0,0,0,0,0,1u,1u,0,0,0,0,0,0,e
e,0,d,0,0,0,0,1u,1u,0,p,0,0,d,0,e
e,0,0,0,0,0,o,1u,1u,0,p,0,0,0,0,e
e,0,0,o,o,0,0,1u,1u,0,0,p,p,0,0,e
e,0,o,o,0,0,0,1u,1u,0,o,0,p,0,0,e
e,0,0,0,0,0,0,1u,1u,0,0,0,0,o,0,e
e,0,0,0,p,0,0,1u,1u,p,p,p,0,0,0,e
e,0,0,p,p,0,o,1u,1u,0,0,0,p,0,0,e
e,0,p,0,o,o,0,0,0,0,0,0,p,p,0,e
e,0,0,0,0,0,p,0,0,0,0,0,0,p,0,e
e,0,0,0,0,0,0,0,0,0,0,0,0,0,0,e
NAME school
ITM k 12,10
ITM 1 10,7
ITM 0 3,9
EXT 7,4 m 7,15
EXT 8,4 m 8,15
PAL 7

ROOM c
e,e,e,e,e,e,e,e,e,e,e,e,e,e,e,e
j,j,j,j,j,j,j,j,v,j,j,j,j,j,j,e
j,v,j,j,j,j,j,j,j,j,j,v,j,j,j,e
k,k,k,k,k,k,k,k,k,k,k,k,k,k,k,e
0,0,0,0,0,0,0,0,0,0,0,0,0,0,0,e
r,0,0,0,0,0,0,0,0,0,r,0,0,0,0,e
0,0,0,0,0,0,0,0,r,0,0,0,0,0,0,0
0,0,0,0,0,0,0,0,0,0,0,0,0,0,0,0
n,n,n,n,n,n,n,n,n,n,n,0,0,0,0,0
m,h,m,h,m,h,m,p,m,h,m,0,0,0,0,0
m,0,m,0,m,0,m,0,m,0,m,0,0,0,0,e
q,0,q,0,q,0,q,0,q,0,q,0,0,0,0,e
0,0,0,0,0,0,0,0,0,0,0,0,0,0,0,e
0,0,0,0,0,0,0,0,0,0,0,0,0,0,0,e
0,0,0,0,0,0,0,0,0,0,0,0,0,0,0,e
e,e,e,e,e,e,e,e,e,e,e,e,e,e,e,e
NAME restroom sub
ITM 0 7,9
ITM 1 12,7
EXT 0,7 2 15,7
EXT 0,6 2 15,6
EXT 0,5 2 15,5
EXT 0,4 2 15,4
EXT 0,10 2 15,10
EXT 0,11 2 15,11
EXT 0,12 2 15,12
EXT 0,13 2 15,13
EXT 0,14 2 15,14
EXT 15,6 0 0,6
EXT 15,7 0 0,7
EXT 15,8 0 0,8
EXT 15,9 0 0,9
EXT 3,12 1 3,12
EXT 1,12 1 1,12
EXT 5,12 1 5,12
EXT 7,12 1 7,12
EXT 9,12 1 9,12
PAL a

ROOM e
j,j,j,j,j,j,j,j,12,12,12,j,j,j,j,j
j,j,j,j,j,j,j,y,y,y,y,y,j,j,j,j
j,j,j,j,j,j,y,0,0,0,0,0,y,j,j,j
j,j,j,j,j,j,0,0,0,c,0,0,0,j,j,j
j,j,j,j,j,j,0,0,0,0,0,0,0,j,j,j
j,j,j,j,j,j,11,11,11,0,11,11,11,j,j,j
j,j,j,j,j,e,11,11,11,0,11,11,11,e,j,j
j,j,12,j,j,e,0,0,0,0,0,0,0,e,j,j
j,j,j,j,j,e,0,0,0,0,0,0,0,e,e,e
j,j,j,j,j,e,0,0,0,0,0,0,0,0,0,0
j,j,j,j,j,e,0,0,0,0,0,0,0,0,0,0
j,j,j,j,j,e,0,0,0,0,0,0,0,e,e,e
j,j,j,j,j,e,0,0,0,0,0,0,0,e,j,j
j,j,j,j,j,e,e,e,e,z,e,e,e,e,j,j
j,j,j,j,j,j,j,j,j,j,j,j,j,j,j,j
j,j,j,j,j,j,j,j,j,j,j,j,j,j,j,j
NAME framed
ITM 6 2,4
ITM 6 1,11
ITM 8 9,3
ITM 9 7,8
EXT 15,4 1 0,4
EXT 15,5 1 0,5
EXT 15,6 1 0,6
EXT 15,12 1 0,12
EXT 15,14 1 0,14
EXT 15,10 0 0,8
EXT 15,9 0 0,7
EXT 9,13 c 7,10
PAL 0

ROOM f
0,0,0,0,0,0,0,0,0,0,0,0,0,0,0,0
0,0,0,0,0,0,0,0,0,0,0,0,0,0,0,0
0,0,0,0,0,0,0,0,0,0,0,0,0,0,0,0
0,0,0,0,0,0,0,0,0,0,0,0,0,0,0,0
0,0,0,0,0,0,0,0,0,0,0,0,0,0,0,0
0,0,0,0,0,0,0,0,0,0,0,0,0,0,0,0
0,0,0,0,0,0,0,0,0,0,0,0,0,0,0,0
0,0,0,0,0,0,0,0,0,0,0,0,0,0,0,0
10,10,10,10,10,10,10,10,10,10,10,10,10,10,10,10
0,0,0,0,0,0,0,0,0,0,0,0,0,0,0,0
0,0,0,0,0,0,0,0,0,0,0,0,0,0,0,0
10,10,10,10,10,10,10,10,10,10,10,10,10,10,10,10
0,0,0,0,0,0,0,0,0,0,0,0,0,0,0,0
0,0,0,0,0,0,0,0,0,0,0,0,0,0,0,0
0,0,0,0,0,0,0,0,0,0,0,0,0,0,0,0
0,0,0,0,0,0,0,0,0,0,0,0,0,0,0,0
NAME voidtunnel1
EXT 15,4 1 0,4
EXT 15,5 1 0,5
EXT 15,6 1 0,6
EXT 15,12 1 0,12
EXT 15,13 1 0,13
EXT 15,14 1 0,14
EXT 15,10 2 0,10
EXT 15,9 2 0,9
EXT 0,10 e 13,10
EXT 0,9 e 13,9
PAL a

ROOM g
e,e,e,e,e,e,e,e,e,e,e,e,e,e,e,e
e,j,j,j,j,j,j,j,j,j,j,j,j,j,j,j
e,y,w,w,w,w,w,w,w,w,y,w,w,w,w,w
e,w,w,w,w,w,y,w,w,w,w,w,w,y,w,w
e,0,0,0,0,0,0,0,0,0,0,0,0,0,0,0
e,0,0,1s,0,0,0,0,0,0,0,0,0,0,0,0
e,0,0,0,0,0,0,0,0,0,0,0,0,0,0,0
e,0,0,0,0,0,0,0,0,0,0,0,0,0,0,0
e,0,n,n,n,0,0,0,0,n,n,n,n,n,n,n
p,0,m,13,m,0,0,0,0,m,h,m,h,m,h,m
o,0,m,0,m,0,0,0,0,m,0,m,0,m,0,m
e,0,q,0,q,0,0,0,0,q,0,q,0,q,0,q
e,0,0,0,0,0,0,0,0,0,0,0,0,0,0,0
e,0,0,0,0,0,0,0,0,0,0,0,0,0,0,0
e,0,0,0,0,0,0,0,0,0,0,0,0,0,0,0
e,e,e,e,e,e,e,e,e,e,e,e,e,e,e,e
NAME restroom2 sub2
ITM 4 3,9
EXT 15,4 1 0,4
EXT 15,5 1 0,5
EXT 15,6 1 0,6
EXT 15,7 1 0,7
EXT 15,10 1 0,10
EXT 15,11 1 0,11
EXT 15,12 1 0,12
EXT 15,13 1 0,13
EXT 15,14 1 0,14
EXT 3,12 2 3,12
EXT 10,12 2 10,12
EXT 12,12 2 12,12
EXT 14,12 2 14,12
PAL a

ROOM h
j,16,16,16,16,16,16,16,16,16,16,16,16,16,16,j
j,16,16,16,16,16,16,16,16,16,16,16,16,16,16,j
j,16,19,16,16,16,16,19,19,16,16,16,16,19,16,j
j,16,1v,16,16,16,16,1v,1v,16,16,16,16,1v,16,j
j,0,0,0,21,0,0,0,0,0,0,0,0,0,0,j
j,0,0,0,0,0,0,0,0,0,0,0,0,0,0,j
0,0,0,0,0,0,0,0,0,21,0,0,0,0,0,e
0,0,0,0,0,0,0,0,0,0,0,0,0,0,0,e
j,j,0,0,0,0,0,0,0,0,0,0,0,0,j,j
j,j,0,1y,20,1z,0,0,0,0,0,0,21,0,j,v
j,j,0,0,0,0,0,0,0,0,0,0,0,0,j,j
j,y,j,j,j,j,j,j,j,0,0,j,j,j,j,j
j,j,j,j,j,v,j,j,j,0,0,j,y,j,j,j
j,j,j,j,j,j,j,j,j,0,0,j,j,j,y,j
j,v,j,j,j,j,y,j,j,0,0,j,j,j,j,j
j,j,j,j,j,j,j,j,j,e,e,j,j,j,j,j
NAME not the same
EXT 0,6 7 14,6
EXT 0,7 7 14,7
PAL a

ROOM i
j,j,j,j,j,j,j,j,j,j,j,j,j,j,j,j
j,16,j,j,j,j,j,j,j,j,j,j,j,16,j,j
j,j,j,j,j,j,j,j,j,j,j,j,j,j,j,j
j,j,0,0,1e,0,0,18,1e,0,1c,0,1d,j,j,j
j,j,0,1b,0,1b,1g,0,0,1b,1d,0,1f,j,j,j
j,j,0,0,0,1g,0,1d,1f,0,0,1e,0,j,j,j
j,j,0,1b,0,0,0,1g,0,0,1f,0,0,0,0,0
j,j,0,1g,0,0,0,0,0,0,0,0,0,0,0,0
j,j,0,0,0,0,0,0,0,0,0,0,0,j,j,j
j,j,0,0,1g,0,0,0,0,0,0,0,0,j,j,j
j,j,0,0,0,0,0,0,0,0,0,0,0,j,j,j
j,j,j,j,j,j,j,j,j,j,j,j,j,j,j,j
j,j,j,j,j,j,j,j,j,j,j,j,j,j,j,j
j,j,j,j,j,j,j,j,j,j,j,j,j,j,j,j
j,j,j,j,j,j,j,j,j,j,j,j,j,j,j,j
j,j,j,j,j,j,j,j,j,j,j,j,j,j,j,j
NAME doll room
ITM 8 7,1
ITM d 3,1
ITM e 11,1
ITM e 5,1
ITM f 9,1
EXT 15,7 j 0,7
EXT 15,6 j 0,6
PAL a

ROOM j
j,j,j,j,j,j,j,j,j,j,j,j,j,j,j,j
j,j,j,j,j,j,j,1h,j,j,j,j,1h,j,j,j
j,j,j,j,j,j,j,j,j,j,j,j,j,j,j,j
j,j,j,j,j,j,j,j,j,j,j,j,j,j,j,j
j,j,j,j,j,j,w,w,j,16,16,j,j,j,j,j
j,j,j,j,j,j,j,j,j,u,u,j,j,j,j,j
0,0,0,0,0,0,0,0,0,0,0,0,1k,1l,0,j
0,0,0,0,0,0,0,0,0,0,0,0,1i,1j,0,j
j,j,j,j,j,0,0,0,0,0,0,0,0,0,0,j
j,j,j,j,j,0,0,0,0,0,0,0,0,0,0,j
j,j,j,j,j,0,0,0,0,0,0,0,0,0,0,j
j,j,j,j,j,j,j,j,j,1p,1p,j,j,j,j,j
j,j,j,j,j,j,j,j,j,1p,1p,j,j,j,j,j
j,j,j,j,j,j,j,j,j,1p,1p,j,j,j,j,j
j,j,j,j,j,j,j,j,j,1p,1p,j,j,j,j,j
j,j,j,j,j,j,j,j,j,1p,1p,j,j,j,j,j
NAME bedroomNull
ITM g 9,2
ITM g 10,2
ITM p 6,4
ITM p 7,4
EXT 9,5 n 9,5
EXT 10,5 n 10,5
EXT 0,7 i 15,7
EXT 0,6 i 15,6
EXT 9,15 k 9,0
EXT 10,15 k 10,0
PAL a

ROOM k
0,0,0,0,0,0,0,0,10,0,0,10,1t,0,0,0
0,1s,0,0,10,10,10,10,10,0,0,10,10,10,10,10
0,0,0,0,10,0,1s,0,0,0,0,0,0,0,1t,10
0,0,0,1t,10,0,0,0,0,0,0,0,1s,0,0,10
0,0,0,0,10,0,0,1t,0,0,0,0,0,0,0,10
0,0,0,0,10,0,0,0,0,0,1t,0,0,0,0,10
0,0,0,0,10,0,0,1t,0,0,0,0,0,0,0,10
0,0,1t,0,10,0,1s,0,0,0,0,1s,0,0,0,10
1s,0,0,0,10,1t,0,0,0,0,0,0,0,1t,0,10
0,0,1u,0,10,10,10,10,10,10,10,10,10,10,10,10
1t,0,0,0,0,0,0,0,1r,1r,0,0,0,0,0,0
0,0,0,1s,0,0,0,0,0,0,0,0,0,0,0,0
0,0,0,0,0,0,0,0,0,1q,0,0,0,0,0,0
0,0,0,0,0,0,0,0,0,0,0,0,0,1s,0,0
0,0,0,0,0,0,0,0,0,0,0,0,0,0,0,0
0,0,0,0,0,1t,0,0,0,0,0,0,1t,0,0,0
NAME NULL
ITM g 5,13
ITM g 6,12
ITM g 7,11
ITM g 8,11
ITM g 9,11
ITM g 7,12
ITM g 7,13
ITM g 6,13
ITM g 8,13
ITM g 8,12
ITM g 10,12
ITM g 10,13
ITM g 9,13
ITM g 8,14
ITM g 9,14
ITM g 10,14
ITM g 10,15
ITM g 9,15
ITM g 8,15
ITM 6 2,4
ITM 6 14,11
ITM 6 1,12
ITM 9 7,4
ITM j 13,6
ITM 6 6,7
ITM 6 12,3
ITM 9 12,11
ITM 9 2,14
ITM 9 15,14
ITM 9 1,6
EXT 9,0 j 9,10
EXT 10,0 j 10,10
PAL b

ROOM l
j,j,j,j,j,j,j,j,j,j,j,j,j,j,j,j
j,j,d,j,j,j,j,d,j,j,j,j,d,j,j,j
j,j,1o,j,j,j,j,1h,j,j,j,j,1h,j,j,j
j,j,0,j,j,j,j,j,j,j,j,j,j,j,j,j
j,j,0,j,j,j,j,j,j,j,j,j,j,j,j,j
j,j,0,j,j,j,j,j,j,j,j,j,j,j,j,j
j,0,0,0,0,0,0,0,0,0,0,0,0,0,0,0
j,0,0,0,27,1j,0,27,1j,0,27,1j,0,0,0,0
j,0,0,0,27,1j,0,27,1j,0,27,1j,0,1i,0,0
j,0,0,0,27,1j,0,27,1j,0,27,1j,0,1i,0,0
j,0,0,0,27,1j,0,27,1j,0,27,1j,0,1i,0,0
j,0,0,0,27,1j,0,22,1j,0,27,1j,0,1i,0,0
j,0,0,0,27,1j,0,27,1j,0,27,1j,0,0,0,0
j,0,0,0,0,0,0,0,0,0,0,0,0,0,0,0
j,j,0,j,j,j,j,j,j,j,j,j,j,j,j,j
j,j,0,j,j,j,j,j,j,j,j,j,j,j,j,j
NAME Classroom1
ITM k 7,11
ITM 7 7,7
ITM 7 10,9
ITM m 10,11
ITM g 1,3
ITM g 3,3
ITM g 3,4
ITM g 6,3
ITM g 7,3
ITM g 8,3
ITM g 6,4
ITM g 8,4
ITM g 11,3
ITM g 11,4
ITM g 12,3
ITM g 13,4
ITM g 13,3
ITM g 1,4
ITM g 2,3
ITM g 2,5
ITM g 1,5
ITM g 3,5
ITM g 6,5
ITM g 7,5
ITM g 8,5
ITM g 12,5
ITM g 11,5
ITM g 13,5
ITM e 7,4
ITM e 12,4
ITM d 2,4
EXT 2,5 s 2,5
EXT 2,15 m 14,12
PAL 2

ROOM m
e,e,e,e,e,e,e,e,e,e,e,e,e,e,e,e
j,1p,1p,1p,1p,1p,26,26,26,26,1p,1p,1p,1p,1p,j
11,d,11,11,d,11,26,16,16,26,11,d,11,11,d,11
11,11,11,11,11,11,26,u,u,26,11,11,11,11,11,11
0,21,0,0,0,0,0,0,0,0,0,21,0,0,0,21
0,0,0,0,0,21,0,0,0,0,0,0,0,0,0,1f
21,0,0,0,0,0,0,0,0,0,0,0,0,0,21,0
j,j,j,j,j,j,1u,t,t,1u,j,j,j,j,j,j
j,j,j,j,j,j,1u,t,t,1u,j,j,j,j,j,j
j,j,j,j,v,j,1u,t,t,1u,j,v,j,j,j,j
j,16,1p,j,d,j,1u,t,t,1u,j,d,j,j,16,j
j,u,j,j,j,j,1u,0,0,1u,j,j,j,j,u,j
0,1e,0,0,0,0,0,0,0,0,0,0,0,0,0,1f
1g,0,0,0,0,0,0,0,0,0,0,0,0,0,0,1g
0,1g,0,0,0,0,0,0,0,0,0,0,0,0,1c,0
j,j,j,j,j,j,e,e,e,e,j,j,j,j,j,j
NAME Lobby
EXT 0,5 q 15,14
EXT 14,11 l 2,15
EXT 7,3 r 7,15
EXT 8,3 r 8,15
PAL 8

ROOM n
j,j,j,j,j,j,j,j,j,j,j,j,j,j,j,j
j,j,j,j,j,j,j,1b,0,0,0,1c,0,j,j,j
j,j,j,j,j,j,j,0,0,1m,1n,0,1f,j,j,j
j,j,j,j,j,j,j,1g,0,0,0,0,0,j,j,j
j,j,j,j,j,j,j,j,j,0,0,j,j,j,j,j
j,j,j,j,j,j,j,j,j,0,0,j,j,j,j,j
0,0,0,0,0,0,0,0,0,0,0,0,1k,1l,0,j
0,0,0,0,0,0,0,0,0,0,0,0,1i,1j,0,j
j,j,j,j,j,0,0,0,0,0,0,0,0,0,0,j
j,j,j,j,j,0,0,0,0,0,0,0,0,0,0,j
j,j,j,j,j,0,0,0,0,0,0,0,0,0,0,j
j,j,j,j,j,j,j,j,j,1o,1o,j,j,j,j,j
j,j,j,j,j,j,j,j,j,1o,1o,j,j,j,j,j
j,j,j,j,j,j,j,j,j,1o,1o,j,j,j,j,j
j,j,j,j,j,j,j,j,j,1o,1o,j,j,j,j,j
j,j,j,j,j,j,j,j,j,1o,1o,j,j,j,j,j
NAME Closet
ITM h 9,2
ITM i 10,2
EXT 9,2 0 5,2
EXT 10,2 0 5,2
EXT 9,6 j 9,6
EXT 10,6 j 10,6
PAL a

ROOM p
j,j,j,j,j,j,j,j,j,j,j,j,j,j,j,j
j,j,j,j,j,j,j,1h,j,j,j,j,1h,j,j,j
j,j,j,j,j,j,j,j,j,j,j,j,j,j,j,j
j,j,j,j,j,j,j,j,j,j,j,j,j,j,j,j
j,j,1h,j,j,w,l,w,j,16,16,j,1x,1x,j,j
j,j,j,j,j,w,0,w,j,1v,1v,j,j,j,j,j
0,0,0,0,0,0,0,0,0,18,18,0,1k,1l,1c,j
0,0,0,0,0,0,0,14,14,14,14,14,1i,1j,0,j
j,j,j,j,1g,0,0,14,14,14,14,14,0,0,0,j
j,j,j,j,0,0,1u,14,14,14,14,14,0,0,1f,j
j,j,j,j,0,0,0,0,0,0,0,0,0,1u,0,j
j,j,j,j,0,0,0,0,1b,0,0,1c,0,0,0,j
j,j,j,j,j,j,j,j,j,j,j,j,j,j,j,j
j,j,j,j,j,j,j,j,j,j,j,j,j,j,j,j
j,j,j,j,j,j,j,j,j,j,j,j,j,j,j,j
j,j,j,j,j,j,j,j,j,j,j,j,j,j,j,j
NAME fakebedroom
ITM 3 5,11
ITM k 11,6
ITM p 5,5
ITM p 7,5
EXT 9,5 n 9,5
EXT 10,5 n 10,5
EXT 0,7 h 15,7
EXT 0,6 h 15,6
EXT 9,15 k 9,0
EXT 10,15 k 10,0
PAL 1

ROOM q
1p,1p,1p,1p,1p,1p,1p,1p,1p,1p,1p,1p,1p,1p,1p,1p
1p,1p,1p,1p,1p,1p,1p,1p,1p,1p,1p,1p,1p,1p,1p,1p
1p,w,y,w,w,y,w,w,w,n,n,n,n,n,n,1p
1p,y,w,w,w,w,w,w,w,n,n,n,n,n,n,1p
1p,w,y,w,y,w,1q,w,w,j,y,j,y,j,y,1p
1p,0,0,0,0,0,0,0,0,q,y,q,y,q,y,1p
1p,0,10,0,0,0,0,0,0,0,0,0,0,0,0,1p
1p,0,0,0,0,0,0,10,0,0,0,w,w,y,w,1p
1p,23,23,23,23,23,23,23,0,0,0,k,k,k,k,1p
1p,n,n,n,n,n,n,n,0,0,0,0,0,0,0,1p
j,n,n,n,n,n,n,n,0,0,0,0,0,0,0,j
j,j,j,j,j,j,j,j,0,j,j,j,j,j,j,j
e,e,e,e,e,e,e,j,0,j,y,y,1q,y,1q,y
e,e,e,e,e,e,e,j,0,j,j,j,j,j,j,j
e,e,e,e,e,e,e,j,0,0,0,0,0,0,0,0
e,e,e,e,e,e,e,j,j,j,j,j,j,j,j,j
NAME Classroom2
ITM 6 12,6
ITM o 2,3
ITM o 5,2
ITM o 6,4
ITM o 13,7
ITM o 11,12
ITM p 7,3
ITM p 5,4
ITM p 4,4
ITM p 3,4
ITM p 2,4
ITM p 1,4
ITM p 1,3
ITM p 1,2
ITM p 3,2
ITM p 2,2
ITM p 3,3
ITM p 4,3
ITM p 4,2
ITM p 5,3
ITM p 6,3
ITM p 6,2
ITM p 7,4
ITM p 8,4
ITM p 8,3
ITM p 8,2
ITM p 7,2
ITM p 11,7
ITM p 12,7
ITM p 14,7
ITM p 10,12
ITM p 13,12
ITM p 15,12
ITM b 8,6
ITM b 8,12
EXT 15,14 m 1,5
EXT 6,4 z 7,5
PAL 8

ROOM r
d,j,j,j,j,j,j,j,j,j,j,j,j,j,j,d
j,g,g,g,g,g,0,0,0,0,g,g,g,g,g,j
j,g,g,g,0,0,0,0,0,0,0,0,g,g,g,j
v,g,g,0,0,12,0,0,0,0,0,0,0,g,g,v
j,g,0,0,0,k,0,0,0,0,0,0,0,0,g,j
j,10,10,10,10,10,10,10,10,10,10,10,10,10,10,j
v,0,0,0,0,0,0,0,1w,0,0,0,0,0,0,v
j,20,20,20,20,20,20,20,20,20,20,20,20,20,20,j
j,j,j,j,j,j,j,j,j,j,j,j,j,j,j,j
0,0,0,0,0,0,0,1e,1s,0,0,0,0,0,0,0
0,21,21,21,0,1s,21,21,21,21,1s,0,21,21,21,1s
0,0,1e,0,0,0,0,1g,0,0,0,0,0,0,1f,0
0,21,21,21,1s,0,21,21,21,21,0,1s,21,21,21,0
0,1e,1s,0,0,0,0,0,0,1e,0,0,0,0,0,0
0,21,21,21,0,1s,21,21,21,21,1s,0,21,21,21,0
0,0,1b,0,0,0,0,18,18,0,0,0,0,1c,0,0
NAME On Stage. 
ITM j 10,4
ITM h 7,4
ITM i 8,4
ITM m 9,4
ITM 8 5,3
ITM b 10,6
ITM b 5,6
EXT 7,6 v 7,6
EXT 7,15 m 7,4
EXT 8,15 m 8,4
PAL a

ROOM s
j,j,12,j,j,j,j,j,j,j,j,j,j,j,j,j
j,k,k,k,k,k,0,0,0,0,0,21,0,0,0,j
j,0,0,0,0,0,0,0,21,0,0,0,0,0,0,j
j,0,0,0,0,0,0,0,0,0,0,0,0,0,0,j
j,0,0,0,0,0,0,0,0,0,0,0,0,0,0,j
j,j,0,j,j,j,j,j,j,j,j,j,j,j,j,j
j,0,0,0,0,0,0,0,0,0,0,0,0,0,0,0
j,0,0,0,27,1j,0,27,1j,0,27,0,0,1i,0,0
j,0,0,0,27,1j,0,27,1j,0,27,0,0,1i,1f,0
j,0,0,0,27,1j,0,27,1j,0,27,1j,0,1i,0,0
j,0,0,0,27,1j,0,27,1j,0,27,1j,0,1i,0,0
j,0,0,0,27,1j,0,22,1j,0,27,1j,0,1i,0,0
j,0,0,0,27,1j,0,27,1j,0,27,1j,0,0,0,0
j,0,0,0,0,0,0,0,0,0,0,0,0,0,0,0
j,j,0,j,j,j,j,j,j,j,j,j,j,j,j,j
j,j,0,j,j,j,j,j,j,j,j,j,j,j,j,j
NAME Classroom1Sub
ITM 6 4,7
ITM 6 7,7
ITM 6 7,11
ITM 6 10,11
ITM 6 10,9
ITM 9 2,4
EXT 2,6 l 2,6
PAL a

ROOM t
0,0,0,0,0,0,0,0,0,0,0,0,0,0,0,0
0,0,0,0,0,0,0,0,0,0,0,0,0,0,0,0
0,0,1o,1o,0,0,0,0,0,0,0,0,1o,1o,0,0
0,0,1o,1o,0,0,0,0,0,0,0,0,1o,1o,0,0
0,0,1o,1o,0,0,0,0,0,0,0,0,1o,1o,0,0
0,0,1o,1o,0,0,0,0,0,0,0,0,1o,1o,0,0
0,0,1o,1o,0,0,0,0,0,0,0,0,1o,1o,0,0
0,0,1o,1o,0,0,0,0,0,0,0,0,1o,1o,0,0
0,0,1o,1o,0,0,0,0,0,0,0,0,1o,1o,0,0
0,0,1o,1o,0,0,1o,1o,1o,1o,0,0,1o,1o,0,0
0,0,1o,1o,0,0,1o,1o,1o,1o,0,0,1o,1o,0,0
0,0,1o,1o,0,0,0,0,0,0,0,0,1o,1o,0,0
0,0,1o,1o,0,0,0,0,0,0,0,0,1o,1o,0,0
0,0,0,0,0,0,0,0,0,0,0,0,0,0,0,0
0,0,0,0,0,0,0,0,0,0,0,0,0,0,0,0
0,0,0,0,0,0,0,0,0,0,0,0,0,0,0,0
NAME end1
ITM j 9,8
ITM n 6,8
EXT 6,8 w 6,8
EXT 9,8 x 9,8
PAL 6

ROOM u
1p,12,y,w,2a,10,10,10,w,w,12,1p,1p,1p,1p,1p
1p,12,w,w,10,1e,10,10,w,y,12,1p,1p,1p,1p,1p
1p,12,y,w,10,28,29,29,y,y,12,n,n,n,n,1p
1p,12,w,w,10,10,y,y,y,y,12,n,n,n,n,1p
1p,12,y,w,10,10,w,y,w,w,12,v,v,v,v,1p
1p,0,0,0,0,0,10,0,10,0,0,q,1v,q,1v,1p
1p,0,0,0,0,0,0,0,0,0,0,0,0,0,0,0
1p,0,0,0,0,0,0,0,0,0,0,12,12,12,12,1p
1p,23,23,23,23,23,23,23,0,0,0,k,k,k,k,1p
1p,n,n,n,n,n,n,n,0,0,0,0,0,0,0,1p
j,n,n,n,n,n,n,n,0,0,0,0,1m,1n,24,j
j,j,j,j,j,j,j,j,0,j,j,j,j,j,j,j
e,e,e,e,e,e,e,j,e,j,12,12,12,12,12,12
e,e,e,e,e,e,e,j,1s,j,j,j,j,j,j,j
e,e,e,e,e,e,e,j,0,1s,0,0,1g,0,1f,0
e,e,e,e,e,e,e,j,j,j,j,j,j,j,j,j
NAME Dyscor
ITM q 7,6
EXT 15,6 r 0,6
PAL 5

ROOM v
d,j,j,j,j,j,j,j,j,j,j,j,j,j,j,d
j,g,g,g,g,g,0,0,0,0,g,g,g,g,g,j
j,g,g,g,0,0,0,0,0,0,0,0,g,g,g,j
v,g,g,0,0,12,0,0,0,0,0,0,0,g,g,v
j,g,0,0,0,k,0,0,0,0,0,0,0,0,g,j
j,10,10,10,10,10,10,10,10,10,10,10,10,10,10,j
v,0,0,0,0,0,0,0,0,0,0,0,0,0,0,v
j,20,20,20,20,20,20,20,20,20,20,20,20,20,20,j
j,j,j,j,j,j,j,j,j,j,j,j,j,j,j,j
0,0,0,0,0,0,0,0,1s,0,0,0,0,0,0,0
0,21,21,21,0,1s,21,21,21,21,1s,0,21,21,21,1s
0,0,0,0,0,0,0,0,0,0,0,0,0,0,0,0
0,21,21,21,1s,0,21,21,21,21,0,1s,21,21,21,0
0,0,1s,0,0,0,0,0,0,0,0,0,0,0,0,0
0,21,21,21,0,1s,21,21,21,21,1s,0,21,21,21,0
0,0,0,0,0,0,0,0,0,0,0,0,0,0,0,0
NAME World's a TBX
ITM o 5,3
ITM n 7,4
ITM 9 2,11
ITM 9 13,11
ITM 9 13,13
ITM 9 2,13
ITM j 8,4
ITM h 3,4
ITM i 12,4
ITM k 13,4
ITM n 9,4
ITM n 10,4
ITM c 11,6
EXT 14,6 t 0,6
PAL b

ROOM w
0,0,0,0,0,0,0,0,0,0,0,0,0,0,0,0
0,0,0,0,0,0,0,0,0,0,0,0,0,0,0,0
0,0,1o,q,0,0,0,0,0,0,0,0,e,1o,0,0
0,0,1o,q,0,0,0,0,0,0,0,0,e,1o,0,0
0,0,1o,q,0,0,0,0,0,0,0,0,e,1o,0,0
0,0,1o,q,0,0,0,0,0,0,0,0,e,1o,0,0
0,0,1o,q,0,0,0,0,0,0,0,0,e,1o,0,0
0,0,1o,q,0,0,0,0,0,0,0,0,e,1o,0,0
0,0,1o,q,0,0,0,0,0,0,0,0,e,1o,0,0
0,0,1o,q,0,0,1o,1o,1o,1o,0,0,e,1o,0,0
0,0,1o,q,0,0,e,e,e,e,0,0,e,1o,0,0
0,0,1o,q,0,0,0,0,0,0,0,0,e,1o,0,0
0,0,1o,q,0,0,0,0,0,0,0,0,e,1o,0,0
0,0,0,0,0,0,0,0,0,0,0,0,0,0,0,0
0,0,0,0,0,0,0,0,0,0,0,0,0,0,0,0
0,0,0,0,0,0,0,0,0,0,0,0,0,0,0,0
ITM j 9,8
ITM g 3,2
ITM g 3,3
ITM g 3,4
ITM g 3,5
ITM g 3,6
ITM g 3,7
ITM g 3,8
ITM g 3,9
ITM g 3,10
ITM g 3,11
ITM g 3,12
ITM g 12,12
ITM g 12,11
ITM g 12,10
ITM g 12,9
ITM g 12,8
ITM g 12,7
ITM g 12,6
ITM g 12,5
ITM g 12,4
ITM g 12,3
ITM g 12,2
ITM g 6,10
ITM g 7,10
ITM g 8,10
ITM g 9,10
EXT 9,8 y 9,8
PAL 6

ROOM x
0,0,0,0,0,0,0,0,0,0,0,0,0,0,0,0
0,0,0,0,0,0,0,0,0,0,0,0,0,0,0,0
0,0,1o,q,0,0,0,0,0,0,0,0,q,1o,0,0
0,0,1o,j,0,0,0,0,0,0,0,0,q,1o,0,0
0,0,1o,j,0,0,0,0,0,0,0,0,q,1o,0,0
0,0,1o,j,0,0,0,0,0,0,0,0,q,1o,0,0
0,0,1o,j,0,0,0,0,0,0,0,0,q,1o,0,0
0,0,1o,j,0,0,0,0,0,0,0,0,q,1o,0,0
0,0,1o,j,0,0,0,0,0,0,0,0,q,1o,0,0
0,0,1o,q,0,0,1o,1o,1o,1o,0,0,q,1o,0,0
0,0,1o,q,0,0,q,q,q,q,0,0,q,1o,0,0
0,0,1o,q,0,0,0,0,0,0,0,0,q,1o,0,0
0,0,1o,q,0,0,0,0,0,0,0,0,q,1o,0,0
0,0,0,0,0,0,0,0,0,0,0,0,0,0,0,0
0,0,0,0,0,0,0,0,0,0,0,0,0,0,0,0
0,0,0,0,0,0,0,0,0,0,0,0,0,0,0,0
ITM n 6,8
ITM g 7,10
ITM g 6,10
ITM g 8,10
ITM g 9,10
ITM g 3,12
ITM g 3,11
ITM g 3,10
ITM g 3,9
ITM g 3,8
ITM g 3,7
ITM g 3,6
ITM g 3,5
ITM g 3,4
ITM g 3,2
ITM g 3,3
ITM g 12,2
ITM g 12,3
ITM g 12,4
ITM g 12,5
ITM g 12,6
ITM g 12,7
ITM g 12,8
ITM g 12,9
ITM g 12,10
ITM g 12,11
ITM g 12,12
EXT 6,8 y 6,8
PAL 6

ROOM y
0,0,0,0,0,0,0,0,0,0,0,0,0,0,0,0
0,0,0,0,0,0,0,0,0,0,0,0,0,0,0,0
0,0,26,e,0,0,0,0,0,0,0,0,e,26,0,0
0,0,26,e,0,0,0,0,0,0,0,0,e,26,0,0
0,0,26,e,0,0,0,0,0,0,0,0,e,26,0,0
0,0,26,e,0,0,0,0,0,0,0,0,e,26,0,0
0,0,26,e,0,0,0,0,0,0,0,0,e,26,0,0
0,0,26,e,0,0,0,0,0,0,0,0,e,26,0,0
0,0,26,e,0,0,0,0,0,0,0,0,e,26,0,0
0,0,26,e,0,0,26,26,26,26,0,0,e,26,0,0
0,0,26,e,0,0,q,q,q,q,0,0,e,26,0,0
0,0,26,e,0,0,0,0,0,0,0,0,e,26,0,0
0,0,26,e,0,0,0,0,0,0,0,0,e,26,0,0
0,0,0,0,0,0,0,0,0,0,0,0,0,0,0,0
0,0,0,0,0,0,0,0,0,0,0,0,0,0,0,0
0,0,0,0,0,0,0,0,0,0,0,0,0,0,0,0
NAME finale
ITM h 7,14
ITM i 8,14
ITM g 6,9
ITM g 7,9
ITM g 9,9
ITM g 8,9
ITM g 13,2
ITM g 13,3
ITM g 12,4
ITM g 13,4
ITM g 13,5
ITM g 12,5
ITM g 13,6
ITM g 13,7
ITM g 12,7
ITM g 12,8
ITM g 13,8
ITM g 13,9
ITM g 12,9
ITM g 13,10
ITM g 13,11
ITM g 12,11
ITM g 12,12
ITM g 13,12
ITM g 2,2
ITM g 2,3
ITM g 2,4
ITM g 2,5
ITM g 2,6
ITM g 2,7
ITM g 2,9
ITM g 2,8
ITM g 2,10
ITM g 2,11
ITM g 12,3
ITM g 12,2
ITM g 12,6
ITM g 12,10
ITM g 6,10
ITM g 7,10
ITM g 8,10
ITM g 9,10
ITM g 3,2
ITM g 3,3
ITM g 3,4
ITM g 3,5
ITM g 3,6
ITM g 3,7
ITM g 3,8
ITM g 3,9
ITM g 3,10
ITM g 3,12
ITM g 3,11
ITM g 2,12
END 0 7,14
END 0 8,14
PAL 6

ROOM z
1p,l,y,w,j,w,w,j,w,j,j,1p,1p,1p,1p,1p
1p,y,w,w,w,1q,1w,w,w,y,l,1p,1p,1p,1p,1p
1p,y,y,w,w,0,w,w,y,w,y,n,n,n,n,1p
1p,y,w,w,1w,1e,y,w,w,w,y,n,n,n,n,1p
1p,l,y,0,0,0,w,y,w,w,y,j,j,j,j,1p
1p,0,0,0,0,0,0,0,0,0,0,q,u,q,u,1p
1p,0,1r,0,0,1u,0,0,0,1u,0,0,0,0,0,y
1p,0,0,j,0,0,0,0,j,0,0,w,w,w,w,1p
1p,23,23,23,23,23,23,23,0,1u,0,k,k,k,k,1p
1p,n,n,n,n,n,n,n,0,0,0,0,0,0,1u,1p
j,n,n,n,n,n,n,n,1u,0,0,0,0,0,0,j
j,j,j,j,j,j,j,j,0,j,j,j,j,j,j,j
e,e,e,e,e,e,e,j,0,j,1q,1q,1q,1q,1q,1q
e,e,e,e,e,e,e,j,0,j,j,j,j,j,j,j
e,e,e,e,e,e,e,j,0,0,0,0,0,0,0,24
e,e,e,e,e,e,e,j,j,j,j,j,j,j,j,j
NAME anim1
ITM h 12,10
ITM i 13,10
ITM k 14,10
EXT 15,6 r 0,6
EXT 6,5 10 7,5
EXT 7,6 10 7,5
EXT 8,5 10 7,5
PAL 3

TIL 10
00000000
00000000
00000000
00010000
00000000
00000000
00000000
00000000
WAL true

TIL 11
11111111
11111111
11111111
10000001
10000001
11111111
11111111
11111111
WAL true

TIL 12
11111111
11000011
10100011
10100011
10001111
10101111
10001111
10001111
WAL true

TIL 13
00111100
00111100
00000000
00111100
00100100
00111100
00011000
00011000
WAL false

TIL 14
10001111
00000000
01110000
11111111
10001111
00000000
01110000
11111111

TIL 15
10111111
10100001
11111001
10101001
10111111
10101001
11111001
10001001

TIL 16
11111111
11111111
11011011
11111111
11111111
11011011
11111111
11111111
WAL true

TIL 17
11011011
11111111
11111111
11011011
11111111
11111111
00000000
00000000
WAL true

TIL 18
00000000
00000000
01111110
01011010
01011010
01111110
00000000
00000000
WAL false

TIL 19
11111111
11011011
11111111
11111111
11111111
11111111
11111111
11111111
WAL false

TIL 20
00000000
00000000
11111111
00000000
11111111
11111111
11111111
00000000
WAL true

TIL 21
01111110
01000010
01000010
01111110
01100110
01111110
01000010
01000010
WAL true

TIL 22
01111110
01000010
01000010
01111110
01100110
01111110
01000010
01000010
WAL false

TIL 23
00000000
00000000
10000001
11111111
11111111
11111111
00000000
11111111
WAL true

TIL 24
00000000
00011100
00111010
01111110
00001110
00001110
00001110
00001110
WAL false

TIL 25
00000000
00001110
01111010
01111110
00001110
00001110
00001110
00001110
WAL false

TIL 26
11110001
10011111
11110001
10011111
11110001
10011111
11110001
10011111
WAL true

TIL 27
00100000
00100000
00100000
00111110
00100010
00111110
00100010
00100010

TIL 28
00111100
00111000
00110000
00010000
00010000
00010000
01111100
01111100
>
00111000
00110000
00000000
00000000
00000000
00111000
00111000
00111000

TIL 29
00000000
00110010
00110010
11111111
11101111
11011101
10111011
11110111
>
00000000
00110010
00110010
10111010
11101111
11011101
10111011
11110111

TIL a
11111111
10000001
10000001
10011001
10011001
10000001
10000001
11111111
WAL true

TIL b
10000001
01000010
00111100
00100100
00100100
00111100
01000010
10000001

TIL c
00000000
11000011
10000001
10011001
10011001
10000001
11000011
00000000
>
00000000
11000011
10000001
10000001
10011001
10000001
11000011
00000000

TIL d
11000011
11000011
00011000
00111100
00111100
00011000
11000011
11000011
>
01000011
11000011
00000000
00011000
00011000
00000000
11000011
01000010

TIL e
10100101
10100101
11111111
10100101
10100101
11111111
10100101
10100101
WAL true

TIL f
00000000
11111111
10000001
00011000
00011000
10000001
11111111
00000000

TIL g
01000100
01000100
01010101
01010101
01010101
01010101
01010101
01010101

TIL h
00111100
00111100
00000000
00111100
00100100
00111100
00011000
00011000
WAL true

TIL j
11111111
11111111
11111111
11111111
11111111
11111111
11111111
11111111
WAL true

TIL k
11111111
11111111
00000000
11111111
11000011
11111111
10000001
10000001
WAL true

TIL l
11101111
11011111
10111111
11111110
11101101
11011011
10111111
11111111
>
11101111
11011111
10111111
11000111
10000011
10000001
10001111
10001111
WAL true

TIL m
00011000
00011000
00011000
00011000
00011000
00011000
00011000
00011000
WAL true

TIL n
00000000
11111111
00000001
11111111
00000001
11111111
00000001
11111111
WAL true

TIL o
00000000
00000000
00000000
00000000
01000000
01000100
01010100
01010101

TIL p
00000000
00000000
00000000
01000000
01000100
01010100
01010101
01010101

TIL q
11111111
11111111
11111111
11111111
11111111
11111111
00011000
00011000
WAL true

TIL r
00000000
00111100
01000010
10011001
10011001
01000010
00111100
00000000

TIL s
11111000
11111000
11111000
11111000
11111000
11111000
00000000
00000000

TIL t
00001110
00000000
01110000
00000000
00001110
00000000
01110000
00000000

TIL u
11110001
11111111
11111111
11111111
11111111
11111111
00000000
00000000

TIL v
11111111
11000011
10111101
01100110
01100110
10111101
11000011
11111111
WAL true

TIL w
11110111
11101111
11011111
11111110
11101101
11011011
10111111
11111111
WAL true

TIL x
00000000
00010001
00010001
00010001
01000100
01000100
01000100
00000000

TIL y
11110110
10100111
01011101
11110110
01101101
11011011
10101010
01011111
WAL true

TIL z
10000101
10100101
11111111
10100101
10100001
11111111
10100101
10100101
WAL false

TIL 1a
11111110
11111110
11111010
11111110
11111110
11111010
11111110
11111110

TIL 1b
00000000
01110000
01011110
01111110
01110000
01110000
01110000
01110000
WAL true

TIL 1c
00000000
00001110
01111010
01111110
00001110
00001110
00001110
00001110
WAL true

TIL 1d
00000000
00111100
00011000
00111100
00100100
00111100
00111100
00111100
WAL true

TIL 1e
00000000
00111100
00111100
00111100
00111100
00111100
00111100
00111100
WAL true

TIL 1f
00000000
00011100
00111010
01111110
00001110
00001110
00001110
00001110
WAL true

TIL 1g
00000000
00111000
01011100
01111110
01110000
01110000
01110000
01110000
WAL true

TIL 1h
11111111
10000001
10000001
10000001
10000001
10000001
10000001
11111111

TIL 1i
01111111
01111111
01111111
01111111
01111111
01111111
01000000
01000000
WAL true

TIL 1j
11111011
11111011
11111011
11111011
11111011
11111011
00000001
00000001
WAL true

TIL 1k
00000000
00000000
00000000
00000000
00000000
01111111
01111111
01111111
WAL true

TIL 1l
00000000
00000000
00000000
00000000
00000000
11111011
11111011
11111011
WAL true

TIL 1m
00000000
00001111
00001011
00001011
00001010
00001011
00001111
00000000

TIL 1n
00000000
11110000
11010000
11010000
01010000
11010000
11110000
00000000

TIL 1o
11111111
11111111
11111111
11111111
11101111
11111111
11111111
11111111

TIL 1p
11111111
11111111
11111111
11111111
11111111
11111111
11111111
11111111
WAL false

TIL 1q
10010001
01001010
00100100
10011010
01011001
00100100
01010010
10001001
>
00000000
00111100
01100110
01011010
01011010
01100110
00111100
00000000

TIL 1r
11111000
10001100
10000100
11000100
00001100
00001000
00011000
00110000

TIL 1s
00000000
00111100
01000010
10011001
10011001
01000010
00111100
00000000
>
00000000
00000000
01111110
10111101
11000011
01111110
00000000
00000000

TIL 1t
00111101
01000010
10000101
10001001
10010001
10100001
01000010
10111100
>
00000001
00111110
01000110
01001010
01010010
01100010
01111100
10000000

TIL 1u
00000000
00000000
00100100
00000000
00000000
00100100
00000000
00000000

TIL 1v
11111011
11110101
11110001
11111111
11110001
11111111
00000000
00000000
WAL true

TIL 1w
00000000
00000000
00000000
00000000
00000000
00000000
00000000
00000000
WAL true

TIL 1x
11111101
11111000
11111101
11101111
11000111
11101111
11111111
11111111
WAL true

TIL 1y
00000000
00000000
10011111
10000000
11111111
11111111
11111111
00000000
WAL true

TIL 1z
00000000
00000000
11111001
00000001
11111111
11111111
11111111
00000000
WAL true

TIL 2a
11110100
11101000
11010000
11100000
11000000
10000000
00000000
00000000

SPR A
00000000
00111000
01011100
01111110
01110000
01110000
01110000
01110000
>
00000000
00111100
00101110
00111111
00110000
00110000
00110000
00110000
POS i 7,6
ITM b 1
ITM k 1

SPR a
10000000
10111100
01110100
11111100
00011100
00011101
00011101
00011100
>
00000000
00111101
01110101
11111100
00011100
10011100
10011100
00011100
DLG SPR_0
POS 0 5,2

SPR b
00000000
01101110
01101110
01101110
00000000
01111110
01000010
00000000
DLG SPR_1
POS 0 10,10

SPR d
00000000
00111000
01011100
01111110
01110000
01110000
01110000
01110000
>
00000000
00111100
00101110
00111111
00110000
00110000
00110000
00110000
DLG SPR_g
POS l 4,7

SPR f
00000000
00111000
01011100
01111110
01110000
01110000
01110000
01110000
DLG SPR_d
POS 7 2,3

SPR g
00000000
11111111
10111101
10111101
10100101
10111101
11111111
00000000
>
00000000
11111111
10111101
10111101
10100101
10111101
11111111
00000000
DLG SPR_j
POS m 3,13

SPR h
00000000
00111100
01000010
10011001
10011001
01000010
00111100
00000000
>
00000000
00000000
01111110
10111101
11000011
01111110
00000000
00000000
DLG SPR_h
POS m 15,5

SPR j
10001111
11111111
00000000
11111111
11000011
11111111
10000001
10000001
>
11111111
11111111
00000000
11111111
11000011
11111111
10000001
10000001
DLG SPR_2
POS 1 4,3

SPR k
11111111
11111111
11111111
11000111
10000011
10000001
10001111
10001111
>
11111111
11111111
11111111
11111111
11111111
11111111
11111111
11111111
POS 1 4,2

SPR l
00000000
00111000
01011100
01111110
01110000
01110000
01110000
01110000
>
00000000
00011100
00111010
01111110
00001110
00001110
00001110
00001110
DLG SPR_3
POS 2 3,5

SPR m
00000000
00111000
01011110
01111110
01110100
01110000
01110000
01110000
>
00000000
00111000
01101110
01111110
01110100
01110000
01110000
01110000
DLG SPR_4
POS 3 2,5

SPR n
11111111
11111111
11011011
11111111
11111111
11011011
11111111
11111111
DLG SPR_5
POS 3 15,8

SPR o
00000000
00000000
00000000
00000000
01111110
01111110
01111110
01111110
DLG SPR_7
POS 6 5,6

SPR p
01111110
00000000
00111100
11111111
10000001
10000001
00000000
00000000
DLG SPR_6
POS 6 5,7

SPR q
11111111
11111111
11111111
11111111
11111111
11111111
11111111
11111111
>
11101111
11011111
10111111
11111110
11101101
11011011
10111111
11111111
DLG SPR_8
POS j 7,5

SPR r
11111111
11111111
11111111
11111111
11111111
11111111
11111111
11111111
>
11101111
11011111
10111111
11111110
11101101
11011011
10111111
11111111
DLG SPR_9
POS j 6,5

SPR s
00000000
00001110
00111101
01111111
01010111
00000111
00110111
00000111
>
00000000
00001110
00111101
01111111
01010111
00000111
00000111
00110111
DLG SPR_a
POS 0 13,3

SPR t
00000000
01101110
01101110
01101110
00000000
01111110
01000010
00000000
DLG SPR_c
POS p 13,9

SPR u
11101111
11011111
10111111
11111110
11101101
11011011
10111111
11111111
>
10001111
10001111
10001111
11111110
11101101
11011011
10111111
11111111
DLG SPR_b
POS p 6,5

SPR v
00000000
01111110
01011010
01111010
00001110
00001110
00001110
00001110
>
00000000
01011110
00001010
01011010
00001110
00001110
00001110
00001110
DLG SPR_e
POS s 13,2

SPR w
11111110
11111110
10000000
11111111
00000000
00000000
00000000
00000000
>
11111110
11111110
10000000
11111100
00000100
00001100
00000000
00000000
DLG SPR_f
POS s 13,3

SPR x
00000000
01101110
01101110
01101110
00000000
01111110
01000010
00000000
DLG SPR_i
POS m 10,4

ITM 0
00000000
00000000
00000000
01101010
10111111
11111110
00010100
00000000
>
00000000
00000000
00000000
01010110
11111101
01111111
00101000
00000000
NAME reptile vera
DLG ITM_0

ITM 1
00000000
00011000
00110100
00001100
00001100
00111110
01111111
00000000
>
00000000
00110000
01101000
10011000
00011000
01111100
11111111
00000000
NAME cyan
DLG ITM_1

ITM 2
00111000
01110100
00111100
00111100
00110100
00110100
00111100
00000000
NAME mole
DLG ITM_2

ITM 3
00000000
00000000
00000100
00000000
00000000
00000000
01111110
00000000
NAME paddle
DLG ITM_3

ITM 4
00111100
00111100
00000000
00111100
00100100
00111100
00011000
00011000
NAME toilet
DLG ITM_4

ITM 6
00000000
00111100
01000010
10011001
10011001
01000010
00111100
00000000
>
00000000
00000000
01111110
10111101
11000011
01111110
00000000
00000000
>
00000000
00000000
00000000
00000000
00000000
00000000
00000000
00000000
NAME Watcher
DLG ITM_b

ITM 7
00000000
00111000
01011100
01111110
01110000
11111100
11110000
01110000
>
00000000
00111000
01011100
01111110
01110000
11111000
01111000
01110000
>
00000000
00000000
00000000
00000000
00000000
00000000
00000000
00000000
>
00000000
00000000
00000000
00000000
00000000
00000000
00000000
00000000
>
00000000
00000000
00000000
00000000
00000000
00000000
00000000
00000000
>
00000000
00000000
00000000
00000000
00000000
00000000
00000000
00000000
>
00000000
00000000
00000000
00000000
00000000
00000000
00000000
00000000
>
00000000
00000000
00000000
00000000
00000000
00000000
00000000
00000000
>
00000000
00000000
00000000
00000000
00000000
00000000
00000000
00000000
NAME vera (active)
DLG ITM_e

ITM 8
11111111
10000001
10111101
10101101
10111101
10111001
10111001
11111111
NAME polaroid
DLG ITM_6

ITM 9
00000001
00111110
01000110
01001010
01010010
01100010
01111100
10000000
>
00111101
01000010
10000101
10001001
10010001
10100001
01000010
10111100
NAME null
DLG ITM_7

ITM b
00000000
00000000
00000000
00000000
00000000
00000000
00000000
00000000
NAME noise
DLG ITM_8

ITM c
00000000
00000000
00000000
00000000
00000000
00000000
00000000
00000000
NAME its locked
DLG ITM_9

ITM d
11111111
10000001
10110001
10101101
10111101
10110001
10110001
11111111
NAME pic1
DLG ITM_f

ITM e
11111111
10000001
10011001
10011001
10011001
10000001
10011001
11111111
DLG ITM_g

ITM f
11111111
10000001
10100101
10111101
10111101
10011001
10000001
11111111
DLG ITM_k

ITM g
11111111
11111111
11111111
11111111
11111111
11111111
11111111
11111111

ITM h
00100000
00001111
00001011
00001011
01001010
00001011
00001111
10010000
>
10000000
00001111
00101011
00001011
00001010
00001011
10001111
00000000
NAME Toybox
DLG ITM_l

ITM i
00000000
11110000
11010100
11010000
01010001
11010000
11110000
00001000
>
00000100
11110000
11010001
11010000
01010000
11010010
11110000
00000100
NAME ToyBOX

ITM j
00000000
00001100
00011010
00111110
00000110
00000110
00001110
00011111
NAME Mixa Cloth
DLG ITM_a

ITM k
00000000
00011100
00111010
01111110
00001110
00001110
00001110
00000000
NAME VERA
DLG ITM_d

ITM m
00000000
00111000
01011100
01111110
01110000
01110000
01110000
00000000
>
00000000
00011100
00111010
01111110
00001110
00001110
00001110
00000000
NAME actor
DLG ITM_5

ITM n
00000000
00000000
01110110
01110110
01110110
01110110
01110110
00000000
DLG ITM_i

ITM o
11111111
11000011
10100011
10100011
10001111
10101111
10001111
10001111
>
11101111
11011111
10111111
11111110
11101101
11011011
10111111
11111111
DLG ITM_j

ITM p
11101111
11011111
10111111
11111110
11101101
11011011
10111111
11111111

ITM q
00000000
00000000
00000000
00000000
00001000
00000000
00000000
00000000
DLG ITM_h

DLG SPR_0
"""
{sequence
  - Greetings!
  - I gave birth to you. 
  - ...
  - {clr1}...{clr1}
  - {rbw}...{rbw}
}
"""

DLG ITM_1
"""
**Its a snake...? It doesn't like you very much. It seems to be biting at something in your direction. 
There's nothing there?**
"""

DLG ITM_2
**Its a toy bird...? Or is it a mole. You're not sure, @#**

DLG ITM_3
toy paddle. mama gave it to me

DLG SPR_1
"""
dear diary,

im writing in you today to thank you for existing!
ive never had private words before!

@#$&#, 01/01/XXXX
{
  - {item "reptile vera"} >= 1 ?
    dear diary,
    
    i met a friend today. i hope mama lets me keep it. maybe it will like my other toys.
    
    @#$&#, 01/03/XXXX

  - else ?

}{
  - {item "polaroid"} >= 1 ?
    dear diary,
    
    i dont know why, but i hate it when dad takes pictures of me. i want to tell him to stop. but i dont know how
    @#$&#, 01/15/XXXX

  - else ?

}{
  - {item "toilet"} >= 1 ?
    dear diary,
    
    i hate the bathrooms outside. 
    
    @#$&#, 01/22/XXXX

  - else ?

}
"""

DLG ITM_4
"""
{clr2}Room 1A keys. They're in the toilet.{clr2}


i dont like it here.




i dont like it i dont like it i dont like it i dont like it...{
  - {item "reptile vera"} == 1 ?
    ......at least your here
  - else ?
    ......
}
"""

DLG SPR_2
..................

DLG ITM_0
"""
{clr2}Oh hello young one.                              
Mind an old reptile like me on your journeys?{clr2}
"""

DLG ITM_6
"""
{
  - else ?
    {clr1}Polariod of a child.{clr1}
}
"""

DLG ITM_7
"""
{
  - {item "noise"} >= 7 ?
    i dont know how long i can keep up with this.
    how long i can keep up this act.
    with eyes watching me.
    {clr1}Dear Dear @#. We could end our suffering - THEIR SUFFERING - so Easily. Be one with me. Or be Nothing. Peace awaits you in the Mirror.{clr1}
    ...
    
    no no no no no no.............. no no no no no no no no no no
    {rbw}{shk}{wvy}...{wvy}{shk}{rbw}
    

  - {item "noise"} >= 3 ?
    {clr2}Don't you wish you were more like me?{clr2}
    {clr2}No? You would rather be a lie than a monster?{clr2}
    {clr2}I am your reflection.
    
    {shk}And there is nothing you can do about it.{clr2}{shk}
  - {item "Toybox"} >= 1 ?
    {clr1}We aren't so different. We are both facades. Shards of a miserable creature.{clr1}
  - {item "ToyBOX"} == 1 ?
    {clr1}We aren't so different. We are both facades. Shards of a miserable creature.{clr1}
  - else ?
    {clr2}Empty set. Waiting to defined.{clr2}
}
"""

DLG SPR_3
"""
{sequence
  - {wvy}{clr2}hello hello hello! {clr2}{wvy}
  - {clr2}need a hint?{clr2}
  - {clr2}okay, soo... some of the doors are unlocked{clr2}
}{
  - {item "polaroid"} >= 1 ?
    {clr2}..........{clr2}
  - {item "toilet"} >= 1 ?
    {clr2}oh you got a shiny. 
    {clr2}{clr2}nah i dont want it.{clr2}
}{
  - {item "polaroid"} >= 1 ?
    
    
    {clr1}it's okay to cry{clr1}
  - a == 1 ?

}
"""

DLG SPR_4
"""
{sequence
  - {clr2}Oh hey kid. I lost my {wvy}keys{wvy}.
    
    Mind getting them for me?{clr2}
  - {clr2}If ya got my {wvy}keys{wvy}, I'll tell you something.{clr2}
}{
  - {item "toilet"} >= 1 ?
    {clr2} Oh you got them. Awesome. Here's some info.
    {clr2}{clr2}Your room is {clr1}7b{clr1}
  - else ?
    {clr2} It'll be useful. I promise. {clr2}
}
"""

DLG SPR_5
"""
ATTENTION RESIDENTS: ADDRESSES HAVE BEEN UPDATED
THE NORTH IS NOW "A" AND THE SOUTH "B"
{
  - {item "toilet"} == 1 ?
    ALSO: PLEASE WELCOME OUR NEW NEIGHBORS, THE ##### FAMILY!
    THEIR ROOM IS 7B.
    
    THATS 3 STEPS WEST AND 5 STEPS SOUTH OF THIS SIGN POST.

  - else ?
    **There's some more words written on it, but they don't seem useful now**
}
"""

DLG ITM_8
"""
{
  - {item "noise"} == 0 ?

  - {item "noise"} == 1 ?

  - {item "noise"} == 2 ?
    {wvy}{shk}.........{shk}{wvy}
  - {item "noise"} == 3 ?
    mom? 
    
    
    
    
    
    
    
    ...
  - {item "noise"} == 4 ?
    {wvy}{shk}.........{shk}{wvy}
  - {item "noise"} == 5 ?
    ...i wish i were actually alone
  - {item "noise"} == 6 ?
    dear diary,
    
    the outside world can be so scary sometimes. 
    im glad there are nice people in the world. 
    do nice people feel something? do they feel whole? 
    . . .
    
    if I dont feel whole. if i dont feel real
    ...does that make me a bad person?
    do the people who watch me know that? do they know i dont feel happiness anymore?
  - {item "noise"} == 7 ?
    dear diary,
    home doesnt feel the same anymore. why am I like this? why am I never happy? why am I so alone? why do they hate that I cry?
    i dont want to go to school tomorrow. 
    i dont want to be seen...
    
    if i have to go, i'll bring you all with me. 
  - {item "noise"} == 8 ?
    this is the end. isn't it?
    
    ...
    
    before we go on stage, before we look in the mirror. maybe we should explore a bit more...
  - {item "noise"} == 9 ?
    it hurts so much to look at it. it. it. it. thatâ€™s all that I feel of myself now. a toy. a monster. in a toybox. In a mirror. in a cage. why does mom think this is best for me?
    
    If this is whats best in the real world. maybe I donâ€™t want to be a part of the real world.
  - {item "null"} >= 4 ?
    dear diary,
    im sorry mom. im never letting you read this. this is my book. im me here. nobody can watch me here. nobody can see me behind words. but they will know {wvy}me{wvy}. i dont have to appease anyone. im going to be ready one day. ready to leave behind my past in a box. ready to break the shadow in the mirror. and i wont have to rely on puppets if i dont want to. i can be me one day. i just have to wait for the day i can leave. 
  - {item "noise"} == 10 ?
    dear diary,
    
    im so afraid on stage. but not as much as i am when i look into the mirror or peek my head outside of my toys' closet.
}
"""

DLG ITM_9
"""
{
  - {item "null"} >= 4 ?
    And Ix. 
    
    {shk}{wvy}{rbw}...{rbw}{wvy}{shk}
    
    
    noâ€¦ that name doesnâ€™t sound right anymore. what's your real name?
    
    {rbw}...{rbw} {clr1}Mixa.{clr1}
    
    Mixa. ah. i'm sorry
    i'm sorry i've made you suffer. i'm sorry i brought you life in a lost world. i'm sorry I dragged you and the {wvy}others{wvy} into this. ever since my XX birthday, i just haven't felt happy anywhere. except in words, drawings, and drama. Mixa. i have to grow up one day. but the reality i grow up in will be one i choose and change. so even if i stop playing with toys, and leave the past in a chest - i won't forget you. i will bring you with me. out of a doll's nightmare and into a real world.
    
    _ _ _ _ _ 02/16/XXXZ

  - {item "noise"} >= 9 ?
    im going to start moving away from toys. away from mirrors. im going to figure my mind out. but for now. im leaving this all behind. sorry @#. im leaving you to guard my stage of toys and diaries. i will come back for you.......
    
    ...with a new name.
    
    _ _ _ _ _ 02/16/XXXZ
  - else ?
    Its locked
}
"""

DLG SPR_6
"""
{sequence
  - **TV. It's off.**
  - **You can almost see a reflection...**
  - ...
  - {clr1}...{clr1}
  - {clr1}You can see me can't you?{clr1}
  - {clr1}...{clr1}
}
"""

DLG SPR_7
"""
{sequence
  - **TV: It's off.**
  - ...
  - {clr1}...{clr1}
  - {clr1}Oh the allure of it. A screen.
    So fluid. So malleable. The most beautiful thing. Compared to me.
    But you can see me can't you?
    In the glass. {clr1}
  - {clr1}...{clr1}
}
"""

DLG ITM_a
"""
{
  - {item "null"} >= 4 ?
    **Its its your fabric, {rbw}Mixa.{rbw}**
  - {item "noise"} >= 9 ?
    {clr2}**Its {shk}{wvy}Ix's{wvy}{shk} fabric. Your fabric, @#.**{clr2}
  - else ?
    {clr2}An empty shell of a plush.
    Your fabric holds memories.
    {rbw}A child. It spoke to me.
    
    It spoke a {wvy}{shk}name{shk}{wvy}{clr2}
    {rbw}ix. thats what i will name you. my first toy. ix, my first friend. best friend. ix, i#, @#....
}
"""

DLG ITM_b
{clr1}...{clr1}

DLG SPR_8
{clr1}Mirror{clr1}

DLG SPR_9
{clr1}Mirror{clr1}

DLG SPR_a
"""
{sequence
  - {clr2}If you cause any trouble.
    
    It's my job to arrest you.{clr2}
  - {clr2}Breaking and entering into a room counts as "trouble".{clr2}
    {clr2}No exceptions. Unless its yours. {clr2}
  - {clr2}Sorry, I don't make the rules kid.{clr2}
}
"""

DLG ITM_c
"""
{
  - {item "0"} == 1 ?
    {clr2}I'm so cold.{clr2}
    
    **You got a bird plush**
    
    **You got a Vera**
  - else ?
    {clr2}I'm so lonely. Can I join you?{clr2}
    
    **You got a bird plush**
  - {item "VERA"} == 2 ?
    {clr2}Please hide me.{clr2}
    
    **You got a Vera**
  - {item "VERA"} == 3 ?
    {clr2}Why are you crying?{clr2}
    
    **You got a bird friend**
}
"""

DLG SPR_b
"""
{cycle
  - i dont want to look at this
  - i dont want to look at this
  - i dont want to look at this
  - {shk}i dont want to look at this{shk}
  - {shk}{wvy}i dont want to look at this{wvy}{shk}
  - {clr1}I DONT WANT TO LOOK AT THIS.{clr1}
}
"""

DLG SPR_c
"""
{
  - {item "reptile vera"} == 1 ?
    dear diary,
    
    mommy doesn't like my new friends. she wants me to have "real ones".
    @#$&#, 04/06/XXXX
  - else ?
    dear diary,
    
    i got some toys in the mail from dad.
    i didnt get to see him on my birthday
    maybe that was a good thing
    
    @#$&#, 04/02/XXXX

}{
  - {item "VERA"} >= 2 ?
    dear diary,
    
    i dont feel comfortable at home like i use to. 
    i feel like mama hates that i still play with toys.
    i dont think people like my emotions. 
    ...am i meant to lock them out?
    
    @#$&#, 05/23/XXXX

  - else ?

}{
  - {item "null"} >= 2 ?
    dear diary,
    
    why are they angry with me? why do i feel empty when they say i should be happy. am I actually cute? do they say this so I wont be sad? do they think im the right type of cute?
    
    @#$&#, 07/23/XXXX

  - else ?

}
"""

DLG ITM_5
"""
{
  - {item "actor"} >= 7 ?
    {clr2}i i i i... dont know what to do
    please help me
    {clr2}
  - {item "actor"} >= 6 ?
    {clr2}nip nip nip!{clr2}
    
    {clr2}Thanks for the food!{clr2}
    
    **You notice all your cookies are missing**
    
    
    **The bird toy left**
  - else ?
    {rbw}tweet tweet tweet{rbw}
}
"""

DLG ITM_d
"""
{
  - else ?
    {clr2}I feel cold. Can I join you?{clr2}
    
    **You got a Bird Plush**
  - {item "VERA"} == 2 ?
    {clr2}I'm so lonely even though I have friends.{clr2}
    **You got a Vera Plush!**
  - {item "VERA"} == 3 ?
    {clr2}:<{clr2}
    
    **You got a plush!**
  - {item "VERA"} == 4 ?
    {clr2}............{clr2}
    
    **You got it.**
  - {item "VERA"} == 5 ?
    {clr1}Why Are You Crying?{clr1}
}
"""

DLG SPR_d
"""
{
  - {item "actor"} >= 6 ?
    {clr2}ah thanks so much. here's your tip:
    when you're in the hallway, follow the toys that face left.
    alright, now time to eat some cookies in peace...
    {shk}if there are any left...{clr2}{shk}
  - else ?
    {clr2}hey so this is some {clr1}dude's{clr1} birthday party{clr2}
    {clr2}but like, i really want to be alone for a bit. sorry. {clr2}{clr2}can you try to get everyone to leave?{clr2}
    {clr2}I'll help you find a way out of that messy hallway outside{clr2}
    

}
"""

DLG ITM_e
"""
{
  - {item "vera (active)"} >= 2 ?
    {clr2}AAAAAAAAAAHHHHHHHH SCHOOOOOOOOL {wvy}SUUUUUUUUUCKS!!!!{wvy}{clr2}
  - else ?
    {clr2}IF THE TEACHER IS 15MINUTES LATE WE ARE LEGALLY ALLOWED 2LEAVE{clr2}
}
"""

DLG SPR_e
"""
{sequence
  - {clr3}HEY. HEY KID! WHAT THE {shk}F***{shk} ARE YOU DOING BACK HERE?{clr1}
    {clr1}wait wait. S***. IM NOT ALLOWED TO CURSE IN THIS GAME.{clr3} 
  - KID. THIS WORLD IS A CRUMMY PLACE. OH, ITS NOT YOURS? BUMMER. WAIT. THERE'S A CLASSROOM OUTSIDE? WHAT??
    

  - {clr3}SO, DO YOU THINK YOUR CURRENT PUPPETEER IS EVEN GOING TO REMEMBER THIS? WILL {wvy}YOU?{wvy}I DON'T THINK I WILL. MY PUPPETEER DOESN'T LIKE TROUBLE MAKERS{clr3}

  - {clr3}OH WELL. THIS ISNT MY STORY ANYWAY. ITS YOURS @#. THE DAY YOU BECOME REAL OR UNREAL OR WHATEVER. AND FIGHT SOME DEMON{clr3}
  - {clr3}YOU KNOW, YOU, ME, AND @#$&# OUGHT TO STICK TOGETHER. 
    PEOPLE LIKE US ARE ALWAYS AT WAR WITH OURSELVES. WHAT DO YOU MEAN I CANT MEET @#$&#? ITS NOT LIKE THERE AREN'T ANY EXITS????{clr3}
}
"""

DLG SPR_f
{clr3}HEY KID STOP LOOKING AT MY TAIL AND LOOK AT MY F***ING FACE!{clr3}

DLG SPR_g
"""
{sequence
  - {clr2}.............
    
    i dont know what to do. i....{clr2}
    
    i
  - {clr2}oh wait. i remember. the mirror. there's something special about the mirrors.{clr2}
  - {clr2}i dont want to go to the bathrooms. i dont want to see the mirror{clr2}
    
    {clr2}...{clr2}
    
    {wvy}{shk}{clr2}i dont want to see what i am{clr2}{shk}{wvy}
  - {clr2}Good thing You're Here.{clr2}
}
"""

DLG SPR_h
"""
{sequence
  - {clr1}...{clr1}
  - im not allowed this way
  - that means you aren't allowed either, @#.
}
"""

DLG ITM_f
broken frame

DLG SPR_i
"""
dear diary,

i'm suppose to be performing next week. a play. a monologue. funny how similar acting there is to acting here...

@#$&#, 02/08/XXXZ
{
  - {item "vera (active)"} >= 1 ?
    dear diary,
    
    mom called me %%%%%%%% today. i hate it. i hate when she tells me im something that i dont want to be.
    {shk}...{shk}
    
    so thats whats been bothering me all this time........ah........
    
    @#$&#, 02/13/XXXZ
  - else ?

}{
  - {item "null"} >= 4 ?
    dear diary,
    
    i think im going to stop writing my name. atleast for now. maybe i will put a code name...
    i also think im going to change my best friend's name. @#, we can both change. we can both be real. maybe null, maybe lost. but not a lie.
    
    _ _ _ _ _, 02/14/XXXZ
  - {item "null"} >= 1 ?
    dear diary,
    
    i have come a long way. but im still so confused. so tired. i just want all this to stop. i just want people to stop seeing my hideous costume that i wear everyday. maybe if i stop thinking. maybe if i destroy my toys. then maybe.......
    
    
    @#$&#, 02/14/XXXZ
  - else ?

}
"""

DLG ITM_h
"""
{clr2}...{clr2}
{clr2}Ah. You can see me. See you. 
I am your reality outside of this nostalgic fantasy. 
I am your flesh, bones, and {shk}{wvy}cloth{wvy}{shk} rotting every minute.
You and @#$&# are nothing without me. You hate me. 
But {wvy}{shk}They{shk}{wvy} Love Me. 

Even Though They Should {shk}{wvy}HATE ME{wvy}{shk}.

{clr2}{
  - {item "null"} >= 4 ?
    {clr2}...?
    What are you doi-{clr2}
    {rbw}I'm not afraid of you. Nor is @#$&#. I am more than my flesh. I am more than a toy or a puppet. 
    I am a soul with free will and an identity. 
    My owner and I still have much to learn. But I am ready to leave the Toy Box. Life now {shk}{wvy}may{wvy}{shk} be a play, and perhaps an act. But our inner selves will always be truer than You.{rbw}
    ...
    
    ...Ix, i'm ready for us to go on stage.
  - else ?
    {clr2}...Ah. But if you could forget. If you could forget your pain, bury it away. Would you? That look in your face. It tells me we will never be friends. Ah, of course, how could you be friends with a {shk}{wvy}monster like me{wvy}{shk}. Keep acting then. Or forget you were acting in the first place. Or be null. I will be back. Every time you see a shine, a light. I will be your reflection.{clr2}
    
    ...you lie. i... im more than you and mom. im..i... i will grow up only to escape {shk}you{shk}
}
"""

DLG ITM_i
"""
{
  - {item "null"} >= 4 ?
    dear diary,
    
    It has been a long time since I looked at this book. I. I still have not forgotten. And I am so much closer. SO much closer to being able to be me - and anything. My self is still a jumble of thoughts. And the sights of others are still bothersome. But. I will and -can- be anything anyone. Mixa, Ember, Vera, or whatever! Oh my old friend Mixa. Burdned with holding a fragment of my self. Your identity helped guide mine and face the shadow in the mirror. Thank you. Thank you for being the guardian of the Toy Box so that they play of life can continue. 
    
    null_name, 01/3/XXWW
  - else ?
    dear diary,
    
    im sorry im doing this @#. I... hope and all the others understand, @#. i dont know how much longer i'll have to pretend. probably until i grow up. but for now @#, stay in this Toy Box. protect my memories. and all my friends here. i will be back. and i will be me...
    
    _ _ _ _ _ 02/17XXZZ

}
"""

DLG ITM_j
"""
...
{rbw}...{rbw}
**You break the mirror**
"""

DLG ITM_g
{clr1}Portrait of parent. {clr1}

DLG ITM_k
Portrait of lost friend.

DLG ITM_l
"""
{
  - {item "null"} >= 4 ?
    Thank you Mixa. 
  - else ?
    {rbw}...{rbw}
}
"""

DLG SPR_j
"""
{sequence
  - [1 - 1]
  - [1 - 1 = 0]
  -  1-1 = 0+0+0+0
  - {clr1}0 {clr1}
}
"""

END 0
And so the box was closed again.

END undefined


END undefinee


END undefinef


VAR a
42

VAR b
2


