
the sky is falling

# BITSY VERSION 4.5

! ROOM_FORMAT 1

PAL 0
118,217,255
63,181,255
255,255,255

PAL 1
103,202,255
63,143,230
255,255,255

PAL 2
90,176,222
45,130,194
255,255,255

PAL 3
90,155,201
41,93,156
255,255,255

PAL 4
81,114,150
49,82,133
255,255,255

PAL 5
70,93,125
42,71,115
255,255,255

PAL 6
67,79,107
47,63,89
255,255,255

PAL 7
118,217,255
254,252,0
255,255,255

ROOM 0
0,a,a,a,a,a,e,0,e,a,a,a,0,c,c,0
a,a,a,a,a,a,e,a,e,0,0,0,a,a,a,c
c,c,c,0,0,0,d,0,d,0,0,0,a,a,a,a
a,a,a,a,a,0,d,0,d,0,0,c,a,a,a,a
a,a,a,a,a,a,d,0,d,0,0,a,a,a,a,0
0,a,a,a,a,a,d,0,d,0,a,a,a,a,0,0
0,0,0,0,0,0,d,0,d,0,a,a,a,a,a,a
0,0,0,0,0,0,f,a,e,0,0,a,a,a,a,a
0,0,0,0,0,c,e,0,d,0,0,0,a,a,a,a
c,a,a,a,a,a,e,0,d,0,0,0,a,a,a,a
a,a,a,a,a,a,e,a,f,c,0,0,0,g,g,g
a,a,a,a,a,a,e,a,e,a,0,0,0,0,0,0
g,g,a,a,a,g,d,0,d,0,0,c,c,c,c,c
0,0,0,0,0,0,d,0,d,a,a,a,a,a,a,a
0,0,0,0,0,0,d,0,d,a,a,a,a,a,a,a
c,c,0,0,0,0,d,a,e,a,a,a,a,a,a,a
ITM 0 7,2
ITM 1 7,5
ITM 2 7,12
ITM 3 7,14
EXT 7,15 1 7,0
PAL 0

ROOM 1
0,0,0,0,0,0,d,0,d,0,0,g,a,a,a,a
c,c,c,c,c,c,f,0,d,0,0,0,0,a,a,a
a,a,a,a,a,a,e,0,d,0,0,0,0,0,0,0
a,a,a,a,a,a,e,a,d,0,0,0,0,0,0,0
a,a,a,a,a,a,h,0,d,0,0,0,0,0,0,0
a,a,a,a,a,a,e,a,d,0,0,0,0,c,c,c
g,g,g,0,0,0,d,0,e,a,a,a,a,a,a,a
0,0,0,0,0,0,d,0,h,a,a,a,a,a,a,a
0,0,0,0,0,0,d,0,d,a,a,a,a,a,a,a
0,a,a,a,a,a,d,0,d,0,0,0,0,a,a,0
a,a,a,a,a,a,e,0,d,0,0,0,0,0,0,0
a,c,c,c,a,a,e,a,d,0,c,a,a,a,a,0
a,a,a,a,a,a,e,0,d,0,a,a,c,c,c,c
a,a,a,a,a,a,d,a,e,a,a,a,a,a,a,a
a,a,a,a,a,g,d,0,d,0,0,a,a,a,a,a
g,g,g,g,g,0,d,0,d,0,0,0,0,g,g,g
ITM 4 7,6
ITM 5 7,12
EXT 7,15 2 7,0
PAL 1

ROOM 2
a,a,a,a,a,a,e,e,h,0,0,0,0,0,0,0
a,a,a,a,a,a,d,0,d,0,0,0,0,0,c,c
g,0,0,0,0,0,d,0,d,0,0,a,a,a,a,a
0,0,0,0,a,a,e,0,d,0,a,a,a,a,a,a
0,0,0,a,a,a,e,a,e,a,a,a,a,a,a,a
0,0,0,a,a,a,e,a,e,a,a,a,a,a,a,a
0,0,0,0,a,a,e,a,e,a,a,a,a,a,a,a
0,0,0,0,0,0,e,a,e,a,a,a,a,a,a,a
0,0,0,0,0,0,d,0,d,0,a,a,a,a,a,a
0,0,0,0,0,0,d,0,d,0,0,0,g,g,g,g
0,a,a,a,a,a,d,0,d,0,0,0,0,0,0,0
a,a,a,a,a,a,e,a,f,c,c,c,c,c,c,c
a,a,a,a,a,a,e,a,e,a,a,a,a,a,a,a
a,a,a,a,a,a,e,a,e,a,a,a,a,a,a,a
a,a,a,a,a,a,e,a,e,a,a,a,a,a,a,a
a,a,a,a,a,a,e,a,e,a,a,a,a,a,a,a
ITM 6 7,2
ITM 7 7,9
EXT 7,15 3 7,0
PAL 2

ROOM 3
0,0,0,0,0,0,d,0,d,0,0,0,0,0,0,0
c,c,0,0,0,0,d,0,d,0,0,0,0,0,0,0
a,a,a,0,0,0,d,0,d,0,0,0,0,0,0,0
a,a,a,a,a,a,e,0,d,0,0,0,0,0,0,0
a,a,a,a,a,a,e,a,e,0,0,0,0,0,0,0
a,a,a,a,a,a,e,a,e,0,0,0,0,0,0,0
a,a,a,a,a,a,e,a,h,0,0,0,0,0,a,a
0,a,a,a,a,a,e,g,d,0,0,0,0,a,a,a
a,a,a,a,a,a,h,0,d,0,0,0,0,0,g,0
0,g,g,g,g,0,d,0,d,0,0,c,c,c,c,c
0,0,0,0,0,0,d,0,0,e,a,a,a,a,a,a
0,0,0,0,0,0,d,0,d,a,a,a,a,a,a,a
0,0,0,0,0,0,d,0,d,0,a,a,a,a,a,a
0,0,0,0,0,0,d,0,d,0,0,0,0,0,0,0
0,0,0,0,0,0,d,0,d,0,0,0,0,0,0,0
a,a,a,a,0,0,d,0,d,0,0,0,0,0,0,0
ITM 8 7,8
EXT 7,15 4 7,0
PAL 3

ROOM 4
0,0,0,0,0,0,d,0,d,0,0,0,0,0,c,c
0,0,0,0,0,0,d,0,d,0,0,a,a,a,a,a
0,0,0,0,0,0,d,0,d,0,a,a,a,a,c,0
0,0,0,0,0,0,d,0,d,0,a,a,a,a,a,a
0,0,0,0,0,0,d,0,d,a,a,a,a,a,a,a
0,0,0,0,0,0,d,0,d,a,a,a,a,a,a,a
0,0,0,0,0,0,d,0,d,a,a,a,a,a,a,a
c,c,0,0,0,0,d,0,d,0,a,a,a,a,a,a
a,a,a,0,0,0,d,0,d,0,0,0,g,g,g,g
a,a,a,a,0,0,d,0,d,0,0,0,0,0,0,0
a,a,a,a,0,0,d,0,d,0,0,0,0,0,0,0
a,a,0,0,0,0,d,0,d,0,0,0,0,0,0,0
g,0,0,0,0,0,d,0,d,0,0,0,0,0,0,0
0,0,0,0,0,0,d,0,d,0,0,0,0,0,0,0
0,0,0,0,0,0,d,0,d,0,0,0,0,c,c,c
0,0,0,0,0,0,d,0,d,0,0,0,a,a,a,a
ITM 9 7,6
ITM a 7,13
EXT 7,15 5 7,0
PAL 4

ROOM 5
0,0,0,a,a,a,e,0,d,0,0,0,0,0,0,0
0,0,0,0,0,0,d,0,d,0,0,0,0,0,0,0
c,0,0,0,0,0,d,0,d,0,0,0,a,a,a,c
a,a,a,0,0,0,d,0,d,0,0,a,a,a,a,a
a,a,a,a,0,0,d,0,d,0,0,a,a,a,a,0
a,a,a,a,a,a,f,0,d,0,0,a,a,a,a,0
a,a,a,a,a,a,e,0,d,0,0,g,a,a,a,a
g,a,a,a,a,a,e,0,d,0,0,0,0,a,a,a
0,a,a,a,a,a,e,0,d,0,0,0,0,a,a,g
0,a,a,a,a,g,d,0,d,0,0,0,0,a,a,0
0,0,a,g,a,0,d,0,d,0,0,0,0,a,0,0
0,0,a,0,a,0,d,0,d,0,0,0,0,a,0,0
0,0,a,0,0,0,d,0,d,0,0,0,0,a,0,0
0,0,a,0,0,0,d,0,d,0,0,0,0,0,0,0
0,0,a,0,0,0,d,0,d,a,a,a,0,0,0,0
0,0,0,0,0,0,d,0,d,a,a,a,a,a,0,0
ITM b 7,4
ITM c 7,9
ITM d 7,13
EXT 7,15 6 7,0
PAL 5

ROOM 6
0,0,0,0,0,0,d,0,d,0,0,0,0,0,a,0
0,a,0,0,0,0,d,0,d,0,0,0,0,0,a,0
0,a,0,0,0,0,d,0,d,0,0,0,a,0,a,0
0,a,0,0,0,0,d,0,d,0,0,0,a,0,a,0
0,a,0,0,c,0,d,0,d,0,c,0,a,0,a,0
0,a,0,0,a,0,d,0,d,0,a,a,a,0,a,0
0,a,0,0,a,a,d,0,d,0,a,a,a,0,a,0
0,a,0,0,a,a,d,0,d,0,a,a,a,0,a,0
0,a,0,0,a,a,d,0,d,0,a,a,a,0,a,0
0,a,0,0,a,a,d,0,d,0,a,a,a,0,g,0
0,a,0,0,a,a,d,0,d,0,a,a,a,0,0,0
0,g,0,0,a,a,d,0,d,0,a,a,g,0,0,0
0,0,0,0,a,a,d,0,d,0,0,a,0,0,0,0
0,0,0,0,g,a,d,0,d,0,0,a,0,0,0,0
0,0,0,0,0,0,d,0,d,0,0,0,0,0,0,0
0,0,0,0,0,0,d,0,d,0,0,0,0,0,c,0
ITM e 7,2
ITM f 7,7
ITM g 7,10
ITM h 7,13
ITM i 7,14
EXT 7,15 7 7,0
PAL 6

ROOM 7
a,a,a,a,0,0,d,0,d,0,0,0,0,0,0,0
a,a,a,a,0,0,d,0,d,0,0,0,0,0,0,0
a,a,0,0,0,0,d,0,d,0,0,0,0,0,c,c
a,0,0,0,0,0,d,0,d,0,0,0,0,a,a,a
0,0,0,0,0,0,d,0,d,0,0,a,a,a,a,a
0,0,0,0,0,0,d,0,d,0,a,a,a,a,a,a
0,0,0,0,0,0,d,0,d,0,a,a,a,a,a,a
0,0,0,0,0,0,d,0,d,0,g,a,0,0,0,0
0,0,0,0,0,0,d,0,d,0,0,0,0,0,0,c
0,0,c,c,0,0,d,0,d,0,0,0,0,0,0,a
0,a,a,a,a,0,d,0,d,0,0,0,0,a,a,a
a,a,a,a,a,0,d,0,d,0,0,0,0,a,a,a
a,a,a,a,0,0,d,0,d,0,0,0,0,0,c,0
a,a,0,0,0,0,d,0,d,0,0,c,a,a,a,0
g,0,0,0,0,0,d,0,d,0,0,a,a,a,g,0
0,0,0,0,0,0,d,0,d,0,0,0,g,g,0,0
ITM j 7,3
ITM k 7,8
ITM l 7,11
ITM m 7,14
EXT 7,15 8 7,0
PAL 4

ROOM 8
a,a,a,0,0,0,d,0,d,0,0,0,0,0,a,a
a,a,a,a,0,0,d,0,d,0,0,0,0,a,a,a
a,a,a,a,a,a,d,0,d,0,0,0,0,a,a,0
a,a,a,a,a,a,d,0,d,0,0,0,0,0,0,0
a,a,a,a,a,a,d,0,d,0,0,0,0,0,0,0
a,a,a,a,a,0,d,0,d,0,0,0,0,0,0,0
g,g,g,g,0,0,d,0,d,0,0,0,0,0,0,0
0,0,0,0,0,0,d,0,d,0,0,0,0,0,0,0
0,0,0,0,0,0,d,0,d,a,a,a,a,c,0,0
0,0,0,0,0,0,d,a,e,a,a,a,a,a,0,0
0,0,0,0,0,0,d,a,e,a,a,a,a,a,0,0
0,0,0,0,0,0,d,a,e,a,a,a,a,g,0,0
0,0,0,0,0,0,d,0,h,g,g,g,0,0,0,0
0,0,0,0,0,0,d,0,d,0,0,0,0,0,0,0
c,c,0,0,0,0,d,0,d,0,0,0,0,0,0,0
a,a,a,0,0,0,d,0,d,0,0,0,0,0,0,0
ITM n 7,6
EXT 7,15 9 7,0
PAL 3

ROOM 9
a,a,a,a,a,a,e,0,d,0,0,0,0,0,0,0
a,a,a,a,a,a,h,0,d,0,0,0,0,0,0,0
a,a,a,a,a,g,d,0,d,0,0,0,0,0,0,0
a,a,a,g,g,0,d,0,d,0,0,0,c,c,c,a
0,0,0,0,0,0,d,0,d,0,0,a,a,a,a,a
0,0,0,0,0,0,d,0,d,a,a,a,a,a,a,a
0,0,0,0,0,0,d,0,d,a,a,a,a,a,a,a
0,0,0,0,0,0,d,0,d,a,a,a,a,g,g,g
c,0,0,0,0,0,d,0,d,a,a,a,a,a,0,0
a,a,0,0,0,0,d,0,d,0,a,a,a,a,a,a
a,a,a,a,a,0,d,0,d,0,a,a,a,a,a,a
a,a,a,a,a,a,d,0,d,0,0,a,a,a,a,a
a,a,a,a,a,a,e,0,d,0,0,0,g,a,a,a
a,a,a,a,a,a,e,0,d,0,0,0,0,g,g,a
a,a,a,a,a,a,e,0,d,0,0,0,0,0,0,g
a,a,a,a,a,a,d,0,d,0,0,0,0,0,0,0
ITM o 7,4
ITM p 7,9
ITM q 7,13
EXT 7,15 a 7,0
PAL 2

ROOM a
c,c,c,c,0,0,d,0,d,0,0,0,0,0,g,g
g,g,g,g,0,0,d,0,f,c,c,c,c,0,0,0
0,0,0,0,0,0,d,0,h,g,g,g,g,0,0,0
0,0,c,c,c,0,d,0,d,0,0,0,0,0,0,0
0,0,g,g,g,0,d,0,d,0,0,0,0,0,0,0
0,0,0,0,0,0,d,0,d,0,c,c,c,c,c,c
0,0,0,0,0,0,d,0,d,0,g,g,g,g,g,g
0,c,c,c,c,c,d,0,d,0,0,0,0,0,0,0
0,g,g,g,g,g,d,0,d,0,0,0,0,c,c,c
0,0,0,0,0,0,d,0,d,0,0,0,0,g,g,g
0,0,0,0,0,0,d,0,f,c,c,c,c,0,0,0
0,c,c,c,c,0,d,0,h,g,g,g,g,0,0,0
0,g,g,g,g,0,d,0,d,0,0,0,0,0,0,0
0,0,0,0,0,0,d,0,d,0,0,0,0,0,0,c
0,0,0,c,c,c,f,c,d,0,0,0,0,0,0,g
0,0,0,g,g,g,h,g,d,0,0,0,0,0,0,0
ITM r 7,6
EXT 7,15 b 7,0
PAL 1

ROOM b
0,0,0,0,0,0,d,0,d,0,0,0,0,0,0,0
11,v,t,r,p,n,d,0,d,0,0,0,0,0,0,0
10,a,a,a,a,m,d,0,d,0,0,0,0,0,0,0
z,a,a,a,a,l,d,0,d,0,0,0,0,0,0,0
y,a,a,a,a,k,d,0,d,0,0,0,0,0,0,0
x,a,a,a,a,j,d,0,d,0,0,0,0,0,0,0
w,u,s,q,o,i,d,0,d,0,0,0,0,0,0,0
0,0,0,0,0,0,d,0,d,0,0,0,0,0,0,0
0,0,0,0,0,0,d,0,d,0,0,0,0,0,0,0
0,0,0,0,0,0,d,0,d,0,0,0,0,0,0,0
0,0,0,0,0,0,d,0,d,0,0,0,0,15,13,14
0,0,0,0,0,0,d,0,d,0,0,0,12,1c,a,a
0,0,0,0,0,0,d,0,d,0,0,0,16,a,a,18
0,0,0,0,0,0,d,0,d,0,0,0,0,19,1b,17
0,1d,0,0,0,0,d,0,d,0,0,0,0,0,1a,n
e,e,e,e,e,e,e,e,e,e,e,e,e,e,e,e
ITM s 7,4
ITM t 7,11
ITM 7 7,14
END undefined 7,14
END undefined 7,13
PAL 7

TIL 10
00000011
00000111
00001111
00001111
00011111
00111111
00111111
00111111

TIL 11
00000000
00000000
00000000
00000000
00000000
00000000
00000000
00000001

TIL 12
00000011
00000111
00001111
00001111
00011111
00011111
00011111
00011111

TIL 13
00000000
00000000
00000000
01111110
11111111
11111111
11111111
11111111

TIL 14
00000000
00000000
00000000
00000000
11111000
11111100
11111111
11111111

TIL 15
00000000
00000000
00000000
00000000
00000011
00001111
01111111
11111111

TIL 16
00011111
00001111
00001111
00001111
00000111
00000111
00000011
00000000

TIL 17
11100000
00000000
00000000
00000000
00000000
00000000
00000000
00000000

TIL 18
11111111
11111111
11111111
11111111
11111111
11111111
11111110
11111100
WAL false

TIL 19
00011111
00000000
00000000
00000000
00000000
00000000
00000000
00000000

TIL a
11111111
11111111
11111111
11111111
11111111
11111111
11111111
11111111
WAL false

TIL c
00000000
00000000
00000000
00000000
00000000
00000000
11111111
11111111

TIL d
00000000
00000000
00000000
00000000
00000000
00000000
00000000
00000000
WAL true

TIL e
11111111
11111111
11111111
11111111
11111111
11111111
11111111
11111111
WAL true

TIL f
00000000
00000000
00000000
00000000
00000000
00000000
11111111
11111111
WAL true

TIL g
11111111
11111111
11111111
11111111
00000000
00000000
00000000
00000000

TIL h
11111111
11111111
11111111
11111111
00000000
00000000
00000000
00000000
WAL true

TIL i
10000000
00000000
00000000
00000000
00000000
00000000
00000000
00000000

TIL j
11111100
11111100
11111100
11111000
11110000
11110000
11100000
11000000

TIL k
11111111
11111111
11111111
11111111
11111111
11111110
11111110
11111110

TIL l
11111110
11111110
11111110
11111111
11111111
11111111
11111111
11111111

TIL m
11000000
11100000
11110000
11110000
11111000
11111100
11111100
11111100

TIL n
00000000
00000000
00000000
00000000
00000000
00000000
00000000
10000000

TIL o
11111111
11111111
11111110
11111100
11110000
11100000
00000000
00000000

TIL p
00000000
00000000
11100000
11110000
11111100
11111110
11111111
11111111

TIL q
11111111
11111111
11111111
11111111
11111111
11111111
11111111
11111000

TIL r
11111000
11111111
11111111
11111111
11111111
11111111
11111111
11111111

TIL s
11111111
11111111
11111111
11111111
11111111
11111111
11111111
00011111

TIL t
00011111
11111111
11111111
11111111
11111111
11111111
11111111
11111111

TIL u
11111111
11111111
01111111
00111111
00001111
00000111
00000000
00000000

TIL v
00000000
00000000
00000111
00001111
00111111
01111111
11111111
11111111

TIL w
00000001
00000000
00000000
00000000
00000000
00000000
00000000
00000000

TIL x
00111111
00111111
00111111
00011111
00001111
00001111
00000111
00000011

TIL y
11111111
11111111
11111111
11111111
11111111
01111111
01111111
01111111

TIL z
01111111
01111111
01111111
11111111
11111111
11111111
11111111
11111111

TIL 1a
01111111
00111111
00111111
00111111
00111111
00111111
00111111
01111111

TIL 1b
11111111
00111111
00111111
00111111
00111111
00111111
00111111
01111111

TIL 1c
11111111
11001111
11111111
11111111
11111111
11111111
11111111
11111111

TIL 1d
00000000
00000000
00001000
00001100
00001110
00010000
00010000
00010000

SPR A
00000000
00000000
00000000
00010000
00010000
00010000
00000000
00000000
>
00000000
00000000
00010000
00010000
00000000
00000000
00000000
00000000
POS 0 7,0

SPR b
00001100
00011110
00011111
11111110
01111110
00111100
00010100
00000000
>
00001100
00011110
01111111
01111110
00111110
00011100
00010100
00000000
POS 4 5,5

SPR c
00001100
00011110
00011111
11111110
01111110
00111100
00010100
00000000
>
00001100
00011110
01111111
01111110
00111110
00011100
00010100
00000000
POS b 12,10

SPR d
00000000
00000000
00000000
00000000
00000000
00000000
00000000
00000000
DLG SPR_0
POS 3 8,10

ITM 0
00000000
00000000
00000000
00000000
00000000
00000000
00000000
00000000
DLG ITM_0

ITM 1
00000000
00000000
00000000
00000000
00000000
00000000
00000000
00000000
DLG ITM_1

ITM 2
00000000
00000000
00000000
00000000
00000000
00000000
00000000
00000000
DLG ITM_2

ITM 3
00000000
00000000
00000000
00000000
00000000
00000000
00000000
00000000
DLG ITM_3

ITM 4
00000000
00000000
00000000
00000000
00000000
00000000
00000000
00000000
DLG ITM_4

ITM 5
00000000
00000000
00000000
00000000
00000000
00000000
00000000
00000000
DLG ITM_5

ITM 6
00000000
00000000
00000000
00000000
00000000
00000000
00000000
00000000
DLG ITM_6

ITM 7
00000000
00000000
00000000
00000000
00000000
00000000
00000000
00000000
DLG ITM_7

ITM 8
00000000
00000000
00000000
00000000
00000000
00000000
00000000
00000000
DLG ITM_8

ITM 9
00000000
00000000
00000000
00000000
00000000
00000000
00000000
00000000
DLG ITM_9

ITM a
00000000
00000000
00000000
00000000
00000000
00000000
00000000
00000000
DLG ITM_a

ITM b
00000000
00000000
00000000
00000000
00000000
00000000
00000000
00000000
DLG ITM_b

ITM c
00000000
00000000
00000000
00000000
00000000
00000000
00000000
00000000
DLG ITM_c

ITM d
00000000
00000000
00000000
00000000
00000000
00000000
00000000
00000000
DLG ITM_d

ITM e
00000000
00000000
00000000
00000000
00000000
00000000
00000000
00000000
DLG ITM_e

ITM f
00000000
00000000
00000000
00000000
00000000
00000000
00000000
00000000
DLG ITM_f

ITM g
00000000
00000000
00000000
00000000
00000000
00000000
00000000
00000000
DLG ITM_g

ITM h
00000000
00000000
00000000
00000000
00000000
00000000
00000000
00000000
DLG ITM_h

ITM i
00000000
00000000
00000000
00000000
00000000
00000000
00000000
00000000
DLG ITM_i

ITM j
00000000
00000000
00000000
00000000
00000000
00000000
00000000
00000000
DLG ITM_j

ITM k
00000000
00000000
00000000
00000000
00000000
00000000
00000000
00000000
DLG ITM_k

ITM l
00000000
00000000
00000000
00000000
00000000
00000000
00000000
00000000
DLG ITM_l

ITM m
00000000
00000000
00000000
00000000
00000000
00000000
00000000
00000000
DLG ITM_m

ITM n
00000000
00000000
00000000
00000000
00000000
00000000
00000000
00000000
DLG ITM_n

ITM o
00000000
00000000
00000000
00000000
00000000
00000000
00000000
00000000
DLG ITM_o

ITM p
00000000
00000000
00000000
00000000
00000000
00000000
00000000
00000000
DLG ITM_p

ITM q
00000000
00000000
00000000
00000000
00000000
00000000
00000000
00000000
DLG ITM_q

ITM r
00000000
00000000
00000000
00000000
00000000
00000000
00000000
00000000
DLG ITM_r

ITM s
00000000
00000000
00000000
00000000
00000000
00000000
00000000
00000000
DLG ITM_s

ITM t
00000000
00000000
00000000
00000000
00000000
00000000
00000000
00000000
DLG ITM_t

DLG ITM_0
drip

DLG ITM_1
drop

DLG ITM_2
plip

DLG ITM_3
plop

DLG ITM_4
where did i come from

DLG ITM_5
where am i going

DLG ITM_6
endlessly falling

DLG ITM_7
"""
and falling
and falling
"""

DLG ITM_8
i fell through a cloud

DLG ITM_9
i fell past a bird

DLG ITM_a
"cheep," he said

DLG ITM_b
i fell through a storm

DLG ITM_c
it was scary

DLG ITM_d
i cried

DLG ITM_e
i cried because

DLG ITM_f
i loved her, and i missed her

DLG ITM_g
and she had no way of knowing

DLG ITM_h
and she'd grow up, happy

DLG ITM_i
nonetheless

DLG ITM_j
but i smiled because

DLG ITM_k
i could watch her grow up

DLG ITM_l
and do amazing things

DLG ITM_m
and be an amazing raindrop

DLG ITM_n
and that makes me happy

DLG ITM_o
so when the storm ends

DLG ITM_p
as it always does

DLG ITM_q
i look at the sun

DLG ITM_r
and think how bright it shines

DLG ITM_s
god, it's so god damn bright

DLG ITM_t
and beautiful

DLG SPR_0
"""
{sequence
  - congrats u found the secret
  - ok back to the game
}
"""

END 0


END undefined
isn't it?


