The Witchfinder

# BITSY VERSION 3.7

! ROOM_FORMAT 1

PAL 0
29,29,29
203,216,245
226,3,9

PAL 1
255,98,102
3,3,3
255,239,223

PAL 2
12,12,12
253,0,6
192,234,250

PAL 3
27,27,27
238,238,238
244,9,15

ROOM 0
0,0,0,0,0,0,0,0,0,0,0,t,u,u,0,0
0,0,0,0,u,t,0,0,t,u,0,w,v,v,0,0
0,0,0,0,x,v,0,0,v,w,0,t,0,0,0,0
t,u,t,0,0,0,u,t,0,0,0,v,0,0,0,0
x,v,w,0,0,0,v,w,0,0,0,0,0,0,0,0
m,m,m,m,m,m,m,m,m,m,m,m,m,m,m,0
0,0,0,0,0,0,0,0,0,0,0,0,0,0,0,0
i,j,f,j,i,j,j,j,i,j,j,j,i,j,j,j
h,m,f,m,h,0,0,0,h,0,0,0,h,0,0,0
g,m,f,m,g,0,0,0,g,0,0,0,g,0,0,0
g,m,f,m,g,0,0,0,g,0,0,0,g,0,0,0
n,m,f,m,n,m,0,0,g,0,y,0,g,0,y,0
g,e,f,e,g,e,d,d,g,e,k,d,g,d,k,d
c,c,c,c,c,c,c,c,c,c,c,c,c,c,c,c
a,b,a,a,a,a,a,b,b,a,a,a,a,a,b,a
a,a,a,a,b,a,a,a,a,a,b,a,b,b,a,a
WAL c,n,j,m,i
EXT 15,6 1 0,6
PAL 0

ROOM 1
0,0,0,0,0,t,u,0,0,0,0,0,u,u,0,0
0,0,u,t,0,v,v,t,t,u,0,0,v,x,0,0
0,0,v,w,0,0,0,v,x,v,0,0,0,u,t,0
0,u,t,0,0,t,u,0,0,0,0,0,0,v,v,0
0,x,w,0,0,v,v,0,0,0,0,0,0,0,0,0
m,m,m,m,m,m,m,m,m,m,m,m,m,m,m,0
0,0,0,0,0,0,0,0,0,0,0,0,0,0,0,0
i,j,j,j,i,j,j,j,i,j,j,j,i,j,j,j
h,0,0,0,h,0,0,0,h,0,0,0,h,0,0,0
g,0,0,0,g,0,0,0,g,0,0,0,g,0,0,0
g,0,0,0,g,0,0,0,g,0,0,0,g,0,0,0
n,0,y,0,n,0,y,0,g,0,y,0,g,0,y,0
g,d,k,d,g,e,k,d,g,e,k,d,g,d,k,d
c,c,c,c,c,c,c,c,c,c,c,c,c,c,c,c
a,b,a,a,a,a,a,b,b,a,a,a,a,a,b,a
a,a,a,a,b,a,a,a,a,a,b,a,b,b,a,a
WAL c,n,m,j,i
EXT 15,6 2 0,6
PAL 0

ROOM 2
0,0,0,0,0,t,u,0,0,0,0,0,u,u,0,0
0,0,u,t,0,v,v,t,t,u,0,0,v,x,0,0
0,0,v,w,0,0,0,v,x,v,0,0,0,u,t,0
0,u,t,0,0,t,u,0,0,0,0,0,0,v,v,0
0,x,w,0,0,v,v,0,0,0,0,0,0,0,0,0
m,m,m,m,m,m,m,m,m,m,m,m,m,m,m,m
0,0,0,0,0,0,0,0,0,0,0,0,0,0,0,0
i,j,f,j,i,j,f,j,i,j,f,j,i,j,f,i
h,m,f,m,h,m,f,m,h,m,f,m,h,m,f,h
g,m,f,m,g,m,f,m,g,m,f,m,g,m,f,2w
g,m,f,m,g,m,f,m,g,m,f,m,g,m,f,2w
n,m,f,m,n,m,f,m,n,m,f,m,n,m,f,2w
g,e,f,e,g,d,f,0,g,e,f,d,g,e,f,g
c,c,c,c,c,c,c,c,c,c,c,c,c,c,c,c
a,b,a,a,a,a,a,b,b,a,a,a,a,a,b,a
a,a,a,a,b,a,a,a,a,a,b,a,b,b,a,a
WAL c,n,j,m,i,2w,h
EXT 15,12 3 0,12
PAL 0

ROOM 3
0,0,0,0,0,0,0,0,0,0,0,0,0,0,0,0
0,0,0,0,0,0,0,0,0,0,0,0,0,0,0,0
0,0,0,0,0,0,0,0,0,0,0,0,0,0,0,0
14,0,0,0,0,0,0,0,0,0,0,0,0,0,0,0
0,0,0,0,0,0,0,0,0,0,0,0,0,0,0,0
15,0,0,0,0,0,0,0,0,0,0,0,0,0,0,0
12,0,0,0,0,0,0,0,0,0,0,0,0,0,0,0
12,0,0,0,0,0,0,0,0,0,0,0,0,0,0,0
12,0,0,0,0,0,0,0,0,0,0,0,0,0,0,0
15,14,14,0,0,0,0,0,0,0,0,0,0,0,0,0
z,10,11,0,0,0,0,0,0,0,0,0,0,0,0,0
m,m,1g,m,m,m,m,m,m,m,m,m,m,m,m,m
e,d,16,e,e,e,e,e,e,d,e,e,d,e,e,d
c,c,c,c,c,c,c,c,c,c,c,c,c,c,c,c
a,a,a,a,b,b,a,a,a,a,a,b,a,a,a,b
a,b,a,a,b,a,a,a,b,a,a,a,a,b,a,a
WAL m,1g,c
EXT 15,12 6 0,12
PAL 0

ROOM 4
0,0,0,0,0,0,0,0,0,0,0,0,0,0,0,0
0,0,0,0,0,0,0,0,0,0,0,0,0,0,0,0
0,0,0,0,0,0,17,0,0,0,0,0,0,0,0,0
0,0,0,0,0,0,0,0,0,0,0,0,0,0,0,0
0,0,0,18,19,19,0,1a,1b,1c,0,0,0,0,0,0
0,0,0,0,0,0,0,0,0,0,0,0,0,0,0,0
0,0,0,0,0,0,0,0,0,0,0,0,0,0,0,0
0,0,0,0,0,0,0,0,0,0,0,0,0,0,0,0
0,0,0,0,0,0,0,0,0,0,0,0,0,0,0,0
0,0,0,0,0,0,0,0,0,0,0,0,0,0,0,0
0,0,0,0,0,0,0,0,0,0,0,0,0,0,0,0
m,m,m,m,m,m,m,m,m,m,m,m,m,m,m,m
e,d,e,e,e,e,e,e,e,d,e,e,d,e,e,d
c,c,c,c,c,c,c,c,c,c,c,c,c,c,c,c
a,a,a,a,b,b,a,a,a,a,a,b,a,a,a,b
a,b,a,a,b,a,a,a,b,a,a,a,a,b,a,a
WAL m,c
EXT 15,12 5 0,12
PAL 1

ROOM 5
0,0,0,0,0,0,0,0,0,0,0,0,0,0,0,0
0,0,0,0,0,0,0,0,0,0,0,0,0,0,0,0
0,0,0,0,0,0,0,0,0,0,0,0,0,0,0,0
0,0,0,0,0,0,0,0,0,0,0,0,0,0,0,0
0,0,0,1d,1b,1e,19,0,0,0,0,0,0,0,0,0
0,0,0,0,0,0,0,0,0,0,0,0,0,0,0,0
0,0,0,0,1f,1b,0,0,0,0,0,0,0,0,0,0
0,0,0,0,0,0,0,0,0,0,0,0,0,0,0,0
0,0,0,0,1e,19,0,0,0,0,0,0,0,0,0,0
0,0,0,0,0,0,0,0,0,0,0,0,0,0,0,0
0,0,0,0,0,0,0,0,0,0,0,0,0,0,0,0
m,m,m,m,m,m,m,m,m,m,m,m,m,m,m,m
e,d,e,e,e,e,e,e,e,d,e,e,d,e,e,d
c,c,c,c,c,c,c,c,c,c,c,c,c,c,c,c
a,a,a,a,b,b,a,a,a,a,a,b,a,a,a,b
a,b,a,a,b,a,a,a,b,a,a,a,a,b,a,a
WAL m,c
EXT 15,12 7 0,12
PAL 1

ROOM 6
0,0,0,0,0,0,0,0,0,0,0,0,0,0,0,0
0,0,0,0,0,0,0,0,0,0,0,0,0,0,0,0
0,0,0,0,0,0,0,0,0,0,0,0,0,0,0,0
0,0,0,0,0,0,0,0,0,0,0,0,0,0,0,0
0,0,0,0,0,0,0,0,0,0,0,0,0,0,0,0
0,0,0,0,0,0,0,0,0,0,0,0,0,0,0,0
0,0,0,0,0,0,0,0,0,0,0,0,0,0,0,0
0,0,0,0,0,0,0,0,0,0,0,0,0,0,0,0
0,0,0,0,0,0,0,0,0,0,0,0,0,0,0,0
0,0,0,0,0,0,0,0,0,0,0,0,0,0,0,0
0,0,0,0,0,0,0,0,0,0,0,0,0,0,0,0
m,m,m,m,m,m,m,m,m,m,m,m,m,m,m,m
e,d,e,e,e,e,e,e,e,d,e,e,d,e,e,d
c,c,c,c,c,c,c,c,c,c,c,c,c,c,c,c
a,a,a,a,b,b,a,a,a,a,a,b,a,a,a,b
a,b,a,a,b,a,a,a,b,a,a,a,a,b,a,a
WAL m,c
EXT 15,12 4 0,12
PAL 0

ROOM 7
0,0,0,0,0,0,0,0,0,0,0,0,0,0,0,0
0,0,0,0,0,0,0,0,0,0,0,0,0,0,0,0
0,0,0,0,0,0,0,0,0,0,0,0,0,0,0,0
0,0,0,0,0,0,0,0,0,0,0,0,0,0,0,0
0,0,0,0,0,0,0,0,0,0,0,0,0,0,0,0
0,0,0,0,0,0,0,0,0,0,0,0,0,0,0,0
0,0,0,0,0,0,0,0,0,0,0,0,0,0,0,0
0,0,0,0,0,0,0,0,0,0,0,0,0,0,0,0
0,0,0,0,0,0,0,0,0,0,0,0,0,0,0,0
0,0,0,0,0,0,0,0,0,0,0,0,0,0,0,0
0,0,0,0,0,0,0,0,0,0,0,0,0,0,0,0
m,m,m,m,m,m,m,m,m,m,m,m,m,m,m,m
e,d,e,e,e,e,e,e,e,d,e,e,d,e,e,d
c,c,c,c,c,c,c,c,c,c,c,c,c,c,c,c
a,a,a,a,b,b,a,a,a,a,a,b,a,a,a,b
a,b,a,a,b,a,a,a,b,a,a,a,a,b,a,a
WAL m,c
EXT 15,12 9 0,12
PAL 0

ROOM 9
0,0,0,0,0,0,0,0,0,0,0,0,0,0,q,f
0,0,0,0,0,0,0,0,0,0,0,0,0,0,q,f
0,0,0,0,0,0,0,0,0,0,0,0,0,0,p,f
0,0,0,0,0,0,0,0,0,0,0,0,0,0,q,f
0,0,0,0,0,0,0,0,0,0,0,0,0,0,q,f
0,0,0,0,0,0,0,0,0,0,0,0,0,0,p,f
0,0,0,0,0,0,0,0,0,0,0,0,0,0,q,f
0,0,0,0,0,0,0,0,0,0,0,0,0,0,q,f
0,0,0,0,0,0,0,0,0,0,0,0,0,0,p,f
0,0,0,0,0,0,0,0,0,0,0,0,0,0,q,f
0,0,0,0,0,0,0,0,0,0,0,0,0,0,q,f
m,m,m,m,m,m,m,m,m,m,m,m,m,m,p,f
e,d,e,e,e,e,e,e,e,d,e,e,d,e,o,f
c,c,c,c,c,c,c,c,c,c,c,c,c,c,c,c
a,a,a,a,b,b,a,a,a,a,a,b,a,a,a,b
a,b,a,a,b,a,a,a,b,a,a,a,a,b,a,a
WAL m,c,q,p
EXT 15,0 a 15,15
PAL 0

ROOM a
0,0,0,0,0,0,0,0,0,0,0,0,0,0,q,f
0,0,0,0,0,0,0,0,0,0,0,0,0,0,q,f
0,0,0,0,0,0,0,0,0,0,0,0,0,0,p,f
0,0,0,0,0,0,0,0,0,0,0,0,0,0,q,f
0,0,0,0,0,0,0,0,0,0,0,0,0,0,q,f
0,0,0,0,0,0,0,0,0,0,0,0,0,0,p,f
0,0,0,0,0,0,0,0,0,0,0,0,0,0,q,f
0,0,0,0,0,0,0,0,0,0,0,0,0,0,q,f
0,0,0,0,0,0,0,0,0,0,0,0,0,0,p,f
0,0,0,0,0,0,0,0,0,0,0,0,0,0,q,f
0,0,0,0,0,0,0,0,0,0,0,0,0,0,q,f
0,0,0,0,0,0,0,0,0,0,0,0,0,0,p,f
0,0,0,0,0,0,0,0,0,0,0,0,0,0,p,f
0,0,0,0,0,0,0,0,0,0,0,0,0,0,q,f
0,0,0,0,0,0,0,0,0,0,0,0,0,0,q,f
0,0,0,0,0,0,0,0,0,0,0,0,0,0,p,f
WAL m,c,q,p
EXT 15,0 b 15,15
PAL 0

ROOM b
0,0,0,0,0,0,0,0,0,0,0,0,0,0,q,f
0,0,0,0,0,0,0,0,0,0,0,0,0,0,q,f
0,0,0,0,0,0,0,0,0,0,0,0,0,0,p,f
0,0,0,0,0,0,0,0,0,0,0,0,0,0,q,f
0,0,0,0,0,0,0,0,0,0,0,0,0,0,q,f
0,0,0,0,0,0,0,0,0,0,0,0,0,0,p,f
0,0,0,0,0,0,0,0,0,0,0,0,0,0,q,f
0,0,0,0,0,0,0,0,0,0,0,0,0,0,q,f
0,0,0,0,0,0,0,0,0,0,0,0,0,0,p,f
0,0,0,0,0,0,0,0,0,0,0,0,0,0,q,f
0,0,0,0,0,0,0,0,0,0,0,0,0,0,q,f
0,0,0,0,0,0,0,0,0,0,0,0,0,0,p,f
0,0,0,0,0,0,0,0,0,0,0,0,0,0,p,f
0,0,0,0,0,0,0,0,0,0,0,0,0,0,q,f
0,0,0,0,0,0,0,0,0,0,0,0,0,0,q,f
0,0,0,0,0,0,0,0,0,0,0,0,0,0,p,f
WAL m,c,q,p
EXT 15,0 c 15,15
PAL 0

ROOM c
0,0,0,0,0,0,0,0,0,0,0,0,0,0,m,f
0,0,0,0,0,0,0,0,0,0,0,0,0,0,m,f
0,0,0,0,0,0,0,0,0,0,0,0,0,0,m,f
0,0,0,0,0,0,0,0,0,0,0,0,0,0,m,f
0,0,0,0,0,0,0,0,0,0,0,0,0,0,m,f
0,0,0,0,0,0,0,0,0,0,0,0,0,0,m,f
0,0,0,0,0,0,0,0,0,0,0,0,0,0,m,f
0,0,0,0,0,0,0,0,0,0,0,0,0,0,m,f
0,0,0,0,0,0,0,0,0,0,0,0,0,0,m,f
0,0,0,0,0,0,0,0,0,0,0,0,0,0,m,f
0,0,0,0,0,0,0,0,0,0,0,0,0,0,m,f
0,0,0,0,0,0,0,0,0,0,0,0,0,0,m,f
0,0,0,0,0,0,0,0,0,0,0,0,0,0,0,f
0,0,0,0,0,0,0,0,0,0,0,0,0,0,1m,f
0,0,0,0,0,0,0,0,0,0,0,0,0,0,q,f
0,0,0,0,0,0,0,0,0,0,0,0,0,0,p,f
WAL m,c,q,p,1m
EXT 15,0 d 0,15
PAL 0

ROOM d
0,0,0,0,0,0,0,0,0,0,1k,1k,1k,1k,1k,1k
0,0,0,0,0,0,0,0,0,0,1k,0,1k,1k,0,1k
0,0,0,0,0,0,0,0,0,0,1k,1k,1k,1k,1k,1k
0,0,0,0,0,0,0,0,0,0,1j,0,1j,0,1j,0
0,0,0,0,0,0,0,0,0,0,0,0,0,0,0,0
0,0,0,0,0,0,0,0,m,m,m,m,m,m,m,m
0,0,0,0,0,0,0,m,0,0,0,0,0,0,0,0
0,0,0,0,0,0,m,0,1l,1k,1n,2n,1n,2n,1n,2n
0,0,0,0,0,m,0,1l,15,15,1l,0,1l,0,1l,0
0,0,0,0,m,0,1l,15,15,15,15,15,15,15,15,15
0,0,0,m,0,1l,15,15,15,15,15,15,15,15,15,15
0,0,m,0,1l,15,15,15,15,15,15,15,15,15,15,15
0,m,0,1l,15,15,15,15,15,15,15,15,15,15,15,15
m,0,1l,15,15,15,15,15,15,15,15,15,15,15,15,15
f,1l,15,15,15,15,15,15,15,15,15,15,15,15,15,15
f,1j,15,15,15,15,15,15,15,15,15,15,15,15,15,15
WAL 1j,15,m,1n,1o,1k,2n
EXT 15,6 e 0,12
PAL 0

ROOM e
0,0,0,0,0,0,0,1q,1q,0,0,0,0,0,0,0
0,0,0,0,0,0,0,1q,1q,0,0,0,0,0,0,0
0,0,0,0,0,0,0,1q,1q,0,0,0,0,0,0,0
0,0,0,0,0,0,0,1q,1q,0,0,0,0,0,0,0
0,0,0,0,0,0,0,1q,1q,0,0,0,0,0,0,0
0,0,0,0,0,0,0,1q,1q,0,0,0,0,0,0,0
0,0,0,0,0,0,0,1q,1q,0,0,0,0,0,0,0
0,0,0,0,0,0,0,1q,1q,0,0,0,0,0,0,0
0,0,0,1q,1q,1q,1q,1q,1q,1q,1q,1q,1q,0,0,0
0,0,0,1q,1q,1q,1q,1q,1q,1q,1q,1q,1q,0,0,0
0,0,0,0,0,0,0,1q,1q,0,0,0,0,0,0,0
2t,2t,2t,2t,2t,2t,2t,2u,2u,2t,2t,2t,2t,2t,2t,2t
0,0,0,0,0,0,0,1q,1q,0,0,0,0,0,0,0
1o,1o,1o,1o,1o,1o,1o,1o,1o,1o,1o,1o,1o,1o,1o,1o
1p,1p,1p,1p,1p,1p,1p,1p,1p,1p,1p,1p,1p,1p,1p,1p
1p,1p,1p,1p,1p,1p,1p,1p,1p,1p,1p,1p,1p,1p,1p,1p
WAL 1o,2t,2u
EXT 15,12 f 0,12
PAL 2

ROOM f
0,0,0,0,0,0,0,0,0,0,0,0,0,0,0,0
0,0,0,1x,1w,0,2l,2m,0,1x,1w,0,0,0,0,0
0,0,0,22,21,0,2h,2i,0,21,21,0,0,0,0,0
0,0,0,23,23,0,2k,2j,0,23,23,0,0,0,0,0
0,0,0,23,23,0,27,27,0,23,23,0,0,0,0,0
0,0,0,23,23,0,0,0,0,23,23,0,0,0,0,0
0,0,0,23,26,t,u,u,t,26,23,0,0,0,0,0
1h,1h,1h,23,v,x,20,20,x,v,23,1h,1h,1h,1h,1h
1h,1h,0,24,1s,u,1s,1s,u,1s,25,0,0,0,0,0
1h,1h,f,2a,j,j,j,j,j,j,2a,i,i,i,i,i
1h,1h,f,29,0,0,0,0,0,0,29,2f,2f,2f,2f,2f
1h,1h,f,29,0,0,0,0,0,0,29,2e,2e,2e,2e,2e
0,0,f,28,0,0,0,0,0,0,28,2e,2e,2e,2e,2e
1o,1o,1o,2b,1o,1o,1o,1o,1o,1o,2c,1o,1o,1o,1o,1o
1p,1p,1p,2c,1p,1p,1p,1p,1p,1p,2c,1p,1p,1p,1p,1p
1p,1p,1p,2c,1p,1p,1p,1p,1p,1p,2c,1p,1p,1p,1p,1p
WAL j,2a,i,29,28,23,1o,x,v,20,1h
EXT 15,8 g 0,12
PAL 2

ROOM g
0,0,0,0,0,0,0,0,0,0,0,m,0,0,0,0
0,0,0,0,0,0,0,0,m,m,m,m,f,1o,1o,1o
0,0,0,0,0,0,0,m,0,0,0,0,f,1p,1p,1p
0,0,0,0,0,0,0,m,f,1o,1o,1o,1o,1p,1p,1p
0,0,0,m,m,m,m,m,f,1p,1p,1p,1p,1p,1p,1p
0,0,0,m,0,0,0,0,f,1p,1p,1p,1p,1p,1p,1p
0,0,0,m,f,1o,1o,1o,1o,1p,1p,1p,1p,1p,1p,1p
m,m,m,m,f,1p,1p,1p,1p,1p,1p,1p,1p,1p,1p,1p
m,0,0,0,f,1p,1p,1p,1p,1p,1p,1p,1p,1p,1p,1p
m,f,1o,1o,1o,1p,1p,1p,1p,1p,1p,1p,1p,1p,1p,1p
m,f,1p,1p,1p,1p,1p,1p,1p,1p,1p,1p,1p,1p,1p,1p
m,f,1p,1p,1p,1p,1p,1p,1p,1p,1p,1p,1p,1p,1p,1p
0,f,1p,1p,1p,1p,1p,1p,1p,1p,1p,1p,1p,1p,1p,1p
1o,1o,1p,1p,1p,1p,1p,1p,1p,1p,1p,1p,1p,1p,1p,1p
1p,1p,1p,1p,1p,1p,1p,1p,1p,1p,1p,1p,1p,1p,1p,1p
1p,1p,1p,1p,1p,1p,1p,1p,1p,1p,1p,1p,1p,1p,1p,1p
WAL 1p,1o,m
EXT 15,0 h 0,12
PAL 0

ROOM h
m,m,m,0,0,0,0,0,0,0,0,0,0,0,0,0
0,0,0,f,2q,2q,2q,2q,2q,2q,2q,2q,2q,2q,2q,2q
2q,2q,2q,f,2r,2r,2r,2s,2r,2r,2r,2r,2r,2r,2r,2r
2r,2r,2r,f,2q,2q,2q,2r,2r,2r,2r,2r,2r,2r,2r,2r
2q,2q,2q,f,2r,2r,2r,2s,2r,2r,2r,2r,2r,2r,2r,2r
2r,2r,2r,f,2q,2q,2q,2r,2r,2r,2r,2r,2r,2r,2r,2r
2q,2q,2q,f,2r,2r,2r,2s,2r,2r,2r,2r,2r,2r,2r,2r
2r,2r,2r,f,2q,2q,2q,2r,2r,2r,2r,2r,2r,2r,2r,2r
2q,2q,2q,f,2r,2r,2r,2s,2r,2r,2r,2r,2r,2r,2r,2r
2r,2r,2r,f,2q,2q,2q,2r,2r,2r,2r,2r,2r,2r,2r,2r
2q,2q,2q,f,2r,2r,2r,2s,2r,2r,2r,2r,2r,2r,2r,2r
2s,2s,2s,f,2q,2q,2q,2r,2r,2r,2r,2r,2r,2r,2r,2r
2r,2r,2r,f,2s,2r,2r,2r,2r,2r,2r,2r,2r,2r,2r,2r
2o,2o,2o,2o,2o,2o,2o,2o,2o,2o,2o,2o,2o,2o,2o,2o
2p,2p,2p,2p,2p,2p,2p,2p,2p,2p,2p,2p,2p,2p,2p,2p
2p,2p,2p,2p,2p,2p,2p,2p,2p,2p,2p,2p,2p,2p,2p,2p
WAL 2o,2q,2s,m
EXT 15,0 i 0,14
PAL 0

ROOM i
0,0,0,0,0,0,0,0,0,0,0,m,0,0,0,0
0,0,0,0,0,0,0,0,0,0,0,m,0,j,j,j
0,0,0,0,0,0,0,0,0,0,0,m,0,m,m,m
0,0,0,0,0,0,0,0,0,0,0,m,0,m,m,m
0,0,0,0,0,0,0,0,0,0,0,m,0,m,m,m
0,0,0,0,0,0,0,0,0,0,0,m,0,m,m,m
0,0,0,0,0,0,0,0,0,0,0,m,0,m,m,m
0,0,0,0,0,0,0,0,0,0,0,m,0,m,m,m
0,0,0,0,0,0,0,0,0,0,0,m,0,m,m,m
0,0,0,0,0,0,0,0,0,0,0,m,0,m,m,m
0,0,0,0,0,0,0,0,0,0,0,m,0,m,m,m
0,0,0,0,0,0,0,0,0,0,0,m,0,m,m,m
0,0,0,0,0,0,0,0,0,0,0,m,0,m,m,m
m,m,m,m,m,m,m,m,m,m,m,m,0,m,m,m
0,0,0,0,0,0,0,0,0,0,0,0,0,0,m,m
2n,2n,2n,2n,2n,2n,2n,2n,2n,2n,2n,2n,2n,2n,2n,2n
WAL j,m,2n
EXT 15,0 j 0,14
PAL 3

ROOM j
0,0,0,0,0,1h,1h,1h,1h,1h,1h,1h,1h,1h,1h,1h
0,0,0,0,0,1h,1h,1h,1h,1h,1h,1h,1h,1h,1h,1h
0,0,0,0,0,0,0,f,0,0,0,0,0,0,0,0
j,j,j,j,j,j,j,f,j,j,j,j,j,j,j,j
1h,1h,1h,1h,1h,1h,1h,f,1h,1h,1h,1h,1h,1h,1h,1h
0,0,0,0,0,0,0,f,0,0,0,0,0,0,0,0
j,j,j,j,j,j,j,f,j,j,j,j,j,j,j,j
1h,1h,1h,1h,1h,1h,1h,f,1h,1h,1h,1h,1h,1h,1h,1h
0,0,0,0,0,0,0,f,0,0,0,0,0,0,0,0
j,j,j,j,j,j,j,f,j,j,j,j,j,j,j,j
1h,1h,1h,1h,1h,1h,1h,f,1h,1h,1h,1h,1h,1h,1h,1h
0,0,0,0,0,0,0,f,0,0,0,0,0,0,0,0
1r,j,j,j,j,j,j,f,j,j,j,j,j,j,j,j
1h,1h,1h,1h,1h,1h,1h,f,1h,1h,1h,1h,1h,1h,1h,1h
0,0,0,0,0,0,0,f,0,0,0,0,0,0,0,0
j,j,j,j,j,j,j,j,j,j,j,j,j,j,j,j
WAL j,1h,1r
END undefined 12,2
PAL 3

TIL 10
11111111
11111111
11111111
00000000
00000000
00000000
00000000
00000000

TIL 11
11111111
11111111
11111111
00000111
00000111
00001111
00011111
00111111

TIL 12
00000000
00000000
11111111
11111111
11111111
11111111
11111111
11111111

TIL 14
11111100
11111110
11111111
11111111
11111111
11111111
11111111
11111111

TIL 15
11111111
11111111
11111111
11111111
11111111
11111111
11111111
11111111

TIL 16
00000111
00001101
00000111
00001101
00000111
00001101
00000111
00001101

TIL 17
00111000
00010000
00010000
00010000
00010000
00010000
00010000
00111000

TIL 18
00111000
00100000
00100000
00111000
00001000
00001000
00001000
00111000

TIL 19
00111000
00100000
00100000
00100000
00111000
00100000
00100000
00111000

TIL 20
11111111
11111111
11111111
01111110
00111100
00011000
00000000
00000000

TIL 21
11111111
11111111
11111111
11111111
11111101
01001001
01001001
01000000
>
11111111
11111111
11111111
11111111
11111101
01010000
00010000
00000000

TIL 22
11111111
11111111
11111111
11111110
10111110
10010010
00010000
00000000
>
11111111
11111111
11111111
11111110
10111110
10010010
10010010
10010010

TIL 23
00100101
00000000
01001000
00000001
00010000
01000100
00010000
10000010
>
10000000
00001001
00100000
00000000
10000010
00010000
10000010
00101000

TIL 24
00000000
00000000
00000100
01001101
00110010
00001100
00111100
00011000
>
00000000
00000100
00101100
10100000
00001110
01010110
01110000
00111000

TIL 25
00000000
00100000
00010100
01001101
00111010
00000000
00111000
00011000
>
00000000
00000101
00101010
10101000
00001010
01010100
01010100
00111100

TIL 26
10000001
00100100
00000000
00010000
10000001
00011100
01111110
11111111
>
00000000
00000001
01000100
00000000
00100000
10011101
01111110
11111111

TIL 27
00000000
00011000
00111100
01111110
01111110
01111110
00111100
00011000

TIL 28
00101100
00100100
01110110
11111111
11111111
11111111
11111111
11111111
>
00110100
00100100
01101110
11111111
11111111
11111111
11111111
11111111

TIL 29
00111100
00101100
00101100
00100100
00100100
00101100
00111100
00110100
>
00100100
00110100
00110100
00111100
00111100
00101100
00101100
00111100

TIL a
00101001
00000000
01000010
00010000
10000100
00100001
00001000
01000010

TIL b
00100101
00000000
01001000
00000001
00010000
01000100
00010000
10000010

TIL c
11111111
11111111
10101101
00100100
00100000
00000010
10001000
00100101

TIL d
00000000
00000000
00000000
00000000
00000000
00100000
10100100
10100100
>
00000000
00000000
00000000
00000000
00000000
00001000
01010010
10100100

TIL e
00000000
00000000
00000000
00000000
00000000
00000000
00101010
00101010
>
00000000
00000000
00000000
00000000
00000000
00000000
01010001
00101010

TIL f
00100100
00111100
00100100
00111100
00100100
00111100
00100100
00111100

TIL g
11011011
11011011
11011011
11011011
11011011
11011011
11011011
11011011

TIL h
11100111
11100111
10000001
10000001
11100111
11100111
11100111
11111111

TIL i
11111111
11111111
11111111
01111110
11111111
01111110
11111111
01100110

TIL j
11111111
11111111
11111111
01111110
00000000
00000000
00000000
00000000

TIL k
00011000
00011000
11111111
11111111
00011000
00011000
00011000
00011000

TIL l
00000000
01000010
00010000
10000000
00000101
00010000
01000000
00000100

TIL m
00000000
00000000
00000000
00000000
00000000
00000000
00000000
00000000

TIL n
11011011
11011011
11011011
11011011
11011011
11011011
11011011
11011011

TIL o
00100100
00100100
00100100
00100100
00100100
00100100
01011010
10011001

TIL p
00100100
00100100
00100100
00100100
00100100
00100100
01011010
01011010

TIL q
01100110
00111100
00100100
00110100
00100100
00110100
00100100
00111100

TIL r
00011000
00011000
00011000
01100110
01011010
01000010
00111100
01111110

TIL t
00000000
00000000
00000000
00000000
00000000
00011100
01111110
11111111

TIL u
00000000
00000000
00000000
00111100
01111110
11111111
11111111
11111111

TIL v
11111111
01111110
00011000
00000000
00000000
00000000
00000000
00000000

TIL w
11111111
11111100
01111000
00000000
00000000
00000000
00000000
00000000

TIL x
11111111
01111110
00011000
00000000
00000000
00000000
00000000
00000000

TIL y
00000000
00000000
00000000
00000000
00000000
00000000
00000000
00011000

TIL z
11111111
11111111
11111111
11100000
10000000
10000000
10000000
10000000

TIL 1a
01000100
01000100
01000100
01111100
00010000
00010000
00010000
00010000

TIL 1b
01111000
01001000
01001000
01001000
01001000
01001000
01001000
01111000

TIL 1c
01001000
01001000
01001000
01001000
01001000
01001000
01001000
01111000

TIL 1d
01111000
01001000
01001000
01000000
01000000
01001000
01001000
01111000

TIL 1e
01000100
01101100
01010100
01000100
01000100
01000100
01000100
01000100

TIL 1f
01111100
00010000
00010000
00010000
00010000
00010000
00010000
00010000

TIL 1g
00000111
00001101
00000111
00001101
00000111
00001101
00000111
00001101

TIL 1h
00000000
00000000
00000000
00000000
00000000
00000000
00000000
00000000

TIL 1i
11100111
01100110
00100100
01100110
10000001
10000001
11100111
11100111

TIL 1j
11111111
01111111
00111111
00011111
00001111
00000111
00000011
00000001

TIL 1k
11111111
11111111
11111111
11111111
11111111
11111111
11111111
11111111

TIL 1l
00000001
00000011
00000111
00001111
00011111
00111111
01111111
11111111

TIL 1m
11100111
11100111
11100111
11100111
10000001
10000001
11100111
11100111

TIL 1n
11111111
11111111
00000001
00000001
00000001
00000001
00000001
00000001

TIL 1o
11111111
11111111
11111111
01010101
10101010
01010101
10101010
01010101

TIL 1p
10101010
01010101
10101010
01010101
10101010
01010101
10101010
01010101

TIL 1q
11111111
11111111
11111111
11111111
11111111
11111111
11111111
11111111

TIL 1r
11111111
11111111
11111111
01111110
00111100
00000000
00000000
00000000

TIL 1s
00000000
00000000
00000000
00000000
00000000
00111100
01111110
11111111

TIL 1t
11111111
11111111
11111111
01111111
00111111
00011111
00000111
00000000

TIL 1u
11111111
11111111
11111111
01111111
00111111
00000000
00000000
00000000

TIL 1v
11111111
11111111
11111111
11111110
11111100
11111000
11110000
00000000

TIL 1w
11111110
11111111
11111111
11111111
11111111
11111111
11111111
11111111

TIL 1x
01111111
11111111
11111111
11111111
11111111
11111111
11111111
11111111

TIL 1y
00000000
00000000
00000000
00000000
00000000
00000000
11111100
11111110

TIL 1z
00000000
00000000
00000000
00000000
00000000
00000000
01111111
11111111

TIL 2a
11110111
01111110
01101110
00101100
00100100
00111100
00101100
00111100
>
11100111
01101110
01100110
00101100
00101100
00111100
00111100
00111100

TIL 2b
00010100
00010100
00010100
00010110
00110110
00110110
00000110
00100010
>
00100100
00100100
00100100
00110100
00011010
00010110
00110110
00010110

TIL 2c
00011100
00011100
01011000
00011100
00111100
01111100
00011100
00111010
>
00011100
01011100
00011110
00111100
00111000
00111100
00111100
01011000

TIL 2d
11111111
11111111
11111111
01111110
00111100
00100100
00100100
00100100

TIL 2e
00101100
00110100
00101100
00110100
00101100
00110100
00101100
00110100

TIL 2f
11111111
11111111
11111111
01111110
00101100
00110100
00101100
00110100

TIL 2g
00011000
00011000
00011000
00011000
00011000
11111111
11111111
00011000

TIL 2h
00000001
00000001
00000001
00000001
00001111
00001111
00000001
00000001

TIL 2i
10000000
10000000
10000000
10000000
11110000
11110000
10000000
10000000

TIL 2j
10000000
00000000
00000000
00000000
00000000
00000000
00000000
00000000

TIL 2k
00000001
00000000
00000000
00000000
00000000
00000000
00000000
00000000

TIL 2l
00000000
00000000
00000000
00000000
00000000
00000000
00000000
00000001

TIL 2m
00000000
00000000
00000000
00000000
00000000
00000000
00000000
10000000

TIL 2n
11111111
11111111
00000000
00000000
00000000
00000000
00000000
00000000

TIL 2o
11111111
11111111
10100101
01111110
00111100
01111110
10100101
11111111

TIL 2p
11011011
01111110
11011011
01111110
11011011
01111110
11011011
01111110

TIL 2q
11111111
11111111
00011000
00001000
00011000
00010000
00011000
00001000

TIL 2r
00010000
00011000
00001000
00011000
00011000
00010000
00011000
00001000

TIL 2s
00010000
00011000
00001000
00011000
00011000
00010000
00011000
00001000

TIL 2t
00000000
00000000
00000000
00000000
00000000
00000000
00000000
00000000

TIL 2u
11111111
11111111
11111111
11111111
11111111
11111111
11111111
11111111

TIL 2v
00000000
00000000
00000000
00000000
00000000
00000000
00000000
00000000

TIL 2w
11011011
11011011
11011011
11011011
11011011
11011011
11011011
11011011

SPR 10
00000000
00110000
00111100
01111110
01100010
01000010
01000010
00111110
>
00000000
00011000
00111100
00110110
01100010
01010110
01000010
00111110
POS j 4,0

SPR 11
00000000
00000000
00000000
00000000
00000000
00000000
00000000
00000000

SPR 12
00011100
00101000
00111100
01011000
00111100
00011000
00011000
00100100
>
00011100
00101000
00111100
01111010
00011100
00011000
00011000
00100100
POS j 1,2

SPR 13
00000000
00111100
00101000
00111100
00001000
00111100
00011000
00100100
>
00000000
00111100
00101000
00111100
00101010
00011100
00011000
00100100
POS j 1,2

SPR 14
00000000
00111100
00101000
00111100
01011000
00011100
00011000
00100100
>
00111100
00101000
00111100
01001000
00111100
00011000
00101000
00000000
POS j 0,2

SPR 15
00000000
00000000
00100000
01110000
00100000
01100101
10101111
11111111
POS j 1,5

SPR 16
00000000
00000000
00000000
00000000
00001000
00011100
00110110
01100111
POS j 0,5

SPR 17
00000000
00000000
00000000
00000000
00000000
11000000
01000000
11000000
DLG SPR_k
POS j 2,5

SPR 18
00000000
00000000
00000000
00000000
00000000
10100000
10101111
11111111
POS j 9,5

SPR 19
00000000
00000000
00000000
00000000
00000000
00000011
00000010
00000011
DLG SPR_j
POS j 8,5

SPR A
00011100
00100001
00111101
11011101
10001111
01011100
00111100
00100100
>
00011100
00100001
11011101
10001101
01011111
00111100
00111100
00001000
POS 0 1,12

SPR a
00111000
00001000
00111000
00011110
00111101
01011101
00011100
00010100
>
00000000
00111000
00001000
10111110
01111101
00011101
00011100
00010100
DLG SPR_0
POS 0 6,12

SPR b
00011100
00101000
00111100
01011000
00111100
01011010
00011000
00100100
>
00011100
00101000
00111100
01011010
00111100
01011000
00011000
00100100
DLG SPR_1
POS 0 0,6

SPR c
00111000
10001000
10111000
10011110
11111110
00011110
00011100
00010100
>
10000000
10111000
10001000
10111110
01111101
00011101
00011100
00010100
DLG SPR_2
POS 2 4,6

SPR d
10111100
10000100
10111111
10011011
11110001
00111011
00011111
00010100
>
00111100
10001111
10111011
10010001
10111011
11111111
00011100
00010100
DLG SPR_3
POS 2 7,12

SPR e
00111100
00000100
00111111
01011011
00110001
00011011
00011111
00010100
>
00111100
00001100
00111111
00011011
00110001
01011011
00011111
00010100
DLG SPR_4
POS 2 11,12

SPR f
01000010
00111100
10000111
10111101
10111000
11111101
10111111
00100100
>
01000010
00111111
10001101
10111000
10111101
11111111
10111100
00100100
DLG SPR_5
POS 2 15,6

SPR g
00000000
00000000
00000000
00111000
00100010
00111011
01111110
01111010
POS 3 0,4

SPR h
00000000
00111000
00111100
00111110
00101100
00101000
00100000
00100000
>
00000100
00111110
00111110
00111000
00100000
00100000
00100000
00100000
POS 3 0,2

SPR i
00000000
00111000
00111100
00111110
00101100
00101000
00100000
00100000
>
00000100
00111110
00111110
00111000
00100000
00100000
00100000
00100000
POS 3 1,8

SPR j
00000000
00111000
00111100
00111110
00101100
00101000
00100000
00100000
>
00000100
00111110
00111110
00111000
00100000
00100000
00100000
00100000
POS 3 2,8

SPR k
00001110
00011111
00010001
00110011
00111110
01110100
01101110
11011111
>
00111100
00100110
00100010
00110010
00011100
00110100
00101100
01110110
DLG SPR_6
POS c 14,12

SPR l
00000000
00000000
00000000
11111000
11111000
11111000
11111000
11111000
>
00000000
00000000
00000000
00000000
00000000
00000000
00000000
00000000
POS d 14,1

SPR m
00000000
00000000
00000000
11111000
11111000
11111000
11111000
11111000
>
00000000
00000000
00000000
00000000
00000000
00000000
00000000
00000000
POS d 11,1

SPR n
00001110
00011111
00011101
00111001
00111010
01111100
01111110
11111111
>
00111100
00100010
00100010
00110010
00011100
00111100
00111100
01111110
DLG SPR_a
POS h 0,9

SPR o
00000000
00111000
00100101
10100011
01110111
00111110
00111111
01111111
>
00000000
00011110
01010010
01110010
01100111
01111111
01111110
11111110
DLG SPR_8
POS h 6,10

SPR p
00000000
00001111
00110001
01111111
01111110
01110100
01110000
11111000
>
00000000
01110000
10010000
10001000
11011100
11111100
01111100
11111100
DLG SPR_9
POS h 6,8

SPR q
00000000
00000000
01000000
01001110
00111001
00110001
01111111
11111110
>
00000000
00000000
00010000
00101111
00110011
00110101
01111101
11111110
DLG SPR_b
POS h 0,7

SPR r
11111100
11000100
11000100
01100101
01111110
10111100
01111100
11111110
>
00011111
00010001
01011001
00111001
00111110
01111111
11111100
11111110
DLG SPR_c
POS h 0,5

SPR s
00001110
00010111
00010001
10010010
01010110
00111111
00111110
01111111
>
00000000
01111100
01001110
01000110
10100111
01111110
00111110
01111111
DLG SPR_d
POS h 6,6

SPR t
00001000
00010100
00100010
00110110
10011101
01111110
01111100
01111110
>
00000000
00011111
00010001
00010011
01011010
00111100
01111110
11111100
DLG SPR_e
POS h 0,3

SPR u
00000000
00000000
00111000
01001000
01001000
00111000
01111100
00111000
>
00000000
00000000
00110000
01001000
01001000
11111100
00111000
00111000
DLG SPR_7
POS h 6,4

SPR v
00000000
00011110
10111110
01110010
00100110
00111100
01111010
11111000
>
00111100
01000100
01100100
10111100
01111010
00111100
01111000
11111100
DLG SPR_f
POS h 0,1

SPR w
01110000
01001000
01000100
00100101
00111110
01111100
00111100
01111110
>
00001110
00010010
00010010
10110110
01111101
00111110
00111100
00111100
DLG SPR_g
POS h 6,2

SPR x
00111000
01101100
01000111
01000110
00100110
01111110
00011110
00111110
>
00001111
00011101
00010001
01010011
01011110
00111111
00111110
00111111
DLG SPR_h
POS i 13,14

SPR y
00111100
00111100
00111100
00111100
00111100
00111100
01111110
11111111
>
00111100
00111100
00111100
00111100
00111100
00111100
01111110
11111111
DLG SPR_l
POS j 4,2

SPR z
00111100
01111110
10111101
10111101
10111101
10111101
10111101
00111100
>
00111100
01111110
10111101
10111101
11111111
00000000
00111100
00111100
POS j 4,1

SPR 1a
00000000
00000000
00000000
00000000
00000000
00000000
01111000
11100110
POS j 12,5

SPR 1b
00000000
00000000
00000000
00000000
00000000
00000000
00100000
01111010
POS j 11,5

SPR 1c
00000000
00000000
00000000
00000000
00000000
00000000
00000100
11011110
POS j 10,5

SPR 1d
00000000
00000000
00000000
00000000
00000000
01010000
11110101
11111111
POS j 2,8

SPR 1e
00000000
00000000
00000000
00000000
00000000
00000000
11000000
01000000
DLG SPR_i
POS j 3,8

SPR 1f
00000000
00000000
00000000
00000000
00000000
00010000
00111000
11111111
POS j 0,8

SPR 1g
00000000
00000000
00000000
00000000
00000000
00000000
00000000
01001010
POS j 1,8

SPR 1h
00011000
00011000
01111110
01111110
00011000
00011000
01100110
11111111
POS j 13,0

SPR 1i
11000011
11111111
11111111
11100111
11000011
11000011
11100111
11111111
POS j 13,1

SPR 1j
10111101
10111101
10111101
10111101
10111101
10111101
10111101
10111101
POS j 13,2

ITM 0
00000000
00000000
00000000
00111100
01100100
00100100
00011000
00000000
DLG ITM_0

DLG SPR_0
GUARD:May your wits be as sharp as your blade. Those witches are as cunning as the devil himself. 

DLG ITM_0
You got a cup of tea! Nice.

DLG SPR_1
SERVANT:You are brave to face such evil. May God watch over you, witchfinder.

DLG SPR_2
GUARD:Good luck on your quest witchfinder. 

DLG SPR_3
GUARD:For the glory of God may you slay every single one of those heathens. 

DLG SPR_4
GUARD RECRUIT:There's no way you could get me to go to the castle of the damned. Scared? Not a chance, witchfinder. I don't want to dull my blade on all the witches I'd slay. Get lost. Don't you have somewhere to be? 

DLG SPR_5
CAPTAIN HASTINGS:I hope you have prepared well for the task ahead. Most of the witches you'll encounter are mere peasant trash but they all possess dark powers. Do not let their looks deceive you. King Lionskull's orders are for you to meet with the witch queen to negotiate a treaty, but there shall be no negotiation. You will kill her when the right moment comes. You are not to engage any of her servants until she is dead. It is likely you won't return, my friend. May God watch over you.

DLG SPR_6
WITCH:Dirty filthy filthy dirty dirty filthy filthy dirty!

DLG SPR_7
LITTLE WITCH:I'm only 8 but the queen says I'm one of the most powerful witches out of the 10 chosen. She also said you're here to kill us. Is that true? 

DLG SPR_8
CHOSEN WITCH:We dance for our dark queen! We dance for our dark father! Death to all who defy our queen!

DLG SPR_9
CHOSEN WITCH:Soon we will be unstoppable! 

DLG SPR_a
CHOSEN WITCH:You don't even realize what a fool you are for coming here. That sword and shield have no power here. Run along now the ritual is almost complete.

DLG SPR_b
CHOSEN WITCH:Don't bother me fool, I have no time to speak with the dead.

DLG SPR_c
CHOSEN WITCH:We are the chosen, none are more powerful than us. 

DLG SPR_d
CHOSEN WITCH:We know why you're here, you're not fooling anyone. Your kind thrives on hate, we kill for freedom, and we die for love. Your kind could never understand. You kill for what? Because you were told to? What is your purpose? Why are you here? 

DLG SPR_e
CHOSEN WITCH:We see everything. We hear everything. We are so close to knowing everything, so close! Once the ritual is complete we will ensure our protection and freedom from your kind. Tell your God he lost when you see him. 

DLG SPR_f
CHOSEN WITCH:Ah the mighty warrior! Coming to kill us all for his master no doubt? You sicken me, I have no words for you. 

DLG SPR_g
CHOSEN WITCH:The end of the suffering of our people is nigh! No more will our children live in fear of your unjust God. All hail the dark queen! Long live the dark queen! May we strike you and the rest of your kind down! 

DLG SPR_h
ASCENDED WITCH:There is only one way to reach our queen and that is to fly. Oh you cannot fly? What a pity. I can give you the ability to fly, but you must accept the dark father as your God, and denounce the false prophet. Deal? You still stick to your false idol? Such foolishness. Begone, the queen awaits. 

DLG SPR_i
His body has been torn in half and looks like it was partially eaten. 

DLG SPR_j
He's been ripped in half, what kind of monster could have done this?

DLG SPR_k
Another dead soldier. Looks like he was stabbed with his own sword by his own hand, his face stuck forever in time with a look of pure terror. 

DLG SPR_l
WITCH QUEEN:I've been expecting you. I know why you're here and what you intend to do, your king seems awfully fond of betrayal. You see young soldier, you were sent here for one reason. You and your daughter share the same ancient blood my coven needs for our final ritual. You come from a line of powerful assassins, your blood is nearly as potent as one of my chosen but I cannot spare a single one. Your army has taken too many already, I need the few I have left. In exchange for your life and the life of your daughter I would leave his kingdom be. Unfortunately I'm not one to keep my word with an enemy. However I do attempt to be fair. I will give you the opportunity to die alongside your daughter and your wife. You must think me evil, but you see we are very much alike. I seek to protect my family much like you do. I however am much better at it than you, and I will not allow you or anyone to get in the way of that. Your sword will do nothing but prolong the inevitable. End the fear and suffering of your family, move to the altar and lay down your sword and shield. 

END 0


END undefined
The soldier stricken with grief, and tears streaming down his face smashed the altar with all his might. The dark queen rushed towards him with a dagger. He fought with all he had, the screams and cries of his wife and daughter ringing in his ears. The witch queen took every stab, and every slash as if she felt nothing. He swung his sword one final time, it tore through the witch queen's throat. Her glowing red eyes dimmed as the blood gushed out of her. Terrible howls rocked the castle as the magical connection to their master was severed. The hero would now have to face a horde of witches. He fought for days against the witch queen's army, but he could fight no more. He fell right at the moment Captain Hastings arrived with a regiment of his finest soldiers. Finally the last witch was slain. The young soldier's family was saved. Years later the king was mortally wounded by an assassin, dying soon after saying only "She had her father's eyes." THE END. 

